FIPS,HR_UID,nameid,province,region,analysisTime,dates,pointprevalence_025,pointprevalence_50,pointprevalence_975,pointinfections_025,pointinfections_50,pointinfections_975,pointinfectious_025,pointinfectious_50,pointinfectious_975,pointinfectiousprevalence_025,pointinfectiousprevalence_50,pointinfectiousprevalence_975,infectrate_025,infectrate_50,infectrate_975
48111,0,USTexasDallam,Texas,Dallam,2022-04-28 09:13:11,2020-03-19,0,0,0,,,,,,,,,,,,
48111,0,USTexasDallam,Texas,Dallam,2022-04-28 09:13:11,2020-03-20,0,0,0,,,,,,,,,,,,
48111,0,USTexasDallam,Texas,Dallam,2022-04-28 09:13:11,2020-03-21,0,0,0,,,,,,,,,,,,
48111,0,USTexasDallam,Texas,Dallam,2022-04-28 09:13:11,2020-03-22,0,0,0,,,,,,,,,,,,
48111,0,USTexasDallam,Texas,Dallam,2022-04-28 09:13:11,2020-03-23,0,0,0,,,,,,,,,,,,
48111,0,USTexasDallam,Texas,Dallam,2022-04-28 09:13:11,2020-03-24,0,0,0,,,,,,,,,,,,
48111,0,USTexasDallam,Texas,Dallam,2022-04-28 09:13:11,2020-03-25,0,0,0,,,,,,,,,,,,
48111,0,USTexasDallam,Texas,Dallam,2022-04-28 09:13:11,2020-03-26,0,0,0,,,,,,,,,,,,
48111,0,USTexasDallam,Texas,Dallam,2022-04-28 09:13:11,2020-03-27,0,0,0,,,,,,,,,,,,
48111,0,USTexasDallam,Texas,Dallam,2022-04-28 09:13:11,2020-03-28,0,0,0,,,,,,,,,,,,
48111,0,USTexasDallam,Texas,Dallam,2022-04-28 09:13:11,2020-03-29,0,0,0,,,,,,,,,,,,
48111,0,USTexasDallam,Texas,Dallam,2022-04-28 09:13:11,2020-03-30,0,0,0,,,,,,,,,,,,
48111,0,USTexasDallam,Texas,Dallam,2022-04-28 09:13:11,2020-03-31,0,0,0,,,,,,,,,,,,
48111,0,USTexasDallam,Texas,Dallam,2022-04-28 09:13:11,2020-04-01,0,0,0,,,,,,,,,,,,
48111,0,USTexasDallam,Texas,Dallam,2022-04-28 09:13:11,2020-04-02,0,0,0,,,,,,,,,,,,
48111,0,USTexasDallam,Texas,Dallam,2022-04-28 09:13:11,2020-04-03,0,0,0,,,,,,,,,,,,
48111,0,USTexasDallam,Texas,Dallam,2022-04-28 09:13:11,2020-04-04,0,0,0,,,,,,,,,,,,
48111,0,USTexasDallam,Texas,Dallam,2022-04-28 09:13:11,2020-04-05,0,0,0,,,,,,,,,,,,
48111,0,USTexasDallam,Texas,Dallam,2022-04-28 09:13:11,2020-04-06,0,0,0,,,,,,,,,,,,
48111,0,USTexasDallam,Texas,Dallam,2022-04-28 09:13:11,2020-04-07,0,0,0,,,,,,,,,,,,
48111,0,USTexasDallam,Texas,Dallam,2022-04-28 09:13:11,2020-04-08,0,0,0,,,,,,,,,,,,
48111,0,USTexasDallam,Texas,Dallam,2022-04-28 09:13:11,2020-04-09,0,0,0,,,,,,,,,,,,
48111,0,USTexasDallam,Texas,Dallam,2022-04-28 09:13:11,2020-04-10,0,0,0,,,,,,,,,,,,
48111,0,USTexasDallam,Texas,Dallam,2022-04-28 09:13:11,2020-04-11,0,0,0,,,,,,,,,,,,
48111,0,USTexasDallam,Texas,Dallam,2022-04-28 09:13:11,2020-04-12,0,0,0,,,,,,,,,,,,
48111,0,USTexasDallam,Texas,Dallam,2022-04-28 09:13:11,2020-04-13,0,0,0,,,,,,,,,,,,
48111,0,USTexasDallam,Texas,Dallam,2022-04-28 09:13:11,2020-04-14,0,0,0,,,,,,,,,,,,
48111,0,USTexasDallam,Texas,Dallam,2022-04-28 09:13:11,2020-04-15,0,0,0,,,,,,,,,,,,
48111,0,USTexasDallam,Texas,Dallam,2022-04-28 09:13:11,2020-04-16,0.16394728132278832,0.4251620822325156,1.1862494119107396,,,,,,,,,,,,
48111,0,USTexasDallam,Texas,Dallam,2022-04-28 09:13:11,2020-04-17,0.16394728132278832,0.4251620822325156,1.1862494119107396,,,,,,,,,,,,
48111,0,USTexasDallam,Texas,Dallam,2022-04-28 09:13:11,2020-04-18,0.16394728132278832,0.4251620822325156,1.1862494119107396,,,,,,,,,,,,
48111,0,USTexasDallam,Texas,Dallam,2022-04-28 09:13:11,2020-04-19,0.16394728132278832,0.4251620822325156,1.1862494119107396,,,,,,,,,,,,
48111,0,USTexasDallam,Texas,Dallam,2022-04-28 09:13:11,2020-04-20,0.16394728132278832,0.4251620822325156,1.1862494119107396,,,,,,,,,,,,
48111,0,USTexasDallam,Texas,Dallam,2022-04-28 09:13:11,2020-04-21,0.16394728132278832,0.4251620822325156,1.1862494119107396,,,,,,,,,,,,
48111,0,USTexasDallam,Texas,Dallam,2022-04-28 09:13:11,2020-04-22,0.16394728132278832,0.4251620822325156,1.1862494119107396,,,,,,,,,,,,
48111,0,USTexasDallam,Texas,Dallam,2022-04-28 09:13:11,2020-04-23,0.43798937174274594,0.8931833075418196,1.9543574040594134,,,,,,,,,,,,
48111,0,USTexasDallam,Texas,Dallam,2022-04-28 09:13:11,2020-04-24,0.43798937174274594,0.8931833075418196,1.9543574040594134,,,,,,,,,,,,
48111,0,USTexasDallam,Texas,Dallam,2022-04-28 09:13:11,2020-04-25,0.43798937174274594,0.8931833075418196,1.9543574040594134,,,,,,,,,,,,
48111,0,USTexasDallam,Texas,Dallam,2022-04-28 09:13:11,2020-04-26,0.43798937174274594,0.8931833075418196,1.9543574040594134,,,,,,,,,,,,
48111,0,USTexasDallam,Texas,Dallam,2022-04-28 09:13:11,2020-04-27,0.43798937174274594,0.8931833075418196,1.9543574040594134,,,,,,,,,,,,
48111,0,USTexasDallam,Texas,Dallam,2022-04-28 09:13:11,2020-04-28,0.43798937174274594,0.8931833075418196,1.9543574040594134,,,,,,,,,,,,
48111,0,USTexasDallam,Texas,Dallam,2022-04-28 09:13:11,2020-04-29,0.43798937174274594,0.8931833075418196,1.9543574040594134,,,,,,,,,,,,
48111,0,USTexasDallam,Texas,Dallam,2022-04-28 09:13:11,2020-04-30,0.27147315538233413,0.5956790298261093,1.4051975888914352,,,,,,,,,,,,
48111,0,USTexasDallam,Texas,Dallam,2022-04-28 09:13:11,2020-05-01,0.27147315538233413,0.5956790298261093,1.4051975888914352,,,,,,,,,,,,
48111,0,USTexasDallam,Texas,Dallam,2022-04-28 09:13:11,2020-05-02,0.27147315538233413,0.5956790298261093,1.4051975888914352,,,,,,,,,,,,
48111,0,USTexasDallam,Texas,Dallam,2022-04-28 09:13:11,2020-05-03,0.27147315538233413,0.5956790298261093,1.4051975888914352,,,,,,,,,,,,
48111,0,USTexasDallam,Texas,Dallam,2022-04-28 09:13:11,2020-05-04,0.27147315538233413,0.5956790298261093,1.4051975888914352,,,,,,,,,,,,
48111,0,USTexasDallam,Texas,Dallam,2022-04-28 09:13:11,2020-05-05,0.27147315538233413,0.5956790298261093,1.4051975888914352,,,,,,,,,,,,
48111,0,USTexasDallam,Texas,Dallam,2022-04-28 09:13:11,2020-05-06,0.27147315538233413,0.5956790298261093,1.4051975888914352,,,,,,,,,,,,
48111,0,USTexasDallam,Texas,Dallam,2022-04-28 09:13:11,2020-05-07,0.22006392829195445,0.5175426671063799,1.3096899944238463,,,,,,,,,,,,
48111,0,USTexasDallam,Texas,Dallam,2022-04-28 09:13:11,2020-05-08,0.22006392829195445,0.5175426671063799,1.3096899944238463,,,,,,,,,,,,
48111,0,USTexasDallam,Texas,Dallam,2022-04-28 09:13:11,2020-05-09,0.22006392829195445,0.5175426671063799,1.3096899944238463,,,,,,,,,,,,
48111,0,USTexasDallam,Texas,Dallam,2022-04-28 09:13:11,2020-05-10,0.22006392829195445,0.5175426671063799,1.3096899944238463,,,,,,,,,,,,
48111,0,USTexasDallam,Texas,Dallam,2022-04-28 09:13:11,2020-05-11,0.22006392829195445,0.5175426671063799,1.3096899944238463,,,,,,,,,,,,
48111,0,USTexasDallam,Texas,Dallam,2022-04-28 09:13:11,2020-05-12,0.22006392829195445,0.5175426671063799,1.3096899944238463,,,,,,,,,,,,
48111,0,USTexasDallam,Texas,Dallam,2022-04-28 09:13:11,2020-05-13,0.22006392829195445,0.5175426671063799,1.3096899944238463,,,,,,,,,,,,
48111,0,USTexasDallam,Texas,Dallam,2022-04-28 09:13:11,2020-05-14,0.3063538534159162,0.6129739243219274,1.3150531384560191,,,,,,,,,,,,
48111,0,USTexasDallam,Texas,Dallam,2022-04-28 09:13:11,2020-05-15,0.3063538534159162,0.6129739243219274,1.3150531384560191,,,,,,,,,,,,
48111,0,USTexasDallam,Texas,Dallam,2022-04-28 09:13:11,2020-05-16,0.3063538534159162,0.6129739243219274,1.3150531384560191,,,,,,,,,,,,
48111,0,USTexasDallam,Texas,Dallam,2022-04-28 09:13:11,2020-05-17,0.3063538534159162,0.6129739243219274,1.3150531384560191,,,,,,,,,,,,
48111,0,USTexasDallam,Texas,Dallam,2022-04-28 09:13:11,2020-05-18,0.3063538534159162,0.6129739243219274,1.3150531384560191,,,,,,,,,,,,
48111,0,USTexasDallam,Texas,Dallam,2022-04-28 09:13:11,2020-05-19,0.3063538534159162,0.6129739243219274,1.3150531384560191,,,,,,,,,,,,
48111,0,USTexasDallam,Texas,Dallam,2022-04-28 09:13:11,2020-05-20,0.3063538534159162,0.6129739243219274,1.3150531384560191,,,,,,,,,,,,
48111,0,USTexasDallam,Texas,Dallam,2022-04-28 09:13:11,2020-05-21,0.3105334970834743,0.5325764248856406,0.9706759847773704,,,,,,,,,,,,
48111,0,USTexasDallam,Texas,Dallam,2022-04-28 09:13:11,2020-05-22,0.3105334970834743,0.5325764248856406,0.9706759847773704,,,,,,,,,,,,
48111,0,USTexasDallam,Texas,Dallam,2022-04-28 09:13:11,2020-05-23,0.3105334970834743,0.5325764248856406,0.9706759847773704,,,,,,,,,,,,
48111,0,USTexasDallam,Texas,Dallam,2022-04-28 09:13:11,2020-05-24,0.3105334970834743,0.5325764248856406,0.9706759847773704,,,,,,,,,,,,
48111,0,USTexasDallam,Texas,Dallam,2022-04-28 09:13:11,2020-05-25,0.3105334970834743,0.5325764248856406,0.9706759847773704,,,,,,,,,,,,
48111,0,USTexasDallam,Texas,Dallam,2022-04-28 09:13:11,2020-05-26,0.3105334970834743,0.5325764248856406,0.9706759847773704,,,,,,,,,,,,
48111,0,USTexasDallam,Texas,Dallam,2022-04-28 09:13:11,2020-05-27,0.3105334970834743,0.5325764248856406,0.9706759847773704,,,,,,,,,,,,
48111,0,USTexasDallam,Texas,Dallam,2022-04-28 09:13:11,2020-05-28,0.3352415061869414,0.6167246350635647,1.2115006943507935,,,,,,,,,,,,
48111,0,USTexasDallam,Texas,Dallam,2022-04-28 09:13:11,2020-05-29,0.3352415061869414,0.6167246350635647,1.2115006943507935,,,,,,,,,,,,
48111,0,USTexasDallam,Texas,Dallam,2022-04-28 09:13:11,2020-05-30,0.3352415061869414,0.6167246350635647,1.2115006943507935,,,,,,,,,,,,
48111,0,USTexasDallam,Texas,Dallam,2022-04-28 09:13:11,2020-05-31,0.3352415061869414,0.6167246350635647,1.2115006943507935,,,,,,,,,,,,
48111,0,USTexasDallam,Texas,Dallam,2022-04-28 09:13:11,2020-06-01,0.3352415061869414,0.6167246350635647,1.2115006943507935,,,,,,,,,,,,
48111,0,USTexasDallam,Texas,Dallam,2022-04-28 09:13:11,2020-06-02,0.3352415061869414,0.6167246350635647,1.2115006943507935,,,,,,,,,,,,
48111,0,USTexasDallam,Texas,Dallam,2022-04-28 09:13:11,2020-06-03,0.3352415061869414,0.6167246350635647,1.2115006943507935,,,,,,,,,,,,
48111,0,USTexasDallam,Texas,Dallam,2022-04-28 09:13:11,2020-06-04,0.49050416895578713,1.1075019774819106,2.689624266077364,,,,,,,,,,,,
48111,0,USTexasDallam,Texas,Dallam,2022-04-28 09:13:11,2020-06-05,0.49050416895578713,1.1075019774819106,2.689624266077364,,,,,,,,,,,,
48111,0,USTexasDallam,Texas,Dallam,2022-04-28 09:13:11,2020-06-06,0.49050416895578713,1.1075019774819106,2.689624266077364,,,,,,,,,,,,
48111,0,USTexasDallam,Texas,Dallam,2022-04-28 09:13:11,2020-06-07,0.49050416895578713,1.1075019774819106,2.689624266077364,,,,,,,,,,,,
48111,0,USTexasDallam,Texas,Dallam,2022-04-28 09:13:11,2020-06-08,0.49050416895578713,1.1075019774819106,2.689624266077364,,,,,,,,,,,,
48111,0,USTexasDallam,Texas,Dallam,2022-04-28 09:13:11,2020-06-09,0.49050416895578713,1.1075019774819106,2.689624266077364,,,,,,,,,,,,
48111,0,USTexasDallam,Texas,Dallam,2022-04-28 09:13:11,2020-06-10,0.49050416895578713,1.1075019774819106,2.689624266077364,,,,,,,,,,,,
48111,0,USTexasDallam,Texas,Dallam,2022-04-28 09:13:11,2020-06-11,0.3469282345865471,0.7764655833850552,1.8689342558353776,,,,,,,,,,,,
48111,0,USTexasDallam,Texas,Dallam,2022-04-28 09:13:11,2020-06-12,0.3469282345865471,0.7764655833850552,1.8689342558353776,,,,,,,,,,,,
48111,0,USTexasDallam,Texas,Dallam,2022-04-28 09:13:11,2020-06-13,0.3469282345865471,0.7764655833850552,1.8689342558353776,,,,,,,,,,,,
48111,0,USTexasDallam,Texas,Dallam,2022-04-28 09:13:11,2020-06-14,0.3469282345865471,0.7764655833850552,1.8689342558353776,,,,,,,,,,,,
48111,0,USTexasDallam,Texas,Dallam,2022-04-28 09:13:11,2020-06-15,0.3469282345865471,0.7764655833850552,1.8689342558353776,,,,,,,,,,,,
48111,0,USTexasDallam,Texas,Dallam,2022-04-28 09:13:11,2020-06-16,0.3469282345865471,0.7764655833850552,1.8689342558353776,,,,,,,,,,,,
48111,0,USTexasDallam,Texas,Dallam,2022-04-28 09:13:11,2020-06-17,0.3469282345865471,0.7764655833850552,1.8689342558353776,,,,,,,,,,,,
48111,0,USTexasDallam,Texas,Dallam,2022-04-28 09:13:11,2020-06-18,1.071714683225814,1.8975406642413082,3.5787893060749747,,,,,,,,,,,,
48111,0,USTexasDallam,Texas,Dallam,2022-04-28 09:13:11,2020-06-19,1.071714683225814,1.8975406642413082,3.5787893060749747,,,,,,,,,,,,
48111,0,USTexasDallam,Texas,Dallam,2022-04-28 09:13:11,2020-06-20,1.071714683225814,1.8975406642413082,3.5787893060749747,,,,,,,,,,,,
48111,0,USTexasDallam,Texas,Dallam,2022-04-28 09:13:11,2020-06-21,1.071714683225814,1.8975406642413082,3.5787893060749747,,,,,,,,,,,,
48111,0,USTexasDallam,Texas,Dallam,2022-04-28 09:13:11,2020-06-22,1.071714683225814,1.8975406642413082,3.5787893060749747,,,,,,,,,,,,
48111,0,USTexasDallam,Texas,Dallam,2022-04-28 09:13:11,2020-06-23,1.071714683225814,1.8975406642413082,3.5787893060749747,,,,,,,,,,,,
48111,0,USTexasDallam,Texas,Dallam,2022-04-28 09:13:11,2020-06-24,1.071714683225814,1.8975406642413082,3.5787893060749747,,,,,,,,,,,,
48111,0,USTexasDallam,Texas,Dallam,2022-04-28 09:13:11,2020-06-25,1.2262484889928607,2.0783714543316476,3.7400804616531573,,,,,,,,,,,,
48111,0,USTexasDallam,Texas,Dallam,2022-04-28 09:13:11,2020-06-26,1.2262484889928607,2.0783714543316476,3.7400804616531573,,,,,,,,,,,,
48111,0,USTexasDallam,Texas,Dallam,2022-04-28 09:13:11,2020-06-27,1.2262484889928607,2.0783714543316476,3.7400804616531573,,,,,,,,,,,,
48111,0,USTexasDallam,Texas,Dallam,2022-04-28 09:13:11,2020-06-28,1.2262484889928607,2.0783714543316476,3.7400804616531573,,,,,,,,,,,,
48111,0,USTexasDallam,Texas,Dallam,2022-04-28 09:13:11,2020-06-29,1.2262484889928607,2.0783714543316476,3.7400804616531573,,,,,,,,,,,,
48111,0,USTexasDallam,Texas,Dallam,2022-04-28 09:13:11,2020-06-30,1.2262484889928607,2.0783714543316476,3.7400804616531573,,,,,,,,,,,,
48111,0,USTexasDallam,Texas,Dallam,2022-04-28 09:13:11,2020-07-01,1.2262484889928607,2.0783714543316476,3.7400804616531573,,,,,,,,,,,,
48111,0,USTexasDallam,Texas,Dallam,2022-04-28 09:13:11,2020-07-02,0.9714626556403292,1.8242586545318382,3.662275580143528,,,,,,,,,,,,
48111,0,USTexasDallam,Texas,Dallam,2022-04-28 09:13:11,2020-07-03,0.9714626556403292,1.8242586545318382,3.662275580143528,,,,,,,,,,,,
48111,0,USTexasDallam,Texas,Dallam,2022-04-28 09:13:11,2020-07-04,0.9714626556403292,1.8242586545318382,3.662275580143528,,,,,,,,,,,,
48111,0,USTexasDallam,Texas,Dallam,2022-04-28 09:13:11,2020-07-05,0.9714626556403292,1.8242586545318382,3.662275580143528,,,,,,,,,,,,
48111,0,USTexasDallam,Texas,Dallam,2022-04-28 09:13:11,2020-07-06,0.9714626556403292,1.8242586545318382,3.662275580143528,,,,,,,,,,,,
48111,0,USTexasDallam,Texas,Dallam,2022-04-28 09:13:11,2020-07-07,0.9714626556403292,1.8242586545318382,3.662275580143528,,,,,,,,,,,,
48111,0,USTexasDallam,Texas,Dallam,2022-04-28 09:13:11,2020-07-08,0.9714626556403292,1.8242586545318382,3.662275580143528,,,,,,,,,,,,
48111,0,USTexasDallam,Texas,Dallam,2022-04-28 09:13:11,2020-07-09,1.970938053144097,3.1588046168672808,5.348613055708125,,,,,,,,,,,,
48111,0,USTexasDallam,Texas,Dallam,2022-04-28 09:13:11,2020-07-10,1.970938053144097,3.1588046168672808,5.348613055708125,,,,,,,,,,,,
48111,0,USTexasDallam,Texas,Dallam,2022-04-28 09:13:11,2020-07-11,1.970938053144097,3.1588046168672808,5.348613055708125,,,,,,,,,,,,
48111,0,USTexasDallam,Texas,Dallam,2022-04-28 09:13:11,2020-07-12,1.970938053144097,3.1588046168672808,5.348613055708125,,,,,,,,,,,,
48111,0,USTexasDallam,Texas,Dallam,2022-04-28 09:13:11,2020-07-13,1.970938053144097,3.1588046168672808,5.348613055708125,,,,,,,,,,,,
48111,0,USTexasDallam,Texas,Dallam,2022-04-28 09:13:11,2020-07-14,1.970938053144097,3.1588046168672808,5.348613055708125,,,,,,,,,,,,
48111,0,USTexasDallam,Texas,Dallam,2022-04-28 09:13:11,2020-07-15,1.970938053144097,3.1588046168672808,5.348613055708125,,,,,,,,,,,,
48111,0,USTexasDallam,Texas,Dallam,2022-04-28 09:13:11,2020-07-16,1.7655551463758068,3.0372497704190375,5.553935578452859,,,,,,,,,,,,
48111,0,USTexasDallam,Texas,Dallam,2022-04-28 09:13:11,2020-07-17,1.7655551463758068,3.0372497704190375,5.553935578452859,,,,,,,,,,,,
48111,0,USTexasDallam,Texas,Dallam,2022-04-28 09:13:11,2020-07-18,1.7655551463758068,3.0372497704190375,5.553935578452859,,,,,,,,,,,,
48111,0,USTexasDallam,Texas,Dallam,2022-04-28 09:13:11,2020-07-19,1.7655551463758068,3.0372497704190375,5.553935578452859,,,,,,,,,,,,
48111,0,USTexasDallam,Texas,Dallam,2022-04-28 09:13:11,2020-07-20,1.7655551463758068,3.0372497704190375,5.553935578452859,,,,,,,,,,,,
48111,0,USTexasDallam,Texas,Dallam,2022-04-28 09:13:11,2020-07-21,1.7655551463758068,3.0372497704190375,5.553935578452859,,,,,,,,,,,,
48111,0,USTexasDallam,Texas,Dallam,2022-04-28 09:13:11,2020-07-22,1.7655551463758068,3.0372497704190375,5.553935578452859,,,,,,,,,,,,
48111,0,USTexasDallam,Texas,Dallam,2022-04-28 09:13:11,2020-07-23,1.650926733554667,2.9951869461262106,5.797633851998608,,,,,,,,,,,,
48111,0,USTexasDallam,Texas,Dallam,2022-04-28 09:13:11,2020-07-24,1.650926733554667,2.9951869461262106,5.797633851998608,,,,,,,,,,,,
48111,0,USTexasDallam,Texas,Dallam,2022-04-28 09:13:11,2020-07-25,1.650926733554667,2.9951869461262106,5.797633851998608,,,,,,,,,,,,
48111,0,USTexasDallam,Texas,Dallam,2022-04-28 09:13:11,2020-07-26,1.650926733554667,2.9951869461262106,5.797633851998608,,,,,,,,,,,,
48111,0,USTexasDallam,Texas,Dallam,2022-04-28 09:13:11,2020-07-27,1.650926733554667,2.9951869461262106,5.797633851998608,,,,,,,,,,,,
48111,0,USTexasDallam,Texas,Dallam,2022-04-28 09:13:11,2020-07-28,1.650926733554667,2.9951869461262106,5.797633851998608,,,,,,,,,,,,
48111,0,USTexasDallam,Texas,Dallam,2022-04-28 09:13:11,2020-07-29,1.650926733554667,2.9951869461262106,5.797633851998608,,,,,,,,,,,,
48111,0,USTexasDallam,Texas,Dallam,2022-04-28 09:13:11,2020-07-30,0.5086026026108266,1.3579832165963555,3.899852764418562,,,,,,,,,,,,
48111,0,USTexasDallam,Texas,Dallam,2022-04-28 09:13:11,2020-07-31,0.5086026026108266,1.3579832165963555,3.899852764418562,,,,,,,,,,,,
48111,0,USTexasDallam,Texas,Dallam,2022-04-28 09:13:11,2020-08-01,0.5086026026108266,1.3579832165963555,3.899852764418562,,,,,,,,,,,,
48111,0,USTexasDallam,Texas,Dallam,2022-04-28 09:13:11,2020-08-02,0.5086026026108266,1.3579832165963555,3.899852764418562,,,,,,,,,,,,
48111,0,USTexasDallam,Texas,Dallam,2022-04-28 09:13:11,2020-08-03,0.5086026026108266,1.3579832165963555,3.899852764418562,,,,,,,,,,,,
48111,0,USTexasDallam,Texas,Dallam,2022-04-28 09:13:11,2020-08-04,0.5086026026108266,1.3579832165963555,3.899852764418562,,,,,,,,,,,,
48111,0,USTexasDallam,Texas,Dallam,2022-04-28 09:13:11,2020-08-05,0.5086026026108266,1.3579832165963555,3.899852764418562,,,,,,,,,,,,
48111,0,USTexasDallam,Texas,Dallam,2022-04-28 09:13:11,2020-08-06,1.3760893392487372,3.1998498693150483,8.00572307710933,,,,,,,,,,,,
48111,0,USTexasDallam,Texas,Dallam,2022-04-28 09:13:11,2020-08-07,1.3760893392487372,3.1998498693150483,8.00572307710933,,,,,,,,,,,,
48111,0,USTexasDallam,Texas,Dallam,2022-04-28 09:13:11,2020-08-08,1.3760893392487372,3.1998498693150483,8.00572307710933,,,,,,,,,,,,
48111,0,USTexasDallam,Texas,Dallam,2022-04-28 09:13:11,2020-08-09,1.3760893392487372,3.1998498693150483,8.00572307710933,,,,,,,,,,,,
48111,0,USTexasDallam,Texas,Dallam,2022-04-28 09:13:11,2020-08-10,1.3760893392487372,3.1998498693150483,8.00572307710933,,,,,,,,,,,,
48111,0,USTexasDallam,Texas,Dallam,2022-04-28 09:13:11,2020-08-11,1.3760893392487372,3.1998498693150483,8.00572307710933,,,,,,,,,,,,
48111,0,USTexasDallam,Texas,Dallam,2022-04-28 09:13:11,2020-08-12,1.3760893392487372,3.1998498693150483,8.00572307710933,,,,,,,,,,,,
48111,0,USTexasDallam,Texas,Dallam,2022-04-28 09:13:11,2020-08-13,0.3907424955801201,1.1783806520941345,3.813193011788102,,,,,,,,,,,,
48111,0,USTexasDallam,Texas,Dallam,2022-04-28 09:13:11,2020-08-14,0.3907424955801201,1.1783806520941345,3.813193011788102,,,,,,,,,,,,
48111,0,USTexasDallam,Texas,Dallam,2022-04-28 09:13:11,2020-08-15,0.3907424955801201,1.1783806520941345,3.813193011788102,,,,,,,,,,,,
48111,0,USTexasDallam,Texas,Dallam,2022-04-28 09:13:11,2020-08-16,0.3907424955801201,1.1783806520941345,3.813193011788102,,,,,,,,,,,,
48111,0,USTexasDallam,Texas,Dallam,2022-04-28 09:13:11,2020-08-17,0.3907424955801201,1.1783806520941345,3.813193011788102,,,,,,,,,,,,
48111,0,USTexasDallam,Texas,Dallam,2022-04-28 09:13:11,2020-08-18,0.3907424955801201,1.1783806520941345,3.813193011788102,,,,,,,,,,,,
48111,0,USTexasDallam,Texas,Dallam,2022-04-28 09:13:11,2020-08-19,0.3907424955801201,1.1783806520941345,3.813193011788102,,,,,,,,,,,,
48111,0,USTexasDallam,Texas,Dallam,2022-04-28 09:13:11,2020-08-20,0.45293380806110584,1.0925950531288176,2.8363350631821387,,,,,,,,,,,,
48111,0,USTexasDallam,Texas,Dallam,2022-04-28 09:13:11,2020-08-21,0.45293380806110584,1.0925950531288176,2.8363350631821387,,,,,,,,,,,,
48111,0,USTexasDallam,Texas,Dallam,2022-04-28 09:13:11,2020-08-22,0.45293380806110584,1.0925950531288176,2.8363350631821387,,,,,,,,,,,,
48111,0,USTexasDallam,Texas,Dallam,2022-04-28 09:13:11,2020-08-23,0.45293380806110584,1.0925950531288176,2.8363350631821387,,,,,,,,,,,,
48111,0,USTexasDallam,Texas,Dallam,2022-04-28 09:13:11,2020-08-24,0.45293380806110584,1.0925950531288176,2.8363350631821387,,,,,,,,,,,,
48111,0,USTexasDallam,Texas,Dallam,2022-04-28 09:13:11,2020-08-25,0.45293380806110584,1.0925950531288176,2.8363350631821387,,,,,,,,,,,,
48111,0,USTexasDallam,Texas,Dallam,2022-04-28 09:13:11,2020-08-26,0.45293380806110584,1.0925950531288176,2.8363350631821387,,,,,,,,,,,,
48111,0,USTexasDallam,Texas,Dallam,2022-04-28 09:13:11,2020-08-27,0.4579751018612868,1.115603341896471,2.9245432414741868,,,,,,,,,,,,
48111,0,USTexasDallam,Texas,Dallam,2022-04-28 09:13:11,2020-08-28,0.4579751018612868,1.115603341896471,2.9245432414741868,,,,,,,,,,,,
48111,0,USTexasDallam,Texas,Dallam,2022-04-28 09:13:11,2020-08-29,0.4579751018612868,1.115603341896471,2.9245432414741868,,,,,,,,,,,,
48111,0,USTexasDallam,Texas,Dallam,2022-04-28 09:13:11,2020-08-30,0.4579751018612868,1.115603341896471,2.9245432414741868,,,,,,,,,,,,
48111,0,USTexasDallam,Texas,Dallam,2022-04-28 09:13:11,2020-08-31,0.4579751018612868,1.115603341896471,2.9245432414741868,,,,,,,,,,,,
48111,0,USTexasDallam,Texas,Dallam,2022-04-28 09:13:11,2020-09-01,0.4579751018612868,1.115603341896471,2.9245432414741868,,,,,,,,,,,,
48111,0,USTexasDallam,Texas,Dallam,2022-04-28 09:13:11,2020-09-02,0.4579751018612868,1.115603341896471,2.9245432414741868,,,,,,,,,,,,
48111,0,USTexasDallam,Texas,Dallam,2022-04-28 09:13:11,2020-09-03,0.3236919147420568,0.8300206910311201,2.2901038284016804,,,,,,,,,,,,
48111,0,USTexasDallam,Texas,Dallam,2022-04-28 09:13:11,2020-09-04,0.3236919147420568,0.8300206910311201,2.2901038284016804,,,,,,,,,,,,
48111,0,USTexasDallam,Texas,Dallam,2022-04-28 09:13:11,2020-09-05,0.3236919147420568,0.8300206910311201,2.2901038284016804,,,,,,,,,,,,
48111,0,USTexasDallam,Texas,Dallam,2022-04-28 09:13:11,2020-09-06,0.3236919147420568,0.8300206910311201,2.2901038284016804,,,,,,,,,,,,
48111,0,USTexasDallam,Texas,Dallam,2022-04-28 09:13:11,2020-09-07,0.3236919147420568,0.8300206910311201,2.2901038284016804,,,,,,,,,,,,
48111,0,USTexasDallam,Texas,Dallam,2022-04-28 09:13:11,2020-09-08,0.3236919147420568,0.8300206910311201,2.2901038284016804,,,,,,,,,,,,
48111,0,USTexasDallam,Texas,Dallam,2022-04-28 09:13:11,2020-09-09,0.3236919147420568,0.8300206910311201,2.2901038284016804,,,,,,,,,,,,
48111,0,USTexasDallam,Texas,Dallam,2022-04-28 09:13:11,2020-09-10,0.6647167352147917,1.572766649020448,4.004358234888835,,,,,,,,,,,,
48111,0,USTexasDallam,Texas,Dallam,2022-04-28 09:13:11,2020-09-11,0.6647167352147917,1.572766649020448,4.004358234888835,,,,,,,,,,,,
48111,0,USTexasDallam,Texas,Dallam,2022-04-28 09:13:11,2020-09-12,0.6647167352147917,1.572766649020448,4.004358234888835,,,,,,,,,,,,
48111,0,USTexasDallam,Texas,Dallam,2022-04-28 09:13:11,2020-09-13,0.6647167352147917,1.572766649020448,4.004358234888835,,,,,,,,,,,,
48111,0,USTexasDallam,Texas,Dallam,2022-04-28 09:13:11,2020-09-14,0.6647167352147917,1.572766649020448,4.004358234888835,,,,,,,,,,,,
48111,0,USTexasDallam,Texas,Dallam,2022-04-28 09:13:11,2020-09-15,0.6647167352147917,1.572766649020448,4.004358234888835,,,,,,,,,,,,
48111,0,USTexasDallam,Texas,Dallam,2022-04-28 09:13:11,2020-09-16,0.6647167352147917,1.572766649020448,4.004358234888835,,,,,,,,,,,,
48111,0,USTexasDallam,Texas,Dallam,2022-04-28 09:13:11,2020-09-17,0.8561868163336298,1.7102107786913325,3.662558222879718,,,,,,,,,,,,
48111,0,USTexasDallam,Texas,Dallam,2022-04-28 09:13:11,2020-09-18,0.8561868163336298,1.7102107786913325,3.662558222879718,,,,,,,,,,,,
48111,0,USTexasDallam,Texas,Dallam,2022-04-28 09:13:11,2020-09-19,0.8561868163336298,1.7102107786913325,3.662558222879718,,,,,,,,,,,,
48111,0,USTexasDallam,Texas,Dallam,2022-04-28 09:13:11,2020-09-20,0.8561868163336298,1.7102107786913325,3.662558222879718,,,,,,,,,,,,
48111,0,USTexasDallam,Texas,Dallam,2022-04-28 09:13:11,2020-09-21,0.8561868163336298,1.7102107786913325,3.662558222879718,,,,,,,,,,,,
48111,0,USTexasDallam,Texas,Dallam,2022-04-28 09:13:11,2020-09-22,0.8561868163336298,1.7102107786913325,3.662558222879718,,,,,,,,,,,,
48111,0,USTexasDallam,Texas,Dallam,2022-04-28 09:13:11,2020-09-23,0.8561868163336298,1.7102107786913325,3.662558222879718,,,,,,,,,,,,
48111,0,USTexasDallam,Texas,Dallam,2022-04-28 09:13:11,2020-09-24,0.799055748587675,1.4988398080780079,3.0054639956197597,,,,,,,,,,,,
48111,0,USTexasDallam,Texas,Dallam,2022-04-28 09:13:11,2020-09-25,0.799055748587675,1.4988398080780079,3.0054639956197597,,,,,,,,,,,,
48111,0,USTexasDallam,Texas,Dallam,2022-04-28 09:13:11,2020-09-26,0.799055748587675,1.4988398080780079,3.0054639956197597,,,,,,,,,,,,
48111,0,USTexasDallam,Texas,Dallam,2022-04-28 09:13:11,2020-09-27,0.799055748587675,1.4988398080780079,3.0054639956197597,,,,,,,,,,,,
48111,0,USTexasDallam,Texas,Dallam,2022-04-28 09:13:11,2020-09-28,0.799055748587675,1.4988398080780079,3.0054639956197597,,,,,,,,,,,,
48111,0,USTexasDallam,Texas,Dallam,2022-04-28 09:13:11,2020-09-29,0.799055748587675,1.4988398080780079,3.0054639956197597,,,,,,,,,,,,
48111,0,USTexasDallam,Texas,Dallam,2022-04-28 09:13:11,2020-09-30,0.799055748587675,1.4988398080780079,3.0054639956197597,,,,,,,,,,,,
48111,0,USTexasDallam,Texas,Dallam,2022-04-28 09:13:11,2020-10-01,0.9287515180953032,1.588373713829236,2.886221350053807,,,,,,,,,,,,
48111,0,USTexasDallam,Texas,Dallam,2022-04-28 09:13:11,2020-10-02,0.9287515180953032,1.588373713829236,2.886221350053807,,,,,,,,,,,,
48111,0,USTexasDallam,Texas,Dallam,2022-04-28 09:13:11,2020-10-03,0.9287515180953032,1.588373713829236,2.886221350053807,,,,,,,,,,,,
48111,0,USTexasDallam,Texas,Dallam,2022-04-28 09:13:11,2020-10-04,0.9287515180953032,1.588373713829236,2.886221350053807,,,,,,,,,,,,
48111,0,USTexasDallam,Texas,Dallam,2022-04-28 09:13:11,2020-10-05,0.9287515180953032,1.588373713829236,2.886221350053807,,,,,,,,,,,,
48111,0,USTexasDallam,Texas,Dallam,2022-04-28 09:13:11,2020-10-06,0.9287515180953032,1.588373713829236,2.886221350053807,,,,,,,,,,,,
48111,0,USTexasDallam,Texas,Dallam,2022-04-28 09:13:11,2020-10-07,0.9287515180953032,1.588373713829236,2.886221350053807,,,,,,,,,,,,
48111,0,USTexasDallam,Texas,Dallam,2022-04-28 09:13:11,2020-10-08,1.1591277109955649,1.7972003753426613,2.9341839232798455,,,,,,,,,,,,
48111,0,USTexasDallam,Texas,Dallam,2022-04-28 09:13:11,2020-10-09,1.1591277109955649,1.7972003753426613,2.9341839232798455,,,,,,,,,,,,
48111,0,USTexasDallam,Texas,Dallam,2022-04-28 09:13:11,2020-10-10,1.1591277109955649,1.7972003753426613,2.9341839232798455,,,,,,,,,,,,
48111,0,USTexasDallam,Texas,Dallam,2022-04-28 09:13:11,2020-10-11,1.1591277109955649,1.7972003753426613,2.9341839232798455,,,,,,,,,,,,
48111,0,USTexasDallam,Texas,Dallam,2022-04-28 09:13:11,2020-10-12,1.1591277109955649,1.7972003753426613,2.9341839232798455,,,,,,,,,,,,
48111,0,USTexasDallam,Texas,Dallam,2022-04-28 09:13:11,2020-10-13,1.1591277109955649,1.7972003753426613,2.9341839232798455,,,,,,,,,,,,
48111,0,USTexasDallam,Texas,Dallam,2022-04-28 09:13:11,2020-10-14,1.1591277109955649,1.7972003753426613,2.9341839232798455,,,,,,,,,,,,
48111,0,USTexasDallam,Texas,Dallam,2022-04-28 09:13:11,2020-10-15,1.2633096597092786,2.0446653342775445,3.499501468502833,,,,,,,,,,,,
48111,0,USTexasDallam,Texas,Dallam,2022-04-28 09:13:11,2020-10-16,1.2633096597092786,2.0446653342775445,3.499501468502833,,,,,,,,,,,,
48111,0,USTexasDallam,Texas,Dallam,2022-04-28 09:13:11,2020-10-17,1.2633096597092786,2.0446653342775445,3.499501468502833,,,,,,,,,,,,
48111,0,USTexasDallam,Texas,Dallam,2022-04-28 09:13:11,2020-10-18,1.2633096597092786,2.0446653342775445,3.499501468502833,,,,,,,,,,,,
48111,0,USTexasDallam,Texas,Dallam,2022-04-28 09:13:11,2020-10-19,1.2633096597092786,2.0446653342775445,3.499501468502833,,,,,,,,,,,,
48111,0,USTexasDallam,Texas,Dallam,2022-04-28 09:13:11,2020-10-20,1.2633096597092786,2.0446653342775445,3.499501468502833,,,,,,,,,,,,
48111,0,USTexasDallam,Texas,Dallam,2022-04-28 09:13:11,2020-10-21,1.2633096597092786,2.0446653342775445,3.499501468502833,,,,,,,,,,,,
48111,0,USTexasDallam,Texas,Dallam,2022-04-28 09:13:11,2020-10-22,1.4271752133453255,2.337088261062294,4.0514482041626305,,,,,,,,,,,,
48111,0,USTexasDallam,Texas,Dallam,2022-04-28 09:13:11,2020-10-23,1.4271752133453255,2.337088261062294,4.0514482041626305,,,,,,,,,,,,
48111,0,USTexasDallam,Texas,Dallam,2022-04-28 09:13:11,2020-10-24,1.4271752133453255,2.337088261062294,4.0514482041626305,,,,,,,,,,,,
48111,0,USTexasDallam,Texas,Dallam,2022-04-28 09:13:11,2020-10-25,1.4271752133453255,2.337088261062294,4.0514482041626305,,,,,,,,,,,,
48111,0,USTexasDallam,Texas,Dallam,2022-04-28 09:13:11,2020-10-26,1.4271752133453255,2.337088261062294,4.0514482041626305,,,,,,,,,,,,
48111,0,USTexasDallam,Texas,Dallam,2022-04-28 09:13:11,2020-10-27,1.4271752133453255,2.337088261062294,4.0514482041626305,,,,,,,,,,,,
48111,0,USTexasDallam,Texas,Dallam,2022-04-28 09:13:11,2020-10-28,1.4271752133453255,2.337088261062294,4.0514482041626305,,,,,,,,,,,,
48111,0,USTexasDallam,Texas,Dallam,2022-04-28 09:13:11,2020-10-29,2.571674226319476,3.5514189620911156,5.093455296784169,,,,,,,,,,,,
48111,0,USTexasDallam,Texas,Dallam,2022-04-28 09:13:11,2020-10-30,2.571674226319476,3.5514189620911156,5.093455296784169,,,,,,,,,,,,
48111,0,USTexasDallam,Texas,Dallam,2022-04-28 09:13:11,2020-10-31,2.571674226319476,3.5514189620911156,5.093455296784169,,,,,,,,,,,,
48111,0,USTexasDallam,Texas,Dallam,2022-04-28 09:13:11,2020-11-01,2.571674226319476,3.5514189620911156,5.093455296784169,,,,,,,,,,,,
48111,0,USTexasDallam,Texas,Dallam,2022-04-28 09:13:11,2020-11-02,2.571674226319476,3.5514189620911156,5.093455296784169,,,,,,,,,,,,
48111,0,USTexasDallam,Texas,Dallam,2022-04-28 09:13:11,2020-11-03,2.571674226319476,3.5514189620911156,5.093455296784169,,,,,,,,,,,,
48111,0,USTexasDallam,Texas,Dallam,2022-04-28 09:13:11,2020-11-04,2.571674226319476,3.5514189620911156,5.093455296784169,,,,,,,,,,,,
48111,0,USTexasDallam,Texas,Dallam,2022-04-28 09:13:11,2020-11-05,2.7547615296752412,3.8813599449002534,5.694381946778114,,,,,,,,,,,,
48111,0,USTexasDallam,Texas,Dallam,2022-04-28 09:13:11,2020-11-06,2.7547615296752412,3.8813599449002534,5.694381946778114,,,,,,,,,,,,
48111,0,USTexasDallam,Texas,Dallam,2022-04-28 09:13:11,2020-11-07,2.7547615296752412,3.8813599449002534,5.694381946778114,,,,,,,,,,,,
48111,0,USTexasDallam,Texas,Dallam,2022-04-28 09:13:11,2020-11-08,2.7547615296752412,3.8813599449002534,5.694381946778114,,,,,,,,,,,,
48111,0,USTexasDallam,Texas,Dallam,2022-04-28 09:13:11,2020-11-09,2.7547615296752412,3.8813599449002534,5.694381946778114,,,,,,,,,,,,
48111,0,USTexasDallam,Texas,Dallam,2022-04-28 09:13:11,2020-11-10,2.7547615296752412,3.8813599449002534,5.694381946778114,,,,,,,,,,,,
48111,0,USTexasDallam,Texas,Dallam,2022-04-28 09:13:11,2020-11-11,2.7547615296752412,3.8813599449002534,5.694381946778114,,,,,,,,,,,,
48111,0,USTexasDallam,Texas,Dallam,2022-04-28 09:13:11,2020-11-12,2.4669675434054303,3.592019930971055,5.468365324168722,,,,,,,,,,,,
48111,0,USTexasDallam,Texas,Dallam,2022-04-28 09:13:11,2020-11-13,2.4669675434054303,3.592019930971055,5.468365324168722,,,,,,,,,,,,
48111,0,USTexasDallam,Texas,Dallam,2022-04-28 09:13:11,2020-11-14,2.4669675434054303,3.592019930971055,5.468365324168722,,,,,,,,,,,,
48111,0,USTexasDallam,Texas,Dallam,2022-04-28 09:13:11,2020-11-15,2.4669675434054303,3.592019930971055,5.468365324168722,,,,,,,,,,,,
48111,0,USTexasDallam,Texas,Dallam,2022-04-28 09:13:11,2020-11-16,2.4669675434054303,3.592019930971055,5.468365324168722,,,,,,,,,,,,
48111,0,USTexasDallam,Texas,Dallam,2022-04-28 09:13:11,2020-11-17,2.4669675434054303,3.592019930971055,5.468365324168722,,,,,,,,,,,,
48111,0,USTexasDallam,Texas,Dallam,2022-04-28 09:13:11,2020-11-18,2.4669675434054303,3.592019930971055,5.468365324168722,,,,,,,,,,,,
48111,0,USTexasDallam,Texas,Dallam,2022-04-28 09:13:11,2020-11-19,2.836975558803254,4.221705329060613,6.585389172476367,,,,,,,,,,,,
48111,0,USTexasDallam,Texas,Dallam,2022-04-28 09:13:11,2020-11-20,2.836975558803254,4.221705329060613,6.585389172476367,,,,,,,,,,,,
48111,0,USTexasDallam,Texas,Dallam,2022-04-28 09:13:11,2020-11-21,2.836975558803254,4.221705329060613,6.585389172476367,,,,,,,,,,,,
48111,0,USTexasDallam,Texas,Dallam,2022-04-28 09:13:11,2020-11-22,2.836975558803254,4.221705329060613,6.585389172476367,,,,,,,,,,,,
48111,0,USTexasDallam,Texas,Dallam,2022-04-28 09:13:11,2020-11-23,2.836975558803254,4.221705329060613,6.585389172476367,,,,,,,,,,,,
48111,0,USTexasDallam,Texas,Dallam,2022-04-28 09:13:11,2020-11-24,2.836975558803254,4.221705329060613,6.585389172476367,,,,,,,,,,,,
48111,0,USTexasDallam,Texas,Dallam,2022-04-28 09:13:11,2020-11-25,2.836975558803254,4.221705329060613,6.585389172476367,,,,,,,,,,,,
48111,0,USTexasDallam,Texas,Dallam,2022-04-28 09:13:11,2020-11-26,1.7470041847301192,3.1464478963768734,6.04332537563053,,,,,,,,,,,,
48111,0,USTexasDallam,Texas,Dallam,2022-04-28 09:13:11,2020-11-27,1.7470041847301192,3.1464478963768734,6.04332537563053,,,,,,,,,,,,
48111,0,USTexasDallam,Texas,Dallam,2022-04-28 09:13:11,2020-11-28,1.7470041847301192,3.1464478963768734,6.04332537563053,,,,,,,,,,,,
48111,0,USTexasDallam,Texas,Dallam,2022-04-28 09:13:11,2020-11-29,1.7470041847301192,3.1464478963768734,6.04332537563053,,,,,,,,,,,,
48111,0,USTexasDallam,Texas,Dallam,2022-04-28 09:13:11,2020-11-30,1.7470041847301192,3.1464478963768734,6.04332537563053,,,,,,,,,,,,
48111,0,USTexasDallam,Texas,Dallam,2022-04-28 09:13:11,2020-12-01,1.7470041847301192,3.1464478963768734,6.04332537563053,,,,,,,,,,,,
48111,0,USTexasDallam,Texas,Dallam,2022-04-28 09:13:11,2020-12-02,1.7470041847301192,3.1464478963768734,6.04332537563053,,,,,,,,,,,,
48111,0,USTexasDallam,Texas,Dallam,2022-04-28 09:13:11,2020-12-03,1.7118678127978966,3.0263150270232693,5.698294469461281,,,,,,,,,,,,
48111,0,USTexasDallam,Texas,Dallam,2022-04-28 09:13:11,2020-12-04,1.7118678127978966,3.0263150270232693,5.698294469461281,,,,,,,,,,,,
48111,0,USTexasDallam,Texas,Dallam,2022-04-28 09:13:11,2020-12-05,1.7118678127978966,3.0263150270232693,5.698294469461281,,,,,,,,,,,,
48111,0,USTexasDallam,Texas,Dallam,2022-04-28 09:13:11,2020-12-06,1.7118678127978966,3.0263150270232693,5.698294469461281,,,,,,,,,,,,
48111,0,USTexasDallam,Texas,Dallam,2022-04-28 09:13:11,2020-12-07,1.7118678127978966,3.0263150270232693,5.698294469461281,,,,,,,,,,,,
48111,0,USTexasDallam,Texas,Dallam,2022-04-28 09:13:11,2020-12-08,1.7118678127978966,3.0263150270232693,5.698294469461281,,,,,,,,,,,,
48111,0,USTexasDallam,Texas,Dallam,2022-04-28 09:13:11,2020-12-09,1.7118678127978966,3.0263150270232693,5.698294469461281,,,,,,,,,,,,
48111,0,USTexasDallam,Texas,Dallam,2022-04-28 09:13:11,2020-12-10,2.1729848407728274,4.1835854332903395,8.621785558339958,,,,,,,,,,,,
48111,0,USTexasDallam,Texas,Dallam,2022-04-28 09:13:11,2020-12-11,2.1729848407728274,4.1835854332903395,8.621785558339958,,,,,,,,,,,,
48111,0,USTexasDallam,Texas,Dallam,2022-04-28 09:13:11,2020-12-12,2.1729848407728274,4.1835854332903395,8.621785558339958,,,,,,,,,,,,
48111,0,USTexasDallam,Texas,Dallam,2022-04-28 09:13:11,2020-12-13,2.1729848407728274,4.1835854332903395,8.621785558339958,,,,,,,,,,,,
48111,0,USTexasDallam,Texas,Dallam,2022-04-28 09:13:11,2020-12-14,2.1729848407728274,4.1835854332903395,8.621785558339958,,,,,,,,,,,,
48111,0,USTexasDallam,Texas,Dallam,2022-04-28 09:13:11,2020-12-15,2.1729848407728274,4.1835854332903395,8.621785558339958,,,,,,,,,,,,
48111,0,USTexasDallam,Texas,Dallam,2022-04-28 09:13:11,2020-12-16,2.1729848407728274,4.1835854332903395,8.621785558339958,,,,,,,,,,,,
48111,0,USTexasDallam,Texas,Dallam,2022-04-28 09:13:11,2020-12-17,1.5995540362479403,3.10408011229038,6.45038102432601,,,,,,,,,,,,
48111,0,USTexasDallam,Texas,Dallam,2022-04-28 09:13:11,2020-12-18,1.5995540362479403,3.10408011229038,6.45038102432601,,,,,,,,,,,,
48111,0,USTexasDallam,Texas,Dallam,2022-04-28 09:13:11,2020-12-19,1.5995540362479403,3.10408011229038,6.45038102432601,,,,,,,,,,,,
48111,0,USTexasDallam,Texas,Dallam,2022-04-28 09:13:11,2020-12-20,1.5995540362479403,3.10408011229038,6.45038102432601,,,,,,,,,,,,
48111,0,USTexasDallam,Texas,Dallam,2022-04-28 09:13:11,2020-12-21,1.5995540362479403,3.10408011229038,6.45038102432601,,,,,,,,,,,,
48111,0,USTexasDallam,Texas,Dallam,2022-04-28 09:13:11,2020-12-22,1.5995540362479403,3.10408011229038,6.45038102432601,,,,,,,,,,,,
48111,0,USTexasDallam,Texas,Dallam,2022-04-28 09:13:11,2020-12-23,1.5995540362479403,3.10408011229038,6.45038102432601,,,,,,,,,,,,
48111,0,USTexasDallam,Texas,Dallam,2022-04-28 09:13:11,2020-12-24,1.2365864836055567,2.494693760690479,5.397944582570936,,,,,,,,,,,,
48111,0,USTexasDallam,Texas,Dallam,2022-04-28 09:13:11,2020-12-25,1.2365864836055567,2.494693760690479,5.397944582570936,,,,,,,,,,,,
48111,0,USTexasDallam,Texas,Dallam,2022-04-28 09:13:11,2020-12-26,1.2365864836055567,2.494693760690479,5.397944582570936,,,,,,,,,,,,
48111,0,USTexasDallam,Texas,Dallam,2022-04-28 09:13:11,2020-12-27,1.2365864836055567,2.494693760690479,5.397944582570936,,,,,,,,,,,,
48111,0,USTexasDallam,Texas,Dallam,2022-04-28 09:13:11,2020-12-28,1.2365864836055567,2.494693760690479,5.397944582570936,,,,,,,,,,,,
48111,0,USTexasDallam,Texas,Dallam,2022-04-28 09:13:11,2020-12-29,1.2365864836055567,2.494693760690479,5.397944582570936,,,,,,,,,,,,
48111,0,USTexasDallam,Texas,Dallam,2022-04-28 09:13:11,2020-12-30,1.2365864836055567,2.494693760690479,5.397944582570936,,,,,,,,,,,,
48111,0,USTexasDallam,Texas,Dallam,2022-04-28 09:13:11,2020-12-31,3.258904722993771,5.586473376168394,10.176690617668545,,,,,,,,,,,,
48111,0,USTexasDallam,Texas,Dallam,2022-04-28 09:13:11,2021-01-01,3.258904722993771,5.586473376168394,10.176690617668545,,,,,,,,,,,,
48111,0,USTexasDallam,Texas,Dallam,2022-04-28 09:13:11,2021-01-02,3.258904722993771,5.586473376168394,10.176690617668545,,,,,,,,,,,,
48111,0,USTexasDallam,Texas,Dallam,2022-04-28 09:13:11,2021-01-03,3.258904722993771,5.586473376168394,10.176690617668545,,,,,,,,,,,,
48111,0,USTexasDallam,Texas,Dallam,2022-04-28 09:13:11,2021-01-04,3.258904722993771,5.586473376168394,10.176690617668545,,,,,,,,,,,,
48111,0,USTexasDallam,Texas,Dallam,2022-04-28 09:13:11,2021-01-05,3.258904722993771,5.586473376168394,10.176690617668545,,,,,,,,,,,,
48111,0,USTexasDallam,Texas,Dallam,2022-04-28 09:13:11,2021-01-06,3.258904722993771,5.586473376168394,10.176690617668545,,,,,,,,,,,,
48111,0,USTexasDallam,Texas,Dallam,2022-04-28 09:13:11,2021-01-07,0.13402604686109482,0.5252005037121418,2.188309020296793,,,,,,,,,,,,
48111,0,USTexasDallam,Texas,Dallam,2022-04-28 09:13:11,2021-01-08,0.13402604686109482,0.5252005037121418,2.188309020296793,,,,,,,,,,,,
48111,0,USTexasDallam,Texas,Dallam,2022-04-28 09:13:11,2021-01-09,0.13402604686109482,0.5252005037121418,2.188309020296793,,,,,,,,,,,,
48111,0,USTexasDallam,Texas,Dallam,2022-04-28 09:13:11,2021-01-10,0.13402604686109482,0.5252005037121418,2.188309020296793,,,,,,,,,,,,
48111,0,USTexasDallam,Texas,Dallam,2022-04-28 09:13:11,2021-01-11,0.13402604686109482,0.5252005037121418,2.188309020296793,,,,,,,,,,,,
48111,0,USTexasDallam,Texas,Dallam,2022-04-28 09:13:11,2021-01-12,0.13402604686109482,0.5252005037121418,2.188309020296793,,,,,,,,,,,,
48111,0,USTexasDallam,Texas,Dallam,2022-04-28 09:13:11,2021-01-13,0.13402604686109482,0.5252005037121418,2.188309020296793,,,,,,,,,,,,
48111,0,USTexasDallam,Texas,Dallam,2022-04-28 09:13:11,2021-01-14,0.288171125803468,0.8567222741214086,2.733969353914565,,,,,,,,,,,,
48111,0,USTexasDallam,Texas,Dallam,2022-04-28 09:13:11,2021-01-15,0.288171125803468,0.8567222741214086,2.733969353914565,,,,,,,,,,,,
48111,0,USTexasDallam,Texas,Dallam,2022-04-28 09:13:11,2021-01-16,0.288171125803468,0.8567222741214086,2.733969353914565,,,,,,,,,,,,
48111,0,USTexasDallam,Texas,Dallam,2022-04-28 09:13:11,2021-01-17,0.288171125803468,0.8567222741214086,2.733969353914565,,,,,,,,,,,,
48111,0,USTexasDallam,Texas,Dallam,2022-04-28 09:13:11,2021-01-18,0.288171125803468,0.8567222741214086,2.733969353914565,,,,,,,,,,,,
48111,0,USTexasDallam,Texas,Dallam,2022-04-28 09:13:11,2021-01-19,0.288171125803468,0.8567222741214086,2.733969353914565,,,,,,,,,,,,
48111,0,USTexasDallam,Texas,Dallam,2022-04-28 09:13:11,2021-01-20,0.288171125803468,0.8567222741214086,2.733969353914565,,,,,,,,,,,,
48111,0,USTexasDallam,Texas,Dallam,2022-04-28 09:13:11,2021-01-21,2.509312085059509,4.108331852058816,7.120424416788053,,,,,,,,,,,,
48111,0,USTexasDallam,Texas,Dallam,2022-04-28 09:13:11,2021-01-22,2.509312085059509,4.108331852058816,7.120424416788053,,,,,,,,,,,,
48111,0,USTexasDallam,Texas,Dallam,2022-04-28 09:13:11,2021-01-23,2.509312085059509,4.108331852058816,7.120424416788053,,,,,,,,,,,,
48111,0,USTexasDallam,Texas,Dallam,2022-04-28 09:13:11,2021-01-24,2.509312085059509,4.108331852058816,7.120424416788053,,,,,,,,,,,,
48111,0,USTexasDallam,Texas,Dallam,2022-04-28 09:13:11,2021-01-25,2.509312085059509,4.108331852058816,7.120424416788053,,,,,,,,,,,,
48111,0,USTexasDallam,Texas,Dallam,2022-04-28 09:13:11,2021-01-26,2.509312085059509,4.108331852058816,7.120424416788053,,,,,,,,,,,,
48111,0,USTexasDallam,Texas,Dallam,2022-04-28 09:13:11,2021-01-27,2.509312085059509,4.108331852058816,7.120424416788053,,,,,,,,,,,,
48111,0,USTexasDallam,Texas,Dallam,2022-04-28 09:13:11,2021-01-28,2.2685413304013986,3.797857324249819,6.743771020506243,,,,,,,,,,,,
48111,0,USTexasDallam,Texas,Dallam,2022-04-28 09:13:11,2021-01-29,2.2685413304013986,3.797857324249819,6.743771020506243,,,,,,,,,,,,
48111,0,USTexasDallam,Texas,Dallam,2022-04-28 09:13:11,2021-01-30,2.2685413304013986,3.797857324249819,6.743771020506243,,,,,,,,,,,,
48111,0,USTexasDallam,Texas,Dallam,2022-04-28 09:13:11,2021-01-31,2.2685413304013986,3.797857324249819,6.743771020506243,,,,,,,,,,,,
48111,0,USTexasDallam,Texas,Dallam,2022-04-28 09:13:11,2021-02-01,2.2685413304013986,3.797857324249819,6.743771020506243,,,,,,,,,,,,
48111,0,USTexasDallam,Texas,Dallam,2022-04-28 09:13:11,2021-02-02,2.2685413304013986,3.797857324249819,6.743771020506243,,,,,,,,,,,,
48111,0,USTexasDallam,Texas,Dallam,2022-04-28 09:13:11,2021-02-03,2.2685413304013986,3.797857324249819,6.743771020506243,,,,,,,,,,,,
48111,0,USTexasDallam,Texas,Dallam,2022-04-28 09:13:11,2021-02-04,1.206656209094091,2.182511442804907,4.210916886811474,,,,,,,,,,,,
48111,0,USTexasDallam,Texas,Dallam,2022-04-28 09:13:11,2021-02-05,1.206656209094091,2.182511442804907,4.210916886811474,,,,,,,,,,,,
48111,0,USTexasDallam,Texas,Dallam,2022-04-28 09:13:11,2021-02-06,1.206656209094091,2.182511442804907,4.210916886811474,,,,,,,,,,,,
48111,0,USTexasDallam,Texas,Dallam,2022-04-28 09:13:11,2021-02-07,1.206656209094091,2.182511442804907,4.210916886811474,,,,,,,,,,,,
48111,0,USTexasDallam,Texas,Dallam,2022-04-28 09:13:11,2021-02-08,1.206656209094091,2.182511442804907,4.210916886811474,,,,,,,,,,,,
48111,0,USTexasDallam,Texas,Dallam,2022-04-28 09:13:11,2021-02-09,1.206656209094091,2.182511442804907,4.210916886811474,,,,,,,,,,,,
48111,0,USTexasDallam,Texas,Dallam,2022-04-28 09:13:11,2021-02-10,1.206656209094091,2.182511442804907,4.210916886811474,,,,,,,,,,,,
48111,0,USTexasDallam,Texas,Dallam,2022-04-28 09:13:11,2021-02-11,0.4035844867788944,1.0325786799498975,2.8426777649319983,,,,,,,,,,,,
48111,0,USTexasDallam,Texas,Dallam,2022-04-28 09:13:11,2021-02-12,0.4035844867788944,1.0325786799498975,2.8426777649319983,,,,,,,,,,,,
48111,0,USTexasDallam,Texas,Dallam,2022-04-28 09:13:11,2021-02-13,0.4035844867788944,1.0325786799498975,2.8426777649319983,,,,,,,,,,,,
48111,0,USTexasDallam,Texas,Dallam,2022-04-28 09:13:11,2021-02-14,0.4035844867788944,1.0325786799498975,2.8426777649319983,,,,,,,,,,,,
48111,0,USTexasDallam,Texas,Dallam,2022-04-28 09:13:11,2021-02-15,0.4035844867788944,1.0325786799498975,2.8426777649319983,,,,,,,,,,,,
48111,0,USTexasDallam,Texas,Dallam,2022-04-28 09:13:11,2021-02-16,0.4035844867788944,1.0325786799498975,2.8426777649319983,,,,,,,,,,,,
48111,0,USTexasDallam,Texas,Dallam,2022-04-28 09:13:11,2021-02-17,0.4035844867788944,1.0325786799498975,2.8426777649319983,,,,,,,,,,,,
48111,0,USTexasDallam,Texas,Dallam,2022-04-28 09:13:11,2021-02-18,5.763087171139965,6.801728532856995,8.153613441066696,,,,,,,,,,,,
48111,0,USTexasDallam,Texas,Dallam,2022-04-28 09:13:11,2021-02-19,5.763087171139965,6.801728532856995,8.153613441066696,,,,,,,,,,,,
48111,0,USTexasDallam,Texas,Dallam,2022-04-28 09:13:11,2021-02-20,5.763087171139965,6.801728532856995,8.153613441066696,,,,,,,,,,,,
48111,0,USTexasDallam,Texas,Dallam,2022-04-28 09:13:11,2021-02-21,5.763087171139965,6.801728532856995,8.153613441066696,,,,,,,,,,,,
48111,0,USTexasDallam,Texas,Dallam,2022-04-28 09:13:11,2021-02-22,5.763087171139965,6.801728532856995,8.153613441066696,,,,,,,,,,,,
48111,0,USTexasDallam,Texas,Dallam,2022-04-28 09:13:11,2021-02-23,5.763087171139965,6.801728532856995,8.153613441066696,,,,,,,,,,,,
48111,0,USTexasDallam,Texas,Dallam,2022-04-28 09:13:11,2021-02-24,5.763087171139965,6.801728532856995,8.153613441066696,,,,,,,,,,,,
48111,0,USTexasDallam,Texas,Dallam,2022-04-28 09:13:11,2021-02-25,2.4619835029273087,3.7589951749436317,6.033519963559635,,,,,,,,,,,,
48111,0,USTexasDallam,Texas,Dallam,2022-04-28 09:13:11,2021-02-26,2.4619835029273087,3.7589951749436317,6.033519963559635,,,,,,,,,,,,
48111,0,USTexasDallam,Texas,Dallam,2022-04-28 09:13:11,2021-02-27,2.4619835029273087,3.7589951749436317,6.033519963559635,,,,,,,,,,,,
48111,0,USTexasDallam,Texas,Dallam,2022-04-28 09:13:11,2021-02-28,2.4619835029273087,3.7589951749436317,6.033519963559635,,,,,,,,,,,,
48111,0,USTexasDallam,Texas,Dallam,2022-04-28 09:13:11,2021-03-01,2.4619835029273087,3.7589951749436317,6.033519963559635,,,,,,,,,,,,
48111,0,USTexasDallam,Texas,Dallam,2022-04-28 09:13:11,2021-03-02,2.4619835029273087,3.7589951749436317,6.033519963559635,,,,,,,,,,,,
48111,0,USTexasDallam,Texas,Dallam,2022-04-28 09:13:11,2021-03-03,2.4619835029273087,3.7589951749436317,6.033519963559635,,,,,,,,,,,,
48111,0,USTexasDallam,Texas,Dallam,2022-04-28 09:13:11,2021-03-04,5.868652188424798,6.963563431601644,8.398857435944167,,,,,,,,,,,,
48111,0,USTexasDallam,Texas,Dallam,2022-04-28 09:13:11,2021-03-05,5.868652188424798,6.963563431601644,8.398857435944167,,,,,,,,,,,,
48111,0,USTexasDallam,Texas,Dallam,2022-04-28 09:13:11,2021-03-06,5.868652188424798,6.963563431601644,8.398857435944167,,,,,,,,,,,,
48111,0,USTexasDallam,Texas,Dallam,2022-04-28 09:13:11,2021-03-07,5.868652188424798,6.963563431601644,8.398857435944167,,,,,,,,,,,,
48111,0,USTexasDallam,Texas,Dallam,2022-04-28 09:13:11,2021-03-08,5.868652188424798,6.963563431601644,8.398857435944167,,,,,,,,,,,,
48111,0,USTexasDallam,Texas,Dallam,2022-04-28 09:13:11,2021-03-09,5.868652188424798,6.963563431601644,8.398857435944167,,,,,,,,,,,,
48111,0,USTexasDallam,Texas,Dallam,2022-04-28 09:13:11,2021-03-10,5.868652188424798,6.963563431601644,8.398857435944167,,,,,,,,,,,,
48111,0,USTexasDallam,Texas,Dallam,2022-04-28 09:13:11,2021-03-11,0.302562229659425,0.7311538770729211,1.9014212746943864,,,,,,,,,,,,
48111,0,USTexasDallam,Texas,Dallam,2022-04-28 09:13:11,2021-03-12,0.302562229659425,0.7311538770729211,1.9014212746943864,,,,,,,,,,,,
48111,0,USTexasDallam,Texas,Dallam,2022-04-28 09:13:11,2021-03-13,0.302562229659425,0.7311538770729211,1.9014212746943864,,,,,,,,,,,,
48111,0,USTexasDallam,Texas,Dallam,2022-04-28 09:13:11,2021-03-14,0.302562229659425,0.7311538770729211,1.9014212746943864,,,,,,,,,,,,
48111,0,USTexasDallam,Texas,Dallam,2022-04-28 09:13:11,2021-03-15,0.302562229659425,0.7311538770729211,1.9014212746943864,,,,,,,,,,,,
48111,0,USTexasDallam,Texas,Dallam,2022-04-28 09:13:11,2021-03-16,0.302562229659425,0.7311538770729211,1.9014212746943864,,,,,,,,,,,,
48111,0,USTexasDallam,Texas,Dallam,2022-04-28 09:13:11,2021-03-17,0.302562229659425,0.7311538770729211,1.9014212746943864,,,,,,,,,,,,
48111,0,USTexasDallam,Texas,Dallam,2022-04-28 09:13:11,2021-03-18,0.33203992787064773,0.714487186273941,1.6521821835837118,,,,,,,,,,,,
48111,0,USTexasDallam,Texas,Dallam,2022-04-28 09:13:11,2021-03-19,0.33203992787064773,0.714487186273941,1.6521821835837118,,,,,,,,,,,,
48111,0,USTexasDallam,Texas,Dallam,2022-04-28 09:13:11,2021-03-20,0.33203992787064773,0.714487186273941,1.6521821835837118,,,,,,,,,,,,
48111,0,USTexasDallam,Texas,Dallam,2022-04-28 09:13:11,2021-03-21,0.33203992787064773,0.714487186273941,1.6521821835837118,,,,,,,,,,,,
48111,0,USTexasDallam,Texas,Dallam,2022-04-28 09:13:11,2021-03-22,0.33203992787064773,0.714487186273941,1.6521821835837118,,,,,,,,,,,,
48111,0,USTexasDallam,Texas,Dallam,2022-04-28 09:13:11,2021-03-23,0.33203992787064773,0.714487186273941,1.6521821835837118,,,,,,,,,,,,
48111,0,USTexasDallam,Texas,Dallam,2022-04-28 09:13:11,2021-03-24,0.33203992787064773,0.714487186273941,1.6521821835837118,,,,,,,,,,,,
48111,0,USTexasDallam,Texas,Dallam,2022-04-28 09:13:11,2021-03-25,0.29840053565079216,0.7123210149196776,1.8298322550732247,,,,,,,,,,,,
48111,0,USTexasDallam,Texas,Dallam,2022-04-28 09:13:11,2021-03-26,0.29840053565079216,0.7123210149196776,1.8298322550732247,,,,,,,,,,,,
48111,0,USTexasDallam,Texas,Dallam,2022-04-28 09:13:11,2021-03-27,0.29840053565079216,0.7123210149196776,1.8298322550732247,,,,,,,,,,,,
48111,0,USTexasDallam,Texas,Dallam,2022-04-28 09:13:11,2021-03-28,0.29840053565079216,0.7123210149196776,1.8298322550732247,,,,,,,,,,,,
48111,0,USTexasDallam,Texas,Dallam,2022-04-28 09:13:11,2021-03-29,0.29840053565079216,0.7123210149196776,1.8298322550732247,,,,,,,,,,,,
48111,0,USTexasDallam,Texas,Dallam,2022-04-28 09:13:11,2021-03-30,0.29840053565079216,0.7123210149196776,1.8298322550732247,,,,,,,,,,,,
48111,0,USTexasDallam,Texas,Dallam,2022-04-28 09:13:11,2021-03-31,0.29840053565079216,0.7123210149196776,1.8298322550732247,,,,,,,,,,,,
48111,0,USTexasDallam,Texas,Dallam,2022-04-28 09:13:11,2021-04-01,0.15026624688832244,0.36097108013731527,0.933151951626548,,,,,,,,,,,,
48111,0,USTexasDallam,Texas,Dallam,2022-04-28 09:13:11,2021-04-02,0.15026624688832244,0.36097108013731527,0.933151951626548,,,,,,,,,,,,
48111,0,USTexasDallam,Texas,Dallam,2022-04-28 09:13:11,2021-04-03,0.15026624688832244,0.36097108013731527,0.933151951626548,,,,,,,,,,,,
48111,0,USTexasDallam,Texas,Dallam,2022-04-28 09:13:11,2021-04-04,0.15026624688832244,0.36097108013731527,0.933151951626548,,,,,,,,,,,,
48111,0,USTexasDallam,Texas,Dallam,2022-04-28 09:13:11,2021-04-05,0.15026624688832244,0.36097108013731527,0.933151951626548,,,,,,,,,,,,
48111,0,USTexasDallam,Texas,Dallam,2022-04-28 09:13:11,2021-04-06,0.15026624688832244,0.36097108013731527,0.933151951626548,,,,,,,,,,,,
48111,0,USTexasDallam,Texas,Dallam,2022-04-28 09:13:11,2021-04-07,0.15026624688832244,0.36097108013731527,0.933151951626548,,,,,,,,,,,,
48111,0,USTexasDallam,Texas,Dallam,2022-04-28 09:13:11,2021-04-08,0.8813024843919742,1.5137632307733797,2.7635082752664504,,,,,,,,,,,,
48111,0,USTexasDallam,Texas,Dallam,2022-04-28 09:13:11,2021-04-09,0.8813024843919742,1.5137632307733797,2.7635082752664504,,,,,,,,,,,,
48111,0,USTexasDallam,Texas,Dallam,2022-04-28 09:13:11,2021-04-10,0.8813024843919742,1.5137632307733797,2.7635082752664504,,,,,,,,,,,,
48111,0,USTexasDallam,Texas,Dallam,2022-04-28 09:13:11,2021-04-11,0.8813024843919742,1.5137632307733797,2.7635082752664504,,,,,,,,,,,,
48111,0,USTexasDallam,Texas,Dallam,2022-04-28 09:13:11,2021-04-12,0.8813024843919742,1.5137632307733797,2.7635082752664504,,,,,,,,,,,,
48111,0,USTexasDallam,Texas,Dallam,2022-04-28 09:13:11,2021-04-13,0.8813024843919742,1.5137632307733797,2.7635082752664504,,,,,,,,,,,,
48111,0,USTexasDallam,Texas,Dallam,2022-04-28 09:13:11,2021-04-14,0.8813024843919742,1.5137632307733797,2.7635082752664504,,,,,,,,,,,,
48111,0,USTexasDallam,Texas,Dallam,2022-04-28 09:13:11,2021-04-15,0.559353370162662,1.0300501842567449,2.025607420382072,,,,,,,,,,,,
48111,0,USTexasDallam,Texas,Dallam,2022-04-28 09:13:11,2021-04-16,0.559353370162662,1.0300501842567449,2.025607420382072,,,,,,,,,,,,
48111,0,USTexasDallam,Texas,Dallam,2022-04-28 09:13:11,2021-04-17,0.559353370162662,1.0300501842567449,2.025607420382072,,,,,,,,,,,,
48111,0,USTexasDallam,Texas,Dallam,2022-04-28 09:13:11,2021-04-18,0.559353370162662,1.0300501842567449,2.025607420382072,,,,,,,,,,,,
48111,0,USTexasDallam,Texas,Dallam,2022-04-28 09:13:11,2021-04-19,0.559353370162662,1.0300501842567449,2.025607420382072,,,,,,,,,,,,
48111,0,USTexasDallam,Texas,Dallam,2022-04-28 09:13:11,2021-04-20,0.559353370162662,1.0300501842567449,2.025607420382072,,,,,,,,,,,,
48111,0,USTexasDallam,Texas,Dallam,2022-04-28 09:13:11,2021-04-21,0.559353370162662,1.0300501842567449,2.025607420382072,,,,,,,,,,,,
48111,0,USTexasDallam,Texas,Dallam,2022-04-28 09:13:11,2021-04-22,0.37488359140277117,0.7635048764722084,1.6683763453022926,,,,,,,,,,,,
48111,0,USTexasDallam,Texas,Dallam,2022-04-28 09:13:11,2021-04-23,0.37488359140277117,0.7635048764722084,1.6683763453022926,,,,,,,,,,,,
48111,0,USTexasDallam,Texas,Dallam,2022-04-28 09:13:11,2021-04-24,0.37488359140277117,0.7635048764722084,1.6683763453022926,,,,,,,,,,,,
48111,0,USTexasDallam,Texas,Dallam,2022-04-28 09:13:11,2021-04-25,0.37488359140277117,0.7635048764722084,1.6683763453022926,,,,,,,,,,,,
48111,0,USTexasDallam,Texas,Dallam,2022-04-28 09:13:11,2021-04-26,0.37488359140277117,0.7635048764722084,1.6683763453022926,,,,,,,,,,,,
48111,0,USTexasDallam,Texas,Dallam,2022-04-28 09:13:11,2021-04-27,0.37488359140277117,0.7635048764722084,1.6683763453022926,,,,,,,,,,,,
48111,0,USTexasDallam,Texas,Dallam,2022-04-28 09:13:11,2021-04-28,0.37488359140277117,0.7635048764722084,1.6683763453022926,,,,,,,,,,,,
48111,0,USTexasDallam,Texas,Dallam,2022-04-28 09:13:11,2021-04-29,0.3627918530927988,0.7172300931973191,1.5196088722095185,,,,,,,,,,,,
48111,0,USTexasDallam,Texas,Dallam,2022-04-28 09:13:11,2021-04-30,0.3627918530927988,0.7172300931973191,1.5196088722095185,,,,,,,,,,,,
48111,0,USTexasDallam,Texas,Dallam,2022-04-28 09:13:11,2021-05-01,0.3627918530927988,0.7172300931973191,1.5196088722095185,,,,,,,,,,,,
48111,0,USTexasDallam,Texas,Dallam,2022-04-28 09:13:11,2021-05-02,0.3627918530927988,0.7172300931973191,1.5196088722095185,,,,,,,,,,,,
48111,0,USTexasDallam,Texas,Dallam,2022-04-28 09:13:11,2021-05-03,0.3627918530927988,0.7172300931973191,1.5196088722095185,,,,,,,,,,,,
48111,0,USTexasDallam,Texas,Dallam,2022-04-28 09:13:11,2021-05-04,0.3627918530927988,0.7172300931973191,1.5196088722095185,,,,,,,,,,,,
48111,0,USTexasDallam,Texas,Dallam,2022-04-28 09:13:11,2021-05-05,0.3627918530927988,0.7172300931973191,1.5196088722095185,,,,,,,,,,,,
48111,0,USTexasDallam,Texas,Dallam,2022-04-28 09:13:11,2021-05-06,0.8743150043413589,1.346275928499669,2.181267444839674,,,,,,,,,,,,
48111,0,USTexasDallam,Texas,Dallam,2022-04-28 09:13:11,2021-05-07,0.8743150043413589,1.346275928499669,2.181267444839674,,,,,,,,,,,,
48111,0,USTexasDallam,Texas,Dallam,2022-04-28 09:13:11,2021-05-08,0.8743150043413589,1.346275928499669,2.181267444839674,,,,,,,,,,,,
48111,0,USTexasDallam,Texas,Dallam,2022-04-28 09:13:11,2021-05-09,0.8743150043413589,1.346275928499669,2.181267444839674,,,,,,,,,,,,
48111,0,USTexasDallam,Texas,Dallam,2022-04-28 09:13:11,2021-05-10,0.8743150043413589,1.346275928499669,2.181267444839674,,,,,,,,,,,,
48111,0,USTexasDallam,Texas,Dallam,2022-04-28 09:13:11,2021-05-11,0.8743150043413589,1.346275928499669,2.181267444839674,,,,,,,,,,,,
48111,0,USTexasDallam,Texas,Dallam,2022-04-28 09:13:11,2021-05-12,0.8743150043413589,1.346275928499669,2.181267444839674,,,,,,,,,,,,
48111,0,USTexasDallam,Texas,Dallam,2022-04-28 09:13:11,2021-05-13,0.0913350375139606,0.26008882845735243,0.7957685241489167,,,,,,,,,,,,
48111,0,USTexasDallam,Texas,Dallam,2022-04-28 09:13:11,2021-05-14,0.0913350375139606,0.26008882845735243,0.7957685241489167,,,,,,,,,,,,
48111,0,USTexasDallam,Texas,Dallam,2022-04-28 09:13:11,2021-05-15,0.0913350375139606,0.26008882845735243,0.7957685241489167,,,,,,,,,,,,
48111,0,USTexasDallam,Texas,Dallam,2022-04-28 09:13:11,2021-05-16,0.0913350375139606,0.26008882845735243,0.7957685241489167,,,,,,,,,,,,
48111,0,USTexasDallam,Texas,Dallam,2022-04-28 09:13:11,2021-05-17,0.0913350375139606,0.26008882845735243,0.7957685241489167,,,,,,,,,,,,
48111,0,USTexasDallam,Texas,Dallam,2022-04-28 09:13:11,2021-05-18,0.0913350375139606,0.26008882845735243,0.7957685241489167,,,,,,,,,,,,
48111,0,USTexasDallam,Texas,Dallam,2022-04-28 09:13:11,2021-05-19,0.0913350375139606,0.26008882845735243,0.7957685241489167,,,,,,,,,,,,
48111,0,USTexasDallam,Texas,Dallam,2022-04-28 09:13:11,2021-05-20,0.5982015135182938,0.9912248214743087,1.7405538336385993,,,,,,,,,,,,
48111,0,USTexasDallam,Texas,Dallam,2022-04-28 09:13:11,2021-05-21,0.5982015135182938,0.9912248214743087,1.7405538336385993,,,,,,,,,,,,
48111,0,USTexasDallam,Texas,Dallam,2022-04-28 09:13:11,2021-05-22,0.5982015135182938,0.9912248214743087,1.7405538336385993,,,,,,,,,,,,
48111,0,USTexasDallam,Texas,Dallam,2022-04-28 09:13:11,2021-05-23,0.5982015135182938,0.9912248214743087,1.7405538336385993,,,,,,,,,,,,
48111,0,USTexasDallam,Texas,Dallam,2022-04-28 09:13:11,2021-05-24,0.5982015135182938,0.9912248214743087,1.7405538336385993,,,,,,,,,,,,
48111,0,USTexasDallam,Texas,Dallam,2022-04-28 09:13:11,2021-05-25,0.5982015135182938,0.9912248214743087,1.7405538336385993,,,,,,,,,,,,
48111,0,USTexasDallam,Texas,Dallam,2022-04-28 09:13:11,2021-05-26,0.5982015135182938,0.9912248214743087,1.7405538336385993,,,,,,,,,,,,
48111,0,USTexasDallam,Texas,Dallam,2022-04-28 09:13:11,2021-05-27,0.18275651789288727,0.36376515261550035,0.7761795911154515,,,,,,,,,,,,
48111,0,USTexasDallam,Texas,Dallam,2022-04-28 09:13:11,2021-05-28,0.18275651789288727,0.36376515261550035,0.7761795911154515,,,,,,,,,,,,
48111,0,USTexasDallam,Texas,Dallam,2022-04-28 09:13:11,2021-05-29,0.18275651789288727,0.36376515261550035,0.7761795911154515,,,,,,,,,,,,
48111,0,USTexasDallam,Texas,Dallam,2022-04-28 09:13:11,2021-05-30,0.18275651789288727,0.36376515261550035,0.7761795911154515,,,,,,,,,,,,
48111,0,USTexasDallam,Texas,Dallam,2022-04-28 09:13:11,2021-05-31,0.18275651789288727,0.36376515261550035,0.7761795911154515,,,,,,,,,,,,
48111,0,USTexasDallam,Texas,Dallam,2022-04-28 09:13:11,2021-06-01,0.18275651789288727,0.36376515261550035,0.7761795911154515,,,,,,,,,,,,
48111,0,USTexasDallam,Texas,Dallam,2022-04-28 09:13:11,2021-06-02,0.18275651789288727,0.36376515261550035,0.7761795911154515,,,,,,,,,,,,
48111,0,USTexasDallam,Texas,Dallam,2022-04-28 09:13:11,2021-06-03,0.2261408396762401,0.5448169567090475,1.4125203231540286,,,,,,,,,,,,
48111,0,USTexasDallam,Texas,Dallam,2022-04-28 09:13:11,2021-06-04,0.2261408396762401,0.5448169567090475,1.4125203231540286,,,,,,,,,,,,
48111,0,USTexasDallam,Texas,Dallam,2022-04-28 09:13:11,2021-06-05,0.2261408396762401,0.5448169567090475,1.4125203231540286,,,,,,,,,,,,
48111,0,USTexasDallam,Texas,Dallam,2022-04-28 09:13:11,2021-06-06,0.2261408396762401,0.5448169567090475,1.4125203231540286,,,,,,,,,,,,
48111,0,USTexasDallam,Texas,Dallam,2022-04-28 09:13:11,2021-06-07,0.2261408396762401,0.5448169567090475,1.4125203231540286,,,,,,,,,,,,
48111,0,USTexasDallam,Texas,Dallam,2022-04-28 09:13:11,2021-06-08,0.2261408396762401,0.5448169567090475,1.4125203231540286,,,,,,,,,,,,
48111,0,USTexasDallam,Texas,Dallam,2022-04-28 09:13:11,2021-06-09,0.2261408396762401,0.5448169567090475,1.4125203231540286,,,,,,,,,,,,
48111,0,USTexasDallam,Texas,Dallam,2022-04-28 09:13:11,2021-06-10,0.08519001051500688,0.22844406422987065,0.6588479990064796,,,,,,,,,,,,
48111,0,USTexasDallam,Texas,Dallam,2022-04-28 09:13:11,2021-06-11,0.08519001051500688,0.22844406422987065,0.6588479990064796,,,,,,,,,,,,
48111,0,USTexasDallam,Texas,Dallam,2022-04-28 09:13:11,2021-06-12,0.08519001051500688,0.22844406422987065,0.6588479990064796,,,,,,,,,,,,
48111,0,USTexasDallam,Texas,Dallam,2022-04-28 09:13:11,2021-06-13,0.08519001051500688,0.22844406422987065,0.6588479990064796,,,,,,,,,,,,
48111,0,USTexasDallam,Texas,Dallam,2022-04-28 09:13:11,2021-06-14,0.08519001051500688,0.22844406422987065,0.6588479990064796,,,,,,,,,,,,
48111,0,USTexasDallam,Texas,Dallam,2022-04-28 09:13:11,2021-06-15,0.08519001051500688,0.22844406422987065,0.6588479990064796,,,,,,,,,,,,
48111,0,USTexasDallam,Texas,Dallam,2022-04-28 09:13:11,2021-06-16,0.08519001051500688,0.22844406422987065,0.6588479990064796,,,,,,,,,,,,
48111,0,USTexasDallam,Texas,Dallam,2022-04-28 09:13:11,2021-06-17,0,0,0,,,,,,,,,,,,
48111,0,USTexasDallam,Texas,Dallam,2022-04-28 09:13:11,2021-06-18,0,0,0,,,,,,,,,,,,
48111,0,USTexasDallam,Texas,Dallam,2022-04-28 09:13:11,2021-06-19,0,0,0,,,,,,,,,,,,
48111,0,USTexasDallam,Texas,Dallam,2022-04-28 09:13:11,2021-06-20,0,0,0,,,,,,,,,,,,
48111,0,USTexasDallam,Texas,Dallam,2022-04-28 09:13:11,2021-06-21,0,0,0,,,,,,,,,,,,
48111,0,USTexasDallam,Texas,Dallam,2022-04-28 09:13:11,2021-06-22,0,0,0,,,,,,,,,,,,
48111,0,USTexasDallam,Texas,Dallam,2022-04-28 09:13:11,2021-06-23,0,0,0,,,,,,,,,,,,
48111,0,USTexasDallam,Texas,Dallam,2022-04-28 09:13:11,2021-06-24,0.09112366841407431,0.25897158622797284,0.7908079426039769,,,,,,,,,,,,
48111,0,USTexasDallam,Texas,Dallam,2022-04-28 09:13:11,2021-06-25,0.09112366841407431,0.25897158622797284,0.7908079426039769,,,,,,,,,,,,
48111,0,USTexasDallam,Texas,Dallam,2022-04-28 09:13:11,2021-06-26,0.09112366841407431,0.25897158622797284,0.7908079426039769,,,,,,,,,,,,
48111,0,USTexasDallam,Texas,Dallam,2022-04-28 09:13:11,2021-06-27,0.09112366841407431,0.25897158622797284,0.7908079426039769,,,,,,,,,,,,
48111,0,USTexasDallam,Texas,Dallam,2022-04-28 09:13:11,2021-06-28,0.09112366841407431,0.25897158622797284,0.7908079426039769,,,,,,,,,,,,
48111,0,USTexasDallam,Texas,Dallam,2022-04-28 09:13:11,2021-06-29,0.09112366841407431,0.25897158622797284,0.7908079426039769,,,,,,,,,,,,
48111,0,USTexasDallam,Texas,Dallam,2022-04-28 09:13:11,2021-06-30,0.09112366841407431,0.25897158622797284,0.7908079426039769,,,,,,,,,,,,
48111,0,USTexasDallam,Texas,Dallam,2022-04-28 09:13:11,2021-07-01,0,0,0,,,,,,,,,,,,
48111,0,USTexasDallam,Texas,Dallam,2022-04-28 09:13:11,2021-07-02,0,0,0,,,,,,,,,,,,
48111,0,USTexasDallam,Texas,Dallam,2022-04-28 09:13:11,2021-07-03,0,0,0,,,,,,,,,,,,
48111,0,USTexasDallam,Texas,Dallam,2022-04-28 09:13:11,2021-07-04,0,0,0,,,,,,,,,,,,
48111,0,USTexasDallam,Texas,Dallam,2022-04-28 09:13:11,2021-07-05,0,0,0,,,,,,,,,,,,
48111,0,USTexasDallam,Texas,Dallam,2022-04-28 09:13:11,2021-07-06,0,0,0,,,,,,,,,,,,
48111,0,USTexasDallam,Texas,Dallam,2022-04-28 09:13:11,2021-07-07,0,0,0,,,,,,,,,,,,
48111,0,USTexasDallam,Texas,Dallam,2022-04-28 09:13:11,2021-07-08,0.10435411983158327,0.3327501441727105,1.1367187030460064,,,,,,,,,,,,
48111,0,USTexasDallam,Texas,Dallam,2022-04-28 09:13:11,2021-07-09,0.10435411983158327,0.3327501441727105,1.1367187030460064,,,,,,,,,,,,
48111,0,USTexasDallam,Texas,Dallam,2022-04-28 09:13:11,2021-07-10,0.10435411983158327,0.3327501441727105,1.1367187030460064,,,,,,,,,,,,
48111,0,USTexasDallam,Texas,Dallam,2022-04-28 09:13:11,2021-07-11,0.10435411983158327,0.3327501441727105,1.1367187030460064,,,,,,,,,,,,
48111,0,USTexasDallam,Texas,Dallam,2022-04-28 09:13:11,2021-07-12,0.10435411983158327,0.3327501441727105,1.1367187030460064,,,,,,,,,,,,
48111,0,USTexasDallam,Texas,Dallam,2022-04-28 09:13:11,2021-07-13,0.10435411983158327,0.3327501441727105,1.1367187030460064,,,,,,,,,,,,
48111,0,USTexasDallam,Texas,Dallam,2022-04-28 09:13:11,2021-07-14,0.10435411983158327,0.3327501441727105,1.1367187030460064,,,,,,,,,,,,
48111,0,USTexasDallam,Texas,Dallam,2022-04-28 09:13:11,2021-07-15,0.31052204984838394,0.7677643189763059,2.0428709855977565,,,,,,,,,,,,
48111,0,USTexasDallam,Texas,Dallam,2022-04-28 09:13:11,2021-07-16,0.31052204984838394,0.7677643189763059,2.0428709855977565,,,,,,,,,,,,
48111,0,USTexasDallam,Texas,Dallam,2022-04-28 09:13:11,2021-07-17,0.31052204984838394,0.7677643189763059,2.0428709855977565,,,,,,,,,,,,
48111,0,USTexasDallam,Texas,Dallam,2022-04-28 09:13:11,2021-07-18,0.31052204984838394,0.7677643189763059,2.0428709855977565,,,,,,,,,,,,
48111,0,USTexasDallam,Texas,Dallam,2022-04-28 09:13:11,2021-07-19,0.31052204984838394,0.7677643189763059,2.0428709855977565,,,,,,,,,,,,
48111,0,USTexasDallam,Texas,Dallam,2022-04-28 09:13:11,2021-07-20,0.31052204984838394,0.7677643189763059,2.0428709855977565,,,,,,,,,,,,
48111,0,USTexasDallam,Texas,Dallam,2022-04-28 09:13:11,2021-07-21,0.31052204984838394,0.7677643189763059,2.0428709855977565,,,,,,,,,,,,
48111,0,USTexasDallam,Texas,Dallam,2022-04-28 09:13:11,2021-07-22,0.25957605848121607,0.7055169200616758,2.061975236808421,,,,,,,,,,,,
48111,0,USTexasDallam,Texas,Dallam,2022-04-28 09:13:11,2021-07-23,0.25957605848121607,0.7055169200616758,2.061975236808421,,,,,,,,,,,,
48111,0,USTexasDallam,Texas,Dallam,2022-04-28 09:13:11,2021-07-24,0.25957605848121607,0.7055169200616758,2.061975236808421,,,,,,,,,,,,
48111,0,USTexasDallam,Texas,Dallam,2022-04-28 09:13:11,2021-07-25,0.25957605848121607,0.7055169200616758,2.061975236808421,,,,,,,,,,,,
48111,0,USTexasDallam,Texas,Dallam,2022-04-28 09:13:11,2021-07-26,0.25957605848121607,0.7055169200616758,2.061975236808421,,,,,,,,,,,,
48111,0,USTexasDallam,Texas,Dallam,2022-04-28 09:13:11,2021-07-27,0.25957605848121607,0.7055169200616758,2.061975236808421,,,,,,,,,,,,
48111,0,USTexasDallam,Texas,Dallam,2022-04-28 09:13:11,2021-07-28,0.25957605848121607,0.7055169200616758,2.061975236808421,,,,,,,,,,,,
48111,0,USTexasDallam,Texas,Dallam,2022-04-28 09:13:11,2021-07-29,0.0881931493558664,0.09255188648953068,0.09731464310382565,,,,,,,,,,,,
48111,0,USTexasDallam,Texas,Dallam,2022-04-28 09:13:11,2021-07-30,0.0881931493558664,0.09255188648953068,0.09731464310382565,,,,,,,,,,,,
48111,0,USTexasDallam,Texas,Dallam,2022-04-28 09:13:11,2021-07-31,0.0881931493558664,0.09255188648953068,0.09731464310382565,,,,,,,,,,,,
48111,0,USTexasDallam,Texas,Dallam,2022-04-28 09:13:11,2021-08-01,0.0881931493558664,0.09255188648953068,0.09731464310382565,,,,,,,,,,,,
48111,0,USTexasDallam,Texas,Dallam,2022-04-28 09:13:11,2021-08-02,0.0881931493558664,0.09255188648953068,0.09731464310382565,,,,,,,,,,,,
48111,0,USTexasDallam,Texas,Dallam,2022-04-28 09:13:11,2021-08-03,0.0881931493558664,0.09255188648953068,0.09731464310382565,,,,,,,,,,,,
48111,0,USTexasDallam,Texas,Dallam,2022-04-28 09:13:11,2021-08-04,0.0881931493558664,0.09255188648953068,0.09731464310382565,,,,,,,,,,,,
48111,0,USTexasDallam,Texas,Dallam,2022-04-28 09:13:11,2021-08-05,1.3536207066587829,3.4222019489652644,9.310223822816912,,,,,,,,,,,,
48111,0,USTexasDallam,Texas,Dallam,2022-04-28 09:13:11,2021-08-06,1.3536207066587829,3.4222019489652644,9.310223822816912,,,,,,,,,,,,
48111,0,USTexasDallam,Texas,Dallam,2022-04-28 09:13:11,2021-08-07,1.3536207066587829,3.4222019489652644,9.310223822816912,,,,,,,,,,,,
48111,0,USTexasDallam,Texas,Dallam,2022-04-28 09:13:11,2021-08-08,1.3536207066587829,3.4222019489652644,9.310223822816912,,,,,,,,,,,,
48111,0,USTexasDallam,Texas,Dallam,2022-04-28 09:13:11,2021-08-09,1.3536207066587829,3.4222019489652644,9.310223822816912,,,,,,,,,,,,
48111,0,USTexasDallam,Texas,Dallam,2022-04-28 09:13:11,2021-08-10,1.3536207066587829,3.4222019489652644,9.310223822816912,,,,,,,,,,,,
48111,0,USTexasDallam,Texas,Dallam,2022-04-28 09:13:11,2021-08-11,1.3536207066587829,3.4222019489652644,9.310223822816912,,,,,,,,,,,,
48111,0,USTexasDallam,Texas,Dallam,2022-04-28 09:13:11,2021-08-12,0.78102614684135,1.5350994840597214,3.232753675334122,,,,,,,,,,,,
48111,0,USTexasDallam,Texas,Dallam,2022-04-28 09:13:11,2021-08-13,0.78102614684135,1.5350994840597214,3.232753675334122,,,,,,,,,,,,
48111,0,USTexasDallam,Texas,Dallam,2022-04-28 09:13:11,2021-08-14,0.78102614684135,1.5350994840597214,3.232753675334122,,,,,,,,,,,,
48111,0,USTexasDallam,Texas,Dallam,2022-04-28 09:13:11,2021-08-15,0.78102614684135,1.5350994840597214,3.232753675334122,,,,,,,,,,,,
48111,0,USTexasDallam,Texas,Dallam,2022-04-28 09:13:11,2021-08-16,0.78102614684135,1.5350994840597214,3.232753675334122,,,,,,,,,,,,
48111,0,USTexasDallam,Texas,Dallam,2022-04-28 09:13:11,2021-08-17,0.78102614684135,1.5350994840597214,3.232753675334122,,,,,,,,,,,,
48111,0,USTexasDallam,Texas,Dallam,2022-04-28 09:13:11,2021-08-18,0.78102614684135,1.5350994840597214,3.232753675334122,,,,,,,,,,,,
48111,0,USTexasDallam,Texas,Dallam,2022-04-28 09:13:11,2021-08-19,1.9240477570901786,5.0786073309632,14.420147630919258,,,,,,,,,,,,
48111,0,USTexasDallam,Texas,Dallam,2022-04-28 09:13:11,2021-08-20,1.9240477570901786,5.0786073309632,14.420147630919258,,,,,,,,,,,,
48111,0,USTexasDallam,Texas,Dallam,2022-04-28 09:13:11,2021-08-21,1.9240477570901786,5.0786073309632,14.420147630919258,,,,,,,,,,,,
48111,0,USTexasDallam,Texas,Dallam,2022-04-28 09:13:11,2021-08-22,1.9240477570901786,5.0786073309632,14.420147630919258,,,,,,,,,,,,
48111,0,USTexasDallam,Texas,Dallam,2022-04-28 09:13:11,2021-08-23,1.9240477570901786,5.0786073309632,14.420147630919258,,,,,,,,,,,,
48111,0,USTexasDallam,Texas,Dallam,2022-04-28 09:13:11,2021-08-24,1.9240477570901786,5.0786073309632,14.420147630919258,,,,,,,,,,,,
48111,0,USTexasDallam,Texas,Dallam,2022-04-28 09:13:11,2021-08-25,1.9240477570901786,5.0786073309632,14.420147630919258,,,,,,,,,,,,
48111,0,USTexasDallam,Texas,Dallam,2022-04-28 09:13:11,2021-08-26,2.742909291824928,7.014508934612593,19.301907639610732,,,,,,,,,,,,
48111,0,USTexasDallam,Texas,Dallam,2022-04-28 09:13:11,2021-08-27,2.742909291824928,7.014508934612593,19.301907639610732,,,,,,,,,,,,
48111,0,USTexasDallam,Texas,Dallam,2022-04-28 09:13:11,2021-08-28,2.742909291824928,7.014508934612593,19.301907639610732,,,,,,,,,,,,
48111,0,USTexasDallam,Texas,Dallam,2022-04-28 09:13:11,2021-08-29,2.742909291824928,7.014508934612593,19.301907639610732,,,,,,,,,,,,
48111,0,USTexasDallam,Texas,Dallam,2022-04-28 09:13:11,2021-08-30,2.742909291824928,7.014508934612593,19.301907639610732,,,,,,,,,,,,
48111,0,USTexasDallam,Texas,Dallam,2022-04-28 09:13:11,2021-08-31,2.742909291824928,7.014508934612593,19.301907639610732,,,,,,,,,,,,
48111,0,USTexasDallam,Texas,Dallam,2022-04-28 09:13:11,2021-09-01,2.742909291824928,7.014508934612593,19.301907639610732,,,,,,,,,,,,
48111,0,USTexasDallam,Texas,Dallam,2022-04-28 09:13:11,2021-09-02,0.8365781960451082,1.3698861373617988,2.3746410295843225,,,,,,,,,,,,
48111,0,USTexasDallam,Texas,Dallam,2022-04-28 09:13:11,2021-09-03,0.8365781960451082,1.3698861373617988,2.3746410295843225,,,,,,,,,,,,
48111,0,USTexasDallam,Texas,Dallam,2022-04-28 09:13:11,2021-09-04,0.8365781960451082,1.3698861373617988,2.3746410295843225,,,,,,,,,,,,
48111,0,USTexasDallam,Texas,Dallam,2022-04-28 09:13:11,2021-09-05,0.8365781960451082,1.3698861373617988,2.3746410295843225,,,,,,,,,,,,
48111,0,USTexasDallam,Texas,Dallam,2022-04-28 09:13:11,2021-09-06,0.8365781960451082,1.3698861373617988,2.3746410295843225,,,,,,,,,,,,
48111,0,USTexasDallam,Texas,Dallam,2022-04-28 09:13:11,2021-09-07,0.8365781960451082,1.3698861373617988,2.3746410295843225,,,,,,,,,,,,
48111,0,USTexasDallam,Texas,Dallam,2022-04-28 09:13:11,2021-09-08,0.8365781960451082,1.3698861373617988,2.3746410295843225,,,,,,,,,,,,
48111,0,USTexasDallam,Texas,Dallam,2022-04-28 09:13:11,2021-09-09,3.2689902138357803,7.195293487212625,17.02741533517517,,,,,,,,,,,,
48111,0,USTexasDallam,Texas,Dallam,2022-04-28 09:13:11,2021-09-10,3.2689902138357803,7.195293487212625,17.02741533517517,,,,,,,,,,,,
48111,0,USTexasDallam,Texas,Dallam,2022-04-28 09:13:11,2021-09-11,3.2689902138357803,7.195293487212625,17.02741533517517,,,,,,,,,,,,
48111,0,USTexasDallam,Texas,Dallam,2022-04-28 09:13:11,2021-09-12,3.2689902138357803,7.195293487212625,17.02741533517517,,,,,,,,,,,,
48111,0,USTexasDallam,Texas,Dallam,2022-04-28 09:13:11,2021-09-13,3.2689902138357803,7.195293487212625,17.02741533517517,,,,,,,,,,,,
48111,0,USTexasDallam,Texas,Dallam,2022-04-28 09:13:11,2021-09-14,3.2689902138357803,7.195293487212625,17.02741533517517,,,,,,,,,,,,
48111,0,USTexasDallam,Texas,Dallam,2022-04-28 09:13:11,2021-09-15,3.2689902138357803,7.195293487212625,17.02741533517517,,,,,,,,,,,,
48111,0,USTexasDallam,Texas,Dallam,2022-04-28 09:13:11,2021-09-16,1.236520126872013,3.0452249046437556,8.070813163228307,,,,,,,,,,,,
48111,0,USTexasDallam,Texas,Dallam,2022-04-28 09:13:11,2021-09-17,1.236520126872013,3.0452249046437556,8.070813163228307,,,,,,,,,,,,
48111,0,USTexasDallam,Texas,Dallam,2022-04-28 09:13:11,2021-09-18,1.236520126872013,3.0452249046437556,8.070813163228307,,,,,,,,,,,,
48111,0,USTexasDallam,Texas,Dallam,2022-04-28 09:13:11,2021-09-19,1.236520126872013,3.0452249046437556,8.070813163228307,,,,,,,,,,,,
48111,0,USTexasDallam,Texas,Dallam,2022-04-28 09:13:11,2021-09-20,1.236520126872013,3.0452249046437556,8.070813163228307,,,,,,,,,,,,
48111,0,USTexasDallam,Texas,Dallam,2022-04-28 09:13:11,2021-09-21,1.236520126872013,3.0452249046437556,8.070813163228307,,,,,,,,,,,,
48111,0,USTexasDallam,Texas,Dallam,2022-04-28 09:13:11,2021-09-22,1.236520126872013,3.0452249046437556,8.070813163228307,,,,,,,,,,,,
48111,0,USTexasDallam,Texas,Dallam,2022-04-28 09:13:11,2021-09-23,1.2133128233620505,2.2056286006236077,4.278353481940448,,,,,,,,,,,,
48111,0,USTexasDallam,Texas,Dallam,2022-04-28 09:13:11,2021-09-24,1.2133128233620505,2.2056286006236077,4.278353481940448,,,,,,,,,,,,
48111,0,USTexasDallam,Texas,Dallam,2022-04-28 09:13:11,2021-09-25,1.2133128233620505,2.2056286006236077,4.278353481940448,,,,,,,,,,,,
48111,0,USTexasDallam,Texas,Dallam,2022-04-28 09:13:11,2021-09-26,1.2133128233620505,2.2056286006236077,4.278353481940448,,,,,,,,,,,,
48111,0,USTexasDallam,Texas,Dallam,2022-04-28 09:13:11,2021-09-27,1.2133128233620505,2.2056286006236077,4.278353481940448,,,,,,,,,,,,
48111,0,USTexasDallam,Texas,Dallam,2022-04-28 09:13:11,2021-09-28,1.2133128233620505,2.2056286006236077,4.278353481940448,,,,,,,,,,,,
48111,0,USTexasDallam,Texas,Dallam,2022-04-28 09:13:11,2021-09-29,1.2133128233620505,2.2056286006236077,4.278353481940448,,,,,,,,,,,,
48111,0,USTexasDallam,Texas,Dallam,2022-04-28 09:13:11,2021-09-30,0.229321607237655,0.559334061488865,1.4681763309169833,,,,,,,,,,,,
48111,0,USTexasDallam,Texas,Dallam,2022-04-28 09:13:11,2021-10-01,0.229321607237655,0.559334061488865,1.4681763309169833,,,,,,,,,,,,
48111,0,USTexasDallam,Texas,Dallam,2022-04-28 09:13:11,2021-10-02,0.229321607237655,0.559334061488865,1.4681763309169833,,,,,,,,,,,,
48111,0,USTexasDallam,Texas,Dallam,2022-04-28 09:13:11,2021-10-03,0.229321607237655,0.559334061488865,1.4681763309169833,,,,,,,,,,,,
48111,0,USTexasDallam,Texas,Dallam,2022-04-28 09:13:11,2021-10-04,0.229321607237655,0.559334061488865,1.4681763309169833,,,,,,,,,,,,
48111,0,USTexasDallam,Texas,Dallam,2022-04-28 09:13:11,2021-10-05,0.229321607237655,0.559334061488865,1.4681763309169833,,,,,,,,,,,,
48111,0,USTexasDallam,Texas,Dallam,2022-04-28 09:13:11,2021-10-06,0.229321607237655,0.559334061488865,1.4681763309169833,,,,,,,,,,,,
48111,0,USTexasDallam,Texas,Dallam,2022-04-28 09:13:11,2021-10-07,1.5715984164455452,4.305054435685996,12.67936555582211,,,,,,,,,,,,
48111,0,USTexasDallam,Texas,Dallam,2022-04-28 09:13:11,2021-10-08,1.5715984164455452,4.305054435685996,12.67936555582211,,,,,,,,,,,,
48111,0,USTexasDallam,Texas,Dallam,2022-04-28 09:13:11,2021-10-09,1.5715984164455452,4.305054435685996,12.67936555582211,,,,,,,,,,,,
48111,0,USTexasDallam,Texas,Dallam,2022-04-28 09:13:11,2021-10-10,1.5715984164455452,4.305054435685996,12.67936555582211,,,,,,,,,,,,
48111,0,USTexasDallam,Texas,Dallam,2022-04-28 09:13:11,2021-10-11,1.5715984164455452,4.305054435685996,12.67936555582211,,,,,,,,,,,,
48111,0,USTexasDallam,Texas,Dallam,2022-04-28 09:13:11,2021-10-12,1.5715984164455452,4.305054435685996,12.67936555582211,,,,,,,,,,,,
48111,0,USTexasDallam,Texas,Dallam,2022-04-28 09:13:11,2021-10-13,1.5715984164455452,4.305054435685996,12.67936555582211,,,,,,,,,,,,
48111,0,USTexasDallam,Texas,Dallam,2022-04-28 09:13:11,2021-10-14,1.294280224422692,2.495766713454825,5.151918125536637,,,,,,,,,,,,
48111,0,USTexasDallam,Texas,Dallam,2022-04-28 09:13:11,2021-10-15,1.294280224422692,2.495766713454825,5.151918125536637,,,,,,,,,,,,
48111,0,USTexasDallam,Texas,Dallam,2022-04-28 09:13:11,2021-10-16,1.294280224422692,2.495766713454825,5.151918125536637,,,,,,,,,,,,
48111,0,USTexasDallam,Texas,Dallam,2022-04-28 09:13:11,2021-10-17,1.294280224422692,2.495766713454825,5.151918125536637,,,,,,,,,,,,
48111,0,USTexasDallam,Texas,Dallam,2022-04-28 09:13:11,2021-10-18,1.294280224422692,2.495766713454825,5.151918125536637,,,,,,,,,,,,
48111,0,USTexasDallam,Texas,Dallam,2022-04-28 09:13:11,2021-10-19,1.294280224422692,2.495766713454825,5.151918125536637,,,,,,,,,,,,
48111,0,USTexasDallam,Texas,Dallam,2022-04-28 09:13:11,2021-10-20,1.294280224422692,2.495766713454825,5.151918125536637,,,,,,,,,,,,
48111,0,USTexasDallam,Texas,Dallam,2022-04-28 09:13:11,2021-10-21,0.8400346320528468,1.8950305519289476,4.59806603535915,,,,,,,,,,,,
48111,0,USTexasDallam,Texas,Dallam,2022-04-28 09:13:11,2021-10-22,0.8400346320528468,1.8950305519289476,4.59806603535915,,,,,,,,,,,,
48111,0,USTexasDallam,Texas,Dallam,2022-04-28 09:13:11,2021-10-23,0.8400346320528468,1.8950305519289476,4.59806603535915,,,,,,,,,,,,
48111,0,USTexasDallam,Texas,Dallam,2022-04-28 09:13:11,2021-10-24,0.8400346320528468,1.8950305519289476,4.59806603535915,,,,,,,,,,,,
48111,0,USTexasDallam,Texas,Dallam,2022-04-28 09:13:11,2021-10-25,0.8400346320528468,1.8950305519289476,4.59806603535915,,,,,,,,,,,,
48111,0,USTexasDallam,Texas,Dallam,2022-04-28 09:13:11,2021-10-26,0.8400346320528468,1.8950305519289476,4.59806603535915,,,,,,,,,,,,
48111,0,USTexasDallam,Texas,Dallam,2022-04-28 09:13:11,2021-10-27,0.8400346320528468,1.8950305519289476,4.59806603535915,,,,,,,,,,,,
48111,0,USTexasDallam,Texas,Dallam,2022-04-28 09:13:11,2021-10-28,0.7471048626870989,1.9588249010078898,5.525054135419307,,,,,,,,,,,,
48111,0,USTexasDallam,Texas,Dallam,2022-04-28 09:13:11,2021-10-29,0.7471048626870989,1.9588249010078898,5.525054135419307,,,,,,,,,,,,
48111,0,USTexasDallam,Texas,Dallam,2022-04-28 09:13:11,2021-10-30,0.7471048626870989,1.9588249010078898,5.525054135419307,,,,,,,,,,,,
48111,0,USTexasDallam,Texas,Dallam,2022-04-28 09:13:11,2021-10-31,0.7471048626870989,1.9588249010078898,5.525054135419307,,,,,,,,,,,,
48111,0,USTexasDallam,Texas,Dallam,2022-04-28 09:13:11,2021-11-01,0.7471048626870989,1.9588249010078898,5.525054135419307,,,,,,,,,,,,
48111,0,USTexasDallam,Texas,Dallam,2022-04-28 09:13:11,2021-11-02,0.7471048626870989,1.9588249010078898,5.525054135419307,,,,,,,,,,,,
48111,0,USTexasDallam,Texas,Dallam,2022-04-28 09:13:11,2021-11-03,0.7471048626870989,1.9588249010078898,5.525054135419307,,,,,,,,,,,,
48111,0,USTexasDallam,Texas,Dallam,2022-04-28 09:13:11,2021-11-04,1.3316546430175082,2.635195685056062,5.588869257742859,,,,,,,,,,,,
48111,0,USTexasDallam,Texas,Dallam,2022-04-28 09:13:11,2021-11-05,1.3316546430175082,2.635195685056062,5.588869257742859,,,,,,,,,,,,
48111,0,USTexasDallam,Texas,Dallam,2022-04-28 09:13:11,2021-11-06,1.3316546430175082,2.635195685056062,5.588869257742859,,,,,,,,,,,,
48111,0,USTexasDallam,Texas,Dallam,2022-04-28 09:13:11,2021-11-07,1.3316546430175082,2.635195685056062,5.588869257742859,,,,,,,,,,,,
48111,0,USTexasDallam,Texas,Dallam,2022-04-28 09:13:11,2021-11-08,1.3316546430175082,2.635195685056062,5.588869257742859,,,,,,,,,,,,
48111,0,USTexasDallam,Texas,Dallam,2022-04-28 09:13:11,2021-11-09,1.3316546430175082,2.635195685056062,5.588869257742859,,,,,,,,,,,,
48111,0,USTexasDallam,Texas,Dallam,2022-04-28 09:13:11,2021-11-10,1.3316546430175082,2.635195685056062,5.588869257742859,,,,,,,,,,,,
48111,0,USTexasDallam,Texas,Dallam,2022-04-28 09:13:11,2021-11-11,1.4784613623636125,2.500795089166433,4.490434344163438,,,,,,,,,,,,
48111,0,USTexasDallam,Texas,Dallam,2022-04-28 09:13:11,2021-11-12,1.4784613623636125,2.500795089166433,4.490434344163438,,,,,,,,,,,,
48111,0,USTexasDallam,Texas,Dallam,2022-04-28 09:13:11,2021-11-13,1.4784613623636125,2.500795089166433,4.490434344163438,,,,,,,,,,,,
48111,0,USTexasDallam,Texas,Dallam,2022-04-28 09:13:11,2021-11-14,1.4784613623636125,2.500795089166433,4.490434344163438,,,,,,,,,,,,
48111,0,USTexasDallam,Texas,Dallam,2022-04-28 09:13:11,2021-11-15,1.4784613623636125,2.500795089166433,4.490434344163438,,,,,,,,,,,,
48111,0,USTexasDallam,Texas,Dallam,2022-04-28 09:13:11,2021-11-16,1.4784613623636125,2.500795089166433,4.490434344163438,,,,,,,,,,,,
48111,0,USTexasDallam,Texas,Dallam,2022-04-28 09:13:11,2021-11-17,1.4784613623636125,2.500795089166433,4.490434344163438,,,,,,,,,,,,
48111,0,USTexasDallam,Texas,Dallam,2022-04-28 09:13:11,2021-11-18,0.8934902355458596,2.2986212773494894,6.362737152544792,,,,,,,,,,,,
48111,0,USTexasDallam,Texas,Dallam,2022-04-28 09:13:11,2021-11-19,0.8934902355458596,2.2986212773494894,6.362737152544792,,,,,,,,,,,,
48111,0,USTexasDallam,Texas,Dallam,2022-04-28 09:13:11,2021-11-20,0.8934902355458596,2.2986212773494894,6.362737152544792,,,,,,,,,,,,
48111,0,USTexasDallam,Texas,Dallam,2022-04-28 09:13:11,2021-11-21,0.8934902355458596,2.2986212773494894,6.362737152544792,,,,,,,,,,,,
48111,0,USTexasDallam,Texas,Dallam,2022-04-28 09:13:11,2021-11-22,0.8934902355458596,2.2986212773494894,6.362737152544792,,,,,,,,,,,,
48111,0,USTexasDallam,Texas,Dallam,2022-04-28 09:13:11,2021-11-23,0.8934902355458596,2.2986212773494894,6.362737152544792,,,,,,,,,,,,
48111,0,USTexasDallam,Texas,Dallam,2022-04-28 09:13:11,2021-11-24,0.8934902355458596,2.2986212773494894,6.362737152544792,,,,,,,,,,,,
48111,0,USTexasDallam,Texas,Dallam,2022-04-28 09:13:11,2021-11-25,1.9995163974957715,4.191116132467444,9.43405028638983,,,,,,,,,,,,
48111,0,USTexasDallam,Texas,Dallam,2022-04-28 09:13:11,2021-11-26,1.9995163974957715,4.191116132467444,9.43405028638983,,,,,,,,,,,,
48111,0,USTexasDallam,Texas,Dallam,2022-04-28 09:13:11,2021-11-27,1.9995163974957715,4.191116132467444,9.43405028638983,,,,,,,,,,,,
48111,0,USTexasDallam,Texas,Dallam,2022-04-28 09:13:11,2021-11-28,1.9995163974957715,4.191116132467444,9.43405028638983,,,,,,,,,,,,
48111,0,USTexasDallam,Texas,Dallam,2022-04-28 09:13:11,2021-11-29,1.9995163974957715,4.191116132467444,9.43405028638983,,,,,,,,,,,,
48111,0,USTexasDallam,Texas,Dallam,2022-04-28 09:13:11,2021-11-30,1.9995163974957715,4.191116132467444,9.43405028638983,,,,,,,,,,,,
48111,0,USTexasDallam,Texas,Dallam,2022-04-28 09:13:11,2021-12-01,1.9995163974957715,4.191116132467444,9.43405028638983,,,,,,,,,,,,
48111,0,USTexasDallam,Texas,Dallam,2022-04-28 09:13:11,2021-12-02,0.9604212544945,2.6308665995858864,7.748501173002401,,,,,,,,,,,,
48111,0,USTexasDallam,Texas,Dallam,2022-04-28 09:13:11,2021-12-03,0.9604212544945,2.6308665995858864,7.748501173002401,,,,,,,,,,,,
48111,0,USTexasDallam,Texas,Dallam,2022-04-28 09:13:11,2021-12-04,0.9604212544945,2.6308665995858864,7.748501173002401,,,,,,,,,,,,
48111,0,USTexasDallam,Texas,Dallam,2022-04-28 09:13:11,2021-12-05,0.9604212544945,2.6308665995858864,7.748501173002401,,,,,,,,,,,,
48111,0,USTexasDallam,Texas,Dallam,2022-04-28 09:13:11,2021-12-06,0.9604212544945,2.6308665995858864,7.748501173002401,,,,,,,,,,,,
48111,0,USTexasDallam,Texas,Dallam,2022-04-28 09:13:11,2021-12-07,0.9604212544945,2.6308665995858864,7.748501173002401,,,,,,,,,,,,
48111,0,USTexasDallam,Texas,Dallam,2022-04-28 09:13:11,2021-12-08,0.9604212544945,2.6308665995858864,7.748501173002401,,,,,,,,,,,,
48111,0,USTexasDallam,Texas,Dallam,2022-04-28 09:13:11,2021-12-09,2.879217563263264,6.374775361605287,15.176337149509909,,,,,,,,,,,,
48111,0,USTexasDallam,Texas,Dallam,2022-04-28 09:13:11,2021-12-10,2.879217563263264,6.374775361605287,15.176337149509909,,,,,,,,,,,,
48111,0,USTexasDallam,Texas,Dallam,2022-04-28 09:13:11,2021-12-11,2.879217563263264,6.374775361605287,15.176337149509909,,,,,,,,,,,,
48111,0,USTexasDallam,Texas,Dallam,2022-04-28 09:13:11,2021-12-12,2.879217563263264,6.374775361605287,15.176337149509909,,,,,,,,,,,,
48111,0,USTexasDallam,Texas,Dallam,2022-04-28 09:13:11,2021-12-13,2.879217563263264,6.374775361605287,15.176337149509909,,,,,,,,,,,,
48111,0,USTexasDallam,Texas,Dallam,2022-04-28 09:13:11,2021-12-14,2.879217563263264,6.374775361605287,15.176337149509909,,,,,,,,,,,,
48111,0,USTexasDallam,Texas,Dallam,2022-04-28 09:13:11,2021-12-15,2.879217563263264,6.374775361605287,15.176337149509909,,,,,,,,,,,,
48111,0,USTexasDallam,Texas,Dallam,2022-04-28 09:13:11,2021-12-16,0.742054256293211,1.6194503277930452,3.7992033797590032,,,,,,,,,,,,
48111,0,USTexasDallam,Texas,Dallam,2022-04-28 09:13:11,2021-12-17,0.742054256293211,1.6194503277930452,3.7992033797590032,,,,,,,,,,,,
48111,0,USTexasDallam,Texas,Dallam,2022-04-28 09:13:11,2021-12-18,0.742054256293211,1.6194503277930452,3.7992033797590032,,,,,,,,,,,,
48111,0,USTexasDallam,Texas,Dallam,2022-04-28 09:13:11,2021-12-19,0.742054256293211,1.6194503277930452,3.7992033797590032,,,,,,,,,,,,
48111,0,USTexasDallam,Texas,Dallam,2022-04-28 09:13:11,2021-12-20,0.742054256293211,1.6194503277930452,3.7992033797590032,,,,,,,,,,,,
48111,0,USTexasDallam,Texas,Dallam,2022-04-28 09:13:11,2021-12-21,0.742054256293211,1.6194503277930452,3.7992033797590032,,,,,,,,,,,,
48111,0,USTexasDallam,Texas,Dallam,2022-04-28 09:13:11,2021-12-22,0.742054256293211,1.6194503277930452,3.7992033797590032,,,,,,,,,,,,
48111,0,USTexasDallam,Texas,Dallam,2022-04-28 09:13:11,2021-12-23,2.0104263507537357,4.1149978659443,9.038416602697419,,,,,,,,,,,,
48111,0,USTexasDallam,Texas,Dallam,2022-04-28 09:13:11,2021-12-24,2.0104263507537357,4.1149978659443,9.038416602697419,,,,,,,,,,,,
48111,0,USTexasDallam,Texas,Dallam,2022-04-28 09:13:11,2021-12-25,2.0104263507537357,4.1149978659443,9.038416602697419,,,,,,,,,,,,
48111,0,USTexasDallam,Texas,Dallam,2022-04-28 09:13:11,2021-12-26,2.0104263507537357,4.1149978659443,9.038416602697419,,,,,,,,,,,,
48111,0,USTexasDallam,Texas,Dallam,2022-04-28 09:13:11,2021-12-27,2.0104263507537357,4.1149978659443,9.038416602697419,,,,,,,,,,,,
48111,0,USTexasDallam,Texas,Dallam,2022-04-28 09:13:11,2021-12-28,2.0104263507537357,4.1149978659443,9.038416602697419,,,,,,,,,,,,
48111,0,USTexasDallam,Texas,Dallam,2022-04-28 09:13:11,2021-12-29,2.0104263507537357,4.1149978659443,9.038416602697419,,,,,,,,,,,,
48111,0,USTexasDallam,Texas,Dallam,2022-04-28 09:13:11,2021-12-30,1.8457795586281651,4.365869743089013,11.112247614344861,,,,,,,,,,,,
48111,0,USTexasDallam,Texas,Dallam,2022-04-28 09:13:11,2021-12-31,1.8457795586281651,4.365869743089013,11.112247614344861,,,,,,,,,,,,
48111,0,USTexasDallam,Texas,Dallam,2022-04-28 09:13:11,2022-01-01,1.8457795586281651,4.365869743089013,11.112247614344861,,,,,,,,,,,,
48111,0,USTexasDallam,Texas,Dallam,2022-04-28 09:13:11,2022-01-02,1.8457795586281651,4.365869743089013,11.112247614344861,,,,,,,,,,,,
48111,0,USTexasDallam,Texas,Dallam,2022-04-28 09:13:11,2022-01-03,1.8457795586281651,4.365869743089013,11.112247614344861,,,,,,,,,,,,
48111,0,USTexasDallam,Texas,Dallam,2022-04-28 09:13:11,2022-01-04,1.8457795586281651,4.365869743089013,11.112247614344861,,,,,,,,,,,,
48111,0,USTexasDallam,Texas,Dallam,2022-04-28 09:13:11,2022-01-05,1.8457795586281651,4.365869743089013,11.112247614344861,,,,,,,,,,,,
48111,0,USTexasDallam,Texas,Dallam,2022-04-28 09:13:11,2022-01-06,1.5805230853151067,3.8025494774607718,9.84509249487622,,,,,,,,,,,,
48111,0,USTexasDallam,Texas,Dallam,2022-04-28 09:13:11,2022-01-07,1.5805230853151067,3.8025494774607718,9.84509249487622,,,,,,,,,,,,
48111,0,USTexasDallam,Texas,Dallam,2022-04-28 09:13:11,2022-01-08,1.5805230853151067,3.8025494774607718,9.84509249487622,,,,,,,,,,,,
48111,0,USTexasDallam,Texas,Dallam,2022-04-28 09:13:11,2022-01-09,1.5805230853151067,3.8025494774607718,9.84509249487622,,,,,,,,,,,,
48111,0,USTexasDallam,Texas,Dallam,2022-04-28 09:13:11,2022-01-10,1.5805230853151067,3.8025494774607718,9.84509249487622,,,,,,,,,,,,
48111,0,USTexasDallam,Texas,Dallam,2022-04-28 09:13:11,2022-01-11,1.5805230853151067,3.8025494774607718,9.84509249487622,,,,,,,,,,,,
48111,0,USTexasDallam,Texas,Dallam,2022-04-28 09:13:11,2022-01-12,1.5805230853151067,3.8025494774607718,9.84509249487622,,,,,,,,,,,,
48111,0,USTexasDallam,Texas,Dallam,2022-04-28 09:13:11,2022-01-13,1.4978230015482321,3.587836504147717,9.248467497796787,,,,,,,,,,,,
48111,0,USTexasDallam,Texas,Dallam,2022-04-28 09:13:11,2022-01-14,1.4978230015482321,3.587836504147717,9.248467497796787,,,,,,,,,,,,
48111,0,USTexasDallam,Texas,Dallam,2022-04-28 09:13:11,2022-01-15,1.4978230015482321,3.587836504147717,9.248467497796787,,,,,,,,,,,,
48111,0,USTexasDallam,Texas,Dallam,2022-04-28 09:13:11,2022-01-16,1.4978230015482321,3.587836504147717,9.248467497796787,,,,,,,,,,,,
48111,0,USTexasDallam,Texas,Dallam,2022-04-28 09:13:11,2022-01-17,1.4978230015482321,3.587836504147717,9.248467497796787,,,,,,,,,,,,
48111,0,USTexasDallam,Texas,Dallam,2022-04-28 09:13:11,2022-01-18,1.4978230015482321,3.587836504147717,9.248467497796787,,,,,,,,,,,,
48111,0,USTexasDallam,Texas,Dallam,2022-04-28 09:13:11,2022-01-19,1.4978230015482321,3.587836504147717,9.248467497796787,,,,,,,,,,,,
48111,0,USTexasDallam,Texas,Dallam,2022-04-28 09:13:11,2022-01-20,2.346668944891126,5.093271912904795,11.881871926640947,,,,,,,,,,,,
48111,0,USTexasDallam,Texas,Dallam,2022-04-28 09:13:11,2022-01-21,2.346668944891126,5.093271912904795,11.881871926640947,,,,,,,,,,,,
48111,0,USTexasDallam,Texas,Dallam,2022-04-28 09:13:11,2022-01-22,2.346668944891126,5.093271912904795,11.881871926640947,,,,,,,,,,,,
48111,0,USTexasDallam,Texas,Dallam,2022-04-28 09:13:11,2022-01-23,2.346668944891126,5.093271912904795,11.881871926640947,,,,,,,,,,,,
48111,0,USTexasDallam,Texas,Dallam,2022-04-28 09:13:11,2022-01-24,2.346668944891126,5.093271912904795,11.881871926640947,,,,,,,,,,,,
48111,0,USTexasDallam,Texas,Dallam,2022-04-28 09:13:11,2022-01-25,2.346668944891126,5.093271912904795,11.881871926640947,,,,,,,,,,,,
48111,0,USTexasDallam,Texas,Dallam,2022-04-28 09:13:11,2022-01-26,2.346668944891126,5.093271912904795,11.881871926640947,,,,,,,,,,,,
48111,0,USTexasDallam,Texas,Dallam,2022-04-28 09:13:11,2022-01-27,2.807567100423172,6.0772202642056525,14.138304191421646,,,,,,,,,,,,
48111,0,USTexasDallam,Texas,Dallam,2022-04-28 09:13:11,2022-01-28,2.807567100423172,6.0772202642056525,14.138304191421646,,,,,,,,,,,,
48111,0,USTexasDallam,Texas,Dallam,2022-04-28 09:13:11,2022-01-29,2.807567100423172,6.0772202642056525,14.138304191421646,,,,,,,,,,,,
48111,0,USTexasDallam,Texas,Dallam,2022-04-28 09:13:11,2022-01-30,2.807567100423172,6.0772202642056525,14.138304191421646,,,,,,,,,,,,
48111,0,USTexasDallam,Texas,Dallam,2022-04-28 09:13:11,2022-01-31,2.807567100423172,6.0772202642056525,14.138304191421646,,,,,,,,,,,,
48111,0,USTexasDallam,Texas,Dallam,2022-04-28 09:13:11,2022-02-01,2.807567100423172,6.0772202642056525,14.138304191421646,,,,,,,,,,,,
48111,0,USTexasDallam,Texas,Dallam,2022-04-28 09:13:11,2022-02-02,2.807567100423172,6.0772202642056525,14.138304191421646,,,,,,,,,,,,
48111,0,USTexasDallam,Texas,Dallam,2022-04-28 09:13:11,2022-02-03,4.10053478780484,8.086752725669298,17.089736262926113,,,,,,,,,,,,
48111,0,USTexasDallam,Texas,Dallam,2022-04-28 09:13:11,2022-02-04,4.10053478780484,8.086752725669298,17.089736262926113,,,,,,,,,,,,
48111,0,USTexasDallam,Texas,Dallam,2022-04-28 09:13:11,2022-02-05,4.10053478780484,8.086752725669298,17.089736262926113,,,,,,,,,,,,
48111,0,USTexasDallam,Texas,Dallam,2022-04-28 09:13:11,2022-02-06,4.10053478780484,8.086752725669298,17.089736262926113,,,,,,,,,,,,
48111,0,USTexasDallam,Texas,Dallam,2022-04-28 09:13:11,2022-02-07,4.10053478780484,8.086752725669298,17.089736262926113,,,,,,,,,,,,
48111,0,USTexasDallam,Texas,Dallam,2022-04-28 09:13:11,2022-02-08,4.10053478780484,8.086752725669298,17.089736262926113,,,,,,,,,,,,
48111,0,USTexasDallam,Texas,Dallam,2022-04-28 09:13:11,2022-02-09,4.10053478780484,8.086752725669298,17.089736262926113,,,,,,,,,,,,
48111,0,USTexasDallam,Texas,Dallam,2022-04-28 09:13:11,2022-02-10,4.003441196421461,7.829883395894339,16.403952299531095,,,,,,,,,,,,
48111,0,USTexasDallam,Texas,Dallam,2022-04-28 09:13:11,2022-02-11,4.003441196421461,7.829883395894339,16.403952299531095,,,,,,,,,,,,
48111,0,USTexasDallam,Texas,Dallam,2022-04-28 09:13:11,2022-02-12,4.003441196421461,7.829883395894339,16.403952299531095,,,,,,,,,,,,
48111,0,USTexasDallam,Texas,Dallam,2022-04-28 09:13:11,2022-02-13,4.003441196421461,7.829883395894339,16.403952299531095,,,,,,,,,,,,
48111,0,USTexasDallam,Texas,Dallam,2022-04-28 09:13:11,2022-02-14,4.003441196421461,7.829883395894339,16.403952299531095,,,,,,,,,,,,
48111,0,USTexasDallam,Texas,Dallam,2022-04-28 09:13:11,2022-02-15,4.003441196421461,7.829883395894339,16.403952299531095,,,,,,,,,,,,
48111,0,USTexasDallam,Texas,Dallam,2022-04-28 09:13:11,2022-02-16,4.003441196421461,7.829883395894339,16.403952299531095,,,,,,,,,,,,
48111,0,USTexasDallam,Texas,Dallam,2022-04-28 09:13:11,2022-02-17,2.05300423479683,4.984128288269042,13.021691134411641,,,,,,,,,,,,
48111,0,USTexasDallam,Texas,Dallam,2022-04-28 09:13:11,2022-02-18,2.05300423479683,4.984128288269042,13.021691134411641,,,,,,,,,,,,
48111,0,USTexasDallam,Texas,Dallam,2022-04-28 09:13:11,2022-02-19,2.05300423479683,4.984128288269042,13.021691134411641,,,,,,,,,,,,
48111,0,USTexasDallam,Texas,Dallam,2022-04-28 09:13:11,2022-02-20,2.05300423479683,4.984128288269042,13.021691134411641,,,,,,,,,,,,
48111,0,USTexasDallam,Texas,Dallam,2022-04-28 09:13:11,2022-02-21,2.05300423479683,4.984128288269042,13.021691134411641,,,,,,,,,,,,
48111,0,USTexasDallam,Texas,Dallam,2022-04-28 09:13:11,2022-02-22,2.05300423479683,4.984128288269042,13.021691134411641,,,,,,,,,,,,
48111,0,USTexasDallam,Texas,Dallam,2022-04-28 09:13:11,2022-02-23,2.05300423479683,4.984128288269042,13.021691134411641,,,,,,,,,,,,
48111,0,USTexasDallam,Texas,Dallam,2022-04-28 09:13:11,2022-02-24,1.2183957757443538,3.1344835600220304,8.676459753470171,,,,,,,,,,,,
48111,0,USTexasDallam,Texas,Dallam,2022-04-28 09:13:11,2022-02-25,1.2183957757443538,3.1344835600220304,8.676459753470171,,,,,,,,,,,,
48111,0,USTexasDallam,Texas,Dallam,2022-04-28 09:13:11,2022-02-26,1.2183957757443538,3.1344835600220304,8.676459753470171,,,,,,,,,,,,
48111,0,USTexasDallam,Texas,Dallam,2022-04-28 09:13:11,2022-02-27,1.2183957757443538,3.1344835600220304,8.676459753470171,,,,,,,,,,,,
48111,0,USTexasDallam,Texas,Dallam,2022-04-28 09:13:11,2022-02-28,1.2183957757443538,3.1344835600220304,8.676459753470171,,,,,,,,,,,,
48111,0,USTexasDallam,Texas,Dallam,2022-04-28 09:13:11,2022-03-01,1.2183957757443538,3.1344835600220304,8.676459753470171,,,,,,,,,,,,
48111,0,USTexasDallam,Texas,Dallam,2022-04-28 09:13:11,2022-03-02,1.2183957757443538,3.1344835600220304,8.676459753470171,,,,,,,,,,,,
48111,0,USTexasDallam,Texas,Dallam,2022-04-28 09:13:11,2022-03-03,0.3561192416564629,0.9920562844245606,2.9705554669420704,,,,,,,,,,,,
48111,0,USTexasDallam,Texas,Dallam,2022-04-28 09:13:11,2022-03-04,0.3561192416564629,0.9920562844245606,2.9705554669420704,,,,,,,,,,,,
48111,0,USTexasDallam,Texas,Dallam,2022-04-28 09:13:11,2022-03-05,0.3561192416564629,0.9920562844245606,2.9705554669420704,,,,,,,,,,,,
48111,0,USTexasDallam,Texas,Dallam,2022-04-28 09:13:11,2022-03-06,0.3561192416564629,0.9920562844245606,2.9705554669420704,,,,,,,,,,,,
48111,0,USTexasDallam,Texas,Dallam,2022-04-28 09:13:11,2022-03-07,0.3561192416564629,0.9920562844245606,2.9705554669420704,,,,,,,,,,,,
48111,0,USTexasDallam,Texas,Dallam,2022-04-28 09:13:11,2022-03-08,0.3561192416564629,0.9920562844245606,2.9705554669420704,,,,,,,,,,,,
48111,0,USTexasDallam,Texas,Dallam,2022-04-28 09:13:11,2022-03-09,0.3561192416564629,0.9920562844245606,2.9705554669420704,,,,,,,,,,,,
48111,0,USTexasDallam,Texas,Dallam,2022-04-28 09:13:11,2022-03-10,0.5896005342410128,1.7870558537520103,5.81125335675671,,,,,,,,,,,,
48111,0,USTexasDallam,Texas,Dallam,2022-04-28 09:13:11,2022-03-11,0.5896005342410128,1.7870558537520103,5.81125335675671,,,,,,,,,,,,
48111,0,USTexasDallam,Texas,Dallam,2022-04-28 09:13:11,2022-03-12,0.5896005342410128,1.7870558537520103,5.81125335675671,,,,,,,,,,,,
48111,0,USTexasDallam,Texas,Dallam,2022-04-28 09:13:11,2022-03-13,0.5896005342410128,1.7870558537520103,5.81125335675671,,,,,,,,,,,,
48111,0,USTexasDallam,Texas,Dallam,2022-04-28 09:13:11,2022-03-14,0.5896005342410128,1.7870558537520103,5.81125335675671,,,,,,,,,,,,
48111,0,USTexasDallam,Texas,Dallam,2022-04-28 09:13:11,2022-03-15,0.5896005342410128,1.7870558537520103,5.81125335675671,,,,,,,,,,,,
48111,0,USTexasDallam,Texas,Dallam,2022-04-28 09:13:11,2022-03-16,0.5896005342410128,1.7870558537520103,5.81125335675671,,,,,,,,,,,,
48111,0,USTexasDallam,Texas,Dallam,2022-04-28 09:13:11,2022-03-17,1.3281864225548423,3.482355379569582,9.822318462967656,,,,,,,,,,,,
48111,0,USTexasDallam,Texas,Dallam,2022-04-28 09:13:11,2022-03-18,1.3281864225548423,3.482355379569582,9.822318462967656,,,,,,,,,,,,
48111,0,USTexasDallam,Texas,Dallam,2022-04-28 09:13:11,2022-03-19,1.3281864225548423,3.482355379569582,9.822318462967656,,,,,,,,,,,,
48111,0,USTexasDallam,Texas,Dallam,2022-04-28 09:13:11,2022-03-20,1.3281864225548423,3.482355379569582,9.822318462967656,,,,,,,,,,,,
48111,0,USTexasDallam,Texas,Dallam,2022-04-28 09:13:11,2022-03-21,1.3281864225548423,3.482355379569582,9.822318462967656,,,,,,,,,,,,
48111,0,USTexasDallam,Texas,Dallam,2022-04-28 09:13:11,2022-03-22,1.3281864225548423,3.482355379569582,9.822318462967656,,,,,,,,,,,,
48111,0,USTexasDallam,Texas,Dallam,2022-04-28 09:13:11,2022-03-23,1.3281864225548423,3.482355379569582,9.822318462967656,,,,,,,,,,,,
48111,0,USTexasDallam,Texas,Dallam,2022-04-28 09:13:11,2022-03-24,0.09682939955738186,0.28983766302690195,0.9310932415173084,,,,,,,,,,,,
48111,0,USTexasDallam,Texas,Dallam,2022-04-28 09:13:11,2022-03-25,0.09682939955738186,0.28983766302690195,0.9310932415173084,,,,,,,,,,,,
48111,0,USTexasDallam,Texas,Dallam,2022-04-28 09:13:11,2022-03-26,0.09682939955738186,0.28983766302690195,0.9310932415173084,,,,,,,,,,,,
48111,0,USTexasDallam,Texas,Dallam,2022-04-28 09:13:11,2022-03-27,0.09682939955738186,0.28983766302690195,0.9310932415173084,,,,,,,,,,,,
48111,0,USTexasDallam,Texas,Dallam,2022-04-28 09:13:11,2022-03-28,0.09682939955738186,0.28983766302690195,0.9310932415173084,,,,,,,,,,,,
48111,0,USTexasDallam,Texas,Dallam,2022-04-28 09:13:11,2022-03-29,0.09682939955738186,0.28983766302690195,0.9310932415173084,,,,,,,,,,,,
48111,0,USTexasDallam,Texas,Dallam,2022-04-28 09:13:11,2022-03-30,0.09682939955738186,0.28983766302690195,0.9310932415173084,,,,,,,,,,,,
48111,0,USTexasDallam,Texas,Dallam,2022-04-28 09:13:11,2022-03-31,0.3301834914380903,1.1007901338070731,3.9260862016513154,,,,,,,,,,,,
48111,0,USTexasDallam,Texas,Dallam,2022-04-28 09:13:11,2022-04-01,0.3301834914380903,1.1007901338070731,3.9260862016513154,,,,,,,,,,,,
48111,0,USTexasDallam,Texas,Dallam,2022-04-28 09:13:11,2022-04-02,0.3301834914380903,1.1007901338070731,3.9260862016513154,,,,,,,,,,,,
48111,0,USTexasDallam,Texas,Dallam,2022-04-28 09:13:11,2022-04-03,0.3301834914380903,1.1007901338070731,3.9260862016513154,,,,,,,,,,,,
48111,0,USTexasDallam,Texas,Dallam,2022-04-28 09:13:11,2022-04-04,0.3301834914380903,1.1007901338070731,3.9260862016513154,,,,,,,,,,,,
48111,0,USTexasDallam,Texas,Dallam,2022-04-28 09:13:11,2022-04-05,0.3301834914380903,1.1007901338070731,3.9260862016513154,,,,,,,,,,,,
48111,0,USTexasDallam,Texas,Dallam,2022-04-28 09:13:11,2022-04-06,0.3301834914380903,1.1007901338070731,3.9260862016513154,,,,,,,,,,,,
48111,0,USTexasDallam,Texas,Dallam,2022-04-28 09:13:11,2022-04-07,0.109900274595747,0.3659474711452957,1.303654798066026,,,,,,,,,,,,
48111,0,USTexasDallam,Texas,Dallam,2022-04-28 09:13:11,2022-04-08,0.109900274595747,0.3659474711452957,1.303654798066026,,,,,,,,,,,,
48111,0,USTexasDallam,Texas,Dallam,2022-04-28 09:13:11,2022-04-09,0.109900274595747,0.3659474711452957,1.303654798066026,,,,,,,,,,,,
48111,0,USTexasDallam,Texas,Dallam,2022-04-28 09:13:11,2022-04-10,0.109900274595747,0.3659474711452957,1.303654798066026,,,,,,,,,,,,
48111,0,USTexasDallam,Texas,Dallam,2022-04-28 09:13:11,2022-04-11,0.109900274595747,0.3659474711452957,1.303654798066026,,,,,,,,,,,,
48111,0,USTexasDallam,Texas,Dallam,2022-04-28 09:13:11,2022-04-12,0.109900274595747,0.3659474711452957,1.303654798066026,,,,,,,,,,,,
48111,0,USTexasDallam,Texas,Dallam,2022-04-28 09:13:11,2022-04-13,0.109900274595747,0.3659474711452957,1.303654798066026,,,,,,,,,,,,
