FIPS,HR_UID,nameid,province,region,analysisTime,dates,pointprevalence_025,pointprevalence_50,pointprevalence_975,pointinfections_025,pointinfections_50,pointinfections_975,pointinfectious_025,pointinfectious_50,pointinfectious_975,pointinfectiousprevalence_025,pointinfectiousprevalence_50,pointinfectiousprevalence_975,infectrate_025,infectrate_50,infectrate_975
41061,0,USOregonUnion,Oregon,Union,2022-04-28 09:13:11,2020-03-26,0,0,0,,,,,,,,,,,,
41061,0,USOregonUnion,Oregon,Union,2022-04-28 09:13:11,2020-03-27,0,0,0,,,,,,,,,,,,
41061,0,USOregonUnion,Oregon,Union,2022-04-28 09:13:11,2020-03-28,0,0,0,,,,,,,,,,,,
41061,0,USOregonUnion,Oregon,Union,2022-04-28 09:13:11,2020-03-29,0,0,0,,,,,,,,,,,,
41061,0,USOregonUnion,Oregon,Union,2022-04-28 09:13:11,2020-03-30,0,0,0,,,,,,,,,,,,
41061,0,USOregonUnion,Oregon,Union,2022-04-28 09:13:11,2020-03-31,0,0,0,,,,,,,,,,,,
41061,0,USOregonUnion,Oregon,Union,2022-04-28 09:13:11,2020-04-01,0,0,0,,,,,,,,,,,,
41061,0,USOregonUnion,Oregon,Union,2022-04-28 09:13:11,2020-04-02,0.05425985882603627,0.16678297692562147,0.5498100291425856,,,,,,,,,,,,
41061,0,USOregonUnion,Oregon,Union,2022-04-28 09:13:11,2020-04-03,0.05425985882603627,0.16678297692562147,0.5498100291425856,,,,,,,,,,,,
41061,0,USOregonUnion,Oregon,Union,2022-04-28 09:13:11,2020-04-04,0.05425985882603627,0.16678297692562147,0.5498100291425856,,,,,,,,,,,,
41061,0,USOregonUnion,Oregon,Union,2022-04-28 09:13:11,2020-04-05,0.05425985882603627,0.16678297692562147,0.5498100291425856,,,,,,,,,,,,
41061,0,USOregonUnion,Oregon,Union,2022-04-28 09:13:11,2020-04-06,0.05425985882603627,0.16678297692562147,0.5498100291425856,,,,,,,,,,,,
41061,0,USOregonUnion,Oregon,Union,2022-04-28 09:13:11,2020-04-07,0.05425985882603627,0.16678297692562147,0.5498100291425856,,,,,,,,,,,,
41061,0,USOregonUnion,Oregon,Union,2022-04-28 09:13:11,2020-04-08,0.05425985882603627,0.16678297692562147,0.5498100291425856,,,,,,,,,,,,
41061,0,USOregonUnion,Oregon,Union,2022-04-28 09:13:11,2020-04-09,0.05415876993927966,0.1662098814009849,0.5470808629590783,,,,,,,,,,,,
41061,0,USOregonUnion,Oregon,Union,2022-04-28 09:13:11,2020-04-10,0.05415876993927966,0.1662098814009849,0.5470808629590783,,,,,,,,,,,,
41061,0,USOregonUnion,Oregon,Union,2022-04-28 09:13:11,2020-04-11,0.05415876993927966,0.1662098814009849,0.5470808629590783,,,,,,,,,,,,
41061,0,USOregonUnion,Oregon,Union,2022-04-28 09:13:11,2020-04-12,0.05415876993927966,0.1662098814009849,0.5470808629590783,,,,,,,,,,,,
41061,0,USOregonUnion,Oregon,Union,2022-04-28 09:13:11,2020-04-13,0.05415876993927966,0.1662098814009849,0.5470808629590783,,,,,,,,,,,,
41061,0,USOregonUnion,Oregon,Union,2022-04-28 09:13:11,2020-04-14,0.05415876993927966,0.1662098814009849,0.5470808629590783,,,,,,,,,,,,
41061,0,USOregonUnion,Oregon,Union,2022-04-28 09:13:11,2020-04-15,0.05415876993927966,0.1662098814009849,0.5470808629590783,,,,,,,,,,,,
41061,0,USOregonUnion,Oregon,Union,2022-04-28 09:13:11,2020-04-16,0,0,0,,,,,,,,,,,,
41061,0,USOregonUnion,Oregon,Union,2022-04-28 09:13:11,2020-04-17,0,0,0,,,,,,,,,,,,
41061,0,USOregonUnion,Oregon,Union,2022-04-28 09:13:11,2020-04-18,0,0,0,,,,,,,,,,,,
41061,0,USOregonUnion,Oregon,Union,2022-04-28 09:13:11,2020-04-19,0,0,0,,,,,,,,,,,,
41061,0,USOregonUnion,Oregon,Union,2022-04-28 09:13:11,2020-04-20,0,0,0,,,,,,,,,,,,
41061,0,USOregonUnion,Oregon,Union,2022-04-28 09:13:11,2020-04-21,0,0,0,,,,,,,,,,,,
41061,0,USOregonUnion,Oregon,Union,2022-04-28 09:13:11,2020-04-22,0,0,0,,,,,,,,,,,,
41061,0,USOregonUnion,Oregon,Union,2022-04-28 09:13:11,2020-04-23,0,0,0,,,,,,,,,,,,
41061,0,USOregonUnion,Oregon,Union,2022-04-28 09:13:11,2020-04-24,0,0,0,,,,,,,,,,,,
41061,0,USOregonUnion,Oregon,Union,2022-04-28 09:13:11,2020-04-25,0,0,0,,,,,,,,,,,,
41061,0,USOregonUnion,Oregon,Union,2022-04-28 09:13:11,2020-04-26,0,0,0,,,,,,,,,,,,
41061,0,USOregonUnion,Oregon,Union,2022-04-28 09:13:11,2020-04-27,0,0,0,,,,,,,,,,,,
41061,0,USOregonUnion,Oregon,Union,2022-04-28 09:13:11,2020-04-28,0,0,0,,,,,,,,,,,,
41061,0,USOregonUnion,Oregon,Union,2022-04-28 09:13:11,2020-04-29,0,0,0,,,,,,,,,,,,
41061,0,USOregonUnion,Oregon,Union,2022-04-28 09:13:11,2020-04-30,0,0,0,,,,,,,,,,,,
41061,0,USOregonUnion,Oregon,Union,2022-04-28 09:13:11,2020-05-01,0,0,0,,,,,,,,,,,,
41061,0,USOregonUnion,Oregon,Union,2022-04-28 09:13:11,2020-05-02,0,0,0,,,,,,,,,,,,
41061,0,USOregonUnion,Oregon,Union,2022-04-28 09:13:11,2020-05-03,0,0,0,,,,,,,,,,,,
41061,0,USOregonUnion,Oregon,Union,2022-04-28 09:13:11,2020-05-04,0,0,0,,,,,,,,,,,,
41061,0,USOregonUnion,Oregon,Union,2022-04-28 09:13:11,2020-05-05,0,0,0,,,,,,,,,,,,
41061,0,USOregonUnion,Oregon,Union,2022-04-28 09:13:11,2020-05-06,0,0,0,,,,,,,,,,,,
41061,0,USOregonUnion,Oregon,Union,2022-04-28 09:13:11,2020-05-07,0,0,0,,,,,,,,,,,,
41061,0,USOregonUnion,Oregon,Union,2022-04-28 09:13:11,2020-05-08,0,0,0,,,,,,,,,,,,
41061,0,USOregonUnion,Oregon,Union,2022-04-28 09:13:11,2020-05-09,0,0,0,,,,,,,,,,,,
41061,0,USOregonUnion,Oregon,Union,2022-04-28 09:13:11,2020-05-10,0,0,0,,,,,,,,,,,,
41061,0,USOregonUnion,Oregon,Union,2022-04-28 09:13:11,2020-05-11,0,0,0,,,,,,,,,,,,
41061,0,USOregonUnion,Oregon,Union,2022-04-28 09:13:11,2020-05-12,0,0,0,,,,,,,,,,,,
41061,0,USOregonUnion,Oregon,Union,2022-04-28 09:13:11,2020-05-13,0,0,0,,,,,,,,,,,,
41061,0,USOregonUnion,Oregon,Union,2022-04-28 09:13:11,2020-05-14,0.044520076989519736,0.11545431116098326,0.32213324488089223,,,,,,,,,,,,
41061,0,USOregonUnion,Oregon,Union,2022-04-28 09:13:11,2020-05-15,0.044520076989519736,0.11545431116098326,0.32213324488089223,,,,,,,,,,,,
41061,0,USOregonUnion,Oregon,Union,2022-04-28 09:13:11,2020-05-16,0.044520076989519736,0.11545431116098326,0.32213324488089223,,,,,,,,,,,,
41061,0,USOregonUnion,Oregon,Union,2022-04-28 09:13:11,2020-05-17,0.044520076989519736,0.11545431116098326,0.32213324488089223,,,,,,,,,,,,
41061,0,USOregonUnion,Oregon,Union,2022-04-28 09:13:11,2020-05-18,0.044520076989519736,0.11545431116098326,0.32213324488089223,,,,,,,,,,,,
41061,0,USOregonUnion,Oregon,Union,2022-04-28 09:13:11,2020-05-19,0.044520076989519736,0.11545431116098326,0.32213324488089223,,,,,,,,,,,,
41061,0,USOregonUnion,Oregon,Union,2022-04-28 09:13:11,2020-05-20,0.044520076989519736,0.11545431116098326,0.32213324488089223,,,,,,,,,,,,
41061,0,USOregonUnion,Oregon,Union,2022-04-28 09:13:11,2020-05-21,0,0,0,,,,,,,,,,,,
41061,0,USOregonUnion,Oregon,Union,2022-04-28 09:13:11,2020-05-22,0,0,0,,,,,,,,,,,,
41061,0,USOregonUnion,Oregon,Union,2022-04-28 09:13:11,2020-05-23,0,0,0,,,,,,,,,,,,
41061,0,USOregonUnion,Oregon,Union,2022-04-28 09:13:11,2020-05-24,0,0,0,,,,,,,,,,,,
41061,0,USOregonUnion,Oregon,Union,2022-04-28 09:13:11,2020-05-25,0,0,0,,,,,,,,,,,,
41061,0,USOregonUnion,Oregon,Union,2022-04-28 09:13:11,2020-05-26,0,0,0,,,,,,,,,,,,
41061,0,USOregonUnion,Oregon,Union,2022-04-28 09:13:11,2020-05-27,0,0,0,,,,,,,,,,,,
41061,0,USOregonUnion,Oregon,Union,2022-04-28 09:13:11,2020-05-28,0,0,0,,,,,,,,,,,,
41061,0,USOregonUnion,Oregon,Union,2022-04-28 09:13:11,2020-05-29,0,0,0,,,,,,,,,,,,
41061,0,USOregonUnion,Oregon,Union,2022-04-28 09:13:11,2020-05-30,0,0,0,,,,,,,,,,,,
41061,0,USOregonUnion,Oregon,Union,2022-04-28 09:13:11,2020-05-31,0,0,0,,,,,,,,,,,,
41061,0,USOregonUnion,Oregon,Union,2022-04-28 09:13:11,2020-06-01,0,0,0,,,,,,,,,,,,
41061,0,USOregonUnion,Oregon,Union,2022-04-28 09:13:11,2020-06-02,0,0,0,,,,,,,,,,,,
41061,0,USOregonUnion,Oregon,Union,2022-04-28 09:13:11,2020-06-03,0,0,0,,,,,,,,,,,,
41061,0,USOregonUnion,Oregon,Union,2022-04-28 09:13:11,2020-06-04,0.0281981088081384,0.08954333810713319,0.3046681407608816,,,,,,,,,,,,
41061,0,USOregonUnion,Oregon,Union,2022-04-28 09:13:11,2020-06-05,0.0281981088081384,0.08954333810713319,0.3046681407608816,,,,,,,,,,,,
41061,0,USOregonUnion,Oregon,Union,2022-04-28 09:13:11,2020-06-06,0.0281981088081384,0.08954333810713319,0.3046681407608816,,,,,,,,,,,,
41061,0,USOregonUnion,Oregon,Union,2022-04-28 09:13:11,2020-06-07,0.0281981088081384,0.08954333810713319,0.3046681407608816,,,,,,,,,,,,
41061,0,USOregonUnion,Oregon,Union,2022-04-28 09:13:11,2020-06-08,0.0281981088081384,0.08954333810713319,0.3046681407608816,,,,,,,,,,,,
41061,0,USOregonUnion,Oregon,Union,2022-04-28 09:13:11,2020-06-09,0.0281981088081384,0.08954333810713319,0.3046681407608816,,,,,,,,,,,,
41061,0,USOregonUnion,Oregon,Union,2022-04-28 09:13:11,2020-06-10,0.0281981088081384,0.08954333810713319,0.3046681407608816,,,,,,,,,,,,
41061,0,USOregonUnion,Oregon,Union,2022-04-28 09:13:11,2020-06-11,2.103679057717834,2.4140931357554156,2.8029764889345405,,,,,,,,,,,,
41061,0,USOregonUnion,Oregon,Union,2022-04-28 09:13:11,2020-06-12,2.103679057717834,2.4140931357554156,2.8029764889345405,,,,,,,,,,,,
41061,0,USOregonUnion,Oregon,Union,2022-04-28 09:13:11,2020-06-13,2.103679057717834,2.4140931357554156,2.8029764889345405,,,,,,,,,,,,
41061,0,USOregonUnion,Oregon,Union,2022-04-28 09:13:11,2020-06-14,2.103679057717834,2.4140931357554156,2.8029764889345405,,,,,,,,,,,,
41061,0,USOregonUnion,Oregon,Union,2022-04-28 09:13:11,2020-06-15,2.103679057717834,2.4140931357554156,2.8029764889345405,,,,,,,,,,,,
41061,0,USOregonUnion,Oregon,Union,2022-04-28 09:13:11,2020-06-16,2.103679057717834,2.4140931357554156,2.8029764889345405,,,,,,,,,,,,
41061,0,USOregonUnion,Oregon,Union,2022-04-28 09:13:11,2020-06-17,2.103679057717834,2.4140931357554156,2.8029764889345405,,,,,,,,,,,,
41061,0,USOregonUnion,Oregon,Union,2022-04-28 09:13:11,2020-06-18,0.5385406916140945,0.7971807978915039,1.2362033794725682,,,,,,,,,,,,
41061,0,USOregonUnion,Oregon,Union,2022-04-28 09:13:11,2020-06-19,0.5385406916140945,0.7971807978915039,1.2362033794725682,,,,,,,,,,,,
41061,0,USOregonUnion,Oregon,Union,2022-04-28 09:13:11,2020-06-20,0.5385406916140945,0.7971807978915039,1.2362033794725682,,,,,,,,,,,,
41061,0,USOregonUnion,Oregon,Union,2022-04-28 09:13:11,2020-06-21,0.5385406916140945,0.7971807978915039,1.2362033794725682,,,,,,,,,,,,
41061,0,USOregonUnion,Oregon,Union,2022-04-28 09:13:11,2020-06-22,0.5385406916140945,0.7971807978915039,1.2362033794725682,,,,,,,,,,,,
41061,0,USOregonUnion,Oregon,Union,2022-04-28 09:13:11,2020-06-23,0.5385406916140945,0.7971807978915039,1.2362033794725682,,,,,,,,,,,,
41061,0,USOregonUnion,Oregon,Union,2022-04-28 09:13:11,2020-06-24,0.5385406916140945,0.7971807978915039,1.2362033794725682,,,,,,,,,,,,
41061,0,USOregonUnion,Oregon,Union,2022-04-28 09:13:11,2020-06-25,0.6610129711524416,0.9822599675551814,1.529793782553623,,,,,,,,,,,,
41061,0,USOregonUnion,Oregon,Union,2022-04-28 09:13:11,2020-06-26,0.6610129711524416,0.9822599675551814,1.529793782553623,,,,,,,,,,,,
41061,0,USOregonUnion,Oregon,Union,2022-04-28 09:13:11,2020-06-27,0.6610129711524416,0.9822599675551814,1.529793782553623,,,,,,,,,,,,
41061,0,USOregonUnion,Oregon,Union,2022-04-28 09:13:11,2020-06-28,0.6610129711524416,0.9822599675551814,1.529793782553623,,,,,,,,,,,,
41061,0,USOregonUnion,Oregon,Union,2022-04-28 09:13:11,2020-06-29,0.6610129711524416,0.9822599675551814,1.529793782553623,,,,,,,,,,,,
41061,0,USOregonUnion,Oregon,Union,2022-04-28 09:13:11,2020-06-30,0.6610129711524416,0.9822599675551814,1.529793782553623,,,,,,,,,,,,
41061,0,USOregonUnion,Oregon,Union,2022-04-28 09:13:11,2020-07-01,0.6610129711524416,0.9822599675551814,1.529793782553623,,,,,,,,,,,,
41061,0,USOregonUnion,Oregon,Union,2022-04-28 09:13:11,2020-07-02,0.3221209243701434,0.5985359417709731,1.1882607344260383,,,,,,,,,,,,
41061,0,USOregonUnion,Oregon,Union,2022-04-28 09:13:11,2020-07-03,0.3221209243701434,0.5985359417709731,1.1882607344260383,,,,,,,,,,,,
41061,0,USOregonUnion,Oregon,Union,2022-04-28 09:13:11,2020-07-04,0.3221209243701434,0.5985359417709731,1.1882607344260383,,,,,,,,,,,,
41061,0,USOregonUnion,Oregon,Union,2022-04-28 09:13:11,2020-07-05,0.3221209243701434,0.5985359417709731,1.1882607344260383,,,,,,,,,,,,
41061,0,USOregonUnion,Oregon,Union,2022-04-28 09:13:11,2020-07-06,0.3221209243701434,0.5985359417709731,1.1882607344260383,,,,,,,,,,,,
41061,0,USOregonUnion,Oregon,Union,2022-04-28 09:13:11,2020-07-07,0.3221209243701434,0.5985359417709731,1.1882607344260383,,,,,,,,,,,,
41061,0,USOregonUnion,Oregon,Union,2022-04-28 09:13:11,2020-07-08,0.3221209243701434,0.5985359417709731,1.1882607344260383,,,,,,,,,,,,
41061,0,USOregonUnion,Oregon,Union,2022-04-28 09:13:11,2020-07-09,0.22896821323644787,0.48235168629191594,1.0913841494652192,,,,,,,,,,,,
41061,0,USOregonUnion,Oregon,Union,2022-04-28 09:13:11,2020-07-10,0.22896821323644787,0.48235168629191594,1.0913841494652192,,,,,,,,,,,,
41061,0,USOregonUnion,Oregon,Union,2022-04-28 09:13:11,2020-07-11,0.22896821323644787,0.48235168629191594,1.0913841494652192,,,,,,,,,,,,
41061,0,USOregonUnion,Oregon,Union,2022-04-28 09:13:11,2020-07-12,0.22896821323644787,0.48235168629191594,1.0913841494652192,,,,,,,,,,,,
41061,0,USOregonUnion,Oregon,Union,2022-04-28 09:13:11,2020-07-13,0.22896821323644787,0.48235168629191594,1.0913841494652192,,,,,,,,,,,,
41061,0,USOregonUnion,Oregon,Union,2022-04-28 09:13:11,2020-07-14,0.22896821323644787,0.48235168629191594,1.0913841494652192,,,,,,,,,,,,
41061,0,USOregonUnion,Oregon,Union,2022-04-28 09:13:11,2020-07-15,0.22896821323644787,0.48235168629191594,1.0913841494652192,,,,,,,,,,,,
41061,0,USOregonUnion,Oregon,Union,2022-04-28 09:13:11,2020-07-16,0.1711146949802891,0.38608174503165066,0.9369409305282184,,,,,,,,,,,,
41061,0,USOregonUnion,Oregon,Union,2022-04-28 09:13:11,2020-07-17,0.1711146949802891,0.38608174503165066,0.9369409305282184,,,,,,,,,,,,
41061,0,USOregonUnion,Oregon,Union,2022-04-28 09:13:11,2020-07-18,0.1711146949802891,0.38608174503165066,0.9369409305282184,,,,,,,,,,,,
41061,0,USOregonUnion,Oregon,Union,2022-04-28 09:13:11,2020-07-19,0.1711146949802891,0.38608174503165066,0.9369409305282184,,,,,,,,,,,,
41061,0,USOregonUnion,Oregon,Union,2022-04-28 09:13:11,2020-07-20,0.1711146949802891,0.38608174503165066,0.9369409305282184,,,,,,,,,,,,
41061,0,USOregonUnion,Oregon,Union,2022-04-28 09:13:11,2020-07-21,0.1711146949802891,0.38608174503165066,0.9369409305282184,,,,,,,,,,,,
41061,0,USOregonUnion,Oregon,Union,2022-04-28 09:13:11,2020-07-22,0.1711146949802891,0.38608174503165066,0.9369409305282184,,,,,,,,,,,,
41061,0,USOregonUnion,Oregon,Union,2022-04-28 09:13:11,2020-07-23,0.03197486844355088,0.11273420281376569,0.4243764181571224,,,,,,,,,,,,
41061,0,USOregonUnion,Oregon,Union,2022-04-28 09:13:11,2020-07-24,0.03197486844355088,0.11273420281376569,0.4243764181571224,,,,,,,,,,,,
41061,0,USOregonUnion,Oregon,Union,2022-04-28 09:13:11,2020-07-25,0.03197486844355088,0.11273420281376569,0.4243764181571224,,,,,,,,,,,,
41061,0,USOregonUnion,Oregon,Union,2022-04-28 09:13:11,2020-07-26,0.03197486844355088,0.11273420281376569,0.4243764181571224,,,,,,,,,,,,
41061,0,USOregonUnion,Oregon,Union,2022-04-28 09:13:11,2020-07-27,0.03197486844355088,0.11273420281376569,0.4243764181571224,,,,,,,,,,,,
41061,0,USOregonUnion,Oregon,Union,2022-04-28 09:13:11,2020-07-28,0.03197486844355088,0.11273420281376569,0.4243764181571224,,,,,,,,,,,,
41061,0,USOregonUnion,Oregon,Union,2022-04-28 09:13:11,2020-07-29,0.03197486844355088,0.11273420281376569,0.4243764181571224,,,,,,,,,,,,
41061,0,USOregonUnion,Oregon,Union,2022-04-28 09:13:11,2020-07-30,0.1313115116741223,0.3355166661536821,0.9224545431485152,,,,,,,,,,,,
41061,0,USOregonUnion,Oregon,Union,2022-04-28 09:13:11,2020-07-31,0.1313115116741223,0.3355166661536821,0.9224545431485152,,,,,,,,,,,,
41061,0,USOregonUnion,Oregon,Union,2022-04-28 09:13:11,2020-08-01,0.1313115116741223,0.3355166661536821,0.9224545431485152,,,,,,,,,,,,
41061,0,USOregonUnion,Oregon,Union,2022-04-28 09:13:11,2020-08-02,0.1313115116741223,0.3355166661536821,0.9224545431485152,,,,,,,,,,,,
41061,0,USOregonUnion,Oregon,Union,2022-04-28 09:13:11,2020-08-03,0.1313115116741223,0.3355166661536821,0.9224545431485152,,,,,,,,,,,,
41061,0,USOregonUnion,Oregon,Union,2022-04-28 09:13:11,2020-08-04,0.1313115116741223,0.3355166661536821,0.9224545431485152,,,,,,,,,,,,
41061,0,USOregonUnion,Oregon,Union,2022-04-28 09:13:11,2020-08-05,0.1313115116741223,0.3355166661536821,0.9224545431485152,,,,,,,,,,,,
41061,0,USOregonUnion,Oregon,Union,2022-04-28 09:13:11,2020-08-06,0.08307341587269387,0.25980235288252645,0.8709642502009689,,,,,,,,,,,,
41061,0,USOregonUnion,Oregon,Union,2022-04-28 09:13:11,2020-08-07,0.08307341587269387,0.25980235288252645,0.8709642502009689,,,,,,,,,,,,
41061,0,USOregonUnion,Oregon,Union,2022-04-28 09:13:11,2020-08-08,0.08307341587269387,0.25980235288252645,0.8709642502009689,,,,,,,,,,,,
41061,0,USOregonUnion,Oregon,Union,2022-04-28 09:13:11,2020-08-09,0.08307341587269387,0.25980235288252645,0.8709642502009689,,,,,,,,,,,,
41061,0,USOregonUnion,Oregon,Union,2022-04-28 09:13:11,2020-08-10,0.08307341587269387,0.25980235288252645,0.8709642502009689,,,,,,,,,,,,
41061,0,USOregonUnion,Oregon,Union,2022-04-28 09:13:11,2020-08-11,0.08307341587269387,0.25980235288252645,0.8709642502009689,,,,,,,,,,,,
41061,0,USOregonUnion,Oregon,Union,2022-04-28 09:13:11,2020-08-12,0.08307341587269387,0.25980235288252645,0.8709642502009689,,,,,,,,,,,,
41061,0,USOregonUnion,Oregon,Union,2022-04-28 09:13:11,2020-08-13,0.1541954251141506,0.3521756747605716,0.8652792639053217,,,,,,,,,,,,
41061,0,USOregonUnion,Oregon,Union,2022-04-28 09:13:11,2020-08-14,0.1541954251141506,0.3521756747605716,0.8652792639053217,,,,,,,,,,,,
41061,0,USOregonUnion,Oregon,Union,2022-04-28 09:13:11,2020-08-15,0.1541954251141506,0.3521756747605716,0.8652792639053217,,,,,,,,,,,,
41061,0,USOregonUnion,Oregon,Union,2022-04-28 09:13:11,2020-08-16,0.1541954251141506,0.3521756747605716,0.8652792639053217,,,,,,,,,,,,
41061,0,USOregonUnion,Oregon,Union,2022-04-28 09:13:11,2020-08-17,0.1541954251141506,0.3521756747605716,0.8652792639053217,,,,,,,,,,,,
41061,0,USOregonUnion,Oregon,Union,2022-04-28 09:13:11,2020-08-18,0.1541954251141506,0.3521756747605716,0.8652792639053217,,,,,,,,,,,,
41061,0,USOregonUnion,Oregon,Union,2022-04-28 09:13:11,2020-08-19,0.1541954251141506,0.3521756747605716,0.8652792639053217,,,,,,,,,,,,
41061,0,USOregonUnion,Oregon,Union,2022-04-28 09:13:11,2020-08-20,0.13568796789506377,0.31147441055811903,0.7691963594997983,,,,,,,,,,,,
41061,0,USOregonUnion,Oregon,Union,2022-04-28 09:13:11,2020-08-21,0.13568796789506377,0.31147441055811903,0.7691963594997983,,,,,,,,,,,,
41061,0,USOregonUnion,Oregon,Union,2022-04-28 09:13:11,2020-08-22,0.13568796789506377,0.31147441055811903,0.7691963594997983,,,,,,,,,,,,
41061,0,USOregonUnion,Oregon,Union,2022-04-28 09:13:11,2020-08-23,0.13568796789506377,0.31147441055811903,0.7691963594997983,,,,,,,,,,,,
41061,0,USOregonUnion,Oregon,Union,2022-04-28 09:13:11,2020-08-24,0.13568796789506377,0.31147441055811903,0.7691963594997983,,,,,,,,,,,,
41061,0,USOregonUnion,Oregon,Union,2022-04-28 09:13:11,2020-08-25,0.13568796789506377,0.31147441055811903,0.7691963594997983,,,,,,,,,,,,
41061,0,USOregonUnion,Oregon,Union,2022-04-28 09:13:11,2020-08-26,0.13568796789506377,0.31147441055811903,0.7691963594997983,,,,,,,,,,,,
41061,0,USOregonUnion,Oregon,Union,2022-04-28 09:13:11,2020-08-27,0.17001687852658062,0.3469140883211637,0.7595335196013407,,,,,,,,,,,,
41061,0,USOregonUnion,Oregon,Union,2022-04-28 09:13:11,2020-08-28,0.17001687852658062,0.3469140883211637,0.7595335196013407,,,,,,,,,,,,
41061,0,USOregonUnion,Oregon,Union,2022-04-28 09:13:11,2020-08-29,0.17001687852658062,0.3469140883211637,0.7595335196013407,,,,,,,,,,,,
41061,0,USOregonUnion,Oregon,Union,2022-04-28 09:13:11,2020-08-30,0.17001687852658062,0.3469140883211637,0.7595335196013407,,,,,,,,,,,,
41061,0,USOregonUnion,Oregon,Union,2022-04-28 09:13:11,2020-08-31,0.17001687852658062,0.3469140883211637,0.7595335196013407,,,,,,,,,,,,
41061,0,USOregonUnion,Oregon,Union,2022-04-28 09:13:11,2020-09-01,0.17001687852658062,0.3469140883211637,0.7595335196013407,,,,,,,,,,,,
41061,0,USOregonUnion,Oregon,Union,2022-04-28 09:13:11,2020-09-02,0.17001687852658062,0.3469140883211637,0.7595335196013407,,,,,,,,,,,,
41061,0,USOregonUnion,Oregon,Union,2022-04-28 09:13:11,2020-09-03,0.10319228618019813,0.25042264766684547,0.654001213789722,,,,,,,,,,,,
41061,0,USOregonUnion,Oregon,Union,2022-04-28 09:13:11,2020-09-04,0.10319228618019813,0.25042264766684547,0.654001213789722,,,,,,,,,,,,
41061,0,USOregonUnion,Oregon,Union,2022-04-28 09:13:11,2020-09-05,0.10319228618019813,0.25042264766684547,0.654001213789722,,,,,,,,,,,,
41061,0,USOregonUnion,Oregon,Union,2022-04-28 09:13:11,2020-09-06,0.10319228618019813,0.25042264766684547,0.654001213789722,,,,,,,,,,,,
41061,0,USOregonUnion,Oregon,Union,2022-04-28 09:13:11,2020-09-07,0.10319228618019813,0.25042264766684547,0.654001213789722,,,,,,,,,,,,
41061,0,USOregonUnion,Oregon,Union,2022-04-28 09:13:11,2020-09-08,0.10319228618019813,0.25042264766684547,0.654001213789722,,,,,,,,,,,,
41061,0,USOregonUnion,Oregon,Union,2022-04-28 09:13:11,2020-09-09,0.10319228618019813,0.25042264766684547,0.654001213789722,,,,,,,,,,,,
41061,0,USOregonUnion,Oregon,Union,2022-04-28 09:13:11,2020-09-10,0.1857275362627069,0.3766013416870153,0.8191936948265005,,,,,,,,,,,,
41061,0,USOregonUnion,Oregon,Union,2022-04-28 09:13:11,2020-09-11,0.1857275362627069,0.3766013416870153,0.8191936948265005,,,,,,,,,,,,
41061,0,USOregonUnion,Oregon,Union,2022-04-28 09:13:11,2020-09-12,0.1857275362627069,0.3766013416870153,0.8191936948265005,,,,,,,,,,,,
41061,0,USOregonUnion,Oregon,Union,2022-04-28 09:13:11,2020-09-13,0.1857275362627069,0.3766013416870153,0.8191936948265005,,,,,,,,,,,,
41061,0,USOregonUnion,Oregon,Union,2022-04-28 09:13:11,2020-09-14,0.1857275362627069,0.3766013416870153,0.8191936948265005,,,,,,,,,,,,
41061,0,USOregonUnion,Oregon,Union,2022-04-28 09:13:11,2020-09-15,0.1857275362627069,0.3766013416870153,0.8191936948265005,,,,,,,,,,,,
41061,0,USOregonUnion,Oregon,Union,2022-04-28 09:13:11,2020-09-16,0.1857275362627069,0.3766013416870153,0.8191936948265005,,,,,,,,,,,,
41061,0,USOregonUnion,Oregon,Union,2022-04-28 09:13:11,2020-09-17,0,0,0,,,,,,,,,,,,
41061,0,USOregonUnion,Oregon,Union,2022-04-28 09:13:11,2020-09-18,0,0,0,,,,,,,,,,,,
41061,0,USOregonUnion,Oregon,Union,2022-04-28 09:13:11,2020-09-19,0,0,0,,,,,,,,,,,,
41061,0,USOregonUnion,Oregon,Union,2022-04-28 09:13:11,2020-09-20,0,0,0,,,,,,,,,,,,
41061,0,USOregonUnion,Oregon,Union,2022-04-28 09:13:11,2020-09-21,0,0,0,,,,,,,,,,,,
41061,0,USOregonUnion,Oregon,Union,2022-04-28 09:13:11,2020-09-22,0,0,0,,,,,,,,,,,,
41061,0,USOregonUnion,Oregon,Union,2022-04-28 09:13:11,2020-09-23,0,0,0,,,,,,,,,,,,
41061,0,USOregonUnion,Oregon,Union,2022-04-28 09:13:11,2020-09-24,0.1977856334850407,0.4244836878816654,0.9789486198822028,,,,,,,,,,,,
41061,0,USOregonUnion,Oregon,Union,2022-04-28 09:13:11,2020-09-25,0.1977856334850407,0.4244836878816654,0.9789486198822028,,,,,,,,,,,,
41061,0,USOregonUnion,Oregon,Union,2022-04-28 09:13:11,2020-09-26,0.1977856334850407,0.4244836878816654,0.9789486198822028,,,,,,,,,,,,
41061,0,USOregonUnion,Oregon,Union,2022-04-28 09:13:11,2020-09-27,0.1977856334850407,0.4244836878816654,0.9789486198822028,,,,,,,,,,,,
41061,0,USOregonUnion,Oregon,Union,2022-04-28 09:13:11,2020-09-28,0.1977856334850407,0.4244836878816654,0.9789486198822028,,,,,,,,,,,,
41061,0,USOregonUnion,Oregon,Union,2022-04-28 09:13:11,2020-09-29,0.1977856334850407,0.4244836878816654,0.9789486198822028,,,,,,,,,,,,
41061,0,USOregonUnion,Oregon,Union,2022-04-28 09:13:11,2020-09-30,0.1977856334850407,0.4244836878816654,0.9789486198822028,,,,,,,,,,,,
41061,0,USOregonUnion,Oregon,Union,2022-04-28 09:13:11,2020-10-01,0.052341154367715345,0.1560469983357246,0.4993459157880728,,,,,,,,,,,,
41061,0,USOregonUnion,Oregon,Union,2022-04-28 09:13:11,2020-10-02,0.052341154367715345,0.1560469983357246,0.4993459157880728,,,,,,,,,,,,
41061,0,USOregonUnion,Oregon,Union,2022-04-28 09:13:11,2020-10-03,0.052341154367715345,0.1560469983357246,0.4993459157880728,,,,,,,,,,,,
41061,0,USOregonUnion,Oregon,Union,2022-04-28 09:13:11,2020-10-04,0.052341154367715345,0.1560469983357246,0.4993459157880728,,,,,,,,,,,,
41061,0,USOregonUnion,Oregon,Union,2022-04-28 09:13:11,2020-10-05,0.052341154367715345,0.1560469983357246,0.4993459157880728,,,,,,,,,,,,
41061,0,USOregonUnion,Oregon,Union,2022-04-28 09:13:11,2020-10-06,0.052341154367715345,0.1560469983357246,0.4993459157880728,,,,,,,,,,,,
41061,0,USOregonUnion,Oregon,Union,2022-04-28 09:13:11,2020-10-07,0.052341154367715345,0.1560469983357246,0.4993459157880728,,,,,,,,,,,,
41061,0,USOregonUnion,Oregon,Union,2022-04-28 09:13:11,2020-10-08,0.12121986042295765,0.2886817957497542,0.739809682035923,,,,,,,,,,,,
41061,0,USOregonUnion,Oregon,Union,2022-04-28 09:13:11,2020-10-09,0.12121986042295765,0.2886817957497542,0.739809682035923,,,,,,,,,,,,
41061,0,USOregonUnion,Oregon,Union,2022-04-28 09:13:11,2020-10-10,0.12121986042295765,0.2886817957497542,0.739809682035923,,,,,,,,,,,,
41061,0,USOregonUnion,Oregon,Union,2022-04-28 09:13:11,2020-10-11,0.12121986042295765,0.2886817957497542,0.739809682035923,,,,,,,,,,,,
41061,0,USOregonUnion,Oregon,Union,2022-04-28 09:13:11,2020-10-12,0.12121986042295765,0.2886817957497542,0.739809682035923,,,,,,,,,,,,
41061,0,USOregonUnion,Oregon,Union,2022-04-28 09:13:11,2020-10-13,0.12121986042295765,0.2886817957497542,0.739809682035923,,,,,,,,,,,,
41061,0,USOregonUnion,Oregon,Union,2022-04-28 09:13:11,2020-10-14,0.12121986042295765,0.2886817957497542,0.739809682035923,,,,,,,,,,,,
41061,0,USOregonUnion,Oregon,Union,2022-04-28 09:13:11,2020-10-15,0.10227917682034415,0.24626608507373446,0.6381074396454416,,,,,,,,,,,,
41061,0,USOregonUnion,Oregon,Union,2022-04-28 09:13:11,2020-10-16,0.10227917682034415,0.24626608507373446,0.6381074396454416,,,,,,,,,,,,
41061,0,USOregonUnion,Oregon,Union,2022-04-28 09:13:11,2020-10-17,0.10227917682034415,0.24626608507373446,0.6381074396454416,,,,,,,,,,,,
41061,0,USOregonUnion,Oregon,Union,2022-04-28 09:13:11,2020-10-18,0.10227917682034415,0.24626608507373446,0.6381074396454416,,,,,,,,,,,,
41061,0,USOregonUnion,Oregon,Union,2022-04-28 09:13:11,2020-10-19,0.10227917682034415,0.24626608507373446,0.6381074396454416,,,,,,,,,,,,
41061,0,USOregonUnion,Oregon,Union,2022-04-28 09:13:11,2020-10-20,0.10227917682034415,0.24626608507373446,0.6381074396454416,,,,,,,,,,,,
41061,0,USOregonUnion,Oregon,Union,2022-04-28 09:13:11,2020-10-21,0.10227917682034415,0.24626608507373446,0.6381074396454416,,,,,,,,,,,,
41061,0,USOregonUnion,Oregon,Union,2022-04-28 09:13:11,2020-10-22,0.2860937571791335,0.5226667553306927,1.0191988834990977,,,,,,,,,,,,
41061,0,USOregonUnion,Oregon,Union,2022-04-28 09:13:11,2020-10-23,0.2860937571791335,0.5226667553306927,1.0191988834990977,,,,,,,,,,,,
41061,0,USOregonUnion,Oregon,Union,2022-04-28 09:13:11,2020-10-24,0.2860937571791335,0.5226667553306927,1.0191988834990977,,,,,,,,,,,,
41061,0,USOregonUnion,Oregon,Union,2022-04-28 09:13:11,2020-10-25,0.2860937571791335,0.5226667553306927,1.0191988834990977,,,,,,,,,,,,
41061,0,USOregonUnion,Oregon,Union,2022-04-28 09:13:11,2020-10-26,0.2860937571791335,0.5226667553306927,1.0191988834990977,,,,,,,,,,,,
41061,0,USOregonUnion,Oregon,Union,2022-04-28 09:13:11,2020-10-27,0.2860937571791335,0.5226667553306927,1.0191988834990977,,,,,,,,,,,,
41061,0,USOregonUnion,Oregon,Union,2022-04-28 09:13:11,2020-10-28,0.2860937571791335,0.5226667553306927,1.0191988834990977,,,,,,,,,,,,
41061,0,USOregonUnion,Oregon,Union,2022-04-28 09:13:11,2020-10-29,0.4113101741088472,0.7113476848181083,1.3082517353404357,,,,,,,,,,,,
41061,0,USOregonUnion,Oregon,Union,2022-04-28 09:13:11,2020-10-30,0.4113101741088472,0.7113476848181083,1.3082517353404357,,,,,,,,,,,,
41061,0,USOregonUnion,Oregon,Union,2022-04-28 09:13:11,2020-10-31,0.4113101741088472,0.7113476848181083,1.3082517353404357,,,,,,,,,,,,
41061,0,USOregonUnion,Oregon,Union,2022-04-28 09:13:11,2020-11-01,0.4113101741088472,0.7113476848181083,1.3082517353404357,,,,,,,,,,,,
41061,0,USOregonUnion,Oregon,Union,2022-04-28 09:13:11,2020-11-02,0.4113101741088472,0.7113476848181083,1.3082517353404357,,,,,,,,,,,,
41061,0,USOregonUnion,Oregon,Union,2022-04-28 09:13:11,2020-11-03,0.4113101741088472,0.7113476848181083,1.3082517353404357,,,,,,,,,,,,
41061,0,USOregonUnion,Oregon,Union,2022-04-28 09:13:11,2020-11-04,0.4113101741088472,0.7113476848181083,1.3082517353404357,,,,,,,,,,,,
41061,0,USOregonUnion,Oregon,Union,2022-04-28 09:13:11,2020-11-05,0.758133569561982,1.2563510691435835,2.2063299296686503,,,,,,,,,,,,
41061,0,USOregonUnion,Oregon,Union,2022-04-28 09:13:11,2020-11-06,0.758133569561982,1.2563510691435835,2.2063299296686503,,,,,,,,,,,,
41061,0,USOregonUnion,Oregon,Union,2022-04-28 09:13:11,2020-11-07,0.758133569561982,1.2563510691435835,2.2063299296686503,,,,,,,,,,,,
41061,0,USOregonUnion,Oregon,Union,2022-04-28 09:13:11,2020-11-08,0.758133569561982,1.2563510691435835,2.2063299296686503,,,,,,,,,,,,
41061,0,USOregonUnion,Oregon,Union,2022-04-28 09:13:11,2020-11-09,0.758133569561982,1.2563510691435835,2.2063299296686503,,,,,,,,,,,,
41061,0,USOregonUnion,Oregon,Union,2022-04-28 09:13:11,2020-11-10,0.758133569561982,1.2563510691435835,2.2063299296686503,,,,,,,,,,,,
41061,0,USOregonUnion,Oregon,Union,2022-04-28 09:13:11,2020-11-11,0.758133569561982,1.2563510691435835,2.2063299296686503,,,,,,,,,,,,
41061,0,USOregonUnion,Oregon,Union,2022-04-28 09:13:11,2020-11-12,0.8985881418422502,1.456417949586598,2.49654783684012,,,,,,,,,,,,
41061,0,USOregonUnion,Oregon,Union,2022-04-28 09:13:11,2020-11-13,0.8985881418422502,1.456417949586598,2.49654783684012,,,,,,,,,,,,
41061,0,USOregonUnion,Oregon,Union,2022-04-28 09:13:11,2020-11-14,0.8985881418422502,1.456417949586598,2.49654783684012,,,,,,,,,,,,
41061,0,USOregonUnion,Oregon,Union,2022-04-28 09:13:11,2020-11-15,0.8985881418422502,1.456417949586598,2.49654783684012,,,,,,,,,,,,
41061,0,USOregonUnion,Oregon,Union,2022-04-28 09:13:11,2020-11-16,0.8985881418422502,1.456417949586598,2.49654783684012,,,,,,,,,,,,
41061,0,USOregonUnion,Oregon,Union,2022-04-28 09:13:11,2020-11-17,0.8985881418422502,1.456417949586598,2.49654783684012,,,,,,,,,,,,
41061,0,USOregonUnion,Oregon,Union,2022-04-28 09:13:11,2020-11-18,0.8985881418422502,1.456417949586598,2.49654783684012,,,,,,,,,,,,
41061,0,USOregonUnion,Oregon,Union,2022-04-28 09:13:11,2020-11-19,1.3868203536999721,2.050945702070064,3.1771347556643166,,,,,,,,,,,,
41061,0,USOregonUnion,Oregon,Union,2022-04-28 09:13:11,2020-11-20,1.3868203536999721,2.050945702070064,3.1771347556643166,,,,,,,,,,,,
41061,0,USOregonUnion,Oregon,Union,2022-04-28 09:13:11,2020-11-21,1.3868203536999721,2.050945702070064,3.1771347556643166,,,,,,,,,,,,
41061,0,USOregonUnion,Oregon,Union,2022-04-28 09:13:11,2020-11-22,1.3868203536999721,2.050945702070064,3.1771347556643166,,,,,,,,,,,,
41061,0,USOregonUnion,Oregon,Union,2022-04-28 09:13:11,2020-11-23,1.3868203536999721,2.050945702070064,3.1771347556643166,,,,,,,,,,,,
41061,0,USOregonUnion,Oregon,Union,2022-04-28 09:13:11,2020-11-24,1.3868203536999721,2.050945702070064,3.1771347556643166,,,,,,,,,,,,
41061,0,USOregonUnion,Oregon,Union,2022-04-28 09:13:11,2020-11-25,1.3868203536999721,2.050945702070064,3.1771347556643166,,,,,,,,,,,,
41061,0,USOregonUnion,Oregon,Union,2022-04-28 09:13:11,2020-11-26,0.8849362635512371,1.5169518145652428,2.763337053551547,,,,,,,,,,,,
41061,0,USOregonUnion,Oregon,Union,2022-04-28 09:13:11,2020-11-27,0.8849362635512371,1.5169518145652428,2.763337053551547,,,,,,,,,,,,
41061,0,USOregonUnion,Oregon,Union,2022-04-28 09:13:11,2020-11-28,0.8849362635512371,1.5169518145652428,2.763337053551547,,,,,,,,,,,,
41061,0,USOregonUnion,Oregon,Union,2022-04-28 09:13:11,2020-11-29,0.8849362635512371,1.5169518145652428,2.763337053551547,,,,,,,,,,,,
41061,0,USOregonUnion,Oregon,Union,2022-04-28 09:13:11,2020-11-30,0.8849362635512371,1.5169518145652428,2.763337053551547,,,,,,,,,,,,
41061,0,USOregonUnion,Oregon,Union,2022-04-28 09:13:11,2020-12-01,0.8849362635512371,1.5169518145652428,2.763337053551547,,,,,,,,,,,,
41061,0,USOregonUnion,Oregon,Union,2022-04-28 09:13:11,2020-12-02,0.8849362635512371,1.5169518145652428,2.763337053551547,,,,,,,,,,,,
41061,0,USOregonUnion,Oregon,Union,2022-04-28 09:13:11,2020-12-03,0.8351743170870751,1.3983941417449057,2.4834725616043962,,,,,,,,,,,,
41061,0,USOregonUnion,Oregon,Union,2022-04-28 09:13:11,2020-12-04,0.8351743170870751,1.3983941417449057,2.4834725616043962,,,,,,,,,,,,
41061,0,USOregonUnion,Oregon,Union,2022-04-28 09:13:11,2020-12-05,0.8351743170870751,1.3983941417449057,2.4834725616043962,,,,,,,,,,,,
41061,0,USOregonUnion,Oregon,Union,2022-04-28 09:13:11,2020-12-06,0.8351743170870751,1.3983941417449057,2.4834725616043962,,,,,,,,,,,,
41061,0,USOregonUnion,Oregon,Union,2022-04-28 09:13:11,2020-12-07,0.8351743170870751,1.3983941417449057,2.4834725616043962,,,,,,,,,,,,
41061,0,USOregonUnion,Oregon,Union,2022-04-28 09:13:11,2020-12-08,0.8351743170870751,1.3983941417449057,2.4834725616043962,,,,,,,,,,,,
41061,0,USOregonUnion,Oregon,Union,2022-04-28 09:13:11,2020-12-09,0.8351743170870751,1.3983941417449057,2.4834725616043962,,,,,,,,,,,,
41061,0,USOregonUnion,Oregon,Union,2022-04-28 09:13:11,2020-12-10,0.7071721719028027,1.197930978989283,2.15442953386325,,,,,,,,,,,,
41061,0,USOregonUnion,Oregon,Union,2022-04-28 09:13:11,2020-12-11,0.7071721719028027,1.197930978989283,2.15442953386325,,,,,,,,,,,,
41061,0,USOregonUnion,Oregon,Union,2022-04-28 09:13:11,2020-12-12,0.7071721719028027,1.197930978989283,2.15442953386325,,,,,,,,,,,,
41061,0,USOregonUnion,Oregon,Union,2022-04-28 09:13:11,2020-12-13,0.7071721719028027,1.197930978989283,2.15442953386325,,,,,,,,,,,,
41061,0,USOregonUnion,Oregon,Union,2022-04-28 09:13:11,2020-12-14,0.7071721719028027,1.197930978989283,2.15442953386325,,,,,,,,,,,,
41061,0,USOregonUnion,Oregon,Union,2022-04-28 09:13:11,2020-12-15,0.7071721719028027,1.197930978989283,2.15442953386325,,,,,,,,,,,,
41061,0,USOregonUnion,Oregon,Union,2022-04-28 09:13:11,2020-12-16,0.7071721719028027,1.197930978989283,2.15442953386325,,,,,,,,,,,,
41061,0,USOregonUnion,Oregon,Union,2022-04-28 09:13:11,2020-12-17,0.5672434177108726,1.0534862704107457,2.090385981501731,,,,,,,,,,,,
41061,0,USOregonUnion,Oregon,Union,2022-04-28 09:13:11,2020-12-18,0.5672434177108726,1.0534862704107457,2.090385981501731,,,,,,,,,,,,
41061,0,USOregonUnion,Oregon,Union,2022-04-28 09:13:11,2020-12-19,0.5672434177108726,1.0534862704107457,2.090385981501731,,,,,,,,,,,,
41061,0,USOregonUnion,Oregon,Union,2022-04-28 09:13:11,2020-12-20,0.5672434177108726,1.0534862704107457,2.090385981501731,,,,,,,,,,,,
41061,0,USOregonUnion,Oregon,Union,2022-04-28 09:13:11,2020-12-21,0.5672434177108726,1.0534862704107457,2.090385981501731,,,,,,,,,,,,
41061,0,USOregonUnion,Oregon,Union,2022-04-28 09:13:11,2020-12-22,0.5672434177108726,1.0534862704107457,2.090385981501731,,,,,,,,,,,,
41061,0,USOregonUnion,Oregon,Union,2022-04-28 09:13:11,2020-12-23,0.5672434177108726,1.0534862704107457,2.090385981501731,,,,,,,,,,,,
41061,0,USOregonUnion,Oregon,Union,2022-04-28 09:13:11,2020-12-24,0.32533748967299186,0.6681265137609157,1.472559619578925,,,,,,,,,,,,
41061,0,USOregonUnion,Oregon,Union,2022-04-28 09:13:11,2020-12-25,0.32533748967299186,0.6681265137609157,1.472559619578925,,,,,,,,,,,,
41061,0,USOregonUnion,Oregon,Union,2022-04-28 09:13:11,2020-12-26,0.32533748967299186,0.6681265137609157,1.472559619578925,,,,,,,,,,,,
41061,0,USOregonUnion,Oregon,Union,2022-04-28 09:13:11,2020-12-27,0.32533748967299186,0.6681265137609157,1.472559619578925,,,,,,,,,,,,
41061,0,USOregonUnion,Oregon,Union,2022-04-28 09:13:11,2020-12-28,0.32533748967299186,0.6681265137609157,1.472559619578925,,,,,,,,,,,,
41061,0,USOregonUnion,Oregon,Union,2022-04-28 09:13:11,2020-12-29,0.32533748967299186,0.6681265137609157,1.472559619578925,,,,,,,,,,,,
41061,0,USOregonUnion,Oregon,Union,2022-04-28 09:13:11,2020-12-30,0.32533748967299186,0.6681265137609157,1.472559619578925,,,,,,,,,,,,
41061,0,USOregonUnion,Oregon,Union,2022-04-28 09:13:11,2020-12-31,0.3866335310662109,0.8476097336746937,1.997673318231882,,,,,,,,,,,,
41061,0,USOregonUnion,Oregon,Union,2022-04-28 09:13:11,2021-01-01,0.3866335310662109,0.8476097336746937,1.997673318231882,,,,,,,,,,,,
41061,0,USOregonUnion,Oregon,Union,2022-04-28 09:13:11,2021-01-02,0.3866335310662109,0.8476097336746937,1.997673318231882,,,,,,,,,,,,
41061,0,USOregonUnion,Oregon,Union,2022-04-28 09:13:11,2021-01-03,0.3866335310662109,0.8476097336746937,1.997673318231882,,,,,,,,,,,,
41061,0,USOregonUnion,Oregon,Union,2022-04-28 09:13:11,2021-01-04,0.3866335310662109,0.8476097336746937,1.997673318231882,,,,,,,,,,,,
41061,0,USOregonUnion,Oregon,Union,2022-04-28 09:13:11,2021-01-05,0.3866335310662109,0.8476097336746937,1.997673318231882,,,,,,,,,,,,
41061,0,USOregonUnion,Oregon,Union,2022-04-28 09:13:11,2021-01-06,0.3866335310662109,0.8476097336746937,1.997673318231882,,,,,,,,,,,,
41061,0,USOregonUnion,Oregon,Union,2022-04-28 09:13:11,2021-01-07,0.9563190651767889,1.5572686061152121,2.6831217209838427,,,,,,,,,,,,
41061,0,USOregonUnion,Oregon,Union,2022-04-28 09:13:11,2021-01-08,0.9563190651767889,1.5572686061152121,2.6831217209838427,,,,,,,,,,,,
41061,0,USOregonUnion,Oregon,Union,2022-04-28 09:13:11,2021-01-09,0.9563190651767889,1.5572686061152121,2.6831217209838427,,,,,,,,,,,,
41061,0,USOregonUnion,Oregon,Union,2022-04-28 09:13:11,2021-01-10,0.9563190651767889,1.5572686061152121,2.6831217209838427,,,,,,,,,,,,
41061,0,USOregonUnion,Oregon,Union,2022-04-28 09:13:11,2021-01-11,0.9563190651767889,1.5572686061152121,2.6831217209838427,,,,,,,,,,,,
41061,0,USOregonUnion,Oregon,Union,2022-04-28 09:13:11,2021-01-12,0.9563190651767889,1.5572686061152121,2.6831217209838427,,,,,,,,,,,,
41061,0,USOregonUnion,Oregon,Union,2022-04-28 09:13:11,2021-01-13,0.9563190651767889,1.5572686061152121,2.6831217209838427,,,,,,,,,,,,
41061,0,USOregonUnion,Oregon,Union,2022-04-28 09:13:11,2021-01-14,0.7432156304364353,1.2295349394601613,2.1552454844999107,,,,,,,,,,,,
41061,0,USOregonUnion,Oregon,Union,2022-04-28 09:13:11,2021-01-15,0.7432156304364353,1.2295349394601613,2.1552454844999107,,,,,,,,,,,,
41061,0,USOregonUnion,Oregon,Union,2022-04-28 09:13:11,2021-01-16,0.7432156304364353,1.2295349394601613,2.1552454844999107,,,,,,,,,,,,
41061,0,USOregonUnion,Oregon,Union,2022-04-28 09:13:11,2021-01-17,0.7432156304364353,1.2295349394601613,2.1552454844999107,,,,,,,,,,,,
41061,0,USOregonUnion,Oregon,Union,2022-04-28 09:13:11,2021-01-18,0.7432156304364353,1.2295349394601613,2.1552454844999107,,,,,,,,,,,,
41061,0,USOregonUnion,Oregon,Union,2022-04-28 09:13:11,2021-01-19,0.7432156304364353,1.2295349394601613,2.1552454844999107,,,,,,,,,,,,
41061,0,USOregonUnion,Oregon,Union,2022-04-28 09:13:11,2021-01-20,0.7432156304364353,1.2295349394601613,2.1552454844999107,,,,,,,,,,,,
41061,0,USOregonUnion,Oregon,Union,2022-04-28 09:13:11,2021-01-21,0.5096867830418477,0.8800534575073191,1.6156909478906416,,,,,,,,,,,,
41061,0,USOregonUnion,Oregon,Union,2022-04-28 09:13:11,2021-01-22,0.5096867830418477,0.8800534575073191,1.6156909478906416,,,,,,,,,,,,
41061,0,USOregonUnion,Oregon,Union,2022-04-28 09:13:11,2021-01-23,0.5096867830418477,0.8800534575073191,1.6156909478906416,,,,,,,,,,,,
41061,0,USOregonUnion,Oregon,Union,2022-04-28 09:13:11,2021-01-24,0.5096867830418477,0.8800534575073191,1.6156909478906416,,,,,,,,,,,,
41061,0,USOregonUnion,Oregon,Union,2022-04-28 09:13:11,2021-01-25,0.5096867830418477,0.8800534575073191,1.6156909478906416,,,,,,,,,,,,
41061,0,USOregonUnion,Oregon,Union,2022-04-28 09:13:11,2021-01-26,0.5096867830418477,0.8800534575073191,1.6156909478906416,,,,,,,,,,,,
41061,0,USOregonUnion,Oregon,Union,2022-04-28 09:13:11,2021-01-27,0.5096867830418477,0.8800534575073191,1.6156909478906416,,,,,,,,,,,,
41061,0,USOregonUnion,Oregon,Union,2022-04-28 09:13:11,2021-01-28,0.5075154090288811,0.872879200262363,1.595779672411473,,,,,,,,,,,,
41061,0,USOregonUnion,Oregon,Union,2022-04-28 09:13:11,2021-01-29,0.5075154090288811,0.872879200262363,1.595779672411473,,,,,,,,,,,,
41061,0,USOregonUnion,Oregon,Union,2022-04-28 09:13:11,2021-01-30,0.5075154090288811,0.872879200262363,1.595779672411473,,,,,,,,,,,,
41061,0,USOregonUnion,Oregon,Union,2022-04-28 09:13:11,2021-01-31,0.5075154090288811,0.872879200262363,1.595779672411473,,,,,,,,,,,,
41061,0,USOregonUnion,Oregon,Union,2022-04-28 09:13:11,2021-02-01,0.5075154090288811,0.872879200262363,1.595779672411473,,,,,,,,,,,,
41061,0,USOregonUnion,Oregon,Union,2022-04-28 09:13:11,2021-02-02,0.5075154090288811,0.872879200262363,1.595779672411473,,,,,,,,,,,,
41061,0,USOregonUnion,Oregon,Union,2022-04-28 09:13:11,2021-02-03,0.5075154090288811,0.872879200262363,1.595779672411473,,,,,,,,,,,,
41061,0,USOregonUnion,Oregon,Union,2022-04-28 09:13:11,2021-02-04,0.47211454257003105,0.8007868492782624,1.4422009082344427,,,,,,,,,,,,
41061,0,USOregonUnion,Oregon,Union,2022-04-28 09:13:11,2021-02-05,0.47211454257003105,0.8007868492782624,1.4422009082344427,,,,,,,,,,,,
41061,0,USOregonUnion,Oregon,Union,2022-04-28 09:13:11,2021-02-06,0.47211454257003105,0.8007868492782624,1.4422009082344427,,,,,,,,,,,,
41061,0,USOregonUnion,Oregon,Union,2022-04-28 09:13:11,2021-02-07,0.47211454257003105,0.8007868492782624,1.4422009082344427,,,,,,,,,,,,
41061,0,USOregonUnion,Oregon,Union,2022-04-28 09:13:11,2021-02-08,0.47211454257003105,0.8007868492782624,1.4422009082344427,,,,,,,,,,,,
41061,0,USOregonUnion,Oregon,Union,2022-04-28 09:13:11,2021-02-09,0.47211454257003105,0.8007868492782624,1.4422009082344427,,,,,,,,,,,,
41061,0,USOregonUnion,Oregon,Union,2022-04-28 09:13:11,2021-02-10,0.47211454257003105,0.8007868492782624,1.4422009082344427,,,,,,,,,,,,
41061,0,USOregonUnion,Oregon,Union,2022-04-28 09:13:11,2021-02-11,0.3744334500823605,0.6566992688408749,1.2260319624238938,,,,,,,,,,,,
41061,0,USOregonUnion,Oregon,Union,2022-04-28 09:13:11,2021-02-12,0.3744334500823605,0.6566992688408749,1.2260319624238938,,,,,,,,,,,,
41061,0,USOregonUnion,Oregon,Union,2022-04-28 09:13:11,2021-02-13,0.3744334500823605,0.6566992688408749,1.2260319624238938,,,,,,,,,,,,
41061,0,USOregonUnion,Oregon,Union,2022-04-28 09:13:11,2021-02-14,0.3744334500823605,0.6566992688408749,1.2260319624238938,,,,,,,,,,,,
41061,0,USOregonUnion,Oregon,Union,2022-04-28 09:13:11,2021-02-15,0.3744334500823605,0.6566992688408749,1.2260319624238938,,,,,,,,,,,,
41061,0,USOregonUnion,Oregon,Union,2022-04-28 09:13:11,2021-02-16,0.3744334500823605,0.6566992688408749,1.2260319624238938,,,,,,,,,,,,
41061,0,USOregonUnion,Oregon,Union,2022-04-28 09:13:11,2021-02-17,0.3744334500823605,0.6566992688408749,1.2260319624238938,,,,,,,,,,,,
41061,0,USOregonUnion,Oregon,Union,2022-04-28 09:13:11,2021-02-18,0.22903963634390914,0.45131971783889113,0.9529503060121634,,,,,,,,,,,,
41061,0,USOregonUnion,Oregon,Union,2022-04-28 09:13:11,2021-02-19,0.22903963634390914,0.45131971783889113,0.9529503060121634,,,,,,,,,,,,
41061,0,USOregonUnion,Oregon,Union,2022-04-28 09:13:11,2021-02-20,0.22903963634390914,0.45131971783889113,0.9529503060121634,,,,,,,,,,,,
41061,0,USOregonUnion,Oregon,Union,2022-04-28 09:13:11,2021-02-21,0.22903963634390914,0.45131971783889113,0.9529503060121634,,,,,,,,,,,,
41061,0,USOregonUnion,Oregon,Union,2022-04-28 09:13:11,2021-02-22,0.22903963634390914,0.45131971783889113,0.9529503060121634,,,,,,,,,,,,
41061,0,USOregonUnion,Oregon,Union,2022-04-28 09:13:11,2021-02-23,0.22903963634390914,0.45131971783889113,0.9529503060121634,,,,,,,,,,,,
41061,0,USOregonUnion,Oregon,Union,2022-04-28 09:13:11,2021-02-24,0.22903963634390914,0.45131971783889113,0.9529503060121634,,,,,,,,,,,,
41061,0,USOregonUnion,Oregon,Union,2022-04-28 09:13:11,2021-02-25,0.2771104000172229,0.39704804551811457,0.5936343750759178,,,,,,,,,,,,
41061,0,USOregonUnion,Oregon,Union,2022-04-28 09:13:11,2021-02-26,0.2771104000172229,0.39704804551811457,0.5936343750759178,,,,,,,,,,,,
41061,0,USOregonUnion,Oregon,Union,2022-04-28 09:13:11,2021-02-27,0.2771104000172229,0.39704804551811457,0.5936343750759178,,,,,,,,,,,,
41061,0,USOregonUnion,Oregon,Union,2022-04-28 09:13:11,2021-02-28,0.2771104000172229,0.39704804551811457,0.5936343750759178,,,,,,,,,,,,
41061,0,USOregonUnion,Oregon,Union,2022-04-28 09:13:11,2021-03-01,0.2771104000172229,0.39704804551811457,0.5936343750759178,,,,,,,,,,,,
41061,0,USOregonUnion,Oregon,Union,2022-04-28 09:13:11,2021-03-02,0.2771104000172229,0.39704804551811457,0.5936343750759178,,,,,,,,,,,,
41061,0,USOregonUnion,Oregon,Union,2022-04-28 09:13:11,2021-03-03,0.2771104000172229,0.39704804551811457,0.5936343750759178,,,,,,,,,,,,
41061,0,USOregonUnion,Oregon,Union,2022-04-28 09:13:11,2021-03-04,0.24340379558553338,0.38343720948133925,0.6370817065135713,,,,,,,,,,,,
41061,0,USOregonUnion,Oregon,Union,2022-04-28 09:13:11,2021-03-05,0.24340379558553338,0.38343720948133925,0.6370817065135713,,,,,,,,,,,,
41061,0,USOregonUnion,Oregon,Union,2022-04-28 09:13:11,2021-03-06,0.24340379558553338,0.38343720948133925,0.6370817065135713,,,,,,,,,,,,
41061,0,USOregonUnion,Oregon,Union,2022-04-28 09:13:11,2021-03-07,0.24340379558553338,0.38343720948133925,0.6370817065135713,,,,,,,,,,,,
41061,0,USOregonUnion,Oregon,Union,2022-04-28 09:13:11,2021-03-08,0.24340379558553338,0.38343720948133925,0.6370817065135713,,,,,,,,,,,,
41061,0,USOregonUnion,Oregon,Union,2022-04-28 09:13:11,2021-03-09,0.24340379558553338,0.38343720948133925,0.6370817065135713,,,,,,,,,,,,
41061,0,USOregonUnion,Oregon,Union,2022-04-28 09:13:11,2021-03-10,0.24340379558553338,0.38343720948133925,0.6370817065135713,,,,,,,,,,,,
41061,0,USOregonUnion,Oregon,Union,2022-04-28 09:13:11,2021-03-11,0.3179774127237103,0.5166081771446969,0.8878732279325378,,,,,,,,,,,,
41061,0,USOregonUnion,Oregon,Union,2022-04-28 09:13:11,2021-03-12,0.3179774127237103,0.5166081771446969,0.8878732279325378,,,,,,,,,,,,
41061,0,USOregonUnion,Oregon,Union,2022-04-28 09:13:11,2021-03-13,0.3179774127237103,0.5166081771446969,0.8878732279325378,,,,,,,,,,,,
41061,0,USOregonUnion,Oregon,Union,2022-04-28 09:13:11,2021-03-14,0.3179774127237103,0.5166081771446969,0.8878732279325378,,,,,,,,,,,,
41061,0,USOregonUnion,Oregon,Union,2022-04-28 09:13:11,2021-03-15,0.3179774127237103,0.5166081771446969,0.8878732279325378,,,,,,,,,,,,
41061,0,USOregonUnion,Oregon,Union,2022-04-28 09:13:11,2021-03-16,0.3179774127237103,0.5166081771446969,0.8878732279325378,,,,,,,,,,,,
41061,0,USOregonUnion,Oregon,Union,2022-04-28 09:13:11,2021-03-17,0.3179774127237103,0.5166081771446969,0.8878732279325378,,,,,,,,,,,,
41061,0,USOregonUnion,Oregon,Union,2022-04-28 09:13:11,2021-03-18,0.23567099789453053,0.4219530931111744,0.8053470145233319,,,,,,,,,,,,
41061,0,USOregonUnion,Oregon,Union,2022-04-28 09:13:11,2021-03-19,0.23567099789453053,0.4219530931111744,0.8053470145233319,,,,,,,,,,,,
41061,0,USOregonUnion,Oregon,Union,2022-04-28 09:13:11,2021-03-20,0.23567099789453053,0.4219530931111744,0.8053470145233319,,,,,,,,,,,,
41061,0,USOregonUnion,Oregon,Union,2022-04-28 09:13:11,2021-03-21,0.23567099789453053,0.4219530931111744,0.8053470145233319,,,,,,,,,,,,
41061,0,USOregonUnion,Oregon,Union,2022-04-28 09:13:11,2021-03-22,0.23567099789453053,0.4219530931111744,0.8053470145233319,,,,,,,,,,,,
41061,0,USOregonUnion,Oregon,Union,2022-04-28 09:13:11,2021-03-23,0.23567099789453053,0.4219530931111744,0.8053470145233319,,,,,,,,,,,,
41061,0,USOregonUnion,Oregon,Union,2022-04-28 09:13:11,2021-03-24,0.23567099789453053,0.4219530931111744,0.8053470145233319,,,,,,,,,,,,
41061,0,USOregonUnion,Oregon,Union,2022-04-28 09:13:11,2021-03-25,0.2729063050834109,0.5017197791233391,0.9848969299872506,,,,,,,,,,,,
41061,0,USOregonUnion,Oregon,Union,2022-04-28 09:13:11,2021-03-26,0.2729063050834109,0.5017197791233391,0.9848969299872506,,,,,,,,,,,,
41061,0,USOregonUnion,Oregon,Union,2022-04-28 09:13:11,2021-03-27,0.2729063050834109,0.5017197791233391,0.9848969299872506,,,,,,,,,,,,
41061,0,USOregonUnion,Oregon,Union,2022-04-28 09:13:11,2021-03-28,0.2729063050834109,0.5017197791233391,0.9848969299872506,,,,,,,,,,,,
41061,0,USOregonUnion,Oregon,Union,2022-04-28 09:13:11,2021-03-29,0.2729063050834109,0.5017197791233391,0.9848969299872506,,,,,,,,,,,,
41061,0,USOregonUnion,Oregon,Union,2022-04-28 09:13:11,2021-03-30,0.2729063050834109,0.5017197791233391,0.9848969299872506,,,,,,,,,,,,
41061,0,USOregonUnion,Oregon,Union,2022-04-28 09:13:11,2021-03-31,0.2729063050834109,0.5017197791233391,0.9848969299872506,,,,,,,,,,,,
41061,0,USOregonUnion,Oregon,Union,2022-04-28 09:13:11,2021-04-01,0.34281464318441185,0.6204809259034151,1.1980183132074076,,,,,,,,,,,,
41061,0,USOregonUnion,Oregon,Union,2022-04-28 09:13:11,2021-04-02,0.34281464318441185,0.6204809259034151,1.1980183132074076,,,,,,,,,,,,
41061,0,USOregonUnion,Oregon,Union,2022-04-28 09:13:11,2021-04-03,0.34281464318441185,0.6204809259034151,1.1980183132074076,,,,,,,,,,,,
41061,0,USOregonUnion,Oregon,Union,2022-04-28 09:13:11,2021-04-04,0.34281464318441185,0.6204809259034151,1.1980183132074076,,,,,,,,,,,,
41061,0,USOregonUnion,Oregon,Union,2022-04-28 09:13:11,2021-04-05,0.34281464318441185,0.6204809259034151,1.1980183132074076,,,,,,,,,,,,
41061,0,USOregonUnion,Oregon,Union,2022-04-28 09:13:11,2021-04-06,0.34281464318441185,0.6204809259034151,1.1980183132074076,,,,,,,,,,,,
41061,0,USOregonUnion,Oregon,Union,2022-04-28 09:13:11,2021-04-07,0.34281464318441185,0.6204809259034151,1.1980183132074076,,,,,,,,,,,,
41061,0,USOregonUnion,Oregon,Union,2022-04-28 09:13:11,2021-04-08,0.20219532992642855,0.44262729600889705,1.0416576781585398,,,,,,,,,,,,
41061,0,USOregonUnion,Oregon,Union,2022-04-28 09:13:11,2021-04-09,0.20219532992642855,0.44262729600889705,1.0416576781585398,,,,,,,,,,,,
41061,0,USOregonUnion,Oregon,Union,2022-04-28 09:13:11,2021-04-10,0.20219532992642855,0.44262729600889705,1.0416576781585398,,,,,,,,,,,,
41061,0,USOregonUnion,Oregon,Union,2022-04-28 09:13:11,2021-04-11,0.20219532992642855,0.44262729600889705,1.0416576781585398,,,,,,,,,,,,
41061,0,USOregonUnion,Oregon,Union,2022-04-28 09:13:11,2021-04-12,0.20219532992642855,0.44262729600889705,1.0416576781585398,,,,,,,,,,,,
41061,0,USOregonUnion,Oregon,Union,2022-04-28 09:13:11,2021-04-13,0.20219532992642855,0.44262729600889705,1.0416576781585398,,,,,,,,,,,,
41061,0,USOregonUnion,Oregon,Union,2022-04-28 09:13:11,2021-04-14,0.20219532992642855,0.44262729600889705,1.0416576781585398,,,,,,,,,,,,
41061,0,USOregonUnion,Oregon,Union,2022-04-28 09:13:11,2021-04-15,0.2113088356537792,0.44506169668041706,1.0068056370974556,,,,,,,,,,,,
41061,0,USOregonUnion,Oregon,Union,2022-04-28 09:13:11,2021-04-16,0.2113088356537792,0.44506169668041706,1.0068056370974556,,,,,,,,,,,,
41061,0,USOregonUnion,Oregon,Union,2022-04-28 09:13:11,2021-04-17,0.2113088356537792,0.44506169668041706,1.0068056370974556,,,,,,,,,,,,
41061,0,USOregonUnion,Oregon,Union,2022-04-28 09:13:11,2021-04-18,0.2113088356537792,0.44506169668041706,1.0068056370974556,,,,,,,,,,,,
41061,0,USOregonUnion,Oregon,Union,2022-04-28 09:13:11,2021-04-19,0.2113088356537792,0.44506169668041706,1.0068056370974556,,,,,,,,,,,,
41061,0,USOregonUnion,Oregon,Union,2022-04-28 09:13:11,2021-04-20,0.2113088356537792,0.44506169668041706,1.0068056370974556,,,,,,,,,,,,
41061,0,USOregonUnion,Oregon,Union,2022-04-28 09:13:11,2021-04-21,0.2113088356537792,0.44506169668041706,1.0068056370974556,,,,,,,,,,,,
41061,0,USOregonUnion,Oregon,Union,2022-04-28 09:13:11,2021-04-22,0.1808012945961825,0.42841557956409865,1.0923790630275392,,,,,,,,,,,,
41061,0,USOregonUnion,Oregon,Union,2022-04-28 09:13:11,2021-04-23,0.1808012945961825,0.42841557956409865,1.0923790630275392,,,,,,,,,,,,
41061,0,USOregonUnion,Oregon,Union,2022-04-28 09:13:11,2021-04-24,0.1808012945961825,0.42841557956409865,1.0923790630275392,,,,,,,,,,,,
41061,0,USOregonUnion,Oregon,Union,2022-04-28 09:13:11,2021-04-25,0.1808012945961825,0.42841557956409865,1.0923790630275392,,,,,,,,,,,,
41061,0,USOregonUnion,Oregon,Union,2022-04-28 09:13:11,2021-04-26,0.1808012945961825,0.42841557956409865,1.0923790630275392,,,,,,,,,,,,
41061,0,USOregonUnion,Oregon,Union,2022-04-28 09:13:11,2021-04-27,0.1808012945961825,0.42841557956409865,1.0923790630275392,,,,,,,,,,,,
41061,0,USOregonUnion,Oregon,Union,2022-04-28 09:13:11,2021-04-28,0.1808012945961825,0.42841557956409865,1.0923790630275392,,,,,,,,,,,,
41061,0,USOregonUnion,Oregon,Union,2022-04-28 09:13:11,2021-04-29,0.22894704369045613,0.5181721311472997,1.2614571329794433,,,,,,,,,,,,
41061,0,USOregonUnion,Oregon,Union,2022-04-28 09:13:11,2021-04-30,0.22894704369045613,0.5181721311472997,1.2614571329794433,,,,,,,,,,,,
41061,0,USOregonUnion,Oregon,Union,2022-04-28 09:13:11,2021-05-01,0.22894704369045613,0.5181721311472997,1.2614571329794433,,,,,,,,,,,,
41061,0,USOregonUnion,Oregon,Union,2022-04-28 09:13:11,2021-05-02,0.22894704369045613,0.5181721311472997,1.2614571329794433,,,,,,,,,,,,
41061,0,USOregonUnion,Oregon,Union,2022-04-28 09:13:11,2021-05-03,0.22894704369045613,0.5181721311472997,1.2614571329794433,,,,,,,,,,,,
41061,0,USOregonUnion,Oregon,Union,2022-04-28 09:13:11,2021-05-04,0.22894704369045613,0.5181721311472997,1.2614571329794433,,,,,,,,,,,,
41061,0,USOregonUnion,Oregon,Union,2022-04-28 09:13:11,2021-05-05,0.22894704369045613,0.5181721311472997,1.2614571329794433,,,,,,,,,,,,
41061,0,USOregonUnion,Oregon,Union,2022-04-28 09:13:11,2021-05-06,0.17754876590862687,0.41398707768124504,1.0386129483478237,,,,,,,,,,,,
41061,0,USOregonUnion,Oregon,Union,2022-04-28 09:13:11,2021-05-07,0.17754876590862687,0.41398707768124504,1.0386129483478237,,,,,,,,,,,,
41061,0,USOregonUnion,Oregon,Union,2022-04-28 09:13:11,2021-05-08,0.17754876590862687,0.41398707768124504,1.0386129483478237,,,,,,,,,,,,
41061,0,USOregonUnion,Oregon,Union,2022-04-28 09:13:11,2021-05-09,0.17754876590862687,0.41398707768124504,1.0386129483478237,,,,,,,,,,,,
41061,0,USOregonUnion,Oregon,Union,2022-04-28 09:13:11,2021-05-10,0.17754876590862687,0.41398707768124504,1.0386129483478237,,,,,,,,,,,,
41061,0,USOregonUnion,Oregon,Union,2022-04-28 09:13:11,2021-05-11,0.17754876590862687,0.41398707768124504,1.0386129483478237,,,,,,,,,,,,
41061,0,USOregonUnion,Oregon,Union,2022-04-28 09:13:11,2021-05-12,0.17754876590862687,0.41398707768124504,1.0386129483478237,,,,,,,,,,,,
41061,0,USOregonUnion,Oregon,Union,2022-04-28 09:13:11,2021-05-13,0.1260281632497785,0.31061851818184455,0.8238847488708928,,,,,,,,,,,,
41061,0,USOregonUnion,Oregon,Union,2022-04-28 09:13:11,2021-05-14,0.1260281632497785,0.31061851818184455,0.8238847488708928,,,,,,,,,,,,
41061,0,USOregonUnion,Oregon,Union,2022-04-28 09:13:11,2021-05-15,0.1260281632497785,0.31061851818184455,0.8238847488708928,,,,,,,,,,,,
41061,0,USOregonUnion,Oregon,Union,2022-04-28 09:13:11,2021-05-16,0.1260281632497785,0.31061851818184455,0.8238847488708928,,,,,,,,,,,,
41061,0,USOregonUnion,Oregon,Union,2022-04-28 09:13:11,2021-05-17,0.1260281632497785,0.31061851818184455,0.8238847488708928,,,,,,,,,,,,
41061,0,USOregonUnion,Oregon,Union,2022-04-28 09:13:11,2021-05-18,0.1260281632497785,0.31061851818184455,0.8238847488708928,,,,,,,,,,,,
41061,0,USOregonUnion,Oregon,Union,2022-04-28 09:13:11,2021-05-19,0.1260281632497785,0.31061851818184455,0.8238847488708928,,,,,,,,,,,,
41061,0,USOregonUnion,Oregon,Union,2022-04-28 09:13:11,2021-05-20,0.11525108270403223,0.26242587500001874,0.6427786318926372,,,,,,,,,,,,
41061,0,USOregonUnion,Oregon,Union,2022-04-28 09:13:11,2021-05-21,0.11525108270403223,0.26242587500001874,0.6427786318926372,,,,,,,,,,,,
41061,0,USOregonUnion,Oregon,Union,2022-04-28 09:13:11,2021-05-22,0.11525108270403223,0.26242587500001874,0.6427786318926372,,,,,,,,,,,,
41061,0,USOregonUnion,Oregon,Union,2022-04-28 09:13:11,2021-05-23,0.11525108270403223,0.26242587500001874,0.6427786318926372,,,,,,,,,,,,
41061,0,USOregonUnion,Oregon,Union,2022-04-28 09:13:11,2021-05-24,0.11525108270403223,0.26242587500001874,0.6427786318926372,,,,,,,,,,,,
41061,0,USOregonUnion,Oregon,Union,2022-04-28 09:13:11,2021-05-25,0.11525108270403223,0.26242587500001874,0.6427786318926372,,,,,,,,,,,,
41061,0,USOregonUnion,Oregon,Union,2022-04-28 09:13:11,2021-05-26,0.11525108270403223,0.26242587500001874,0.6427786318926372,,,,,,,,,,,,
41061,0,USOregonUnion,Oregon,Union,2022-04-28 09:13:11,2021-05-27,0.1493683264519587,0.33159599875376394,0.7915745319208604,,,,,,,,,,,,
41061,0,USOregonUnion,Oregon,Union,2022-04-28 09:13:11,2021-05-28,0.1493683264519587,0.33159599875376394,0.7915745319208604,,,,,,,,,,,,
41061,0,USOregonUnion,Oregon,Union,2022-04-28 09:13:11,2021-05-29,0.1493683264519587,0.33159599875376394,0.7915745319208604,,,,,,,,,,,,
41061,0,USOregonUnion,Oregon,Union,2022-04-28 09:13:11,2021-05-30,0.1493683264519587,0.33159599875376394,0.7915745319208604,,,,,,,,,,,,
41061,0,USOregonUnion,Oregon,Union,2022-04-28 09:13:11,2021-05-31,0.1493683264519587,0.33159599875376394,0.7915745319208604,,,,,,,,,,,,
41061,0,USOregonUnion,Oregon,Union,2022-04-28 09:13:11,2021-06-01,0.1493683264519587,0.33159599875376394,0.7915745319208604,,,,,,,,,,,,
41061,0,USOregonUnion,Oregon,Union,2022-04-28 09:13:11,2021-06-02,0.1493683264519587,0.33159599875376394,0.7915745319208604,,,,,,,,,,,,
41061,0,USOregonUnion,Oregon,Union,2022-04-28 09:13:11,2021-06-03,0.2407684509975277,0.43960674000288874,0.8567050049415625,,,,,,,,,,,,
41061,0,USOregonUnion,Oregon,Union,2022-04-28 09:13:11,2021-06-04,0.2407684509975277,0.43960674000288874,0.8567050049415625,,,,,,,,,,,,
41061,0,USOregonUnion,Oregon,Union,2022-04-28 09:13:11,2021-06-05,0.2407684509975277,0.43960674000288874,0.8567050049415625,,,,,,,,,,,,
41061,0,USOregonUnion,Oregon,Union,2022-04-28 09:13:11,2021-06-06,0.2407684509975277,0.43960674000288874,0.8567050049415625,,,,,,,,,,,,
41061,0,USOregonUnion,Oregon,Union,2022-04-28 09:13:11,2021-06-07,0.2407684509975277,0.43960674000288874,0.8567050049415625,,,,,,,,,,,,
41061,0,USOregonUnion,Oregon,Union,2022-04-28 09:13:11,2021-06-08,0.2407684509975277,0.43960674000288874,0.8567050049415625,,,,,,,,,,,,
41061,0,USOregonUnion,Oregon,Union,2022-04-28 09:13:11,2021-06-09,0.2407684509975277,0.43960674000288874,0.8567050049415625,,,,,,,,,,,,
41061,0,USOregonUnion,Oregon,Union,2022-04-28 09:13:11,2021-06-10,0.12354860061565731,0.2992193855439101,0.7798640185865505,,,,,,,,,,,,
41061,0,USOregonUnion,Oregon,Union,2022-04-28 09:13:11,2021-06-11,0.12354860061565731,0.2992193855439101,0.7798640185865505,,,,,,,,,,,,
41061,0,USOregonUnion,Oregon,Union,2022-04-28 09:13:11,2021-06-12,0.12354860061565731,0.2992193855439101,0.7798640185865505,,,,,,,,,,,,
41061,0,USOregonUnion,Oregon,Union,2022-04-28 09:13:11,2021-06-13,0.12354860061565731,0.2992193855439101,0.7798640185865505,,,,,,,,,,,,
41061,0,USOregonUnion,Oregon,Union,2022-04-28 09:13:11,2021-06-14,0.12354860061565731,0.2992193855439101,0.7798640185865505,,,,,,,,,,,,
41061,0,USOregonUnion,Oregon,Union,2022-04-28 09:13:11,2021-06-15,0.12354860061565731,0.2992193855439101,0.7798640185865505,,,,,,,,,,,,
41061,0,USOregonUnion,Oregon,Union,2022-04-28 09:13:11,2021-06-16,0.12354860061565731,0.2992193855439101,0.7798640185865505,,,,,,,,,,,,
41061,0,USOregonUnion,Oregon,Union,2022-04-28 09:13:11,2021-06-17,0.1934843090962432,0.37624752687762775,0.783539611262594,,,,,,,,,,,,
41061,0,USOregonUnion,Oregon,Union,2022-04-28 09:13:11,2021-06-18,0.1934843090962432,0.37624752687762775,0.783539611262594,,,,,,,,,,,,
41061,0,USOregonUnion,Oregon,Union,2022-04-28 09:13:11,2021-06-19,0.1934843090962432,0.37624752687762775,0.783539611262594,,,,,,,,,,,,
41061,0,USOregonUnion,Oregon,Union,2022-04-28 09:13:11,2021-06-20,0.1934843090962432,0.37624752687762775,0.783539611262594,,,,,,,,,,,,
41061,0,USOregonUnion,Oregon,Union,2022-04-28 09:13:11,2021-06-21,0.1934843090962432,0.37624752687762775,0.783539611262594,,,,,,,,,,,,
41061,0,USOregonUnion,Oregon,Union,2022-04-28 09:13:11,2021-06-22,0.1934843090962432,0.37624752687762775,0.783539611262594,,,,,,,,,,,,
41061,0,USOregonUnion,Oregon,Union,2022-04-28 09:13:11,2021-06-23,0.1934843090962432,0.37624752687762775,0.783539611262594,,,,,,,,,,,,
41061,0,USOregonUnion,Oregon,Union,2022-04-28 09:13:11,2021-06-24,0.2077846870809327,0.3746215430283285,0.7203274847740032,,,,,,,,,,,,
41061,0,USOregonUnion,Oregon,Union,2022-04-28 09:13:11,2021-06-25,0.2077846870809327,0.3746215430283285,0.7203274847740032,,,,,,,,,,,,
41061,0,USOregonUnion,Oregon,Union,2022-04-28 09:13:11,2021-06-26,0.2077846870809327,0.3746215430283285,0.7203274847740032,,,,,,,,,,,,
41061,0,USOregonUnion,Oregon,Union,2022-04-28 09:13:11,2021-06-27,0.2077846870809327,0.3746215430283285,0.7203274847740032,,,,,,,,,,,,
41061,0,USOregonUnion,Oregon,Union,2022-04-28 09:13:11,2021-06-28,0.2077846870809327,0.3746215430283285,0.7203274847740032,,,,,,,,,,,,
41061,0,USOregonUnion,Oregon,Union,2022-04-28 09:13:11,2021-06-29,0.2077846870809327,0.3746215430283285,0.7203274847740032,,,,,,,,,,,,
41061,0,USOregonUnion,Oregon,Union,2022-04-28 09:13:11,2021-06-30,0.2077846870809327,0.3746215430283285,0.7203274847740032,,,,,,,,,,,,
41061,0,USOregonUnion,Oregon,Union,2022-04-28 09:13:11,2021-07-01,0.2242038239117031,0.4068448968884343,0.787682277909555,,,,,,,,,,,,
41061,0,USOregonUnion,Oregon,Union,2022-04-28 09:13:11,2021-07-02,0.2242038239117031,0.4068448968884343,0.787682277909555,,,,,,,,,,,,
41061,0,USOregonUnion,Oregon,Union,2022-04-28 09:13:11,2021-07-03,0.2242038239117031,0.4068448968884343,0.787682277909555,,,,,,,,,,,,
41061,0,USOregonUnion,Oregon,Union,2022-04-28 09:13:11,2021-07-04,0.2242038239117031,0.4068448968884343,0.787682277909555,,,,,,,,,,,,
41061,0,USOregonUnion,Oregon,Union,2022-04-28 09:13:11,2021-07-05,0.2242038239117031,0.4068448968884343,0.787682277909555,,,,,,,,,,,,
41061,0,USOregonUnion,Oregon,Union,2022-04-28 09:13:11,2021-07-06,0.2242038239117031,0.4068448968884343,0.787682277909555,,,,,,,,,,,,
41061,0,USOregonUnion,Oregon,Union,2022-04-28 09:13:11,2021-07-07,0.2242038239117031,0.4068448968884343,0.787682277909555,,,,,,,,,,,,
41061,0,USOregonUnion,Oregon,Union,2022-04-28 09:13:11,2021-07-08,0.1949386288945903,0.3816667522317484,0.8005023242687586,,,,,,,,,,,,
41061,0,USOregonUnion,Oregon,Union,2022-04-28 09:13:11,2021-07-09,0.1949386288945903,0.3816667522317484,0.8005023242687586,,,,,,,,,,,,
41061,0,USOregonUnion,Oregon,Union,2022-04-28 09:13:11,2021-07-10,0.1949386288945903,0.3816667522317484,0.8005023242687586,,,,,,,,,,,,
41061,0,USOregonUnion,Oregon,Union,2022-04-28 09:13:11,2021-07-11,0.1949386288945903,0.3816667522317484,0.8005023242687586,,,,,,,,,,,,
41061,0,USOregonUnion,Oregon,Union,2022-04-28 09:13:11,2021-07-12,0.1949386288945903,0.3816667522317484,0.8005023242687586,,,,,,,,,,,,
41061,0,USOregonUnion,Oregon,Union,2022-04-28 09:13:11,2021-07-13,0.1949386288945903,0.3816667522317484,0.8005023242687586,,,,,,,,,,,,
41061,0,USOregonUnion,Oregon,Union,2022-04-28 09:13:11,2021-07-14,0.1949386288945903,0.3816667522317484,0.8005023242687586,,,,,,,,,,,,
41061,0,USOregonUnion,Oregon,Union,2022-04-28 09:13:11,2021-07-15,0.45836325145303325,0.7999354410077332,1.4855537999270267,,,,,,,,,,,,
41061,0,USOregonUnion,Oregon,Union,2022-04-28 09:13:11,2021-07-16,0.45836325145303325,0.7999354410077332,1.4855537999270267,,,,,,,,,,,,
41061,0,USOregonUnion,Oregon,Union,2022-04-28 09:13:11,2021-07-17,0.45836325145303325,0.7999354410077332,1.4855537999270267,,,,,,,,,,,,
41061,0,USOregonUnion,Oregon,Union,2022-04-28 09:13:11,2021-07-18,0.45836325145303325,0.7999354410077332,1.4855537999270267,,,,,,,,,,,,
41061,0,USOregonUnion,Oregon,Union,2022-04-28 09:13:11,2021-07-19,0.45836325145303325,0.7999354410077332,1.4855537999270267,,,,,,,,,,,,
41061,0,USOregonUnion,Oregon,Union,2022-04-28 09:13:11,2021-07-20,0.45836325145303325,0.7999354410077332,1.4855537999270267,,,,,,,,,,,,
41061,0,USOregonUnion,Oregon,Union,2022-04-28 09:13:11,2021-07-21,0.45836325145303325,0.7999354410077332,1.4855537999270267,,,,,,,,,,,,
41061,0,USOregonUnion,Oregon,Union,2022-04-28 09:13:11,2021-07-22,0.9283072024947137,1.4345382721421953,2.3334912905724625,,,,,,,,,,,,
41061,0,USOregonUnion,Oregon,Union,2022-04-28 09:13:11,2021-07-23,0.9283072024947137,1.4345382721421953,2.3334912905724625,,,,,,,,,,,,
41061,0,USOregonUnion,Oregon,Union,2022-04-28 09:13:11,2021-07-24,0.9283072024947137,1.4345382721421953,2.3334912905724625,,,,,,,,,,,,
41061,0,USOregonUnion,Oregon,Union,2022-04-28 09:13:11,2021-07-25,0.9283072024947137,1.4345382721421953,2.3334912905724625,,,,,,,,,,,,
41061,0,USOregonUnion,Oregon,Union,2022-04-28 09:13:11,2021-07-26,0.9283072024947137,1.4345382721421953,2.3334912905724625,,,,,,,,,,,,
41061,0,USOregonUnion,Oregon,Union,2022-04-28 09:13:11,2021-07-27,0.9283072024947137,1.4345382721421953,2.3334912905724625,,,,,,,,,,,,
41061,0,USOregonUnion,Oregon,Union,2022-04-28 09:13:11,2021-07-28,0.9283072024947137,1.4345382721421953,2.3334912905724625,,,,,,,,,,,,
41061,0,USOregonUnion,Oregon,Union,2022-04-28 09:13:11,2021-07-29,0.8032877363441459,0.8079433452989375,0.8126540535298383,,,,,,,,,,,,
41061,0,USOregonUnion,Oregon,Union,2022-04-28 09:13:11,2021-07-30,0.8032877363441459,0.8079433452989375,0.8126540535298383,,,,,,,,,,,,
41061,0,USOregonUnion,Oregon,Union,2022-04-28 09:13:11,2021-07-31,0.8032877363441459,0.8079433452989375,0.8126540535298383,,,,,,,,,,,,
41061,0,USOregonUnion,Oregon,Union,2022-04-28 09:13:11,2021-08-01,0.8032877363441459,0.8079433452989375,0.8126540535298383,,,,,,,,,,,,
41061,0,USOregonUnion,Oregon,Union,2022-04-28 09:13:11,2021-08-02,0.8032877363441459,0.8079433452989375,0.8126540535298383,,,,,,,,,,,,
41061,0,USOregonUnion,Oregon,Union,2022-04-28 09:13:11,2021-08-03,0.8032877363441459,0.8079433452989375,0.8126540535298383,,,,,,,,,,,,
41061,0,USOregonUnion,Oregon,Union,2022-04-28 09:13:11,2021-08-04,0.8032877363441459,0.8079433452989375,0.8126540535298383,,,,,,,,,,,,
41061,0,USOregonUnion,Oregon,Union,2022-04-28 09:13:11,2021-08-05,1.730687558481498,3.4634927194124554,7.431825941768731,,,,,,,,,,,,
41061,0,USOregonUnion,Oregon,Union,2022-04-28 09:13:11,2021-08-06,1.730687558481498,3.4634927194124554,7.431825941768731,,,,,,,,,,,,
41061,0,USOregonUnion,Oregon,Union,2022-04-28 09:13:11,2021-08-07,1.730687558481498,3.4634927194124554,7.431825941768731,,,,,,,,,,,,
41061,0,USOregonUnion,Oregon,Union,2022-04-28 09:13:11,2021-08-08,1.730687558481498,3.4634927194124554,7.431825941768731,,,,,,,,,,,,
41061,0,USOregonUnion,Oregon,Union,2022-04-28 09:13:11,2021-08-09,1.730687558481498,3.4634927194124554,7.431825941768731,,,,,,,,,,,,
41061,0,USOregonUnion,Oregon,Union,2022-04-28 09:13:11,2021-08-10,1.730687558481498,3.4634927194124554,7.431825941768731,,,,,,,,,,,,
41061,0,USOregonUnion,Oregon,Union,2022-04-28 09:13:11,2021-08-11,1.730687558481498,3.4634927194124554,7.431825941768731,,,,,,,,,,,,
41061,0,USOregonUnion,Oregon,Union,2022-04-28 09:13:11,2021-08-12,2.194296248087884,3.7009607168193077,6.624816471280311,,,,,,,,,,,,
41061,0,USOregonUnion,Oregon,Union,2022-04-28 09:13:11,2021-08-13,2.194296248087884,3.7009607168193077,6.624816471280311,,,,,,,,,,,,
41061,0,USOregonUnion,Oregon,Union,2022-04-28 09:13:11,2021-08-14,2.194296248087884,3.7009607168193077,6.624816471280311,,,,,,,,,,,,
41061,0,USOregonUnion,Oregon,Union,2022-04-28 09:13:11,2021-08-15,2.194296248087884,3.7009607168193077,6.624816471280311,,,,,,,,,,,,
41061,0,USOregonUnion,Oregon,Union,2022-04-28 09:13:11,2021-08-16,2.194296248087884,3.7009607168193077,6.624816471280311,,,,,,,,,,,,
41061,0,USOregonUnion,Oregon,Union,2022-04-28 09:13:11,2021-08-17,2.194296248087884,3.7009607168193077,6.624816471280311,,,,,,,,,,,,
41061,0,USOregonUnion,Oregon,Union,2022-04-28 09:13:11,2021-08-18,2.194296248087884,3.7009607168193077,6.624816471280311,,,,,,,,,,,,
41061,0,USOregonUnion,Oregon,Union,2022-04-28 09:13:11,2021-08-19,2.694034661400466,4.42360278972902,7.691158645400466,,,,,,,,,,,,
41061,0,USOregonUnion,Oregon,Union,2022-04-28 09:13:11,2021-08-20,2.694034661400466,4.42360278972902,7.691158645400466,,,,,,,,,,,,
41061,0,USOregonUnion,Oregon,Union,2022-04-28 09:13:11,2021-08-21,2.694034661400466,4.42360278972902,7.691158645400466,,,,,,,,,,,,
41061,0,USOregonUnion,Oregon,Union,2022-04-28 09:13:11,2021-08-22,2.694034661400466,4.42360278972902,7.691158645400466,,,,,,,,,,,,
41061,0,USOregonUnion,Oregon,Union,2022-04-28 09:13:11,2021-08-23,2.694034661400466,4.42360278972902,7.691158645400466,,,,,,,,,,,,
41061,0,USOregonUnion,Oregon,Union,2022-04-28 09:13:11,2021-08-24,2.694034661400466,4.42360278972902,7.691158645400466,,,,,,,,,,,,
41061,0,USOregonUnion,Oregon,Union,2022-04-28 09:13:11,2021-08-25,2.694034661400466,4.42360278972902,7.691158645400466,,,,,,,,,,,,
41061,0,USOregonUnion,Oregon,Union,2022-04-28 09:13:11,2021-08-26,1.6759461352691758,2.8798321497520027,5.259658873459087,,,,,,,,,,,,
41061,0,USOregonUnion,Oregon,Union,2022-04-28 09:13:11,2021-08-27,1.6759461352691758,2.8798321497520027,5.259658873459087,,,,,,,,,,,,
41061,0,USOregonUnion,Oregon,Union,2022-04-28 09:13:11,2021-08-28,1.6759461352691758,2.8798321497520027,5.259658873459087,,,,,,,,,,,,
41061,0,USOregonUnion,Oregon,Union,2022-04-28 09:13:11,2021-08-29,1.6759461352691758,2.8798321497520027,5.259658873459087,,,,,,,,,,,,
41061,0,USOregonUnion,Oregon,Union,2022-04-28 09:13:11,2021-08-30,1.6759461352691758,2.8798321497520027,5.259658873459087,,,,,,,,,,,,
41061,0,USOregonUnion,Oregon,Union,2022-04-28 09:13:11,2021-08-31,1.6759461352691758,2.8798321497520027,5.259658873459087,,,,,,,,,,,,
41061,0,USOregonUnion,Oregon,Union,2022-04-28 09:13:11,2021-09-01,1.6759461352691758,2.8798321497520027,5.259658873459087,,,,,,,,,,,,
41061,0,USOregonUnion,Oregon,Union,2022-04-28 09:13:11,2021-09-02,1.4601566196485452,2.569972071810631,4.816261271242486,,,,,,,,,,,,
41061,0,USOregonUnion,Oregon,Union,2022-04-28 09:13:11,2021-09-03,1.4601566196485452,2.569972071810631,4.816261271242486,,,,,,,,,,,,
41061,0,USOregonUnion,Oregon,Union,2022-04-28 09:13:11,2021-09-04,1.4601566196485452,2.569972071810631,4.816261271242486,,,,,,,,,,,,
41061,0,USOregonUnion,Oregon,Union,2022-04-28 09:13:11,2021-09-05,1.4601566196485452,2.569972071810631,4.816261271242486,,,,,,,,,,,,
41061,0,USOregonUnion,Oregon,Union,2022-04-28 09:13:11,2021-09-06,1.4601566196485452,2.569972071810631,4.816261271242486,,,,,,,,,,,,
41061,0,USOregonUnion,Oregon,Union,2022-04-28 09:13:11,2021-09-07,1.4601566196485452,2.569972071810631,4.816261271242486,,,,,,,,,,,,
41061,0,USOregonUnion,Oregon,Union,2022-04-28 09:13:11,2021-09-08,1.4601566196485452,2.569972071810631,4.816261271242486,,,,,,,,,,,,
41061,0,USOregonUnion,Oregon,Union,2022-04-28 09:13:11,2021-09-09,2.4529225893465187,4.110439478936138,7.3063336397093,,,,,,,,,,,,
41061,0,USOregonUnion,Oregon,Union,2022-04-28 09:13:11,2021-09-10,2.4529225893465187,4.110439478936138,7.3063336397093,,,,,,,,,,,,
41061,0,USOregonUnion,Oregon,Union,2022-04-28 09:13:11,2021-09-11,2.4529225893465187,4.110439478936138,7.3063336397093,,,,,,,,,,,,
41061,0,USOregonUnion,Oregon,Union,2022-04-28 09:13:11,2021-09-12,2.4529225893465187,4.110439478936138,7.3063336397093,,,,,,,,,,,,
41061,0,USOregonUnion,Oregon,Union,2022-04-28 09:13:11,2021-09-13,2.4529225893465187,4.110439478936138,7.3063336397093,,,,,,,,,,,,
41061,0,USOregonUnion,Oregon,Union,2022-04-28 09:13:11,2021-09-14,2.4529225893465187,4.110439478936138,7.3063336397093,,,,,,,,,,,,
41061,0,USOregonUnion,Oregon,Union,2022-04-28 09:13:11,2021-09-15,2.4529225893465187,4.110439478936138,7.3063336397093,,,,,,,,,,,,
41061,0,USOregonUnion,Oregon,Union,2022-04-28 09:13:11,2021-09-16,2.1126003052383275,3.817260626971862,7.3570808942701165,,,,,,,,,,,,
41061,0,USOregonUnion,Oregon,Union,2022-04-28 09:13:11,2021-09-17,2.1126003052383275,3.817260626971862,7.3570808942701165,,,,,,,,,,,,
41061,0,USOregonUnion,Oregon,Union,2022-04-28 09:13:11,2021-09-18,2.1126003052383275,3.817260626971862,7.3570808942701165,,,,,,,,,,,,
41061,0,USOregonUnion,Oregon,Union,2022-04-28 09:13:11,2021-09-19,2.1126003052383275,3.817260626971862,7.3570808942701165,,,,,,,,,,,,
41061,0,USOregonUnion,Oregon,Union,2022-04-28 09:13:11,2021-09-20,2.1126003052383275,3.817260626971862,7.3570808942701165,,,,,,,,,,,,
41061,0,USOregonUnion,Oregon,Union,2022-04-28 09:13:11,2021-09-21,2.1126003052383275,3.817260626971862,7.3570808942701165,,,,,,,,,,,,
41061,0,USOregonUnion,Oregon,Union,2022-04-28 09:13:11,2021-09-22,2.1126003052383275,3.817260626971862,7.3570808942701165,,,,,,,,,,,,
41061,0,USOregonUnion,Oregon,Union,2022-04-28 09:13:11,2021-09-23,1.8408842627211799,2.722130917922596,4.216314795084582,,,,,,,,,,,,
41061,0,USOregonUnion,Oregon,Union,2022-04-28 09:13:11,2021-09-24,1.8408842627211799,2.722130917922596,4.216314795084582,,,,,,,,,,,,
41061,0,USOregonUnion,Oregon,Union,2022-04-28 09:13:11,2021-09-25,1.8408842627211799,2.722130917922596,4.216314795084582,,,,,,,,,,,,
41061,0,USOregonUnion,Oregon,Union,2022-04-28 09:13:11,2021-09-26,1.8408842627211799,2.722130917922596,4.216314795084582,,,,,,,,,,,,
41061,0,USOregonUnion,Oregon,Union,2022-04-28 09:13:11,2021-09-27,1.8408842627211799,2.722130917922596,4.216314795084582,,,,,,,,,,,,
41061,0,USOregonUnion,Oregon,Union,2022-04-28 09:13:11,2021-09-28,1.8408842627211799,2.722130917922596,4.216314795084582,,,,,,,,,,,,
41061,0,USOregonUnion,Oregon,Union,2022-04-28 09:13:11,2021-09-29,1.8408842627211799,2.722130917922596,4.216314795084582,,,,,,,,,,,,
41061,0,USOregonUnion,Oregon,Union,2022-04-28 09:13:11,2021-09-30,1.4210108387283458,2.333714823229835,4.058334068907349,,,,,,,,,,,,
41061,0,USOregonUnion,Oregon,Union,2022-04-28 09:13:11,2021-10-01,1.4210108387283458,2.333714823229835,4.058334068907349,,,,,,,,,,,,
41061,0,USOregonUnion,Oregon,Union,2022-04-28 09:13:11,2021-10-02,1.4210108387283458,2.333714823229835,4.058334068907349,,,,,,,,,,,,
41061,0,USOregonUnion,Oregon,Union,2022-04-28 09:13:11,2021-10-03,1.4210108387283458,2.333714823229835,4.058334068907349,,,,,,,,,,,,
41061,0,USOregonUnion,Oregon,Union,2022-04-28 09:13:11,2021-10-04,1.4210108387283458,2.333714823229835,4.058334068907349,,,,,,,,,,,,
41061,0,USOregonUnion,Oregon,Union,2022-04-28 09:13:11,2021-10-05,1.4210108387283458,2.333714823229835,4.058334068907349,,,,,,,,,,,,
41061,0,USOregonUnion,Oregon,Union,2022-04-28 09:13:11,2021-10-06,1.4210108387283458,2.333714823229835,4.058334068907349,,,,,,,,,,,,
41061,0,USOregonUnion,Oregon,Union,2022-04-28 09:13:11,2021-10-07,1.173473863166914,2.0462164467572928,3.7965684057469575,,,,,,,,,,,,
41061,0,USOregonUnion,Oregon,Union,2022-04-28 09:13:11,2021-10-08,1.173473863166914,2.0462164467572928,3.7965684057469575,,,,,,,,,,,,
41061,0,USOregonUnion,Oregon,Union,2022-04-28 09:13:11,2021-10-09,1.173473863166914,2.0462164467572928,3.7965684057469575,,,,,,,,,,,,
41061,0,USOregonUnion,Oregon,Union,2022-04-28 09:13:11,2021-10-10,1.173473863166914,2.0462164467572928,3.7965684057469575,,,,,,,,,,,,
41061,0,USOregonUnion,Oregon,Union,2022-04-28 09:13:11,2021-10-11,1.173473863166914,2.0462164467572928,3.7965684057469575,,,,,,,,,,,,
41061,0,USOregonUnion,Oregon,Union,2022-04-28 09:13:11,2021-10-12,1.173473863166914,2.0462164467572928,3.7965684057469575,,,,,,,,,,,,
41061,0,USOregonUnion,Oregon,Union,2022-04-28 09:13:11,2021-10-13,1.173473863166914,2.0462164467572928,3.7965684057469575,,,,,,,,,,,,
41061,0,USOregonUnion,Oregon,Union,2022-04-28 09:13:11,2021-10-14,0.9267313330211118,1.5662936249769757,2.809999561855635,,,,,,,,,,,,
41061,0,USOregonUnion,Oregon,Union,2022-04-28 09:13:11,2021-10-15,0.9267313330211118,1.5662936249769757,2.809999561855635,,,,,,,,,,,,
41061,0,USOregonUnion,Oregon,Union,2022-04-28 09:13:11,2021-10-16,0.9267313330211118,1.5662936249769757,2.809999561855635,,,,,,,,,,,,
41061,0,USOregonUnion,Oregon,Union,2022-04-28 09:13:11,2021-10-17,0.9267313330211118,1.5662936249769757,2.809999561855635,,,,,,,,,,,,
41061,0,USOregonUnion,Oregon,Union,2022-04-28 09:13:11,2021-10-18,0.9267313330211118,1.5662936249769757,2.809999561855635,,,,,,,,,,,,
41061,0,USOregonUnion,Oregon,Union,2022-04-28 09:13:11,2021-10-19,0.9267313330211118,1.5662936249769757,2.809999561855635,,,,,,,,,,,,
41061,0,USOregonUnion,Oregon,Union,2022-04-28 09:13:11,2021-10-20,0.9267313330211118,1.5662936249769757,2.809999561855635,,,,,,,,,,,,
41061,0,USOregonUnion,Oregon,Union,2022-04-28 09:13:11,2021-10-21,0.8299393871910405,1.4943467998805562,2.8693094667821035,,,,,,,,,,,,
41061,0,USOregonUnion,Oregon,Union,2022-04-28 09:13:11,2021-10-22,0.8299393871910405,1.4943467998805562,2.8693094667821035,,,,,,,,,,,,
41061,0,USOregonUnion,Oregon,Union,2022-04-28 09:13:11,2021-10-23,0.8299393871910405,1.4943467998805562,2.8693094667821035,,,,,,,,,,,,
41061,0,USOregonUnion,Oregon,Union,2022-04-28 09:13:11,2021-10-24,0.8299393871910405,1.4943467998805562,2.8693094667821035,,,,,,,,,,,,
41061,0,USOregonUnion,Oregon,Union,2022-04-28 09:13:11,2021-10-25,0.8299393871910405,1.4943467998805562,2.8693094667821035,,,,,,,,,,,,
41061,0,USOregonUnion,Oregon,Union,2022-04-28 09:13:11,2021-10-26,0.8299393871910405,1.4943467998805562,2.8693094667821035,,,,,,,,,,,,
41061,0,USOregonUnion,Oregon,Union,2022-04-28 09:13:11,2021-10-27,0.8299393871910405,1.4943467998805562,2.8693094667821035,,,,,,,,,,,,
41061,0,USOregonUnion,Oregon,Union,2022-04-28 09:13:11,2021-10-28,0.706945635736856,1.2902553071852885,2.513372016602957,,,,,,,,,,,,
41061,0,USOregonUnion,Oregon,Union,2022-04-28 09:13:11,2021-10-29,0.706945635736856,1.2902553071852885,2.513372016602957,,,,,,,,,,,,
41061,0,USOregonUnion,Oregon,Union,2022-04-28 09:13:11,2021-10-30,0.706945635736856,1.2902553071852885,2.513372016602957,,,,,,,,,,,,
41061,0,USOregonUnion,Oregon,Union,2022-04-28 09:13:11,2021-10-31,0.706945635736856,1.2902553071852885,2.513372016602957,,,,,,,,,,,,
41061,0,USOregonUnion,Oregon,Union,2022-04-28 09:13:11,2021-11-01,0.706945635736856,1.2902553071852885,2.513372016602957,,,,,,,,,,,,
41061,0,USOregonUnion,Oregon,Union,2022-04-28 09:13:11,2021-11-02,0.706945635736856,1.2902553071852885,2.513372016602957,,,,,,,,,,,,
41061,0,USOregonUnion,Oregon,Union,2022-04-28 09:13:11,2021-11-03,0.706945635736856,1.2902553071852885,2.513372016602957,,,,,,,,,,,,
41061,0,USOregonUnion,Oregon,Union,2022-04-28 09:13:11,2021-11-04,0.4134052195954292,0.741786444175842,1.419073631603343,,,,,,,,,,,,
41061,0,USOregonUnion,Oregon,Union,2022-04-28 09:13:11,2021-11-05,0.4134052195954292,0.741786444175842,1.419073631603343,,,,,,,,,,,,
41061,0,USOregonUnion,Oregon,Union,2022-04-28 09:13:11,2021-11-06,0.4134052195954292,0.741786444175842,1.419073631603343,,,,,,,,,,,,
41061,0,USOregonUnion,Oregon,Union,2022-04-28 09:13:11,2021-11-07,0.4134052195954292,0.741786444175842,1.419073631603343,,,,,,,,,,,,
41061,0,USOregonUnion,Oregon,Union,2022-04-28 09:13:11,2021-11-08,0.4134052195954292,0.741786444175842,1.419073631603343,,,,,,,,,,,,
41061,0,USOregonUnion,Oregon,Union,2022-04-28 09:13:11,2021-11-09,0.4134052195954292,0.741786444175842,1.419073631603343,,,,,,,,,,,,
41061,0,USOregonUnion,Oregon,Union,2022-04-28 09:13:11,2021-11-10,0.4134052195954292,0.741786444175842,1.419073631603343,,,,,,,,,,,,
41061,0,USOregonUnion,Oregon,Union,2022-04-28 09:13:11,2021-11-11,0.3621977578090973,0.6893495087244336,1.403599289713651,,,,,,,,,,,,
41061,0,USOregonUnion,Oregon,Union,2022-04-28 09:13:11,2021-11-12,0.3621977578090973,0.6893495087244336,1.403599289713651,,,,,,,,,,,,
41061,0,USOregonUnion,Oregon,Union,2022-04-28 09:13:11,2021-11-13,0.3621977578090973,0.6893495087244336,1.403599289713651,,,,,,,,,,,,
41061,0,USOregonUnion,Oregon,Union,2022-04-28 09:13:11,2021-11-14,0.3621977578090973,0.6893495087244336,1.403599289713651,,,,,,,,,,,,
41061,0,USOregonUnion,Oregon,Union,2022-04-28 09:13:11,2021-11-15,0.3621977578090973,0.6893495087244336,1.403599289713651,,,,,,,,,,,,
41061,0,USOregonUnion,Oregon,Union,2022-04-28 09:13:11,2021-11-16,0.3621977578090973,0.6893495087244336,1.403599289713651,,,,,,,,,,,,
41061,0,USOregonUnion,Oregon,Union,2022-04-28 09:13:11,2021-11-17,0.3621977578090973,0.6893495087244336,1.403599289713651,,,,,,,,,,,,
41061,0,USOregonUnion,Oregon,Union,2022-04-28 09:13:11,2021-11-18,0.5954457136231195,1.0524127388289986,1.9811160420374878,,,,,,,,,,,,
41061,0,USOregonUnion,Oregon,Union,2022-04-28 09:13:11,2021-11-19,0.5954457136231195,1.0524127388289986,1.9811160420374878,,,,,,,,,,,,
41061,0,USOregonUnion,Oregon,Union,2022-04-28 09:13:11,2021-11-20,0.5954457136231195,1.0524127388289986,1.9811160420374878,,,,,,,,,,,,
41061,0,USOregonUnion,Oregon,Union,2022-04-28 09:13:11,2021-11-21,0.5954457136231195,1.0524127388289986,1.9811160420374878,,,,,,,,,,,,
41061,0,USOregonUnion,Oregon,Union,2022-04-28 09:13:11,2021-11-22,0.5954457136231195,1.0524127388289986,1.9811160420374878,,,,,,,,,,,,
41061,0,USOregonUnion,Oregon,Union,2022-04-28 09:13:11,2021-11-23,0.5954457136231195,1.0524127388289986,1.9811160420374878,,,,,,,,,,,,
41061,0,USOregonUnion,Oregon,Union,2022-04-28 09:13:11,2021-11-24,0.5954457136231195,1.0524127388289986,1.9811160420374878,,,,,,,,,,,,
41061,0,USOregonUnion,Oregon,Union,2022-04-28 09:13:11,2021-11-25,0.3974514871781348,0.7918860802496775,1.69141983626091,,,,,,,,,,,,
41061,0,USOregonUnion,Oregon,Union,2022-04-28 09:13:11,2021-11-26,0.3974514871781348,0.7918860802496775,1.69141983626091,,,,,,,,,,,,
41061,0,USOregonUnion,Oregon,Union,2022-04-28 09:13:11,2021-11-27,0.3974514871781348,0.7918860802496775,1.69141983626091,,,,,,,,,,,,
41061,0,USOregonUnion,Oregon,Union,2022-04-28 09:13:11,2021-11-28,0.3974514871781348,0.7918860802496775,1.69141983626091,,,,,,,,,,,,
41061,0,USOregonUnion,Oregon,Union,2022-04-28 09:13:11,2021-11-29,0.3974514871781348,0.7918860802496775,1.69141983626091,,,,,,,,,,,,
41061,0,USOregonUnion,Oregon,Union,2022-04-28 09:13:11,2021-11-30,0.3974514871781348,0.7918860802496775,1.69141983626091,,,,,,,,,,,,
41061,0,USOregonUnion,Oregon,Union,2022-04-28 09:13:11,2021-12-01,0.3974514871781348,0.7918860802496775,1.69141983626091,,,,,,,,,,,,
41061,0,USOregonUnion,Oregon,Union,2022-04-28 09:13:11,2021-12-02,0.5268350744649493,0.9376809492887349,1.778376852503123,,,,,,,,,,,,
41061,0,USOregonUnion,Oregon,Union,2022-04-28 09:13:11,2021-12-03,0.5268350744649493,0.9376809492887349,1.778376852503123,,,,,,,,,,,,
41061,0,USOregonUnion,Oregon,Union,2022-04-28 09:13:11,2021-12-04,0.5268350744649493,0.9376809492887349,1.778376852503123,,,,,,,,,,,,
41061,0,USOregonUnion,Oregon,Union,2022-04-28 09:13:11,2021-12-05,0.5268350744649493,0.9376809492887349,1.778376852503123,,,,,,,,,,,,
41061,0,USOregonUnion,Oregon,Union,2022-04-28 09:13:11,2021-12-06,0.5268350744649493,0.9376809492887349,1.778376852503123,,,,,,,,,,,,
41061,0,USOregonUnion,Oregon,Union,2022-04-28 09:13:11,2021-12-07,0.5268350744649493,0.9376809492887349,1.778376852503123,,,,,,,,,,,,
41061,0,USOregonUnion,Oregon,Union,2022-04-28 09:13:11,2021-12-08,0.5268350744649493,0.9376809492887349,1.778376852503123,,,,,,,,,,,,
41061,0,USOregonUnion,Oregon,Union,2022-04-28 09:13:11,2021-12-09,0.5953776288551963,1.1014648279709054,2.1766600715697093,,,,,,,,,,,,
41061,0,USOregonUnion,Oregon,Union,2022-04-28 09:13:11,2021-12-10,0.5953776288551963,1.1014648279709054,2.1766600715697093,,,,,,,,,,,,
41061,0,USOregonUnion,Oregon,Union,2022-04-28 09:13:11,2021-12-11,0.5953776288551963,1.1014648279709054,2.1766600715697093,,,,,,,,,,,,
41061,0,USOregonUnion,Oregon,Union,2022-04-28 09:13:11,2021-12-12,0.5953776288551963,1.1014648279709054,2.1766600715697093,,,,,,,,,,,,
41061,0,USOregonUnion,Oregon,Union,2022-04-28 09:13:11,2021-12-13,0.5953776288551963,1.1014648279709054,2.1766600715697093,,,,,,,,,,,,
41061,0,USOregonUnion,Oregon,Union,2022-04-28 09:13:11,2021-12-14,0.5953776288551963,1.1014648279709054,2.1766600715697093,,,,,,,,,,,,
41061,0,USOregonUnion,Oregon,Union,2022-04-28 09:13:11,2021-12-15,0.5953776288551963,1.1014648279709054,2.1766600715697093,,,,,,,,,,,,
41061,0,USOregonUnion,Oregon,Union,2022-04-28 09:13:11,2021-12-16,0.21036482373946774,0.38358128653341617,0.7464630610486623,,,,,,,,,,,,
41061,0,USOregonUnion,Oregon,Union,2022-04-28 09:13:11,2021-12-17,0.21036482373946774,0.38358128653341617,0.7464630610486623,,,,,,,,,,,,
41061,0,USOregonUnion,Oregon,Union,2022-04-28 09:13:11,2021-12-18,0.21036482373946774,0.38358128653341617,0.7464630610486623,,,,,,,,,,,,
41061,0,USOregonUnion,Oregon,Union,2022-04-28 09:13:11,2021-12-19,0.21036482373946774,0.38358128653341617,0.7464630610486623,,,,,,,,,,,,
41061,0,USOregonUnion,Oregon,Union,2022-04-28 09:13:11,2021-12-20,0.21036482373946774,0.38358128653341617,0.7464630610486623,,,,,,,,,,,,
41061,0,USOregonUnion,Oregon,Union,2022-04-28 09:13:11,2021-12-21,0.21036482373946774,0.38358128653341617,0.7464630610486623,,,,,,,,,,,,
41061,0,USOregonUnion,Oregon,Union,2022-04-28 09:13:11,2021-12-22,0.21036482373946774,0.38358128653341617,0.7464630610486623,,,,,,,,,,,,
41061,0,USOregonUnion,Oregon,Union,2022-04-28 09:13:11,2021-12-23,0.5495793497124889,1.0167367642808356,2.0092246814489627,,,,,,,,,,,,
41061,0,USOregonUnion,Oregon,Union,2022-04-28 09:13:11,2021-12-24,0.5495793497124889,1.0167367642808356,2.0092246814489627,,,,,,,,,,,,
41061,0,USOregonUnion,Oregon,Union,2022-04-28 09:13:11,2021-12-25,0.5495793497124889,1.0167367642808356,2.0092246814489627,,,,,,,,,,,,
41061,0,USOregonUnion,Oregon,Union,2022-04-28 09:13:11,2021-12-26,0.5495793497124889,1.0167367642808356,2.0092246814489627,,,,,,,,,,,,
41061,0,USOregonUnion,Oregon,Union,2022-04-28 09:13:11,2021-12-27,0.5495793497124889,1.0167367642808356,2.0092246814489627,,,,,,,,,,,,
41061,0,USOregonUnion,Oregon,Union,2022-04-28 09:13:11,2021-12-28,0.5495793497124889,1.0167367642808356,2.0092246814489627,,,,,,,,,,,,
41061,0,USOregonUnion,Oregon,Union,2022-04-28 09:13:11,2021-12-29,0.5495793497124889,1.0167367642808356,2.0092246814489627,,,,,,,,,,,,
41061,0,USOregonUnion,Oregon,Union,2022-04-28 09:13:11,2021-12-30,1.3456720170659455,2.4180471280802514,4.632912857499068,,,,,,,,,,,,
41061,0,USOregonUnion,Oregon,Union,2022-04-28 09:13:11,2021-12-31,1.3456720170659455,2.4180471280802514,4.632912857499068,,,,,,,,,,,,
41061,0,USOregonUnion,Oregon,Union,2022-04-28 09:13:11,2022-01-01,1.3456720170659455,2.4180471280802514,4.632912857499068,,,,,,,,,,,,
41061,0,USOregonUnion,Oregon,Union,2022-04-28 09:13:11,2022-01-02,1.3456720170659455,2.4180471280802514,4.632912857499068,,,,,,,,,,,,
41061,0,USOregonUnion,Oregon,Union,2022-04-28 09:13:11,2022-01-03,1.3456720170659455,2.4180471280802514,4.632912857499068,,,,,,,,,,,,
41061,0,USOregonUnion,Oregon,Union,2022-04-28 09:13:11,2022-01-04,1.3456720170659455,2.4180471280802514,4.632912857499068,,,,,,,,,,,,
41061,0,USOregonUnion,Oregon,Union,2022-04-28 09:13:11,2022-01-05,1.3456720170659455,2.4180471280802514,4.632912857499068,,,,,,,,,,,,
41061,0,USOregonUnion,Oregon,Union,2022-04-28 09:13:11,2022-01-06,2.632393632088971,4.477463882181654,8.088159709653375,,,,,,,,,,,,
41061,0,USOregonUnion,Oregon,Union,2022-04-28 09:13:11,2022-01-07,2.632393632088971,4.477463882181654,8.088159709653375,,,,,,,,,,,,
41061,0,USOregonUnion,Oregon,Union,2022-04-28 09:13:11,2022-01-08,2.632393632088971,4.477463882181654,8.088159709653375,,,,,,,,,,,,
41061,0,USOregonUnion,Oregon,Union,2022-04-28 09:13:11,2022-01-09,2.632393632088971,4.477463882181654,8.088159709653375,,,,,,,,,,,,
41061,0,USOregonUnion,Oregon,Union,2022-04-28 09:13:11,2022-01-10,2.632393632088971,4.477463882181654,8.088159709653375,,,,,,,,,,,,
41061,0,USOregonUnion,Oregon,Union,2022-04-28 09:13:11,2022-01-11,2.632393632088971,4.477463882181654,8.088159709653375,,,,,,,,,,,,
41061,0,USOregonUnion,Oregon,Union,2022-04-28 09:13:11,2022-01-12,2.632393632088971,4.477463882181654,8.088159709653375,,,,,,,,,,,,
41061,0,USOregonUnion,Oregon,Union,2022-04-28 09:13:11,2022-01-13,3.119966778728443,5.179746925048372,9.114438503530428,,,,,,,,,,,,
41061,0,USOregonUnion,Oregon,Union,2022-04-28 09:13:11,2022-01-14,3.119966778728443,5.179746925048372,9.114438503530428,,,,,,,,,,,,
41061,0,USOregonUnion,Oregon,Union,2022-04-28 09:13:11,2022-01-15,3.119966778728443,5.179746925048372,9.114438503530428,,,,,,,,,,,,
41061,0,USOregonUnion,Oregon,Union,2022-04-28 09:13:11,2022-01-16,3.119966778728443,5.179746925048372,9.114438503530428,,,,,,,,,,,,
41061,0,USOregonUnion,Oregon,Union,2022-04-28 09:13:11,2022-01-17,3.119966778728443,5.179746925048372,9.114438503530428,,,,,,,,,,,,
41061,0,USOregonUnion,Oregon,Union,2022-04-28 09:13:11,2022-01-18,3.119966778728443,5.179746925048372,9.114438503530428,,,,,,,,,,,,
41061,0,USOregonUnion,Oregon,Union,2022-04-28 09:13:11,2022-01-19,3.119966778728443,5.179746925048372,9.114438503530428,,,,,,,,,,,,
41061,0,USOregonUnion,Oregon,Union,2022-04-28 09:13:11,2022-01-20,4.358407975443507,6.796630176020954,11.16721950218593,,,,,,,,,,,,
41061,0,USOregonUnion,Oregon,Union,2022-04-28 09:13:11,2022-01-21,4.358407975443507,6.796630176020954,11.16721950218593,,,,,,,,,,,,
41061,0,USOregonUnion,Oregon,Union,2022-04-28 09:13:11,2022-01-22,4.358407975443507,6.796630176020954,11.16721950218593,,,,,,,,,,,,
41061,0,USOregonUnion,Oregon,Union,2022-04-28 09:13:11,2022-01-23,4.358407975443507,6.796630176020954,11.16721950218593,,,,,,,,,,,,
41061,0,USOregonUnion,Oregon,Union,2022-04-28 09:13:11,2022-01-24,4.358407975443507,6.796630176020954,11.16721950218593,,,,,,,,,,,,
41061,0,USOregonUnion,Oregon,Union,2022-04-28 09:13:11,2022-01-25,4.358407975443507,6.796630176020954,11.16721950218593,,,,,,,,,,,,
41061,0,USOregonUnion,Oregon,Union,2022-04-28 09:13:11,2022-01-26,4.358407975443507,6.796630176020954,11.16721950218593,,,,,,,,,,,,
41061,0,USOregonUnion,Oregon,Union,2022-04-28 09:13:11,2022-01-27,3.991878349641599,6.119729622644909,9.86713395013,,,,,,,,,,,,
41061,0,USOregonUnion,Oregon,Union,2022-04-28 09:13:11,2022-01-28,3.991878349641599,6.119729622644909,9.86713395013,,,,,,,,,,,,
41061,0,USOregonUnion,Oregon,Union,2022-04-28 09:13:11,2022-01-29,3.991878349641599,6.119729622644909,9.86713395013,,,,,,,,,,,,
41061,0,USOregonUnion,Oregon,Union,2022-04-28 09:13:11,2022-01-30,3.991878349641599,6.119729622644909,9.86713395013,,,,,,,,,,,,
41061,0,USOregonUnion,Oregon,Union,2022-04-28 09:13:11,2022-01-31,3.991878349641599,6.119729622644909,9.86713395013,,,,,,,,,,,,
41061,0,USOregonUnion,Oregon,Union,2022-04-28 09:13:11,2022-02-01,3.991878349641599,6.119729622644909,9.86713395013,,,,,,,,,,,,
41061,0,USOregonUnion,Oregon,Union,2022-04-28 09:13:11,2022-02-02,3.991878349641599,6.119729622644909,9.86713395013,,,,,,,,,,,,
41061,0,USOregonUnion,Oregon,Union,2022-04-28 09:13:11,2022-02-03,2.0428290490408867,3.4038294132617546,6.013145010428454,,,,,,,,,,,,
41061,0,USOregonUnion,Oregon,Union,2022-04-28 09:13:11,2022-02-04,2.0428290490408867,3.4038294132617546,6.013145010428454,,,,,,,,,,,,
41061,0,USOregonUnion,Oregon,Union,2022-04-28 09:13:11,2022-02-05,2.0428290490408867,3.4038294132617546,6.013145010428454,,,,,,,,,,,,
41061,0,USOregonUnion,Oregon,Union,2022-04-28 09:13:11,2022-02-06,2.0428290490408867,3.4038294132617546,6.013145010428454,,,,,,,,,,,,
41061,0,USOregonUnion,Oregon,Union,2022-04-28 09:13:11,2022-02-07,2.0428290490408867,3.4038294132617546,6.013145010428454,,,,,,,,,,,,
41061,0,USOregonUnion,Oregon,Union,2022-04-28 09:13:11,2022-02-08,2.0428290490408867,3.4038294132617546,6.013145010428454,,,,,,,,,,,,
41061,0,USOregonUnion,Oregon,Union,2022-04-28 09:13:11,2022-02-09,2.0428290490408867,3.4038294132617546,6.013145010428454,,,,,,,,,,,,
41061,0,USOregonUnion,Oregon,Union,2022-04-28 09:13:11,2022-02-10,1.2978532376285021,2.2790340469941874,4.260469865268282,,,,,,,,,,,,
41061,0,USOregonUnion,Oregon,Union,2022-04-28 09:13:11,2022-02-11,1.2978532376285021,2.2790340469941874,4.260469865268282,,,,,,,,,,,,
41061,0,USOregonUnion,Oregon,Union,2022-04-28 09:13:11,2022-02-12,1.2978532376285021,2.2790340469941874,4.260469865268282,,,,,,,,,,,,
41061,0,USOregonUnion,Oregon,Union,2022-04-28 09:13:11,2022-02-13,1.2978532376285021,2.2790340469941874,4.260469865268282,,,,,,,,,,,,
41061,0,USOregonUnion,Oregon,Union,2022-04-28 09:13:11,2022-02-14,1.2978532376285021,2.2790340469941874,4.260469865268282,,,,,,,,,,,,
41061,0,USOregonUnion,Oregon,Union,2022-04-28 09:13:11,2022-02-15,1.2978532376285021,2.2790340469941874,4.260469865268282,,,,,,,,,,,,
41061,0,USOregonUnion,Oregon,Union,2022-04-28 09:13:11,2022-02-16,1.2978532376285021,2.2790340469941874,4.260469865268282,,,,,,,,,,,,
41061,0,USOregonUnion,Oregon,Union,2022-04-28 09:13:11,2022-02-17,0.7249041802951888,1.2792023834871817,2.4039753512339916,,,,,,,,,,,,
41061,0,USOregonUnion,Oregon,Union,2022-04-28 09:13:11,2022-02-18,0.7249041802951888,1.2792023834871817,2.4039753512339916,,,,,,,,,,,,
41061,0,USOregonUnion,Oregon,Union,2022-04-28 09:13:11,2022-02-19,0.7249041802951888,1.2792023834871817,2.4039753512339916,,,,,,,,,,,,
41061,0,USOregonUnion,Oregon,Union,2022-04-28 09:13:11,2022-02-20,0.7249041802951888,1.2792023834871817,2.4039753512339916,,,,,,,,,,,,
41061,0,USOregonUnion,Oregon,Union,2022-04-28 09:13:11,2022-02-21,0.7249041802951888,1.2792023834871817,2.4039753512339916,,,,,,,,,,,,
41061,0,USOregonUnion,Oregon,Union,2022-04-28 09:13:11,2022-02-22,0.7249041802951888,1.2792023834871817,2.4039753512339916,,,,,,,,,,,,
41061,0,USOregonUnion,Oregon,Union,2022-04-28 09:13:11,2022-02-23,0.7249041802951888,1.2792023834871817,2.4039753512339916,,,,,,,,,,,,
41061,0,USOregonUnion,Oregon,Union,2022-04-28 09:13:11,2022-02-24,0.281344839160474,0.5318227297636109,1.0751072808663926,,,,,,,,,,,,
41061,0,USOregonUnion,Oregon,Union,2022-04-28 09:13:11,2022-02-25,0.281344839160474,0.5318227297636109,1.0751072808663926,,,,,,,,,,,,
41061,0,USOregonUnion,Oregon,Union,2022-04-28 09:13:11,2022-02-26,0.281344839160474,0.5318227297636109,1.0751072808663926,,,,,,,,,,,,
41061,0,USOregonUnion,Oregon,Union,2022-04-28 09:13:11,2022-02-27,0.281344839160474,0.5318227297636109,1.0751072808663926,,,,,,,,,,,,
41061,0,USOregonUnion,Oregon,Union,2022-04-28 09:13:11,2022-02-28,0.281344839160474,0.5318227297636109,1.0751072808663926,,,,,,,,,,,,
41061,0,USOregonUnion,Oregon,Union,2022-04-28 09:13:11,2022-03-01,0.281344839160474,0.5318227297636109,1.0751072808663926,,,,,,,,,,,,
41061,0,USOregonUnion,Oregon,Union,2022-04-28 09:13:11,2022-03-02,0.281344839160474,0.5318227297636109,1.0751072808663926,,,,,,,,,,,,
41061,0,USOregonUnion,Oregon,Union,2022-04-28 09:13:11,2022-03-03,0.14160985460491293,0.2693100546430741,0.5479041654068074,,,,,,,,,,,,
41061,0,USOregonUnion,Oregon,Union,2022-04-28 09:13:11,2022-03-04,0.14160985460491293,0.2693100546430741,0.5479041654068074,,,,,,,,,,,,
41061,0,USOregonUnion,Oregon,Union,2022-04-28 09:13:11,2022-03-05,0.14160985460491293,0.2693100546430741,0.5479041654068074,,,,,,,,,,,,
41061,0,USOregonUnion,Oregon,Union,2022-04-28 09:13:11,2022-03-06,0.14160985460491293,0.2693100546430741,0.5479041654068074,,,,,,,,,,,,
41061,0,USOregonUnion,Oregon,Union,2022-04-28 09:13:11,2022-03-07,0.14160985460491293,0.2693100546430741,0.5479041654068074,,,,,,,,,,,,
41061,0,USOregonUnion,Oregon,Union,2022-04-28 09:13:11,2022-03-08,0.14160985460491293,0.2693100546430741,0.5479041654068074,,,,,,,,,,,,
41061,0,USOregonUnion,Oregon,Union,2022-04-28 09:13:11,2022-03-09,0.14160985460491293,0.2693100546430741,0.5479041654068074,,,,,,,,,,,,
41061,0,USOregonUnion,Oregon,Union,2022-04-28 09:13:11,2022-03-10,0.033337273559389015,0.06681501987774076,0.14359154647741643,,,,,,,,,,,,
41061,0,USOregonUnion,Oregon,Union,2022-04-28 09:13:11,2022-03-11,0.033337273559389015,0.06681501987774076,0.14359154647741643,,,,,,,,,,,,
41061,0,USOregonUnion,Oregon,Union,2022-04-28 09:13:11,2022-03-12,0.033337273559389015,0.06681501987774076,0.14359154647741643,,,,,,,,,,,,
41061,0,USOregonUnion,Oregon,Union,2022-04-28 09:13:11,2022-03-13,0.033337273559389015,0.06681501987774076,0.14359154647741643,,,,,,,,,,,,
41061,0,USOregonUnion,Oregon,Union,2022-04-28 09:13:11,2022-03-14,0.033337273559389015,0.06681501987774076,0.14359154647741643,,,,,,,,,,,,
41061,0,USOregonUnion,Oregon,Union,2022-04-28 09:13:11,2022-03-15,0.033337273559389015,0.06681501987774076,0.14359154647741643,,,,,,,,,,,,
41061,0,USOregonUnion,Oregon,Union,2022-04-28 09:13:11,2022-03-16,0.033337273559389015,0.06681501987774076,0.14359154647741643,,,,,,,,,,,,
41061,0,USOregonUnion,Oregon,Union,2022-04-28 09:13:11,2022-03-17,0.08443768517731957,0.17124456756339385,0.37256250893148224,,,,,,,,,,,,
41061,0,USOregonUnion,Oregon,Union,2022-04-28 09:13:11,2022-03-18,0.08443768517731957,0.17124456756339385,0.37256250893148224,,,,,,,,,,,,
41061,0,USOregonUnion,Oregon,Union,2022-04-28 09:13:11,2022-03-19,0.08443768517731957,0.17124456756339385,0.37256250893148224,,,,,,,,,,,,
41061,0,USOregonUnion,Oregon,Union,2022-04-28 09:13:11,2022-03-20,0.08443768517731957,0.17124456756339385,0.37256250893148224,,,,,,,,,,,,
41061,0,USOregonUnion,Oregon,Union,2022-04-28 09:13:11,2022-03-21,0.08443768517731957,0.17124456756339385,0.37256250893148224,,,,,,,,,,,,
41061,0,USOregonUnion,Oregon,Union,2022-04-28 09:13:11,2022-03-22,0.08443768517731957,0.17124456756339385,0.37256250893148224,,,,,,,,,,,,
41061,0,USOregonUnion,Oregon,Union,2022-04-28 09:13:11,2022-03-23,0.08443768517731957,0.17124456756339385,0.37256250893148224,,,,,,,,,,,,
41061,0,USOregonUnion,Oregon,Union,2022-04-28 09:13:11,2022-03-24,0.07135423580180844,0.1520507743347295,0.3481082351084328,,,,,,,,,,,,
41061,0,USOregonUnion,Oregon,Union,2022-04-28 09:13:11,2022-03-25,0.07135423580180844,0.1520507743347295,0.3481082351084328,,,,,,,,,,,,
41061,0,USOregonUnion,Oregon,Union,2022-04-28 09:13:11,2022-03-26,0.07135423580180844,0.1520507743347295,0.3481082351084328,,,,,,,,,,,,
41061,0,USOregonUnion,Oregon,Union,2022-04-28 09:13:11,2022-03-27,0.07135423580180844,0.1520507743347295,0.3481082351084328,,,,,,,,,,,,
41061,0,USOregonUnion,Oregon,Union,2022-04-28 09:13:11,2022-03-28,0.07135423580180844,0.1520507743347295,0.3481082351084328,,,,,,,,,,,,
41061,0,USOregonUnion,Oregon,Union,2022-04-28 09:13:11,2022-03-29,0.07135423580180844,0.1520507743347295,0.3481082351084328,,,,,,,,,,,,
41061,0,USOregonUnion,Oregon,Union,2022-04-28 09:13:11,2022-03-30,0.07135423580180844,0.1520507743347295,0.3481082351084328,,,,,,,,,,,,
41061,0,USOregonUnion,Oregon,Union,2022-04-28 09:13:11,2022-03-31,0.036033912490186316,0.07747622583358904,0.17900978103424417,,,,,,,,,,,,
41061,0,USOregonUnion,Oregon,Union,2022-04-28 09:13:11,2022-04-01,0.036033912490186316,0.07747622583358904,0.17900978103424417,,,,,,,,,,,,
41061,0,USOregonUnion,Oregon,Union,2022-04-28 09:13:11,2022-04-02,0.036033912490186316,0.07747622583358904,0.17900978103424417,,,,,,,,,,,,
41061,0,USOregonUnion,Oregon,Union,2022-04-28 09:13:11,2022-04-03,0.036033912490186316,0.07747622583358904,0.17900978103424417,,,,,,,,,,,,
41061,0,USOregonUnion,Oregon,Union,2022-04-28 09:13:11,2022-04-04,0.036033912490186316,0.07747622583358904,0.17900978103424417,,,,,,,,,,,,
41061,0,USOregonUnion,Oregon,Union,2022-04-28 09:13:11,2022-04-05,0.036033912490186316,0.07747622583358904,0.17900978103424417,,,,,,,,,,,,
41061,0,USOregonUnion,Oregon,Union,2022-04-28 09:13:11,2022-04-06,0.036033912490186316,0.07747622583358904,0.17900978103424417,,,,,,,,,,,,
41061,0,USOregonUnion,Oregon,Union,2022-04-28 09:13:11,2022-04-07,0.05590428646417819,0.12389099782579475,0.2952250035464764,,,,,,,,,,,,
41061,0,USOregonUnion,Oregon,Union,2022-04-28 09:13:11,2022-04-08,0.05590428646417819,0.12389099782579475,0.2952250035464764,,,,,,,,,,,,
41061,0,USOregonUnion,Oregon,Union,2022-04-28 09:13:11,2022-04-09,0.05590428646417819,0.12389099782579475,0.2952250035464764,,,,,,,,,,,,
41061,0,USOregonUnion,Oregon,Union,2022-04-28 09:13:11,2022-04-10,0.05590428646417819,0.12389099782579475,0.2952250035464764,,,,,,,,,,,,
41061,0,USOregonUnion,Oregon,Union,2022-04-28 09:13:11,2022-04-11,0.05590428646417819,0.12389099782579475,0.2952250035464764,,,,,,,,,,,,
41061,0,USOregonUnion,Oregon,Union,2022-04-28 09:13:11,2022-04-12,0.05590428646417819,0.12389099782579475,0.2952250035464764,,,,,,,,,,,,
41061,0,USOregonUnion,Oregon,Union,2022-04-28 09:13:11,2022-04-13,0.05590428646417819,0.12389099782579475,0.2952250035464764,,,,,,,,,,,,
41061,0,USOregonUnion,Oregon,Union,2022-04-28 09:13:11,2022-04-14,0.11274421644811891,0.25172555658922235,0.604412010058043,,,,,,,,,,,,
41061,0,USOregonUnion,Oregon,Union,2022-04-28 09:13:11,2022-04-15,0.11274421644811891,0.25172555658922235,0.604412010058043,,,,,,,,,,,,
41061,0,USOregonUnion,Oregon,Union,2022-04-28 09:13:11,2022-04-16,0.11274421644811891,0.25172555658922235,0.604412010058043,,,,,,,,,,,,
41061,0,USOregonUnion,Oregon,Union,2022-04-28 09:13:11,2022-04-17,0.11274421644811891,0.25172555658922235,0.604412010058043,,,,,,,,,,,,
41061,0,USOregonUnion,Oregon,Union,2022-04-28 09:13:11,2022-04-18,0.11274421644811891,0.25172555658922235,0.604412010058043,,,,,,,,,,,,
41061,0,USOregonUnion,Oregon,Union,2022-04-28 09:13:11,2022-04-19,0.11274421644811891,0.25172555658922235,0.604412010058043,,,,,,,,,,,,
41061,0,USOregonUnion,Oregon,Union,2022-04-28 09:13:11,2022-04-20,0.11274421644811891,0.25172555658922235,0.604412010058043,,,,,,,,,,,,
