FIPS,HR_UID,nameid,province,region,analysisTime,dates,pointprevalence_025,pointprevalence_50,pointprevalence_975,pointinfections_025,pointinfections_50,pointinfections_975,pointinfectious_025,pointinfectious_50,pointinfectious_975,pointinfectiousprevalence_025,pointinfectiousprevalence_50,pointinfectiousprevalence_975,infectrate_025,infectrate_50,infectrate_975
21223,0,USKentuckyTrimble,Kentucky,Trimble,2022-04-28 09:13:11,2020-03-19,0,0,0,,,,,,,,,,,,
21223,0,USKentuckyTrimble,Kentucky,Trimble,2022-04-28 09:13:11,2020-03-20,0,0,0,,,,,,,,,,,,
21223,0,USKentuckyTrimble,Kentucky,Trimble,2022-04-28 09:13:11,2020-03-21,0,0,0,,,,,,,,,,,,
21223,0,USKentuckyTrimble,Kentucky,Trimble,2022-04-28 09:13:11,2020-03-22,0,0,0,,,,,,,,,,,,
21223,0,USKentuckyTrimble,Kentucky,Trimble,2022-04-28 09:13:11,2020-03-23,0,0,0,,,,,,,,,,,,
21223,0,USKentuckyTrimble,Kentucky,Trimble,2022-04-28 09:13:11,2020-03-24,0,0,0,,,,,,,,,,,,
21223,0,USKentuckyTrimble,Kentucky,Trimble,2022-04-28 09:13:11,2020-03-25,0,0,0,,,,,,,,,,,,
21223,0,USKentuckyTrimble,Kentucky,Trimble,2022-04-28 09:13:11,2020-03-26,0,0,0,,,,,,,,,,,,
21223,0,USKentuckyTrimble,Kentucky,Trimble,2022-04-28 09:13:11,2020-03-27,0,0,0,,,,,,,,,,,,
21223,0,USKentuckyTrimble,Kentucky,Trimble,2022-04-28 09:13:11,2020-03-28,0,0,0,,,,,,,,,,,,
21223,0,USKentuckyTrimble,Kentucky,Trimble,2022-04-28 09:13:11,2020-03-29,0,0,0,,,,,,,,,,,,
21223,0,USKentuckyTrimble,Kentucky,Trimble,2022-04-28 09:13:11,2020-03-30,0,0,0,,,,,,,,,,,,
21223,0,USKentuckyTrimble,Kentucky,Trimble,2022-04-28 09:13:11,2020-03-31,0,0,0,,,,,,,,,,,,
21223,0,USKentuckyTrimble,Kentucky,Trimble,2022-04-28 09:13:11,2020-04-01,0,0,0,,,,,,,,,,,,
21223,0,USKentuckyTrimble,Kentucky,Trimble,2022-04-28 09:13:11,2020-04-02,0,0,0,,,,,,,,,,,,
21223,0,USKentuckyTrimble,Kentucky,Trimble,2022-04-28 09:13:11,2020-04-03,0,0,0,,,,,,,,,,,,
21223,0,USKentuckyTrimble,Kentucky,Trimble,2022-04-28 09:13:11,2020-04-04,0,0,0,,,,,,,,,,,,
21223,0,USKentuckyTrimble,Kentucky,Trimble,2022-04-28 09:13:11,2020-04-05,0,0,0,,,,,,,,,,,,
21223,0,USKentuckyTrimble,Kentucky,Trimble,2022-04-28 09:13:11,2020-04-06,0,0,0,,,,,,,,,,,,
21223,0,USKentuckyTrimble,Kentucky,Trimble,2022-04-28 09:13:11,2020-04-07,0,0,0,,,,,,,,,,,,
21223,0,USKentuckyTrimble,Kentucky,Trimble,2022-04-28 09:13:11,2020-04-08,0,0,0,,,,,,,,,,,,
21223,0,USKentuckyTrimble,Kentucky,Trimble,2022-04-28 09:13:11,2020-04-09,0.19478167033095056,0.664804421204621,2.42546912632282,,,,,,,,,,,,
21223,0,USKentuckyTrimble,Kentucky,Trimble,2022-04-28 09:13:11,2020-04-10,0.19478167033095056,0.664804421204621,2.42546912632282,,,,,,,,,,,,
21223,0,USKentuckyTrimble,Kentucky,Trimble,2022-04-28 09:13:11,2020-04-11,0.19478167033095056,0.664804421204621,2.42546912632282,,,,,,,,,,,,
21223,0,USKentuckyTrimble,Kentucky,Trimble,2022-04-28 09:13:11,2020-04-12,0.19478167033095056,0.664804421204621,2.42546912632282,,,,,,,,,,,,
21223,0,USKentuckyTrimble,Kentucky,Trimble,2022-04-28 09:13:11,2020-04-13,0.19478167033095056,0.664804421204621,2.42546912632282,,,,,,,,,,,,
21223,0,USKentuckyTrimble,Kentucky,Trimble,2022-04-28 09:13:11,2020-04-14,0.19478167033095056,0.664804421204621,2.42546912632282,,,,,,,,,,,,
21223,0,USKentuckyTrimble,Kentucky,Trimble,2022-04-28 09:13:11,2020-04-15,0.19478167033095056,0.664804421204621,2.42546912632282,,,,,,,,,,,,
21223,0,USKentuckyTrimble,Kentucky,Trimble,2022-04-28 09:13:11,2020-04-16,0.11722024817340777,0.46553304284178076,1.9647398872151771,,,,,,,,,,,,
21223,0,USKentuckyTrimble,Kentucky,Trimble,2022-04-28 09:13:11,2020-04-17,0.11722024817340777,0.46553304284178076,1.9647398872151771,,,,,,,,,,,,
21223,0,USKentuckyTrimble,Kentucky,Trimble,2022-04-28 09:13:11,2020-04-18,0.11722024817340777,0.46553304284178076,1.9647398872151771,,,,,,,,,,,,
21223,0,USKentuckyTrimble,Kentucky,Trimble,2022-04-28 09:13:11,2020-04-19,0.11722024817340777,0.46553304284178076,1.9647398872151771,,,,,,,,,,,,
21223,0,USKentuckyTrimble,Kentucky,Trimble,2022-04-28 09:13:11,2020-04-20,0.11722024817340777,0.46553304284178076,1.9647398872151771,,,,,,,,,,,,
21223,0,USKentuckyTrimble,Kentucky,Trimble,2022-04-28 09:13:11,2020-04-21,0.11722024817340777,0.46553304284178076,1.9647398872151771,,,,,,,,,,,,
21223,0,USKentuckyTrimble,Kentucky,Trimble,2022-04-28 09:13:11,2020-04-22,0.11722024817340777,0.46553304284178076,1.9647398872151771,,,,,,,,,,,,
21223,0,USKentuckyTrimble,Kentucky,Trimble,2022-04-28 09:13:11,2020-04-23,0.089100440389160665,0.28233351982180627,0.9586353800256556,,,,,,,,,,,,
21223,0,USKentuckyTrimble,Kentucky,Trimble,2022-04-28 09:13:11,2020-04-24,0.089100440389160665,0.28233351982180627,0.9586353800256556,,,,,,,,,,,,
21223,0,USKentuckyTrimble,Kentucky,Trimble,2022-04-28 09:13:11,2020-04-25,0.089100440389160665,0.28233351982180627,0.9586353800256556,,,,,,,,,,,,
21223,0,USKentuckyTrimble,Kentucky,Trimble,2022-04-28 09:13:11,2020-04-26,0.089100440389160665,0.28233351982180627,0.9586353800256556,,,,,,,,,,,,
21223,0,USKentuckyTrimble,Kentucky,Trimble,2022-04-28 09:13:11,2020-04-27,0.089100440389160665,0.28233351982180627,0.9586353800256556,,,,,,,,,,,,
21223,0,USKentuckyTrimble,Kentucky,Trimble,2022-04-28 09:13:11,2020-04-28,0.089100440389160665,0.28233351982180627,0.9586353800256556,,,,,,,,,,,,
21223,0,USKentuckyTrimble,Kentucky,Trimble,2022-04-28 09:13:11,2020-04-29,0.089100440389160665,0.28233351982180627,0.9586353800256556,,,,,,,,,,,,
21223,0,USKentuckyTrimble,Kentucky,Trimble,2022-04-28 09:13:11,2020-04-30,0,0,0,,,,,,,,,,,,
21223,0,USKentuckyTrimble,Kentucky,Trimble,2022-04-28 09:13:11,2020-05-01,0,0,0,,,,,,,,,,,,
21223,0,USKentuckyTrimble,Kentucky,Trimble,2022-04-28 09:13:11,2020-05-02,0,0,0,,,,,,,,,,,,
21223,0,USKentuckyTrimble,Kentucky,Trimble,2022-04-28 09:13:11,2020-05-03,0,0,0,,,,,,,,,,,,
21223,0,USKentuckyTrimble,Kentucky,Trimble,2022-04-28 09:13:11,2020-05-04,0,0,0,,,,,,,,,,,,
21223,0,USKentuckyTrimble,Kentucky,Trimble,2022-04-28 09:13:11,2020-05-05,0,0,0,,,,,,,,,,,,
21223,0,USKentuckyTrimble,Kentucky,Trimble,2022-04-28 09:13:11,2020-05-06,0,0,0,,,,,,,,,,,,
21223,0,USKentuckyTrimble,Kentucky,Trimble,2022-04-28 09:13:11,2020-05-07,0,0,0,,,,,,,,,,,,
21223,0,USKentuckyTrimble,Kentucky,Trimble,2022-04-28 09:13:11,2020-05-08,0,0,0,,,,,,,,,,,,
21223,0,USKentuckyTrimble,Kentucky,Trimble,2022-04-28 09:13:11,2020-05-09,0,0,0,,,,,,,,,,,,
21223,0,USKentuckyTrimble,Kentucky,Trimble,2022-04-28 09:13:11,2020-05-10,0,0,0,,,,,,,,,,,,
21223,0,USKentuckyTrimble,Kentucky,Trimble,2022-04-28 09:13:11,2020-05-11,0,0,0,,,,,,,,,,,,
21223,0,USKentuckyTrimble,Kentucky,Trimble,2022-04-28 09:13:11,2020-05-12,0,0,0,,,,,,,,,,,,
21223,0,USKentuckyTrimble,Kentucky,Trimble,2022-04-28 09:13:11,2020-05-13,0,0,0,,,,,,,,,,,,
21223,0,USKentuckyTrimble,Kentucky,Trimble,2022-04-28 09:13:11,2020-05-14,0,0,0,,,,,,,,,,,,
21223,0,USKentuckyTrimble,Kentucky,Trimble,2022-04-28 09:13:11,2020-05-15,0,0,0,,,,,,,,,,,,
21223,0,USKentuckyTrimble,Kentucky,Trimble,2022-04-28 09:13:11,2020-05-16,0,0,0,,,,,,,,,,,,
21223,0,USKentuckyTrimble,Kentucky,Trimble,2022-04-28 09:13:11,2020-05-17,0,0,0,,,,,,,,,,,,
21223,0,USKentuckyTrimble,Kentucky,Trimble,2022-04-28 09:13:11,2020-05-18,0,0,0,,,,,,,,,,,,
21223,0,USKentuckyTrimble,Kentucky,Trimble,2022-04-28 09:13:11,2020-05-19,0,0,0,,,,,,,,,,,,
21223,0,USKentuckyTrimble,Kentucky,Trimble,2022-04-28 09:13:11,2020-05-20,0,0,0,,,,,,,,,,,,
21223,0,USKentuckyTrimble,Kentucky,Trimble,2022-04-28 09:13:11,2020-05-21,0.13011511544261034,0.31438301335233204,0.8174585703313151,,,,,,,,,,,,
21223,0,USKentuckyTrimble,Kentucky,Trimble,2022-04-28 09:13:11,2020-05-22,0.13011511544261034,0.31438301335233204,0.8174585703313151,,,,,,,,,,,,
21223,0,USKentuckyTrimble,Kentucky,Trimble,2022-04-28 09:13:11,2020-05-23,0.13011511544261034,0.31438301335233204,0.8174585703313151,,,,,,,,,,,,
21223,0,USKentuckyTrimble,Kentucky,Trimble,2022-04-28 09:13:11,2020-05-24,0.13011511544261034,0.31438301335233204,0.8174585703313151,,,,,,,,,,,,
21223,0,USKentuckyTrimble,Kentucky,Trimble,2022-04-28 09:13:11,2020-05-25,0.13011511544261034,0.31438301335233204,0.8174585703313151,,,,,,,,,,,,
21223,0,USKentuckyTrimble,Kentucky,Trimble,2022-04-28 09:13:11,2020-05-26,0.13011511544261034,0.31438301335233204,0.8174585703313151,,,,,,,,,,,,
21223,0,USKentuckyTrimble,Kentucky,Trimble,2022-04-28 09:13:11,2020-05-27,0.13011511544261034,0.31438301335233204,0.8174585703313151,,,,,,,,,,,,
21223,0,USKentuckyTrimble,Kentucky,Trimble,2022-04-28 09:13:11,2020-05-28,0.07172216030646959,0.18876509166515498,0.5344410811911636,,,,,,,,,,,,
21223,0,USKentuckyTrimble,Kentucky,Trimble,2022-04-28 09:13:11,2020-05-29,0.07172216030646959,0.18876509166515498,0.5344410811911636,,,,,,,,,,,,
21223,0,USKentuckyTrimble,Kentucky,Trimble,2022-04-28 09:13:11,2020-05-30,0.07172216030646959,0.18876509166515498,0.5344410811911636,,,,,,,,,,,,
21223,0,USKentuckyTrimble,Kentucky,Trimble,2022-04-28 09:13:11,2020-05-31,0.07172216030646959,0.18876509166515498,0.5344410811911636,,,,,,,,,,,,
21223,0,USKentuckyTrimble,Kentucky,Trimble,2022-04-28 09:13:11,2020-06-01,0.07172216030646959,0.18876509166515498,0.5344410811911636,,,,,,,,,,,,
21223,0,USKentuckyTrimble,Kentucky,Trimble,2022-04-28 09:13:11,2020-06-02,0.07172216030646959,0.18876509166515498,0.5344410811911636,,,,,,,,,,,,
21223,0,USKentuckyTrimble,Kentucky,Trimble,2022-04-28 09:13:11,2020-06-03,0.07172216030646959,0.18876509166515498,0.5344410811911636,,,,,,,,,,,,
21223,0,USKentuckyTrimble,Kentucky,Trimble,2022-04-28 09:13:11,2020-06-04,0,0,0,,,,,,,,,,,,
21223,0,USKentuckyTrimble,Kentucky,Trimble,2022-04-28 09:13:11,2020-06-05,0,0,0,,,,,,,,,,,,
21223,0,USKentuckyTrimble,Kentucky,Trimble,2022-04-28 09:13:11,2020-06-06,0,0,0,,,,,,,,,,,,
21223,0,USKentuckyTrimble,Kentucky,Trimble,2022-04-28 09:13:11,2020-06-07,0,0,0,,,,,,,,,,,,
21223,0,USKentuckyTrimble,Kentucky,Trimble,2022-04-28 09:13:11,2020-06-08,0,0,0,,,,,,,,,,,,
21223,0,USKentuckyTrimble,Kentucky,Trimble,2022-04-28 09:13:11,2020-06-09,0,0,0,,,,,,,,,,,,
21223,0,USKentuckyTrimble,Kentucky,Trimble,2022-04-28 09:13:11,2020-06-10,0,0,0,,,,,,,,,,,,
21223,0,USKentuckyTrimble,Kentucky,Trimble,2022-04-28 09:13:11,2020-06-11,0,0,0,,,,,,,,,,,,
21223,0,USKentuckyTrimble,Kentucky,Trimble,2022-04-28 09:13:11,2020-06-12,0,0,0,,,,,,,,,,,,
21223,0,USKentuckyTrimble,Kentucky,Trimble,2022-04-28 09:13:11,2020-06-13,0,0,0,,,,,,,,,,,,
21223,0,USKentuckyTrimble,Kentucky,Trimble,2022-04-28 09:13:11,2020-06-14,0,0,0,,,,,,,,,,,,
21223,0,USKentuckyTrimble,Kentucky,Trimble,2022-04-28 09:13:11,2020-06-15,0,0,0,,,,,,,,,,,,
21223,0,USKentuckyTrimble,Kentucky,Trimble,2022-04-28 09:13:11,2020-06-16,0,0,0,,,,,,,,,,,,
21223,0,USKentuckyTrimble,Kentucky,Trimble,2022-04-28 09:13:11,2020-06-17,0,0,0,,,,,,,,,,,,
21223,0,USKentuckyTrimble,Kentucky,Trimble,2022-04-28 09:13:11,2020-06-18,0.13224949147800028,0.3241596236439832,0.8550761881930965,,,,,,,,,,,,
21223,0,USKentuckyTrimble,Kentucky,Trimble,2022-04-28 09:13:11,2020-06-19,0.13224949147800028,0.3241596236439832,0.8550761881930965,,,,,,,,,,,,
21223,0,USKentuckyTrimble,Kentucky,Trimble,2022-04-28 09:13:11,2020-06-20,0.13224949147800028,0.3241596236439832,0.8550761881930965,,,,,,,,,,,,
21223,0,USKentuckyTrimble,Kentucky,Trimble,2022-04-28 09:13:11,2020-06-21,0.13224949147800028,0.3241596236439832,0.8550761881930965,,,,,,,,,,,,
21223,0,USKentuckyTrimble,Kentucky,Trimble,2022-04-28 09:13:11,2020-06-22,0.13224949147800028,0.3241596236439832,0.8550761881930965,,,,,,,,,,,,
21223,0,USKentuckyTrimble,Kentucky,Trimble,2022-04-28 09:13:11,2020-06-23,0.13224949147800028,0.3241596236439832,0.8550761881930965,,,,,,,,,,,,
21223,0,USKentuckyTrimble,Kentucky,Trimble,2022-04-28 09:13:11,2020-06-24,0.13224949147800028,0.3241596236439832,0.8550761881930965,,,,,,,,,,,,
21223,0,USKentuckyTrimble,Kentucky,Trimble,2022-04-28 09:13:11,2020-06-25,0,0,0,,,,,,,,,,,,
21223,0,USKentuckyTrimble,Kentucky,Trimble,2022-04-28 09:13:11,2020-06-26,0,0,0,,,,,,,,,,,,
21223,0,USKentuckyTrimble,Kentucky,Trimble,2022-04-28 09:13:11,2020-06-27,0,0,0,,,,,,,,,,,,
21223,0,USKentuckyTrimble,Kentucky,Trimble,2022-04-28 09:13:11,2020-06-28,0,0,0,,,,,,,,,,,,
21223,0,USKentuckyTrimble,Kentucky,Trimble,2022-04-28 09:13:11,2020-06-29,0,0,0,,,,,,,,,,,,
21223,0,USKentuckyTrimble,Kentucky,Trimble,2022-04-28 09:13:11,2020-06-30,0,0,0,,,,,,,,,,,,
21223,0,USKentuckyTrimble,Kentucky,Trimble,2022-04-28 09:13:11,2020-07-01,0,0,0,,,,,,,,,,,,
21223,0,USKentuckyTrimble,Kentucky,Trimble,2022-04-28 09:13:11,2020-07-02,0.08584464244772391,0.2636096754948308,0.8681784871665293,,,,,,,,,,,,
21223,0,USKentuckyTrimble,Kentucky,Trimble,2022-04-28 09:13:11,2020-07-03,0.08584464244772391,0.2636096754948308,0.8681784871665293,,,,,,,,,,,,
21223,0,USKentuckyTrimble,Kentucky,Trimble,2022-04-28 09:13:11,2020-07-04,0.08584464244772391,0.2636096754948308,0.8681784871665293,,,,,,,,,,,,
21223,0,USKentuckyTrimble,Kentucky,Trimble,2022-04-28 09:13:11,2020-07-05,0.08584464244772391,0.2636096754948308,0.8681784871665293,,,,,,,,,,,,
21223,0,USKentuckyTrimble,Kentucky,Trimble,2022-04-28 09:13:11,2020-07-06,0.08584464244772391,0.2636096754948308,0.8681784871665293,,,,,,,,,,,,
21223,0,USKentuckyTrimble,Kentucky,Trimble,2022-04-28 09:13:11,2020-07-07,0.08584464244772391,0.2636096754948308,0.8681784871665293,,,,,,,,,,,,
21223,0,USKentuckyTrimble,Kentucky,Trimble,2022-04-28 09:13:11,2020-07-08,0.08584464244772391,0.2636096754948308,0.8681784871665293,,,,,,,,,,,,
21223,0,USKentuckyTrimble,Kentucky,Trimble,2022-04-28 09:13:11,2020-07-09,0.4696766963747984,0.931331899491318,1.9794120955798122,,,,,,,,,,,,
21223,0,USKentuckyTrimble,Kentucky,Trimble,2022-04-28 09:13:11,2020-07-10,0.4696766963747984,0.931331899491318,1.9794120955798122,,,,,,,,,,,,
21223,0,USKentuckyTrimble,Kentucky,Trimble,2022-04-28 09:13:11,2020-07-11,0.4696766963747984,0.931331899491318,1.9794120955798122,,,,,,,,,,,,
21223,0,USKentuckyTrimble,Kentucky,Trimble,2022-04-28 09:13:11,2020-07-12,0.4696766963747984,0.931331899491318,1.9794120955798122,,,,,,,,,,,,
21223,0,USKentuckyTrimble,Kentucky,Trimble,2022-04-28 09:13:11,2020-07-13,0.4696766963747984,0.931331899491318,1.9794120955798122,,,,,,,,,,,,
21223,0,USKentuckyTrimble,Kentucky,Trimble,2022-04-28 09:13:11,2020-07-14,0.4696766963747984,0.931331899491318,1.9794120955798122,,,,,,,,,,,,
21223,0,USKentuckyTrimble,Kentucky,Trimble,2022-04-28 09:13:11,2020-07-15,0.4696766963747984,0.931331899491318,1.9794120955798122,,,,,,,,,,,,
21223,0,USKentuckyTrimble,Kentucky,Trimble,2022-04-28 09:13:11,2020-07-16,0.470886725742249,0.9359154601499836,1.9939965275596772,,,,,,,,,,,,
21223,0,USKentuckyTrimble,Kentucky,Trimble,2022-04-28 09:13:11,2020-07-17,0.470886725742249,0.9359154601499836,1.9939965275596772,,,,,,,,,,,,
21223,0,USKentuckyTrimble,Kentucky,Trimble,2022-04-28 09:13:11,2020-07-18,0.470886725742249,0.9359154601499836,1.9939965275596772,,,,,,,,,,,,
21223,0,USKentuckyTrimble,Kentucky,Trimble,2022-04-28 09:13:11,2020-07-19,0.470886725742249,0.9359154601499836,1.9939965275596772,,,,,,,,,,,,
21223,0,USKentuckyTrimble,Kentucky,Trimble,2022-04-28 09:13:11,2020-07-20,0.470886725742249,0.9359154601499836,1.9939965275596772,,,,,,,,,,,,
21223,0,USKentuckyTrimble,Kentucky,Trimble,2022-04-28 09:13:11,2020-07-21,0.470886725742249,0.9359154601499836,1.9939965275596772,,,,,,,,,,,,
21223,0,USKentuckyTrimble,Kentucky,Trimble,2022-04-28 09:13:11,2020-07-22,0.470886725742249,0.9359154601499836,1.9939965275596772,,,,,,,,,,,,
21223,0,USKentuckyTrimble,Kentucky,Trimble,2022-04-28 09:13:11,2020-07-23,0.21913907888846612,0.5859935091436776,1.6853710447076145,,,,,,,,,,,,
21223,0,USKentuckyTrimble,Kentucky,Trimble,2022-04-28 09:13:11,2020-07-24,0.21913907888846612,0.5859935091436776,1.6853710447076145,,,,,,,,,,,,
21223,0,USKentuckyTrimble,Kentucky,Trimble,2022-04-28 09:13:11,2020-07-25,0.21913907888846612,0.5859935091436776,1.6853710447076145,,,,,,,,,,,,
21223,0,USKentuckyTrimble,Kentucky,Trimble,2022-04-28 09:13:11,2020-07-26,0.21913907888846612,0.5859935091436776,1.6853710447076145,,,,,,,,,,,,
21223,0,USKentuckyTrimble,Kentucky,Trimble,2022-04-28 09:13:11,2020-07-27,0.21913907888846612,0.5859935091436776,1.6853710447076145,,,,,,,,,,,,
21223,0,USKentuckyTrimble,Kentucky,Trimble,2022-04-28 09:13:11,2020-07-28,0.21913907888846612,0.5859935091436776,1.6853710447076145,,,,,,,,,,,,
21223,0,USKentuckyTrimble,Kentucky,Trimble,2022-04-28 09:13:11,2020-07-29,0.21913907888846612,0.5859935091436776,1.6853710447076145,,,,,,,,,,,,
21223,0,USKentuckyTrimble,Kentucky,Trimble,2022-04-28 09:13:11,2020-07-30,0.2650635700908592,0.6509247047687063,1.7202522606462398,,,,,,,,,,,,
21223,0,USKentuckyTrimble,Kentucky,Trimble,2022-04-28 09:13:11,2020-07-31,0.2650635700908592,0.6509247047687063,1.7202522606462398,,,,,,,,,,,,
21223,0,USKentuckyTrimble,Kentucky,Trimble,2022-04-28 09:13:11,2020-08-01,0.2650635700908592,0.6509247047687063,1.7202522606462398,,,,,,,,,,,,
21223,0,USKentuckyTrimble,Kentucky,Trimble,2022-04-28 09:13:11,2020-08-02,0.2650635700908592,0.6509247047687063,1.7202522606462398,,,,,,,,,,,,
21223,0,USKentuckyTrimble,Kentucky,Trimble,2022-04-28 09:13:11,2020-08-03,0.2650635700908592,0.6509247047687063,1.7202522606462398,,,,,,,,,,,,
21223,0,USKentuckyTrimble,Kentucky,Trimble,2022-04-28 09:13:11,2020-08-04,0.2650635700908592,0.6509247047687063,1.7202522606462398,,,,,,,,,,,,
21223,0,USKentuckyTrimble,Kentucky,Trimble,2022-04-28 09:13:11,2020-08-05,0.2650635700908592,0.6509247047687063,1.7202522606462398,,,,,,,,,,,,
21223,0,USKentuckyTrimble,Kentucky,Trimble,2022-04-28 09:13:11,2020-08-06,0.15846784832847807,0.4545303400530961,1.4005585275591517,,,,,,,,,,,,
21223,0,USKentuckyTrimble,Kentucky,Trimble,2022-04-28 09:13:11,2020-08-07,0.15846784832847807,0.4545303400530961,1.4005585275591517,,,,,,,,,,,,
21223,0,USKentuckyTrimble,Kentucky,Trimble,2022-04-28 09:13:11,2020-08-08,0.15846784832847807,0.4545303400530961,1.4005585275591517,,,,,,,,,,,,
21223,0,USKentuckyTrimble,Kentucky,Trimble,2022-04-28 09:13:11,2020-08-09,0.15846784832847807,0.4545303400530961,1.4005585275591517,,,,,,,,,,,,
21223,0,USKentuckyTrimble,Kentucky,Trimble,2022-04-28 09:13:11,2020-08-10,0.15846784832847807,0.4545303400530961,1.4005585275591517,,,,,,,,,,,,
21223,0,USKentuckyTrimble,Kentucky,Trimble,2022-04-28 09:13:11,2020-08-11,0.15846784832847807,0.4545303400530961,1.4005585275591517,,,,,,,,,,,,
21223,0,USKentuckyTrimble,Kentucky,Trimble,2022-04-28 09:13:11,2020-08-12,0.15846784832847807,0.4545303400530961,1.4005585275591517,,,,,,,,,,,,
21223,0,USKentuckyTrimble,Kentucky,Trimble,2022-04-28 09:13:11,2020-08-13,0.30816379952901446,0.7097221963089799,1.7585065053737141,,,,,,,,,,,,
21223,0,USKentuckyTrimble,Kentucky,Trimble,2022-04-28 09:13:11,2020-08-14,0.30816379952901446,0.7097221963089799,1.7585065053737141,,,,,,,,,,,,
21223,0,USKentuckyTrimble,Kentucky,Trimble,2022-04-28 09:13:11,2020-08-15,0.30816379952901446,0.7097221963089799,1.7585065053737141,,,,,,,,,,,,
21223,0,USKentuckyTrimble,Kentucky,Trimble,2022-04-28 09:13:11,2020-08-16,0.30816379952901446,0.7097221963089799,1.7585065053737141,,,,,,,,,,,,
21223,0,USKentuckyTrimble,Kentucky,Trimble,2022-04-28 09:13:11,2020-08-17,0.30816379952901446,0.7097221963089799,1.7585065053737141,,,,,,,,,,,,
21223,0,USKentuckyTrimble,Kentucky,Trimble,2022-04-28 09:13:11,2020-08-18,0.30816379952901446,0.7097221963089799,1.7585065053737141,,,,,,,,,,,,
21223,0,USKentuckyTrimble,Kentucky,Trimble,2022-04-28 09:13:11,2020-08-19,0.30816379952901446,0.7097221963089799,1.7585065053737141,,,,,,,,,,,,
21223,0,USKentuckyTrimble,Kentucky,Trimble,2022-04-28 09:13:11,2020-08-20,0.3191160115001706,0.75809214065863,1.9379626708810815,,,,,,,,,,,,
21223,0,USKentuckyTrimble,Kentucky,Trimble,2022-04-28 09:13:11,2020-08-21,0.3191160115001706,0.75809214065863,1.9379626708810815,,,,,,,,,,,,
21223,0,USKentuckyTrimble,Kentucky,Trimble,2022-04-28 09:13:11,2020-08-22,0.3191160115001706,0.75809214065863,1.9379626708810815,,,,,,,,,,,,
21223,0,USKentuckyTrimble,Kentucky,Trimble,2022-04-28 09:13:11,2020-08-23,0.3191160115001706,0.75809214065863,1.9379626708810815,,,,,,,,,,,,
21223,0,USKentuckyTrimble,Kentucky,Trimble,2022-04-28 09:13:11,2020-08-24,0.3191160115001706,0.75809214065863,1.9379626708810815,,,,,,,,,,,,
21223,0,USKentuckyTrimble,Kentucky,Trimble,2022-04-28 09:13:11,2020-08-25,0.3191160115001706,0.75809214065863,1.9379626708810815,,,,,,,,,,,,
21223,0,USKentuckyTrimble,Kentucky,Trimble,2022-04-28 09:13:11,2020-08-26,0.3191160115001706,0.75809214065863,1.9379626708810815,,,,,,,,,,,,
21223,0,USKentuckyTrimble,Kentucky,Trimble,2022-04-28 09:13:11,2020-08-27,0.32557175311741116,0.787250093329155,2.0485885838447655,,,,,,,,,,,,
21223,0,USKentuckyTrimble,Kentucky,Trimble,2022-04-28 09:13:11,2020-08-28,0.32557175311741116,0.787250093329155,2.0485885838447655,,,,,,,,,,,,
21223,0,USKentuckyTrimble,Kentucky,Trimble,2022-04-28 09:13:11,2020-08-29,0.32557175311741116,0.787250093329155,2.0485885838447655,,,,,,,,,,,,
21223,0,USKentuckyTrimble,Kentucky,Trimble,2022-04-28 09:13:11,2020-08-30,0.32557175311741116,0.787250093329155,2.0485885838447655,,,,,,,,,,,,
21223,0,USKentuckyTrimble,Kentucky,Trimble,2022-04-28 09:13:11,2020-08-31,0.32557175311741116,0.787250093329155,2.0485885838447655,,,,,,,,,,,,
21223,0,USKentuckyTrimble,Kentucky,Trimble,2022-04-28 09:13:11,2020-09-01,0.32557175311741116,0.787250093329155,2.0485885838447655,,,,,,,,,,,,
21223,0,USKentuckyTrimble,Kentucky,Trimble,2022-04-28 09:13:11,2020-09-02,0.32557175311741116,0.787250093329155,2.0485885838447655,,,,,,,,,,,,
21223,0,USKentuckyTrimble,Kentucky,Trimble,2022-04-28 09:13:11,2020-09-03,0.2274321658812262,0.6280344170505046,1.8644063090607506,,,,,,,,,,,,
21223,0,USKentuckyTrimble,Kentucky,Trimble,2022-04-28 09:13:11,2020-09-04,0.2274321658812262,0.6280344170505046,1.8644063090607506,,,,,,,,,,,,
21223,0,USKentuckyTrimble,Kentucky,Trimble,2022-04-28 09:13:11,2020-09-05,0.2274321658812262,0.6280344170505046,1.8644063090607506,,,,,,,,,,,,
21223,0,USKentuckyTrimble,Kentucky,Trimble,2022-04-28 09:13:11,2020-09-06,0.2274321658812262,0.6280344170505046,1.8644063090607506,,,,,,,,,,,,
21223,0,USKentuckyTrimble,Kentucky,Trimble,2022-04-28 09:13:11,2020-09-07,0.2274321658812262,0.6280344170505046,1.8644063090607506,,,,,,,,,,,,
21223,0,USKentuckyTrimble,Kentucky,Trimble,2022-04-28 09:13:11,2020-09-08,0.2274321658812262,0.6280344170505046,1.8644063090607506,,,,,,,,,,,,
21223,0,USKentuckyTrimble,Kentucky,Trimble,2022-04-28 09:13:11,2020-09-09,0.2274321658812262,0.6280344170505046,1.8644063090607506,,,,,,,,,,,,
21223,0,USKentuckyTrimble,Kentucky,Trimble,2022-04-28 09:13:11,2020-09-10,0.25499542092105587,0.4951666619423033,1.029679252100329,,,,,,,,,,,,
21223,0,USKentuckyTrimble,Kentucky,Trimble,2022-04-28 09:13:11,2020-09-11,0.25499542092105587,0.4951666619423033,1.029679252100329,,,,,,,,,,,,
21223,0,USKentuckyTrimble,Kentucky,Trimble,2022-04-28 09:13:11,2020-09-12,0.25499542092105587,0.4951666619423033,1.029679252100329,,,,,,,,,,,,
21223,0,USKentuckyTrimble,Kentucky,Trimble,2022-04-28 09:13:11,2020-09-13,0.25499542092105587,0.4951666619423033,1.029679252100329,,,,,,,,,,,,
21223,0,USKentuckyTrimble,Kentucky,Trimble,2022-04-28 09:13:11,2020-09-14,0.25499542092105587,0.4951666619423033,1.029679252100329,,,,,,,,,,,,
21223,0,USKentuckyTrimble,Kentucky,Trimble,2022-04-28 09:13:11,2020-09-15,0.25499542092105587,0.4951666619423033,1.029679252100329,,,,,,,,,,,,
21223,0,USKentuckyTrimble,Kentucky,Trimble,2022-04-28 09:13:11,2020-09-16,0.25499542092105587,0.4951666619423033,1.029679252100329,,,,,,,,,,,,
21223,0,USKentuckyTrimble,Kentucky,Trimble,2022-04-28 09:13:11,2020-09-17,0.2013010292152873,0.3861931726839331,0.7929496731865446,,,,,,,,,,,,
21223,0,USKentuckyTrimble,Kentucky,Trimble,2022-04-28 09:13:11,2020-09-18,0.2013010292152873,0.3861931726839331,0.7929496731865446,,,,,,,,,,,,
21223,0,USKentuckyTrimble,Kentucky,Trimble,2022-04-28 09:13:11,2020-09-19,0.2013010292152873,0.3861931726839331,0.7929496731865446,,,,,,,,,,,,
21223,0,USKentuckyTrimble,Kentucky,Trimble,2022-04-28 09:13:11,2020-09-20,0.2013010292152873,0.3861931726839331,0.7929496731865446,,,,,,,,,,,,
21223,0,USKentuckyTrimble,Kentucky,Trimble,2022-04-28 09:13:11,2020-09-21,0.2013010292152873,0.3861931726839331,0.7929496731865446,,,,,,,,,,,,
21223,0,USKentuckyTrimble,Kentucky,Trimble,2022-04-28 09:13:11,2020-09-22,0.2013010292152873,0.3861931726839331,0.7929496731865446,,,,,,,,,,,,
21223,0,USKentuckyTrimble,Kentucky,Trimble,2022-04-28 09:13:11,2020-09-23,0.2013010292152873,0.3861931726839331,0.7929496731865446,,,,,,,,,,,,
21223,0,USKentuckyTrimble,Kentucky,Trimble,2022-04-28 09:13:11,2020-09-24,0.4399366386728102,0.746293960642472,1.3442283289892218,,,,,,,,,,,,
21223,0,USKentuckyTrimble,Kentucky,Trimble,2022-04-28 09:13:11,2020-09-25,0.4399366386728102,0.746293960642472,1.3442283289892218,,,,,,,,,,,,
21223,0,USKentuckyTrimble,Kentucky,Trimble,2022-04-28 09:13:11,2020-09-26,0.4399366386728102,0.746293960642472,1.3442283289892218,,,,,,,,,,,,
21223,0,USKentuckyTrimble,Kentucky,Trimble,2022-04-28 09:13:11,2020-09-27,0.4399366386728102,0.746293960642472,1.3442283289892218,,,,,,,,,,,,
21223,0,USKentuckyTrimble,Kentucky,Trimble,2022-04-28 09:13:11,2020-09-28,0.4399366386728102,0.746293960642472,1.3442283289892218,,,,,,,,,,,,
21223,0,USKentuckyTrimble,Kentucky,Trimble,2022-04-28 09:13:11,2020-09-29,0.4399366386728102,0.746293960642472,1.3442283289892218,,,,,,,,,,,,
21223,0,USKentuckyTrimble,Kentucky,Trimble,2022-04-28 09:13:11,2020-09-30,0.4399366386728102,0.746293960642472,1.3442283289892218,,,,,,,,,,,,
21223,0,USKentuckyTrimble,Kentucky,Trimble,2022-04-28 09:13:11,2020-10-01,0.26192625359130467,0.636503765176595,1.66457069315791,,,,,,,,,,,,
21223,0,USKentuckyTrimble,Kentucky,Trimble,2022-04-28 09:13:11,2020-10-02,0.26192625359130467,0.636503765176595,1.66457069315791,,,,,,,,,,,,
21223,0,USKentuckyTrimble,Kentucky,Trimble,2022-04-28 09:13:11,2020-10-03,0.26192625359130467,0.636503765176595,1.66457069315791,,,,,,,,,,,,
21223,0,USKentuckyTrimble,Kentucky,Trimble,2022-04-28 09:13:11,2020-10-04,0.26192625359130467,0.636503765176595,1.66457069315791,,,,,,,,,,,,
21223,0,USKentuckyTrimble,Kentucky,Trimble,2022-04-28 09:13:11,2020-10-05,0.26192625359130467,0.636503765176595,1.66457069315791,,,,,,,,,,,,
21223,0,USKentuckyTrimble,Kentucky,Trimble,2022-04-28 09:13:11,2020-10-06,0.26192625359130467,0.636503765176595,1.66457069315791,,,,,,,,,,,,
21223,0,USKentuckyTrimble,Kentucky,Trimble,2022-04-28 09:13:11,2020-10-07,0.26192625359130467,0.636503765176595,1.66457069315791,,,,,,,,,,,,
21223,0,USKentuckyTrimble,Kentucky,Trimble,2022-04-28 09:13:11,2020-10-08,0.2869280403229114,0.6199354564305908,1.4395265289420118,,,,,,,,,,,,
21223,0,USKentuckyTrimble,Kentucky,Trimble,2022-04-28 09:13:11,2020-10-09,0.2869280403229114,0.6199354564305908,1.4395265289420118,,,,,,,,,,,,
21223,0,USKentuckyTrimble,Kentucky,Trimble,2022-04-28 09:13:11,2020-10-10,0.2869280403229114,0.6199354564305908,1.4395265289420118,,,,,,,,,,,,
21223,0,USKentuckyTrimble,Kentucky,Trimble,2022-04-28 09:13:11,2020-10-11,0.2869280403229114,0.6199354564305908,1.4395265289420118,,,,,,,,,,,,
21223,0,USKentuckyTrimble,Kentucky,Trimble,2022-04-28 09:13:11,2020-10-12,0.2869280403229114,0.6199354564305908,1.4395265289420118,,,,,,,,,,,,
21223,0,USKentuckyTrimble,Kentucky,Trimble,2022-04-28 09:13:11,2020-10-13,0.2869280403229114,0.6199354564305908,1.4395265289420118,,,,,,,,,,,,
21223,0,USKentuckyTrimble,Kentucky,Trimble,2022-04-28 09:13:11,2020-10-14,0.2869280403229114,0.6199354564305908,1.4395265289420118,,,,,,,,,,,,
21223,0,USKentuckyTrimble,Kentucky,Trimble,2022-04-28 09:13:11,2020-10-15,0.4804895035639259,0.9726495718349076,2.112037385359829,,,,,,,,,,,,
21223,0,USKentuckyTrimble,Kentucky,Trimble,2022-04-28 09:13:11,2020-10-16,0.4804895035639259,0.9726495718349076,2.112037385359829,,,,,,,,,,,,
21223,0,USKentuckyTrimble,Kentucky,Trimble,2022-04-28 09:13:11,2020-10-17,0.4804895035639259,0.9726495718349076,2.112037385359829,,,,,,,,,,,,
21223,0,USKentuckyTrimble,Kentucky,Trimble,2022-04-28 09:13:11,2020-10-18,0.4804895035639259,0.9726495718349076,2.112037385359829,,,,,,,,,,,,
21223,0,USKentuckyTrimble,Kentucky,Trimble,2022-04-28 09:13:11,2020-10-19,0.4804895035639259,0.9726495718349076,2.112037385359829,,,,,,,,,,,,
21223,0,USKentuckyTrimble,Kentucky,Trimble,2022-04-28 09:13:11,2020-10-20,0.4804895035639259,0.9726495718349076,2.112037385359829,,,,,,,,,,,,
21223,0,USKentuckyTrimble,Kentucky,Trimble,2022-04-28 09:13:11,2020-10-21,0.4804895035639259,0.9726495718349076,2.112037385359829,,,,,,,,,,,,
21223,0,USKentuckyTrimble,Kentucky,Trimble,2022-04-28 09:13:11,2020-10-22,0.2754267471730536,0.6995451329251836,1.911880123448937,,,,,,,,,,,,
21223,0,USKentuckyTrimble,Kentucky,Trimble,2022-04-28 09:13:11,2020-10-23,0.2754267471730536,0.6995451329251836,1.911880123448937,,,,,,,,,,,,
21223,0,USKentuckyTrimble,Kentucky,Trimble,2022-04-28 09:13:11,2020-10-24,0.2754267471730536,0.6995451329251836,1.911880123448937,,,,,,,,,,,,
21223,0,USKentuckyTrimble,Kentucky,Trimble,2022-04-28 09:13:11,2020-10-25,0.2754267471730536,0.6995451329251836,1.911880123448937,,,,,,,,,,,,
21223,0,USKentuckyTrimble,Kentucky,Trimble,2022-04-28 09:13:11,2020-10-26,0.2754267471730536,0.6995451329251836,1.911880123448937,,,,,,,,,,,,
21223,0,USKentuckyTrimble,Kentucky,Trimble,2022-04-28 09:13:11,2020-10-27,0.2754267471730536,0.6995451329251836,1.911880123448937,,,,,,,,,,,,
21223,0,USKentuckyTrimble,Kentucky,Trimble,2022-04-28 09:13:11,2020-10-28,0.2754267471730536,0.6995451329251836,1.911880123448937,,,,,,,,,,,,
21223,0,USKentuckyTrimble,Kentucky,Trimble,2022-04-28 09:13:11,2020-10-29,0.8716663595140586,1.5366262294503605,2.884611977298661,,,,,,,,,,,,
21223,0,USKentuckyTrimble,Kentucky,Trimble,2022-04-28 09:13:11,2020-10-30,0.8716663595140586,1.5366262294503605,2.884611977298661,,,,,,,,,,,,
21223,0,USKentuckyTrimble,Kentucky,Trimble,2022-04-28 09:13:11,2020-10-31,0.8716663595140586,1.5366262294503605,2.884611977298661,,,,,,,,,,,,
21223,0,USKentuckyTrimble,Kentucky,Trimble,2022-04-28 09:13:11,2020-11-01,0.8716663595140586,1.5366262294503605,2.884611977298661,,,,,,,,,,,,
21223,0,USKentuckyTrimble,Kentucky,Trimble,2022-04-28 09:13:11,2020-11-02,0.8716663595140586,1.5366262294503605,2.884611977298661,,,,,,,,,,,,
21223,0,USKentuckyTrimble,Kentucky,Trimble,2022-04-28 09:13:11,2020-11-03,0.8716663595140586,1.5366262294503605,2.884611977298661,,,,,,,,,,,,
21223,0,USKentuckyTrimble,Kentucky,Trimble,2022-04-28 09:13:11,2020-11-04,0.8716663595140586,1.5366262294503605,2.884611977298661,,,,,,,,,,,,
21223,0,USKentuckyTrimble,Kentucky,Trimble,2022-04-28 09:13:11,2020-11-05,0.7970413488188915,1.6065482978127439,3.473050052425983,,,,,,,,,,,,
21223,0,USKentuckyTrimble,Kentucky,Trimble,2022-04-28 09:13:11,2020-11-06,0.7970413488188915,1.6065482978127439,3.473050052425983,,,,,,,,,,,,
21223,0,USKentuckyTrimble,Kentucky,Trimble,2022-04-28 09:13:11,2020-11-07,0.7970413488188915,1.6065482978127439,3.473050052425983,,,,,,,,,,,,
21223,0,USKentuckyTrimble,Kentucky,Trimble,2022-04-28 09:13:11,2020-11-08,0.7970413488188915,1.6065482978127439,3.473050052425983,,,,,,,,,,,,
21223,0,USKentuckyTrimble,Kentucky,Trimble,2022-04-28 09:13:11,2020-11-09,0.7970413488188915,1.6065482978127439,3.473050052425983,,,,,,,,,,,,
21223,0,USKentuckyTrimble,Kentucky,Trimble,2022-04-28 09:13:11,2020-11-10,0.7970413488188915,1.6065482978127439,3.473050052425983,,,,,,,,,,,,
21223,0,USKentuckyTrimble,Kentucky,Trimble,2022-04-28 09:13:11,2020-11-11,0.7970413488188915,1.6065482978127439,3.473050052425983,,,,,,,,,,,,
21223,0,USKentuckyTrimble,Kentucky,Trimble,2022-04-28 09:13:11,2020-11-12,0.6379821656594256,1.286580450110362,2.7827724500774424,,,,,,,,,,,,
21223,0,USKentuckyTrimble,Kentucky,Trimble,2022-04-28 09:13:11,2020-11-13,0.6379821656594256,1.286580450110362,2.7827724500774424,,,,,,,,,,,,
21223,0,USKentuckyTrimble,Kentucky,Trimble,2022-04-28 09:13:11,2020-11-14,0.6379821656594256,1.286580450110362,2.7827724500774424,,,,,,,,,,,,
21223,0,USKentuckyTrimble,Kentucky,Trimble,2022-04-28 09:13:11,2020-11-15,0.6379821656594256,1.286580450110362,2.7827724500774424,,,,,,,,,,,,
21223,0,USKentuckyTrimble,Kentucky,Trimble,2022-04-28 09:13:11,2020-11-16,0.6379821656594256,1.286580450110362,2.7827724500774424,,,,,,,,,,,,
21223,0,USKentuckyTrimble,Kentucky,Trimble,2022-04-28 09:13:11,2020-11-17,0.6379821656594256,1.286580450110362,2.7827724500774424,,,,,,,,,,,,
21223,0,USKentuckyTrimble,Kentucky,Trimble,2022-04-28 09:13:11,2020-11-18,0.6379821656594256,1.286580450110362,2.7827724500774424,,,,,,,,,,,,
21223,0,USKentuckyTrimble,Kentucky,Trimble,2022-04-28 09:13:11,2020-11-19,1.1433158780000434,2.086240208281698,4.063013492229074,,,,,,,,,,,,
21223,0,USKentuckyTrimble,Kentucky,Trimble,2022-04-28 09:13:11,2020-11-20,1.1433158780000434,2.086240208281698,4.063013492229074,,,,,,,,,,,,
21223,0,USKentuckyTrimble,Kentucky,Trimble,2022-04-28 09:13:11,2020-11-21,1.1433158780000434,2.086240208281698,4.063013492229074,,,,,,,,,,,,
21223,0,USKentuckyTrimble,Kentucky,Trimble,2022-04-28 09:13:11,2020-11-22,1.1433158780000434,2.086240208281698,4.063013492229074,,,,,,,,,,,,
21223,0,USKentuckyTrimble,Kentucky,Trimble,2022-04-28 09:13:11,2020-11-23,1.1433158780000434,2.086240208281698,4.063013492229074,,,,,,,,,,,,
21223,0,USKentuckyTrimble,Kentucky,Trimble,2022-04-28 09:13:11,2020-11-24,1.1433158780000434,2.086240208281698,4.063013492229074,,,,,,,,,,,,
21223,0,USKentuckyTrimble,Kentucky,Trimble,2022-04-28 09:13:11,2020-11-25,1.1433158780000434,2.086240208281698,4.063013492229074,,,,,,,,,,,,
21223,0,USKentuckyTrimble,Kentucky,Trimble,2022-04-28 09:13:11,2020-11-26,1.5122609779261373,2.7393156951231767,5.293528811655098,,,,,,,,,,,,
21223,0,USKentuckyTrimble,Kentucky,Trimble,2022-04-28 09:13:11,2020-11-27,1.5122609779261373,2.7393156951231767,5.293528811655098,,,,,,,,,,,,
21223,0,USKentuckyTrimble,Kentucky,Trimble,2022-04-28 09:13:11,2020-11-28,1.5122609779261373,2.7393156951231767,5.293528811655098,,,,,,,,,,,,
21223,0,USKentuckyTrimble,Kentucky,Trimble,2022-04-28 09:13:11,2020-11-29,1.5122609779261373,2.7393156951231767,5.293528811655098,,,,,,,,,,,,
21223,0,USKentuckyTrimble,Kentucky,Trimble,2022-04-28 09:13:11,2020-11-30,1.5122609779261373,2.7393156951231767,5.293528811655098,,,,,,,,,,,,
21223,0,USKentuckyTrimble,Kentucky,Trimble,2022-04-28 09:13:11,2020-12-01,1.5122609779261373,2.7393156951231767,5.293528811655098,,,,,,,,,,,,
21223,0,USKentuckyTrimble,Kentucky,Trimble,2022-04-28 09:13:11,2020-12-02,1.5122609779261373,2.7393156951231767,5.293528811655098,,,,,,,,,,,,
21223,0,USKentuckyTrimble,Kentucky,Trimble,2022-04-28 09:13:11,2020-12-03,1.849555355321749,3.0732791011277585,5.412923477908332,,,,,,,,,,,,
21223,0,USKentuckyTrimble,Kentucky,Trimble,2022-04-28 09:13:11,2020-12-04,1.849555355321749,3.0732791011277585,5.412923477908332,,,,,,,,,,,,
21223,0,USKentuckyTrimble,Kentucky,Trimble,2022-04-28 09:13:11,2020-12-05,1.849555355321749,3.0732791011277585,5.412923477908332,,,,,,,,,,,,
21223,0,USKentuckyTrimble,Kentucky,Trimble,2022-04-28 09:13:11,2020-12-06,1.849555355321749,3.0732791011277585,5.412923477908332,,,,,,,,,,,,
21223,0,USKentuckyTrimble,Kentucky,Trimble,2022-04-28 09:13:11,2020-12-07,1.849555355321749,3.0732791011277585,5.412923477908332,,,,,,,,,,,,
21223,0,USKentuckyTrimble,Kentucky,Trimble,2022-04-28 09:13:11,2020-12-08,1.849555355321749,3.0732791011277585,5.412923477908332,,,,,,,,,,,,
21223,0,USKentuckyTrimble,Kentucky,Trimble,2022-04-28 09:13:11,2020-12-09,1.849555355321749,3.0732791011277585,5.412923477908332,,,,,,,,,,,,
21223,0,USKentuckyTrimble,Kentucky,Trimble,2022-04-28 09:13:11,2020-12-10,3.660909209114955,5.297670189916295,8.0093727031295,,,,,,,,,,,,
21223,0,USKentuckyTrimble,Kentucky,Trimble,2022-04-28 09:13:11,2020-12-11,3.660909209114955,5.297670189916295,8.0093727031295,,,,,,,,,,,,
21223,0,USKentuckyTrimble,Kentucky,Trimble,2022-04-28 09:13:11,2020-12-12,3.660909209114955,5.297670189916295,8.0093727031295,,,,,,,,,,,,
21223,0,USKentuckyTrimble,Kentucky,Trimble,2022-04-28 09:13:11,2020-12-13,3.660909209114955,5.297670189916295,8.0093727031295,,,,,,,,,,,,
21223,0,USKentuckyTrimble,Kentucky,Trimble,2022-04-28 09:13:11,2020-12-14,3.660909209114955,5.297670189916295,8.0093727031295,,,,,,,,,,,,
21223,0,USKentuckyTrimble,Kentucky,Trimble,2022-04-28 09:13:11,2020-12-15,3.660909209114955,5.297670189916295,8.0093727031295,,,,,,,,,,,,
21223,0,USKentuckyTrimble,Kentucky,Trimble,2022-04-28 09:13:11,2020-12-16,3.660909209114955,5.297670189916295,8.0093727031295,,,,,,,,,,,,
21223,0,USKentuckyTrimble,Kentucky,Trimble,2022-04-28 09:13:11,2020-12-17,1.2748838339408426,2.4754873568103544,5.147318386071437,,,,,,,,,,,,
21223,0,USKentuckyTrimble,Kentucky,Trimble,2022-04-28 09:13:11,2020-12-18,1.2748838339408426,2.4754873568103544,5.147318386071437,,,,,,,,,,,,
21223,0,USKentuckyTrimble,Kentucky,Trimble,2022-04-28 09:13:11,2020-12-19,1.2748838339408426,2.4754873568103544,5.147318386071437,,,,,,,,,,,,
21223,0,USKentuckyTrimble,Kentucky,Trimble,2022-04-28 09:13:11,2020-12-20,1.2748838339408426,2.4754873568103544,5.147318386071437,,,,,,,,,,,,
21223,0,USKentuckyTrimble,Kentucky,Trimble,2022-04-28 09:13:11,2020-12-21,1.2748838339408426,2.4754873568103544,5.147318386071437,,,,,,,,,,,,
21223,0,USKentuckyTrimble,Kentucky,Trimble,2022-04-28 09:13:11,2020-12-22,1.2748838339408426,2.4754873568103544,5.147318386071437,,,,,,,,,,,,
21223,0,USKentuckyTrimble,Kentucky,Trimble,2022-04-28 09:13:11,2020-12-23,1.2748838339408426,2.4754873568103544,5.147318386071437,,,,,,,,,,,,
21223,0,USKentuckyTrimble,Kentucky,Trimble,2022-04-28 09:13:11,2020-12-24,0.9640000183372138,2.0606170351456243,4.732688959300706,,,,,,,,,,,,
21223,0,USKentuckyTrimble,Kentucky,Trimble,2022-04-28 09:13:11,2020-12-25,0.9640000183372138,2.0606170351456243,4.732688959300706,,,,,,,,,,,,
21223,0,USKentuckyTrimble,Kentucky,Trimble,2022-04-28 09:13:11,2020-12-26,0.9640000183372138,2.0606170351456243,4.732688959300706,,,,,,,,,,,,
21223,0,USKentuckyTrimble,Kentucky,Trimble,2022-04-28 09:13:11,2020-12-27,0.9640000183372138,2.0606170351456243,4.732688959300706,,,,,,,,,,,,
21223,0,USKentuckyTrimble,Kentucky,Trimble,2022-04-28 09:13:11,2020-12-28,0.9640000183372138,2.0606170351456243,4.732688959300706,,,,,,,,,,,,
21223,0,USKentuckyTrimble,Kentucky,Trimble,2022-04-28 09:13:11,2020-12-29,0.9640000183372138,2.0606170351456243,4.732688959300706,,,,,,,,,,,,
21223,0,USKentuckyTrimble,Kentucky,Trimble,2022-04-28 09:13:11,2020-12-30,0.9640000183372138,2.0606170351456243,4.732688959300706,,,,,,,,,,,,
21223,0,USKentuckyTrimble,Kentucky,Trimble,2022-04-28 09:13:11,2020-12-31,1.7661702535211394,3.3967603273710187,6.992488655404632,,,,,,,,,,,,
21223,0,USKentuckyTrimble,Kentucky,Trimble,2022-04-28 09:13:11,2021-01-01,1.7661702535211394,3.3967603273710187,6.992488655404632,,,,,,,,,,,,
21223,0,USKentuckyTrimble,Kentucky,Trimble,2022-04-28 09:13:11,2021-01-02,1.7661702535211394,3.3967603273710187,6.992488655404632,,,,,,,,,,,,
21223,0,USKentuckyTrimble,Kentucky,Trimble,2022-04-28 09:13:11,2021-01-03,1.7661702535211394,3.3967603273710187,6.992488655404632,,,,,,,,,,,,
21223,0,USKentuckyTrimble,Kentucky,Trimble,2022-04-28 09:13:11,2021-01-04,1.7661702535211394,3.3967603273710187,6.992488655404632,,,,,,,,,,,,
21223,0,USKentuckyTrimble,Kentucky,Trimble,2022-04-28 09:13:11,2021-01-05,1.7661702535211394,3.3967603273710187,6.992488655404632,,,,,,,,,,,,
21223,0,USKentuckyTrimble,Kentucky,Trimble,2022-04-28 09:13:11,2021-01-06,1.7661702535211394,3.3967603273710187,6.992488655404632,,,,,,,,,,,,
21223,0,USKentuckyTrimble,Kentucky,Trimble,2022-04-28 09:13:11,2021-01-07,2.16298288867038,3.9792830999899014,7.817295488018894,,,,,,,,,,,,
21223,0,USKentuckyTrimble,Kentucky,Trimble,2022-04-28 09:13:11,2021-01-08,2.16298288867038,3.9792830999899014,7.817295488018894,,,,,,,,,,,,
21223,0,USKentuckyTrimble,Kentucky,Trimble,2022-04-28 09:13:11,2021-01-09,2.16298288867038,3.9792830999899014,7.817295488018894,,,,,,,,,,,,
21223,0,USKentuckyTrimble,Kentucky,Trimble,2022-04-28 09:13:11,2021-01-10,2.16298288867038,3.9792830999899014,7.817295488018894,,,,,,,,,,,,
21223,0,USKentuckyTrimble,Kentucky,Trimble,2022-04-28 09:13:11,2021-01-11,2.16298288867038,3.9792830999899014,7.817295488018894,,,,,,,,,,,,
21223,0,USKentuckyTrimble,Kentucky,Trimble,2022-04-28 09:13:11,2021-01-12,2.16298288867038,3.9792830999899014,7.817295488018894,,,,,,,,,,,,
21223,0,USKentuckyTrimble,Kentucky,Trimble,2022-04-28 09:13:11,2021-01-13,2.16298288867038,3.9792830999899014,7.817295488018894,,,,,,,,,,,,
21223,0,USKentuckyTrimble,Kentucky,Trimble,2022-04-28 09:13:11,2021-01-14,1.7867550444011295,3.5655042939679085,7.628057230325854,,,,,,,,,,,,
21223,0,USKentuckyTrimble,Kentucky,Trimble,2022-04-28 09:13:11,2021-01-15,1.7867550444011295,3.5655042939679085,7.628057230325854,,,,,,,,,,,,
21223,0,USKentuckyTrimble,Kentucky,Trimble,2022-04-28 09:13:11,2021-01-16,1.7867550444011295,3.5655042939679085,7.628057230325854,,,,,,,,,,,,
21223,0,USKentuckyTrimble,Kentucky,Trimble,2022-04-28 09:13:11,2021-01-17,1.7867550444011295,3.5655042939679085,7.628057230325854,,,,,,,,,,,,
21223,0,USKentuckyTrimble,Kentucky,Trimble,2022-04-28 09:13:11,2021-01-18,1.7867550444011295,3.5655042939679085,7.628057230325854,,,,,,,,,,,,
21223,0,USKentuckyTrimble,Kentucky,Trimble,2022-04-28 09:13:11,2021-01-19,1.7867550444011295,3.5655042939679085,7.628057230325854,,,,,,,,,,,,
21223,0,USKentuckyTrimble,Kentucky,Trimble,2022-04-28 09:13:11,2021-01-20,1.7867550444011295,3.5655042939679085,7.628057230325854,,,,,,,,,,,,
21223,0,USKentuckyTrimble,Kentucky,Trimble,2022-04-28 09:13:11,2021-01-21,1.4995308754636176,2.94867801951269,6.212595397674382,,,,,,,,,,,,
21223,0,USKentuckyTrimble,Kentucky,Trimble,2022-04-28 09:13:11,2021-01-22,1.4995308754636176,2.94867801951269,6.212595397674382,,,,,,,,,,,,
21223,0,USKentuckyTrimble,Kentucky,Trimble,2022-04-28 09:13:11,2021-01-23,1.4995308754636176,2.94867801951269,6.212595397674382,,,,,,,,,,,,
21223,0,USKentuckyTrimble,Kentucky,Trimble,2022-04-28 09:13:11,2021-01-24,1.4995308754636176,2.94867801951269,6.212595397674382,,,,,,,,,,,,
21223,0,USKentuckyTrimble,Kentucky,Trimble,2022-04-28 09:13:11,2021-01-25,1.4995308754636176,2.94867801951269,6.212595397674382,,,,,,,,,,,,
21223,0,USKentuckyTrimble,Kentucky,Trimble,2022-04-28 09:13:11,2021-01-26,1.4995308754636176,2.94867801951269,6.212595397674382,,,,,,,,,,,,
21223,0,USKentuckyTrimble,Kentucky,Trimble,2022-04-28 09:13:11,2021-01-27,1.4995308754636176,2.94867801951269,6.212595397674382,,,,,,,,,,,,
21223,0,USKentuckyTrimble,Kentucky,Trimble,2022-04-28 09:13:11,2021-01-28,1.1903663905515405,2.439044228568618,5.363094077742436,,,,,,,,,,,,
21223,0,USKentuckyTrimble,Kentucky,Trimble,2022-04-28 09:13:11,2021-01-29,1.1903663905515405,2.439044228568618,5.363094077742436,,,,,,,,,,,,
21223,0,USKentuckyTrimble,Kentucky,Trimble,2022-04-28 09:13:11,2021-01-30,1.1903663905515405,2.439044228568618,5.363094077742436,,,,,,,,,,,,
21223,0,USKentuckyTrimble,Kentucky,Trimble,2022-04-28 09:13:11,2021-01-31,1.1903663905515405,2.439044228568618,5.363094077742436,,,,,,,,,,,,
21223,0,USKentuckyTrimble,Kentucky,Trimble,2022-04-28 09:13:11,2021-02-01,1.1903663905515405,2.439044228568618,5.363094077742436,,,,,,,,,,,,
21223,0,USKentuckyTrimble,Kentucky,Trimble,2022-04-28 09:13:11,2021-02-02,1.1903663905515405,2.439044228568618,5.363094077742436,,,,,,,,,,,,
21223,0,USKentuckyTrimble,Kentucky,Trimble,2022-04-28 09:13:11,2021-02-03,1.1903663905515405,2.439044228568618,5.363094077742436,,,,,,,,,,,,
21223,0,USKentuckyTrimble,Kentucky,Trimble,2022-04-28 09:13:11,2021-02-04,1.4920639388329584,2.831904269671783,5.749343032945407,,,,,,,,,,,,
21223,0,USKentuckyTrimble,Kentucky,Trimble,2022-04-28 09:13:11,2021-02-05,1.4920639388329584,2.831904269671783,5.749343032945407,,,,,,,,,,,,
21223,0,USKentuckyTrimble,Kentucky,Trimble,2022-04-28 09:13:11,2021-02-06,1.4920639388329584,2.831904269671783,5.749343032945407,,,,,,,,,,,,
21223,0,USKentuckyTrimble,Kentucky,Trimble,2022-04-28 09:13:11,2021-02-07,1.4920639388329584,2.831904269671783,5.749343032945407,,,,,,,,,,,,
21223,0,USKentuckyTrimble,Kentucky,Trimble,2022-04-28 09:13:11,2021-02-08,1.4920639388329584,2.831904269671783,5.749343032945407,,,,,,,,,,,,
21223,0,USKentuckyTrimble,Kentucky,Trimble,2022-04-28 09:13:11,2021-02-09,1.4920639388329584,2.831904269671783,5.749343032945407,,,,,,,,,,,,
21223,0,USKentuckyTrimble,Kentucky,Trimble,2022-04-28 09:13:11,2021-02-10,1.4920639388329584,2.831904269671783,5.749343032945407,,,,,,,,,,,,
21223,0,USKentuckyTrimble,Kentucky,Trimble,2022-04-28 09:13:11,2021-02-11,0.9848952653397055,1.94107673598034,4.099312200759414,,,,,,,,,,,,
21223,0,USKentuckyTrimble,Kentucky,Trimble,2022-04-28 09:13:11,2021-02-12,0.9848952653397055,1.94107673598034,4.099312200759414,,,,,,,,,,,,
21223,0,USKentuckyTrimble,Kentucky,Trimble,2022-04-28 09:13:11,2021-02-13,0.9848952653397055,1.94107673598034,4.099312200759414,,,,,,,,,,,,
21223,0,USKentuckyTrimble,Kentucky,Trimble,2022-04-28 09:13:11,2021-02-14,0.9848952653397055,1.94107673598034,4.099312200759414,,,,,,,,,,,,
21223,0,USKentuckyTrimble,Kentucky,Trimble,2022-04-28 09:13:11,2021-02-15,0.9848952653397055,1.94107673598034,4.099312200759414,,,,,,,,,,,,
21223,0,USKentuckyTrimble,Kentucky,Trimble,2022-04-28 09:13:11,2021-02-16,0.9848952653397055,1.94107673598034,4.099312200759414,,,,,,,,,,,,
21223,0,USKentuckyTrimble,Kentucky,Trimble,2022-04-28 09:13:11,2021-02-17,0.9848952653397055,1.94107673598034,4.099312200759414,,,,,,,,,,,,
21223,0,USKentuckyTrimble,Kentucky,Trimble,2022-04-28 09:13:11,2021-02-18,0.5694022082594957,1.2216608510116824,2.816511901171328,,,,,,,,,,,,
21223,0,USKentuckyTrimble,Kentucky,Trimble,2022-04-28 09:13:11,2021-02-19,0.5694022082594957,1.2216608510116824,2.816511901171328,,,,,,,,,,,,
21223,0,USKentuckyTrimble,Kentucky,Trimble,2022-04-28 09:13:11,2021-02-20,0.5694022082594957,1.2216608510116824,2.816511901171328,,,,,,,,,,,,
21223,0,USKentuckyTrimble,Kentucky,Trimble,2022-04-28 09:13:11,2021-02-21,0.5694022082594957,1.2216608510116824,2.816511901171328,,,,,,,,,,,,
21223,0,USKentuckyTrimble,Kentucky,Trimble,2022-04-28 09:13:11,2021-02-22,0.5694022082594957,1.2216608510116824,2.816511901171328,,,,,,,,,,,,
21223,0,USKentuckyTrimble,Kentucky,Trimble,2022-04-28 09:13:11,2021-02-23,0.5694022082594957,1.2216608510116824,2.816511901171328,,,,,,,,,,,,
21223,0,USKentuckyTrimble,Kentucky,Trimble,2022-04-28 09:13:11,2021-02-24,0.5694022082594957,1.2216608510116824,2.816511901171328,,,,,,,,,,,,
21223,0,USKentuckyTrimble,Kentucky,Trimble,2022-04-28 09:13:11,2021-02-25,0.7932592888206622,1.5012592101430922,3.0386450072733187,,,,,,,,,,,,
21223,0,USKentuckyTrimble,Kentucky,Trimble,2022-04-28 09:13:11,2021-02-26,0.7932592888206622,1.5012592101430922,3.0386450072733187,,,,,,,,,,,,
21223,0,USKentuckyTrimble,Kentucky,Trimble,2022-04-28 09:13:11,2021-02-27,0.7932592888206622,1.5012592101430922,3.0386450072733187,,,,,,,,,,,,
21223,0,USKentuckyTrimble,Kentucky,Trimble,2022-04-28 09:13:11,2021-02-28,0.7932592888206622,1.5012592101430922,3.0386450072733187,,,,,,,,,,,,
21223,0,USKentuckyTrimble,Kentucky,Trimble,2022-04-28 09:13:11,2021-03-01,0.7932592888206622,1.5012592101430922,3.0386450072733187,,,,,,,,,,,,
21223,0,USKentuckyTrimble,Kentucky,Trimble,2022-04-28 09:13:11,2021-03-02,0.7932592888206622,1.5012592101430922,3.0386450072733187,,,,,,,,,,,,
21223,0,USKentuckyTrimble,Kentucky,Trimble,2022-04-28 09:13:11,2021-03-03,0.7932592888206622,1.5012592101430922,3.0386450072733187,,,,,,,,,,,,
21223,0,USKentuckyTrimble,Kentucky,Trimble,2022-04-28 09:13:11,2021-03-04,0.4374438659352867,1.0199424496612903,2.5587431727414818,,,,,,,,,,,,
21223,0,USKentuckyTrimble,Kentucky,Trimble,2022-04-28 09:13:11,2021-03-05,0.4374438659352867,1.0199424496612903,2.5587431727414818,,,,,,,,,,,,
21223,0,USKentuckyTrimble,Kentucky,Trimble,2022-04-28 09:13:11,2021-03-06,0.4374438659352867,1.0199424496612903,2.5587431727414818,,,,,,,,,,,,
21223,0,USKentuckyTrimble,Kentucky,Trimble,2022-04-28 09:13:11,2021-03-07,0.4374438659352867,1.0199424496612903,2.5587431727414818,,,,,,,,,,,,
21223,0,USKentuckyTrimble,Kentucky,Trimble,2022-04-28 09:13:11,2021-03-08,0.4374438659352867,1.0199424496612903,2.5587431727414818,,,,,,,,,,,,
21223,0,USKentuckyTrimble,Kentucky,Trimble,2022-04-28 09:13:11,2021-03-09,0.4374438659352867,1.0199424496612903,2.5587431727414818,,,,,,,,,,,,
21223,0,USKentuckyTrimble,Kentucky,Trimble,2022-04-28 09:13:11,2021-03-10,0.4374438659352867,1.0199424496612903,2.5587431727414818,,,,,,,,,,,,
21223,0,USKentuckyTrimble,Kentucky,Trimble,2022-04-28 09:13:11,2021-03-11,0.7090183575928461,1.3680917598125393,2.826022829933173,,,,,,,,,,,,
21223,0,USKentuckyTrimble,Kentucky,Trimble,2022-04-28 09:13:11,2021-03-12,0.7090183575928461,1.3680917598125393,2.826022829933173,,,,,,,,,,,,
21223,0,USKentuckyTrimble,Kentucky,Trimble,2022-04-28 09:13:11,2021-03-13,0.7090183575928461,1.3680917598125393,2.826022829933173,,,,,,,,,,,,
21223,0,USKentuckyTrimble,Kentucky,Trimble,2022-04-28 09:13:11,2021-03-14,0.7090183575928461,1.3680917598125393,2.826022829933173,,,,,,,,,,,,
21223,0,USKentuckyTrimble,Kentucky,Trimble,2022-04-28 09:13:11,2021-03-15,0.7090183575928461,1.3680917598125393,2.826022829933173,,,,,,,,,,,,
21223,0,USKentuckyTrimble,Kentucky,Trimble,2022-04-28 09:13:11,2021-03-16,0.7090183575928461,1.3680917598125393,2.826022829933173,,,,,,,,,,,,
21223,0,USKentuckyTrimble,Kentucky,Trimble,2022-04-28 09:13:11,2021-03-17,0.7090183575928461,1.3680917598125393,2.826022829933173,,,,,,,,,,,,
21223,0,USKentuckyTrimble,Kentucky,Trimble,2022-04-28 09:13:11,2021-03-18,0.6848486350184608,1.2803092684039106,2.558194403489306,,,,,,,,,,,,
21223,0,USKentuckyTrimble,Kentucky,Trimble,2022-04-28 09:13:11,2021-03-19,0.6848486350184608,1.2803092684039106,2.558194403489306,,,,,,,,,,,,
21223,0,USKentuckyTrimble,Kentucky,Trimble,2022-04-28 09:13:11,2021-03-20,0.6848486350184608,1.2803092684039106,2.558194403489306,,,,,,,,,,,,
21223,0,USKentuckyTrimble,Kentucky,Trimble,2022-04-28 09:13:11,2021-03-21,0.6848486350184608,1.2803092684039106,2.558194403489306,,,,,,,,,,,,
21223,0,USKentuckyTrimble,Kentucky,Trimble,2022-04-28 09:13:11,2021-03-22,0.6848486350184608,1.2803092684039106,2.558194403489306,,,,,,,,,,,,
21223,0,USKentuckyTrimble,Kentucky,Trimble,2022-04-28 09:13:11,2021-03-23,0.6848486350184608,1.2803092684039106,2.558194403489306,,,,,,,,,,,,
21223,0,USKentuckyTrimble,Kentucky,Trimble,2022-04-28 09:13:11,2021-03-24,0.6848486350184608,1.2803092684039106,2.558194403489306,,,,,,,,,,,,
21223,0,USKentuckyTrimble,Kentucky,Trimble,2022-04-28 09:13:11,2021-03-25,0.31363409546413645,0.6228428763273014,1.3258260156875024,,,,,,,,,,,,
21223,0,USKentuckyTrimble,Kentucky,Trimble,2022-04-28 09:13:11,2021-03-26,0.31363409546413645,0.6228428763273014,1.3258260156875024,,,,,,,,,,,,
21223,0,USKentuckyTrimble,Kentucky,Trimble,2022-04-28 09:13:11,2021-03-27,0.31363409546413645,0.6228428763273014,1.3258260156875024,,,,,,,,,,,,
21223,0,USKentuckyTrimble,Kentucky,Trimble,2022-04-28 09:13:11,2021-03-28,0.31363409546413645,0.6228428763273014,1.3258260156875024,,,,,,,,,,,,
21223,0,USKentuckyTrimble,Kentucky,Trimble,2022-04-28 09:13:11,2021-03-29,0.31363409546413645,0.6228428763273014,1.3258260156875024,,,,,,,,,,,,
21223,0,USKentuckyTrimble,Kentucky,Trimble,2022-04-28 09:13:11,2021-03-30,0.31363409546413645,0.6228428763273014,1.3258260156875024,,,,,,,,,,,,
21223,0,USKentuckyTrimble,Kentucky,Trimble,2022-04-28 09:13:11,2021-03-31,0.31363409546413645,0.6228428763273014,1.3258260156875024,,,,,,,,,,,,
21223,0,USKentuckyTrimble,Kentucky,Trimble,2022-04-28 09:13:11,2021-04-01,0.279681300914201,0.5002851993202876,0.9539068198893561,,,,,,,,,,,,
21223,0,USKentuckyTrimble,Kentucky,Trimble,2022-04-28 09:13:11,2021-04-02,0.279681300914201,0.5002851993202876,0.9539068198893561,,,,,,,,,,,,
21223,0,USKentuckyTrimble,Kentucky,Trimble,2022-04-28 09:13:11,2021-04-03,0.279681300914201,0.5002851993202876,0.9539068198893561,,,,,,,,,,,,
21223,0,USKentuckyTrimble,Kentucky,Trimble,2022-04-28 09:13:11,2021-04-04,0.279681300914201,0.5002851993202876,0.9539068198893561,,,,,,,,,,,,
21223,0,USKentuckyTrimble,Kentucky,Trimble,2022-04-28 09:13:11,2021-04-05,0.279681300914201,0.5002851993202876,0.9539068198893561,,,,,,,,,,,,
21223,0,USKentuckyTrimble,Kentucky,Trimble,2022-04-28 09:13:11,2021-04-06,0.279681300914201,0.5002851993202876,0.9539068198893561,,,,,,,,,,,,
21223,0,USKentuckyTrimble,Kentucky,Trimble,2022-04-28 09:13:11,2021-04-07,0.279681300914201,0.5002851993202876,0.9539068198893561,,,,,,,,,,,,
21223,0,USKentuckyTrimble,Kentucky,Trimble,2022-04-28 09:13:11,2021-04-08,0.40266875452431167,0.8718905138097934,2.029067740786776,,,,,,,,,,,,
21223,0,USKentuckyTrimble,Kentucky,Trimble,2022-04-28 09:13:11,2021-04-09,0.40266875452431167,0.8718905138097934,2.029067740786776,,,,,,,,,,,,
21223,0,USKentuckyTrimble,Kentucky,Trimble,2022-04-28 09:13:11,2021-04-10,0.40266875452431167,0.8718905138097934,2.029067740786776,,,,,,,,,,,,
21223,0,USKentuckyTrimble,Kentucky,Trimble,2022-04-28 09:13:11,2021-04-11,0.40266875452431167,0.8718905138097934,2.029067740786776,,,,,,,,,,,,
21223,0,USKentuckyTrimble,Kentucky,Trimble,2022-04-28 09:13:11,2021-04-12,0.40266875452431167,0.8718905138097934,2.029067740786776,,,,,,,,,,,,
21223,0,USKentuckyTrimble,Kentucky,Trimble,2022-04-28 09:13:11,2021-04-13,0.40266875452431167,0.8718905138097934,2.029067740786776,,,,,,,,,,,,
21223,0,USKentuckyTrimble,Kentucky,Trimble,2022-04-28 09:13:11,2021-04-14,0.40266875452431167,0.8718905138097934,2.029067740786776,,,,,,,,,,,,
21223,0,USKentuckyTrimble,Kentucky,Trimble,2022-04-28 09:13:11,2021-04-15,0.2538937674411777,0.49108801959270737,1.0169949658232595,,,,,,,,,,,,
21223,0,USKentuckyTrimble,Kentucky,Trimble,2022-04-28 09:13:11,2021-04-16,0.2538937674411777,0.49108801959270737,1.0169949658232595,,,,,,,,,,,,
21223,0,USKentuckyTrimble,Kentucky,Trimble,2022-04-28 09:13:11,2021-04-17,0.2538937674411777,0.49108801959270737,1.0169949658232595,,,,,,,,,,,,
21223,0,USKentuckyTrimble,Kentucky,Trimble,2022-04-28 09:13:11,2021-04-18,0.2538937674411777,0.49108801959270737,1.0169949658232595,,,,,,,,,,,,
21223,0,USKentuckyTrimble,Kentucky,Trimble,2022-04-28 09:13:11,2021-04-19,0.2538937674411777,0.49108801959270737,1.0169949658232595,,,,,,,,,,,,
21223,0,USKentuckyTrimble,Kentucky,Trimble,2022-04-28 09:13:11,2021-04-20,0.2538937674411777,0.49108801959270737,1.0169949658232595,,,,,,,,,,,,
21223,0,USKentuckyTrimble,Kentucky,Trimble,2022-04-28 09:13:11,2021-04-21,0.2538937674411777,0.49108801959270737,1.0169949658232595,,,,,,,,,,,,
21223,0,USKentuckyTrimble,Kentucky,Trimble,2022-04-28 09:13:11,2021-04-22,0.18982202606437484,0.4475007354387689,1.135200638485701,,,,,,,,,,,,
21223,0,USKentuckyTrimble,Kentucky,Trimble,2022-04-28 09:13:11,2021-04-23,0.18982202606437484,0.4475007354387689,1.135200638485701,,,,,,,,,,,,
21223,0,USKentuckyTrimble,Kentucky,Trimble,2022-04-28 09:13:11,2021-04-24,0.18982202606437484,0.4475007354387689,1.135200638485701,,,,,,,,,,,,
21223,0,USKentuckyTrimble,Kentucky,Trimble,2022-04-28 09:13:11,2021-04-25,0.18982202606437484,0.4475007354387689,1.135200638485701,,,,,,,,,,,,
21223,0,USKentuckyTrimble,Kentucky,Trimble,2022-04-28 09:13:11,2021-04-26,0.18982202606437484,0.4475007354387689,1.135200638485701,,,,,,,,,,,,
21223,0,USKentuckyTrimble,Kentucky,Trimble,2022-04-28 09:13:11,2021-04-27,0.18982202606437484,0.4475007354387689,1.135200638485701,,,,,,,,,,,,
21223,0,USKentuckyTrimble,Kentucky,Trimble,2022-04-28 09:13:11,2021-04-28,0.18982202606437484,0.4475007354387689,1.135200638485701,,,,,,,,,,,,
21223,0,USKentuckyTrimble,Kentucky,Trimble,2022-04-28 09:13:11,2021-04-29,0.553333038963693,0.6491081744935087,0.772761141178438,,,,,,,,,,,,
21223,0,USKentuckyTrimble,Kentucky,Trimble,2022-04-28 09:13:11,2021-04-30,0.553333038963693,0.6491081744935087,0.772761141178438,,,,,,,,,,,,
21223,0,USKentuckyTrimble,Kentucky,Trimble,2022-04-28 09:13:11,2021-05-01,0.553333038963693,0.6491081744935087,0.772761141178438,,,,,,,,,,,,
21223,0,USKentuckyTrimble,Kentucky,Trimble,2022-04-28 09:13:11,2021-05-02,0.553333038963693,0.6491081744935087,0.772761141178438,,,,,,,,,,,,
21223,0,USKentuckyTrimble,Kentucky,Trimble,2022-04-28 09:13:11,2021-05-03,0.553333038963693,0.6491081744935087,0.772761141178438,,,,,,,,,,,,
21223,0,USKentuckyTrimble,Kentucky,Trimble,2022-04-28 09:13:11,2021-05-04,0.553333038963693,0.6491081744935087,0.772761141178438,,,,,,,,,,,,
21223,0,USKentuckyTrimble,Kentucky,Trimble,2022-04-28 09:13:11,2021-05-05,0.553333038963693,0.6491081744935087,0.772761141178438,,,,,,,,,,,,
21223,0,USKentuckyTrimble,Kentucky,Trimble,2022-04-28 09:13:11,2021-05-06,0.15125633934563498,0.4168133706876076,1.2348383931906757,,,,,,,,,,,,
21223,0,USKentuckyTrimble,Kentucky,Trimble,2022-04-28 09:13:11,2021-05-07,0.15125633934563498,0.4168133706876076,1.2348383931906757,,,,,,,,,,,,
21223,0,USKentuckyTrimble,Kentucky,Trimble,2022-04-28 09:13:11,2021-05-08,0.15125633934563498,0.4168133706876076,1.2348383931906757,,,,,,,,,,,,
21223,0,USKentuckyTrimble,Kentucky,Trimble,2022-04-28 09:13:11,2021-05-09,0.15125633934563498,0.4168133706876076,1.2348383931906757,,,,,,,,,,,,
21223,0,USKentuckyTrimble,Kentucky,Trimble,2022-04-28 09:13:11,2021-05-10,0.15125633934563498,0.4168133706876076,1.2348383931906757,,,,,,,,,,,,
21223,0,USKentuckyTrimble,Kentucky,Trimble,2022-04-28 09:13:11,2021-05-11,0.15125633934563498,0.4168133706876076,1.2348383931906757,,,,,,,,,,,,
21223,0,USKentuckyTrimble,Kentucky,Trimble,2022-04-28 09:13:11,2021-05-12,0.15125633934563498,0.4168133706876076,1.2348383931906757,,,,,,,,,,,,
21223,0,USKentuckyTrimble,Kentucky,Trimble,2022-04-28 09:13:11,2021-05-13,0.09034993683894013,0.2896613027323139,0.9947342481588869,,,,,,,,,,,,
21223,0,USKentuckyTrimble,Kentucky,Trimble,2022-04-28 09:13:11,2021-05-14,0.09034993683894013,0.2896613027323139,0.9947342481588869,,,,,,,,,,,,
21223,0,USKentuckyTrimble,Kentucky,Trimble,2022-04-28 09:13:11,2021-05-15,0.09034993683894013,0.2896613027323139,0.9947342481588869,,,,,,,,,,,,
21223,0,USKentuckyTrimble,Kentucky,Trimble,2022-04-28 09:13:11,2021-05-16,0.09034993683894013,0.2896613027323139,0.9947342481588869,,,,,,,,,,,,
21223,0,USKentuckyTrimble,Kentucky,Trimble,2022-04-28 09:13:11,2021-05-17,0.09034993683894013,0.2896613027323139,0.9947342481588869,,,,,,,,,,,,
21223,0,USKentuckyTrimble,Kentucky,Trimble,2022-04-28 09:13:11,2021-05-18,0.09034993683894013,0.2896613027323139,0.9947342481588869,,,,,,,,,,,,
21223,0,USKentuckyTrimble,Kentucky,Trimble,2022-04-28 09:13:11,2021-05-19,0.09034993683894013,0.2896613027323139,0.9947342481588869,,,,,,,,,,,,
21223,0,USKentuckyTrimble,Kentucky,Trimble,2022-04-28 09:13:11,2021-05-20,0,0,0,,,,,,,,,,,,
21223,0,USKentuckyTrimble,Kentucky,Trimble,2022-04-28 09:13:11,2021-05-21,0,0,0,,,,,,,,,,,,
21223,0,USKentuckyTrimble,Kentucky,Trimble,2022-04-28 09:13:11,2021-05-22,0,0,0,,,,,,,,,,,,
21223,0,USKentuckyTrimble,Kentucky,Trimble,2022-04-28 09:13:11,2021-05-23,0,0,0,,,,,,,,,,,,
21223,0,USKentuckyTrimble,Kentucky,Trimble,2022-04-28 09:13:11,2021-05-24,0,0,0,,,,,,,,,,,,
21223,0,USKentuckyTrimble,Kentucky,Trimble,2022-04-28 09:13:11,2021-05-25,0,0,0,,,,,,,,,,,,
21223,0,USKentuckyTrimble,Kentucky,Trimble,2022-04-28 09:13:11,2021-05-26,0,0,0,,,,,,,,,,,,
21223,0,USKentuckyTrimble,Kentucky,Trimble,2022-04-28 09:13:11,2021-05-27,0.14981741804276882,0.4094537141091484,1.2032185719812472,,,,,,,,,,,,
21223,0,USKentuckyTrimble,Kentucky,Trimble,2022-04-28 09:13:11,2021-05-28,0.14981741804276882,0.4094537141091484,1.2032185719812472,,,,,,,,,,,,
21223,0,USKentuckyTrimble,Kentucky,Trimble,2022-04-28 09:13:11,2021-05-29,0.14981741804276882,0.4094537141091484,1.2032185719812472,,,,,,,,,,,,
21223,0,USKentuckyTrimble,Kentucky,Trimble,2022-04-28 09:13:11,2021-05-30,0.14981741804276882,0.4094537141091484,1.2032185719812472,,,,,,,,,,,,
21223,0,USKentuckyTrimble,Kentucky,Trimble,2022-04-28 09:13:11,2021-05-31,0.14981741804276882,0.4094537141091484,1.2032185719812472,,,,,,,,,,,,
21223,0,USKentuckyTrimble,Kentucky,Trimble,2022-04-28 09:13:11,2021-06-01,0.14981741804276882,0.4094537141091484,1.2032185719812472,,,,,,,,,,,,
21223,0,USKentuckyTrimble,Kentucky,Trimble,2022-04-28 09:13:11,2021-06-02,0.14981741804276882,0.4094537141091484,1.2032185719812472,,,,,,,,,,,,
21223,0,USKentuckyTrimble,Kentucky,Trimble,2022-04-28 09:13:11,2021-06-03,0.19956329722083496,0.491735287833346,1.3039519270768243,,,,,,,,,,,,
21223,0,USKentuckyTrimble,Kentucky,Trimble,2022-04-28 09:13:11,2021-06-04,0.19956329722083496,0.491735287833346,1.3039519270768243,,,,,,,,,,,,
21223,0,USKentuckyTrimble,Kentucky,Trimble,2022-04-28 09:13:11,2021-06-05,0.19956329722083496,0.491735287833346,1.3039519270768243,,,,,,,,,,,,
21223,0,USKentuckyTrimble,Kentucky,Trimble,2022-04-28 09:13:11,2021-06-06,0.19956329722083496,0.491735287833346,1.3039519270768243,,,,,,,,,,,,
21223,0,USKentuckyTrimble,Kentucky,Trimble,2022-04-28 09:13:11,2021-06-07,0.19956329722083496,0.491735287833346,1.3039519270768243,,,,,,,,,,,,
21223,0,USKentuckyTrimble,Kentucky,Trimble,2022-04-28 09:13:11,2021-06-08,0.19956329722083496,0.491735287833346,1.3039519270768243,,,,,,,,,,,,
21223,0,USKentuckyTrimble,Kentucky,Trimble,2022-04-28 09:13:11,2021-06-09,0.19956329722083496,0.491735287833346,1.3039519270768243,,,,,,,,,,,,
21223,0,USKentuckyTrimble,Kentucky,Trimble,2022-04-28 09:13:11,2021-06-10,0.13683043010801252,0.3455769616670358,0.9391930817965882,,,,,,,,,,,,
21223,0,USKentuckyTrimble,Kentucky,Trimble,2022-04-28 09:13:11,2021-06-11,0.13683043010801252,0.3455769616670358,0.9391930817965882,,,,,,,,,,,,
21223,0,USKentuckyTrimble,Kentucky,Trimble,2022-04-28 09:13:11,2021-06-12,0.13683043010801252,0.3455769616670358,0.9391930817965882,,,,,,,,,,,,
21223,0,USKentuckyTrimble,Kentucky,Trimble,2022-04-28 09:13:11,2021-06-13,0.13683043010801252,0.3455769616670358,0.9391930817965882,,,,,,,,,,,,
21223,0,USKentuckyTrimble,Kentucky,Trimble,2022-04-28 09:13:11,2021-06-14,0.13683043010801252,0.3455769616670358,0.9391930817965882,,,,,,,,,,,,
21223,0,USKentuckyTrimble,Kentucky,Trimble,2022-04-28 09:13:11,2021-06-15,0.13683043010801252,0.3455769616670358,0.9391930817965882,,,,,,,,,,,,
21223,0,USKentuckyTrimble,Kentucky,Trimble,2022-04-28 09:13:11,2021-06-16,0.13683043010801252,0.3455769616670358,0.9391930817965882,,,,,,,,,,,,
21223,0,USKentuckyTrimble,Kentucky,Trimble,2022-04-28 09:13:11,2021-06-17,0.17420485858446313,0.3804041134619957,0.892952235102842,,,,,,,,,,,,
21223,0,USKentuckyTrimble,Kentucky,Trimble,2022-04-28 09:13:11,2021-06-18,0.17420485858446313,0.3804041134619957,0.892952235102842,,,,,,,,,,,,
21223,0,USKentuckyTrimble,Kentucky,Trimble,2022-04-28 09:13:11,2021-06-19,0.17420485858446313,0.3804041134619957,0.892952235102842,,,,,,,,,,,,
21223,0,USKentuckyTrimble,Kentucky,Trimble,2022-04-28 09:13:11,2021-06-20,0.17420485858446313,0.3804041134619957,0.892952235102842,,,,,,,,,,,,
21223,0,USKentuckyTrimble,Kentucky,Trimble,2022-04-28 09:13:11,2021-06-21,0.17420485858446313,0.3804041134619957,0.892952235102842,,,,,,,,,,,,
21223,0,USKentuckyTrimble,Kentucky,Trimble,2022-04-28 09:13:11,2021-06-22,0.17420485858446313,0.3804041134619957,0.892952235102842,,,,,,,,,,,,
21223,0,USKentuckyTrimble,Kentucky,Trimble,2022-04-28 09:13:11,2021-06-23,0.17420485858446313,0.3804041134619957,0.892952235102842,,,,,,,,,,,,
21223,0,USKentuckyTrimble,Kentucky,Trimble,2022-04-28 09:13:11,2021-06-24,0.2143690382660878,0.43545066175852765,0.9489483431050015,,,,,,,,,,,,
21223,0,USKentuckyTrimble,Kentucky,Trimble,2022-04-28 09:13:11,2021-06-25,0.2143690382660878,0.43545066175852765,0.9489483431050015,,,,,,,,,,,,
21223,0,USKentuckyTrimble,Kentucky,Trimble,2022-04-28 09:13:11,2021-06-26,0.2143690382660878,0.43545066175852765,0.9489483431050015,,,,,,,,,,,,
21223,0,USKentuckyTrimble,Kentucky,Trimble,2022-04-28 09:13:11,2021-06-27,0.2143690382660878,0.43545066175852765,0.9489483431050015,,,,,,,,,,,,
21223,0,USKentuckyTrimble,Kentucky,Trimble,2022-04-28 09:13:11,2021-06-28,0.2143690382660878,0.43545066175852765,0.9489483431050015,,,,,,,,,,,,
21223,0,USKentuckyTrimble,Kentucky,Trimble,2022-04-28 09:13:11,2021-06-29,0.2143690382660878,0.43545066175852765,0.9489483431050015,,,,,,,,,,,,
21223,0,USKentuckyTrimble,Kentucky,Trimble,2022-04-28 09:13:11,2021-06-30,0.2143690382660878,0.43545066175852765,0.9489483431050015,,,,,,,,,,,,
21223,0,USKentuckyTrimble,Kentucky,Trimble,2022-04-28 09:13:11,2021-07-01,0.18331030789426592,0.41894542137265567,1.0300074965724748,,,,,,,,,,,,
21223,0,USKentuckyTrimble,Kentucky,Trimble,2022-04-28 09:13:11,2021-07-02,0.18331030789426592,0.41894542137265567,1.0300074965724748,,,,,,,,,,,,
21223,0,USKentuckyTrimble,Kentucky,Trimble,2022-04-28 09:13:11,2021-07-03,0.18331030789426592,0.41894542137265567,1.0300074965724748,,,,,,,,,,,,
21223,0,USKentuckyTrimble,Kentucky,Trimble,2022-04-28 09:13:11,2021-07-04,0.18331030789426592,0.41894542137265567,1.0300074965724748,,,,,,,,,,,,
21223,0,USKentuckyTrimble,Kentucky,Trimble,2022-04-28 09:13:11,2021-07-05,0.18331030789426592,0.41894542137265567,1.0300074965724748,,,,,,,,,,,,
21223,0,USKentuckyTrimble,Kentucky,Trimble,2022-04-28 09:13:11,2021-07-06,0.18331030789426592,0.41894542137265567,1.0300074965724748,,,,,,,,,,,,
21223,0,USKentuckyTrimble,Kentucky,Trimble,2022-04-28 09:13:11,2021-07-07,0.18331030789426592,0.41894542137265567,1.0300074965724748,,,,,,,,,,,,
21223,0,USKentuckyTrimble,Kentucky,Trimble,2022-04-28 09:13:11,2021-07-08,0.0920325788772324,0.299652681415485,1.044570528070293,,,,,,,,,,,,
21223,0,USKentuckyTrimble,Kentucky,Trimble,2022-04-28 09:13:11,2021-07-09,0.0920325788772324,0.299652681415485,1.044570528070293,,,,,,,,,,,,
21223,0,USKentuckyTrimble,Kentucky,Trimble,2022-04-28 09:13:11,2021-07-10,0.0920325788772324,0.299652681415485,1.044570528070293,,,,,,,,,,,,
21223,0,USKentuckyTrimble,Kentucky,Trimble,2022-04-28 09:13:11,2021-07-11,0.0920325788772324,0.299652681415485,1.044570528070293,,,,,,,,,,,,
21223,0,USKentuckyTrimble,Kentucky,Trimble,2022-04-28 09:13:11,2021-07-12,0.0920325788772324,0.299652681415485,1.044570528070293,,,,,,,,,,,,
21223,0,USKentuckyTrimble,Kentucky,Trimble,2022-04-28 09:13:11,2021-07-13,0.0920325788772324,0.299652681415485,1.044570528070293,,,,,,,,,,,,
21223,0,USKentuckyTrimble,Kentucky,Trimble,2022-04-28 09:13:11,2021-07-14,0.0920325788772324,0.299652681415485,1.044570528070293,,,,,,,,,,,,
21223,0,USKentuckyTrimble,Kentucky,Trimble,2022-04-28 09:13:11,2021-07-15,0.3361304003828717,0.8359604815121993,2.237360965719717,,,,,,,,,,,,
21223,0,USKentuckyTrimble,Kentucky,Trimble,2022-04-28 09:13:11,2021-07-16,0.3361304003828717,0.8359604815121993,2.237360965719717,,,,,,,,,,,,
21223,0,USKentuckyTrimble,Kentucky,Trimble,2022-04-28 09:13:11,2021-07-17,0.3361304003828717,0.8359604815121993,2.237360965719717,,,,,,,,,,,,
21223,0,USKentuckyTrimble,Kentucky,Trimble,2022-04-28 09:13:11,2021-07-18,0.3361304003828717,0.8359604815121993,2.237360965719717,,,,,,,,,,,,
21223,0,USKentuckyTrimble,Kentucky,Trimble,2022-04-28 09:13:11,2021-07-19,0.3361304003828717,0.8359604815121993,2.237360965719717,,,,,,,,,,,,
21223,0,USKentuckyTrimble,Kentucky,Trimble,2022-04-28 09:13:11,2021-07-20,0.3361304003828717,0.8359604815121993,2.237360965719717,,,,,,,,,,,,
21223,0,USKentuckyTrimble,Kentucky,Trimble,2022-04-28 09:13:11,2021-07-21,0.3361304003828717,0.8359604815121993,2.237360965719717,,,,,,,,,,,,
21223,0,USKentuckyTrimble,Kentucky,Trimble,2022-04-28 09:13:11,2021-07-22,0.7847555546289346,1.6600936555816146,3.7722910640842473,,,,,,,,,,,,
21223,0,USKentuckyTrimble,Kentucky,Trimble,2022-04-28 09:13:11,2021-07-23,0.7847555546289346,1.6600936555816146,3.7722910640842473,,,,,,,,,,,,
21223,0,USKentuckyTrimble,Kentucky,Trimble,2022-04-28 09:13:11,2021-07-24,0.7847555546289346,1.6600936555816146,3.7722910640842473,,,,,,,,,,,,
21223,0,USKentuckyTrimble,Kentucky,Trimble,2022-04-28 09:13:11,2021-07-25,0.7847555546289346,1.6600936555816146,3.7722910640842473,,,,,,,,,,,,
21223,0,USKentuckyTrimble,Kentucky,Trimble,2022-04-28 09:13:11,2021-07-26,0.7847555546289346,1.6600936555816146,3.7722910640842473,,,,,,,,,,,,
21223,0,USKentuckyTrimble,Kentucky,Trimble,2022-04-28 09:13:11,2021-07-27,0.7847555546289346,1.6600936555816146,3.7722910640842473,,,,,,,,,,,,
21223,0,USKentuckyTrimble,Kentucky,Trimble,2022-04-28 09:13:11,2021-07-28,0.7847555546289346,1.6600936555816146,3.7722910640842473,,,,,,,,,,,,
21223,0,USKentuckyTrimble,Kentucky,Trimble,2022-04-28 09:13:11,2021-07-29,1.2161656424521767,2.347902239525212,4.852671055333672,,,,,,,,,,,,
21223,0,USKentuckyTrimble,Kentucky,Trimble,2022-04-28 09:13:11,2021-07-30,1.2161656424521767,2.347902239525212,4.852671055333672,,,,,,,,,,,,
21223,0,USKentuckyTrimble,Kentucky,Trimble,2022-04-28 09:13:11,2021-07-31,1.2161656424521767,2.347902239525212,4.852671055333672,,,,,,,,,,,,
21223,0,USKentuckyTrimble,Kentucky,Trimble,2022-04-28 09:13:11,2021-08-01,1.2161656424521767,2.347902239525212,4.852671055333672,,,,,,,,,,,,
21223,0,USKentuckyTrimble,Kentucky,Trimble,2022-04-28 09:13:11,2021-08-02,1.2161656424521767,2.347902239525212,4.852671055333672,,,,,,,,,,,,
21223,0,USKentuckyTrimble,Kentucky,Trimble,2022-04-28 09:13:11,2021-08-03,1.2161656424521767,2.347902239525212,4.852671055333672,,,,,,,,,,,,
21223,0,USKentuckyTrimble,Kentucky,Trimble,2022-04-28 09:13:11,2021-08-04,1.2161656424521767,2.347902239525212,4.852671055333672,,,,,,,,,,,,
21223,0,USKentuckyTrimble,Kentucky,Trimble,2022-04-28 09:13:11,2021-08-05,1.5193184383445857,2.7638508835087725,5.365177830470407,,,,,,,,,,,,
21223,0,USKentuckyTrimble,Kentucky,Trimble,2022-04-28 09:13:11,2021-08-06,1.5193184383445857,2.7638508835087725,5.365177830470407,,,,,,,,,,,,
21223,0,USKentuckyTrimble,Kentucky,Trimble,2022-04-28 09:13:11,2021-08-07,1.5193184383445857,2.7638508835087725,5.365177830470407,,,,,,,,,,,,
21223,0,USKentuckyTrimble,Kentucky,Trimble,2022-04-28 09:13:11,2021-08-08,1.5193184383445857,2.7638508835087725,5.365177830470407,,,,,,,,,,,,
21223,0,USKentuckyTrimble,Kentucky,Trimble,2022-04-28 09:13:11,2021-08-09,1.5193184383445857,2.7638508835087725,5.365177830470407,,,,,,,,,,,,
21223,0,USKentuckyTrimble,Kentucky,Trimble,2022-04-28 09:13:11,2021-08-10,1.5193184383445857,2.7638508835087725,5.365177830470407,,,,,,,,,,,,
21223,0,USKentuckyTrimble,Kentucky,Trimble,2022-04-28 09:13:11,2021-08-11,1.5193184383445857,2.7638508835087725,5.365177830470407,,,,,,,,,,,,
21223,0,USKentuckyTrimble,Kentucky,Trimble,2022-04-28 09:13:11,2021-08-12,2.164072134021147,3.6841566666085868,6.661491538875866,,,,,,,,,,,,
21223,0,USKentuckyTrimble,Kentucky,Trimble,2022-04-28 09:13:11,2021-08-13,2.164072134021147,3.6841566666085868,6.661491538875866,,,,,,,,,,,,
21223,0,USKentuckyTrimble,Kentucky,Trimble,2022-04-28 09:13:11,2021-08-14,2.164072134021147,3.6841566666085868,6.661491538875866,,,,,,,,,,,,
21223,0,USKentuckyTrimble,Kentucky,Trimble,2022-04-28 09:13:11,2021-08-15,2.164072134021147,3.6841566666085868,6.661491538875866,,,,,,,,,,,,
21223,0,USKentuckyTrimble,Kentucky,Trimble,2022-04-28 09:13:11,2021-08-16,2.164072134021147,3.6841566666085868,6.661491538875866,,,,,,,,,,,,
21223,0,USKentuckyTrimble,Kentucky,Trimble,2022-04-28 09:13:11,2021-08-17,2.164072134021147,3.6841566666085868,6.661491538875866,,,,,,,,,,,,
21223,0,USKentuckyTrimble,Kentucky,Trimble,2022-04-28 09:13:11,2021-08-18,2.164072134021147,3.6841566666085868,6.661491538875866,,,,,,,,,,,,
21223,0,USKentuckyTrimble,Kentucky,Trimble,2022-04-28 09:13:11,2021-08-19,2.4456523487562163,4.120911825750119,7.36881289711337,,,,,,,,,,,,
21223,0,USKentuckyTrimble,Kentucky,Trimble,2022-04-28 09:13:11,2021-08-20,2.4456523487562163,4.120911825750119,7.36881289711337,,,,,,,,,,,,
21223,0,USKentuckyTrimble,Kentucky,Trimble,2022-04-28 09:13:11,2021-08-21,2.4456523487562163,4.120911825750119,7.36881289711337,,,,,,,,,,,,
21223,0,USKentuckyTrimble,Kentucky,Trimble,2022-04-28 09:13:11,2021-08-22,2.4456523487562163,4.120911825750119,7.36881289711337,,,,,,,,,,,,
21223,0,USKentuckyTrimble,Kentucky,Trimble,2022-04-28 09:13:11,2021-08-23,2.4456523487562163,4.120911825750119,7.36881289711337,,,,,,,,,,,,
21223,0,USKentuckyTrimble,Kentucky,Trimble,2022-04-28 09:13:11,2021-08-24,2.4456523487562163,4.120911825750119,7.36881289711337,,,,,,,,,,,,
21223,0,USKentuckyTrimble,Kentucky,Trimble,2022-04-28 09:13:11,2021-08-25,2.4456523487562163,4.120911825750119,7.36881289711337,,,,,,,,,,,,
21223,0,USKentuckyTrimble,Kentucky,Trimble,2022-04-28 09:13:11,2021-08-26,2.7006399794197846,4.4093423361902415,7.619063662047269,,,,,,,,,,,,
21223,0,USKentuckyTrimble,Kentucky,Trimble,2022-04-28 09:13:11,2021-08-27,2.7006399794197846,4.4093423361902415,7.619063662047269,,,,,,,,,,,,
21223,0,USKentuckyTrimble,Kentucky,Trimble,2022-04-28 09:13:11,2021-08-28,2.7006399794197846,4.4093423361902415,7.619063662047269,,,,,,,,,,,,
21223,0,USKentuckyTrimble,Kentucky,Trimble,2022-04-28 09:13:11,2021-08-29,2.7006399794197846,4.4093423361902415,7.619063662047269,,,,,,,,,,,,
21223,0,USKentuckyTrimble,Kentucky,Trimble,2022-04-28 09:13:11,2021-08-30,2.7006399794197846,4.4093423361902415,7.619063662047269,,,,,,,,,,,,
21223,0,USKentuckyTrimble,Kentucky,Trimble,2022-04-28 09:13:11,2021-08-31,2.7006399794197846,4.4093423361902415,7.619063662047269,,,,,,,,,,,,
21223,0,USKentuckyTrimble,Kentucky,Trimble,2022-04-28 09:13:11,2021-09-01,2.7006399794197846,4.4093423361902415,7.619063662047269,,,,,,,,,,,,
21223,0,USKentuckyTrimble,Kentucky,Trimble,2022-04-28 09:13:11,2021-09-02,2.6366113539498,4.46798249374427,8.038656954698428,,,,,,,,,,,,
21223,0,USKentuckyTrimble,Kentucky,Trimble,2022-04-28 09:13:11,2021-09-03,2.6366113539498,4.46798249374427,8.038656954698428,,,,,,,,,,,,
21223,0,USKentuckyTrimble,Kentucky,Trimble,2022-04-28 09:13:11,2021-09-04,2.6366113539498,4.46798249374427,8.038656954698428,,,,,,,,,,,,
21223,0,USKentuckyTrimble,Kentucky,Trimble,2022-04-28 09:13:11,2021-09-05,2.6366113539498,4.46798249374427,8.038656954698428,,,,,,,,,,,,
21223,0,USKentuckyTrimble,Kentucky,Trimble,2022-04-28 09:13:11,2021-09-06,2.6366113539498,4.46798249374427,8.038656954698428,,,,,,,,,,,,
21223,0,USKentuckyTrimble,Kentucky,Trimble,2022-04-28 09:13:11,2021-09-07,2.6366113539498,4.46798249374427,8.038656954698428,,,,,,,,,,,,
21223,0,USKentuckyTrimble,Kentucky,Trimble,2022-04-28 09:13:11,2021-09-08,2.6366113539498,4.46798249374427,8.038656954698428,,,,,,,,,,,,
21223,0,USKentuckyTrimble,Kentucky,Trimble,2022-04-28 09:13:11,2021-09-09,1.609946208111078,2.921526490621749,5.656469189519516,,,,,,,,,,,,
21223,0,USKentuckyTrimble,Kentucky,Trimble,2022-04-28 09:13:11,2021-09-10,1.609946208111078,2.921526490621749,5.656469189519516,,,,,,,,,,,,
21223,0,USKentuckyTrimble,Kentucky,Trimble,2022-04-28 09:13:11,2021-09-11,1.609946208111078,2.921526490621749,5.656469189519516,,,,,,,,,,,,
21223,0,USKentuckyTrimble,Kentucky,Trimble,2022-04-28 09:13:11,2021-09-12,1.609946208111078,2.921526490621749,5.656469189519516,,,,,,,,,,,,
21223,0,USKentuckyTrimble,Kentucky,Trimble,2022-04-28 09:13:11,2021-09-13,1.609946208111078,2.921526490621749,5.656469189519516,,,,,,,,,,,,
21223,0,USKentuckyTrimble,Kentucky,Trimble,2022-04-28 09:13:11,2021-09-14,1.609946208111078,2.921526490621749,5.656469189519516,,,,,,,,,,,,
21223,0,USKentuckyTrimble,Kentucky,Trimble,2022-04-28 09:13:11,2021-09-15,1.609946208111078,2.921526490621749,5.656469189519516,,,,,,,,,,,,
21223,0,USKentuckyTrimble,Kentucky,Trimble,2022-04-28 09:13:11,2021-09-16,1.4132005490530568,2.718379888306043,5.596990810502405,,,,,,,,,,,,
21223,0,USKentuckyTrimble,Kentucky,Trimble,2022-04-28 09:13:11,2021-09-17,1.4132005490530568,2.718379888306043,5.596990810502405,,,,,,,,,,,,
21223,0,USKentuckyTrimble,Kentucky,Trimble,2022-04-28 09:13:11,2021-09-18,1.4132005490530568,2.718379888306043,5.596990810502405,,,,,,,,,,,,
21223,0,USKentuckyTrimble,Kentucky,Trimble,2022-04-28 09:13:11,2021-09-19,1.4132005490530568,2.718379888306043,5.596990810502405,,,,,,,,,,,,
21223,0,USKentuckyTrimble,Kentucky,Trimble,2022-04-28 09:13:11,2021-09-20,1.4132005490530568,2.718379888306043,5.596990810502405,,,,,,,,,,,,
21223,0,USKentuckyTrimble,Kentucky,Trimble,2022-04-28 09:13:11,2021-09-21,1.4132005490530568,2.718379888306043,5.596990810502405,,,,,,,,,,,,
21223,0,USKentuckyTrimble,Kentucky,Trimble,2022-04-28 09:13:11,2021-09-22,1.4132005490530568,2.718379888306043,5.596990810502405,,,,,,,,,,,,
21223,0,USKentuckyTrimble,Kentucky,Trimble,2022-04-28 09:13:11,2021-09-23,1.3827909789378672,2.60764777278374,5.258279847417146,,,,,,,,,,,,
21223,0,USKentuckyTrimble,Kentucky,Trimble,2022-04-28 09:13:11,2021-09-24,1.3827909789378672,2.60764777278374,5.258279847417146,,,,,,,,,,,,
21223,0,USKentuckyTrimble,Kentucky,Trimble,2022-04-28 09:13:11,2021-09-25,1.3827909789378672,2.60764777278374,5.258279847417146,,,,,,,,,,,,
21223,0,USKentuckyTrimble,Kentucky,Trimble,2022-04-28 09:13:11,2021-09-26,1.3827909789378672,2.60764777278374,5.258279847417146,,,,,,,,,,,,
21223,0,USKentuckyTrimble,Kentucky,Trimble,2022-04-28 09:13:11,2021-09-27,1.3827909789378672,2.60764777278374,5.258279847417146,,,,,,,,,,,,
21223,0,USKentuckyTrimble,Kentucky,Trimble,2022-04-28 09:13:11,2021-09-28,1.3827909789378672,2.60764777278374,5.258279847417146,,,,,,,,,,,,
21223,0,USKentuckyTrimble,Kentucky,Trimble,2022-04-28 09:13:11,2021-09-29,1.3827909789378672,2.60764777278374,5.258279847417146,,,,,,,,,,,,
21223,0,USKentuckyTrimble,Kentucky,Trimble,2022-04-28 09:13:11,2021-09-30,1.4135290050615712,2.5535023972701314,4.9201743131995,,,,,,,,,,,,
21223,0,USKentuckyTrimble,Kentucky,Trimble,2022-04-28 09:13:11,2021-10-01,1.4135290050615712,2.5535023972701314,4.9201743131995,,,,,,,,,,,,
21223,0,USKentuckyTrimble,Kentucky,Trimble,2022-04-28 09:13:11,2021-10-02,1.4135290050615712,2.5535023972701314,4.9201743131995,,,,,,,,,,,,
21223,0,USKentuckyTrimble,Kentucky,Trimble,2022-04-28 09:13:11,2021-10-03,1.4135290050615712,2.5535023972701314,4.9201743131995,,,,,,,,,,,,
21223,0,USKentuckyTrimble,Kentucky,Trimble,2022-04-28 09:13:11,2021-10-04,1.4135290050615712,2.5535023972701314,4.9201743131995,,,,,,,,,,,,
21223,0,USKentuckyTrimble,Kentucky,Trimble,2022-04-28 09:13:11,2021-10-05,1.4135290050615712,2.5535023972701314,4.9201743131995,,,,,,,,,,,,
21223,0,USKentuckyTrimble,Kentucky,Trimble,2022-04-28 09:13:11,2021-10-06,1.4135290050615712,2.5535023972701314,4.9201743131995,,,,,,,,,,,,
21223,0,USKentuckyTrimble,Kentucky,Trimble,2022-04-28 09:13:11,2021-10-07,1.0180545296003443,1.9735242179389514,4.096481098344027,,,,,,,,,,,,
21223,0,USKentuckyTrimble,Kentucky,Trimble,2022-04-28 09:13:11,2021-10-08,1.0180545296003443,1.9735242179389514,4.096481098344027,,,,,,,,,,,,
21223,0,USKentuckyTrimble,Kentucky,Trimble,2022-04-28 09:13:11,2021-10-09,1.0180545296003443,1.9735242179389514,4.096481098344027,,,,,,,,,,,,
21223,0,USKentuckyTrimble,Kentucky,Trimble,2022-04-28 09:13:11,2021-10-10,1.0180545296003443,1.9735242179389514,4.096481098344027,,,,,,,,,,,,
21223,0,USKentuckyTrimble,Kentucky,Trimble,2022-04-28 09:13:11,2021-10-11,1.0180545296003443,1.9735242179389514,4.096481098344027,,,,,,,,,,,,
21223,0,USKentuckyTrimble,Kentucky,Trimble,2022-04-28 09:13:11,2021-10-12,1.0180545296003443,1.9735242179389514,4.096481098344027,,,,,,,,,,,,
21223,0,USKentuckyTrimble,Kentucky,Trimble,2022-04-28 09:13:11,2021-10-13,1.0180545296003443,1.9735242179389514,4.096481098344027,,,,,,,,,,,,
21223,0,USKentuckyTrimble,Kentucky,Trimble,2022-04-28 09:13:11,2021-10-14,1.653752043575793,2.712201212729412,4.709442321630311,,,,,,,,,,,,
21223,0,USKentuckyTrimble,Kentucky,Trimble,2022-04-28 09:13:11,2021-10-15,1.653752043575793,2.712201212729412,4.709442321630311,,,,,,,,,,,,
21223,0,USKentuckyTrimble,Kentucky,Trimble,2022-04-28 09:13:11,2021-10-16,1.653752043575793,2.712201212729412,4.709442321630311,,,,,,,,,,,,
21223,0,USKentuckyTrimble,Kentucky,Trimble,2022-04-28 09:13:11,2021-10-17,1.653752043575793,2.712201212729412,4.709442321630311,,,,,,,,,,,,
21223,0,USKentuckyTrimble,Kentucky,Trimble,2022-04-28 09:13:11,2021-10-18,1.653752043575793,2.712201212729412,4.709442321630311,,,,,,,,,,,,
21223,0,USKentuckyTrimble,Kentucky,Trimble,2022-04-28 09:13:11,2021-10-19,1.653752043575793,2.712201212729412,4.709442321630311,,,,,,,,,,,,
21223,0,USKentuckyTrimble,Kentucky,Trimble,2022-04-28 09:13:11,2021-10-20,1.653752043575793,2.712201212729412,4.709442321630311,,,,,,,,,,,,
21223,0,USKentuckyTrimble,Kentucky,Trimble,2022-04-28 09:13:11,2021-10-21,1.5072357930390137,2.443214464044975,4.188664929980735,,,,,,,,,,,,
21223,0,USKentuckyTrimble,Kentucky,Trimble,2022-04-28 09:13:11,2021-10-22,1.5072357930390137,2.443214464044975,4.188664929980735,,,,,,,,,,,,
21223,0,USKentuckyTrimble,Kentucky,Trimble,2022-04-28 09:13:11,2021-10-23,1.5072357930390137,2.443214464044975,4.188664929980735,,,,,,,,,,,,
21223,0,USKentuckyTrimble,Kentucky,Trimble,2022-04-28 09:13:11,2021-10-24,1.5072357930390137,2.443214464044975,4.188664929980735,,,,,,,,,,,,
21223,0,USKentuckyTrimble,Kentucky,Trimble,2022-04-28 09:13:11,2021-10-25,1.5072357930390137,2.443214464044975,4.188664929980735,,,,,,,,,,,,
21223,0,USKentuckyTrimble,Kentucky,Trimble,2022-04-28 09:13:11,2021-10-26,1.5072357930390137,2.443214464044975,4.188664929980735,,,,,,,,,,,,
21223,0,USKentuckyTrimble,Kentucky,Trimble,2022-04-28 09:13:11,2021-10-27,1.5072357930390137,2.443214464044975,4.188664929980735,,,,,,,,,,,,
21223,0,USKentuckyTrimble,Kentucky,Trimble,2022-04-28 09:13:11,2021-10-28,1.1938303908128458,2.0345609138726233,3.6830061395611886,,,,,,,,,,,,
21223,0,USKentuckyTrimble,Kentucky,Trimble,2022-04-28 09:13:11,2021-10-29,1.1938303908128458,2.0345609138726233,3.6830061395611886,,,,,,,,,,,,
21223,0,USKentuckyTrimble,Kentucky,Trimble,2022-04-28 09:13:11,2021-10-30,1.1938303908128458,2.0345609138726233,3.6830061395611886,,,,,,,,,,,,
21223,0,USKentuckyTrimble,Kentucky,Trimble,2022-04-28 09:13:11,2021-10-31,1.1938303908128458,2.0345609138726233,3.6830061395611886,,,,,,,,,,,,
21223,0,USKentuckyTrimble,Kentucky,Trimble,2022-04-28 09:13:11,2021-11-01,1.1938303908128458,2.0345609138726233,3.6830061395611886,,,,,,,,,,,,
21223,0,USKentuckyTrimble,Kentucky,Trimble,2022-04-28 09:13:11,2021-11-02,1.1938303908128458,2.0345609138726233,3.6830061395611886,,,,,,,,,,,,
21223,0,USKentuckyTrimble,Kentucky,Trimble,2022-04-28 09:13:11,2021-11-03,1.1938303908128458,2.0345609138726233,3.6830061395611886,,,,,,,,,,,,
21223,0,USKentuckyTrimble,Kentucky,Trimble,2022-04-28 09:13:11,2021-11-04,0.8772487803892605,1.6344318828226432,3.2540721403415214,,,,,,,,,,,,
21223,0,USKentuckyTrimble,Kentucky,Trimble,2022-04-28 09:13:11,2021-11-05,0.8772487803892605,1.6344318828226432,3.2540721403415214,,,,,,,,,,,,
21223,0,USKentuckyTrimble,Kentucky,Trimble,2022-04-28 09:13:11,2021-11-06,0.8772487803892605,1.6344318828226432,3.2540721403415214,,,,,,,,,,,,
21223,0,USKentuckyTrimble,Kentucky,Trimble,2022-04-28 09:13:11,2021-11-07,0.8772487803892605,1.6344318828226432,3.2540721403415214,,,,,,,,,,,,
21223,0,USKentuckyTrimble,Kentucky,Trimble,2022-04-28 09:13:11,2021-11-08,0.8772487803892605,1.6344318828226432,3.2540721403415214,,,,,,,,,,,,
21223,0,USKentuckyTrimble,Kentucky,Trimble,2022-04-28 09:13:11,2021-11-09,0.8772487803892605,1.6344318828226432,3.2540721403415214,,,,,,,,,,,,
21223,0,USKentuckyTrimble,Kentucky,Trimble,2022-04-28 09:13:11,2021-11-10,0.8772487803892605,1.6344318828226432,3.2540721403415214,,,,,,,,,,,,
21223,0,USKentuckyTrimble,Kentucky,Trimble,2022-04-28 09:13:11,2021-11-11,0.9627955394168923,1.7737501770398487,3.489687792303417,,,,,,,,,,,,
21223,0,USKentuckyTrimble,Kentucky,Trimble,2022-04-28 09:13:11,2021-11-12,0.9627955394168923,1.7737501770398487,3.489687792303417,,,,,,,,,,,,
21223,0,USKentuckyTrimble,Kentucky,Trimble,2022-04-28 09:13:11,2021-11-13,0.9627955394168923,1.7737501770398487,3.489687792303417,,,,,,,,,,,,
21223,0,USKentuckyTrimble,Kentucky,Trimble,2022-04-28 09:13:11,2021-11-14,0.9627955394168923,1.7737501770398487,3.489687792303417,,,,,,,,,,,,
21223,0,USKentuckyTrimble,Kentucky,Trimble,2022-04-28 09:13:11,2021-11-15,0.9627955394168923,1.7737501770398487,3.489687792303417,,,,,,,,,,,,
21223,0,USKentuckyTrimble,Kentucky,Trimble,2022-04-28 09:13:11,2021-11-16,0.9627955394168923,1.7737501770398487,3.489687792303417,,,,,,,,,,,,
21223,0,USKentuckyTrimble,Kentucky,Trimble,2022-04-28 09:13:11,2021-11-17,0.9627955394168923,1.7737501770398487,3.489687792303417,,,,,,,,,,,,
21223,0,USKentuckyTrimble,Kentucky,Trimble,2022-04-28 09:13:11,2021-11-18,1.221941847433644,2.1274060673251642,3.9405970248752475,,,,,,,,,,,,
21223,0,USKentuckyTrimble,Kentucky,Trimble,2022-04-28 09:13:11,2021-11-19,1.221941847433644,2.1274060673251642,3.9405970248752475,,,,,,,,,,,,
21223,0,USKentuckyTrimble,Kentucky,Trimble,2022-04-28 09:13:11,2021-11-20,1.221941847433644,2.1274060673251642,3.9405970248752475,,,,,,,,,,,,
21223,0,USKentuckyTrimble,Kentucky,Trimble,2022-04-28 09:13:11,2021-11-21,1.221941847433644,2.1274060673251642,3.9405970248752475,,,,,,,,,,,,
21223,0,USKentuckyTrimble,Kentucky,Trimble,2022-04-28 09:13:11,2021-11-22,1.221941847433644,2.1274060673251642,3.9405970248752475,,,,,,,,,,,,
21223,0,USKentuckyTrimble,Kentucky,Trimble,2022-04-28 09:13:11,2021-11-23,1.221941847433644,2.1274060673251642,3.9405970248752475,,,,,,,,,,,,
21223,0,USKentuckyTrimble,Kentucky,Trimble,2022-04-28 09:13:11,2021-11-24,1.221941847433644,2.1274060673251642,3.9405970248752475,,,,,,,,,,,,
21223,0,USKentuckyTrimble,Kentucky,Trimble,2022-04-28 09:13:11,2021-11-25,1.4708515594183822,2.5974090335672293,4.885013861710134,,,,,,,,,,,,
21223,0,USKentuckyTrimble,Kentucky,Trimble,2022-04-28 09:13:11,2021-11-26,1.4708515594183822,2.5974090335672293,4.885013861710134,,,,,,,,,,,,
21223,0,USKentuckyTrimble,Kentucky,Trimble,2022-04-28 09:13:11,2021-11-27,1.4708515594183822,2.5974090335672293,4.885013861710134,,,,,,,,,,,,
21223,0,USKentuckyTrimble,Kentucky,Trimble,2022-04-28 09:13:11,2021-11-28,1.4708515594183822,2.5974090335672293,4.885013861710134,,,,,,,,,,,,
21223,0,USKentuckyTrimble,Kentucky,Trimble,2022-04-28 09:13:11,2021-11-29,1.4708515594183822,2.5974090335672293,4.885013861710134,,,,,,,,,,,,
21223,0,USKentuckyTrimble,Kentucky,Trimble,2022-04-28 09:13:11,2021-11-30,1.4708515594183822,2.5974090335672293,4.885013861710134,,,,,,,,,,,,
21223,0,USKentuckyTrimble,Kentucky,Trimble,2022-04-28 09:13:11,2021-12-01,1.4708515594183822,2.5974090335672293,4.885013861710134,,,,,,,,,,,,
21223,0,USKentuckyTrimble,Kentucky,Trimble,2022-04-28 09:13:11,2021-12-02,1.60110934617257,2.8151331213557182,5.269842408241131,,,,,,,,,,,,
21223,0,USKentuckyTrimble,Kentucky,Trimble,2022-04-28 09:13:11,2021-12-03,1.60110934617257,2.8151331213557182,5.269842408241131,,,,,,,,,,,,
21223,0,USKentuckyTrimble,Kentucky,Trimble,2022-04-28 09:13:11,2021-12-04,1.60110934617257,2.8151331213557182,5.269842408241131,,,,,,,,,,,,
21223,0,USKentuckyTrimble,Kentucky,Trimble,2022-04-28 09:13:11,2021-12-05,1.60110934617257,2.8151331213557182,5.269842408241131,,,,,,,,,,,,
21223,0,USKentuckyTrimble,Kentucky,Trimble,2022-04-28 09:13:11,2021-12-06,1.60110934617257,2.8151331213557182,5.269842408241131,,,,,,,,,,,,
21223,0,USKentuckyTrimble,Kentucky,Trimble,2022-04-28 09:13:11,2021-12-07,1.60110934617257,2.8151331213557182,5.269842408241131,,,,,,,,,,,,
21223,0,USKentuckyTrimble,Kentucky,Trimble,2022-04-28 09:13:11,2021-12-08,1.60110934617257,2.8151331213557182,5.269842408241131,,,,,,,,,,,,
21223,0,USKentuckyTrimble,Kentucky,Trimble,2022-04-28 09:13:11,2021-12-09,2.2302235748315047,3.570221269744165,6.037570198918792,,,,,,,,,,,,
21223,0,USKentuckyTrimble,Kentucky,Trimble,2022-04-28 09:13:11,2021-12-10,2.2302235748315047,3.570221269744165,6.037570198918792,,,,,,,,,,,,
21223,0,USKentuckyTrimble,Kentucky,Trimble,2022-04-28 09:13:11,2021-12-11,2.2302235748315047,3.570221269744165,6.037570198918792,,,,,,,,,,,,
21223,0,USKentuckyTrimble,Kentucky,Trimble,2022-04-28 09:13:11,2021-12-12,2.2302235748315047,3.570221269744165,6.037570198918792,,,,,,,,,,,,
21223,0,USKentuckyTrimble,Kentucky,Trimble,2022-04-28 09:13:11,2021-12-13,2.2302235748315047,3.570221269744165,6.037570198918792,,,,,,,,,,,,
21223,0,USKentuckyTrimble,Kentucky,Trimble,2022-04-28 09:13:11,2021-12-14,2.2302235748315047,3.570221269744165,6.037570198918792,,,,,,,,,,,,
21223,0,USKentuckyTrimble,Kentucky,Trimble,2022-04-28 09:13:11,2021-12-15,2.2302235748315047,3.570221269744165,6.037570198918792,,,,,,,,,,,,
21223,0,USKentuckyTrimble,Kentucky,Trimble,2022-04-28 09:13:11,2021-12-16,1.802610255478395,3.0561306030361175,5.501298231864168,,,,,,,,,,,,
21223,0,USKentuckyTrimble,Kentucky,Trimble,2022-04-28 09:13:11,2021-12-17,1.802610255478395,3.0561306030361175,5.501298231864168,,,,,,,,,,,,
21223,0,USKentuckyTrimble,Kentucky,Trimble,2022-04-28 09:13:11,2021-12-18,1.802610255478395,3.0561306030361175,5.501298231864168,,,,,,,,,,,,
21223,0,USKentuckyTrimble,Kentucky,Trimble,2022-04-28 09:13:11,2021-12-19,1.802610255478395,3.0561306030361175,5.501298231864168,,,,,,,,,,,,
21223,0,USKentuckyTrimble,Kentucky,Trimble,2022-04-28 09:13:11,2021-12-20,1.802610255478395,3.0561306030361175,5.501298231864168,,,,,,,,,,,,
21223,0,USKentuckyTrimble,Kentucky,Trimble,2022-04-28 09:13:11,2021-12-21,1.802610255478395,3.0561306030361175,5.501298231864168,,,,,,,,,,,,
21223,0,USKentuckyTrimble,Kentucky,Trimble,2022-04-28 09:13:11,2021-12-22,1.802610255478395,3.0561306030361175,5.501298231864168,,,,,,,,,,,,
21223,0,USKentuckyTrimble,Kentucky,Trimble,2022-04-28 09:13:11,2021-12-23,1.8652934027450856,3.3378102518367565,6.3667946912520925,,,,,,,,,,,,
21223,0,USKentuckyTrimble,Kentucky,Trimble,2022-04-28 09:13:11,2021-12-24,1.8652934027450856,3.3378102518367565,6.3667946912520925,,,,,,,,,,,,
21223,0,USKentuckyTrimble,Kentucky,Trimble,2022-04-28 09:13:11,2021-12-25,1.8652934027450856,3.3378102518367565,6.3667946912520925,,,,,,,,,,,,
21223,0,USKentuckyTrimble,Kentucky,Trimble,2022-04-28 09:13:11,2021-12-26,1.8652934027450856,3.3378102518367565,6.3667946912520925,,,,,,,,,,,,
21223,0,USKentuckyTrimble,Kentucky,Trimble,2022-04-28 09:13:11,2021-12-27,1.8652934027450856,3.3378102518367565,6.3667946912520925,,,,,,,,,,,,
21223,0,USKentuckyTrimble,Kentucky,Trimble,2022-04-28 09:13:11,2021-12-28,1.8652934027450856,3.3378102518367565,6.3667946912520925,,,,,,,,,,,,
21223,0,USKentuckyTrimble,Kentucky,Trimble,2022-04-28 09:13:11,2021-12-29,1.8652934027450856,3.3378102518367565,6.3667946912520925,,,,,,,,,,,,
21223,0,USKentuckyTrimble,Kentucky,Trimble,2022-04-28 09:13:11,2021-12-30,3.2218401691659864,5.696571221929662,10.727894068621966,,,,,,,,,,,,
21223,0,USKentuckyTrimble,Kentucky,Trimble,2022-04-28 09:13:11,2021-12-31,3.2218401691659864,5.696571221929662,10.727894068621966,,,,,,,,,,,,
21223,0,USKentuckyTrimble,Kentucky,Trimble,2022-04-28 09:13:11,2022-01-01,3.2218401691659864,5.696571221929662,10.727894068621966,,,,,,,,,,,,
21223,0,USKentuckyTrimble,Kentucky,Trimble,2022-04-28 09:13:11,2022-01-02,3.2218401691659864,5.696571221929662,10.727894068621966,,,,,,,,,,,,
21223,0,USKentuckyTrimble,Kentucky,Trimble,2022-04-28 09:13:11,2022-01-03,3.2218401691659864,5.696571221929662,10.727894068621966,,,,,,,,,,,,
21223,0,USKentuckyTrimble,Kentucky,Trimble,2022-04-28 09:13:11,2022-01-04,3.2218401691659864,5.696571221929662,10.727894068621966,,,,,,,,,,,,
21223,0,USKentuckyTrimble,Kentucky,Trimble,2022-04-28 09:13:11,2022-01-05,3.2218401691659864,5.696571221929662,10.727894068621966,,,,,,,,,,,,
21223,0,USKentuckyTrimble,Kentucky,Trimble,2022-04-28 09:13:11,2022-01-06,3.6820605285936585,6.510223027640076,12.26004026097575,,,,,,,,,,,,
21223,0,USKentuckyTrimble,Kentucky,Trimble,2022-04-28 09:13:11,2022-01-07,3.6820605285936585,6.510223027640076,12.26004026097575,,,,,,,,,,,,
21223,0,USKentuckyTrimble,Kentucky,Trimble,2022-04-28 09:13:11,2022-01-08,3.6820605285936585,6.510223027640076,12.26004026097575,,,,,,,,,,,,
21223,0,USKentuckyTrimble,Kentucky,Trimble,2022-04-28 09:13:11,2022-01-09,3.6820605285936585,6.510223027640076,12.26004026097575,,,,,,,,,,,,
21223,0,USKentuckyTrimble,Kentucky,Trimble,2022-04-28 09:13:11,2022-01-10,3.6820605285936585,6.510223027640076,12.26004026097575,,,,,,,,,,,,
21223,0,USKentuckyTrimble,Kentucky,Trimble,2022-04-28 09:13:11,2022-01-11,3.6820605285936585,6.510223027640076,12.26004026097575,,,,,,,,,,,,
21223,0,USKentuckyTrimble,Kentucky,Trimble,2022-04-28 09:13:11,2022-01-12,3.6820605285936585,6.510223027640076,12.26004026097575,,,,,,,,,,,,
21223,0,USKentuckyTrimble,Kentucky,Trimble,2022-04-28 09:13:11,2022-01-13,5.608199684136809,9.025996098600361,15.353557942878703,,,,,,,,,,,,
21223,0,USKentuckyTrimble,Kentucky,Trimble,2022-04-28 09:13:11,2022-01-14,5.608199684136809,9.025996098600361,15.353557942878703,,,,,,,,,,,,
21223,0,USKentuckyTrimble,Kentucky,Trimble,2022-04-28 09:13:11,2022-01-15,5.608199684136809,9.025996098600361,15.353557942878703,,,,,,,,,,,,
21223,0,USKentuckyTrimble,Kentucky,Trimble,2022-04-28 09:13:11,2022-01-16,5.608199684136809,9.025996098600361,15.353557942878703,,,,,,,,,,,,
21223,0,USKentuckyTrimble,Kentucky,Trimble,2022-04-28 09:13:11,2022-01-17,5.608199684136809,9.025996098600361,15.353557942878703,,,,,,,,,,,,
21223,0,USKentuckyTrimble,Kentucky,Trimble,2022-04-28 09:13:11,2022-01-18,5.608199684136809,9.025996098600361,15.353557942878703,,,,,,,,,,,,
21223,0,USKentuckyTrimble,Kentucky,Trimble,2022-04-28 09:13:11,2022-01-19,5.608199684136809,9.025996098600361,15.353557942878703,,,,,,,,,,,,
21223,0,USKentuckyTrimble,Kentucky,Trimble,2022-04-28 09:13:11,2022-01-20,5.536015754136055,9.179569202083494,16.131098994222167,,,,,,,,,,,,
21223,0,USKentuckyTrimble,Kentucky,Trimble,2022-04-28 09:13:11,2022-01-21,5.536015754136055,9.179569202083494,16.131098994222167,,,,,,,,,,,,
21223,0,USKentuckyTrimble,Kentucky,Trimble,2022-04-28 09:13:11,2022-01-22,5.536015754136055,9.179569202083494,16.131098994222167,,,,,,,,,,,,
21223,0,USKentuckyTrimble,Kentucky,Trimble,2022-04-28 09:13:11,2022-01-23,5.536015754136055,9.179569202083494,16.131098994222167,,,,,,,,,,,,
21223,0,USKentuckyTrimble,Kentucky,Trimble,2022-04-28 09:13:11,2022-01-24,5.536015754136055,9.179569202083494,16.131098994222167,,,,,,,,,,,,
21223,0,USKentuckyTrimble,Kentucky,Trimble,2022-04-28 09:13:11,2022-01-25,5.536015754136055,9.179569202083494,16.131098994222167,,,,,,,,,,,,
21223,0,USKentuckyTrimble,Kentucky,Trimble,2022-04-28 09:13:11,2022-01-26,5.536015754136055,9.179569202083494,16.131098994222167,,,,,,,,,,,,
21223,0,USKentuckyTrimble,Kentucky,Trimble,2022-04-28 09:13:11,2022-01-27,4.275541475550341,7.478020546863361,13.920007826104138,,,,,,,,,,,,
21223,0,USKentuckyTrimble,Kentucky,Trimble,2022-04-28 09:13:11,2022-01-28,4.275541475550341,7.478020546863361,13.920007826104138,,,,,,,,,,,,
21223,0,USKentuckyTrimble,Kentucky,Trimble,2022-04-28 09:13:11,2022-01-29,4.275541475550341,7.478020546863361,13.920007826104138,,,,,,,,,,,,
21223,0,USKentuckyTrimble,Kentucky,Trimble,2022-04-28 09:13:11,2022-01-30,4.275541475550341,7.478020546863361,13.920007826104138,,,,,,,,,,,,
21223,0,USKentuckyTrimble,Kentucky,Trimble,2022-04-28 09:13:11,2022-01-31,4.275541475550341,7.478020546863361,13.920007826104138,,,,,,,,,,,,
21223,0,USKentuckyTrimble,Kentucky,Trimble,2022-04-28 09:13:11,2022-02-01,4.275541475550341,7.478020546863361,13.920007826104138,,,,,,,,,,,,
21223,0,USKentuckyTrimble,Kentucky,Trimble,2022-04-28 09:13:11,2022-02-02,4.275541475550341,7.478020546863361,13.920007826104138,,,,,,,,,,,,
21223,0,USKentuckyTrimble,Kentucky,Trimble,2022-04-28 09:13:11,2022-02-03,1.8529589178456856,4.036017979864461,9.449654911090938,,,,,,,,,,,,
21223,0,USKentuckyTrimble,Kentucky,Trimble,2022-04-28 09:13:11,2022-02-04,1.8529589178456856,4.036017979864461,9.449654911090938,,,,,,,,,,,,
21223,0,USKentuckyTrimble,Kentucky,Trimble,2022-04-28 09:13:11,2022-02-05,1.8529589178456856,4.036017979864461,9.449654911090938,,,,,,,,,,,,
21223,0,USKentuckyTrimble,Kentucky,Trimble,2022-04-28 09:13:11,2022-02-06,1.8529589178456856,4.036017979864461,9.449654911090938,,,,,,,,,,,,
21223,0,USKentuckyTrimble,Kentucky,Trimble,2022-04-28 09:13:11,2022-02-07,1.8529589178456856,4.036017979864461,9.449654911090938,,,,,,,,,,,,
21223,0,USKentuckyTrimble,Kentucky,Trimble,2022-04-28 09:13:11,2022-02-08,1.8529589178456856,4.036017979864461,9.449654911090938,,,,,,,,,,,,
21223,0,USKentuckyTrimble,Kentucky,Trimble,2022-04-28 09:13:11,2022-02-09,1.8529589178456856,4.036017979864461,9.449654911090938,,,,,,,,,,,,
21223,0,USKentuckyTrimble,Kentucky,Trimble,2022-04-28 09:13:11,2022-02-10,2.488341662926056,4.559248871436863,8.918070960191805,,,,,,,,,,,,
21223,0,USKentuckyTrimble,Kentucky,Trimble,2022-04-28 09:13:11,2022-02-11,2.488341662926056,4.559248871436863,8.918070960191805,,,,,,,,,,,,
21223,0,USKentuckyTrimble,Kentucky,Trimble,2022-04-28 09:13:11,2022-02-12,2.488341662926056,4.559248871436863,8.918070960191805,,,,,,,,,,,,
21223,0,USKentuckyTrimble,Kentucky,Trimble,2022-04-28 09:13:11,2022-02-13,2.488341662926056,4.559248871436863,8.918070960191805,,,,,,,,,,,,
21223,0,USKentuckyTrimble,Kentucky,Trimble,2022-04-28 09:13:11,2022-02-14,2.488341662926056,4.559248871436863,8.918070960191805,,,,,,,,,,,,
21223,0,USKentuckyTrimble,Kentucky,Trimble,2022-04-28 09:13:11,2022-02-15,2.488341662926056,4.559248871436863,8.918070960191805,,,,,,,,,,,,
21223,0,USKentuckyTrimble,Kentucky,Trimble,2022-04-28 09:13:11,2022-02-16,2.488341662926056,4.559248871436863,8.918070960191805,,,,,,,,,,,,
21223,0,USKentuckyTrimble,Kentucky,Trimble,2022-04-28 09:13:11,2022-02-17,0.86857055092124,2.012153764206407,5.015229462819403,,,,,,,,,,,,
21223,0,USKentuckyTrimble,Kentucky,Trimble,2022-04-28 09:13:11,2022-02-18,0.86857055092124,2.012153764206407,5.015229462819403,,,,,,,,,,,,
21223,0,USKentuckyTrimble,Kentucky,Trimble,2022-04-28 09:13:11,2022-02-19,0.86857055092124,2.012153764206407,5.015229462819403,,,,,,,,,,,,
21223,0,USKentuckyTrimble,Kentucky,Trimble,2022-04-28 09:13:11,2022-02-20,0.86857055092124,2.012153764206407,5.015229462819403,,,,,,,,,,,,
21223,0,USKentuckyTrimble,Kentucky,Trimble,2022-04-28 09:13:11,2022-02-21,0.86857055092124,2.012153764206407,5.015229462819403,,,,,,,,,,,,
21223,0,USKentuckyTrimble,Kentucky,Trimble,2022-04-28 09:13:11,2022-02-22,0.86857055092124,2.012153764206407,5.015229462819403,,,,,,,,,,,,
21223,0,USKentuckyTrimble,Kentucky,Trimble,2022-04-28 09:13:11,2022-02-23,0.86857055092124,2.012153764206407,5.015229462819403,,,,,,,,,,,,
21223,0,USKentuckyTrimble,Kentucky,Trimble,2022-04-28 09:13:11,2022-02-24,0.42851210769670883,1.1236428033857326,3.1697120150830913,,,,,,,,,,,,
21223,0,USKentuckyTrimble,Kentucky,Trimble,2022-04-28 09:13:11,2022-02-25,0.42851210769670883,1.1236428033857326,3.1697120150830913,,,,,,,,,,,,
21223,0,USKentuckyTrimble,Kentucky,Trimble,2022-04-28 09:13:11,2022-02-26,0.42851210769670883,1.1236428033857326,3.1697120150830913,,,,,,,,,,,,
21223,0,USKentuckyTrimble,Kentucky,Trimble,2022-04-28 09:13:11,2022-02-27,0.42851210769670883,1.1236428033857326,3.1697120150830913,,,,,,,,,,,,
21223,0,USKentuckyTrimble,Kentucky,Trimble,2022-04-28 09:13:11,2022-02-28,0.42851210769670883,1.1236428033857326,3.1697120150830913,,,,,,,,,,,,
21223,0,USKentuckyTrimble,Kentucky,Trimble,2022-04-28 09:13:11,2022-03-01,0.42851210769670883,1.1236428033857326,3.1697120150830913,,,,,,,,,,,,
21223,0,USKentuckyTrimble,Kentucky,Trimble,2022-04-28 09:13:11,2022-03-02,0.42851210769670883,1.1236428033857326,3.1697120150830913,,,,,,,,,,,,
21223,0,USKentuckyTrimble,Kentucky,Trimble,2022-04-28 09:13:11,2022-03-03,0.30789773320570485,0.8614676568781912,2.5905870629970265,,,,,,,,,,,,
21223,0,USKentuckyTrimble,Kentucky,Trimble,2022-04-28 09:13:11,2022-03-04,0.30789773320570485,0.8614676568781912,2.5905870629970265,,,,,,,,,,,,
21223,0,USKentuckyTrimble,Kentucky,Trimble,2022-04-28 09:13:11,2022-03-05,0.30789773320570485,0.8614676568781912,2.5905870629970265,,,,,,,,,,,,
21223,0,USKentuckyTrimble,Kentucky,Trimble,2022-04-28 09:13:11,2022-03-06,0.30789773320570485,0.8614676568781912,2.5905870629970265,,,,,,,,,,,,
21223,0,USKentuckyTrimble,Kentucky,Trimble,2022-04-28 09:13:11,2022-03-07,0.30789773320570485,0.8614676568781912,2.5905870629970265,,,,,,,,,,,,
21223,0,USKentuckyTrimble,Kentucky,Trimble,2022-04-28 09:13:11,2022-03-08,0.30789773320570485,0.8614676568781912,2.5905870629970265,,,,,,,,,,,,
21223,0,USKentuckyTrimble,Kentucky,Trimble,2022-04-28 09:13:11,2022-03-09,0.30789773320570485,0.8614676568781912,2.5905870629970265,,,,,,,,,,,,
