FIPS,HR_UID,nameid,province,region,analysisTime,dates,pointprevalence_025,pointprevalence_50,pointprevalence_975,pointinfections_025,pointinfections_50,pointinfections_975,pointinfectious_025,pointinfectious_50,pointinfectious_975,pointinfectiousprevalence_025,pointinfectiousprevalence_50,pointinfectiousprevalence_975,infectrate_025,infectrate_50,infectrate_975
2220,0,USAlaskaSitka,Alaska,Sitka,2022-04-28 09:13:11,2020-03-19,0,0,0,,,,,,,,,,,,
2220,0,USAlaskaSitka,Alaska,Sitka,2022-04-28 09:13:11,2020-03-20,0,0,0,,,,,,,,,,,,
2220,0,USAlaskaSitka,Alaska,Sitka,2022-04-28 09:13:11,2020-03-21,0,0,0,,,,,,,,,,,,
2220,0,USAlaskaSitka,Alaska,Sitka,2022-04-28 09:13:11,2020-03-22,0,0,0,,,,,,,,,,,,
2220,0,USAlaskaSitka,Alaska,Sitka,2022-04-28 09:13:11,2020-03-23,0,0,0,,,,,,,,,,,,
2220,0,USAlaskaSitka,Alaska,Sitka,2022-04-28 09:13:11,2020-03-24,0,0,0,,,,,,,,,,,,
2220,0,USAlaskaSitka,Alaska,Sitka,2022-04-28 09:13:11,2020-03-25,0,0,0,,,,,,,,,,,,
2220,0,USAlaskaSitka,Alaska,Sitka,2022-04-28 09:13:11,2020-03-26,0,0,0,,,,,,,,,,,,
2220,0,USAlaskaSitka,Alaska,Sitka,2022-04-28 09:13:11,2020-03-27,0,0,0,,,,,,,,,,,,
2220,0,USAlaskaSitka,Alaska,Sitka,2022-04-28 09:13:11,2020-03-28,0,0,0,,,,,,,,,,,,
2220,0,USAlaskaSitka,Alaska,Sitka,2022-04-28 09:13:11,2020-03-29,0,0,0,,,,,,,,,,,,
2220,0,USAlaskaSitka,Alaska,Sitka,2022-04-28 09:13:11,2020-03-30,0,0,0,,,,,,,,,,,,
2220,0,USAlaskaSitka,Alaska,Sitka,2022-04-28 09:13:11,2020-03-31,0,0,0,,,,,,,,,,,,
2220,0,USAlaskaSitka,Alaska,Sitka,2022-04-28 09:13:11,2020-04-01,0,0,0,,,,,,,,,,,,
2220,0,USAlaskaSitka,Alaska,Sitka,2022-04-28 09:13:11,2020-04-02,0,0,0,,,,,,,,,,,,
2220,0,USAlaskaSitka,Alaska,Sitka,2022-04-28 09:13:11,2020-04-03,0,0,0,,,,,,,,,,,,
2220,0,USAlaskaSitka,Alaska,Sitka,2022-04-28 09:13:11,2020-04-04,0,0,0,,,,,,,,,,,,
2220,0,USAlaskaSitka,Alaska,Sitka,2022-04-28 09:13:11,2020-04-05,0,0,0,,,,,,,,,,,,
2220,0,USAlaskaSitka,Alaska,Sitka,2022-04-28 09:13:11,2020-04-06,0,0,0,,,,,,,,,,,,
2220,0,USAlaskaSitka,Alaska,Sitka,2022-04-28 09:13:11,2020-04-07,0,0,0,,,,,,,,,,,,
2220,0,USAlaskaSitka,Alaska,Sitka,2022-04-28 09:13:11,2020-04-08,0,0,0,,,,,,,,,,,,
2220,0,USAlaskaSitka,Alaska,Sitka,2022-04-28 09:13:11,2020-04-09,0,0,0,,,,,,,,,,,,
2220,0,USAlaskaSitka,Alaska,Sitka,2022-04-28 09:13:11,2020-04-10,0,0,0,,,,,,,,,,,,
2220,0,USAlaskaSitka,Alaska,Sitka,2022-04-28 09:13:11,2020-04-11,0,0,0,,,,,,,,,,,,
2220,0,USAlaskaSitka,Alaska,Sitka,2022-04-28 09:13:11,2020-04-12,0,0,0,,,,,,,,,,,,
2220,0,USAlaskaSitka,Alaska,Sitka,2022-04-28 09:13:11,2020-04-13,0,0,0,,,,,,,,,,,,
2220,0,USAlaskaSitka,Alaska,Sitka,2022-04-28 09:13:11,2020-04-14,0,0,0,,,,,,,,,,,,
2220,0,USAlaskaSitka,Alaska,Sitka,2022-04-28 09:13:11,2020-04-15,0,0,0,,,,,,,,,,,,
2220,0,USAlaskaSitka,Alaska,Sitka,2022-04-28 09:13:11,2020-04-16,0,0,0,,,,,,,,,,,,
2220,0,USAlaskaSitka,Alaska,Sitka,2022-04-28 09:13:11,2020-04-17,0,0,0,,,,,,,,,,,,
2220,0,USAlaskaSitka,Alaska,Sitka,2022-04-28 09:13:11,2020-04-18,0,0,0,,,,,,,,,,,,
2220,0,USAlaskaSitka,Alaska,Sitka,2022-04-28 09:13:11,2020-04-19,0,0,0,,,,,,,,,,,,
2220,0,USAlaskaSitka,Alaska,Sitka,2022-04-28 09:13:11,2020-04-20,0,0,0,,,,,,,,,,,,
2220,0,USAlaskaSitka,Alaska,Sitka,2022-04-28 09:13:11,2020-04-21,0,0,0,,,,,,,,,,,,
2220,0,USAlaskaSitka,Alaska,Sitka,2022-04-28 09:13:11,2020-04-22,0,0,0,,,,,,,,,,,,
2220,0,USAlaskaSitka,Alaska,Sitka,2022-04-28 09:13:11,2020-04-23,0.045277893604748334,0.07904999363740257,0.14686495610836414,,,,,,,,,,,,
2220,0,USAlaskaSitka,Alaska,Sitka,2022-04-28 09:13:11,2020-04-24,0.045277893604748334,0.07904999363740257,0.14686495610836414,,,,,,,,,,,,
2220,0,USAlaskaSitka,Alaska,Sitka,2022-04-28 09:13:11,2020-04-25,0.045277893604748334,0.07904999363740257,0.14686495610836414,,,,,,,,,,,,
2220,0,USAlaskaSitka,Alaska,Sitka,2022-04-28 09:13:11,2020-04-26,0.045277893604748334,0.07904999363740257,0.14686495610836414,,,,,,,,,,,,
2220,0,USAlaskaSitka,Alaska,Sitka,2022-04-28 09:13:11,2020-04-27,0.045277893604748334,0.07904999363740257,0.14686495610836414,,,,,,,,,,,,
2220,0,USAlaskaSitka,Alaska,Sitka,2022-04-28 09:13:11,2020-04-28,0.045277893604748334,0.07904999363740257,0.14686495610836414,,,,,,,,,,,,
2220,0,USAlaskaSitka,Alaska,Sitka,2022-04-28 09:13:11,2020-04-29,0.045277893604748334,0.07904999363740257,0.14686495610836414,,,,,,,,,,,,
2220,0,USAlaskaSitka,Alaska,Sitka,2022-04-28 09:13:11,2020-04-30,0,0,0,,,,,,,,,,,,
2220,0,USAlaskaSitka,Alaska,Sitka,2022-04-28 09:13:11,2020-05-01,0,0,0,,,,,,,,,,,,
2220,0,USAlaskaSitka,Alaska,Sitka,2022-04-28 09:13:11,2020-05-02,0,0,0,,,,,,,,,,,,
2220,0,USAlaskaSitka,Alaska,Sitka,2022-04-28 09:13:11,2020-05-03,0,0,0,,,,,,,,,,,,
2220,0,USAlaskaSitka,Alaska,Sitka,2022-04-28 09:13:11,2020-05-04,0,0,0,,,,,,,,,,,,
2220,0,USAlaskaSitka,Alaska,Sitka,2022-04-28 09:13:11,2020-05-05,0,0,0,,,,,,,,,,,,
2220,0,USAlaskaSitka,Alaska,Sitka,2022-04-28 09:13:11,2020-05-06,0,0,0,,,,,,,,,,,,
2220,0,USAlaskaSitka,Alaska,Sitka,2022-04-28 09:13:11,2020-05-07,0,0,0,,,,,,,,,,,,
2220,0,USAlaskaSitka,Alaska,Sitka,2022-04-28 09:13:11,2020-05-08,0,0,0,,,,,,,,,,,,
2220,0,USAlaskaSitka,Alaska,Sitka,2022-04-28 09:13:11,2020-05-09,0,0,0,,,,,,,,,,,,
2220,0,USAlaskaSitka,Alaska,Sitka,2022-04-28 09:13:11,2020-05-10,0,0,0,,,,,,,,,,,,
2220,0,USAlaskaSitka,Alaska,Sitka,2022-04-28 09:13:11,2020-05-11,0,0,0,,,,,,,,,,,,
2220,0,USAlaskaSitka,Alaska,Sitka,2022-04-28 09:13:11,2020-05-12,0,0,0,,,,,,,,,,,,
2220,0,USAlaskaSitka,Alaska,Sitka,2022-04-28 09:13:11,2020-05-13,0,0,0,,,,,,,,,,,,
2220,0,USAlaskaSitka,Alaska,Sitka,2022-04-28 09:13:11,2020-05-14,0,0,0,,,,,,,,,,,,
2220,0,USAlaskaSitka,Alaska,Sitka,2022-04-28 09:13:11,2020-05-15,0,0,0,,,,,,,,,,,,
2220,0,USAlaskaSitka,Alaska,Sitka,2022-04-28 09:13:11,2020-05-16,0,0,0,,,,,,,,,,,,
2220,0,USAlaskaSitka,Alaska,Sitka,2022-04-28 09:13:11,2020-05-17,0,0,0,,,,,,,,,,,,
2220,0,USAlaskaSitka,Alaska,Sitka,2022-04-28 09:13:11,2020-05-18,0,0,0,,,,,,,,,,,,
2220,0,USAlaskaSitka,Alaska,Sitka,2022-04-28 09:13:11,2020-05-19,0,0,0,,,,,,,,,,,,
2220,0,USAlaskaSitka,Alaska,Sitka,2022-04-28 09:13:11,2020-05-20,0,0,0,,,,,,,,,,,,
2220,0,USAlaskaSitka,Alaska,Sitka,2022-04-28 09:13:11,2020-05-21,0.03394387997685918,0.045578279460981815,0.0633183371044597,,,,,,,,,,,,
2220,0,USAlaskaSitka,Alaska,Sitka,2022-04-28 09:13:11,2020-05-22,0.03394387997685918,0.045578279460981815,0.0633183371044597,,,,,,,,,,,,
2220,0,USAlaskaSitka,Alaska,Sitka,2022-04-28 09:13:11,2020-05-23,0.03394387997685918,0.045578279460981815,0.0633183371044597,,,,,,,,,,,,
2220,0,USAlaskaSitka,Alaska,Sitka,2022-04-28 09:13:11,2020-05-24,0.03394387997685918,0.045578279460981815,0.0633183371044597,,,,,,,,,,,,
2220,0,USAlaskaSitka,Alaska,Sitka,2022-04-28 09:13:11,2020-05-25,0.03394387997685918,0.045578279460981815,0.0633183371044597,,,,,,,,,,,,
2220,0,USAlaskaSitka,Alaska,Sitka,2022-04-28 09:13:11,2020-05-26,0.03394387997685918,0.045578279460981815,0.0633183371044597,,,,,,,,,,,,
2220,0,USAlaskaSitka,Alaska,Sitka,2022-04-28 09:13:11,2020-05-27,0.03394387997685918,0.045578279460981815,0.0633183371044597,,,,,,,,,,,,
2220,0,USAlaskaSitka,Alaska,Sitka,2022-04-28 09:13:11,2020-05-28,0,0,0,,,,,,,,,,,,
2220,0,USAlaskaSitka,Alaska,Sitka,2022-04-28 09:13:11,2020-05-29,0,0,0,,,,,,,,,,,,
2220,0,USAlaskaSitka,Alaska,Sitka,2022-04-28 09:13:11,2020-05-30,0,0,0,,,,,,,,,,,,
2220,0,USAlaskaSitka,Alaska,Sitka,2022-04-28 09:13:11,2020-05-31,0,0,0,,,,,,,,,,,,
2220,0,USAlaskaSitka,Alaska,Sitka,2022-04-28 09:13:11,2020-06-01,0,0,0,,,,,,,,,,,,
2220,0,USAlaskaSitka,Alaska,Sitka,2022-04-28 09:13:11,2020-06-02,0,0,0,,,,,,,,,,,,
2220,0,USAlaskaSitka,Alaska,Sitka,2022-04-28 09:13:11,2020-06-03,0,0,0,,,,,,,,,,,,
2220,0,USAlaskaSitka,Alaska,Sitka,2022-04-28 09:13:11,2020-06-04,0.08665447389084188,0.14529854537603443,0.25844052767108994,,,,,,,,,,,,
2220,0,USAlaskaSitka,Alaska,Sitka,2022-04-28 09:13:11,2020-06-05,0.08665447389084188,0.14529854537603443,0.25844052767108994,,,,,,,,,,,,
2220,0,USAlaskaSitka,Alaska,Sitka,2022-04-28 09:13:11,2020-06-06,0.08665447389084188,0.14529854537603443,0.25844052767108994,,,,,,,,,,,,
2220,0,USAlaskaSitka,Alaska,Sitka,2022-04-28 09:13:11,2020-06-07,0.08665447389084188,0.14529854537603443,0.25844052767108994,,,,,,,,,,,,
2220,0,USAlaskaSitka,Alaska,Sitka,2022-04-28 09:13:11,2020-06-08,0.08665447389084188,0.14529854537603443,0.25844052767108994,,,,,,,,,,,,
2220,0,USAlaskaSitka,Alaska,Sitka,2022-04-28 09:13:11,2020-06-09,0.08665447389084188,0.14529854537603443,0.25844052767108994,,,,,,,,,,,,
2220,0,USAlaskaSitka,Alaska,Sitka,2022-04-28 09:13:11,2020-06-10,0.08665447389084188,0.14529854537603443,0.25844052767108994,,,,,,,,,,,,
2220,0,USAlaskaSitka,Alaska,Sitka,2022-04-28 09:13:11,2020-06-11,0.21898272216557452,0.27363700991788126,0.35016482945220123,,,,,,,,,,,,
2220,0,USAlaskaSitka,Alaska,Sitka,2022-04-28 09:13:11,2020-06-12,0.21898272216557452,0.27363700991788126,0.35016482945220123,,,,,,,,,,,,
2220,0,USAlaskaSitka,Alaska,Sitka,2022-04-28 09:13:11,2020-06-13,0.21898272216557452,0.27363700991788126,0.35016482945220123,,,,,,,,,,,,
2220,0,USAlaskaSitka,Alaska,Sitka,2022-04-28 09:13:11,2020-06-14,0.21898272216557452,0.27363700991788126,0.35016482945220123,,,,,,,,,,,,
2220,0,USAlaskaSitka,Alaska,Sitka,2022-04-28 09:13:11,2020-06-15,0.21898272216557452,0.27363700991788126,0.35016482945220123,,,,,,,,,,,,
2220,0,USAlaskaSitka,Alaska,Sitka,2022-04-28 09:13:11,2020-06-16,0.21898272216557452,0.27363700991788126,0.35016482945220123,,,,,,,,,,,,
2220,0,USAlaskaSitka,Alaska,Sitka,2022-04-28 09:13:11,2020-06-17,0.21898272216557452,0.27363700991788126,0.35016482945220123,,,,,,,,,,,,
2220,0,USAlaskaSitka,Alaska,Sitka,2022-04-28 09:13:11,2020-06-18,0.07958370623177877,0.12342265027516898,0.20155902269086848,,,,,,,,,,,,
2220,0,USAlaskaSitka,Alaska,Sitka,2022-04-28 09:13:11,2020-06-19,0.07958370623177877,0.12342265027516898,0.20155902269086848,,,,,,,,,,,,
2220,0,USAlaskaSitka,Alaska,Sitka,2022-04-28 09:13:11,2020-06-20,0.07958370623177877,0.12342265027516898,0.20155902269086848,,,,,,,,,,,,
2220,0,USAlaskaSitka,Alaska,Sitka,2022-04-28 09:13:11,2020-06-21,0.07958370623177877,0.12342265027516898,0.20155902269086848,,,,,,,,,,,,
2220,0,USAlaskaSitka,Alaska,Sitka,2022-04-28 09:13:11,2020-06-22,0.07958370623177877,0.12342265027516898,0.20155902269086848,,,,,,,,,,,,
2220,0,USAlaskaSitka,Alaska,Sitka,2022-04-28 09:13:11,2020-06-23,0.07958370623177877,0.12342265027516898,0.20155902269086848,,,,,,,,,,,,
2220,0,USAlaskaSitka,Alaska,Sitka,2022-04-28 09:13:11,2020-06-24,0.07958370623177877,0.12342265027516898,0.20155902269086848,,,,,,,,,,,,
2220,0,USAlaskaSitka,Alaska,Sitka,2022-04-28 09:13:11,2020-06-25,0.15269402162663806,0.22798821995838411,0.3569700029736819,,,,,,,,,,,,
2220,0,USAlaskaSitka,Alaska,Sitka,2022-04-28 09:13:11,2020-06-26,0.15269402162663806,0.22798821995838411,0.3569700029736819,,,,,,,,,,,,
2220,0,USAlaskaSitka,Alaska,Sitka,2022-04-28 09:13:11,2020-06-27,0.15269402162663806,0.22798821995838411,0.3569700029736819,,,,,,,,,,,,
2220,0,USAlaskaSitka,Alaska,Sitka,2022-04-28 09:13:11,2020-06-28,0.15269402162663806,0.22798821995838411,0.3569700029736819,,,,,,,,,,,,
2220,0,USAlaskaSitka,Alaska,Sitka,2022-04-28 09:13:11,2020-06-29,0.15269402162663806,0.22798821995838411,0.3569700029736819,,,,,,,,,,,,
2220,0,USAlaskaSitka,Alaska,Sitka,2022-04-28 09:13:11,2020-06-30,0.15269402162663806,0.22798821995838411,0.3569700029736819,,,,,,,,,,,,
2220,0,USAlaskaSitka,Alaska,Sitka,2022-04-28 09:13:11,2020-07-01,0.15269402162663806,0.22798821995838411,0.3569700029736819,,,,,,,,,,,,
2220,0,USAlaskaSitka,Alaska,Sitka,2022-04-28 09:13:11,2020-07-02,0.0543133563974209,0.11193235231936612,0.24759625491871906,,,,,,,,,,,,
2220,0,USAlaskaSitka,Alaska,Sitka,2022-04-28 09:13:11,2020-07-03,0.0543133563974209,0.11193235231936612,0.24759625491871906,,,,,,,,,,,,
2220,0,USAlaskaSitka,Alaska,Sitka,2022-04-28 09:13:11,2020-07-04,0.0543133563974209,0.11193235231936612,0.24759625491871906,,,,,,,,,,,,
2220,0,USAlaskaSitka,Alaska,Sitka,2022-04-28 09:13:11,2020-07-05,0.0543133563974209,0.11193235231936612,0.24759625491871906,,,,,,,,,,,,
2220,0,USAlaskaSitka,Alaska,Sitka,2022-04-28 09:13:11,2020-07-06,0.0543133563974209,0.11193235231936612,0.24759625491871906,,,,,,,,,,,,
2220,0,USAlaskaSitka,Alaska,Sitka,2022-04-28 09:13:11,2020-07-07,0.0543133563974209,0.11193235231936612,0.24759625491871906,,,,,,,,,,,,
2220,0,USAlaskaSitka,Alaska,Sitka,2022-04-28 09:13:11,2020-07-08,0.0543133563974209,0.11193235231936612,0.24759625491871906,,,,,,,,,,,,
2220,0,USAlaskaSitka,Alaska,Sitka,2022-04-28 09:13:11,2020-07-09,0.059544614358309184,0.13329111982810665,0.32088570868804,,,,,,,,,,,,
2220,0,USAlaskaSitka,Alaska,Sitka,2022-04-28 09:13:11,2020-07-10,0.059544614358309184,0.13329111982810665,0.32088570868804,,,,,,,,,,,,
2220,0,USAlaskaSitka,Alaska,Sitka,2022-04-28 09:13:11,2020-07-11,0.059544614358309184,0.13329111982810665,0.32088570868804,,,,,,,,,,,,
2220,0,USAlaskaSitka,Alaska,Sitka,2022-04-28 09:13:11,2020-07-12,0.059544614358309184,0.13329111982810665,0.32088570868804,,,,,,,,,,,,
2220,0,USAlaskaSitka,Alaska,Sitka,2022-04-28 09:13:11,2020-07-13,0.059544614358309184,0.13329111982810665,0.32088570868804,,,,,,,,,,,,
2220,0,USAlaskaSitka,Alaska,Sitka,2022-04-28 09:13:11,2020-07-14,0.059544614358309184,0.13329111982810665,0.32088570868804,,,,,,,,,,,,
2220,0,USAlaskaSitka,Alaska,Sitka,2022-04-28 09:13:11,2020-07-15,0.059544614358309184,0.13329111982810665,0.32088570868804,,,,,,,,,,,,
2220,0,USAlaskaSitka,Alaska,Sitka,2022-04-28 09:13:11,2020-07-16,0.30972948875021666,0.4684562797082886,0.744074896111641,,,,,,,,,,,,
2220,0,USAlaskaSitka,Alaska,Sitka,2022-04-28 09:13:11,2020-07-17,0.30972948875021666,0.4684562797082886,0.744074896111641,,,,,,,,,,,,
2220,0,USAlaskaSitka,Alaska,Sitka,2022-04-28 09:13:11,2020-07-18,0.30972948875021666,0.4684562797082886,0.744074896111641,,,,,,,,,,,,
2220,0,USAlaskaSitka,Alaska,Sitka,2022-04-28 09:13:11,2020-07-19,0.30972948875021666,0.4684562797082886,0.744074896111641,,,,,,,,,,,,
2220,0,USAlaskaSitka,Alaska,Sitka,2022-04-28 09:13:11,2020-07-20,0.30972948875021666,0.4684562797082886,0.744074896111641,,,,,,,,,,,,
2220,0,USAlaskaSitka,Alaska,Sitka,2022-04-28 09:13:11,2020-07-21,0.30972948875021666,0.4684562797082886,0.744074896111641,,,,,,,,,,,,
2220,0,USAlaskaSitka,Alaska,Sitka,2022-04-28 09:13:11,2020-07-22,0.30972948875021666,0.4684562797082886,0.744074896111641,,,,,,,,,,,,
2220,0,USAlaskaSitka,Alaska,Sitka,2022-04-28 09:13:11,2020-07-23,0.15234858726482317,0.29539505661343396,0.6132949843102398,,,,,,,,,,,,
2220,0,USAlaskaSitka,Alaska,Sitka,2022-04-28 09:13:11,2020-07-24,0.15234858726482317,0.29539505661343396,0.6132949843102398,,,,,,,,,,,,
2220,0,USAlaskaSitka,Alaska,Sitka,2022-04-28 09:13:11,2020-07-25,0.15234858726482317,0.29539505661343396,0.6132949843102398,,,,,,,,,,,,
2220,0,USAlaskaSitka,Alaska,Sitka,2022-04-28 09:13:11,2020-07-26,0.15234858726482317,0.29539505661343396,0.6132949843102398,,,,,,,,,,,,
2220,0,USAlaskaSitka,Alaska,Sitka,2022-04-28 09:13:11,2020-07-27,0.15234858726482317,0.29539505661343396,0.6132949843102398,,,,,,,,,,,,
2220,0,USAlaskaSitka,Alaska,Sitka,2022-04-28 09:13:11,2020-07-28,0.15234858726482317,0.29539505661343396,0.6132949843102398,,,,,,,,,,,,
2220,0,USAlaskaSitka,Alaska,Sitka,2022-04-28 09:13:11,2020-07-29,0.15234858726482317,0.29539505661343396,0.6132949843102398,,,,,,,,,,,,
2220,0,USAlaskaSitka,Alaska,Sitka,2022-04-28 09:13:11,2020-07-30,0.22629108460413982,0.3949207732952989,0.7333995210419398,,,,,,,,,,,,
2220,0,USAlaskaSitka,Alaska,Sitka,2022-04-28 09:13:11,2020-07-31,0.22629108460413982,0.3949207732952989,0.7333995210419398,,,,,,,,,,,,
2220,0,USAlaskaSitka,Alaska,Sitka,2022-04-28 09:13:11,2020-08-01,0.22629108460413982,0.3949207732952989,0.7333995210419398,,,,,,,,,,,,
2220,0,USAlaskaSitka,Alaska,Sitka,2022-04-28 09:13:11,2020-08-02,0.22629108460413982,0.3949207732952989,0.7333995210419398,,,,,,,,,,,,
2220,0,USAlaskaSitka,Alaska,Sitka,2022-04-28 09:13:11,2020-08-03,0.22629108460413982,0.3949207732952989,0.7333995210419398,,,,,,,,,,,,
2220,0,USAlaskaSitka,Alaska,Sitka,2022-04-28 09:13:11,2020-08-04,0.22629108460413982,0.3949207732952989,0.7333995210419398,,,,,,,,,,,,
2220,0,USAlaskaSitka,Alaska,Sitka,2022-04-28 09:13:11,2020-08-05,0.22629108460413982,0.3949207732952989,0.7333995210419398,,,,,,,,,,,,
2220,0,USAlaskaSitka,Alaska,Sitka,2022-04-28 09:13:11,2020-08-06,0.23598234811534397,0.3620883228952083,0.5843785726003357,,,,,,,,,,,,
2220,0,USAlaskaSitka,Alaska,Sitka,2022-04-28 09:13:11,2020-08-07,0.23598234811534397,0.3620883228952083,0.5843785726003357,,,,,,,,,,,,
2220,0,USAlaskaSitka,Alaska,Sitka,2022-04-28 09:13:11,2020-08-08,0.23598234811534397,0.3620883228952083,0.5843785726003357,,,,,,,,,,,,
2220,0,USAlaskaSitka,Alaska,Sitka,2022-04-28 09:13:11,2020-08-09,0.23598234811534397,0.3620883228952083,0.5843785726003357,,,,,,,,,,,,
2220,0,USAlaskaSitka,Alaska,Sitka,2022-04-28 09:13:11,2020-08-10,0.23598234811534397,0.3620883228952083,0.5843785726003357,,,,,,,,,,,,
2220,0,USAlaskaSitka,Alaska,Sitka,2022-04-28 09:13:11,2020-08-11,0.23598234811534397,0.3620883228952083,0.5843785726003357,,,,,,,,,,,,
2220,0,USAlaskaSitka,Alaska,Sitka,2022-04-28 09:13:11,2020-08-12,0.23598234811534397,0.3620883228952083,0.5843785726003357,,,,,,,,,,,,
2220,0,USAlaskaSitka,Alaska,Sitka,2022-04-28 09:13:11,2020-08-13,0.3099477014167802,0.46908801267481826,0.7456111621425426,,,,,,,,,,,,
2220,0,USAlaskaSitka,Alaska,Sitka,2022-04-28 09:13:11,2020-08-14,0.3099477014167802,0.46908801267481826,0.7456111621425426,,,,,,,,,,,,
2220,0,USAlaskaSitka,Alaska,Sitka,2022-04-28 09:13:11,2020-08-15,0.3099477014167802,0.46908801267481826,0.7456111621425426,,,,,,,,,,,,
2220,0,USAlaskaSitka,Alaska,Sitka,2022-04-28 09:13:11,2020-08-16,0.3099477014167802,0.46908801267481826,0.7456111621425426,,,,,,,,,,,,
2220,0,USAlaskaSitka,Alaska,Sitka,2022-04-28 09:13:11,2020-08-17,0.3099477014167802,0.46908801267481826,0.7456111621425426,,,,,,,,,,,,
2220,0,USAlaskaSitka,Alaska,Sitka,2022-04-28 09:13:11,2020-08-18,0.3099477014167802,0.46908801267481826,0.7456111621425426,,,,,,,,,,,,
2220,0,USAlaskaSitka,Alaska,Sitka,2022-04-28 09:13:11,2020-08-19,0.3099477014167802,0.46908801267481826,0.7456111621425426,,,,,,,,,,,,
2220,0,USAlaskaSitka,Alaska,Sitka,2022-04-28 09:13:11,2020-08-20,0.05967968052868132,0.13386428947828508,0.32292885374013136,,,,,,,,,,,,
2220,0,USAlaskaSitka,Alaska,Sitka,2022-04-28 09:13:11,2020-08-21,0.05967968052868132,0.13386428947828508,0.32292885374013136,,,,,,,,,,,,
2220,0,USAlaskaSitka,Alaska,Sitka,2022-04-28 09:13:11,2020-08-22,0.05967968052868132,0.13386428947828508,0.32292885374013136,,,,,,,,,,,,
2220,0,USAlaskaSitka,Alaska,Sitka,2022-04-28 09:13:11,2020-08-23,0.05967968052868132,0.13386428947828508,0.32292885374013136,,,,,,,,,,,,
2220,0,USAlaskaSitka,Alaska,Sitka,2022-04-28 09:13:11,2020-08-24,0.05967968052868132,0.13386428947828508,0.32292885374013136,,,,,,,,,,,,
2220,0,USAlaskaSitka,Alaska,Sitka,2022-04-28 09:13:11,2020-08-25,0.05967968052868132,0.13386428947828508,0.32292885374013136,,,,,,,,,,,,
2220,0,USAlaskaSitka,Alaska,Sitka,2022-04-28 09:13:11,2020-08-26,0.05967968052868132,0.13386428947828508,0.32292885374013136,,,,,,,,,,,,
2220,0,USAlaskaSitka,Alaska,Sitka,2022-04-28 09:13:11,2020-08-27,0.17864122308808356,0.3079833652341922,0.5645030214861074,,,,,,,,,,,,
2220,0,USAlaskaSitka,Alaska,Sitka,2022-04-28 09:13:11,2020-08-28,0.17864122308808356,0.3079833652341922,0.5645030214861074,,,,,,,,,,,,
2220,0,USAlaskaSitka,Alaska,Sitka,2022-04-28 09:13:11,2020-08-29,0.17864122308808356,0.3079833652341922,0.5645030214861074,,,,,,,,,,,,
2220,0,USAlaskaSitka,Alaska,Sitka,2022-04-28 09:13:11,2020-08-30,0.17864122308808356,0.3079833652341922,0.5645030214861074,,,,,,,,,,,,
2220,0,USAlaskaSitka,Alaska,Sitka,2022-04-28 09:13:11,2020-08-31,0.17864122308808356,0.3079833652341922,0.5645030214861074,,,,,,,,,,,,
2220,0,USAlaskaSitka,Alaska,Sitka,2022-04-28 09:13:11,2020-09-01,0.17864122308808356,0.3079833652341922,0.5645030214861074,,,,,,,,,,,,
2220,0,USAlaskaSitka,Alaska,Sitka,2022-04-28 09:13:11,2020-09-02,0.17864122308808356,0.3079833652341922,0.5645030214861074,,,,,,,,,,,,
2220,0,USAlaskaSitka,Alaska,Sitka,2022-04-28 09:13:11,2020-09-03,0.06466014719445896,0.15574433138491423,0.4037011974215494,,,,,,,,,,,,
2220,0,USAlaskaSitka,Alaska,Sitka,2022-04-28 09:13:11,2020-09-04,0.06466014719445896,0.15574433138491423,0.4037011974215494,,,,,,,,,,,,
2220,0,USAlaskaSitka,Alaska,Sitka,2022-04-28 09:13:11,2020-09-05,0.06466014719445896,0.15574433138491423,0.4037011974215494,,,,,,,,,,,,
2220,0,USAlaskaSitka,Alaska,Sitka,2022-04-28 09:13:11,2020-09-06,0.06466014719445896,0.15574433138491423,0.4037011974215494,,,,,,,,,,,,
2220,0,USAlaskaSitka,Alaska,Sitka,2022-04-28 09:13:11,2020-09-07,0.06466014719445896,0.15574433138491423,0.4037011974215494,,,,,,,,,,,,
2220,0,USAlaskaSitka,Alaska,Sitka,2022-04-28 09:13:11,2020-09-08,0.06466014719445896,0.15574433138491423,0.4037011974215494,,,,,,,,,,,,
2220,0,USAlaskaSitka,Alaska,Sitka,2022-04-28 09:13:11,2020-09-09,0.06466014719445896,0.15574433138491423,0.4037011974215494,,,,,,,,,,,,
2220,0,USAlaskaSitka,Alaska,Sitka,2022-04-28 09:13:11,2020-09-10,0.06347180695087826,0.1503931536789331,0.3834595649383286,,,,,,,,,,,,
2220,0,USAlaskaSitka,Alaska,Sitka,2022-04-28 09:13:11,2020-09-11,0.06347180695087826,0.1503931536789331,0.3834595649383286,,,,,,,,,,,,
2220,0,USAlaskaSitka,Alaska,Sitka,2022-04-28 09:13:11,2020-09-12,0.06347180695087826,0.1503931536789331,0.3834595649383286,,,,,,,,,,,,
2220,0,USAlaskaSitka,Alaska,Sitka,2022-04-28 09:13:11,2020-09-13,0.06347180695087826,0.1503931536789331,0.3834595649383286,,,,,,,,,,,,
2220,0,USAlaskaSitka,Alaska,Sitka,2022-04-28 09:13:11,2020-09-14,0.06347180695087826,0.1503931536789331,0.3834595649383286,,,,,,,,,,,,
2220,0,USAlaskaSitka,Alaska,Sitka,2022-04-28 09:13:11,2020-09-15,0.06347180695087826,0.1503931536789331,0.3834595649383286,,,,,,,,,,,,
2220,0,USAlaskaSitka,Alaska,Sitka,2022-04-28 09:13:11,2020-09-16,0.06347180695087826,0.1503931536789331,0.3834595649383286,,,,,,,,,,,,
2220,0,USAlaskaSitka,Alaska,Sitka,2022-04-28 09:13:11,2020-09-17,0.18955912261766833,0.34506129819449427,0.6703000301944354,,,,,,,,,,,,
2220,0,USAlaskaSitka,Alaska,Sitka,2022-04-28 09:13:11,2020-09-18,0.18955912261766833,0.34506129819449427,0.6703000301944354,,,,,,,,,,,,
2220,0,USAlaskaSitka,Alaska,Sitka,2022-04-28 09:13:11,2020-09-19,0.18955912261766833,0.34506129819449427,0.6703000301944354,,,,,,,,,,,,
2220,0,USAlaskaSitka,Alaska,Sitka,2022-04-28 09:13:11,2020-09-20,0.18955912261766833,0.34506129819449427,0.6703000301944354,,,,,,,,,,,,
2220,0,USAlaskaSitka,Alaska,Sitka,2022-04-28 09:13:11,2020-09-21,0.18955912261766833,0.34506129819449427,0.6703000301944354,,,,,,,,,,,,
2220,0,USAlaskaSitka,Alaska,Sitka,2022-04-28 09:13:11,2020-09-22,0.18955912261766833,0.34506129819449427,0.6703000301944354,,,,,,,,,,,,
2220,0,USAlaskaSitka,Alaska,Sitka,2022-04-28 09:13:11,2020-09-23,0.18955912261766833,0.34506129819449427,0.6703000301944354,,,,,,,,,,,,
2220,0,USAlaskaSitka,Alaska,Sitka,2022-04-28 09:13:11,2020-09-24,0.3677877387135148,0.5844659037621028,0.9804648423523873,,,,,,,,,,,,
2220,0,USAlaskaSitka,Alaska,Sitka,2022-04-28 09:13:11,2020-09-25,0.3677877387135148,0.5844659037621028,0.9804648423523873,,,,,,,,,,,,
2220,0,USAlaskaSitka,Alaska,Sitka,2022-04-28 09:13:11,2020-09-26,0.3677877387135148,0.5844659037621028,0.9804648423523873,,,,,,,,,,,,
2220,0,USAlaskaSitka,Alaska,Sitka,2022-04-28 09:13:11,2020-09-27,0.3677877387135148,0.5844659037621028,0.9804648423523873,,,,,,,,,,,,
2220,0,USAlaskaSitka,Alaska,Sitka,2022-04-28 09:13:11,2020-09-28,0.3677877387135148,0.5844659037621028,0.9804648423523873,,,,,,,,,,,,
2220,0,USAlaskaSitka,Alaska,Sitka,2022-04-28 09:13:11,2020-09-29,0.3677877387135148,0.5844659037621028,0.9804648423523873,,,,,,,,,,,,
2220,0,USAlaskaSitka,Alaska,Sitka,2022-04-28 09:13:11,2020-09-30,0.3677877387135148,0.5844659037621028,0.9804648423523873,,,,,,,,,,,,
2220,0,USAlaskaSitka,Alaska,Sitka,2022-04-28 09:13:11,2020-10-01,0.0708435711944504,0.1848790978702567,0.5190650282242393,,,,,,,,,,,,
2220,0,USAlaskaSitka,Alaska,Sitka,2022-04-28 09:13:11,2020-10-02,0.0708435711944504,0.1848790978702567,0.5190650282242393,,,,,,,,,,,,
2220,0,USAlaskaSitka,Alaska,Sitka,2022-04-28 09:13:11,2020-10-03,0.0708435711944504,0.1848790978702567,0.5190650282242393,,,,,,,,,,,,
2220,0,USAlaskaSitka,Alaska,Sitka,2022-04-28 09:13:11,2020-10-04,0.0708435711944504,0.1848790978702567,0.5190650282242393,,,,,,,,,,,,
2220,0,USAlaskaSitka,Alaska,Sitka,2022-04-28 09:13:11,2020-10-05,0.0708435711944504,0.1848790978702567,0.5190650282242393,,,,,,,,,,,,
2220,0,USAlaskaSitka,Alaska,Sitka,2022-04-28 09:13:11,2020-10-06,0.0708435711944504,0.1848790978702567,0.5190650282242393,,,,,,,,,,,,
2220,0,USAlaskaSitka,Alaska,Sitka,2022-04-28 09:13:11,2020-10-07,0.0708435711944504,0.1848790978702567,0.5190650282242393,,,,,,,,,,,,
2220,0,USAlaskaSitka,Alaska,Sitka,2022-04-28 09:13:11,2020-10-08,0.0726421838561749,0.1937528140001376,0.5558412553077089,,,,,,,,,,,,
2220,0,USAlaskaSitka,Alaska,Sitka,2022-04-28 09:13:11,2020-10-09,0.0726421838561749,0.1937528140001376,0.5558412553077089,,,,,,,,,,,,
2220,0,USAlaskaSitka,Alaska,Sitka,2022-04-28 09:13:11,2020-10-10,0.0726421838561749,0.1937528140001376,0.5558412553077089,,,,,,,,,,,,
2220,0,USAlaskaSitka,Alaska,Sitka,2022-04-28 09:13:11,2020-10-11,0.0726421838561749,0.1937528140001376,0.5558412553077089,,,,,,,,,,,,
2220,0,USAlaskaSitka,Alaska,Sitka,2022-04-28 09:13:11,2020-10-12,0.0726421838561749,0.1937528140001376,0.5558412553077089,,,,,,,,,,,,
2220,0,USAlaskaSitka,Alaska,Sitka,2022-04-28 09:13:11,2020-10-13,0.0726421838561749,0.1937528140001376,0.5558412553077089,,,,,,,,,,,,
2220,0,USAlaskaSitka,Alaska,Sitka,2022-04-28 09:13:11,2020-10-14,0.0726421838561749,0.1937528140001376,0.5558412553077089,,,,,,,,,,,,
2220,0,USAlaskaSitka,Alaska,Sitka,2022-04-28 09:13:11,2020-10-15,0.07390156628454689,0.20007135712476454,0.582470712263482,,,,,,,,,,,,
2220,0,USAlaskaSitka,Alaska,Sitka,2022-04-28 09:13:11,2020-10-16,0.07390156628454689,0.20007135712476454,0.582470712263482,,,,,,,,,,,,
2220,0,USAlaskaSitka,Alaska,Sitka,2022-04-28 09:13:11,2020-10-17,0.07390156628454689,0.20007135712476454,0.582470712263482,,,,,,,,,,,,
2220,0,USAlaskaSitka,Alaska,Sitka,2022-04-28 09:13:11,2020-10-18,0.07390156628454689,0.20007135712476454,0.582470712263482,,,,,,,,,,,,
2220,0,USAlaskaSitka,Alaska,Sitka,2022-04-28 09:13:11,2020-10-19,0.07390156628454689,0.20007135712476454,0.582470712263482,,,,,,,,,,,,
2220,0,USAlaskaSitka,Alaska,Sitka,2022-04-28 09:13:11,2020-10-20,0.07390156628454689,0.20007135712476454,0.582470712263482,,,,,,,,,,,,
2220,0,USAlaskaSitka,Alaska,Sitka,2022-04-28 09:13:11,2020-10-21,0.07390156628454689,0.20007135712476454,0.582470712263482,,,,,,,,,,,,
2220,0,USAlaskaSitka,Alaska,Sitka,2022-04-28 09:13:11,2020-10-22,0.18606527083431745,0.431921347148763,1.0787617861717047,,,,,,,,,,,,
2220,0,USAlaskaSitka,Alaska,Sitka,2022-04-28 09:13:11,2020-10-23,0.18606527083431745,0.431921347148763,1.0787617861717047,,,,,,,,,,,,
2220,0,USAlaskaSitka,Alaska,Sitka,2022-04-28 09:13:11,2020-10-24,0.18606527083431745,0.431921347148763,1.0787617861717047,,,,,,,,,,,,
2220,0,USAlaskaSitka,Alaska,Sitka,2022-04-28 09:13:11,2020-10-25,0.18606527083431745,0.431921347148763,1.0787617861717047,,,,,,,,,,,,
2220,0,USAlaskaSitka,Alaska,Sitka,2022-04-28 09:13:11,2020-10-26,0.18606527083431745,0.431921347148763,1.0787617861717047,,,,,,,,,,,,
2220,0,USAlaskaSitka,Alaska,Sitka,2022-04-28 09:13:11,2020-10-27,0.18606527083431745,0.431921347148763,1.0787617861717047,,,,,,,,,,,,
2220,0,USAlaskaSitka,Alaska,Sitka,2022-04-28 09:13:11,2020-10-28,0.18606527083431745,0.431921347148763,1.0787617861717047,,,,,,,,,,,,
2220,0,USAlaskaSitka,Alaska,Sitka,2022-04-28 09:13:11,2020-10-29,0.5814335592288996,1.0037560468696847,1.8424424552075749,,,,,,,,,,,,
2220,0,USAlaskaSitka,Alaska,Sitka,2022-04-28 09:13:11,2020-10-30,0.5814335592288996,1.0037560468696847,1.8424424552075749,,,,,,,,,,,,
2220,0,USAlaskaSitka,Alaska,Sitka,2022-04-28 09:13:11,2020-10-31,0.5814335592288996,1.0037560468696847,1.8424424552075749,,,,,,,,,,,,
2220,0,USAlaskaSitka,Alaska,Sitka,2022-04-28 09:13:11,2020-11-01,0.5814335592288996,1.0037560468696847,1.8424424552075749,,,,,,,,,,,,
2220,0,USAlaskaSitka,Alaska,Sitka,2022-04-28 09:13:11,2020-11-02,0.5814335592288996,1.0037560468696847,1.8424424552075749,,,,,,,,,,,,
2220,0,USAlaskaSitka,Alaska,Sitka,2022-04-28 09:13:11,2020-11-03,0.5814335592288996,1.0037560468696847,1.8424424552075749,,,,,,,,,,,,
2220,0,USAlaskaSitka,Alaska,Sitka,2022-04-28 09:13:11,2020-11-04,0.5814335592288996,1.0037560468696847,1.8424424552075749,,,,,,,,,,,,
2220,0,USAlaskaSitka,Alaska,Sitka,2022-04-28 09:13:11,2020-11-05,0.8158407391777222,1.3567136287929955,2.391641741272433,,,,,,,,,,,,
2220,0,USAlaskaSitka,Alaska,Sitka,2022-04-28 09:13:11,2020-11-06,0.8158407391777222,1.3567136287929955,2.391641741272433,,,,,,,,,,,,
2220,0,USAlaskaSitka,Alaska,Sitka,2022-04-28 09:13:11,2020-11-07,0.8158407391777222,1.3567136287929955,2.391641741272433,,,,,,,,,,,,
2220,0,USAlaskaSitka,Alaska,Sitka,2022-04-28 09:13:11,2020-11-08,0.8158407391777222,1.3567136287929955,2.391641741272433,,,,,,,,,,,,
2220,0,USAlaskaSitka,Alaska,Sitka,2022-04-28 09:13:11,2020-11-09,0.8158407391777222,1.3567136287929955,2.391641741272433,,,,,,,,,,,,
2220,0,USAlaskaSitka,Alaska,Sitka,2022-04-28 09:13:11,2020-11-10,0.8158407391777222,1.3567136287929955,2.391641741272433,,,,,,,,,,,,
2220,0,USAlaskaSitka,Alaska,Sitka,2022-04-28 09:13:11,2020-11-11,0.8158407391777222,1.3567136287929955,2.391641741272433,,,,,,,,,,,,
2220,0,USAlaskaSitka,Alaska,Sitka,2022-04-28 09:13:11,2020-11-12,1.13899750005657,1.7454434826251357,2.8130284784255584,,,,,,,,,,,,
2220,0,USAlaskaSitka,Alaska,Sitka,2022-04-28 09:13:11,2020-11-13,1.13899750005657,1.7454434826251357,2.8130284784255584,,,,,,,,,,,,
2220,0,USAlaskaSitka,Alaska,Sitka,2022-04-28 09:13:11,2020-11-14,1.13899750005657,1.7454434826251357,2.8130284784255584,,,,,,,,,,,,
2220,0,USAlaskaSitka,Alaska,Sitka,2022-04-28 09:13:11,2020-11-15,1.13899750005657,1.7454434826251357,2.8130284784255584,,,,,,,,,,,,
2220,0,USAlaskaSitka,Alaska,Sitka,2022-04-28 09:13:11,2020-11-16,1.13899750005657,1.7454434826251357,2.8130284784255584,,,,,,,,,,,,
2220,0,USAlaskaSitka,Alaska,Sitka,2022-04-28 09:13:11,2020-11-17,1.13899750005657,1.7454434826251357,2.8130284784255584,,,,,,,,,,,,
2220,0,USAlaskaSitka,Alaska,Sitka,2022-04-28 09:13:11,2020-11-18,1.13899750005657,1.7454434826251357,2.8130284784255584,,,,,,,,,,,,
2220,0,USAlaskaSitka,Alaska,Sitka,2022-04-28 09:13:11,2020-11-19,1.3667129111893903,1.9804415207401889,2.9987227883990113,,,,,,,,,,,,
2220,0,USAlaskaSitka,Alaska,Sitka,2022-04-28 09:13:11,2020-11-20,1.3667129111893903,1.9804415207401889,2.9987227883990113,,,,,,,,,,,,
2220,0,USAlaskaSitka,Alaska,Sitka,2022-04-28 09:13:11,2020-11-21,1.3667129111893903,1.9804415207401889,2.9987227883990113,,,,,,,,,,,,
2220,0,USAlaskaSitka,Alaska,Sitka,2022-04-28 09:13:11,2020-11-22,1.3667129111893903,1.9804415207401889,2.9987227883990113,,,,,,,,,,,,
2220,0,USAlaskaSitka,Alaska,Sitka,2022-04-28 09:13:11,2020-11-23,1.3667129111893903,1.9804415207401889,2.9987227883990113,,,,,,,,,,,,
2220,0,USAlaskaSitka,Alaska,Sitka,2022-04-28 09:13:11,2020-11-24,1.3667129111893903,1.9804415207401889,2.9987227883990113,,,,,,,,,,,,
2220,0,USAlaskaSitka,Alaska,Sitka,2022-04-28 09:13:11,2020-11-25,1.3667129111893903,1.9804415207401889,2.9987227883990113,,,,,,,,,,,,
2220,0,USAlaskaSitka,Alaska,Sitka,2022-04-28 09:13:11,2020-11-26,1.3590522672234004,2.1164315660911095,3.472131392662557,,,,,,,,,,,,
2220,0,USAlaskaSitka,Alaska,Sitka,2022-04-28 09:13:11,2020-11-27,1.3590522672234004,2.1164315660911095,3.472131392662557,,,,,,,,,,,,
2220,0,USAlaskaSitka,Alaska,Sitka,2022-04-28 09:13:11,2020-11-28,1.3590522672234004,2.1164315660911095,3.472131392662557,,,,,,,,,,,,
2220,0,USAlaskaSitka,Alaska,Sitka,2022-04-28 09:13:11,2020-11-29,1.3590522672234004,2.1164315660911095,3.472131392662557,,,,,,,,,,,,
2220,0,USAlaskaSitka,Alaska,Sitka,2022-04-28 09:13:11,2020-11-30,1.3590522672234004,2.1164315660911095,3.472131392662557,,,,,,,,,,,,
2220,0,USAlaskaSitka,Alaska,Sitka,2022-04-28 09:13:11,2020-12-01,1.3590522672234004,2.1164315660911095,3.472131392662557,,,,,,,,,,,,
2220,0,USAlaskaSitka,Alaska,Sitka,2022-04-28 09:13:11,2020-12-02,1.3590522672234004,2.1164315660911095,3.472131392662557,,,,,,,,,,,,
2220,0,USAlaskaSitka,Alaska,Sitka,2022-04-28 09:13:11,2020-12-03,0.9435174544314665,1.6356427244806429,3.0157880265238197,,,,,,,,,,,,
2220,0,USAlaskaSitka,Alaska,Sitka,2022-04-28 09:13:11,2020-12-04,0.9435174544314665,1.6356427244806429,3.0157880265238197,,,,,,,,,,,,
2220,0,USAlaskaSitka,Alaska,Sitka,2022-04-28 09:13:11,2020-12-05,0.9435174544314665,1.6356427244806429,3.0157880265238197,,,,,,,,,,,,
2220,0,USAlaskaSitka,Alaska,Sitka,2022-04-28 09:13:11,2020-12-06,0.9435174544314665,1.6356427244806429,3.0157880265238197,,,,,,,,,,,,
2220,0,USAlaskaSitka,Alaska,Sitka,2022-04-28 09:13:11,2020-12-07,0.9435174544314665,1.6356427244806429,3.0157880265238197,,,,,,,,,,,,
2220,0,USAlaskaSitka,Alaska,Sitka,2022-04-28 09:13:11,2020-12-08,0.9435174544314665,1.6356427244806429,3.0157880265238197,,,,,,,,,,,,
2220,0,USAlaskaSitka,Alaska,Sitka,2022-04-28 09:13:11,2020-12-09,0.9435174544314665,1.6356427244806429,3.0157880265238197,,,,,,,,,,,,
2220,0,USAlaskaSitka,Alaska,Sitka,2022-04-28 09:13:11,2020-12-10,0.839780420307719,1.4340832074077579,2.6016936582054786,,,,,,,,,,,,
2220,0,USAlaskaSitka,Alaska,Sitka,2022-04-28 09:13:11,2020-12-11,0.839780420307719,1.4340832074077579,2.6016936582054786,,,,,,,,,,,,
2220,0,USAlaskaSitka,Alaska,Sitka,2022-04-28 09:13:11,2020-12-12,0.839780420307719,1.4340832074077579,2.6016936582054786,,,,,,,,,,,,
2220,0,USAlaskaSitka,Alaska,Sitka,2022-04-28 09:13:11,2020-12-13,0.839780420307719,1.4340832074077579,2.6016936582054786,,,,,,,,,,,,
2220,0,USAlaskaSitka,Alaska,Sitka,2022-04-28 09:13:11,2020-12-14,0.839780420307719,1.4340832074077579,2.6016936582054786,,,,,,,,,,,,
2220,0,USAlaskaSitka,Alaska,Sitka,2022-04-28 09:13:11,2020-12-15,0.839780420307719,1.4340832074077579,2.6016936582054786,,,,,,,,,,,,
2220,0,USAlaskaSitka,Alaska,Sitka,2022-04-28 09:13:11,2020-12-16,0.839780420307719,1.4340832074077579,2.6016936582054786,,,,,,,,,,,,
2220,0,USAlaskaSitka,Alaska,Sitka,2022-04-28 09:13:11,2020-12-17,0.6444257870501948,1.0721774209277952,1.891052711723878,,,,,,,,,,,,
2220,0,USAlaskaSitka,Alaska,Sitka,2022-04-28 09:13:11,2020-12-18,0.6444257870501948,1.0721774209277952,1.891052711723878,,,,,,,,,,,,
2220,0,USAlaskaSitka,Alaska,Sitka,2022-04-28 09:13:11,2020-12-19,0.6444257870501948,1.0721774209277952,1.891052711723878,,,,,,,,,,,,
2220,0,USAlaskaSitka,Alaska,Sitka,2022-04-28 09:13:11,2020-12-20,0.6444257870501948,1.0721774209277952,1.891052711723878,,,,,,,,,,,,
2220,0,USAlaskaSitka,Alaska,Sitka,2022-04-28 09:13:11,2020-12-21,0.6444257870501948,1.0721774209277952,1.891052711723878,,,,,,,,,,,,
2220,0,USAlaskaSitka,Alaska,Sitka,2022-04-28 09:13:11,2020-12-22,0.6444257870501948,1.0721774209277952,1.891052711723878,,,,,,,,,,,,
2220,0,USAlaskaSitka,Alaska,Sitka,2022-04-28 09:13:11,2020-12-23,0.6444257870501948,1.0721774209277952,1.891052711723878,,,,,,,,,,,,
2220,0,USAlaskaSitka,Alaska,Sitka,2022-04-28 09:13:11,2020-12-24,0.38287186023058045,0.7032646875022894,1.3792511074536817,,,,,,,,,,,,
2220,0,USAlaskaSitka,Alaska,Sitka,2022-04-28 09:13:11,2020-12-25,0.38287186023058045,0.7032646875022894,1.3792511074536817,,,,,,,,,,,,
2220,0,USAlaskaSitka,Alaska,Sitka,2022-04-28 09:13:11,2020-12-26,0.38287186023058045,0.7032646875022894,1.3792511074536817,,,,,,,,,,,,
2220,0,USAlaskaSitka,Alaska,Sitka,2022-04-28 09:13:11,2020-12-27,0.38287186023058045,0.7032646875022894,1.3792511074536817,,,,,,,,,,,,
2220,0,USAlaskaSitka,Alaska,Sitka,2022-04-28 09:13:11,2020-12-28,0.38287186023058045,0.7032646875022894,1.3792511074536817,,,,,,,,,,,,
2220,0,USAlaskaSitka,Alaska,Sitka,2022-04-28 09:13:11,2020-12-29,0.38287186023058045,0.7032646875022894,1.3792511074536817,,,,,,,,,,,,
2220,0,USAlaskaSitka,Alaska,Sitka,2022-04-28 09:13:11,2020-12-30,0.38287186023058045,0.7032646875022894,1.3792511074536817,,,,,,,,,,,,
2220,0,USAlaskaSitka,Alaska,Sitka,2022-04-28 09:13:11,2020-12-31,0.23319923703178502,0.5122383425765134,1.2096661724964402,,,,,,,,,,,,
2220,0,USAlaskaSitka,Alaska,Sitka,2022-04-28 09:13:11,2021-01-01,0.23319923703178502,0.5122383425765134,1.2096661724964402,,,,,,,,,,,,
2220,0,USAlaskaSitka,Alaska,Sitka,2022-04-28 09:13:11,2021-01-02,0.23319923703178502,0.5122383425765134,1.2096661724964402,,,,,,,,,,,,
2220,0,USAlaskaSitka,Alaska,Sitka,2022-04-28 09:13:11,2021-01-03,0.23319923703178502,0.5122383425765134,1.2096661724964402,,,,,,,,,,,,
2220,0,USAlaskaSitka,Alaska,Sitka,2022-04-28 09:13:11,2021-01-04,0.23319923703178502,0.5122383425765134,1.2096661724964402,,,,,,,,,,,,
2220,0,USAlaskaSitka,Alaska,Sitka,2022-04-28 09:13:11,2021-01-05,0.23319923703178502,0.5122383425765134,1.2096661724964402,,,,,,,,,,,,
2220,0,USAlaskaSitka,Alaska,Sitka,2022-04-28 09:13:11,2021-01-06,0.23319923703178502,0.5122383425765134,1.2096661724964402,,,,,,,,,,,,
2220,0,USAlaskaSitka,Alaska,Sitka,2022-04-28 09:13:11,2021-01-07,0.5450141999969228,0.8866639224580984,1.5261205992786342,,,,,,,,,,,,
2220,0,USAlaskaSitka,Alaska,Sitka,2022-04-28 09:13:11,2021-01-08,0.5450141999969228,0.8866639224580984,1.5261205992786342,,,,,,,,,,,,
2220,0,USAlaskaSitka,Alaska,Sitka,2022-04-28 09:13:11,2021-01-09,0.5450141999969228,0.8866639224580984,1.5261205992786342,,,,,,,,,,,,
2220,0,USAlaskaSitka,Alaska,Sitka,2022-04-28 09:13:11,2021-01-10,0.5450141999969228,0.8866639224580984,1.5261205992786342,,,,,,,,,,,,
2220,0,USAlaskaSitka,Alaska,Sitka,2022-04-28 09:13:11,2021-01-11,0.5450141999969228,0.8866639224580984,1.5261205992786342,,,,,,,,,,,,
2220,0,USAlaskaSitka,Alaska,Sitka,2022-04-28 09:13:11,2021-01-12,0.5450141999969228,0.8866639224580984,1.5261205992786342,,,,,,,,,,,,
2220,0,USAlaskaSitka,Alaska,Sitka,2022-04-28 09:13:11,2021-01-13,0.5450141999969228,0.8866639224580984,1.5261205992786342,,,,,,,,,,,,
2220,0,USAlaskaSitka,Alaska,Sitka,2022-04-28 09:13:11,2021-01-14,0.4362945639688675,0.7362415848540613,1.3186185632753509,,,,,,,,,,,,
2220,0,USAlaskaSitka,Alaska,Sitka,2022-04-28 09:13:11,2021-01-15,0.4362945639688675,0.7362415848540613,1.3186185632753509,,,,,,,,,,,,
2220,0,USAlaskaSitka,Alaska,Sitka,2022-04-28 09:13:11,2021-01-16,0.4362945639688675,0.7362415848540613,1.3186185632753509,,,,,,,,,,,,
2220,0,USAlaskaSitka,Alaska,Sitka,2022-04-28 09:13:11,2021-01-17,0.4362945639688675,0.7362415848540613,1.3186185632753509,,,,,,,,,,,,
2220,0,USAlaskaSitka,Alaska,Sitka,2022-04-28 09:13:11,2021-01-18,0.4362945639688675,0.7362415848540613,1.3186185632753509,,,,,,,,,,,,
2220,0,USAlaskaSitka,Alaska,Sitka,2022-04-28 09:13:11,2021-01-19,0.4362945639688675,0.7362415848540613,1.3186185632753509,,,,,,,,,,,,
2220,0,USAlaskaSitka,Alaska,Sitka,2022-04-28 09:13:11,2021-01-20,0.4362945639688675,0.7362415848540613,1.3186185632753509,,,,,,,,,,,,
2220,0,USAlaskaSitka,Alaska,Sitka,2022-04-28 09:13:11,2021-01-21,0.16364565941530482,0.33857100995875333,0.7519493963475194,,,,,,,,,,,,
2220,0,USAlaskaSitka,Alaska,Sitka,2022-04-28 09:13:11,2021-01-22,0.16364565941530482,0.33857100995875333,0.7519493963475194,,,,,,,,,,,,
2220,0,USAlaskaSitka,Alaska,Sitka,2022-04-28 09:13:11,2021-01-23,0.16364565941530482,0.33857100995875333,0.7519493963475194,,,,,,,,,,,,
2220,0,USAlaskaSitka,Alaska,Sitka,2022-04-28 09:13:11,2021-01-24,0.16364565941530482,0.33857100995875333,0.7519493963475194,,,,,,,,,,,,
2220,0,USAlaskaSitka,Alaska,Sitka,2022-04-28 09:13:11,2021-01-25,0.16364565941530482,0.33857100995875333,0.7519493963475194,,,,,,,,,,,,
2220,0,USAlaskaSitka,Alaska,Sitka,2022-04-28 09:13:11,2021-01-26,0.16364565941530482,0.33857100995875333,0.7519493963475194,,,,,,,,,,,,
2220,0,USAlaskaSitka,Alaska,Sitka,2022-04-28 09:13:11,2021-01-27,0.16364565941530482,0.33857100995875333,0.7519493963475194,,,,,,,,,,,,
2220,0,USAlaskaSitka,Alaska,Sitka,2022-04-28 09:13:11,2021-01-28,0.33128758576746326,0.532904386949398,0.9059705484572436,,,,,,,,,,,,
2220,0,USAlaskaSitka,Alaska,Sitka,2022-04-28 09:13:11,2021-01-29,0.33128758576746326,0.532904386949398,0.9059705484572436,,,,,,,,,,,,
2220,0,USAlaskaSitka,Alaska,Sitka,2022-04-28 09:13:11,2021-01-30,0.33128758576746326,0.532904386949398,0.9059705484572436,,,,,,,,,,,,
2220,0,USAlaskaSitka,Alaska,Sitka,2022-04-28 09:13:11,2021-01-31,0.33128758576746326,0.532904386949398,0.9059705484572436,,,,,,,,,,,,
2220,0,USAlaskaSitka,Alaska,Sitka,2022-04-28 09:13:11,2021-02-01,0.33128758576746326,0.532904386949398,0.9059705484572436,,,,,,,,,,,,
2220,0,USAlaskaSitka,Alaska,Sitka,2022-04-28 09:13:11,2021-02-02,0.33128758576746326,0.532904386949398,0.9059705484572436,,,,,,,,,,,,
2220,0,USAlaskaSitka,Alaska,Sitka,2022-04-28 09:13:11,2021-02-03,0.33128758576746326,0.532904386949398,0.9059705484572436,,,,,,,,,,,,
2220,0,USAlaskaSitka,Alaska,Sitka,2022-04-28 09:13:11,2021-02-04,0.11435001554130984,0.24682383189610432,0.5725694327931914,,,,,,,,,,,,
2220,0,USAlaskaSitka,Alaska,Sitka,2022-04-28 09:13:11,2021-02-05,0.11435001554130984,0.24682383189610432,0.5725694327931914,,,,,,,,,,,,
2220,0,USAlaskaSitka,Alaska,Sitka,2022-04-28 09:13:11,2021-02-06,0.11435001554130984,0.24682383189610432,0.5725694327931914,,,,,,,,,,,,
2220,0,USAlaskaSitka,Alaska,Sitka,2022-04-28 09:13:11,2021-02-07,0.11435001554130984,0.24682383189610432,0.5725694327931914,,,,,,,,,,,,
2220,0,USAlaskaSitka,Alaska,Sitka,2022-04-28 09:13:11,2021-02-08,0.11435001554130984,0.24682383189610432,0.5725694327931914,,,,,,,,,,,,
2220,0,USAlaskaSitka,Alaska,Sitka,2022-04-28 09:13:11,2021-02-09,0.11435001554130984,0.24682383189610432,0.5725694327931914,,,,,,,,,,,,
2220,0,USAlaskaSitka,Alaska,Sitka,2022-04-28 09:13:11,2021-02-10,0.11435001554130984,0.24682383189610432,0.5725694327931914,,,,,,,,,,,,
2220,0,USAlaskaSitka,Alaska,Sitka,2022-04-28 09:13:11,2021-02-11,0.06474978187984459,0.15615124596996846,0.4052529045199731,,,,,,,,,,,,
2220,0,USAlaskaSitka,Alaska,Sitka,2022-04-28 09:13:11,2021-02-12,0.06474978187984459,0.15615124596996846,0.4052529045199731,,,,,,,,,,,,
2220,0,USAlaskaSitka,Alaska,Sitka,2022-04-28 09:13:11,2021-02-13,0.06474978187984459,0.15615124596996846,0.4052529045199731,,,,,,,,,,,,
2220,0,USAlaskaSitka,Alaska,Sitka,2022-04-28 09:13:11,2021-02-14,0.06474978187984459,0.15615124596996846,0.4052529045199731,,,,,,,,,,,,
2220,0,USAlaskaSitka,Alaska,Sitka,2022-04-28 09:13:11,2021-02-15,0.06474978187984459,0.15615124596996846,0.4052529045199731,,,,,,,,,,,,
2220,0,USAlaskaSitka,Alaska,Sitka,2022-04-28 09:13:11,2021-02-16,0.06474978187984459,0.15615124596996846,0.4052529045199731,,,,,,,,,,,,
2220,0,USAlaskaSitka,Alaska,Sitka,2022-04-28 09:13:11,2021-02-17,0.06474978187984459,0.15615124596996846,0.4052529045199731,,,,,,,,,,,,
2220,0,USAlaskaSitka,Alaska,Sitka,2022-04-28 09:13:11,2021-02-18,0.26369467502209054,0.44797212907397577,0.8081547169727646,,,,,,,,,,,,
2220,0,USAlaskaSitka,Alaska,Sitka,2022-04-28 09:13:11,2021-02-19,0.26369467502209054,0.44797212907397577,0.8081547169727646,,,,,,,,,,,,
2220,0,USAlaskaSitka,Alaska,Sitka,2022-04-28 09:13:11,2021-02-20,0.26369467502209054,0.44797212907397577,0.8081547169727646,,,,,,,,,,,,
2220,0,USAlaskaSitka,Alaska,Sitka,2022-04-28 09:13:11,2021-02-21,0.26369467502209054,0.44797212907397577,0.8081547169727646,,,,,,,,,,,,
2220,0,USAlaskaSitka,Alaska,Sitka,2022-04-28 09:13:11,2021-02-22,0.26369467502209054,0.44797212907397577,0.8081547169727646,,,,,,,,,,,,
2220,0,USAlaskaSitka,Alaska,Sitka,2022-04-28 09:13:11,2021-02-23,0.26369467502209054,0.44797212907397577,0.8081547169727646,,,,,,,,,,,,
2220,0,USAlaskaSitka,Alaska,Sitka,2022-04-28 09:13:11,2021-02-24,0.26369467502209054,0.44797212907397577,0.8081547169727646,,,,,,,,,,,,
2220,0,USAlaskaSitka,Alaska,Sitka,2022-04-28 09:13:11,2021-02-25,0.3906748929756445,0.8251379384849671,1.8719469437474374,,,,,,,,,,,,
2220,0,USAlaskaSitka,Alaska,Sitka,2022-04-28 09:13:11,2021-02-26,0.3906748929756445,0.8251379384849671,1.8719469437474374,,,,,,,,,,,,
2220,0,USAlaskaSitka,Alaska,Sitka,2022-04-28 09:13:11,2021-02-27,0.3906748929756445,0.8251379384849671,1.8719469437474374,,,,,,,,,,,,
2220,0,USAlaskaSitka,Alaska,Sitka,2022-04-28 09:13:11,2021-02-28,0.3906748929756445,0.8251379384849671,1.8719469437474374,,,,,,,,,,,,
2220,0,USAlaskaSitka,Alaska,Sitka,2022-04-28 09:13:11,2021-03-01,0.3906748929756445,0.8251379384849671,1.8719469437474374,,,,,,,,,,,,
2220,0,USAlaskaSitka,Alaska,Sitka,2022-04-28 09:13:11,2021-03-02,0.3906748929756445,0.8251379384849671,1.8719469437474374,,,,,,,,,,,,
2220,0,USAlaskaSitka,Alaska,Sitka,2022-04-28 09:13:11,2021-03-03,0.3906748929756445,0.8251379384849671,1.8719469437474374,,,,,,,,,,,,
2220,0,USAlaskaSitka,Alaska,Sitka,2022-04-28 09:13:11,2021-03-04,0.11112938570337966,0.23378159490553074,0.5282020692168603,,,,,,,,,,,,
2220,0,USAlaskaSitka,Alaska,Sitka,2022-04-28 09:13:11,2021-03-05,0.11112938570337966,0.23378159490553074,0.5282020692168603,,,,,,,,,,,,
2220,0,USAlaskaSitka,Alaska,Sitka,2022-04-28 09:13:11,2021-03-06,0.11112938570337966,0.23378159490553074,0.5282020692168603,,,,,,,,,,,,
2220,0,USAlaskaSitka,Alaska,Sitka,2022-04-28 09:13:11,2021-03-07,0.11112938570337966,0.23378159490553074,0.5282020692168603,,,,,,,,,,,,
2220,0,USAlaskaSitka,Alaska,Sitka,2022-04-28 09:13:11,2021-03-08,0.11112938570337966,0.23378159490553074,0.5282020692168603,,,,,,,,,,,,
2220,0,USAlaskaSitka,Alaska,Sitka,2022-04-28 09:13:11,2021-03-09,0.11112938570337966,0.23378159490553074,0.5282020692168603,,,,,,,,,,,,
2220,0,USAlaskaSitka,Alaska,Sitka,2022-04-28 09:13:11,2021-03-10,0.11112938570337966,0.23378159490553074,0.5282020692168603,,,,,,,,,,,,
2220,0,USAlaskaSitka,Alaska,Sitka,2022-04-28 09:13:11,2021-03-11,0.11459508101970145,0.24782907202131804,0.5760331058890512,,,,,,,,,,,,
2220,0,USAlaskaSitka,Alaska,Sitka,2022-04-28 09:13:11,2021-03-12,0.11459508101970145,0.24782907202131804,0.5760331058890512,,,,,,,,,,,,
2220,0,USAlaskaSitka,Alaska,Sitka,2022-04-28 09:13:11,2021-03-13,0.11459508101970145,0.24782907202131804,0.5760331058890512,,,,,,,,,,,,
2220,0,USAlaskaSitka,Alaska,Sitka,2022-04-28 09:13:11,2021-03-14,0.11459508101970145,0.24782907202131804,0.5760331058890512,,,,,,,,,,,,
2220,0,USAlaskaSitka,Alaska,Sitka,2022-04-28 09:13:11,2021-03-15,0.11459508101970145,0.24782907202131804,0.5760331058890512,,,,,,,,,,,,
2220,0,USAlaskaSitka,Alaska,Sitka,2022-04-28 09:13:11,2021-03-16,0.11459508101970145,0.24782907202131804,0.5760331058890512,,,,,,,,,,,,
2220,0,USAlaskaSitka,Alaska,Sitka,2022-04-28 09:13:11,2021-03-17,0.11459508101970145,0.24782907202131804,0.5760331058890512,,,,,,,,,,,,
2220,0,USAlaskaSitka,Alaska,Sitka,2022-04-28 09:13:11,2021-03-18,0.0669310128043173,0.16619433699937208,0.4440982170007393,,,,,,,,,,,,
2220,0,USAlaskaSitka,Alaska,Sitka,2022-04-28 09:13:11,2021-03-19,0.0669310128043173,0.16619433699937208,0.4440982170007393,,,,,,,,,,,,
2220,0,USAlaskaSitka,Alaska,Sitka,2022-04-28 09:13:11,2021-03-20,0.0669310128043173,0.16619433699937208,0.4440982170007393,,,,,,,,,,,,
2220,0,USAlaskaSitka,Alaska,Sitka,2022-04-28 09:13:11,2021-03-21,0.0669310128043173,0.16619433699937208,0.4440982170007393,,,,,,,,,,,,
2220,0,USAlaskaSitka,Alaska,Sitka,2022-04-28 09:13:11,2021-03-22,0.0669310128043173,0.16619433699937208,0.4440982170007393,,,,,,,,,,,,
2220,0,USAlaskaSitka,Alaska,Sitka,2022-04-28 09:13:11,2021-03-23,0.0669310128043173,0.16619433699937208,0.4440982170007393,,,,,,,,,,,,
2220,0,USAlaskaSitka,Alaska,Sitka,2022-04-28 09:13:11,2021-03-24,0.0669310128043173,0.16619433699937208,0.4440982170007393,,,,,,,,,,,,
2220,0,USAlaskaSitka,Alaska,Sitka,2022-04-28 09:13:11,2021-03-25,0.29740178183756283,0.48977802170054346,0.8543026083554867,,,,,,,,,,,,
2220,0,USAlaskaSitka,Alaska,Sitka,2022-04-28 09:13:11,2021-03-26,0.29740178183756283,0.48977802170054346,0.8543026083554867,,,,,,,,,,,,
2220,0,USAlaskaSitka,Alaska,Sitka,2022-04-28 09:13:11,2021-03-27,0.29740178183756283,0.48977802170054346,0.8543026083554867,,,,,,,,,,,,
2220,0,USAlaskaSitka,Alaska,Sitka,2022-04-28 09:13:11,2021-03-28,0.29740178183756283,0.48977802170054346,0.8543026083554867,,,,,,,,,,,,
2220,0,USAlaskaSitka,Alaska,Sitka,2022-04-28 09:13:11,2021-03-29,0.29740178183756283,0.48977802170054346,0.8543026083554867,,,,,,,,,,,,
2220,0,USAlaskaSitka,Alaska,Sitka,2022-04-28 09:13:11,2021-03-30,0.29740178183756283,0.48977802170054346,0.8543026083554867,,,,,,,,,,,,
2220,0,USAlaskaSitka,Alaska,Sitka,2022-04-28 09:13:11,2021-03-31,0.29740178183756283,0.48977802170054346,0.8543026083554867,,,,,,,,,,,,
2220,0,USAlaskaSitka,Alaska,Sitka,2022-04-28 09:13:11,2021-04-01,0.21377347503982064,0.43416681348603114,0.9459834096456433,,,,,,,,,,,,
2220,0,USAlaskaSitka,Alaska,Sitka,2022-04-28 09:13:11,2021-04-02,0.21377347503982064,0.43416681348603114,0.9459834096456433,,,,,,,,,,,,
2220,0,USAlaskaSitka,Alaska,Sitka,2022-04-28 09:13:11,2021-04-03,0.21377347503982064,0.43416681348603114,0.9459834096456433,,,,,,,,,,,,
2220,0,USAlaskaSitka,Alaska,Sitka,2022-04-28 09:13:11,2021-04-04,0.21377347503982064,0.43416681348603114,0.9459834096456433,,,,,,,,,,,,
2220,0,USAlaskaSitka,Alaska,Sitka,2022-04-28 09:13:11,2021-04-05,0.21377347503982064,0.43416681348603114,0.9459834096456433,,,,,,,,,,,,
2220,0,USAlaskaSitka,Alaska,Sitka,2022-04-28 09:13:11,2021-04-06,0.21377347503982064,0.43416681348603114,0.9459834096456433,,,,,,,,,,,,
2220,0,USAlaskaSitka,Alaska,Sitka,2022-04-28 09:13:11,2021-04-07,0.21377347503982064,0.43416681348603114,0.9459834096456433,,,,,,,,,,,,
2220,0,USAlaskaSitka,Alaska,Sitka,2022-04-28 09:13:11,2021-04-08,0.3143751514844172,0.5447800591823015,1.0040507979159325,,,,,,,,,,,,
2220,0,USAlaskaSitka,Alaska,Sitka,2022-04-28 09:13:11,2021-04-09,0.3143751514844172,0.5447800591823015,1.0040507979159325,,,,,,,,,,,,
2220,0,USAlaskaSitka,Alaska,Sitka,2022-04-28 09:13:11,2021-04-10,0.3143751514844172,0.5447800591823015,1.0040507979159325,,,,,,,,,,,,
2220,0,USAlaskaSitka,Alaska,Sitka,2022-04-28 09:13:11,2021-04-11,0.3143751514844172,0.5447800591823015,1.0040507979159325,,,,,,,,,,,,
2220,0,USAlaskaSitka,Alaska,Sitka,2022-04-28 09:13:11,2021-04-12,0.3143751514844172,0.5447800591823015,1.0040507979159325,,,,,,,,,,,,
2220,0,USAlaskaSitka,Alaska,Sitka,2022-04-28 09:13:11,2021-04-13,0.3143751514844172,0.5447800591823015,1.0040507979159325,,,,,,,,,,,,
2220,0,USAlaskaSitka,Alaska,Sitka,2022-04-28 09:13:11,2021-04-14,0.3143751514844172,0.5447800591823015,1.0040507979159325,,,,,,,,,,,,
2220,0,USAlaskaSitka,Alaska,Sitka,2022-04-28 09:13:11,2021-04-15,0.16170493159765933,0.3309658257139116,0.7269149569700779,,,,,,,,,,,,
2220,0,USAlaskaSitka,Alaska,Sitka,2022-04-28 09:13:11,2021-04-16,0.16170493159765933,0.3309658257139116,0.7269149569700779,,,,,,,,,,,,
2220,0,USAlaskaSitka,Alaska,Sitka,2022-04-28 09:13:11,2021-04-17,0.16170493159765933,0.3309658257139116,0.7269149569700779,,,,,,,,,,,,
2220,0,USAlaskaSitka,Alaska,Sitka,2022-04-28 09:13:11,2021-04-18,0.16170493159765933,0.3309658257139116,0.7269149569700779,,,,,,,,,,,,
2220,0,USAlaskaSitka,Alaska,Sitka,2022-04-28 09:13:11,2021-04-19,0.16170493159765933,0.3309658257139116,0.7269149569700779,,,,,,,,,,,,
2220,0,USAlaskaSitka,Alaska,Sitka,2022-04-28 09:13:11,2021-04-20,0.16170493159765933,0.3309658257139116,0.7269149569700779,,,,,,,,,,,,
2220,0,USAlaskaSitka,Alaska,Sitka,2022-04-28 09:13:11,2021-04-21,0.16170493159765933,0.3309658257139116,0.7269149569700779,,,,,,,,,,,,
2220,0,USAlaskaSitka,Alaska,Sitka,2022-04-28 09:13:11,2021-04-22,0.16372499769199614,0.33888355744771936,0.752983653558346,,,,,,,,,,,,
2220,0,USAlaskaSitka,Alaska,Sitka,2022-04-28 09:13:11,2021-04-23,0.16372499769199614,0.33888355744771936,0.752983653558346,,,,,,,,,,,,
2220,0,USAlaskaSitka,Alaska,Sitka,2022-04-28 09:13:11,2021-04-24,0.16372499769199614,0.33888355744771936,0.752983653558346,,,,,,,,,,,,
2220,0,USAlaskaSitka,Alaska,Sitka,2022-04-28 09:13:11,2021-04-25,0.16372499769199614,0.33888355744771936,0.752983653558346,,,,,,,,,,,,
2220,0,USAlaskaSitka,Alaska,Sitka,2022-04-28 09:13:11,2021-04-26,0.16372499769199614,0.33888355744771936,0.752983653558346,,,,,,,,,,,,
2220,0,USAlaskaSitka,Alaska,Sitka,2022-04-28 09:13:11,2021-04-27,0.16372499769199614,0.33888355744771936,0.752983653558346,,,,,,,,,,,,
2220,0,USAlaskaSitka,Alaska,Sitka,2022-04-28 09:13:11,2021-04-28,0.16372499769199614,0.33888355744771936,0.752983653558346,,,,,,,,,,,,
2220,0,USAlaskaSitka,Alaska,Sitka,2022-04-28 09:13:11,2021-04-29,0.22736993858795035,0.3985377023502242,0.7435853706747134,,,,,,,,,,,,
2220,0,USAlaskaSitka,Alaska,Sitka,2022-04-28 09:13:11,2021-04-30,0.22736993858795035,0.3985377023502242,0.7435853706747134,,,,,,,,,,,,
2220,0,USAlaskaSitka,Alaska,Sitka,2022-04-28 09:13:11,2021-05-01,0.22736993858795035,0.3985377023502242,0.7435853706747134,,,,,,,,,,,,
2220,0,USAlaskaSitka,Alaska,Sitka,2022-04-28 09:13:11,2021-05-02,0.22736993858795035,0.3985377023502242,0.7435853706747134,,,,,,,,,,,,
2220,0,USAlaskaSitka,Alaska,Sitka,2022-04-28 09:13:11,2021-05-03,0.22736993858795035,0.3985377023502242,0.7435853706747134,,,,,,,,,,,,
2220,0,USAlaskaSitka,Alaska,Sitka,2022-04-28 09:13:11,2021-05-04,0.22736993858795035,0.3985377023502242,0.7435853706747134,,,,,,,,,,,,
2220,0,USAlaskaSitka,Alaska,Sitka,2022-04-28 09:13:11,2021-05-05,0.22736993858795035,0.3985377023502242,0.7435853706747134,,,,,,,,,,,,
2220,0,USAlaskaSitka,Alaska,Sitka,2022-04-28 09:13:11,2021-05-06,0.18243921161354093,0.3206578284515284,0.6000332351020414,,,,,,,,,,,,
2220,0,USAlaskaSitka,Alaska,Sitka,2022-04-28 09:13:11,2021-05-07,0.18243921161354093,0.3206578284515284,0.6000332351020414,,,,,,,,,,,,
2220,0,USAlaskaSitka,Alaska,Sitka,2022-04-28 09:13:11,2021-05-08,0.18243921161354093,0.3206578284515284,0.6000332351020414,,,,,,,,,,,,
2220,0,USAlaskaSitka,Alaska,Sitka,2022-04-28 09:13:11,2021-05-09,0.18243921161354093,0.3206578284515284,0.6000332351020414,,,,,,,,,,,,
2220,0,USAlaskaSitka,Alaska,Sitka,2022-04-28 09:13:11,2021-05-10,0.18243921161354093,0.3206578284515284,0.6000332351020414,,,,,,,,,,,,
2220,0,USAlaskaSitka,Alaska,Sitka,2022-04-28 09:13:11,2021-05-11,0.18243921161354093,0.3206578284515284,0.6000332351020414,,,,,,,,,,,,
2220,0,USAlaskaSitka,Alaska,Sitka,2022-04-28 09:13:11,2021-05-12,0.18243921161354093,0.3206578284515284,0.6000332351020414,,,,,,,,,,,,
2220,0,USAlaskaSitka,Alaska,Sitka,2022-04-28 09:13:11,2021-05-13,0.1428482009032389,0.26116741419435435,0.5096836707109215,,,,,,,,,,,,
2220,0,USAlaskaSitka,Alaska,Sitka,2022-04-28 09:13:11,2021-05-14,0.1428482009032389,0.26116741419435435,0.5096836707109215,,,,,,,,,,,,
2220,0,USAlaskaSitka,Alaska,Sitka,2022-04-28 09:13:11,2021-05-15,0.1428482009032389,0.26116741419435435,0.5096836707109215,,,,,,,,,,,,
2220,0,USAlaskaSitka,Alaska,Sitka,2022-04-28 09:13:11,2021-05-16,0.1428482009032389,0.26116741419435435,0.5096836707109215,,,,,,,,,,,,
2220,0,USAlaskaSitka,Alaska,Sitka,2022-04-28 09:13:11,2021-05-17,0.1428482009032389,0.26116741419435435,0.5096836707109215,,,,,,,,,,,,
2220,0,USAlaskaSitka,Alaska,Sitka,2022-04-28 09:13:11,2021-05-18,0.1428482009032389,0.26116741419435435,0.5096836707109215,,,,,,,,,,,,
2220,0,USAlaskaSitka,Alaska,Sitka,2022-04-28 09:13:11,2021-05-19,0.1428482009032389,0.26116741419435435,0.5096836707109215,,,,,,,,,,,,
2220,0,USAlaskaSitka,Alaska,Sitka,2022-04-28 09:13:11,2021-05-20,0.23098845411064248,0.3475650957291708,0.5488987569074913,,,,,,,,,,,,
2220,0,USAlaskaSitka,Alaska,Sitka,2022-04-28 09:13:11,2021-05-21,0.23098845411064248,0.3475650957291708,0.5488987569074913,,,,,,,,,,,,
2220,0,USAlaskaSitka,Alaska,Sitka,2022-04-28 09:13:11,2021-05-22,0.23098845411064248,0.3475650957291708,0.5488987569074913,,,,,,,,,,,,
2220,0,USAlaskaSitka,Alaska,Sitka,2022-04-28 09:13:11,2021-05-23,0.23098845411064248,0.3475650957291708,0.5488987569074913,,,,,,,,,,,,
2220,0,USAlaskaSitka,Alaska,Sitka,2022-04-28 09:13:11,2021-05-24,0.23098845411064248,0.3475650957291708,0.5488987569074913,,,,,,,,,,,,
2220,0,USAlaskaSitka,Alaska,Sitka,2022-04-28 09:13:11,2021-05-25,0.23098845411064248,0.3475650957291708,0.5488987569074913,,,,,,,,,,,,
2220,0,USAlaskaSitka,Alaska,Sitka,2022-04-28 09:13:11,2021-05-26,0.23098845411064248,0.3475650957291708,0.5488987569074913,,,,,,,,,,,,
2220,0,USAlaskaSitka,Alaska,Sitka,2022-04-28 09:13:11,2021-05-27,0.12791253938000505,0.21134299708418847,0.3699510278403667,,,,,,,,,,,,
2220,0,USAlaskaSitka,Alaska,Sitka,2022-04-28 09:13:11,2021-05-28,0.12791253938000505,0.21134299708418847,0.3699510278403667,,,,,,,,,,,,
2220,0,USAlaskaSitka,Alaska,Sitka,2022-04-28 09:13:11,2021-05-29,0.12791253938000505,0.21134299708418847,0.3699510278403667,,,,,,,,,,,,
2220,0,USAlaskaSitka,Alaska,Sitka,2022-04-28 09:13:11,2021-05-30,0.12791253938000505,0.21134299708418847,0.3699510278403667,,,,,,,,,,,,
2220,0,USAlaskaSitka,Alaska,Sitka,2022-04-28 09:13:11,2021-05-31,0.12791253938000505,0.21134299708418847,0.3699510278403667,,,,,,,,,,,,
2220,0,USAlaskaSitka,Alaska,Sitka,2022-04-28 09:13:11,2021-06-01,0.12791253938000505,0.21134299708418847,0.3699510278403667,,,,,,,,,,,,
2220,0,USAlaskaSitka,Alaska,Sitka,2022-04-28 09:13:11,2021-06-02,0.12791253938000505,0.21134299708418847,0.3699510278403667,,,,,,,,,,,,
2220,0,USAlaskaSitka,Alaska,Sitka,2022-04-28 09:13:11,2021-06-03,0.05481882661710432,0.11392374755809749,0.2541864896794654,,,,,,,,,,,,
2220,0,USAlaskaSitka,Alaska,Sitka,2022-04-28 09:13:11,2021-06-04,0.05481882661710432,0.11392374755809749,0.2541864896794654,,,,,,,,,,,,
2220,0,USAlaskaSitka,Alaska,Sitka,2022-04-28 09:13:11,2021-06-05,0.05481882661710432,0.11392374755809749,0.2541864896794654,,,,,,,,,,,,
2220,0,USAlaskaSitka,Alaska,Sitka,2022-04-28 09:13:11,2021-06-06,0.05481882661710432,0.11392374755809749,0.2541864896794654,,,,,,,,,,,,
2220,0,USAlaskaSitka,Alaska,Sitka,2022-04-28 09:13:11,2021-06-07,0.05481882661710432,0.11392374755809749,0.2541864896794654,,,,,,,,,,,,
2220,0,USAlaskaSitka,Alaska,Sitka,2022-04-28 09:13:11,2021-06-08,0.05481882661710432,0.11392374755809749,0.2541864896794654,,,,,,,,,,,,
2220,0,USAlaskaSitka,Alaska,Sitka,2022-04-28 09:13:11,2021-06-09,0.05481882661710432,0.11392374755809749,0.2541864896794654,,,,,,,,,,,,
2220,0,USAlaskaSitka,Alaska,Sitka,2022-04-28 09:13:11,2021-06-10,0.09467323808516755,0.17216020173996383,0.33406582811579827,,,,,,,,,,,,
2220,0,USAlaskaSitka,Alaska,Sitka,2022-04-28 09:13:11,2021-06-11,0.09467323808516755,0.17216020173996383,0.33406582811579827,,,,,,,,,,,,
2220,0,USAlaskaSitka,Alaska,Sitka,2022-04-28 09:13:11,2021-06-12,0.09467323808516755,0.17216020173996383,0.33406582811579827,,,,,,,,,,,,
2220,0,USAlaskaSitka,Alaska,Sitka,2022-04-28 09:13:11,2021-06-13,0.09467323808516755,0.17216020173996383,0.33406582811579827,,,,,,,,,,,,
2220,0,USAlaskaSitka,Alaska,Sitka,2022-04-28 09:13:11,2021-06-14,0.09467323808516755,0.17216020173996383,0.33406582811579827,,,,,,,,,,,,
2220,0,USAlaskaSitka,Alaska,Sitka,2022-04-28 09:13:11,2021-06-15,0.09467323808516755,0.17216020173996383,0.33406582811579827,,,,,,,,,,,,
2220,0,USAlaskaSitka,Alaska,Sitka,2022-04-28 09:13:11,2021-06-16,0.09467323808516755,0.17216020173996383,0.33406582811579827,,,,,,,,,,,,
2220,0,USAlaskaSitka,Alaska,Sitka,2022-04-28 09:13:11,2021-06-17,0.09967113078635341,0.18996956508543233,0.3873825303939852,,,,,,,,,,,,
2220,0,USAlaskaSitka,Alaska,Sitka,2022-04-28 09:13:11,2021-06-18,0.09967113078635341,0.18996956508543233,0.3873825303939852,,,,,,,,,,,,
2220,0,USAlaskaSitka,Alaska,Sitka,2022-04-28 09:13:11,2021-06-19,0.09967113078635341,0.18996956508543233,0.3873825303939852,,,,,,,,,,,,
2220,0,USAlaskaSitka,Alaska,Sitka,2022-04-28 09:13:11,2021-06-20,0.09967113078635341,0.18996956508543233,0.3873825303939852,,,,,,,,,,,,
2220,0,USAlaskaSitka,Alaska,Sitka,2022-04-28 09:13:11,2021-06-21,0.09967113078635341,0.18996956508543233,0.3873825303939852,,,,,,,,,,,,
2220,0,USAlaskaSitka,Alaska,Sitka,2022-04-28 09:13:11,2021-06-22,0.09967113078635341,0.18996956508543233,0.3873825303939852,,,,,,,,,,,,
2220,0,USAlaskaSitka,Alaska,Sitka,2022-04-28 09:13:11,2021-06-23,0.09967113078635341,0.18996956508543233,0.3873825303939852,,,,,,,,,,,,
2220,0,USAlaskaSitka,Alaska,Sitka,2022-04-28 09:13:11,2021-06-24,0.1317486286760461,0.22366461914601846,0.4031980572521883,,,,,,,,,,,,
2220,0,USAlaskaSitka,Alaska,Sitka,2022-04-28 09:13:11,2021-06-25,0.1317486286760461,0.22366461914601846,0.4031980572521883,,,,,,,,,,,,
2220,0,USAlaskaSitka,Alaska,Sitka,2022-04-28 09:13:11,2021-06-26,0.1317486286760461,0.22366461914601846,0.4031980572521883,,,,,,,,,,,,
2220,0,USAlaskaSitka,Alaska,Sitka,2022-04-28 09:13:11,2021-06-27,0.1317486286760461,0.22366461914601846,0.4031980572521883,,,,,,,,,,,,
2220,0,USAlaskaSitka,Alaska,Sitka,2022-04-28 09:13:11,2021-06-28,0.1317486286760461,0.22366461914601846,0.4031980572521883,,,,,,,,,,,,
2220,0,USAlaskaSitka,Alaska,Sitka,2022-04-28 09:13:11,2021-06-29,0.1317486286760461,0.22366461914601846,0.4031980572521883,,,,,,,,,,,,
2220,0,USAlaskaSitka,Alaska,Sitka,2022-04-28 09:13:11,2021-06-30,0.1317486286760461,0.22366461914601846,0.4031980572521883,,,,,,,,,,,,
2220,0,USAlaskaSitka,Alaska,Sitka,2022-04-28 09:13:11,2021-07-01,0.39510193747014255,0.5581795899584633,0.8213926788976345,,,,,,,,,,,,
2220,0,USAlaskaSitka,Alaska,Sitka,2022-04-28 09:13:11,2021-07-02,0.39510193747014255,0.5581795899584633,0.8213926788976345,,,,,,,,,,,,
2220,0,USAlaskaSitka,Alaska,Sitka,2022-04-28 09:13:11,2021-07-03,0.39510193747014255,0.5581795899584633,0.8213926788976345,,,,,,,,,,,,
2220,0,USAlaskaSitka,Alaska,Sitka,2022-04-28 09:13:11,2021-07-04,0.39510193747014255,0.5581795899584633,0.8213926788976345,,,,,,,,,,,,
2220,0,USAlaskaSitka,Alaska,Sitka,2022-04-28 09:13:11,2021-07-05,0.39510193747014255,0.5581795899584633,0.8213926788976345,,,,,,,,,,,,
2220,0,USAlaskaSitka,Alaska,Sitka,2022-04-28 09:13:11,2021-07-06,0.39510193747014255,0.5581795899584633,0.8213926788976345,,,,,,,,,,,,
2220,0,USAlaskaSitka,Alaska,Sitka,2022-04-28 09:13:11,2021-07-07,0.39510193747014255,0.5581795899584633,0.8213926788976345,,,,,,,,,,,,
2220,0,USAlaskaSitka,Alaska,Sitka,2022-04-28 09:13:11,2021-07-08,1.5618921184527834,1.825747594382641,2.164780305765088,,,,,,,,,,,,
2220,0,USAlaskaSitka,Alaska,Sitka,2022-04-28 09:13:11,2021-07-09,1.5618921184527834,1.825747594382641,2.164780305765088,,,,,,,,,,,,
2220,0,USAlaskaSitka,Alaska,Sitka,2022-04-28 09:13:11,2021-07-10,1.5618921184527834,1.825747594382641,2.164780305765088,,,,,,,,,,,,
2220,0,USAlaskaSitka,Alaska,Sitka,2022-04-28 09:13:11,2021-07-11,1.5618921184527834,1.825747594382641,2.164780305765088,,,,,,,,,,,,
2220,0,USAlaskaSitka,Alaska,Sitka,2022-04-28 09:13:11,2021-07-12,1.5618921184527834,1.825747594382641,2.164780305765088,,,,,,,,,,,,
2220,0,USAlaskaSitka,Alaska,Sitka,2022-04-28 09:13:11,2021-07-13,1.5618921184527834,1.825747594382641,2.164780305765088,,,,,,,,,,,,
2220,0,USAlaskaSitka,Alaska,Sitka,2022-04-28 09:13:11,2021-07-14,1.5618921184527834,1.825747594382641,2.164780305765088,,,,,,,,,,,,
2220,0,USAlaskaSitka,Alaska,Sitka,2022-04-28 09:13:11,2021-07-15,3.8520305231176852,4.227067320885334,4.6673262466009335,,,,,,,,,,,,
2220,0,USAlaskaSitka,Alaska,Sitka,2022-04-28 09:13:11,2021-07-16,3.8520305231176852,4.227067320885334,4.6673262466009335,,,,,,,,,,,,
2220,0,USAlaskaSitka,Alaska,Sitka,2022-04-28 09:13:11,2021-07-17,3.8520305231176852,4.227067320885334,4.6673262466009335,,,,,,,,,,,,
2220,0,USAlaskaSitka,Alaska,Sitka,2022-04-28 09:13:11,2021-07-18,3.8520305231176852,4.227067320885334,4.6673262466009335,,,,,,,,,,,,
2220,0,USAlaskaSitka,Alaska,Sitka,2022-04-28 09:13:11,2021-07-19,3.8520305231176852,4.227067320885334,4.6673262466009335,,,,,,,,,,,,
2220,0,USAlaskaSitka,Alaska,Sitka,2022-04-28 09:13:11,2021-07-20,3.8520305231176852,4.227067320885334,4.6673262466009335,,,,,,,,,,,,
2220,0,USAlaskaSitka,Alaska,Sitka,2022-04-28 09:13:11,2021-07-21,3.8520305231176852,4.227067320885334,4.6673262466009335,,,,,,,,,,,,
2220,0,USAlaskaSitka,Alaska,Sitka,2022-04-28 09:13:11,2021-07-22,3.735615811858045,4.186194015919072,4.731895209180157,,,,,,,,,,,,
2220,0,USAlaskaSitka,Alaska,Sitka,2022-04-28 09:13:11,2021-07-23,3.735615811858045,4.186194015919072,4.731895209180157,,,,,,,,,,,,
2220,0,USAlaskaSitka,Alaska,Sitka,2022-04-28 09:13:11,2021-07-24,3.735615811858045,4.186194015919072,4.731895209180157,,,,,,,,,,,,
2220,0,USAlaskaSitka,Alaska,Sitka,2022-04-28 09:13:11,2021-07-25,3.735615811858045,4.186194015919072,4.731895209180157,,,,,,,,,,,,
2220,0,USAlaskaSitka,Alaska,Sitka,2022-04-28 09:13:11,2021-07-26,3.735615811858045,4.186194015919072,4.731895209180157,,,,,,,,,,,,
2220,0,USAlaskaSitka,Alaska,Sitka,2022-04-28 09:13:11,2021-07-27,3.735615811858045,4.186194015919072,4.731895209180157,,,,,,,,,,,,
2220,0,USAlaskaSitka,Alaska,Sitka,2022-04-28 09:13:11,2021-07-28,3.735615811858045,4.186194015919072,4.731895209180157,,,,,,,,,,,,
2220,0,USAlaskaSitka,Alaska,Sitka,2022-04-28 09:13:11,2021-07-29,2.761342589185883,3.2995569844709,4.0116120500403305,,,,,,,,,,,,
2220,0,USAlaskaSitka,Alaska,Sitka,2022-04-28 09:13:11,2021-07-30,2.761342589185883,3.2995569844709,4.0116120500403305,,,,,,,,,,,,
2220,0,USAlaskaSitka,Alaska,Sitka,2022-04-28 09:13:11,2021-07-31,2.761342589185883,3.2995569844709,4.0116120500403305,,,,,,,,,,,,
2220,0,USAlaskaSitka,Alaska,Sitka,2022-04-28 09:13:11,2021-08-01,2.761342589185883,3.2995569844709,4.0116120500403305,,,,,,,,,,,,
2220,0,USAlaskaSitka,Alaska,Sitka,2022-04-28 09:13:11,2021-08-02,2.761342589185883,3.2995569844709,4.0116120500403305,,,,,,,,,,,,
2220,0,USAlaskaSitka,Alaska,Sitka,2022-04-28 09:13:11,2021-08-03,2.761342589185883,3.2995569844709,4.0116120500403305,,,,,,,,,,,,
2220,0,USAlaskaSitka,Alaska,Sitka,2022-04-28 09:13:11,2021-08-04,2.761342589185883,3.2995569844709,4.0116120500403305,,,,,,,,,,,,
2220,0,USAlaskaSitka,Alaska,Sitka,2022-04-28 09:13:11,2021-08-05,1.5480535031898135,2.103678988449088,2.96250428191763,,,,,,,,,,,,
2220,0,USAlaskaSitka,Alaska,Sitka,2022-04-28 09:13:11,2021-08-06,1.5480535031898135,2.103678988449088,2.96250428191763,,,,,,,,,,,,
2220,0,USAlaskaSitka,Alaska,Sitka,2022-04-28 09:13:11,2021-08-07,1.5480535031898135,2.103678988449088,2.96250428191763,,,,,,,,,,,,
2220,0,USAlaskaSitka,Alaska,Sitka,2022-04-28 09:13:11,2021-08-08,1.5480535031898135,2.103678988449088,2.96250428191763,,,,,,,,,,,,
2220,0,USAlaskaSitka,Alaska,Sitka,2022-04-28 09:13:11,2021-08-09,1.5480535031898135,2.103678988449088,2.96250428191763,,,,,,,,,,,,
2220,0,USAlaskaSitka,Alaska,Sitka,2022-04-28 09:13:11,2021-08-10,1.5480535031898135,2.103678988449088,2.96250428191763,,,,,,,,,,,,
2220,0,USAlaskaSitka,Alaska,Sitka,2022-04-28 09:13:11,2021-08-11,1.5480535031898135,2.103678988449088,2.96250428191763,,,,,,,,,,,,
2220,0,USAlaskaSitka,Alaska,Sitka,2022-04-28 09:13:11,2021-08-12,1.871345747070393,2.477981171503523,3.3882575620228637,,,,,,,,,,,,
2220,0,USAlaskaSitka,Alaska,Sitka,2022-04-28 09:13:11,2021-08-13,1.871345747070393,2.477981171503523,3.3882575620228637,,,,,,,,,,,,
2220,0,USAlaskaSitka,Alaska,Sitka,2022-04-28 09:13:11,2021-08-14,1.871345747070393,2.477981171503523,3.3882575620228637,,,,,,,,,,,,
2220,0,USAlaskaSitka,Alaska,Sitka,2022-04-28 09:13:11,2021-08-15,1.871345747070393,2.477981171503523,3.3882575620228637,,,,,,,,,,,,
2220,0,USAlaskaSitka,Alaska,Sitka,2022-04-28 09:13:11,2021-08-16,1.871345747070393,2.477981171503523,3.3882575620228637,,,,,,,,,,,,
2220,0,USAlaskaSitka,Alaska,Sitka,2022-04-28 09:13:11,2021-08-17,1.871345747070393,2.477981171503523,3.3882575620228637,,,,,,,,,,,,
2220,0,USAlaskaSitka,Alaska,Sitka,2022-04-28 09:13:11,2021-08-18,1.871345747070393,2.477981171503523,3.3882575620228637,,,,,,,,,,,,
2220,0,USAlaskaSitka,Alaska,Sitka,2022-04-28 09:13:11,2021-08-19,1.7569878131810879,2.390684660776449,3.3716136961609444,,,,,,,,,,,,
2220,0,USAlaskaSitka,Alaska,Sitka,2022-04-28 09:13:11,2021-08-20,1.7569878131810879,2.390684660776449,3.3716136961609444,,,,,,,,,,,,
2220,0,USAlaskaSitka,Alaska,Sitka,2022-04-28 09:13:11,2021-08-21,1.7569878131810879,2.390684660776449,3.3716136961609444,,,,,,,,,,,,
2220,0,USAlaskaSitka,Alaska,Sitka,2022-04-28 09:13:11,2021-08-22,1.7569878131810879,2.390684660776449,3.3716136961609444,,,,,,,,,,,,
2220,0,USAlaskaSitka,Alaska,Sitka,2022-04-28 09:13:11,2021-08-23,1.7569878131810879,2.390684660776449,3.3716136961609444,,,,,,,,,,,,
2220,0,USAlaskaSitka,Alaska,Sitka,2022-04-28 09:13:11,2021-08-24,1.7569878131810879,2.390684660776449,3.3716136961609444,,,,,,,,,,,,
2220,0,USAlaskaSitka,Alaska,Sitka,2022-04-28 09:13:11,2021-08-25,1.7569878131810879,2.390684660776449,3.3716136961609444,,,,,,,,,,,,
2220,0,USAlaskaSitka,Alaska,Sitka,2022-04-28 09:13:11,2021-08-26,0.42244343208778345,0.46349501916353764,0.5288956847019781,,,,,,,,,,,,
2220,0,USAlaskaSitka,Alaska,Sitka,2022-04-28 09:13:11,2021-08-27,0.42244343208778345,0.46349501916353764,0.5288956847019781,,,,,,,,,,,,
2220,0,USAlaskaSitka,Alaska,Sitka,2022-04-28 09:13:11,2021-08-28,0.42244343208778345,0.46349501916353764,0.5288956847019781,,,,,,,,,,,,
2220,0,USAlaskaSitka,Alaska,Sitka,2022-04-28 09:13:11,2021-08-29,0.42244343208778345,0.46349501916353764,0.5288956847019781,,,,,,,,,,,,
2220,0,USAlaskaSitka,Alaska,Sitka,2022-04-28 09:13:11,2021-08-30,0.42244343208778345,0.46349501916353764,0.5288956847019781,,,,,,,,,,,,
2220,0,USAlaskaSitka,Alaska,Sitka,2022-04-28 09:13:11,2021-08-31,0.42244343208778345,0.46349501916353764,0.5288956847019781,,,,,,,,,,,,
2220,0,USAlaskaSitka,Alaska,Sitka,2022-04-28 09:13:11,2021-09-01,0.42244343208778345,0.46349501916353764,0.5288956847019781,,,,,,,,,,,,
2220,0,USAlaskaSitka,Alaska,Sitka,2022-04-28 09:13:11,2021-09-02,0.4424990095402587,0.525861510666532,0.6353607234473252,,,,,,,,,,,,
2220,0,USAlaskaSitka,Alaska,Sitka,2022-04-28 09:13:11,2021-09-03,0.4424990095402587,0.525861510666532,0.6353607234473252,,,,,,,,,,,,
2220,0,USAlaskaSitka,Alaska,Sitka,2022-04-28 09:13:11,2021-09-04,0.4424990095402587,0.525861510666532,0.6353607234473252,,,,,,,,,,,,
2220,0,USAlaskaSitka,Alaska,Sitka,2022-04-28 09:13:11,2021-09-05,0.4424990095402587,0.525861510666532,0.6353607234473252,,,,,,,,,,,,
2220,0,USAlaskaSitka,Alaska,Sitka,2022-04-28 09:13:11,2021-09-06,0.4424990095402587,0.525861510666532,0.6353607234473252,,,,,,,,,,,,
2220,0,USAlaskaSitka,Alaska,Sitka,2022-04-28 09:13:11,2021-09-07,0.4424990095402587,0.525861510666532,0.6353607234473252,,,,,,,,,,,,
2220,0,USAlaskaSitka,Alaska,Sitka,2022-04-28 09:13:11,2021-09-08,0.4424990095402587,0.525861510666532,0.6353607234473252,,,,,,,,,,,,
2220,0,USAlaskaSitka,Alaska,Sitka,2022-04-28 09:13:11,2021-09-09,0.40924073387100357,0.5141739127322695,0.662089570025326,,,,,,,,,,,,
2220,0,USAlaskaSitka,Alaska,Sitka,2022-04-28 09:13:11,2021-09-10,0.40924073387100357,0.5141739127322695,0.662089570025326,,,,,,,,,,,,
2220,0,USAlaskaSitka,Alaska,Sitka,2022-04-28 09:13:11,2021-09-11,0.40924073387100357,0.5141739127322695,0.662089570025326,,,,,,,,,,,,
2220,0,USAlaskaSitka,Alaska,Sitka,2022-04-28 09:13:11,2021-09-12,0.40924073387100357,0.5141739127322695,0.662089570025326,,,,,,,,,,,,
2220,0,USAlaskaSitka,Alaska,Sitka,2022-04-28 09:13:11,2021-09-13,0.40924073387100357,0.5141739127322695,0.662089570025326,,,,,,,,,,,,
2220,0,USAlaskaSitka,Alaska,Sitka,2022-04-28 09:13:11,2021-09-14,0.40924073387100357,0.5141739127322695,0.662089570025326,,,,,,,,,,,,
2220,0,USAlaskaSitka,Alaska,Sitka,2022-04-28 09:13:11,2021-09-15,0.40924073387100357,0.5141739127322695,0.662089570025326,,,,,,,,,,,,
2220,0,USAlaskaSitka,Alaska,Sitka,2022-04-28 09:13:11,2021-09-16,1.3370097026256749,1.770822377888802,2.421940058645637,,,,,,,,,,,,
2220,0,USAlaskaSitka,Alaska,Sitka,2022-04-28 09:13:11,2021-09-17,1.3370097026256749,1.770822377888802,2.421940058645637,,,,,,,,,,,,
2220,0,USAlaskaSitka,Alaska,Sitka,2022-04-28 09:13:11,2021-09-18,1.3370097026256749,1.770822377888802,2.421940058645637,,,,,,,,,,,,
2220,0,USAlaskaSitka,Alaska,Sitka,2022-04-28 09:13:11,2021-09-19,1.3370097026256749,1.770822377888802,2.421940058645637,,,,,,,,,,,,
2220,0,USAlaskaSitka,Alaska,Sitka,2022-04-28 09:13:11,2021-09-20,1.3370097026256749,1.770822377888802,2.421940058645637,,,,,,,,,,,,
2220,0,USAlaskaSitka,Alaska,Sitka,2022-04-28 09:13:11,2021-09-21,1.3370097026256749,1.770822377888802,2.421940058645637,,,,,,,,,,,,
2220,0,USAlaskaSitka,Alaska,Sitka,2022-04-28 09:13:11,2021-09-22,1.3370097026256749,1.770822377888802,2.421940058645637,,,,,,,,,,,,
2220,0,USAlaskaSitka,Alaska,Sitka,2022-04-28 09:13:11,2021-09-23,1.5818178680516806,1.9294781028872734,2.4018021208617633,,,,,,,,,,,,
2220,0,USAlaskaSitka,Alaska,Sitka,2022-04-28 09:13:11,2021-09-24,1.5818178680516806,1.9294781028872734,2.4018021208617633,,,,,,,,,,,,
2220,0,USAlaskaSitka,Alaska,Sitka,2022-04-28 09:13:11,2021-09-25,1.5818178680516806,1.9294781028872734,2.4018021208617633,,,,,,,,,,,,
2220,0,USAlaskaSitka,Alaska,Sitka,2022-04-28 09:13:11,2021-09-26,1.5818178680516806,1.9294781028872734,2.4018021208617633,,,,,,,,,,,,
2220,0,USAlaskaSitka,Alaska,Sitka,2022-04-28 09:13:11,2021-09-27,1.5818178680516806,1.9294781028872734,2.4018021208617633,,,,,,,,,,,,
2220,0,USAlaskaSitka,Alaska,Sitka,2022-04-28 09:13:11,2021-09-28,1.5818178680516806,1.9294781028872734,2.4018021208617633,,,,,,,,,,,,
2220,0,USAlaskaSitka,Alaska,Sitka,2022-04-28 09:13:11,2021-09-29,1.5818178680516806,1.9294781028872734,2.4018021208617633,,,,,,,,,,,,
2220,0,USAlaskaSitka,Alaska,Sitka,2022-04-28 09:13:11,2021-09-30,0.4822715699884076,0.656166254927181,0.9253240453545493,,,,,,,,,,,,
2220,0,USAlaskaSitka,Alaska,Sitka,2022-04-28 09:13:11,2021-10-01,0.4822715699884076,0.656166254927181,0.9253240453545493,,,,,,,,,,,,
2220,0,USAlaskaSitka,Alaska,Sitka,2022-04-28 09:13:11,2021-10-02,0.4822715699884076,0.656166254927181,0.9253240453545493,,,,,,,,,,,,
2220,0,USAlaskaSitka,Alaska,Sitka,2022-04-28 09:13:11,2021-10-03,0.4822715699884076,0.656166254927181,0.9253240453545493,,,,,,,,,,,,
2220,0,USAlaskaSitka,Alaska,Sitka,2022-04-28 09:13:11,2021-10-04,0.4822715699884076,0.656166254927181,0.9253240453545493,,,,,,,,,,,,
2220,0,USAlaskaSitka,Alaska,Sitka,2022-04-28 09:13:11,2021-10-05,0.4822715699884076,0.656166254927181,0.9253240453545493,,,,,,,,,,,,
2220,0,USAlaskaSitka,Alaska,Sitka,2022-04-28 09:13:11,2021-10-06,0.4822715699884076,0.656166254927181,0.9253240453545493,,,,,,,,,,,,
2220,0,USAlaskaSitka,Alaska,Sitka,2022-04-28 09:13:11,2021-10-07,0.6256105869831067,0.8176357870991101,1.1014100745265092,,,,,,,,,,,,
2220,0,USAlaskaSitka,Alaska,Sitka,2022-04-28 09:13:11,2021-10-08,0.6256105869831067,0.8176357870991101,1.1014100745265092,,,,,,,,,,,,
2220,0,USAlaskaSitka,Alaska,Sitka,2022-04-28 09:13:11,2021-10-09,0.6256105869831067,0.8176357870991101,1.1014100745265092,,,,,,,,,,,,
2220,0,USAlaskaSitka,Alaska,Sitka,2022-04-28 09:13:11,2021-10-10,0.6256105869831067,0.8176357870991101,1.1014100745265092,,,,,,,,,,,,
2220,0,USAlaskaSitka,Alaska,Sitka,2022-04-28 09:13:11,2021-10-11,0.6256105869831067,0.8176357870991101,1.1014100745265092,,,,,,,,,,,,
2220,0,USAlaskaSitka,Alaska,Sitka,2022-04-28 09:13:11,2021-10-12,0.6256105869831067,0.8176357870991101,1.1014100745265092,,,,,,,,,,,,
2220,0,USAlaskaSitka,Alaska,Sitka,2022-04-28 09:13:11,2021-10-13,0.6256105869831067,0.8176357870991101,1.1014100745265092,,,,,,,,,,,,
2220,0,USAlaskaSitka,Alaska,Sitka,2022-04-28 09:13:11,2021-10-14,0.46476524343360226,0.6118405622053187,0.831038077203452,,,,,,,,,,,,
2220,0,USAlaskaSitka,Alaska,Sitka,2022-04-28 09:13:11,2021-10-15,0.46476524343360226,0.6118405622053187,0.831038077203452,,,,,,,,,,,,
2220,0,USAlaskaSitka,Alaska,Sitka,2022-04-28 09:13:11,2021-10-16,0.46476524343360226,0.6118405622053187,0.831038077203452,,,,,,,,,,,,
2220,0,USAlaskaSitka,Alaska,Sitka,2022-04-28 09:13:11,2021-10-17,0.46476524343360226,0.6118405622053187,0.831038077203452,,,,,,,,,,,,
2220,0,USAlaskaSitka,Alaska,Sitka,2022-04-28 09:13:11,2021-10-18,0.46476524343360226,0.6118405622053187,0.831038077203452,,,,,,,,,,,,
2220,0,USAlaskaSitka,Alaska,Sitka,2022-04-28 09:13:11,2021-10-19,0.46476524343360226,0.6118405622053187,0.831038077203452,,,,,,,,,,,,
2220,0,USAlaskaSitka,Alaska,Sitka,2022-04-28 09:13:11,2021-10-20,0.46476524343360226,0.6118405622053187,0.831038077203452,,,,,,,,,,,,
2220,0,USAlaskaSitka,Alaska,Sitka,2022-04-28 09:13:11,2021-10-21,0.8354855155274414,1.1063999243540397,1.512947606992778,,,,,,,,,,,,
2220,0,USAlaskaSitka,Alaska,Sitka,2022-04-28 09:13:11,2021-10-22,0.8354855155274414,1.1063999243540397,1.512947606992778,,,,,,,,,,,,
2220,0,USAlaskaSitka,Alaska,Sitka,2022-04-28 09:13:11,2021-10-23,0.8354855155274414,1.1063999243540397,1.512947606992778,,,,,,,,,,,,
2220,0,USAlaskaSitka,Alaska,Sitka,2022-04-28 09:13:11,2021-10-24,0.8354855155274414,1.1063999243540397,1.512947606992778,,,,,,,,,,,,
2220,0,USAlaskaSitka,Alaska,Sitka,2022-04-28 09:13:11,2021-10-25,0.8354855155274414,1.1063999243540397,1.512947606992778,,,,,,,,,,,,
2220,0,USAlaskaSitka,Alaska,Sitka,2022-04-28 09:13:11,2021-10-26,0.8354855155274414,1.1063999243540397,1.512947606992778,,,,,,,,,,,,
2220,0,USAlaskaSitka,Alaska,Sitka,2022-04-28 09:13:11,2021-10-27,0.8354855155274414,1.1063999243540397,1.512947606992778,,,,,,,,,,,,
2220,0,USAlaskaSitka,Alaska,Sitka,2022-04-28 09:13:11,2021-10-28,0.5720778967816238,0.7622608583549773,1.0496965470703852,,,,,,,,,,,,
2220,0,USAlaskaSitka,Alaska,Sitka,2022-04-28 09:13:11,2021-10-29,0.5720778967816238,0.7622608583549773,1.0496965470703852,,,,,,,,,,,,
2220,0,USAlaskaSitka,Alaska,Sitka,2022-04-28 09:13:11,2021-10-30,0.5720778967816238,0.7622608583549773,1.0496965470703852,,,,,,,,,,,,
2220,0,USAlaskaSitka,Alaska,Sitka,2022-04-28 09:13:11,2021-10-31,0.5720778967816238,0.7622608583549773,1.0496965470703852,,,,,,,,,,,,
2220,0,USAlaskaSitka,Alaska,Sitka,2022-04-28 09:13:11,2021-11-01,0.5720778967816238,0.7622608583549773,1.0496965470703852,,,,,,,,,,,,
2220,0,USAlaskaSitka,Alaska,Sitka,2022-04-28 09:13:11,2021-11-02,0.5720778967816238,0.7622608583549773,1.0496965470703852,,,,,,,,,,,,
2220,0,USAlaskaSitka,Alaska,Sitka,2022-04-28 09:13:11,2021-11-03,0.5720778967816238,0.7622608583549773,1.0496965470703852,,,,,,,,,,,,
2220,0,USAlaskaSitka,Alaska,Sitka,2022-04-28 09:13:11,2021-11-04,0.2460275342998224,0.3408315851090795,0.49057108237227565,,,,,,,,,,,,
2220,0,USAlaskaSitka,Alaska,Sitka,2022-04-28 09:13:11,2021-11-05,0.2460275342998224,0.3408315851090795,0.49057108237227565,,,,,,,,,,,,
2220,0,USAlaskaSitka,Alaska,Sitka,2022-04-28 09:13:11,2021-11-06,0.2460275342998224,0.3408315851090795,0.49057108237227565,,,,,,,,,,,,
2220,0,USAlaskaSitka,Alaska,Sitka,2022-04-28 09:13:11,2021-11-07,0.2460275342998224,0.3408315851090795,0.49057108237227565,,,,,,,,,,,,
2220,0,USAlaskaSitka,Alaska,Sitka,2022-04-28 09:13:11,2021-11-08,0.2460275342998224,0.3408315851090795,0.49057108237227565,,,,,,,,,,,,
2220,0,USAlaskaSitka,Alaska,Sitka,2022-04-28 09:13:11,2021-11-09,0.2460275342998224,0.3408315851090795,0.49057108237227565,,,,,,,,,,,,
2220,0,USAlaskaSitka,Alaska,Sitka,2022-04-28 09:13:11,2021-11-10,0.2460275342998224,0.3408315851090795,0.49057108237227565,,,,,,,,,,,,
2220,0,USAlaskaSitka,Alaska,Sitka,2022-04-28 09:13:11,2021-11-11,0.24614132132925148,0.34113119189720453,0.49123374096192607,,,,,,,,,,,,
2220,0,USAlaskaSitka,Alaska,Sitka,2022-04-28 09:13:11,2021-11-12,0.24614132132925148,0.34113119189720453,0.49123374096192607,,,,,,,,,,,,
2220,0,USAlaskaSitka,Alaska,Sitka,2022-04-28 09:13:11,2021-11-13,0.24614132132925148,0.34113119189720453,0.49123374096192607,,,,,,,,,,,,
2220,0,USAlaskaSitka,Alaska,Sitka,2022-04-28 09:13:11,2021-11-14,0.24614132132925148,0.34113119189720453,0.49123374096192607,,,,,,,,,,,,
2220,0,USAlaskaSitka,Alaska,Sitka,2022-04-28 09:13:11,2021-11-15,0.24614132132925148,0.34113119189720453,0.49123374096192607,,,,,,,,,,,,
2220,0,USAlaskaSitka,Alaska,Sitka,2022-04-28 09:13:11,2021-11-16,0.24614132132925148,0.34113119189720453,0.49123374096192607,,,,,,,,,,,,
2220,0,USAlaskaSitka,Alaska,Sitka,2022-04-28 09:13:11,2021-11-17,0.24614132132925148,0.34113119189720453,0.49123374096192607,,,,,,,,,,,,
2220,0,USAlaskaSitka,Alaska,Sitka,2022-04-28 09:13:11,2021-11-18,0.31488193775045836,0.434432137788274,0.6223950126872746,,,,,,,,,,,,
2220,0,USAlaskaSitka,Alaska,Sitka,2022-04-28 09:13:11,2021-11-19,0.31488193775045836,0.434432137788274,0.6223950126872746,,,,,,,,,,,,
2220,0,USAlaskaSitka,Alaska,Sitka,2022-04-28 09:13:11,2021-11-20,0.31488193775045836,0.434432137788274,0.6223950126872746,,,,,,,,,,,,
2220,0,USAlaskaSitka,Alaska,Sitka,2022-04-28 09:13:11,2021-11-21,0.31488193775045836,0.434432137788274,0.6223950126872746,,,,,,,,,,,,
2220,0,USAlaskaSitka,Alaska,Sitka,2022-04-28 09:13:11,2021-11-22,0.31488193775045836,0.434432137788274,0.6223950126872746,,,,,,,,,,,,
2220,0,USAlaskaSitka,Alaska,Sitka,2022-04-28 09:13:11,2021-11-23,0.31488193775045836,0.434432137788274,0.6223950126872746,,,,,,,,,,,,
2220,0,USAlaskaSitka,Alaska,Sitka,2022-04-28 09:13:11,2021-11-24,0.31488193775045836,0.434432137788274,0.6223950126872746,,,,,,,,,,,,
2220,0,USAlaskaSitka,Alaska,Sitka,2022-04-28 09:13:11,2021-11-25,0.41044097982892463,0.6002319081468954,0.918245352248489,,,,,,,,,,,,
2220,0,USAlaskaSitka,Alaska,Sitka,2022-04-28 09:13:11,2021-11-26,0.41044097982892463,0.6002319081468954,0.918245352248489,,,,,,,,,,,,
2220,0,USAlaskaSitka,Alaska,Sitka,2022-04-28 09:13:11,2021-11-27,0.41044097982892463,0.6002319081468954,0.918245352248489,,,,,,,,,,,,
2220,0,USAlaskaSitka,Alaska,Sitka,2022-04-28 09:13:11,2021-11-28,0.41044097982892463,0.6002319081468954,0.918245352248489,,,,,,,,,,,,
2220,0,USAlaskaSitka,Alaska,Sitka,2022-04-28 09:13:11,2021-11-29,0.41044097982892463,0.6002319081468954,0.918245352248489,,,,,,,,,,,,
2220,0,USAlaskaSitka,Alaska,Sitka,2022-04-28 09:13:11,2021-11-30,0.41044097982892463,0.6002319081468954,0.918245352248489,,,,,,,,,,,,
2220,0,USAlaskaSitka,Alaska,Sitka,2022-04-28 09:13:11,2021-12-01,0.41044097982892463,0.6002319081468954,0.918245352248489,,,,,,,,,,,,
2220,0,USAlaskaSitka,Alaska,Sitka,2022-04-28 09:13:11,2021-12-02,0.45754415276652627,0.6346480124338983,0.9147671581644189,,,,,,,,,,,,
2220,0,USAlaskaSitka,Alaska,Sitka,2022-04-28 09:13:11,2021-12-03,0.45754415276652627,0.6346480124338983,0.9147671581644189,,,,,,,,,,,,
2220,0,USAlaskaSitka,Alaska,Sitka,2022-04-28 09:13:11,2021-12-04,0.45754415276652627,0.6346480124338983,0.9147671581644189,,,,,,,,,,,,
2220,0,USAlaskaSitka,Alaska,Sitka,2022-04-28 09:13:11,2021-12-05,0.45754415276652627,0.6346480124338983,0.9147671581644189,,,,,,,,,,,,
2220,0,USAlaskaSitka,Alaska,Sitka,2022-04-28 09:13:11,2021-12-06,0.45754415276652627,0.6346480124338983,0.9147671581644189,,,,,,,,,,,,
2220,0,USAlaskaSitka,Alaska,Sitka,2022-04-28 09:13:11,2021-12-07,0.45754415276652627,0.6346480124338983,0.9147671581644189,,,,,,,,,,,,
2220,0,USAlaskaSitka,Alaska,Sitka,2022-04-28 09:13:11,2021-12-08,0.45754415276652627,0.6346480124338983,0.9147671581644189,,,,,,,,,,,,
2220,0,USAlaskaSitka,Alaska,Sitka,2022-04-28 09:13:11,2021-12-09,0.8552798234030167,1.1168541414939264,1.5030241111236804,,,,,,,,,,,,
2220,0,USAlaskaSitka,Alaska,Sitka,2022-04-28 09:13:11,2021-12-10,0.8552798234030167,1.1168541414939264,1.5030241111236804,,,,,,,,,,,,
2220,0,USAlaskaSitka,Alaska,Sitka,2022-04-28 09:13:11,2021-12-11,0.8552798234030167,1.1168541414939264,1.5030241111236804,,,,,,,,,,,,
2220,0,USAlaskaSitka,Alaska,Sitka,2022-04-28 09:13:11,2021-12-12,0.8552798234030167,1.1168541414939264,1.5030241111236804,,,,,,,,,,,,
2220,0,USAlaskaSitka,Alaska,Sitka,2022-04-28 09:13:11,2021-12-13,0.8552798234030167,1.1168541414939264,1.5030241111236804,,,,,,,,,,,,
2220,0,USAlaskaSitka,Alaska,Sitka,2022-04-28 09:13:11,2021-12-14,0.8552798234030167,1.1168541414939264,1.5030241111236804,,,,,,,,,,,,
2220,0,USAlaskaSitka,Alaska,Sitka,2022-04-28 09:13:11,2021-12-15,0.8552798234030167,1.1168541414939264,1.5030241111236804,,,,,,,,,,,,
2220,0,USAlaskaSitka,Alaska,Sitka,2022-04-28 09:13:11,2021-12-16,0.7377549217168806,1.0677211345826332,1.6144599588691126,,,,,,,,,,,,
2220,0,USAlaskaSitka,Alaska,Sitka,2022-04-28 09:13:11,2021-12-17,0.7377549217168806,1.0677211345826332,1.6144599588691126,,,,,,,,,,,,
2220,0,USAlaskaSitka,Alaska,Sitka,2022-04-28 09:13:11,2021-12-18,0.7377549217168806,1.0677211345826332,1.6144599588691126,,,,,,,,,,,,
2220,0,USAlaskaSitka,Alaska,Sitka,2022-04-28 09:13:11,2021-12-19,0.7377549217168806,1.0677211345826332,1.6144599588691126,,,,,,,,,,,,
2220,0,USAlaskaSitka,Alaska,Sitka,2022-04-28 09:13:11,2021-12-20,0.7377549217168806,1.0677211345826332,1.6144599588691126,,,,,,,,,,,,
2220,0,USAlaskaSitka,Alaska,Sitka,2022-04-28 09:13:11,2021-12-21,0.7377549217168806,1.0677211345826332,1.6144599588691126,,,,,,,,,,,,
2220,0,USAlaskaSitka,Alaska,Sitka,2022-04-28 09:13:11,2021-12-22,0.7377549217168806,1.0677211345826332,1.6144599588691126,,,,,,,,,,,,
2220,0,USAlaskaSitka,Alaska,Sitka,2022-04-28 09:13:11,2021-12-23,2.0187445214175277,3.060912205272354,4.875303371606381,,,,,,,,,,,,
2220,0,USAlaskaSitka,Alaska,Sitka,2022-04-28 09:13:11,2021-12-24,2.0187445214175277,3.060912205272354,4.875303371606381,,,,,,,,,,,,
2220,0,USAlaskaSitka,Alaska,Sitka,2022-04-28 09:13:11,2021-12-25,2.0187445214175277,3.060912205272354,4.875303371606381,,,,,,,,,,,,
2220,0,USAlaskaSitka,Alaska,Sitka,2022-04-28 09:13:11,2021-12-26,2.0187445214175277,3.060912205272354,4.875303371606381,,,,,,,,,,,,
2220,0,USAlaskaSitka,Alaska,Sitka,2022-04-28 09:13:11,2021-12-27,2.0187445214175277,3.060912205272354,4.875303371606381,,,,,,,,,,,,
2220,0,USAlaskaSitka,Alaska,Sitka,2022-04-28 09:13:11,2021-12-28,2.0187445214175277,3.060912205272354,4.875303371606381,,,,,,,,,,,,
2220,0,USAlaskaSitka,Alaska,Sitka,2022-04-28 09:13:11,2021-12-29,2.0187445214175277,3.060912205272354,4.875303371606381,,,,,,,,,,,,
2220,0,USAlaskaSitka,Alaska,Sitka,2022-04-28 09:13:11,2021-12-30,3.3189009523403668,4.801994426671814,7.25868990463033,,,,,,,,,,,,
2220,0,USAlaskaSitka,Alaska,Sitka,2022-04-28 09:13:11,2021-12-31,3.3189009523403668,4.801994426671814,7.25868990463033,,,,,,,,,,,,
2220,0,USAlaskaSitka,Alaska,Sitka,2022-04-28 09:13:11,2022-01-01,3.3189009523403668,4.801994426671814,7.25868990463033,,,,,,,,,,,,
2220,0,USAlaskaSitka,Alaska,Sitka,2022-04-28 09:13:11,2022-01-02,3.3189009523403668,4.801994426671814,7.25868990463033,,,,,,,,,,,,
2220,0,USAlaskaSitka,Alaska,Sitka,2022-04-28 09:13:11,2022-01-03,3.3189009523403668,4.801994426671814,7.25868990463033,,,,,,,,,,,,
2220,0,USAlaskaSitka,Alaska,Sitka,2022-04-28 09:13:11,2022-01-04,3.3189009523403668,4.801994426671814,7.25868990463033,,,,,,,,,,,,
2220,0,USAlaskaSitka,Alaska,Sitka,2022-04-28 09:13:11,2022-01-05,3.3189009523403668,4.801994426671814,7.25868990463033,,,,,,,,,,,,
2220,0,USAlaskaSitka,Alaska,Sitka,2022-04-28 09:13:11,2022-01-06,5.386846930522459,8.375487967100986,13.716318488331824,,,,,,,,,,,,
2220,0,USAlaskaSitka,Alaska,Sitka,2022-04-28 09:13:11,2022-01-07,5.386846930522459,8.375487967100986,13.716318488331824,,,,,,,,,,,,
2220,0,USAlaskaSitka,Alaska,Sitka,2022-04-28 09:13:11,2022-01-08,5.386846930522459,8.375487967100986,13.716318488331824,,,,,,,,,,,,
2220,0,USAlaskaSitka,Alaska,Sitka,2022-04-28 09:13:11,2022-01-09,5.386846930522459,8.375487967100986,13.716318488331824,,,,,,,,,,,,
2220,0,USAlaskaSitka,Alaska,Sitka,2022-04-28 09:13:11,2022-01-10,5.386846930522459,8.375487967100986,13.716318488331824,,,,,,,,,,,,
2220,0,USAlaskaSitka,Alaska,Sitka,2022-04-28 09:13:11,2022-01-11,5.386846930522459,8.375487967100986,13.716318488331824,,,,,,,,,,,,
2220,0,USAlaskaSitka,Alaska,Sitka,2022-04-28 09:13:11,2022-01-12,5.386846930522459,8.375487967100986,13.716318488331824,,,,,,,,,,,,
2220,0,USAlaskaSitka,Alaska,Sitka,2022-04-28 09:13:11,2022-01-13,6.107023113450466,9.169730591170863,14.447411816592243,,,,,,,,,,,,
2220,0,USAlaskaSitka,Alaska,Sitka,2022-04-28 09:13:11,2022-01-14,6.107023113450466,9.169730591170863,14.447411816592243,,,,,,,,,,,,
2220,0,USAlaskaSitka,Alaska,Sitka,2022-04-28 09:13:11,2022-01-15,6.107023113450466,9.169730591170863,14.447411816592243,,,,,,,,,,,,
2220,0,USAlaskaSitka,Alaska,Sitka,2022-04-28 09:13:11,2022-01-16,6.107023113450466,9.169730591170863,14.447411816592243,,,,,,,,,,,,
2220,0,USAlaskaSitka,Alaska,Sitka,2022-04-28 09:13:11,2022-01-17,6.107023113450466,9.169730591170863,14.447411816592243,,,,,,,,,,,,
2220,0,USAlaskaSitka,Alaska,Sitka,2022-04-28 09:13:11,2022-01-18,6.107023113450466,9.169730591170863,14.447411816592243,,,,,,,,,,,,
2220,0,USAlaskaSitka,Alaska,Sitka,2022-04-28 09:13:11,2022-01-19,6.107023113450466,9.169730591170863,14.447411816592243,,,,,,,,,,,,
2220,0,USAlaskaSitka,Alaska,Sitka,2022-04-28 09:13:11,2022-01-20,4.79675908857612,8.023717381573228,14.234588386261748,,,,,,,,,,,,
2220,0,USAlaskaSitka,Alaska,Sitka,2022-04-28 09:13:11,2022-01-21,4.79675908857612,8.023717381573228,14.234588386261748,,,,,,,,,,,,
2220,0,USAlaskaSitka,Alaska,Sitka,2022-04-28 09:13:11,2022-01-22,4.79675908857612,8.023717381573228,14.234588386261748,,,,,,,,,,,,
2220,0,USAlaskaSitka,Alaska,Sitka,2022-04-28 09:13:11,2022-01-23,4.79675908857612,8.023717381573228,14.234588386261748,,,,,,,,,,,,
2220,0,USAlaskaSitka,Alaska,Sitka,2022-04-28 09:13:11,2022-01-24,4.79675908857612,8.023717381573228,14.234588386261748,,,,,,,,,,,,
2220,0,USAlaskaSitka,Alaska,Sitka,2022-04-28 09:13:11,2022-01-25,4.79675908857612,8.023717381573228,14.234588386261748,,,,,,,,,,,,
2220,0,USAlaskaSitka,Alaska,Sitka,2022-04-28 09:13:11,2022-01-26,4.79675908857612,8.023717381573228,14.234588386261748,,,,,,,,,,,,
2220,0,USAlaskaSitka,Alaska,Sitka,2022-04-28 09:13:11,2022-01-27,7.207749308291919,11.129597787249798,18.0882633186844,,,,,,,,,,,,
2220,0,USAlaskaSitka,Alaska,Sitka,2022-04-28 09:13:11,2022-01-28,7.207749308291919,11.129597787249798,18.0882633186844,,,,,,,,,,,,
2220,0,USAlaskaSitka,Alaska,Sitka,2022-04-28 09:13:11,2022-01-29,7.207749308291919,11.129597787249798,18.0882633186844,,,,,,,,,,,,
2220,0,USAlaskaSitka,Alaska,Sitka,2022-04-28 09:13:11,2022-01-30,7.207749308291919,11.129597787249798,18.0882633186844,,,,,,,,,,,,
2220,0,USAlaskaSitka,Alaska,Sitka,2022-04-28 09:13:11,2022-01-31,7.207749308291919,11.129597787249798,18.0882633186844,,,,,,,,,,,,
2220,0,USAlaskaSitka,Alaska,Sitka,2022-04-28 09:13:11,2022-02-01,7.207749308291919,11.129597787249798,18.0882633186844,,,,,,,,,,,,
2220,0,USAlaskaSitka,Alaska,Sitka,2022-04-28 09:13:11,2022-02-02,7.207749308291919,11.129597787249798,18.0882633186844,,,,,,,,,,,,
2220,0,USAlaskaSitka,Alaska,Sitka,2022-04-28 09:13:11,2022-02-03,4.212883199669147,7.079624526404377,12.622637962627728,,,,,,,,,,,,
2220,0,USAlaskaSitka,Alaska,Sitka,2022-04-28 09:13:11,2022-02-04,4.212883199669147,7.079624526404377,12.622637962627728,,,,,,,,,,,,
2220,0,USAlaskaSitka,Alaska,Sitka,2022-04-28 09:13:11,2022-02-05,4.212883199669147,7.079624526404377,12.622637962627728,,,,,,,,,,,,
2220,0,USAlaskaSitka,Alaska,Sitka,2022-04-28 09:13:11,2022-02-06,4.212883199669147,7.079624526404377,12.622637962627728,,,,,,,,,,,,
2220,0,USAlaskaSitka,Alaska,Sitka,2022-04-28 09:13:11,2022-02-07,4.212883199669147,7.079624526404377,12.622637962627728,,,,,,,,,,,,
2220,0,USAlaskaSitka,Alaska,Sitka,2022-04-28 09:13:11,2022-02-08,4.212883199669147,7.079624526404377,12.622637962627728,,,,,,,,,,,,
2220,0,USAlaskaSitka,Alaska,Sitka,2022-04-28 09:13:11,2022-02-09,4.212883199669147,7.079624526404377,12.622637962627728,,,,,,,,,,,,
2220,0,USAlaskaSitka,Alaska,Sitka,2022-04-28 09:13:11,2022-02-10,2.1271847138768405,3.9435079961892217,7.810050469923321,,,,,,,,,,,,
2220,0,USAlaskaSitka,Alaska,Sitka,2022-04-28 09:13:11,2022-02-11,2.1271847138768405,3.9435079961892217,7.810050469923321,,,,,,,,,,,,
2220,0,USAlaskaSitka,Alaska,Sitka,2022-04-28 09:13:11,2022-02-12,2.1271847138768405,3.9435079961892217,7.810050469923321,,,,,,,,,,,,
2220,0,USAlaskaSitka,Alaska,Sitka,2022-04-28 09:13:11,2022-02-13,2.1271847138768405,3.9435079961892217,7.810050469923321,,,,,,,,,,,,
2220,0,USAlaskaSitka,Alaska,Sitka,2022-04-28 09:13:11,2022-02-14,2.1271847138768405,3.9435079961892217,7.810050469923321,,,,,,,,,,,,
2220,0,USAlaskaSitka,Alaska,Sitka,2022-04-28 09:13:11,2022-02-15,2.1271847138768405,3.9435079961892217,7.810050469923321,,,,,,,,,,,,
2220,0,USAlaskaSitka,Alaska,Sitka,2022-04-28 09:13:11,2022-02-16,2.1271847138768405,3.9435079961892217,7.810050469923321,,,,,,,,,,,,
2220,0,USAlaskaSitka,Alaska,Sitka,2022-04-28 09:13:11,2022-02-17,1.3981621760076157,2.6696623984208094,5.454260169460558,,,,,,,,,,,,
2220,0,USAlaskaSitka,Alaska,Sitka,2022-04-28 09:13:11,2022-02-18,1.3981621760076157,2.6696623984208094,5.454260169460558,,,,,,,,,,,,
2220,0,USAlaskaSitka,Alaska,Sitka,2022-04-28 09:13:11,2022-02-19,1.3981621760076157,2.6696623984208094,5.454260169460558,,,,,,,,,,,,
2220,0,USAlaskaSitka,Alaska,Sitka,2022-04-28 09:13:11,2022-02-20,1.3981621760076157,2.6696623984208094,5.454260169460558,,,,,,,,,,,,
2220,0,USAlaskaSitka,Alaska,Sitka,2022-04-28 09:13:11,2022-02-21,1.3981621760076157,2.6696623984208094,5.454260169460558,,,,,,,,,,,,
2220,0,USAlaskaSitka,Alaska,Sitka,2022-04-28 09:13:11,2022-02-22,1.3981621760076157,2.6696623984208094,5.454260169460558,,,,,,,,,,,,
2220,0,USAlaskaSitka,Alaska,Sitka,2022-04-28 09:13:11,2022-02-23,1.3981621760076157,2.6696623984208094,5.454260169460558,,,,,,,,,,,,
2220,0,USAlaskaSitka,Alaska,Sitka,2022-04-28 09:13:11,2022-02-24,1.7351245110258915,2.9809690425891375,5.443288879677262,,,,,,,,,,,,
2220,0,USAlaskaSitka,Alaska,Sitka,2022-04-28 09:13:11,2022-02-25,1.7351245110258915,2.9809690425891375,5.443288879677262,,,,,,,,,,,,
2220,0,USAlaskaSitka,Alaska,Sitka,2022-04-28 09:13:11,2022-02-26,1.7351245110258915,2.9809690425891375,5.443288879677262,,,,,,,,,,,,
2220,0,USAlaskaSitka,Alaska,Sitka,2022-04-28 09:13:11,2022-02-27,1.7351245110258915,2.9809690425891375,5.443288879677262,,,,,,,,,,,,
2220,0,USAlaskaSitka,Alaska,Sitka,2022-04-28 09:13:11,2022-02-28,1.7351245110258915,2.9809690425891375,5.443288879677262,,,,,,,,,,,,
2220,0,USAlaskaSitka,Alaska,Sitka,2022-04-28 09:13:11,2022-03-01,1.7351245110258915,2.9809690425891375,5.443288879677262,,,,,,,,,,,,
2220,0,USAlaskaSitka,Alaska,Sitka,2022-04-28 09:13:11,2022-03-02,1.7351245110258915,2.9809690425891375,5.443288879677262,,,,,,,,,,,,
2220,0,USAlaskaSitka,Alaska,Sitka,2022-04-28 09:13:11,2022-03-03,1.257263815190774,2.5076127859280746,5.361950251059673,,,,,,,,,,,,
2220,0,USAlaskaSitka,Alaska,Sitka,2022-04-28 09:13:11,2022-03-04,1.257263815190774,2.5076127859280746,5.361950251059673,,,,,,,,,,,,
2220,0,USAlaskaSitka,Alaska,Sitka,2022-04-28 09:13:11,2022-03-05,1.257263815190774,2.5076127859280746,5.361950251059673,,,,,,,,,,,,
2220,0,USAlaskaSitka,Alaska,Sitka,2022-04-28 09:13:11,2022-03-06,1.257263815190774,2.5076127859280746,5.361950251059673,,,,,,,,,,,,
2220,0,USAlaskaSitka,Alaska,Sitka,2022-04-28 09:13:11,2022-03-07,1.257263815190774,2.5076127859280746,5.361950251059673,,,,,,,,,,,,
2220,0,USAlaskaSitka,Alaska,Sitka,2022-04-28 09:13:11,2022-03-08,1.257263815190774,2.5076127859280746,5.361950251059673,,,,,,,,,,,,
2220,0,USAlaskaSitka,Alaska,Sitka,2022-04-28 09:13:11,2022-03-09,1.257263815190774,2.5076127859280746,5.361950251059673,,,,,,,,,,,,
2220,0,USAlaskaSitka,Alaska,Sitka,2022-04-28 09:13:11,2022-03-10,1.526516080644073,2.965183910026772,6.167930266559852,,,,,,,,,,,,
2220,0,USAlaskaSitka,Alaska,Sitka,2022-04-28 09:13:11,2022-03-11,1.526516080644073,2.965183910026772,6.167930266559852,,,,,,,,,,,,
2220,0,USAlaskaSitka,Alaska,Sitka,2022-04-28 09:13:11,2022-03-12,1.526516080644073,2.965183910026772,6.167930266559852,,,,,,,,,,,,
2220,0,USAlaskaSitka,Alaska,Sitka,2022-04-28 09:13:11,2022-03-13,1.526516080644073,2.965183910026772,6.167930266559852,,,,,,,,,,,,
2220,0,USAlaskaSitka,Alaska,Sitka,2022-04-28 09:13:11,2022-03-14,1.526516080644073,2.965183910026772,6.167930266559852,,,,,,,,,,,,
2220,0,USAlaskaSitka,Alaska,Sitka,2022-04-28 09:13:11,2022-03-15,1.526516080644073,2.965183910026772,6.167930266559852,,,,,,,,,,,,
2220,0,USAlaskaSitka,Alaska,Sitka,2022-04-28 09:13:11,2022-03-16,1.526516080644073,2.965183910026772,6.167930266559852,,,,,,,,,,,,
