FIPS,HR_UID,nameid,province,region,analysisTime,dates,pointprevalence_025,pointprevalence_50,pointprevalence_975,pointinfections_025,pointinfections_50,pointinfections_975,pointinfectious_025,pointinfectious_50,pointinfectious_975,pointinfectiousprevalence_025,pointinfectiousprevalence_50,pointinfectiousprevalence_975,infectrate_025,infectrate_50,infectrate_975
40035,0,USOklahomaCraig,Oklahoma,Craig,2022-04-28 09:13:11,2020-03-19,0,0,0,,,,,,,,,,,,
40035,0,USOklahomaCraig,Oklahoma,Craig,2022-04-28 09:13:11,2020-03-20,0,0,0,,,,,,,,,,,,
40035,0,USOklahomaCraig,Oklahoma,Craig,2022-04-28 09:13:11,2020-03-21,0,0,0,,,,,,,,,,,,
40035,0,USOklahomaCraig,Oklahoma,Craig,2022-04-28 09:13:11,2020-03-22,0,0,0,,,,,,,,,,,,
40035,0,USOklahomaCraig,Oklahoma,Craig,2022-04-28 09:13:11,2020-03-23,0,0,0,,,,,,,,,,,,
40035,0,USOklahomaCraig,Oklahoma,Craig,2022-04-28 09:13:11,2020-03-24,0,0,0,,,,,,,,,,,,
40035,0,USOklahomaCraig,Oklahoma,Craig,2022-04-28 09:13:11,2020-03-25,0,0,0,,,,,,,,,,,,
40035,0,USOklahomaCraig,Oklahoma,Craig,2022-04-28 09:13:11,2020-03-26,0.18354177996572463,0.9009731414212567,4.656829834203626,,,,,,,,,,,,
40035,0,USOklahomaCraig,Oklahoma,Craig,2022-04-28 09:13:11,2020-03-27,0.18354177996572463,0.9009731414212567,4.656829834203626,,,,,,,,,,,,
40035,0,USOklahomaCraig,Oklahoma,Craig,2022-04-28 09:13:11,2020-03-28,0.18354177996572463,0.9009731414212567,4.656829834203626,,,,,,,,,,,,
40035,0,USOklahomaCraig,Oklahoma,Craig,2022-04-28 09:13:11,2020-03-29,0.18354177996572463,0.9009731414212567,4.656829834203626,,,,,,,,,,,,
40035,0,USOklahomaCraig,Oklahoma,Craig,2022-04-28 09:13:11,2020-03-30,0.18354177996572463,0.9009731414212567,4.656829834203626,,,,,,,,,,,,
40035,0,USOklahomaCraig,Oklahoma,Craig,2022-04-28 09:13:11,2020-03-31,0.18354177996572463,0.9009731414212567,4.656829834203626,,,,,,,,,,,,
40035,0,USOklahomaCraig,Oklahoma,Craig,2022-04-28 09:13:11,2020-04-01,0.18354177996572463,0.9009731414212567,4.656829834203626,,,,,,,,,,,,
40035,0,USOklahomaCraig,Oklahoma,Craig,2022-04-28 09:13:11,2020-04-02,0.17653751034305926,0.47562641847540343,1.3781040902040413,,,,,,,,,,,,
40035,0,USOklahomaCraig,Oklahoma,Craig,2022-04-28 09:13:11,2020-04-03,0.17653751034305926,0.47562641847540343,1.3781040902040413,,,,,,,,,,,,
40035,0,USOklahomaCraig,Oklahoma,Craig,2022-04-28 09:13:11,2020-04-04,0.17653751034305926,0.47562641847540343,1.3781040902040413,,,,,,,,,,,,
40035,0,USOklahomaCraig,Oklahoma,Craig,2022-04-28 09:13:11,2020-04-05,0.17653751034305926,0.47562641847540343,1.3781040902040413,,,,,,,,,,,,
40035,0,USOklahomaCraig,Oklahoma,Craig,2022-04-28 09:13:11,2020-04-06,0.17653751034305926,0.47562641847540343,1.3781040902040413,,,,,,,,,,,,
40035,0,USOklahomaCraig,Oklahoma,Craig,2022-04-28 09:13:11,2020-04-07,0.17653751034305926,0.47562641847540343,1.3781040902040413,,,,,,,,,,,,
40035,0,USOklahomaCraig,Oklahoma,Craig,2022-04-28 09:13:11,2020-04-08,0.17653751034305926,0.47562641847540343,1.3781040902040413,,,,,,,,,,,,
40035,0,USOklahomaCraig,Oklahoma,Craig,2022-04-28 09:13:11,2020-04-09,0.15904361446734078,0.3911566695375218,1.0352982708675735,,,,,,,,,,,,
40035,0,USOklahomaCraig,Oklahoma,Craig,2022-04-28 09:13:11,2020-04-10,0.15904361446734078,0.3911566695375218,1.0352982708675735,,,,,,,,,,,,
40035,0,USOklahomaCraig,Oklahoma,Craig,2022-04-28 09:13:11,2020-04-11,0.15904361446734078,0.3911566695375218,1.0352982708675735,,,,,,,,,,,,
40035,0,USOklahomaCraig,Oklahoma,Craig,2022-04-28 09:13:11,2020-04-12,0.15904361446734078,0.3911566695375218,1.0352982708675735,,,,,,,,,,,,
40035,0,USOklahomaCraig,Oklahoma,Craig,2022-04-28 09:13:11,2020-04-13,0.15904361446734078,0.3911566695375218,1.0352982708675735,,,,,,,,,,,,
40035,0,USOklahomaCraig,Oklahoma,Craig,2022-04-28 09:13:11,2020-04-14,0.15904361446734078,0.3911566695375218,1.0352982708675735,,,,,,,,,,,,
40035,0,USOklahomaCraig,Oklahoma,Craig,2022-04-28 09:13:11,2020-04-15,0.15904361446734078,0.3911566695375218,1.0352982708675735,,,,,,,,,,,,
40035,0,USOklahomaCraig,Oklahoma,Craig,2022-04-28 09:13:11,2020-04-16,0.05361721459308786,0.1705565673796839,0.5812867728682164,,,,,,,,,,,,
40035,0,USOklahomaCraig,Oklahoma,Craig,2022-04-28 09:13:11,2020-04-17,0.05361721459308786,0.1705565673796839,0.5812867728682164,,,,,,,,,,,,
40035,0,USOklahomaCraig,Oklahoma,Craig,2022-04-28 09:13:11,2020-04-18,0.05361721459308786,0.1705565673796839,0.5812867728682164,,,,,,,,,,,,
40035,0,USOklahomaCraig,Oklahoma,Craig,2022-04-28 09:13:11,2020-04-19,0.05361721459308786,0.1705565673796839,0.5812867728682164,,,,,,,,,,,,
40035,0,USOklahomaCraig,Oklahoma,Craig,2022-04-28 09:13:11,2020-04-20,0.05361721459308786,0.1705565673796839,0.5812867728682164,,,,,,,,,,,,
40035,0,USOklahomaCraig,Oklahoma,Craig,2022-04-28 09:13:11,2020-04-21,0.05361721459308786,0.1705565673796839,0.5812867728682164,,,,,,,,,,,,
40035,0,USOklahomaCraig,Oklahoma,Craig,2022-04-28 09:13:11,2020-04-22,0.05361721459308786,0.1705565673796839,0.5812867728682164,,,,,,,,,,,,
40035,0,USOklahomaCraig,Oklahoma,Craig,2022-04-28 09:13:11,2020-04-23,0.08970376280802327,0.24507638668085271,0.7199325431172889,,,,,,,,,,,,
40035,0,USOklahomaCraig,Oklahoma,Craig,2022-04-28 09:13:11,2020-04-24,0.08970376280802327,0.24507638668085271,0.7199325431172889,,,,,,,,,,,,
40035,0,USOklahomaCraig,Oklahoma,Craig,2022-04-28 09:13:11,2020-04-25,0.08970376280802327,0.24507638668085271,0.7199325431172889,,,,,,,,,,,,
40035,0,USOklahomaCraig,Oklahoma,Craig,2022-04-28 09:13:11,2020-04-26,0.08970376280802327,0.24507638668085271,0.7199325431172889,,,,,,,,,,,,
40035,0,USOklahomaCraig,Oklahoma,Craig,2022-04-28 09:13:11,2020-04-27,0.08970376280802327,0.24507638668085271,0.7199325431172889,,,,,,,,,,,,
40035,0,USOklahomaCraig,Oklahoma,Craig,2022-04-28 09:13:11,2020-04-28,0.08970376280802327,0.24507638668085271,0.7199325431172889,,,,,,,,,,,,
40035,0,USOklahomaCraig,Oklahoma,Craig,2022-04-28 09:13:11,2020-04-29,0.08970376280802327,0.24507638668085271,0.7199325431172889,,,,,,,,,,,,
40035,0,USOklahomaCraig,Oklahoma,Craig,2022-04-28 09:13:11,2020-04-30,0.11821791649695264,0.28846046083988,0.7574780210738226,,,,,,,,,,,,
40035,0,USOklahomaCraig,Oklahoma,Craig,2022-04-28 09:13:11,2020-05-01,0.11821791649695264,0.28846046083988,0.7574780210738226,,,,,,,,,,,,
40035,0,USOklahomaCraig,Oklahoma,Craig,2022-04-28 09:13:11,2020-05-02,0.11821791649695264,0.28846046083988,0.7574780210738226,,,,,,,,,,,,
40035,0,USOklahomaCraig,Oklahoma,Craig,2022-04-28 09:13:11,2020-05-03,0.11821791649695264,0.28846046083988,0.7574780210738226,,,,,,,,,,,,
40035,0,USOklahomaCraig,Oklahoma,Craig,2022-04-28 09:13:11,2020-05-04,0.11821791649695264,0.28846046083988,0.7574780210738226,,,,,,,,,,,,
40035,0,USOklahomaCraig,Oklahoma,Craig,2022-04-28 09:13:11,2020-05-05,0.11821791649695264,0.28846046083988,0.7574780210738226,,,,,,,,,,,,
40035,0,USOklahomaCraig,Oklahoma,Craig,2022-04-28 09:13:11,2020-05-06,0.11821791649695264,0.28846046083988,0.7574780210738226,,,,,,,,,,,,
40035,0,USOklahomaCraig,Oklahoma,Craig,2022-04-28 09:13:11,2020-05-07,0,0,0,,,,,,,,,,,,
40035,0,USOklahomaCraig,Oklahoma,Craig,2022-04-28 09:13:11,2020-05-08,0,0,0,,,,,,,,,,,,
40035,0,USOklahomaCraig,Oklahoma,Craig,2022-04-28 09:13:11,2020-05-09,0,0,0,,,,,,,,,,,,
40035,0,USOklahomaCraig,Oklahoma,Craig,2022-04-28 09:13:11,2020-05-10,0,0,0,,,,,,,,,,,,
40035,0,USOklahomaCraig,Oklahoma,Craig,2022-04-28 09:13:11,2020-05-11,0,0,0,,,,,,,,,,,,
40035,0,USOklahomaCraig,Oklahoma,Craig,2022-04-28 09:13:11,2020-05-12,0,0,0,,,,,,,,,,,,
40035,0,USOklahomaCraig,Oklahoma,Craig,2022-04-28 09:13:11,2020-05-13,0,0,0,,,,,,,,,,,,
40035,0,USOklahomaCraig,Oklahoma,Craig,2022-04-28 09:13:11,2020-05-14,0.10329663188067673,0.2235232768535323,0.5198449297905922,,,,,,,,,,,,
40035,0,USOklahomaCraig,Oklahoma,Craig,2022-04-28 09:13:11,2020-05-15,0.10329663188067673,0.2235232768535323,0.5198449297905922,,,,,,,,,,,,
40035,0,USOklahomaCraig,Oklahoma,Craig,2022-04-28 09:13:11,2020-05-16,0.10329663188067673,0.2235232768535323,0.5198449297905922,,,,,,,,,,,,
40035,0,USOklahomaCraig,Oklahoma,Craig,2022-04-28 09:13:11,2020-05-17,0.10329663188067673,0.2235232768535323,0.5198449297905922,,,,,,,,,,,,
40035,0,USOklahomaCraig,Oklahoma,Craig,2022-04-28 09:13:11,2020-05-18,0.10329663188067673,0.2235232768535323,0.5198449297905922,,,,,,,,,,,,
40035,0,USOklahomaCraig,Oklahoma,Craig,2022-04-28 09:13:11,2020-05-19,0.10329663188067673,0.2235232768535323,0.5198449297905922,,,,,,,,,,,,
40035,0,USOklahomaCraig,Oklahoma,Craig,2022-04-28 09:13:11,2020-05-20,0.10329663188067673,0.2235232768535323,0.5198449297905922,,,,,,,,,,,,
40035,0,USOklahomaCraig,Oklahoma,Craig,2022-04-28 09:13:11,2020-05-21,0,0,0,,,,,,,,,,,,
40035,0,USOklahomaCraig,Oklahoma,Craig,2022-04-28 09:13:11,2020-05-22,0,0,0,,,,,,,,,,,,
40035,0,USOklahomaCraig,Oklahoma,Craig,2022-04-28 09:13:11,2020-05-23,0,0,0,,,,,,,,,,,,
40035,0,USOklahomaCraig,Oklahoma,Craig,2022-04-28 09:13:11,2020-05-24,0,0,0,,,,,,,,,,,,
40035,0,USOklahomaCraig,Oklahoma,Craig,2022-04-28 09:13:11,2020-05-25,0,0,0,,,,,,,,,,,,
40035,0,USOklahomaCraig,Oklahoma,Craig,2022-04-28 09:13:11,2020-05-26,0,0,0,,,,,,,,,,,,
40035,0,USOklahomaCraig,Oklahoma,Craig,2022-04-28 09:13:11,2020-05-27,0,0,0,,,,,,,,,,,,
40035,0,USOklahomaCraig,Oklahoma,Craig,2022-04-28 09:13:11,2020-05-28,0,0,0,,,,,,,,,,,,
40035,0,USOklahomaCraig,Oklahoma,Craig,2022-04-28 09:13:11,2020-05-29,0,0,0,,,,,,,,,,,,
40035,0,USOklahomaCraig,Oklahoma,Craig,2022-04-28 09:13:11,2020-05-30,0,0,0,,,,,,,,,,,,
40035,0,USOklahomaCraig,Oklahoma,Craig,2022-04-28 09:13:11,2020-05-31,0,0,0,,,,,,,,,,,,
40035,0,USOklahomaCraig,Oklahoma,Craig,2022-04-28 09:13:11,2020-06-01,0,0,0,,,,,,,,,,,,
40035,0,USOklahomaCraig,Oklahoma,Craig,2022-04-28 09:13:11,2020-06-02,0,0,0,,,,,,,,,,,,
40035,0,USOklahomaCraig,Oklahoma,Craig,2022-04-28 09:13:11,2020-06-03,0,0,0,,,,,,,,,,,,
40035,0,USOklahomaCraig,Oklahoma,Craig,2022-04-28 09:13:11,2020-06-04,0.047214896877878436,0.13482400317164756,0.41362983009966703,,,,,,,,,,,,
40035,0,USOklahomaCraig,Oklahoma,Craig,2022-04-28 09:13:11,2020-06-05,0.047214896877878436,0.13482400317164756,0.41362983009966703,,,,,,,,,,,,
40035,0,USOklahomaCraig,Oklahoma,Craig,2022-04-28 09:13:11,2020-06-06,0.047214896877878436,0.13482400317164756,0.41362983009966703,,,,,,,,,,,,
40035,0,USOklahomaCraig,Oklahoma,Craig,2022-04-28 09:13:11,2020-06-07,0.047214896877878436,0.13482400317164756,0.41362983009966703,,,,,,,,,,,,
40035,0,USOklahomaCraig,Oklahoma,Craig,2022-04-28 09:13:11,2020-06-08,0.047214896877878436,0.13482400317164756,0.41362983009966703,,,,,,,,,,,,
40035,0,USOklahomaCraig,Oklahoma,Craig,2022-04-28 09:13:11,2020-06-09,0.047214896877878436,0.13482400317164756,0.41362983009966703,,,,,,,,,,,,
40035,0,USOklahomaCraig,Oklahoma,Craig,2022-04-28 09:13:11,2020-06-10,0.047214896877878436,0.13482400317164756,0.41362983009966703,,,,,,,,,,,,
40035,0,USOklahomaCraig,Oklahoma,Craig,2022-04-28 09:13:11,2020-06-11,0,0,0,,,,,,,,,,,,
40035,0,USOklahomaCraig,Oklahoma,Craig,2022-04-28 09:13:11,2020-06-12,0,0,0,,,,,,,,,,,,
40035,0,USOklahomaCraig,Oklahoma,Craig,2022-04-28 09:13:11,2020-06-13,0,0,0,,,,,,,,,,,,
40035,0,USOklahomaCraig,Oklahoma,Craig,2022-04-28 09:13:11,2020-06-14,0,0,0,,,,,,,,,,,,
40035,0,USOklahomaCraig,Oklahoma,Craig,2022-04-28 09:13:11,2020-06-15,0,0,0,,,,,,,,,,,,
40035,0,USOklahomaCraig,Oklahoma,Craig,2022-04-28 09:13:11,2020-06-16,0,0,0,,,,,,,,,,,,
40035,0,USOklahomaCraig,Oklahoma,Craig,2022-04-28 09:13:11,2020-06-17,0,0,0,,,,,,,,,,,,
40035,0,USOklahomaCraig,Oklahoma,Craig,2022-04-28 09:13:11,2020-06-18,0.10859423478417067,0.3491119855146277,1.202097558523358,,,,,,,,,,,,
40035,0,USOklahomaCraig,Oklahoma,Craig,2022-04-28 09:13:11,2020-06-19,0.10859423478417067,0.3491119855146277,1.202097558523358,,,,,,,,,,,,
40035,0,USOklahomaCraig,Oklahoma,Craig,2022-04-28 09:13:11,2020-06-20,0.10859423478417067,0.3491119855146277,1.202097558523358,,,,,,,,,,,,
40035,0,USOklahomaCraig,Oklahoma,Craig,2022-04-28 09:13:11,2020-06-21,0.10859423478417067,0.3491119855146277,1.202097558523358,,,,,,,,,,,,
40035,0,USOklahomaCraig,Oklahoma,Craig,2022-04-28 09:13:11,2020-06-22,0.10859423478417067,0.3491119855146277,1.202097558523358,,,,,,,,,,,,
40035,0,USOklahomaCraig,Oklahoma,Craig,2022-04-28 09:13:11,2020-06-23,0.10859423478417067,0.3491119855146277,1.202097558523358,,,,,,,,,,,,
40035,0,USOklahomaCraig,Oklahoma,Craig,2022-04-28 09:13:11,2020-06-24,0.10859423478417067,0.3491119855146277,1.202097558523358,,,,,,,,,,,,
40035,0,USOklahomaCraig,Oklahoma,Craig,2022-04-28 09:13:11,2020-06-25,0.16512334345574362,0.4197102342889032,1.147952875758794,,,,,,,,,,,,
40035,0,USOklahomaCraig,Oklahoma,Craig,2022-04-28 09:13:11,2020-06-26,0.16512334345574362,0.4197102342889032,1.147952875758794,,,,,,,,,,,,
40035,0,USOklahomaCraig,Oklahoma,Craig,2022-04-28 09:13:11,2020-06-27,0.16512334345574362,0.4197102342889032,1.147952875758794,,,,,,,,,,,,
40035,0,USOklahomaCraig,Oklahoma,Craig,2022-04-28 09:13:11,2020-06-28,0.16512334345574362,0.4197102342889032,1.147952875758794,,,,,,,,,,,,
40035,0,USOklahomaCraig,Oklahoma,Craig,2022-04-28 09:13:11,2020-06-29,0.16512334345574362,0.4197102342889032,1.147952875758794,,,,,,,,,,,,
40035,0,USOklahomaCraig,Oklahoma,Craig,2022-04-28 09:13:11,2020-06-30,0.16512334345574362,0.4197102342889032,1.147952875758794,,,,,,,,,,,,
40035,0,USOklahomaCraig,Oklahoma,Craig,2022-04-28 09:13:11,2020-07-01,0.16512334345574362,0.4197102342889032,1.147952875758794,,,,,,,,,,,,
40035,0,USOklahomaCraig,Oklahoma,Craig,2022-04-28 09:13:11,2020-07-02,0.10809210907084232,0.3461493036069555,1.1874137966775018,,,,,,,,,,,,
40035,0,USOklahomaCraig,Oklahoma,Craig,2022-04-28 09:13:11,2020-07-03,0.10809210907084232,0.3461493036069555,1.1874137966775018,,,,,,,,,,,,
40035,0,USOklahomaCraig,Oklahoma,Craig,2022-04-28 09:13:11,2020-07-04,0.10809210907084232,0.3461493036069555,1.1874137966775018,,,,,,,,,,,,
40035,0,USOklahomaCraig,Oklahoma,Craig,2022-04-28 09:13:11,2020-07-05,0.10809210907084232,0.3461493036069555,1.1874137966775018,,,,,,,,,,,,
40035,0,USOklahomaCraig,Oklahoma,Craig,2022-04-28 09:13:11,2020-07-06,0.10809210907084232,0.3461493036069555,1.1874137966775018,,,,,,,,,,,,
40035,0,USOklahomaCraig,Oklahoma,Craig,2022-04-28 09:13:11,2020-07-07,0.10809210907084232,0.3461493036069555,1.1874137966775018,,,,,,,,,,,,
40035,0,USOklahomaCraig,Oklahoma,Craig,2022-04-28 09:13:11,2020-07-08,0.10809210907084232,0.3461493036069555,1.1874137966775018,,,,,,,,,,,,
40035,0,USOklahomaCraig,Oklahoma,Craig,2022-04-28 09:13:11,2020-07-09,0.25665917213251516,0.6729699989862099,1.8982842175831252,,,,,,,,,,,,
40035,0,USOklahomaCraig,Oklahoma,Craig,2022-04-28 09:13:11,2020-07-10,0.25665917213251516,0.6729699989862099,1.8982842175831252,,,,,,,,,,,,
40035,0,USOklahomaCraig,Oklahoma,Craig,2022-04-28 09:13:11,2020-07-11,0.25665917213251516,0.6729699989862099,1.8982842175831252,,,,,,,,,,,,
40035,0,USOklahomaCraig,Oklahoma,Craig,2022-04-28 09:13:11,2020-07-12,0.25665917213251516,0.6729699989862099,1.8982842175831252,,,,,,,,,,,,
40035,0,USOklahomaCraig,Oklahoma,Craig,2022-04-28 09:13:11,2020-07-13,0.25665917213251516,0.6729699989862099,1.8982842175831252,,,,,,,,,,,,
40035,0,USOklahomaCraig,Oklahoma,Craig,2022-04-28 09:13:11,2020-07-14,0.25665917213251516,0.6729699989862099,1.8982842175831252,,,,,,,,,,,,
40035,0,USOklahomaCraig,Oklahoma,Craig,2022-04-28 09:13:11,2020-07-15,0.25665917213251516,0.6729699989862099,1.8982842175831252,,,,,,,,,,,,
40035,0,USOklahomaCraig,Oklahoma,Craig,2022-04-28 09:13:11,2020-07-16,0.4896699855630538,1.0098891184670147,2.235597991203899,,,,,,,,,,,,
40035,0,USOklahomaCraig,Oklahoma,Craig,2022-04-28 09:13:11,2020-07-17,0.4896699855630538,1.0098891184670147,2.235597991203899,,,,,,,,,,,,
40035,0,USOklahomaCraig,Oklahoma,Craig,2022-04-28 09:13:11,2020-07-18,0.4896699855630538,1.0098891184670147,2.235597991203899,,,,,,,,,,,,
40035,0,USOklahomaCraig,Oklahoma,Craig,2022-04-28 09:13:11,2020-07-19,0.4896699855630538,1.0098891184670147,2.235597991203899,,,,,,,,,,,,
40035,0,USOklahomaCraig,Oklahoma,Craig,2022-04-28 09:13:11,2020-07-20,0.4896699855630538,1.0098891184670147,2.235597991203899,,,,,,,,,,,,
40035,0,USOklahomaCraig,Oklahoma,Craig,2022-04-28 09:13:11,2020-07-21,0.4896699855630538,1.0098891184670147,2.235597991203899,,,,,,,,,,,,
40035,0,USOklahomaCraig,Oklahoma,Craig,2022-04-28 09:13:11,2020-07-22,0.4896699855630538,1.0098891184670147,2.235597991203899,,,,,,,,,,,,
40035,0,USOklahomaCraig,Oklahoma,Craig,2022-04-28 09:13:11,2020-07-23,0.6253617855152559,1.1864792146956362,2.4078481404318732,,,,,,,,,,,,
40035,0,USOklahomaCraig,Oklahoma,Craig,2022-04-28 09:13:11,2020-07-24,0.6253617855152559,1.1864792146956362,2.4078481404318732,,,,,,,,,,,,
40035,0,USOklahomaCraig,Oklahoma,Craig,2022-04-28 09:13:11,2020-07-25,0.6253617855152559,1.1864792146956362,2.4078481404318732,,,,,,,,,,,,
40035,0,USOklahomaCraig,Oklahoma,Craig,2022-04-28 09:13:11,2020-07-26,0.6253617855152559,1.1864792146956362,2.4078481404318732,,,,,,,,,,,,
40035,0,USOklahomaCraig,Oklahoma,Craig,2022-04-28 09:13:11,2020-07-27,0.6253617855152559,1.1864792146956362,2.4078481404318732,,,,,,,,,,,,
40035,0,USOklahomaCraig,Oklahoma,Craig,2022-04-28 09:13:11,2020-07-28,0.6253617855152559,1.1864792146956362,2.4078481404318732,,,,,,,,,,,,
40035,0,USOklahomaCraig,Oklahoma,Craig,2022-04-28 09:13:11,2020-07-29,0.6253617855152559,1.1864792146956362,2.4078481404318732,,,,,,,,,,,,
40035,0,USOklahomaCraig,Oklahoma,Craig,2022-04-28 09:13:11,2020-07-30,0.4695366723282419,1.06047271019252,2.576182020107762,,,,,,,,,,,,
40035,0,USOklahomaCraig,Oklahoma,Craig,2022-04-28 09:13:11,2020-07-31,0.4695366723282419,1.06047271019252,2.576182020107762,,,,,,,,,,,,
40035,0,USOklahomaCraig,Oklahoma,Craig,2022-04-28 09:13:11,2020-08-01,0.4695366723282419,1.06047271019252,2.576182020107762,,,,,,,,,,,,
40035,0,USOklahomaCraig,Oklahoma,Craig,2022-04-28 09:13:11,2020-08-02,0.4695366723282419,1.06047271019252,2.576182020107762,,,,,,,,,,,,
40035,0,USOklahomaCraig,Oklahoma,Craig,2022-04-28 09:13:11,2020-08-03,0.4695366723282419,1.06047271019252,2.576182020107762,,,,,,,,,,,,
40035,0,USOklahomaCraig,Oklahoma,Craig,2022-04-28 09:13:11,2020-08-04,0.4695366723282419,1.06047271019252,2.576182020107762,,,,,,,,,,,,
40035,0,USOklahomaCraig,Oklahoma,Craig,2022-04-28 09:13:11,2020-08-05,0.4695366723282419,1.06047271019252,2.576182020107762,,,,,,,,,,,,
40035,0,USOklahomaCraig,Oklahoma,Craig,2022-04-28 09:13:11,2020-08-06,0.4219390192108052,0.9303653068905876,2.2056515545532207,,,,,,,,,,,,
40035,0,USOklahomaCraig,Oklahoma,Craig,2022-04-28 09:13:11,2020-08-07,0.4219390192108052,0.9303653068905876,2.2056515545532207,,,,,,,,,,,,
40035,0,USOklahomaCraig,Oklahoma,Craig,2022-04-28 09:13:11,2020-08-08,0.4219390192108052,0.9303653068905876,2.2056515545532207,,,,,,,,,,,,
40035,0,USOklahomaCraig,Oklahoma,Craig,2022-04-28 09:13:11,2020-08-09,0.4219390192108052,0.9303653068905876,2.2056515545532207,,,,,,,,,,,,
40035,0,USOklahomaCraig,Oklahoma,Craig,2022-04-28 09:13:11,2020-08-10,0.4219390192108052,0.9303653068905876,2.2056515545532207,,,,,,,,,,,,
40035,0,USOklahomaCraig,Oklahoma,Craig,2022-04-28 09:13:11,2020-08-11,0.4219390192108052,0.9303653068905876,2.2056515545532207,,,,,,,,,,,,
40035,0,USOklahomaCraig,Oklahoma,Craig,2022-04-28 09:13:11,2020-08-12,0.4219390192108052,0.9303653068905876,2.2056515545532207,,,,,,,,,,,,
40035,0,USOklahomaCraig,Oklahoma,Craig,2022-04-28 09:13:11,2020-08-13,0.24251486306591663,0.6051242962217112,1.6248724313672795,,,,,,,,,,,,
40035,0,USOklahomaCraig,Oklahoma,Craig,2022-04-28 09:13:11,2020-08-14,0.24251486306591663,0.6051242962217112,1.6248724313672795,,,,,,,,,,,,
40035,0,USOklahomaCraig,Oklahoma,Craig,2022-04-28 09:13:11,2020-08-15,0.24251486306591663,0.6051242962217112,1.6248724313672795,,,,,,,,,,,,
40035,0,USOklahomaCraig,Oklahoma,Craig,2022-04-28 09:13:11,2020-08-16,0.24251486306591663,0.6051242962217112,1.6248724313672795,,,,,,,,,,,,
40035,0,USOklahomaCraig,Oklahoma,Craig,2022-04-28 09:13:11,2020-08-17,0.24251486306591663,0.6051242962217112,1.6248724313672795,,,,,,,,,,,,
40035,0,USOklahomaCraig,Oklahoma,Craig,2022-04-28 09:13:11,2020-08-18,0.24251486306591663,0.6051242962217112,1.6248724313672795,,,,,,,,,,,,
40035,0,USOklahomaCraig,Oklahoma,Craig,2022-04-28 09:13:11,2020-08-19,0.24251486306591663,0.6051242962217112,1.6248724313672795,,,,,,,,,,,,
40035,0,USOklahomaCraig,Oklahoma,Craig,2022-04-28 09:13:11,2020-08-20,0.558892476306193,1.160032651729832,2.5849325121638613,,,,,,,,,,,,
40035,0,USOklahomaCraig,Oklahoma,Craig,2022-04-28 09:13:11,2020-08-21,0.558892476306193,1.160032651729832,2.5849325121638613,,,,,,,,,,,,
40035,0,USOklahomaCraig,Oklahoma,Craig,2022-04-28 09:13:11,2020-08-22,0.558892476306193,1.160032651729832,2.5849325121638613,,,,,,,,,,,,
40035,0,USOklahomaCraig,Oklahoma,Craig,2022-04-28 09:13:11,2020-08-23,0.558892476306193,1.160032651729832,2.5849325121638613,,,,,,,,,,,,
40035,0,USOklahomaCraig,Oklahoma,Craig,2022-04-28 09:13:11,2020-08-24,0.558892476306193,1.160032651729832,2.5849325121638613,,,,,,,,,,,,
40035,0,USOklahomaCraig,Oklahoma,Craig,2022-04-28 09:13:11,2020-08-25,0.558892476306193,1.160032651729832,2.5849325121638613,,,,,,,,,,,,
40035,0,USOklahomaCraig,Oklahoma,Craig,2022-04-28 09:13:11,2020-08-26,0.558892476306193,1.160032651729832,2.5849325121638613,,,,,,,,,,,,
40035,0,USOklahomaCraig,Oklahoma,Craig,2022-04-28 09:13:11,2020-08-27,0.5654770383231436,1.186175212291399,2.672119607502473,,,,,,,,,,,,
40035,0,USOklahomaCraig,Oklahoma,Craig,2022-04-28 09:13:11,2020-08-28,0.5654770383231436,1.186175212291399,2.672119607502473,,,,,,,,,,,,
40035,0,USOklahomaCraig,Oklahoma,Craig,2022-04-28 09:13:11,2020-08-29,0.5654770383231436,1.186175212291399,2.672119607502473,,,,,,,,,,,,
40035,0,USOklahomaCraig,Oklahoma,Craig,2022-04-28 09:13:11,2020-08-30,0.5654770383231436,1.186175212291399,2.672119607502473,,,,,,,,,,,,
40035,0,USOklahomaCraig,Oklahoma,Craig,2022-04-28 09:13:11,2020-08-31,0.5654770383231436,1.186175212291399,2.672119607502473,,,,,,,,,,,,
40035,0,USOklahomaCraig,Oklahoma,Craig,2022-04-28 09:13:11,2020-09-01,0.5654770383231436,1.186175212291399,2.672119607502473,,,,,,,,,,,,
40035,0,USOklahomaCraig,Oklahoma,Craig,2022-04-28 09:13:11,2020-09-02,0.5654770383231436,1.186175212291399,2.672119607502473,,,,,,,,,,,,
40035,0,USOklahomaCraig,Oklahoma,Craig,2022-04-28 09:13:11,2020-09-03,1.3674942746472376,2.27528346433588,4.0131937562285644,,,,,,,,,,,,
40035,0,USOklahomaCraig,Oklahoma,Craig,2022-04-28 09:13:11,2020-09-04,1.3674942746472376,2.27528346433588,4.0131937562285644,,,,,,,,,,,,
40035,0,USOklahomaCraig,Oklahoma,Craig,2022-04-28 09:13:11,2020-09-05,1.3674942746472376,2.27528346433588,4.0131937562285644,,,,,,,,,,,,
40035,0,USOklahomaCraig,Oklahoma,Craig,2022-04-28 09:13:11,2020-09-06,1.3674942746472376,2.27528346433588,4.0131937562285644,,,,,,,,,,,,
40035,0,USOklahomaCraig,Oklahoma,Craig,2022-04-28 09:13:11,2020-09-07,1.3674942746472376,2.27528346433588,4.0131937562285644,,,,,,,,,,,,
40035,0,USOklahomaCraig,Oklahoma,Craig,2022-04-28 09:13:11,2020-09-08,1.3674942746472376,2.27528346433588,4.0131937562285644,,,,,,,,,,,,
40035,0,USOklahomaCraig,Oklahoma,Craig,2022-04-28 09:13:11,2020-09-09,1.3674942746472376,2.27528346433588,4.0131937562285644,,,,,,,,,,,,
40035,0,USOklahomaCraig,Oklahoma,Craig,2022-04-28 09:13:11,2020-09-10,4.121518322773601,5.178469486464992,6.668421078369893,,,,,,,,,,,,
40035,0,USOklahomaCraig,Oklahoma,Craig,2022-04-28 09:13:11,2020-09-11,4.121518322773601,5.178469486464992,6.668421078369893,,,,,,,,,,,,
40035,0,USOklahomaCraig,Oklahoma,Craig,2022-04-28 09:13:11,2020-09-12,4.121518322773601,5.178469486464992,6.668421078369893,,,,,,,,,,,,
40035,0,USOklahomaCraig,Oklahoma,Craig,2022-04-28 09:13:11,2020-09-13,4.121518322773601,5.178469486464992,6.668421078369893,,,,,,,,,,,,
40035,0,USOklahomaCraig,Oklahoma,Craig,2022-04-28 09:13:11,2020-09-14,4.121518322773601,5.178469486464992,6.668421078369893,,,,,,,,,,,,
40035,0,USOklahomaCraig,Oklahoma,Craig,2022-04-28 09:13:11,2020-09-15,4.121518322773601,5.178469486464992,6.668421078369893,,,,,,,,,,,,
40035,0,USOklahomaCraig,Oklahoma,Craig,2022-04-28 09:13:11,2020-09-16,4.121518322773601,5.178469486464992,6.668421078369893,,,,,,,,,,,,
40035,0,USOklahomaCraig,Oklahoma,Craig,2022-04-28 09:13:11,2020-09-17,2.2280107846325334,3.2413103326777657,4.92972188637661,,,,,,,,,,,,
40035,0,USOklahomaCraig,Oklahoma,Craig,2022-04-28 09:13:11,2020-09-18,2.2280107846325334,3.2413103326777657,4.92972188637661,,,,,,,,,,,,
40035,0,USOklahomaCraig,Oklahoma,Craig,2022-04-28 09:13:11,2020-09-19,2.2280107846325334,3.2413103326777657,4.92972188637661,,,,,,,,,,,,
40035,0,USOklahomaCraig,Oklahoma,Craig,2022-04-28 09:13:11,2020-09-20,2.2280107846325334,3.2413103326777657,4.92972188637661,,,,,,,,,,,,
40035,0,USOklahomaCraig,Oklahoma,Craig,2022-04-28 09:13:11,2020-09-21,2.2280107846325334,3.2413103326777657,4.92972188637661,,,,,,,,,,,,
40035,0,USOklahomaCraig,Oklahoma,Craig,2022-04-28 09:13:11,2020-09-22,2.2280107846325334,3.2413103326777657,4.92972188637661,,,,,,,,,,,,
40035,0,USOklahomaCraig,Oklahoma,Craig,2022-04-28 09:13:11,2020-09-23,2.2280107846325334,3.2413103326777657,4.92972188637661,,,,,,,,,,,,
40035,0,USOklahomaCraig,Oklahoma,Craig,2022-04-28 09:13:11,2020-09-24,0.5412759146300005,1.0913733887586696,2.360139179404428,,,,,,,,,,,,
40035,0,USOklahomaCraig,Oklahoma,Craig,2022-04-28 09:13:11,2020-09-25,0.5412759146300005,1.0913733887586696,2.360139179404428,,,,,,,,,,,,
40035,0,USOklahomaCraig,Oklahoma,Craig,2022-04-28 09:13:11,2020-09-26,0.5412759146300005,1.0913733887586696,2.360139179404428,,,,,,,,,,,,
40035,0,USOklahomaCraig,Oklahoma,Craig,2022-04-28 09:13:11,2020-09-27,0.5412759146300005,1.0913733887586696,2.360139179404428,,,,,,,,,,,,
40035,0,USOklahomaCraig,Oklahoma,Craig,2022-04-28 09:13:11,2020-09-28,0.5412759146300005,1.0913733887586696,2.360139179404428,,,,,,,,,,,,
40035,0,USOklahomaCraig,Oklahoma,Craig,2022-04-28 09:13:11,2020-09-29,0.5412759146300005,1.0913733887586696,2.360139179404428,,,,,,,,,,,,
40035,0,USOklahomaCraig,Oklahoma,Craig,2022-04-28 09:13:11,2020-09-30,0.5412759146300005,1.0913733887586696,2.360139179404428,,,,,,,,,,,,
40035,0,USOklahomaCraig,Oklahoma,Craig,2022-04-28 09:13:11,2020-10-01,0.7369215615498786,1.385182774429662,2.783685393303704,,,,,,,,,,,,
40035,0,USOklahomaCraig,Oklahoma,Craig,2022-04-28 09:13:11,2020-10-02,0.7369215615498786,1.385182774429662,2.783685393303704,,,,,,,,,,,,
40035,0,USOklahomaCraig,Oklahoma,Craig,2022-04-28 09:13:11,2020-10-03,0.7369215615498786,1.385182774429662,2.783685393303704,,,,,,,,,,,,
40035,0,USOklahomaCraig,Oklahoma,Craig,2022-04-28 09:13:11,2020-10-04,0.7369215615498786,1.385182774429662,2.783685393303704,,,,,,,,,,,,
40035,0,USOklahomaCraig,Oklahoma,Craig,2022-04-28 09:13:11,2020-10-05,0.7369215615498786,1.385182774429662,2.783685393303704,,,,,,,,,,,,
40035,0,USOklahomaCraig,Oklahoma,Craig,2022-04-28 09:13:11,2020-10-06,0.7369215615498786,1.385182774429662,2.783685393303704,,,,,,,,,,,,
40035,0,USOklahomaCraig,Oklahoma,Craig,2022-04-28 09:13:11,2020-10-07,0.7369215615498786,1.385182774429662,2.783685393303704,,,,,,,,,,,,
40035,0,USOklahomaCraig,Oklahoma,Craig,2022-04-28 09:13:11,2020-10-08,1.1354999692556915,1.9299099182371549,3.4833479434678476,,,,,,,,,,,,
40035,0,USOklahomaCraig,Oklahoma,Craig,2022-04-28 09:13:11,2020-10-09,1.1354999692556915,1.9299099182371549,3.4833479434678476,,,,,,,,,,,,
40035,0,USOklahomaCraig,Oklahoma,Craig,2022-04-28 09:13:11,2020-10-10,1.1354999692556915,1.9299099182371549,3.4833479434678476,,,,,,,,,,,,
40035,0,USOklahomaCraig,Oklahoma,Craig,2022-04-28 09:13:11,2020-10-11,1.1354999692556915,1.9299099182371549,3.4833479434678476,,,,,,,,,,,,
40035,0,USOklahomaCraig,Oklahoma,Craig,2022-04-28 09:13:11,2020-10-12,1.1354999692556915,1.9299099182371549,3.4833479434678476,,,,,,,,,,,,
40035,0,USOklahomaCraig,Oklahoma,Craig,2022-04-28 09:13:11,2020-10-13,1.1354999692556915,1.9299099182371549,3.4833479434678476,,,,,,,,,,,,
40035,0,USOklahomaCraig,Oklahoma,Craig,2022-04-28 09:13:11,2020-10-14,1.1354999692556915,1.9299099182371549,3.4833479434678476,,,,,,,,,,,,
40035,0,USOklahomaCraig,Oklahoma,Craig,2022-04-28 09:13:11,2020-10-15,0.7955007535952772,1.494651032962582,3.002314724895304,,,,,,,,,,,,
40035,0,USOklahomaCraig,Oklahoma,Craig,2022-04-28 09:13:11,2020-10-16,0.7955007535952772,1.494651032962582,3.002314724895304,,,,,,,,,,,,
40035,0,USOklahomaCraig,Oklahoma,Craig,2022-04-28 09:13:11,2020-10-17,0.7955007535952772,1.494651032962582,3.002314724895304,,,,,,,,,,,,
40035,0,USOklahomaCraig,Oklahoma,Craig,2022-04-28 09:13:11,2020-10-18,0.7955007535952772,1.494651032962582,3.002314724895304,,,,,,,,,,,,
40035,0,USOklahomaCraig,Oklahoma,Craig,2022-04-28 09:13:11,2020-10-19,0.7955007535952772,1.494651032962582,3.002314724895304,,,,,,,,,,,,
40035,0,USOklahomaCraig,Oklahoma,Craig,2022-04-28 09:13:11,2020-10-20,0.7955007535952772,1.494651032962582,3.002314724895304,,,,,,,,,,,,
40035,0,USOklahomaCraig,Oklahoma,Craig,2022-04-28 09:13:11,2020-10-21,0.7955007535952772,1.494651032962582,3.002314724895304,,,,,,,,,,,,
40035,0,USOklahomaCraig,Oklahoma,Craig,2022-04-28 09:13:11,2020-10-22,0.8095526823110816,1.4950755966516862,2.949028405291196,,,,,,,,,,,,
40035,0,USOklahomaCraig,Oklahoma,Craig,2022-04-28 09:13:11,2020-10-23,0.8095526823110816,1.4950755966516862,2.949028405291196,,,,,,,,,,,,
40035,0,USOklahomaCraig,Oklahoma,Craig,2022-04-28 09:13:11,2020-10-24,0.8095526823110816,1.4950755966516862,2.949028405291196,,,,,,,,,,,,
40035,0,USOklahomaCraig,Oklahoma,Craig,2022-04-28 09:13:11,2020-10-25,0.8095526823110816,1.4950755966516862,2.949028405291196,,,,,,,,,,,,
40035,0,USOklahomaCraig,Oklahoma,Craig,2022-04-28 09:13:11,2020-10-26,0.8095526823110816,1.4950755966516862,2.949028405291196,,,,,,,,,,,,
40035,0,USOklahomaCraig,Oklahoma,Craig,2022-04-28 09:13:11,2020-10-27,0.8095526823110816,1.4950755966516862,2.949028405291196,,,,,,,,,,,,
40035,0,USOklahomaCraig,Oklahoma,Craig,2022-04-28 09:13:11,2020-10-28,0.8095526823110816,1.4950755966516862,2.949028405291196,,,,,,,,,,,,
40035,0,USOklahomaCraig,Oklahoma,Craig,2022-04-28 09:13:11,2020-10-29,1.0781614897534475,1.9571043740477074,3.7904392998685927,,,,,,,,,,,,
40035,0,USOklahomaCraig,Oklahoma,Craig,2022-04-28 09:13:11,2020-10-30,1.0781614897534475,1.9571043740477074,3.7904392998685927,,,,,,,,,,,,
40035,0,USOklahomaCraig,Oklahoma,Craig,2022-04-28 09:13:11,2020-10-31,1.0781614897534475,1.9571043740477074,3.7904392998685927,,,,,,,,,,,,
40035,0,USOklahomaCraig,Oklahoma,Craig,2022-04-28 09:13:11,2020-11-01,1.0781614897534475,1.9571043740477074,3.7904392998685927,,,,,,,,,,,,
40035,0,USOklahomaCraig,Oklahoma,Craig,2022-04-28 09:13:11,2020-11-02,1.0781614897534475,1.9571043740477074,3.7904392998685927,,,,,,,,,,,,
40035,0,USOklahomaCraig,Oklahoma,Craig,2022-04-28 09:13:11,2020-11-03,1.0781614897534475,1.9571043740477074,3.7904392998685927,,,,,,,,,,,,
40035,0,USOklahomaCraig,Oklahoma,Craig,2022-04-28 09:13:11,2020-11-04,1.0781614897534475,1.9571043740477074,3.7904392998685927,,,,,,,,,,,,
40035,0,USOklahomaCraig,Oklahoma,Craig,2022-04-28 09:13:11,2020-11-05,1.7065987515313334,3.058288015514106,5.842676974930992,,,,,,,,,,,,
40035,0,USOklahomaCraig,Oklahoma,Craig,2022-04-28 09:13:11,2020-11-06,1.7065987515313334,3.058288015514106,5.842676974930992,,,,,,,,,,,,
40035,0,USOklahomaCraig,Oklahoma,Craig,2022-04-28 09:13:11,2020-11-07,1.7065987515313334,3.058288015514106,5.842676974930992,,,,,,,,,,,,
40035,0,USOklahomaCraig,Oklahoma,Craig,2022-04-28 09:13:11,2020-11-08,1.7065987515313334,3.058288015514106,5.842676974930992,,,,,,,,,,,,
40035,0,USOklahomaCraig,Oklahoma,Craig,2022-04-28 09:13:11,2020-11-09,1.7065987515313334,3.058288015514106,5.842676974930992,,,,,,,,,,,,
40035,0,USOklahomaCraig,Oklahoma,Craig,2022-04-28 09:13:11,2020-11-10,1.7065987515313334,3.058288015514106,5.842676974930992,,,,,,,,,,,,
40035,0,USOklahomaCraig,Oklahoma,Craig,2022-04-28 09:13:11,2020-11-11,1.7065987515313334,3.058288015514106,5.842676974930992,,,,,,,,,,,,
40035,0,USOklahomaCraig,Oklahoma,Craig,2022-04-28 09:13:11,2020-11-12,2.0812890078960047,3.529819196332573,6.356350317521112,,,,,,,,,,,,
40035,0,USOklahomaCraig,Oklahoma,Craig,2022-04-28 09:13:11,2020-11-13,2.0812890078960047,3.529819196332573,6.356350317521112,,,,,,,,,,,,
40035,0,USOklahomaCraig,Oklahoma,Craig,2022-04-28 09:13:11,2020-11-14,2.0812890078960047,3.529819196332573,6.356350317521112,,,,,,,,,,,,
40035,0,USOklahomaCraig,Oklahoma,Craig,2022-04-28 09:13:11,2020-11-15,2.0812890078960047,3.529819196332573,6.356350317521112,,,,,,,,,,,,
40035,0,USOklahomaCraig,Oklahoma,Craig,2022-04-28 09:13:11,2020-11-16,2.0812890078960047,3.529819196332573,6.356350317521112,,,,,,,,,,,,
40035,0,USOklahomaCraig,Oklahoma,Craig,2022-04-28 09:13:11,2020-11-17,2.0812890078960047,3.529819196332573,6.356350317521112,,,,,,,,,,,,
40035,0,USOklahomaCraig,Oklahoma,Craig,2022-04-28 09:13:11,2020-11-18,2.0812890078960047,3.529819196332573,6.356350317521112,,,,,,,,,,,,
40035,0,USOklahomaCraig,Oklahoma,Craig,2022-04-28 09:13:11,2020-11-19,2.1655676557904826,3.5235196089172414,6.065479726904455,,,,,,,,,,,,
40035,0,USOklahomaCraig,Oklahoma,Craig,2022-04-28 09:13:11,2020-11-20,2.1655676557904826,3.5235196089172414,6.065479726904455,,,,,,,,,,,,
40035,0,USOklahomaCraig,Oklahoma,Craig,2022-04-28 09:13:11,2020-11-21,2.1655676557904826,3.5235196089172414,6.065479726904455,,,,,,,,,,,,
40035,0,USOklahomaCraig,Oklahoma,Craig,2022-04-28 09:13:11,2020-11-22,2.1655676557904826,3.5235196089172414,6.065479726904455,,,,,,,,,,,,
40035,0,USOklahomaCraig,Oklahoma,Craig,2022-04-28 09:13:11,2020-11-23,2.1655676557904826,3.5235196089172414,6.065479726904455,,,,,,,,,,,,
40035,0,USOklahomaCraig,Oklahoma,Craig,2022-04-28 09:13:11,2020-11-24,2.1655676557904826,3.5235196089172414,6.065479726904455,,,,,,,,,,,,
40035,0,USOklahomaCraig,Oklahoma,Craig,2022-04-28 09:13:11,2020-11-25,2.1655676557904826,3.5235196089172414,6.065479726904455,,,,,,,,,,,,
40035,0,USOklahomaCraig,Oklahoma,Craig,2022-04-28 09:13:11,2020-11-26,1.9292151446312429,3.3659541789334875,6.249070999789365,,,,,,,,,,,,
40035,0,USOklahomaCraig,Oklahoma,Craig,2022-04-28 09:13:11,2020-11-27,1.9292151446312429,3.3659541789334875,6.249070999789365,,,,,,,,,,,,
40035,0,USOklahomaCraig,Oklahoma,Craig,2022-04-28 09:13:11,2020-11-28,1.9292151446312429,3.3659541789334875,6.249070999789365,,,,,,,,,,,,
40035,0,USOklahomaCraig,Oklahoma,Craig,2022-04-28 09:13:11,2020-11-29,1.9292151446312429,3.3659541789334875,6.249070999789365,,,,,,,,,,,,
40035,0,USOklahomaCraig,Oklahoma,Craig,2022-04-28 09:13:11,2020-11-30,1.9292151446312429,3.3659541789334875,6.249070999789365,,,,,,,,,,,,
40035,0,USOklahomaCraig,Oklahoma,Craig,2022-04-28 09:13:11,2020-12-01,1.9292151446312429,3.3659541789334875,6.249070999789365,,,,,,,,,,,,
40035,0,USOklahomaCraig,Oklahoma,Craig,2022-04-28 09:13:11,2020-12-02,1.9292151446312429,3.3659541789334875,6.249070999789365,,,,,,,,,,,,
40035,0,USOklahomaCraig,Oklahoma,Craig,2022-04-28 09:13:11,2020-12-03,3.144703894474849,4.764309453375239,7.581632680663636,,,,,,,,,,,,
40035,0,USOklahomaCraig,Oklahoma,Craig,2022-04-28 09:13:11,2020-12-04,3.144703894474849,4.764309453375239,7.581632680663636,,,,,,,,,,,,
40035,0,USOklahomaCraig,Oklahoma,Craig,2022-04-28 09:13:11,2020-12-05,3.144703894474849,4.764309453375239,7.581632680663636,,,,,,,,,,,,
40035,0,USOklahomaCraig,Oklahoma,Craig,2022-04-28 09:13:11,2020-12-06,3.144703894474849,4.764309453375239,7.581632680663636,,,,,,,,,,,,
40035,0,USOklahomaCraig,Oklahoma,Craig,2022-04-28 09:13:11,2020-12-07,3.144703894474849,4.764309453375239,7.581632680663636,,,,,,,,,,,,
40035,0,USOklahomaCraig,Oklahoma,Craig,2022-04-28 09:13:11,2020-12-08,3.144703894474849,4.764309453375239,7.581632680663636,,,,,,,,,,,,
40035,0,USOklahomaCraig,Oklahoma,Craig,2022-04-28 09:13:11,2020-12-09,3.144703894474849,4.764309453375239,7.581632680663636,,,,,,,,,,,,
40035,0,USOklahomaCraig,Oklahoma,Craig,2022-04-28 09:13:11,2020-12-10,3.231587837769633,5.053811570140574,8.329808685972635,,,,,,,,,,,,
40035,0,USOklahomaCraig,Oklahoma,Craig,2022-04-28 09:13:11,2020-12-11,3.231587837769633,5.053811570140574,8.329808685972635,,,,,,,,,,,,
40035,0,USOklahomaCraig,Oklahoma,Craig,2022-04-28 09:13:11,2020-12-12,3.231587837769633,5.053811570140574,8.329808685972635,,,,,,,,,,,,
40035,0,USOklahomaCraig,Oklahoma,Craig,2022-04-28 09:13:11,2020-12-13,3.231587837769633,5.053811570140574,8.329808685972635,,,,,,,,,,,,
40035,0,USOklahomaCraig,Oklahoma,Craig,2022-04-28 09:13:11,2020-12-14,3.231587837769633,5.053811570140574,8.329808685972635,,,,,,,,,,,,
40035,0,USOklahomaCraig,Oklahoma,Craig,2022-04-28 09:13:11,2020-12-15,3.231587837769633,5.053811570140574,8.329808685972635,,,,,,,,,,,,
40035,0,USOklahomaCraig,Oklahoma,Craig,2022-04-28 09:13:11,2020-12-16,3.231587837769633,5.053811570140574,8.329808685972635,,,,,,,,,,,,
40035,0,USOklahomaCraig,Oklahoma,Craig,2022-04-28 09:13:11,2020-12-17,3.153635830321508,4.923892030861586,8.101135618544186,,,,,,,,,,,,
40035,0,USOklahomaCraig,Oklahoma,Craig,2022-04-28 09:13:11,2020-12-18,3.153635830321508,4.923892030861586,8.101135618544186,,,,,,,,,,,,
40035,0,USOklahomaCraig,Oklahoma,Craig,2022-04-28 09:13:11,2020-12-19,3.153635830321508,4.923892030861586,8.101135618544186,,,,,,,,,,,,
40035,0,USOklahomaCraig,Oklahoma,Craig,2022-04-28 09:13:11,2020-12-20,3.153635830321508,4.923892030861586,8.101135618544186,,,,,,,,,,,,
40035,0,USOklahomaCraig,Oklahoma,Craig,2022-04-28 09:13:11,2020-12-21,3.153635830321508,4.923892030861586,8.101135618544186,,,,,,,,,,,,
40035,0,USOklahomaCraig,Oklahoma,Craig,2022-04-28 09:13:11,2020-12-22,3.153635830321508,4.923892030861586,8.101135618544186,,,,,,,,,,,,
40035,0,USOklahomaCraig,Oklahoma,Craig,2022-04-28 09:13:11,2020-12-23,3.153635830321508,4.923892030861586,8.101135618544186,,,,,,,,,,,,
40035,0,USOklahomaCraig,Oklahoma,Craig,2022-04-28 09:13:11,2020-12-24,1.9181664836585506,3.372676976616276,6.313710877292679,,,,,,,,,,,,
40035,0,USOklahomaCraig,Oklahoma,Craig,2022-04-28 09:13:11,2020-12-25,1.9181664836585506,3.372676976616276,6.313710877292679,,,,,,,,,,,,
40035,0,USOklahomaCraig,Oklahoma,Craig,2022-04-28 09:13:11,2020-12-26,1.9181664836585506,3.372676976616276,6.313710877292679,,,,,,,,,,,,
40035,0,USOklahomaCraig,Oklahoma,Craig,2022-04-28 09:13:11,2020-12-27,1.9181664836585506,3.372676976616276,6.313710877292679,,,,,,,,,,,,
40035,0,USOklahomaCraig,Oklahoma,Craig,2022-04-28 09:13:11,2020-12-28,1.9181664836585506,3.372676976616276,6.313710877292679,,,,,,,,,,,,
40035,0,USOklahomaCraig,Oklahoma,Craig,2022-04-28 09:13:11,2020-12-29,1.9181664836585506,3.372676976616276,6.313710877292679,,,,,,,,,,,,
40035,0,USOklahomaCraig,Oklahoma,Craig,2022-04-28 09:13:11,2020-12-30,1.9181664836585506,3.372676976616276,6.313710877292679,,,,,,,,,,,,
40035,0,USOklahomaCraig,Oklahoma,Craig,2022-04-28 09:13:11,2020-12-31,2.764076030636002,4.767782308074978,8.74365643395976,,,,,,,,,,,,
40035,0,USOklahomaCraig,Oklahoma,Craig,2022-04-28 09:13:11,2021-01-01,2.764076030636002,4.767782308074978,8.74365643395976,,,,,,,,,,,,
40035,0,USOklahomaCraig,Oklahoma,Craig,2022-04-28 09:13:11,2021-01-02,2.764076030636002,4.767782308074978,8.74365643395976,,,,,,,,,,,,
40035,0,USOklahomaCraig,Oklahoma,Craig,2022-04-28 09:13:11,2021-01-03,2.764076030636002,4.767782308074978,8.74365643395976,,,,,,,,,,,,
40035,0,USOklahomaCraig,Oklahoma,Craig,2022-04-28 09:13:11,2021-01-04,2.764076030636002,4.767782308074978,8.74365643395976,,,,,,,,,,,,
40035,0,USOklahomaCraig,Oklahoma,Craig,2022-04-28 09:13:11,2021-01-05,2.764076030636002,4.767782308074978,8.74365643395976,,,,,,,,,,,,
40035,0,USOklahomaCraig,Oklahoma,Craig,2022-04-28 09:13:11,2021-01-06,2.764076030636002,4.767782308074978,8.74365643395976,,,,,,,,,,,,
40035,0,USOklahomaCraig,Oklahoma,Craig,2022-04-28 09:13:11,2021-01-07,2.963019833973626,5.044481635236371,9.121511458308127,,,,,,,,,,,,
40035,0,USOklahomaCraig,Oklahoma,Craig,2022-04-28 09:13:11,2021-01-08,2.963019833973626,5.044481635236371,9.121511458308127,,,,,,,,,,,,
40035,0,USOklahomaCraig,Oklahoma,Craig,2022-04-28 09:13:11,2021-01-09,2.963019833973626,5.044481635236371,9.121511458308127,,,,,,,,,,,,
40035,0,USOklahomaCraig,Oklahoma,Craig,2022-04-28 09:13:11,2021-01-10,2.963019833973626,5.044481635236371,9.121511458308127,,,,,,,,,,,,
40035,0,USOklahomaCraig,Oklahoma,Craig,2022-04-28 09:13:11,2021-01-11,2.963019833973626,5.044481635236371,9.121511458308127,,,,,,,,,,,,
40035,0,USOklahomaCraig,Oklahoma,Craig,2022-04-28 09:13:11,2021-01-12,2.963019833973626,5.044481635236371,9.121511458308127,,,,,,,,,,,,
40035,0,USOklahomaCraig,Oklahoma,Craig,2022-04-28 09:13:11,2021-01-13,2.963019833973626,5.044481635236371,9.121511458308127,,,,,,,,,,,,
40035,0,USOklahomaCraig,Oklahoma,Craig,2022-04-28 09:13:11,2021-01-14,2.085461051672454,3.502734756579376,6.241698248761185,,,,,,,,,,,,
40035,0,USOklahomaCraig,Oklahoma,Craig,2022-04-28 09:13:11,2021-01-15,2.085461051672454,3.502734756579376,6.241698248761185,,,,,,,,,,,,
40035,0,USOklahomaCraig,Oklahoma,Craig,2022-04-28 09:13:11,2021-01-16,2.085461051672454,3.502734756579376,6.241698248761185,,,,,,,,,,,,
40035,0,USOklahomaCraig,Oklahoma,Craig,2022-04-28 09:13:11,2021-01-17,2.085461051672454,3.502734756579376,6.241698248761185,,,,,,,,,,,,
40035,0,USOklahomaCraig,Oklahoma,Craig,2022-04-28 09:13:11,2021-01-18,2.085461051672454,3.502734756579376,6.241698248761185,,,,,,,,,,,,
40035,0,USOklahomaCraig,Oklahoma,Craig,2022-04-28 09:13:11,2021-01-19,2.085461051672454,3.502734756579376,6.241698248761185,,,,,,,,,,,,
40035,0,USOklahomaCraig,Oklahoma,Craig,2022-04-28 09:13:11,2021-01-20,2.085461051672454,3.502734756579376,6.241698248761185,,,,,,,,,,,,
40035,0,USOklahomaCraig,Oklahoma,Craig,2022-04-28 09:13:11,2021-01-21,1.512928215132066,2.912524917309584,6.001718992207239,,,,,,,,,,,,
40035,0,USOklahomaCraig,Oklahoma,Craig,2022-04-28 09:13:11,2021-01-22,1.512928215132066,2.912524917309584,6.001718992207239,,,,,,,,,,,,
40035,0,USOklahomaCraig,Oklahoma,Craig,2022-04-28 09:13:11,2021-01-23,1.512928215132066,2.912524917309584,6.001718992207239,,,,,,,,,,,,
40035,0,USOklahomaCraig,Oklahoma,Craig,2022-04-28 09:13:11,2021-01-24,1.512928215132066,2.912524917309584,6.001718992207239,,,,,,,,,,,,
40035,0,USOklahomaCraig,Oklahoma,Craig,2022-04-28 09:13:11,2021-01-25,1.512928215132066,2.912524917309584,6.001718992207239,,,,,,,,,,,,
40035,0,USOklahomaCraig,Oklahoma,Craig,2022-04-28 09:13:11,2021-01-26,1.512928215132066,2.912524917309584,6.001718992207239,,,,,,,,,,,,
40035,0,USOklahomaCraig,Oklahoma,Craig,2022-04-28 09:13:11,2021-01-27,1.512928215132066,2.912524917309584,6.001718992207239,,,,,,,,,,,,
40035,0,USOklahomaCraig,Oklahoma,Craig,2022-04-28 09:13:11,2021-01-28,1.4782995744193272,2.596966204665198,4.856957667683863,,,,,,,,,,,,
40035,0,USOklahomaCraig,Oklahoma,Craig,2022-04-28 09:13:11,2021-01-29,1.4782995744193272,2.596966204665198,4.856957667683863,,,,,,,,,,,,
40035,0,USOklahomaCraig,Oklahoma,Craig,2022-04-28 09:13:11,2021-01-30,1.4782995744193272,2.596966204665198,4.856957667683863,,,,,,,,,,,,
40035,0,USOklahomaCraig,Oklahoma,Craig,2022-04-28 09:13:11,2021-01-31,1.4782995744193272,2.596966204665198,4.856957667683863,,,,,,,,,,,,
40035,0,USOklahomaCraig,Oklahoma,Craig,2022-04-28 09:13:11,2021-02-01,1.4782995744193272,2.596966204665198,4.856957667683863,,,,,,,,,,,,
40035,0,USOklahomaCraig,Oklahoma,Craig,2022-04-28 09:13:11,2021-02-02,1.4782995744193272,2.596966204665198,4.856957667683863,,,,,,,,,,,,
40035,0,USOklahomaCraig,Oklahoma,Craig,2022-04-28 09:13:11,2021-02-03,1.4782995744193272,2.596966204665198,4.856957667683863,,,,,,,,,,,,
40035,0,USOklahomaCraig,Oklahoma,Craig,2022-04-28 09:13:11,2021-02-04,0.8375599801298107,1.7682923052084365,4.009991331970085,,,,,,,,,,,,
40035,0,USOklahomaCraig,Oklahoma,Craig,2022-04-28 09:13:11,2021-02-05,0.8375599801298107,1.7682923052084365,4.009991331970085,,,,,,,,,,,,
40035,0,USOklahomaCraig,Oklahoma,Craig,2022-04-28 09:13:11,2021-02-06,0.8375599801298107,1.7682923052084365,4.009991331970085,,,,,,,,,,,,
40035,0,USOklahomaCraig,Oklahoma,Craig,2022-04-28 09:13:11,2021-02-07,0.8375599801298107,1.7682923052084365,4.009991331970085,,,,,,,,,,,,
40035,0,USOklahomaCraig,Oklahoma,Craig,2022-04-28 09:13:11,2021-02-08,0.8375599801298107,1.7682923052084365,4.009991331970085,,,,,,,,,,,,
40035,0,USOklahomaCraig,Oklahoma,Craig,2022-04-28 09:13:11,2021-02-09,0.8375599801298107,1.7682923052084365,4.009991331970085,,,,,,,,,,,,
40035,0,USOklahomaCraig,Oklahoma,Craig,2022-04-28 09:13:11,2021-02-10,0.8375599801298107,1.7682923052084365,4.009991331970085,,,,,,,,,,,,
40035,0,USOklahomaCraig,Oklahoma,Craig,2022-04-28 09:13:11,2021-02-11,0.5607190920545376,1.2326959472978172,2.913547112687943,,,,,,,,,,,,
40035,0,USOklahomaCraig,Oklahoma,Craig,2022-04-28 09:13:11,2021-02-12,0.5607190920545376,1.2326959472978172,2.913547112687943,,,,,,,,,,,,
40035,0,USOklahomaCraig,Oklahoma,Craig,2022-04-28 09:13:11,2021-02-13,0.5607190920545376,1.2326959472978172,2.913547112687943,,,,,,,,,,,,
40035,0,USOklahomaCraig,Oklahoma,Craig,2022-04-28 09:13:11,2021-02-14,0.5607190920545376,1.2326959472978172,2.913547112687943,,,,,,,,,,,,
40035,0,USOklahomaCraig,Oklahoma,Craig,2022-04-28 09:13:11,2021-02-15,0.5607190920545376,1.2326959472978172,2.913547112687943,,,,,,,,,,,,
40035,0,USOklahomaCraig,Oklahoma,Craig,2022-04-28 09:13:11,2021-02-16,0.5607190920545376,1.2326959472978172,2.913547112687943,,,,,,,,,,,,
40035,0,USOklahomaCraig,Oklahoma,Craig,2022-04-28 09:13:11,2021-02-17,0.5607190920545376,1.2326959472978172,2.913547112687943,,,,,,,,,,,,
40035,0,USOklahomaCraig,Oklahoma,Craig,2022-04-28 09:13:11,2021-02-18,0.3961321146208478,0.971070908820786,2.561785766983724,,,,,,,,,,,,
40035,0,USOklahomaCraig,Oklahoma,Craig,2022-04-28 09:13:11,2021-02-19,0.3961321146208478,0.971070908820786,2.561785766983724,,,,,,,,,,,,
40035,0,USOklahomaCraig,Oklahoma,Craig,2022-04-28 09:13:11,2021-02-20,0.3961321146208478,0.971070908820786,2.561785766983724,,,,,,,,,,,,
40035,0,USOklahomaCraig,Oklahoma,Craig,2022-04-28 09:13:11,2021-02-21,0.3961321146208478,0.971070908820786,2.561785766983724,,,,,,,,,,,,
40035,0,USOklahomaCraig,Oklahoma,Craig,2022-04-28 09:13:11,2021-02-22,0.3961321146208478,0.971070908820786,2.561785766983724,,,,,,,,,,,,
40035,0,USOklahomaCraig,Oklahoma,Craig,2022-04-28 09:13:11,2021-02-23,0.3961321146208478,0.971070908820786,2.561785766983724,,,,,,,,,,,,
40035,0,USOklahomaCraig,Oklahoma,Craig,2022-04-28 09:13:11,2021-02-24,0.3961321146208478,0.971070908820786,2.561785766983724,,,,,,,,,,,,
40035,0,USOklahomaCraig,Oklahoma,Craig,2022-04-28 09:13:11,2021-02-25,0.2979183535526186,0.6221941860972289,1.395316072927618,,,,,,,,,,,,
40035,0,USOklahomaCraig,Oklahoma,Craig,2022-04-28 09:13:11,2021-02-26,0.2979183535526186,0.6221941860972289,1.395316072927618,,,,,,,,,,,,
40035,0,USOklahomaCraig,Oklahoma,Craig,2022-04-28 09:13:11,2021-02-27,0.2979183535526186,0.6221941860972289,1.395316072927618,,,,,,,,,,,,
40035,0,USOklahomaCraig,Oklahoma,Craig,2022-04-28 09:13:11,2021-02-28,0.2979183535526186,0.6221941860972289,1.395316072927618,,,,,,,,,,,,
40035,0,USOklahomaCraig,Oklahoma,Craig,2022-04-28 09:13:11,2021-03-01,0.2979183535526186,0.6221941860972289,1.395316072927618,,,,,,,,,,,,
40035,0,USOklahomaCraig,Oklahoma,Craig,2022-04-28 09:13:11,2021-03-02,0.2979183535526186,0.6221941860972289,1.395316072927618,,,,,,,,,,,,
40035,0,USOklahomaCraig,Oklahoma,Craig,2022-04-28 09:13:11,2021-03-03,0.2979183535526186,0.6221941860972289,1.395316072927618,,,,,,,,,,,,
40035,0,USOklahomaCraig,Oklahoma,Craig,2022-04-28 09:13:11,2021-03-04,0.4548716038686849,1.0724764046721922,2.7209383916893364,,,,,,,,,,,,
40035,0,USOklahomaCraig,Oklahoma,Craig,2022-04-28 09:13:11,2021-03-05,0.4548716038686849,1.0724764046721922,2.7209383916893364,,,,,,,,,,,,
40035,0,USOklahomaCraig,Oklahoma,Craig,2022-04-28 09:13:11,2021-03-06,0.4548716038686849,1.0724764046721922,2.7209383916893364,,,,,,,,,,,,
40035,0,USOklahomaCraig,Oklahoma,Craig,2022-04-28 09:13:11,2021-03-07,0.4548716038686849,1.0724764046721922,2.7209383916893364,,,,,,,,,,,,
40035,0,USOklahomaCraig,Oklahoma,Craig,2022-04-28 09:13:11,2021-03-08,0.4548716038686849,1.0724764046721922,2.7209383916893364,,,,,,,,,,,,
40035,0,USOklahomaCraig,Oklahoma,Craig,2022-04-28 09:13:11,2021-03-09,0.4548716038686849,1.0724764046721922,2.7209383916893364,,,,,,,,,,,,
40035,0,USOklahomaCraig,Oklahoma,Craig,2022-04-28 09:13:11,2021-03-10,0.4548716038686849,1.0724764046721922,2.7209383916893364,,,,,,,,,,,,
40035,0,USOklahomaCraig,Oklahoma,Craig,2022-04-28 09:13:11,2021-03-11,0.36401482056036544,0.7023647732403554,1.4508028517822795,,,,,,,,,,,,
40035,0,USOklahomaCraig,Oklahoma,Craig,2022-04-28 09:13:11,2021-03-12,0.36401482056036544,0.7023647732403554,1.4508028517822795,,,,,,,,,,,,
40035,0,USOklahomaCraig,Oklahoma,Craig,2022-04-28 09:13:11,2021-03-13,0.36401482056036544,0.7023647732403554,1.4508028517822795,,,,,,,,,,,,
40035,0,USOklahomaCraig,Oklahoma,Craig,2022-04-28 09:13:11,2021-03-14,0.36401482056036544,0.7023647732403554,1.4508028517822795,,,,,,,,,,,,
40035,0,USOklahomaCraig,Oklahoma,Craig,2022-04-28 09:13:11,2021-03-15,0.36401482056036544,0.7023647732403554,1.4508028517822795,,,,,,,,,,,,
40035,0,USOklahomaCraig,Oklahoma,Craig,2022-04-28 09:13:11,2021-03-16,0.36401482056036544,0.7023647732403554,1.4508028517822795,,,,,,,,,,,,
40035,0,USOklahomaCraig,Oklahoma,Craig,2022-04-28 09:13:11,2021-03-17,0.36401482056036544,0.7023647732403554,1.4508028517822795,,,,,,,,,,,,
40035,0,USOklahomaCraig,Oklahoma,Craig,2022-04-28 09:13:11,2021-03-18,0.45886216934307905,0.8411578408963711,1.646189512154347,,,,,,,,,,,,
40035,0,USOklahomaCraig,Oklahoma,Craig,2022-04-28 09:13:11,2021-03-19,0.45886216934307905,0.8411578408963711,1.646189512154347,,,,,,,,,,,,
40035,0,USOklahomaCraig,Oklahoma,Craig,2022-04-28 09:13:11,2021-03-20,0.45886216934307905,0.8411578408963711,1.646189512154347,,,,,,,,,,,,
40035,0,USOklahomaCraig,Oklahoma,Craig,2022-04-28 09:13:11,2021-03-21,0.45886216934307905,0.8411578408963711,1.646189512154347,,,,,,,,,,,,
40035,0,USOklahomaCraig,Oklahoma,Craig,2022-04-28 09:13:11,2021-03-22,0.45886216934307905,0.8411578408963711,1.646189512154347,,,,,,,,,,,,
40035,0,USOklahomaCraig,Oklahoma,Craig,2022-04-28 09:13:11,2021-03-23,0.45886216934307905,0.8411578408963711,1.646189512154347,,,,,,,,,,,,
40035,0,USOklahomaCraig,Oklahoma,Craig,2022-04-28 09:13:11,2021-03-24,0.45886216934307905,0.8411578408963711,1.646189512154347,,,,,,,,,,,,
40035,0,USOklahomaCraig,Oklahoma,Craig,2022-04-28 09:13:11,2021-03-25,0.1490989547049889,0.34633679074377494,0.8655789576769481,,,,,,,,,,,,
40035,0,USOklahomaCraig,Oklahoma,Craig,2022-04-28 09:13:11,2021-03-26,0.1490989547049889,0.34633679074377494,0.8655789576769481,,,,,,,,,,,,
40035,0,USOklahomaCraig,Oklahoma,Craig,2022-04-28 09:13:11,2021-03-27,0.1490989547049889,0.34633679074377494,0.8655789576769481,,,,,,,,,,,,
40035,0,USOklahomaCraig,Oklahoma,Craig,2022-04-28 09:13:11,2021-03-28,0.1490989547049889,0.34633679074377494,0.8655789576769481,,,,,,,,,,,,
40035,0,USOklahomaCraig,Oklahoma,Craig,2022-04-28 09:13:11,2021-03-29,0.1490989547049889,0.34633679074377494,0.8655789576769481,,,,,,,,,,,,
40035,0,USOklahomaCraig,Oklahoma,Craig,2022-04-28 09:13:11,2021-03-30,0.1490989547049889,0.34633679074377494,0.8655789576769481,,,,,,,,,,,,
40035,0,USOklahomaCraig,Oklahoma,Craig,2022-04-28 09:13:11,2021-03-31,0.1490989547049889,0.34633679074377494,0.8655789576769481,,,,,,,,,,,,
40035,0,USOklahomaCraig,Oklahoma,Craig,2022-04-28 09:13:11,2021-04-01,0.35243274728229074,0.7787227751864056,1.8500585598952322,,,,,,,,,,,,
40035,0,USOklahomaCraig,Oklahoma,Craig,2022-04-28 09:13:11,2021-04-02,0.35243274728229074,0.7787227751864056,1.8500585598952322,,,,,,,,,,,,
40035,0,USOklahomaCraig,Oklahoma,Craig,2022-04-28 09:13:11,2021-04-03,0.35243274728229074,0.7787227751864056,1.8500585598952322,,,,,,,,,,,,
40035,0,USOklahomaCraig,Oklahoma,Craig,2022-04-28 09:13:11,2021-04-04,0.35243274728229074,0.7787227751864056,1.8500585598952322,,,,,,,,,,,,
40035,0,USOklahomaCraig,Oklahoma,Craig,2022-04-28 09:13:11,2021-04-05,0.35243274728229074,0.7787227751864056,1.8500585598952322,,,,,,,,,,,,
40035,0,USOklahomaCraig,Oklahoma,Craig,2022-04-28 09:13:11,2021-04-06,0.35243274728229074,0.7787227751864056,1.8500585598952322,,,,,,,,,,,,
40035,0,USOklahomaCraig,Oklahoma,Craig,2022-04-28 09:13:11,2021-04-07,0.35243274728229074,0.7787227751864056,1.8500585598952322,,,,,,,,,,,,
40035,0,USOklahomaCraig,Oklahoma,Craig,2022-04-28 09:13:11,2021-04-08,0.17216829305104847,0.3725685355549605,0.8665108408023304,,,,,,,,,,,,
40035,0,USOklahomaCraig,Oklahoma,Craig,2022-04-28 09:13:11,2021-04-09,0.17216829305104847,0.3725685355549605,0.8665108408023304,,,,,,,,,,,,
40035,0,USOklahomaCraig,Oklahoma,Craig,2022-04-28 09:13:11,2021-04-10,0.17216829305104847,0.3725685355549605,0.8665108408023304,,,,,,,,,,,,
40035,0,USOklahomaCraig,Oklahoma,Craig,2022-04-28 09:13:11,2021-04-11,0.17216829305104847,0.3725685355549605,0.8665108408023304,,,,,,,,,,,,
40035,0,USOklahomaCraig,Oklahoma,Craig,2022-04-28 09:13:11,2021-04-12,0.17216829305104847,0.3725685355549605,0.8665108408023304,,,,,,,,,,,,
40035,0,USOklahomaCraig,Oklahoma,Craig,2022-04-28 09:13:11,2021-04-13,0.17216829305104847,0.3725685355549605,0.8665108408023304,,,,,,,,,,,,
40035,0,USOklahomaCraig,Oklahoma,Craig,2022-04-28 09:13:11,2021-04-14,0.17216829305104847,0.3725685355549605,0.8665108408023304,,,,,,,,,,,,
40035,0,USOklahomaCraig,Oklahoma,Craig,2022-04-28 09:13:11,2021-04-15,0.28929593900467726,0.5345565919928116,1.0550095167523463,,,,,,,,,,,,
40035,0,USOklahomaCraig,Oklahoma,Craig,2022-04-28 09:13:11,2021-04-16,0.28929593900467726,0.5345565919928116,1.0550095167523463,,,,,,,,,,,,
40035,0,USOklahomaCraig,Oklahoma,Craig,2022-04-28 09:13:11,2021-04-17,0.28929593900467726,0.5345565919928116,1.0550095167523463,,,,,,,,,,,,
40035,0,USOklahomaCraig,Oklahoma,Craig,2022-04-28 09:13:11,2021-04-18,0.28929593900467726,0.5345565919928116,1.0550095167523463,,,,,,,,,,,,
40035,0,USOklahomaCraig,Oklahoma,Craig,2022-04-28 09:13:11,2021-04-19,0.28929593900467726,0.5345565919928116,1.0550095167523463,,,,,,,,,,,,
40035,0,USOklahomaCraig,Oklahoma,Craig,2022-04-28 09:13:11,2021-04-20,0.28929593900467726,0.5345565919928116,1.0550095167523463,,,,,,,,,,,,
40035,0,USOklahomaCraig,Oklahoma,Craig,2022-04-28 09:13:11,2021-04-21,0.28929593900467726,0.5345565919928116,1.0550095167523463,,,,,,,,,,,,
40035,0,USOklahomaCraig,Oklahoma,Craig,2022-04-28 09:13:11,2021-04-22,0.1791960218003998,0.4019297461779454,0.9695619232870812,,,,,,,,,,,,
40035,0,USOklahomaCraig,Oklahoma,Craig,2022-04-28 09:13:11,2021-04-23,0.1791960218003998,0.4019297461779454,0.9695619232870812,,,,,,,,,,,,
40035,0,USOklahomaCraig,Oklahoma,Craig,2022-04-28 09:13:11,2021-04-24,0.1791960218003998,0.4019297461779454,0.9695619232870812,,,,,,,,,,,,
40035,0,USOklahomaCraig,Oklahoma,Craig,2022-04-28 09:13:11,2021-04-25,0.1791960218003998,0.4019297461779454,0.9695619232870812,,,,,,,,,,,,
40035,0,USOklahomaCraig,Oklahoma,Craig,2022-04-28 09:13:11,2021-04-26,0.1791960218003998,0.4019297461779454,0.9695619232870812,,,,,,,,,,,,
40035,0,USOklahomaCraig,Oklahoma,Craig,2022-04-28 09:13:11,2021-04-27,0.1791960218003998,0.4019297461779454,0.9695619232870812,,,,,,,,,,,,
40035,0,USOklahomaCraig,Oklahoma,Craig,2022-04-28 09:13:11,2021-04-28,0.1791960218003998,0.4019297461779454,0.9695619232870812,,,,,,,,,,,,
40035,0,USOklahomaCraig,Oklahoma,Craig,2022-04-28 09:13:11,2021-04-29,0.15605817065098346,0.3774537515290967,0.9824652940161904,,,,,,,,,,,,
40035,0,USOklahomaCraig,Oklahoma,Craig,2022-04-28 09:13:11,2021-04-30,0.15605817065098346,0.3774537515290967,0.9824652940161904,,,,,,,,,,,,
40035,0,USOklahomaCraig,Oklahoma,Craig,2022-04-28 09:13:11,2021-05-01,0.15605817065098346,0.3774537515290967,0.9824652940161904,,,,,,,,,,,,
40035,0,USOklahomaCraig,Oklahoma,Craig,2022-04-28 09:13:11,2021-05-02,0.15605817065098346,0.3774537515290967,0.9824652940161904,,,,,,,,,,,,
40035,0,USOklahomaCraig,Oklahoma,Craig,2022-04-28 09:13:11,2021-05-03,0.15605817065098346,0.3774537515290967,0.9824652940161904,,,,,,,,,,,,
40035,0,USOklahomaCraig,Oklahoma,Craig,2022-04-28 09:13:11,2021-05-04,0.15605817065098346,0.3774537515290967,0.9824652940161904,,,,,,,,,,,,
40035,0,USOklahomaCraig,Oklahoma,Craig,2022-04-28 09:13:11,2021-05-05,0.15605817065098346,0.3774537515290967,0.9824652940161904,,,,,,,,,,,,
40035,0,USOklahomaCraig,Oklahoma,Craig,2022-04-28 09:13:11,2021-05-20,0.08391295518442742,0.2163396518736847,0.6001158983566516,,,,,,,,,,,,
40035,0,USOklahomaCraig,Oklahoma,Craig,2022-04-28 09:13:11,2021-05-21,0.08391295518442742,0.2163396518736847,0.6001158983566516,,,,,,,,,,,,
40035,0,USOklahomaCraig,Oklahoma,Craig,2022-04-28 09:13:11,2021-05-22,0.08391295518442742,0.2163396518736847,0.6001158983566516,,,,,,,,,,,,
40035,0,USOklahomaCraig,Oklahoma,Craig,2022-04-28 09:13:11,2021-05-23,0.08391295518442742,0.2163396518736847,0.6001158983566516,,,,,,,,,,,,
40035,0,USOklahomaCraig,Oklahoma,Craig,2022-04-28 09:13:11,2021-05-24,0.08391295518442742,0.2163396518736847,0.6001158983566516,,,,,,,,,,,,
40035,0,USOklahomaCraig,Oklahoma,Craig,2022-04-28 09:13:11,2021-05-25,0.08391295518442742,0.2163396518736847,0.6001158983566516,,,,,,,,,,,,
40035,0,USOklahomaCraig,Oklahoma,Craig,2022-04-28 09:13:11,2021-05-26,0.08391295518442742,0.2163396518736847,0.6001158983566516,,,,,,,,,,,,
40035,0,USOklahomaCraig,Oklahoma,Craig,2022-04-28 09:13:11,2021-05-27,0.15761310181241564,0.3845644196115701,1.0097796701694843,,,,,,,,,,,,
40035,0,USOklahomaCraig,Oklahoma,Craig,2022-04-28 09:13:11,2021-05-28,0.15761310181241564,0.3845644196115701,1.0097796701694843,,,,,,,,,,,,
40035,0,USOklahomaCraig,Oklahoma,Craig,2022-04-28 09:13:11,2021-05-29,0.15761310181241564,0.3845644196115701,1.0097796701694843,,,,,,,,,,,,
40035,0,USOklahomaCraig,Oklahoma,Craig,2022-04-28 09:13:11,2021-05-30,0.15761310181241564,0.3845644196115701,1.0097796701694843,,,,,,,,,,,,
40035,0,USOklahomaCraig,Oklahoma,Craig,2022-04-28 09:13:11,2021-05-31,0.15761310181241564,0.3845644196115701,1.0097796701694843,,,,,,,,,,,,
40035,0,USOklahomaCraig,Oklahoma,Craig,2022-04-28 09:13:11,2021-06-01,0.15761310181241564,0.3845644196115701,1.0097796701694843,,,,,,,,,,,,
40035,0,USOklahomaCraig,Oklahoma,Craig,2022-04-28 09:13:11,2021-06-02,0.15761310181241564,0.3845644196115701,1.0097796701694843,,,,,,,,,,,,
40035,0,USOklahomaCraig,Oklahoma,Craig,2022-04-28 09:13:11,2021-06-03,0.22140375688040648,0.509697136154231,1.262369172688055,,,,,,,,,,,,
40035,0,USOklahomaCraig,Oklahoma,Craig,2022-04-28 09:13:11,2021-06-04,0.22140375688040648,0.509697136154231,1.262369172688055,,,,,,,,,,,,
40035,0,USOklahomaCraig,Oklahoma,Craig,2022-04-28 09:13:11,2021-06-05,0.22140375688040648,0.509697136154231,1.262369172688055,,,,,,,,,,,,
40035,0,USOklahomaCraig,Oklahoma,Craig,2022-04-28 09:13:11,2021-06-06,0.22140375688040648,0.509697136154231,1.262369172688055,,,,,,,,,,,,
40035,0,USOklahomaCraig,Oklahoma,Craig,2022-04-28 09:13:11,2021-06-07,0.22140375688040648,0.509697136154231,1.262369172688055,,,,,,,,,,,,
40035,0,USOklahomaCraig,Oklahoma,Craig,2022-04-28 09:13:11,2021-06-08,0.22140375688040648,0.509697136154231,1.262369172688055,,,,,,,,,,,,
40035,0,USOklahomaCraig,Oklahoma,Craig,2022-04-28 09:13:11,2021-06-09,0.22140375688040648,0.509697136154231,1.262369172688055,,,,,,,,,,,,
40035,0,USOklahomaCraig,Oklahoma,Craig,2022-04-28 09:13:11,2021-06-10,0.3381179011958213,0.7909017376671674,1.9906067887858865,,,,,,,,,,,,
40035,0,USOklahomaCraig,Oklahoma,Craig,2022-04-28 09:13:11,2021-06-11,0.3381179011958213,0.7909017376671674,1.9906067887858865,,,,,,,,,,,,
40035,0,USOklahomaCraig,Oklahoma,Craig,2022-04-28 09:13:11,2021-06-12,0.3381179011958213,0.7909017376671674,1.9906067887858865,,,,,,,,,,,,
40035,0,USOklahomaCraig,Oklahoma,Craig,2022-04-28 09:13:11,2021-06-13,0.3381179011958213,0.7909017376671674,1.9906067887858865,,,,,,,,,,,,
40035,0,USOklahomaCraig,Oklahoma,Craig,2022-04-28 09:13:11,2021-06-14,0.3381179011958213,0.7909017376671674,1.9906067887858865,,,,,,,,,,,,
40035,0,USOklahomaCraig,Oklahoma,Craig,2022-04-28 09:13:11,2021-06-15,0.3381179011958213,0.7909017376671674,1.9906067887858865,,,,,,,,,,,,
40035,0,USOklahomaCraig,Oklahoma,Craig,2022-04-28 09:13:11,2021-06-16,0.3381179011958213,0.7909017376671674,1.9906067887858865,,,,,,,,,,,,
40035,0,USOklahomaCraig,Oklahoma,Craig,2022-04-28 09:13:11,2021-06-17,0.5564335700986223,1.1503367858064681,2.5528172823889403,,,,,,,,,,,,
40035,0,USOklahomaCraig,Oklahoma,Craig,2022-04-28 09:13:11,2021-06-18,0.5564335700986223,1.1503367858064681,2.5528172823889403,,,,,,,,,,,,
40035,0,USOklahomaCraig,Oklahoma,Craig,2022-04-28 09:13:11,2021-06-19,0.5564335700986223,1.1503367858064681,2.5528172823889403,,,,,,,,,,,,
40035,0,USOklahomaCraig,Oklahoma,Craig,2022-04-28 09:13:11,2021-06-20,0.5564335700986223,1.1503367858064681,2.5528172823889403,,,,,,,,,,,,
40035,0,USOklahomaCraig,Oklahoma,Craig,2022-04-28 09:13:11,2021-06-21,0.5564335700986223,1.1503367858064681,2.5528172823889403,,,,,,,,,,,,
40035,0,USOklahomaCraig,Oklahoma,Craig,2022-04-28 09:13:11,2021-06-22,0.5564335700986223,1.1503367858064681,2.5528172823889403,,,,,,,,,,,,
40035,0,USOklahomaCraig,Oklahoma,Craig,2022-04-28 09:13:11,2021-06-23,0.5564335700986223,1.1503367858064681,2.5528172823889403,,,,,,,,,,,,
40035,0,USOklahomaCraig,Oklahoma,Craig,2022-04-28 09:13:11,2021-06-24,0.83731203578719815,1.6483604874697517,3.4770580253064463,,,,,,,,,,,,
40035,0,USOklahomaCraig,Oklahoma,Craig,2022-04-28 09:13:11,2021-06-25,0.83731203578719815,1.6483604874697517,3.4770580253064463,,,,,,,,,,,,
40035,0,USOklahomaCraig,Oklahoma,Craig,2022-04-28 09:13:11,2021-06-26,0.83731203578719815,1.6483604874697517,3.4770580253064463,,,,,,,,,,,,
40035,0,USOklahomaCraig,Oklahoma,Craig,2022-04-28 09:13:11,2021-06-27,0.83731203578719815,1.6483604874697517,3.4770580253064463,,,,,,,,,,,,
40035,0,USOklahomaCraig,Oklahoma,Craig,2022-04-28 09:13:11,2021-06-28,0.83731203578719815,1.6483604874697517,3.4770580253064463,,,,,,,,,,,,
40035,0,USOklahomaCraig,Oklahoma,Craig,2022-04-28 09:13:11,2021-06-29,0.83731203578719815,1.6483604874697517,3.4770580253064463,,,,,,,,,,,,
40035,0,USOklahomaCraig,Oklahoma,Craig,2022-04-28 09:13:11,2021-06-30,0.83731203578719815,1.6483604874697517,3.4770580253064463,,,,,,,,,,,,
40035,0,USOklahomaCraig,Oklahoma,Craig,2022-04-28 09:13:11,2021-07-01,0.5288892858690878,1.2432517427179,3.1446846105926505,,,,,,,,,,,,
40035,0,USOklahomaCraig,Oklahoma,Craig,2022-04-28 09:13:11,2021-07-02,0.5288892858690878,1.2432517427179,3.1446846105926505,,,,,,,,,,,,
40035,0,USOklahomaCraig,Oklahoma,Craig,2022-04-28 09:13:11,2021-07-03,0.5288892858690878,1.2432517427179,3.1446846105926505,,,,,,,,,,,,
40035,0,USOklahomaCraig,Oklahoma,Craig,2022-04-28 09:13:11,2021-07-04,0.5288892858690878,1.2432517427179,3.1446846105926505,,,,,,,,,,,,
40035,0,USOklahomaCraig,Oklahoma,Craig,2022-04-28 09:13:11,2021-07-05,0.5288892858690878,1.2432517427179,3.1446846105926505,,,,,,,,,,,,
40035,0,USOklahomaCraig,Oklahoma,Craig,2022-04-28 09:13:11,2021-07-06,0.5288892858690878,1.2432517427179,3.1446846105926505,,,,,,,,,,,,
40035,0,USOklahomaCraig,Oklahoma,Craig,2022-04-28 09:13:11,2021-07-07,0.5288892858690878,1.2432517427179,3.1446846105926505,,,,,,,,,,,,
40035,0,USOklahomaCraig,Oklahoma,Craig,2022-04-28 09:13:11,2021-07-08,1.0893017810144172,2.547625550916421,6.411078006234434,,,,,,,,,,,,
40035,0,USOklahomaCraig,Oklahoma,Craig,2022-04-28 09:13:11,2021-07-09,1.0893017810144172,2.547625550916421,6.411078006234434,,,,,,,,,,,,
40035,0,USOklahomaCraig,Oklahoma,Craig,2022-04-28 09:13:11,2021-07-10,1.0893017810144172,2.547625550916421,6.411078006234434,,,,,,,,,,,,
40035,0,USOklahomaCraig,Oklahoma,Craig,2022-04-28 09:13:11,2021-07-11,1.0893017810144172,2.547625550916421,6.411078006234434,,,,,,,,,,,,
40035,0,USOklahomaCraig,Oklahoma,Craig,2022-04-28 09:13:11,2021-07-12,1.0893017810144172,2.547625550916421,6.411078006234434,,,,,,,,,,,,
40035,0,USOklahomaCraig,Oklahoma,Craig,2022-04-28 09:13:11,2021-07-13,1.0893017810144172,2.547625550916421,6.411078006234434,,,,,,,,,,,,
40035,0,USOklahomaCraig,Oklahoma,Craig,2022-04-28 09:13:11,2021-07-14,1.0893017810144172,2.547625550916421,6.411078006234434,,,,,,,,,,,,
40035,0,USOklahomaCraig,Oklahoma,Craig,2022-04-28 09:13:11,2021-07-15,2.4915396528946423,5.158255763954385,11.464116989432261,,,,,,,,,,,,
40035,0,USOklahomaCraig,Oklahoma,Craig,2022-04-28 09:13:11,2021-07-16,2.4915396528946423,5.158255763954385,11.464116989432261,,,,,,,,,,,,
40035,0,USOklahomaCraig,Oklahoma,Craig,2022-04-28 09:13:11,2021-07-17,2.4915396528946423,5.158255763954385,11.464116989432261,,,,,,,,,,,,
40035,0,USOklahomaCraig,Oklahoma,Craig,2022-04-28 09:13:11,2021-07-18,2.4915396528946423,5.158255763954385,11.464116989432261,,,,,,,,,,,,
40035,0,USOklahomaCraig,Oklahoma,Craig,2022-04-28 09:13:11,2021-07-19,2.4915396528946423,5.158255763954385,11.464116989432261,,,,,,,,,,,,
40035,0,USOklahomaCraig,Oklahoma,Craig,2022-04-28 09:13:11,2021-07-20,2.4915396528946423,5.158255763954385,11.464116989432261,,,,,,,,,,,,
40035,0,USOklahomaCraig,Oklahoma,Craig,2022-04-28 09:13:11,2021-07-21,2.4915396528946423,5.158255763954385,11.464116989432261,,,,,,,,,,,,
40035,0,USOklahomaCraig,Oklahoma,Craig,2022-04-28 09:13:11,2021-07-22,2.689167806152332,5.508437550599761,12.10852816048759,,,,,,,,,,,,
40035,0,USOklahomaCraig,Oklahoma,Craig,2022-04-28 09:13:11,2021-07-23,2.689167806152332,5.508437550599761,12.10852816048759,,,,,,,,,,,,
40035,0,USOklahomaCraig,Oklahoma,Craig,2022-04-28 09:13:11,2021-07-24,2.689167806152332,5.508437550599761,12.10852816048759,,,,,,,,,,,,
40035,0,USOklahomaCraig,Oklahoma,Craig,2022-04-28 09:13:11,2021-07-25,2.689167806152332,5.508437550599761,12.10852816048759,,,,,,,,,,,,
40035,0,USOklahomaCraig,Oklahoma,Craig,2022-04-28 09:13:11,2021-07-26,2.689167806152332,5.508437550599761,12.10852816048759,,,,,,,,,,,,
40035,0,USOklahomaCraig,Oklahoma,Craig,2022-04-28 09:13:11,2021-07-27,2.689167806152332,5.508437550599761,12.10852816048759,,,,,,,,,,,,
40035,0,USOklahomaCraig,Oklahoma,Craig,2022-04-28 09:13:11,2021-07-28,2.689167806152332,5.508437550599761,12.10852816048759,,,,,,,,,,,,
40035,0,USOklahomaCraig,Oklahoma,Craig,2022-04-28 09:13:11,2021-07-29,3.5120707604341996,7.533374680502783,17.363720822461985,,,,,,,,,,,,
40035,0,USOklahomaCraig,Oklahoma,Craig,2022-04-28 09:13:11,2021-07-30,3.5120707604341996,7.533374680502783,17.363720822461985,,,,,,,,,,,,
40035,0,USOklahomaCraig,Oklahoma,Craig,2022-04-28 09:13:11,2021-07-31,3.5120707604341996,7.533374680502783,17.363720822461985,,,,,,,,,,,,
40035,0,USOklahomaCraig,Oklahoma,Craig,2022-04-28 09:13:11,2021-08-01,3.5120707604341996,7.533374680502783,17.363720822461985,,,,,,,,,,,,
40035,0,USOklahomaCraig,Oklahoma,Craig,2022-04-28 09:13:11,2021-08-02,3.5120707604341996,7.533374680502783,17.363720822461985,,,,,,,,,,,,
40035,0,USOklahomaCraig,Oklahoma,Craig,2022-04-28 09:13:11,2021-08-03,3.5120707604341996,7.533374680502783,17.363720822461985,,,,,,,,,,,,
40035,0,USOklahomaCraig,Oklahoma,Craig,2022-04-28 09:13:11,2021-08-04,3.5120707604341996,7.533374680502783,17.363720822461985,,,,,,,,,,,,
40035,0,USOklahomaCraig,Oklahoma,Craig,2022-04-28 09:13:11,2021-08-05,2.8385324855628102,5.791071738775199,12.677011709932703,,,,,,,,,,,,
40035,0,USOklahomaCraig,Oklahoma,Craig,2022-04-28 09:13:11,2021-08-06,2.8385324855628102,5.791071738775199,12.677011709932703,,,,,,,,,,,,
40035,0,USOklahomaCraig,Oklahoma,Craig,2022-04-28 09:13:11,2021-08-07,2.8385324855628102,5.791071738775199,12.677011709932703,,,,,,,,,,,,
40035,0,USOklahomaCraig,Oklahoma,Craig,2022-04-28 09:13:11,2021-08-08,2.8385324855628102,5.791071738775199,12.677011709932703,,,,,,,,,,,,
40035,0,USOklahomaCraig,Oklahoma,Craig,2022-04-28 09:13:11,2021-08-09,2.8385324855628102,5.791071738775199,12.677011709932703,,,,,,,,,,,,
40035,0,USOklahomaCraig,Oklahoma,Craig,2022-04-28 09:13:11,2021-08-10,2.8385324855628102,5.791071738775199,12.677011709932703,,,,,,,,,,,,
40035,0,USOklahomaCraig,Oklahoma,Craig,2022-04-28 09:13:11,2021-08-11,2.8385324855628102,5.791071738775199,12.677011709932703,,,,,,,,,,,,
40035,0,USOklahomaCraig,Oklahoma,Craig,2022-04-28 09:13:11,2021-08-12,2.7041567070307835,6.0262344867035305,14.441746552275491,,,,,,,,,,,,
40035,0,USOklahomaCraig,Oklahoma,Craig,2022-04-28 09:13:11,2021-08-13,2.7041567070307835,6.0262344867035305,14.441746552275491,,,,,,,,,,,,
40035,0,USOklahomaCraig,Oklahoma,Craig,2022-04-28 09:13:11,2021-08-14,2.7041567070307835,6.0262344867035305,14.441746552275491,,,,,,,,,,,,
40035,0,USOklahomaCraig,Oklahoma,Craig,2022-04-28 09:13:11,2021-08-15,2.7041567070307835,6.0262344867035305,14.441746552275491,,,,,,,,,,,,
40035,0,USOklahomaCraig,Oklahoma,Craig,2022-04-28 09:13:11,2021-08-16,2.7041567070307835,6.0262344867035305,14.441746552275491,,,,,,,,,,,,
40035,0,USOklahomaCraig,Oklahoma,Craig,2022-04-28 09:13:11,2021-08-17,2.7041567070307835,6.0262344867035305,14.441746552275491,,,,,,,,,,,,
40035,0,USOklahomaCraig,Oklahoma,Craig,2022-04-28 09:13:11,2021-08-18,2.7041567070307835,6.0262344867035305,14.441746552275491,,,,,,,,,,,,
40035,0,USOklahomaCraig,Oklahoma,Craig,2022-04-28 09:13:11,2021-08-19,2.52026438450693,6.4107554636837625,17.54704044634231,,,,,,,,,,,,
40035,0,USOklahomaCraig,Oklahoma,Craig,2022-04-28 09:13:11,2021-08-20,2.52026438450693,6.4107554636837625,17.54704044634231,,,,,,,,,,,,
40035,0,USOklahomaCraig,Oklahoma,Craig,2022-04-28 09:13:11,2021-08-21,2.52026438450693,6.4107554636837625,17.54704044634231,,,,,,,,,,,,
40035,0,USOklahomaCraig,Oklahoma,Craig,2022-04-28 09:13:11,2021-08-22,2.52026438450693,6.4107554636837625,17.54704044634231,,,,,,,,,,,,
40035,0,USOklahomaCraig,Oklahoma,Craig,2022-04-28 09:13:11,2021-08-23,2.52026438450693,6.4107554636837625,17.54704044634231,,,,,,,,,,,,
40035,0,USOklahomaCraig,Oklahoma,Craig,2022-04-28 09:13:11,2021-08-24,2.52026438450693,6.4107554636837625,17.54704044634231,,,,,,,,,,,,
40035,0,USOklahomaCraig,Oklahoma,Craig,2022-04-28 09:13:11,2021-08-25,2.52026438450693,6.4107554636837625,17.54704044634231,,,,,,,,,,,,
40035,0,USOklahomaCraig,Oklahoma,Craig,2022-04-28 09:13:11,2021-08-26,2.6412427310472464,6.998981719865689,19.949806088168714,,,,,,,,,,,,
40035,0,USOklahomaCraig,Oklahoma,Craig,2022-04-28 09:13:11,2021-08-27,2.6412427310472464,6.998981719865689,19.949806088168714,,,,,,,,,,,,
40035,0,USOklahomaCraig,Oklahoma,Craig,2022-04-28 09:13:11,2021-08-28,2.6412427310472464,6.998981719865689,19.949806088168714,,,,,,,,,,,,
40035,0,USOklahomaCraig,Oklahoma,Craig,2022-04-28 09:13:11,2021-08-29,2.6412427310472464,6.998981719865689,19.949806088168714,,,,,,,,,,,,
40035,0,USOklahomaCraig,Oklahoma,Craig,2022-04-28 09:13:11,2021-08-30,2.6412427310472464,6.998981719865689,19.949806088168714,,,,,,,,,,,,
40035,0,USOklahomaCraig,Oklahoma,Craig,2022-04-28 09:13:11,2021-08-31,2.6412427310472464,6.998981719865689,19.949806088168714,,,,,,,,,,,,
40035,0,USOklahomaCraig,Oklahoma,Craig,2022-04-28 09:13:11,2021-09-01,2.6412427310472464,6.998981719865689,19.949806088168714,,,,,,,,,,,,
40035,0,USOklahomaCraig,Oklahoma,Craig,2022-04-28 09:13:11,2021-09-02,2.376682228617262,4.551354974543807,9.327259259375715,,,,,,,,,,,,
40035,0,USOklahomaCraig,Oklahoma,Craig,2022-04-28 09:13:11,2021-09-03,2.376682228617262,4.551354974543807,9.327259259375715,,,,,,,,,,,,
40035,0,USOklahomaCraig,Oklahoma,Craig,2022-04-28 09:13:11,2021-09-04,2.376682228617262,4.551354974543807,9.327259259375715,,,,,,,,,,,,
40035,0,USOklahomaCraig,Oklahoma,Craig,2022-04-28 09:13:11,2021-09-05,2.376682228617262,4.551354974543807,9.327259259375715,,,,,,,,,,,,
40035,0,USOklahomaCraig,Oklahoma,Craig,2022-04-28 09:13:11,2021-09-06,2.376682228617262,4.551354974543807,9.327259259375715,,,,,,,,,,,,
40035,0,USOklahomaCraig,Oklahoma,Craig,2022-04-28 09:13:11,2021-09-07,2.376682228617262,4.551354974543807,9.327259259375715,,,,,,,,,,,,
40035,0,USOklahomaCraig,Oklahoma,Craig,2022-04-28 09:13:11,2021-09-08,2.376682228617262,4.551354974543807,9.327259259375715,,,,,,,,,,,,
40035,0,USOklahomaCraig,Oklahoma,Craig,2022-04-28 09:13:11,2021-09-09,2.1311642390982626,4.021133255234959,8.113253533683313,,,,,,,,,,,,
40035,0,USOklahomaCraig,Oklahoma,Craig,2022-04-28 09:13:11,2021-09-10,2.1311642390982626,4.021133255234959,8.113253533683313,,,,,,,,,,,,
40035,0,USOklahomaCraig,Oklahoma,Craig,2022-04-28 09:13:11,2021-09-11,2.1311642390982626,4.021133255234959,8.113253533683313,,,,,,,,,,,,
40035,0,USOklahomaCraig,Oklahoma,Craig,2022-04-28 09:13:11,2021-09-12,2.1311642390982626,4.021133255234959,8.113253533683313,,,,,,,,,,,,
40035,0,USOklahomaCraig,Oklahoma,Craig,2022-04-28 09:13:11,2021-09-13,2.1311642390982626,4.021133255234959,8.113253533683313,,,,,,,,,,,,
40035,0,USOklahomaCraig,Oklahoma,Craig,2022-04-28 09:13:11,2021-09-14,2.1311642390982626,4.021133255234959,8.113253533683313,,,,,,,,,,,,
40035,0,USOklahomaCraig,Oklahoma,Craig,2022-04-28 09:13:11,2021-09-15,2.1311642390982626,4.021133255234959,8.113253533683313,,,,,,,,,,,,
40035,0,USOklahomaCraig,Oklahoma,Craig,2022-04-28 09:13:11,2021-09-16,1.3171966575088818,2.9367778460950835,7.041325969436168,,,,,,,,,,,,
40035,0,USOklahomaCraig,Oklahoma,Craig,2022-04-28 09:13:11,2021-09-17,1.3171966575088818,2.9367778460950835,7.041325969436168,,,,,,,,,,,,
40035,0,USOklahomaCraig,Oklahoma,Craig,2022-04-28 09:13:11,2021-09-18,1.3171966575088818,2.9367778460950835,7.041325969436168,,,,,,,,,,,,
40035,0,USOklahomaCraig,Oklahoma,Craig,2022-04-28 09:13:11,2021-09-19,1.3171966575088818,2.9367778460950835,7.041325969436168,,,,,,,,,,,,
40035,0,USOklahomaCraig,Oklahoma,Craig,2022-04-28 09:13:11,2021-09-20,1.3171966575088818,2.9367778460950835,7.041325969436168,,,,,,,,,,,,
40035,0,USOklahomaCraig,Oklahoma,Craig,2022-04-28 09:13:11,2021-09-21,1.3171966575088818,2.9367778460950835,7.041325969436168,,,,,,,,,,,,
40035,0,USOklahomaCraig,Oklahoma,Craig,2022-04-28 09:13:11,2021-09-22,1.3171966575088818,2.9367778460950835,7.041325969436168,,,,,,,,,,,,
40035,0,USOklahomaCraig,Oklahoma,Craig,2022-04-28 09:13:11,2021-09-23,1.1683668833034737,2.5921901222514454,6.184174363073665,,,,,,,,,,,,
40035,0,USOklahomaCraig,Oklahoma,Craig,2022-04-28 09:13:11,2021-09-24,1.1683668833034737,2.5921901222514454,6.184174363073665,,,,,,,,,,,,
40035,0,USOklahomaCraig,Oklahoma,Craig,2022-04-28 09:13:11,2021-09-25,1.1683668833034737,2.5921901222514454,6.184174363073665,,,,,,,,,,,,
40035,0,USOklahomaCraig,Oklahoma,Craig,2022-04-28 09:13:11,2021-09-26,1.1683668833034737,2.5921901222514454,6.184174363073665,,,,,,,,,,,,
40035,0,USOklahomaCraig,Oklahoma,Craig,2022-04-28 09:13:11,2021-09-27,1.1683668833034737,2.5921901222514454,6.184174363073665,,,,,,,,,,,,
40035,0,USOklahomaCraig,Oklahoma,Craig,2022-04-28 09:13:11,2021-09-28,1.1683668833034737,2.5921901222514454,6.184174363073665,,,,,,,,,,,,
40035,0,USOklahomaCraig,Oklahoma,Craig,2022-04-28 09:13:11,2021-09-29,1.1683668833034737,2.5921901222514454,6.184174363073665,,,,,,,,,,,,
40035,0,USOklahomaCraig,Oklahoma,Craig,2022-04-28 09:13:11,2021-09-30,1.625371557292677,3.280057100395648,7.099595787635764,,,,,,,,,,,,
40035,0,USOklahomaCraig,Oklahoma,Craig,2022-04-28 09:13:11,2021-10-01,1.625371557292677,3.280057100395648,7.099595787635764,,,,,,,,,,,,
40035,0,USOklahomaCraig,Oklahoma,Craig,2022-04-28 09:13:11,2021-10-02,1.625371557292677,3.280057100395648,7.099595787635764,,,,,,,,,,,,
40035,0,USOklahomaCraig,Oklahoma,Craig,2022-04-28 09:13:11,2021-10-03,1.625371557292677,3.280057100395648,7.099595787635764,,,,,,,,,,,,
40035,0,USOklahomaCraig,Oklahoma,Craig,2022-04-28 09:13:11,2021-10-04,1.625371557292677,3.280057100395648,7.099595787635764,,,,,,,,,,,,
40035,0,USOklahomaCraig,Oklahoma,Craig,2022-04-28 09:13:11,2021-10-05,1.625371557292677,3.280057100395648,7.099595787635764,,,,,,,,,,,,
40035,0,USOklahomaCraig,Oklahoma,Craig,2022-04-28 09:13:11,2021-10-06,1.625371557292677,3.280057100395648,7.099595787635764,,,,,,,,,,,,
40035,0,USOklahomaCraig,Oklahoma,Craig,2022-04-28 09:13:11,2021-10-07,1.500179987028533,4.040869212343553,11.705625474191422,,,,,,,,,,,,
40035,0,USOklahomaCraig,Oklahoma,Craig,2022-04-28 09:13:11,2021-10-08,1.500179987028533,4.040869212343553,11.705625474191422,,,,,,,,,,,,
40035,0,USOklahomaCraig,Oklahoma,Craig,2022-04-28 09:13:11,2021-10-09,1.500179987028533,4.040869212343553,11.705625474191422,,,,,,,,,,,,
40035,0,USOklahomaCraig,Oklahoma,Craig,2022-04-28 09:13:11,2021-10-10,1.500179987028533,4.040869212343553,11.705625474191422,,,,,,,,,,,,
40035,0,USOklahomaCraig,Oklahoma,Craig,2022-04-28 09:13:11,2021-10-11,1.500179987028533,4.040869212343553,11.705625474191422,,,,,,,,,,,,
40035,0,USOklahomaCraig,Oklahoma,Craig,2022-04-28 09:13:11,2021-10-12,1.500179987028533,4.040869212343553,11.705625474191422,,,,,,,,,,,,
40035,0,USOklahomaCraig,Oklahoma,Craig,2022-04-28 09:13:11,2021-10-13,1.500179987028533,4.040869212343553,11.705625474191422,,,,,,,,,,,,
40035,0,USOklahomaCraig,Oklahoma,Craig,2022-04-28 09:13:11,2021-10-14,1.6088019595059577,4.08669071294408,11.170584886885441,,,,,,,,,,,,
40035,0,USOklahomaCraig,Oklahoma,Craig,2022-04-28 09:13:11,2021-10-15,1.6088019595059577,4.08669071294408,11.170584886885441,,,,,,,,,,,,
40035,0,USOklahomaCraig,Oklahoma,Craig,2022-04-28 09:13:11,2021-10-16,1.6088019595059577,4.08669071294408,11.170584886885441,,,,,,,,,,,,
40035,0,USOklahomaCraig,Oklahoma,Craig,2022-04-28 09:13:11,2021-10-17,1.6088019595059577,4.08669071294408,11.170584886885441,,,,,,,,,,,,
40035,0,USOklahomaCraig,Oklahoma,Craig,2022-04-28 09:13:11,2021-10-18,1.6088019595059577,4.08669071294408,11.170584886885441,,,,,,,,,,,,
40035,0,USOklahomaCraig,Oklahoma,Craig,2022-04-28 09:13:11,2021-10-19,1.6088019595059577,4.08669071294408,11.170584886885441,,,,,,,,,,,,
40035,0,USOklahomaCraig,Oklahoma,Craig,2022-04-28 09:13:11,2021-10-20,1.6088019595059577,4.08669071294408,11.170584886885441,,,,,,,,,,,,
40035,0,USOklahomaCraig,Oklahoma,Craig,2022-04-28 09:13:11,2021-10-21,1.0090867544535176,2.8106785795228393,8.41502414270659,,,,,,,,,,,,
40035,0,USOklahomaCraig,Oklahoma,Craig,2022-04-28 09:13:11,2021-10-22,1.0090867544535176,2.8106785795228393,8.41502414270659,,,,,,,,,,,,
40035,0,USOklahomaCraig,Oklahoma,Craig,2022-04-28 09:13:11,2021-10-23,1.0090867544535176,2.8106785795228393,8.41502414270659,,,,,,,,,,,,
40035,0,USOklahomaCraig,Oklahoma,Craig,2022-04-28 09:13:11,2021-10-24,1.0090867544535176,2.8106785795228393,8.41502414270659,,,,,,,,,,,,
40035,0,USOklahomaCraig,Oklahoma,Craig,2022-04-28 09:13:11,2021-10-25,1.0090867544535176,2.8106785795228393,8.41502414270659,,,,,,,,,,,,
40035,0,USOklahomaCraig,Oklahoma,Craig,2022-04-28 09:13:11,2021-10-26,1.0090867544535176,2.8106785795228393,8.41502414270659,,,,,,,,,,,,
40035,0,USOklahomaCraig,Oklahoma,Craig,2022-04-28 09:13:11,2021-10-27,1.0090867544535176,2.8106785795228393,8.41502414270659,,,,,,,,,,,,
40035,0,USOklahomaCraig,Oklahoma,Craig,2022-04-28 09:13:11,2021-10-28,0.9420156141663444,2.573944437976829,7.562040414234531,,,,,,,,,,,,
40035,0,USOklahomaCraig,Oklahoma,Craig,2022-04-28 09:13:11,2021-10-29,0.9420156141663444,2.573944437976829,7.562040414234531,,,,,,,,,,,,
40035,0,USOklahomaCraig,Oklahoma,Craig,2022-04-28 09:13:11,2021-10-30,0.9420156141663444,2.573944437976829,7.562040414234531,,,,,,,,,,,,
40035,0,USOklahomaCraig,Oklahoma,Craig,2022-04-28 09:13:11,2021-10-31,0.9420156141663444,2.573944437976829,7.562040414234531,,,,,,,,,,,,
40035,0,USOklahomaCraig,Oklahoma,Craig,2022-04-28 09:13:11,2021-11-01,0.9420156141663444,2.573944437976829,7.562040414234531,,,,,,,,,,,,
40035,0,USOklahomaCraig,Oklahoma,Craig,2022-04-28 09:13:11,2021-11-02,0.9420156141663444,2.573944437976829,7.562040414234531,,,,,,,,,,,,
40035,0,USOklahomaCraig,Oklahoma,Craig,2022-04-28 09:13:11,2021-11-03,0.9420156141663444,2.573944437976829,7.562040414234531,,,,,,,,,,,,
40035,0,USOklahomaCraig,Oklahoma,Craig,2022-04-28 09:13:11,2021-11-04,0,0,0,,,,,,,,,,,,
40035,0,USOklahomaCraig,Oklahoma,Craig,2022-04-28 09:13:11,2021-11-05,0,0,0,,,,,,,,,,,,
40035,0,USOklahomaCraig,Oklahoma,Craig,2022-04-28 09:13:11,2021-11-06,0,0,0,,,,,,,,,,,,
40035,0,USOklahomaCraig,Oklahoma,Craig,2022-04-28 09:13:11,2021-11-07,0,0,0,,,,,,,,,,,,
40035,0,USOklahomaCraig,Oklahoma,Craig,2022-04-28 09:13:11,2021-11-08,0,0,0,,,,,,,,,,,,
40035,0,USOklahomaCraig,Oklahoma,Craig,2022-04-28 09:13:11,2021-11-09,0,0,0,,,,,,,,,,,,
40035,0,USOklahomaCraig,Oklahoma,Craig,2022-04-28 09:13:11,2021-11-10,0,0,0,,,,,,,,,,,,
40035,0,USOklahomaCraig,Oklahoma,Craig,2022-04-28 09:13:11,2021-11-11,2.2212540074848373,5.205588397047599,13.126713431724207,,,,,,,,,,,,
40035,0,USOklahomaCraig,Oklahoma,Craig,2022-04-28 09:13:11,2021-11-12,2.2212540074848373,5.205588397047599,13.126713431724207,,,,,,,,,,,,
40035,0,USOklahomaCraig,Oklahoma,Craig,2022-04-28 09:13:11,2021-11-13,2.2212540074848373,5.205588397047599,13.126713431724207,,,,,,,,,,,,
40035,0,USOklahomaCraig,Oklahoma,Craig,2022-04-28 09:13:11,2021-11-14,2.2212540074848373,5.205588397047599,13.126713431724207,,,,,,,,,,,,
40035,0,USOklahomaCraig,Oklahoma,Craig,2022-04-28 09:13:11,2021-11-15,2.2212540074848373,5.205588397047599,13.126713431724207,,,,,,,,,,,,
40035,0,USOklahomaCraig,Oklahoma,Craig,2022-04-28 09:13:11,2021-11-16,2.2212540074848373,5.205588397047599,13.126713431724207,,,,,,,,,,,,
40035,0,USOklahomaCraig,Oklahoma,Craig,2022-04-28 09:13:11,2021-11-17,2.2212540074848373,5.205588397047599,13.126713431724207,,,,,,,,,,,,
40035,0,USOklahomaCraig,Oklahoma,Craig,2022-04-28 09:13:11,2021-11-18,1.2361604535415391,3.1370381600255937,8.566473439445772,,,,,,,,,,,,
40035,0,USOklahomaCraig,Oklahoma,Craig,2022-04-28 09:13:11,2021-11-19,1.2361604535415391,3.1370381600255937,8.566473439445772,,,,,,,,,,,,
40035,0,USOklahomaCraig,Oklahoma,Craig,2022-04-28 09:13:11,2021-11-20,1.2361604535415391,3.1370381600255937,8.566473439445772,,,,,,,,,,,,
40035,0,USOklahomaCraig,Oklahoma,Craig,2022-04-28 09:13:11,2021-11-21,1.2361604535415391,3.1370381600255937,8.566473439445772,,,,,,,,,,,,
40035,0,USOklahomaCraig,Oklahoma,Craig,2022-04-28 09:13:11,2021-11-22,1.2361604535415391,3.1370381600255937,8.566473439445772,,,,,,,,,,,,
40035,0,USOklahomaCraig,Oklahoma,Craig,2022-04-28 09:13:11,2021-11-23,1.2361604535415391,3.1370381600255937,8.566473439445772,,,,,,,,,,,,
40035,0,USOklahomaCraig,Oklahoma,Craig,2022-04-28 09:13:11,2021-11-24,1.2361604535415391,3.1370381600255937,8.566473439445772,,,,,,,,,,,,
40035,0,USOklahomaCraig,Oklahoma,Craig,2022-04-28 09:13:11,2021-11-25,0.3794575030219319,1.0878286965141437,3.3502653806050477,,,,,,,,,,,,
40035,0,USOklahomaCraig,Oklahoma,Craig,2022-04-28 09:13:11,2021-11-26,0.3794575030219319,1.0878286965141437,3.3502653806050477,,,,,,,,,,,,
40035,0,USOklahomaCraig,Oklahoma,Craig,2022-04-28 09:13:11,2021-11-27,0.3794575030219319,1.0878286965141437,3.3502653806050477,,,,,,,,,,,,
40035,0,USOklahomaCraig,Oklahoma,Craig,2022-04-28 09:13:11,2021-11-28,0.3794575030219319,1.0878286965141437,3.3502653806050477,,,,,,,,,,,,
40035,0,USOklahomaCraig,Oklahoma,Craig,2022-04-28 09:13:11,2021-11-29,0.3794575030219319,1.0878286965141437,3.3502653806050477,,,,,,,,,,,,
40035,0,USOklahomaCraig,Oklahoma,Craig,2022-04-28 09:13:11,2021-11-30,0.3794575030219319,1.0878286965141437,3.3502653806050477,,,,,,,,,,,,
40035,0,USOklahomaCraig,Oklahoma,Craig,2022-04-28 09:13:11,2021-12-01,0.3794575030219319,1.0878286965141437,3.3502653806050477,,,,,,,,,,,,
40035,0,USOklahomaCraig,Oklahoma,Craig,2022-04-28 09:13:11,2021-12-02,1.8666039218615604,3.576927677485617,7.33543840645641,,,,,,,,,,,,
40035,0,USOklahomaCraig,Oklahoma,Craig,2022-04-28 09:13:11,2021-12-03,1.8666039218615604,3.576927677485617,7.33543840645641,,,,,,,,,,,,
40035,0,USOklahomaCraig,Oklahoma,Craig,2022-04-28 09:13:11,2021-12-04,1.8666039218615604,3.576927677485617,7.33543840645641,,,,,,,,,,,,
40035,0,USOklahomaCraig,Oklahoma,Craig,2022-04-28 09:13:11,2021-12-05,1.8666039218615604,3.576927677485617,7.33543840645641,,,,,,,,,,,,
40035,0,USOklahomaCraig,Oklahoma,Craig,2022-04-28 09:13:11,2021-12-06,1.8666039218615604,3.576927677485617,7.33543840645641,,,,,,,,,,,,
40035,0,USOklahomaCraig,Oklahoma,Craig,2022-04-28 09:13:11,2021-12-07,1.8666039218615604,3.576927677485617,7.33543840645641,,,,,,,,,,,,
40035,0,USOklahomaCraig,Oklahoma,Craig,2022-04-28 09:13:11,2021-12-08,1.8666039218615604,3.576927677485617,7.33543840645641,,,,,,,,,,,,
40035,0,USOklahomaCraig,Oklahoma,Craig,2022-04-28 09:13:11,2021-12-09,2.0462675743591974,3.9195101029179926,8.034332760889443,,,,,,,,,,,,
40035,0,USOklahomaCraig,Oklahoma,Craig,2022-04-28 09:13:11,2021-12-10,2.0462675743591974,3.9195101029179926,8.034332760889443,,,,,,,,,,,,
40035,0,USOklahomaCraig,Oklahoma,Craig,2022-04-28 09:13:11,2021-12-11,2.0462675743591974,3.9195101029179926,8.034332760889443,,,,,,,,,,,,
40035,0,USOklahomaCraig,Oklahoma,Craig,2022-04-28 09:13:11,2021-12-12,2.0462675743591974,3.9195101029179926,8.034332760889443,,,,,,,,,,,,
40035,0,USOklahomaCraig,Oklahoma,Craig,2022-04-28 09:13:11,2021-12-13,2.0462675743591974,3.9195101029179926,8.034332760889443,,,,,,,,,,,,
40035,0,USOklahomaCraig,Oklahoma,Craig,2022-04-28 09:13:11,2021-12-14,2.0462675743591974,3.9195101029179926,8.034332760889443,,,,,,,,,,,,
40035,0,USOklahomaCraig,Oklahoma,Craig,2022-04-28 09:13:11,2021-12-15,2.0462675743591974,3.9195101029179926,8.034332760889443,,,,,,,,,,,,
40035,0,USOklahomaCraig,Oklahoma,Craig,2022-04-28 09:13:11,2021-12-16,1.2855857277445863,2.500965741160046,5.2105309844790595,,,,,,,,,,,,
40035,0,USOklahomaCraig,Oklahoma,Craig,2022-04-28 09:13:11,2021-12-17,1.2855857277445863,2.500965741160046,5.2105309844790595,,,,,,,,,,,,
40035,0,USOklahomaCraig,Oklahoma,Craig,2022-04-28 09:13:11,2021-12-18,1.2855857277445863,2.500965741160046,5.2105309844790595,,,,,,,,,,,,
40035,0,USOklahomaCraig,Oklahoma,Craig,2022-04-28 09:13:11,2021-12-19,1.2855857277445863,2.500965741160046,5.2105309844790595,,,,,,,,,,,,
40035,0,USOklahomaCraig,Oklahoma,Craig,2022-04-28 09:13:11,2021-12-20,1.2855857277445863,2.500965741160046,5.2105309844790595,,,,,,,,,,,,
40035,0,USOklahomaCraig,Oklahoma,Craig,2022-04-28 09:13:11,2021-12-21,1.2855857277445863,2.500965741160046,5.2105309844790595,,,,,,,,,,,,
40035,0,USOklahomaCraig,Oklahoma,Craig,2022-04-28 09:13:11,2021-12-22,1.2855857277445863,2.500965741160046,5.2105309844790595,,,,,,,,,,,,
40035,0,USOklahomaCraig,Oklahoma,Craig,2022-04-28 09:13:11,2021-12-23,1.442174152043434,3.181044301920248,7.5440407067119,,,,,,,,,,,,
40035,0,USOklahomaCraig,Oklahoma,Craig,2022-04-28 09:13:11,2021-12-24,1.442174152043434,3.181044301920248,7.5440407067119,,,,,,,,,,,,
40035,0,USOklahomaCraig,Oklahoma,Craig,2022-04-28 09:13:11,2021-12-25,1.442174152043434,3.181044301920248,7.5440407067119,,,,,,,,,,,,
40035,0,USOklahomaCraig,Oklahoma,Craig,2022-04-28 09:13:11,2021-12-26,1.442174152043434,3.181044301920248,7.5440407067119,,,,,,,,,,,,
40035,0,USOklahomaCraig,Oklahoma,Craig,2022-04-28 09:13:11,2021-12-27,1.442174152043434,3.181044301920248,7.5440407067119,,,,,,,,,,,,
40035,0,USOklahomaCraig,Oklahoma,Craig,2022-04-28 09:13:11,2021-12-28,1.442174152043434,3.181044301920248,7.5440407067119,,,,,,,,,,,,
40035,0,USOklahomaCraig,Oklahoma,Craig,2022-04-28 09:13:11,2021-12-29,1.442174152043434,3.181044301920248,7.5440407067119,,,,,,,,,,,,
40035,0,USOklahomaCraig,Oklahoma,Craig,2022-04-28 09:13:11,2021-12-30,1.5036900525182477,3.7700329686352263,10.171698125027442,,,,,,,,,,,,
40035,0,USOklahomaCraig,Oklahoma,Craig,2022-04-28 09:13:11,2021-12-31,1.5036900525182477,3.7700329686352263,10.171698125027442,,,,,,,,,,,,
40035,0,USOklahomaCraig,Oklahoma,Craig,2022-04-28 09:13:11,2022-01-01,1.5036900525182477,3.7700329686352263,10.171698125027442,,,,,,,,,,,,
40035,0,USOklahomaCraig,Oklahoma,Craig,2022-04-28 09:13:11,2022-01-02,1.5036900525182477,3.7700329686352263,10.171698125027442,,,,,,,,,,,,
40035,0,USOklahomaCraig,Oklahoma,Craig,2022-04-28 09:13:11,2022-01-03,1.5036900525182477,3.7700329686352263,10.171698125027442,,,,,,,,,,,,
40035,0,USOklahomaCraig,Oklahoma,Craig,2022-04-28 09:13:11,2022-01-04,1.5036900525182477,3.7700329686352263,10.171698125027442,,,,,,,,,,,,
40035,0,USOklahomaCraig,Oklahoma,Craig,2022-04-28 09:13:11,2022-01-05,1.5036900525182477,3.7700329686352263,10.171698125027442,,,,,,,,,,,,
40035,0,USOklahomaCraig,Oklahoma,Craig,2022-04-28 09:13:11,2022-01-06,4.7269255443680835,10.594600501604791,25.538138361789503,,,,,,,,,,,,
40035,0,USOklahomaCraig,Oklahoma,Craig,2022-04-28 09:13:11,2022-01-07,4.7269255443680835,10.594600501604791,25.538138361789503,,,,,,,,,,,,
40035,0,USOklahomaCraig,Oklahoma,Craig,2022-04-28 09:13:11,2022-01-08,4.7269255443680835,10.594600501604791,25.538138361789503,,,,,,,,,,,,
40035,0,USOklahomaCraig,Oklahoma,Craig,2022-04-28 09:13:11,2022-01-09,4.7269255443680835,10.594600501604791,25.538138361789503,,,,,,,,,,,,
40035,0,USOklahomaCraig,Oklahoma,Craig,2022-04-28 09:13:11,2022-01-10,4.7269255443680835,10.594600501604791,25.538138361789503,,,,,,,,,,,,
40035,0,USOklahomaCraig,Oklahoma,Craig,2022-04-28 09:13:11,2022-01-11,4.7269255443680835,10.594600501604791,25.538138361789503,,,,,,,,,,,,
40035,0,USOklahomaCraig,Oklahoma,Craig,2022-04-28 09:13:11,2022-01-12,4.7269255443680835,10.594600501604791,25.538138361789503,,,,,,,,,,,,
40035,0,USOklahomaCraig,Oklahoma,Craig,2022-04-28 09:13:11,2022-01-13,7.149623902737851,14.27459050034492,30.555543697026792,,,,,,,,,,,,
40035,0,USOklahomaCraig,Oklahoma,Craig,2022-04-28 09:13:11,2022-01-14,7.149623902737851,14.27459050034492,30.555543697026792,,,,,,,,,,,,
40035,0,USOklahomaCraig,Oklahoma,Craig,2022-04-28 09:13:11,2022-01-15,7.149623902737851,14.27459050034492,30.555543697026792,,,,,,,,,,,,
40035,0,USOklahomaCraig,Oklahoma,Craig,2022-04-28 09:13:11,2022-01-16,7.149623902737851,14.27459050034492,30.555543697026792,,,,,,,,,,,,
40035,0,USOklahomaCraig,Oklahoma,Craig,2022-04-28 09:13:11,2022-01-17,7.149623902737851,14.27459050034492,30.555543697026792,,,,,,,,,,,,
40035,0,USOklahomaCraig,Oklahoma,Craig,2022-04-28 09:13:11,2022-01-18,7.149623902737851,14.27459050034492,30.555543697026792,,,,,,,,,,,,
40035,0,USOklahomaCraig,Oklahoma,Craig,2022-04-28 09:13:11,2022-01-19,7.149623902737851,14.27459050034492,30.555543697026792,,,,,,,,,,,,
40035,0,USOklahomaCraig,Oklahoma,Craig,2022-04-28 09:13:11,2022-01-20,7.989344777274346,14.027964369551743,26.221445333849143,,,,,,,,,,,,
40035,0,USOklahomaCraig,Oklahoma,Craig,2022-04-28 09:13:11,2022-01-21,7.989344777274346,14.027964369551743,26.221445333849143,,,,,,,,,,,,
40035,0,USOklahomaCraig,Oklahoma,Craig,2022-04-28 09:13:11,2022-01-22,7.989344777274346,14.027964369551743,26.221445333849143,,,,,,,,,,,,
40035,0,USOklahomaCraig,Oklahoma,Craig,2022-04-28 09:13:11,2022-01-23,7.989344777274346,14.027964369551743,26.221445333849143,,,,,,,,,,,,
40035,0,USOklahomaCraig,Oklahoma,Craig,2022-04-28 09:13:11,2022-01-24,7.989344777274346,14.027964369551743,26.221445333849143,,,,,,,,,,,,
40035,0,USOklahomaCraig,Oklahoma,Craig,2022-04-28 09:13:11,2022-01-25,7.989344777274346,14.027964369551743,26.221445333849143,,,,,,,,,,,,
40035,0,USOklahomaCraig,Oklahoma,Craig,2022-04-28 09:13:11,2022-01-26,7.989344777274346,14.027964369551743,26.221445333849143,,,,,,,,,,,,
40035,0,USOklahomaCraig,Oklahoma,Craig,2022-04-28 09:13:11,2022-01-27,9.382925287405797,14.144915152526982,22.38537505919488,,,,,,,,,,,,
40035,0,USOklahomaCraig,Oklahoma,Craig,2022-04-28 09:13:11,2022-01-28,9.382925287405797,14.144915152526982,22.38537505919488,,,,,,,,,,,,
40035,0,USOklahomaCraig,Oklahoma,Craig,2022-04-28 09:13:11,2022-01-29,9.382925287405797,14.144915152526982,22.38537505919488,,,,,,,,,,,,
40035,0,USOklahomaCraig,Oklahoma,Craig,2022-04-28 09:13:11,2022-01-30,9.382925287405797,14.144915152526982,22.38537505919488,,,,,,,,,,,,
40035,0,USOklahomaCraig,Oklahoma,Craig,2022-04-28 09:13:11,2022-01-31,9.382925287405797,14.144915152526982,22.38537505919488,,,,,,,,,,,,
40035,0,USOklahomaCraig,Oklahoma,Craig,2022-04-28 09:13:11,2022-02-01,9.382925287405797,14.144915152526982,22.38537505919488,,,,,,,,,,,,
40035,0,USOklahomaCraig,Oklahoma,Craig,2022-04-28 09:13:11,2022-02-02,9.382925287405797,14.144915152526982,22.38537505919488,,,,,,,,,,,,
40035,0,USOklahomaCraig,Oklahoma,Craig,2022-04-28 09:13:11,2022-02-03,2.5483021297936173,3.841405680183608,6.078953350801094,,,,,,,,,,,,
40035,0,USOklahomaCraig,Oklahoma,Craig,2022-04-28 09:13:11,2022-02-04,2.5483021297936173,3.841405680183608,6.078953350801094,,,,,,,,,,,,
40035,0,USOklahomaCraig,Oklahoma,Craig,2022-04-28 09:13:11,2022-02-05,2.5483021297936173,3.841405680183608,6.078953350801094,,,,,,,,,,,,
40035,0,USOklahomaCraig,Oklahoma,Craig,2022-04-28 09:13:11,2022-02-06,2.5483021297936173,3.841405680183608,6.078953350801094,,,,,,,,,,,,
40035,0,USOklahomaCraig,Oklahoma,Craig,2022-04-28 09:13:11,2022-02-07,2.5483021297936173,3.841405680183608,6.078953350801094,,,,,,,,,,,,
40035,0,USOklahomaCraig,Oklahoma,Craig,2022-04-28 09:13:11,2022-02-08,2.5483021297936173,3.841405680183608,6.078953350801094,,,,,,,,,,,,
40035,0,USOklahomaCraig,Oklahoma,Craig,2022-04-28 09:13:11,2022-02-09,2.5483021297936173,3.841405680183608,6.078953350801094,,,,,,,,,,,,
40035,0,USOklahomaCraig,Oklahoma,Craig,2022-04-28 09:13:11,2022-02-10,1.9847291824541424,3.3798429187083534,6.113206347181836,,,,,,,,,,,,
40035,0,USOklahomaCraig,Oklahoma,Craig,2022-04-28 09:13:11,2022-02-11,1.9847291824541424,3.3798429187083534,6.113206347181836,,,,,,,,,,,,
40035,0,USOklahomaCraig,Oklahoma,Craig,2022-04-28 09:13:11,2022-02-12,1.9847291824541424,3.3798429187083534,6.113206347181836,,,,,,,,,,,,
40035,0,USOklahomaCraig,Oklahoma,Craig,2022-04-28 09:13:11,2022-02-13,1.9847291824541424,3.3798429187083534,6.113206347181836,,,,,,,,,,,,
40035,0,USOklahomaCraig,Oklahoma,Craig,2022-04-28 09:13:11,2022-02-14,1.9847291824541424,3.3798429187083534,6.113206347181836,,,,,,,,,,,,
40035,0,USOklahomaCraig,Oklahoma,Craig,2022-04-28 09:13:11,2022-02-15,1.9847291824541424,3.3798429187083534,6.113206347181836,,,,,,,,,,,,
40035,0,USOklahomaCraig,Oklahoma,Craig,2022-04-28 09:13:11,2022-02-16,1.9847291824541424,3.3798429187083534,6.113206347181836,,,,,,,,,,,,
40035,0,USOklahomaCraig,Oklahoma,Craig,2022-04-28 09:13:11,2022-02-17,1.156096381816421,2.5408233047348388,6.003546352218599,,,,,,,,,,,,
40035,0,USOklahomaCraig,Oklahoma,Craig,2022-04-28 09:13:11,2022-02-18,1.156096381816421,2.5408233047348388,6.003546352218599,,,,,,,,,,,,
40035,0,USOklahomaCraig,Oklahoma,Craig,2022-04-28 09:13:11,2022-02-19,1.156096381816421,2.5408233047348388,6.003546352218599,,,,,,,,,,,,
40035,0,USOklahomaCraig,Oklahoma,Craig,2022-04-28 09:13:11,2022-02-20,1.156096381816421,2.5408233047348388,6.003546352218599,,,,,,,,,,,,
40035,0,USOklahomaCraig,Oklahoma,Craig,2022-04-28 09:13:11,2022-02-21,1.156096381816421,2.5408233047348388,6.003546352218599,,,,,,,,,,,,
40035,0,USOklahomaCraig,Oklahoma,Craig,2022-04-28 09:13:11,2022-02-22,1.156096381816421,2.5408233047348388,6.003546352218599,,,,,,,,,,,,
40035,0,USOklahomaCraig,Oklahoma,Craig,2022-04-28 09:13:11,2022-02-23,1.156096381816421,2.5408233047348388,6.003546352218599,,,,,,,,,,,,
40035,0,USOklahomaCraig,Oklahoma,Craig,2022-04-28 09:13:11,2022-02-24,0.8642418751689424,2.0219122903841806,5.089773406245624,,,,,,,,,,,,
40035,0,USOklahomaCraig,Oklahoma,Craig,2022-04-28 09:13:11,2022-02-25,0.8642418751689424,2.0219122903841806,5.089773406245624,,,,,,,,,,,,
40035,0,USOklahomaCraig,Oklahoma,Craig,2022-04-28 09:13:11,2022-02-26,0.8642418751689424,2.0219122903841806,5.089773406245624,,,,,,,,,,,,
40035,0,USOklahomaCraig,Oklahoma,Craig,2022-04-28 09:13:11,2022-02-27,0.8642418751689424,2.0219122903841806,5.089773406245624,,,,,,,,,,,,
40035,0,USOklahomaCraig,Oklahoma,Craig,2022-04-28 09:13:11,2022-02-28,0.8642418751689424,2.0219122903841806,5.089773406245624,,,,,,,,,,,,
40035,0,USOklahomaCraig,Oklahoma,Craig,2022-04-28 09:13:11,2022-03-01,0.8642418751689424,2.0219122903841806,5.089773406245624,,,,,,,,,,,,
40035,0,USOklahomaCraig,Oklahoma,Craig,2022-04-28 09:13:11,2022-03-02,0.8642418751689424,2.0219122903841806,5.089773406245624,,,,,,,,,,,,
