FIPS,HR_UID,nameid,province,region,analysisTime,dates,pointprevalence_025,pointprevalence_50,pointprevalence_975,pointinfections_025,pointinfections_50,pointinfections_975,pointinfectious_025,pointinfectious_50,pointinfectious_975,pointinfectiousprevalence_025,pointinfectiousprevalence_50,pointinfectiousprevalence_975,infectrate_025,infectrate_50,infectrate_975
16021,0,USIdahoBoundary,Idaho,Boundary,2022-04-28 09:13:11,2020-03-19,0,0,0,,,,,,,,,,,,
16021,0,USIdahoBoundary,Idaho,Boundary,2022-04-28 09:13:11,2020-03-20,0,0,0,,,,,,,,,,,,
16021,0,USIdahoBoundary,Idaho,Boundary,2022-04-28 09:13:11,2020-03-21,0,0,0,,,,,,,,,,,,
16021,0,USIdahoBoundary,Idaho,Boundary,2022-04-28 09:13:11,2020-03-22,0,0,0,,,,,,,,,,,,
16021,0,USIdahoBoundary,Idaho,Boundary,2022-04-28 09:13:11,2020-03-23,0,0,0,,,,,,,,,,,,
16021,0,USIdahoBoundary,Idaho,Boundary,2022-04-28 09:13:11,2020-03-24,0,0,0,,,,,,,,,,,,
16021,0,USIdahoBoundary,Idaho,Boundary,2022-04-28 09:13:11,2020-03-25,0,0,0,,,,,,,,,,,,
16021,0,USIdahoBoundary,Idaho,Boundary,2022-04-28 09:13:11,2020-03-26,0,0,0,,,,,,,,,,,,
16021,0,USIdahoBoundary,Idaho,Boundary,2022-04-28 09:13:11,2020-03-27,0,0,0,,,,,,,,,,,,
16021,0,USIdahoBoundary,Idaho,Boundary,2022-04-28 09:13:11,2020-03-28,0,0,0,,,,,,,,,,,,
16021,0,USIdahoBoundary,Idaho,Boundary,2022-04-28 09:13:11,2020-03-29,0,0,0,,,,,,,,,,,,
16021,0,USIdahoBoundary,Idaho,Boundary,2022-04-28 09:13:11,2020-03-30,0,0,0,,,,,,,,,,,,
16021,0,USIdahoBoundary,Idaho,Boundary,2022-04-28 09:13:11,2020-03-31,0,0,0,,,,,,,,,,,,
16021,0,USIdahoBoundary,Idaho,Boundary,2022-04-28 09:13:11,2020-04-01,0,0,0,,,,,,,,,,,,
16021,0,USIdahoBoundary,Idaho,Boundary,2022-04-28 09:13:11,2020-04-02,0,0,0,,,,,,,,,,,,
16021,0,USIdahoBoundary,Idaho,Boundary,2022-04-28 09:13:11,2020-04-03,0,0,0,,,,,,,,,,,,
16021,0,USIdahoBoundary,Idaho,Boundary,2022-04-28 09:13:11,2020-04-04,0,0,0,,,,,,,,,,,,
16021,0,USIdahoBoundary,Idaho,Boundary,2022-04-28 09:13:11,2020-04-05,0,0,0,,,,,,,,,,,,
16021,0,USIdahoBoundary,Idaho,Boundary,2022-04-28 09:13:11,2020-04-06,0,0,0,,,,,,,,,,,,
16021,0,USIdahoBoundary,Idaho,Boundary,2022-04-28 09:13:11,2020-04-07,0,0,0,,,,,,,,,,,,
16021,0,USIdahoBoundary,Idaho,Boundary,2022-04-28 09:13:11,2020-04-08,0,0,0,,,,,,,,,,,,
16021,0,USIdahoBoundary,Idaho,Boundary,2022-04-28 09:13:11,2020-04-09,0.07077873881489054,0.2516130460737299,0.9547270035034577,,,,,,,,,,,,
16021,0,USIdahoBoundary,Idaho,Boundary,2022-04-28 09:13:11,2020-04-10,0.07077873881489054,0.2516130460737299,0.9547270035034577,,,,,,,,,,,,
16021,0,USIdahoBoundary,Idaho,Boundary,2022-04-28 09:13:11,2020-04-11,0.07077873881489054,0.2516130460737299,0.9547270035034577,,,,,,,,,,,,
16021,0,USIdahoBoundary,Idaho,Boundary,2022-04-28 09:13:11,2020-04-12,0.07077873881489054,0.2516130460737299,0.9547270035034577,,,,,,,,,,,,
16021,0,USIdahoBoundary,Idaho,Boundary,2022-04-28 09:13:11,2020-04-13,0.07077873881489054,0.2516130460737299,0.9547270035034577,,,,,,,,,,,,
16021,0,USIdahoBoundary,Idaho,Boundary,2022-04-28 09:13:11,2020-04-14,0.07077873881489054,0.2516130460737299,0.9547270035034577,,,,,,,,,,,,
16021,0,USIdahoBoundary,Idaho,Boundary,2022-04-28 09:13:11,2020-04-15,0.07077873881489054,0.2516130460737299,0.9547270035034577,,,,,,,,,,,,
16021,0,USIdahoBoundary,Idaho,Boundary,2022-04-28 09:13:11,2020-04-16,0,0,0,,,,,,,,,,,,
16021,0,USIdahoBoundary,Idaho,Boundary,2022-04-28 09:13:11,2020-04-17,0,0,0,,,,,,,,,,,,
16021,0,USIdahoBoundary,Idaho,Boundary,2022-04-28 09:13:11,2020-04-18,0,0,0,,,,,,,,,,,,
16021,0,USIdahoBoundary,Idaho,Boundary,2022-04-28 09:13:11,2020-04-19,0,0,0,,,,,,,,,,,,
16021,0,USIdahoBoundary,Idaho,Boundary,2022-04-28 09:13:11,2020-04-20,0,0,0,,,,,,,,,,,,
16021,0,USIdahoBoundary,Idaho,Boundary,2022-04-28 09:13:11,2020-04-21,0,0,0,,,,,,,,,,,,
16021,0,USIdahoBoundary,Idaho,Boundary,2022-04-28 09:13:11,2020-04-22,0,0,0,,,,,,,,,,,,
16021,0,USIdahoBoundary,Idaho,Boundary,2022-04-28 09:13:11,2020-04-23,0,0,0,,,,,,,,,,,,
16021,0,USIdahoBoundary,Idaho,Boundary,2022-04-28 09:13:11,2020-04-24,0,0,0,,,,,,,,,,,,
16021,0,USIdahoBoundary,Idaho,Boundary,2022-04-28 09:13:11,2020-04-25,0,0,0,,,,,,,,,,,,
16021,0,USIdahoBoundary,Idaho,Boundary,2022-04-28 09:13:11,2020-04-26,0,0,0,,,,,,,,,,,,
16021,0,USIdahoBoundary,Idaho,Boundary,2022-04-28 09:13:11,2020-04-27,0,0,0,,,,,,,,,,,,
16021,0,USIdahoBoundary,Idaho,Boundary,2022-04-28 09:13:11,2020-04-28,0,0,0,,,,,,,,,,,,
16021,0,USIdahoBoundary,Idaho,Boundary,2022-04-28 09:13:11,2020-04-29,0,0,0,,,,,,,,,,,,
16021,0,USIdahoBoundary,Idaho,Boundary,2022-04-28 09:13:11,2020-04-30,0,0,0,,,,,,,,,,,,
16021,0,USIdahoBoundary,Idaho,Boundary,2022-04-28 09:13:11,2020-05-01,0,0,0,,,,,,,,,,,,
16021,0,USIdahoBoundary,Idaho,Boundary,2022-04-28 09:13:11,2020-05-02,0,0,0,,,,,,,,,,,,
16021,0,USIdahoBoundary,Idaho,Boundary,2022-04-28 09:13:11,2020-05-03,0,0,0,,,,,,,,,,,,
16021,0,USIdahoBoundary,Idaho,Boundary,2022-04-28 09:13:11,2020-05-04,0,0,0,,,,,,,,,,,,
16021,0,USIdahoBoundary,Idaho,Boundary,2022-04-28 09:13:11,2020-05-05,0,0,0,,,,,,,,,,,,
16021,0,USIdahoBoundary,Idaho,Boundary,2022-04-28 09:13:11,2020-05-06,0,0,0,,,,,,,,,,,,
16021,0,USIdahoBoundary,Idaho,Boundary,2022-04-28 09:13:11,2020-05-07,0,0,0,,,,,,,,,,,,
16021,0,USIdahoBoundary,Idaho,Boundary,2022-04-28 09:13:11,2020-05-08,0,0,0,,,,,,,,,,,,
16021,0,USIdahoBoundary,Idaho,Boundary,2022-04-28 09:13:11,2020-05-09,0,0,0,,,,,,,,,,,,
16021,0,USIdahoBoundary,Idaho,Boundary,2022-04-28 09:13:11,2020-05-10,0,0,0,,,,,,,,,,,,
16021,0,USIdahoBoundary,Idaho,Boundary,2022-04-28 09:13:11,2020-05-11,0,0,0,,,,,,,,,,,,
16021,0,USIdahoBoundary,Idaho,Boundary,2022-04-28 09:13:11,2020-05-12,0,0,0,,,,,,,,,,,,
16021,0,USIdahoBoundary,Idaho,Boundary,2022-04-28 09:13:11,2020-05-13,0,0,0,,,,,,,,,,,,
16021,0,USIdahoBoundary,Idaho,Boundary,2022-04-28 09:13:11,2020-05-14,0,0,0,,,,,,,,,,,,
16021,0,USIdahoBoundary,Idaho,Boundary,2022-04-28 09:13:11,2020-05-15,0,0,0,,,,,,,,,,,,
16021,0,USIdahoBoundary,Idaho,Boundary,2022-04-28 09:13:11,2020-05-16,0,0,0,,,,,,,,,,,,
16021,0,USIdahoBoundary,Idaho,Boundary,2022-04-28 09:13:11,2020-05-17,0,0,0,,,,,,,,,,,,
16021,0,USIdahoBoundary,Idaho,Boundary,2022-04-28 09:13:11,2020-05-18,0,0,0,,,,,,,,,,,,
16021,0,USIdahoBoundary,Idaho,Boundary,2022-04-28 09:13:11,2020-05-19,0,0,0,,,,,,,,,,,,
16021,0,USIdahoBoundary,Idaho,Boundary,2022-04-28 09:13:11,2020-05-20,0,0,0,,,,,,,,,,,,
16021,0,USIdahoBoundary,Idaho,Boundary,2022-04-28 09:13:11,2020-05-21,0,0,0,,,,,,,,,,,,
16021,0,USIdahoBoundary,Idaho,Boundary,2022-04-28 09:13:11,2020-05-22,0,0,0,,,,,,,,,,,,
16021,0,USIdahoBoundary,Idaho,Boundary,2022-04-28 09:13:11,2020-05-23,0,0,0,,,,,,,,,,,,
16021,0,USIdahoBoundary,Idaho,Boundary,2022-04-28 09:13:11,2020-05-24,0,0,0,,,,,,,,,,,,
16021,0,USIdahoBoundary,Idaho,Boundary,2022-04-28 09:13:11,2020-05-25,0,0,0,,,,,,,,,,,,
16021,0,USIdahoBoundary,Idaho,Boundary,2022-04-28 09:13:11,2020-05-26,0,0,0,,,,,,,,,,,,
16021,0,USIdahoBoundary,Idaho,Boundary,2022-04-28 09:13:11,2020-05-27,0,0,0,,,,,,,,,,,,
16021,0,USIdahoBoundary,Idaho,Boundary,2022-04-28 09:13:11,2020-05-28,0,0,0,,,,,,,,,,,,
16021,0,USIdahoBoundary,Idaho,Boundary,2022-04-28 09:13:11,2020-05-29,0,0,0,,,,,,,,,,,,
16021,0,USIdahoBoundary,Idaho,Boundary,2022-04-28 09:13:11,2020-05-30,0,0,0,,,,,,,,,,,,
16021,0,USIdahoBoundary,Idaho,Boundary,2022-04-28 09:13:11,2020-05-31,0,0,0,,,,,,,,,,,,
16021,0,USIdahoBoundary,Idaho,Boundary,2022-04-28 09:13:11,2020-06-01,0,0,0,,,,,,,,,,,,
16021,0,USIdahoBoundary,Idaho,Boundary,2022-04-28 09:13:11,2020-06-02,0,0,0,,,,,,,,,,,,
16021,0,USIdahoBoundary,Idaho,Boundary,2022-04-28 09:13:11,2020-06-03,0,0,0,,,,,,,,,,,,
16021,0,USIdahoBoundary,Idaho,Boundary,2022-04-28 09:13:11,2020-06-04,0,0,0,,,,,,,,,,,,
16021,0,USIdahoBoundary,Idaho,Boundary,2022-04-28 09:13:11,2020-06-05,0,0,0,,,,,,,,,,,,
16021,0,USIdahoBoundary,Idaho,Boundary,2022-04-28 09:13:11,2020-06-06,0,0,0,,,,,,,,,,,,
16021,0,USIdahoBoundary,Idaho,Boundary,2022-04-28 09:13:11,2020-06-07,0,0,0,,,,,,,,,,,,
16021,0,USIdahoBoundary,Idaho,Boundary,2022-04-28 09:13:11,2020-06-08,0,0,0,,,,,,,,,,,,
16021,0,USIdahoBoundary,Idaho,Boundary,2022-04-28 09:13:11,2020-06-09,0,0,0,,,,,,,,,,,,
16021,0,USIdahoBoundary,Idaho,Boundary,2022-04-28 09:13:11,2020-06-10,0,0,0,,,,,,,,,,,,
16021,0,USIdahoBoundary,Idaho,Boundary,2022-04-28 09:13:11,2020-06-11,0,0,0,,,,,,,,,,,,
16021,0,USIdahoBoundary,Idaho,Boundary,2022-04-28 09:13:11,2020-06-12,0,0,0,,,,,,,,,,,,
16021,0,USIdahoBoundary,Idaho,Boundary,2022-04-28 09:13:11,2020-06-13,0,0,0,,,,,,,,,,,,
16021,0,USIdahoBoundary,Idaho,Boundary,2022-04-28 09:13:11,2020-06-14,0,0,0,,,,,,,,,,,,
16021,0,USIdahoBoundary,Idaho,Boundary,2022-04-28 09:13:11,2020-06-15,0,0,0,,,,,,,,,,,,
16021,0,USIdahoBoundary,Idaho,Boundary,2022-04-28 09:13:11,2020-06-16,0,0,0,,,,,,,,,,,,
16021,0,USIdahoBoundary,Idaho,Boundary,2022-04-28 09:13:11,2020-06-17,0,0,0,,,,,,,,,,,,
16021,0,USIdahoBoundary,Idaho,Boundary,2022-04-28 09:13:11,2020-06-18,0,0,0,,,,,,,,,,,,
16021,0,USIdahoBoundary,Idaho,Boundary,2022-04-28 09:13:11,2020-06-19,0,0,0,,,,,,,,,,,,
16021,0,USIdahoBoundary,Idaho,Boundary,2022-04-28 09:13:11,2020-06-20,0,0,0,,,,,,,,,,,,
16021,0,USIdahoBoundary,Idaho,Boundary,2022-04-28 09:13:11,2020-06-21,0,0,0,,,,,,,,,,,,
16021,0,USIdahoBoundary,Idaho,Boundary,2022-04-28 09:13:11,2020-06-22,0,0,0,,,,,,,,,,,,
16021,0,USIdahoBoundary,Idaho,Boundary,2022-04-28 09:13:11,2020-06-23,0,0,0,,,,,,,,,,,,
16021,0,USIdahoBoundary,Idaho,Boundary,2022-04-28 09:13:11,2020-06-24,0,0,0,,,,,,,,,,,,
16021,0,USIdahoBoundary,Idaho,Boundary,2022-04-28 09:13:11,2020-06-25,0.0829020558631291,0.3351434591397984,1.4387307679203531,,,,,,,,,,,,
16021,0,USIdahoBoundary,Idaho,Boundary,2022-04-28 09:13:11,2020-06-26,0.0829020558631291,0.3351434591397984,1.4387307679203531,,,,,,,,,,,,
16021,0,USIdahoBoundary,Idaho,Boundary,2022-04-28 09:13:11,2020-06-27,0.0829020558631291,0.3351434591397984,1.4387307679203531,,,,,,,,,,,,
16021,0,USIdahoBoundary,Idaho,Boundary,2022-04-28 09:13:11,2020-06-28,0.0829020558631291,0.3351434591397984,1.4387307679203531,,,,,,,,,,,,
16021,0,USIdahoBoundary,Idaho,Boundary,2022-04-28 09:13:11,2020-06-29,0.0829020558631291,0.3351434591397984,1.4387307679203531,,,,,,,,,,,,
16021,0,USIdahoBoundary,Idaho,Boundary,2022-04-28 09:13:11,2020-06-30,0.0829020558631291,0.3351434591397984,1.4387307679203531,,,,,,,,,,,,
16021,0,USIdahoBoundary,Idaho,Boundary,2022-04-28 09:13:11,2020-07-01,0.0829020558631291,0.3351434591397984,1.4387307679203531,,,,,,,,,,,,
16021,0,USIdahoBoundary,Idaho,Boundary,2022-04-28 09:13:11,2020-07-02,0.08095726213098633,0.3210856391447561,1.35337106844274,,,,,,,,,,,,
16021,0,USIdahoBoundary,Idaho,Boundary,2022-04-28 09:13:11,2020-07-03,0.08095726213098633,0.3210856391447561,1.35337106844274,,,,,,,,,,,,
16021,0,USIdahoBoundary,Idaho,Boundary,2022-04-28 09:13:11,2020-07-04,0.08095726213098633,0.3210856391447561,1.35337106844274,,,,,,,,,,,,
16021,0,USIdahoBoundary,Idaho,Boundary,2022-04-28 09:13:11,2020-07-05,0.08095726213098633,0.3210856391447561,1.35337106844274,,,,,,,,,,,,
16021,0,USIdahoBoundary,Idaho,Boundary,2022-04-28 09:13:11,2020-07-06,0.08095726213098633,0.3210856391447561,1.35337106844274,,,,,,,,,,,,
16021,0,USIdahoBoundary,Idaho,Boundary,2022-04-28 09:13:11,2020-07-07,0.08095726213098633,0.3210856391447561,1.35337106844274,,,,,,,,,,,,
16021,0,USIdahoBoundary,Idaho,Boundary,2022-04-28 09:13:11,2020-07-08,0.08095726213098633,0.3210856391447561,1.35337106844274,,,,,,,,,,,,
16021,0,USIdahoBoundary,Idaho,Boundary,2022-04-28 09:13:11,2020-07-09,0.3932930853236611,1.0268299038620274,2.884200536470311,,,,,,,,,,,,
16021,0,USIdahoBoundary,Idaho,Boundary,2022-04-28 09:13:11,2020-07-10,0.3932930853236611,1.0268299038620274,2.884200536470311,,,,,,,,,,,,
16021,0,USIdahoBoundary,Idaho,Boundary,2022-04-28 09:13:11,2020-07-11,0.3932930853236611,1.0268299038620274,2.884200536470311,,,,,,,,,,,,
16021,0,USIdahoBoundary,Idaho,Boundary,2022-04-28 09:13:11,2020-07-12,0.3932930853236611,1.0268299038620274,2.884200536470311,,,,,,,,,,,,
16021,0,USIdahoBoundary,Idaho,Boundary,2022-04-28 09:13:11,2020-07-13,0.3932930853236611,1.0268299038620274,2.884200536470311,,,,,,,,,,,,
16021,0,USIdahoBoundary,Idaho,Boundary,2022-04-28 09:13:11,2020-07-14,0.3932930853236611,1.0268299038620274,2.884200536470311,,,,,,,,,,,,
16021,0,USIdahoBoundary,Idaho,Boundary,2022-04-28 09:13:11,2020-07-15,0.3932930853236611,1.0268299038620274,2.884200536470311,,,,,,,,,,,,
16021,0,USIdahoBoundary,Idaho,Boundary,2022-04-28 09:13:11,2020-07-16,0.5489526199812362,1.4520752493784386,4.131706027195388,,,,,,,,,,,,
16021,0,USIdahoBoundary,Idaho,Boundary,2022-04-28 09:13:11,2020-07-17,0.5489526199812362,1.4520752493784386,4.131706027195388,,,,,,,,,,,,
16021,0,USIdahoBoundary,Idaho,Boundary,2022-04-28 09:13:11,2020-07-18,0.5489526199812362,1.4520752493784386,4.131706027195388,,,,,,,,,,,,
16021,0,USIdahoBoundary,Idaho,Boundary,2022-04-28 09:13:11,2020-07-19,0.5489526199812362,1.4520752493784386,4.131706027195388,,,,,,,,,,,,
16021,0,USIdahoBoundary,Idaho,Boundary,2022-04-28 09:13:11,2020-07-20,0.5489526199812362,1.4520752493784386,4.131706027195388,,,,,,,,,,,,
16021,0,USIdahoBoundary,Idaho,Boundary,2022-04-28 09:13:11,2020-07-21,0.5489526199812362,1.4520752493784386,4.131706027195388,,,,,,,,,,,,
16021,0,USIdahoBoundary,Idaho,Boundary,2022-04-28 09:13:11,2020-07-22,0.5489526199812362,1.4520752493784386,4.131706027195388,,,,,,,,,,,,
16021,0,USIdahoBoundary,Idaho,Boundary,2022-04-28 09:13:11,2020-07-23,0.6014010567098607,1.4887647976903375,3.966108996326164,,,,,,,,,,,,
16021,0,USIdahoBoundary,Idaho,Boundary,2022-04-28 09:13:11,2020-07-24,0.6014010567098607,1.4887647976903375,3.966108996326164,,,,,,,,,,,,
16021,0,USIdahoBoundary,Idaho,Boundary,2022-04-28 09:13:11,2020-07-25,0.6014010567098607,1.4887647976903375,3.966108996326164,,,,,,,,,,,,
16021,0,USIdahoBoundary,Idaho,Boundary,2022-04-28 09:13:11,2020-07-26,0.6014010567098607,1.4887647976903375,3.966108996326164,,,,,,,,,,,,
16021,0,USIdahoBoundary,Idaho,Boundary,2022-04-28 09:13:11,2020-07-27,0.6014010567098607,1.4887647976903375,3.966108996326164,,,,,,,,,,,,
16021,0,USIdahoBoundary,Idaho,Boundary,2022-04-28 09:13:11,2020-07-28,0.6014010567098607,1.4887647976903375,3.966108996326164,,,,,,,,,,,,
16021,0,USIdahoBoundary,Idaho,Boundary,2022-04-28 09:13:11,2020-07-29,0.6014010567098607,1.4887647976903375,3.966108996326164,,,,,,,,,,,,
16021,0,USIdahoBoundary,Idaho,Boundary,2022-04-28 09:13:11,2020-07-30,0.14568022862383112,0.5302348000633269,2.058087496043095,,,,,,,,,,,,
16021,0,USIdahoBoundary,Idaho,Boundary,2022-04-28 09:13:11,2020-07-31,0.14568022862383112,0.5302348000633269,2.058087496043095,,,,,,,,,,,,
16021,0,USIdahoBoundary,Idaho,Boundary,2022-04-28 09:13:11,2020-08-01,0.14568022862383112,0.5302348000633269,2.058087496043095,,,,,,,,,,,,
16021,0,USIdahoBoundary,Idaho,Boundary,2022-04-28 09:13:11,2020-08-02,0.14568022862383112,0.5302348000633269,2.058087496043095,,,,,,,,,,,,
16021,0,USIdahoBoundary,Idaho,Boundary,2022-04-28 09:13:11,2020-08-03,0.14568022862383112,0.5302348000633269,2.058087496043095,,,,,,,,,,,,
16021,0,USIdahoBoundary,Idaho,Boundary,2022-04-28 09:13:11,2020-08-04,0.14568022862383112,0.5302348000633269,2.058087496043095,,,,,,,,,,,,
16021,0,USIdahoBoundary,Idaho,Boundary,2022-04-28 09:13:11,2020-08-05,0.14568022862383112,0.5302348000633269,2.058087496043095,,,,,,,,,,,,
16021,0,USIdahoBoundary,Idaho,Boundary,2022-04-28 09:13:11,2020-08-06,0.2890467112330949,0.8675727518474865,2.794502829636784,,,,,,,,,,,,
16021,0,USIdahoBoundary,Idaho,Boundary,2022-04-28 09:13:11,2020-08-07,0.2890467112330949,0.8675727518474865,2.794502829636784,,,,,,,,,,,,
16021,0,USIdahoBoundary,Idaho,Boundary,2022-04-28 09:13:11,2020-08-08,0.2890467112330949,0.8675727518474865,2.794502829636784,,,,,,,,,,,,
16021,0,USIdahoBoundary,Idaho,Boundary,2022-04-28 09:13:11,2020-08-09,0.2890467112330949,0.8675727518474865,2.794502829636784,,,,,,,,,,,,
16021,0,USIdahoBoundary,Idaho,Boundary,2022-04-28 09:13:11,2020-08-10,0.2890467112330949,0.8675727518474865,2.794502829636784,,,,,,,,,,,,
16021,0,USIdahoBoundary,Idaho,Boundary,2022-04-28 09:13:11,2020-08-11,0.2890467112330949,0.8675727518474865,2.794502829636784,,,,,,,,,,,,
16021,0,USIdahoBoundary,Idaho,Boundary,2022-04-28 09:13:11,2020-08-12,0.2890467112330949,0.8675727518474865,2.794502829636784,,,,,,,,,,,,
16021,0,USIdahoBoundary,Idaho,Boundary,2022-04-28 09:13:11,2020-08-13,0.24377576524547057,0.7651170707577768,2.5739273114713033,,,,,,,,,,,,
16021,0,USIdahoBoundary,Idaho,Boundary,2022-04-28 09:13:11,2020-08-14,0.24377576524547057,0.7651170707577768,2.5739273114713033,,,,,,,,,,,,
16021,0,USIdahoBoundary,Idaho,Boundary,2022-04-28 09:13:11,2020-08-15,0.24377576524547057,0.7651170707577768,2.5739273114713033,,,,,,,,,,,,
16021,0,USIdahoBoundary,Idaho,Boundary,2022-04-28 09:13:11,2020-08-16,0.24377576524547057,0.7651170707577768,2.5739273114713033,,,,,,,,,,,,
16021,0,USIdahoBoundary,Idaho,Boundary,2022-04-28 09:13:11,2020-08-17,0.24377576524547057,0.7651170707577768,2.5739273114713033,,,,,,,,,,,,
16021,0,USIdahoBoundary,Idaho,Boundary,2022-04-28 09:13:11,2020-08-18,0.24377576524547057,0.7651170707577768,2.5739273114713033,,,,,,,,,,,,
16021,0,USIdahoBoundary,Idaho,Boundary,2022-04-28 09:13:11,2020-08-19,0.24377576524547057,0.7651170707577768,2.5739273114713033,,,,,,,,,,,,
16021,0,USIdahoBoundary,Idaho,Boundary,2022-04-28 09:13:11,2020-08-20,0.08421252167706846,0.34475495322342775,1.4979469299363157,,,,,,,,,,,,
16021,0,USIdahoBoundary,Idaho,Boundary,2022-04-28 09:13:11,2020-08-21,0.08421252167706846,0.34475495322342775,1.4979469299363157,,,,,,,,,,,,
16021,0,USIdahoBoundary,Idaho,Boundary,2022-04-28 09:13:11,2020-08-22,0.08421252167706846,0.34475495322342775,1.4979469299363157,,,,,,,,,,,,
16021,0,USIdahoBoundary,Idaho,Boundary,2022-04-28 09:13:11,2020-08-23,0.08421252167706846,0.34475495322342775,1.4979469299363157,,,,,,,,,,,,
16021,0,USIdahoBoundary,Idaho,Boundary,2022-04-28 09:13:11,2020-08-24,0.08421252167706846,0.34475495322342775,1.4979469299363157,,,,,,,,,,,,
16021,0,USIdahoBoundary,Idaho,Boundary,2022-04-28 09:13:11,2020-08-25,0.08421252167706846,0.34475495322342775,1.4979469299363157,,,,,,,,,,,,
16021,0,USIdahoBoundary,Idaho,Boundary,2022-04-28 09:13:11,2020-08-26,0.08421252167706846,0.34475495322342775,1.4979469299363157,,,,,,,,,,,,
16021,0,USIdahoBoundary,Idaho,Boundary,2022-04-28 09:13:11,2020-08-27,0.08366548063834409,0.34072918890461434,1.4730608260955327,,,,,,,,,,,,
16021,0,USIdahoBoundary,Idaho,Boundary,2022-04-28 09:13:11,2020-08-28,0.08366548063834409,0.34072918890461434,1.4730608260955327,,,,,,,,,,,,
16021,0,USIdahoBoundary,Idaho,Boundary,2022-04-28 09:13:11,2020-08-29,0.08366548063834409,0.34072918890461434,1.4730608260955327,,,,,,,,,,,,
16021,0,USIdahoBoundary,Idaho,Boundary,2022-04-28 09:13:11,2020-08-30,0.08366548063834409,0.34072918890461434,1.4730608260955327,,,,,,,,,,,,
16021,0,USIdahoBoundary,Idaho,Boundary,2022-04-28 09:13:11,2020-08-31,0.08366548063834409,0.34072918890461434,1.4730608260955327,,,,,,,,,,,,
16021,0,USIdahoBoundary,Idaho,Boundary,2022-04-28 09:13:11,2020-09-01,0.08366548063834409,0.34072918890461434,1.4730608260955327,,,,,,,,,,,,
16021,0,USIdahoBoundary,Idaho,Boundary,2022-04-28 09:13:11,2020-09-02,0.08366548063834409,0.34072918890461434,1.4730608260955327,,,,,,,,,,,,
16021,0,USIdahoBoundary,Idaho,Boundary,2022-04-28 09:13:11,2020-09-03,0.0848686810373858,0.34960926138345005,1.5281134927993103,,,,,,,,,,,,
16021,0,USIdahoBoundary,Idaho,Boundary,2022-04-28 09:13:11,2020-09-04,0.0848686810373858,0.34960926138345005,1.5281134927993103,,,,,,,,,,,,
16021,0,USIdahoBoundary,Idaho,Boundary,2022-04-28 09:13:11,2020-09-05,0.0848686810373858,0.34960926138345005,1.5281134927993103,,,,,,,,,,,,
16021,0,USIdahoBoundary,Idaho,Boundary,2022-04-28 09:13:11,2020-09-06,0.0848686810373858,0.34960926138345005,1.5281134927993103,,,,,,,,,,,,
16021,0,USIdahoBoundary,Idaho,Boundary,2022-04-28 09:13:11,2020-09-07,0.0848686810373858,0.34960926138345005,1.5281134927993103,,,,,,,,,,,,
16021,0,USIdahoBoundary,Idaho,Boundary,2022-04-28 09:13:11,2020-09-08,0.0848686810373858,0.34960926138345005,1.5281134927993103,,,,,,,,,,,,
16021,0,USIdahoBoundary,Idaho,Boundary,2022-04-28 09:13:11,2020-09-09,0.0848686810373858,0.34960926138345005,1.5281134927993103,,,,,,,,,,,,
16021,0,USIdahoBoundary,Idaho,Boundary,2022-04-28 09:13:11,2020-09-10,0.4116180988196335,1.1180280039765949,3.265489376809752,,,,,,,,,,,,
16021,0,USIdahoBoundary,Idaho,Boundary,2022-04-28 09:13:11,2020-09-11,0.4116180988196335,1.1180280039765949,3.265489376809752,,,,,,,,,,,,
16021,0,USIdahoBoundary,Idaho,Boundary,2022-04-28 09:13:11,2020-09-12,0.4116180988196335,1.1180280039765949,3.265489376809752,,,,,,,,,,,,
16021,0,USIdahoBoundary,Idaho,Boundary,2022-04-28 09:13:11,2020-09-13,0.4116180988196335,1.1180280039765949,3.265489376809752,,,,,,,,,,,,
16021,0,USIdahoBoundary,Idaho,Boundary,2022-04-28 09:13:11,2020-09-14,0.4116180988196335,1.1180280039765949,3.265489376809752,,,,,,,,,,,,
16021,0,USIdahoBoundary,Idaho,Boundary,2022-04-28 09:13:11,2020-09-15,0.4116180988196335,1.1180280039765949,3.265489376809752,,,,,,,,,,,,
16021,0,USIdahoBoundary,Idaho,Boundary,2022-04-28 09:13:11,2020-09-16,0.4116180988196335,1.1180280039765949,3.265489376809752,,,,,,,,,,,,
16021,0,USIdahoBoundary,Idaho,Boundary,2022-04-28 09:13:11,2020-09-17,0.20470736638858264,0.706074414924002,2.6023269090873824,,,,,,,,,,,,
16021,0,USIdahoBoundary,Idaho,Boundary,2022-04-28 09:13:11,2020-09-18,0.20470736638858264,0.706074414924002,2.6023269090873824,,,,,,,,,,,,
16021,0,USIdahoBoundary,Idaho,Boundary,2022-04-28 09:13:11,2020-09-19,0.20470736638858264,0.706074414924002,2.6023269090873824,,,,,,,,,,,,
16021,0,USIdahoBoundary,Idaho,Boundary,2022-04-28 09:13:11,2020-09-20,0.20470736638858264,0.706074414924002,2.6023269090873824,,,,,,,,,,,,
16021,0,USIdahoBoundary,Idaho,Boundary,2022-04-28 09:13:11,2020-09-21,0.20470736638858264,0.706074414924002,2.6023269090873824,,,,,,,,,,,,
16021,0,USIdahoBoundary,Idaho,Boundary,2022-04-28 09:13:11,2020-09-22,0.20470736638858264,0.706074414924002,2.6023269090873824,,,,,,,,,,,,
16021,0,USIdahoBoundary,Idaho,Boundary,2022-04-28 09:13:11,2020-09-23,0.20470736638858264,0.706074414924002,2.6023269090873824,,,,,,,,,,,,
16021,0,USIdahoBoundary,Idaho,Boundary,2022-04-28 09:13:11,2020-09-24,0.156672334217287,0.6050645957200456,2.486097989854636,,,,,,,,,,,,
16021,0,USIdahoBoundary,Idaho,Boundary,2022-04-28 09:13:11,2020-09-25,0.156672334217287,0.6050645957200456,2.486097989854636,,,,,,,,,,,,
16021,0,USIdahoBoundary,Idaho,Boundary,2022-04-28 09:13:11,2020-09-26,0.156672334217287,0.6050645957200456,2.486097989854636,,,,,,,,,,,,
16021,0,USIdahoBoundary,Idaho,Boundary,2022-04-28 09:13:11,2020-09-27,0.156672334217287,0.6050645957200456,2.486097989854636,,,,,,,,,,,,
16021,0,USIdahoBoundary,Idaho,Boundary,2022-04-28 09:13:11,2020-09-28,0.156672334217287,0.6050645957200456,2.486097989854636,,,,,,,,,,,,
16021,0,USIdahoBoundary,Idaho,Boundary,2022-04-28 09:13:11,2020-09-29,0.156672334217287,0.6050645957200456,2.486097989854636,,,,,,,,,,,,
16021,0,USIdahoBoundary,Idaho,Boundary,2022-04-28 09:13:11,2020-09-30,0.156672334217287,0.6050645957200456,2.486097989854636,,,,,,,,,,,,
16021,0,USIdahoBoundary,Idaho,Boundary,2022-04-28 09:13:11,2020-10-01,0.31799570154589246,1.0344458090662236,3.6028793936099155,,,,,,,,,,,,
16021,0,USIdahoBoundary,Idaho,Boundary,2022-04-28 09:13:11,2020-10-02,0.31799570154589246,1.0344458090662236,3.6028793936099155,,,,,,,,,,,,
16021,0,USIdahoBoundary,Idaho,Boundary,2022-04-28 09:13:11,2020-10-03,0.31799570154589246,1.0344458090662236,3.6028793936099155,,,,,,,,,,,,
16021,0,USIdahoBoundary,Idaho,Boundary,2022-04-28 09:13:11,2020-10-04,0.31799570154589246,1.0344458090662236,3.6028793936099155,,,,,,,,,,,,
16021,0,USIdahoBoundary,Idaho,Boundary,2022-04-28 09:13:11,2020-10-05,0.31799570154589246,1.0344458090662236,3.6028793936099155,,,,,,,,,,,,
16021,0,USIdahoBoundary,Idaho,Boundary,2022-04-28 09:13:11,2020-10-06,0.31799570154589246,1.0344458090662236,3.6028793936099155,,,,,,,,,,,,
16021,0,USIdahoBoundary,Idaho,Boundary,2022-04-28 09:13:11,2020-10-07,0.31799570154589246,1.0344458090662236,3.6028793936099155,,,,,,,,,,,,
16021,0,USIdahoBoundary,Idaho,Boundary,2022-04-28 09:13:11,2020-10-08,0.6316638273471995,1.632426756550203,4.539051085700818,,,,,,,,,,,,
16021,0,USIdahoBoundary,Idaho,Boundary,2022-04-28 09:13:11,2020-10-09,0.6316638273471995,1.632426756550203,4.539051085700818,,,,,,,,,,,,
16021,0,USIdahoBoundary,Idaho,Boundary,2022-04-28 09:13:11,2020-10-10,0.6316638273471995,1.632426756550203,4.539051085700818,,,,,,,,,,,,
16021,0,USIdahoBoundary,Idaho,Boundary,2022-04-28 09:13:11,2020-10-11,0.6316638273471995,1.632426756550203,4.539051085700818,,,,,,,,,,,,
16021,0,USIdahoBoundary,Idaho,Boundary,2022-04-28 09:13:11,2020-10-12,0.6316638273471995,1.632426756550203,4.539051085700818,,,,,,,,,,,,
16021,0,USIdahoBoundary,Idaho,Boundary,2022-04-28 09:13:11,2020-10-13,0.6316638273471995,1.632426756550203,4.539051085700818,,,,,,,,,,,,
16021,0,USIdahoBoundary,Idaho,Boundary,2022-04-28 09:13:11,2020-10-14,0.6316638273471995,1.632426756550203,4.539051085700818,,,,,,,,,,,,
16021,0,USIdahoBoundary,Idaho,Boundary,2022-04-28 09:13:11,2020-10-15,1.5852939023322343,3.4985983348567373,8.301659479144929,,,,,,,,,,,,
16021,0,USIdahoBoundary,Idaho,Boundary,2022-04-28 09:13:11,2020-10-16,1.5852939023322343,3.4985983348567373,8.301659479144929,,,,,,,,,,,,
16021,0,USIdahoBoundary,Idaho,Boundary,2022-04-28 09:13:11,2020-10-17,1.5852939023322343,3.4985983348567373,8.301659479144929,,,,,,,,,,,,
16021,0,USIdahoBoundary,Idaho,Boundary,2022-04-28 09:13:11,2020-10-18,1.5852939023322343,3.4985983348567373,8.301659479144929,,,,,,,,,,,,
16021,0,USIdahoBoundary,Idaho,Boundary,2022-04-28 09:13:11,2020-10-19,1.5852939023322343,3.4985983348567373,8.301659479144929,,,,,,,,,,,,
16021,0,USIdahoBoundary,Idaho,Boundary,2022-04-28 09:13:11,2020-10-20,1.5852939023322343,3.4985983348567373,8.301659479144929,,,,,,,,,,,,
16021,0,USIdahoBoundary,Idaho,Boundary,2022-04-28 09:13:11,2020-10-21,1.5852939023322343,3.4985983348567373,8.301659479144929,,,,,,,,,,,,
16021,0,USIdahoBoundary,Idaho,Boundary,2022-04-28 09:13:11,2020-10-22,1.6929581167368006,3.7890577424541307,9.120224328117265,,,,,,,,,,,,
16021,0,USIdahoBoundary,Idaho,Boundary,2022-04-28 09:13:11,2020-10-23,1.6929581167368006,3.7890577424541307,9.120224328117265,,,,,,,,,,,,
16021,0,USIdahoBoundary,Idaho,Boundary,2022-04-28 09:13:11,2020-10-24,1.6929581167368006,3.7890577424541307,9.120224328117265,,,,,,,,,,,,
16021,0,USIdahoBoundary,Idaho,Boundary,2022-04-28 09:13:11,2020-10-25,1.6929581167368006,3.7890577424541307,9.120224328117265,,,,,,,,,,,,
16021,0,USIdahoBoundary,Idaho,Boundary,2022-04-28 09:13:11,2020-10-26,1.6929581167368006,3.7890577424541307,9.120224328117265,,,,,,,,,,,,
16021,0,USIdahoBoundary,Idaho,Boundary,2022-04-28 09:13:11,2020-10-27,1.6929581167368006,3.7890577424541307,9.120224328117265,,,,,,,,,,,,
16021,0,USIdahoBoundary,Idaho,Boundary,2022-04-28 09:13:11,2020-10-28,1.6929581167368006,3.7890577424541307,9.120224328117265,,,,,,,,,,,,
16021,0,USIdahoBoundary,Idaho,Boundary,2022-04-28 09:13:11,2020-10-29,2.6690401309250125,5.223852420471807,10.95246595862734,,,,,,,,,,,,
16021,0,USIdahoBoundary,Idaho,Boundary,2022-04-28 09:13:11,2020-10-30,2.6690401309250125,5.223852420471807,10.95246595862734,,,,,,,,,,,,
16021,0,USIdahoBoundary,Idaho,Boundary,2022-04-28 09:13:11,2020-10-31,2.6690401309250125,5.223852420471807,10.95246595862734,,,,,,,,,,,,
16021,0,USIdahoBoundary,Idaho,Boundary,2022-04-28 09:13:11,2020-11-01,2.6690401309250125,5.223852420471807,10.95246595862734,,,,,,,,,,,,
16021,0,USIdahoBoundary,Idaho,Boundary,2022-04-28 09:13:11,2020-11-02,2.6690401309250125,5.223852420471807,10.95246595862734,,,,,,,,,,,,
16021,0,USIdahoBoundary,Idaho,Boundary,2022-04-28 09:13:11,2020-11-03,2.6690401309250125,5.223852420471807,10.95246595862734,,,,,,,,,,,,
16021,0,USIdahoBoundary,Idaho,Boundary,2022-04-28 09:13:11,2020-11-04,2.6690401309250125,5.223852420471807,10.95246595862734,,,,,,,,,,,,
16021,0,USIdahoBoundary,Idaho,Boundary,2022-04-28 09:13:11,2020-11-05,1.775922759531242,4.059881743980125,9.984272986528598,,,,,,,,,,,,
16021,0,USIdahoBoundary,Idaho,Boundary,2022-04-28 09:13:11,2020-11-06,1.775922759531242,4.059881743980125,9.984272986528598,,,,,,,,,,,,
16021,0,USIdahoBoundary,Idaho,Boundary,2022-04-28 09:13:11,2020-11-07,1.775922759531242,4.059881743980125,9.984272986528598,,,,,,,,,,,,
16021,0,USIdahoBoundary,Idaho,Boundary,2022-04-28 09:13:11,2020-11-08,1.775922759531242,4.059881743980125,9.984272986528598,,,,,,,,,,,,
16021,0,USIdahoBoundary,Idaho,Boundary,2022-04-28 09:13:11,2020-11-09,1.775922759531242,4.059881743980125,9.984272986528598,,,,,,,,,,,,
16021,0,USIdahoBoundary,Idaho,Boundary,2022-04-28 09:13:11,2020-11-10,1.775922759531242,4.059881743980125,9.984272986528598,,,,,,,,,,,,
16021,0,USIdahoBoundary,Idaho,Boundary,2022-04-28 09:13:11,2020-11-11,1.775922759531242,4.059881743980125,9.984272986528598,,,,,,,,,,,,
16021,0,USIdahoBoundary,Idaho,Boundary,2022-04-28 09:13:11,2020-11-12,1.4402902565198579,3.578937343329268,9.570429468892351,,,,,,,,,,,,
16021,0,USIdahoBoundary,Idaho,Boundary,2022-04-28 09:13:11,2020-11-13,1.4402902565198579,3.578937343329268,9.570429468892351,,,,,,,,,,,,
16021,0,USIdahoBoundary,Idaho,Boundary,2022-04-28 09:13:11,2020-11-14,1.4402902565198579,3.578937343329268,9.570429468892351,,,,,,,,,,,,
16021,0,USIdahoBoundary,Idaho,Boundary,2022-04-28 09:13:11,2020-11-15,1.4402902565198579,3.578937343329268,9.570429468892351,,,,,,,,,,,,
16021,0,USIdahoBoundary,Idaho,Boundary,2022-04-28 09:13:11,2020-11-16,1.4402902565198579,3.578937343329268,9.570429468892351,,,,,,,,,,,,
16021,0,USIdahoBoundary,Idaho,Boundary,2022-04-28 09:13:11,2020-11-17,1.4402902565198579,3.578937343329268,9.570429468892351,,,,,,,,,,,,
16021,0,USIdahoBoundary,Idaho,Boundary,2022-04-28 09:13:11,2020-11-18,1.4402902565198579,3.578937343329268,9.570429468892351,,,,,,,,,,,,
16021,0,USIdahoBoundary,Idaho,Boundary,2022-04-28 09:13:11,2020-11-19,1.270365636441284,3.1918504943116273,8.630068797802895,,,,,,,,,,,,
16021,0,USIdahoBoundary,Idaho,Boundary,2022-04-28 09:13:11,2020-11-20,1.270365636441284,3.1918504943116273,8.630068797802895,,,,,,,,,,,,
16021,0,USIdahoBoundary,Idaho,Boundary,2022-04-28 09:13:11,2020-11-21,1.270365636441284,3.1918504943116273,8.630068797802895,,,,,,,,,,,,
16021,0,USIdahoBoundary,Idaho,Boundary,2022-04-28 09:13:11,2020-11-22,1.270365636441284,3.1918504943116273,8.630068797802895,,,,,,,,,,,,
16021,0,USIdahoBoundary,Idaho,Boundary,2022-04-28 09:13:11,2020-11-23,1.270365636441284,3.1918504943116273,8.630068797802895,,,,,,,,,,,,
16021,0,USIdahoBoundary,Idaho,Boundary,2022-04-28 09:13:11,2020-11-24,1.270365636441284,3.1918504943116273,8.630068797802895,,,,,,,,,,,,
16021,0,USIdahoBoundary,Idaho,Boundary,2022-04-28 09:13:11,2020-11-25,1.270365636441284,3.1918504943116273,8.630068797802895,,,,,,,,,,,,
16021,0,USIdahoBoundary,Idaho,Boundary,2022-04-28 09:13:11,2020-11-26,1.5235689350294186,3.8680129855590315,10.566959805316321,,,,,,,,,,,,
16021,0,USIdahoBoundary,Idaho,Boundary,2022-04-28 09:13:11,2020-11-27,1.5235689350294186,3.8680129855590315,10.566959805316321,,,,,,,,,,,,
16021,0,USIdahoBoundary,Idaho,Boundary,2022-04-28 09:13:11,2020-11-28,1.5235689350294186,3.8680129855590315,10.566959805316321,,,,,,,,,,,,
16021,0,USIdahoBoundary,Idaho,Boundary,2022-04-28 09:13:11,2020-11-29,1.5235689350294186,3.8680129855590315,10.566959805316321,,,,,,,,,,,,
16021,0,USIdahoBoundary,Idaho,Boundary,2022-04-28 09:13:11,2020-11-30,1.5235689350294186,3.8680129855590315,10.566959805316321,,,,,,,,,,,,
16021,0,USIdahoBoundary,Idaho,Boundary,2022-04-28 09:13:11,2020-12-01,1.5235689350294186,3.8680129855590315,10.566959805316321,,,,,,,,,,,,
16021,0,USIdahoBoundary,Idaho,Boundary,2022-04-28 09:13:11,2020-12-02,1.5235689350294186,3.8680129855590315,10.566959805316321,,,,,,,,,,,,
16021,0,USIdahoBoundary,Idaho,Boundary,2022-04-28 09:13:11,2020-12-03,2.4970194917200432,6.079874634232057,15.931162425947798,,,,,,,,,,,,
16021,0,USIdahoBoundary,Idaho,Boundary,2022-04-28 09:13:11,2020-12-04,2.4970194917200432,6.079874634232057,15.931162425947798,,,,,,,,,,,,
16021,0,USIdahoBoundary,Idaho,Boundary,2022-04-28 09:13:11,2020-12-05,2.4970194917200432,6.079874634232057,15.931162425947798,,,,,,,,,,,,
16021,0,USIdahoBoundary,Idaho,Boundary,2022-04-28 09:13:11,2020-12-06,2.4970194917200432,6.079874634232057,15.931162425947798,,,,,,,,,,,,
16021,0,USIdahoBoundary,Idaho,Boundary,2022-04-28 09:13:11,2020-12-07,2.4970194917200432,6.079874634232057,15.931162425947798,,,,,,,,,,,,
16021,0,USIdahoBoundary,Idaho,Boundary,2022-04-28 09:13:11,2020-12-08,2.4970194917200432,6.079874634232057,15.931162425947798,,,,,,,,,,,,
16021,0,USIdahoBoundary,Idaho,Boundary,2022-04-28 09:13:11,2020-12-09,2.4970194917200432,6.079874634232057,15.931162425947798,,,,,,,,,,,,
16021,0,USIdahoBoundary,Idaho,Boundary,2022-04-28 09:13:11,2020-12-10,1.7565325507714113,4.345220070553533,11.567633712602692,,,,,,,,,,,,
16021,0,USIdahoBoundary,Idaho,Boundary,2022-04-28 09:13:11,2020-12-11,1.7565325507714113,4.345220070553533,11.567633712602692,,,,,,,,,,,,
16021,0,USIdahoBoundary,Idaho,Boundary,2022-04-28 09:13:11,2020-12-12,1.7565325507714113,4.345220070553533,11.567633712602692,,,,,,,,,,,,
16021,0,USIdahoBoundary,Idaho,Boundary,2022-04-28 09:13:11,2020-12-13,1.7565325507714113,4.345220070553533,11.567633712602692,,,,,,,,,,,,
16021,0,USIdahoBoundary,Idaho,Boundary,2022-04-28 09:13:11,2020-12-14,1.7565325507714113,4.345220070553533,11.567633712602692,,,,,,,,,,,,
16021,0,USIdahoBoundary,Idaho,Boundary,2022-04-28 09:13:11,2020-12-15,1.7565325507714113,4.345220070553533,11.567633712602692,,,,,,,,,,,,
16021,0,USIdahoBoundary,Idaho,Boundary,2022-04-28 09:13:11,2020-12-16,1.7565325507714113,4.345220070553533,11.567633712602692,,,,,,,,,,,,
16021,0,USIdahoBoundary,Idaho,Boundary,2022-04-28 09:13:11,2020-12-17,1.9236879956658615,4.440696699163352,11.028756177784102,,,,,,,,,,,,
16021,0,USIdahoBoundary,Idaho,Boundary,2022-04-28 09:13:11,2020-12-18,1.9236879956658615,4.440696699163352,11.028756177784102,,,,,,,,,,,,
16021,0,USIdahoBoundary,Idaho,Boundary,2022-04-28 09:13:11,2020-12-19,1.9236879956658615,4.440696699163352,11.028756177784102,,,,,,,,,,,,
16021,0,USIdahoBoundary,Idaho,Boundary,2022-04-28 09:13:11,2020-12-20,1.9236879956658615,4.440696699163352,11.028756177784102,,,,,,,,,,,,
16021,0,USIdahoBoundary,Idaho,Boundary,2022-04-28 09:13:11,2020-12-21,1.9236879956658615,4.440696699163352,11.028756177784102,,,,,,,,,,,,
16021,0,USIdahoBoundary,Idaho,Boundary,2022-04-28 09:13:11,2020-12-22,1.9236879956658615,4.440696699163352,11.028756177784102,,,,,,,,,,,,
16021,0,USIdahoBoundary,Idaho,Boundary,2022-04-28 09:13:11,2020-12-23,1.9236879956658615,4.440696699163352,11.028756177784102,,,,,,,,,,,,
16021,0,USIdahoBoundary,Idaho,Boundary,2022-04-28 09:13:11,2020-12-24,2.4949769689618573,5.791604681424504,14.464810665844727,,,,,,,,,,,,
16021,0,USIdahoBoundary,Idaho,Boundary,2022-04-28 09:13:11,2020-12-25,2.4949769689618573,5.791604681424504,14.464810665844727,,,,,,,,,,,,
16021,0,USIdahoBoundary,Idaho,Boundary,2022-04-28 09:13:11,2020-12-26,2.4949769689618573,5.791604681424504,14.464810665844727,,,,,,,,,,,,
16021,0,USIdahoBoundary,Idaho,Boundary,2022-04-28 09:13:11,2020-12-27,2.4949769689618573,5.791604681424504,14.464810665844727,,,,,,,,,,,,
16021,0,USIdahoBoundary,Idaho,Boundary,2022-04-28 09:13:11,2020-12-28,2.4949769689618573,5.791604681424504,14.464810665844727,,,,,,,,,,,,
16021,0,USIdahoBoundary,Idaho,Boundary,2022-04-28 09:13:11,2020-12-29,2.4949769689618573,5.791604681424504,14.464810665844727,,,,,,,,,,,,
16021,0,USIdahoBoundary,Idaho,Boundary,2022-04-28 09:13:11,2020-12-30,2.4949769689618573,5.791604681424504,14.464810665844727,,,,,,,,,,,,
16021,0,USIdahoBoundary,Idaho,Boundary,2022-04-28 09:13:11,2020-12-31,1.4859813587398085,3.9051712169926285,11.040362569251414,,,,,,,,,,,,
16021,0,USIdahoBoundary,Idaho,Boundary,2022-04-28 09:13:11,2021-01-01,1.4859813587398085,3.9051712169926285,11.040362569251414,,,,,,,,,,,,
16021,0,USIdahoBoundary,Idaho,Boundary,2022-04-28 09:13:11,2021-01-02,1.4859813587398085,3.9051712169926285,11.040362569251414,,,,,,,,,,,,
16021,0,USIdahoBoundary,Idaho,Boundary,2022-04-28 09:13:11,2021-01-03,1.4859813587398085,3.9051712169926285,11.040362569251414,,,,,,,,,,,,
16021,0,USIdahoBoundary,Idaho,Boundary,2022-04-28 09:13:11,2021-01-04,1.4859813587398085,3.9051712169926285,11.040362569251414,,,,,,,,,,,,
16021,0,USIdahoBoundary,Idaho,Boundary,2022-04-28 09:13:11,2021-01-05,1.4859813587398085,3.9051712169926285,11.040362569251414,,,,,,,,,,,,
16021,0,USIdahoBoundary,Idaho,Boundary,2022-04-28 09:13:11,2021-01-06,1.4859813587398085,3.9051712169926285,11.040362569251414,,,,,,,,,,,,
16021,0,USIdahoBoundary,Idaho,Boundary,2022-04-28 09:13:11,2021-01-07,2.5457319916844967,5.433738562531647,12.461190860607616,,,,,,,,,,,,
16021,0,USIdahoBoundary,Idaho,Boundary,2022-04-28 09:13:11,2021-01-08,2.5457319916844967,5.433738562531647,12.461190860607616,,,,,,,,,,,,
16021,0,USIdahoBoundary,Idaho,Boundary,2022-04-28 09:13:11,2021-01-09,2.5457319916844967,5.433738562531647,12.461190860607616,,,,,,,,,,,,
16021,0,USIdahoBoundary,Idaho,Boundary,2022-04-28 09:13:11,2021-01-10,2.5457319916844967,5.433738562531647,12.461190860607616,,,,,,,,,,,,
16021,0,USIdahoBoundary,Idaho,Boundary,2022-04-28 09:13:11,2021-01-11,2.5457319916844967,5.433738562531647,12.461190860607616,,,,,,,,,,,,
16021,0,USIdahoBoundary,Idaho,Boundary,2022-04-28 09:13:11,2021-01-12,2.5457319916844967,5.433738562531647,12.461190860607616,,,,,,,,,,,,
16021,0,USIdahoBoundary,Idaho,Boundary,2022-04-28 09:13:11,2021-01-13,2.5457319916844967,5.433738562531647,12.461190860607616,,,,,,,,,,,,
16021,0,USIdahoBoundary,Idaho,Boundary,2022-04-28 09:13:11,2021-01-14,1.7029883432314645,3.8316800317400292,9.272364170402996,,,,,,,,,,,,
16021,0,USIdahoBoundary,Idaho,Boundary,2022-04-28 09:13:11,2021-01-15,1.7029883432314645,3.8316800317400292,9.272364170402996,,,,,,,,,,,,
16021,0,USIdahoBoundary,Idaho,Boundary,2022-04-28 09:13:11,2021-01-16,1.7029883432314645,3.8316800317400292,9.272364170402996,,,,,,,,,,,,
16021,0,USIdahoBoundary,Idaho,Boundary,2022-04-28 09:13:11,2021-01-17,1.7029883432314645,3.8316800317400292,9.272364170402996,,,,,,,,,,,,
16021,0,USIdahoBoundary,Idaho,Boundary,2022-04-28 09:13:11,2021-01-18,1.7029883432314645,3.8316800317400292,9.272364170402996,,,,,,,,,,,,
16021,0,USIdahoBoundary,Idaho,Boundary,2022-04-28 09:13:11,2021-01-19,1.7029883432314645,3.8316800317400292,9.272364170402996,,,,,,,,,,,,
16021,0,USIdahoBoundary,Idaho,Boundary,2022-04-28 09:13:11,2021-01-20,1.7029883432314645,3.8316800317400292,9.272364170402996,,,,,,,,,,,,
16021,0,USIdahoBoundary,Idaho,Boundary,2022-04-28 09:13:11,2021-01-21,1.1254612987320005,2.6271126729866965,6.598245396706878,,,,,,,,,,,,
16021,0,USIdahoBoundary,Idaho,Boundary,2022-04-28 09:13:11,2021-01-22,1.1254612987320005,2.6271126729866965,6.598245396706878,,,,,,,,,,,,
16021,0,USIdahoBoundary,Idaho,Boundary,2022-04-28 09:13:11,2021-01-23,1.1254612987320005,2.6271126729866965,6.598245396706878,,,,,,,,,,,,
16021,0,USIdahoBoundary,Idaho,Boundary,2022-04-28 09:13:11,2021-01-24,1.1254612987320005,2.6271126729866965,6.598245396706878,,,,,,,,,,,,
16021,0,USIdahoBoundary,Idaho,Boundary,2022-04-28 09:13:11,2021-01-25,1.1254612987320005,2.6271126729866965,6.598245396706878,,,,,,,,,,,,
16021,0,USIdahoBoundary,Idaho,Boundary,2022-04-28 09:13:11,2021-01-26,1.1254612987320005,2.6271126729866965,6.598245396706878,,,,,,,,,,,,
16021,0,USIdahoBoundary,Idaho,Boundary,2022-04-28 09:13:11,2021-01-27,1.1254612987320005,2.6271126729866965,6.598245396706878,,,,,,,,,,,,
16021,0,USIdahoBoundary,Idaho,Boundary,2022-04-28 09:13:11,2021-01-28,0.8737413723958957,2.1516132268509187,5.701974670708277,,,,,,,,,,,,
16021,0,USIdahoBoundary,Idaho,Boundary,2022-04-28 09:13:11,2021-01-29,0.8737413723958957,2.1516132268509187,5.701974670708277,,,,,,,,,,,,
16021,0,USIdahoBoundary,Idaho,Boundary,2022-04-28 09:13:11,2021-01-30,0.8737413723958957,2.1516132268509187,5.701974670708277,,,,,,,,,,,,
16021,0,USIdahoBoundary,Idaho,Boundary,2022-04-28 09:13:11,2021-01-31,0.8737413723958957,2.1516132268509187,5.701974670708277,,,,,,,,,,,,
16021,0,USIdahoBoundary,Idaho,Boundary,2022-04-28 09:13:11,2021-02-01,0.8737413723958957,2.1516132268509187,5.701974670708277,,,,,,,,,,,,
16021,0,USIdahoBoundary,Idaho,Boundary,2022-04-28 09:13:11,2021-02-02,0.8737413723958957,2.1516132268509187,5.701974670708277,,,,,,,,,,,,
16021,0,USIdahoBoundary,Idaho,Boundary,2022-04-28 09:13:11,2021-02-03,0.8737413723958957,2.1516132268509187,5.701974670708277,,,,,,,,,,,,
16021,0,USIdahoBoundary,Idaho,Boundary,2022-04-28 09:13:11,2021-02-04,1.3793984164041846,2.960909045472555,6.8295907452957145,,,,,,,,,,,,
16021,0,USIdahoBoundary,Idaho,Boundary,2022-04-28 09:13:11,2021-02-05,1.3793984164041846,2.960909045472555,6.8295907452957145,,,,,,,,,,,,
16021,0,USIdahoBoundary,Idaho,Boundary,2022-04-28 09:13:11,2021-02-06,1.3793984164041846,2.960909045472555,6.8295907452957145,,,,,,,,,,,,
16021,0,USIdahoBoundary,Idaho,Boundary,2022-04-28 09:13:11,2021-02-07,1.3793984164041846,2.960909045472555,6.8295907452957145,,,,,,,,,,,,
16021,0,USIdahoBoundary,Idaho,Boundary,2022-04-28 09:13:11,2021-02-08,1.3793984164041846,2.960909045472555,6.8295907452957145,,,,,,,,,,,,
16021,0,USIdahoBoundary,Idaho,Boundary,2022-04-28 09:13:11,2021-02-09,1.3793984164041846,2.960909045472555,6.8295907452957145,,,,,,,,,,,,
16021,0,USIdahoBoundary,Idaho,Boundary,2022-04-28 09:13:11,2021-02-10,1.3793984164041846,2.960909045472555,6.8295907452957145,,,,,,,,,,,,
16021,0,USIdahoBoundary,Idaho,Boundary,2022-04-28 09:13:11,2021-02-11,0.8730068907392866,2.0529975708497363,5.1949823539493245,,,,,,,,,,,,
16021,0,USIdahoBoundary,Idaho,Boundary,2022-04-28 09:13:11,2021-02-12,0.8730068907392866,2.0529975708497363,5.1949823539493245,,,,,,,,,,,,
16021,0,USIdahoBoundary,Idaho,Boundary,2022-04-28 09:13:11,2021-02-13,0.8730068907392866,2.0529975708497363,5.1949823539493245,,,,,,,,,,,,
16021,0,USIdahoBoundary,Idaho,Boundary,2022-04-28 09:13:11,2021-02-14,0.8730068907392866,2.0529975708497363,5.1949823539493245,,,,,,,,,,,,
16021,0,USIdahoBoundary,Idaho,Boundary,2022-04-28 09:13:11,2021-02-15,0.8730068907392866,2.0529975708497363,5.1949823539493245,,,,,,,,,,,,
16021,0,USIdahoBoundary,Idaho,Boundary,2022-04-28 09:13:11,2021-02-16,0.8730068907392866,2.0529975708497363,5.1949823539493245,,,,,,,,,,,,
16021,0,USIdahoBoundary,Idaho,Boundary,2022-04-28 09:13:11,2021-02-17,0.8730068907392866,2.0529975708497363,5.1949823539493245,,,,,,,,,,,,
16021,0,USIdahoBoundary,Idaho,Boundary,2022-04-28 09:13:11,2021-02-18,0.9771905371886367,2.243460593032845,5.541050141425647,,,,,,,,,,,,
16021,0,USIdahoBoundary,Idaho,Boundary,2022-04-28 09:13:11,2021-02-19,0.9771905371886367,2.243460593032845,5.541050141425647,,,,,,,,,,,,
16021,0,USIdahoBoundary,Idaho,Boundary,2022-04-28 09:13:11,2021-02-20,0.9771905371886367,2.243460593032845,5.541050141425647,,,,,,,,,,,,
16021,0,USIdahoBoundary,Idaho,Boundary,2022-04-28 09:13:11,2021-02-21,0.9771905371886367,2.243460593032845,5.541050141425647,,,,,,,,,,,,
16021,0,USIdahoBoundary,Idaho,Boundary,2022-04-28 09:13:11,2021-02-22,0.9771905371886367,2.243460593032845,5.541050141425647,,,,,,,,,,,,
16021,0,USIdahoBoundary,Idaho,Boundary,2022-04-28 09:13:11,2021-02-23,0.9771905371886367,2.243460593032845,5.541050141425647,,,,,,,,,,,,
16021,0,USIdahoBoundary,Idaho,Boundary,2022-04-28 09:13:11,2021-02-24,0.9771905371886367,2.243460593032845,5.541050141425647,,,,,,,,,,,,
16021,0,USIdahoBoundary,Idaho,Boundary,2022-04-28 09:13:11,2021-02-25,0.2314098624792597,0.8825796862331675,3.5830559852335777,,,,,,,,,,,,
16021,0,USIdahoBoundary,Idaho,Boundary,2022-04-28 09:13:11,2021-02-26,0.2314098624792597,0.8825796862331675,3.5830559852335777,,,,,,,,,,,,
16021,0,USIdahoBoundary,Idaho,Boundary,2022-04-28 09:13:11,2021-02-27,0.2314098624792597,0.8825796862331675,3.5830559852335777,,,,,,,,,,,,
16021,0,USIdahoBoundary,Idaho,Boundary,2022-04-28 09:13:11,2021-02-28,0.2314098624792597,0.8825796862331675,3.5830559852335777,,,,,,,,,,,,
16021,0,USIdahoBoundary,Idaho,Boundary,2022-04-28 09:13:11,2021-03-01,0.2314098624792597,0.8825796862331675,3.5830559852335777,,,,,,,,,,,,
16021,0,USIdahoBoundary,Idaho,Boundary,2022-04-28 09:13:11,2021-03-02,0.2314098624792597,0.8825796862331675,3.5830559852335777,,,,,,,,,,,,
16021,0,USIdahoBoundary,Idaho,Boundary,2022-04-28 09:13:11,2021-03-03,0.2314098624792597,0.8825796862331675,3.5830559852335777,,,,,,,,,,,,
16021,0,USIdahoBoundary,Idaho,Boundary,2022-04-28 09:13:11,2021-03-04,0.21048084673977127,0.7428554572841783,2.7991634178852234,,,,,,,,,,,,
16021,0,USIdahoBoundary,Idaho,Boundary,2022-04-28 09:13:11,2021-03-05,0.21048084673977127,0.7428554572841783,2.7991634178852234,,,,,,,,,,,,
16021,0,USIdahoBoundary,Idaho,Boundary,2022-04-28 09:13:11,2021-03-06,0.21048084673977127,0.7428554572841783,2.7991634178852234,,,,,,,,,,,,
16021,0,USIdahoBoundary,Idaho,Boundary,2022-04-28 09:13:11,2021-03-07,0.21048084673977127,0.7428554572841783,2.7991634178852234,,,,,,,,,,,,
16021,0,USIdahoBoundary,Idaho,Boundary,2022-04-28 09:13:11,2021-03-08,0.21048084673977127,0.7428554572841783,2.7991634178852234,,,,,,,,,,,,
16021,0,USIdahoBoundary,Idaho,Boundary,2022-04-28 09:13:11,2021-03-09,0.21048084673977127,0.7428554572841783,2.7991634178852234,,,,,,,,,,,,
16021,0,USIdahoBoundary,Idaho,Boundary,2022-04-28 09:13:11,2021-03-10,0.21048084673977127,0.7428554572841783,2.7991634178852234,,,,,,,,,,,,
16021,0,USIdahoBoundary,Idaho,Boundary,2022-04-28 09:13:11,2021-03-11,0.5036281004277186,1.4703230310024307,4.609621325926305,,,,,,,,,,,,
16021,0,USIdahoBoundary,Idaho,Boundary,2022-04-28 09:13:11,2021-03-12,0.5036281004277186,1.4703230310024307,4.609621325926305,,,,,,,,,,,,
16021,0,USIdahoBoundary,Idaho,Boundary,2022-04-28 09:13:11,2021-03-13,0.5036281004277186,1.4703230310024307,4.609621325926305,,,,,,,,,,,,
16021,0,USIdahoBoundary,Idaho,Boundary,2022-04-28 09:13:11,2021-03-14,0.5036281004277186,1.4703230310024307,4.609621325926305,,,,,,,,,,,,
16021,0,USIdahoBoundary,Idaho,Boundary,2022-04-28 09:13:11,2021-03-15,0.5036281004277186,1.4703230310024307,4.609621325926305,,,,,,,,,,,,
16021,0,USIdahoBoundary,Idaho,Boundary,2022-04-28 09:13:11,2021-03-16,0.5036281004277186,1.4703230310024307,4.609621325926305,,,,,,,,,,,,
16021,0,USIdahoBoundary,Idaho,Boundary,2022-04-28 09:13:11,2021-03-17,0.5036281004277186,1.4703230310024307,4.609621325926305,,,,,,,,,,,,
16021,0,USIdahoBoundary,Idaho,Boundary,2022-04-28 09:13:11,2021-03-18,0.40134160180564343,1.1962094896323923,3.826812697134326,,,,,,,,,,,,
16021,0,USIdahoBoundary,Idaho,Boundary,2022-04-28 09:13:11,2021-03-19,0.40134160180564343,1.1962094896323923,3.826812697134326,,,,,,,,,,,,
16021,0,USIdahoBoundary,Idaho,Boundary,2022-04-28 09:13:11,2021-03-20,0.40134160180564343,1.1962094896323923,3.826812697134326,,,,,,,,,,,,
16021,0,USIdahoBoundary,Idaho,Boundary,2022-04-28 09:13:11,2021-03-21,0.40134160180564343,1.1962094896323923,3.826812697134326,,,,,,,,,,,,
16021,0,USIdahoBoundary,Idaho,Boundary,2022-04-28 09:13:11,2021-03-22,0.40134160180564343,1.1962094896323923,3.826812697134326,,,,,,,,,,,,
16021,0,USIdahoBoundary,Idaho,Boundary,2022-04-28 09:13:11,2021-03-23,0.40134160180564343,1.1962094896323923,3.826812697134326,,,,,,,,,,,,
16021,0,USIdahoBoundary,Idaho,Boundary,2022-04-28 09:13:11,2021-03-24,0.40134160180564343,1.1962094896323923,3.826812697134326,,,,,,,,,,,,
16021,0,USIdahoBoundary,Idaho,Boundary,2022-04-28 09:13:11,2021-03-25,0.22542903388385915,0.8416406396422657,3.3476555749643144,,,,,,,,,,,,
16021,0,USIdahoBoundary,Idaho,Boundary,2022-04-28 09:13:11,2021-03-26,0.22542903388385915,0.8416406396422657,3.3476555749643144,,,,,,,,,,,,
16021,0,USIdahoBoundary,Idaho,Boundary,2022-04-28 09:13:11,2021-03-27,0.22542903388385915,0.8416406396422657,3.3476555749643144,,,,,,,,,,,,
16021,0,USIdahoBoundary,Idaho,Boundary,2022-04-28 09:13:11,2021-03-28,0.22542903388385915,0.8416406396422657,3.3476555749643144,,,,,,,,,,,,
16021,0,USIdahoBoundary,Idaho,Boundary,2022-04-28 09:13:11,2021-03-29,0.22542903388385915,0.8416406396422657,3.3476555749643144,,,,,,,,,,,,
16021,0,USIdahoBoundary,Idaho,Boundary,2022-04-28 09:13:11,2021-03-30,0.22542903388385915,0.8416406396422657,3.3476555749643144,,,,,,,,,,,,
16021,0,USIdahoBoundary,Idaho,Boundary,2022-04-28 09:13:11,2021-03-31,0.22542903388385915,0.8416406396422657,3.3476555749643144,,,,,,,,,,,,
16021,0,USIdahoBoundary,Idaho,Boundary,2022-04-28 09:13:11,2021-04-01,0.27939550328952023,0.9824686187247602,3.689001350117775,,,,,,,,,,,,
16021,0,USIdahoBoundary,Idaho,Boundary,2022-04-28 09:13:11,2021-04-02,0.27939550328952023,0.9824686187247602,3.689001350117775,,,,,,,,,,,,
16021,0,USIdahoBoundary,Idaho,Boundary,2022-04-28 09:13:11,2021-04-03,0.27939550328952023,0.9824686187247602,3.689001350117775,,,,,,,,,,,,
16021,0,USIdahoBoundary,Idaho,Boundary,2022-04-28 09:13:11,2021-04-04,0.27939550328952023,0.9824686187247602,3.689001350117775,,,,,,,,,,,,
16021,0,USIdahoBoundary,Idaho,Boundary,2022-04-28 09:13:11,2021-04-05,0.27939550328952023,0.9824686187247602,3.689001350117775,,,,,,,,,,,,
16021,0,USIdahoBoundary,Idaho,Boundary,2022-04-28 09:13:11,2021-04-06,0.27939550328952023,0.9824686187247602,3.689001350117775,,,,,,,,,,,,
16021,0,USIdahoBoundary,Idaho,Boundary,2022-04-28 09:13:11,2021-04-07,0.27939550328952023,0.9824686187247602,3.689001350117775,,,,,,,,,,,,
16021,0,USIdahoBoundary,Idaho,Boundary,2022-04-28 09:13:11,2021-04-08,0.40190569091402395,1.1993225963792737,3.8412444685093217,,,,,,,,,,,,
16021,0,USIdahoBoundary,Idaho,Boundary,2022-04-28 09:13:11,2021-04-09,0.40190569091402395,1.1993225963792737,3.8412444685093217,,,,,,,,,,,,
16021,0,USIdahoBoundary,Idaho,Boundary,2022-04-28 09:13:11,2021-04-10,0.40190569091402395,1.1993225963792737,3.8412444685093217,,,,,,,,,,,,
16021,0,USIdahoBoundary,Idaho,Boundary,2022-04-28 09:13:11,2021-04-11,0.40190569091402395,1.1993225963792737,3.8412444685093217,,,,,,,,,,,,
16021,0,USIdahoBoundary,Idaho,Boundary,2022-04-28 09:13:11,2021-04-12,0.40190569091402395,1.1993225963792737,3.8412444685093217,,,,,,,,,,,,
16021,0,USIdahoBoundary,Idaho,Boundary,2022-04-28 09:13:11,2021-04-13,0.40190569091402395,1.1993225963792737,3.8412444685093217,,,,,,,,,,,,
16021,0,USIdahoBoundary,Idaho,Boundary,2022-04-28 09:13:11,2021-04-14,0.40190569091402395,1.1993225963792737,3.8412444685093217,,,,,,,,,,,,
16021,0,USIdahoBoundary,Idaho,Boundary,2022-04-28 09:13:11,2021-04-15,0.29700651520698973,0.9122303851631951,3.0049699912864405,,,,,,,,,,,,
16021,0,USIdahoBoundary,Idaho,Boundary,2022-04-28 09:13:11,2021-04-16,0.29700651520698973,0.9122303851631951,3.0049699912864405,,,,,,,,,,,,
16021,0,USIdahoBoundary,Idaho,Boundary,2022-04-28 09:13:11,2021-04-17,0.29700651520698973,0.9122303851631951,3.0049699912864405,,,,,,,,,,,,
16021,0,USIdahoBoundary,Idaho,Boundary,2022-04-28 09:13:11,2021-04-18,0.29700651520698973,0.9122303851631951,3.0049699912864405,,,,,,,,,,,,
16021,0,USIdahoBoundary,Idaho,Boundary,2022-04-28 09:13:11,2021-04-19,0.29700651520698973,0.9122303851631951,3.0049699912864405,,,,,,,,,,,,
16021,0,USIdahoBoundary,Idaho,Boundary,2022-04-28 09:13:11,2021-04-20,0.29700651520698973,0.9122303851631951,3.0049699912864405,,,,,,,,,,,,
16021,0,USIdahoBoundary,Idaho,Boundary,2022-04-28 09:13:11,2021-04-21,0.29700651520698973,0.9122303851631951,3.0049699912864405,,,,,,,,,,,,
16021,0,USIdahoBoundary,Idaho,Boundary,2022-04-28 09:13:11,2021-04-22,0.15622946937623458,0.6019714447480717,2.4679507541874273,,,,,,,,,,,,
16021,0,USIdahoBoundary,Idaho,Boundary,2022-04-28 09:13:11,2021-04-23,0.15622946937623458,0.6019714447480717,2.4679507541874273,,,,,,,,,,,,
16021,0,USIdahoBoundary,Idaho,Boundary,2022-04-28 09:13:11,2021-04-24,0.15622946937623458,0.6019714447480717,2.4679507541874273,,,,,,,,,,,,
16021,0,USIdahoBoundary,Idaho,Boundary,2022-04-28 09:13:11,2021-04-25,0.15622946937623458,0.6019714447480717,2.4679507541874273,,,,,,,,,,,,
16021,0,USIdahoBoundary,Idaho,Boundary,2022-04-28 09:13:11,2021-04-26,0.15622946937623458,0.6019714447480717,2.4679507541874273,,,,,,,,,,,,
16021,0,USIdahoBoundary,Idaho,Boundary,2022-04-28 09:13:11,2021-04-27,0.15622946937623458,0.6019714447480717,2.4679507541874273,,,,,,,,,,,,
16021,0,USIdahoBoundary,Idaho,Boundary,2022-04-28 09:13:11,2021-04-28,0.15622946937623458,0.6019714447480717,2.4679507541874273,,,,,,,,,,,,
16021,0,USIdahoBoundary,Idaho,Boundary,2022-04-28 09:13:11,2021-04-29,0.4117426637742067,1.1186592014814227,3.268176044552175,,,,,,,,,,,,
16021,0,USIdahoBoundary,Idaho,Boundary,2022-04-28 09:13:11,2021-04-30,0.4117426637742067,1.1186592014814227,3.268176044552175,,,,,,,,,,,,
16021,0,USIdahoBoundary,Idaho,Boundary,2022-04-28 09:13:11,2021-05-01,0.4117426637742067,1.1186592014814227,3.268176044552175,,,,,,,,,,,,
16021,0,USIdahoBoundary,Idaho,Boundary,2022-04-28 09:13:11,2021-05-02,0.4117426637742067,1.1186592014814227,3.268176044552175,,,,,,,,,,,,
16021,0,USIdahoBoundary,Idaho,Boundary,2022-04-28 09:13:11,2021-05-03,0.4117426637742067,1.1186592014814227,3.268176044552175,,,,,,,,,,,,
16021,0,USIdahoBoundary,Idaho,Boundary,2022-04-28 09:13:11,2021-05-04,0.4117426637742067,1.1186592014814227,3.268176044552175,,,,,,,,,,,,
16021,0,USIdahoBoundary,Idaho,Boundary,2022-04-28 09:13:11,2021-05-05,0.4117426637742067,1.1186592014814227,3.268176044552175,,,,,,,,,,,,
16021,0,USIdahoBoundary,Idaho,Boundary,2022-04-28 09:13:11,2021-05-06,0,0,0,,,,,,,,,,,,
16021,0,USIdahoBoundary,Idaho,Boundary,2022-04-28 09:13:11,2021-05-07,0,0,0,,,,,,,,,,,,
16021,0,USIdahoBoundary,Idaho,Boundary,2022-04-28 09:13:11,2021-05-08,0,0,0,,,,,,,,,,,,
16021,0,USIdahoBoundary,Idaho,Boundary,2022-04-28 09:13:11,2021-05-09,0,0,0,,,,,,,,,,,,
16021,0,USIdahoBoundary,Idaho,Boundary,2022-04-28 09:13:11,2021-05-10,0,0,0,,,,,,,,,,,,
16021,0,USIdahoBoundary,Idaho,Boundary,2022-04-28 09:13:11,2021-05-11,0,0,0,,,,,,,,,,,,
16021,0,USIdahoBoundary,Idaho,Boundary,2022-04-28 09:13:11,2021-05-12,0,0,0,,,,,,,,,,,,
16021,0,USIdahoBoundary,Idaho,Boundary,2022-04-28 09:13:11,2021-05-13,0.20233212602752212,0.6911677124229851,2.5237422593772147,,,,,,,,,,,,
16021,0,USIdahoBoundary,Idaho,Boundary,2022-04-28 09:13:11,2021-05-14,0.20233212602752212,0.6911677124229851,2.5237422593772147,,,,,,,,,,,,
16021,0,USIdahoBoundary,Idaho,Boundary,2022-04-28 09:13:11,2021-05-15,0.20233212602752212,0.6911677124229851,2.5237422593772147,,,,,,,,,,,,
16021,0,USIdahoBoundary,Idaho,Boundary,2022-04-28 09:13:11,2021-05-16,0.20233212602752212,0.6911677124229851,2.5237422593772147,,,,,,,,,,,,
16021,0,USIdahoBoundary,Idaho,Boundary,2022-04-28 09:13:11,2021-05-17,0.20233212602752212,0.6911677124229851,2.5237422593772147,,,,,,,,,,,,
16021,0,USIdahoBoundary,Idaho,Boundary,2022-04-28 09:13:11,2021-05-18,0.20233212602752212,0.6911677124229851,2.5237422593772147,,,,,,,,,,,,
16021,0,USIdahoBoundary,Idaho,Boundary,2022-04-28 09:13:11,2021-05-19,0.20233212602752212,0.6911677124229851,2.5237422593772147,,,,,,,,,,,,
16021,0,USIdahoBoundary,Idaho,Boundary,2022-04-28 09:13:11,2021-05-20,0.05199162905964236,0.14249759531956452,0.4199134129797772,,,,,,,,,,,,
16021,0,USIdahoBoundary,Idaho,Boundary,2022-04-28 09:13:11,2021-05-21,0.05199162905964236,0.14249759531956452,0.4199134129797772,,,,,,,,,,,,
16021,0,USIdahoBoundary,Idaho,Boundary,2022-04-28 09:13:11,2021-05-22,0.05199162905964236,0.14249759531956452,0.4199134129797772,,,,,,,,,,,,
16021,0,USIdahoBoundary,Idaho,Boundary,2022-04-28 09:13:11,2021-05-23,0.05199162905964236,0.14249759531956452,0.4199134129797772,,,,,,,,,,,,
16021,0,USIdahoBoundary,Idaho,Boundary,2022-04-28 09:13:11,2021-05-24,0.05199162905964236,0.14249759531956452,0.4199134129797772,,,,,,,,,,,,
16021,0,USIdahoBoundary,Idaho,Boundary,2022-04-28 09:13:11,2021-05-25,0.05199162905964236,0.14249759531956452,0.4199134129797772,,,,,,,,,,,,
16021,0,USIdahoBoundary,Idaho,Boundary,2022-04-28 09:13:11,2021-05-26,0.05199162905964236,0.14249759531956452,0.4199134129797772,,,,,,,,,,,,
16021,0,USIdahoBoundary,Idaho,Boundary,2022-04-28 09:13:11,2021-05-27,0.08262457683359757,0.33312262253579206,1.4263681131605008,,,,,,,,,,,,
16021,0,USIdahoBoundary,Idaho,Boundary,2022-04-28 09:13:11,2021-05-28,0.08262457683359757,0.33312262253579206,1.4263681131605008,,,,,,,,,,,,
16021,0,USIdahoBoundary,Idaho,Boundary,2022-04-28 09:13:11,2021-05-29,0.08262457683359757,0.33312262253579206,1.4263681131605008,,,,,,,,,,,,
16021,0,USIdahoBoundary,Idaho,Boundary,2022-04-28 09:13:11,2021-05-30,0.08262457683359757,0.33312262253579206,1.4263681131605008,,,,,,,,,,,,
16021,0,USIdahoBoundary,Idaho,Boundary,2022-04-28 09:13:11,2021-05-31,0.08262457683359757,0.33312262253579206,1.4263681131605008,,,,,,,,,,,,
16021,0,USIdahoBoundary,Idaho,Boundary,2022-04-28 09:13:11,2021-06-01,0.08262457683359757,0.33312262253579206,1.4263681131605008,,,,,,,,,,,,
16021,0,USIdahoBoundary,Idaho,Boundary,2022-04-28 09:13:11,2021-06-02,0.08262457683359757,0.33312262253579206,1.4263681131605008,,,,,,,,,,,,
16021,0,USIdahoBoundary,Idaho,Boundary,2022-04-28 09:13:11,2021-06-03,0.32025141645647903,0.8978401848746046,2.705314819186754,,,,,,,,,,,,
16021,0,USIdahoBoundary,Idaho,Boundary,2022-04-28 09:13:11,2021-06-04,0.32025141645647903,0.8978401848746046,2.705314819186754,,,,,,,,,,,,
16021,0,USIdahoBoundary,Idaho,Boundary,2022-04-28 09:13:11,2021-06-05,0.32025141645647903,0.8978401848746046,2.705314819186754,,,,,,,,,,,,
16021,0,USIdahoBoundary,Idaho,Boundary,2022-04-28 09:13:11,2021-06-06,0.32025141645647903,0.8978401848746046,2.705314819186754,,,,,,,,,,,,
16021,0,USIdahoBoundary,Idaho,Boundary,2022-04-28 09:13:11,2021-06-07,0.32025141645647903,0.8978401848746046,2.705314819186754,,,,,,,,,,,,
16021,0,USIdahoBoundary,Idaho,Boundary,2022-04-28 09:13:11,2021-06-08,0.32025141645647903,0.8978401848746046,2.705314819186754,,,,,,,,,,,,
16021,0,USIdahoBoundary,Idaho,Boundary,2022-04-28 09:13:11,2021-06-09,0.32025141645647903,0.8978401848746046,2.705314819186754,,,,,,,,,,,,
16021,0,USIdahoBoundary,Idaho,Boundary,2022-04-28 09:13:11,2021-06-10,0.3245827884326674,0.8051423674445307,2.1492889884608966,,,,,,,,,,,,
16021,0,USIdahoBoundary,Idaho,Boundary,2022-04-28 09:13:11,2021-06-11,0.3245827884326674,0.8051423674445307,2.1492889884608966,,,,,,,,,,,,
16021,0,USIdahoBoundary,Idaho,Boundary,2022-04-28 09:13:11,2021-06-12,0.3245827884326674,0.8051423674445307,2.1492889884608966,,,,,,,,,,,,
16021,0,USIdahoBoundary,Idaho,Boundary,2022-04-28 09:13:11,2021-06-13,0.3245827884326674,0.8051423674445307,2.1492889884608966,,,,,,,,,,,,
16021,0,USIdahoBoundary,Idaho,Boundary,2022-04-28 09:13:11,2021-06-14,0.3245827884326674,0.8051423674445307,2.1492889884608966,,,,,,,,,,,,
16021,0,USIdahoBoundary,Idaho,Boundary,2022-04-28 09:13:11,2021-06-15,0.3245827884326674,0.8051423674445307,2.1492889884608966,,,,,,,,,,,,
16021,0,USIdahoBoundary,Idaho,Boundary,2022-04-28 09:13:11,2021-06-16,0.3245827884326674,0.8051423674445307,2.1492889884608966,,,,,,,,,,,,
16021,0,USIdahoBoundary,Idaho,Boundary,2022-04-28 09:13:11,2021-06-17,0.33457734926031035,0.8523124936199274,2.3363017738695424,,,,,,,,,,,,
16021,0,USIdahoBoundary,Idaho,Boundary,2022-04-28 09:13:11,2021-06-18,0.33457734926031035,0.8523124936199274,2.3363017738695424,,,,,,,,,,,,
16021,0,USIdahoBoundary,Idaho,Boundary,2022-04-28 09:13:11,2021-06-19,0.33457734926031035,0.8523124936199274,2.3363017738695424,,,,,,,,,,,,
16021,0,USIdahoBoundary,Idaho,Boundary,2022-04-28 09:13:11,2021-06-20,0.33457734926031035,0.8523124936199274,2.3363017738695424,,,,,,,,,,,,
16021,0,USIdahoBoundary,Idaho,Boundary,2022-04-28 09:13:11,2021-06-21,0.33457734926031035,0.8523124936199274,2.3363017738695424,,,,,,,,,,,,
16021,0,USIdahoBoundary,Idaho,Boundary,2022-04-28 09:13:11,2021-06-22,0.33457734926031035,0.8523124936199274,2.3363017738695424,,,,,,,,,,,,
16021,0,USIdahoBoundary,Idaho,Boundary,2022-04-28 09:13:11,2021-06-23,0.33457734926031035,0.8523124936199274,2.3363017738695424,,,,,,,,,,,,
16021,0,USIdahoBoundary,Idaho,Boundary,2022-04-28 09:13:11,2021-06-24,0.17133765481008462,0.5089938246978681,1.6230961363307463,,,,,,,,,,,,
16021,0,USIdahoBoundary,Idaho,Boundary,2022-04-28 09:13:11,2021-06-25,0.17133765481008462,0.5089938246978681,1.6230961363307463,,,,,,,,,,,,
16021,0,USIdahoBoundary,Idaho,Boundary,2022-04-28 09:13:11,2021-06-26,0.17133765481008462,0.5089938246978681,1.6230961363307463,,,,,,,,,,,,
16021,0,USIdahoBoundary,Idaho,Boundary,2022-04-28 09:13:11,2021-06-27,0.17133765481008462,0.5089938246978681,1.6230961363307463,,,,,,,,,,,,
16021,0,USIdahoBoundary,Idaho,Boundary,2022-04-28 09:13:11,2021-06-28,0.17133765481008462,0.5089938246978681,1.6230961363307463,,,,,,,,,,,,
16021,0,USIdahoBoundary,Idaho,Boundary,2022-04-28 09:13:11,2021-06-29,0.17133765481008462,0.5089938246978681,1.6230961363307463,,,,,,,,,,,,
16021,0,USIdahoBoundary,Idaho,Boundary,2022-04-28 09:13:11,2021-06-30,0.17133765481008462,0.5089938246978681,1.6230961363307463,,,,,,,,,,,,
16021,0,USIdahoBoundary,Idaho,Boundary,2022-04-28 09:13:11,2021-07-01,0.30067556936586415,0.7982171844617787,2.279355490106628,,,,,,,,,,,,
16021,0,USIdahoBoundary,Idaho,Boundary,2022-04-28 09:13:11,2021-07-02,0.30067556936586415,0.7982171844617787,2.279355490106628,,,,,,,,,,,,
16021,0,USIdahoBoundary,Idaho,Boundary,2022-04-28 09:13:11,2021-07-03,0.30067556936586415,0.7982171844617787,2.279355490106628,,,,,,,,,,,,
16021,0,USIdahoBoundary,Idaho,Boundary,2022-04-28 09:13:11,2021-07-04,0.30067556936586415,0.7982171844617787,2.279355490106628,,,,,,,,,,,,
16021,0,USIdahoBoundary,Idaho,Boundary,2022-04-28 09:13:11,2021-07-05,0.30067556936586415,0.7982171844617787,2.279355490106628,,,,,,,,,,,,
16021,0,USIdahoBoundary,Idaho,Boundary,2022-04-28 09:13:11,2021-07-06,0.30067556936586415,0.7982171844617787,2.279355490106628,,,,,,,,,,,,
16021,0,USIdahoBoundary,Idaho,Boundary,2022-04-28 09:13:11,2021-07-07,0.30067556936586415,0.7982171844617787,2.279355490106628,,,,,,,,,,,,
16021,0,USIdahoBoundary,Idaho,Boundary,2022-04-28 09:13:11,2021-07-08,0.1463435257649094,0.5346344861025184,2.082601539649252,,,,,,,,,,,,
16021,0,USIdahoBoundary,Idaho,Boundary,2022-04-28 09:13:11,2021-07-09,0.1463435257649094,0.5346344861025184,2.082601539649252,,,,,,,,,,,,
16021,0,USIdahoBoundary,Idaho,Boundary,2022-04-28 09:13:11,2021-07-10,0.1463435257649094,0.5346344861025184,2.082601539649252,,,,,,,,,,,,
16021,0,USIdahoBoundary,Idaho,Boundary,2022-04-28 09:13:11,2021-07-11,0.1463435257649094,0.5346344861025184,2.082601539649252,,,,,,,,,,,,
16021,0,USIdahoBoundary,Idaho,Boundary,2022-04-28 09:13:11,2021-07-12,0.1463435257649094,0.5346344861025184,2.082601539649252,,,,,,,,,,,,
16021,0,USIdahoBoundary,Idaho,Boundary,2022-04-28 09:13:11,2021-07-13,0.1463435257649094,0.5346344861025184,2.082601539649252,,,,,,,,,,,,
16021,0,USIdahoBoundary,Idaho,Boundary,2022-04-28 09:13:11,2021-07-14,0.1463435257649094,0.5346344861025184,2.082601539649252,,,,,,,,,,,,
16021,0,USIdahoBoundary,Idaho,Boundary,2022-04-28 09:13:11,2021-07-15,0.15732434375571105,0.6096303527915257,2.512954605465493,,,,,,,,,,,,
16021,0,USIdahoBoundary,Idaho,Boundary,2022-04-28 09:13:11,2021-07-16,0.15732434375571105,0.6096303527915257,2.512954605465493,,,,,,,,,,,,
16021,0,USIdahoBoundary,Idaho,Boundary,2022-04-28 09:13:11,2021-07-17,0.15732434375571105,0.6096303527915257,2.512954605465493,,,,,,,,,,,,
16021,0,USIdahoBoundary,Idaho,Boundary,2022-04-28 09:13:11,2021-07-18,0.15732434375571105,0.6096303527915257,2.512954605465493,,,,,,,,,,,,
16021,0,USIdahoBoundary,Idaho,Boundary,2022-04-28 09:13:11,2021-07-19,0.15732434375571105,0.6096303527915257,2.512954605465493,,,,,,,,,,,,
16021,0,USIdahoBoundary,Idaho,Boundary,2022-04-28 09:13:11,2021-07-20,0.15732434375571105,0.6096303527915257,2.512954605465493,,,,,,,,,,,,
16021,0,USIdahoBoundary,Idaho,Boundary,2022-04-28 09:13:11,2021-07-21,0.15732434375571105,0.6096303527915257,2.512954605465493,,,,,,,,,,,,
16021,0,USIdahoBoundary,Idaho,Boundary,2022-04-28 09:13:11,2021-07-22,0.16426496504951305,0.659102224095271,2.809188497860253,,,,,,,,,,,,
16021,0,USIdahoBoundary,Idaho,Boundary,2022-04-28 09:13:11,2021-07-23,0.16426496504951305,0.659102224095271,2.809188497860253,,,,,,,,,,,,
16021,0,USIdahoBoundary,Idaho,Boundary,2022-04-28 09:13:11,2021-07-24,0.16426496504951305,0.659102224095271,2.809188497860253,,,,,,,,,,,,
16021,0,USIdahoBoundary,Idaho,Boundary,2022-04-28 09:13:11,2021-07-25,0.16426496504951305,0.659102224095271,2.809188497860253,,,,,,,,,,,,
16021,0,USIdahoBoundary,Idaho,Boundary,2022-04-28 09:13:11,2021-07-26,0.16426496504951305,0.659102224095271,2.809188497860253,,,,,,,,,,,,
16021,0,USIdahoBoundary,Idaho,Boundary,2022-04-28 09:13:11,2021-07-27,0.16426496504951305,0.659102224095271,2.809188497860253,,,,,,,,,,,,
16021,0,USIdahoBoundary,Idaho,Boundary,2022-04-28 09:13:11,2021-07-28,0.16426496504951305,0.659102224095271,2.809188497860253,,,,,,,,,,,,
16021,0,USIdahoBoundary,Idaho,Boundary,2022-04-28 09:13:11,2021-07-29,0.7579082443832149,2.150843331017632,6.558602721443446,,,,,,,,,,,,
16021,0,USIdahoBoundary,Idaho,Boundary,2022-04-28 09:13:11,2021-07-30,0.7579082443832149,2.150843331017632,6.558602721443446,,,,,,,,,,,,
16021,0,USIdahoBoundary,Idaho,Boundary,2022-04-28 09:13:11,2021-07-31,0.7579082443832149,2.150843331017632,6.558602721443446,,,,,,,,,,,,
16021,0,USIdahoBoundary,Idaho,Boundary,2022-04-28 09:13:11,2021-08-01,0.7579082443832149,2.150843331017632,6.558602721443446,,,,,,,,,,,,
16021,0,USIdahoBoundary,Idaho,Boundary,2022-04-28 09:13:11,2021-08-02,0.7579082443832149,2.150843331017632,6.558602721443446,,,,,,,,,,,,
16021,0,USIdahoBoundary,Idaho,Boundary,2022-04-28 09:13:11,2021-08-03,0.7579082443832149,2.150843331017632,6.558602721443446,,,,,,,,,,,,
16021,0,USIdahoBoundary,Idaho,Boundary,2022-04-28 09:13:11,2021-08-04,0.7579082443832149,2.150843331017632,6.558602721443446,,,,,,,,,,,,
16021,0,USIdahoBoundary,Idaho,Boundary,2022-04-28 09:13:11,2021-08-05,1.135891415836085,2.868773537814599,7.796572838263454,,,,,,,,,,,,
16021,0,USIdahoBoundary,Idaho,Boundary,2022-04-28 09:13:11,2021-08-06,1.135891415836085,2.868773537814599,7.796572838263454,,,,,,,,,,,,
16021,0,USIdahoBoundary,Idaho,Boundary,2022-04-28 09:13:11,2021-08-07,1.135891415836085,2.868773537814599,7.796572838263454,,,,,,,,,,,,
16021,0,USIdahoBoundary,Idaho,Boundary,2022-04-28 09:13:11,2021-08-08,1.135891415836085,2.868773537814599,7.796572838263454,,,,,,,,,,,,
16021,0,USIdahoBoundary,Idaho,Boundary,2022-04-28 09:13:11,2021-08-09,1.135891415836085,2.868773537814599,7.796572838263454,,,,,,,,,,,,
16021,0,USIdahoBoundary,Idaho,Boundary,2022-04-28 09:13:11,2021-08-10,1.135891415836085,2.868773537814599,7.796572838263454,,,,,,,,,,,,
16021,0,USIdahoBoundary,Idaho,Boundary,2022-04-28 09:13:11,2021-08-11,1.135891415836085,2.868773537814599,7.796572838263454,,,,,,,,,,,,
16021,0,USIdahoBoundary,Idaho,Boundary,2022-04-28 09:13:11,2021-08-12,0.6705215760150034,2.1048712816852566,7.082183070377221,,,,,,,,,,,,
16021,0,USIdahoBoundary,Idaho,Boundary,2022-04-28 09:13:11,2021-08-13,0.6705215760150034,2.1048712816852566,7.082183070377221,,,,,,,,,,,,
16021,0,USIdahoBoundary,Idaho,Boundary,2022-04-28 09:13:11,2021-08-14,0.6705215760150034,2.1048712816852566,7.082183070377221,,,,,,,,,,,,
16021,0,USIdahoBoundary,Idaho,Boundary,2022-04-28 09:13:11,2021-08-15,0.6705215760150034,2.1048712816852566,7.082183070377221,,,,,,,,,,,,
16021,0,USIdahoBoundary,Idaho,Boundary,2022-04-28 09:13:11,2021-08-16,0.6705215760150034,2.1048712816852566,7.082183070377221,,,,,,,,,,,,
16021,0,USIdahoBoundary,Idaho,Boundary,2022-04-28 09:13:11,2021-08-17,0.6705215760150034,2.1048712816852566,7.082183070377221,,,,,,,,,,,,
16021,0,USIdahoBoundary,Idaho,Boundary,2022-04-28 09:13:11,2021-08-18,0.6705215760150034,2.1048712816852566,7.082183070377221,,,,,,,,,,,,
16021,0,USIdahoBoundary,Idaho,Boundary,2022-04-28 09:13:11,2021-08-19,0.6583337957064997,1.8896943097270131,5.827024938792827,,,,,,,,,,,,
16021,0,USIdahoBoundary,Idaho,Boundary,2022-04-28 09:13:11,2021-08-20,0.6583337957064997,1.8896943097270131,5.827024938792827,,,,,,,,,,,,
16021,0,USIdahoBoundary,Idaho,Boundary,2022-04-28 09:13:11,2021-08-21,0.6583337957064997,1.8896943097270131,5.827024938792827,,,,,,,,,,,,
16021,0,USIdahoBoundary,Idaho,Boundary,2022-04-28 09:13:11,2021-08-22,0.6583337957064997,1.8896943097270131,5.827024938792827,,,,,,,,,,,,
16021,0,USIdahoBoundary,Idaho,Boundary,2022-04-28 09:13:11,2021-08-23,0.6583337957064997,1.8896943097270131,5.827024938792827,,,,,,,,,,,,
16021,0,USIdahoBoundary,Idaho,Boundary,2022-04-28 09:13:11,2021-08-24,0.6583337957064997,1.8896943097270131,5.827024938792827,,,,,,,,,,,,
16021,0,USIdahoBoundary,Idaho,Boundary,2022-04-28 09:13:11,2021-08-25,0.6583337957064997,1.8896943097270131,5.827024938792827,,,,,,,,,,,,
16021,0,USIdahoBoundary,Idaho,Boundary,2022-04-28 09:13:11,2021-08-26,1.9876538269267516,4.3784282105667804,10.369729445634114,,,,,,,,,,,,
16021,0,USIdahoBoundary,Idaho,Boundary,2022-04-28 09:13:11,2021-08-27,1.9876538269267516,4.3784282105667804,10.369729445634114,,,,,,,,,,,,
16021,0,USIdahoBoundary,Idaho,Boundary,2022-04-28 09:13:11,2021-08-28,1.9876538269267516,4.3784282105667804,10.369729445634114,,,,,,,,,,,,
16021,0,USIdahoBoundary,Idaho,Boundary,2022-04-28 09:13:11,2021-08-29,1.9876538269267516,4.3784282105667804,10.369729445634114,,,,,,,,,,,,
16021,0,USIdahoBoundary,Idaho,Boundary,2022-04-28 09:13:11,2021-08-30,1.9876538269267516,4.3784282105667804,10.369729445634114,,,,,,,,,,,,
16021,0,USIdahoBoundary,Idaho,Boundary,2022-04-28 09:13:11,2021-08-31,1.9876538269267516,4.3784282105667804,10.369729445634114,,,,,,,,,,,,
16021,0,USIdahoBoundary,Idaho,Boundary,2022-04-28 09:13:11,2021-09-01,1.9876538269267516,4.3784282105667804,10.369729445634114,,,,,,,,,,,,
16021,0,USIdahoBoundary,Idaho,Boundary,2022-04-28 09:13:11,2021-09-02,1.8359796523722538,4.233691572050311,10.503279057603137,,,,,,,,,,,,
16021,0,USIdahoBoundary,Idaho,Boundary,2022-04-28 09:13:11,2021-09-03,1.8359796523722538,4.233691572050311,10.503279057603137,,,,,,,,,,,,
16021,0,USIdahoBoundary,Idaho,Boundary,2022-04-28 09:13:11,2021-09-04,1.8359796523722538,4.233691572050311,10.503279057603137,,,,,,,,,,,,
16021,0,USIdahoBoundary,Idaho,Boundary,2022-04-28 09:13:11,2021-09-05,1.8359796523722538,4.233691572050311,10.503279057603137,,,,,,,,,,,,
16021,0,USIdahoBoundary,Idaho,Boundary,2022-04-28 09:13:11,2021-09-06,1.8359796523722538,4.233691572050311,10.503279057603137,,,,,,,,,,,,
16021,0,USIdahoBoundary,Idaho,Boundary,2022-04-28 09:13:11,2021-09-07,1.8359796523722538,4.233691572050311,10.503279057603137,,,,,,,,,,,,
16021,0,USIdahoBoundary,Idaho,Boundary,2022-04-28 09:13:11,2021-09-08,1.8359796523722538,4.233691572050311,10.503279057603137,,,,,,,,,,,,
16021,0,USIdahoBoundary,Idaho,Boundary,2022-04-28 09:13:11,2021-09-09,2.0674436913842644,4.632935161302201,11.165452062343487,,,,,,,,,,,,
16021,0,USIdahoBoundary,Idaho,Boundary,2022-04-28 09:13:11,2021-09-10,2.0674436913842644,4.632935161302201,11.165452062343487,,,,,,,,,,,,
16021,0,USIdahoBoundary,Idaho,Boundary,2022-04-28 09:13:11,2021-09-11,2.0674436913842644,4.632935161302201,11.165452062343487,,,,,,,,,,,,
16021,0,USIdahoBoundary,Idaho,Boundary,2022-04-28 09:13:11,2021-09-12,2.0674436913842644,4.632935161302201,11.165452062343487,,,,,,,,,,,,
16021,0,USIdahoBoundary,Idaho,Boundary,2022-04-28 09:13:11,2021-09-13,2.0674436913842644,4.632935161302201,11.165452062343487,,,,,,,,,,,,
16021,0,USIdahoBoundary,Idaho,Boundary,2022-04-28 09:13:11,2021-09-14,2.0674436913842644,4.632935161302201,11.165452062343487,,,,,,,,,,,,
16021,0,USIdahoBoundary,Idaho,Boundary,2022-04-28 09:13:11,2021-09-15,2.0674436913842644,4.632935161302201,11.165452062343487,,,,,,,,,,,,
16021,0,USIdahoBoundary,Idaho,Boundary,2022-04-28 09:13:11,2021-09-16,1.7423649801164731,4.08981612772181,10.329704132849177,,,,,,,,,,,,
16021,0,USIdahoBoundary,Idaho,Boundary,2022-04-28 09:13:11,2021-09-17,1.7423649801164731,4.08981612772181,10.329704132849177,,,,,,,,,,,,
16021,0,USIdahoBoundary,Idaho,Boundary,2022-04-28 09:13:11,2021-09-18,1.7423649801164731,4.08981612772181,10.329704132849177,,,,,,,,,,,,
16021,0,USIdahoBoundary,Idaho,Boundary,2022-04-28 09:13:11,2021-09-19,1.7423649801164731,4.08981612772181,10.329704132849177,,,,,,,,,,,,
16021,0,USIdahoBoundary,Idaho,Boundary,2022-04-28 09:13:11,2021-09-20,1.7423649801164731,4.08981612772181,10.329704132849177,,,,,,,,,,,,
16021,0,USIdahoBoundary,Idaho,Boundary,2022-04-28 09:13:11,2021-09-21,1.7423649801164731,4.08981612772181,10.329704132849177,,,,,,,,,,,,
16021,0,USIdahoBoundary,Idaho,Boundary,2022-04-28 09:13:11,2021-09-22,1.7423649801164731,4.08981612772181,10.329704132849177,,,,,,,,,,,,
16021,0,USIdahoBoundary,Idaho,Boundary,2022-04-28 09:13:11,2021-09-23,0.49173676658377785,1.7372890063987814,6.552803104445845,,,,,,,,,,,,
16021,0,USIdahoBoundary,Idaho,Boundary,2022-04-28 09:13:11,2021-09-24,0.49173676658377785,1.7372890063987814,6.552803104445845,,,,,,,,,,,,
16021,0,USIdahoBoundary,Idaho,Boundary,2022-04-28 09:13:11,2021-09-25,0.49173676658377785,1.7372890063987814,6.552803104445845,,,,,,,,,,,,
16021,0,USIdahoBoundary,Idaho,Boundary,2022-04-28 09:13:11,2021-09-26,0.49173676658377785,1.7372890063987814,6.552803104445845,,,,,,,,,,,,
16021,0,USIdahoBoundary,Idaho,Boundary,2022-04-28 09:13:11,2021-09-27,0.49173676658377785,1.7372890063987814,6.552803104445845,,,,,,,,,,,,
16021,0,USIdahoBoundary,Idaho,Boundary,2022-04-28 09:13:11,2021-09-28,0.49173676658377785,1.7372890063987814,6.552803104445845,,,,,,,,,,,,
16021,0,USIdahoBoundary,Idaho,Boundary,2022-04-28 09:13:11,2021-09-29,0.49173676658377785,1.7372890063987814,6.552803104445845,,,,,,,,,,,,
16021,0,USIdahoBoundary,Idaho,Boundary,2022-04-28 09:13:11,2021-09-30,3.568734799927191,7.478405224437555,16.829232931700837,,,,,,,,,,,,
16021,0,USIdahoBoundary,Idaho,Boundary,2022-04-28 09:13:11,2021-10-01,3.568734799927191,7.478405224437555,16.829232931700837,,,,,,,,,,,,
16021,0,USIdahoBoundary,Idaho,Boundary,2022-04-28 09:13:11,2021-10-02,3.568734799927191,7.478405224437555,16.829232931700837,,,,,,,,,,,,
16021,0,USIdahoBoundary,Idaho,Boundary,2022-04-28 09:13:11,2021-10-03,3.568734799927191,7.478405224437555,16.829232931700837,,,,,,,,,,,,
16021,0,USIdahoBoundary,Idaho,Boundary,2022-04-28 09:13:11,2021-10-04,3.568734799927191,7.478405224437555,16.829232931700837,,,,,,,,,,,,
16021,0,USIdahoBoundary,Idaho,Boundary,2022-04-28 09:13:11,2021-10-05,3.568734799927191,7.478405224437555,16.829232931700837,,,,,,,,,,,,
16021,0,USIdahoBoundary,Idaho,Boundary,2022-04-28 09:13:11,2021-10-06,3.568734799927191,7.478405224437555,16.829232931700837,,,,,,,,,,,,
16021,0,USIdahoBoundary,Idaho,Boundary,2022-04-28 09:13:11,2021-10-07,2.326073655496321,5.589977841881617,14.45660189479204,,,,,,,,,,,,
16021,0,USIdahoBoundary,Idaho,Boundary,2022-04-28 09:13:11,2021-10-08,2.326073655496321,5.589977841881617,14.45660189479204,,,,,,,,,,,,
16021,0,USIdahoBoundary,Idaho,Boundary,2022-04-28 09:13:11,2021-10-09,2.326073655496321,5.589977841881617,14.45660189479204,,,,,,,,,,,,
16021,0,USIdahoBoundary,Idaho,Boundary,2022-04-28 09:13:11,2021-10-10,2.326073655496321,5.589977841881617,14.45660189479204,,,,,,,,,,,,
16021,0,USIdahoBoundary,Idaho,Boundary,2022-04-28 09:13:11,2021-10-11,2.326073655496321,5.589977841881617,14.45660189479204,,,,,,,,,,,,
16021,0,USIdahoBoundary,Idaho,Boundary,2022-04-28 09:13:11,2021-10-12,2.326073655496321,5.589977841881617,14.45660189479204,,,,,,,,,,,,
16021,0,USIdahoBoundary,Idaho,Boundary,2022-04-28 09:13:11,2021-10-13,2.326073655496321,5.589977841881617,14.45660189479204,,,,,,,,,,,,
16021,0,USIdahoBoundary,Idaho,Boundary,2022-04-28 09:13:11,2021-10-14,3.1091058250791472,7.332273329696287,18.60691897998246,,,,,,,,,,,,
16021,0,USIdahoBoundary,Idaho,Boundary,2022-04-28 09:13:11,2021-10-15,3.1091058250791472,7.332273329696287,18.60691897998246,,,,,,,,,,,,
16021,0,USIdahoBoundary,Idaho,Boundary,2022-04-28 09:13:11,2021-10-16,3.1091058250791472,7.332273329696287,18.60691897998246,,,,,,,,,,,,
16021,0,USIdahoBoundary,Idaho,Boundary,2022-04-28 09:13:11,2021-10-17,3.1091058250791472,7.332273329696287,18.60691897998246,,,,,,,,,,,,
16021,0,USIdahoBoundary,Idaho,Boundary,2022-04-28 09:13:11,2021-10-18,3.1091058250791472,7.332273329696287,18.60691897998246,,,,,,,,,,,,
16021,0,USIdahoBoundary,Idaho,Boundary,2022-04-28 09:13:11,2021-10-19,3.1091058250791472,7.332273329696287,18.60691897998246,,,,,,,,,,,,
16021,0,USIdahoBoundary,Idaho,Boundary,2022-04-28 09:13:11,2021-10-20,3.1091058250791472,7.332273329696287,18.60691897998246,,,,,,,,,,,,
16021,0,USIdahoBoundary,Idaho,Boundary,2022-04-28 09:13:11,2021-10-21,4.89963531513165,9.50667014236404,19.75187559771505,,,,,,,,,,,,
16021,0,USIdahoBoundary,Idaho,Boundary,2022-04-28 09:13:11,2021-10-22,4.89963531513165,9.50667014236404,19.75187559771505,,,,,,,,,,,,
16021,0,USIdahoBoundary,Idaho,Boundary,2022-04-28 09:13:11,2021-10-23,4.89963531513165,9.50667014236404,19.75187559771505,,,,,,,,,,,,
16021,0,USIdahoBoundary,Idaho,Boundary,2022-04-28 09:13:11,2021-10-24,4.89963531513165,9.50667014236404,19.75187559771505,,,,,,,,,,,,
16021,0,USIdahoBoundary,Idaho,Boundary,2022-04-28 09:13:11,2021-10-25,4.89963531513165,9.50667014236404,19.75187559771505,,,,,,,,,,,,
16021,0,USIdahoBoundary,Idaho,Boundary,2022-04-28 09:13:11,2021-10-26,4.89963531513165,9.50667014236404,19.75187559771505,,,,,,,,,,,,
16021,0,USIdahoBoundary,Idaho,Boundary,2022-04-28 09:13:11,2021-10-27,4.89963531513165,9.50667014236404,19.75187559771505,,,,,,,,,,,,
16021,0,USIdahoBoundary,Idaho,Boundary,2022-04-28 09:13:11,2021-10-28,2.1976647152451263,5.109317193720221,12.780610127155926,,,,,,,,,,,,
16021,0,USIdahoBoundary,Idaho,Boundary,2022-04-28 09:13:11,2021-10-29,2.1976647152451263,5.109317193720221,12.780610127155926,,,,,,,,,,,,
16021,0,USIdahoBoundary,Idaho,Boundary,2022-04-28 09:13:11,2021-10-30,2.1976647152451263,5.109317193720221,12.780610127155926,,,,,,,,,,,,
16021,0,USIdahoBoundary,Idaho,Boundary,2022-04-28 09:13:11,2021-10-31,2.1976647152451263,5.109317193720221,12.780610127155926,,,,,,,,,,,,
16021,0,USIdahoBoundary,Idaho,Boundary,2022-04-28 09:13:11,2021-11-01,2.1976647152451263,5.109317193720221,12.780610127155926,,,,,,,,,,,,
16021,0,USIdahoBoundary,Idaho,Boundary,2022-04-28 09:13:11,2021-11-02,2.1976647152451263,5.109317193720221,12.780610127155926,,,,,,,,,,,,
16021,0,USIdahoBoundary,Idaho,Boundary,2022-04-28 09:13:11,2021-11-03,2.1976647152451263,5.109317193720221,12.780610127155926,,,,,,,,,,,,
16021,0,USIdahoBoundary,Idaho,Boundary,2022-04-28 09:13:11,2021-11-04,2.1635080838107985,4.713151431342853,11.03674939281498,,,,,,,,,,,,
16021,0,USIdahoBoundary,Idaho,Boundary,2022-04-28 09:13:11,2021-11-05,2.1635080838107985,4.713151431342853,11.03674939281498,,,,,,,,,,,,
16021,0,USIdahoBoundary,Idaho,Boundary,2022-04-28 09:13:11,2021-11-06,2.1635080838107985,4.713151431342853,11.03674939281498,,,,,,,,,,,,
16021,0,USIdahoBoundary,Idaho,Boundary,2022-04-28 09:13:11,2021-11-07,2.1635080838107985,4.713151431342853,11.03674939281498,,,,,,,,,,,,
16021,0,USIdahoBoundary,Idaho,Boundary,2022-04-28 09:13:11,2021-11-08,2.1635080838107985,4.713151431342853,11.03674939281498,,,,,,,,,,,,
16021,0,USIdahoBoundary,Idaho,Boundary,2022-04-28 09:13:11,2021-11-09,2.1635080838107985,4.713151431342853,11.03674939281498,,,,,,,,,,,,
16021,0,USIdahoBoundary,Idaho,Boundary,2022-04-28 09:13:11,2021-11-10,2.1635080838107985,4.713151431342853,11.03674939281498,,,,,,,,,,,,
16021,0,USIdahoBoundary,Idaho,Boundary,2022-04-28 09:13:11,2021-11-11,1.5182098361149636,3.4625829396663628,8.495135118658052,,,,,,,,,,,,
16021,0,USIdahoBoundary,Idaho,Boundary,2022-04-28 09:13:11,2021-11-12,1.5182098361149636,3.4625829396663628,8.495135118658052,,,,,,,,,,,,
16021,0,USIdahoBoundary,Idaho,Boundary,2022-04-28 09:13:11,2021-11-13,1.5182098361149636,3.4625829396663628,8.495135118658052,,,,,,,,,,,,
16021,0,USIdahoBoundary,Idaho,Boundary,2022-04-28 09:13:11,2021-11-14,1.5182098361149636,3.4625829396663628,8.495135118658052,,,,,,,,,,,,
16021,0,USIdahoBoundary,Idaho,Boundary,2022-04-28 09:13:11,2021-11-15,1.5182098361149636,3.4625829396663628,8.495135118658052,,,,,,,,,,,,
16021,0,USIdahoBoundary,Idaho,Boundary,2022-04-28 09:13:11,2021-11-16,1.5182098361149636,3.4625829396663628,8.495135118658052,,,,,,,,,,,,
16021,0,USIdahoBoundary,Idaho,Boundary,2022-04-28 09:13:11,2021-11-17,1.5182098361149636,3.4625829396663628,8.495135118658052,,,,,,,,,,,,
16021,0,USIdahoBoundary,Idaho,Boundary,2022-04-28 09:13:11,2021-11-18,1.644967652262442,3.752168309157727,9.206820158117269,,,,,,,,,,,,
16021,0,USIdahoBoundary,Idaho,Boundary,2022-04-28 09:13:11,2021-11-19,1.644967652262442,3.752168309157727,9.206820158117269,,,,,,,,,,,,
16021,0,USIdahoBoundary,Idaho,Boundary,2022-04-28 09:13:11,2021-11-20,1.644967652262442,3.752168309157727,9.206820158117269,,,,,,,,,,,,
16021,0,USIdahoBoundary,Idaho,Boundary,2022-04-28 09:13:11,2021-11-21,1.644967652262442,3.752168309157727,9.206820158117269,,,,,,,,,,,,
16021,0,USIdahoBoundary,Idaho,Boundary,2022-04-28 09:13:11,2021-11-22,1.644967652262442,3.752168309157727,9.206820158117269,,,,,,,,,,,,
16021,0,USIdahoBoundary,Idaho,Boundary,2022-04-28 09:13:11,2021-11-23,1.644967652262442,3.752168309157727,9.206820158117269,,,,,,,,,,,,
16021,0,USIdahoBoundary,Idaho,Boundary,2022-04-28 09:13:11,2021-11-24,1.644967652262442,3.752168309157727,9.206820158117269,,,,,,,,,,,,
16021,0,USIdahoBoundary,Idaho,Boundary,2022-04-28 09:13:11,2021-11-25,0.8199954779061533,2.2196621741115905,6.461316226628703,,,,,,,,,,,,
16021,0,USIdahoBoundary,Idaho,Boundary,2022-04-28 09:13:11,2021-11-26,0.8199954779061533,2.2196621741115905,6.461316226628703,,,,,,,,,,,,
16021,0,USIdahoBoundary,Idaho,Boundary,2022-04-28 09:13:11,2021-11-27,0.8199954779061533,2.2196621741115905,6.461316226628703,,,,,,,,,,,,
16021,0,USIdahoBoundary,Idaho,Boundary,2022-04-28 09:13:11,2021-11-28,0.8199954779061533,2.2196621741115905,6.461316226628703,,,,,,,,,,,,
16021,0,USIdahoBoundary,Idaho,Boundary,2022-04-28 09:13:11,2021-11-29,0.8199954779061533,2.2196621741115905,6.461316226628703,,,,,,,,,,,,
16021,0,USIdahoBoundary,Idaho,Boundary,2022-04-28 09:13:11,2021-11-30,0.8199954779061533,2.2196621741115905,6.461316226628703,,,,,,,,,,,,
16021,0,USIdahoBoundary,Idaho,Boundary,2022-04-28 09:13:11,2021-12-01,0.8199954779061533,2.2196621741115905,6.461316226628703,,,,,,,,,,,,
16021,0,USIdahoBoundary,Idaho,Boundary,2022-04-28 09:13:11,2021-12-02,0.5455669011614975,1.7046136213728618,5.709417062328502,,,,,,,,,,,,
16021,0,USIdahoBoundary,Idaho,Boundary,2022-04-28 09:13:11,2021-12-03,0.5455669011614975,1.7046136213728618,5.709417062328502,,,,,,,,,,,,
16021,0,USIdahoBoundary,Idaho,Boundary,2022-04-28 09:13:11,2021-12-04,0.5455669011614975,1.7046136213728618,5.709417062328502,,,,,,,,,,,,
16021,0,USIdahoBoundary,Idaho,Boundary,2022-04-28 09:13:11,2021-12-05,0.5455669011614975,1.7046136213728618,5.709417062328502,,,,,,,,,,,,
16021,0,USIdahoBoundary,Idaho,Boundary,2022-04-28 09:13:11,2021-12-06,0.5455669011614975,1.7046136213728618,5.709417062328502,,,,,,,,,,,,
16021,0,USIdahoBoundary,Idaho,Boundary,2022-04-28 09:13:11,2021-12-07,0.5455669011614975,1.7046136213728618,5.709417062328502,,,,,,,,,,,,
16021,0,USIdahoBoundary,Idaho,Boundary,2022-04-28 09:13:11,2021-12-08,0.5455669011614975,1.7046136213728618,5.709417062328502,,,,,,,,,,,,
16021,0,USIdahoBoundary,Idaho,Boundary,2022-04-28 09:13:11,2021-12-09,0.6571499056011973,1.8833895177759203,5.798821017937476,,,,,,,,,,,,
16021,0,USIdahoBoundary,Idaho,Boundary,2022-04-28 09:13:11,2021-12-10,0.6571499056011973,1.8833895177759203,5.798821017937476,,,,,,,,,,,,
16021,0,USIdahoBoundary,Idaho,Boundary,2022-04-28 09:13:11,2021-12-11,0.6571499056011973,1.8833895177759203,5.798821017937476,,,,,,,,,,,,
16021,0,USIdahoBoundary,Idaho,Boundary,2022-04-28 09:13:11,2021-12-12,0.6571499056011973,1.8833895177759203,5.798821017937476,,,,,,,,,,,,
16021,0,USIdahoBoundary,Idaho,Boundary,2022-04-28 09:13:11,2021-12-13,0.6571499056011973,1.8833895177759203,5.798821017937476,,,,,,,,,,,,
16021,0,USIdahoBoundary,Idaho,Boundary,2022-04-28 09:13:11,2021-12-14,0.6571499056011973,1.8833895177759203,5.798821017937476,,,,,,,,,,,,
16021,0,USIdahoBoundary,Idaho,Boundary,2022-04-28 09:13:11,2021-12-15,0.6571499056011973,1.8833895177759203,5.798821017937476,,,,,,,,,,,,
16021,0,USIdahoBoundary,Idaho,Boundary,2022-04-28 09:13:11,2021-12-16,0.55798701775172,1.6250433375672526,5.08252358166359,,,,,,,,,,,,
16021,0,USIdahoBoundary,Idaho,Boundary,2022-04-28 09:13:11,2021-12-17,0.55798701775172,1.6250433375672526,5.08252358166359,,,,,,,,,,,,
16021,0,USIdahoBoundary,Idaho,Boundary,2022-04-28 09:13:11,2021-12-18,0.55798701775172,1.6250433375672526,5.08252358166359,,,,,,,,,,,,
16021,0,USIdahoBoundary,Idaho,Boundary,2022-04-28 09:13:11,2021-12-19,0.55798701775172,1.6250433375672526,5.08252358166359,,,,,,,,,,,,
16021,0,USIdahoBoundary,Idaho,Boundary,2022-04-28 09:13:11,2021-12-20,0.55798701775172,1.6250433375672526,5.08252358166359,,,,,,,,,,,,
16021,0,USIdahoBoundary,Idaho,Boundary,2022-04-28 09:13:11,2021-12-21,0.55798701775172,1.6250433375672526,5.08252358166359,,,,,,,,,,,,
16021,0,USIdahoBoundary,Idaho,Boundary,2022-04-28 09:13:11,2021-12-22,0.55798701775172,1.6250433375672526,5.08252358166359,,,,,,,,,,,,
16021,0,USIdahoBoundary,Idaho,Boundary,2022-04-28 09:13:11,2021-12-23,0.362349100772859,1.313350451700692,5.077285735847659,,,,,,,,,,,,
16021,0,USIdahoBoundary,Idaho,Boundary,2022-04-28 09:13:11,2021-12-24,0.362349100772859,1.313350451700692,5.077285735847659,,,,,,,,,,,,
16021,0,USIdahoBoundary,Idaho,Boundary,2022-04-28 09:13:11,2021-12-25,0.362349100772859,1.313350451700692,5.077285735847659,,,,,,,,,,,,
16021,0,USIdahoBoundary,Idaho,Boundary,2022-04-28 09:13:11,2021-12-26,0.362349100772859,1.313350451700692,5.077285735847659,,,,,,,,,,,,
16021,0,USIdahoBoundary,Idaho,Boundary,2022-04-28 09:13:11,2021-12-27,0.362349100772859,1.313350451700692,5.077285735847659,,,,,,,,,,,,
16021,0,USIdahoBoundary,Idaho,Boundary,2022-04-28 09:13:11,2021-12-28,0.362349100772859,1.313350451700692,5.077285735847659,,,,,,,,,,,,
16021,0,USIdahoBoundary,Idaho,Boundary,2022-04-28 09:13:11,2021-12-29,0.362349100772859,1.313350451700692,5.077285735847659,,,,,,,,,,,,
16021,0,USIdahoBoundary,Idaho,Boundary,2022-04-28 09:13:11,2021-12-30,0.5905258848879262,1.971656639258006,7.042196293022425,,,,,,,,,,,,
16021,0,USIdahoBoundary,Idaho,Boundary,2022-04-28 09:13:11,2021-12-31,0.5905258848879262,1.971656639258006,7.042196293022425,,,,,,,,,,,,
16021,0,USIdahoBoundary,Idaho,Boundary,2022-04-28 09:13:11,2022-01-01,0.5905258848879262,1.971656639258006,7.042196293022425,,,,,,,,,,,,
16021,0,USIdahoBoundary,Idaho,Boundary,2022-04-28 09:13:11,2022-01-02,0.5905258848879262,1.971656639258006,7.042196293022425,,,,,,,,,,,,
16021,0,USIdahoBoundary,Idaho,Boundary,2022-04-28 09:13:11,2022-01-03,0.5905258848879262,1.971656639258006,7.042196293022425,,,,,,,,,,,,
16021,0,USIdahoBoundary,Idaho,Boundary,2022-04-28 09:13:11,2022-01-04,0.5905258848879262,1.971656639258006,7.042196293022425,,,,,,,,,,,,
16021,0,USIdahoBoundary,Idaho,Boundary,2022-04-28 09:13:11,2022-01-05,0.5905258848879262,1.971656639258006,7.042196293022425,,,,,,,,,,,,
16021,0,USIdahoBoundary,Idaho,Boundary,2022-04-28 09:13:11,2022-01-06,1.015911948696112,3.1361887028411557,10.38208077290133,,,,,,,,,,,,
16021,0,USIdahoBoundary,Idaho,Boundary,2022-04-28 09:13:11,2022-01-07,1.015911948696112,3.1361887028411557,10.38208077290133,,,,,,,,,,,,
16021,0,USIdahoBoundary,Idaho,Boundary,2022-04-28 09:13:11,2022-01-08,1.015911948696112,3.1361887028411557,10.38208077290133,,,,,,,,,,,,
16021,0,USIdahoBoundary,Idaho,Boundary,2022-04-28 09:13:11,2022-01-09,1.015911948696112,3.1361887028411557,10.38208077290133,,,,,,,,,,,,
16021,0,USIdahoBoundary,Idaho,Boundary,2022-04-28 09:13:11,2022-01-10,1.015911948696112,3.1361887028411557,10.38208077290133,,,,,,,,,,,,
16021,0,USIdahoBoundary,Idaho,Boundary,2022-04-28 09:13:11,2022-01-11,1.015911948696112,3.1361887028411557,10.38208077290133,,,,,,,,,,,,
16021,0,USIdahoBoundary,Idaho,Boundary,2022-04-28 09:13:11,2022-01-12,1.015911948696112,3.1361887028411557,10.38208077290133,,,,,,,,,,,,
16021,0,USIdahoBoundary,Idaho,Boundary,2022-04-28 09:13:11,2022-01-13,0.8949044425432762,2.9234861181580727,10.224026418839228,,,,,,,,,,,,
16021,0,USIdahoBoundary,Idaho,Boundary,2022-04-28 09:13:11,2022-01-14,0.8949044425432762,2.9234861181580727,10.224026418839228,,,,,,,,,,,,
16021,0,USIdahoBoundary,Idaho,Boundary,2022-04-28 09:13:11,2022-01-15,0.8949044425432762,2.9234861181580727,10.224026418839228,,,,,,,,,,,,
16021,0,USIdahoBoundary,Idaho,Boundary,2022-04-28 09:13:11,2022-01-16,0.8949044425432762,2.9234861181580727,10.224026418839228,,,,,,,,,,,,
16021,0,USIdahoBoundary,Idaho,Boundary,2022-04-28 09:13:11,2022-01-17,0.8949044425432762,2.9234861181580727,10.224026418839228,,,,,,,,,,,,
16021,0,USIdahoBoundary,Idaho,Boundary,2022-04-28 09:13:11,2022-01-18,0.8949044425432762,2.9234861181580727,10.224026418839228,,,,,,,,,,,,
16021,0,USIdahoBoundary,Idaho,Boundary,2022-04-28 09:13:11,2022-01-19,0.8949044425432762,2.9234861181580727,10.224026418839228,,,,,,,,,,,,
16021,0,USIdahoBoundary,Idaho,Boundary,2022-04-28 09:13:11,2022-01-20,3.2321508328340625,7.987773560947008,21.24406970926601,,,,,,,,,,,,
16021,0,USIdahoBoundary,Idaho,Boundary,2022-04-28 09:13:11,2022-01-21,3.2321508328340625,7.987773560947008,21.24406970926601,,,,,,,,,,,,
16021,0,USIdahoBoundary,Idaho,Boundary,2022-04-28 09:13:11,2022-01-22,3.2321508328340625,7.987773560947008,21.24406970926601,,,,,,,,,,,,
16021,0,USIdahoBoundary,Idaho,Boundary,2022-04-28 09:13:11,2022-01-23,3.2321508328340625,7.987773560947008,21.24406970926601,,,,,,,,,,,,
16021,0,USIdahoBoundary,Idaho,Boundary,2022-04-28 09:13:11,2022-01-24,3.2321508328340625,7.987773560947008,21.24406970926601,,,,,,,,,,,,
16021,0,USIdahoBoundary,Idaho,Boundary,2022-04-28 09:13:11,2022-01-25,3.2321508328340625,7.987773560947008,21.24406970926601,,,,,,,,,,,,
16021,0,USIdahoBoundary,Idaho,Boundary,2022-04-28 09:13:11,2022-01-26,3.2321508328340625,7.987773560947008,21.24406970926601,,,,,,,,,,,,
16021,0,USIdahoBoundary,Idaho,Boundary,2022-04-28 09:13:11,2022-01-27,2.7225989091436706,7.15112475315389,20.20617066464751,,,,,,,,,,,,
16021,0,USIdahoBoundary,Idaho,Boundary,2022-04-28 09:13:11,2022-01-28,2.7225989091436706,7.15112475315389,20.20617066464751,,,,,,,,,,,,
16021,0,USIdahoBoundary,Idaho,Boundary,2022-04-28 09:13:11,2022-01-29,2.7225989091436706,7.15112475315389,20.20617066464751,,,,,,,,,,,,
16021,0,USIdahoBoundary,Idaho,Boundary,2022-04-28 09:13:11,2022-01-30,2.7225989091436706,7.15112475315389,20.20617066464751,,,,,,,,,,,,
16021,0,USIdahoBoundary,Idaho,Boundary,2022-04-28 09:13:11,2022-01-31,2.7225989091436706,7.15112475315389,20.20617066464751,,,,,,,,,,,,
16021,0,USIdahoBoundary,Idaho,Boundary,2022-04-28 09:13:11,2022-02-01,2.7225989091436706,7.15112475315389,20.20617066464751,,,,,,,,,,,,
16021,0,USIdahoBoundary,Idaho,Boundary,2022-04-28 09:13:11,2022-02-02,2.7225989091436706,7.15112475315389,20.20617066464751,,,,,,,,,,,,
16021,0,USIdahoBoundary,Idaho,Boundary,2022-04-28 09:13:11,2022-02-03,2.3429995439774824,6.4296495051001825,18.970202716059113,,,,,,,,,,,,
16021,0,USIdahoBoundary,Idaho,Boundary,2022-04-28 09:13:11,2022-02-04,2.3429995439774824,6.4296495051001825,18.970202716059113,,,,,,,,,,,,
16021,0,USIdahoBoundary,Idaho,Boundary,2022-04-28 09:13:11,2022-02-05,2.3429995439774824,6.4296495051001825,18.970202716059113,,,,,,,,,,,,
16021,0,USIdahoBoundary,Idaho,Boundary,2022-04-28 09:13:11,2022-02-06,2.3429995439774824,6.4296495051001825,18.970202716059113,,,,,,,,,,,,
16021,0,USIdahoBoundary,Idaho,Boundary,2022-04-28 09:13:11,2022-02-07,2.3429995439774824,6.4296495051001825,18.970202716059113,,,,,,,,,,,,
16021,0,USIdahoBoundary,Idaho,Boundary,2022-04-28 09:13:11,2022-02-08,2.3429995439774824,6.4296495051001825,18.970202716059113,,,,,,,,,,,,
16021,0,USIdahoBoundary,Idaho,Boundary,2022-04-28 09:13:11,2022-02-09,2.3429995439774824,6.4296495051001825,18.970202716059113,,,,,,,,,,,,
16021,0,USIdahoBoundary,Idaho,Boundary,2022-04-28 09:13:11,2022-02-10,1.9012084510462368,5.547050966028812,17.38002412833332,,,,,,,,,,,,
16021,0,USIdahoBoundary,Idaho,Boundary,2022-04-28 09:13:11,2022-02-11,1.9012084510462368,5.547050966028812,17.38002412833332,,,,,,,,,,,,
16021,0,USIdahoBoundary,Idaho,Boundary,2022-04-28 09:13:11,2022-02-12,1.9012084510462368,5.547050966028812,17.38002412833332,,,,,,,,,,,,
16021,0,USIdahoBoundary,Idaho,Boundary,2022-04-28 09:13:11,2022-02-13,1.9012084510462368,5.547050966028812,17.38002412833332,,,,,,,,,,,,
16021,0,USIdahoBoundary,Idaho,Boundary,2022-04-28 09:13:11,2022-02-14,1.9012084510462368,5.547050966028812,17.38002412833332,,,,,,,,,,,,
16021,0,USIdahoBoundary,Idaho,Boundary,2022-04-28 09:13:11,2022-02-15,1.9012084510462368,5.547050966028812,17.38002412833332,,,,,,,,,,,,
16021,0,USIdahoBoundary,Idaho,Boundary,2022-04-28 09:13:11,2022-02-16,1.9012084510462368,5.547050966028812,17.38002412833332,,,,,,,,,,,,
16021,0,USIdahoBoundary,Idaho,Boundary,2022-04-28 09:13:11,2022-02-17,1.4682608375578563,4.623168644411615,15.601496144594169,,,,,,,,,,,,
16021,0,USIdahoBoundary,Idaho,Boundary,2022-04-28 09:13:11,2022-02-18,1.4682608375578563,4.623168644411615,15.601496144594169,,,,,,,,,,,,
16021,0,USIdahoBoundary,Idaho,Boundary,2022-04-28 09:13:11,2022-02-19,1.4682608375578563,4.623168644411615,15.601496144594169,,,,,,,,,,,,
16021,0,USIdahoBoundary,Idaho,Boundary,2022-04-28 09:13:11,2022-02-20,1.4682608375578563,4.623168644411615,15.601496144594169,,,,,,,,,,,,
16021,0,USIdahoBoundary,Idaho,Boundary,2022-04-28 09:13:11,2022-02-21,1.4682608375578563,4.623168644411615,15.601496144594169,,,,,,,,,,,,
16021,0,USIdahoBoundary,Idaho,Boundary,2022-04-28 09:13:11,2022-02-22,1.4682608375578563,4.623168644411615,15.601496144594169,,,,,,,,,,,,
16021,0,USIdahoBoundary,Idaho,Boundary,2022-04-28 09:13:11,2022-02-23,1.4682608375578563,4.623168644411615,15.601496144594169,,,,,,,,,,,,
16021,0,USIdahoBoundary,Idaho,Boundary,2022-04-28 09:13:11,2022-02-24,0.881168600004804,3.2284813081914985,12.611151670511358,,,,,,,,,,,,
16021,0,USIdahoBoundary,Idaho,Boundary,2022-04-28 09:13:11,2022-02-25,0.881168600004804,3.2284813081914985,12.611151670511358,,,,,,,,,,,,
16021,0,USIdahoBoundary,Idaho,Boundary,2022-04-28 09:13:11,2022-02-26,0.881168600004804,3.2284813081914985,12.611151670511358,,,,,,,,,,,,
16021,0,USIdahoBoundary,Idaho,Boundary,2022-04-28 09:13:11,2022-02-27,0.881168600004804,3.2284813081914985,12.611151670511358,,,,,,,,,,,,
16021,0,USIdahoBoundary,Idaho,Boundary,2022-04-28 09:13:11,2022-02-28,0.881168600004804,3.2284813081914985,12.611151670511358,,,,,,,,,,,,
16021,0,USIdahoBoundary,Idaho,Boundary,2022-04-28 09:13:11,2022-03-01,0.881168600004804,3.2284813081914985,12.611151670511358,,,,,,,,,,,,
16021,0,USIdahoBoundary,Idaho,Boundary,2022-04-28 09:13:11,2022-03-02,0.881168600004804,3.2284813081914985,12.611151670511358,,,,,,,,,,,,
16021,0,USIdahoBoundary,Idaho,Boundary,2022-04-28 09:13:11,2022-03-03,1.1382407995878219,3.864851183308318,14.030264887424346,,,,,,,,,,,,
16021,0,USIdahoBoundary,Idaho,Boundary,2022-04-28 09:13:11,2022-03-04,1.1382407995878219,3.864851183308318,14.030264887424346,,,,,,,,,,,,
16021,0,USIdahoBoundary,Idaho,Boundary,2022-04-28 09:13:11,2022-03-05,1.1382407995878219,3.864851183308318,14.030264887424346,,,,,,,,,,,,
16021,0,USIdahoBoundary,Idaho,Boundary,2022-04-28 09:13:11,2022-03-06,1.1382407995878219,3.864851183308318,14.030264887424346,,,,,,,,,,,,
16021,0,USIdahoBoundary,Idaho,Boundary,2022-04-28 09:13:11,2022-03-07,1.1382407995878219,3.864851183308318,14.030264887424346,,,,,,,,,,,,
16021,0,USIdahoBoundary,Idaho,Boundary,2022-04-28 09:13:11,2022-03-08,1.1382407995878219,3.864851183308318,14.030264887424346,,,,,,,,,,,,
16021,0,USIdahoBoundary,Idaho,Boundary,2022-04-28 09:13:11,2022-03-09,1.1382407995878219,3.864851183308318,14.030264887424346,,,,,,,,,,,,
16021,0,USIdahoBoundary,Idaho,Boundary,2022-04-28 09:13:11,2022-03-10,1.9012084510462368,5.547050966028812,17.38002412833332,,,,,,,,,,,,
16021,0,USIdahoBoundary,Idaho,Boundary,2022-04-28 09:13:11,2022-03-11,1.9012084510462368,5.547050966028812,17.38002412833332,,,,,,,,,,,,
16021,0,USIdahoBoundary,Idaho,Boundary,2022-04-28 09:13:11,2022-03-12,1.9012084510462368,5.547050966028812,17.38002412833332,,,,,,,,,,,,
16021,0,USIdahoBoundary,Idaho,Boundary,2022-04-28 09:13:11,2022-03-13,1.9012084510462368,5.547050966028812,17.38002412833332,,,,,,,,,,,,
16021,0,USIdahoBoundary,Idaho,Boundary,2022-04-28 09:13:11,2022-03-14,1.9012084510462368,5.547050966028812,17.38002412833332,,,,,,,,,,,,
16021,0,USIdahoBoundary,Idaho,Boundary,2022-04-28 09:13:11,2022-03-15,1.9012084510462368,5.547050966028812,17.38002412833332,,,,,,,,,,,,
16021,0,USIdahoBoundary,Idaho,Boundary,2022-04-28 09:13:11,2022-03-16,1.9012084510462368,5.547050966028812,17.38002412833332,,,,,,,,,,,,
16021,0,USIdahoBoundary,Idaho,Boundary,2022-04-28 09:13:11,2022-03-17,0.7842805277671974,2.4406033947182397,8.142562279045947,,,,,,,,,,,,
16021,0,USIdahoBoundary,Idaho,Boundary,2022-04-28 09:13:11,2022-03-18,0.7842805277671974,2.4406033947182397,8.142562279045947,,,,,,,,,,,,
16021,0,USIdahoBoundary,Idaho,Boundary,2022-04-28 09:13:11,2022-03-19,0.7842805277671974,2.4406033947182397,8.142562279045947,,,,,,,,,,,,
16021,0,USIdahoBoundary,Idaho,Boundary,2022-04-28 09:13:11,2022-03-20,0.7842805277671974,2.4406033947182397,8.142562279045947,,,,,,,,,,,,
16021,0,USIdahoBoundary,Idaho,Boundary,2022-04-28 09:13:11,2022-03-21,0.7842805277671974,2.4406033947182397,8.142562279045947,,,,,,,,,,,,
16021,0,USIdahoBoundary,Idaho,Boundary,2022-04-28 09:13:11,2022-03-22,0.7842805277671974,2.4406033947182397,8.142562279045947,,,,,,,,,,,,
16021,0,USIdahoBoundary,Idaho,Boundary,2022-04-28 09:13:11,2022-03-23,0.7842805277671974,2.4406033947182397,8.142562279045947,,,,,,,,,,,,
16021,0,USIdahoBoundary,Idaho,Boundary,2022-04-28 09:13:11,2022-03-24,0.2907978034534021,0.8773163664917063,2.8400447418027834,,,,,,,,,,,,
16021,0,USIdahoBoundary,Idaho,Boundary,2022-04-28 09:13:11,2022-03-25,0.2907978034534021,0.8773163664917063,2.8400447418027834,,,,,,,,,,,,
16021,0,USIdahoBoundary,Idaho,Boundary,2022-04-28 09:13:11,2022-03-26,0.2907978034534021,0.8773163664917063,2.8400447418027834,,,,,,,,,,,,
16021,0,USIdahoBoundary,Idaho,Boundary,2022-04-28 09:13:11,2022-03-27,0.2907978034534021,0.8773163664917063,2.8400447418027834,,,,,,,,,,,,
16021,0,USIdahoBoundary,Idaho,Boundary,2022-04-28 09:13:11,2022-03-28,0.2907978034534021,0.8773163664917063,2.8400447418027834,,,,,,,,,,,,
16021,0,USIdahoBoundary,Idaho,Boundary,2022-04-28 09:13:11,2022-03-29,0.2907978034534021,0.8773163664917063,2.8400447418027834,,,,,,,,,,,,
16021,0,USIdahoBoundary,Idaho,Boundary,2022-04-28 09:13:11,2022-03-30,0.2907978034534021,0.8773163664917063,2.8400447418027834,,,,,,,,,,,,
16021,0,USIdahoBoundary,Idaho,Boundary,2022-04-28 09:13:11,2022-03-31,0.09679404980872314,0.4425964162291164,2.1376339801740794,,,,,,,,,,,,
16021,0,USIdahoBoundary,Idaho,Boundary,2022-04-28 09:13:11,2022-04-01,0.09679404980872314,0.4425964162291164,2.1376339801740794,,,,,,,,,,,,
16021,0,USIdahoBoundary,Idaho,Boundary,2022-04-28 09:13:11,2022-04-02,0.09679404980872314,0.4425964162291164,2.1376339801740794,,,,,,,,,,,,
16021,0,USIdahoBoundary,Idaho,Boundary,2022-04-28 09:13:11,2022-04-03,0.09679404980872314,0.4425964162291164,2.1376339801740794,,,,,,,,,,,,
16021,0,USIdahoBoundary,Idaho,Boundary,2022-04-28 09:13:11,2022-04-04,0.09679404980872314,0.4425964162291164,2.1376339801740794,,,,,,,,,,,,
16021,0,USIdahoBoundary,Idaho,Boundary,2022-04-28 09:13:11,2022-04-05,0.09679404980872314,0.4425964162291164,2.1376339801740794,,,,,,,,,,,,
16021,0,USIdahoBoundary,Idaho,Boundary,2022-04-28 09:13:11,2022-04-06,0.09679404980872314,0.4425964162291164,2.1376339801740794,,,,,,,,,,,,
