FIPS,HR_UID,nameid,province,region,analysisTime,dates,pointprevalence_025,pointprevalence_50,pointprevalence_975,pointinfections_025,pointinfections_50,pointinfections_975,pointinfectious_025,pointinfectious_50,pointinfectious_975,pointinfectiousprevalence_025,pointinfectiousprevalence_50,pointinfectiousprevalence_975,infectrate_025,infectrate_50,infectrate_975
49,0,USUtah,Utah,"",2022-04-28 09:13:11,2020-03-19,0.0669935530219823,0.2132673245561669,0.727383625284532,,,,,,,,,,,,
49,0,USUtah,Utah,"",2022-04-28 09:13:11,2020-03-20,0.0669935530219823,0.2132673245561669,0.727383625284532,,,,,,,,,,,,
49,0,USUtah,Utah,"",2022-04-28 09:13:11,2020-03-21,0.0669935530219823,0.2132673245561669,0.727383625284532,,,,,,,,,,,,
49,0,USUtah,Utah,"",2022-04-28 09:13:11,2020-03-22,0.0669935530219823,0.2132673245561669,0.727383625284532,,,,,,,,,,,,
49,0,USUtah,Utah,"",2022-04-28 09:13:11,2020-03-23,0.0669935530219823,0.2132673245561669,0.727383625284532,,,,,,,,,,,,
49,0,USUtah,Utah,"",2022-04-28 09:13:11,2020-03-24,0.0669935530219823,0.2132673245561669,0.727383625284532,,,,,,,,,,,,
49,0,USUtah,Utah,"",2022-04-28 09:13:11,2020-03-25,0.0669935530219823,0.2132673245561669,0.727383625284532,,,,,,,,,,,,
49,0,USUtah,Utah,"",2022-04-28 09:13:11,2020-03-26,0.12114885096918587,0.30765267804494095,0.8406936646238414,,,,,,,,,,,,
49,0,USUtah,Utah,"",2022-04-28 09:13:11,2020-03-27,0.12114885096918587,0.30765267804494095,0.8406936646238414,,,,,,,,,,,,
49,0,USUtah,Utah,"",2022-04-28 09:13:11,2020-03-28,0.12114885096918587,0.30765267804494095,0.8406936646238414,,,,,,,,,,,,
49,0,USUtah,Utah,"",2022-04-28 09:13:11,2020-03-29,0.12114885096918587,0.30765267804494095,0.8406936646238414,,,,,,,,,,,,
49,0,USUtah,Utah,"",2022-04-28 09:13:11,2020-03-30,0.12114885096918587,0.30765267804494095,0.8406936646238414,,,,,,,,,,,,
49,0,USUtah,Utah,"",2022-04-28 09:13:11,2020-03-31,0.12114885096918587,0.30765267804494095,0.8406936646238414,,,,,,,,,,,,
49,0,USUtah,Utah,"",2022-04-28 09:13:11,2020-04-01,0.12114885096918587,0.30765267804494095,0.8406936646238414,,,,,,,,,,,,
49,0,USUtah,Utah,"",2022-04-28 09:13:11,2020-04-02,0.1536831379334823,0.394711989572239,1.0907837581518687,,,,,,,,,,,,
49,0,USUtah,Utah,"",2022-04-28 09:13:11,2020-04-03,0.1536831379334823,0.394711989572239,1.0907837581518687,,,,,,,,,,,,
49,0,USUtah,Utah,"",2022-04-28 09:13:11,2020-04-04,0.1536831379334823,0.394711989572239,1.0907837581518687,,,,,,,,,,,,
49,0,USUtah,Utah,"",2022-04-28 09:13:11,2020-04-05,0.1536831379334823,0.394711989572239,1.0907837581518687,,,,,,,,,,,,
49,0,USUtah,Utah,"",2022-04-28 09:13:11,2020-04-06,0.1536831379334823,0.394711989572239,1.0907837581518687,,,,,,,,,,,,
49,0,USUtah,Utah,"",2022-04-28 09:13:11,2020-04-07,0.1536831379334823,0.394711989572239,1.0907837581518687,,,,,,,,,,,,
49,0,USUtah,Utah,"",2022-04-28 09:13:11,2020-04-08,0.1536831379334823,0.394711989572239,1.0907837581518687,,,,,,,,,,,,
49,0,USUtah,Utah,"",2022-04-28 09:13:11,2020-04-09,0.13272050155160947,0.3511993298285975,0.9996628615303602,,,,,,,,,,,,
49,0,USUtah,Utah,"",2022-04-28 09:13:11,2020-04-10,0.13272050155160947,0.3511993298285975,0.9996628615303602,,,,,,,,,,,,
49,0,USUtah,Utah,"",2022-04-28 09:13:11,2020-04-11,0.13272050155160947,0.3511993298285975,0.9996628615303602,,,,,,,,,,,,
49,0,USUtah,Utah,"",2022-04-28 09:13:11,2020-04-12,0.13272050155160947,0.3511993298285975,0.9996628615303602,,,,,,,,,,,,
49,0,USUtah,Utah,"",2022-04-28 09:13:11,2020-04-13,0.13272050155160947,0.3511993298285975,0.9996628615303602,,,,,,,,,,,,
49,0,USUtah,Utah,"",2022-04-28 09:13:11,2020-04-14,0.13272050155160947,0.3511993298285975,0.9996628615303602,,,,,,,,,,,,
49,0,USUtah,Utah,"",2022-04-28 09:13:11,2020-04-15,0.13272050155160947,0.3511993298285975,0.9996628615303602,,,,,,,,,,,,
49,0,USUtah,Utah,"",2022-04-28 09:13:11,2020-04-16,0.14213792315683632,0.3175725481512054,0.7630507937923254,,,,,,,,,,,,
49,0,USUtah,Utah,"",2022-04-28 09:13:11,2020-04-17,0.14213792315683632,0.3175725481512054,0.7630507937923254,,,,,,,,,,,,
49,0,USUtah,Utah,"",2022-04-28 09:13:11,2020-04-18,0.14213792315683632,0.3175725481512054,0.7630507937923254,,,,,,,,,,,,
49,0,USUtah,Utah,"",2022-04-28 09:13:11,2020-04-19,0.14213792315683632,0.3175725481512054,0.7630507937923254,,,,,,,,,,,,
49,0,USUtah,Utah,"",2022-04-28 09:13:11,2020-04-20,0.14213792315683632,0.3175725481512054,0.7630507937923254,,,,,,,,,,,,
49,0,USUtah,Utah,"",2022-04-28 09:13:11,2020-04-21,0.14213792315683632,0.3175725481512054,0.7630507937923254,,,,,,,,,,,,
49,0,USUtah,Utah,"",2022-04-28 09:13:11,2020-04-22,0.14213792315683632,0.3175725481512054,0.7630507937923254,,,,,,,,,,,,
49,0,USUtah,Utah,"",2022-04-28 09:13:11,2020-04-23,0.16562558335978056,0.37074841454575597,0.8925272962146935,,,,,,,,,,,,
49,0,USUtah,Utah,"",2022-04-28 09:13:11,2020-04-24,0.16562558335978056,0.37074841454575597,0.8925272962146935,,,,,,,,,,,,
49,0,USUtah,Utah,"",2022-04-28 09:13:11,2020-04-25,0.16562558335978056,0.37074841454575597,0.8925272962146935,,,,,,,,,,,,
49,0,USUtah,Utah,"",2022-04-28 09:13:11,2020-04-26,0.16562558335978056,0.37074841454575597,0.8925272962146935,,,,,,,,,,,,
49,0,USUtah,Utah,"",2022-04-28 09:13:11,2020-04-27,0.16562558335978056,0.37074841454575597,0.8925272962146935,,,,,,,,,,,,
49,0,USUtah,Utah,"",2022-04-28 09:13:11,2020-04-28,0.16562558335978056,0.37074841454575597,0.8925272962146935,,,,,,,,,,,,
49,0,USUtah,Utah,"",2022-04-28 09:13:11,2020-04-29,0.16562558335978056,0.37074841454575597,0.8925272962146935,,,,,,,,,,,,
49,0,USUtah,Utah,"",2022-04-28 09:13:11,2020-04-30,0.17580470201871953,0.3981742151270181,0.9700168181259664,,,,,,,,,,,,
49,0,USUtah,Utah,"",2022-04-28 09:13:11,2020-05-01,0.17580470201871953,0.3981742151270181,0.9700168181259664,,,,,,,,,,,,
49,0,USUtah,Utah,"",2022-04-28 09:13:11,2020-05-02,0.17580470201871953,0.3981742151270181,0.9700168181259664,,,,,,,,,,,,
49,0,USUtah,Utah,"",2022-04-28 09:13:11,2020-05-03,0.17580470201871953,0.3981742151270181,0.9700168181259664,,,,,,,,,,,,
49,0,USUtah,Utah,"",2022-04-28 09:13:11,2020-05-04,0.17580470201871953,0.3981742151270181,0.9700168181259664,,,,,,,,,,,,
49,0,USUtah,Utah,"",2022-04-28 09:13:11,2020-05-05,0.17580470201871953,0.3981742151270181,0.9700168181259664,,,,,,,,,,,,
49,0,USUtah,Utah,"",2022-04-28 09:13:11,2020-05-06,0.17580470201871953,0.3981742151270181,0.9700168181259664,,,,,,,,,,,,
49,0,USUtah,Utah,"",2022-04-28 09:13:11,2020-05-07,0.1638291199349553,0.3710735580786076,0.904050628789687,,,,,,,,,,,,
49,0,USUtah,Utah,"",2022-04-28 09:13:11,2020-05-08,0.1638291199349553,0.3710735580786076,0.904050628789687,,,,,,,,,,,,
49,0,USUtah,Utah,"",2022-04-28 09:13:11,2020-05-09,0.1638291199349553,0.3710735580786076,0.904050628789687,,,,,,,,,,,,
49,0,USUtah,Utah,"",2022-04-28 09:13:11,2020-05-10,0.1638291199349553,0.3710735580786076,0.904050628789687,,,,,,,,,,,,
49,0,USUtah,Utah,"",2022-04-28 09:13:11,2020-05-11,0.1638291199349553,0.3710735580786076,0.904050628789687,,,,,,,,,,,,
49,0,USUtah,Utah,"",2022-04-28 09:13:11,2020-05-12,0.1638291199349553,0.3710735580786076,0.904050628789687,,,,,,,,,,,,
49,0,USUtah,Utah,"",2022-04-28 09:13:11,2020-05-13,0.1638291199349553,0.3710735580786076,0.904050628789687,,,,,,,,,,,,
49,0,USUtah,Utah,"",2022-04-28 09:13:11,2020-05-14,0.17463124476590386,0.39637683106607796,0.967766087388668,,,,,,,,,,,,
49,0,USUtah,Utah,"",2022-04-28 09:13:11,2020-05-15,0.17463124476590386,0.39637683106607796,0.967766087388668,,,,,,,,,,,,
49,0,USUtah,Utah,"",2022-04-28 09:13:11,2020-05-16,0.17463124476590386,0.39637683106607796,0.967766087388668,,,,,,,,,,,,
49,0,USUtah,Utah,"",2022-04-28 09:13:11,2020-05-17,0.17463124476590386,0.39637683106607796,0.967766087388668,,,,,,,,,,,,
49,0,USUtah,Utah,"",2022-04-28 09:13:11,2020-05-18,0.17463124476590386,0.39637683106607796,0.967766087388668,,,,,,,,,,,,
49,0,USUtah,Utah,"",2022-04-28 09:13:11,2020-05-19,0.17463124476590386,0.39637683106607796,0.967766087388668,,,,,,,,,,,,
49,0,USUtah,Utah,"",2022-04-28 09:13:11,2020-05-20,0.17463124476590386,0.39637683106607796,0.967766087388668,,,,,,,,,,,,
49,0,USUtah,Utah,"",2022-04-28 09:13:11,2020-05-21,0.16435651665167708,0.38299864841903114,0.960291927212447,,,,,,,,,,,,
49,0,USUtah,Utah,"",2022-04-28 09:13:11,2020-05-22,0.16435651665167708,0.38299864841903114,0.960291927212447,,,,,,,,,,,,
49,0,USUtah,Utah,"",2022-04-28 09:13:11,2020-05-23,0.16435651665167708,0.38299864841903114,0.960291927212447,,,,,,,,,,,,
49,0,USUtah,Utah,"",2022-04-28 09:13:11,2020-05-24,0.16435651665167708,0.38299864841903114,0.960291927212447,,,,,,,,,,,,
49,0,USUtah,Utah,"",2022-04-28 09:13:11,2020-05-25,0.16435651665167708,0.38299864841903114,0.960291927212447,,,,,,,,,,,,
49,0,USUtah,Utah,"",2022-04-28 09:13:11,2020-05-26,0.16435651665167708,0.38299864841903114,0.960291927212447,,,,,,,,,,,,
49,0,USUtah,Utah,"",2022-04-28 09:13:11,2020-05-27,0.16435651665167708,0.38299864841903114,0.960291927212447,,,,,,,,,,,,
49,0,USUtah,Utah,"",2022-04-28 09:13:11,2020-05-28,0.28024462446340603,0.6228190175773292,1.4884225291297053,,,,,,,,,,,,
49,0,USUtah,Utah,"",2022-04-28 09:13:11,2020-05-29,0.28024462446340603,0.6228190175773292,1.4884225291297053,,,,,,,,,,,,
49,0,USUtah,Utah,"",2022-04-28 09:13:11,2020-05-30,0.28024462446340603,0.6228190175773292,1.4884225291297053,,,,,,,,,,,,
49,0,USUtah,Utah,"",2022-04-28 09:13:11,2020-05-31,0.28024462446340603,0.6228190175773292,1.4884225291297053,,,,,,,,,,,,
49,0,USUtah,Utah,"",2022-04-28 09:13:11,2020-06-01,0.28024462446340603,0.6228190175773292,1.4884225291297053,,,,,,,,,,,,
49,0,USUtah,Utah,"",2022-04-28 09:13:11,2020-06-02,0.28024462446340603,0.6228190175773292,1.4884225291297053,,,,,,,,,,,,
49,0,USUtah,Utah,"",2022-04-28 09:13:11,2020-06-03,0.28024462446340603,0.6228190175773292,1.4884225291297053,,,,,,,,,,,,
49,0,USUtah,Utah,"",2022-04-28 09:13:11,2020-06-04,0.35752376239700023,0.7697941695530915,1.7811882841869568,,,,,,,,,,,,
49,0,USUtah,Utah,"",2022-04-28 09:13:11,2020-06-05,0.35752376239700023,0.7697941695530915,1.7811882841869568,,,,,,,,,,,,
49,0,USUtah,Utah,"",2022-04-28 09:13:11,2020-06-06,0.35752376239700023,0.7697941695530915,1.7811882841869568,,,,,,,,,,,,
49,0,USUtah,Utah,"",2022-04-28 09:13:11,2020-06-07,0.35752376239700023,0.7697941695530915,1.7811882841869568,,,,,,,,,,,,
49,0,USUtah,Utah,"",2022-04-28 09:13:11,2020-06-08,0.35752376239700023,0.7697941695530915,1.7811882841869568,,,,,,,,,,,,
49,0,USUtah,Utah,"",2022-04-28 09:13:11,2020-06-09,0.35752376239700023,0.7697941695530915,1.7811882841869568,,,,,,,,,,,,
49,0,USUtah,Utah,"",2022-04-28 09:13:11,2020-06-10,0.35752376239700023,0.7697941695530915,1.7811882841869568,,,,,,,,,,,,
49,0,USUtah,Utah,"",2022-04-28 09:13:11,2020-06-11,0.3726547116676619,0.7986407261582538,1.8391369321482807,,,,,,,,,,,,
49,0,USUtah,Utah,"",2022-04-28 09:13:11,2020-06-12,0.3726547116676619,0.7986407261582538,1.8391369321482807,,,,,,,,,,,,
49,0,USUtah,Utah,"",2022-04-28 09:13:11,2020-06-13,0.3726547116676619,0.7986407261582538,1.8391369321482807,,,,,,,,,,,,
49,0,USUtah,Utah,"",2022-04-28 09:13:11,2020-06-14,0.3726547116676619,0.7986407261582538,1.8391369321482807,,,,,,,,,,,,
49,0,USUtah,Utah,"",2022-04-28 09:13:11,2020-06-15,0.3726547116676619,0.7986407261582538,1.8391369321482807,,,,,,,,,,,,
49,0,USUtah,Utah,"",2022-04-28 09:13:11,2020-06-16,0.3726547116676619,0.7986407261582538,1.8391369321482807,,,,,,,,,,,,
49,0,USUtah,Utah,"",2022-04-28 09:13:11,2020-06-17,0.3726547116676619,0.7986407261582538,1.8391369321482807,,,,,,,,,,,,
49,0,USUtah,Utah,"",2022-04-28 09:13:11,2020-06-18,0.5044466228980127,1.0575781558384096,2.3810918219423374,,,,,,,,,,,,
49,0,USUtah,Utah,"",2022-04-28 09:13:11,2020-06-19,0.5044466228980127,1.0575781558384096,2.3810918219423374,,,,,,,,,,,,
49,0,USUtah,Utah,"",2022-04-28 09:13:11,2020-06-20,0.5044466228980127,1.0575781558384096,2.3810918219423374,,,,,,,,,,,,
49,0,USUtah,Utah,"",2022-04-28 09:13:11,2020-06-21,0.5044466228980127,1.0575781558384096,2.3810918219423374,,,,,,,,,,,,
49,0,USUtah,Utah,"",2022-04-28 09:13:11,2020-06-22,0.5044466228980127,1.0575781558384096,2.3810918219423374,,,,,,,,,,,,
49,0,USUtah,Utah,"",2022-04-28 09:13:11,2020-06-23,0.5044466228980127,1.0575781558384096,2.3810918219423374,,,,,,,,,,,,
49,0,USUtah,Utah,"",2022-04-28 09:13:11,2020-06-24,0.5044466228980127,1.0575781558384096,2.3810918219423374,,,,,,,,,,,,
49,0,USUtah,Utah,"",2022-04-28 09:13:11,2020-06-25,0.5524527496365197,1.1142785910470423,2.410501348511866,,,,,,,,,,,,
49,0,USUtah,Utah,"",2022-04-28 09:13:11,2020-06-26,0.5524527496365197,1.1142785910470423,2.410501348511866,,,,,,,,,,,,
49,0,USUtah,Utah,"",2022-04-28 09:13:11,2020-06-27,0.5524527496365197,1.1142785910470423,2.410501348511866,,,,,,,,,,,,
49,0,USUtah,Utah,"",2022-04-28 09:13:11,2020-06-28,0.5524527496365197,1.1142785910470423,2.410501348511866,,,,,,,,,,,,
49,0,USUtah,Utah,"",2022-04-28 09:13:11,2020-06-29,0.5524527496365197,1.1142785910470423,2.410501348511866,,,,,,,,,,,,
49,0,USUtah,Utah,"",2022-04-28 09:13:11,2020-06-30,0.5524527496365197,1.1142785910470423,2.410501348511866,,,,,,,,,,,,
49,0,USUtah,Utah,"",2022-04-28 09:13:11,2020-07-01,0.5524527496365197,1.1142785910470423,2.410501348511866,,,,,,,,,,,,
49,0,USUtah,Utah,"",2022-04-28 09:13:11,2020-07-02,0.5745839896819308,1.1720390235739548,2.565197738930735,,,,,,,,,,,,
49,0,USUtah,Utah,"",2022-04-28 09:13:11,2020-07-03,0.5745839896819308,1.1720390235739548,2.565197738930735,,,,,,,,,,,,
49,0,USUtah,Utah,"",2022-04-28 09:13:11,2020-07-04,0.5745839896819308,1.1720390235739548,2.565197738930735,,,,,,,,,,,,
49,0,USUtah,Utah,"",2022-04-28 09:13:11,2020-07-05,0.5745839896819308,1.1720390235739548,2.565197738930735,,,,,,,,,,,,
49,0,USUtah,Utah,"",2022-04-28 09:13:11,2020-07-06,0.5745839896819308,1.1720390235739548,2.565197738930735,,,,,,,,,,,,
49,0,USUtah,Utah,"",2022-04-28 09:13:11,2020-07-07,0.5745839896819308,1.1720390235739548,2.565197738930735,,,,,,,,,,,,
49,0,USUtah,Utah,"",2022-04-28 09:13:11,2020-07-08,0.5745839896819308,1.1720390235739548,2.565197738930735,,,,,,,,,,,,
49,0,USUtah,Utah,"",2022-04-28 09:13:11,2020-07-09,0.561935415240233,1.0993864488612703,2.30405051698756,,,,,,,,,,,,
49,0,USUtah,Utah,"",2022-04-28 09:13:11,2020-07-10,0.561935415240233,1.0993864488612703,2.30405051698756,,,,,,,,,,,,
49,0,USUtah,Utah,"",2022-04-28 09:13:11,2020-07-11,0.561935415240233,1.0993864488612703,2.30405051698756,,,,,,,,,,,,
49,0,USUtah,Utah,"",2022-04-28 09:13:11,2020-07-12,0.561935415240233,1.0993864488612703,2.30405051698756,,,,,,,,,,,,
49,0,USUtah,Utah,"",2022-04-28 09:13:11,2020-07-13,0.561935415240233,1.0993864488612703,2.30405051698756,,,,,,,,,,,,
49,0,USUtah,Utah,"",2022-04-28 09:13:11,2020-07-14,0.561935415240233,1.0993864488612703,2.30405051698756,,,,,,,,,,,,
49,0,USUtah,Utah,"",2022-04-28 09:13:11,2020-07-15,0.561935415240233,1.0993864488612703,2.30405051698756,,,,,,,,,,,,
49,0,USUtah,Utah,"",2022-04-28 09:13:11,2020-07-16,0.639156105269405,1.2546753673251148,2.638744418386368,,,,,,,,,,,,
49,0,USUtah,Utah,"",2022-04-28 09:13:11,2020-07-17,0.639156105269405,1.2546753673251148,2.638744418386368,,,,,,,,,,,,
49,0,USUtah,Utah,"",2022-04-28 09:13:11,2020-07-18,0.639156105269405,1.2546753673251148,2.638744418386368,,,,,,,,,,,,
49,0,USUtah,Utah,"",2022-04-28 09:13:11,2020-07-19,0.639156105269405,1.2546753673251148,2.638744418386368,,,,,,,,,,,,
49,0,USUtah,Utah,"",2022-04-28 09:13:11,2020-07-20,0.639156105269405,1.2546753673251148,2.638744418386368,,,,,,,,,,,,
49,0,USUtah,Utah,"",2022-04-28 09:13:11,2020-07-21,0.639156105269405,1.2546753673251148,2.638744418386368,,,,,,,,,,,,
49,0,USUtah,Utah,"",2022-04-28 09:13:11,2020-07-22,0.639156105269405,1.2546753673251148,2.638744418386368,,,,,,,,,,,,
49,0,USUtah,Utah,"",2022-04-28 09:13:11,2020-07-23,0.5096789011446364,1.0309841666187272,2.237012986782711,,,,,,,,,,,,
49,0,USUtah,Utah,"",2022-04-28 09:13:11,2020-07-24,0.5096789011446364,1.0309841666187272,2.237012986782711,,,,,,,,,,,,
49,0,USUtah,Utah,"",2022-04-28 09:13:11,2020-07-25,0.5096789011446364,1.0309841666187272,2.237012986782711,,,,,,,,,,,,
49,0,USUtah,Utah,"",2022-04-28 09:13:11,2020-07-26,0.5096789011446364,1.0309841666187272,2.237012986782711,,,,,,,,,,,,
49,0,USUtah,Utah,"",2022-04-28 09:13:11,2020-07-27,0.5096789011446364,1.0309841666187272,2.237012986782711,,,,,,,,,,,,
49,0,USUtah,Utah,"",2022-04-28 09:13:11,2020-07-28,0.5096789011446364,1.0309841666187272,2.237012986782711,,,,,,,,,,,,
49,0,USUtah,Utah,"",2022-04-28 09:13:11,2020-07-29,0.5096789011446364,1.0309841666187272,2.237012986782711,,,,,,,,,,,,
49,0,USUtah,Utah,"",2022-04-28 09:13:11,2020-07-30,0.4525338489240371,0.9356083494217132,2.0764483763221078,,,,,,,,,,,,
49,0,USUtah,Utah,"",2022-04-28 09:13:11,2020-07-31,0.4525338489240371,0.9356083494217132,2.0764483763221078,,,,,,,,,,,,
49,0,USUtah,Utah,"",2022-04-28 09:13:11,2020-08-01,0.4525338489240371,0.9356083494217132,2.0764483763221078,,,,,,,,,,,,
49,0,USUtah,Utah,"",2022-04-28 09:13:11,2020-08-02,0.4525338489240371,0.9356083494217132,2.0764483763221078,,,,,,,,,,,,
49,0,USUtah,Utah,"",2022-04-28 09:13:11,2020-08-03,0.4525338489240371,0.9356083494217132,2.0764483763221078,,,,,,,,,,,,
49,0,USUtah,Utah,"",2022-04-28 09:13:11,2020-08-04,0.4525338489240371,0.9356083494217132,2.0764483763221078,,,,,,,,,,,,
49,0,USUtah,Utah,"",2022-04-28 09:13:11,2020-08-05,0.4525338489240371,0.9356083494217132,2.0764483763221078,,,,,,,,,,,,
49,0,USUtah,Utah,"",2022-04-28 09:13:11,2020-08-06,0.40316577814555826,0.8417419445943418,1.8870712713875095,,,,,,,,,,,,
49,0,USUtah,Utah,"",2022-04-28 09:13:11,2020-08-07,0.40316577814555826,0.8417419445943418,1.8870712713875095,,,,,,,,,,,,
49,0,USUtah,Utah,"",2022-04-28 09:13:11,2020-08-08,0.40316577814555826,0.8417419445943418,1.8870712713875095,,,,,,,,,,,,
49,0,USUtah,Utah,"",2022-04-28 09:13:11,2020-08-09,0.40316577814555826,0.8417419445943418,1.8870712713875095,,,,,,,,,,,,
49,0,USUtah,Utah,"",2022-04-28 09:13:11,2020-08-10,0.40316577814555826,0.8417419445943418,1.8870712713875095,,,,,,,,,,,,
49,0,USUtah,Utah,"",2022-04-28 09:13:11,2020-08-11,0.40316577814555826,0.8417419445943418,1.8870712713875095,,,,,,,,,,,,
49,0,USUtah,Utah,"",2022-04-28 09:13:11,2020-08-12,0.40316577814555826,0.8417419445943418,1.8870712713875095,,,,,,,,,,,,
49,0,USUtah,Utah,"",2022-04-28 09:13:11,2020-08-13,0.35512382982860347,0.7419546906035716,1.664553965035868,,,,,,,,,,,,
49,0,USUtah,Utah,"",2022-04-28 09:13:11,2020-08-14,0.35512382982860347,0.7419546906035716,1.664553965035868,,,,,,,,,,,,
49,0,USUtah,Utah,"",2022-04-28 09:13:11,2020-08-15,0.35512382982860347,0.7419546906035716,1.664553965035868,,,,,,,,,,,,
49,0,USUtah,Utah,"",2022-04-28 09:13:11,2020-08-16,0.35512382982860347,0.7419546906035716,1.664553965035868,,,,,,,,,,,,
49,0,USUtah,Utah,"",2022-04-28 09:13:11,2020-08-17,0.35512382982860347,0.7419546906035716,1.664553965035868,,,,,,,,,,,,
49,0,USUtah,Utah,"",2022-04-28 09:13:11,2020-08-18,0.35512382982860347,0.7419546906035716,1.664553965035868,,,,,,,,,,,,
49,0,USUtah,Utah,"",2022-04-28 09:13:11,2020-08-19,0.35512382982860347,0.7419546906035716,1.664553965035868,,,,,,,,,,,,
49,0,USUtah,Utah,"",2022-04-28 09:13:11,2020-08-20,0.39166862829513166,0.8261400118585269,1.8716678205697626,,,,,,,,,,,,
49,0,USUtah,Utah,"",2022-04-28 09:13:11,2020-08-21,0.39166862829513166,0.8261400118585269,1.8716678205697626,,,,,,,,,,,,
49,0,USUtah,Utah,"",2022-04-28 09:13:11,2020-08-22,0.39166862829513166,0.8261400118585269,1.8716678205697626,,,,,,,,,,,,
49,0,USUtah,Utah,"",2022-04-28 09:13:11,2020-08-23,0.39166862829513166,0.8261400118585269,1.8716678205697626,,,,,,,,,,,,
49,0,USUtah,Utah,"",2022-04-28 09:13:11,2020-08-24,0.39166862829513166,0.8261400118585269,1.8716678205697626,,,,,,,,,,,,
49,0,USUtah,Utah,"",2022-04-28 09:13:11,2020-08-25,0.39166862829513166,0.8261400118585269,1.8716678205697626,,,,,,,,,,,,
49,0,USUtah,Utah,"",2022-04-28 09:13:11,2020-08-26,0.39166862829513166,0.8261400118585269,1.8716678205697626,,,,,,,,,,,,
49,0,USUtah,Utah,"",2022-04-28 09:13:11,2020-08-27,0.3868015227141301,0.808096980823269,1.8128466364930682,,,,,,,,,,,,
49,0,USUtah,Utah,"",2022-04-28 09:13:11,2020-08-28,0.3868015227141301,0.808096980823269,1.8128466364930682,,,,,,,,,,,,
49,0,USUtah,Utah,"",2022-04-28 09:13:11,2020-08-29,0.3868015227141301,0.808096980823269,1.8128466364930682,,,,,,,,,,,,
49,0,USUtah,Utah,"",2022-04-28 09:13:11,2020-08-30,0.3868015227141301,0.808096980823269,1.8128466364930682,,,,,,,,,,,,
49,0,USUtah,Utah,"",2022-04-28 09:13:11,2020-08-31,0.3868015227141301,0.808096980823269,1.8128466364930682,,,,,,,,,,,,
49,0,USUtah,Utah,"",2022-04-28 09:13:11,2020-09-01,0.3868015227141301,0.808096980823269,1.8128466364930682,,,,,,,,,,,,
49,0,USUtah,Utah,"",2022-04-28 09:13:11,2020-09-02,0.3868015227141301,0.808096980823269,1.8128466364930682,,,,,,,,,,,,
49,0,USUtah,Utah,"",2022-04-28 09:13:11,2020-09-03,0.4231769405861131,0.8969506198181539,2.0422645513598887,,,,,,,,,,,,
49,0,USUtah,Utah,"",2022-04-28 09:13:11,2020-09-04,0.4231769405861131,0.8969506198181539,2.0422645513598887,,,,,,,,,,,,
49,0,USUtah,Utah,"",2022-04-28 09:13:11,2020-09-05,0.4231769405861131,0.8969506198181539,2.0422645513598887,,,,,,,,,,,,
49,0,USUtah,Utah,"",2022-04-28 09:13:11,2020-09-06,0.4231769405861131,0.8969506198181539,2.0422645513598887,,,,,,,,,,,,
49,0,USUtah,Utah,"",2022-04-28 09:13:11,2020-09-07,0.4231769405861131,0.8969506198181539,2.0422645513598887,,,,,,,,,,,,
49,0,USUtah,Utah,"",2022-04-28 09:13:11,2020-09-08,0.4231769405861131,0.8969506198181539,2.0422645513598887,,,,,,,,,,,,
49,0,USUtah,Utah,"",2022-04-28 09:13:11,2020-09-09,0.4231769405861131,0.8969506198181539,2.0422645513598887,,,,,,,,,,,,
49,0,USUtah,Utah,"",2022-04-28 09:13:11,2020-09-10,0.5704263612476815,1.1469263134293515,2.4730639097181086,,,,,,,,,,,,
49,0,USUtah,Utah,"",2022-04-28 09:13:11,2020-09-11,0.5704263612476815,1.1469263134293515,2.4730639097181086,,,,,,,,,,,,
49,0,USUtah,Utah,"",2022-04-28 09:13:11,2020-09-12,0.5704263612476815,1.1469263134293515,2.4730639097181086,,,,,,,,,,,,
49,0,USUtah,Utah,"",2022-04-28 09:13:11,2020-09-13,0.5704263612476815,1.1469263134293515,2.4730639097181086,,,,,,,,,,,,
49,0,USUtah,Utah,"",2022-04-28 09:13:11,2020-09-14,0.5704263612476815,1.1469263134293515,2.4730639097181086,,,,,,,,,,,,
49,0,USUtah,Utah,"",2022-04-28 09:13:11,2020-09-15,0.5704263612476815,1.1469263134293515,2.4730639097181086,,,,,,,,,,,,
49,0,USUtah,Utah,"",2022-04-28 09:13:11,2020-09-16,0.5704263612476815,1.1469263134293515,2.4730639097181086,,,,,,,,,,,,
49,0,USUtah,Utah,"",2022-04-28 09:13:11,2020-09-17,0.8197174984804598,1.570422697237054,3.2197463746226416,,,,,,,,,,,,
49,0,USUtah,Utah,"",2022-04-28 09:13:11,2020-09-18,0.8197174984804598,1.570422697237054,3.2197463746226416,,,,,,,,,,,,
49,0,USUtah,Utah,"",2022-04-28 09:13:11,2020-09-19,0.8197174984804598,1.570422697237054,3.2197463746226416,,,,,,,,,,,,
49,0,USUtah,Utah,"",2022-04-28 09:13:11,2020-09-20,0.8197174984804598,1.570422697237054,3.2197463746226416,,,,,,,,,,,,
49,0,USUtah,Utah,"",2022-04-28 09:13:11,2020-09-21,0.8197174984804598,1.570422697237054,3.2197463746226416,,,,,,,,,,,,
49,0,USUtah,Utah,"",2022-04-28 09:13:11,2020-09-22,0.8197174984804598,1.570422697237054,3.2197463746226416,,,,,,,,,,,,
49,0,USUtah,Utah,"",2022-04-28 09:13:11,2020-09-23,0.8197174984804598,1.570422697237054,3.2197463746226416,,,,,,,,,,,,
49,0,USUtah,Utah,"",2022-04-28 09:13:11,2020-09-24,0.921622736926588,1.7250150175391832,3.4511156669394283,,,,,,,,,,,,
49,0,USUtah,Utah,"",2022-04-28 09:13:11,2020-09-25,0.921622736926588,1.7250150175391832,3.4511156669394283,,,,,,,,,,,,
49,0,USUtah,Utah,"",2022-04-28 09:13:11,2020-09-26,0.921622736926588,1.7250150175391832,3.4511156669394283,,,,,,,,,,,,
49,0,USUtah,Utah,"",2022-04-28 09:13:11,2020-09-27,0.921622736926588,1.7250150175391832,3.4511156669394283,,,,,,,,,,,,
49,0,USUtah,Utah,"",2022-04-28 09:13:11,2020-09-28,0.921622736926588,1.7250150175391832,3.4511156669394283,,,,,,,,,,,,
49,0,USUtah,Utah,"",2022-04-28 09:13:11,2020-09-29,0.921622736926588,1.7250150175391832,3.4511156669394283,,,,,,,,,,,,
49,0,USUtah,Utah,"",2022-04-28 09:13:11,2020-09-30,0.921622736926588,1.7250150175391832,3.4511156669394283,,,,,,,,,,,,
49,0,USUtah,Utah,"",2022-04-28 09:13:11,2020-10-01,0.9471773313635091,1.7541235254513055,3.470219083590669,,,,,,,,,,,,
49,0,USUtah,Utah,"",2022-04-28 09:13:11,2020-10-02,0.9471773313635091,1.7541235254513055,3.470219083590669,,,,,,,,,,,,
49,0,USUtah,Utah,"",2022-04-28 09:13:11,2020-10-03,0.9471773313635091,1.7541235254513055,3.470219083590669,,,,,,,,,,,,
49,0,USUtah,Utah,"",2022-04-28 09:13:11,2020-10-04,0.9471773313635091,1.7541235254513055,3.470219083590669,,,,,,,,,,,,
49,0,USUtah,Utah,"",2022-04-28 09:13:11,2020-10-05,0.9471773313635091,1.7541235254513055,3.470219083590669,,,,,,,,,,,,
49,0,USUtah,Utah,"",2022-04-28 09:13:11,2020-10-06,0.9471773313635091,1.7541235254513055,3.470219083590669,,,,,,,,,,,,
49,0,USUtah,Utah,"",2022-04-28 09:13:11,2020-10-07,0.9471773313635091,1.7541235254513055,3.470219083590669,,,,,,,,,,,,
49,0,USUtah,Utah,"",2022-04-28 09:13:11,2020-10-08,1.0808886577593677,1.9871803219323252,3.9010006177430947,,,,,,,,,,,,
49,0,USUtah,Utah,"",2022-04-28 09:13:11,2020-10-09,1.0808886577593677,1.9871803219323252,3.9010006177430947,,,,,,,,,,,,
49,0,USUtah,Utah,"",2022-04-28 09:13:11,2020-10-10,1.0808886577593677,1.9871803219323252,3.9010006177430947,,,,,,,,,,,,
49,0,USUtah,Utah,"",2022-04-28 09:13:11,2020-10-11,1.0808886577593677,1.9871803219323252,3.9010006177430947,,,,,,,,,,,,
49,0,USUtah,Utah,"",2022-04-28 09:13:11,2020-10-12,1.0808886577593677,1.9871803219323252,3.9010006177430947,,,,,,,,,,,,
49,0,USUtah,Utah,"",2022-04-28 09:13:11,2020-10-13,1.0808886577593677,1.9871803219323252,3.9010006177430947,,,,,,,,,,,,
49,0,USUtah,Utah,"",2022-04-28 09:13:11,2020-10-14,1.0808886577593677,1.9871803219323252,3.9010006177430947,,,,,,,,,,,,
49,0,USUtah,Utah,"",2022-04-28 09:13:11,2020-10-15,1.1552761395114224,2.1368497589019952,4.221811401791661,,,,,,,,,,,,
49,0,USUtah,Utah,"",2022-04-28 09:13:11,2020-10-16,1.1552761395114224,2.1368497589019952,4.221811401791661,,,,,,,,,,,,
49,0,USUtah,Utah,"",2022-04-28 09:13:11,2020-10-17,1.1552761395114224,2.1368497589019952,4.221811401791661,,,,,,,,,,,,
49,0,USUtah,Utah,"",2022-04-28 09:13:11,2020-10-18,1.1552761395114224,2.1368497589019952,4.221811401791661,,,,,,,,,,,,
49,0,USUtah,Utah,"",2022-04-28 09:13:11,2020-10-19,1.1552761395114224,2.1368497589019952,4.221811401791661,,,,,,,,,,,,
49,0,USUtah,Utah,"",2022-04-28 09:13:11,2020-10-20,1.1552761395114224,2.1368497589019952,4.221811401791661,,,,,,,,,,,,
49,0,USUtah,Utah,"",2022-04-28 09:13:11,2020-10-21,1.1552761395114224,2.1368497589019952,4.221811401791661,,,,,,,,,,,,
49,0,USUtah,Utah,"",2022-04-28 09:13:11,2020-10-22,1.4131872609281282,2.672376956029006,5.404575595755677,,,,,,,,,,,,
49,0,USUtah,Utah,"",2022-04-28 09:13:11,2020-10-23,1.4131872609281282,2.672376956029006,5.404575595755677,,,,,,,,,,,,
49,0,USUtah,Utah,"",2022-04-28 09:13:11,2020-10-24,1.4131872609281282,2.672376956029006,5.404575595755677,,,,,,,,,,,,
49,0,USUtah,Utah,"",2022-04-28 09:13:11,2020-10-25,1.4131872609281282,2.672376956029006,5.404575595755677,,,,,,,,,,,,
49,0,USUtah,Utah,"",2022-04-28 09:13:11,2020-10-26,1.4131872609281282,2.672376956029006,5.404575595755677,,,,,,,,,,,,
49,0,USUtah,Utah,"",2022-04-28 09:13:11,2020-10-27,1.4131872609281282,2.672376956029006,5.404575595755677,,,,,,,,,,,,
49,0,USUtah,Utah,"",2022-04-28 09:13:11,2020-10-28,1.4131872609281282,2.672376956029006,5.404575595755677,,,,,,,,,,,,
49,0,USUtah,Utah,"",2022-04-28 09:13:11,2020-10-29,1.5819243306578787,2.8627537018232783,5.526417960190026,,,,,,,,,,,,
49,0,USUtah,Utah,"",2022-04-28 09:13:11,2020-10-30,1.5819243306578787,2.8627537018232783,5.526417960190026,,,,,,,,,,,,
49,0,USUtah,Utah,"",2022-04-28 09:13:11,2020-10-31,1.5819243306578787,2.8627537018232783,5.526417960190026,,,,,,,,,,,,
49,0,USUtah,Utah,"",2022-04-28 09:13:11,2020-11-01,1.5819243306578787,2.8627537018232783,5.526417960190026,,,,,,,,,,,,
49,0,USUtah,Utah,"",2022-04-28 09:13:11,2020-11-02,1.5819243306578787,2.8627537018232783,5.526417960190026,,,,,,,,,,,,
49,0,USUtah,Utah,"",2022-04-28 09:13:11,2020-11-03,1.5819243306578787,2.8627537018232783,5.526417960190026,,,,,,,,,,,,
49,0,USUtah,Utah,"",2022-04-28 09:13:11,2020-11-04,1.5819243306578787,2.8627537018232783,5.526417960190026,,,,,,,,,,,,
49,0,USUtah,Utah,"",2022-04-28 09:13:11,2020-11-05,2.1523775317368794,3.7028442097790633,6.771344398829061,,,,,,,,,,,,
49,0,USUtah,Utah,"",2022-04-28 09:13:11,2020-11-06,2.1523775317368794,3.7028442097790633,6.771344398829061,,,,,,,,,,,,
49,0,USUtah,Utah,"",2022-04-28 09:13:11,2020-11-07,2.1523775317368794,3.7028442097790633,6.771344398829061,,,,,,,,,,,,
49,0,USUtah,Utah,"",2022-04-28 09:13:11,2020-11-08,2.1523775317368794,3.7028442097790633,6.771344398829061,,,,,,,,,,,,
49,0,USUtah,Utah,"",2022-04-28 09:13:11,2020-11-09,2.1523775317368794,3.7028442097790633,6.771344398829061,,,,,,,,,,,,
49,0,USUtah,Utah,"",2022-04-28 09:13:11,2020-11-10,2.1523775317368794,3.7028442097790633,6.771344398829061,,,,,,,,,,,,
49,0,USUtah,Utah,"",2022-04-28 09:13:11,2020-11-11,2.1523775317368794,3.7028442097790633,6.771344398829061,,,,,,,,,,,,
49,0,USUtah,Utah,"",2022-04-28 09:13:11,2020-11-12,2.607897430454266,4.44703051086027,8.055143840143135,,,,,,,,,,,,
49,0,USUtah,Utah,"",2022-04-28 09:13:11,2020-11-13,2.607897430454266,4.44703051086027,8.055143840143135,,,,,,,,,,,,
49,0,USUtah,Utah,"",2022-04-28 09:13:11,2020-11-14,2.607897430454266,4.44703051086027,8.055143840143135,,,,,,,,,,,,
49,0,USUtah,Utah,"",2022-04-28 09:13:11,2020-11-15,2.607897430454266,4.44703051086027,8.055143840143135,,,,,,,,,,,,
49,0,USUtah,Utah,"",2022-04-28 09:13:11,2020-11-16,2.607897430454266,4.44703051086027,8.055143840143135,,,,,,,,,,,,
49,0,USUtah,Utah,"",2022-04-28 09:13:11,2020-11-17,2.607897430454266,4.44703051086027,8.055143840143135,,,,,,,,,,,,
49,0,USUtah,Utah,"",2022-04-28 09:13:11,2020-11-18,2.607897430454266,4.44703051086027,8.055143840143135,,,,,,,,,,,,
49,0,USUtah,Utah,"",2022-04-28 09:13:11,2020-11-19,2.508245721369025,4.201967684425679,7.466755935571014,,,,,,,,,,,,
49,0,USUtah,Utah,"",2022-04-28 09:13:11,2020-11-20,2.508245721369025,4.201967684425679,7.466755935571014,,,,,,,,,,,,
49,0,USUtah,Utah,"",2022-04-28 09:13:11,2020-11-21,2.508245721369025,4.201967684425679,7.466755935571014,,,,,,,,,,,,
49,0,USUtah,Utah,"",2022-04-28 09:13:11,2020-11-22,2.508245721369025,4.201967684425679,7.466755935571014,,,,,,,,,,,,
49,0,USUtah,Utah,"",2022-04-28 09:13:11,2020-11-23,2.508245721369025,4.201967684425679,7.466755935571014,,,,,,,,,,,,
49,0,USUtah,Utah,"",2022-04-28 09:13:11,2020-11-24,2.508245721369025,4.201967684425679,7.466755935571014,,,,,,,,,,,,
49,0,USUtah,Utah,"",2022-04-28 09:13:11,2020-11-25,2.508245721369025,4.201967684425679,7.466755935571014,,,,,,,,,,,,
49,0,USUtah,Utah,"",2022-04-28 09:13:11,2020-11-26,2.2841176603669977,4.13211644756863,7.974049847279178,,,,,,,,,,,,
49,0,USUtah,Utah,"",2022-04-28 09:13:11,2020-11-27,2.2841176603669977,4.13211644756863,7.974049847279178,,,,,,,,,,,,
49,0,USUtah,Utah,"",2022-04-28 09:13:11,2020-11-28,2.2841176603669977,4.13211644756863,7.974049847279178,,,,,,,,,,,,
49,0,USUtah,Utah,"",2022-04-28 09:13:11,2020-11-29,2.2841176603669977,4.13211644756863,7.974049847279178,,,,,,,,,,,,
49,0,USUtah,Utah,"",2022-04-28 09:13:11,2020-11-30,2.2841176603669977,4.13211644756863,7.974049847279178,,,,,,,,,,,,
49,0,USUtah,Utah,"",2022-04-28 09:13:11,2020-12-01,2.2841176603669977,4.13211644756863,7.974049847279178,,,,,,,,,,,,
49,0,USUtah,Utah,"",2022-04-28 09:13:11,2020-12-02,2.2841176603669977,4.13211644756863,7.974049847279178,,,,,,,,,,,,
49,0,USUtah,Utah,"",2022-04-28 09:13:11,2020-12-03,2.3701369035829436,4.03232654629474,7.285886084323308,,,,,,,,,,,,
49,0,USUtah,Utah,"",2022-04-28 09:13:11,2020-12-04,2.3701369035829436,4.03232654629474,7.285886084323308,,,,,,,,,,,,
49,0,USUtah,Utah,"",2022-04-28 09:13:11,2020-12-05,2.3701369035829436,4.03232654629474,7.285886084323308,,,,,,,,,,,,
49,0,USUtah,Utah,"",2022-04-28 09:13:11,2020-12-06,2.3701369035829436,4.03232654629474,7.285886084323308,,,,,,,,,,,,
49,0,USUtah,Utah,"",2022-04-28 09:13:11,2020-12-07,2.3701369035829436,4.03232654629474,7.285886084323308,,,,,,,,,,,,
49,0,USUtah,Utah,"",2022-04-28 09:13:11,2020-12-08,2.3701369035829436,4.03232654629474,7.285886084323308,,,,,,,,,,,,
49,0,USUtah,Utah,"",2022-04-28 09:13:11,2020-12-09,2.3701369035829436,4.03232654629474,7.285886084323308,,,,,,,,,,,,
49,0,USUtah,Utah,"",2022-04-28 09:13:11,2020-12-10,2.1754538905219465,3.791726066829722,7.031881648280036,,,,,,,,,,,,
49,0,USUtah,Utah,"",2022-04-28 09:13:11,2020-12-11,2.1754538905219465,3.791726066829722,7.031881648280036,,,,,,,,,,,,
49,0,USUtah,Utah,"",2022-04-28 09:13:11,2020-12-12,2.1754538905219465,3.791726066829722,7.031881648280036,,,,,,,,,,,,
49,0,USUtah,Utah,"",2022-04-28 09:13:11,2020-12-13,2.1754538905219465,3.791726066829722,7.031881648280036,,,,,,,,,,,,
49,0,USUtah,Utah,"",2022-04-28 09:13:11,2020-12-14,2.1754538905219465,3.791726066829722,7.031881648280036,,,,,,,,,,,,
49,0,USUtah,Utah,"",2022-04-28 09:13:11,2020-12-15,2.1754538905219465,3.791726066829722,7.031881648280036,,,,,,,,,,,,
49,0,USUtah,Utah,"",2022-04-28 09:13:11,2020-12-16,2.1754538905219465,3.791726066829722,7.031881648280036,,,,,,,,,,,,
49,0,USUtah,Utah,"",2022-04-28 09:13:11,2020-12-17,2.0434474330719024,3.578071811459682,6.6684867368142164,,,,,,,,,,,,
49,0,USUtah,Utah,"",2022-04-28 09:13:11,2020-12-18,2.0434474330719024,3.578071811459682,6.6684867368142164,,,,,,,,,,,,
49,0,USUtah,Utah,"",2022-04-28 09:13:11,2020-12-19,2.0434474330719024,3.578071811459682,6.6684867368142164,,,,,,,,,,,,
49,0,USUtah,Utah,"",2022-04-28 09:13:11,2020-12-20,2.0434474330719024,3.578071811459682,6.6684867368142164,,,,,,,,,,,,
49,0,USUtah,Utah,"",2022-04-28 09:13:11,2020-12-21,2.0434474330719024,3.578071811459682,6.6684867368142164,,,,,,,,,,,,
49,0,USUtah,Utah,"",2022-04-28 09:13:11,2020-12-22,2.0434474330719024,3.578071811459682,6.6684867368142164,,,,,,,,,,,,
49,0,USUtah,Utah,"",2022-04-28 09:13:11,2020-12-23,2.0434474330719024,3.578071811459682,6.6684867368142164,,,,,,,,,,,,
49,0,USUtah,Utah,"",2022-04-28 09:13:11,2020-12-24,1.8307393565791945,3.405162535525952,6.7674378745368955,,,,,,,,,,,,
49,0,USUtah,Utah,"",2022-04-28 09:13:11,2020-12-25,1.8307393565791945,3.405162535525952,6.7674378745368955,,,,,,,,,,,,
49,0,USUtah,Utah,"",2022-04-28 09:13:11,2020-12-26,1.8307393565791945,3.405162535525952,6.7674378745368955,,,,,,,,,,,,
49,0,USUtah,Utah,"",2022-04-28 09:13:11,2020-12-27,1.8307393565791945,3.405162535525952,6.7674378745368955,,,,,,,,,,,,
49,0,USUtah,Utah,"",2022-04-28 09:13:11,2020-12-28,1.8307393565791945,3.405162535525952,6.7674378745368955,,,,,,,,,,,,
49,0,USUtah,Utah,"",2022-04-28 09:13:11,2020-12-29,1.8307393565791945,3.405162535525952,6.7674378745368955,,,,,,,,,,,,
49,0,USUtah,Utah,"",2022-04-28 09:13:11,2020-12-30,1.8307393565791945,3.405162535525952,6.7674378745368955,,,,,,,,,,,,
49,0,USUtah,Utah,"",2022-04-28 09:13:11,2020-12-31,2.5775631279874083,4.6406543039872785,8.909797294865841,,,,,,,,,,,,
49,0,USUtah,Utah,"",2022-04-28 09:13:11,2021-01-01,2.5775631279874083,4.6406543039872785,8.909797294865841,,,,,,,,,,,,
49,0,USUtah,Utah,"",2022-04-28 09:13:11,2021-01-02,2.5775631279874083,4.6406543039872785,8.909797294865841,,,,,,,,,,,,
49,0,USUtah,Utah,"",2022-04-28 09:13:11,2021-01-03,2.5775631279874083,4.6406543039872785,8.909797294865841,,,,,,,,,,,,
49,0,USUtah,Utah,"",2022-04-28 09:13:11,2021-01-04,2.5775631279874083,4.6406543039872785,8.909797294865841,,,,,,,,,,,,
49,0,USUtah,Utah,"",2022-04-28 09:13:11,2021-01-05,2.5775631279874083,4.6406543039872785,8.909797294865841,,,,,,,,,,,,
49,0,USUtah,Utah,"",2022-04-28 09:13:11,2021-01-06,2.5775631279874083,4.6406543039872785,8.909797294865841,,,,,,,,,,,,
49,0,USUtah,Utah,"",2022-04-28 09:13:11,2021-01-07,2.67252369911833,4.70149970849784,8.80620505701697,,,,,,,,,,,,
49,0,USUtah,Utah,"",2022-04-28 09:13:11,2021-01-08,2.67252369911833,4.70149970849784,8.80620505701697,,,,,,,,,,,,
49,0,USUtah,Utah,"",2022-04-28 09:13:11,2021-01-09,2.67252369911833,4.70149970849784,8.80620505701697,,,,,,,,,,,,
49,0,USUtah,Utah,"",2022-04-28 09:13:11,2021-01-10,2.67252369911833,4.70149970849784,8.80620505701697,,,,,,,,,,,,
49,0,USUtah,Utah,"",2022-04-28 09:13:11,2021-01-11,2.67252369911833,4.70149970849784,8.80620505701697,,,,,,,,,,,,
49,0,USUtah,Utah,"",2022-04-28 09:13:11,2021-01-12,2.67252369911833,4.70149970849784,8.80620505701697,,,,,,,,,,,,
49,0,USUtah,Utah,"",2022-04-28 09:13:11,2021-01-13,2.67252369911833,4.70149970849784,8.80620505701697,,,,,,,,,,,,
49,0,USUtah,Utah,"",2022-04-28 09:13:11,2021-01-14,1.7105670572822136,3.126929034199434,6.101399076468296,,,,,,,,,,,,
49,0,USUtah,Utah,"",2022-04-28 09:13:11,2021-01-15,1.7105670572822136,3.126929034199434,6.101399076468296,,,,,,,,,,,,
49,0,USUtah,Utah,"",2022-04-28 09:13:11,2021-01-16,1.7105670572822136,3.126929034199434,6.101399076468296,,,,,,,,,,,,
49,0,USUtah,Utah,"",2022-04-28 09:13:11,2021-01-17,1.7105670572822136,3.126929034199434,6.101399076468296,,,,,,,,,,,,
49,0,USUtah,Utah,"",2022-04-28 09:13:11,2021-01-18,1.7105670572822136,3.126929034199434,6.101399076468296,,,,,,,,,,,,
49,0,USUtah,Utah,"",2022-04-28 09:13:11,2021-01-19,1.7105670572822136,3.126929034199434,6.101399076468296,,,,,,,,,,,,
49,0,USUtah,Utah,"",2022-04-28 09:13:11,2021-01-20,1.7105670572822136,3.126929034199434,6.101399076468296,,,,,,,,,,,,
49,0,USUtah,Utah,"",2022-04-28 09:13:11,2021-01-21,1.5803900546947924,2.937616276192286,5.834250747420786,,,,,,,,,,,,
49,0,USUtah,Utah,"",2022-04-28 09:13:11,2021-01-22,1.5803900546947924,2.937616276192286,5.834250747420786,,,,,,,,,,,,
49,0,USUtah,Utah,"",2022-04-28 09:13:11,2021-01-23,1.5803900546947924,2.937616276192286,5.834250747420786,,,,,,,,,,,,
49,0,USUtah,Utah,"",2022-04-28 09:13:11,2021-01-24,1.5803900546947924,2.937616276192286,5.834250747420786,,,,,,,,,,,,
49,0,USUtah,Utah,"",2022-04-28 09:13:11,2021-01-25,1.5803900546947924,2.937616276192286,5.834250747420786,,,,,,,,,,,,
49,0,USUtah,Utah,"",2022-04-28 09:13:11,2021-01-26,1.5803900546947924,2.937616276192286,5.834250747420786,,,,,,,,,,,,
49,0,USUtah,Utah,"",2022-04-28 09:13:11,2021-01-27,1.5803900546947924,2.937616276192286,5.834250747420786,,,,,,,,,,,,
49,0,USUtah,Utah,"",2022-04-28 09:13:11,2021-01-28,1.1762133432991941,2.152266342733364,4.204028307251275,,,,,,,,,,,,
49,0,USUtah,Utah,"",2022-04-28 09:13:11,2021-01-29,1.1762133432991941,2.152266342733364,4.204028307251275,,,,,,,,,,,,
49,0,USUtah,Utah,"",2022-04-28 09:13:11,2021-01-30,1.1762133432991941,2.152266342733364,4.204028307251275,,,,,,,,,,,,
49,0,USUtah,Utah,"",2022-04-28 09:13:11,2021-01-31,1.1762133432991941,2.152266342733364,4.204028307251275,,,,,,,,,,,,
49,0,USUtah,Utah,"",2022-04-28 09:13:11,2021-02-01,1.1762133432991941,2.152266342733364,4.204028307251275,,,,,,,,,,,,
49,0,USUtah,Utah,"",2022-04-28 09:13:11,2021-02-02,1.1762133432991941,2.152266342733364,4.204028307251275,,,,,,,,,,,,
49,0,USUtah,Utah,"",2022-04-28 09:13:11,2021-02-03,1.1762133432991941,2.152266342733364,4.204028307251275,,,,,,,,,,,,
49,0,USUtah,Utah,"",2022-04-28 09:13:11,2021-02-04,0.9684970616290768,1.8452179893510774,3.7612315915774817,,,,,,,,,,,,
49,0,USUtah,Utah,"",2022-04-28 09:13:11,2021-02-05,0.9684970616290768,1.8452179893510774,3.7612315915774817,,,,,,,,,,,,
49,0,USUtah,Utah,"",2022-04-28 09:13:11,2021-02-06,0.9684970616290768,1.8452179893510774,3.7612315915774817,,,,,,,,,,,,
49,0,USUtah,Utah,"",2022-04-28 09:13:11,2021-02-07,0.9684970616290768,1.8452179893510774,3.7612315915774817,,,,,,,,,,,,
49,0,USUtah,Utah,"",2022-04-28 09:13:11,2021-02-08,0.9684970616290768,1.8452179893510774,3.7612315915774817,,,,,,,,,,,,
49,0,USUtah,Utah,"",2022-04-28 09:13:11,2021-02-09,0.9684970616290768,1.8452179893510774,3.7612315915774817,,,,,,,,,,,,
49,0,USUtah,Utah,"",2022-04-28 09:13:11,2021-02-10,0.9684970616290768,1.8452179893510774,3.7612315915774817,,,,,,,,,,,,
49,0,USUtah,Utah,"",2022-04-28 09:13:11,2021-02-11,0.7928110032503645,1.5334656277637226,3.175634051631065,,,,,,,,,,,,
49,0,USUtah,Utah,"",2022-04-28 09:13:11,2021-02-12,0.7928110032503645,1.5334656277637226,3.175634051631065,,,,,,,,,,,,
49,0,USUtah,Utah,"",2022-04-28 09:13:11,2021-02-13,0.7928110032503645,1.5334656277637226,3.175634051631065,,,,,,,,,,,,
49,0,USUtah,Utah,"",2022-04-28 09:13:11,2021-02-14,0.7928110032503645,1.5334656277637226,3.175634051631065,,,,,,,,,,,,
49,0,USUtah,Utah,"",2022-04-28 09:13:11,2021-02-15,0.7928110032503645,1.5334656277637226,3.175634051631065,,,,,,,,,,,,
49,0,USUtah,Utah,"",2022-04-28 09:13:11,2021-02-16,0.7928110032503645,1.5334656277637226,3.175634051631065,,,,,,,,,,,,
49,0,USUtah,Utah,"",2022-04-28 09:13:11,2021-02-17,0.7928110032503645,1.5334656277637226,3.175634051631065,,,,,,,,,,,,
49,0,USUtah,Utah,"",2022-04-28 09:13:11,2021-02-18,0.7200553829102843,1.3959939223338549,2.898013263256559,,,,,,,,,,,,
49,0,USUtah,Utah,"",2022-04-28 09:13:11,2021-02-19,0.7200553829102843,1.3959939223338549,2.898013263256559,,,,,,,,,,,,
49,0,USUtah,Utah,"",2022-04-28 09:13:11,2021-02-20,0.7200553829102843,1.3959939223338549,2.898013263256559,,,,,,,,,,,,
49,0,USUtah,Utah,"",2022-04-28 09:13:11,2021-02-21,0.7200553829102843,1.3959939223338549,2.898013263256559,,,,,,,,,,,,
49,0,USUtah,Utah,"",2022-04-28 09:13:11,2021-02-22,0.7200553829102843,1.3959939223338549,2.898013263256559,,,,,,,,,,,,
49,0,USUtah,Utah,"",2022-04-28 09:13:11,2021-02-23,0.7200553829102843,1.3959939223338549,2.898013263256559,,,,,,,,,,,,
49,0,USUtah,Utah,"",2022-04-28 09:13:11,2021-02-24,0.7200553829102843,1.3959939223338549,2.898013263256559,,,,,,,,,,,,
49,0,USUtah,Utah,"",2022-04-28 09:13:11,2021-02-25,0.5575185515938968,1.0898974675737974,2.2823101985561696,,,,,,,,,,,,
49,0,USUtah,Utah,"",2022-04-28 09:13:11,2021-02-26,0.5575185515938968,1.0898974675737974,2.2823101985561696,,,,,,,,,,,,
49,0,USUtah,Utah,"",2022-04-28 09:13:11,2021-02-27,0.5575185515938968,1.0898974675737974,2.2823101985561696,,,,,,,,,,,,
49,0,USUtah,Utah,"",2022-04-28 09:13:11,2021-02-28,0.5575185515938968,1.0898974675737974,2.2823101985561696,,,,,,,,,,,,
49,0,USUtah,Utah,"",2022-04-28 09:13:11,2021-03-01,0.5575185515938968,1.0898974675737974,2.2823101985561696,,,,,,,,,,,,
49,0,USUtah,Utah,"",2022-04-28 09:13:11,2021-03-02,0.5575185515938968,1.0898974675737974,2.2823101985561696,,,,,,,,,,,,
49,0,USUtah,Utah,"",2022-04-28 09:13:11,2021-03-03,0.5575185515938968,1.0898974675737974,2.2823101985561696,,,,,,,,,,,,
49,0,USUtah,Utah,"",2022-04-28 09:13:11,2021-03-04,0.553827044444662,1.1629778952299594,2.6227391838089256,,,,,,,,,,,,
49,0,USUtah,Utah,"",2022-04-28 09:13:11,2021-03-05,0.553827044444662,1.1629778952299594,2.6227391838089256,,,,,,,,,,,,
49,0,USUtah,Utah,"",2022-04-28 09:13:11,2021-03-06,0.553827044444662,1.1629778952299594,2.6227391838089256,,,,,,,,,,,,
49,0,USUtah,Utah,"",2022-04-28 09:13:11,2021-03-07,0.553827044444662,1.1629778952299594,2.6227391838089256,,,,,,,,,,,,
49,0,USUtah,Utah,"",2022-04-28 09:13:11,2021-03-08,0.553827044444662,1.1629778952299594,2.6227391838089256,,,,,,,,,,,,
49,0,USUtah,Utah,"",2022-04-28 09:13:11,2021-03-09,0.553827044444662,1.1629778952299594,2.6227391838089256,,,,,,,,,,,,
49,0,USUtah,Utah,"",2022-04-28 09:13:11,2021-03-10,0.553827044444662,1.1629778952299594,2.6227391838089256,,,,,,,,,,,,
49,0,USUtah,Utah,"",2022-04-28 09:13:11,2021-03-11,0.460126057513887,0.8844459123543376,1.8196538111216558,,,,,,,,,,,,
49,0,USUtah,Utah,"",2022-04-28 09:13:11,2021-03-12,0.460126057513887,0.8844459123543376,1.8196538111216558,,,,,,,,,,,,
49,0,USUtah,Utah,"",2022-04-28 09:13:11,2021-03-13,0.460126057513887,0.8844459123543376,1.8196538111216558,,,,,,,,,,,,
49,0,USUtah,Utah,"",2022-04-28 09:13:11,2021-03-14,0.460126057513887,0.8844459123543376,1.8196538111216558,,,,,,,,,,,,
49,0,USUtah,Utah,"",2022-04-28 09:13:11,2021-03-15,0.460126057513887,0.8844459123543376,1.8196538111216558,,,,,,,,,,,,
49,0,USUtah,Utah,"",2022-04-28 09:13:11,2021-03-16,0.460126057513887,0.8844459123543376,1.8196538111216558,,,,,,,,,,,,
49,0,USUtah,Utah,"",2022-04-28 09:13:11,2021-03-17,0.460126057513887,0.8844459123543376,1.8196538111216558,,,,,,,,,,,,
49,0,USUtah,Utah,"",2022-04-28 09:13:11,2021-03-18,0.4171302413434353,0.8454320436234233,1.8381365235863028,,,,,,,,,,,,
49,0,USUtah,Utah,"",2022-04-28 09:13:11,2021-03-19,0.4171302413434353,0.8454320436234233,1.8381365235863028,,,,,,,,,,,,
49,0,USUtah,Utah,"",2022-04-28 09:13:11,2021-03-20,0.4171302413434353,0.8454320436234233,1.8381365235863028,,,,,,,,,,,,
49,0,USUtah,Utah,"",2022-04-28 09:13:11,2021-03-21,0.4171302413434353,0.8454320436234233,1.8381365235863028,,,,,,,,,,,,
49,0,USUtah,Utah,"",2022-04-28 09:13:11,2021-03-22,0.4171302413434353,0.8454320436234233,1.8381365235863028,,,,,,,,,,,,
49,0,USUtah,Utah,"",2022-04-28 09:13:11,2021-03-23,0.4171302413434353,0.8454320436234233,1.8381365235863028,,,,,,,,,,,,
49,0,USUtah,Utah,"",2022-04-28 09:13:11,2021-03-24,0.4171302413434353,0.8454320436234233,1.8381365235863028,,,,,,,,,,,,
49,0,USUtah,Utah,"",2022-04-28 09:13:11,2021-03-25,0.4041778400840047,0.8072446829428384,1.7285811737949006,,,,,,,,,,,,
49,0,USUtah,Utah,"",2022-04-28 09:13:11,2021-03-26,0.4041778400840047,0.8072446829428384,1.7285811737949006,,,,,,,,,,,,
49,0,USUtah,Utah,"",2022-04-28 09:13:11,2021-03-27,0.4041778400840047,0.8072446829428384,1.7285811737949006,,,,,,,,,,,,
49,0,USUtah,Utah,"",2022-04-28 09:13:11,2021-03-28,0.4041778400840047,0.8072446829428384,1.7285811737949006,,,,,,,,,,,,
49,0,USUtah,Utah,"",2022-04-28 09:13:11,2021-03-29,0.4041778400840047,0.8072446829428384,1.7285811737949006,,,,,,,,,,,,
49,0,USUtah,Utah,"",2022-04-28 09:13:11,2021-03-30,0.4041778400840047,0.8072446829428384,1.7285811737949006,,,,,,,,,,,,
49,0,USUtah,Utah,"",2022-04-28 09:13:11,2021-03-31,0.4041778400840047,0.8072446829428384,1.7285811737949006,,,,,,,,,,,,
49,0,USUtah,Utah,"",2022-04-28 09:13:11,2021-04-01,0.3952496222815757,0.8044969282527702,1.7568511035806298,,,,,,,,,,,,
49,0,USUtah,Utah,"",2022-04-28 09:13:11,2021-04-02,0.3952496222815757,0.8044969282527702,1.7568511035806298,,,,,,,,,,,,
49,0,USUtah,Utah,"",2022-04-28 09:13:11,2021-04-03,0.3952496222815757,0.8044969282527702,1.7568511035806298,,,,,,,,,,,,
49,0,USUtah,Utah,"",2022-04-28 09:13:11,2021-04-04,0.3952496222815757,0.8044969282527702,1.7568511035806298,,,,,,,,,,,,
49,0,USUtah,Utah,"",2022-04-28 09:13:11,2021-04-05,0.3952496222815757,0.8044969282527702,1.7568511035806298,,,,,,,,,,,,
49,0,USUtah,Utah,"",2022-04-28 09:13:11,2021-04-06,0.3952496222815757,0.8044969282527702,1.7568511035806298,,,,,,,,,,,,
49,0,USUtah,Utah,"",2022-04-28 09:13:11,2021-04-07,0.3952496222815757,0.8044969282527702,1.7568511035806298,,,,,,,,,,,,
49,0,USUtah,Utah,"",2022-04-28 09:13:11,2021-04-08,0.3909730668558559,0.7968050308177115,1.7423452777667614,,,,,,,,,,,,
49,0,USUtah,Utah,"",2022-04-28 09:13:11,2021-04-09,0.3909730668558559,0.7968050308177115,1.7423452777667614,,,,,,,,,,,,
49,0,USUtah,Utah,"",2022-04-28 09:13:11,2021-04-10,0.3909730668558559,0.7968050308177115,1.7423452777667614,,,,,,,,,,,,
49,0,USUtah,Utah,"",2022-04-28 09:13:11,2021-04-11,0.3909730668558559,0.7968050308177115,1.7423452777667614,,,,,,,,,,,,
49,0,USUtah,Utah,"",2022-04-28 09:13:11,2021-04-12,0.3909730668558559,0.7968050308177115,1.7423452777667614,,,,,,,,,,,,
49,0,USUtah,Utah,"",2022-04-28 09:13:11,2021-04-13,0.3909730668558559,0.7968050308177115,1.7423452777667614,,,,,,,,,,,,
49,0,USUtah,Utah,"",2022-04-28 09:13:11,2021-04-14,0.3909730668558559,0.7968050308177115,1.7423452777667614,,,,,,,,,,,,
49,0,USUtah,Utah,"",2022-04-28 09:13:11,2021-04-15,0.37143533769601184,0.738694728453067,1.5747983431814188,,,,,,,,,,,,
49,0,USUtah,Utah,"",2022-04-28 09:13:11,2021-04-16,0.37143533769601184,0.738694728453067,1.5747983431814188,,,,,,,,,,,,
49,0,USUtah,Utah,"",2022-04-28 09:13:11,2021-04-17,0.37143533769601184,0.738694728453067,1.5747983431814188,,,,,,,,,,,,
49,0,USUtah,Utah,"",2022-04-28 09:13:11,2021-04-18,0.37143533769601184,0.738694728453067,1.5747983431814188,,,,,,,,,,,,
49,0,USUtah,Utah,"",2022-04-28 09:13:11,2021-04-19,0.37143533769601184,0.738694728453067,1.5747983431814188,,,,,,,,,,,,
49,0,USUtah,Utah,"",2022-04-28 09:13:11,2021-04-20,0.37143533769601184,0.738694728453067,1.5747983431814188,,,,,,,,,,,,
49,0,USUtah,Utah,"",2022-04-28 09:13:11,2021-04-21,0.37143533769601184,0.738694728453067,1.5747983431814188,,,,,,,,,,,,
49,0,USUtah,Utah,"",2022-04-28 09:13:11,2021-04-22,0.38428340207269207,0.7948617265488163,1.7649068715554808,,,,,,,,,,,,
49,0,USUtah,Utah,"",2022-04-28 09:13:11,2021-04-23,0.38428340207269207,0.7948617265488163,1.7649068715554808,,,,,,,,,,,,
49,0,USUtah,Utah,"",2022-04-28 09:13:11,2021-04-24,0.38428340207269207,0.7948617265488163,1.7649068715554808,,,,,,,,,,,,
49,0,USUtah,Utah,"",2022-04-28 09:13:11,2021-04-25,0.38428340207269207,0.7948617265488163,1.7649068715554808,,,,,,,,,,,,
49,0,USUtah,Utah,"",2022-04-28 09:13:11,2021-04-26,0.38428340207269207,0.7948617265488163,1.7649068715554808,,,,,,,,,,,,
49,0,USUtah,Utah,"",2022-04-28 09:13:11,2021-04-27,0.38428340207269207,0.7948617265488163,1.7649068715554808,,,,,,,,,,,,
49,0,USUtah,Utah,"",2022-04-28 09:13:11,2021-04-28,0.38428340207269207,0.7948617265488163,1.7649068715554808,,,,,,,,,,,,
49,0,USUtah,Utah,"",2022-04-28 09:13:11,2021-04-29,0.3575942627315803,0.744620729853091,1.664789909655518,,,,,,,,,,,,
49,0,USUtah,Utah,"",2022-04-28 09:13:11,2021-04-30,0.3575942627315803,0.744620729853091,1.664789909655518,,,,,,,,,,,,
49,0,USUtah,Utah,"",2022-04-28 09:13:11,2021-05-01,0.3575942627315803,0.744620729853091,1.664789909655518,,,,,,,,,,,,
49,0,USUtah,Utah,"",2022-04-28 09:13:11,2021-05-02,0.3575942627315803,0.744620729853091,1.664789909655518,,,,,,,,,,,,
49,0,USUtah,Utah,"",2022-04-28 09:13:11,2021-05-03,0.3575942627315803,0.744620729853091,1.664789909655518,,,,,,,,,,,,
49,0,USUtah,Utah,"",2022-04-28 09:13:11,2021-05-04,0.3575942627315803,0.744620729853091,1.664789909655518,,,,,,,,,,,,
49,0,USUtah,Utah,"",2022-04-28 09:13:11,2021-05-05,0.3575942627315803,0.744620729853091,1.664789909655518,,,,,,,,,,,,
49,0,USUtah,Utah,"",2022-04-28 09:13:11,2021-05-06,0.33770841999361345,0.716699048041289,1.6339661652166955,,,,,,,,,,,,
49,0,USUtah,Utah,"",2022-04-28 09:13:11,2021-05-07,0.33770841999361345,0.716699048041289,1.6339661652166955,,,,,,,,,,,,
49,0,USUtah,Utah,"",2022-04-28 09:13:11,2021-05-08,0.33770841999361345,0.716699048041289,1.6339661652166955,,,,,,,,,,,,
49,0,USUtah,Utah,"",2022-04-28 09:13:11,2021-05-09,0.33770841999361345,0.716699048041289,1.6339661652166955,,,,,,,,,,,,
49,0,USUtah,Utah,"",2022-04-28 09:13:11,2021-05-10,0.33770841999361345,0.716699048041289,1.6339661652166955,,,,,,,,,,,,
49,0,USUtah,Utah,"",2022-04-28 09:13:11,2021-05-11,0.33770841999361345,0.716699048041289,1.6339661652166955,,,,,,,,,,,,
49,0,USUtah,Utah,"",2022-04-28 09:13:11,2021-05-12,0.33770841999361345,0.716699048041289,1.6339661652166955,,,,,,,,,,,,
49,0,USUtah,Utah,"",2022-04-28 09:13:11,2021-05-13,0.3288147724423129,0.710895303622683,1.6518323011623308,,,,,,,,,,,,
49,0,USUtah,Utah,"",2022-04-28 09:13:11,2021-05-14,0.3288147724423129,0.710895303622683,1.6518323011623308,,,,,,,,,,,,
49,0,USUtah,Utah,"",2022-04-28 09:13:11,2021-05-15,0.3288147724423129,0.710895303622683,1.6518323011623308,,,,,,,,,,,,
49,0,USUtah,Utah,"",2022-04-28 09:13:11,2021-05-16,0.3288147724423129,0.710895303622683,1.6518323011623308,,,,,,,,,,,,
49,0,USUtah,Utah,"",2022-04-28 09:13:11,2021-05-17,0.3288147724423129,0.710895303622683,1.6518323011623308,,,,,,,,,,,,
49,0,USUtah,Utah,"",2022-04-28 09:13:11,2021-05-18,0.3288147724423129,0.710895303622683,1.6518323011623308,,,,,,,,,,,,
49,0,USUtah,Utah,"",2022-04-28 09:13:11,2021-05-19,0.3288147724423129,0.710895303622683,1.6518323011623308,,,,,,,,,,,,
49,0,USUtah,Utah,"",2022-04-28 09:13:11,2021-05-20,0.25527669499150624,0.5585752723069597,1.3139175143194617,,,,,,,,,,,,
49,0,USUtah,Utah,"",2022-04-28 09:13:11,2021-05-21,0.25527669499150624,0.5585752723069597,1.3139175143194617,,,,,,,,,,,,
49,0,USUtah,Utah,"",2022-04-28 09:13:11,2021-05-22,0.25527669499150624,0.5585752723069597,1.3139175143194617,,,,,,,,,,,,
49,0,USUtah,Utah,"",2022-04-28 09:13:11,2021-05-23,0.25527669499150624,0.5585752723069597,1.3139175143194617,,,,,,,,,,,,
49,0,USUtah,Utah,"",2022-04-28 09:13:11,2021-05-24,0.25527669499150624,0.5585752723069597,1.3139175143194617,,,,,,,,,,,,
49,0,USUtah,Utah,"",2022-04-28 09:13:11,2021-05-25,0.25527669499150624,0.5585752723069597,1.3139175143194617,,,,,,,,,,,,
49,0,USUtah,Utah,"",2022-04-28 09:13:11,2021-05-26,0.25527669499150624,0.5585752723069597,1.3139175143194617,,,,,,,,,,,,
49,0,USUtah,Utah,"",2022-04-28 09:13:11,2021-05-27,0.22480904148216233,0.5100093524757597,1.244558927466611,,,,,,,,,,,,
49,0,USUtah,Utah,"",2022-04-28 09:13:11,2021-05-28,0.22480904148216233,0.5100093524757597,1.244558927466611,,,,,,,,,,,,
49,0,USUtah,Utah,"",2022-04-28 09:13:11,2021-05-29,0.22480904148216233,0.5100093524757597,1.244558927466611,,,,,,,,,,,,
49,0,USUtah,Utah,"",2022-04-28 09:13:11,2021-05-30,0.22480904148216233,0.5100093524757597,1.244558927466611,,,,,,,,,,,,
49,0,USUtah,Utah,"",2022-04-28 09:13:11,2021-05-31,0.22480904148216233,0.5100093524757597,1.244558927466611,,,,,,,,,,,,
49,0,USUtah,Utah,"",2022-04-28 09:13:11,2021-06-01,0.22480904148216233,0.5100093524757597,1.244558927466611,,,,,,,,,,,,
49,0,USUtah,Utah,"",2022-04-28 09:13:11,2021-06-02,0.22480904148216233,0.5100093524757597,1.244558927466611,,,,,,,,,,,,
49,0,USUtah,Utah,"",2022-04-28 09:13:11,2021-06-03,0.30004643319185753,0.658087472392454,1.5517250036249104,,,,,,,,,,,,
49,0,USUtah,Utah,"",2022-04-28 09:13:11,2021-06-04,0.30004643319185753,0.658087472392454,1.5517250036249104,,,,,,,,,,,,
49,0,USUtah,Utah,"",2022-04-28 09:13:11,2021-06-05,0.30004643319185753,0.658087472392454,1.5517250036249104,,,,,,,,,,,,
49,0,USUtah,Utah,"",2022-04-28 09:13:11,2021-06-06,0.30004643319185753,0.658087472392454,1.5517250036249104,,,,,,,,,,,,
49,0,USUtah,Utah,"",2022-04-28 09:13:11,2021-06-07,0.30004643319185753,0.658087472392454,1.5517250036249104,,,,,,,,,,,,
49,0,USUtah,Utah,"",2022-04-28 09:13:11,2021-06-08,0.30004643319185753,0.658087472392454,1.5517250036249104,,,,,,,,,,,,
49,0,USUtah,Utah,"",2022-04-28 09:13:11,2021-06-09,0.30004643319185753,0.658087472392454,1.5517250036249104,,,,,,,,,,,,
49,0,USUtah,Utah,"",2022-04-28 09:13:11,2021-06-10,0.3054686169265808,0.679875235517748,1.627205109429647,,,,,,,,,,,,
49,0,USUtah,Utah,"",2022-04-28 09:13:11,2021-06-11,0.3054686169265808,0.679875235517748,1.627205109429647,,,,,,,,,,,,
49,0,USUtah,Utah,"",2022-04-28 09:13:11,2021-06-12,0.3054686169265808,0.679875235517748,1.627205109429647,,,,,,,,,,,,
49,0,USUtah,Utah,"",2022-04-28 09:13:11,2021-06-13,0.3054686169265808,0.679875235517748,1.627205109429647,,,,,,,,,,,,
49,0,USUtah,Utah,"",2022-04-28 09:13:11,2021-06-14,0.3054686169265808,0.679875235517748,1.627205109429647,,,,,,,,,,,,
49,0,USUtah,Utah,"",2022-04-28 09:13:11,2021-06-15,0.3054686169265808,0.679875235517748,1.627205109429647,,,,,,,,,,,,
49,0,USUtah,Utah,"",2022-04-28 09:13:11,2021-06-16,0.3054686169265808,0.679875235517748,1.627205109429647,,,,,,,,,,,,
49,0,USUtah,Utah,"",2022-04-28 09:13:11,2021-06-17,0.34691970201063216,0.7862624178922775,1.9167852833709593,,,,,,,,,,,,
49,0,USUtah,Utah,"",2022-04-28 09:13:11,2021-06-18,0.34691970201063216,0.7862624178922775,1.9167852833709593,,,,,,,,,,,,
49,0,USUtah,Utah,"",2022-04-28 09:13:11,2021-06-19,0.34691970201063216,0.7862624178922775,1.9167852833709593,,,,,,,,,,,,
49,0,USUtah,Utah,"",2022-04-28 09:13:11,2021-06-20,0.34691970201063216,0.7862624178922775,1.9167852833709593,,,,,,,,,,,,
49,0,USUtah,Utah,"",2022-04-28 09:13:11,2021-06-21,0.34691970201063216,0.7862624178922775,1.9167852833709593,,,,,,,,,,,,
49,0,USUtah,Utah,"",2022-04-28 09:13:11,2021-06-22,0.34691970201063216,0.7862624178922775,1.9167852833709593,,,,,,,,,,,,
49,0,USUtah,Utah,"",2022-04-28 09:13:11,2021-06-23,0.34691970201063216,0.7862624178922775,1.9167852833709593,,,,,,,,,,,,
49,0,USUtah,Utah,"",2022-04-28 09:13:11,2021-06-24,0.4115838759933204,0.9264857163070732,2.2430849474948276,,,,,,,,,,,,
49,0,USUtah,Utah,"",2022-04-28 09:13:11,2021-06-25,0.4115838759933204,0.9264857163070732,2.2430849474948276,,,,,,,,,,,,
49,0,USUtah,Utah,"",2022-04-28 09:13:11,2021-06-26,0.4115838759933204,0.9264857163070732,2.2430849474948276,,,,,,,,,,,,
49,0,USUtah,Utah,"",2022-04-28 09:13:11,2021-06-27,0.4115838759933204,0.9264857163070732,2.2430849474948276,,,,,,,,,,,,
49,0,USUtah,Utah,"",2022-04-28 09:13:11,2021-06-28,0.4115838759933204,0.9264857163070732,2.2430849474948276,,,,,,,,,,,,
49,0,USUtah,Utah,"",2022-04-28 09:13:11,2021-06-29,0.4115838759933204,0.9264857163070732,2.2430849474948276,,,,,,,,,,,,
49,0,USUtah,Utah,"",2022-04-28 09:13:11,2021-06-30,0.4115838759933204,0.9264857163070732,2.2430849474948276,,,,,,,,,,,,
49,0,USUtah,Utah,"",2022-04-28 09:13:11,2021-07-01,0.41022197584755693,0.9464456063734097,2.349248607572076,,,,,,,,,,,,
49,0,USUtah,Utah,"",2022-04-28 09:13:11,2021-07-02,0.41022197584755693,0.9464456063734097,2.349248607572076,,,,,,,,,,,,
49,0,USUtah,Utah,"",2022-04-28 09:13:11,2021-07-03,0.41022197584755693,0.9464456063734097,2.349248607572076,,,,,,,,,,,,
49,0,USUtah,Utah,"",2022-04-28 09:13:11,2021-07-04,0.41022197584755693,0.9464456063734097,2.349248607572076,,,,,,,,,,,,
49,0,USUtah,Utah,"",2022-04-28 09:13:11,2021-07-05,0.41022197584755693,0.9464456063734097,2.349248607572076,,,,,,,,,,,,
49,0,USUtah,Utah,"",2022-04-28 09:13:11,2021-07-06,0.41022197584755693,0.9464456063734097,2.349248607572076,,,,,,,,,,,,
49,0,USUtah,Utah,"",2022-04-28 09:13:11,2021-07-07,0.41022197584755693,0.9464456063734097,2.349248607572076,,,,,,,,,,,,
49,0,USUtah,Utah,"",2022-04-28 09:13:11,2021-07-08,0.5732596607448596,1.2928410743237255,3.136007584832312,,,,,,,,,,,,
49,0,USUtah,Utah,"",2022-04-28 09:13:11,2021-07-09,0.5732596607448596,1.2928410743237255,3.136007584832312,,,,,,,,,,,,
49,0,USUtah,Utah,"",2022-04-28 09:13:11,2021-07-10,0.5732596607448596,1.2928410743237255,3.136007584832312,,,,,,,,,,,,
49,0,USUtah,Utah,"",2022-04-28 09:13:11,2021-07-11,0.5732596607448596,1.2928410743237255,3.136007584832312,,,,,,,,,,,,
49,0,USUtah,Utah,"",2022-04-28 09:13:11,2021-07-12,0.5732596607448596,1.2928410743237255,3.136007584832312,,,,,,,,,,,,
49,0,USUtah,Utah,"",2022-04-28 09:13:11,2021-07-13,0.5732596607448596,1.2928410743237255,3.136007584832312,,,,,,,,,,,,
49,0,USUtah,Utah,"",2022-04-28 09:13:11,2021-07-14,0.5732596607448596,1.2928410743237255,3.136007584832312,,,,,,,,,,,,
49,0,USUtah,Utah,"",2022-04-28 09:13:11,2021-07-15,0.667031113989363,1.45699175425487,3.4211233304251216,,,,,,,,,,,,
49,0,USUtah,Utah,"",2022-04-28 09:13:11,2021-07-16,0.667031113989363,1.45699175425487,3.4211233304251216,,,,,,,,,,,,
49,0,USUtah,Utah,"",2022-04-28 09:13:11,2021-07-17,0.667031113989363,1.45699175425487,3.4211233304251216,,,,,,,,,,,,
49,0,USUtah,Utah,"",2022-04-28 09:13:11,2021-07-18,0.667031113989363,1.45699175425487,3.4211233304251216,,,,,,,,,,,,
49,0,USUtah,Utah,"",2022-04-28 09:13:11,2021-07-19,0.667031113989363,1.45699175425487,3.4211233304251216,,,,,,,,,,,,
49,0,USUtah,Utah,"",2022-04-28 09:13:11,2021-07-20,0.667031113989363,1.45699175425487,3.4211233304251216,,,,,,,,,,,,
49,0,USUtah,Utah,"",2022-04-28 09:13:11,2021-07-21,0.667031113989363,1.45699175425487,3.4211233304251216,,,,,,,,,,,,
49,0,USUtah,Utah,"",2022-04-28 09:13:11,2021-07-22,0.6993694245337606,1.5326667927659399,3.610920567565089,,,,,,,,,,,,
49,0,USUtah,Utah,"",2022-04-28 09:13:11,2021-07-23,0.6993694245337606,1.5326667927659399,3.610920567565089,,,,,,,,,,,,
49,0,USUtah,Utah,"",2022-04-28 09:13:11,2021-07-24,0.6993694245337606,1.5326667927659399,3.610920567565089,,,,,,,,,,,,
49,0,USUtah,Utah,"",2022-04-28 09:13:11,2021-07-25,0.6993694245337606,1.5326667927659399,3.610920567565089,,,,,,,,,,,,
49,0,USUtah,Utah,"",2022-04-28 09:13:11,2021-07-26,0.6993694245337606,1.5326667927659399,3.610920567565089,,,,,,,,,,,,
49,0,USUtah,Utah,"",2022-04-28 09:13:11,2021-07-27,0.6993694245337606,1.5326667927659399,3.610920567565089,,,,,,,,,,,,
49,0,USUtah,Utah,"",2022-04-28 09:13:11,2021-07-28,0.6993694245337606,1.5326667927659399,3.610920567565089,,,,,,,,,,,,
49,0,USUtah,Utah,"",2022-04-28 09:13:11,2021-07-29,0.9252726061785569,1.9298447100935854,4.321912147371323,,,,,,,,,,,,
49,0,USUtah,Utah,"",2022-04-28 09:13:11,2021-07-30,0.9252726061785569,1.9298447100935854,4.321912147371323,,,,,,,,,,,,
49,0,USUtah,Utah,"",2022-04-28 09:13:11,2021-07-31,0.9252726061785569,1.9298447100935854,4.321912147371323,,,,,,,,,,,,
49,0,USUtah,Utah,"",2022-04-28 09:13:11,2021-08-01,0.9252726061785569,1.9298447100935854,4.321912147371323,,,,,,,,,,,,
49,0,USUtah,Utah,"",2022-04-28 09:13:11,2021-08-02,0.9252726061785569,1.9298447100935854,4.321912147371323,,,,,,,,,,,,
49,0,USUtah,Utah,"",2022-04-28 09:13:11,2021-08-03,0.9252726061785569,1.9298447100935854,4.321912147371323,,,,,,,,,,,,
49,0,USUtah,Utah,"",2022-04-28 09:13:11,2021-08-04,0.9252726061785569,1.9298447100935854,4.321912147371323,,,,,,,,,,,,
49,0,USUtah,Utah,"",2022-04-28 09:13:11,2021-08-05,0.8361792652137056,1.7382626720126824,3.8796191550146917,,,,,,,,,,,,
49,0,USUtah,Utah,"",2022-04-28 09:13:11,2021-08-06,0.8361792652137056,1.7382626720126824,3.8796191550146917,,,,,,,,,,,,
49,0,USUtah,Utah,"",2022-04-28 09:13:11,2021-08-07,0.8361792652137056,1.7382626720126824,3.8796191550146917,,,,,,,,,,,,
49,0,USUtah,Utah,"",2022-04-28 09:13:11,2021-08-08,0.8361792652137056,1.7382626720126824,3.8796191550146917,,,,,,,,,,,,
49,0,USUtah,Utah,"",2022-04-28 09:13:11,2021-08-09,0.8361792652137056,1.7382626720126824,3.8796191550146917,,,,,,,,,,,,
49,0,USUtah,Utah,"",2022-04-28 09:13:11,2021-08-10,0.8361792652137056,1.7382626720126824,3.8796191550146917,,,,,,,,,,,,
49,0,USUtah,Utah,"",2022-04-28 09:13:11,2021-08-11,0.8361792652137056,1.7382626720126824,3.8796191550146917,,,,,,,,,,,,
49,0,USUtah,Utah,"",2022-04-28 09:13:11,2021-08-12,1.0001261133880202,2.0443578695856903,4.484155769177479,,,,,,,,,,,,
49,0,USUtah,Utah,"",2022-04-28 09:13:11,2021-08-13,1.0001261133880202,2.0443578695856903,4.484155769177479,,,,,,,,,,,,
49,0,USUtah,Utah,"",2022-04-28 09:13:11,2021-08-14,1.0001261133880202,2.0443578695856903,4.484155769177479,,,,,,,,,,,,
49,0,USUtah,Utah,"",2022-04-28 09:13:11,2021-08-15,1.0001261133880202,2.0443578695856903,4.484155769177479,,,,,,,,,,,,
49,0,USUtah,Utah,"",2022-04-28 09:13:11,2021-08-16,1.0001261133880202,2.0443578695856903,4.484155769177479,,,,,,,,,,,,
49,0,USUtah,Utah,"",2022-04-28 09:13:11,2021-08-17,1.0001261133880202,2.0443578695856903,4.484155769177479,,,,,,,,,,,,
49,0,USUtah,Utah,"",2022-04-28 09:13:11,2021-08-18,1.0001261133880202,2.0443578695856903,4.484155769177479,,,,,,,,,,,,
49,0,USUtah,Utah,"",2022-04-28 09:13:11,2021-08-19,1.1041163258312403,2.2319556787859742,4.839573323030242,,,,,,,,,,,,
49,0,USUtah,Utah,"",2022-04-28 09:13:11,2021-08-20,1.1041163258312403,2.2319556787859742,4.839573323030242,,,,,,,,,,,,
49,0,USUtah,Utah,"",2022-04-28 09:13:11,2021-08-21,1.1041163258312403,2.2319556787859742,4.839573323030242,,,,,,,,,,,,
49,0,USUtah,Utah,"",2022-04-28 09:13:11,2021-08-22,1.1041163258312403,2.2319556787859742,4.839573323030242,,,,,,,,,,,,
49,0,USUtah,Utah,"",2022-04-28 09:13:11,2021-08-23,1.1041163258312403,2.2319556787859742,4.839573323030242,,,,,,,,,,,,
49,0,USUtah,Utah,"",2022-04-28 09:13:11,2021-08-24,1.1041163258312403,2.2319556787859742,4.839573323030242,,,,,,,,,,,,
49,0,USUtah,Utah,"",2022-04-28 09:13:11,2021-08-25,1.1041163258312403,2.2319556787859742,4.839573323030242,,,,,,,,,,,,
49,0,USUtah,Utah,"",2022-04-28 09:13:11,2021-08-26,1.2052503058070905,2.3250847885234958,4.801738068777416,,,,,,,,,,,,
49,0,USUtah,Utah,"",2022-04-28 09:13:11,2021-08-27,1.2052503058070905,2.3250847885234958,4.801738068777416,,,,,,,,,,,,
49,0,USUtah,Utah,"",2022-04-28 09:13:11,2021-08-28,1.2052503058070905,2.3250847885234958,4.801738068777416,,,,,,,,,,,,
49,0,USUtah,Utah,"",2022-04-28 09:13:11,2021-08-29,1.2052503058070905,2.3250847885234958,4.801738068777416,,,,,,,,,,,,
49,0,USUtah,Utah,"",2022-04-28 09:13:11,2021-08-30,1.2052503058070905,2.3250847885234958,4.801738068777416,,,,,,,,,,,,
49,0,USUtah,Utah,"",2022-04-28 09:13:11,2021-08-31,1.2052503058070905,2.3250847885234958,4.801738068777416,,,,,,,,,,,,
49,0,USUtah,Utah,"",2022-04-28 09:13:11,2021-09-01,1.2052503058070905,2.3250847885234958,4.801738068777416,,,,,,,,,,,,
49,0,USUtah,Utah,"",2022-04-28 09:13:11,2021-09-02,1.2405294960216438,2.336847806723962,4.7068592395666045,,,,,,,,,,,,
49,0,USUtah,Utah,"",2022-04-28 09:13:11,2021-09-03,1.2405294960216438,2.336847806723962,4.7068592395666045,,,,,,,,,,,,
49,0,USUtah,Utah,"",2022-04-28 09:13:11,2021-09-04,1.2405294960216438,2.336847806723962,4.7068592395666045,,,,,,,,,,,,
49,0,USUtah,Utah,"",2022-04-28 09:13:11,2021-09-05,1.2405294960216438,2.336847806723962,4.7068592395666045,,,,,,,,,,,,
49,0,USUtah,Utah,"",2022-04-28 09:13:11,2021-09-06,1.2405294960216438,2.336847806723962,4.7068592395666045,,,,,,,,,,,,
49,0,USUtah,Utah,"",2022-04-28 09:13:11,2021-09-07,1.2405294960216438,2.336847806723962,4.7068592395666045,,,,,,,,,,,,
49,0,USUtah,Utah,"",2022-04-28 09:13:11,2021-09-08,1.2405294960216438,2.336847806723962,4.7068592395666045,,,,,,,,,,,,
49,0,USUtah,Utah,"",2022-04-28 09:13:11,2021-09-09,1.4792079874779829,2.7045441334896627,5.278343770894397,,,,,,,,,,,,
49,0,USUtah,Utah,"",2022-04-28 09:13:11,2021-09-10,1.4792079874779829,2.7045441334896627,5.278343770894397,,,,,,,,,,,,
49,0,USUtah,Utah,"",2022-04-28 09:13:11,2021-09-11,1.4792079874779829,2.7045441334896627,5.278343770894397,,,,,,,,,,,,
49,0,USUtah,Utah,"",2022-04-28 09:13:11,2021-09-12,1.4792079874779829,2.7045441334896627,5.278343770894397,,,,,,,,,,,,
49,0,USUtah,Utah,"",2022-04-28 09:13:11,2021-09-13,1.4792079874779829,2.7045441334896627,5.278343770894397,,,,,,,,,,,,
49,0,USUtah,Utah,"",2022-04-28 09:13:11,2021-09-14,1.4792079874779829,2.7045441334896627,5.278343770894397,,,,,,,,,,,,
49,0,USUtah,Utah,"",2022-04-28 09:13:11,2021-09-15,1.4792079874779829,2.7045441334896627,5.278343770894397,,,,,,,,,,,,
49,0,USUtah,Utah,"",2022-04-28 09:13:11,2021-09-16,1.3202089703068398,2.4987288317420866,5.058027803084712,,,,,,,,,,,,
49,0,USUtah,Utah,"",2022-04-28 09:13:11,2021-09-17,1.3202089703068398,2.4987288317420866,5.058027803084712,,,,,,,,,,,,
49,0,USUtah,Utah,"",2022-04-28 09:13:11,2021-09-18,1.3202089703068398,2.4987288317420866,5.058027803084712,,,,,,,,,,,,
49,0,USUtah,Utah,"",2022-04-28 09:13:11,2021-09-19,1.3202089703068398,2.4987288317420866,5.058027803084712,,,,,,,,,,,,
49,0,USUtah,Utah,"",2022-04-28 09:13:11,2021-09-20,1.3202089703068398,2.4987288317420866,5.058027803084712,,,,,,,,,,,,
49,0,USUtah,Utah,"",2022-04-28 09:13:11,2021-09-21,1.3202089703068398,2.4987288317420866,5.058027803084712,,,,,,,,,,,,
49,0,USUtah,Utah,"",2022-04-28 09:13:11,2021-09-22,1.3202089703068398,2.4987288317420866,5.058027803084712,,,,,,,,,,,,
49,0,USUtah,Utah,"",2022-04-28 09:13:11,2021-09-23,1.242162991331073,2.3783119172200413,4.873027669261777,,,,,,,,,,,,
49,0,USUtah,Utah,"",2022-04-28 09:13:11,2021-09-24,1.242162991331073,2.3783119172200413,4.873027669261777,,,,,,,,,,,,
49,0,USUtah,Utah,"",2022-04-28 09:13:11,2021-09-25,1.242162991331073,2.3783119172200413,4.873027669261777,,,,,,,,,,,,
49,0,USUtah,Utah,"",2022-04-28 09:13:11,2021-09-26,1.242162991331073,2.3783119172200413,4.873027669261777,,,,,,,,,,,,
49,0,USUtah,Utah,"",2022-04-28 09:13:11,2021-09-27,1.242162991331073,2.3783119172200413,4.873027669261777,,,,,,,,,,,,
49,0,USUtah,Utah,"",2022-04-28 09:13:11,2021-09-28,1.242162991331073,2.3783119172200413,4.873027669261777,,,,,,,,,,,,
49,0,USUtah,Utah,"",2022-04-28 09:13:11,2021-09-29,1.242162991331073,2.3783119172200413,4.873027669261777,,,,,,,,,,,,
49,0,USUtah,Utah,"",2022-04-28 09:13:11,2021-09-30,1.3262469362224756,2.5480687556907697,5.239753777893618,,,,,,,,,,,,
49,0,USUtah,Utah,"",2022-04-28 09:13:11,2021-10-01,1.3262469362224756,2.5480687556907697,5.239753777893618,,,,,,,,,,,,
49,0,USUtah,Utah,"",2022-04-28 09:13:11,2021-10-02,1.3262469362224756,2.5480687556907697,5.239753777893618,,,,,,,,,,,,
49,0,USUtah,Utah,"",2022-04-28 09:13:11,2021-10-03,1.3262469362224756,2.5480687556907697,5.239753777893618,,,,,,,,,,,,
49,0,USUtah,Utah,"",2022-04-28 09:13:11,2021-10-04,1.3262469362224756,2.5480687556907697,5.239753777893618,,,,,,,,,,,,
49,0,USUtah,Utah,"",2022-04-28 09:13:11,2021-10-05,1.3262469362224756,2.5480687556907697,5.239753777893618,,,,,,,,,,,,
49,0,USUtah,Utah,"",2022-04-28 09:13:11,2021-10-06,1.3262469362224756,2.5480687556907697,5.239753777893618,,,,,,,,,,,,
49,0,USUtah,Utah,"",2022-04-28 09:13:11,2021-10-07,1.2756153079681503,2.4333942564129423,4.966673513260651,,,,,,,,,,,,
49,0,USUtah,Utah,"",2022-04-28 09:13:11,2021-10-08,1.2756153079681503,2.4333942564129423,4.966673513260651,,,,,,,,,,,,
49,0,USUtah,Utah,"",2022-04-28 09:13:11,2021-10-09,1.2756153079681503,2.4333942564129423,4.966673513260651,,,,,,,,,,,,
49,0,USUtah,Utah,"",2022-04-28 09:13:11,2021-10-10,1.2756153079681503,2.4333942564129423,4.966673513260651,,,,,,,,,,,,
49,0,USUtah,Utah,"",2022-04-28 09:13:11,2021-10-11,1.2756153079681503,2.4333942564129423,4.966673513260651,,,,,,,,,,,,
49,0,USUtah,Utah,"",2022-04-28 09:13:11,2021-10-12,1.2756153079681503,2.4333942564129423,4.966673513260651,,,,,,,,,,,,
49,0,USUtah,Utah,"",2022-04-28 09:13:11,2021-10-13,1.2756153079681503,2.4333942564129423,4.966673513260651,,,,,,,,,,,,
49,0,USUtah,Utah,"",2022-04-28 09:13:11,2021-10-14,1.1530126463755646,2.2441207964079766,4.677731198065717,,,,,,,,,,,,
49,0,USUtah,Utah,"",2022-04-28 09:13:11,2021-10-15,1.1530126463755646,2.2441207964079766,4.677731198065717,,,,,,,,,,,,
49,0,USUtah,Utah,"",2022-04-28 09:13:11,2021-10-16,1.1530126463755646,2.2441207964079766,4.677731198065717,,,,,,,,,,,,
49,0,USUtah,Utah,"",2022-04-28 09:13:11,2021-10-17,1.1530126463755646,2.2441207964079766,4.677731198065717,,,,,,,,,,,,
49,0,USUtah,Utah,"",2022-04-28 09:13:11,2021-10-18,1.1530126463755646,2.2441207964079766,4.677731198065717,,,,,,,,,,,,
49,0,USUtah,Utah,"",2022-04-28 09:13:11,2021-10-19,1.1530126463755646,2.2441207964079766,4.677731198065717,,,,,,,,,,,,
49,0,USUtah,Utah,"",2022-04-28 09:13:11,2021-10-20,1.1530126463755646,2.2441207964079766,4.677731198065717,,,,,,,,,,,,
49,0,USUtah,Utah,"",2022-04-28 09:13:11,2021-10-21,1.495712644635532,2.8628381445913136,5.863788244730263,,,,,,,,,,,,
49,0,USUtah,Utah,"",2022-04-28 09:13:11,2021-10-22,1.495712644635532,2.8628381445913136,5.863788244730263,,,,,,,,,,,,
49,0,USUtah,Utah,"",2022-04-28 09:13:11,2021-10-23,1.495712644635532,2.8628381445913136,5.863788244730263,,,,,,,,,,,,
49,0,USUtah,Utah,"",2022-04-28 09:13:11,2021-10-24,1.495712644635532,2.8628381445913136,5.863788244730263,,,,,,,,,,,,
49,0,USUtah,Utah,"",2022-04-28 09:13:11,2021-10-25,1.495712644635532,2.8628381445913136,5.863788244730263,,,,,,,,,,,,
49,0,USUtah,Utah,"",2022-04-28 09:13:11,2021-10-26,1.495712644635532,2.8628381445913136,5.863788244730263,,,,,,,,,,,,
49,0,USUtah,Utah,"",2022-04-28 09:13:11,2021-10-27,1.495712644635532,2.8628381445913136,5.863788244730263,,,,,,,,,,,,
49,0,USUtah,Utah,"",2022-04-28 09:13:11,2021-10-28,1.3380952793621974,2.524357284194635,5.092441629108667,,,,,,,,,,,,
49,0,USUtah,Utah,"",2022-04-28 09:13:11,2021-10-29,1.3380952793621974,2.524357284194635,5.092441629108667,,,,,,,,,,,,
49,0,USUtah,Utah,"",2022-04-28 09:13:11,2021-10-30,1.3380952793621974,2.524357284194635,5.092441629108667,,,,,,,,,,,,
49,0,USUtah,Utah,"",2022-04-28 09:13:11,2021-10-31,1.3380952793621974,2.524357284194635,5.092441629108667,,,,,,,,,,,,
49,0,USUtah,Utah,"",2022-04-28 09:13:11,2021-11-01,1.3380952793621974,2.524357284194635,5.092441629108667,,,,,,,,,,,,
49,0,USUtah,Utah,"",2022-04-28 09:13:11,2021-11-02,1.3380952793621974,2.524357284194635,5.092441629108667,,,,,,,,,,,,
49,0,USUtah,Utah,"",2022-04-28 09:13:11,2021-11-03,1.3380952793621974,2.524357284194635,5.092441629108667,,,,,,,,,,,,
49,0,USUtah,Utah,"",2022-04-28 09:13:11,2021-11-04,1.456142391706099,2.736369003428991,5.497516441747736,,,,,,,,,,,,
49,0,USUtah,Utah,"",2022-04-28 09:13:11,2021-11-05,1.456142391706099,2.736369003428991,5.497516441747736,,,,,,,,,,,,
49,0,USUtah,Utah,"",2022-04-28 09:13:11,2021-11-06,1.456142391706099,2.736369003428991,5.497516441747736,,,,,,,,,,,,
49,0,USUtah,Utah,"",2022-04-28 09:13:11,2021-11-07,1.456142391706099,2.736369003428991,5.497516441747736,,,,,,,,,,,,
49,0,USUtah,Utah,"",2022-04-28 09:13:11,2021-11-08,1.456142391706099,2.736369003428991,5.497516441747736,,,,,,,,,,,,
49,0,USUtah,Utah,"",2022-04-28 09:13:11,2021-11-09,1.456142391706099,2.736369003428991,5.497516441747736,,,,,,,,,,,,
49,0,USUtah,Utah,"",2022-04-28 09:13:11,2021-11-10,1.456142391706099,2.736369003428991,5.497516441747736,,,,,,,,,,,,
49,0,USUtah,Utah,"",2022-04-28 09:13:11,2021-11-11,1.5436845703926232,2.9380211054687044,5.982205797259177,,,,,,,,,,,,
49,0,USUtah,Utah,"",2022-04-28 09:13:11,2021-11-12,1.5436845703926232,2.9380211054687044,5.982205797259177,,,,,,,,,,,,
49,0,USUtah,Utah,"",2022-04-28 09:13:11,2021-11-13,1.5436845703926232,2.9380211054687044,5.982205797259177,,,,,,,,,,,,
49,0,USUtah,Utah,"",2022-04-28 09:13:11,2021-11-14,1.5436845703926232,2.9380211054687044,5.982205797259177,,,,,,,,,,,,
49,0,USUtah,Utah,"",2022-04-28 09:13:11,2021-11-15,1.5436845703926232,2.9380211054687044,5.982205797259177,,,,,,,,,,,,
49,0,USUtah,Utah,"",2022-04-28 09:13:11,2021-11-16,1.5436845703926232,2.9380211054687044,5.982205797259177,,,,,,,,,,,,
49,0,USUtah,Utah,"",2022-04-28 09:13:11,2021-11-17,1.5436845703926232,2.9380211054687044,5.982205797259177,,,,,,,,,,,,
49,0,USUtah,Utah,"",2022-04-28 09:13:11,2021-11-18,1.3513373888926754,2.552137008422662,5.154431521808253,,,,,,,,,,,,
49,0,USUtah,Utah,"",2022-04-28 09:13:11,2021-11-19,1.3513373888926754,2.552137008422662,5.154431521808253,,,,,,,,,,,,
49,0,USUtah,Utah,"",2022-04-28 09:13:11,2021-11-20,1.3513373888926754,2.552137008422662,5.154431521808253,,,,,,,,,,,,
49,0,USUtah,Utah,"",2022-04-28 09:13:11,2021-11-21,1.3513373888926754,2.552137008422662,5.154431521808253,,,,,,,,,,,,
49,0,USUtah,Utah,"",2022-04-28 09:13:11,2021-11-22,1.3513373888926754,2.552137008422662,5.154431521808253,,,,,,,,,,,,
49,0,USUtah,Utah,"",2022-04-28 09:13:11,2021-11-23,1.3513373888926754,2.552137008422662,5.154431521808253,,,,,,,,,,,,
49,0,USUtah,Utah,"",2022-04-28 09:13:11,2021-11-24,1.3513373888926754,2.552137008422662,5.154431521808253,,,,,,,,,,,,
49,0,USUtah,Utah,"",2022-04-28 09:13:11,2021-11-25,1.1345542378032332,2.2118771030574242,4.618556666766331,,,,,,,,,,,,
49,0,USUtah,Utah,"",2022-04-28 09:13:11,2021-11-26,1.1345542378032332,2.2118771030574242,4.618556666766331,,,,,,,,,,,,
49,0,USUtah,Utah,"",2022-04-28 09:13:11,2021-11-27,1.1345542378032332,2.2118771030574242,4.618556666766331,,,,,,,,,,,,
49,0,USUtah,Utah,"",2022-04-28 09:13:11,2021-11-28,1.1345542378032332,2.2118771030574242,4.618556666766331,,,,,,,,,,,,
49,0,USUtah,Utah,"",2022-04-28 09:13:11,2021-11-29,1.1345542378032332,2.2118771030574242,4.618556666766331,,,,,,,,,,,,
49,0,USUtah,Utah,"",2022-04-28 09:13:11,2021-11-30,1.1345542378032332,2.2118771030574242,4.618556666766331,,,,,,,,,,,,
49,0,USUtah,Utah,"",2022-04-28 09:13:11,2021-12-01,1.1345542378032332,2.2118771030574242,4.618556666766331,,,,,,,,,,,,
49,0,USUtah,Utah,"",2022-04-28 09:13:11,2021-12-02,1.2751560156870874,2.385978068743112,4.771874434010069,,,,,,,,,,,,
49,0,USUtah,Utah,"",2022-04-28 09:13:11,2021-12-03,1.2751560156870874,2.385978068743112,4.771874434010069,,,,,,,,,,,,
49,0,USUtah,Utah,"",2022-04-28 09:13:11,2021-12-04,1.2751560156870874,2.385978068743112,4.771874434010069,,,,,,,,,,,,
49,0,USUtah,Utah,"",2022-04-28 09:13:11,2021-12-05,1.2751560156870874,2.385978068743112,4.771874434010069,,,,,,,,,,,,
49,0,USUtah,Utah,"",2022-04-28 09:13:11,2021-12-06,1.2751560156870874,2.385978068743112,4.771874434010069,,,,,,,,,,,,
49,0,USUtah,Utah,"",2022-04-28 09:13:11,2021-12-07,1.2751560156870874,2.385978068743112,4.771874434010069,,,,,,,,,,,,
49,0,USUtah,Utah,"",2022-04-28 09:13:11,2021-12-08,1.2751560156870874,2.385978068743112,4.771874434010069,,,,,,,,,,,,
49,0,USUtah,Utah,"",2022-04-28 09:13:11,2021-12-09,1.0193568775448907,1.9658810982494501,4.0586365275883605,,,,,,,,,,,,
49,0,USUtah,Utah,"",2022-04-28 09:13:11,2021-12-10,1.0193568775448907,1.9658810982494501,4.0586365275883605,,,,,,,,,,,,
49,0,USUtah,Utah,"",2022-04-28 09:13:11,2021-12-11,1.0193568775448907,1.9658810982494501,4.0586365275883605,,,,,,,,,,,,
49,0,USUtah,Utah,"",2022-04-28 09:13:11,2021-12-12,1.0193568775448907,1.9658810982494501,4.0586365275883605,,,,,,,,,,,,
49,0,USUtah,Utah,"",2022-04-28 09:13:11,2021-12-13,1.0193568775448907,1.9658810982494501,4.0586365275883605,,,,,,,,,,,,
49,0,USUtah,Utah,"",2022-04-28 09:13:11,2021-12-14,1.0193568775448907,1.9658810982494501,4.0586365275883605,,,,,,,,,,,,
49,0,USUtah,Utah,"",2022-04-28 09:13:11,2021-12-15,1.0193568775448907,1.9658810982494501,4.0586365275883605,,,,,,,,,,,,
49,0,USUtah,Utah,"",2022-04-28 09:13:11,2021-12-16,0.9180138004651407,1.7766191832916451,3.681313261318101,,,,,,,,,,,,
49,0,USUtah,Utah,"",2022-04-28 09:13:11,2021-12-17,0.9180138004651407,1.7766191832916451,3.681313261318101,,,,,,,,,,,,
49,0,USUtah,Utah,"",2022-04-28 09:13:11,2021-12-18,0.9180138004651407,1.7766191832916451,3.681313261318101,,,,,,,,,,,,
49,0,USUtah,Utah,"",2022-04-28 09:13:11,2021-12-19,0.9180138004651407,1.7766191832916451,3.681313261318101,,,,,,,,,,,,
49,0,USUtah,Utah,"",2022-04-28 09:13:11,2021-12-20,0.9180138004651407,1.7766191832916451,3.681313261318101,,,,,,,,,,,,
49,0,USUtah,Utah,"",2022-04-28 09:13:11,2021-12-21,0.9180138004651407,1.7766191832916451,3.681313261318101,,,,,,,,,,,,
49,0,USUtah,Utah,"",2022-04-28 09:13:11,2021-12-22,0.9180138004651407,1.7766191832916451,3.681313261318101,,,,,,,,,,,,
49,0,USUtah,Utah,"",2022-04-28 09:13:11,2021-12-23,1.4586760830962104,2.7879661650769507,5.701882577897135,,,,,,,,,,,,
49,0,USUtah,Utah,"",2022-04-28 09:13:11,2021-12-24,1.4586760830962104,2.7879661650769507,5.701882577897135,,,,,,,,,,,,
49,0,USUtah,Utah,"",2022-04-28 09:13:11,2021-12-25,1.4586760830962104,2.7879661650769507,5.701882577897135,,,,,,,,,,,,
49,0,USUtah,Utah,"",2022-04-28 09:13:11,2021-12-26,1.4586760830962104,2.7879661650769507,5.701882577897135,,,,,,,,,,,,
49,0,USUtah,Utah,"",2022-04-28 09:13:11,2021-12-27,1.4586760830962104,2.7879661650769507,5.701882577897135,,,,,,,,,,,,
49,0,USUtah,Utah,"",2022-04-28 09:13:11,2021-12-28,1.4586760830962104,2.7879661650769507,5.701882577897135,,,,,,,,,,,,
49,0,USUtah,Utah,"",2022-04-28 09:13:11,2021-12-29,1.4586760830962104,2.7879661650769507,5.701882577897135,,,,,,,,,,,,
49,0,USUtah,Utah,"",2022-04-28 09:13:11,2021-12-30,3.69614059689016,6.568355082019041,12.436764046973344,,,,,,,,,,,,
49,0,USUtah,Utah,"",2022-04-28 09:13:11,2021-12-31,3.69614059689016,6.568355082019041,12.436764046973344,,,,,,,,,,,,
49,0,USUtah,Utah,"",2022-04-28 09:13:11,2022-01-01,3.69614059689016,6.568355082019041,12.436764046973344,,,,,,,,,,,,
49,0,USUtah,Utah,"",2022-04-28 09:13:11,2022-01-02,3.69614059689016,6.568355082019041,12.436764046973344,,,,,,,,,,,,
49,0,USUtah,Utah,"",2022-04-28 09:13:11,2022-01-03,3.69614059689016,6.568355082019041,12.436764046973344,,,,,,,,,,,,
49,0,USUtah,Utah,"",2022-04-28 09:13:11,2022-01-04,3.69614059689016,6.568355082019041,12.436764046973344,,,,,,,,,,,,
49,0,USUtah,Utah,"",2022-04-28 09:13:11,2022-01-05,3.69614059689016,6.568355082019041,12.436764046973344,,,,,,,,,,,,
49,0,USUtah,Utah,"",2022-04-28 09:13:11,2022-01-06,6.982710957912591,11.411532305679376,19.738854951350117,,,,,,,,,,,,
49,0,USUtah,Utah,"",2022-04-28 09:13:11,2022-01-07,6.982710957912591,11.411532305679376,19.738854951350117,,,,,,,,,,,,
49,0,USUtah,Utah,"",2022-04-28 09:13:11,2022-01-08,6.982710957912591,11.411532305679376,19.738854951350117,,,,,,,,,,,,
49,0,USUtah,Utah,"",2022-04-28 09:13:11,2022-01-09,6.982710957912591,11.411532305679376,19.738854951350117,,,,,,,,,,,,
49,0,USUtah,Utah,"",2022-04-28 09:13:11,2022-01-10,6.982710957912591,11.411532305679376,19.738854951350117,,,,,,,,,,,,
49,0,USUtah,Utah,"",2022-04-28 09:13:11,2022-01-11,6.982710957912591,11.411532305679376,19.738854951350117,,,,,,,,,,,,
49,0,USUtah,Utah,"",2022-04-28 09:13:11,2022-01-12,6.982710957912591,11.411532305679376,19.738854951350117,,,,,,,,,,,,
49,0,USUtah,Utah,"",2022-04-28 09:13:11,2022-01-13,8.327579808419241,13.290690975862422,22.401101041516267,,,,,,,,,,,,
49,0,USUtah,Utah,"",2022-04-28 09:13:11,2022-01-14,8.327579808419241,13.290690975862422,22.401101041516267,,,,,,,,,,,,
49,0,USUtah,Utah,"",2022-04-28 09:13:11,2022-01-15,8.327579808419241,13.290690975862422,22.401101041516267,,,,,,,,,,,,
49,0,USUtah,Utah,"",2022-04-28 09:13:11,2022-01-16,8.327579808419241,13.290690975862422,22.401101041516267,,,,,,,,,,,,
49,0,USUtah,Utah,"",2022-04-28 09:13:11,2022-01-17,8.327579808419241,13.290690975862422,22.401101041516267,,,,,,,,,,,,
49,0,USUtah,Utah,"",2022-04-28 09:13:11,2022-01-18,8.327579808419241,13.290690975862422,22.401101041516267,,,,,,,,,,,,
49,0,USUtah,Utah,"",2022-04-28 09:13:11,2022-01-19,8.327579808419241,13.290690975862422,22.401101041516267,,,,,,,,,,,,
49,0,USUtah,Utah,"",2022-04-28 09:13:11,2022-01-20,6.802859766823609,11.406207872936108,20.287026970200387,,,,,,,,,,,,
49,0,USUtah,Utah,"",2022-04-28 09:13:11,2022-01-21,6.802859766823609,11.406207872936108,20.287026970200387,,,,,,,,,,,,
49,0,USUtah,Utah,"",2022-04-28 09:13:11,2022-01-22,6.802859766823609,11.406207872936108,20.287026970200387,,,,,,,,,,,,
49,0,USUtah,Utah,"",2022-04-28 09:13:11,2022-01-23,6.802859766823609,11.406207872936108,20.287026970200387,,,,,,,,,,,,
49,0,USUtah,Utah,"",2022-04-28 09:13:11,2022-01-24,6.802859766823609,11.406207872936108,20.287026970200387,,,,,,,,,,,,
49,0,USUtah,Utah,"",2022-04-28 09:13:11,2022-01-25,6.802859766823609,11.406207872936108,20.287026970200387,,,,,,,,,,,,
49,0,USUtah,Utah,"",2022-04-28 09:13:11,2022-01-26,6.802859766823609,11.406207872936108,20.287026970200387,,,,,,,,,,,,
49,0,USUtah,Utah,"",2022-04-28 09:13:11,2022-01-27,3.718079555615898,6.704223207416865,12.892571085968912,,,,,,,,,,,,
49,0,USUtah,Utah,"",2022-04-28 09:13:11,2022-01-28,3.718079555615898,6.704223207416865,12.892571085968912,,,,,,,,,,,,
49,0,USUtah,Utah,"",2022-04-28 09:13:11,2022-01-29,3.718079555615898,6.704223207416865,12.892571085968912,,,,,,,,,,,,
49,0,USUtah,Utah,"",2022-04-28 09:13:11,2022-01-30,3.718079555615898,6.704223207416865,12.892571085968912,,,,,,,,,,,,
49,0,USUtah,Utah,"",2022-04-28 09:13:11,2022-01-31,3.718079555615898,6.704223207416865,12.892571085968912,,,,,,,,,,,,
49,0,USUtah,Utah,"",2022-04-28 09:13:11,2022-02-01,3.718079555615898,6.704223207416865,12.892571085968912,,,,,,,,,,,,
49,0,USUtah,Utah,"",2022-04-28 09:13:11,2022-02-02,3.718079555615898,6.704223207416865,12.892571085968912,,,,,,,,,,,,
49,0,USUtah,Utah,"",2022-04-28 09:13:11,2022-02-03,2.0123154606781086,3.8458446730396494,7.864804119519607,,,,,,,,,,,,
49,0,USUtah,Utah,"",2022-04-28 09:13:11,2022-02-04,2.0123154606781086,3.8458446730396494,7.864804119519607,,,,,,,,,,,,
49,0,USUtah,Utah,"",2022-04-28 09:13:11,2022-02-05,2.0123154606781086,3.8458446730396494,7.864804119519607,,,,,,,,,,,,
49,0,USUtah,Utah,"",2022-04-28 09:13:11,2022-02-06,2.0123154606781086,3.8458446730396494,7.864804119519607,,,,,,,,,,,,
49,0,USUtah,Utah,"",2022-04-28 09:13:11,2022-02-07,2.0123154606781086,3.8458446730396494,7.864804119519607,,,,,,,,,,,,
49,0,USUtah,Utah,"",2022-04-28 09:13:11,2022-02-08,2.0123154606781086,3.8458446730396494,7.864804119519607,,,,,,,,,,,,
49,0,USUtah,Utah,"",2022-04-28 09:13:11,2022-02-09,2.0123154606781086,3.8458446730396494,7.864804119519607,,,,,,,,,,,,
49,0,USUtah,Utah,"",2022-04-28 09:13:11,2022-02-10,1.1944907393522508,2.283730373694301,4.672137666882469,,,,,,,,,,,,
49,0,USUtah,Utah,"",2022-04-28 09:13:11,2022-02-11,1.1944907393522508,2.283730373694301,4.672137666882469,,,,,,,,,,,,
49,0,USUtah,Utah,"",2022-04-28 09:13:11,2022-02-12,1.1944907393522508,2.283730373694301,4.672137666882469,,,,,,,,,,,,
49,0,USUtah,Utah,"",2022-04-28 09:13:11,2022-02-13,1.1944907393522508,2.283730373694301,4.672137666882469,,,,,,,,,,,,
49,0,USUtah,Utah,"",2022-04-28 09:13:11,2022-02-14,1.1944907393522508,2.283730373694301,4.672137666882469,,,,,,,,,,,,
49,0,USUtah,Utah,"",2022-04-28 09:13:11,2022-02-15,1.1944907393522508,2.283730373694301,4.672137666882469,,,,,,,,,,,,
49,0,USUtah,Utah,"",2022-04-28 09:13:11,2022-02-16,1.1944907393522508,2.283730373694301,4.672137666882469,,,,,,,,,,,,
49,0,USUtah,Utah,"",2022-04-28 09:13:11,2022-02-17,0.672633564284679,1.376054163211009,3.0208294828884483,,,,,,,,,,,,
49,0,USUtah,Utah,"",2022-04-28 09:13:11,2022-02-18,0.672633564284679,1.376054163211009,3.0208294828884483,,,,,,,,,,,,
49,0,USUtah,Utah,"",2022-04-28 09:13:11,2022-02-19,0.672633564284679,1.376054163211009,3.0208294828884483,,,,,,,,,,,,
49,0,USUtah,Utah,"",2022-04-28 09:13:11,2022-02-20,0.672633564284679,1.376054163211009,3.0208294828884483,,,,,,,,,,,,
49,0,USUtah,Utah,"",2022-04-28 09:13:11,2022-02-21,0.672633564284679,1.376054163211009,3.0208294828884483,,,,,,,,,,,,
49,0,USUtah,Utah,"",2022-04-28 09:13:11,2022-02-22,0.672633564284679,1.376054163211009,3.0208294828884483,,,,,,,,,,,,
49,0,USUtah,Utah,"",2022-04-28 09:13:11,2022-02-23,0.672633564284679,1.376054163211009,3.0208294828884483,,,,,,,,,,,,
49,0,USUtah,Utah,"",2022-04-28 09:13:11,2022-02-24,0.38617505206560143,0.7950365268938213,1.756770094213101,,,,,,,,,,,,
49,0,USUtah,Utah,"",2022-04-28 09:13:11,2022-02-25,0.38617505206560143,0.7950365268938213,1.756770094213101,,,,,,,,,,,,
49,0,USUtah,Utah,"",2022-04-28 09:13:11,2022-02-26,0.38617505206560143,0.7950365268938213,1.756770094213101,,,,,,,,,,,,
49,0,USUtah,Utah,"",2022-04-28 09:13:11,2022-02-27,0.38617505206560143,0.7950365268938213,1.756770094213101,,,,,,,,,,,,
49,0,USUtah,Utah,"",2022-04-28 09:13:11,2022-02-28,0.38617505206560143,0.7950365268938213,1.756770094213101,,,,,,,,,,,,
49,0,USUtah,Utah,"",2022-04-28 09:13:11,2022-03-01,0.38617505206560143,0.7950365268938213,1.756770094213101,,,,,,,,,,,,
49,0,USUtah,Utah,"",2022-04-28 09:13:11,2022-03-02,0.38617505206560143,0.7950365268938213,1.756770094213101,,,,,,,,,,,,
49,0,USUtah,Utah,"",2022-04-28 09:13:11,2022-03-03,0.22478896872966347,0.48115774235352804,1.1066361915819227,,,,,,,,,,,,
49,0,USUtah,Utah,"",2022-04-28 09:13:11,2022-03-04,0.22478896872966347,0.48115774235352804,1.1066361915819227,,,,,,,,,,,,
49,0,USUtah,Utah,"",2022-04-28 09:13:11,2022-03-05,0.22478896872966347,0.48115774235352804,1.1066361915819227,,,,,,,,,,,,
49,0,USUtah,Utah,"",2022-04-28 09:13:11,2022-03-06,0.22478896872966347,0.48115774235352804,1.1066361915819227,,,,,,,,,,,,
49,0,USUtah,Utah,"",2022-04-28 09:13:11,2022-03-07,0.22478896872966347,0.48115774235352804,1.1066361915819227,,,,,,,,,,,,
49,0,USUtah,Utah,"",2022-04-28 09:13:11,2022-03-08,0.22478896872966347,0.48115774235352804,1.1066361915819227,,,,,,,,,,,,
49,0,USUtah,Utah,"",2022-04-28 09:13:11,2022-03-09,0.22478896872966347,0.48115774235352804,1.1066361915819227,,,,,,,,,,,,
49,0,USUtah,Utah,"",2022-04-28 09:13:11,2022-03-10,0.17285181770051258,0.3985626282372517,0.9887198314854205,,,,,,,,,,,,
49,0,USUtah,Utah,"",2022-04-28 09:13:11,2022-03-11,0.17285181770051258,0.3985626282372517,0.9887198314854205,,,,,,,,,,,,
49,0,USUtah,Utah,"",2022-04-28 09:13:11,2022-03-12,0.17285181770051258,0.3985626282372517,0.9887198314854205,,,,,,,,,,,,
49,0,USUtah,Utah,"",2022-04-28 09:13:11,2022-03-13,0.17285181770051258,0.3985626282372517,0.9887198314854205,,,,,,,,,,,,
49,0,USUtah,Utah,"",2022-04-28 09:13:11,2022-03-14,0.17285181770051258,0.3985626282372517,0.9887198314854205,,,,,,,,,,,,
49,0,USUtah,Utah,"",2022-04-28 09:13:11,2022-03-15,0.17285181770051258,0.3985626282372517,0.9887198314854205,,,,,,,,,,,,
49,0,USUtah,Utah,"",2022-04-28 09:13:11,2022-03-16,0.17285181770051258,0.3985626282372517,0.9887198314854205,,,,,,,,,,,,
49,0,USUtah,Utah,"",2022-04-28 09:13:11,2022-03-17,0.1357109360457154,0.3026384163373174,0.7257676110524516,,,,,,,,,,,,
49,0,USUtah,Utah,"",2022-04-28 09:13:11,2022-03-18,0.1357109360457154,0.3026384163373174,0.7257676110524516,,,,,,,,,,,,
49,0,USUtah,Utah,"",2022-04-28 09:13:11,2022-03-19,0.1357109360457154,0.3026384163373174,0.7257676110524516,,,,,,,,,,,,
49,0,USUtah,Utah,"",2022-04-28 09:13:11,2022-03-20,0.1357109360457154,0.3026384163373174,0.7257676110524516,,,,,,,,,,,,
49,0,USUtah,Utah,"",2022-04-28 09:13:11,2022-03-21,0.1357109360457154,0.3026384163373174,0.7257676110524516,,,,,,,,,,,,
49,0,USUtah,Utah,"",2022-04-28 09:13:11,2022-03-22,0.1357109360457154,0.3026384163373174,0.7257676110524516,,,,,,,,,,,,
49,0,USUtah,Utah,"",2022-04-28 09:13:11,2022-03-23,0.1357109360457154,0.3026384163373174,0.7257676110524516,,,,,,,,,,,,
49,0,USUtah,Utah,"",2022-04-28 09:13:11,2022-03-24,0.12593396310907234,0.2914808038273814,0.7258502304286734,,,,,,,,,,,,
49,0,USUtah,Utah,"",2022-04-28 09:13:11,2022-03-25,0.12593396310907234,0.2914808038273814,0.7258502304286734,,,,,,,,,,,,
49,0,USUtah,Utah,"",2022-04-28 09:13:11,2022-03-26,0.12593396310907234,0.2914808038273814,0.7258502304286734,,,,,,,,,,,,
49,0,USUtah,Utah,"",2022-04-28 09:13:11,2022-03-27,0.12593396310907234,0.2914808038273814,0.7258502304286734,,,,,,,,,,,,
49,0,USUtah,Utah,"",2022-04-28 09:13:11,2022-03-28,0.12593396310907234,0.2914808038273814,0.7258502304286734,,,,,,,,,,,,
49,0,USUtah,Utah,"",2022-04-28 09:13:11,2022-03-29,0.12593396310907234,0.2914808038273814,0.7258502304286734,,,,,,,,,,,,
49,0,USUtah,Utah,"",2022-04-28 09:13:11,2022-03-30,0.12593396310907234,0.2914808038273814,0.7258502304286734,,,,,,,,,,,,
49,0,USUtah,Utah,"",2022-04-28 09:13:11,2022-03-31,0.03682863481029297,0.12801097559715235,0.4753167642385001,,,,,,,,,,,,
49,0,USUtah,Utah,"",2022-04-28 09:13:11,2022-04-01,0.03682863481029297,0.12801097559715235,0.4753167642385001,,,,,,,,,,,,
49,0,USUtah,Utah,"",2022-04-28 09:13:11,2022-04-02,0.03682863481029297,0.12801097559715235,0.4753167642385001,,,,,,,,,,,,
49,0,USUtah,Utah,"",2022-04-28 09:13:11,2022-04-03,0.03682863481029297,0.12801097559715235,0.4753167642385001,,,,,,,,,,,,
49,0,USUtah,Utah,"",2022-04-28 09:13:11,2022-04-04,0.03682863481029297,0.12801097559715235,0.4753167642385001,,,,,,,,,,,,
49,0,USUtah,Utah,"",2022-04-28 09:13:11,2022-04-05,0.03682863481029297,0.12801097559715235,0.4753167642385001,,,,,,,,,,,,
49,0,USUtah,Utah,"",2022-04-28 09:13:11,2022-04-06,0.03682863481029297,0.12801097559715235,0.4753167642385001,,,,,,,,,,,,
49,0,USUtah,Utah,"",2022-04-28 09:13:11,2022-04-07,0.11580408132949709,0.2708077277701235,0.681405988136714,,,,,,,,,,,,
49,0,USUtah,Utah,"",2022-04-28 09:13:11,2022-04-08,0.11580408132949709,0.2708077277701235,0.681405988136714,,,,,,,,,,,,
49,0,USUtah,Utah,"",2022-04-28 09:13:11,2022-04-09,0.11580408132949709,0.2708077277701235,0.681405988136714,,,,,,,,,,,,
49,0,USUtah,Utah,"",2022-04-28 09:13:11,2022-04-10,0.11580408132949709,0.2708077277701235,0.681405988136714,,,,,,,,,,,,
49,0,USUtah,Utah,"",2022-04-28 09:13:11,2022-04-11,0.11580408132949709,0.2708077277701235,0.681405988136714,,,,,,,,,,,,
49,0,USUtah,Utah,"",2022-04-28 09:13:11,2022-04-12,0.11580408132949709,0.2708077277701235,0.681405988136714,,,,,,,,,,,,
49,0,USUtah,Utah,"",2022-04-28 09:13:11,2022-04-13,0.11580408132949709,0.2708077277701235,0.681405988136714,,,,,,,,,,,,
49,0,USUtah,Utah,"",2022-04-28 09:13:11,2022-04-14,0.1348176582602724,0.34282688222305696,0.9380701126025253,,,,,,,,,,,,
49,0,USUtah,Utah,"",2022-04-28 09:13:11,2022-04-15,0.1348176582602724,0.34282688222305696,0.9380701126025253,,,,,,,,,,,,
49,0,USUtah,Utah,"",2022-04-28 09:13:11,2022-04-16,0.1348176582602724,0.34282688222305696,0.9380701126025253,,,,,,,,,,,,
49,0,USUtah,Utah,"",2022-04-28 09:13:11,2022-04-17,0.1348176582602724,0.34282688222305696,0.9380701126025253,,,,,,,,,,,,
49,0,USUtah,Utah,"",2022-04-28 09:13:11,2022-04-18,0.1348176582602724,0.34282688222305696,0.9380701126025253,,,,,,,,,,,,
49,0,USUtah,Utah,"",2022-04-28 09:13:11,2022-04-19,0.1348176582602724,0.34282688222305696,0.9380701126025253,,,,,,,,,,,,
49,0,USUtah,Utah,"",2022-04-28 09:13:11,2022-04-20,0.1348176582602724,0.34282688222305696,0.9380701126025253,,,,,,,,,,,,
49,0,USUtah,Utah,"",2022-04-28 09:13:11,2022-04-21,0.21467902266628722,0.538442770727433,1.4532836112930336,,,,,,,,,,,,
49,0,USUtah,Utah,"",2022-04-28 09:13:11,2022-04-22,0.21467902266628722,0.538442770727433,1.4532836112930336,,,,,,,,,,,,
49,0,USUtah,Utah,"",2022-04-28 09:13:11,2022-04-23,0.21467902266628722,0.538442770727433,1.4532836112930336,,,,,,,,,,,,
49,0,USUtah,Utah,"",2022-04-28 09:13:11,2022-04-24,0.21467902266628722,0.538442770727433,1.4532836112930336,,,,,,,,,,,,
49,0,USUtah,Utah,"",2022-04-28 09:13:11,2022-04-25,0.21467902266628722,0.538442770727433,1.4532836112930336,,,,,,,,,,,,
49,0,USUtah,Utah,"",2022-04-28 09:13:11,2022-04-26,0.21467902266628722,0.538442770727433,1.4532836112930336,,,,,,,,,,,,
49,0,USUtah,Utah,"",2022-04-28 09:13:11,2022-04-27,0.21467902266628722,0.538442770727433,1.4532836112930336,,,,,,,,,,,,
