FIPS,HR_UID,nameid,province,region,analysisTime,dates,pointprevalence_025,pointprevalence_50,pointprevalence_975,pointinfections_025,pointinfections_50,pointinfections_975,pointinfectious_025,pointinfectious_50,pointinfectious_975,pointinfectiousprevalence_025,pointinfectiousprevalence_50,pointinfectiousprevalence_975,infectrate_025,infectrate_50,infectrate_975
31153,0,USNebraskaSarpy,Nebraska,Sarpy,2022-04-28 09:13:11,2020-03-19,0.03394161118333619,0.12531982624586435,0.4931671074445453,,,,,,,,,,,,
31153,0,USNebraskaSarpy,Nebraska,Sarpy,2022-04-28 09:13:11,2020-03-20,0.03394161118333619,0.12531982624586435,0.4931671074445453,,,,,,,,,,,,
31153,0,USNebraskaSarpy,Nebraska,Sarpy,2022-04-28 09:13:11,2020-03-21,0.03394161118333619,0.12531982624586435,0.4931671074445453,,,,,,,,,,,,
31153,0,USNebraskaSarpy,Nebraska,Sarpy,2022-04-28 09:13:11,2020-03-22,0.03394161118333619,0.12531982624586435,0.4931671074445453,,,,,,,,,,,,
31153,0,USNebraskaSarpy,Nebraska,Sarpy,2022-04-28 09:13:11,2020-03-23,0.03394161118333619,0.12531982624586435,0.4931671074445453,,,,,,,,,,,,
31153,0,USNebraskaSarpy,Nebraska,Sarpy,2022-04-28 09:13:11,2020-03-24,0.03394161118333619,0.12531982624586435,0.4931671074445453,,,,,,,,,,,,
31153,0,USNebraskaSarpy,Nebraska,Sarpy,2022-04-28 09:13:11,2020-03-25,0.03394161118333619,0.12531982624586435,0.4931671074445453,,,,,,,,,,,,
31153,0,USNebraskaSarpy,Nebraska,Sarpy,2022-04-28 09:13:11,2020-03-26,0.04829477264363951,0.19359305311591724,0.8243605814127546,,,,,,,,,,,,
31153,0,USNebraskaSarpy,Nebraska,Sarpy,2022-04-28 09:13:11,2020-03-27,0.04829477264363951,0.19359305311591724,0.8243605814127546,,,,,,,,,,,,
31153,0,USNebraskaSarpy,Nebraska,Sarpy,2022-04-28 09:13:11,2020-03-28,0.04829477264363951,0.19359305311591724,0.8243605814127546,,,,,,,,,,,,
31153,0,USNebraskaSarpy,Nebraska,Sarpy,2022-04-28 09:13:11,2020-03-29,0.04829477264363951,0.19359305311591724,0.8243605814127546,,,,,,,,,,,,
31153,0,USNebraskaSarpy,Nebraska,Sarpy,2022-04-28 09:13:11,2020-03-30,0.04829477264363951,0.19359305311591724,0.8243605814127546,,,,,,,,,,,,
31153,0,USNebraskaSarpy,Nebraska,Sarpy,2022-04-28 09:13:11,2020-03-31,0.04829477264363951,0.19359305311591724,0.8243605814127546,,,,,,,,,,,,
31153,0,USNebraskaSarpy,Nebraska,Sarpy,2022-04-28 09:13:11,2020-04-01,0.04829477264363951,0.19359305311591724,0.8243605814127546,,,,,,,,,,,,
31153,0,USNebraskaSarpy,Nebraska,Sarpy,2022-04-28 09:13:11,2020-04-02,0.08453536548558778,0.2786678891283637,0.9831150272869911,,,,,,,,,,,,
31153,0,USNebraskaSarpy,Nebraska,Sarpy,2022-04-28 09:13:11,2020-04-03,0.08453536548558778,0.2786678891283637,0.9831150272869911,,,,,,,,,,,,
31153,0,USNebraskaSarpy,Nebraska,Sarpy,2022-04-28 09:13:11,2020-04-04,0.08453536548558778,0.2786678891283637,0.9831150272869911,,,,,,,,,,,,
31153,0,USNebraskaSarpy,Nebraska,Sarpy,2022-04-28 09:13:11,2020-04-05,0.08453536548558778,0.2786678891283637,0.9831150272869911,,,,,,,,,,,,
31153,0,USNebraskaSarpy,Nebraska,Sarpy,2022-04-28 09:13:11,2020-04-06,0.08453536548558778,0.2786678891283637,0.9831150272869911,,,,,,,,,,,,
31153,0,USNebraskaSarpy,Nebraska,Sarpy,2022-04-28 09:13:11,2020-04-07,0.08453536548558778,0.2786678891283637,0.9831150272869911,,,,,,,,,,,,
31153,0,USNebraskaSarpy,Nebraska,Sarpy,2022-04-28 09:13:11,2020-04-08,0.08453536548558778,0.2786678891283637,0.9831150272869911,,,,,,,,,,,,
31153,0,USNebraskaSarpy,Nebraska,Sarpy,2022-04-28 09:13:11,2020-04-09,0.048849394780126724,0.19762295608380856,0.8489571117518188,,,,,,,,,,,,
31153,0,USNebraskaSarpy,Nebraska,Sarpy,2022-04-28 09:13:11,2020-04-10,0.048849394780126724,0.19762295608380856,0.8489571117518188,,,,,,,,,,,,
31153,0,USNebraskaSarpy,Nebraska,Sarpy,2022-04-28 09:13:11,2020-04-11,0.048849394780126724,0.19762295608380856,0.8489571117518188,,,,,,,,,,,,
31153,0,USNebraskaSarpy,Nebraska,Sarpy,2022-04-28 09:13:11,2020-04-12,0.048849394780126724,0.19762295608380856,0.8489571117518188,,,,,,,,,,,,
31153,0,USNebraskaSarpy,Nebraska,Sarpy,2022-04-28 09:13:11,2020-04-13,0.048849394780126724,0.19762295608380856,0.8489571117518188,,,,,,,,,,,,
31153,0,USNebraskaSarpy,Nebraska,Sarpy,2022-04-28 09:13:11,2020-04-14,0.048849394780126724,0.19762295608380856,0.8489571117518188,,,,,,,,,,,,
31153,0,USNebraskaSarpy,Nebraska,Sarpy,2022-04-28 09:13:11,2020-04-15,0.048849394780126724,0.19762295608380856,0.8489571117518188,,,,,,,,,,,,
31153,0,USNebraskaSarpy,Nebraska,Sarpy,2022-04-28 09:13:11,2020-04-16,0.06764917045748854,0.3023139155430554,1.4284290275493616,,,,,,,,,,,,
31153,0,USNebraskaSarpy,Nebraska,Sarpy,2022-04-28 09:13:11,2020-04-17,0.06764917045748854,0.3023139155430554,1.4284290275493616,,,,,,,,,,,,
31153,0,USNebraskaSarpy,Nebraska,Sarpy,2022-04-28 09:13:11,2020-04-18,0.06764917045748854,0.3023139155430554,1.4284290275493616,,,,,,,,,,,,
31153,0,USNebraskaSarpy,Nebraska,Sarpy,2022-04-28 09:13:11,2020-04-19,0.06764917045748854,0.3023139155430554,1.4284290275493616,,,,,,,,,,,,
31153,0,USNebraskaSarpy,Nebraska,Sarpy,2022-04-28 09:13:11,2020-04-20,0.06764917045748854,0.3023139155430554,1.4284290275493616,,,,,,,,,,,,
31153,0,USNebraskaSarpy,Nebraska,Sarpy,2022-04-28 09:13:11,2020-04-21,0.06764917045748854,0.3023139155430554,1.4284290275493616,,,,,,,,,,,,
31153,0,USNebraskaSarpy,Nebraska,Sarpy,2022-04-28 09:13:11,2020-04-22,0.06764917045748854,0.3023139155430554,1.4284290275493616,,,,,,,,,,,,
31153,0,USNebraskaSarpy,Nebraska,Sarpy,2022-04-28 09:13:11,2020-04-23,0.24479280947235904,0.8298557615636168,3.0079120905388157,,,,,,,,,,,,
31153,0,USNebraskaSarpy,Nebraska,Sarpy,2022-04-28 09:13:11,2020-04-24,0.24479280947235904,0.8298557615636168,3.0079120905388157,,,,,,,,,,,,
31153,0,USNebraskaSarpy,Nebraska,Sarpy,2022-04-28 09:13:11,2020-04-25,0.24479280947235904,0.8298557615636168,3.0079120905388157,,,,,,,,,,,,
31153,0,USNebraskaSarpy,Nebraska,Sarpy,2022-04-28 09:13:11,2020-04-26,0.24479280947235904,0.8298557615636168,3.0079120905388157,,,,,,,,,,,,
31153,0,USNebraskaSarpy,Nebraska,Sarpy,2022-04-28 09:13:11,2020-04-27,0.24479280947235904,0.8298557615636168,3.0079120905388157,,,,,,,,,,,,
31153,0,USNebraskaSarpy,Nebraska,Sarpy,2022-04-28 09:13:11,2020-04-28,0.24479280947235904,0.8298557615636168,3.0079120905388157,,,,,,,,,,,,
31153,0,USNebraskaSarpy,Nebraska,Sarpy,2022-04-28 09:13:11,2020-04-29,0.24479280947235904,0.8298557615636168,3.0079120905388157,,,,,,,,,,,,
31153,0,USNebraskaSarpy,Nebraska,Sarpy,2022-04-28 09:13:11,2020-04-30,0.28073769978923035,0.9187345420536712,3.218482999713183,,,,,,,,,,,,
31153,0,USNebraskaSarpy,Nebraska,Sarpy,2022-04-28 09:13:11,2020-05-01,0.28073769978923035,0.9187345420536712,3.218482999713183,,,,,,,,,,,,
31153,0,USNebraskaSarpy,Nebraska,Sarpy,2022-04-28 09:13:11,2020-05-02,0.28073769978923035,0.9187345420536712,3.218482999713183,,,,,,,,,,,,
31153,0,USNebraskaSarpy,Nebraska,Sarpy,2022-04-28 09:13:11,2020-05-03,0.28073769978923035,0.9187345420536712,3.218482999713183,,,,,,,,,,,,
31153,0,USNebraskaSarpy,Nebraska,Sarpy,2022-04-28 09:13:11,2020-05-04,0.28073769978923035,0.9187345420536712,3.218482999713183,,,,,,,,,,,,
31153,0,USNebraskaSarpy,Nebraska,Sarpy,2022-04-28 09:13:11,2020-05-05,0.28073769978923035,0.9187345420536712,3.218482999713183,,,,,,,,,,,,
31153,0,USNebraskaSarpy,Nebraska,Sarpy,2022-04-28 09:13:11,2020-05-06,0.28073769978923035,0.9187345420536712,3.218482999713183,,,,,,,,,,,,
31153,0,USNebraskaSarpy,Nebraska,Sarpy,2022-04-28 09:13:11,2020-05-07,0.30925564353606555,0.8390951473978799,2.448211347836375,,,,,,,,,,,,
31153,0,USNebraskaSarpy,Nebraska,Sarpy,2022-04-28 09:13:11,2020-05-08,0.30925564353606555,0.8390951473978799,2.448211347836375,,,,,,,,,,,,
31153,0,USNebraskaSarpy,Nebraska,Sarpy,2022-04-28 09:13:11,2020-05-09,0.30925564353606555,0.8390951473978799,2.448211347836375,,,,,,,,,,,,
31153,0,USNebraskaSarpy,Nebraska,Sarpy,2022-04-28 09:13:11,2020-05-10,0.30925564353606555,0.8390951473978799,2.448211347836375,,,,,,,,,,,,
31153,0,USNebraskaSarpy,Nebraska,Sarpy,2022-04-28 09:13:11,2020-05-11,0.30925564353606555,0.8390951473978799,2.448211347836375,,,,,,,,,,,,
31153,0,USNebraskaSarpy,Nebraska,Sarpy,2022-04-28 09:13:11,2020-05-12,0.30925564353606555,0.8390951473978799,2.448211347836375,,,,,,,,,,,,
31153,0,USNebraskaSarpy,Nebraska,Sarpy,2022-04-28 09:13:11,2020-05-13,0.30925564353606555,0.8390951473978799,2.448211347836375,,,,,,,,,,,,
31153,0,USNebraskaSarpy,Nebraska,Sarpy,2022-04-28 09:13:11,2020-05-14,0.31788954286143417,0.7555896034205412,1.9326217166942463,,,,,,,,,,,,
31153,0,USNebraskaSarpy,Nebraska,Sarpy,2022-04-28 09:13:11,2020-05-15,0.31788954286143417,0.7555896034205412,1.9326217166942463,,,,,,,,,,,,
31153,0,USNebraskaSarpy,Nebraska,Sarpy,2022-04-28 09:13:11,2020-05-16,0.31788954286143417,0.7555896034205412,1.9326217166942463,,,,,,,,,,,,
31153,0,USNebraskaSarpy,Nebraska,Sarpy,2022-04-28 09:13:11,2020-05-17,0.31788954286143417,0.7555896034205412,1.9326217166942463,,,,,,,,,,,,
31153,0,USNebraskaSarpy,Nebraska,Sarpy,2022-04-28 09:13:11,2020-05-18,0.31788954286143417,0.7555896034205412,1.9326217166942463,,,,,,,,,,,,
31153,0,USNebraskaSarpy,Nebraska,Sarpy,2022-04-28 09:13:11,2020-05-19,0.31788954286143417,0.7555896034205412,1.9326217166942463,,,,,,,,,,,,
31153,0,USNebraskaSarpy,Nebraska,Sarpy,2022-04-28 09:13:11,2020-05-20,0.31788954286143417,0.7555896034205412,1.9326217166942463,,,,,,,,,,,,
31153,0,USNebraskaSarpy,Nebraska,Sarpy,2022-04-28 09:13:11,2020-05-21,0.3406265405015793,0.7910097455033103,1.9763695873847873,,,,,,,,,,,,
31153,0,USNebraskaSarpy,Nebraska,Sarpy,2022-04-28 09:13:11,2020-05-22,0.3406265405015793,0.7910097455033103,1.9763695873847873,,,,,,,,,,,,
31153,0,USNebraskaSarpy,Nebraska,Sarpy,2022-04-28 09:13:11,2020-05-23,0.3406265405015793,0.7910097455033103,1.9763695873847873,,,,,,,,,,,,
31153,0,USNebraskaSarpy,Nebraska,Sarpy,2022-04-28 09:13:11,2020-05-24,0.3406265405015793,0.7910097455033103,1.9763695873847873,,,,,,,,,,,,
31153,0,USNebraskaSarpy,Nebraska,Sarpy,2022-04-28 09:13:11,2020-05-25,0.3406265405015793,0.7910097455033103,1.9763695873847873,,,,,,,,,,,,
31153,0,USNebraskaSarpy,Nebraska,Sarpy,2022-04-28 09:13:11,2020-05-26,0.3406265405015793,0.7910097455033103,1.9763695873847873,,,,,,,,,,,,
31153,0,USNebraskaSarpy,Nebraska,Sarpy,2022-04-28 09:13:11,2020-05-27,0.3406265405015793,0.7910097455033103,1.9763695873847873,,,,,,,,,,,,
31153,0,USNebraskaSarpy,Nebraska,Sarpy,2022-04-28 09:13:11,2020-05-28,0.5019808536867724,1.0518384297062395,2.3668491573682577,,,,,,,,,,,,
31153,0,USNebraskaSarpy,Nebraska,Sarpy,2022-04-28 09:13:11,2020-05-29,0.5019808536867724,1.0518384297062395,2.3668491573682577,,,,,,,,,,,,
31153,0,USNebraskaSarpy,Nebraska,Sarpy,2022-04-28 09:13:11,2020-05-30,0.5019808536867724,1.0518384297062395,2.3668491573682577,,,,,,,,,,,,
31153,0,USNebraskaSarpy,Nebraska,Sarpy,2022-04-28 09:13:11,2020-05-31,0.5019808536867724,1.0518384297062395,2.3668491573682577,,,,,,,,,,,,
31153,0,USNebraskaSarpy,Nebraska,Sarpy,2022-04-28 09:13:11,2020-06-01,0.5019808536867724,1.0518384297062395,2.3668491573682577,,,,,,,,,,,,
31153,0,USNebraskaSarpy,Nebraska,Sarpy,2022-04-28 09:13:11,2020-06-02,0.5019808536867724,1.0518384297062395,2.3668491573682577,,,,,,,,,,,,
31153,0,USNebraskaSarpy,Nebraska,Sarpy,2022-04-28 09:13:11,2020-06-03,0.5019808536867724,1.0518384297062395,2.3668491573682577,,,,,,,,,,,,
31153,0,USNebraskaSarpy,Nebraska,Sarpy,2022-04-28 09:13:11,2020-06-04,0.28779567175938237,0.647117907215562,1.5649562683364708,,,,,,,,,,,,
31153,0,USNebraskaSarpy,Nebraska,Sarpy,2022-04-28 09:13:11,2020-06-05,0.28779567175938237,0.647117907215562,1.5649562683364708,,,,,,,,,,,,
31153,0,USNebraskaSarpy,Nebraska,Sarpy,2022-04-28 09:13:11,2020-06-06,0.28779567175938237,0.647117907215562,1.5649562683364708,,,,,,,,,,,,
31153,0,USNebraskaSarpy,Nebraska,Sarpy,2022-04-28 09:13:11,2020-06-07,0.28779567175938237,0.647117907215562,1.5649562683364708,,,,,,,,,,,,
31153,0,USNebraskaSarpy,Nebraska,Sarpy,2022-04-28 09:13:11,2020-06-08,0.28779567175938237,0.647117907215562,1.5649562683364708,,,,,,,,,,,,
31153,0,USNebraskaSarpy,Nebraska,Sarpy,2022-04-28 09:13:11,2020-06-09,0.28779567175938237,0.647117907215562,1.5649562683364708,,,,,,,,,,,,
31153,0,USNebraskaSarpy,Nebraska,Sarpy,2022-04-28 09:13:11,2020-06-10,0.28779567175938237,0.647117907215562,1.5649562683364708,,,,,,,,,,,,
31153,0,USNebraskaSarpy,Nebraska,Sarpy,2022-04-28 09:13:11,2020-06-11,0.3356778547661489,0.6792656913527626,1.4744285253195906,,,,,,,,,,,,
31153,0,USNebraskaSarpy,Nebraska,Sarpy,2022-04-28 09:13:11,2020-06-12,0.3356778547661489,0.6792656913527626,1.4744285253195906,,,,,,,,,,,,
31153,0,USNebraskaSarpy,Nebraska,Sarpy,2022-04-28 09:13:11,2020-06-13,0.3356778547661489,0.6792656913527626,1.4744285253195906,,,,,,,,,,,,
31153,0,USNebraskaSarpy,Nebraska,Sarpy,2022-04-28 09:13:11,2020-06-14,0.3356778547661489,0.6792656913527626,1.4744285253195906,,,,,,,,,,,,
31153,0,USNebraskaSarpy,Nebraska,Sarpy,2022-04-28 09:13:11,2020-06-15,0.3356778547661489,0.6792656913527626,1.4744285253195906,,,,,,,,,,,,
31153,0,USNebraskaSarpy,Nebraska,Sarpy,2022-04-28 09:13:11,2020-06-16,0.3356778547661489,0.6792656913527626,1.4744285253195906,,,,,,,,,,,,
31153,0,USNebraskaSarpy,Nebraska,Sarpy,2022-04-28 09:13:11,2020-06-17,0.3356778547661489,0.6792656913527626,1.4744285253195906,,,,,,,,,,,,
31153,0,USNebraskaSarpy,Nebraska,Sarpy,2022-04-28 09:13:11,2020-06-18,0.28061450246747627,0.5870588583231247,1.3188423392504771,,,,,,,,,,,,
31153,0,USNebraskaSarpy,Nebraska,Sarpy,2022-04-28 09:13:11,2020-06-19,0.28061450246747627,0.5870588583231247,1.3188423392504771,,,,,,,,,,,,
31153,0,USNebraskaSarpy,Nebraska,Sarpy,2022-04-28 09:13:11,2020-06-20,0.28061450246747627,0.5870588583231247,1.3188423392504771,,,,,,,,,,,,
31153,0,USNebraskaSarpy,Nebraska,Sarpy,2022-04-28 09:13:11,2020-06-21,0.28061450246747627,0.5870588583231247,1.3188423392504771,,,,,,,,,,,,
31153,0,USNebraskaSarpy,Nebraska,Sarpy,2022-04-28 09:13:11,2020-06-22,0.28061450246747627,0.5870588583231247,1.3188423392504771,,,,,,,,,,,,
31153,0,USNebraskaSarpy,Nebraska,Sarpy,2022-04-28 09:13:11,2020-06-23,0.28061450246747627,0.5870588583231247,1.3188423392504771,,,,,,,,,,,,
31153,0,USNebraskaSarpy,Nebraska,Sarpy,2022-04-28 09:13:11,2020-06-24,0.28061450246747627,0.5870588583231247,1.3188423392504771,,,,,,,,,,,,
31153,0,USNebraskaSarpy,Nebraska,Sarpy,2022-04-28 09:13:11,2020-06-25,0.28011102017335193,0.5580611502357236,1.1919071785440367,,,,,,,,,,,,
31153,0,USNebraskaSarpy,Nebraska,Sarpy,2022-04-28 09:13:11,2020-06-26,0.28011102017335193,0.5580611502357236,1.1919071785440367,,,,,,,,,,,,
31153,0,USNebraskaSarpy,Nebraska,Sarpy,2022-04-28 09:13:11,2020-06-27,0.28011102017335193,0.5580611502357236,1.1919071785440367,,,,,,,,,,,,
31153,0,USNebraskaSarpy,Nebraska,Sarpy,2022-04-28 09:13:11,2020-06-28,0.28011102017335193,0.5580611502357236,1.1919071785440367,,,,,,,,,,,,
31153,0,USNebraskaSarpy,Nebraska,Sarpy,2022-04-28 09:13:11,2020-06-29,0.28011102017335193,0.5580611502357236,1.1919071785440367,,,,,,,,,,,,
31153,0,USNebraskaSarpy,Nebraska,Sarpy,2022-04-28 09:13:11,2020-06-30,0.28011102017335193,0.5580611502357236,1.1919071785440367,,,,,,,,,,,,
31153,0,USNebraskaSarpy,Nebraska,Sarpy,2022-04-28 09:13:11,2020-07-01,0.28011102017335193,0.5580611502357236,1.1919071785440367,,,,,,,,,,,,
31153,0,USNebraskaSarpy,Nebraska,Sarpy,2022-04-28 09:13:11,2020-07-02,0.2504372865783783,0.5536775777266686,1.3161802222070085,,,,,,,,,,,,
31153,0,USNebraskaSarpy,Nebraska,Sarpy,2022-04-28 09:13:11,2020-07-03,0.2504372865783783,0.5536775777266686,1.3161802222070085,,,,,,,,,,,,
31153,0,USNebraskaSarpy,Nebraska,Sarpy,2022-04-28 09:13:11,2020-07-04,0.2504372865783783,0.5536775777266686,1.3161802222070085,,,,,,,,,,,,
31153,0,USNebraskaSarpy,Nebraska,Sarpy,2022-04-28 09:13:11,2020-07-05,0.2504372865783783,0.5536775777266686,1.3161802222070085,,,,,,,,,,,,
31153,0,USNebraskaSarpy,Nebraska,Sarpy,2022-04-28 09:13:11,2020-07-06,0.2504372865783783,0.5536775777266686,1.3161802222070085,,,,,,,,,,,,
31153,0,USNebraskaSarpy,Nebraska,Sarpy,2022-04-28 09:13:11,2020-07-07,0.2504372865783783,0.5536775777266686,1.3161802222070085,,,,,,,,,,,,
31153,0,USNebraskaSarpy,Nebraska,Sarpy,2022-04-28 09:13:11,2020-07-08,0.2504372865783783,0.5536775777266686,1.3161802222070085,,,,,,,,,,,,
31153,0,USNebraskaSarpy,Nebraska,Sarpy,2022-04-28 09:13:11,2020-07-09,0.38803289378549055,0.7420155858031711,1.518344657858786,,,,,,,,,,,,
31153,0,USNebraskaSarpy,Nebraska,Sarpy,2022-04-28 09:13:11,2020-07-10,0.38803289378549055,0.7420155858031711,1.518344657858786,,,,,,,,,,,,
31153,0,USNebraskaSarpy,Nebraska,Sarpy,2022-04-28 09:13:11,2020-07-11,0.38803289378549055,0.7420155858031711,1.518344657858786,,,,,,,,,,,,
31153,0,USNebraskaSarpy,Nebraska,Sarpy,2022-04-28 09:13:11,2020-07-12,0.38803289378549055,0.7420155858031711,1.518344657858786,,,,,,,,,,,,
31153,0,USNebraskaSarpy,Nebraska,Sarpy,2022-04-28 09:13:11,2020-07-13,0.38803289378549055,0.7420155858031711,1.518344657858786,,,,,,,,,,,,
31153,0,USNebraskaSarpy,Nebraska,Sarpy,2022-04-28 09:13:11,2020-07-14,0.38803289378549055,0.7420155858031711,1.518344657858786,,,,,,,,,,,,
31153,0,USNebraskaSarpy,Nebraska,Sarpy,2022-04-28 09:13:11,2020-07-15,0.38803289378549055,0.7420155858031711,1.518344657858786,,,,,,,,,,,,
31153,0,USNebraskaSarpy,Nebraska,Sarpy,2022-04-28 09:13:11,2020-07-16,0.38915684247761534,0.754167057541144,1.5649539520841198,,,,,,,,,,,,
31153,0,USNebraskaSarpy,Nebraska,Sarpy,2022-04-28 09:13:11,2020-07-17,0.38915684247761534,0.754167057541144,1.5649539520841198,,,,,,,,,,,,
31153,0,USNebraskaSarpy,Nebraska,Sarpy,2022-04-28 09:13:11,2020-07-18,0.38915684247761534,0.754167057541144,1.5649539520841198,,,,,,,,,,,,
31153,0,USNebraskaSarpy,Nebraska,Sarpy,2022-04-28 09:13:11,2020-07-19,0.38915684247761534,0.754167057541144,1.5649539520841198,,,,,,,,,,,,
31153,0,USNebraskaSarpy,Nebraska,Sarpy,2022-04-28 09:13:11,2020-07-20,0.38915684247761534,0.754167057541144,1.5649539520841198,,,,,,,,,,,,
31153,0,USNebraskaSarpy,Nebraska,Sarpy,2022-04-28 09:13:11,2020-07-21,0.38915684247761534,0.754167057541144,1.5649539520841198,,,,,,,,,,,,
31153,0,USNebraskaSarpy,Nebraska,Sarpy,2022-04-28 09:13:11,2020-07-22,0.38915684247761534,0.754167057541144,1.5649539520841198,,,,,,,,,,,,
31153,0,USNebraskaSarpy,Nebraska,Sarpy,2022-04-28 09:13:11,2020-07-23,0.5916617132582503,1.1033894560446111,2.198991147189945,,,,,,,,,,,,
31153,0,USNebraskaSarpy,Nebraska,Sarpy,2022-04-28 09:13:11,2020-07-24,0.5916617132582503,1.1033894560446111,2.198991147189945,,,,,,,,,,,,
31153,0,USNebraskaSarpy,Nebraska,Sarpy,2022-04-28 09:13:11,2020-07-25,0.5916617132582503,1.1033894560446111,2.198991147189945,,,,,,,,,,,,
31153,0,USNebraskaSarpy,Nebraska,Sarpy,2022-04-28 09:13:11,2020-07-26,0.5916617132582503,1.1033894560446111,2.198991147189945,,,,,,,,,,,,
31153,0,USNebraskaSarpy,Nebraska,Sarpy,2022-04-28 09:13:11,2020-07-27,0.5916617132582503,1.1033894560446111,2.198991147189945,,,,,,,,,,,,
31153,0,USNebraskaSarpy,Nebraska,Sarpy,2022-04-28 09:13:11,2020-07-28,0.5916617132582503,1.1033894560446111,2.198991147189945,,,,,,,,,,,,
31153,0,USNebraskaSarpy,Nebraska,Sarpy,2022-04-28 09:13:11,2020-07-29,0.5916617132582503,1.1033894560446111,2.198991147189945,,,,,,,,,,,,
31153,0,USNebraskaSarpy,Nebraska,Sarpy,2022-04-28 09:13:11,2020-07-30,0.5833632443418162,1.107989731599936,2.2511094672457364,,,,,,,,,,,,
31153,0,USNebraskaSarpy,Nebraska,Sarpy,2022-04-28 09:13:11,2020-07-31,0.5833632443418162,1.107989731599936,2.2511094672457364,,,,,,,,,,,,
31153,0,USNebraskaSarpy,Nebraska,Sarpy,2022-04-28 09:13:11,2020-08-01,0.5833632443418162,1.107989731599936,2.2511094672457364,,,,,,,,,,,,
31153,0,USNebraskaSarpy,Nebraska,Sarpy,2022-04-28 09:13:11,2020-08-02,0.5833632443418162,1.107989731599936,2.2511094672457364,,,,,,,,,,,,
31153,0,USNebraskaSarpy,Nebraska,Sarpy,2022-04-28 09:13:11,2020-08-03,0.5833632443418162,1.107989731599936,2.2511094672457364,,,,,,,,,,,,
31153,0,USNebraskaSarpy,Nebraska,Sarpy,2022-04-28 09:13:11,2020-08-04,0.5833632443418162,1.107989731599936,2.2511094672457364,,,,,,,,,,,,
31153,0,USNebraskaSarpy,Nebraska,Sarpy,2022-04-28 09:13:11,2020-08-05,0.5833632443418162,1.107989731599936,2.2511094672457364,,,,,,,,,,,,
31153,0,USNebraskaSarpy,Nebraska,Sarpy,2022-04-28 09:13:11,2020-08-06,0.48290167909149945,0.9346665441822725,1.9369590480946917,,,,,,,,,,,,
31153,0,USNebraskaSarpy,Nebraska,Sarpy,2022-04-28 09:13:11,2020-08-07,0.48290167909149945,0.9346665441822725,1.9369590480946917,,,,,,,,,,,,
31153,0,USNebraskaSarpy,Nebraska,Sarpy,2022-04-28 09:13:11,2020-08-08,0.48290167909149945,0.9346665441822725,1.9369590480946917,,,,,,,,,,,,
31153,0,USNebraskaSarpy,Nebraska,Sarpy,2022-04-28 09:13:11,2020-08-09,0.48290167909149945,0.9346665441822725,1.9369590480946917,,,,,,,,,,,,
31153,0,USNebraskaSarpy,Nebraska,Sarpy,2022-04-28 09:13:11,2020-08-10,0.48290167909149945,0.9346665441822725,1.9369590480946917,,,,,,,,,,,,
31153,0,USNebraskaSarpy,Nebraska,Sarpy,2022-04-28 09:13:11,2020-08-11,0.48290167909149945,0.9346665441822725,1.9369590480946917,,,,,,,,,,,,
31153,0,USNebraskaSarpy,Nebraska,Sarpy,2022-04-28 09:13:11,2020-08-12,0.48290167909149945,0.9346665441822725,1.9369590480946917,,,,,,,,,,,,
31153,0,USNebraskaSarpy,Nebraska,Sarpy,2022-04-28 09:13:11,2020-08-13,0.5114689138211113,0.9916763481897996,2.0588343893659444,,,,,,,,,,,,
31153,0,USNebraskaSarpy,Nebraska,Sarpy,2022-04-28 09:13:11,2020-08-14,0.5114689138211113,0.9916763481897996,2.0588343893659444,,,,,,,,,,,,
31153,0,USNebraskaSarpy,Nebraska,Sarpy,2022-04-28 09:13:11,2020-08-15,0.5114689138211113,0.9916763481897996,2.0588343893659444,,,,,,,,,,,,
31153,0,USNebraskaSarpy,Nebraska,Sarpy,2022-04-28 09:13:11,2020-08-16,0.5114689138211113,0.9916763481897996,2.0588343893659444,,,,,,,,,,,,
31153,0,USNebraskaSarpy,Nebraska,Sarpy,2022-04-28 09:13:11,2020-08-17,0.5114689138211113,0.9916763481897996,2.0588343893659444,,,,,,,,,,,,
31153,0,USNebraskaSarpy,Nebraska,Sarpy,2022-04-28 09:13:11,2020-08-18,0.5114689138211113,0.9916763481897996,2.0588343893659444,,,,,,,,,,,,
31153,0,USNebraskaSarpy,Nebraska,Sarpy,2022-04-28 09:13:11,2020-08-19,0.5114689138211113,0.9916763481897996,2.0588343893659444,,,,,,,,,,,,
31153,0,USNebraskaSarpy,Nebraska,Sarpy,2022-04-28 09:13:11,2020-08-20,0.3802157357025876,0.7895749988883596,1.7603561280256645,,,,,,,,,,,,
31153,0,USNebraskaSarpy,Nebraska,Sarpy,2022-04-28 09:13:11,2020-08-21,0.3802157357025876,0.7895749988883596,1.7603561280256645,,,,,,,,,,,,
31153,0,USNebraskaSarpy,Nebraska,Sarpy,2022-04-28 09:13:11,2020-08-22,0.3802157357025876,0.7895749988883596,1.7603561280256645,,,,,,,,,,,,
31153,0,USNebraskaSarpy,Nebraska,Sarpy,2022-04-28 09:13:11,2020-08-23,0.3802157357025876,0.7895749988883596,1.7603561280256645,,,,,,,,,,,,
31153,0,USNebraskaSarpy,Nebraska,Sarpy,2022-04-28 09:13:11,2020-08-24,0.3802157357025876,0.7895749988883596,1.7603561280256645,,,,,,,,,,,,
31153,0,USNebraskaSarpy,Nebraska,Sarpy,2022-04-28 09:13:11,2020-08-25,0.3802157357025876,0.7895749988883596,1.7603561280256645,,,,,,,,,,,,
31153,0,USNebraskaSarpy,Nebraska,Sarpy,2022-04-28 09:13:11,2020-08-26,0.3802157357025876,0.7895749988883596,1.7603561280256645,,,,,,,,,,,,
31153,0,USNebraskaSarpy,Nebraska,Sarpy,2022-04-28 09:13:11,2020-08-27,0.4225363955013545,0.8870249502999077,1.9998173656953993,,,,,,,,,,,,
31153,0,USNebraskaSarpy,Nebraska,Sarpy,2022-04-28 09:13:11,2020-08-28,0.4225363955013545,0.8870249502999077,1.9998173656953993,,,,,,,,,,,,
31153,0,USNebraskaSarpy,Nebraska,Sarpy,2022-04-28 09:13:11,2020-08-29,0.4225363955013545,0.8870249502999077,1.9998173656953993,,,,,,,,,,,,
31153,0,USNebraskaSarpy,Nebraska,Sarpy,2022-04-28 09:13:11,2020-08-30,0.4225363955013545,0.8870249502999077,1.9998173656953993,,,,,,,,,,,,
31153,0,USNebraskaSarpy,Nebraska,Sarpy,2022-04-28 09:13:11,2020-08-31,0.4225363955013545,0.8870249502999077,1.9998173656953993,,,,,,,,,,,,
31153,0,USNebraskaSarpy,Nebraska,Sarpy,2022-04-28 09:13:11,2020-09-01,0.4225363955013545,0.8870249502999077,1.9998173656953993,,,,,,,,,,,,
31153,0,USNebraskaSarpy,Nebraska,Sarpy,2022-04-28 09:13:11,2020-09-02,0.4225363955013545,0.8870249502999077,1.9998173656953993,,,,,,,,,,,,
31153,0,USNebraskaSarpy,Nebraska,Sarpy,2022-04-28 09:13:11,2020-09-03,0.3450742286181176,0.750046889731061,1.7523495157050983,,,,,,,,,,,,
31153,0,USNebraskaSarpy,Nebraska,Sarpy,2022-04-28 09:13:11,2020-09-04,0.3450742286181176,0.750046889731061,1.7523495157050983,,,,,,,,,,,,
31153,0,USNebraskaSarpy,Nebraska,Sarpy,2022-04-28 09:13:11,2020-09-05,0.3450742286181176,0.750046889731061,1.7523495157050983,,,,,,,,,,,,
31153,0,USNebraskaSarpy,Nebraska,Sarpy,2022-04-28 09:13:11,2020-09-06,0.3450742286181176,0.750046889731061,1.7523495157050983,,,,,,,,,,,,
31153,0,USNebraskaSarpy,Nebraska,Sarpy,2022-04-28 09:13:11,2020-09-07,0.3450742286181176,0.750046889731061,1.7523495157050983,,,,,,,,,,,,
31153,0,USNebraskaSarpy,Nebraska,Sarpy,2022-04-28 09:13:11,2020-09-08,0.3450742286181176,0.750046889731061,1.7523495157050983,,,,,,,,,,,,
31153,0,USNebraskaSarpy,Nebraska,Sarpy,2022-04-28 09:13:11,2020-09-09,0.3450742286181176,0.750046889731061,1.7523495157050983,,,,,,,,,,,,
31153,0,USNebraskaSarpy,Nebraska,Sarpy,2022-04-28 09:13:11,2020-09-10,0.5333151440593227,1.0568163674273745,2.2445511936492863,,,,,,,,,,,,
31153,0,USNebraskaSarpy,Nebraska,Sarpy,2022-04-28 09:13:11,2020-09-11,0.5333151440593227,1.0568163674273745,2.2445511936492863,,,,,,,,,,,,
31153,0,USNebraskaSarpy,Nebraska,Sarpy,2022-04-28 09:13:11,2020-09-12,0.5333151440593227,1.0568163674273745,2.2445511936492863,,,,,,,,,,,,
31153,0,USNebraskaSarpy,Nebraska,Sarpy,2022-04-28 09:13:11,2020-09-13,0.5333151440593227,1.0568163674273745,2.2445511936492863,,,,,,,,,,,,
31153,0,USNebraskaSarpy,Nebraska,Sarpy,2022-04-28 09:13:11,2020-09-14,0.5333151440593227,1.0568163674273745,2.2445511936492863,,,,,,,,,,,,
31153,0,USNebraskaSarpy,Nebraska,Sarpy,2022-04-28 09:13:11,2020-09-15,0.5333151440593227,1.0568163674273745,2.2445511936492863,,,,,,,,,,,,
31153,0,USNebraskaSarpy,Nebraska,Sarpy,2022-04-28 09:13:11,2020-09-16,0.5333151440593227,1.0568163674273745,2.2445511936492863,,,,,,,,,,,,
31153,0,USNebraskaSarpy,Nebraska,Sarpy,2022-04-28 09:13:11,2020-09-17,0.5737395340635782,1.1547374806873,2.4924815490038985,,,,,,,,,,,,
31153,0,USNebraskaSarpy,Nebraska,Sarpy,2022-04-28 09:13:11,2020-09-18,0.5737395340635782,1.1547374806873,2.4924815490038985,,,,,,,,,,,,
31153,0,USNebraskaSarpy,Nebraska,Sarpy,2022-04-28 09:13:11,2020-09-19,0.5737395340635782,1.1547374806873,2.4924815490038985,,,,,,,,,,,,
31153,0,USNebraskaSarpy,Nebraska,Sarpy,2022-04-28 09:13:11,2020-09-20,0.5737395340635782,1.1547374806873,2.4924815490038985,,,,,,,,,,,,
31153,0,USNebraskaSarpy,Nebraska,Sarpy,2022-04-28 09:13:11,2020-09-21,0.5737395340635782,1.1547374806873,2.4924815490038985,,,,,,,,,,,,
31153,0,USNebraskaSarpy,Nebraska,Sarpy,2022-04-28 09:13:11,2020-09-22,0.5737395340635782,1.1547374806873,2.4924815490038985,,,,,,,,,,,,
31153,0,USNebraskaSarpy,Nebraska,Sarpy,2022-04-28 09:13:11,2020-09-23,0.5737395340635782,1.1547374806873,2.4924815490038985,,,,,,,,,,,,
31153,0,USNebraskaSarpy,Nebraska,Sarpy,2022-04-28 09:13:11,2020-09-24,0.6687662440994175,1.3018578545495982,2.714145698610625,,,,,,,,,,,,
31153,0,USNebraskaSarpy,Nebraska,Sarpy,2022-04-28 09:13:11,2020-09-25,0.6687662440994175,1.3018578545495982,2.714145698610625,,,,,,,,,,,,
31153,0,USNebraskaSarpy,Nebraska,Sarpy,2022-04-28 09:13:11,2020-09-26,0.6687662440994175,1.3018578545495982,2.714145698610625,,,,,,,,,,,,
31153,0,USNebraskaSarpy,Nebraska,Sarpy,2022-04-28 09:13:11,2020-09-27,0.6687662440994175,1.3018578545495982,2.714145698610625,,,,,,,,,,,,
31153,0,USNebraskaSarpy,Nebraska,Sarpy,2022-04-28 09:13:11,2020-09-28,0.6687662440994175,1.3018578545495982,2.714145698610625,,,,,,,,,,,,
31153,0,USNebraskaSarpy,Nebraska,Sarpy,2022-04-28 09:13:11,2020-09-29,0.6687662440994175,1.3018578545495982,2.714145698610625,,,,,,,,,,,,
31153,0,USNebraskaSarpy,Nebraska,Sarpy,2022-04-28 09:13:11,2020-09-30,0.6687662440994175,1.3018578545495982,2.714145698610625,,,,,,,,,,,,
31153,0,USNebraskaSarpy,Nebraska,Sarpy,2022-04-28 09:13:11,2020-10-01,0.7076412949059927,1.2640022333698282,2.406441614821305,,,,,,,,,,,,
31153,0,USNebraskaSarpy,Nebraska,Sarpy,2022-04-28 09:13:11,2020-10-02,0.7076412949059927,1.2640022333698282,2.406441614821305,,,,,,,,,,,,
31153,0,USNebraskaSarpy,Nebraska,Sarpy,2022-04-28 09:13:11,2020-10-03,0.7076412949059927,1.2640022333698282,2.406441614821305,,,,,,,,,,,,
31153,0,USNebraskaSarpy,Nebraska,Sarpy,2022-04-28 09:13:11,2020-10-04,0.7076412949059927,1.2640022333698282,2.406441614821305,,,,,,,,,,,,
31153,0,USNebraskaSarpy,Nebraska,Sarpy,2022-04-28 09:13:11,2020-10-05,0.7076412949059927,1.2640022333698282,2.406441614821305,,,,,,,,,,,,
31153,0,USNebraskaSarpy,Nebraska,Sarpy,2022-04-28 09:13:11,2020-10-06,0.7076412949059927,1.2640022333698282,2.406441614821305,,,,,,,,,,,,
31153,0,USNebraskaSarpy,Nebraska,Sarpy,2022-04-28 09:13:11,2020-10-07,0.7076412949059927,1.2640022333698282,2.406441614821305,,,,,,,,,,,,
31153,0,USNebraskaSarpy,Nebraska,Sarpy,2022-04-28 09:13:11,2020-10-08,1.0757212399327916,1.7487744004721764,3.007580648493538,,,,,,,,,,,,
31153,0,USNebraskaSarpy,Nebraska,Sarpy,2022-04-28 09:13:11,2020-10-09,1.0757212399327916,1.7487744004721764,3.007580648493538,,,,,,,,,,,,
31153,0,USNebraskaSarpy,Nebraska,Sarpy,2022-04-28 09:13:11,2020-10-10,1.0757212399327916,1.7487744004721764,3.007580648493538,,,,,,,,,,,,
31153,0,USNebraskaSarpy,Nebraska,Sarpy,2022-04-28 09:13:11,2020-10-11,1.0757212399327916,1.7487744004721764,3.007580648493538,,,,,,,,,,,,
31153,0,USNebraskaSarpy,Nebraska,Sarpy,2022-04-28 09:13:11,2020-10-12,1.0757212399327916,1.7487744004721764,3.007580648493538,,,,,,,,,,,,
31153,0,USNebraskaSarpy,Nebraska,Sarpy,2022-04-28 09:13:11,2020-10-13,1.0757212399327916,1.7487744004721764,3.007580648493538,,,,,,,,,,,,
31153,0,USNebraskaSarpy,Nebraska,Sarpy,2022-04-28 09:13:11,2020-10-14,1.0757212399327916,1.7487744004721764,3.007580648493538,,,,,,,,,,,,
31153,0,USNebraskaSarpy,Nebraska,Sarpy,2022-04-28 09:13:11,2020-10-15,1.1784929056105444,1.9075919810093929,3.2652754881645865,,,,,,,,,,,,
31153,0,USNebraskaSarpy,Nebraska,Sarpy,2022-04-28 09:13:11,2020-10-16,1.1784929056105444,1.9075919810093929,3.2652754881645865,,,,,,,,,,,,
31153,0,USNebraskaSarpy,Nebraska,Sarpy,2022-04-28 09:13:11,2020-10-17,1.1784929056105444,1.9075919810093929,3.2652754881645865,,,,,,,,,,,,
31153,0,USNebraskaSarpy,Nebraska,Sarpy,2022-04-28 09:13:11,2020-10-18,1.1784929056105444,1.9075919810093929,3.2652754881645865,,,,,,,,,,,,
31153,0,USNebraskaSarpy,Nebraska,Sarpy,2022-04-28 09:13:11,2020-10-19,1.1784929056105444,1.9075919810093929,3.2652754881645865,,,,,,,,,,,,
31153,0,USNebraskaSarpy,Nebraska,Sarpy,2022-04-28 09:13:11,2020-10-20,1.1784929056105444,1.9075919810093929,3.2652754881645865,,,,,,,,,,,,
31153,0,USNebraskaSarpy,Nebraska,Sarpy,2022-04-28 09:13:11,2020-10-21,1.1784929056105444,1.9075919810093929,3.2652754881645865,,,,,,,,,,,,
31153,0,USNebraskaSarpy,Nebraska,Sarpy,2022-04-28 09:13:11,2020-10-22,1.105020519003996,1.87162060600883,3.3655370319502484,,,,,,,,,,,,
31153,0,USNebraskaSarpy,Nebraska,Sarpy,2022-04-28 09:13:11,2020-10-23,1.105020519003996,1.87162060600883,3.3655370319502484,,,,,,,,,,,,
31153,0,USNebraskaSarpy,Nebraska,Sarpy,2022-04-28 09:13:11,2020-10-24,1.105020519003996,1.87162060600883,3.3655370319502484,,,,,,,,,,,,
31153,0,USNebraskaSarpy,Nebraska,Sarpy,2022-04-28 09:13:11,2020-10-25,1.105020519003996,1.87162060600883,3.3655370319502484,,,,,,,,,,,,
31153,0,USNebraskaSarpy,Nebraska,Sarpy,2022-04-28 09:13:11,2020-10-26,1.105020519003996,1.87162060600883,3.3655370319502484,,,,,,,,,,,,
31153,0,USNebraskaSarpy,Nebraska,Sarpy,2022-04-28 09:13:11,2020-10-27,1.105020519003996,1.87162060600883,3.3655370319502484,,,,,,,,,,,,
31153,0,USNebraskaSarpy,Nebraska,Sarpy,2022-04-28 09:13:11,2020-10-28,1.105020519003996,1.87162060600883,3.3655370319502484,,,,,,,,,,,,
31153,0,USNebraskaSarpy,Nebraska,Sarpy,2022-04-28 09:13:11,2020-10-29,1.6556940781788765,2.6949083599128705,4.64094063208529,,,,,,,,,,,,
31153,0,USNebraskaSarpy,Nebraska,Sarpy,2022-04-28 09:13:11,2020-10-30,1.6556940781788765,2.6949083599128705,4.64094063208529,,,,,,,,,,,,
31153,0,USNebraskaSarpy,Nebraska,Sarpy,2022-04-28 09:13:11,2020-10-31,1.6556940781788765,2.6949083599128705,4.64094063208529,,,,,,,,,,,,
31153,0,USNebraskaSarpy,Nebraska,Sarpy,2022-04-28 09:13:11,2020-11-01,1.6556940781788765,2.6949083599128705,4.64094063208529,,,,,,,,,,,,
31153,0,USNebraskaSarpy,Nebraska,Sarpy,2022-04-28 09:13:11,2020-11-02,1.6556940781788765,2.6949083599128705,4.64094063208529,,,,,,,,,,,,
31153,0,USNebraskaSarpy,Nebraska,Sarpy,2022-04-28 09:13:11,2020-11-03,1.6556940781788765,2.6949083599128705,4.64094063208529,,,,,,,,,,,,
31153,0,USNebraskaSarpy,Nebraska,Sarpy,2022-04-28 09:13:11,2020-11-04,1.6556940781788765,2.6949083599128705,4.64094063208529,,,,,,,,,,,,
31153,0,USNebraskaSarpy,Nebraska,Sarpy,2022-04-28 09:13:11,2020-11-05,2.2830886434247972,3.681399267436194,6.275128138937762,,,,,,,,,,,,
31153,0,USNebraskaSarpy,Nebraska,Sarpy,2022-04-28 09:13:11,2020-11-06,2.2830886434247972,3.681399267436194,6.275128138937762,,,,,,,,,,,,
31153,0,USNebraskaSarpy,Nebraska,Sarpy,2022-04-28 09:13:11,2020-11-07,2.2830886434247972,3.681399267436194,6.275128138937762,,,,,,,,,,,,
31153,0,USNebraskaSarpy,Nebraska,Sarpy,2022-04-28 09:13:11,2020-11-08,2.2830886434247972,3.681399267436194,6.275128138937762,,,,,,,,,,,,
31153,0,USNebraskaSarpy,Nebraska,Sarpy,2022-04-28 09:13:11,2020-11-09,2.2830886434247972,3.681399267436194,6.275128138937762,,,,,,,,,,,,
31153,0,USNebraskaSarpy,Nebraska,Sarpy,2022-04-28 09:13:11,2020-11-10,2.2830886434247972,3.681399267436194,6.275128138937762,,,,,,,,,,,,
31153,0,USNebraskaSarpy,Nebraska,Sarpy,2022-04-28 09:13:11,2020-11-11,2.2830886434247972,3.681399267436194,6.275128138937762,,,,,,,,,,,,
31153,0,USNebraskaSarpy,Nebraska,Sarpy,2022-04-28 09:13:11,2020-11-12,2.9421150841728947,4.491420328207302,7.2079752646052055,,,,,,,,,,,,
31153,0,USNebraskaSarpy,Nebraska,Sarpy,2022-04-28 09:13:11,2020-11-13,2.9421150841728947,4.491420328207302,7.2079752646052055,,,,,,,,,,,,
31153,0,USNebraskaSarpy,Nebraska,Sarpy,2022-04-28 09:13:11,2020-11-14,2.9421150841728947,4.491420328207302,7.2079752646052055,,,,,,,,,,,,
31153,0,USNebraskaSarpy,Nebraska,Sarpy,2022-04-28 09:13:11,2020-11-15,2.9421150841728947,4.491420328207302,7.2079752646052055,,,,,,,,,,,,
31153,0,USNebraskaSarpy,Nebraska,Sarpy,2022-04-28 09:13:11,2020-11-16,2.9421150841728947,4.491420328207302,7.2079752646052055,,,,,,,,,,,,
31153,0,USNebraskaSarpy,Nebraska,Sarpy,2022-04-28 09:13:11,2020-11-17,2.9421150841728947,4.491420328207302,7.2079752646052055,,,,,,,,,,,,
31153,0,USNebraskaSarpy,Nebraska,Sarpy,2022-04-28 09:13:11,2020-11-18,2.9421150841728947,4.491420328207302,7.2079752646052055,,,,,,,,,,,,
31153,0,USNebraskaSarpy,Nebraska,Sarpy,2022-04-28 09:13:11,2020-11-19,1.8131387106671573,2.996606172875055,5.24711753324075,,,,,,,,,,,,
31153,0,USNebraskaSarpy,Nebraska,Sarpy,2022-04-28 09:13:11,2020-11-20,1.8131387106671573,2.996606172875055,5.24711753324075,,,,,,,,,,,,
31153,0,USNebraskaSarpy,Nebraska,Sarpy,2022-04-28 09:13:11,2020-11-21,1.8131387106671573,2.996606172875055,5.24711753324075,,,,,,,,,,,,
31153,0,USNebraskaSarpy,Nebraska,Sarpy,2022-04-28 09:13:11,2020-11-22,1.8131387106671573,2.996606172875055,5.24711753324075,,,,,,,,,,,,
31153,0,USNebraskaSarpy,Nebraska,Sarpy,2022-04-28 09:13:11,2020-11-23,1.8131387106671573,2.996606172875055,5.24711753324075,,,,,,,,,,,,
31153,0,USNebraskaSarpy,Nebraska,Sarpy,2022-04-28 09:13:11,2020-11-24,1.8131387106671573,2.996606172875055,5.24711753324075,,,,,,,,,,,,
31153,0,USNebraskaSarpy,Nebraska,Sarpy,2022-04-28 09:13:11,2020-11-25,1.8131387106671573,2.996606172875055,5.24711753324075,,,,,,,,,,,,
31153,0,USNebraskaSarpy,Nebraska,Sarpy,2022-04-28 09:13:11,2020-11-26,2.6166396435244774,4.018436630576096,6.491659281075041,,,,,,,,,,,,
31153,0,USNebraskaSarpy,Nebraska,Sarpy,2022-04-28 09:13:11,2020-11-27,2.6166396435244774,4.018436630576096,6.491659281075041,,,,,,,,,,,,
31153,0,USNebraskaSarpy,Nebraska,Sarpy,2022-04-28 09:13:11,2020-11-28,2.6166396435244774,4.018436630576096,6.491659281075041,,,,,,,,,,,,
31153,0,USNebraskaSarpy,Nebraska,Sarpy,2022-04-28 09:13:11,2020-11-29,2.6166396435244774,4.018436630576096,6.491659281075041,,,,,,,,,,,,
31153,0,USNebraskaSarpy,Nebraska,Sarpy,2022-04-28 09:13:11,2020-11-30,2.6166396435244774,4.018436630576096,6.491659281075041,,,,,,,,,,,,
31153,0,USNebraskaSarpy,Nebraska,Sarpy,2022-04-28 09:13:11,2020-12-01,2.6166396435244774,4.018436630576096,6.491659281075041,,,,,,,,,,,,
31153,0,USNebraskaSarpy,Nebraska,Sarpy,2022-04-28 09:13:11,2020-12-02,2.6166396435244774,4.018436630576096,6.491659281075041,,,,,,,,,,,,
31153,0,USNebraskaSarpy,Nebraska,Sarpy,2022-04-28 09:13:11,2020-12-03,2.256411303943267,3.4836883382076183,5.6609811170087205,,,,,,,,,,,,
31153,0,USNebraskaSarpy,Nebraska,Sarpy,2022-04-28 09:13:11,2020-12-04,2.256411303943267,3.4836883382076183,5.6609811170087205,,,,,,,,,,,,
31153,0,USNebraskaSarpy,Nebraska,Sarpy,2022-04-28 09:13:11,2020-12-05,2.256411303943267,3.4836883382076183,5.6609811170087205,,,,,,,,,,,,
31153,0,USNebraskaSarpy,Nebraska,Sarpy,2022-04-28 09:13:11,2020-12-06,2.256411303943267,3.4836883382076183,5.6609811170087205,,,,,,,,,,,,
31153,0,USNebraskaSarpy,Nebraska,Sarpy,2022-04-28 09:13:11,2020-12-07,2.256411303943267,3.4836883382076183,5.6609811170087205,,,,,,,,,,,,
31153,0,USNebraskaSarpy,Nebraska,Sarpy,2022-04-28 09:13:11,2020-12-08,2.256411303943267,3.4836883382076183,5.6609811170087205,,,,,,,,,,,,
31153,0,USNebraskaSarpy,Nebraska,Sarpy,2022-04-28 09:13:11,2020-12-09,2.256411303943267,3.4836883382076183,5.6609811170087205,,,,,,,,,,,,
31153,0,USNebraskaSarpy,Nebraska,Sarpy,2022-04-28 09:13:11,2020-12-10,1.5917159090545818,2.5120619545579657,4.182241400904988,,,,,,,,,,,,
31153,0,USNebraskaSarpy,Nebraska,Sarpy,2022-04-28 09:13:11,2020-12-11,1.5917159090545818,2.5120619545579657,4.182241400904988,,,,,,,,,,,,
31153,0,USNebraskaSarpy,Nebraska,Sarpy,2022-04-28 09:13:11,2020-12-12,1.5917159090545818,2.5120619545579657,4.182241400904988,,,,,,,,,,,,
31153,0,USNebraskaSarpy,Nebraska,Sarpy,2022-04-28 09:13:11,2020-12-13,1.5917159090545818,2.5120619545579657,4.182241400904988,,,,,,,,,,,,
31153,0,USNebraskaSarpy,Nebraska,Sarpy,2022-04-28 09:13:11,2020-12-14,1.5917159090545818,2.5120619545579657,4.182241400904988,,,,,,,,,,,,
31153,0,USNebraskaSarpy,Nebraska,Sarpy,2022-04-28 09:13:11,2020-12-15,1.5917159090545818,2.5120619545579657,4.182241400904988,,,,,,,,,,,,
31153,0,USNebraskaSarpy,Nebraska,Sarpy,2022-04-28 09:13:11,2020-12-16,1.5917159090545818,2.5120619545579657,4.182241400904988,,,,,,,,,,,,
31153,0,USNebraskaSarpy,Nebraska,Sarpy,2022-04-28 09:13:11,2020-12-17,1.6232532227740375,2.564868631400242,4.275720109958697,,,,,,,,,,,,
31153,0,USNebraskaSarpy,Nebraska,Sarpy,2022-04-28 09:13:11,2020-12-18,1.6232532227740375,2.564868631400242,4.275720109958697,,,,,,,,,,,,
31153,0,USNebraskaSarpy,Nebraska,Sarpy,2022-04-28 09:13:11,2020-12-19,1.6232532227740375,2.564868631400242,4.275720109958697,,,,,,,,,,,,
31153,0,USNebraskaSarpy,Nebraska,Sarpy,2022-04-28 09:13:11,2020-12-20,1.6232532227740375,2.564868631400242,4.275720109958697,,,,,,,,,,,,
31153,0,USNebraskaSarpy,Nebraska,Sarpy,2022-04-28 09:13:11,2020-12-21,1.6232532227740375,2.564868631400242,4.275720109958697,,,,,,,,,,,,
31153,0,USNebraskaSarpy,Nebraska,Sarpy,2022-04-28 09:13:11,2020-12-22,1.6232532227740375,2.564868631400242,4.275720109958697,,,,,,,,,,,,
31153,0,USNebraskaSarpy,Nebraska,Sarpy,2022-04-28 09:13:11,2020-12-23,1.6232532227740375,2.564868631400242,4.275720109958697,,,,,,,,,,,,
31153,0,USNebraskaSarpy,Nebraska,Sarpy,2022-04-28 09:13:11,2020-12-24,1.2300870390998266,2.037954758284042,3.5779818807648,,,,,,,,,,,,
31153,0,USNebraskaSarpy,Nebraska,Sarpy,2022-04-28 09:13:11,2020-12-25,1.2300870390998266,2.037954758284042,3.5779818807648,,,,,,,,,,,,
31153,0,USNebraskaSarpy,Nebraska,Sarpy,2022-04-28 09:13:11,2020-12-26,1.2300870390998266,2.037954758284042,3.5779818807648,,,,,,,,,,,,
31153,0,USNebraskaSarpy,Nebraska,Sarpy,2022-04-28 09:13:11,2020-12-27,1.2300870390998266,2.037954758284042,3.5779818807648,,,,,,,,,,,,
31153,0,USNebraskaSarpy,Nebraska,Sarpy,2022-04-28 09:13:11,2020-12-28,1.2300870390998266,2.037954758284042,3.5779818807648,,,,,,,,,,,,
31153,0,USNebraskaSarpy,Nebraska,Sarpy,2022-04-28 09:13:11,2020-12-29,1.2300870390998266,2.037954758284042,3.5779818807648,,,,,,,,,,,,
31153,0,USNebraskaSarpy,Nebraska,Sarpy,2022-04-28 09:13:11,2020-12-30,1.2300870390998266,2.037954758284042,3.5779818807648,,,,,,,,,,,,
31153,0,USNebraskaSarpy,Nebraska,Sarpy,2022-04-28 09:13:11,2020-12-31,1.577252296053526,2.583775774606804,4.4808442920430815,,,,,,,,,,,,
31153,0,USNebraskaSarpy,Nebraska,Sarpy,2022-04-28 09:13:11,2021-01-01,1.577252296053526,2.583775774606804,4.4808442920430815,,,,,,,,,,,,
31153,0,USNebraskaSarpy,Nebraska,Sarpy,2022-04-28 09:13:11,2021-01-02,1.577252296053526,2.583775774606804,4.4808442920430815,,,,,,,,,,,,
31153,0,USNebraskaSarpy,Nebraska,Sarpy,2022-04-28 09:13:11,2021-01-03,1.577252296053526,2.583775774606804,4.4808442920430815,,,,,,,,,,,,
31153,0,USNebraskaSarpy,Nebraska,Sarpy,2022-04-28 09:13:11,2021-01-04,1.577252296053526,2.583775774606804,4.4808442920430815,,,,,,,,,,,,
31153,0,USNebraskaSarpy,Nebraska,Sarpy,2022-04-28 09:13:11,2021-01-05,1.577252296053526,2.583775774606804,4.4808442920430815,,,,,,,,,,,,
31153,0,USNebraskaSarpy,Nebraska,Sarpy,2022-04-28 09:13:11,2021-01-06,1.577252296053526,2.583775774606804,4.4808442920430815,,,,,,,,,,,,
31153,0,USNebraskaSarpy,Nebraska,Sarpy,2022-04-28 09:13:11,2021-01-07,1.263784533287583,2.0715212094091973,3.5948494573515566,,,,,,,,,,,,
31153,0,USNebraskaSarpy,Nebraska,Sarpy,2022-04-28 09:13:11,2021-01-08,1.263784533287583,2.0715212094091973,3.5948494573515566,,,,,,,,,,,,
31153,0,USNebraskaSarpy,Nebraska,Sarpy,2022-04-28 09:13:11,2021-01-09,1.263784533287583,2.0715212094091973,3.5948494573515566,,,,,,,,,,,,
31153,0,USNebraskaSarpy,Nebraska,Sarpy,2022-04-28 09:13:11,2021-01-10,1.263784533287583,2.0715212094091973,3.5948494573515566,,,,,,,,,,,,
31153,0,USNebraskaSarpy,Nebraska,Sarpy,2022-04-28 09:13:11,2021-01-11,1.263784533287583,2.0715212094091973,3.5948494573515566,,,,,,,,,,,,
31153,0,USNebraskaSarpy,Nebraska,Sarpy,2022-04-28 09:13:11,2021-01-12,1.263784533287583,2.0715212094091973,3.5948494573515566,,,,,,,,,,,,
31153,0,USNebraskaSarpy,Nebraska,Sarpy,2022-04-28 09:13:11,2021-01-13,1.263784533287583,2.0715212094091973,3.5948494573515566,,,,,,,,,,,,
31153,0,USNebraskaSarpy,Nebraska,Sarpy,2022-04-28 09:13:11,2021-01-14,1.1407185032990335,1.9045791831265872,3.3720417586768385,,,,,,,,,,,,
31153,0,USNebraskaSarpy,Nebraska,Sarpy,2022-04-28 09:13:11,2021-01-15,1.1407185032990335,1.9045791831265872,3.3720417586768385,,,,,,,,,,,,
31153,0,USNebraskaSarpy,Nebraska,Sarpy,2022-04-28 09:13:11,2021-01-16,1.1407185032990335,1.9045791831265872,3.3720417586768385,,,,,,,,,,,,
31153,0,USNebraskaSarpy,Nebraska,Sarpy,2022-04-28 09:13:11,2021-01-17,1.1407185032990335,1.9045791831265872,3.3720417586768385,,,,,,,,,,,,
31153,0,USNebraskaSarpy,Nebraska,Sarpy,2022-04-28 09:13:11,2021-01-18,1.1407185032990335,1.9045791831265872,3.3720417586768385,,,,,,,,,,,,
31153,0,USNebraskaSarpy,Nebraska,Sarpy,2022-04-28 09:13:11,2021-01-19,1.1407185032990335,1.9045791831265872,3.3720417586768385,,,,,,,,,,,,
31153,0,USNebraskaSarpy,Nebraska,Sarpy,2022-04-28 09:13:11,2021-01-20,1.1407185032990335,1.9045791831265872,3.3720417586768385,,,,,,,,,,,,
31153,0,USNebraskaSarpy,Nebraska,Sarpy,2022-04-28 09:13:11,2021-01-21,0.7584801435242046,1.2028932373060104,2.013419842474721,,,,,,,,,,,,
31153,0,USNebraskaSarpy,Nebraska,Sarpy,2022-04-28 09:13:11,2021-01-22,0.7584801435242046,1.2028932373060104,2.013419842474721,,,,,,,,,,,,
31153,0,USNebraskaSarpy,Nebraska,Sarpy,2022-04-28 09:13:11,2021-01-23,0.7584801435242046,1.2028932373060104,2.013419842474721,,,,,,,,,,,,
31153,0,USNebraskaSarpy,Nebraska,Sarpy,2022-04-28 09:13:11,2021-01-24,0.7584801435242046,1.2028932373060104,2.013419842474721,,,,,,,,,,,,
31153,0,USNebraskaSarpy,Nebraska,Sarpy,2022-04-28 09:13:11,2021-01-25,0.7584801435242046,1.2028932373060104,2.013419842474721,,,,,,,,,,,,
31153,0,USNebraskaSarpy,Nebraska,Sarpy,2022-04-28 09:13:11,2021-01-26,0.7584801435242046,1.2028932373060104,2.013419842474721,,,,,,,,,,,,
31153,0,USNebraskaSarpy,Nebraska,Sarpy,2022-04-28 09:13:11,2021-01-27,0.7584801435242046,1.2028932373060104,2.013419842474721,,,,,,,,,,,,
31153,0,USNebraskaSarpy,Nebraska,Sarpy,2022-04-28 09:13:11,2021-01-28,0.7779516229548838,1.2571651397219703,2.148032113841375,,,,,,,,,,,,
31153,0,USNebraskaSarpy,Nebraska,Sarpy,2022-04-28 09:13:11,2021-01-29,0.7779516229548838,1.2571651397219703,2.148032113841375,,,,,,,,,,,,
31153,0,USNebraskaSarpy,Nebraska,Sarpy,2022-04-28 09:13:11,2021-01-30,0.7779516229548838,1.2571651397219703,2.148032113841375,,,,,,,,,,,,
31153,0,USNebraskaSarpy,Nebraska,Sarpy,2022-04-28 09:13:11,2021-01-31,0.7779516229548838,1.2571651397219703,2.148032113841375,,,,,,,,,,,,
31153,0,USNebraskaSarpy,Nebraska,Sarpy,2022-04-28 09:13:11,2021-02-01,0.7779516229548838,1.2571651397219703,2.148032113841375,,,,,,,,,,,,
31153,0,USNebraskaSarpy,Nebraska,Sarpy,2022-04-28 09:13:11,2021-02-02,0.7779516229548838,1.2571651397219703,2.148032113841375,,,,,,,,,,,,
31153,0,USNebraskaSarpy,Nebraska,Sarpy,2022-04-28 09:13:11,2021-02-03,0.7779516229548838,1.2571651397219703,2.148032113841375,,,,,,,,,,,,
31153,0,USNebraskaSarpy,Nebraska,Sarpy,2022-04-28 09:13:11,2021-02-04,0.643439039542122,1.0093202026116548,1.669160040353746,,,,,,,,,,,,
31153,0,USNebraskaSarpy,Nebraska,Sarpy,2022-04-28 09:13:11,2021-02-05,0.643439039542122,1.0093202026116548,1.669160040353746,,,,,,,,,,,,
31153,0,USNebraskaSarpy,Nebraska,Sarpy,2022-04-28 09:13:11,2021-02-06,0.643439039542122,1.0093202026116548,1.669160040353746,,,,,,,,,,,,
31153,0,USNebraskaSarpy,Nebraska,Sarpy,2022-04-28 09:13:11,2021-02-07,0.643439039542122,1.0093202026116548,1.669160040353746,,,,,,,,,,,,
31153,0,USNebraskaSarpy,Nebraska,Sarpy,2022-04-28 09:13:11,2021-02-08,0.643439039542122,1.0093202026116548,1.669160040353746,,,,,,,,,,,,
31153,0,USNebraskaSarpy,Nebraska,Sarpy,2022-04-28 09:13:11,2021-02-09,0.643439039542122,1.0093202026116548,1.669160040353746,,,,,,,,,,,,
31153,0,USNebraskaSarpy,Nebraska,Sarpy,2022-04-28 09:13:11,2021-02-10,0.643439039542122,1.0093202026116548,1.669160040353746,,,,,,,,,,,,
31153,0,USNebraskaSarpy,Nebraska,Sarpy,2022-04-28 09:13:11,2021-02-11,0.9391994538893129,1.3936314354649784,2.166982269584128,,,,,,,,,,,,
31153,0,USNebraskaSarpy,Nebraska,Sarpy,2022-04-28 09:13:11,2021-02-12,0.9391994538893129,1.3936314354649784,2.166982269584128,,,,,,,,,,,,
31153,0,USNebraskaSarpy,Nebraska,Sarpy,2022-04-28 09:13:11,2021-02-13,0.9391994538893129,1.3936314354649784,2.166982269584128,,,,,,,,,,,,
31153,0,USNebraskaSarpy,Nebraska,Sarpy,2022-04-28 09:13:11,2021-02-14,0.9391994538893129,1.3936314354649784,2.166982269584128,,,,,,,,,,,,
31153,0,USNebraskaSarpy,Nebraska,Sarpy,2022-04-28 09:13:11,2021-02-15,0.9391994538893129,1.3936314354649784,2.166982269584128,,,,,,,,,,,,
31153,0,USNebraskaSarpy,Nebraska,Sarpy,2022-04-28 09:13:11,2021-02-16,0.9391994538893129,1.3936314354649784,2.166982269584128,,,,,,,,,,,,
31153,0,USNebraskaSarpy,Nebraska,Sarpy,2022-04-28 09:13:11,2021-02-17,0.9391994538893129,1.3936314354649784,2.166982269584128,,,,,,,,,,,,
31153,0,USNebraskaSarpy,Nebraska,Sarpy,2022-04-28 09:13:11,2021-02-18,0.5566855706245574,0.910424453883279,1.5760295892005882,,,,,,,,,,,,
31153,0,USNebraskaSarpy,Nebraska,Sarpy,2022-04-28 09:13:11,2021-02-19,0.5566855706245574,0.910424453883279,1.5760295892005882,,,,,,,,,,,,
31153,0,USNebraskaSarpy,Nebraska,Sarpy,2022-04-28 09:13:11,2021-02-20,0.5566855706245574,0.910424453883279,1.5760295892005882,,,,,,,,,,,,
31153,0,USNebraskaSarpy,Nebraska,Sarpy,2022-04-28 09:13:11,2021-02-21,0.5566855706245574,0.910424453883279,1.5760295892005882,,,,,,,,,,,,
31153,0,USNebraskaSarpy,Nebraska,Sarpy,2022-04-28 09:13:11,2021-02-22,0.5566855706245574,0.910424453883279,1.5760295892005882,,,,,,,,,,,,
31153,0,USNebraskaSarpy,Nebraska,Sarpy,2022-04-28 09:13:11,2021-02-23,0.5566855706245574,0.910424453883279,1.5760295892005882,,,,,,,,,,,,
31153,0,USNebraskaSarpy,Nebraska,Sarpy,2022-04-28 09:13:11,2021-02-24,0.5566855706245574,0.910424453883279,1.5760295892005882,,,,,,,,,,,,
31153,0,USNebraskaSarpy,Nebraska,Sarpy,2022-04-28 09:13:11,2021-02-25,0.5262015448564145,0.843880859736499,1.4298995206650935,,,,,,,,,,,,
31153,0,USNebraskaSarpy,Nebraska,Sarpy,2022-04-28 09:13:11,2021-02-26,0.5262015448564145,0.843880859736499,1.4298995206650935,,,,,,,,,,,,
31153,0,USNebraskaSarpy,Nebraska,Sarpy,2022-04-28 09:13:11,2021-02-27,0.5262015448564145,0.843880859736499,1.4298995206650935,,,,,,,,,,,,
31153,0,USNebraskaSarpy,Nebraska,Sarpy,2022-04-28 09:13:11,2021-02-28,0.5262015448564145,0.843880859736499,1.4298995206650935,,,,,,,,,,,,
31153,0,USNebraskaSarpy,Nebraska,Sarpy,2022-04-28 09:13:11,2021-03-01,0.5262015448564145,0.843880859736499,1.4298995206650935,,,,,,,,,,,,
31153,0,USNebraskaSarpy,Nebraska,Sarpy,2022-04-28 09:13:11,2021-03-02,0.5262015448564145,0.843880859736499,1.4298995206650935,,,,,,,,,,,,
31153,0,USNebraskaSarpy,Nebraska,Sarpy,2022-04-28 09:13:11,2021-03-03,0.5262015448564145,0.843880859736499,1.4298995206650935,,,,,,,,,,,,
31153,0,USNebraskaSarpy,Nebraska,Sarpy,2022-04-28 09:13:11,2021-03-04,0.556486629888918,0.9155764036056643,1.5953438868822687,,,,,,,,,,,,
31153,0,USNebraskaSarpy,Nebraska,Sarpy,2022-04-28 09:13:11,2021-03-05,0.556486629888918,0.9155764036056643,1.5953438868822687,,,,,,,,,,,,
31153,0,USNebraskaSarpy,Nebraska,Sarpy,2022-04-28 09:13:11,2021-03-06,0.556486629888918,0.9155764036056643,1.5953438868822687,,,,,,,,,,,,
31153,0,USNebraskaSarpy,Nebraska,Sarpy,2022-04-28 09:13:11,2021-03-07,0.556486629888918,0.9155764036056643,1.5953438868822687,,,,,,,,,,,,
31153,0,USNebraskaSarpy,Nebraska,Sarpy,2022-04-28 09:13:11,2021-03-08,0.556486629888918,0.9155764036056643,1.5953438868822687,,,,,,,,,,,,
31153,0,USNebraskaSarpy,Nebraska,Sarpy,2022-04-28 09:13:11,2021-03-09,0.556486629888918,0.9155764036056643,1.5953438868822687,,,,,,,,,,,,
31153,0,USNebraskaSarpy,Nebraska,Sarpy,2022-04-28 09:13:11,2021-03-10,0.556486629888918,0.9155764036056643,1.5953438868822687,,,,,,,,,,,,
31153,0,USNebraskaSarpy,Nebraska,Sarpy,2022-04-28 09:13:11,2021-03-11,0.4855608171992657,0.7964670749332551,1.383230626753883,,,,,,,,,,,,
31153,0,USNebraskaSarpy,Nebraska,Sarpy,2022-04-28 09:13:11,2021-03-12,0.4855608171992657,0.7964670749332551,1.383230626753883,,,,,,,,,,,,
31153,0,USNebraskaSarpy,Nebraska,Sarpy,2022-04-28 09:13:11,2021-03-13,0.4855608171992657,0.7964670749332551,1.383230626753883,,,,,,,,,,,,
31153,0,USNebraskaSarpy,Nebraska,Sarpy,2022-04-28 09:13:11,2021-03-14,0.4855608171992657,0.7964670749332551,1.383230626753883,,,,,,,,,,,,
31153,0,USNebraskaSarpy,Nebraska,Sarpy,2022-04-28 09:13:11,2021-03-15,0.4855608171992657,0.7964670749332551,1.383230626753883,,,,,,,,,,,,
31153,0,USNebraskaSarpy,Nebraska,Sarpy,2022-04-28 09:13:11,2021-03-16,0.4855608171992657,0.7964670749332551,1.383230626753883,,,,,,,,,,,,
31153,0,USNebraskaSarpy,Nebraska,Sarpy,2022-04-28 09:13:11,2021-03-17,0.4855608171992657,0.7964670749332551,1.383230626753883,,,,,,,,,,,,
31153,0,USNebraskaSarpy,Nebraska,Sarpy,2022-04-28 09:13:11,2021-03-18,0.4441299569073929,0.763113233159845,1.3936348956297202,,,,,,,,,,,,
31153,0,USNebraskaSarpy,Nebraska,Sarpy,2022-04-28 09:13:11,2021-03-19,0.4441299569073929,0.763113233159845,1.3936348956297202,,,,,,,,,,,,
31153,0,USNebraskaSarpy,Nebraska,Sarpy,2022-04-28 09:13:11,2021-03-20,0.4441299569073929,0.763113233159845,1.3936348956297202,,,,,,,,,,,,
31153,0,USNebraskaSarpy,Nebraska,Sarpy,2022-04-28 09:13:11,2021-03-21,0.4441299569073929,0.763113233159845,1.3936348956297202,,,,,,,,,,,,
31153,0,USNebraskaSarpy,Nebraska,Sarpy,2022-04-28 09:13:11,2021-03-22,0.4441299569073929,0.763113233159845,1.3936348956297202,,,,,,,,,,,,
31153,0,USNebraskaSarpy,Nebraska,Sarpy,2022-04-28 09:13:11,2021-03-23,0.4441299569073929,0.763113233159845,1.3936348956297202,,,,,,,,,,,,
31153,0,USNebraskaSarpy,Nebraska,Sarpy,2022-04-28 09:13:11,2021-03-24,0.4441299569073929,0.763113233159845,1.3936348956297202,,,,,,,,,,,,
31153,0,USNebraskaSarpy,Nebraska,Sarpy,2022-04-28 09:13:11,2021-03-25,0.7295780572649158,1.177265378849374,2.0082876355960444,,,,,,,,,,,,
31153,0,USNebraskaSarpy,Nebraska,Sarpy,2022-04-28 09:13:11,2021-03-26,0.7295780572649158,1.177265378849374,2.0082876355960444,,,,,,,,,,,,
31153,0,USNebraskaSarpy,Nebraska,Sarpy,2022-04-28 09:13:11,2021-03-27,0.7295780572649158,1.177265378849374,2.0082876355960444,,,,,,,,,,,,
31153,0,USNebraskaSarpy,Nebraska,Sarpy,2022-04-28 09:13:11,2021-03-28,0.7295780572649158,1.177265378849374,2.0082876355960444,,,,,,,,,,,,
31153,0,USNebraskaSarpy,Nebraska,Sarpy,2022-04-28 09:13:11,2021-03-29,0.7295780572649158,1.177265378849374,2.0082876355960444,,,,,,,,,,,,
31153,0,USNebraskaSarpy,Nebraska,Sarpy,2022-04-28 09:13:11,2021-03-30,0.7295780572649158,1.177265378849374,2.0082876355960444,,,,,,,,,,,,
31153,0,USNebraskaSarpy,Nebraska,Sarpy,2022-04-28 09:13:11,2021-03-31,0.7295780572649158,1.177265378849374,2.0082876355960444,,,,,,,,,,,,
31153,0,USNebraskaSarpy,Nebraska,Sarpy,2022-04-28 09:13:11,2021-04-01,0.9326257740641098,1.4453238794882017,2.358450785220667,,,,,,,,,,,,
31153,0,USNebraskaSarpy,Nebraska,Sarpy,2022-04-28 09:13:11,2021-04-02,0.9326257740641098,1.4453238794882017,2.358450785220667,,,,,,,,,,,,
31153,0,USNebraskaSarpy,Nebraska,Sarpy,2022-04-28 09:13:11,2021-04-03,0.9326257740641098,1.4453238794882017,2.358450785220667,,,,,,,,,,,,
31153,0,USNebraskaSarpy,Nebraska,Sarpy,2022-04-28 09:13:11,2021-04-04,0.9326257740641098,1.4453238794882017,2.358450785220667,,,,,,,,,,,,
31153,0,USNebraskaSarpy,Nebraska,Sarpy,2022-04-28 09:13:11,2021-04-05,0.9326257740641098,1.4453238794882017,2.358450785220667,,,,,,,,,,,,
31153,0,USNebraskaSarpy,Nebraska,Sarpy,2022-04-28 09:13:11,2021-04-06,0.9326257740641098,1.4453238794882017,2.358450785220667,,,,,,,,,,,,
31153,0,USNebraskaSarpy,Nebraska,Sarpy,2022-04-28 09:13:11,2021-04-07,0.9326257740641098,1.4453238794882017,2.358450785220667,,,,,,,,,,,,
31153,0,USNebraskaSarpy,Nebraska,Sarpy,2022-04-28 09:13:11,2021-04-08,0.6942490837458797,1.1126669307666834,1.884012066065652,,,,,,,,,,,,
31153,0,USNebraskaSarpy,Nebraska,Sarpy,2022-04-28 09:13:11,2021-04-09,0.6942490837458797,1.1126669307666834,1.884012066065652,,,,,,,,,,,,
31153,0,USNebraskaSarpy,Nebraska,Sarpy,2022-04-28 09:13:11,2021-04-10,0.6942490837458797,1.1126669307666834,1.884012066065652,,,,,,,,,,,,
31153,0,USNebraskaSarpy,Nebraska,Sarpy,2022-04-28 09:13:11,2021-04-11,0.6942490837458797,1.1126669307666834,1.884012066065652,,,,,,,,,,,,
31153,0,USNebraskaSarpy,Nebraska,Sarpy,2022-04-28 09:13:11,2021-04-12,0.6942490837458797,1.1126669307666834,1.884012066065652,,,,,,,,,,,,
31153,0,USNebraskaSarpy,Nebraska,Sarpy,2022-04-28 09:13:11,2021-04-13,0.6942490837458797,1.1126669307666834,1.884012066065652,,,,,,,,,,,,
31153,0,USNebraskaSarpy,Nebraska,Sarpy,2022-04-28 09:13:11,2021-04-14,0.6942490837458797,1.1126669307666834,1.884012066065652,,,,,,,,,,,,
31153,0,USNebraskaSarpy,Nebraska,Sarpy,2022-04-28 09:13:11,2021-04-15,0.5346977179204049,0.9377828301582319,1.7508128957741331,,,,,,,,,,,,
31153,0,USNebraskaSarpy,Nebraska,Sarpy,2022-04-28 09:13:11,2021-04-16,0.5346977179204049,0.9377828301582319,1.7508128957741331,,,,,,,,,,,,
31153,0,USNebraskaSarpy,Nebraska,Sarpy,2022-04-28 09:13:11,2021-04-17,0.5346977179204049,0.9377828301582319,1.7508128957741331,,,,,,,,,,,,
31153,0,USNebraskaSarpy,Nebraska,Sarpy,2022-04-28 09:13:11,2021-04-18,0.5346977179204049,0.9377828301582319,1.7508128957741331,,,,,,,,,,,,
31153,0,USNebraskaSarpy,Nebraska,Sarpy,2022-04-28 09:13:11,2021-04-19,0.5346977179204049,0.9377828301582319,1.7508128957741331,,,,,,,,,,,,
31153,0,USNebraskaSarpy,Nebraska,Sarpy,2022-04-28 09:13:11,2021-04-20,0.5346977179204049,0.9377828301582319,1.7508128957741331,,,,,,,,,,,,
31153,0,USNebraskaSarpy,Nebraska,Sarpy,2022-04-28 09:13:11,2021-04-21,0.5346977179204049,0.9377828301582319,1.7508128957741331,,,,,,,,,,,,
31153,0,USNebraskaSarpy,Nebraska,Sarpy,2022-04-28 09:13:11,2021-04-22,0.4464655031181973,0.7520293316998117,1.3442336628303375,,,,,,,,,,,,
31153,0,USNebraskaSarpy,Nebraska,Sarpy,2022-04-28 09:13:11,2021-04-23,0.4464655031181973,0.7520293316998117,1.3442336628303375,,,,,,,,,,,,
31153,0,USNebraskaSarpy,Nebraska,Sarpy,2022-04-28 09:13:11,2021-04-24,0.4464655031181973,0.7520293316998117,1.3442336628303375,,,,,,,,,,,,
31153,0,USNebraskaSarpy,Nebraska,Sarpy,2022-04-28 09:13:11,2021-04-25,0.4464655031181973,0.7520293316998117,1.3442336628303375,,,,,,,,,,,,
31153,0,USNebraskaSarpy,Nebraska,Sarpy,2022-04-28 09:13:11,2021-04-26,0.4464655031181973,0.7520293316998117,1.3442336628303375,,,,,,,,,,,,
31153,0,USNebraskaSarpy,Nebraska,Sarpy,2022-04-28 09:13:11,2021-04-27,0.4464655031181973,0.7520293316998117,1.3442336628303375,,,,,,,,,,,,
31153,0,USNebraskaSarpy,Nebraska,Sarpy,2022-04-28 09:13:11,2021-04-28,0.4464655031181973,0.7520293316998117,1.3442336628303375,,,,,,,,,,,,
31153,0,USNebraskaSarpy,Nebraska,Sarpy,2022-04-28 09:13:11,2021-04-29,0.3596505561402777,0.638198256782366,1.206507052154721,,,,,,,,,,,,
31153,0,USNebraskaSarpy,Nebraska,Sarpy,2022-04-28 09:13:11,2021-04-30,0.3596505561402777,0.638198256782366,1.206507052154721,,,,,,,,,,,,
31153,0,USNebraskaSarpy,Nebraska,Sarpy,2022-04-28 09:13:11,2021-05-01,0.3596505561402777,0.638198256782366,1.206507052154721,,,,,,,,,,,,
31153,0,USNebraskaSarpy,Nebraska,Sarpy,2022-04-28 09:13:11,2021-05-02,0.3596505561402777,0.638198256782366,1.206507052154721,,,,,,,,,,,,
31153,0,USNebraskaSarpy,Nebraska,Sarpy,2022-04-28 09:13:11,2021-05-03,0.3596505561402777,0.638198256782366,1.206507052154721,,,,,,,,,,,,
31153,0,USNebraskaSarpy,Nebraska,Sarpy,2022-04-28 09:13:11,2021-05-04,0.3596505561402777,0.638198256782366,1.206507052154721,,,,,,,,,,,,
31153,0,USNebraskaSarpy,Nebraska,Sarpy,2022-04-28 09:13:11,2021-05-05,0.3596505561402777,0.638198256782366,1.206507052154721,,,,,,,,,,,,
31153,0,USNebraskaSarpy,Nebraska,Sarpy,2022-04-28 09:13:11,2021-05-06,0.31427712169414623,0.5836813197008862,1.1581830799167132,,,,,,,,,,,,
31153,0,USNebraskaSarpy,Nebraska,Sarpy,2022-04-28 09:13:11,2021-05-07,0.31427712169414623,0.5836813197008862,1.1581830799167132,,,,,,,,,,,,
31153,0,USNebraskaSarpy,Nebraska,Sarpy,2022-04-28 09:13:11,2021-05-08,0.31427712169414623,0.5836813197008862,1.1581830799167132,,,,,,,,,,,,
31153,0,USNebraskaSarpy,Nebraska,Sarpy,2022-04-28 09:13:11,2021-05-09,0.31427712169414623,0.5836813197008862,1.1581830799167132,,,,,,,,,,,,
31153,0,USNebraskaSarpy,Nebraska,Sarpy,2022-04-28 09:13:11,2021-05-10,0.31427712169414623,0.5836813197008862,1.1581830799167132,,,,,,,,,,,,
31153,0,USNebraskaSarpy,Nebraska,Sarpy,2022-04-28 09:13:11,2021-05-11,0.31427712169414623,0.5836813197008862,1.1581830799167132,,,,,,,,,,,,
31153,0,USNebraskaSarpy,Nebraska,Sarpy,2022-04-28 09:13:11,2021-05-12,0.31427712169414623,0.5836813197008862,1.1581830799167132,,,,,,,,,,,,
31153,0,USNebraskaSarpy,Nebraska,Sarpy,2022-04-28 09:13:11,2021-05-13,0.16905105812129603,0.32525009153384565,0.6698222081079958,,,,,,,,,,,,
31153,0,USNebraskaSarpy,Nebraska,Sarpy,2022-04-28 09:13:11,2021-05-14,0.16905105812129603,0.32525009153384565,0.6698222081079958,,,,,,,,,,,,
31153,0,USNebraskaSarpy,Nebraska,Sarpy,2022-04-28 09:13:11,2021-05-15,0.16905105812129603,0.32525009153384565,0.6698222081079958,,,,,,,,,,,,
31153,0,USNebraskaSarpy,Nebraska,Sarpy,2022-04-28 09:13:11,2021-05-16,0.16905105812129603,0.32525009153384565,0.6698222081079958,,,,,,,,,,,,
31153,0,USNebraskaSarpy,Nebraska,Sarpy,2022-04-28 09:13:11,2021-05-17,0.16905105812129603,0.32525009153384565,0.6698222081079958,,,,,,,,,,,,
31153,0,USNebraskaSarpy,Nebraska,Sarpy,2022-04-28 09:13:11,2021-05-18,0.16905105812129603,0.32525009153384565,0.6698222081079958,,,,,,,,,,,,
31153,0,USNebraskaSarpy,Nebraska,Sarpy,2022-04-28 09:13:11,2021-05-19,0.16905105812129603,0.32525009153384565,0.6698222081079958,,,,,,,,,,,,
31153,0,USNebraskaSarpy,Nebraska,Sarpy,2022-04-28 09:13:11,2021-05-20,0.10716391254428258,0.23810622901542589,0.5688935652250836,,,,,,,,,,,,
31153,0,USNebraskaSarpy,Nebraska,Sarpy,2022-04-28 09:13:11,2021-05-21,0.10716391254428258,0.23810622901542589,0.5688935652250836,,,,,,,,,,,,
31153,0,USNebraskaSarpy,Nebraska,Sarpy,2022-04-28 09:13:11,2021-05-22,0.10716391254428258,0.23810622901542589,0.5688935652250836,,,,,,,,,,,,
31153,0,USNebraskaSarpy,Nebraska,Sarpy,2022-04-28 09:13:11,2021-05-23,0.10716391254428258,0.23810622901542589,0.5688935652250836,,,,,,,,,,,,
31153,0,USNebraskaSarpy,Nebraska,Sarpy,2022-04-28 09:13:11,2021-05-24,0.10716391254428258,0.23810622901542589,0.5688935652250836,,,,,,,,,,,,
31153,0,USNebraskaSarpy,Nebraska,Sarpy,2022-04-28 09:13:11,2021-05-25,0.10716391254428258,0.23810622901542589,0.5688935652250836,,,,,,,,,,,,
31153,0,USNebraskaSarpy,Nebraska,Sarpy,2022-04-28 09:13:11,2021-05-26,0.10716391254428258,0.23810622901542589,0.5688935652250836,,,,,,,,,,,,
31153,0,USNebraskaSarpy,Nebraska,Sarpy,2022-04-28 09:13:11,2021-05-27,0,0,0,,,,,,,,,,,,
31153,0,USNebraskaSarpy,Nebraska,Sarpy,2022-04-28 09:13:11,2021-05-28,0,0,0,,,,,,,,,,,,
31153,0,USNebraskaSarpy,Nebraska,Sarpy,2022-04-28 09:13:11,2021-05-29,0,0,0,,,,,,,,,,,,
31153,0,USNebraskaSarpy,Nebraska,Sarpy,2022-04-28 09:13:11,2021-05-30,0,0,0,,,,,,,,,,,,
31153,0,USNebraskaSarpy,Nebraska,Sarpy,2022-04-28 09:13:11,2021-05-31,0,0,0,,,,,,,,,,,,
31153,0,USNebraskaSarpy,Nebraska,Sarpy,2022-04-28 09:13:11,2021-06-01,0,0,0,,,,,,,,,,,,
31153,0,USNebraskaSarpy,Nebraska,Sarpy,2022-04-28 09:13:11,2021-06-02,0,0,0,,,,,,,,,,,,
31153,0,USNebraskaSarpy,Nebraska,Sarpy,2022-04-28 09:13:11,2021-06-03,0,0,0,,,,,,,,,,,,
31153,0,USNebraskaSarpy,Nebraska,Sarpy,2022-04-28 09:13:11,2021-06-04,0,0,0,,,,,,,,,,,,
31153,0,USNebraskaSarpy,Nebraska,Sarpy,2022-04-28 09:13:11,2021-06-05,0,0,0,,,,,,,,,,,,
31153,0,USNebraskaSarpy,Nebraska,Sarpy,2022-04-28 09:13:11,2021-06-06,0,0,0,,,,,,,,,,,,
31153,0,USNebraskaSarpy,Nebraska,Sarpy,2022-04-28 09:13:11,2021-06-07,0,0,0,,,,,,,,,,,,
31153,0,USNebraskaSarpy,Nebraska,Sarpy,2022-04-28 09:13:11,2021-06-08,0,0,0,,,,,,,,,,,,
31153,0,USNebraskaSarpy,Nebraska,Sarpy,2022-04-28 09:13:11,2021-06-09,0,0,0,,,,,,,,,,,,
31153,0,USNebraskaSarpy,Nebraska,Sarpy,2022-04-28 09:13:11,2021-06-10,0,0,0,,,,,,,,,,,,
31153,0,USNebraskaSarpy,Nebraska,Sarpy,2022-04-28 09:13:11,2021-06-11,0,0,0,,,,,,,,,,,,
31153,0,USNebraskaSarpy,Nebraska,Sarpy,2022-04-28 09:13:11,2021-06-12,0,0,0,,,,,,,,,,,,
31153,0,USNebraskaSarpy,Nebraska,Sarpy,2022-04-28 09:13:11,2021-06-13,0,0,0,,,,,,,,,,,,
31153,0,USNebraskaSarpy,Nebraska,Sarpy,2022-04-28 09:13:11,2021-06-14,0,0,0,,,,,,,,,,,,
31153,0,USNebraskaSarpy,Nebraska,Sarpy,2022-04-28 09:13:11,2021-06-15,0,0,0,,,,,,,,,,,,
31153,0,USNebraskaSarpy,Nebraska,Sarpy,2022-04-28 09:13:11,2021-06-16,0,0,0,,,,,,,,,,,,
31153,0,USNebraskaSarpy,Nebraska,Sarpy,2022-04-28 09:13:11,2021-06-17,0,0,0,,,,,,,,,,,,
31153,0,USNebraskaSarpy,Nebraska,Sarpy,2022-04-28 09:13:11,2021-06-18,0,0,0,,,,,,,,,,,,
31153,0,USNebraskaSarpy,Nebraska,Sarpy,2022-04-28 09:13:11,2021-06-19,0,0,0,,,,,,,,,,,,
31153,0,USNebraskaSarpy,Nebraska,Sarpy,2022-04-28 09:13:11,2021-06-20,0,0,0,,,,,,,,,,,,
31153,0,USNebraskaSarpy,Nebraska,Sarpy,2022-04-28 09:13:11,2021-06-21,0,0,0,,,,,,,,,,,,
31153,0,USNebraskaSarpy,Nebraska,Sarpy,2022-04-28 09:13:11,2021-06-22,0,0,0,,,,,,,,,,,,
31153,0,USNebraskaSarpy,Nebraska,Sarpy,2022-04-28 09:13:11,2021-06-23,0,0,0,,,,,,,,,,,,
31153,0,USNebraskaSarpy,Nebraska,Sarpy,2022-04-28 09:13:11,2021-06-24,0,0,0,,,,,,,,,,,,
31153,0,USNebraskaSarpy,Nebraska,Sarpy,2022-04-28 09:13:11,2021-06-25,0,0,0,,,,,,,,,,,,
31153,0,USNebraskaSarpy,Nebraska,Sarpy,2022-04-28 09:13:11,2021-06-26,0,0,0,,,,,,,,,,,,
31153,0,USNebraskaSarpy,Nebraska,Sarpy,2022-04-28 09:13:11,2021-06-27,0,0,0,,,,,,,,,,,,
31153,0,USNebraskaSarpy,Nebraska,Sarpy,2022-04-28 09:13:11,2021-06-28,0,0,0,,,,,,,,,,,,
31153,0,USNebraskaSarpy,Nebraska,Sarpy,2022-04-28 09:13:11,2021-06-29,0,0,0,,,,,,,,,,,,
31153,0,USNebraskaSarpy,Nebraska,Sarpy,2022-04-28 09:13:11,2021-06-30,0,0,0,,,,,,,,,,,,
31153,0,USNebraskaSarpy,Nebraska,Sarpy,2022-04-28 09:13:11,2021-07-01,0,0,0,,,,,,,,,,,,
31153,0,USNebraskaSarpy,Nebraska,Sarpy,2022-04-28 09:13:11,2021-07-02,0,0,0,,,,,,,,,,,,
31153,0,USNebraskaSarpy,Nebraska,Sarpy,2022-04-28 09:13:11,2021-07-03,0,0,0,,,,,,,,,,,,
31153,0,USNebraskaSarpy,Nebraska,Sarpy,2022-04-28 09:13:11,2021-07-04,0,0,0,,,,,,,,,,,,
31153,0,USNebraskaSarpy,Nebraska,Sarpy,2022-04-28 09:13:11,2021-07-05,0,0,0,,,,,,,,,,,,
31153,0,USNebraskaSarpy,Nebraska,Sarpy,2022-04-28 09:13:11,2021-07-06,0,0,0,,,,,,,,,,,,
31153,0,USNebraskaSarpy,Nebraska,Sarpy,2022-04-28 09:13:11,2021-07-07,0,0,0,,,,,,,,,,,,
31153,0,USNebraskaSarpy,Nebraska,Sarpy,2022-04-28 09:13:11,2021-07-08,0,0,0,,,,,,,,,,,,
31153,0,USNebraskaSarpy,Nebraska,Sarpy,2022-04-28 09:13:11,2021-07-09,0,0,0,,,,,,,,,,,,
31153,0,USNebraskaSarpy,Nebraska,Sarpy,2022-04-28 09:13:11,2021-07-10,0,0,0,,,,,,,,,,,,
31153,0,USNebraskaSarpy,Nebraska,Sarpy,2022-04-28 09:13:11,2021-07-11,0,0,0,,,,,,,,,,,,
31153,0,USNebraskaSarpy,Nebraska,Sarpy,2022-04-28 09:13:11,2021-07-12,0,0,0,,,,,,,,,,,,
31153,0,USNebraskaSarpy,Nebraska,Sarpy,2022-04-28 09:13:11,2021-07-13,0,0,0,,,,,,,,,,,,
31153,0,USNebraskaSarpy,Nebraska,Sarpy,2022-04-28 09:13:11,2021-07-14,0,0,0,,,,,,,,,,,,
31153,0,USNebraskaSarpy,Nebraska,Sarpy,2022-04-28 09:13:11,2021-07-15,0,0,0,,,,,,,,,,,,
31153,0,USNebraskaSarpy,Nebraska,Sarpy,2022-04-28 09:13:11,2021-07-16,0,0,0,,,,,,,,,,,,
31153,0,USNebraskaSarpy,Nebraska,Sarpy,2022-04-28 09:13:11,2021-07-17,0,0,0,,,,,,,,,,,,
31153,0,USNebraskaSarpy,Nebraska,Sarpy,2022-04-28 09:13:11,2021-07-18,0,0,0,,,,,,,,,,,,
31153,0,USNebraskaSarpy,Nebraska,Sarpy,2022-04-28 09:13:11,2021-07-19,0,0,0,,,,,,,,,,,,
31153,0,USNebraskaSarpy,Nebraska,Sarpy,2022-04-28 09:13:11,2021-07-20,0,0,0,,,,,,,,,,,,
31153,0,USNebraskaSarpy,Nebraska,Sarpy,2022-04-28 09:13:11,2021-07-21,0,0,0,,,,,,,,,,,,
31153,0,USNebraskaSarpy,Nebraska,Sarpy,2022-04-28 09:13:11,2021-07-22,0,0,0,,,,,,,,,,,,
31153,0,USNebraskaSarpy,Nebraska,Sarpy,2022-04-28 09:13:11,2021-07-23,0,0,0,,,,,,,,,,,,
31153,0,USNebraskaSarpy,Nebraska,Sarpy,2022-04-28 09:13:11,2021-07-24,0,0,0,,,,,,,,,,,,
31153,0,USNebraskaSarpy,Nebraska,Sarpy,2022-04-28 09:13:11,2021-07-25,0,0,0,,,,,,,,,,,,
31153,0,USNebraskaSarpy,Nebraska,Sarpy,2022-04-28 09:13:11,2021-07-26,0,0,0,,,,,,,,,,,,
31153,0,USNebraskaSarpy,Nebraska,Sarpy,2022-04-28 09:13:11,2021-07-27,0,0,0,,,,,,,,,,,,
31153,0,USNebraskaSarpy,Nebraska,Sarpy,2022-04-28 09:13:11,2021-07-28,0,0,0,,,,,,,,,,,,
31153,0,USNebraskaSarpy,Nebraska,Sarpy,2022-04-28 09:13:11,2021-07-29,0,0,0,,,,,,,,,,,,
31153,0,USNebraskaSarpy,Nebraska,Sarpy,2022-04-28 09:13:11,2021-07-30,0,0,0,,,,,,,,,,,,
31153,0,USNebraskaSarpy,Nebraska,Sarpy,2022-04-28 09:13:11,2021-07-31,0,0,0,,,,,,,,,,,,
31153,0,USNebraskaSarpy,Nebraska,Sarpy,2022-04-28 09:13:11,2021-08-01,0,0,0,,,,,,,,,,,,
31153,0,USNebraskaSarpy,Nebraska,Sarpy,2022-04-28 09:13:11,2021-08-02,0,0,0,,,,,,,,,,,,
31153,0,USNebraskaSarpy,Nebraska,Sarpy,2022-04-28 09:13:11,2021-08-03,0,0,0,,,,,,,,,,,,
31153,0,USNebraskaSarpy,Nebraska,Sarpy,2022-04-28 09:13:11,2021-08-04,0,0,0,,,,,,,,,,,,
31153,0,USNebraskaSarpy,Nebraska,Sarpy,2022-04-28 09:13:11,2021-08-05,0,0,0,,,,,,,,,,,,
31153,0,USNebraskaSarpy,Nebraska,Sarpy,2022-04-28 09:13:11,2021-08-06,0,0,0,,,,,,,,,,,,
31153,0,USNebraskaSarpy,Nebraska,Sarpy,2022-04-28 09:13:11,2021-08-07,0,0,0,,,,,,,,,,,,
31153,0,USNebraskaSarpy,Nebraska,Sarpy,2022-04-28 09:13:11,2021-08-08,0,0,0,,,,,,,,,,,,
31153,0,USNebraskaSarpy,Nebraska,Sarpy,2022-04-28 09:13:11,2021-08-09,0,0,0,,,,,,,,,,,,
31153,0,USNebraskaSarpy,Nebraska,Sarpy,2022-04-28 09:13:11,2021-08-10,0,0,0,,,,,,,,,,,,
31153,0,USNebraskaSarpy,Nebraska,Sarpy,2022-04-28 09:13:11,2021-08-11,0,0,0,,,,,,,,,,,,
31153,0,USNebraskaSarpy,Nebraska,Sarpy,2022-04-28 09:13:11,2021-08-12,0,0,0,,,,,,,,,,,,
31153,0,USNebraskaSarpy,Nebraska,Sarpy,2022-04-28 09:13:11,2021-08-13,0,0,0,,,,,,,,,,,,
31153,0,USNebraskaSarpy,Nebraska,Sarpy,2022-04-28 09:13:11,2021-08-14,0,0,0,,,,,,,,,,,,
31153,0,USNebraskaSarpy,Nebraska,Sarpy,2022-04-28 09:13:11,2021-08-15,0,0,0,,,,,,,,,,,,
31153,0,USNebraskaSarpy,Nebraska,Sarpy,2022-04-28 09:13:11,2021-08-16,0,0,0,,,,,,,,,,,,
31153,0,USNebraskaSarpy,Nebraska,Sarpy,2022-04-28 09:13:11,2021-08-17,0,0,0,,,,,,,,,,,,
31153,0,USNebraskaSarpy,Nebraska,Sarpy,2022-04-28 09:13:11,2021-08-18,0,0,0,,,,,,,,,,,,
31153,0,USNebraskaSarpy,Nebraska,Sarpy,2022-04-28 09:13:11,2021-08-19,0,0,0,,,,,,,,,,,,
31153,0,USNebraskaSarpy,Nebraska,Sarpy,2022-04-28 09:13:11,2021-08-20,0,0,0,,,,,,,,,,,,
31153,0,USNebraskaSarpy,Nebraska,Sarpy,2022-04-28 09:13:11,2021-08-21,0,0,0,,,,,,,,,,,,
31153,0,USNebraskaSarpy,Nebraska,Sarpy,2022-04-28 09:13:11,2021-08-22,0,0,0,,,,,,,,,,,,
31153,0,USNebraskaSarpy,Nebraska,Sarpy,2022-04-28 09:13:11,2021-08-23,0,0,0,,,,,,,,,,,,
31153,0,USNebraskaSarpy,Nebraska,Sarpy,2022-04-28 09:13:11,2021-08-24,0,0,0,,,,,,,,,,,,
31153,0,USNebraskaSarpy,Nebraska,Sarpy,2022-04-28 09:13:11,2021-08-25,0,0,0,,,,,,,,,,,,
31153,0,USNebraskaSarpy,Nebraska,Sarpy,2022-04-28 09:13:11,2021-08-26,0,0,0,,,,,,,,,,,,
31153,0,USNebraskaSarpy,Nebraska,Sarpy,2022-04-28 09:13:11,2021-08-27,0,0,0,,,,,,,,,,,,
31153,0,USNebraskaSarpy,Nebraska,Sarpy,2022-04-28 09:13:11,2021-08-28,0,0,0,,,,,,,,,,,,
31153,0,USNebraskaSarpy,Nebraska,Sarpy,2022-04-28 09:13:11,2021-08-29,0,0,0,,,,,,,,,,,,
31153,0,USNebraskaSarpy,Nebraska,Sarpy,2022-04-28 09:13:11,2021-08-30,0,0,0,,,,,,,,,,,,
31153,0,USNebraskaSarpy,Nebraska,Sarpy,2022-04-28 09:13:11,2021-08-31,0,0,0,,,,,,,,,,,,
31153,0,USNebraskaSarpy,Nebraska,Sarpy,2022-04-28 09:13:11,2021-09-01,0,0,0,,,,,,,,,,,,
31153,0,USNebraskaSarpy,Nebraska,Sarpy,2022-04-28 09:13:11,2021-09-02,0,0,0,,,,,,,,,,,,
31153,0,USNebraskaSarpy,Nebraska,Sarpy,2022-04-28 09:13:11,2021-09-03,0,0,0,,,,,,,,,,,,
31153,0,USNebraskaSarpy,Nebraska,Sarpy,2022-04-28 09:13:11,2021-09-04,0,0,0,,,,,,,,,,,,
31153,0,USNebraskaSarpy,Nebraska,Sarpy,2022-04-28 09:13:11,2021-09-05,0,0,0,,,,,,,,,,,,
31153,0,USNebraskaSarpy,Nebraska,Sarpy,2022-04-28 09:13:11,2021-09-06,0,0,0,,,,,,,,,,,,
31153,0,USNebraskaSarpy,Nebraska,Sarpy,2022-04-28 09:13:11,2021-09-07,0,0,0,,,,,,,,,,,,
31153,0,USNebraskaSarpy,Nebraska,Sarpy,2022-04-28 09:13:11,2021-09-08,0,0,0,,,,,,,,,,,,
31153,0,USNebraskaSarpy,Nebraska,Sarpy,2022-04-28 09:13:11,2021-09-09,0,0,0,,,,,,,,,,,,
31153,0,USNebraskaSarpy,Nebraska,Sarpy,2022-04-28 09:13:11,2021-09-10,0,0,0,,,,,,,,,,,,
31153,0,USNebraskaSarpy,Nebraska,Sarpy,2022-04-28 09:13:11,2021-09-11,0,0,0,,,,,,,,,,,,
31153,0,USNebraskaSarpy,Nebraska,Sarpy,2022-04-28 09:13:11,2021-09-12,0,0,0,,,,,,,,,,,,
31153,0,USNebraskaSarpy,Nebraska,Sarpy,2022-04-28 09:13:11,2021-09-13,0,0,0,,,,,,,,,,,,
31153,0,USNebraskaSarpy,Nebraska,Sarpy,2022-04-28 09:13:11,2021-09-14,0,0,0,,,,,,,,,,,,
31153,0,USNebraskaSarpy,Nebraska,Sarpy,2022-04-28 09:13:11,2021-09-15,0,0,0,,,,,,,,,,,,
31153,0,USNebraskaSarpy,Nebraska,Sarpy,2022-04-28 09:13:11,2021-09-16,0,0,0,,,,,,,,,,,,
31153,0,USNebraskaSarpy,Nebraska,Sarpy,2022-04-28 09:13:11,2021-09-17,0,0,0,,,,,,,,,,,,
31153,0,USNebraskaSarpy,Nebraska,Sarpy,2022-04-28 09:13:11,2021-09-18,0,0,0,,,,,,,,,,,,
31153,0,USNebraskaSarpy,Nebraska,Sarpy,2022-04-28 09:13:11,2021-09-19,0,0,0,,,,,,,,,,,,
31153,0,USNebraskaSarpy,Nebraska,Sarpy,2022-04-28 09:13:11,2021-09-20,0,0,0,,,,,,,,,,,,
31153,0,USNebraskaSarpy,Nebraska,Sarpy,2022-04-28 09:13:11,2021-09-21,0,0,0,,,,,,,,,,,,
31153,0,USNebraskaSarpy,Nebraska,Sarpy,2022-04-28 09:13:11,2021-09-22,0,0,0,,,,,,,,,,,,
31153,0,USNebraskaSarpy,Nebraska,Sarpy,2022-04-28 09:13:11,2021-09-23,5.80896196806362,7.330190138511752,9.485939588448725,,,,,,,,,,,,
31153,0,USNebraskaSarpy,Nebraska,Sarpy,2022-04-28 09:13:11,2021-09-24,5.80896196806362,7.330190138511752,9.485939588448725,,,,,,,,,,,,
31153,0,USNebraskaSarpy,Nebraska,Sarpy,2022-04-28 09:13:11,2021-09-25,5.80896196806362,7.330190138511752,9.485939588448725,,,,,,,,,,,,
31153,0,USNebraskaSarpy,Nebraska,Sarpy,2022-04-28 09:13:11,2021-09-26,5.80896196806362,7.330190138511752,9.485939588448725,,,,,,,,,,,,
31153,0,USNebraskaSarpy,Nebraska,Sarpy,2022-04-28 09:13:11,2021-09-27,5.80896196806362,7.330190138511752,9.485939588448725,,,,,,,,,,,,
31153,0,USNebraskaSarpy,Nebraska,Sarpy,2022-04-28 09:13:11,2021-09-28,5.80896196806362,7.330190138511752,9.485939588448725,,,,,,,,,,,,
31153,0,USNebraskaSarpy,Nebraska,Sarpy,2022-04-28 09:13:11,2021-09-29,5.80896196806362,7.330190138511752,9.485939588448725,,,,,,,,,,,,
31153,0,USNebraskaSarpy,Nebraska,Sarpy,2022-04-28 09:13:11,2021-09-30,0.7994412064082659,1.4163182612510015,2.6729228030227166,,,,,,,,,,,,
31153,0,USNebraskaSarpy,Nebraska,Sarpy,2022-04-28 09:13:11,2021-10-01,0.7994412064082659,1.4163182612510015,2.6729228030227166,,,,,,,,,,,,
31153,0,USNebraskaSarpy,Nebraska,Sarpy,2022-04-28 09:13:11,2021-10-02,0.7994412064082659,1.4163182612510015,2.6729228030227166,,,,,,,,,,,,
31153,0,USNebraskaSarpy,Nebraska,Sarpy,2022-04-28 09:13:11,2021-10-03,0.7994412064082659,1.4163182612510015,2.6729228030227166,,,,,,,,,,,,
31153,0,USNebraskaSarpy,Nebraska,Sarpy,2022-04-28 09:13:11,2021-10-04,0.7994412064082659,1.4163182612510015,2.6729228030227166,,,,,,,,,,,,
31153,0,USNebraskaSarpy,Nebraska,Sarpy,2022-04-28 09:13:11,2021-10-05,0.7994412064082659,1.4163182612510015,2.6729228030227166,,,,,,,,,,,,
31153,0,USNebraskaSarpy,Nebraska,Sarpy,2022-04-28 09:13:11,2021-10-06,0.7994412064082659,1.4163182612510015,2.6729228030227166,,,,,,,,,,,,
31153,0,USNebraskaSarpy,Nebraska,Sarpy,2022-04-28 09:13:11,2021-10-07,0.7262532812911875,1.3320708145263496,2.6084844622852192,,,,,,,,,,,,
31153,0,USNebraskaSarpy,Nebraska,Sarpy,2022-04-28 09:13:11,2021-10-08,0.7262532812911875,1.3320708145263496,2.6084844622852192,,,,,,,,,,,,
31153,0,USNebraskaSarpy,Nebraska,Sarpy,2022-04-28 09:13:11,2021-10-09,0.7262532812911875,1.3320708145263496,2.6084844622852192,,,,,,,,,,,,
31153,0,USNebraskaSarpy,Nebraska,Sarpy,2022-04-28 09:13:11,2021-10-10,0.7262532812911875,1.3320708145263496,2.6084844622852192,,,,,,,,,,,,
31153,0,USNebraskaSarpy,Nebraska,Sarpy,2022-04-28 09:13:11,2021-10-11,0.7262532812911875,1.3320708145263496,2.6084844622852192,,,,,,,,,,,,
31153,0,USNebraskaSarpy,Nebraska,Sarpy,2022-04-28 09:13:11,2021-10-12,0.7262532812911875,1.3320708145263496,2.6084844622852192,,,,,,,,,,,,
31153,0,USNebraskaSarpy,Nebraska,Sarpy,2022-04-28 09:13:11,2021-10-13,0.7262532812911875,1.3320708145263496,2.6084844622852192,,,,,,,,,,,,
31153,0,USNebraskaSarpy,Nebraska,Sarpy,2022-04-28 09:13:11,2021-10-14,0.7231027982349818,1.3246462406926731,2.590532769016403,,,,,,,,,,,,
31153,0,USNebraskaSarpy,Nebraska,Sarpy,2022-04-28 09:13:11,2021-10-15,0.7231027982349818,1.3246462406926731,2.590532769016403,,,,,,,,,,,,
31153,0,USNebraskaSarpy,Nebraska,Sarpy,2022-04-28 09:13:11,2021-10-16,0.7231027982349818,1.3246462406926731,2.590532769016403,,,,,,,,,,,,
31153,0,USNebraskaSarpy,Nebraska,Sarpy,2022-04-28 09:13:11,2021-10-17,0.7231027982349818,1.3246462406926731,2.590532769016403,,,,,,,,,,,,
31153,0,USNebraskaSarpy,Nebraska,Sarpy,2022-04-28 09:13:11,2021-10-18,0.7231027982349818,1.3246462406926731,2.590532769016403,,,,,,,,,,,,
31153,0,USNebraskaSarpy,Nebraska,Sarpy,2022-04-28 09:13:11,2021-10-19,0.7231027982349818,1.3246462406926731,2.590532769016403,,,,,,,,,,,,
31153,0,USNebraskaSarpy,Nebraska,Sarpy,2022-04-28 09:13:11,2021-10-20,0.7231027982349818,1.3246462406926731,2.590532769016403,,,,,,,,,,,,
31153,0,USNebraskaSarpy,Nebraska,Sarpy,2022-04-28 09:13:11,2021-10-21,0.713611736255433,1.3205108066290754,2.6101752854576445,,,,,,,,,,,,
31153,0,USNebraskaSarpy,Nebraska,Sarpy,2022-04-28 09:13:11,2021-10-22,0.713611736255433,1.3205108066290754,2.6101752854576445,,,,,,,,,,,,
31153,0,USNebraskaSarpy,Nebraska,Sarpy,2022-04-28 09:13:11,2021-10-23,0.713611736255433,1.3205108066290754,2.6101752854576445,,,,,,,,,,,,
31153,0,USNebraskaSarpy,Nebraska,Sarpy,2022-04-28 09:13:11,2021-10-24,0.713611736255433,1.3205108066290754,2.6101752854576445,,,,,,,,,,,,
31153,0,USNebraskaSarpy,Nebraska,Sarpy,2022-04-28 09:13:11,2021-10-25,0.713611736255433,1.3205108066290754,2.6101752854576445,,,,,,,,,,,,
31153,0,USNebraskaSarpy,Nebraska,Sarpy,2022-04-28 09:13:11,2021-10-26,0.713611736255433,1.3205108066290754,2.6101752854576445,,,,,,,,,,,,
31153,0,USNebraskaSarpy,Nebraska,Sarpy,2022-04-28 09:13:11,2021-10-27,0.713611736255433,1.3205108066290754,2.6101752854576445,,,,,,,,,,,,
31153,0,USNebraskaSarpy,Nebraska,Sarpy,2022-04-28 09:13:11,2021-10-28,0.9898173103515163,1.7818607745913657,3.420643978432949,,,,,,,,,,,,
31153,0,USNebraskaSarpy,Nebraska,Sarpy,2022-04-28 09:13:11,2021-10-29,0.9898173103515163,1.7818607745913657,3.420643978432949,,,,,,,,,,,,
31153,0,USNebraskaSarpy,Nebraska,Sarpy,2022-04-28 09:13:11,2021-10-30,0.9898173103515163,1.7818607745913657,3.420643978432949,,,,,,,,,,,,
31153,0,USNebraskaSarpy,Nebraska,Sarpy,2022-04-28 09:13:11,2021-10-31,0.9898173103515163,1.7818607745913657,3.420643978432949,,,,,,,,,,,,
31153,0,USNebraskaSarpy,Nebraska,Sarpy,2022-04-28 09:13:11,2021-11-01,0.9898173103515163,1.7818607745913657,3.420643978432949,,,,,,,,,,,,
31153,0,USNebraskaSarpy,Nebraska,Sarpy,2022-04-28 09:13:11,2021-11-02,0.9898173103515163,1.7818607745913657,3.420643978432949,,,,,,,,,,,,
31153,0,USNebraskaSarpy,Nebraska,Sarpy,2022-04-28 09:13:11,2021-11-03,0.9898173103515163,1.7818607745913657,3.420643978432949,,,,,,,,,,,,
31153,0,USNebraskaSarpy,Nebraska,Sarpy,2022-04-28 09:13:11,2021-11-04,1.0117463002106868,1.788092127173669,3.365784203810096,,,,,,,,,,,,
31153,0,USNebraskaSarpy,Nebraska,Sarpy,2022-04-28 09:13:11,2021-11-05,1.0117463002106868,1.788092127173669,3.365784203810096,,,,,,,,,,,,
31153,0,USNebraskaSarpy,Nebraska,Sarpy,2022-04-28 09:13:11,2021-11-06,1.0117463002106868,1.788092127173669,3.365784203810096,,,,,,,,,,,,
31153,0,USNebraskaSarpy,Nebraska,Sarpy,2022-04-28 09:13:11,2021-11-07,1.0117463002106868,1.788092127173669,3.365784203810096,,,,,,,,,,,,
31153,0,USNebraskaSarpy,Nebraska,Sarpy,2022-04-28 09:13:11,2021-11-08,1.0117463002106868,1.788092127173669,3.365784203810096,,,,,,,,,,,,
31153,0,USNebraskaSarpy,Nebraska,Sarpy,2022-04-28 09:13:11,2021-11-09,1.0117463002106868,1.788092127173669,3.365784203810096,,,,,,,,,,,,
31153,0,USNebraskaSarpy,Nebraska,Sarpy,2022-04-28 09:13:11,2021-11-10,1.0117463002106868,1.788092127173669,3.365784203810096,,,,,,,,,,,,
31153,0,USNebraskaSarpy,Nebraska,Sarpy,2022-04-28 09:13:11,2021-11-11,1.1319092604000152,1.9828216184288963,3.6971047026780925,,,,,,,,,,,,
31153,0,USNebraskaSarpy,Nebraska,Sarpy,2022-04-28 09:13:11,2021-11-12,1.1319092604000152,1.9828216184288963,3.6971047026780925,,,,,,,,,,,,
31153,0,USNebraskaSarpy,Nebraska,Sarpy,2022-04-28 09:13:11,2021-11-13,1.1319092604000152,1.9828216184288963,3.6971047026780925,,,,,,,,,,,,
31153,0,USNebraskaSarpy,Nebraska,Sarpy,2022-04-28 09:13:11,2021-11-14,1.1319092604000152,1.9828216184288963,3.6971047026780925,,,,,,,,,,,,
31153,0,USNebraskaSarpy,Nebraska,Sarpy,2022-04-28 09:13:11,2021-11-15,1.1319092604000152,1.9828216184288963,3.6971047026780925,,,,,,,,,,,,
31153,0,USNebraskaSarpy,Nebraska,Sarpy,2022-04-28 09:13:11,2021-11-16,1.1319092604000152,1.9828216184288963,3.6971047026780925,,,,,,,,,,,,
31153,0,USNebraskaSarpy,Nebraska,Sarpy,2022-04-28 09:13:11,2021-11-17,1.1319092604000152,1.9828216184288963,3.6971047026780925,,,,,,,,,,,,
31153,0,USNebraskaSarpy,Nebraska,Sarpy,2022-04-28 09:13:11,2021-11-18,1.6276884376234535,3.325045139362011,7.28846364213942,,,,,,,,,,,,
31153,0,USNebraskaSarpy,Nebraska,Sarpy,2022-04-28 09:13:11,2021-11-19,1.6276884376234535,3.325045139362011,7.28846364213942,,,,,,,,,,,,
31153,0,USNebraskaSarpy,Nebraska,Sarpy,2022-04-28 09:13:11,2021-11-20,1.6276884376234535,3.325045139362011,7.28846364213942,,,,,,,,,,,,
31153,0,USNebraskaSarpy,Nebraska,Sarpy,2022-04-28 09:13:11,2021-11-21,1.6276884376234535,3.325045139362011,7.28846364213942,,,,,,,,,,,,
31153,0,USNebraskaSarpy,Nebraska,Sarpy,2022-04-28 09:13:11,2021-11-22,1.6276884376234535,3.325045139362011,7.28846364213942,,,,,,,,,,,,
31153,0,USNebraskaSarpy,Nebraska,Sarpy,2022-04-28 09:13:11,2021-11-23,1.6276884376234535,3.325045139362011,7.28846364213942,,,,,,,,,,,,
31153,0,USNebraskaSarpy,Nebraska,Sarpy,2022-04-28 09:13:11,2021-11-24,1.6276884376234535,3.325045139362011,7.28846364213942,,,,,,,,,,,,
31153,0,USNebraskaSarpy,Nebraska,Sarpy,2022-04-28 09:13:11,2021-12-02,2.3038667447628303,5.601774627361893,14.657958800841525,,,,,,,,,,,,
31153,0,USNebraskaSarpy,Nebraska,Sarpy,2022-04-28 09:13:11,2021-12-03,2.3038667447628303,5.601774627361893,14.657958800841525,,,,,,,,,,,,
31153,0,USNebraskaSarpy,Nebraska,Sarpy,2022-04-28 09:13:11,2021-12-04,2.3038667447628303,5.601774627361893,14.657958800841525,,,,,,,,,,,,
31153,0,USNebraskaSarpy,Nebraska,Sarpy,2022-04-28 09:13:11,2021-12-05,2.3038667447628303,5.601774627361893,14.657958800841525,,,,,,,,,,,,
31153,0,USNebraskaSarpy,Nebraska,Sarpy,2022-04-28 09:13:11,2021-12-06,2.3038667447628303,5.601774627361893,14.657958800841525,,,,,,,,,,,,
31153,0,USNebraskaSarpy,Nebraska,Sarpy,2022-04-28 09:13:11,2021-12-07,2.3038667447628303,5.601774627361893,14.657958800841525,,,,,,,,,,,,
31153,0,USNebraskaSarpy,Nebraska,Sarpy,2022-04-28 09:13:11,2021-12-08,2.3038667447628303,5.601774627361893,14.657958800841525,,,,,,,,,,,,
31153,0,USNebraskaSarpy,Nebraska,Sarpy,2022-04-28 09:13:11,2021-12-09,1.3195008343225054,2.234640316177718,4.017821742516505,,,,,,,,,,,,
31153,0,USNebraskaSarpy,Nebraska,Sarpy,2022-04-28 09:13:11,2021-12-10,1.3195008343225054,2.234640316177718,4.017821742516505,,,,,,,,,,,,
31153,0,USNebraskaSarpy,Nebraska,Sarpy,2022-04-28 09:13:11,2021-12-11,1.3195008343225054,2.234640316177718,4.017821742516505,,,,,,,,,,,,
31153,0,USNebraskaSarpy,Nebraska,Sarpy,2022-04-28 09:13:11,2021-12-12,1.3195008343225054,2.234640316177718,4.017821742516505,,,,,,,,,,,,
31153,0,USNebraskaSarpy,Nebraska,Sarpy,2022-04-28 09:13:11,2021-12-13,1.3195008343225054,2.234640316177718,4.017821742516505,,,,,,,,,,,,
31153,0,USNebraskaSarpy,Nebraska,Sarpy,2022-04-28 09:13:11,2021-12-14,1.3195008343225054,2.234640316177718,4.017821742516505,,,,,,,,,,,,
31153,0,USNebraskaSarpy,Nebraska,Sarpy,2022-04-28 09:13:11,2021-12-15,1.3195008343225054,2.234640316177718,4.017821742516505,,,,,,,,,,,,
31153,0,USNebraskaSarpy,Nebraska,Sarpy,2022-04-28 09:13:11,2021-12-16,1.2044372354055681,2.015670674602169,3.5777833679676947,,,,,,,,,,,,
31153,0,USNebraskaSarpy,Nebraska,Sarpy,2022-04-28 09:13:11,2021-12-17,1.2044372354055681,2.015670674602169,3.5777833679676947,,,,,,,,,,,,
31153,0,USNebraskaSarpy,Nebraska,Sarpy,2022-04-28 09:13:11,2021-12-18,1.2044372354055681,2.015670674602169,3.5777833679676947,,,,,,,,,,,,
31153,0,USNebraskaSarpy,Nebraska,Sarpy,2022-04-28 09:13:11,2021-12-19,1.2044372354055681,2.015670674602169,3.5777833679676947,,,,,,,,,,,,
31153,0,USNebraskaSarpy,Nebraska,Sarpy,2022-04-28 09:13:11,2021-12-20,1.2044372354055681,2.015670674602169,3.5777833679676947,,,,,,,,,,,,
31153,0,USNebraskaSarpy,Nebraska,Sarpy,2022-04-28 09:13:11,2021-12-21,1.2044372354055681,2.015670674602169,3.5777833679676947,,,,,,,,,,,,
31153,0,USNebraskaSarpy,Nebraska,Sarpy,2022-04-28 09:13:11,2021-12-22,1.2044372354055681,2.015670674602169,3.5777833679676947,,,,,,,,,,,,
31153,0,USNebraskaSarpy,Nebraska,Sarpy,2022-04-28 09:13:11,2021-12-23,1.460927852278976,2.450214075041212,4.359303855207255,,,,,,,,,,,,
31153,0,USNebraskaSarpy,Nebraska,Sarpy,2022-04-28 09:13:11,2021-12-24,1.460927852278976,2.450214075041212,4.359303855207255,,,,,,,,,,,,
31153,0,USNebraskaSarpy,Nebraska,Sarpy,2022-04-28 09:13:11,2021-12-25,1.460927852278976,2.450214075041212,4.359303855207255,,,,,,,,,,,,
31153,0,USNebraskaSarpy,Nebraska,Sarpy,2022-04-28 09:13:11,2021-12-26,1.460927852278976,2.450214075041212,4.359303855207255,,,,,,,,,,,,
31153,0,USNebraskaSarpy,Nebraska,Sarpy,2022-04-28 09:13:11,2021-12-27,1.460927852278976,2.450214075041212,4.359303855207255,,,,,,,,,,,,
31153,0,USNebraskaSarpy,Nebraska,Sarpy,2022-04-28 09:13:11,2021-12-28,1.460927852278976,2.450214075041212,4.359303855207255,,,,,,,,,,,,
31153,0,USNebraskaSarpy,Nebraska,Sarpy,2022-04-28 09:13:11,2021-12-29,1.460927852278976,2.450214075041212,4.359303855207255,,,,,,,,,,,,
31153,0,USNebraskaSarpy,Nebraska,Sarpy,2022-04-28 09:13:11,2021-12-30,3.0058099804346825,4.613306732936043,7.447668736709079,,,,,,,,,,,,
31153,0,USNebraskaSarpy,Nebraska,Sarpy,2022-04-28 09:13:11,2021-12-31,3.0058099804346825,4.613306732936043,7.447668736709079,,,,,,,,,,,,
31153,0,USNebraskaSarpy,Nebraska,Sarpy,2022-04-28 09:13:11,2022-01-01,3.0058099804346825,4.613306732936043,7.447668736709079,,,,,,,,,,,,
31153,0,USNebraskaSarpy,Nebraska,Sarpy,2022-04-28 09:13:11,2022-01-02,3.0058099804346825,4.613306732936043,7.447668736709079,,,,,,,,,,,,
31153,0,USNebraskaSarpy,Nebraska,Sarpy,2022-04-28 09:13:11,2022-01-03,3.0058099804346825,4.613306732936043,7.447668736709079,,,,,,,,,,,,
31153,0,USNebraskaSarpy,Nebraska,Sarpy,2022-04-28 09:13:11,2022-01-04,3.0058099804346825,4.613306732936043,7.447668736709079,,,,,,,,,,,,
31153,0,USNebraskaSarpy,Nebraska,Sarpy,2022-04-28 09:13:11,2022-01-05,3.0058099804346825,4.613306732936043,7.447668736709079,,,,,,,,,,,,
31153,0,USNebraskaSarpy,Nebraska,Sarpy,2022-04-28 09:13:11,2022-01-06,4.936124646780298,7.2476681963556135,11.137554785351544,,,,,,,,,,,,
31153,0,USNebraskaSarpy,Nebraska,Sarpy,2022-04-28 09:13:11,2022-01-07,4.936124646780298,7.2476681963556135,11.137554785351544,,,,,,,,,,,,
31153,0,USNebraskaSarpy,Nebraska,Sarpy,2022-04-28 09:13:11,2022-01-08,4.936124646780298,7.2476681963556135,11.137554785351544,,,,,,,,,,,,
31153,0,USNebraskaSarpy,Nebraska,Sarpy,2022-04-28 09:13:11,2022-01-09,4.936124646780298,7.2476681963556135,11.137554785351544,,,,,,,,,,,,
31153,0,USNebraskaSarpy,Nebraska,Sarpy,2022-04-28 09:13:11,2022-01-10,4.936124646780298,7.2476681963556135,11.137554785351544,,,,,,,,,,,,
31153,0,USNebraskaSarpy,Nebraska,Sarpy,2022-04-28 09:13:11,2022-01-11,4.936124646780298,7.2476681963556135,11.137554785351544,,,,,,,,,,,,
31153,0,USNebraskaSarpy,Nebraska,Sarpy,2022-04-28 09:13:11,2022-01-12,4.936124646780298,7.2476681963556135,11.137554785351544,,,,,,,,,,,,
31153,0,USNebraskaSarpy,Nebraska,Sarpy,2022-04-28 09:13:11,2022-01-13,5.943222794599865,8.396369030626863,12.355880814613371,,,,,,,,,,,,
31153,0,USNebraskaSarpy,Nebraska,Sarpy,2022-04-28 09:13:11,2022-01-14,5.943222794599865,8.396369030626863,12.355880814613371,,,,,,,,,,,,
31153,0,USNebraskaSarpy,Nebraska,Sarpy,2022-04-28 09:13:11,2022-01-15,5.943222794599865,8.396369030626863,12.355880814613371,,,,,,,,,,,,
31153,0,USNebraskaSarpy,Nebraska,Sarpy,2022-04-28 09:13:11,2022-01-16,5.943222794599865,8.396369030626863,12.355880814613371,,,,,,,,,,,,
31153,0,USNebraskaSarpy,Nebraska,Sarpy,2022-04-28 09:13:11,2022-01-17,5.943222794599865,8.396369030626863,12.355880814613371,,,,,,,,,,,,
31153,0,USNebraskaSarpy,Nebraska,Sarpy,2022-04-28 09:13:11,2022-01-18,5.943222794599865,8.396369030626863,12.355880814613371,,,,,,,,,,,,
31153,0,USNebraskaSarpy,Nebraska,Sarpy,2022-04-28 09:13:11,2022-01-19,5.943222794599865,8.396369030626863,12.355880814613371,,,,,,,,,,,,
31153,0,USNebraskaSarpy,Nebraska,Sarpy,2022-04-28 09:13:11,2022-01-20,5.2336269463889264,7.592496979136594,11.511095670460168,,,,,,,,,,,,
31153,0,USNebraskaSarpy,Nebraska,Sarpy,2022-04-28 09:13:11,2022-01-21,5.2336269463889264,7.592496979136594,11.511095670460168,,,,,,,,,,,,
31153,0,USNebraskaSarpy,Nebraska,Sarpy,2022-04-28 09:13:11,2022-01-22,5.2336269463889264,7.592496979136594,11.511095670460168,,,,,,,,,,,,
31153,0,USNebraskaSarpy,Nebraska,Sarpy,2022-04-28 09:13:11,2022-01-23,5.2336269463889264,7.592496979136594,11.511095670460168,,,,,,,,,,,,
31153,0,USNebraskaSarpy,Nebraska,Sarpy,2022-04-28 09:13:11,2022-01-24,5.2336269463889264,7.592496979136594,11.511095670460168,,,,,,,,,,,,
31153,0,USNebraskaSarpy,Nebraska,Sarpy,2022-04-28 09:13:11,2022-01-25,5.2336269463889264,7.592496979136594,11.511095670460168,,,,,,,,,,,,
31153,0,USNebraskaSarpy,Nebraska,Sarpy,2022-04-28 09:13:11,2022-01-26,5.2336269463889264,7.592496979136594,11.511095670460168,,,,,,,,,,,,
31153,0,USNebraskaSarpy,Nebraska,Sarpy,2022-04-28 09:13:11,2022-01-27,2.9113224601461436,4.693022710553187,7.996915107084799,,,,,,,,,,,,
31153,0,USNebraskaSarpy,Nebraska,Sarpy,2022-04-28 09:13:11,2022-01-28,2.9113224601461436,4.693022710553187,7.996915107084799,,,,,,,,,,,,
31153,0,USNebraskaSarpy,Nebraska,Sarpy,2022-04-28 09:13:11,2022-01-29,2.9113224601461436,4.693022710553187,7.996915107084799,,,,,,,,,,,,
31153,0,USNebraskaSarpy,Nebraska,Sarpy,2022-04-28 09:13:11,2022-01-30,2.9113224601461436,4.693022710553187,7.996915107084799,,,,,,,,,,,,
31153,0,USNebraskaSarpy,Nebraska,Sarpy,2022-04-28 09:13:11,2022-01-31,2.9113224601461436,4.693022710553187,7.996915107084799,,,,,,,,,,,,
31153,0,USNebraskaSarpy,Nebraska,Sarpy,2022-04-28 09:13:11,2022-02-01,2.9113224601461436,4.693022710553187,7.996915107084799,,,,,,,,,,,,
31153,0,USNebraskaSarpy,Nebraska,Sarpy,2022-04-28 09:13:11,2022-02-02,2.9113224601461436,4.693022710553187,7.996915107084799,,,,,,,,,,,,
31153,0,USNebraskaSarpy,Nebraska,Sarpy,2022-04-28 09:13:11,2022-02-03,1.2371448259404934,1.9667234131784783,3.3005986552352913,,,,,,,,,,,,
31153,0,USNebraskaSarpy,Nebraska,Sarpy,2022-04-28 09:13:11,2022-02-04,1.2371448259404934,1.9667234131784783,3.3005986552352913,,,,,,,,,,,,
31153,0,USNebraskaSarpy,Nebraska,Sarpy,2022-04-28 09:13:11,2022-02-05,1.2371448259404934,1.9667234131784783,3.3005986552352913,,,,,,,,,,,,
31153,0,USNebraskaSarpy,Nebraska,Sarpy,2022-04-28 09:13:11,2022-02-06,1.2371448259404934,1.9667234131784783,3.3005986552352913,,,,,,,,,,,,
31153,0,USNebraskaSarpy,Nebraska,Sarpy,2022-04-28 09:13:11,2022-02-07,1.2371448259404934,1.9667234131784783,3.3005986552352913,,,,,,,,,,,,
31153,0,USNebraskaSarpy,Nebraska,Sarpy,2022-04-28 09:13:11,2022-02-08,1.2371448259404934,1.9667234131784783,3.3005986552352913,,,,,,,,,,,,
31153,0,USNebraskaSarpy,Nebraska,Sarpy,2022-04-28 09:13:11,2022-02-09,1.2371448259404934,1.9667234131784783,3.3005986552352913,,,,,,,,,,,,
31153,0,USNebraskaSarpy,Nebraska,Sarpy,2022-04-28 09:13:11,2022-02-10,0.5934393898505748,1.0069714392038702,1.8143078904282812,,,,,,,,,,,,
31153,0,USNebraskaSarpy,Nebraska,Sarpy,2022-04-28 09:13:11,2022-02-11,0.5934393898505748,1.0069714392038702,1.8143078904282812,,,,,,,,,,,,
31153,0,USNebraskaSarpy,Nebraska,Sarpy,2022-04-28 09:13:11,2022-02-12,0.5934393898505748,1.0069714392038702,1.8143078904282812,,,,,,,,,,,,
31153,0,USNebraskaSarpy,Nebraska,Sarpy,2022-04-28 09:13:11,2022-02-13,0.5934393898505748,1.0069714392038702,1.8143078904282812,,,,,,,,,,,,
31153,0,USNebraskaSarpy,Nebraska,Sarpy,2022-04-28 09:13:11,2022-02-14,0.5934393898505748,1.0069714392038702,1.8143078904282812,,,,,,,,,,,,
31153,0,USNebraskaSarpy,Nebraska,Sarpy,2022-04-28 09:13:11,2022-02-15,0.5934393898505748,1.0069714392038702,1.8143078904282812,,,,,,,,,,,,
31153,0,USNebraskaSarpy,Nebraska,Sarpy,2022-04-28 09:13:11,2022-02-16,0.5934393898505748,1.0069714392038702,1.8143078904282812,,,,,,,,,,,,
31153,0,USNebraskaSarpy,Nebraska,Sarpy,2022-04-28 09:13:11,2022-02-17,0.3502044994273459,0.6443015314071552,1.2657777908429404,,,,,,,,,,,,
31153,0,USNebraskaSarpy,Nebraska,Sarpy,2022-04-28 09:13:11,2022-02-18,0.3502044994273459,0.6443015314071552,1.2657777908429404,,,,,,,,,,,,
31153,0,USNebraskaSarpy,Nebraska,Sarpy,2022-04-28 09:13:11,2022-02-19,0.3502044994273459,0.6443015314071552,1.2657777908429404,,,,,,,,,,,,
31153,0,USNebraskaSarpy,Nebraska,Sarpy,2022-04-28 09:13:11,2022-02-20,0.3502044994273459,0.6443015314071552,1.2657777908429404,,,,,,,,,,,,
31153,0,USNebraskaSarpy,Nebraska,Sarpy,2022-04-28 09:13:11,2022-02-21,0.3502044994273459,0.6443015314071552,1.2657777908429404,,,,,,,,,,,,
31153,0,USNebraskaSarpy,Nebraska,Sarpy,2022-04-28 09:13:11,2022-02-22,0.3502044994273459,0.6443015314071552,1.2657777908429404,,,,,,,,,,,,
31153,0,USNebraskaSarpy,Nebraska,Sarpy,2022-04-28 09:13:11,2022-02-23,0.3502044994273459,0.6443015314071552,1.2657777908429404,,,,,,,,,,,,
31153,0,USNebraskaSarpy,Nebraska,Sarpy,2022-04-28 09:13:11,2022-02-24,2.8499487874190867,4.631748141483417,7.9632556134662575,,,,,,,,,,,,
31153,0,USNebraskaSarpy,Nebraska,Sarpy,2022-04-28 09:13:11,2022-02-25,2.8499487874190867,4.631748141483417,7.9632556134662575,,,,,,,,,,,,
31153,0,USNebraskaSarpy,Nebraska,Sarpy,2022-04-28 09:13:11,2022-02-26,2.8499487874190867,4.631748141483417,7.9632556134662575,,,,,,,,,,,,
31153,0,USNebraskaSarpy,Nebraska,Sarpy,2022-04-28 09:13:11,2022-02-27,2.8499487874190867,4.631748141483417,7.9632556134662575,,,,,,,,,,,,
31153,0,USNebraskaSarpy,Nebraska,Sarpy,2022-04-28 09:13:11,2022-02-28,2.8499487874190867,4.631748141483417,7.9632556134662575,,,,,,,,,,,,
31153,0,USNebraskaSarpy,Nebraska,Sarpy,2022-04-28 09:13:11,2022-03-01,2.8499487874190867,4.631748141483417,7.9632556134662575,,,,,,,,,,,,
31153,0,USNebraskaSarpy,Nebraska,Sarpy,2022-04-28 09:13:11,2022-03-02,2.8499487874190867,4.631748141483417,7.9632556134662575,,,,,,,,,,,,
31153,0,USNebraskaSarpy,Nebraska,Sarpy,2022-04-28 09:13:11,2022-03-03,0.2043245515095804,0.40739110623181657,0.8708133922221145,,,,,,,,,,,,
31153,0,USNebraskaSarpy,Nebraska,Sarpy,2022-04-28 09:13:11,2022-03-04,0.2043245515095804,0.40739110623181657,0.8708133922221145,,,,,,,,,,,,
31153,0,USNebraskaSarpy,Nebraska,Sarpy,2022-04-28 09:13:11,2022-03-05,0.2043245515095804,0.40739110623181657,0.8708133922221145,,,,,,,,,,,,
31153,0,USNebraskaSarpy,Nebraska,Sarpy,2022-04-28 09:13:11,2022-03-06,0.2043245515095804,0.40739110623181657,0.8708133922221145,,,,,,,,,,,,
31153,0,USNebraskaSarpy,Nebraska,Sarpy,2022-04-28 09:13:11,2022-03-07,0.2043245515095804,0.40739110623181657,0.8708133922221145,,,,,,,,,,,,
31153,0,USNebraskaSarpy,Nebraska,Sarpy,2022-04-28 09:13:11,2022-03-08,0.2043245515095804,0.40739110623181657,0.8708133922221145,,,,,,,,,,,,
31153,0,USNebraskaSarpy,Nebraska,Sarpy,2022-04-28 09:13:11,2022-03-09,0.2043245515095804,0.40739110623181657,0.8708133922221145,,,,,,,,,,,,
31153,0,USNebraskaSarpy,Nebraska,Sarpy,2022-04-28 09:13:11,2022-03-10,0.1432682730167575,0.2745039033770926,0.5628621329987095,,,,,,,,,,,,
31153,0,USNebraskaSarpy,Nebraska,Sarpy,2022-04-28 09:13:11,2022-03-11,0.1432682730167575,0.2745039033770926,0.5628621329987095,,,,,,,,,,,,
31153,0,USNebraskaSarpy,Nebraska,Sarpy,2022-04-28 09:13:11,2022-03-12,0.1432682730167575,0.2745039033770926,0.5628621329987095,,,,,,,,,,,,
31153,0,USNebraskaSarpy,Nebraska,Sarpy,2022-04-28 09:13:11,2022-03-13,0.1432682730167575,0.2745039033770926,0.5628621329987095,,,,,,,,,,,,
31153,0,USNebraskaSarpy,Nebraska,Sarpy,2022-04-28 09:13:11,2022-03-14,0.1432682730167575,0.2745039033770926,0.5628621329987095,,,,,,,,,,,,
31153,0,USNebraskaSarpy,Nebraska,Sarpy,2022-04-28 09:13:11,2022-03-15,0.1432682730167575,0.2745039033770926,0.5628621329987095,,,,,,,,,,,,
31153,0,USNebraskaSarpy,Nebraska,Sarpy,2022-04-28 09:13:11,2022-03-16,0.1432682730167575,0.2745039033770926,0.5628621329987095,,,,,,,,,,,,
31153,0,USNebraskaSarpy,Nebraska,Sarpy,2022-04-28 09:13:11,2022-03-17,0.0727665781404363,0.13941367907533303,0.28584631748808353,,,,,,,,,,,,
31153,0,USNebraskaSarpy,Nebraska,Sarpy,2022-04-28 09:13:11,2022-03-18,0.0727665781404363,0.13941367907533303,0.28584631748808353,,,,,,,,,,,,
31153,0,USNebraskaSarpy,Nebraska,Sarpy,2022-04-28 09:13:11,2022-03-19,0.0727665781404363,0.13941367907533303,0.28584631748808353,,,,,,,,,,,,
31153,0,USNebraskaSarpy,Nebraska,Sarpy,2022-04-28 09:13:11,2022-03-20,0.0727665781404363,0.13941367907533303,0.28584631748808353,,,,,,,,,,,,
31153,0,USNebraskaSarpy,Nebraska,Sarpy,2022-04-28 09:13:11,2022-03-21,0.0727665781404363,0.13941367907533303,0.28584631748808353,,,,,,,,,,,,
31153,0,USNebraskaSarpy,Nebraska,Sarpy,2022-04-28 09:13:11,2022-03-22,0.0727665781404363,0.13941367907533303,0.28584631748808353,,,,,,,,,,,,
31153,0,USNebraskaSarpy,Nebraska,Sarpy,2022-04-28 09:13:11,2022-03-23,0.0727665781404363,0.13941367907533303,0.28584631748808353,,,,,,,,,,,,
31153,0,USNebraskaSarpy,Nebraska,Sarpy,2022-04-28 09:13:11,2022-03-24,0.226167595192295,0.43514913422734675,0.8961667850382731,,,,,,,,,,,,
31153,0,USNebraskaSarpy,Nebraska,Sarpy,2022-04-28 09:13:11,2022-03-25,0.226167595192295,0.43514913422734675,0.8961667850382731,,,,,,,,,,,,
31153,0,USNebraskaSarpy,Nebraska,Sarpy,2022-04-28 09:13:11,2022-03-26,0.226167595192295,0.43514913422734675,0.8961667850382731,,,,,,,,,,,,
31153,0,USNebraskaSarpy,Nebraska,Sarpy,2022-04-28 09:13:11,2022-03-27,0.226167595192295,0.43514913422734675,0.8961667850382731,,,,,,,,,,,,
31153,0,USNebraskaSarpy,Nebraska,Sarpy,2022-04-28 09:13:11,2022-03-28,0.226167595192295,0.43514913422734675,0.8961667850382731,,,,,,,,,,,,
31153,0,USNebraskaSarpy,Nebraska,Sarpy,2022-04-28 09:13:11,2022-03-29,0.226167595192295,0.43514913422734675,0.8961667850382731,,,,,,,,,,,,
31153,0,USNebraskaSarpy,Nebraska,Sarpy,2022-04-28 09:13:11,2022-03-30,0.226167595192295,0.43514913422734675,0.8961667850382731,,,,,,,,,,,,
31153,0,USNebraskaSarpy,Nebraska,Sarpy,2022-04-28 09:13:11,2022-03-31,0.22442716704595242,0.4248597678512284,0.8602136015409095,,,,,,,,,,,,
31153,0,USNebraskaSarpy,Nebraska,Sarpy,2022-04-28 09:13:11,2022-04-01,0.22442716704595242,0.4248597678512284,0.8602136015409095,,,,,,,,,,,,
31153,0,USNebraskaSarpy,Nebraska,Sarpy,2022-04-28 09:13:11,2022-04-02,0.22442716704595242,0.4248597678512284,0.8602136015409095,,,,,,,,,,,,
31153,0,USNebraskaSarpy,Nebraska,Sarpy,2022-04-28 09:13:11,2022-04-03,0.22442716704595242,0.4248597678512284,0.8602136015409095,,,,,,,,,,,,
31153,0,USNebraskaSarpy,Nebraska,Sarpy,2022-04-28 09:13:11,2022-04-04,0.22442716704595242,0.4248597678512284,0.8602136015409095,,,,,,,,,,,,
31153,0,USNebraskaSarpy,Nebraska,Sarpy,2022-04-28 09:13:11,2022-04-05,0.22442716704595242,0.4248597678512284,0.8602136015409095,,,,,,,,,,,,
31153,0,USNebraskaSarpy,Nebraska,Sarpy,2022-04-28 09:13:11,2022-04-06,0.22442716704595242,0.4248597678512284,0.8602136015409095,,,,,,,,,,,,
31153,0,USNebraskaSarpy,Nebraska,Sarpy,2022-04-28 09:13:11,2022-04-07,0.04790217240721374,0.2621618702031593,1.5034981736368256,,,,,,,,,,,,
31153,0,USNebraskaSarpy,Nebraska,Sarpy,2022-04-28 09:13:11,2022-04-08,0.04790217240721374,0.2621618702031593,1.5034981736368256,,,,,,,,,,,,
31153,0,USNebraskaSarpy,Nebraska,Sarpy,2022-04-28 09:13:11,2022-04-09,0.04790217240721374,0.2621618702031593,1.5034981736368256,,,,,,,,,,,,
31153,0,USNebraskaSarpy,Nebraska,Sarpy,2022-04-28 09:13:11,2022-04-10,0.04790217240721374,0.2621618702031593,1.5034981736368256,,,,,,,,,,,,
31153,0,USNebraskaSarpy,Nebraska,Sarpy,2022-04-28 09:13:11,2022-04-11,0.04790217240721374,0.2621618702031593,1.5034981736368256,,,,,,,,,,,,
31153,0,USNebraskaSarpy,Nebraska,Sarpy,2022-04-28 09:13:11,2022-04-12,0.04790217240721374,0.2621618702031593,1.5034981736368256,,,,,,,,,,,,
31153,0,USNebraskaSarpy,Nebraska,Sarpy,2022-04-28 09:13:11,2022-04-13,0.04790217240721374,0.2621618702031593,1.5034981736368256,,,,,,,,,,,,
31153,0,USNebraskaSarpy,Nebraska,Sarpy,2022-04-28 09:13:11,2022-04-14,0.1755364906366849,0.3411206360253581,0.7098962087900124,,,,,,,,,,,,
31153,0,USNebraskaSarpy,Nebraska,Sarpy,2022-04-28 09:13:11,2022-04-15,0.1755364906366849,0.3411206360253581,0.7098962087900124,,,,,,,,,,,,
31153,0,USNebraskaSarpy,Nebraska,Sarpy,2022-04-28 09:13:11,2022-04-16,0.1755364906366849,0.3411206360253581,0.7098962087900124,,,,,,,,,,,,
31153,0,USNebraskaSarpy,Nebraska,Sarpy,2022-04-28 09:13:11,2022-04-17,0.1755364906366849,0.3411206360253581,0.7098962087900124,,,,,,,,,,,,
31153,0,USNebraskaSarpy,Nebraska,Sarpy,2022-04-28 09:13:11,2022-04-18,0.1755364906366849,0.3411206360253581,0.7098962087900124,,,,,,,,,,,,
31153,0,USNebraskaSarpy,Nebraska,Sarpy,2022-04-28 09:13:11,2022-04-19,0.1755364906366849,0.3411206360253581,0.7098962087900124,,,,,,,,,,,,
31153,0,USNebraskaSarpy,Nebraska,Sarpy,2022-04-28 09:13:11,2022-04-20,0.1755364906366849,0.3411206360253581,0.7098962087900124,,,,,,,,,,,,
