FIPS,HR_UID,nameid,province,region,analysisTime,dates,pointprevalence_025,pointprevalence_50,pointprevalence_975,pointinfections_025,pointinfections_50,pointinfections_975,pointinfectious_025,pointinfectious_50,pointinfectious_975,pointinfectiousprevalence_025,pointinfectiousprevalence_50,pointinfectiousprevalence_975,infectrate_025,infectrate_50,infectrate_975
48265,0,USTexasKerr,Texas,Kerr,2022-04-28 09:13:11,2020-03-19,0,0,0,,,,,,,,,,,,
48265,0,USTexasKerr,Texas,Kerr,2022-04-28 09:13:11,2020-03-20,0,0,0,,,,,,,,,,,,
48265,0,USTexasKerr,Texas,Kerr,2022-04-28 09:13:11,2020-03-21,0,0,0,,,,,,,,,,,,
48265,0,USTexasKerr,Texas,Kerr,2022-04-28 09:13:11,2020-03-22,0,0,0,,,,,,,,,,,,
48265,0,USTexasKerr,Texas,Kerr,2022-04-28 09:13:11,2020-03-23,0,0,0,,,,,,,,,,,,
48265,0,USTexasKerr,Texas,Kerr,2022-04-28 09:13:11,2020-03-24,0,0,0,,,,,,,,,,,,
48265,0,USTexasKerr,Texas,Kerr,2022-04-28 09:13:11,2020-03-25,0,0,0,,,,,,,,,,,,
48265,0,USTexasKerr,Texas,Kerr,2022-04-28 09:13:11,2020-03-26,0.022608997928310098,0.10365458059781625,0.5018931201665595,,,,,,,,,,,,
48265,0,USTexasKerr,Texas,Kerr,2022-04-28 09:13:11,2020-03-27,0.022608997928310098,0.10365458059781625,0.5018931201665595,,,,,,,,,,,,
48265,0,USTexasKerr,Texas,Kerr,2022-04-28 09:13:11,2020-03-28,0.022608997928310098,0.10365458059781625,0.5018931201665595,,,,,,,,,,,,
48265,0,USTexasKerr,Texas,Kerr,2022-04-28 09:13:11,2020-03-29,0.022608997928310098,0.10365458059781625,0.5018931201665595,,,,,,,,,,,,
48265,0,USTexasKerr,Texas,Kerr,2022-04-28 09:13:11,2020-03-30,0.022608997928310098,0.10365458059781625,0.5018931201665595,,,,,,,,,,,,
48265,0,USTexasKerr,Texas,Kerr,2022-04-28 09:13:11,2020-03-31,0.022608997928310098,0.10365458059781625,0.5018931201665595,,,,,,,,,,,,
48265,0,USTexasKerr,Texas,Kerr,2022-04-28 09:13:11,2020-04-01,0.022608997928310098,0.10365458059781625,0.5018931201665595,,,,,,,,,,,,
48265,0,USTexasKerr,Texas,Kerr,2022-04-28 09:13:11,2020-04-02,0.023892865819211625,0.1143847717909025,0.5772342348071264,,,,,,,,,,,,
48265,0,USTexasKerr,Texas,Kerr,2022-04-28 09:13:11,2020-04-03,0.023892865819211625,0.1143847717909025,0.5772342348071264,,,,,,,,,,,,
48265,0,USTexasKerr,Texas,Kerr,2022-04-28 09:13:11,2020-04-04,0.023892865819211625,0.1143847717909025,0.5772342348071264,,,,,,,,,,,,
48265,0,USTexasKerr,Texas,Kerr,2022-04-28 09:13:11,2020-04-05,0.023892865819211625,0.1143847717909025,0.5772342348071264,,,,,,,,,,,,
48265,0,USTexasKerr,Texas,Kerr,2022-04-28 09:13:11,2020-04-06,0.023892865819211625,0.1143847717909025,0.5772342348071264,,,,,,,,,,,,
48265,0,USTexasKerr,Texas,Kerr,2022-04-28 09:13:11,2020-04-07,0.023892865819211625,0.1143847717909025,0.5772342348071264,,,,,,,,,,,,
48265,0,USTexasKerr,Texas,Kerr,2022-04-28 09:13:11,2020-04-08,0.023892865819211625,0.1143847717909025,0.5772342348071264,,,,,,,,,,,,
48265,0,USTexasKerr,Texas,Kerr,2022-04-28 09:13:11,2020-04-09,0.024915665068874198,0.12323830370556445,0.6416148659856791,,,,,,,,,,,,
48265,0,USTexasKerr,Texas,Kerr,2022-04-28 09:13:11,2020-04-10,0.024915665068874198,0.12323830370556445,0.6416148659856791,,,,,,,,,,,,
48265,0,USTexasKerr,Texas,Kerr,2022-04-28 09:13:11,2020-04-11,0.024915665068874198,0.12323830370556445,0.6416148659856791,,,,,,,,,,,,
48265,0,USTexasKerr,Texas,Kerr,2022-04-28 09:13:11,2020-04-12,0.024915665068874198,0.12323830370556445,0.6416148659856791,,,,,,,,,,,,
48265,0,USTexasKerr,Texas,Kerr,2022-04-28 09:13:11,2020-04-13,0.024915665068874198,0.12323830370556445,0.6416148659856791,,,,,,,,,,,,
48265,0,USTexasKerr,Texas,Kerr,2022-04-28 09:13:11,2020-04-14,0.024915665068874198,0.12323830370556445,0.6416148659856791,,,,,,,,,,,,
48265,0,USTexasKerr,Texas,Kerr,2022-04-28 09:13:11,2020-04-15,0.024915665068874198,0.12323830370556445,0.6416148659856791,,,,,,,,,,,,
48265,0,USTexasKerr,Texas,Kerr,2022-04-28 09:13:11,2020-04-16,0,0,0,,,,,,,,,,,,
48265,0,USTexasKerr,Texas,Kerr,2022-04-28 09:13:11,2020-04-17,0,0,0,,,,,,,,,,,,
48265,0,USTexasKerr,Texas,Kerr,2022-04-28 09:13:11,2020-04-18,0,0,0,,,,,,,,,,,,
48265,0,USTexasKerr,Texas,Kerr,2022-04-28 09:13:11,2020-04-19,0,0,0,,,,,,,,,,,,
48265,0,USTexasKerr,Texas,Kerr,2022-04-28 09:13:11,2020-04-20,0,0,0,,,,,,,,,,,,
48265,0,USTexasKerr,Texas,Kerr,2022-04-28 09:13:11,2020-04-21,0,0,0,,,,,,,,,,,,
48265,0,USTexasKerr,Texas,Kerr,2022-04-28 09:13:11,2020-04-22,0,0,0,,,,,,,,,,,,
48265,0,USTexasKerr,Texas,Kerr,2022-04-28 09:13:11,2020-04-23,0,0,0,,,,,,,,,,,,
48265,0,USTexasKerr,Texas,Kerr,2022-04-28 09:13:11,2020-04-24,0,0,0,,,,,,,,,,,,
48265,0,USTexasKerr,Texas,Kerr,2022-04-28 09:13:11,2020-04-25,0,0,0,,,,,,,,,,,,
48265,0,USTexasKerr,Texas,Kerr,2022-04-28 09:13:11,2020-04-26,0,0,0,,,,,,,,,,,,
48265,0,USTexasKerr,Texas,Kerr,2022-04-28 09:13:11,2020-04-27,0,0,0,,,,,,,,,,,,
48265,0,USTexasKerr,Texas,Kerr,2022-04-28 09:13:11,2020-04-28,0,0,0,,,,,,,,,,,,
48265,0,USTexasKerr,Texas,Kerr,2022-04-28 09:13:11,2020-04-29,0,0,0,,,,,,,,,,,,
48265,0,USTexasKerr,Texas,Kerr,2022-04-28 09:13:11,2020-04-30,0,0,0,,,,,,,,,,,,
48265,0,USTexasKerr,Texas,Kerr,2022-04-28 09:13:11,2020-05-01,0,0,0,,,,,,,,,,,,
48265,0,USTexasKerr,Texas,Kerr,2022-04-28 09:13:11,2020-05-02,0,0,0,,,,,,,,,,,,
48265,0,USTexasKerr,Texas,Kerr,2022-04-28 09:13:11,2020-05-03,0,0,0,,,,,,,,,,,,
48265,0,USTexasKerr,Texas,Kerr,2022-04-28 09:13:11,2020-05-04,0,0,0,,,,,,,,,,,,
48265,0,USTexasKerr,Texas,Kerr,2022-04-28 09:13:11,2020-05-05,0,0,0,,,,,,,,,,,,
48265,0,USTexasKerr,Texas,Kerr,2022-04-28 09:13:11,2020-05-06,0,0,0,,,,,,,,,,,,
48265,0,USTexasKerr,Texas,Kerr,2022-04-28 09:13:11,2020-05-07,0.037564250316719124,0.14857390413432717,0.6245842858337278,,,,,,,,,,,,
48265,0,USTexasKerr,Texas,Kerr,2022-04-28 09:13:11,2020-05-08,0.037564250316719124,0.14857390413432717,0.6245842858337278,,,,,,,,,,,,
48265,0,USTexasKerr,Texas,Kerr,2022-04-28 09:13:11,2020-05-09,0.037564250316719124,0.14857390413432717,0.6245842858337278,,,,,,,,,,,,
48265,0,USTexasKerr,Texas,Kerr,2022-04-28 09:13:11,2020-05-10,0.037564250316719124,0.14857390413432717,0.6245842858337278,,,,,,,,,,,,
48265,0,USTexasKerr,Texas,Kerr,2022-04-28 09:13:11,2020-05-11,0.037564250316719124,0.14857390413432717,0.6245842858337278,,,,,,,,,,,,
48265,0,USTexasKerr,Texas,Kerr,2022-04-28 09:13:11,2020-05-12,0.037564250316719124,0.14857390413432717,0.6245842858337278,,,,,,,,,,,,
48265,0,USTexasKerr,Texas,Kerr,2022-04-28 09:13:11,2020-05-13,0.037564250316719124,0.14857390413432717,0.6245842858337278,,,,,,,,,,,,
48265,0,USTexasKerr,Texas,Kerr,2022-04-28 09:13:11,2020-05-14,0,0,0,,,,,,,,,,,,
48265,0,USTexasKerr,Texas,Kerr,2022-04-28 09:13:11,2020-05-15,0,0,0,,,,,,,,,,,,
48265,0,USTexasKerr,Texas,Kerr,2022-04-28 09:13:11,2020-05-16,0,0,0,,,,,,,,,,,,
48265,0,USTexasKerr,Texas,Kerr,2022-04-28 09:13:11,2020-05-17,0,0,0,,,,,,,,,,,,
48265,0,USTexasKerr,Texas,Kerr,2022-04-28 09:13:11,2020-05-18,0,0,0,,,,,,,,,,,,
48265,0,USTexasKerr,Texas,Kerr,2022-04-28 09:13:11,2020-05-19,0,0,0,,,,,,,,,,,,
48265,0,USTexasKerr,Texas,Kerr,2022-04-28 09:13:11,2020-05-20,0,0,0,,,,,,,,,,,,
48265,0,USTexasKerr,Texas,Kerr,2022-04-28 09:13:11,2020-05-21,0.05067075995006052,0.1444335281698714,0.4423345132115523,,,,,,,,,,,,
48265,0,USTexasKerr,Texas,Kerr,2022-04-28 09:13:11,2020-05-22,0.05067075995006052,0.1444335281698714,0.4423345132115523,,,,,,,,,,,,
48265,0,USTexasKerr,Texas,Kerr,2022-04-28 09:13:11,2020-05-23,0.05067075995006052,0.1444335281698714,0.4423345132115523,,,,,,,,,,,,
48265,0,USTexasKerr,Texas,Kerr,2022-04-28 09:13:11,2020-05-24,0.05067075995006052,0.1444335281698714,0.4423345132115523,,,,,,,,,,,,
48265,0,USTexasKerr,Texas,Kerr,2022-04-28 09:13:11,2020-05-25,0.05067075995006052,0.1444335281698714,0.4423345132115523,,,,,,,,,,,,
48265,0,USTexasKerr,Texas,Kerr,2022-04-28 09:13:11,2020-05-26,0.05067075995006052,0.1444335281698714,0.4423345132115523,,,,,,,,,,,,
48265,0,USTexasKerr,Texas,Kerr,2022-04-28 09:13:11,2020-05-27,0.05067075995006052,0.1444335281698714,0.4423345132115523,,,,,,,,,,,,
48265,0,USTexasKerr,Texas,Kerr,2022-04-28 09:13:11,2020-05-28,0.04472701613916291,0.14634760321138807,0.512596396854334,,,,,,,,,,,,
48265,0,USTexasKerr,Texas,Kerr,2022-04-28 09:13:11,2020-05-29,0.04472701613916291,0.14634760321138807,0.512596396854334,,,,,,,,,,,,
48265,0,USTexasKerr,Texas,Kerr,2022-04-28 09:13:11,2020-05-30,0.04472701613916291,0.14634760321138807,0.512596396854334,,,,,,,,,,,,
48265,0,USTexasKerr,Texas,Kerr,2022-04-28 09:13:11,2020-05-31,0.04472701613916291,0.14634760321138807,0.512596396854334,,,,,,,,,,,,
48265,0,USTexasKerr,Texas,Kerr,2022-04-28 09:13:11,2020-06-01,0.04472701613916291,0.14634760321138807,0.512596396854334,,,,,,,,,,,,
48265,0,USTexasKerr,Texas,Kerr,2022-04-28 09:13:11,2020-06-02,0.04472701613916291,0.14634760321138807,0.512596396854334,,,,,,,,,,,,
48265,0,USTexasKerr,Texas,Kerr,2022-04-28 09:13:11,2020-06-03,0.04472701613916291,0.14634760321138807,0.512596396854334,,,,,,,,,,,,
48265,0,USTexasKerr,Texas,Kerr,2022-04-28 09:13:11,2020-06-04,0.1001664318671425,0.3599434973823932,1.3800229197503089,,,,,,,,,,,,
48265,0,USTexasKerr,Texas,Kerr,2022-04-28 09:13:11,2020-06-05,0.1001664318671425,0.3599434973823932,1.3800229197503089,,,,,,,,,,,,
48265,0,USTexasKerr,Texas,Kerr,2022-04-28 09:13:11,2020-06-06,0.1001664318671425,0.3599434973823932,1.3800229197503089,,,,,,,,,,,,
48265,0,USTexasKerr,Texas,Kerr,2022-04-28 09:13:11,2020-06-07,0.1001664318671425,0.3599434973823932,1.3800229197503089,,,,,,,,,,,,
48265,0,USTexasKerr,Texas,Kerr,2022-04-28 09:13:11,2020-06-08,0.1001664318671425,0.3599434973823932,1.3800229197503089,,,,,,,,,,,,
48265,0,USTexasKerr,Texas,Kerr,2022-04-28 09:13:11,2020-06-09,0.1001664318671425,0.3599434973823932,1.3800229197503089,,,,,,,,,,,,
48265,0,USTexasKerr,Texas,Kerr,2022-04-28 09:13:11,2020-06-10,0.1001664318671425,0.3599434973823932,1.3800229197503089,,,,,,,,,,,,
48265,0,USTexasKerr,Texas,Kerr,2022-04-28 09:13:11,2020-06-11,0,0,0,,,,,,,,,,,,
48265,0,USTexasKerr,Texas,Kerr,2022-04-28 09:13:11,2020-06-12,0,0,0,,,,,,,,,,,,
48265,0,USTexasKerr,Texas,Kerr,2022-04-28 09:13:11,2020-06-13,0,0,0,,,,,,,,,,,,
48265,0,USTexasKerr,Texas,Kerr,2022-04-28 09:13:11,2020-06-14,0,0,0,,,,,,,,,,,,
48265,0,USTexasKerr,Texas,Kerr,2022-04-28 09:13:11,2020-06-15,0,0,0,,,,,,,,,,,,
48265,0,USTexasKerr,Texas,Kerr,2022-04-28 09:13:11,2020-06-16,0,0,0,,,,,,,,,,,,
48265,0,USTexasKerr,Texas,Kerr,2022-04-28 09:13:11,2020-06-17,0,0,0,,,,,,,,,,,,
48265,0,USTexasKerr,Texas,Kerr,2022-04-28 09:13:11,2020-06-18,0.2106737386225482,0.58928799330167,1.7716323295146028,,,,,,,,,,,,
48265,0,USTexasKerr,Texas,Kerr,2022-04-28 09:13:11,2020-06-19,0.2106737386225482,0.58928799330167,1.7716323295146028,,,,,,,,,,,,
48265,0,USTexasKerr,Texas,Kerr,2022-04-28 09:13:11,2020-06-20,0.2106737386225482,0.58928799330167,1.7716323295146028,,,,,,,,,,,,
48265,0,USTexasKerr,Texas,Kerr,2022-04-28 09:13:11,2020-06-21,0.2106737386225482,0.58928799330167,1.7716323295146028,,,,,,,,,,,,
48265,0,USTexasKerr,Texas,Kerr,2022-04-28 09:13:11,2020-06-22,0.2106737386225482,0.58928799330167,1.7716323295146028,,,,,,,,,,,,
48265,0,USTexasKerr,Texas,Kerr,2022-04-28 09:13:11,2020-06-23,0.2106737386225482,0.58928799330167,1.7716323295146028,,,,,,,,,,,,
48265,0,USTexasKerr,Texas,Kerr,2022-04-28 09:13:11,2020-06-24,0.2106737386225482,0.58928799330167,1.7716323295146028,,,,,,,,,,,,
48265,0,USTexasKerr,Texas,Kerr,2022-04-28 09:13:11,2020-06-25,0.3436996095112344,0.8260935904387768,2.136727618876646,,,,,,,,,,,,
48265,0,USTexasKerr,Texas,Kerr,2022-04-28 09:13:11,2020-06-26,0.3436996095112344,0.8260935904387768,2.136727618876646,,,,,,,,,,,,
48265,0,USTexasKerr,Texas,Kerr,2022-04-28 09:13:11,2020-06-27,0.3436996095112344,0.8260935904387768,2.136727618876646,,,,,,,,,,,,
48265,0,USTexasKerr,Texas,Kerr,2022-04-28 09:13:11,2020-06-28,0.3436996095112344,0.8260935904387768,2.136727618876646,,,,,,,,,,,,
48265,0,USTexasKerr,Texas,Kerr,2022-04-28 09:13:11,2020-06-29,0.3436996095112344,0.8260935904387768,2.136727618876646,,,,,,,,,,,,
48265,0,USTexasKerr,Texas,Kerr,2022-04-28 09:13:11,2020-06-30,0.3436996095112344,0.8260935904387768,2.136727618876646,,,,,,,,,,,,
48265,0,USTexasKerr,Texas,Kerr,2022-04-28 09:13:11,2020-07-01,0.3436996095112344,0.8260935904387768,2.136727618876646,,,,,,,,,,,,
48265,0,USTexasKerr,Texas,Kerr,2022-04-28 09:13:11,2020-07-02,0.6519548008346479,1.365882022223625,3.073028950429604,,,,,,,,,,,,
48265,0,USTexasKerr,Texas,Kerr,2022-04-28 09:13:11,2020-07-03,0.6519548008346479,1.365882022223625,3.073028950429604,,,,,,,,,,,,
48265,0,USTexasKerr,Texas,Kerr,2022-04-28 09:13:11,2020-07-04,0.6519548008346479,1.365882022223625,3.073028950429604,,,,,,,,,,,,
48265,0,USTexasKerr,Texas,Kerr,2022-04-28 09:13:11,2020-07-05,0.6519548008346479,1.365882022223625,3.073028950429604,,,,,,,,,,,,
48265,0,USTexasKerr,Texas,Kerr,2022-04-28 09:13:11,2020-07-06,0.6519548008346479,1.365882022223625,3.073028950429604,,,,,,,,,,,,
48265,0,USTexasKerr,Texas,Kerr,2022-04-28 09:13:11,2020-07-07,0.6519548008346479,1.365882022223625,3.073028950429604,,,,,,,,,,,,
48265,0,USTexasKerr,Texas,Kerr,2022-04-28 09:13:11,2020-07-08,0.6519548008346479,1.365882022223625,3.073028950429604,,,,,,,,,,,,
48265,0,USTexasKerr,Texas,Kerr,2022-04-28 09:13:11,2020-07-09,0.38253901765438497,0.9593413218944149,2.5889975893564143,,,,,,,,,,,,
48265,0,USTexasKerr,Texas,Kerr,2022-04-28 09:13:11,2020-07-10,0.38253901765438497,0.9593413218944149,2.5889975893564143,,,,,,,,,,,,
48265,0,USTexasKerr,Texas,Kerr,2022-04-28 09:13:11,2020-07-11,0.38253901765438497,0.9593413218944149,2.5889975893564143,,,,,,,,,,,,
48265,0,USTexasKerr,Texas,Kerr,2022-04-28 09:13:11,2020-07-12,0.38253901765438497,0.9593413218944149,2.5889975893564143,,,,,,,,,,,,
48265,0,USTexasKerr,Texas,Kerr,2022-04-28 09:13:11,2020-07-13,0.38253901765438497,0.9593413218944149,2.5889975893564143,,,,,,,,,,,,
48265,0,USTexasKerr,Texas,Kerr,2022-04-28 09:13:11,2020-07-14,0.38253901765438497,0.9593413218944149,2.5889975893564143,,,,,,,,,,,,
48265,0,USTexasKerr,Texas,Kerr,2022-04-28 09:13:11,2020-07-15,0.38253901765438497,0.9593413218944149,2.5889975893564143,,,,,,,,,,,,
48265,0,USTexasKerr,Texas,Kerr,2022-04-28 09:13:11,2020-07-16,0.8626742054060483,1.8005301840988066,4.035188600538526,,,,,,,,,,,,
48265,0,USTexasKerr,Texas,Kerr,2022-04-28 09:13:11,2020-07-17,0.8626742054060483,1.8005301840988066,4.035188600538526,,,,,,,,,,,,
48265,0,USTexasKerr,Texas,Kerr,2022-04-28 09:13:11,2020-07-18,0.8626742054060483,1.8005301840988066,4.035188600538526,,,,,,,,,,,,
48265,0,USTexasKerr,Texas,Kerr,2022-04-28 09:13:11,2020-07-19,0.8626742054060483,1.8005301840988066,4.035188600538526,,,,,,,,,,,,
48265,0,USTexasKerr,Texas,Kerr,2022-04-28 09:13:11,2020-07-20,0.8626742054060483,1.8005301840988066,4.035188600538526,,,,,,,,,,,,
48265,0,USTexasKerr,Texas,Kerr,2022-04-28 09:13:11,2020-07-21,0.8626742054060483,1.8005301840988066,4.035188600538526,,,,,,,,,,,,
48265,0,USTexasKerr,Texas,Kerr,2022-04-28 09:13:11,2020-07-22,0.8626742054060483,1.8005301840988066,4.035188600538526,,,,,,,,,,,,
48265,0,USTexasKerr,Texas,Kerr,2022-04-28 09:13:11,2020-07-23,0.6264671554943944,1.487146235022845,3.7988968103532805,,,,,,,,,,,,
48265,0,USTexasKerr,Texas,Kerr,2022-04-28 09:13:11,2020-07-24,0.6264671554943944,1.487146235022845,3.7988968103532805,,,,,,,,,,,,
48265,0,USTexasKerr,Texas,Kerr,2022-04-28 09:13:11,2020-07-25,0.6264671554943944,1.487146235022845,3.7988968103532805,,,,,,,,,,,,
48265,0,USTexasKerr,Texas,Kerr,2022-04-28 09:13:11,2020-07-26,0.6264671554943944,1.487146235022845,3.7988968103532805,,,,,,,,,,,,
48265,0,USTexasKerr,Texas,Kerr,2022-04-28 09:13:11,2020-07-27,0.6264671554943944,1.487146235022845,3.7988968103532805,,,,,,,,,,,,
48265,0,USTexasKerr,Texas,Kerr,2022-04-28 09:13:11,2020-07-28,0.6264671554943944,1.487146235022845,3.7988968103532805,,,,,,,,,,,,
48265,0,USTexasKerr,Texas,Kerr,2022-04-28 09:13:11,2020-07-29,0.6264671554943944,1.487146235022845,3.7988968103532805,,,,,,,,,,,,
48265,0,USTexasKerr,Texas,Kerr,2022-04-28 09:13:11,2020-07-30,0.6495850798020708,1.6155198357176783,4.323753308785223,,,,,,,,,,,,
48265,0,USTexasKerr,Texas,Kerr,2022-04-28 09:13:11,2020-07-31,0.6495850798020708,1.6155198357176783,4.323753308785223,,,,,,,,,,,,
48265,0,USTexasKerr,Texas,Kerr,2022-04-28 09:13:11,2020-08-01,0.6495850798020708,1.6155198357176783,4.323753308785223,,,,,,,,,,,,
48265,0,USTexasKerr,Texas,Kerr,2022-04-28 09:13:11,2020-08-02,0.6495850798020708,1.6155198357176783,4.323753308785223,,,,,,,,,,,,
48265,0,USTexasKerr,Texas,Kerr,2022-04-28 09:13:11,2020-08-03,0.6495850798020708,1.6155198357176783,4.323753308785223,,,,,,,,,,,,
48265,0,USTexasKerr,Texas,Kerr,2022-04-28 09:13:11,2020-08-04,0.6495850798020708,1.6155198357176783,4.323753308785223,,,,,,,,,,,,
48265,0,USTexasKerr,Texas,Kerr,2022-04-28 09:13:11,2020-08-05,0.6495850798020708,1.6155198357176783,4.323753308785223,,,,,,,,,,,,
48265,0,USTexasKerr,Texas,Kerr,2022-04-28 09:13:11,2020-08-06,0.8296210337556617,2.2328405543434173,6.462920945425739,,,,,,,,,,,,
48265,0,USTexasKerr,Texas,Kerr,2022-04-28 09:13:11,2020-08-07,0.8296210337556617,2.2328405543434173,6.462920945425739,,,,,,,,,,,,
48265,0,USTexasKerr,Texas,Kerr,2022-04-28 09:13:11,2020-08-08,0.8296210337556617,2.2328405543434173,6.462920945425739,,,,,,,,,,,,
48265,0,USTexasKerr,Texas,Kerr,2022-04-28 09:13:11,2020-08-09,0.8296210337556617,2.2328405543434173,6.462920945425739,,,,,,,,,,,,
48265,0,USTexasKerr,Texas,Kerr,2022-04-28 09:13:11,2020-08-10,0.8296210337556617,2.2328405543434173,6.462920945425739,,,,,,,,,,,,
48265,0,USTexasKerr,Texas,Kerr,2022-04-28 09:13:11,2020-08-11,0.8296210337556617,2.2328405543434173,6.462920945425739,,,,,,,,,,,,
48265,0,USTexasKerr,Texas,Kerr,2022-04-28 09:13:11,2020-08-12,0.8296210337556617,2.2328405543434173,6.462920945425739,,,,,,,,,,,,
48265,0,USTexasKerr,Texas,Kerr,2022-04-28 09:13:11,2020-08-13,0.47929196041103916,1.3611216097160892,4.153345995367666,,,,,,,,,,,,
48265,0,USTexasKerr,Texas,Kerr,2022-04-28 09:13:11,2020-08-14,0.47929196041103916,1.3611216097160892,4.153345995367666,,,,,,,,,,,,
48265,0,USTexasKerr,Texas,Kerr,2022-04-28 09:13:11,2020-08-15,0.47929196041103916,1.3611216097160892,4.153345995367666,,,,,,,,,,,,
48265,0,USTexasKerr,Texas,Kerr,2022-04-28 09:13:11,2020-08-16,0.47929196041103916,1.3611216097160892,4.153345995367666,,,,,,,,,,,,
48265,0,USTexasKerr,Texas,Kerr,2022-04-28 09:13:11,2020-08-17,0.47929196041103916,1.3611216097160892,4.153345995367666,,,,,,,,,,,,
48265,0,USTexasKerr,Texas,Kerr,2022-04-28 09:13:11,2020-08-18,0.47929196041103916,1.3611216097160892,4.153345995367666,,,,,,,,,,,,
48265,0,USTexasKerr,Texas,Kerr,2022-04-28 09:13:11,2020-08-19,0.47929196041103916,1.3611216097160892,4.153345995367666,,,,,,,,,,,,
48265,0,USTexasKerr,Texas,Kerr,2022-04-28 09:13:11,2020-08-20,0.23465805071343632,0.6855096993747897,2.1504789180863417,,,,,,,,,,,,
48265,0,USTexasKerr,Texas,Kerr,2022-04-28 09:13:11,2020-08-21,0.23465805071343632,0.6855096993747897,2.1504789180863417,,,,,,,,,,,,
48265,0,USTexasKerr,Texas,Kerr,2022-04-28 09:13:11,2020-08-22,0.23465805071343632,0.6855096993747897,2.1504789180863417,,,,,,,,,,,,
48265,0,USTexasKerr,Texas,Kerr,2022-04-28 09:13:11,2020-08-23,0.23465805071343632,0.6855096993747897,2.1504789180863417,,,,,,,,,,,,
48265,0,USTexasKerr,Texas,Kerr,2022-04-28 09:13:11,2020-08-24,0.23465805071343632,0.6855096993747897,2.1504789180863417,,,,,,,,,,,,
48265,0,USTexasKerr,Texas,Kerr,2022-04-28 09:13:11,2020-08-25,0.23465805071343632,0.6855096993747897,2.1504789180863417,,,,,,,,,,,,
48265,0,USTexasKerr,Texas,Kerr,2022-04-28 09:13:11,2020-08-26,0.23465805071343632,0.6855096993747897,2.1504789180863417,,,,,,,,,,,,
48265,0,USTexasKerr,Texas,Kerr,2022-04-28 09:13:11,2020-08-27,0.18649176098659603,0.5908097432934153,2.0056119071550196,,,,,,,,,,,,
48265,0,USTexasKerr,Texas,Kerr,2022-04-28 09:13:11,2020-08-28,0.18649176098659603,0.5908097432934153,2.0056119071550196,,,,,,,,,,,,
48265,0,USTexasKerr,Texas,Kerr,2022-04-28 09:13:11,2020-08-29,0.18649176098659603,0.5908097432934153,2.0056119071550196,,,,,,,,,,,,
48265,0,USTexasKerr,Texas,Kerr,2022-04-28 09:13:11,2020-08-30,0.18649176098659603,0.5908097432934153,2.0056119071550196,,,,,,,,,,,,
48265,0,USTexasKerr,Texas,Kerr,2022-04-28 09:13:11,2020-08-31,0.18649176098659603,0.5908097432934153,2.0056119071550196,,,,,,,,,,,,
48265,0,USTexasKerr,Texas,Kerr,2022-04-28 09:13:11,2020-09-01,0.18649176098659603,0.5908097432934153,2.0056119071550196,,,,,,,,,,,,
48265,0,USTexasKerr,Texas,Kerr,2022-04-28 09:13:11,2020-09-02,0.18649176098659603,0.5908097432934153,2.0056119071550196,,,,,,,,,,,,
48265,0,USTexasKerr,Texas,Kerr,2022-04-28 09:13:11,2020-09-03,0.08827551578540857,0.3320654566060293,1.3303771293201108,,,,,,,,,,,,
48265,0,USTexasKerr,Texas,Kerr,2022-04-28 09:13:11,2020-09-04,0.08827551578540857,0.3320654566060293,1.3303771293201108,,,,,,,,,,,,
48265,0,USTexasKerr,Texas,Kerr,2022-04-28 09:13:11,2020-09-05,0.08827551578540857,0.3320654566060293,1.3303771293201108,,,,,,,,,,,,
48265,0,USTexasKerr,Texas,Kerr,2022-04-28 09:13:11,2020-09-06,0.08827551578540857,0.3320654566060293,1.3303771293201108,,,,,,,,,,,,
48265,0,USTexasKerr,Texas,Kerr,2022-04-28 09:13:11,2020-09-07,0.08827551578540857,0.3320654566060293,1.3303771293201108,,,,,,,,,,,,
48265,0,USTexasKerr,Texas,Kerr,2022-04-28 09:13:11,2020-09-08,0.08827551578540857,0.3320654566060293,1.3303771293201108,,,,,,,,,,,,
48265,0,USTexasKerr,Texas,Kerr,2022-04-28 09:13:11,2020-09-09,0.08827551578540857,0.3320654566060293,1.3303771293201108,,,,,,,,,,,,
48265,0,USTexasKerr,Texas,Kerr,2022-04-28 09:13:11,2020-09-10,0.2224954991752803,0.7249061116521792,2.528577266341699,,,,,,,,,,,,
48265,0,USTexasKerr,Texas,Kerr,2022-04-28 09:13:11,2020-09-11,0.2224954991752803,0.7249061116521792,2.528577266341699,,,,,,,,,,,,
48265,0,USTexasKerr,Texas,Kerr,2022-04-28 09:13:11,2020-09-12,0.2224954991752803,0.7249061116521792,2.528577266341699,,,,,,,,,,,,
48265,0,USTexasKerr,Texas,Kerr,2022-04-28 09:13:11,2020-09-13,0.2224954991752803,0.7249061116521792,2.528577266341699,,,,,,,,,,,,
48265,0,USTexasKerr,Texas,Kerr,2022-04-28 09:13:11,2020-09-14,0.2224954991752803,0.7249061116521792,2.528577266341699,,,,,,,,,,,,
48265,0,USTexasKerr,Texas,Kerr,2022-04-28 09:13:11,2020-09-15,0.2224954991752803,0.7249061116521792,2.528577266341699,,,,,,,,,,,,
48265,0,USTexasKerr,Texas,Kerr,2022-04-28 09:13:11,2020-09-16,0.2224954991752803,0.7249061116521792,2.528577266341699,,,,,,,,,,,,
48265,0,USTexasKerr,Texas,Kerr,2022-04-28 09:13:11,2020-09-17,0.24225198348381,0.6943721631300547,2.138159489482405,,,,,,,,,,,,
48265,0,USTexasKerr,Texas,Kerr,2022-04-28 09:13:11,2020-09-18,0.24225198348381,0.6943721631300547,2.138159489482405,,,,,,,,,,,,
48265,0,USTexasKerr,Texas,Kerr,2022-04-28 09:13:11,2020-09-19,0.24225198348381,0.6943721631300547,2.138159489482405,,,,,,,,,,,,
48265,0,USTexasKerr,Texas,Kerr,2022-04-28 09:13:11,2020-09-20,0.24225198348381,0.6943721631300547,2.138159489482405,,,,,,,,,,,,
48265,0,USTexasKerr,Texas,Kerr,2022-04-28 09:13:11,2020-09-21,0.24225198348381,0.6943721631300547,2.138159489482405,,,,,,,,,,,,
48265,0,USTexasKerr,Texas,Kerr,2022-04-28 09:13:11,2020-09-22,0.24225198348381,0.6943721631300547,2.138159489482405,,,,,,,,,,,,
48265,0,USTexasKerr,Texas,Kerr,2022-04-28 09:13:11,2020-09-23,0.24225198348381,0.6943721631300547,2.138159489482405,,,,,,,,,,,,
48265,0,USTexasKerr,Texas,Kerr,2022-04-28 09:13:11,2020-09-24,0.22451807943672208,0.6027206505022231,1.7401584292280428,,,,,,,,,,,,
48265,0,USTexasKerr,Texas,Kerr,2022-04-28 09:13:11,2020-09-25,0.22451807943672208,0.6027206505022231,1.7401584292280428,,,,,,,,,,,,
48265,0,USTexasKerr,Texas,Kerr,2022-04-28 09:13:11,2020-09-26,0.22451807943672208,0.6027206505022231,1.7401584292280428,,,,,,,,,,,,
48265,0,USTexasKerr,Texas,Kerr,2022-04-28 09:13:11,2020-09-27,0.22451807943672208,0.6027206505022231,1.7401584292280428,,,,,,,,,,,,
48265,0,USTexasKerr,Texas,Kerr,2022-04-28 09:13:11,2020-09-28,0.22451807943672208,0.6027206505022231,1.7401584292280428,,,,,,,,,,,,
48265,0,USTexasKerr,Texas,Kerr,2022-04-28 09:13:11,2020-09-29,0.22451807943672208,0.6027206505022231,1.7401584292280428,,,,,,,,,,,,
48265,0,USTexasKerr,Texas,Kerr,2022-04-28 09:13:11,2020-09-30,0.22451807943672208,0.6027206505022231,1.7401584292280428,,,,,,,,,,,,
48265,0,USTexasKerr,Texas,Kerr,2022-04-28 09:13:11,2020-10-01,0.36055904575215203,0.7976506398695484,1.8973806606052652,,,,,,,,,,,,
48265,0,USTexasKerr,Texas,Kerr,2022-04-28 09:13:11,2020-10-02,0.36055904575215203,0.7976506398695484,1.8973806606052652,,,,,,,,,,,,
48265,0,USTexasKerr,Texas,Kerr,2022-04-28 09:13:11,2020-10-03,0.36055904575215203,0.7976506398695484,1.8973806606052652,,,,,,,,,,,,
48265,0,USTexasKerr,Texas,Kerr,2022-04-28 09:13:11,2020-10-04,0.36055904575215203,0.7976506398695484,1.8973806606052652,,,,,,,,,,,,
48265,0,USTexasKerr,Texas,Kerr,2022-04-28 09:13:11,2020-10-05,0.36055904575215203,0.7976506398695484,1.8973806606052652,,,,,,,,,,,,
48265,0,USTexasKerr,Texas,Kerr,2022-04-28 09:13:11,2020-10-06,0.36055904575215203,0.7976506398695484,1.8973806606052652,,,,,,,,,,,,
48265,0,USTexasKerr,Texas,Kerr,2022-04-28 09:13:11,2020-10-07,0.36055904575215203,0.7976506398695484,1.8973806606052652,,,,,,,,,,,,
48265,0,USTexasKerr,Texas,Kerr,2022-04-28 09:13:11,2020-10-08,0.33949235107749987,0.7287784242112121,1.6811095081925236,,,,,,,,,,,,
48265,0,USTexasKerr,Texas,Kerr,2022-04-28 09:13:11,2020-10-09,0.33949235107749987,0.7287784242112121,1.6811095081925236,,,,,,,,,,,,
48265,0,USTexasKerr,Texas,Kerr,2022-04-28 09:13:11,2020-10-10,0.33949235107749987,0.7287784242112121,1.6811095081925236,,,,,,,,,,,,
48265,0,USTexasKerr,Texas,Kerr,2022-04-28 09:13:11,2020-10-11,0.33949235107749987,0.7287784242112121,1.6811095081925236,,,,,,,,,,,,
48265,0,USTexasKerr,Texas,Kerr,2022-04-28 09:13:11,2020-10-12,0.33949235107749987,0.7287784242112121,1.6811095081925236,,,,,,,,,,,,
48265,0,USTexasKerr,Texas,Kerr,2022-04-28 09:13:11,2020-10-13,0.33949235107749987,0.7287784242112121,1.6811095081925236,,,,,,,,,,,,
48265,0,USTexasKerr,Texas,Kerr,2022-04-28 09:13:11,2020-10-14,0.33949235107749987,0.7287784242112121,1.6811095081925236,,,,,,,,,,,,
48265,0,USTexasKerr,Texas,Kerr,2022-04-28 09:13:11,2020-10-15,0.4332707487208714,0.9340130087282436,2.163834411083712,,,,,,,,,,,,
48265,0,USTexasKerr,Texas,Kerr,2022-04-28 09:13:11,2020-10-16,0.4332707487208714,0.9340130087282436,2.163834411083712,,,,,,,,,,,,
48265,0,USTexasKerr,Texas,Kerr,2022-04-28 09:13:11,2020-10-17,0.4332707487208714,0.9340130087282436,2.163834411083712,,,,,,,,,,,,
48265,0,USTexasKerr,Texas,Kerr,2022-04-28 09:13:11,2020-10-18,0.4332707487208714,0.9340130087282436,2.163834411083712,,,,,,,,,,,,
48265,0,USTexasKerr,Texas,Kerr,2022-04-28 09:13:11,2020-10-19,0.4332707487208714,0.9340130087282436,2.163834411083712,,,,,,,,,,,,
48265,0,USTexasKerr,Texas,Kerr,2022-04-28 09:13:11,2020-10-20,0.4332707487208714,0.9340130087282436,2.163834411083712,,,,,,,,,,,,
48265,0,USTexasKerr,Texas,Kerr,2022-04-28 09:13:11,2020-10-21,0.4332707487208714,0.9340130087282436,2.163834411083712,,,,,,,,,,,,
48265,0,USTexasKerr,Texas,Kerr,2022-04-28 09:13:11,2020-10-22,0.3292509615756491,0.8051570782314466,2.1189232058140197,,,,,,,,,,,,
48265,0,USTexasKerr,Texas,Kerr,2022-04-28 09:13:11,2020-10-23,0.3292509615756491,0.8051570782314466,2.1189232058140197,,,,,,,,,,,,
48265,0,USTexasKerr,Texas,Kerr,2022-04-28 09:13:11,2020-10-24,0.3292509615756491,0.8051570782314466,2.1189232058140197,,,,,,,,,,,,
48265,0,USTexasKerr,Texas,Kerr,2022-04-28 09:13:11,2020-10-25,0.3292509615756491,0.8051570782314466,2.1189232058140197,,,,,,,,,,,,
48265,0,USTexasKerr,Texas,Kerr,2022-04-28 09:13:11,2020-10-26,0.3292509615756491,0.8051570782314466,2.1189232058140197,,,,,,,,,,,,
48265,0,USTexasKerr,Texas,Kerr,2022-04-28 09:13:11,2020-10-27,0.3292509615756491,0.8051570782314466,2.1189232058140197,,,,,,,,,,,,
48265,0,USTexasKerr,Texas,Kerr,2022-04-28 09:13:11,2020-10-28,0.3292509615756491,0.8051570782314466,2.1189232058140197,,,,,,,,,,,,
48265,0,USTexasKerr,Texas,Kerr,2022-04-28 09:13:11,2020-10-29,0.3651651112194799,0.8367467137242204,2.062642867009396,,,,,,,,,,,,
48265,0,USTexasKerr,Texas,Kerr,2022-04-28 09:13:11,2020-10-30,0.3651651112194799,0.8367467137242204,2.062642867009396,,,,,,,,,,,,
48265,0,USTexasKerr,Texas,Kerr,2022-04-28 09:13:11,2020-10-31,0.3651651112194799,0.8367467137242204,2.062642867009396,,,,,,,,,,,,
48265,0,USTexasKerr,Texas,Kerr,2022-04-28 09:13:11,2020-11-01,0.3651651112194799,0.8367467137242204,2.062642867009396,,,,,,,,,,,,
48265,0,USTexasKerr,Texas,Kerr,2022-04-28 09:13:11,2020-11-02,0.3651651112194799,0.8367467137242204,2.062642867009396,,,,,,,,,,,,
48265,0,USTexasKerr,Texas,Kerr,2022-04-28 09:13:11,2020-11-03,0.3651651112194799,0.8367467137242204,2.062642867009396,,,,,,,,,,,,
48265,0,USTexasKerr,Texas,Kerr,2022-04-28 09:13:11,2020-11-04,0.3651651112194799,0.8367467137242204,2.062642867009396,,,,,,,,,,,,
48265,0,USTexasKerr,Texas,Kerr,2022-04-28 09:13:11,2020-11-05,0.5054111513158259,1.1044740759245153,2.5946028844249747,,,,,,,,,,,,
48265,0,USTexasKerr,Texas,Kerr,2022-04-28 09:13:11,2020-11-06,0.5054111513158259,1.1044740759245153,2.5946028844249747,,,,,,,,,,,,
48265,0,USTexasKerr,Texas,Kerr,2022-04-28 09:13:11,2020-11-07,0.5054111513158259,1.1044740759245153,2.5946028844249747,,,,,,,,,,,,
48265,0,USTexasKerr,Texas,Kerr,2022-04-28 09:13:11,2020-11-08,0.5054111513158259,1.1044740759245153,2.5946028844249747,,,,,,,,,,,,
48265,0,USTexasKerr,Texas,Kerr,2022-04-28 09:13:11,2020-11-09,0.5054111513158259,1.1044740759245153,2.5946028844249747,,,,,,,,,,,,
48265,0,USTexasKerr,Texas,Kerr,2022-04-28 09:13:11,2020-11-10,0.5054111513158259,1.1044740759245153,2.5946028844249747,,,,,,,,,,,,
48265,0,USTexasKerr,Texas,Kerr,2022-04-28 09:13:11,2020-11-11,0.5054111513158259,1.1044740759245153,2.5946028844249747,,,,,,,,,,,,
48265,0,USTexasKerr,Texas,Kerr,2022-04-28 09:13:11,2020-11-12,0.8658865730650891,1.6448910734577233,3.342578066382742,,,,,,,,,,,,
48265,0,USTexasKerr,Texas,Kerr,2022-04-28 09:13:11,2020-11-13,0.8658865730650891,1.6448910734577233,3.342578066382742,,,,,,,,,,,,
48265,0,USTexasKerr,Texas,Kerr,2022-04-28 09:13:11,2020-11-14,0.8658865730650891,1.6448910734577233,3.342578066382742,,,,,,,,,,,,
48265,0,USTexasKerr,Texas,Kerr,2022-04-28 09:13:11,2020-11-15,0.8658865730650891,1.6448910734577233,3.342578066382742,,,,,,,,,,,,
48265,0,USTexasKerr,Texas,Kerr,2022-04-28 09:13:11,2020-11-16,0.8658865730650891,1.6448910734577233,3.342578066382742,,,,,,,,,,,,
48265,0,USTexasKerr,Texas,Kerr,2022-04-28 09:13:11,2020-11-17,0.8658865730650891,1.6448910734577233,3.342578066382742,,,,,,,,,,,,
48265,0,USTexasKerr,Texas,Kerr,2022-04-28 09:13:11,2020-11-18,0.8658865730650891,1.6448910734577233,3.342578066382742,,,,,,,,,,,,
48265,0,USTexasKerr,Texas,Kerr,2022-04-28 09:13:11,2020-11-19,1.218643924714433,2.2475760740193595,4.427064433474118,,,,,,,,,,,,
48265,0,USTexasKerr,Texas,Kerr,2022-04-28 09:13:11,2020-11-20,1.218643924714433,2.2475760740193595,4.427064433474118,,,,,,,,,,,,
48265,0,USTexasKerr,Texas,Kerr,2022-04-28 09:13:11,2020-11-21,1.218643924714433,2.2475760740193595,4.427064433474118,,,,,,,,,,,,
48265,0,USTexasKerr,Texas,Kerr,2022-04-28 09:13:11,2020-11-22,1.218643924714433,2.2475760740193595,4.427064433474118,,,,,,,,,,,,
48265,0,USTexasKerr,Texas,Kerr,2022-04-28 09:13:11,2020-11-23,1.218643924714433,2.2475760740193595,4.427064433474118,,,,,,,,,,,,
48265,0,USTexasKerr,Texas,Kerr,2022-04-28 09:13:11,2020-11-24,1.218643924714433,2.2475760740193595,4.427064433474118,,,,,,,,,,,,
48265,0,USTexasKerr,Texas,Kerr,2022-04-28 09:13:11,2020-11-25,1.218643924714433,2.2475760740193595,4.427064433474118,,,,,,,,,,,,
48265,0,USTexasKerr,Texas,Kerr,2022-04-28 09:13:11,2020-11-26,1.5019389499984948,2.816611147555742,5.646431342396582,,,,,,,,,,,,
48265,0,USTexasKerr,Texas,Kerr,2022-04-28 09:13:11,2020-11-27,1.5019389499984948,2.816611147555742,5.646431342396582,,,,,,,,,,,,
48265,0,USTexasKerr,Texas,Kerr,2022-04-28 09:13:11,2020-11-28,1.5019389499984948,2.816611147555742,5.646431342396582,,,,,,,,,,,,
48265,0,USTexasKerr,Texas,Kerr,2022-04-28 09:13:11,2020-11-29,1.5019389499984948,2.816611147555742,5.646431342396582,,,,,,,,,,,,
48265,0,USTexasKerr,Texas,Kerr,2022-04-28 09:13:11,2020-11-30,1.5019389499984948,2.816611147555742,5.646431342396582,,,,,,,,,,,,
48265,0,USTexasKerr,Texas,Kerr,2022-04-28 09:13:11,2020-12-01,1.5019389499984948,2.816611147555742,5.646431342396582,,,,,,,,,,,,
48265,0,USTexasKerr,Texas,Kerr,2022-04-28 09:13:11,2020-12-02,1.5019389499984948,2.816611147555742,5.646431342396582,,,,,,,,,,,,
48265,0,USTexasKerr,Texas,Kerr,2022-04-28 09:13:11,2020-12-03,1.4952053526412978,2.739831931253665,5.35974015258843,,,,,,,,,,,,
48265,0,USTexasKerr,Texas,Kerr,2022-04-28 09:13:11,2020-12-04,1.4952053526412978,2.739831931253665,5.35974015258843,,,,,,,,,,,,
48265,0,USTexasKerr,Texas,Kerr,2022-04-28 09:13:11,2020-12-05,1.4952053526412978,2.739831931253665,5.35974015258843,,,,,,,,,,,,
48265,0,USTexasKerr,Texas,Kerr,2022-04-28 09:13:11,2020-12-06,1.4952053526412978,2.739831931253665,5.35974015258843,,,,,,,,,,,,
48265,0,USTexasKerr,Texas,Kerr,2022-04-28 09:13:11,2020-12-07,1.4952053526412978,2.739831931253665,5.35974015258843,,,,,,,,,,,,
48265,0,USTexasKerr,Texas,Kerr,2022-04-28 09:13:11,2020-12-08,1.4952053526412978,2.739831931253665,5.35974015258843,,,,,,,,,,,,
48265,0,USTexasKerr,Texas,Kerr,2022-04-28 09:13:11,2020-12-09,1.4952053526412978,2.739831931253665,5.35974015258843,,,,,,,,,,,,
48265,0,USTexasKerr,Texas,Kerr,2022-04-28 09:13:11,2020-12-10,2.83639110657855,5.083969123216089,9.714761614946257,,,,,,,,,,,,
48265,0,USTexasKerr,Texas,Kerr,2022-04-28 09:13:11,2020-12-11,2.83639110657855,5.083969123216089,9.714761614946257,,,,,,,,,,,,
48265,0,USTexasKerr,Texas,Kerr,2022-04-28 09:13:11,2020-12-12,2.83639110657855,5.083969123216089,9.714761614946257,,,,,,,,,,,,
48265,0,USTexasKerr,Texas,Kerr,2022-04-28 09:13:11,2020-12-13,2.83639110657855,5.083969123216089,9.714761614946257,,,,,,,,,,,,
48265,0,USTexasKerr,Texas,Kerr,2022-04-28 09:13:11,2020-12-14,2.83639110657855,5.083969123216089,9.714761614946257,,,,,,,,,,,,
48265,0,USTexasKerr,Texas,Kerr,2022-04-28 09:13:11,2020-12-15,2.83639110657855,5.083969123216089,9.714761614946257,,,,,,,,,,,,
48265,0,USTexasKerr,Texas,Kerr,2022-04-28 09:13:11,2020-12-16,2.83639110657855,5.083969123216089,9.714761614946257,,,,,,,,,,,,
48265,0,USTexasKerr,Texas,Kerr,2022-04-28 09:13:11,2020-12-17,2.104435572749981,3.7932691705549435,7.291941912308725,,,,,,,,,,,,
48265,0,USTexasKerr,Texas,Kerr,2022-04-28 09:13:11,2020-12-18,2.104435572749981,3.7932691705549435,7.291941912308725,,,,,,,,,,,,
48265,0,USTexasKerr,Texas,Kerr,2022-04-28 09:13:11,2020-12-19,2.104435572749981,3.7932691705549435,7.291941912308725,,,,,,,,,,,,
48265,0,USTexasKerr,Texas,Kerr,2022-04-28 09:13:11,2020-12-20,2.104435572749981,3.7932691705549435,7.291941912308725,,,,,,,,,,,,
48265,0,USTexasKerr,Texas,Kerr,2022-04-28 09:13:11,2020-12-21,2.104435572749981,3.7932691705549435,7.291941912308725,,,,,,,,,,,,
48265,0,USTexasKerr,Texas,Kerr,2022-04-28 09:13:11,2020-12-22,2.104435572749981,3.7932691705549435,7.291941912308725,,,,,,,,,,,,
48265,0,USTexasKerr,Texas,Kerr,2022-04-28 09:13:11,2020-12-23,2.104435572749981,3.7932691705549435,7.291941912308725,,,,,,,,,,,,
48265,0,USTexasKerr,Texas,Kerr,2022-04-28 09:13:11,2020-12-24,1.8648827633807783,3.3659083069590396,6.479497697784592,,,,,,,,,,,,
48265,0,USTexasKerr,Texas,Kerr,2022-04-28 09:13:11,2020-12-25,1.8648827633807783,3.3659083069590396,6.479497697784592,,,,,,,,,,,,
48265,0,USTexasKerr,Texas,Kerr,2022-04-28 09:13:11,2020-12-26,1.8648827633807783,3.3659083069590396,6.479497697784592,,,,,,,,,,,,
48265,0,USTexasKerr,Texas,Kerr,2022-04-28 09:13:11,2020-12-27,1.8648827633807783,3.3659083069590396,6.479497697784592,,,,,,,,,,,,
48265,0,USTexasKerr,Texas,Kerr,2022-04-28 09:13:11,2020-12-28,1.8648827633807783,3.3659083069590396,6.479497697784592,,,,,,,,,,,,
48265,0,USTexasKerr,Texas,Kerr,2022-04-28 09:13:11,2020-12-29,1.8648827633807783,3.3659083069590396,6.479497697784592,,,,,,,,,,,,
48265,0,USTexasKerr,Texas,Kerr,2022-04-28 09:13:11,2020-12-30,1.8648827633807783,3.3659083069590396,6.479497697784592,,,,,,,,,,,,
48265,0,USTexasKerr,Texas,Kerr,2022-04-28 09:13:11,2020-12-31,2.4685485716045945,4.5531653502145675,8.96914486478769,,,,,,,,,,,,
48265,0,USTexasKerr,Texas,Kerr,2022-04-28 09:13:11,2021-01-01,2.4685485716045945,4.5531653502145675,8.96914486478769,,,,,,,,,,,,
48265,0,USTexasKerr,Texas,Kerr,2022-04-28 09:13:11,2021-01-02,2.4685485716045945,4.5531653502145675,8.96914486478769,,,,,,,,,,,,
48265,0,USTexasKerr,Texas,Kerr,2022-04-28 09:13:11,2021-01-03,2.4685485716045945,4.5531653502145675,8.96914486478769,,,,,,,,,,,,
48265,0,USTexasKerr,Texas,Kerr,2022-04-28 09:13:11,2021-01-04,2.4685485716045945,4.5531653502145675,8.96914486478769,,,,,,,,,,,,
48265,0,USTexasKerr,Texas,Kerr,2022-04-28 09:13:11,2021-01-05,2.4685485716045945,4.5531653502145675,8.96914486478769,,,,,,,,,,,,
48265,0,USTexasKerr,Texas,Kerr,2022-04-28 09:13:11,2021-01-06,2.4685485716045945,4.5531653502145675,8.96914486478769,,,,,,,,,,,,
48265,0,USTexasKerr,Texas,Kerr,2022-04-28 09:13:11,2021-01-07,2.3126404547050403,4.006655030984592,7.382608876844024,,,,,,,,,,,,
48265,0,USTexasKerr,Texas,Kerr,2022-04-28 09:13:11,2021-01-08,2.3126404547050403,4.006655030984592,7.382608876844024,,,,,,,,,,,,
48265,0,USTexasKerr,Texas,Kerr,2022-04-28 09:13:11,2021-01-09,2.3126404547050403,4.006655030984592,7.382608876844024,,,,,,,,,,,,
48265,0,USTexasKerr,Texas,Kerr,2022-04-28 09:13:11,2021-01-10,2.3126404547050403,4.006655030984592,7.382608876844024,,,,,,,,,,,,
48265,0,USTexasKerr,Texas,Kerr,2022-04-28 09:13:11,2021-01-11,2.3126404547050403,4.006655030984592,7.382608876844024,,,,,,,,,,,,
48265,0,USTexasKerr,Texas,Kerr,2022-04-28 09:13:11,2021-01-12,2.3126404547050403,4.006655030984592,7.382608876844024,,,,,,,,,,,,
48265,0,USTexasKerr,Texas,Kerr,2022-04-28 09:13:11,2021-01-13,2.3126404547050403,4.006655030984592,7.382608876844024,,,,,,,,,,,,
48265,0,USTexasKerr,Texas,Kerr,2022-04-28 09:13:11,2021-01-14,0.9932287955062161,2.0676638473609463,4.621541605523164,,,,,,,,,,,,
48265,0,USTexasKerr,Texas,Kerr,2022-04-28 09:13:11,2021-01-15,0.9932287955062161,2.0676638473609463,4.621541605523164,,,,,,,,,,,,
48265,0,USTexasKerr,Texas,Kerr,2022-04-28 09:13:11,2021-01-16,0.9932287955062161,2.0676638473609463,4.621541605523164,,,,,,,,,,,,
48265,0,USTexasKerr,Texas,Kerr,2022-04-28 09:13:11,2021-01-17,0.9932287955062161,2.0676638473609463,4.621541605523164,,,,,,,,,,,,
48265,0,USTexasKerr,Texas,Kerr,2022-04-28 09:13:11,2021-01-18,0.9932287955062161,2.0676638473609463,4.621541605523164,,,,,,,,,,,,
48265,0,USTexasKerr,Texas,Kerr,2022-04-28 09:13:11,2021-01-19,0.9932287955062161,2.0676638473609463,4.621541605523164,,,,,,,,,,,,
48265,0,USTexasKerr,Texas,Kerr,2022-04-28 09:13:11,2021-01-20,0.9932287955062161,2.0676638473609463,4.621541605523164,,,,,,,,,,,,
48265,0,USTexasKerr,Texas,Kerr,2022-04-28 09:13:11,2021-01-21,2.384959213388191,3.9555109171102303,6.9526322916638055,,,,,,,,,,,,
48265,0,USTexasKerr,Texas,Kerr,2022-04-28 09:13:11,2021-01-22,2.384959213388191,3.9555109171102303,6.9526322916638055,,,,,,,,,,,,
48265,0,USTexasKerr,Texas,Kerr,2022-04-28 09:13:11,2021-01-23,2.384959213388191,3.9555109171102303,6.9526322916638055,,,,,,,,,,,,
48265,0,USTexasKerr,Texas,Kerr,2022-04-28 09:13:11,2021-01-24,2.384959213388191,3.9555109171102303,6.9526322916638055,,,,,,,,,,,,
48265,0,USTexasKerr,Texas,Kerr,2022-04-28 09:13:11,2021-01-25,2.384959213388191,3.9555109171102303,6.9526322916638055,,,,,,,,,,,,
48265,0,USTexasKerr,Texas,Kerr,2022-04-28 09:13:11,2021-01-26,2.384959213388191,3.9555109171102303,6.9526322916638055,,,,,,,,,,,,
48265,0,USTexasKerr,Texas,Kerr,2022-04-28 09:13:11,2021-01-27,2.384959213388191,3.9555109171102303,6.9526322916638055,,,,,,,,,,,,
48265,0,USTexasKerr,Texas,Kerr,2022-04-28 09:13:11,2021-01-28,1.9582447620669936,3.405564017836333,6.300684027316539,,,,,,,,,,,,
48265,0,USTexasKerr,Texas,Kerr,2022-04-28 09:13:11,2021-01-29,1.9582447620669936,3.405564017836333,6.300684027316539,,,,,,,,,,,,
48265,0,USTexasKerr,Texas,Kerr,2022-04-28 09:13:11,2021-01-30,1.9582447620669936,3.405564017836333,6.300684027316539,,,,,,,,,,,,
48265,0,USTexasKerr,Texas,Kerr,2022-04-28 09:13:11,2021-01-31,1.9582447620669936,3.405564017836333,6.300684027316539,,,,,,,,,,,,
48265,0,USTexasKerr,Texas,Kerr,2022-04-28 09:13:11,2021-02-01,1.9582447620669936,3.405564017836333,6.300684027316539,,,,,,,,,,,,
48265,0,USTexasKerr,Texas,Kerr,2022-04-28 09:13:11,2021-02-02,1.9582447620669936,3.405564017836333,6.300684027316539,,,,,,,,,,,,
48265,0,USTexasKerr,Texas,Kerr,2022-04-28 09:13:11,2021-02-03,1.9582447620669936,3.405564017836333,6.300684027316539,,,,,,,,,,,,
48265,0,USTexasKerr,Texas,Kerr,2022-04-28 09:13:11,2021-02-04,1.664293638659774,2.7681955312337077,4.88085515557289,,,,,,,,,,,,
48265,0,USTexasKerr,Texas,Kerr,2022-04-28 09:13:11,2021-02-05,1.664293638659774,2.7681955312337077,4.88085515557289,,,,,,,,,,,,
48265,0,USTexasKerr,Texas,Kerr,2022-04-28 09:13:11,2021-02-06,1.664293638659774,2.7681955312337077,4.88085515557289,,,,,,,,,,,,
48265,0,USTexasKerr,Texas,Kerr,2022-04-28 09:13:11,2021-02-07,1.664293638659774,2.7681955312337077,4.88085515557289,,,,,,,,,,,,
48265,0,USTexasKerr,Texas,Kerr,2022-04-28 09:13:11,2021-02-08,1.664293638659774,2.7681955312337077,4.88085515557289,,,,,,,,,,,,
48265,0,USTexasKerr,Texas,Kerr,2022-04-28 09:13:11,2021-02-09,1.664293638659774,2.7681955312337077,4.88085515557289,,,,,,,,,,,,
48265,0,USTexasKerr,Texas,Kerr,2022-04-28 09:13:11,2021-02-10,1.664293638659774,2.7681955312337077,4.88085515557289,,,,,,,,,,,,
48265,0,USTexasKerr,Texas,Kerr,2022-04-28 09:13:11,2021-02-11,0.708629990208457,1.5433131023345235,3.612958855866998,,,,,,,,,,,,
48265,0,USTexasKerr,Texas,Kerr,2022-04-28 09:13:11,2021-02-12,0.708629990208457,1.5433131023345235,3.612958855866998,,,,,,,,,,,,
48265,0,USTexasKerr,Texas,Kerr,2022-04-28 09:13:11,2021-02-13,0.708629990208457,1.5433131023345235,3.612958855866998,,,,,,,,,,,,
48265,0,USTexasKerr,Texas,Kerr,2022-04-28 09:13:11,2021-02-14,0.708629990208457,1.5433131023345235,3.612958855866998,,,,,,,,,,,,
48265,0,USTexasKerr,Texas,Kerr,2022-04-28 09:13:11,2021-02-15,0.708629990208457,1.5433131023345235,3.612958855866998,,,,,,,,,,,,
48265,0,USTexasKerr,Texas,Kerr,2022-04-28 09:13:11,2021-02-16,0.708629990208457,1.5433131023345235,3.612958855866998,,,,,,,,,,,,
48265,0,USTexasKerr,Texas,Kerr,2022-04-28 09:13:11,2021-02-17,0.708629990208457,1.5433131023345235,3.612958855866998,,,,,,,,,,,,
48265,0,USTexasKerr,Texas,Kerr,2022-04-28 09:13:11,2021-02-18,1.2498338959118087,2.070741895941856,3.635681621940895,,,,,,,,,,,,
48265,0,USTexasKerr,Texas,Kerr,2022-04-28 09:13:11,2021-02-19,1.2498338959118087,2.070741895941856,3.635681621940895,,,,,,,,,,,,
48265,0,USTexasKerr,Texas,Kerr,2022-04-28 09:13:11,2021-02-20,1.2498338959118087,2.070741895941856,3.635681621940895,,,,,,,,,,,,
48265,0,USTexasKerr,Texas,Kerr,2022-04-28 09:13:11,2021-02-21,1.2498338959118087,2.070741895941856,3.635681621940895,,,,,,,,,,,,
48265,0,USTexasKerr,Texas,Kerr,2022-04-28 09:13:11,2021-02-22,1.2498338959118087,2.070741895941856,3.635681621940895,,,,,,,,,,,,
48265,0,USTexasKerr,Texas,Kerr,2022-04-28 09:13:11,2021-02-23,1.2498338959118087,2.070741895941856,3.635681621940895,,,,,,,,,,,,
48265,0,USTexasKerr,Texas,Kerr,2022-04-28 09:13:11,2021-02-24,1.2498338959118087,2.070741895941856,3.635681621940895,,,,,,,,,,,,
48265,0,USTexasKerr,Texas,Kerr,2022-04-28 09:13:11,2021-02-25,0.4961706210961276,1.1631826507851104,2.934137085863173,,,,,,,,,,,,
48265,0,USTexasKerr,Texas,Kerr,2022-04-28 09:13:11,2021-02-26,0.4961706210961276,1.1631826507851104,2.934137085863173,,,,,,,,,,,,
48265,0,USTexasKerr,Texas,Kerr,2022-04-28 09:13:11,2021-02-27,0.4961706210961276,1.1631826507851104,2.934137085863173,,,,,,,,,,,,
48265,0,USTexasKerr,Texas,Kerr,2022-04-28 09:13:11,2021-02-28,0.4961706210961276,1.1631826507851104,2.934137085863173,,,,,,,,,,,,
48265,0,USTexasKerr,Texas,Kerr,2022-04-28 09:13:11,2021-03-01,0.4961706210961276,1.1631826507851104,2.934137085863173,,,,,,,,,,,,
48265,0,USTexasKerr,Texas,Kerr,2022-04-28 09:13:11,2021-03-02,0.4961706210961276,1.1631826507851104,2.934137085863173,,,,,,,,,,,,
48265,0,USTexasKerr,Texas,Kerr,2022-04-28 09:13:11,2021-03-03,0.4961706210961276,1.1631826507851104,2.934137085863173,,,,,,,,,,,,
48265,0,USTexasKerr,Texas,Kerr,2022-04-28 09:13:11,2021-03-04,0.3878573590936358,0.8948134138519378,2.221004074728286,,,,,,,,,,,,
48265,0,USTexasKerr,Texas,Kerr,2022-04-28 09:13:11,2021-03-05,0.3878573590936358,0.8948134138519378,2.221004074728286,,,,,,,,,,,,
48265,0,USTexasKerr,Texas,Kerr,2022-04-28 09:13:11,2021-03-06,0.3878573590936358,0.8948134138519378,2.221004074728286,,,,,,,,,,,,
48265,0,USTexasKerr,Texas,Kerr,2022-04-28 09:13:11,2021-03-07,0.3878573590936358,0.8948134138519378,2.221004074728286,,,,,,,,,,,,
48265,0,USTexasKerr,Texas,Kerr,2022-04-28 09:13:11,2021-03-08,0.3878573590936358,0.8948134138519378,2.221004074728286,,,,,,,,,,,,
48265,0,USTexasKerr,Texas,Kerr,2022-04-28 09:13:11,2021-03-09,0.3878573590936358,0.8948134138519378,2.221004074728286,,,,,,,,,,,,
48265,0,USTexasKerr,Texas,Kerr,2022-04-28 09:13:11,2021-03-10,0.3878573590936358,0.8948134138519378,2.221004074728286,,,,,,,,,,,,
48265,0,USTexasKerr,Texas,Kerr,2022-04-28 09:13:11,2021-03-11,0.2714436556156916,0.6767973920224463,1.8159632892132103,,,,,,,,,,,,
48265,0,USTexasKerr,Texas,Kerr,2022-04-28 09:13:11,2021-03-12,0.2714436556156916,0.6767973920224463,1.8159632892132103,,,,,,,,,,,,
48265,0,USTexasKerr,Texas,Kerr,2022-04-28 09:13:11,2021-03-13,0.2714436556156916,0.6767973920224463,1.8159632892132103,,,,,,,,,,,,
48265,0,USTexasKerr,Texas,Kerr,2022-04-28 09:13:11,2021-03-14,0.2714436556156916,0.6767973920224463,1.8159632892132103,,,,,,,,,,,,
48265,0,USTexasKerr,Texas,Kerr,2022-04-28 09:13:11,2021-03-15,0.2714436556156916,0.6767973920224463,1.8159632892132103,,,,,,,,,,,,
48265,0,USTexasKerr,Texas,Kerr,2022-04-28 09:13:11,2021-03-16,0.2714436556156916,0.6767973920224463,1.8159632892132103,,,,,,,,,,,,
48265,0,USTexasKerr,Texas,Kerr,2022-04-28 09:13:11,2021-03-17,0.2714436556156916,0.6767973920224463,1.8159632892132103,,,,,,,,,,,,
48265,0,USTexasKerr,Texas,Kerr,2022-04-28 09:13:11,2021-03-18,0.2957587578792866,0.6575174394606342,1.5718792233695242,,,,,,,,,,,,
48265,0,USTexasKerr,Texas,Kerr,2022-04-28 09:13:11,2021-03-19,0.2957587578792866,0.6575174394606342,1.5718792233695242,,,,,,,,,,,,
48265,0,USTexasKerr,Texas,Kerr,2022-04-28 09:13:11,2021-03-20,0.2957587578792866,0.6575174394606342,1.5718792233695242,,,,,,,,,,,,
48265,0,USTexasKerr,Texas,Kerr,2022-04-28 09:13:11,2021-03-21,0.2957587578792866,0.6575174394606342,1.5718792233695242,,,,,,,,,,,,
48265,0,USTexasKerr,Texas,Kerr,2022-04-28 09:13:11,2021-03-22,0.2957587578792866,0.6575174394606342,1.5718792233695242,,,,,,,,,,,,
48265,0,USTexasKerr,Texas,Kerr,2022-04-28 09:13:11,2021-03-23,0.2957587578792866,0.6575174394606342,1.5718792233695242,,,,,,,,,,,,
48265,0,USTexasKerr,Texas,Kerr,2022-04-28 09:13:11,2021-03-24,0.2957587578792866,0.6575174394606342,1.5718792233695242,,,,,,,,,,,,
48265,0,USTexasKerr,Texas,Kerr,2022-04-28 09:13:11,2021-03-25,0.3376629348957961,0.7780495541060106,1.9287776329435342,,,,,,,,,,,,
48265,0,USTexasKerr,Texas,Kerr,2022-04-28 09:13:11,2021-03-26,0.3376629348957961,0.7780495541060106,1.9287776329435342,,,,,,,,,,,,
48265,0,USTexasKerr,Texas,Kerr,2022-04-28 09:13:11,2021-03-27,0.3376629348957961,0.7780495541060106,1.9287776329435342,,,,,,,,,,,,
48265,0,USTexasKerr,Texas,Kerr,2022-04-28 09:13:11,2021-03-28,0.3376629348957961,0.7780495541060106,1.9287776329435342,,,,,,,,,,,,
48265,0,USTexasKerr,Texas,Kerr,2022-04-28 09:13:11,2021-03-29,0.3376629348957961,0.7780495541060106,1.9287776329435342,,,,,,,,,,,,
48265,0,USTexasKerr,Texas,Kerr,2022-04-28 09:13:11,2021-03-30,0.3376629348957961,0.7780495541060106,1.9287776329435342,,,,,,,,,,,,
48265,0,USTexasKerr,Texas,Kerr,2022-04-28 09:13:11,2021-03-31,0.3376629348957961,0.7780495541060106,1.9287776329435342,,,,,,,,,,,,
48265,0,USTexasKerr,Texas,Kerr,2022-04-28 09:13:11,2021-04-01,0.19232198709845483,0.43058623639204585,1.0367711377328261,,,,,,,,,,,,
48265,0,USTexasKerr,Texas,Kerr,2022-04-28 09:13:11,2021-04-02,0.19232198709845483,0.43058623639204585,1.0367711377328261,,,,,,,,,,,,
48265,0,USTexasKerr,Texas,Kerr,2022-04-28 09:13:11,2021-04-03,0.19232198709845483,0.43058623639204585,1.0367711377328261,,,,,,,,,,,,
48265,0,USTexasKerr,Texas,Kerr,2022-04-28 09:13:11,2021-04-04,0.19232198709845483,0.43058623639204585,1.0367711377328261,,,,,,,,,,,,
48265,0,USTexasKerr,Texas,Kerr,2022-04-28 09:13:11,2021-04-05,0.19232198709845483,0.43058623639204585,1.0367711377328261,,,,,,,,,,,,
48265,0,USTexasKerr,Texas,Kerr,2022-04-28 09:13:11,2021-04-06,0.19232198709845483,0.43058623639204585,1.0367711377328261,,,,,,,,,,,,
48265,0,USTexasKerr,Texas,Kerr,2022-04-28 09:13:11,2021-04-07,0.19232198709845483,0.43058623639204585,1.0367711377328261,,,,,,,,,,,,
48265,0,USTexasKerr,Texas,Kerr,2022-04-28 09:13:11,2021-04-08,0.15933872090142365,0.44148679410629416,1.3149677579900747,,,,,,,,,,,,
48265,0,USTexasKerr,Texas,Kerr,2022-04-28 09:13:11,2021-04-09,0.15933872090142365,0.44148679410629416,1.3149677579900747,,,,,,,,,,,,
48265,0,USTexasKerr,Texas,Kerr,2022-04-28 09:13:11,2021-04-10,0.15933872090142365,0.44148679410629416,1.3149677579900747,,,,,,,,,,,,
48265,0,USTexasKerr,Texas,Kerr,2022-04-28 09:13:11,2021-04-11,0.15933872090142365,0.44148679410629416,1.3149677579900747,,,,,,,,,,,,
48265,0,USTexasKerr,Texas,Kerr,2022-04-28 09:13:11,2021-04-12,0.15933872090142365,0.44148679410629416,1.3149677579900747,,,,,,,,,,,,
48265,0,USTexasKerr,Texas,Kerr,2022-04-28 09:13:11,2021-04-13,0.15933872090142365,0.44148679410629416,1.3149677579900747,,,,,,,,,,,,
48265,0,USTexasKerr,Texas,Kerr,2022-04-28 09:13:11,2021-04-14,0.15933872090142365,0.44148679410629416,1.3149677579900747,,,,,,,,,,,,
48265,0,USTexasKerr,Texas,Kerr,2022-04-28 09:13:11,2021-04-15,0.27808509833919187,0.6210389233722484,1.4915382126747982,,,,,,,,,,,,
48265,0,USTexasKerr,Texas,Kerr,2022-04-28 09:13:11,2021-04-16,0.27808509833919187,0.6210389233722484,1.4915382126747982,,,,,,,,,,,,
48265,0,USTexasKerr,Texas,Kerr,2022-04-28 09:13:11,2021-04-17,0.27808509833919187,0.6210389233722484,1.4915382126747982,,,,,,,,,,,,
48265,0,USTexasKerr,Texas,Kerr,2022-04-28 09:13:11,2021-04-18,0.27808509833919187,0.6210389233722484,1.4915382126747982,,,,,,,,,,,,
48265,0,USTexasKerr,Texas,Kerr,2022-04-28 09:13:11,2021-04-19,0.27808509833919187,0.6210389233722484,1.4915382126747982,,,,,,,,,,,,
48265,0,USTexasKerr,Texas,Kerr,2022-04-28 09:13:11,2021-04-20,0.27808509833919187,0.6210389233722484,1.4915382126747982,,,,,,,,,,,,
48265,0,USTexasKerr,Texas,Kerr,2022-04-28 09:13:11,2021-04-21,0.27808509833919187,0.6210389233722484,1.4915382126747982,,,,,,,,,,,,
48265,0,USTexasKerr,Texas,Kerr,2022-04-28 09:13:11,2021-04-22,0.23156735854342841,0.5401162823530159,1.3554894678787894,,,,,,,,,,,,
48265,0,USTexasKerr,Texas,Kerr,2022-04-28 09:13:11,2021-04-23,0.23156735854342841,0.5401162823530159,1.3554894678787894,,,,,,,,,,,,
48265,0,USTexasKerr,Texas,Kerr,2022-04-28 09:13:11,2021-04-24,0.23156735854342841,0.5401162823530159,1.3554894678787894,,,,,,,,,,,,
48265,0,USTexasKerr,Texas,Kerr,2022-04-28 09:13:11,2021-04-25,0.23156735854342841,0.5401162823530159,1.3554894678787894,,,,,,,,,,,,
48265,0,USTexasKerr,Texas,Kerr,2022-04-28 09:13:11,2021-04-26,0.23156735854342841,0.5401162823530159,1.3554894678787894,,,,,,,,,,,,
48265,0,USTexasKerr,Texas,Kerr,2022-04-28 09:13:11,2021-04-27,0.23156735854342841,0.5401162823530159,1.3554894678787894,,,,,,,,,,,,
48265,0,USTexasKerr,Texas,Kerr,2022-04-28 09:13:11,2021-04-28,0.23156735854342841,0.5401162823530159,1.3554894678787894,,,,,,,,,,,,
48265,0,USTexasKerr,Texas,Kerr,2022-04-28 09:13:11,2021-04-29,0.5021181739954435,0.9092251748635732,1.756367325932402,,,,,,,,,,,,
48265,0,USTexasKerr,Texas,Kerr,2022-04-28 09:13:11,2021-04-30,0.5021181739954435,0.9092251748635732,1.756367325932402,,,,,,,,,,,,
48265,0,USTexasKerr,Texas,Kerr,2022-04-28 09:13:11,2021-05-01,0.5021181739954435,0.9092251748635732,1.756367325932402,,,,,,,,,,,,
48265,0,USTexasKerr,Texas,Kerr,2022-04-28 09:13:11,2021-05-02,0.5021181739954435,0.9092251748635732,1.756367325932402,,,,,,,,,,,,
48265,0,USTexasKerr,Texas,Kerr,2022-04-28 09:13:11,2021-05-03,0.5021181739954435,0.9092251748635732,1.756367325932402,,,,,,,,,,,,
48265,0,USTexasKerr,Texas,Kerr,2022-04-28 09:13:11,2021-05-04,0.5021181739954435,0.9092251748635732,1.756367325932402,,,,,,,,,,,,
48265,0,USTexasKerr,Texas,Kerr,2022-04-28 09:13:11,2021-05-05,0.5021181739954435,0.9092251748635732,1.756367325932402,,,,,,,,,,,,
48265,0,USTexasKerr,Texas,Kerr,2022-04-28 09:13:11,2021-05-06,0.30241556299217015,0.6149224606180168,1.3414634715678,,,,,,,,,,,,
48265,0,USTexasKerr,Texas,Kerr,2022-04-28 09:13:11,2021-05-07,0.30241556299217015,0.6149224606180168,1.3414634715678,,,,,,,,,,,,
48265,0,USTexasKerr,Texas,Kerr,2022-04-28 09:13:11,2021-05-08,0.30241556299217015,0.6149224606180168,1.3414634715678,,,,,,,,,,,,
48265,0,USTexasKerr,Texas,Kerr,2022-04-28 09:13:11,2021-05-09,0.30241556299217015,0.6149224606180168,1.3414634715678,,,,,,,,,,,,
48265,0,USTexasKerr,Texas,Kerr,2022-04-28 09:13:11,2021-05-10,0.30241556299217015,0.6149224606180168,1.3414634715678,,,,,,,,,,,,
48265,0,USTexasKerr,Texas,Kerr,2022-04-28 09:13:11,2021-05-11,0.30241556299217015,0.6149224606180168,1.3414634715678,,,,,,,,,,,,
48265,0,USTexasKerr,Texas,Kerr,2022-04-28 09:13:11,2021-05-12,0.30241556299217015,0.6149224606180168,1.3414634715678,,,,,,,,,,,,
48265,0,USTexasKerr,Texas,Kerr,2022-04-28 09:13:11,2021-05-13,0.300892887887342,0.6090351042335358,1.322342349863947,,,,,,,,,,,,
48265,0,USTexasKerr,Texas,Kerr,2022-04-28 09:13:11,2021-05-14,0.300892887887342,0.6090351042335358,1.322342349863947,,,,,,,,,,,,
48265,0,USTexasKerr,Texas,Kerr,2022-04-28 09:13:11,2021-05-15,0.300892887887342,0.6090351042335358,1.322342349863947,,,,,,,,,,,,
48265,0,USTexasKerr,Texas,Kerr,2022-04-28 09:13:11,2021-05-16,0.300892887887342,0.6090351042335358,1.322342349863947,,,,,,,,,,,,
48265,0,USTexasKerr,Texas,Kerr,2022-04-28 09:13:11,2021-05-17,0.300892887887342,0.6090351042335358,1.322342349863947,,,,,,,,,,,,
48265,0,USTexasKerr,Texas,Kerr,2022-04-28 09:13:11,2021-05-18,0.300892887887342,0.6090351042335358,1.322342349863947,,,,,,,,,,,,
48265,0,USTexasKerr,Texas,Kerr,2022-04-28 09:13:11,2021-05-19,0.300892887887342,0.6090351042335358,1.322342349863947,,,,,,,,,,,,
48265,0,USTexasKerr,Texas,Kerr,2022-04-28 09:13:11,2021-05-20,0.17855559236985546,0.4110069347215152,1.0178207261011298,,,,,,,,,,,,
48265,0,USTexasKerr,Texas,Kerr,2022-04-28 09:13:11,2021-05-21,0.17855559236985546,0.4110069347215152,1.0178207261011298,,,,,,,,,,,,
48265,0,USTexasKerr,Texas,Kerr,2022-04-28 09:13:11,2021-05-22,0.17855559236985546,0.4110069347215152,1.0178207261011298,,,,,,,,,,,,
48265,0,USTexasKerr,Texas,Kerr,2022-04-28 09:13:11,2021-05-23,0.17855559236985546,0.4110069347215152,1.0178207261011298,,,,,,,,,,,,
48265,0,USTexasKerr,Texas,Kerr,2022-04-28 09:13:11,2021-05-24,0.17855559236985546,0.4110069347215152,1.0178207261011298,,,,,,,,,,,,
48265,0,USTexasKerr,Texas,Kerr,2022-04-28 09:13:11,2021-05-25,0.17855559236985546,0.4110069347215152,1.0178207261011298,,,,,,,,,,,,
48265,0,USTexasKerr,Texas,Kerr,2022-04-28 09:13:11,2021-05-26,0.17855559236985546,0.4110069347215152,1.0178207261011298,,,,,,,,,,,,
48265,0,USTexasKerr,Texas,Kerr,2022-04-28 09:13:11,2021-05-27,0.13801290978133693,0.2970054453673522,0.6868618723902848,,,,,,,,,,,,
48265,0,USTexasKerr,Texas,Kerr,2022-04-28 09:13:11,2021-05-28,0.13801290978133693,0.2970054453673522,0.6868618723902848,,,,,,,,,,,,
48265,0,USTexasKerr,Texas,Kerr,2022-04-28 09:13:11,2021-05-29,0.13801290978133693,0.2970054453673522,0.6868618723902848,,,,,,,,,,,,
48265,0,USTexasKerr,Texas,Kerr,2022-04-28 09:13:11,2021-05-30,0.13801290978133693,0.2970054453673522,0.6868618723902848,,,,,,,,,,,,
48265,0,USTexasKerr,Texas,Kerr,2022-04-28 09:13:11,2021-05-31,0.13801290978133693,0.2970054453673522,0.6868618723902848,,,,,,,,,,,,
48265,0,USTexasKerr,Texas,Kerr,2022-04-28 09:13:11,2021-06-01,0.13801290978133693,0.2970054453673522,0.6868618723902848,,,,,,,,,,,,
48265,0,USTexasKerr,Texas,Kerr,2022-04-28 09:13:11,2021-06-02,0.13801290978133693,0.2970054453673522,0.6868618723902848,,,,,,,,,,,,
48265,0,USTexasKerr,Texas,Kerr,2022-04-28 09:13:11,2021-06-03,0.1967399010119109,0.4934016672107909,1.3315878328229331,,,,,,,,,,,,
48265,0,USTexasKerr,Texas,Kerr,2022-04-28 09:13:11,2021-06-04,0.1967399010119109,0.4934016672107909,1.3315878328229331,,,,,,,,,,,,
48265,0,USTexasKerr,Texas,Kerr,2022-04-28 09:13:11,2021-06-05,0.1967399010119109,0.4934016672107909,1.3315878328229331,,,,,,,,,,,,
48265,0,USTexasKerr,Texas,Kerr,2022-04-28 09:13:11,2021-06-06,0.1967399010119109,0.4934016672107909,1.3315878328229331,,,,,,,,,,,,
48265,0,USTexasKerr,Texas,Kerr,2022-04-28 09:13:11,2021-06-07,0.1967399010119109,0.4934016672107909,1.3315878328229331,,,,,,,,,,,,
48265,0,USTexasKerr,Texas,Kerr,2022-04-28 09:13:11,2021-06-08,0.1967399010119109,0.4934016672107909,1.3315878328229331,,,,,,,,,,,,
48265,0,USTexasKerr,Texas,Kerr,2022-04-28 09:13:11,2021-06-09,0.1967399010119109,0.4934016672107909,1.3315878328229331,,,,,,,,,,,,
48265,0,USTexasKerr,Texas,Kerr,2022-04-28 09:13:11,2021-06-10,0.19084604888823087,0.4061638677001982,0.9286717188712039,,,,,,,,,,,,
48265,0,USTexasKerr,Texas,Kerr,2022-04-28 09:13:11,2021-06-11,0.19084604888823087,0.4061638677001982,0.9286717188712039,,,,,,,,,,,,
48265,0,USTexasKerr,Texas,Kerr,2022-04-28 09:13:11,2021-06-12,0.19084604888823087,0.4061638677001982,0.9286717188712039,,,,,,,,,,,,
48265,0,USTexasKerr,Texas,Kerr,2022-04-28 09:13:11,2021-06-13,0.19084604888823087,0.4061638677001982,0.9286717188712039,,,,,,,,,,,,
48265,0,USTexasKerr,Texas,Kerr,2022-04-28 09:13:11,2021-06-14,0.19084604888823087,0.4061638677001982,0.9286717188712039,,,,,,,,,,,,
48265,0,USTexasKerr,Texas,Kerr,2022-04-28 09:13:11,2021-06-15,0.19084604888823087,0.4061638677001982,0.9286717188712039,,,,,,,,,,,,
48265,0,USTexasKerr,Texas,Kerr,2022-04-28 09:13:11,2021-06-16,0.19084604888823087,0.4061638677001982,0.9286717188712039,,,,,,,,,,,,
48265,0,USTexasKerr,Texas,Kerr,2022-04-28 09:13:11,2021-06-17,0.11651912297811677,0.28426759308670885,0.7463425683697009,,,,,,,,,,,,
48265,0,USTexasKerr,Texas,Kerr,2022-04-28 09:13:11,2021-06-18,0.11651912297811677,0.28426759308670885,0.7463425683697009,,,,,,,,,,,,
48265,0,USTexasKerr,Texas,Kerr,2022-04-28 09:13:11,2021-06-19,0.11651912297811677,0.28426759308670885,0.7463425683697009,,,,,,,,,,,,
48265,0,USTexasKerr,Texas,Kerr,2022-04-28 09:13:11,2021-06-20,0.11651912297811677,0.28426759308670885,0.7463425683697009,,,,,,,,,,,,
48265,0,USTexasKerr,Texas,Kerr,2022-04-28 09:13:11,2021-06-21,0.11651912297811677,0.28426759308670885,0.7463425683697009,,,,,,,,,,,,
48265,0,USTexasKerr,Texas,Kerr,2022-04-28 09:13:11,2021-06-22,0.11651912297811677,0.28426759308670885,0.7463425683697009,,,,,,,,,,,,
48265,0,USTexasKerr,Texas,Kerr,2022-04-28 09:13:11,2021-06-23,0.11651912297811677,0.28426759308670885,0.7463425683697009,,,,,,,,,,,,
48265,0,USTexasKerr,Texas,Kerr,2022-04-28 09:13:11,2021-06-24,0.1732978280952376,0.40868710858282514,1.0371018386332918,,,,,,,,,,,,
48265,0,USTexasKerr,Texas,Kerr,2022-04-28 09:13:11,2021-06-25,0.1732978280952376,0.40868710858282514,1.0371018386332918,,,,,,,,,,,,
48265,0,USTexasKerr,Texas,Kerr,2022-04-28 09:13:11,2021-06-26,0.1732978280952376,0.40868710858282514,1.0371018386332918,,,,,,,,,,,,
48265,0,USTexasKerr,Texas,Kerr,2022-04-28 09:13:11,2021-06-27,0.1732978280952376,0.40868710858282514,1.0371018386332918,,,,,,,,,,,,
48265,0,USTexasKerr,Texas,Kerr,2022-04-28 09:13:11,2021-06-28,0.1732978280952376,0.40868710858282514,1.0371018386332918,,,,,,,,,,,,
48265,0,USTexasKerr,Texas,Kerr,2022-04-28 09:13:11,2021-06-29,0.1732978280952376,0.40868710858282514,1.0371018386332918,,,,,,,,,,,,
48265,0,USTexasKerr,Texas,Kerr,2022-04-28 09:13:11,2021-06-30,0.1732978280952376,0.40868710858282514,1.0371018386332918,,,,,,,,,,,,
48265,0,USTexasKerr,Texas,Kerr,2022-04-28 09:13:11,2021-07-01,0.1688333330835989,0.3890329019182644,0.9644185389335397,,,,,,,,,,,,
48265,0,USTexasKerr,Texas,Kerr,2022-04-28 09:13:11,2021-07-02,0.1688333330835989,0.3890329019182644,0.9644185389335397,,,,,,,,,,,,
48265,0,USTexasKerr,Texas,Kerr,2022-04-28 09:13:11,2021-07-03,0.1688333330835989,0.3890329019182644,0.9644185389335397,,,,,,,,,,,,
48265,0,USTexasKerr,Texas,Kerr,2022-04-28 09:13:11,2021-07-04,0.1688333330835989,0.3890329019182644,0.9644185389335397,,,,,,,,,,,,
48265,0,USTexasKerr,Texas,Kerr,2022-04-28 09:13:11,2021-07-05,0.1688333330835989,0.3890329019182644,0.9644185389335397,,,,,,,,,,,,
48265,0,USTexasKerr,Texas,Kerr,2022-04-28 09:13:11,2021-07-06,0.1688333330835989,0.3890329019182644,0.9644185389335397,,,,,,,,,,,,
48265,0,USTexasKerr,Texas,Kerr,2022-04-28 09:13:11,2021-07-07,0.1688333330835989,0.3890329019182644,0.9644185389335397,,,,,,,,,,,,
48265,0,USTexasKerr,Texas,Kerr,2022-04-28 09:13:11,2021-07-08,0.32535951516683137,0.744865876321154,1.8344824050681412,,,,,,,,,,,,
48265,0,USTexasKerr,Texas,Kerr,2022-04-28 09:13:11,2021-07-09,0.32535951516683137,0.744865876321154,1.8344824050681412,,,,,,,,,,,,
48265,0,USTexasKerr,Texas,Kerr,2022-04-28 09:13:11,2021-07-10,0.32535951516683137,0.744865876321154,1.8344824050681412,,,,,,,,,,,,
48265,0,USTexasKerr,Texas,Kerr,2022-04-28 09:13:11,2021-07-11,0.32535951516683137,0.744865876321154,1.8344824050681412,,,,,,,,,,,,
48265,0,USTexasKerr,Texas,Kerr,2022-04-28 09:13:11,2021-07-12,0.32535951516683137,0.744865876321154,1.8344824050681412,,,,,,,,,,,,
48265,0,USTexasKerr,Texas,Kerr,2022-04-28 09:13:11,2021-07-13,0.32535951516683137,0.744865876321154,1.8344824050681412,,,,,,,,,,,,
48265,0,USTexasKerr,Texas,Kerr,2022-04-28 09:13:11,2021-07-14,0.32535951516683137,0.744865876321154,1.8344824050681412,,,,,,,,,,,,
48265,0,USTexasKerr,Texas,Kerr,2022-04-28 09:13:11,2021-07-15,0.42695543363140714,0.9636639030586178,2.3394390240860714,,,,,,,,,,,,
48265,0,USTexasKerr,Texas,Kerr,2022-04-28 09:13:11,2021-07-16,0.42695543363140714,0.9636639030586178,2.3394390240860714,,,,,,,,,,,,
48265,0,USTexasKerr,Texas,Kerr,2022-04-28 09:13:11,2021-07-17,0.42695543363140714,0.9636639030586178,2.3394390240860714,,,,,,,,,,,,
48265,0,USTexasKerr,Texas,Kerr,2022-04-28 09:13:11,2021-07-18,0.42695543363140714,0.9636639030586178,2.3394390240860714,,,,,,,,,,,,
48265,0,USTexasKerr,Texas,Kerr,2022-04-28 09:13:11,2021-07-19,0.42695543363140714,0.9636639030586178,2.3394390240860714,,,,,,,,,,,,
48265,0,USTexasKerr,Texas,Kerr,2022-04-28 09:13:11,2021-07-20,0.42695543363140714,0.9636639030586178,2.3394390240860714,,,,,,,,,,,,
48265,0,USTexasKerr,Texas,Kerr,2022-04-28 09:13:11,2021-07-21,0.42695543363140714,0.9636639030586178,2.3394390240860714,,,,,,,,,,,,
48265,0,USTexasKerr,Texas,Kerr,2022-04-28 09:13:11,2021-07-22,0.7435471729357561,1.4970058946081637,3.232393310435868,,,,,,,,,,,,
48265,0,USTexasKerr,Texas,Kerr,2022-04-28 09:13:11,2021-07-23,0.7435471729357561,1.4970058946081637,3.232393310435868,,,,,,,,,,,,
48265,0,USTexasKerr,Texas,Kerr,2022-04-28 09:13:11,2021-07-24,0.7435471729357561,1.4970058946081637,3.232393310435868,,,,,,,,,,,,
48265,0,USTexasKerr,Texas,Kerr,2022-04-28 09:13:11,2021-07-25,0.7435471729357561,1.4970058946081637,3.232393310435868,,,,,,,,,,,,
48265,0,USTexasKerr,Texas,Kerr,2022-04-28 09:13:11,2021-07-26,0.7435471729357561,1.4970058946081637,3.232393310435868,,,,,,,,,,,,
48265,0,USTexasKerr,Texas,Kerr,2022-04-28 09:13:11,2021-07-27,0.7435471729357561,1.4970058946081637,3.232393310435868,,,,,,,,,,,,
48265,0,USTexasKerr,Texas,Kerr,2022-04-28 09:13:11,2021-07-28,0.7435471729357561,1.4970058946081637,3.232393310435868,,,,,,,,,,,,
48265,0,USTexasKerr,Texas,Kerr,2022-04-28 09:13:11,2021-07-29,0.437250108015394,0.4435302628317542,0.4500007556994836,,,,,,,,,,,,
48265,0,USTexasKerr,Texas,Kerr,2022-04-28 09:13:11,2021-07-30,0.437250108015394,0.4435302628317542,0.4500007556994836,,,,,,,,,,,,
48265,0,USTexasKerr,Texas,Kerr,2022-04-28 09:13:11,2021-07-31,0.437250108015394,0.4435302628317542,0.4500007556994836,,,,,,,,,,,,
48265,0,USTexasKerr,Texas,Kerr,2022-04-28 09:13:11,2021-08-01,0.437250108015394,0.4435302628317542,0.4500007556994836,,,,,,,,,,,,
48265,0,USTexasKerr,Texas,Kerr,2022-04-28 09:13:11,2021-08-02,0.437250108015394,0.4435302628317542,0.4500007556994836,,,,,,,,,,,,
48265,0,USTexasKerr,Texas,Kerr,2022-04-28 09:13:11,2021-08-03,0.437250108015394,0.4435302628317542,0.4500007556994836,,,,,,,,,,,,
48265,0,USTexasKerr,Texas,Kerr,2022-04-28 09:13:11,2021-08-04,0.437250108015394,0.4435302628317542,0.4500007556994836,,,,,,,,,,,,
48265,0,USTexasKerr,Texas,Kerr,2022-04-28 09:13:11,2021-08-05,0.9021611068779581,1.6409982080877346,3.1851745180735067,,,,,,,,,,,,
48265,0,USTexasKerr,Texas,Kerr,2022-04-28 09:13:11,2021-08-06,0.9021611068779581,1.6409982080877346,3.1851745180735067,,,,,,,,,,,,
48265,0,USTexasKerr,Texas,Kerr,2022-04-28 09:13:11,2021-08-07,0.9021611068779581,1.6409982080877346,3.1851745180735067,,,,,,,,,,,,
48265,0,USTexasKerr,Texas,Kerr,2022-04-28 09:13:11,2021-08-08,0.9021611068779581,1.6409982080877346,3.1851745180735067,,,,,,,,,,,,
48265,0,USTexasKerr,Texas,Kerr,2022-04-28 09:13:11,2021-08-09,0.9021611068779581,1.6409982080877346,3.1851745180735067,,,,,,,,,,,,
48265,0,USTexasKerr,Texas,Kerr,2022-04-28 09:13:11,2021-08-10,0.9021611068779581,1.6409982080877346,3.1851745180735067,,,,,,,,,,,,
48265,0,USTexasKerr,Texas,Kerr,2022-04-28 09:13:11,2021-08-11,0.9021611068779581,1.6409982080877346,3.1851745180735067,,,,,,,,,,,,
48265,0,USTexasKerr,Texas,Kerr,2022-04-28 09:13:11,2021-08-12,1.3201769104497896,2.2769131213755767,4.1751017114460165,,,,,,,,,,,,
48265,0,USTexasKerr,Texas,Kerr,2022-04-28 09:13:11,2021-08-13,1.3201769104497896,2.2769131213755767,4.1751017114460165,,,,,,,,,,,,
48265,0,USTexasKerr,Texas,Kerr,2022-04-28 09:13:11,2021-08-14,1.3201769104497896,2.2769131213755767,4.1751017114460165,,,,,,,,,,,,
48265,0,USTexasKerr,Texas,Kerr,2022-04-28 09:13:11,2021-08-15,1.3201769104497896,2.2769131213755767,4.1751017114460165,,,,,,,,,,,,
48265,0,USTexasKerr,Texas,Kerr,2022-04-28 09:13:11,2021-08-16,1.3201769104497896,2.2769131213755767,4.1751017114460165,,,,,,,,,,,,
48265,0,USTexasKerr,Texas,Kerr,2022-04-28 09:13:11,2021-08-17,1.3201769104497896,2.2769131213755767,4.1751017114460165,,,,,,,,,,,,
48265,0,USTexasKerr,Texas,Kerr,2022-04-28 09:13:11,2021-08-18,1.3201769104497896,2.2769131213755767,4.1751017114460165,,,,,,,,,,,,
48265,0,USTexasKerr,Texas,Kerr,2022-04-28 09:13:11,2021-08-19,1.1862202128233423,2.2118967718175617,4.407583651006072,,,,,,,,,,,,
48265,0,USTexasKerr,Texas,Kerr,2022-04-28 09:13:11,2021-08-20,1.1862202128233423,2.2118967718175617,4.407583651006072,,,,,,,,,,,,
48265,0,USTexasKerr,Texas,Kerr,2022-04-28 09:13:11,2021-08-21,1.1862202128233423,2.2118967718175617,4.407583651006072,,,,,,,,,,,,
48265,0,USTexasKerr,Texas,Kerr,2022-04-28 09:13:11,2021-08-22,1.1862202128233423,2.2118967718175617,4.407583651006072,,,,,,,,,,,,
48265,0,USTexasKerr,Texas,Kerr,2022-04-28 09:13:11,2021-08-23,1.1862202128233423,2.2118967718175617,4.407583651006072,,,,,,,,,,,,
48265,0,USTexasKerr,Texas,Kerr,2022-04-28 09:13:11,2021-08-24,1.1862202128233423,2.2118967718175617,4.407583651006072,,,,,,,,,,,,
48265,0,USTexasKerr,Texas,Kerr,2022-04-28 09:13:11,2021-08-25,1.1862202128233423,2.2118967718175617,4.407583651006072,,,,,,,,,,,,
48265,0,USTexasKerr,Texas,Kerr,2022-04-28 09:13:11,2021-08-26,0.8024965417506138,1.4101316730092972,2.638021619300544,,,,,,,,,,,,
48265,0,USTexasKerr,Texas,Kerr,2022-04-28 09:13:11,2021-08-27,0.8024965417506138,1.4101316730092972,2.638021619300544,,,,,,,,,,,,
48265,0,USTexasKerr,Texas,Kerr,2022-04-28 09:13:11,2021-08-28,0.8024965417506138,1.4101316730092972,2.638021619300544,,,,,,,,,,,,
48265,0,USTexasKerr,Texas,Kerr,2022-04-28 09:13:11,2021-08-29,0.8024965417506138,1.4101316730092972,2.638021619300544,,,,,,,,,,,,
48265,0,USTexasKerr,Texas,Kerr,2022-04-28 09:13:11,2021-08-30,0.8024965417506138,1.4101316730092972,2.638021619300544,,,,,,,,,,,,
48265,0,USTexasKerr,Texas,Kerr,2022-04-28 09:13:11,2021-08-31,0.8024965417506138,1.4101316730092972,2.638021619300544,,,,,,,,,,,,
48265,0,USTexasKerr,Texas,Kerr,2022-04-28 09:13:11,2021-09-01,0.8024965417506138,1.4101316730092972,2.638021619300544,,,,,,,,,,,,
48265,0,USTexasKerr,Texas,Kerr,2022-04-28 09:13:11,2021-09-02,1.3399853178981,2.1302049238104748,3.5749442773806934,,,,,,,,,,,,
48265,0,USTexasKerr,Texas,Kerr,2022-04-28 09:13:11,2021-09-03,1.3399853178981,2.1302049238104748,3.5749442773806934,,,,,,,,,,,,
48265,0,USTexasKerr,Texas,Kerr,2022-04-28 09:13:11,2021-09-04,1.3399853178981,2.1302049238104748,3.5749442773806934,,,,,,,,,,,,
48265,0,USTexasKerr,Texas,Kerr,2022-04-28 09:13:11,2021-09-05,1.3399853178981,2.1302049238104748,3.5749442773806934,,,,,,,,,,,,
48265,0,USTexasKerr,Texas,Kerr,2022-04-28 09:13:11,2021-09-06,1.3399853178981,2.1302049238104748,3.5749442773806934,,,,,,,,,,,,
48265,0,USTexasKerr,Texas,Kerr,2022-04-28 09:13:11,2021-09-07,1.3399853178981,2.1302049238104748,3.5749442773806934,,,,,,,,,,,,
48265,0,USTexasKerr,Texas,Kerr,2022-04-28 09:13:11,2021-09-08,1.3399853178981,2.1302049238104748,3.5749442773806934,,,,,,,,,,,,
48265,0,USTexasKerr,Texas,Kerr,2022-04-28 09:13:11,2021-09-09,1.0658752899073431,1.7803491000389031,3.1534968732046873,,,,,,,,,,,,
48265,0,USTexasKerr,Texas,Kerr,2022-04-28 09:13:11,2021-09-10,1.0658752899073431,1.7803491000389031,3.1534968732046873,,,,,,,,,,,,
48265,0,USTexasKerr,Texas,Kerr,2022-04-28 09:13:11,2021-09-11,1.0658752899073431,1.7803491000389031,3.1534968732046873,,,,,,,,,,,,
48265,0,USTexasKerr,Texas,Kerr,2022-04-28 09:13:11,2021-09-12,1.0658752899073431,1.7803491000389031,3.1534968732046873,,,,,,,,,,,,
48265,0,USTexasKerr,Texas,Kerr,2022-04-28 09:13:11,2021-09-13,1.0658752899073431,1.7803491000389031,3.1534968732046873,,,,,,,,,,,,
48265,0,USTexasKerr,Texas,Kerr,2022-04-28 09:13:11,2021-09-14,1.0658752899073431,1.7803491000389031,3.1534968732046873,,,,,,,,,,,,
48265,0,USTexasKerr,Texas,Kerr,2022-04-28 09:13:11,2021-09-15,1.0658752899073431,1.7803491000389031,3.1534968732046873,,,,,,,,,,,,
48265,0,USTexasKerr,Texas,Kerr,2022-04-28 09:13:11,2021-09-16,1.628672559593352,2.9501486746473837,5.700875449387312,,,,,,,,,,,,
48265,0,USTexasKerr,Texas,Kerr,2022-04-28 09:13:11,2021-09-17,1.628672559593352,2.9501486746473837,5.700875449387312,,,,,,,,,,,,
48265,0,USTexasKerr,Texas,Kerr,2022-04-28 09:13:11,2021-09-18,1.628672559593352,2.9501486746473837,5.700875449387312,,,,,,,,,,,,
48265,0,USTexasKerr,Texas,Kerr,2022-04-28 09:13:11,2021-09-19,1.628672559593352,2.9501486746473837,5.700875449387312,,,,,,,,,,,,
48265,0,USTexasKerr,Texas,Kerr,2022-04-28 09:13:11,2021-09-20,1.628672559593352,2.9501486746473837,5.700875449387312,,,,,,,,,,,,
48265,0,USTexasKerr,Texas,Kerr,2022-04-28 09:13:11,2021-09-21,1.628672559593352,2.9501486746473837,5.700875449387312,,,,,,,,,,,,
48265,0,USTexasKerr,Texas,Kerr,2022-04-28 09:13:11,2021-09-22,1.628672559593352,2.9501486746473837,5.700875449387312,,,,,,,,,,,,
48265,0,USTexasKerr,Texas,Kerr,2022-04-28 09:13:11,2021-09-23,1.0394126963142587,1.9695925249135617,3.99187557753257,,,,,,,,,,,,
48265,0,USTexasKerr,Texas,Kerr,2022-04-28 09:13:11,2021-09-24,1.0394126963142587,1.9695925249135617,3.99187557753257,,,,,,,,,,,,
48265,0,USTexasKerr,Texas,Kerr,2022-04-28 09:13:11,2021-09-25,1.0394126963142587,1.9695925249135617,3.99187557753257,,,,,,,,,,,,
48265,0,USTexasKerr,Texas,Kerr,2022-04-28 09:13:11,2021-09-26,1.0394126963142587,1.9695925249135617,3.99187557753257,,,,,,,,,,,,
48265,0,USTexasKerr,Texas,Kerr,2022-04-28 09:13:11,2021-09-27,1.0394126963142587,1.9695925249135617,3.99187557753257,,,,,,,,,,,,
48265,0,USTexasKerr,Texas,Kerr,2022-04-28 09:13:11,2021-09-28,1.0394126963142587,1.9695925249135617,3.99187557753257,,,,,,,,,,,,
48265,0,USTexasKerr,Texas,Kerr,2022-04-28 09:13:11,2021-09-29,1.0394126963142587,1.9695925249135617,3.99187557753257,,,,,,,,,,,,
48265,0,USTexasKerr,Texas,Kerr,2022-04-28 09:13:11,2021-09-30,1.749976728758421,3.7517312860894667,8.64276421848904,,,,,,,,,,,,
48265,0,USTexasKerr,Texas,Kerr,2022-04-28 09:13:11,2021-10-01,1.749976728758421,3.7517312860894667,8.64276421848904,,,,,,,,,,,,
48265,0,USTexasKerr,Texas,Kerr,2022-04-28 09:13:11,2021-10-02,1.749976728758421,3.7517312860894667,8.64276421848904,,,,,,,,,,,,
48265,0,USTexasKerr,Texas,Kerr,2022-04-28 09:13:11,2021-10-03,1.749976728758421,3.7517312860894667,8.64276421848904,,,,,,,,,,,,
48265,0,USTexasKerr,Texas,Kerr,2022-04-28 09:13:11,2021-10-04,1.749976728758421,3.7517312860894667,8.64276421848904,,,,,,,,,,,,
48265,0,USTexasKerr,Texas,Kerr,2022-04-28 09:13:11,2021-10-05,1.749976728758421,3.7517312860894667,8.64276421848904,,,,,,,,,,,,
48265,0,USTexasKerr,Texas,Kerr,2022-04-28 09:13:11,2021-10-06,1.749976728758421,3.7517312860894667,8.64276421848904,,,,,,,,,,,,
48265,0,USTexasKerr,Texas,Kerr,2022-04-28 09:13:11,2021-10-07,0.9119607260404828,2.0386375819006872,4.901004106907619,,,,,,,,,,,,
48265,0,USTexasKerr,Texas,Kerr,2022-04-28 09:13:11,2021-10-08,0.9119607260404828,2.0386375819006872,4.901004106907619,,,,,,,,,,,,
48265,0,USTexasKerr,Texas,Kerr,2022-04-28 09:13:11,2021-10-09,0.9119607260404828,2.0386375819006872,4.901004106907619,,,,,,,,,,,,
48265,0,USTexasKerr,Texas,Kerr,2022-04-28 09:13:11,2021-10-10,0.9119607260404828,2.0386375819006872,4.901004106907619,,,,,,,,,,,,
48265,0,USTexasKerr,Texas,Kerr,2022-04-28 09:13:11,2021-10-11,0.9119607260404828,2.0386375819006872,4.901004106907619,,,,,,,,,,,,
48265,0,USTexasKerr,Texas,Kerr,2022-04-28 09:13:11,2021-10-12,0.9119607260404828,2.0386375819006872,4.901004106907619,,,,,,,,,,,,
48265,0,USTexasKerr,Texas,Kerr,2022-04-28 09:13:11,2021-10-13,0.9119607260404828,2.0386375819006872,4.901004106907619,,,,,,,,,,,,
48265,0,USTexasKerr,Texas,Kerr,2022-04-28 09:13:11,2021-10-14,0.41801094855099624,0.9650339031534,2.3969380471188786,,,,,,,,,,,,
48265,0,USTexasKerr,Texas,Kerr,2022-04-28 09:13:11,2021-10-15,0.41801094855099624,0.9650339031534,2.3969380471188786,,,,,,,,,,,,
48265,0,USTexasKerr,Texas,Kerr,2022-04-28 09:13:11,2021-10-16,0.41801094855099624,0.9650339031534,2.3969380471188786,,,,,,,,,,,,
48265,0,USTexasKerr,Texas,Kerr,2022-04-28 09:13:11,2021-10-17,0.41801094855099624,0.9650339031534,2.3969380471188786,,,,,,,,,,,,
48265,0,USTexasKerr,Texas,Kerr,2022-04-28 09:13:11,2021-10-18,0.41801094855099624,0.9650339031534,2.3969380471188786,,,,,,,,,,,,
48265,0,USTexasKerr,Texas,Kerr,2022-04-28 09:13:11,2021-10-19,0.41801094855099624,0.9650339031534,2.3969380471188786,,,,,,,,,,,,
48265,0,USTexasKerr,Texas,Kerr,2022-04-28 09:13:11,2021-10-20,0.41801094855099624,0.9650339031534,2.3969380471188786,,,,,,,,,,,,
48265,0,USTexasKerr,Texas,Kerr,2022-04-28 09:13:11,2021-10-21,0.5548498940228053,1.275833777102937,3.1561262502483673,,,,,,,,,,,,
48265,0,USTexasKerr,Texas,Kerr,2022-04-28 09:13:11,2021-10-22,0.5548498940228053,1.275833777102937,3.1561262502483673,,,,,,,,,,,,
48265,0,USTexasKerr,Texas,Kerr,2022-04-28 09:13:11,2021-10-23,0.5548498940228053,1.275833777102937,3.1561262502483673,,,,,,,,,,,,
48265,0,USTexasKerr,Texas,Kerr,2022-04-28 09:13:11,2021-10-24,0.5548498940228053,1.275833777102937,3.1561262502483673,,,,,,,,,,,,
48265,0,USTexasKerr,Texas,Kerr,2022-04-28 09:13:11,2021-10-25,0.5548498940228053,1.275833777102937,3.1561262502483673,,,,,,,,,,,,
48265,0,USTexasKerr,Texas,Kerr,2022-04-28 09:13:11,2021-10-26,0.5548498940228053,1.275833777102937,3.1561262502483673,,,,,,,,,,,,
48265,0,USTexasKerr,Texas,Kerr,2022-04-28 09:13:11,2021-10-27,0.5548498940228053,1.275833777102937,3.1561262502483673,,,,,,,,,,,,
48265,0,USTexasKerr,Texas,Kerr,2022-04-28 09:13:11,2021-10-28,0.22777769066908088,0.5446063954839675,1.401252400854865,,,,,,,,,,,,
48265,0,USTexasKerr,Texas,Kerr,2022-04-28 09:13:11,2021-10-29,0.22777769066908088,0.5446063954839675,1.401252400854865,,,,,,,,,,,,
48265,0,USTexasKerr,Texas,Kerr,2022-04-28 09:13:11,2021-10-30,0.22777769066908088,0.5446063954839675,1.401252400854865,,,,,,,,,,,,
48265,0,USTexasKerr,Texas,Kerr,2022-04-28 09:13:11,2021-10-31,0.22777769066908088,0.5446063954839675,1.401252400854865,,,,,,,,,,,,
48265,0,USTexasKerr,Texas,Kerr,2022-04-28 09:13:11,2021-11-01,0.22777769066908088,0.5446063954839675,1.401252400854865,,,,,,,,,,,,
48265,0,USTexasKerr,Texas,Kerr,2022-04-28 09:13:11,2021-11-02,0.22777769066908088,0.5446063954839675,1.401252400854865,,,,,,,,,,,,
48265,0,USTexasKerr,Texas,Kerr,2022-04-28 09:13:11,2021-11-03,0.22777769066908088,0.5446063954839675,1.401252400854865,,,,,,,,,,,,
48265,0,USTexasKerr,Texas,Kerr,2022-04-28 09:13:11,2021-11-04,0.06250352889904735,0.1502563062504903,0.38871455430224844,,,,,,,,,,,,
48265,0,USTexasKerr,Texas,Kerr,2022-04-28 09:13:11,2021-11-05,0.06250352889904735,0.1502563062504903,0.38871455430224844,,,,,,,,,,,,
48265,0,USTexasKerr,Texas,Kerr,2022-04-28 09:13:11,2021-11-06,0.06250352889904735,0.1502563062504903,0.38871455430224844,,,,,,,,,,,,
48265,0,USTexasKerr,Texas,Kerr,2022-04-28 09:13:11,2021-11-07,0.06250352889904735,0.1502563062504903,0.38871455430224844,,,,,,,,,,,,
48265,0,USTexasKerr,Texas,Kerr,2022-04-28 09:13:11,2021-11-08,0.06250352889904735,0.1502563062504903,0.38871455430224844,,,,,,,,,,,,
48265,0,USTexasKerr,Texas,Kerr,2022-04-28 09:13:11,2021-11-09,0.06250352889904735,0.1502563062504903,0.38871455430224844,,,,,,,,,,,,
48265,0,USTexasKerr,Texas,Kerr,2022-04-28 09:13:11,2021-11-10,0.06250352889904735,0.1502563062504903,0.38871455430224844,,,,,,,,,,,,
48265,0,USTexasKerr,Texas,Kerr,2022-04-28 09:13:11,2021-11-11,1.4729218637637496,3.549562904959278,9.205403469089037,,,,,,,,,,,,
48265,0,USTexasKerr,Texas,Kerr,2022-04-28 09:13:11,2021-11-12,1.4729218637637496,3.549562904959278,9.205403469089037,,,,,,,,,,,,
48265,0,USTexasKerr,Texas,Kerr,2022-04-28 09:13:11,2021-11-13,1.4729218637637496,3.549562904959278,9.205403469089037,,,,,,,,,,,,
48265,0,USTexasKerr,Texas,Kerr,2022-04-28 09:13:11,2021-11-14,1.4729218637637496,3.549562904959278,9.205403469089037,,,,,,,,,,,,
48265,0,USTexasKerr,Texas,Kerr,2022-04-28 09:13:11,2021-11-15,1.4729218637637496,3.549562904959278,9.205403469089037,,,,,,,,,,,,
48265,0,USTexasKerr,Texas,Kerr,2022-04-28 09:13:11,2021-11-16,1.4729218637637496,3.549562904959278,9.205403469089037,,,,,,,,,,,,
48265,0,USTexasKerr,Texas,Kerr,2022-04-28 09:13:11,2021-11-17,1.4729218637637496,3.549562904959278,9.205403469089037,,,,,,,,,,,,
48265,0,USTexasKerr,Texas,Kerr,2022-04-28 09:13:11,2021-11-18,2.0228954236809633,4.980522052882778,13.19642069119479,,,,,,,,,,,,
48265,0,USTexasKerr,Texas,Kerr,2022-04-28 09:13:11,2021-11-19,2.0228954236809633,4.980522052882778,13.19642069119479,,,,,,,,,,,,
48265,0,USTexasKerr,Texas,Kerr,2022-04-28 09:13:11,2021-11-20,2.0228954236809633,4.980522052882778,13.19642069119479,,,,,,,,,,,,
48265,0,USTexasKerr,Texas,Kerr,2022-04-28 09:13:11,2021-11-21,2.0228954236809633,4.980522052882778,13.19642069119479,,,,,,,,,,,,
48265,0,USTexasKerr,Texas,Kerr,2022-04-28 09:13:11,2021-11-22,2.0228954236809633,4.980522052882778,13.19642069119479,,,,,,,,,,,,
48265,0,USTexasKerr,Texas,Kerr,2022-04-28 09:13:11,2021-11-23,2.0228954236809633,4.980522052882778,13.19642069119479,,,,,,,,,,,,
48265,0,USTexasKerr,Texas,Kerr,2022-04-28 09:13:11,2021-11-24,2.0228954236809633,4.980522052882778,13.19642069119479,,,,,,,,,,,,
48265,0,USTexasKerr,Texas,Kerr,2022-04-28 09:13:11,2021-11-25,2.6717834443511297,6.711258792855254,18.141160914191317,,,,,,,,,,,,
48265,0,USTexasKerr,Texas,Kerr,2022-04-28 09:13:11,2021-11-26,2.6717834443511297,6.711258792855254,18.141160914191317,,,,,,,,,,,,
48265,0,USTexasKerr,Texas,Kerr,2022-04-28 09:13:11,2021-11-27,2.6717834443511297,6.711258792855254,18.141160914191317,,,,,,,,,,,,
48265,0,USTexasKerr,Texas,Kerr,2022-04-28 09:13:11,2021-11-28,2.6717834443511297,6.711258792855254,18.141160914191317,,,,,,,,,,,,
48265,0,USTexasKerr,Texas,Kerr,2022-04-28 09:13:11,2021-11-29,2.6717834443511297,6.711258792855254,18.141160914191317,,,,,,,,,,,,
48265,0,USTexasKerr,Texas,Kerr,2022-04-28 09:13:11,2021-11-30,2.6717834443511297,6.711258792855254,18.141160914191317,,,,,,,,,,,,
48265,0,USTexasKerr,Texas,Kerr,2022-04-28 09:13:11,2021-12-01,2.6717834443511297,6.711258792855254,18.141160914191317,,,,,,,,,,,,
48265,0,USTexasKerr,Texas,Kerr,2022-04-28 09:13:11,2021-12-02,0.940740605619439,2.1620898321948006,5.3458527725707325,,,,,,,,,,,,
48265,0,USTexasKerr,Texas,Kerr,2022-04-28 09:13:11,2021-12-03,0.940740605619439,2.1620898321948006,5.3458527725707325,,,,,,,,,,,,
48265,0,USTexasKerr,Texas,Kerr,2022-04-28 09:13:11,2021-12-04,0.940740605619439,2.1620898321948006,5.3458527725707325,,,,,,,,,,,,
48265,0,USTexasKerr,Texas,Kerr,2022-04-28 09:13:11,2021-12-05,0.940740605619439,2.1620898321948006,5.3458527725707325,,,,,,,,,,,,
48265,0,USTexasKerr,Texas,Kerr,2022-04-28 09:13:11,2021-12-06,0.940740605619439,2.1620898321948006,5.3458527725707325,,,,,,,,,,,,
48265,0,USTexasKerr,Texas,Kerr,2022-04-28 09:13:11,2021-12-07,0.940740605619439,2.1620898321948006,5.3458527725707325,,,,,,,,,,,,
48265,0,USTexasKerr,Texas,Kerr,2022-04-28 09:13:11,2021-12-08,0.940740605619439,2.1620898321948006,5.3458527725707325,,,,,,,,,,,,
48265,0,USTexasKerr,Texas,Kerr,2022-04-28 09:13:11,2021-12-09,0.3597975085634605,0.8770275848413098,2.3006410029646966,,,,,,,,,,,,
48265,0,USTexasKerr,Texas,Kerr,2022-04-28 09:13:11,2021-12-10,0.3597975085634605,0.8770275848413098,2.3006410029646966,,,,,,,,,,,,
48265,0,USTexasKerr,Texas,Kerr,2022-04-28 09:13:11,2021-12-11,0.3597975085634605,0.8770275848413098,2.3006410029646966,,,,,,,,,,,,
48265,0,USTexasKerr,Texas,Kerr,2022-04-28 09:13:11,2021-12-12,0.3597975085634605,0.8770275848413098,2.3006410029646966,,,,,,,,,,,,
48265,0,USTexasKerr,Texas,Kerr,2022-04-28 09:13:11,2021-12-13,0.3597975085634605,0.8770275848413098,2.3006410029646966,,,,,,,,,,,,
48265,0,USTexasKerr,Texas,Kerr,2022-04-28 09:13:11,2021-12-14,0.3597975085634605,0.8770275848413098,2.3006410029646966,,,,,,,,,,,,
48265,0,USTexasKerr,Texas,Kerr,2022-04-28 09:13:11,2021-12-15,0.3597975085634605,0.8770275848413098,2.3006410029646966,,,,,,,,,,,,
48265,0,USTexasKerr,Texas,Kerr,2022-04-28 09:13:11,2021-12-16,0.3427209987672414,0.8681555703394113,2.3664423672258024,,,,,,,,,,,,
48265,0,USTexasKerr,Texas,Kerr,2022-04-28 09:13:11,2021-12-17,0.3427209987672414,0.8681555703394113,2.3664423672258024,,,,,,,,,,,,
48265,0,USTexasKerr,Texas,Kerr,2022-04-28 09:13:11,2021-12-18,0.3427209987672414,0.8681555703394113,2.3664423672258024,,,,,,,,,,,,
48265,0,USTexasKerr,Texas,Kerr,2022-04-28 09:13:11,2021-12-19,0.3427209987672414,0.8681555703394113,2.3664423672258024,,,,,,,,,,,,
48265,0,USTexasKerr,Texas,Kerr,2022-04-28 09:13:11,2021-12-20,0.3427209987672414,0.8681555703394113,2.3664423672258024,,,,,,,,,,,,
48265,0,USTexasKerr,Texas,Kerr,2022-04-28 09:13:11,2021-12-21,0.3427209987672414,0.8681555703394113,2.3664423672258024,,,,,,,,,,,,
48265,0,USTexasKerr,Texas,Kerr,2022-04-28 09:13:11,2021-12-22,0.3427209987672414,0.8681555703394113,2.3664423672258024,,,,,,,,,,,,
48265,0,USTexasKerr,Texas,Kerr,2022-04-28 09:13:11,2021-12-23,0.42754855234793093,1.0997959178030585,3.0439540582680387,,,,,,,,,,,,
48265,0,USTexasKerr,Texas,Kerr,2022-04-28 09:13:11,2021-12-24,0.42754855234793093,1.0997959178030585,3.0439540582680387,,,,,,,,,,,,
48265,0,USTexasKerr,Texas,Kerr,2022-04-28 09:13:11,2021-12-25,0.42754855234793093,1.0997959178030585,3.0439540582680387,,,,,,,,,,,,
48265,0,USTexasKerr,Texas,Kerr,2022-04-28 09:13:11,2021-12-26,0.42754855234793093,1.0997959178030585,3.0439540582680387,,,,,,,,,,,,
48265,0,USTexasKerr,Texas,Kerr,2022-04-28 09:13:11,2021-12-27,0.42754855234793093,1.0997959178030585,3.0439540582680387,,,,,,,,,,,,
48265,0,USTexasKerr,Texas,Kerr,2022-04-28 09:13:11,2021-12-28,0.42754855234793093,1.0997959178030585,3.0439540582680387,,,,,,,,,,,,
48265,0,USTexasKerr,Texas,Kerr,2022-04-28 09:13:11,2021-12-29,0.42754855234793093,1.0997959178030585,3.0439540582680387,,,,,,,,,,,,
48265,0,USTexasKerr,Texas,Kerr,2022-04-28 09:13:11,2021-12-30,1.449017120546858,3.2967075398494172,8.068189213559128,,,,,,,,,,,,
48265,0,USTexasKerr,Texas,Kerr,2022-04-28 09:13:11,2021-12-31,1.449017120546858,3.2967075398494172,8.068189213559128,,,,,,,,,,,,
48265,0,USTexasKerr,Texas,Kerr,2022-04-28 09:13:11,2022-01-01,1.449017120546858,3.2967075398494172,8.068189213559128,,,,,,,,,,,,
48265,0,USTexasKerr,Texas,Kerr,2022-04-28 09:13:11,2022-01-02,1.449017120546858,3.2967075398494172,8.068189213559128,,,,,,,,,,,,
48265,0,USTexasKerr,Texas,Kerr,2022-04-28 09:13:11,2022-01-03,1.449017120546858,3.2967075398494172,8.068189213559128,,,,,,,,,,,,
48265,0,USTexasKerr,Texas,Kerr,2022-04-28 09:13:11,2022-01-04,1.449017120546858,3.2967075398494172,8.068189213559128,,,,,,,,,,,,
48265,0,USTexasKerr,Texas,Kerr,2022-04-28 09:13:11,2022-01-05,1.449017120546858,3.2967075398494172,8.068189213559128,,,,,,,,,,,,
48265,0,USTexasKerr,Texas,Kerr,2022-04-28 09:13:11,2022-01-06,2.3409979987133074,4.992557323746687,11.439597362093847,,,,,,,,,,,,
48265,0,USTexasKerr,Texas,Kerr,2022-04-28 09:13:11,2022-01-07,2.3409979987133074,4.992557323746687,11.439597362093847,,,,,,,,,,,,
48265,0,USTexasKerr,Texas,Kerr,2022-04-28 09:13:11,2022-01-08,2.3409979987133074,4.992557323746687,11.439597362093847,,,,,,,,,,,,
48265,0,USTexasKerr,Texas,Kerr,2022-04-28 09:13:11,2022-01-09,2.3409979987133074,4.992557323746687,11.439597362093847,,,,,,,,,,,,
48265,0,USTexasKerr,Texas,Kerr,2022-04-28 09:13:11,2022-01-10,2.3409979987133074,4.992557323746687,11.439597362093847,,,,,,,,,,,,
48265,0,USTexasKerr,Texas,Kerr,2022-04-28 09:13:11,2022-01-11,2.3409979987133074,4.992557323746687,11.439597362093847,,,,,,,,,,,,
48265,0,USTexasKerr,Texas,Kerr,2022-04-28 09:13:11,2022-01-12,2.3409979987133074,4.992557323746687,11.439597362093847,,,,,,,,,,,,
48265,0,USTexasKerr,Texas,Kerr,2022-04-28 09:13:11,2022-01-13,4.043612246180837,8.065845463486454,17.248859045442156,,,,,,,,,,,,
48265,0,USTexasKerr,Texas,Kerr,2022-04-28 09:13:11,2022-01-14,4.043612246180837,8.065845463486454,17.248859045442156,,,,,,,,,,,,
48265,0,USTexasKerr,Texas,Kerr,2022-04-28 09:13:11,2022-01-15,4.043612246180837,8.065845463486454,17.248859045442156,,,,,,,,,,,,
48265,0,USTexasKerr,Texas,Kerr,2022-04-28 09:13:11,2022-01-16,4.043612246180837,8.065845463486454,17.248859045442156,,,,,,,,,,,,
48265,0,USTexasKerr,Texas,Kerr,2022-04-28 09:13:11,2022-01-17,4.043612246180837,8.065845463486454,17.248859045442156,,,,,,,,,,,,
48265,0,USTexasKerr,Texas,Kerr,2022-04-28 09:13:11,2022-01-18,4.043612246180837,8.065845463486454,17.248859045442156,,,,,,,,,,,,
48265,0,USTexasKerr,Texas,Kerr,2022-04-28 09:13:11,2022-01-19,4.043612246180837,8.065845463486454,17.248859045442156,,,,,,,,,,,,
48265,0,USTexasKerr,Texas,Kerr,2022-04-28 09:13:11,2022-01-20,4.22023542795529,9.20243507320579,21.570206079022164,,,,,,,,,,,,
48265,0,USTexasKerr,Texas,Kerr,2022-04-28 09:13:11,2022-01-21,4.22023542795529,9.20243507320579,21.570206079022164,,,,,,,,,,,,
48265,0,USTexasKerr,Texas,Kerr,2022-04-28 09:13:11,2022-01-22,4.22023542795529,9.20243507320579,21.570206079022164,,,,,,,,,,,,
48265,0,USTexasKerr,Texas,Kerr,2022-04-28 09:13:11,2022-01-23,4.22023542795529,9.20243507320579,21.570206079022164,,,,,,,,,,,,
48265,0,USTexasKerr,Texas,Kerr,2022-04-28 09:13:11,2022-01-24,4.22023542795529,9.20243507320579,21.570206079022164,,,,,,,,,,,,
48265,0,USTexasKerr,Texas,Kerr,2022-04-28 09:13:11,2022-01-25,4.22023542795529,9.20243507320579,21.570206079022164,,,,,,,,,,,,
48265,0,USTexasKerr,Texas,Kerr,2022-04-28 09:13:11,2022-01-26,4.22023542795529,9.20243507320579,21.570206079022164,,,,,,,,,,,,
48265,0,USTexasKerr,Texas,Kerr,2022-04-28 09:13:11,2022-01-27,3.325872002823596,7.130253700787834,16.425777022573413,,,,,,,,,,,,
48265,0,USTexasKerr,Texas,Kerr,2022-04-28 09:13:11,2022-01-28,3.325872002823596,7.130253700787834,16.425777022573413,,,,,,,,,,,,
48265,0,USTexasKerr,Texas,Kerr,2022-04-28 09:13:11,2022-01-29,3.325872002823596,7.130253700787834,16.425777022573413,,,,,,,,,,,,
48265,0,USTexasKerr,Texas,Kerr,2022-04-28 09:13:11,2022-01-30,3.325872002823596,7.130253700787834,16.425777022573413,,,,,,,,,,,,
48265,0,USTexasKerr,Texas,Kerr,2022-04-28 09:13:11,2022-01-31,3.325872002823596,7.130253700787834,16.425777022573413,,,,,,,,,,,,
48265,0,USTexasKerr,Texas,Kerr,2022-04-28 09:13:11,2022-02-01,3.325872002823596,7.130253700787834,16.425777022573413,,,,,,,,,,,,
48265,0,USTexasKerr,Texas,Kerr,2022-04-28 09:13:11,2022-02-02,3.325872002823596,7.130253700787834,16.425777022573413,,,,,,,,,,,,
48265,0,USTexasKerr,Texas,Kerr,2022-04-28 09:13:11,2022-02-03,1.6208164314529618,3.8011015238945274,9.591838242322194,,,,,,,,,,,,
48265,0,USTexasKerr,Texas,Kerr,2022-04-28 09:13:11,2022-02-04,1.6208164314529618,3.8011015238945274,9.591838242322194,,,,,,,,,,,,
48265,0,USTexasKerr,Texas,Kerr,2022-04-28 09:13:11,2022-02-05,1.6208164314529618,3.8011015238945274,9.591838242322194,,,,,,,,,,,,
48265,0,USTexasKerr,Texas,Kerr,2022-04-28 09:13:11,2022-02-06,1.6208164314529618,3.8011015238945274,9.591838242322194,,,,,,,,,,,,
48265,0,USTexasKerr,Texas,Kerr,2022-04-28 09:13:11,2022-02-07,1.6208164314529618,3.8011015238945274,9.591838242322194,,,,,,,,,,,,
48265,0,USTexasKerr,Texas,Kerr,2022-04-28 09:13:11,2022-02-08,1.6208164314529618,3.8011015238945274,9.591838242322194,,,,,,,,,,,,
48265,0,USTexasKerr,Texas,Kerr,2022-04-28 09:13:11,2022-02-09,1.6208164314529618,3.8011015238945274,9.591838242322194,,,,,,,,,,,,
48265,0,USTexasKerr,Texas,Kerr,2022-04-28 09:13:11,2022-02-10,0.661047146813536,1.6220429170251647,4.283246628733227,,,,,,,,,,,,
48265,0,USTexasKerr,Texas,Kerr,2022-04-28 09:13:11,2022-02-11,0.661047146813536,1.6220429170251647,4.283246628733227,,,,,,,,,,,,
48265,0,USTexasKerr,Texas,Kerr,2022-04-28 09:13:11,2022-02-12,0.661047146813536,1.6220429170251647,4.283246628733227,,,,,,,,,,,,
48265,0,USTexasKerr,Texas,Kerr,2022-04-28 09:13:11,2022-02-13,0.661047146813536,1.6220429170251647,4.283246628733227,,,,,,,,,,,,
48265,0,USTexasKerr,Texas,Kerr,2022-04-28 09:13:11,2022-02-14,0.661047146813536,1.6220429170251647,4.283246628733227,,,,,,,,,,,,
48265,0,USTexasKerr,Texas,Kerr,2022-04-28 09:13:11,2022-02-15,0.661047146813536,1.6220429170251647,4.283246628733227,,,,,,,,,,,,
48265,0,USTexasKerr,Texas,Kerr,2022-04-28 09:13:11,2022-02-16,0.661047146813536,1.6220429170251647,4.283246628733227,,,,,,,,,,,,
48265,0,USTexasKerr,Texas,Kerr,2022-04-28 09:13:11,2022-02-17,0.6126731663393046,1.537823166243104,4.153780787798424,,,,,,,,,,,,
48265,0,USTexasKerr,Texas,Kerr,2022-04-28 09:13:11,2022-02-18,0.6126731663393046,1.537823166243104,4.153780787798424,,,,,,,,,,,,
48265,0,USTexasKerr,Texas,Kerr,2022-04-28 09:13:11,2022-02-19,0.6126731663393046,1.537823166243104,4.153780787798424,,,,,,,,,,,,
48265,0,USTexasKerr,Texas,Kerr,2022-04-28 09:13:11,2022-02-20,0.6126731663393046,1.537823166243104,4.153780787798424,,,,,,,,,,,,
48265,0,USTexasKerr,Texas,Kerr,2022-04-28 09:13:11,2022-02-21,0.6126731663393046,1.537823166243104,4.153780787798424,,,,,,,,,,,,
48265,0,USTexasKerr,Texas,Kerr,2022-04-28 09:13:11,2022-02-22,0.6126731663393046,1.537823166243104,4.153780787798424,,,,,,,,,,,,
48265,0,USTexasKerr,Texas,Kerr,2022-04-28 09:13:11,2022-02-23,0.6126731663393046,1.537823166243104,4.153780787798424,,,,,,,,,,,,
48265,0,USTexasKerr,Texas,Kerr,2022-04-28 09:13:11,2022-02-24,0.8564019427508726,2.1323137838195736,5.713413615319654,,,,,,,,,,,,
48265,0,USTexasKerr,Texas,Kerr,2022-04-28 09:13:11,2022-02-25,0.8564019427508726,2.1323137838195736,5.713413615319654,,,,,,,,,,,,
48265,0,USTexasKerr,Texas,Kerr,2022-04-28 09:13:11,2022-02-26,0.8564019427508726,2.1323137838195736,5.713413615319654,,,,,,,,,,,,
48265,0,USTexasKerr,Texas,Kerr,2022-04-28 09:13:11,2022-02-27,0.8564019427508726,2.1323137838195736,5.713413615319654,,,,,,,,,,,,
48265,0,USTexasKerr,Texas,Kerr,2022-04-28 09:13:11,2022-02-28,0.8564019427508726,2.1323137838195736,5.713413615319654,,,,,,,,,,,,
48265,0,USTexasKerr,Texas,Kerr,2022-04-28 09:13:11,2022-03-01,0.8564019427508726,2.1323137838195736,5.713413615319654,,,,,,,,,,,,
48265,0,USTexasKerr,Texas,Kerr,2022-04-28 09:13:11,2022-03-02,0.8564019427508726,2.1323137838195736,5.713413615319654,,,,,,,,,,,,
48265,0,USTexasKerr,Texas,Kerr,2022-04-28 09:13:11,2022-03-03,0.27241487161213135,0.7061405881610229,1.9693564714465577,,,,,,,,,,,,
48265,0,USTexasKerr,Texas,Kerr,2022-04-28 09:13:11,2022-03-04,0.27241487161213135,0.7061405881610229,1.9693564714465577,,,,,,,,,,,,
48265,0,USTexasKerr,Texas,Kerr,2022-04-28 09:13:11,2022-03-05,0.27241487161213135,0.7061405881610229,1.9693564714465577,,,,,,,,,,,,
48265,0,USTexasKerr,Texas,Kerr,2022-04-28 09:13:11,2022-03-06,0.27241487161213135,0.7061405881610229,1.9693564714465577,,,,,,,,,,,,
48265,0,USTexasKerr,Texas,Kerr,2022-04-28 09:13:11,2022-03-07,0.27241487161213135,0.7061405881610229,1.9693564714465577,,,,,,,,,,,,
48265,0,USTexasKerr,Texas,Kerr,2022-04-28 09:13:11,2022-03-08,0.27241487161213135,0.7061405881610229,1.9693564714465577,,,,,,,,,,,,
48265,0,USTexasKerr,Texas,Kerr,2022-04-28 09:13:11,2022-03-09,0.27241487161213135,0.7061405881610229,1.9693564714465577,,,,,,,,,,,,
48265,0,USTexasKerr,Texas,Kerr,2022-04-28 09:13:11,2022-03-10,0.23177935829131352,0.6117839574705343,1.737071745370749,,,,,,,,,,,,
48265,0,USTexasKerr,Texas,Kerr,2022-04-28 09:13:11,2022-03-11,0.23177935829131352,0.6117839574705343,1.737071745370749,,,,,,,,,,,,
48265,0,USTexasKerr,Texas,Kerr,2022-04-28 09:13:11,2022-03-12,0.23177935829131352,0.6117839574705343,1.737071745370749,,,,,,,,,,,,
48265,0,USTexasKerr,Texas,Kerr,2022-04-28 09:13:11,2022-03-13,0.23177935829131352,0.6117839574705343,1.737071745370749,,,,,,,,,,,,
48265,0,USTexasKerr,Texas,Kerr,2022-04-28 09:13:11,2022-03-14,0.23177935829131352,0.6117839574705343,1.737071745370749,,,,,,,,,,,,
48265,0,USTexasKerr,Texas,Kerr,2022-04-28 09:13:11,2022-03-15,0.23177935829131352,0.6117839574705343,1.737071745370749,,,,,,,,,,,,
48265,0,USTexasKerr,Texas,Kerr,2022-04-28 09:13:11,2022-03-16,0.23177935829131352,0.6117839574705343,1.737071745370749,,,,,,,,,,,,
48265,0,USTexasKerr,Texas,Kerr,2022-04-28 09:13:11,2022-03-17,0.5232165537415132,1.3849793233647154,3.943552879357649,,,,,,,,,,,,
48265,0,USTexasKerr,Texas,Kerr,2022-04-28 09:13:11,2022-03-18,0.5232165537415132,1.3849793233647154,3.943552879357649,,,,,,,,,,,,
48265,0,USTexasKerr,Texas,Kerr,2022-04-28 09:13:11,2022-03-19,0.5232165537415132,1.3849793233647154,3.943552879357649,,,,,,,,,,,,
48265,0,USTexasKerr,Texas,Kerr,2022-04-28 09:13:11,2022-03-20,0.5232165537415132,1.3849793233647154,3.943552879357649,,,,,,,,,,,,
48265,0,USTexasKerr,Texas,Kerr,2022-04-28 09:13:11,2022-03-21,0.5232165537415132,1.3849793233647154,3.943552879357649,,,,,,,,,,,,
48265,0,USTexasKerr,Texas,Kerr,2022-04-28 09:13:11,2022-03-22,0.5232165537415132,1.3849793233647154,3.943552879357649,,,,,,,,,,,,
48265,0,USTexasKerr,Texas,Kerr,2022-04-28 09:13:11,2022-03-23,0.5232165537415132,1.3849793233647154,3.943552879357649,,,,,,,,,,,,
48265,0,USTexasKerr,Texas,Kerr,2022-04-28 09:13:11,2022-03-24,0.7460247923796767,2.0063715017342063,5.803191500967323,,,,,,,,,,,,
48265,0,USTexasKerr,Texas,Kerr,2022-04-28 09:13:11,2022-03-25,0.7460247923796767,2.0063715017342063,5.803191500967323,,,,,,,,,,,,
48265,0,USTexasKerr,Texas,Kerr,2022-04-28 09:13:11,2022-03-26,0.7460247923796767,2.0063715017342063,5.803191500967323,,,,,,,,,,,,
48265,0,USTexasKerr,Texas,Kerr,2022-04-28 09:13:11,2022-03-27,0.7460247923796767,2.0063715017342063,5.803191500967323,,,,,,,,,,,,
48265,0,USTexasKerr,Texas,Kerr,2022-04-28 09:13:11,2022-03-28,0.7460247923796767,2.0063715017342063,5.803191500967323,,,,,,,,,,,,
48265,0,USTexasKerr,Texas,Kerr,2022-04-28 09:13:11,2022-03-29,0.7460247923796767,2.0063715017342063,5.803191500967323,,,,,,,,,,,,
48265,0,USTexasKerr,Texas,Kerr,2022-04-28 09:13:11,2022-03-30,0.7460247923796767,2.0063715017342063,5.803191500967323,,,,,,,,,,,,
48265,0,USTexasKerr,Texas,Kerr,2022-04-28 09:13:11,2022-03-31,0.04957833390586882,0.1386978597228299,0.41703769290765125,,,,,,,,,,,,
48265,0,USTexasKerr,Texas,Kerr,2022-04-28 09:13:11,2022-04-01,0.04957833390586882,0.1386978597228299,0.41703769290765125,,,,,,,,,,,,
48265,0,USTexasKerr,Texas,Kerr,2022-04-28 09:13:11,2022-04-02,0.04957833390586882,0.1386978597228299,0.41703769290765125,,,,,,,,,,,,
48265,0,USTexasKerr,Texas,Kerr,2022-04-28 09:13:11,2022-04-03,0.04957833390586882,0.1386978597228299,0.41703769290765125,,,,,,,,,,,,
48265,0,USTexasKerr,Texas,Kerr,2022-04-28 09:13:11,2022-04-04,0.04957833390586882,0.1386978597228299,0.41703769290765125,,,,,,,,,,,,
48265,0,USTexasKerr,Texas,Kerr,2022-04-28 09:13:11,2022-04-05,0.04957833390586882,0.1386978597228299,0.41703769290765125,,,,,,,,,,,,
48265,0,USTexasKerr,Texas,Kerr,2022-04-28 09:13:11,2022-04-06,0.04957833390586882,0.1386978597228299,0.41703769290765125,,,,,,,,,,,,
48265,0,USTexasKerr,Texas,Kerr,2022-04-28 09:13:11,2022-04-07,0.12934726137287192,0.4104086924736884,1.3952980183109938,,,,,,,,,,,,
48265,0,USTexasKerr,Texas,Kerr,2022-04-28 09:13:11,2022-04-08,0.12934726137287192,0.4104086924736884,1.3952980183109938,,,,,,,,,,,,
48265,0,USTexasKerr,Texas,Kerr,2022-04-28 09:13:11,2022-04-09,0.12934726137287192,0.4104086924736884,1.3952980183109938,,,,,,,,,,,,
48265,0,USTexasKerr,Texas,Kerr,2022-04-28 09:13:11,2022-04-10,0.12934726137287192,0.4104086924736884,1.3952980183109938,,,,,,,,,,,,
48265,0,USTexasKerr,Texas,Kerr,2022-04-28 09:13:11,2022-04-11,0.12934726137287192,0.4104086924736884,1.3952980183109938,,,,,,,,,,,,
48265,0,USTexasKerr,Texas,Kerr,2022-04-28 09:13:11,2022-04-12,0.12934726137287192,0.4104086924736884,1.3952980183109938,,,,,,,,,,,,
48265,0,USTexasKerr,Texas,Kerr,2022-04-28 09:13:11,2022-04-13,0.12934726137287192,0.4104086924736884,1.3952980183109938,,,,,,,,,,,,
48265,0,USTexasKerr,Texas,Kerr,2022-04-28 09:13:11,2022-04-14,0.17236213975818263,0.5108281216298705,1.6251918846154758,,,,,,,,,,,,
48265,0,USTexasKerr,Texas,Kerr,2022-04-28 09:13:11,2022-04-15,0.17236213975818263,0.5108281216298705,1.6251918846154758,,,,,,,,,,,,
48265,0,USTexasKerr,Texas,Kerr,2022-04-28 09:13:11,2022-04-16,0.17236213975818263,0.5108281216298705,1.6251918846154758,,,,,,,,,,,,
48265,0,USTexasKerr,Texas,Kerr,2022-04-28 09:13:11,2022-04-17,0.17236213975818263,0.5108281216298705,1.6251918846154758,,,,,,,,,,,,
48265,0,USTexasKerr,Texas,Kerr,2022-04-28 09:13:11,2022-04-18,0.17236213975818263,0.5108281216298705,1.6251918846154758,,,,,,,,,,,,
48265,0,USTexasKerr,Texas,Kerr,2022-04-28 09:13:11,2022-04-19,0.17236213975818263,0.5108281216298705,1.6251918846154758,,,,,,,,,,,,
48265,0,USTexasKerr,Texas,Kerr,2022-04-28 09:13:11,2022-04-20,0.17236213975818263,0.5108281216298705,1.6251918846154758,,,,,,,,,,,,
48265,0,USTexasKerr,Texas,Kerr,2022-04-28 09:13:11,2022-04-21,0.16148614172904163,0.48468394737928866,1.5611447041678232,,,,,,,,,,,,
48265,0,USTexasKerr,Texas,Kerr,2022-04-28 09:13:11,2022-04-22,0.16148614172904163,0.48468394737928866,1.5611447041678232,,,,,,,,,,,,
48265,0,USTexasKerr,Texas,Kerr,2022-04-28 09:13:11,2022-04-23,0.16148614172904163,0.48468394737928866,1.5611447041678232,,,,,,,,,,,,
48265,0,USTexasKerr,Texas,Kerr,2022-04-28 09:13:11,2022-04-24,0.16148614172904163,0.48468394737928866,1.5611447041678232,,,,,,,,,,,,
48265,0,USTexasKerr,Texas,Kerr,2022-04-28 09:13:11,2022-04-25,0.16148614172904163,0.48468394737928866,1.5611447041678232,,,,,,,,,,,,
48265,0,USTexasKerr,Texas,Kerr,2022-04-28 09:13:11,2022-04-26,0.16148614172904163,0.48468394737928866,1.5611447041678232,,,,,,,,,,,,
48265,0,USTexasKerr,Texas,Kerr,2022-04-28 09:13:11,2022-04-27,0.16148614172904163,0.48468394737928866,1.5611447041678232,,,,,,,,,,,,
