FIPS,HR_UID,nameid,province,region,analysisTime,dates,pointprevalence_025,pointprevalence_50,pointprevalence_975,pointinfections_025,pointinfections_50,pointinfections_975,pointinfectious_025,pointinfectious_50,pointinfectious_975,pointinfectiousprevalence_025,pointinfectiousprevalence_50,pointinfectiousprevalence_975,infectrate_025,infectrate_50,infectrate_975
53047,0,USWashingtonOkanogan,Washington,Okanogan,2022-04-28 09:13:11,2020-03-19,0,0,0,,,,,,,,,,,,
53047,0,USWashingtonOkanogan,Washington,Okanogan,2022-04-28 09:13:11,2020-03-20,0,0,0,,,,,,,,,,,,
53047,0,USWashingtonOkanogan,Washington,Okanogan,2022-04-28 09:13:11,2020-03-21,0,0,0,,,,,,,,,,,,
53047,0,USWashingtonOkanogan,Washington,Okanogan,2022-04-28 09:13:11,2020-03-22,0,0,0,,,,,,,,,,,,
53047,0,USWashingtonOkanogan,Washington,Okanogan,2022-04-28 09:13:11,2020-03-23,0,0,0,,,,,,,,,,,,
53047,0,USWashingtonOkanogan,Washington,Okanogan,2022-04-28 09:13:11,2020-03-24,0,0,0,,,,,,,,,,,,
53047,0,USWashingtonOkanogan,Washington,Okanogan,2022-04-28 09:13:11,2020-03-25,0,0,0,,,,,,,,,,,,
53047,0,USWashingtonOkanogan,Washington,Okanogan,2022-04-28 09:13:11,2020-03-26,0.0691875151924199,0.2705784480834939,1.1252321652228205,,,,,,,,,,,,
53047,0,USWashingtonOkanogan,Washington,Okanogan,2022-04-28 09:13:11,2020-03-27,0.0691875151924199,0.2705784480834939,1.1252321652228205,,,,,,,,,,,,
53047,0,USWashingtonOkanogan,Washington,Okanogan,2022-04-28 09:13:11,2020-03-28,0.0691875151924199,0.2705784480834939,1.1252321652228205,,,,,,,,,,,,
53047,0,USWashingtonOkanogan,Washington,Okanogan,2022-04-28 09:13:11,2020-03-29,0.0691875151924199,0.2705784480834939,1.1252321652228205,,,,,,,,,,,,
53047,0,USWashingtonOkanogan,Washington,Okanogan,2022-04-28 09:13:11,2020-03-30,0.0691875151924199,0.2705784480834939,1.1252321652228205,,,,,,,,,,,,
53047,0,USWashingtonOkanogan,Washington,Okanogan,2022-04-28 09:13:11,2020-03-31,0.0691875151924199,0.2705784480834939,1.1252321652228205,,,,,,,,,,,,
53047,0,USWashingtonOkanogan,Washington,Okanogan,2022-04-28 09:13:11,2020-04-01,0.0691875151924199,0.2705784480834939,1.1252321652228205,,,,,,,,,,,,
53047,0,USWashingtonOkanogan,Washington,Okanogan,2022-04-28 09:13:11,2020-04-02,0.12270558333943933,0.38261546277217934,1.279009807662701,,,,,,,,,,,,
53047,0,USWashingtonOkanogan,Washington,Okanogan,2022-04-28 09:13:11,2020-04-03,0.12270558333943933,0.38261546277217934,1.279009807662701,,,,,,,,,,,,
53047,0,USWashingtonOkanogan,Washington,Okanogan,2022-04-28 09:13:11,2020-04-04,0.12270558333943933,0.38261546277217934,1.279009807662701,,,,,,,,,,,,
53047,0,USWashingtonOkanogan,Washington,Okanogan,2022-04-28 09:13:11,2020-04-05,0.12270558333943933,0.38261546277217934,1.279009807662701,,,,,,,,,,,,
53047,0,USWashingtonOkanogan,Washington,Okanogan,2022-04-28 09:13:11,2020-04-06,0.12270558333943933,0.38261546277217934,1.279009807662701,,,,,,,,,,,,
53047,0,USWashingtonOkanogan,Washington,Okanogan,2022-04-28 09:13:11,2020-04-07,0.12270558333943933,0.38261546277217934,1.279009807662701,,,,,,,,,,,,
53047,0,USWashingtonOkanogan,Washington,Okanogan,2022-04-28 09:13:11,2020-04-08,0.12270558333943933,0.38261546277217934,1.279009807662701,,,,,,,,,,,,
53047,0,USWashingtonOkanogan,Washington,Okanogan,2022-04-28 09:13:11,2020-04-09,0.09466743491315735,0.31488516447352227,1.1205812541466573,,,,,,,,,,,,
53047,0,USWashingtonOkanogan,Washington,Okanogan,2022-04-28 09:13:11,2020-04-10,0.09466743491315735,0.31488516447352227,1.1205812541466573,,,,,,,,,,,,
53047,0,USWashingtonOkanogan,Washington,Okanogan,2022-04-28 09:13:11,2020-04-11,0.09466743491315735,0.31488516447352227,1.1205812541466573,,,,,,,,,,,,
53047,0,USWashingtonOkanogan,Washington,Okanogan,2022-04-28 09:13:11,2020-04-12,0.09466743491315735,0.31488516447352227,1.1205812541466573,,,,,,,,,,,,
53047,0,USWashingtonOkanogan,Washington,Okanogan,2022-04-28 09:13:11,2020-04-13,0.09466743491315735,0.31488516447352227,1.1205812541466573,,,,,,,,,,,,
53047,0,USWashingtonOkanogan,Washington,Okanogan,2022-04-28 09:13:11,2020-04-14,0.09466743491315735,0.31488516447352227,1.1205812541466573,,,,,,,,,,,,
53047,0,USWashingtonOkanogan,Washington,Okanogan,2022-04-28 09:13:11,2020-04-15,0.09466743491315735,0.31488516447352227,1.1205812541466573,,,,,,,,,,,,
53047,0,USWashingtonOkanogan,Washington,Okanogan,2022-04-28 09:13:11,2020-04-16,0,0,0,,,,,,,,,,,,
53047,0,USWashingtonOkanogan,Washington,Okanogan,2022-04-28 09:13:11,2020-04-17,0,0,0,,,,,,,,,,,,
53047,0,USWashingtonOkanogan,Washington,Okanogan,2022-04-28 09:13:11,2020-04-18,0,0,0,,,,,,,,,,,,
53047,0,USWashingtonOkanogan,Washington,Okanogan,2022-04-28 09:13:11,2020-04-19,0,0,0,,,,,,,,,,,,
53047,0,USWashingtonOkanogan,Washington,Okanogan,2022-04-28 09:13:11,2020-04-20,0,0,0,,,,,,,,,,,,
53047,0,USWashingtonOkanogan,Washington,Okanogan,2022-04-28 09:13:11,2020-04-21,0,0,0,,,,,,,,,,,,
53047,0,USWashingtonOkanogan,Washington,Okanogan,2022-04-28 09:13:11,2020-04-22,0,0,0,,,,,,,,,,,,
53047,0,USWashingtonOkanogan,Washington,Okanogan,2022-04-28 09:13:11,2020-04-23,0.11036603732189416,0.3144721684606056,0.9627299511903078,,,,,,,,,,,,
53047,0,USWashingtonOkanogan,Washington,Okanogan,2022-04-28 09:13:11,2020-04-24,0.11036603732189416,0.3144721684606056,0.9627299511903078,,,,,,,,,,,,
53047,0,USWashingtonOkanogan,Washington,Okanogan,2022-04-28 09:13:11,2020-04-25,0.11036603732189416,0.3144721684606056,0.9627299511903078,,,,,,,,,,,,
53047,0,USWashingtonOkanogan,Washington,Okanogan,2022-04-28 09:13:11,2020-04-26,0.11036603732189416,0.3144721684606056,0.9627299511903078,,,,,,,,,,,,
53047,0,USWashingtonOkanogan,Washington,Okanogan,2022-04-28 09:13:11,2020-04-27,0.11036603732189416,0.3144721684606056,0.9627299511903078,,,,,,,,,,,,
53047,0,USWashingtonOkanogan,Washington,Okanogan,2022-04-28 09:13:11,2020-04-28,0.11036603732189416,0.3144721684606056,0.9627299511903078,,,,,,,,,,,,
53047,0,USWashingtonOkanogan,Washington,Okanogan,2022-04-28 09:13:11,2020-04-29,0.11036603732189416,0.3144721684606056,0.9627299511903078,,,,,,,,,,,,
53047,0,USWashingtonOkanogan,Washington,Okanogan,2022-04-28 09:13:11,2020-04-30,0.026072508615829854,0.11249856775108638,0.5140220381835854,,,,,,,,,,,,
53047,0,USWashingtonOkanogan,Washington,Okanogan,2022-04-28 09:13:11,2020-05-01,0.026072508615829854,0.11249856775108638,0.5140220381835854,,,,,,,,,,,,
53047,0,USWashingtonOkanogan,Washington,Okanogan,2022-04-28 09:13:11,2020-05-02,0.026072508615829854,0.11249856775108638,0.5140220381835854,,,,,,,,,,,,
53047,0,USWashingtonOkanogan,Washington,Okanogan,2022-04-28 09:13:11,2020-05-03,0.026072508615829854,0.11249856775108638,0.5140220381835854,,,,,,,,,,,,
53047,0,USWashingtonOkanogan,Washington,Okanogan,2022-04-28 09:13:11,2020-05-04,0.026072508615829854,0.11249856775108638,0.5140220381835854,,,,,,,,,,,,
53047,0,USWashingtonOkanogan,Washington,Okanogan,2022-04-28 09:13:11,2020-05-05,0.026072508615829854,0.11249856775108638,0.5140220381835854,,,,,,,,,,,,
53047,0,USWashingtonOkanogan,Washington,Okanogan,2022-04-28 09:13:11,2020-05-06,0.026072508615829854,0.11249856775108638,0.5140220381835854,,,,,,,,,,,,
53047,0,USWashingtonOkanogan,Washington,Okanogan,2022-04-28 09:13:11,2020-05-07,0.12752601001227779,0.33130180828345035,0.9260049306054653,,,,,,,,,,,,
53047,0,USWashingtonOkanogan,Washington,Okanogan,2022-04-28 09:13:11,2020-05-08,0.12752601001227779,0.33130180828345035,0.9260049306054653,,,,,,,,,,,,
53047,0,USWashingtonOkanogan,Washington,Okanogan,2022-04-28 09:13:11,2020-05-09,0.12752601001227779,0.33130180828345035,0.9260049306054653,,,,,,,,,,,,
53047,0,USWashingtonOkanogan,Washington,Okanogan,2022-04-28 09:13:11,2020-05-10,0.12752601001227779,0.33130180828345035,0.9260049306054653,,,,,,,,,,,,
53047,0,USWashingtonOkanogan,Washington,Okanogan,2022-04-28 09:13:11,2020-05-11,0.12752601001227779,0.33130180828345035,0.9260049306054653,,,,,,,,,,,,
53047,0,USWashingtonOkanogan,Washington,Okanogan,2022-04-28 09:13:11,2020-05-12,0.12752601001227779,0.33130180828345035,0.9260049306054653,,,,,,,,,,,,
53047,0,USWashingtonOkanogan,Washington,Okanogan,2022-04-28 09:13:11,2020-05-13,0.12752601001227779,0.33130180828345035,0.9260049306054653,,,,,,,,,,,,
53047,0,USWashingtonOkanogan,Washington,Okanogan,2022-04-28 09:13:11,2020-05-14,0.14176104059515027,0.338837172426253,0.871538875903276,,,,,,,,,,,,
53047,0,USWashingtonOkanogan,Washington,Okanogan,2022-04-28 09:13:11,2020-05-15,0.14176104059515027,0.338837172426253,0.871538875903276,,,,,,,,,,,,
53047,0,USWashingtonOkanogan,Washington,Okanogan,2022-04-28 09:13:11,2020-05-16,0.14176104059515027,0.338837172426253,0.871538875903276,,,,,,,,,,,,
53047,0,USWashingtonOkanogan,Washington,Okanogan,2022-04-28 09:13:11,2020-05-17,0.14176104059515027,0.338837172426253,0.871538875903276,,,,,,,,,,,,
53047,0,USWashingtonOkanogan,Washington,Okanogan,2022-04-28 09:13:11,2020-05-18,0.14176104059515027,0.338837172426253,0.871538875903276,,,,,,,,,,,,
53047,0,USWashingtonOkanogan,Washington,Okanogan,2022-04-28 09:13:11,2020-05-19,0.14176104059515027,0.338837172426253,0.871538875903276,,,,,,,,,,,,
53047,0,USWashingtonOkanogan,Washington,Okanogan,2022-04-28 09:13:11,2020-05-20,0.14176104059515027,0.338837172426253,0.871538875903276,,,,,,,,,,,,
53047,0,USWashingtonOkanogan,Washington,Okanogan,2022-04-28 09:13:11,2020-05-21,0.08099402370366134,0.236185477696369,0.7396298719975213,,,,,,,,,,,,
53047,0,USWashingtonOkanogan,Washington,Okanogan,2022-04-28 09:13:11,2020-05-22,0.08099402370366134,0.236185477696369,0.7396298719975213,,,,,,,,,,,,
53047,0,USWashingtonOkanogan,Washington,Okanogan,2022-04-28 09:13:11,2020-05-23,0.08099402370366134,0.236185477696369,0.7396298719975213,,,,,,,,,,,,
53047,0,USWashingtonOkanogan,Washington,Okanogan,2022-04-28 09:13:11,2020-05-24,0.08099402370366134,0.236185477696369,0.7396298719975213,,,,,,,,,,,,
53047,0,USWashingtonOkanogan,Washington,Okanogan,2022-04-28 09:13:11,2020-05-25,0.08099402370366134,0.236185477696369,0.7396298719975213,,,,,,,,,,,,
53047,0,USWashingtonOkanogan,Washington,Okanogan,2022-04-28 09:13:11,2020-05-26,0.08099402370366134,0.236185477696369,0.7396298719975213,,,,,,,,,,,,
53047,0,USWashingtonOkanogan,Washington,Okanogan,2022-04-28 09:13:11,2020-05-27,0.08099402370366134,0.236185477696369,0.7396298719975213,,,,,,,,,,,,
53047,0,USWashingtonOkanogan,Washington,Okanogan,2022-04-28 09:13:11,2020-05-28,0.11746478358395704,0.3147619958698022,0.9071417215830588,,,,,,,,,,,,
53047,0,USWashingtonOkanogan,Washington,Okanogan,2022-04-28 09:13:11,2020-05-29,0.11746478358395704,0.3147619958698022,0.9071417215830588,,,,,,,,,,,,
53047,0,USWashingtonOkanogan,Washington,Okanogan,2022-04-28 09:13:11,2020-05-30,0.11746478358395704,0.3147619958698022,0.9071417215830588,,,,,,,,,,,,
53047,0,USWashingtonOkanogan,Washington,Okanogan,2022-04-28 09:13:11,2020-05-31,0.11746478358395704,0.3147619958698022,0.9071417215830588,,,,,,,,,,,,
53047,0,USWashingtonOkanogan,Washington,Okanogan,2022-04-28 09:13:11,2020-06-01,0.11746478358395704,0.3147619958698022,0.9071417215830588,,,,,,,,,,,,
53047,0,USWashingtonOkanogan,Washington,Okanogan,2022-04-28 09:13:11,2020-06-02,0.11746478358395704,0.3147619958698022,0.9071417215830588,,,,,,,,,,,,
53047,0,USWashingtonOkanogan,Washington,Okanogan,2022-04-28 09:13:11,2020-06-03,0.11746478358395704,0.3147619958698022,0.9071417215830588,,,,,,,,,,,,
53047,0,USWashingtonOkanogan,Washington,Okanogan,2022-04-28 09:13:11,2020-06-04,0.06769429114461063,0.2048950135164466,0.6653924640818895,,,,,,,,,,,,
53047,0,USWashingtonOkanogan,Washington,Okanogan,2022-04-28 09:13:11,2020-06-05,0.06769429114461063,0.2048950135164466,0.6653924640818895,,,,,,,,,,,,
53047,0,USWashingtonOkanogan,Washington,Okanogan,2022-04-28 09:13:11,2020-06-06,0.06769429114461063,0.2048950135164466,0.6653924640818895,,,,,,,,,,,,
53047,0,USWashingtonOkanogan,Washington,Okanogan,2022-04-28 09:13:11,2020-06-07,0.06769429114461063,0.2048950135164466,0.6653924640818895,,,,,,,,,,,,
53047,0,USWashingtonOkanogan,Washington,Okanogan,2022-04-28 09:13:11,2020-06-08,0.06769429114461063,0.2048950135164466,0.6653924640818895,,,,,,,,,,,,
53047,0,USWashingtonOkanogan,Washington,Okanogan,2022-04-28 09:13:11,2020-06-09,0.06769429114461063,0.2048950135164466,0.6653924640818895,,,,,,,,,,,,
53047,0,USWashingtonOkanogan,Washington,Okanogan,2022-04-28 09:13:11,2020-06-10,0.06769429114461063,0.2048950135164466,0.6653924640818895,,,,,,,,,,,,
53047,0,USWashingtonOkanogan,Washington,Okanogan,2022-04-28 09:13:11,2020-06-11,0.08889066318086208,0.24004928538576267,0.6971365212295073,,,,,,,,,,,,
53047,0,USWashingtonOkanogan,Washington,Okanogan,2022-04-28 09:13:11,2020-06-12,0.08889066318086208,0.24004928538576267,0.6971365212295073,,,,,,,,,,,,
53047,0,USWashingtonOkanogan,Washington,Okanogan,2022-04-28 09:13:11,2020-06-13,0.08889066318086208,0.24004928538576267,0.6971365212295073,,,,,,,,,,,,
53047,0,USWashingtonOkanogan,Washington,Okanogan,2022-04-28 09:13:11,2020-06-14,0.08889066318086208,0.24004928538576267,0.6971365212295073,,,,,,,,,,,,
53047,0,USWashingtonOkanogan,Washington,Okanogan,2022-04-28 09:13:11,2020-06-15,0.08889066318086208,0.24004928538576267,0.6971365212295073,,,,,,,,,,,,
53047,0,USWashingtonOkanogan,Washington,Okanogan,2022-04-28 09:13:11,2020-06-16,0.08889066318086208,0.24004928538576267,0.6971365212295073,,,,,,,,,,,,
53047,0,USWashingtonOkanogan,Washington,Okanogan,2022-04-28 09:13:11,2020-06-17,0.08889066318086208,0.24004928538576267,0.6971365212295073,,,,,,,,,,,,
53047,0,USWashingtonOkanogan,Washington,Okanogan,2022-04-28 09:13:11,2020-06-18,0.025187093873173617,0.10572842757983825,0.470535867976112,,,,,,,,,,,,
53047,0,USWashingtonOkanogan,Washington,Okanogan,2022-04-28 09:13:11,2020-06-19,0.025187093873173617,0.10572842757983825,0.470535867976112,,,,,,,,,,,,
53047,0,USWashingtonOkanogan,Washington,Okanogan,2022-04-28 09:13:11,2020-06-20,0.025187093873173617,0.10572842757983825,0.470535867976112,,,,,,,,,,,,
53047,0,USWashingtonOkanogan,Washington,Okanogan,2022-04-28 09:13:11,2020-06-21,0.025187093873173617,0.10572842757983825,0.470535867976112,,,,,,,,,,,,
53047,0,USWashingtonOkanogan,Washington,Okanogan,2022-04-28 09:13:11,2020-06-22,0.025187093873173617,0.10572842757983825,0.470535867976112,,,,,,,,,,,,
53047,0,USWashingtonOkanogan,Washington,Okanogan,2022-04-28 09:13:11,2020-06-23,0.025187093873173617,0.10572842757983825,0.470535867976112,,,,,,,,,,,,
53047,0,USWashingtonOkanogan,Washington,Okanogan,2022-04-28 09:13:11,2020-06-24,0.025187093873173617,0.10572842757983825,0.470535867976112,,,,,,,,,,,,
53047,0,USWashingtonOkanogan,Washington,Okanogan,2022-04-28 09:13:11,2020-06-25,0.26205339573441205,0.5611491887407353,1.2911481142865804,,,,,,,,,,,,
53047,0,USWashingtonOkanogan,Washington,Okanogan,2022-04-28 09:13:11,2020-06-26,0.26205339573441205,0.5611491887407353,1.2911481142865804,,,,,,,,,,,,
53047,0,USWashingtonOkanogan,Washington,Okanogan,2022-04-28 09:13:11,2020-06-27,0.26205339573441205,0.5611491887407353,1.2911481142865804,,,,,,,,,,,,
53047,0,USWashingtonOkanogan,Washington,Okanogan,2022-04-28 09:13:11,2020-06-28,0.26205339573441205,0.5611491887407353,1.2911481142865804,,,,,,,,,,,,
53047,0,USWashingtonOkanogan,Washington,Okanogan,2022-04-28 09:13:11,2020-06-29,0.26205339573441205,0.5611491887407353,1.2911481142865804,,,,,,,,,,,,
53047,0,USWashingtonOkanogan,Washington,Okanogan,2022-04-28 09:13:11,2020-06-30,0.26205339573441205,0.5611491887407353,1.2911481142865804,,,,,,,,,,,,
53047,0,USWashingtonOkanogan,Washington,Okanogan,2022-04-28 09:13:11,2020-07-01,0.26205339573441205,0.5611491887407353,1.2911481142865804,,,,,,,,,,,,
53047,0,USWashingtonOkanogan,Washington,Okanogan,2022-04-28 09:13:11,2020-07-02,0.6604960137982477,1.1467272961234596,2.117739166748196,,,,,,,,,,,,
53047,0,USWashingtonOkanogan,Washington,Okanogan,2022-04-28 09:13:11,2020-07-03,0.6604960137982477,1.1467272961234596,2.117739166748196,,,,,,,,,,,,
53047,0,USWashingtonOkanogan,Washington,Okanogan,2022-04-28 09:13:11,2020-07-04,0.6604960137982477,1.1467272961234596,2.117739166748196,,,,,,,,,,,,
53047,0,USWashingtonOkanogan,Washington,Okanogan,2022-04-28 09:13:11,2020-07-05,0.6604960137982477,1.1467272961234596,2.117739166748196,,,,,,,,,,,,
53047,0,USWashingtonOkanogan,Washington,Okanogan,2022-04-28 09:13:11,2020-07-06,0.6604960137982477,1.1467272961234596,2.117739166748196,,,,,,,,,,,,
53047,0,USWashingtonOkanogan,Washington,Okanogan,2022-04-28 09:13:11,2020-07-07,0.6604960137982477,1.1467272961234596,2.117739166748196,,,,,,,,,,,,
53047,0,USWashingtonOkanogan,Washington,Okanogan,2022-04-28 09:13:11,2020-07-08,0.6604960137982477,1.1467272961234596,2.117739166748196,,,,,,,,,,,,
53047,0,USWashingtonOkanogan,Washington,Okanogan,2022-04-28 09:13:11,2020-07-09,0.8939984208180343,1.467924493850847,2.5521891091795106,,,,,,,,,,,,
53047,0,USWashingtonOkanogan,Washington,Okanogan,2022-04-28 09:13:11,2020-07-10,0.8939984208180343,1.467924493850847,2.5521891091795106,,,,,,,,,,,,
53047,0,USWashingtonOkanogan,Washington,Okanogan,2022-04-28 09:13:11,2020-07-11,0.8939984208180343,1.467924493850847,2.5521891091795106,,,,,,,,,,,,
53047,0,USWashingtonOkanogan,Washington,Okanogan,2022-04-28 09:13:11,2020-07-12,0.8939984208180343,1.467924493850847,2.5521891091795106,,,,,,,,,,,,
53047,0,USWashingtonOkanogan,Washington,Okanogan,2022-04-28 09:13:11,2020-07-13,0.8939984208180343,1.467924493850847,2.5521891091795106,,,,,,,,,,,,
53047,0,USWashingtonOkanogan,Washington,Okanogan,2022-04-28 09:13:11,2020-07-14,0.8939984208180343,1.467924493850847,2.5521891091795106,,,,,,,,,,,,
53047,0,USWashingtonOkanogan,Washington,Okanogan,2022-04-28 09:13:11,2020-07-15,0.8939984208180343,1.467924493850847,2.5521891091795106,,,,,,,,,,,,
53047,0,USWashingtonOkanogan,Washington,Okanogan,2022-04-28 09:13:11,2020-07-16,1.8034090981071134,2.48269860939995,3.5481177157574817,,,,,,,,,,,,
53047,0,USWashingtonOkanogan,Washington,Okanogan,2022-04-28 09:13:11,2020-07-17,1.8034090981071134,2.48269860939995,3.5481177157574817,,,,,,,,,,,,
53047,0,USWashingtonOkanogan,Washington,Okanogan,2022-04-28 09:13:11,2020-07-18,1.8034090981071134,2.48269860939995,3.5481177157574817,,,,,,,,,,,,
53047,0,USWashingtonOkanogan,Washington,Okanogan,2022-04-28 09:13:11,2020-07-19,1.8034090981071134,2.48269860939995,3.5481177157574817,,,,,,,,,,,,
53047,0,USWashingtonOkanogan,Washington,Okanogan,2022-04-28 09:13:11,2020-07-20,1.8034090981071134,2.48269860939995,3.5481177157574817,,,,,,,,,,,,
53047,0,USWashingtonOkanogan,Washington,Okanogan,2022-04-28 09:13:11,2020-07-21,1.8034090981071134,2.48269860939995,3.5481177157574817,,,,,,,,,,,,
53047,0,USWashingtonOkanogan,Washington,Okanogan,2022-04-28 09:13:11,2020-07-22,1.8034090981071134,2.48269860939995,3.5481177157574817,,,,,,,,,,,,
53047,0,USWashingtonOkanogan,Washington,Okanogan,2022-04-28 09:13:11,2020-07-23,1.2810426181134162,1.9329818012573152,3.0622379741900505,,,,,,,,,,,,
53047,0,USWashingtonOkanogan,Washington,Okanogan,2022-04-28 09:13:11,2020-07-24,1.2810426181134162,1.9329818012573152,3.0622379741900505,,,,,,,,,,,,
53047,0,USWashingtonOkanogan,Washington,Okanogan,2022-04-28 09:13:11,2020-07-25,1.2810426181134162,1.9329818012573152,3.0622379741900505,,,,,,,,,,,,
53047,0,USWashingtonOkanogan,Washington,Okanogan,2022-04-28 09:13:11,2020-07-26,1.2810426181134162,1.9329818012573152,3.0622379741900505,,,,,,,,,,,,
53047,0,USWashingtonOkanogan,Washington,Okanogan,2022-04-28 09:13:11,2020-07-27,1.2810426181134162,1.9329818012573152,3.0622379741900505,,,,,,,,,,,,
53047,0,USWashingtonOkanogan,Washington,Okanogan,2022-04-28 09:13:11,2020-07-28,1.2810426181134162,1.9329818012573152,3.0622379741900505,,,,,,,,,,,,
53047,0,USWashingtonOkanogan,Washington,Okanogan,2022-04-28 09:13:11,2020-07-29,1.2810426181134162,1.9329818012573152,3.0622379741900505,,,,,,,,,,,,
53047,0,USWashingtonOkanogan,Washington,Okanogan,2022-04-28 09:13:11,2020-07-30,1.0224743988300145,1.5722728534549277,2.5436011253076436,,,,,,,,,,,,
53047,0,USWashingtonOkanogan,Washington,Okanogan,2022-04-28 09:13:11,2020-07-31,1.0224743988300145,1.5722728534549277,2.5436011253076436,,,,,,,,,,,,
53047,0,USWashingtonOkanogan,Washington,Okanogan,2022-04-28 09:13:11,2020-08-01,1.0224743988300145,1.5722728534549277,2.5436011253076436,,,,,,,,,,,,
53047,0,USWashingtonOkanogan,Washington,Okanogan,2022-04-28 09:13:11,2020-08-02,1.0224743988300145,1.5722728534549277,2.5436011253076436,,,,,,,,,,,,
53047,0,USWashingtonOkanogan,Washington,Okanogan,2022-04-28 09:13:11,2020-08-03,1.0224743988300145,1.5722728534549277,2.5436011253076436,,,,,,,,,,,,
53047,0,USWashingtonOkanogan,Washington,Okanogan,2022-04-28 09:13:11,2020-08-04,1.0224743988300145,1.5722728534549277,2.5436011253076436,,,,,,,,,,,,
53047,0,USWashingtonOkanogan,Washington,Okanogan,2022-04-28 09:13:11,2020-08-05,1.0224743988300145,1.5722728534549277,2.5436011253076436,,,,,,,,,,,,
53047,0,USWashingtonOkanogan,Washington,Okanogan,2022-04-28 09:13:11,2020-08-06,0.6096637055532,1.0356809838599281,1.8683336085452287,,,,,,,,,,,,
53047,0,USWashingtonOkanogan,Washington,Okanogan,2022-04-28 09:13:11,2020-08-07,0.6096637055532,1.0356809838599281,1.8683336085452287,,,,,,,,,,,,
53047,0,USWashingtonOkanogan,Washington,Okanogan,2022-04-28 09:13:11,2020-08-08,0.6096637055532,1.0356809838599281,1.8683336085452287,,,,,,,,,,,,
53047,0,USWashingtonOkanogan,Washington,Okanogan,2022-04-28 09:13:11,2020-08-09,0.6096637055532,1.0356809838599281,1.8683336085452287,,,,,,,,,,,,
53047,0,USWashingtonOkanogan,Washington,Okanogan,2022-04-28 09:13:11,2020-08-10,0.6096637055532,1.0356809838599281,1.8683336085452287,,,,,,,,,,,,
53047,0,USWashingtonOkanogan,Washington,Okanogan,2022-04-28 09:13:11,2020-08-11,0.6096637055532,1.0356809838599281,1.8683336085452287,,,,,,,,,,,,
53047,0,USWashingtonOkanogan,Washington,Okanogan,2022-04-28 09:13:11,2020-08-12,0.6096637055532,1.0356809838599281,1.8683336085452287,,,,,,,,,,,,
53047,0,USWashingtonOkanogan,Washington,Okanogan,2022-04-28 09:13:11,2020-08-13,0.5580144283214902,0.9500730910685035,1.7180635984074564,,,,,,,,,,,,
53047,0,USWashingtonOkanogan,Washington,Okanogan,2022-04-28 09:13:11,2020-08-14,0.5580144283214902,0.9500730910685035,1.7180635984074564,,,,,,,,,,,,
53047,0,USWashingtonOkanogan,Washington,Okanogan,2022-04-28 09:13:11,2020-08-15,0.5580144283214902,0.9500730910685035,1.7180635984074564,,,,,,,,,,,,
53047,0,USWashingtonOkanogan,Washington,Okanogan,2022-04-28 09:13:11,2020-08-16,0.5580144283214902,0.9500730910685035,1.7180635984074564,,,,,,,,,,,,
53047,0,USWashingtonOkanogan,Washington,Okanogan,2022-04-28 09:13:11,2020-08-17,0.5580144283214902,0.9500730910685035,1.7180635984074564,,,,,,,,,,,,
53047,0,USWashingtonOkanogan,Washington,Okanogan,2022-04-28 09:13:11,2020-08-18,0.5580144283214902,0.9500730910685035,1.7180635984074564,,,,,,,,,,,,
53047,0,USWashingtonOkanogan,Washington,Okanogan,2022-04-28 09:13:11,2020-08-19,0.5580144283214902,0.9500730910685035,1.7180635984074564,,,,,,,,,,,,
53047,0,USWashingtonOkanogan,Washington,Okanogan,2022-04-28 09:13:11,2020-08-20,0.41752062452132915,0.9560883545989194,2.355267392735884,,,,,,,,,,,,
53047,0,USWashingtonOkanogan,Washington,Okanogan,2022-04-28 09:13:11,2020-08-21,0.41752062452132915,0.9560883545989194,2.355267392735884,,,,,,,,,,,,
53047,0,USWashingtonOkanogan,Washington,Okanogan,2022-04-28 09:13:11,2020-08-22,0.41752062452132915,0.9560883545989194,2.355267392735884,,,,,,,,,,,,
53047,0,USWashingtonOkanogan,Washington,Okanogan,2022-04-28 09:13:11,2020-08-23,0.41752062452132915,0.9560883545989194,2.355267392735884,,,,,,,,,,,,
53047,0,USWashingtonOkanogan,Washington,Okanogan,2022-04-28 09:13:11,2020-08-24,0.41752062452132915,0.9560883545989194,2.355267392735884,,,,,,,,,,,,
53047,0,USWashingtonOkanogan,Washington,Okanogan,2022-04-28 09:13:11,2020-08-25,0.41752062452132915,0.9560883545989194,2.355267392735884,,,,,,,,,,,,
53047,0,USWashingtonOkanogan,Washington,Okanogan,2022-04-28 09:13:11,2020-08-26,0.41752062452132915,0.9560883545989194,2.355267392735884,,,,,,,,,,,,
53047,0,USWashingtonOkanogan,Washington,Okanogan,2022-04-28 09:13:11,2020-08-27,0.20851026100366263,0.43164782263495244,0.9592533244375975,,,,,,,,,,,,
53047,0,USWashingtonOkanogan,Washington,Okanogan,2022-04-28 09:13:11,2020-08-28,0.20851026100366263,0.43164782263495244,0.9592533244375975,,,,,,,,,,,,
53047,0,USWashingtonOkanogan,Washington,Okanogan,2022-04-28 09:13:11,2020-08-29,0.20851026100366263,0.43164782263495244,0.9592533244375975,,,,,,,,,,,,
53047,0,USWashingtonOkanogan,Washington,Okanogan,2022-04-28 09:13:11,2020-08-30,0.20851026100366263,0.43164782263495244,0.9592533244375975,,,,,,,,,,,,
53047,0,USWashingtonOkanogan,Washington,Okanogan,2022-04-28 09:13:11,2020-08-31,0.20851026100366263,0.43164782263495244,0.9592533244375975,,,,,,,,,,,,
53047,0,USWashingtonOkanogan,Washington,Okanogan,2022-04-28 09:13:11,2020-09-01,0.20851026100366263,0.43164782263495244,0.9592533244375975,,,,,,,,,,,,
53047,0,USWashingtonOkanogan,Washington,Okanogan,2022-04-28 09:13:11,2020-09-02,0.20851026100366263,0.43164782263495244,0.9592533244375975,,,,,,,,,,,,
53047,0,USWashingtonOkanogan,Washington,Okanogan,2022-04-28 09:13:11,2020-09-03,0.0721365013789463,0.19037044556903984,0.5404321570634578,,,,,,,,,,,,
53047,0,USWashingtonOkanogan,Washington,Okanogan,2022-04-28 09:13:11,2020-09-04,0.0721365013789463,0.19037044556903984,0.5404321570634578,,,,,,,,,,,,
53047,0,USWashingtonOkanogan,Washington,Okanogan,2022-04-28 09:13:11,2020-09-05,0.0721365013789463,0.19037044556903984,0.5404321570634578,,,,,,,,,,,,
53047,0,USWashingtonOkanogan,Washington,Okanogan,2022-04-28 09:13:11,2020-09-06,0.0721365013789463,0.19037044556903984,0.5404321570634578,,,,,,,,,,,,
53047,0,USWashingtonOkanogan,Washington,Okanogan,2022-04-28 09:13:11,2020-09-07,0.0721365013789463,0.19037044556903984,0.5404321570634578,,,,,,,,,,,,
53047,0,USWashingtonOkanogan,Washington,Okanogan,2022-04-28 09:13:11,2020-09-08,0.0721365013789463,0.19037044556903984,0.5404321570634578,,,,,,,,,,,,
53047,0,USWashingtonOkanogan,Washington,Okanogan,2022-04-28 09:13:11,2020-09-09,0.0721365013789463,0.19037044556903984,0.5404321570634578,,,,,,,,,,,,
53047,0,USWashingtonOkanogan,Washington,Okanogan,2022-04-28 09:13:11,2020-09-10,0.3518377684109674,0.6238930627742241,1.178572107484123,,,,,,,,,,,,
53047,0,USWashingtonOkanogan,Washington,Okanogan,2022-04-28 09:13:11,2020-09-11,0.3518377684109674,0.6238930627742241,1.178572107484123,,,,,,,,,,,,
53047,0,USWashingtonOkanogan,Washington,Okanogan,2022-04-28 09:13:11,2020-09-12,0.3518377684109674,0.6238930627742241,1.178572107484123,,,,,,,,,,,,
53047,0,USWashingtonOkanogan,Washington,Okanogan,2022-04-28 09:13:11,2020-09-13,0.3518377684109674,0.6238930627742241,1.178572107484123,,,,,,,,,,,,
53047,0,USWashingtonOkanogan,Washington,Okanogan,2022-04-28 09:13:11,2020-09-14,0.3518377684109674,0.6238930627742241,1.178572107484123,,,,,,,,,,,,
53047,0,USWashingtonOkanogan,Washington,Okanogan,2022-04-28 09:13:11,2020-09-15,0.3518377684109674,0.6238930627742241,1.178572107484123,,,,,,,,,,,,
53047,0,USWashingtonOkanogan,Washington,Okanogan,2022-04-28 09:13:11,2020-09-16,0.3518377684109674,0.6238930627742241,1.178572107484123,,,,,,,,,,,,
53047,0,USWashingtonOkanogan,Washington,Okanogan,2022-04-28 09:13:11,2020-09-17,0.27334691520715626,0.5851398283455076,1.3458939835334827,,,,,,,,,,,,
53047,0,USWashingtonOkanogan,Washington,Okanogan,2022-04-28 09:13:11,2020-09-18,0.27334691520715626,0.5851398283455076,1.3458939835334827,,,,,,,,,,,,
53047,0,USWashingtonOkanogan,Washington,Okanogan,2022-04-28 09:13:11,2020-09-19,0.27334691520715626,0.5851398283455076,1.3458939835334827,,,,,,,,,,,,
53047,0,USWashingtonOkanogan,Washington,Okanogan,2022-04-28 09:13:11,2020-09-20,0.27334691520715626,0.5851398283455076,1.3458939835334827,,,,,,,,,,,,
53047,0,USWashingtonOkanogan,Washington,Okanogan,2022-04-28 09:13:11,2020-09-21,0.27334691520715626,0.5851398283455076,1.3458939835334827,,,,,,,,,,,,
53047,0,USWashingtonOkanogan,Washington,Okanogan,2022-04-28 09:13:11,2020-09-22,0.27334691520715626,0.5851398283455076,1.3458939835334827,,,,,,,,,,,,
53047,0,USWashingtonOkanogan,Washington,Okanogan,2022-04-28 09:13:11,2020-09-23,0.27334691520715626,0.5851398283455076,1.3458939835334827,,,,,,,,,,,,
53047,0,USWashingtonOkanogan,Washington,Okanogan,2022-04-28 09:13:11,2020-09-24,0.1979851058941358,0.4107009212658347,0.9146358190297852,,,,,,,,,,,,
53047,0,USWashingtonOkanogan,Washington,Okanogan,2022-04-28 09:13:11,2020-09-25,0.1979851058941358,0.4107009212658347,0.9146358190297852,,,,,,,,,,,,
53047,0,USWashingtonOkanogan,Washington,Okanogan,2022-04-28 09:13:11,2020-09-26,0.1979851058941358,0.4107009212658347,0.9146358190297852,,,,,,,,,,,,
53047,0,USWashingtonOkanogan,Washington,Okanogan,2022-04-28 09:13:11,2020-09-27,0.1979851058941358,0.4107009212658347,0.9146358190297852,,,,,,,,,,,,
53047,0,USWashingtonOkanogan,Washington,Okanogan,2022-04-28 09:13:11,2020-09-28,0.1979851058941358,0.4107009212658347,0.9146358190297852,,,,,,,,,,,,
53047,0,USWashingtonOkanogan,Washington,Okanogan,2022-04-28 09:13:11,2020-09-29,0.1979851058941358,0.4107009212658347,0.9146358190297852,,,,,,,,,,,,
53047,0,USWashingtonOkanogan,Washington,Okanogan,2022-04-28 09:13:11,2020-09-30,0.1979851058941358,0.4107009212658347,0.9146358190297852,,,,,,,,,,,,
53047,0,USWashingtonOkanogan,Washington,Okanogan,2022-04-28 09:13:11,2020-10-01,0.18843735444916612,0.4156905487606881,0.9859537277077848,,,,,,,,,,,,
53047,0,USWashingtonOkanogan,Washington,Okanogan,2022-04-28 09:13:11,2020-10-02,0.18843735444916612,0.4156905487606881,0.9859537277077848,,,,,,,,,,,,
53047,0,USWashingtonOkanogan,Washington,Okanogan,2022-04-28 09:13:11,2020-10-03,0.18843735444916612,0.4156905487606881,0.9859537277077848,,,,,,,,,,,,
53047,0,USWashingtonOkanogan,Washington,Okanogan,2022-04-28 09:13:11,2020-10-04,0.18843735444916612,0.4156905487606881,0.9859537277077848,,,,,,,,,,,,
53047,0,USWashingtonOkanogan,Washington,Okanogan,2022-04-28 09:13:11,2020-10-05,0.18843735444916612,0.4156905487606881,0.9859537277077848,,,,,,,,,,,,
53047,0,USWashingtonOkanogan,Washington,Okanogan,2022-04-28 09:13:11,2020-10-06,0.18843735444916612,0.4156905487606881,0.9859537277077848,,,,,,,,,,,,
53047,0,USWashingtonOkanogan,Washington,Okanogan,2022-04-28 09:13:11,2020-10-07,0.18843735444916612,0.4156905487606881,0.9859537277077848,,,,,,,,,,,,
53047,0,USWashingtonOkanogan,Washington,Okanogan,2022-04-28 09:13:11,2020-10-08,0.26755192632360086,0.48832783674642893,0.9512774645321624,,,,,,,,,,,,
53047,0,USWashingtonOkanogan,Washington,Okanogan,2022-04-28 09:13:11,2020-10-09,0.26755192632360086,0.48832783674642893,0.9512774645321624,,,,,,,,,,,,
53047,0,USWashingtonOkanogan,Washington,Okanogan,2022-04-28 09:13:11,2020-10-10,0.26755192632360086,0.48832783674642893,0.9512774645321624,,,,,,,,,,,,
53047,0,USWashingtonOkanogan,Washington,Okanogan,2022-04-28 09:13:11,2020-10-11,0.26755192632360086,0.48832783674642893,0.9512774645321624,,,,,,,,,,,,
53047,0,USWashingtonOkanogan,Washington,Okanogan,2022-04-28 09:13:11,2020-10-12,0.26755192632360086,0.48832783674642893,0.9512774645321624,,,,,,,,,,,,
53047,0,USWashingtonOkanogan,Washington,Okanogan,2022-04-28 09:13:11,2020-10-13,0.26755192632360086,0.48832783674642893,0.9512774645321624,,,,,,,,,,,,
53047,0,USWashingtonOkanogan,Washington,Okanogan,2022-04-28 09:13:11,2020-10-14,0.26755192632360086,0.48832783674642893,0.9512774645321624,,,,,,,,,,,,
53047,0,USWashingtonOkanogan,Washington,Okanogan,2022-04-28 09:13:11,2020-10-15,0.09957757454005603,0.25958244737835673,0.7280146413763473,,,,,,,,,,,,
53047,0,USWashingtonOkanogan,Washington,Okanogan,2022-04-28 09:13:11,2020-10-16,0.09957757454005603,0.25958244737835673,0.7280146413763473,,,,,,,,,,,,
53047,0,USWashingtonOkanogan,Washington,Okanogan,2022-04-28 09:13:11,2020-10-17,0.09957757454005603,0.25958244737835673,0.7280146413763473,,,,,,,,,,,,
53047,0,USWashingtonOkanogan,Washington,Okanogan,2022-04-28 09:13:11,2020-10-18,0.09957757454005603,0.25958244737835673,0.7280146413763473,,,,,,,,,,,,
53047,0,USWashingtonOkanogan,Washington,Okanogan,2022-04-28 09:13:11,2020-10-19,0.09957757454005603,0.25958244737835673,0.7280146413763473,,,,,,,,,,,,
53047,0,USWashingtonOkanogan,Washington,Okanogan,2022-04-28 09:13:11,2020-10-20,0.09957757454005603,0.25958244737835673,0.7280146413763473,,,,,,,,,,,,
53047,0,USWashingtonOkanogan,Washington,Okanogan,2022-04-28 09:13:11,2020-10-21,0.09957757454005603,0.25958244737835673,0.7280146413763473,,,,,,,,,,,,
53047,0,USWashingtonOkanogan,Washington,Okanogan,2022-04-28 09:13:11,2020-10-22,0.2565190956081337,0.5608196834642506,1.3180604584334252,,,,,,,,,,,,
53047,0,USWashingtonOkanogan,Washington,Okanogan,2022-04-28 09:13:11,2020-10-23,0.2565190956081337,0.5608196834642506,1.3180604584334252,,,,,,,,,,,,
53047,0,USWashingtonOkanogan,Washington,Okanogan,2022-04-28 09:13:11,2020-10-24,0.2565190956081337,0.5608196834642506,1.3180604584334252,,,,,,,,,,,,
53047,0,USWashingtonOkanogan,Washington,Okanogan,2022-04-28 09:13:11,2020-10-25,0.2565190956081337,0.5608196834642506,1.3180604584334252,,,,,,,,,,,,
53047,0,USWashingtonOkanogan,Washington,Okanogan,2022-04-28 09:13:11,2020-10-26,0.2565190956081337,0.5608196834642506,1.3180604584334252,,,,,,,,,,,,
53047,0,USWashingtonOkanogan,Washington,Okanogan,2022-04-28 09:13:11,2020-10-27,0.2565190956081337,0.5608196834642506,1.3180604584334252,,,,,,,,,,,,
53047,0,USWashingtonOkanogan,Washington,Okanogan,2022-04-28 09:13:11,2020-10-28,0.2565190956081337,0.5608196834642506,1.3180604584334252,,,,,,,,,,,,
53047,0,USWashingtonOkanogan,Washington,Okanogan,2022-04-28 09:13:11,2020-10-29,0.283659292527698,0.627737960550284,1.493715077702046,,,,,,,,,,,,
53047,0,USWashingtonOkanogan,Washington,Okanogan,2022-04-28 09:13:11,2020-10-30,0.283659292527698,0.627737960550284,1.493715077702046,,,,,,,,,,,,
53047,0,USWashingtonOkanogan,Washington,Okanogan,2022-04-28 09:13:11,2020-10-31,0.283659292527698,0.627737960550284,1.493715077702046,,,,,,,,,,,,
53047,0,USWashingtonOkanogan,Washington,Okanogan,2022-04-28 09:13:11,2020-11-01,0.283659292527698,0.627737960550284,1.493715077702046,,,,,,,,,,,,
53047,0,USWashingtonOkanogan,Washington,Okanogan,2022-04-28 09:13:11,2020-11-02,0.283659292527698,0.627737960550284,1.493715077702046,,,,,,,,,,,,
53047,0,USWashingtonOkanogan,Washington,Okanogan,2022-04-28 09:13:11,2020-11-03,0.283659292527698,0.627737960550284,1.493715077702046,,,,,,,,,,,,
53047,0,USWashingtonOkanogan,Washington,Okanogan,2022-04-28 09:13:11,2020-11-04,0.283659292527698,0.627737960550284,1.493715077702046,,,,,,,,,,,,
53047,0,USWashingtonOkanogan,Washington,Okanogan,2022-04-28 09:13:11,2020-11-05,0.16107752104077394,0.467458820844814,1.456999599997833,,,,,,,,,,,,
53047,0,USWashingtonOkanogan,Washington,Okanogan,2022-04-28 09:13:11,2020-11-06,0.16107752104077394,0.467458820844814,1.456999599997833,,,,,,,,,,,,
53047,0,USWashingtonOkanogan,Washington,Okanogan,2022-04-28 09:13:11,2020-11-07,0.16107752104077394,0.467458820844814,1.456999599997833,,,,,,,,,,,,
53047,0,USWashingtonOkanogan,Washington,Okanogan,2022-04-28 09:13:11,2020-11-08,0.16107752104077394,0.467458820844814,1.456999599997833,,,,,,,,,,,,
53047,0,USWashingtonOkanogan,Washington,Okanogan,2022-04-28 09:13:11,2020-11-09,0.16107752104077394,0.467458820844814,1.456999599997833,,,,,,,,,,,,
53047,0,USWashingtonOkanogan,Washington,Okanogan,2022-04-28 09:13:11,2020-11-10,0.16107752104077394,0.467458820844814,1.456999599997833,,,,,,,,,,,,
53047,0,USWashingtonOkanogan,Washington,Okanogan,2022-04-28 09:13:11,2020-11-11,0.16107752104077394,0.467458820844814,1.456999599997833,,,,,,,,,,,,
53047,0,USWashingtonOkanogan,Washington,Okanogan,2022-04-28 09:13:11,2020-11-12,0.6316973057098373,1.2987764282679177,2.865931906017121,,,,,,,,,,,,
53047,0,USWashingtonOkanogan,Washington,Okanogan,2022-04-28 09:13:11,2020-11-13,0.6316973057098373,1.2987764282679177,2.865931906017121,,,,,,,,,,,,
53047,0,USWashingtonOkanogan,Washington,Okanogan,2022-04-28 09:13:11,2020-11-14,0.6316973057098373,1.2987764282679177,2.865931906017121,,,,,,,,,,,,
53047,0,USWashingtonOkanogan,Washington,Okanogan,2022-04-28 09:13:11,2020-11-15,0.6316973057098373,1.2987764282679177,2.865931906017121,,,,,,,,,,,,
53047,0,USWashingtonOkanogan,Washington,Okanogan,2022-04-28 09:13:11,2020-11-16,0.6316973057098373,1.2987764282679177,2.865931906017121,,,,,,,,,,,,
53047,0,USWashingtonOkanogan,Washington,Okanogan,2022-04-28 09:13:11,2020-11-17,0.6316973057098373,1.2987764282679177,2.865931906017121,,,,,,,,,,,,
53047,0,USWashingtonOkanogan,Washington,Okanogan,2022-04-28 09:13:11,2020-11-18,0.6316973057098373,1.2987764282679177,2.865931906017121,,,,,,,,,,,,
53047,0,USWashingtonOkanogan,Washington,Okanogan,2022-04-28 09:13:11,2020-11-19,0.951555303840842,2.243119216684351,5.689868437617178,,,,,,,,,,,,
53047,0,USWashingtonOkanogan,Washington,Okanogan,2022-04-28 09:13:11,2020-11-20,0.951555303840842,2.243119216684351,5.689868437617178,,,,,,,,,,,,
53047,0,USWashingtonOkanogan,Washington,Okanogan,2022-04-28 09:13:11,2020-11-21,0.951555303840842,2.243119216684351,5.689868437617178,,,,,,,,,,,,
53047,0,USWashingtonOkanogan,Washington,Okanogan,2022-04-28 09:13:11,2020-11-22,0.951555303840842,2.243119216684351,5.689868437617178,,,,,,,,,,,,
53047,0,USWashingtonOkanogan,Washington,Okanogan,2022-04-28 09:13:11,2020-11-23,0.951555303840842,2.243119216684351,5.689868437617178,,,,,,,,,,,,
53047,0,USWashingtonOkanogan,Washington,Okanogan,2022-04-28 09:13:11,2020-11-24,0.951555303840842,2.243119216684351,5.689868437617178,,,,,,,,,,,,
53047,0,USWashingtonOkanogan,Washington,Okanogan,2022-04-28 09:13:11,2020-11-25,0.951555303840842,2.243119216684351,5.689868437617178,,,,,,,,,,,,
53047,0,USWashingtonOkanogan,Washington,Okanogan,2022-04-28 09:13:11,2020-12-03,0.8885223951403681,1.4898393054131922,2.649961824461437,,,,,,,,,,,,
53047,0,USWashingtonOkanogan,Washington,Okanogan,2022-04-28 09:13:11,2020-12-04,0.8885223951403681,1.4898393054131922,2.649961824461437,,,,,,,,,,,,
53047,0,USWashingtonOkanogan,Washington,Okanogan,2022-04-28 09:13:11,2020-12-05,0.8885223951403681,1.4898393054131922,2.649961824461437,,,,,,,,,,,,
53047,0,USWashingtonOkanogan,Washington,Okanogan,2022-04-28 09:13:11,2020-12-06,0.8885223951403681,1.4898393054131922,2.649961824461437,,,,,,,,,,,,
53047,0,USWashingtonOkanogan,Washington,Okanogan,2022-04-28 09:13:11,2020-12-07,0.8885223951403681,1.4898393054131922,2.649961824461437,,,,,,,,,,,,
53047,0,USWashingtonOkanogan,Washington,Okanogan,2022-04-28 09:13:11,2020-12-08,0.8885223951403681,1.4898393054131922,2.649961824461437,,,,,,,,,,,,
53047,0,USWashingtonOkanogan,Washington,Okanogan,2022-04-28 09:13:11,2020-12-09,0.8885223951403681,1.4898393054131922,2.649961824461437,,,,,,,,,,,,
53047,0,USWashingtonOkanogan,Washington,Okanogan,2022-04-28 09:13:11,2020-12-10,0.6812663420649113,1.2017599712045979,2.257561440232849,,,,,,,,,,,,
53047,0,USWashingtonOkanogan,Washington,Okanogan,2022-04-28 09:13:11,2020-12-11,0.6812663420649113,1.2017599712045979,2.257561440232849,,,,,,,,,,,,
53047,0,USWashingtonOkanogan,Washington,Okanogan,2022-04-28 09:13:11,2020-12-12,0.6812663420649113,1.2017599712045979,2.257561440232849,,,,,,,,,,,,
53047,0,USWashingtonOkanogan,Washington,Okanogan,2022-04-28 09:13:11,2020-12-13,0.6812663420649113,1.2017599712045979,2.257561440232849,,,,,,,,,,,,
53047,0,USWashingtonOkanogan,Washington,Okanogan,2022-04-28 09:13:11,2020-12-14,0.6812663420649113,1.2017599712045979,2.257561440232849,,,,,,,,,,,,
53047,0,USWashingtonOkanogan,Washington,Okanogan,2022-04-28 09:13:11,2020-12-15,0.6812663420649113,1.2017599712045979,2.257561440232849,,,,,,,,,,,,
53047,0,USWashingtonOkanogan,Washington,Okanogan,2022-04-28 09:13:11,2020-12-16,0.6812663420649113,1.2017599712045979,2.257561440232849,,,,,,,,,,,,
53047,0,USWashingtonOkanogan,Washington,Okanogan,2022-04-28 09:13:11,2020-12-17,0.9574977472643375,1.6456260343130646,3.006176412087114,,,,,,,,,,,,
53047,0,USWashingtonOkanogan,Washington,Okanogan,2022-04-28 09:13:11,2020-12-18,0.9574977472643375,1.6456260343130646,3.006176412087114,,,,,,,,,,,,
53047,0,USWashingtonOkanogan,Washington,Okanogan,2022-04-28 09:13:11,2020-12-19,0.9574977472643375,1.6456260343130646,3.006176412087114,,,,,,,,,,,,
53047,0,USWashingtonOkanogan,Washington,Okanogan,2022-04-28 09:13:11,2020-12-20,0.9574977472643375,1.6456260343130646,3.006176412087114,,,,,,,,,,,,
53047,0,USWashingtonOkanogan,Washington,Okanogan,2022-04-28 09:13:11,2020-12-21,0.9574977472643375,1.6456260343130646,3.006176412087114,,,,,,,,,,,,
53047,0,USWashingtonOkanogan,Washington,Okanogan,2022-04-28 09:13:11,2020-12-22,0.9574977472643375,1.6456260343130646,3.006176412087114,,,,,,,,,,,,
53047,0,USWashingtonOkanogan,Washington,Okanogan,2022-04-28 09:13:11,2020-12-23,0.9574977472643375,1.6456260343130646,3.006176412087114,,,,,,,,,,,,
53047,0,USWashingtonOkanogan,Washington,Okanogan,2022-04-28 09:13:11,2020-12-24,0.7296041231893136,1.2759707571338412,2.374916878233441,,,,,,,,,,,,
53047,0,USWashingtonOkanogan,Washington,Okanogan,2022-04-28 09:13:11,2020-12-25,0.7296041231893136,1.2759707571338412,2.374916878233441,,,,,,,,,,,,
53047,0,USWashingtonOkanogan,Washington,Okanogan,2022-04-28 09:13:11,2020-12-26,0.7296041231893136,1.2759707571338412,2.374916878233441,,,,,,,,,,,,
53047,0,USWashingtonOkanogan,Washington,Okanogan,2022-04-28 09:13:11,2020-12-27,0.7296041231893136,1.2759707571338412,2.374916878233441,,,,,,,,,,,,
53047,0,USWashingtonOkanogan,Washington,Okanogan,2022-04-28 09:13:11,2020-12-28,0.7296041231893136,1.2759707571338412,2.374916878233441,,,,,,,,,,,,
53047,0,USWashingtonOkanogan,Washington,Okanogan,2022-04-28 09:13:11,2020-12-29,0.7296041231893136,1.2759707571338412,2.374916878233441,,,,,,,,,,,,
53047,0,USWashingtonOkanogan,Washington,Okanogan,2022-04-28 09:13:11,2020-12-30,0.7296041231893136,1.2759707571338412,2.374916878233441,,,,,,,,,,,,
53047,0,USWashingtonOkanogan,Washington,Okanogan,2022-04-28 09:13:11,2020-12-31,0.9713184706266266,1.8678618826379074,3.844678464381253,,,,,,,,,,,,
53047,0,USWashingtonOkanogan,Washington,Okanogan,2022-04-28 09:13:11,2021-01-01,0.9713184706266266,1.8678618826379074,3.844678464381253,,,,,,,,,,,,
53047,0,USWashingtonOkanogan,Washington,Okanogan,2022-04-28 09:13:11,2021-01-02,0.9713184706266266,1.8678618826379074,3.844678464381253,,,,,,,,,,,,
53047,0,USWashingtonOkanogan,Washington,Okanogan,2022-04-28 09:13:11,2021-01-03,0.9713184706266266,1.8678618826379074,3.844678464381253,,,,,,,,,,,,
53047,0,USWashingtonOkanogan,Washington,Okanogan,2022-04-28 09:13:11,2021-01-04,0.9713184706266266,1.8678618826379074,3.844678464381253,,,,,,,,,,,,
53047,0,USWashingtonOkanogan,Washington,Okanogan,2022-04-28 09:13:11,2021-01-05,0.9713184706266266,1.8678618826379074,3.844678464381253,,,,,,,,,,,,
53047,0,USWashingtonOkanogan,Washington,Okanogan,2022-04-28 09:13:11,2021-01-06,0.9713184706266266,1.8678618826379074,3.844678464381253,,,,,,,,,,,,
53047,0,USWashingtonOkanogan,Washington,Okanogan,2022-04-28 09:13:11,2021-01-07,0.8351142488916614,1.6906182059510073,3.671291601705647,,,,,,,,,,,,
53047,0,USWashingtonOkanogan,Washington,Okanogan,2022-04-28 09:13:11,2021-01-08,0.8351142488916614,1.6906182059510073,3.671291601705647,,,,,,,,,,,,
53047,0,USWashingtonOkanogan,Washington,Okanogan,2022-04-28 09:13:11,2021-01-09,0.8351142488916614,1.6906182059510073,3.671291601705647,,,,,,,,,,,,
53047,0,USWashingtonOkanogan,Washington,Okanogan,2022-04-28 09:13:11,2021-01-10,0.8351142488916614,1.6906182059510073,3.671291601705647,,,,,,,,,,,,
53047,0,USWashingtonOkanogan,Washington,Okanogan,2022-04-28 09:13:11,2021-01-11,0.8351142488916614,1.6906182059510073,3.671291601705647,,,,,,,,,,,,
53047,0,USWashingtonOkanogan,Washington,Okanogan,2022-04-28 09:13:11,2021-01-12,0.8351142488916614,1.6906182059510073,3.671291601705647,,,,,,,,,,,,
53047,0,USWashingtonOkanogan,Washington,Okanogan,2022-04-28 09:13:11,2021-01-13,0.8351142488916614,1.6906182059510073,3.671291601705647,,,,,,,,,,,,
53047,0,USWashingtonOkanogan,Washington,Okanogan,2022-04-28 09:13:11,2021-01-14,0.5891619333107865,1.1932578220370655,2.592476551543146,,,,,,,,,,,,
53047,0,USWashingtonOkanogan,Washington,Okanogan,2022-04-28 09:13:11,2021-01-15,0.5891619333107865,1.1932578220370655,2.592476551543146,,,,,,,,,,,,
53047,0,USWashingtonOkanogan,Washington,Okanogan,2022-04-28 09:13:11,2021-01-16,0.5891619333107865,1.1932578220370655,2.592476551543146,,,,,,,,,,,,
53047,0,USWashingtonOkanogan,Washington,Okanogan,2022-04-28 09:13:11,2021-01-17,0.5891619333107865,1.1932578220370655,2.592476551543146,,,,,,,,,,,,
53047,0,USWashingtonOkanogan,Washington,Okanogan,2022-04-28 09:13:11,2021-01-18,0.5891619333107865,1.1932578220370655,2.592476551543146,,,,,,,,,,,,
53047,0,USWashingtonOkanogan,Washington,Okanogan,2022-04-28 09:13:11,2021-01-19,0.5891619333107865,1.1932578220370655,2.592476551543146,,,,,,,,,,,,
53047,0,USWashingtonOkanogan,Washington,Okanogan,2022-04-28 09:13:11,2021-01-20,0.5891619333107865,1.1932578220370655,2.592476551543146,,,,,,,,,,,,
53047,0,USWashingtonOkanogan,Washington,Okanogan,2022-04-28 09:13:11,2021-01-21,0.5169025848924137,0.9955734294180519,2.052592756069463,,,,,,,,,,,,
53047,0,USWashingtonOkanogan,Washington,Okanogan,2022-04-28 09:13:11,2021-01-22,0.5169025848924137,0.9955734294180519,2.052592756069463,,,,,,,,,,,,
53047,0,USWashingtonOkanogan,Washington,Okanogan,2022-04-28 09:13:11,2021-01-23,0.5169025848924137,0.9955734294180519,2.052592756069463,,,,,,,,,,,,
53047,0,USWashingtonOkanogan,Washington,Okanogan,2022-04-28 09:13:11,2021-01-24,0.5169025848924137,0.9955734294180519,2.052592756069463,,,,,,,,,,,,
53047,0,USWashingtonOkanogan,Washington,Okanogan,2022-04-28 09:13:11,2021-01-25,0.5169025848924137,0.9955734294180519,2.052592756069463,,,,,,,,,,,,
53047,0,USWashingtonOkanogan,Washington,Okanogan,2022-04-28 09:13:11,2021-01-26,0.5169025848924137,0.9955734294180519,2.052592756069463,,,,,,,,,,,,
53047,0,USWashingtonOkanogan,Washington,Okanogan,2022-04-28 09:13:11,2021-01-27,0.5169025848924137,0.9955734294180519,2.052592756069463,,,,,,,,,,,,
53047,0,USWashingtonOkanogan,Washington,Okanogan,2022-04-28 09:13:11,2021-01-28,0.38341567368292206,0.8134550677087454,1.8539804214044768,,,,,,,,,,,,
53047,0,USWashingtonOkanogan,Washington,Okanogan,2022-04-28 09:13:11,2021-01-29,0.38341567368292206,0.8134550677087454,1.8539804214044768,,,,,,,,,,,,
53047,0,USWashingtonOkanogan,Washington,Okanogan,2022-04-28 09:13:11,2021-01-30,0.38341567368292206,0.8134550677087454,1.8539804214044768,,,,,,,,,,,,
53047,0,USWashingtonOkanogan,Washington,Okanogan,2022-04-28 09:13:11,2021-01-31,0.38341567368292206,0.8134550677087454,1.8539804214044768,,,,,,,,,,,,
53047,0,USWashingtonOkanogan,Washington,Okanogan,2022-04-28 09:13:11,2021-02-01,0.38341567368292206,0.8134550677087454,1.8539804214044768,,,,,,,,,,,,
53047,0,USWashingtonOkanogan,Washington,Okanogan,2022-04-28 09:13:11,2021-02-02,0.38341567368292206,0.8134550677087454,1.8539804214044768,,,,,,,,,,,,
53047,0,USWashingtonOkanogan,Washington,Okanogan,2022-04-28 09:13:11,2021-02-03,0.38341567368292206,0.8134550677087454,1.8539804214044768,,,,,,,,,,,,
53047,0,USWashingtonOkanogan,Washington,Okanogan,2022-04-28 09:13:11,2021-02-04,0.26835659820087576,0.5870480427047912,1.3805390554163104,,,,,,,,,,,,
53047,0,USWashingtonOkanogan,Washington,Okanogan,2022-04-28 09:13:11,2021-02-05,0.26835659820087576,0.5870480427047912,1.3805390554163104,,,,,,,,,,,,
53047,0,USWashingtonOkanogan,Washington,Okanogan,2022-04-28 09:13:11,2021-02-06,0.26835659820087576,0.5870480427047912,1.3805390554163104,,,,,,,,,,,,
53047,0,USWashingtonOkanogan,Washington,Okanogan,2022-04-28 09:13:11,2021-02-07,0.26835659820087576,0.5870480427047912,1.3805390554163104,,,,,,,,,,,,
53047,0,USWashingtonOkanogan,Washington,Okanogan,2022-04-28 09:13:11,2021-02-08,0.26835659820087576,0.5870480427047912,1.3805390554163104,,,,,,,,,,,,
53047,0,USWashingtonOkanogan,Washington,Okanogan,2022-04-28 09:13:11,2021-02-09,0.26835659820087576,0.5870480427047912,1.3805390554163104,,,,,,,,,,,,
53047,0,USWashingtonOkanogan,Washington,Okanogan,2022-04-28 09:13:11,2021-02-10,0.26835659820087576,0.5870480427047912,1.3805390554163104,,,,,,,,,,,,
53047,0,USWashingtonOkanogan,Washington,Okanogan,2022-04-28 09:13:11,2021-02-11,0.216433448568629,0.44241375309797815,0.9704083903295047,,,,,,,,,,,,
53047,0,USWashingtonOkanogan,Washington,Okanogan,2022-04-28 09:13:11,2021-02-12,0.216433448568629,0.44241375309797815,0.9704083903295047,,,,,,,,,,,,
53047,0,USWashingtonOkanogan,Washington,Okanogan,2022-04-28 09:13:11,2021-02-13,0.216433448568629,0.44241375309797815,0.9704083903295047,,,,,,,,,,,,
53047,0,USWashingtonOkanogan,Washington,Okanogan,2022-04-28 09:13:11,2021-02-14,0.216433448568629,0.44241375309797815,0.9704083903295047,,,,,,,,,,,,
53047,0,USWashingtonOkanogan,Washington,Okanogan,2022-04-28 09:13:11,2021-02-15,0.216433448568629,0.44241375309797815,0.9704083903295047,,,,,,,,,,,,
53047,0,USWashingtonOkanogan,Washington,Okanogan,2022-04-28 09:13:11,2021-02-16,0.216433448568629,0.44241375309797815,0.9704083903295047,,,,,,,,,,,,
53047,0,USWashingtonOkanogan,Washington,Okanogan,2022-04-28 09:13:11,2021-02-17,0.216433448568629,0.44241375309797815,0.9704083903295047,,,,,,,,,,,,
53047,0,USWashingtonOkanogan,Washington,Okanogan,2022-04-28 09:13:11,2021-02-18,0.28111981098267697,0.5368035085303843,1.0967842442862072,,,,,,,,,,,,
53047,0,USWashingtonOkanogan,Washington,Okanogan,2022-04-28 09:13:11,2021-02-19,0.28111981098267697,0.5368035085303843,1.0967842442862072,,,,,,,,,,,,
53047,0,USWashingtonOkanogan,Washington,Okanogan,2022-04-28 09:13:11,2021-02-20,0.28111981098267697,0.5368035085303843,1.0967842442862072,,,,,,,,,,,,
53047,0,USWashingtonOkanogan,Washington,Okanogan,2022-04-28 09:13:11,2021-02-21,0.28111981098267697,0.5368035085303843,1.0967842442862072,,,,,,,,,,,,
53047,0,USWashingtonOkanogan,Washington,Okanogan,2022-04-28 09:13:11,2021-02-22,0.28111981098267697,0.5368035085303843,1.0967842442862072,,,,,,,,,,,,
53047,0,USWashingtonOkanogan,Washington,Okanogan,2022-04-28 09:13:11,2021-02-23,0.28111981098267697,0.5368035085303843,1.0967842442862072,,,,,,,,,,,,
53047,0,USWashingtonOkanogan,Washington,Okanogan,2022-04-28 09:13:11,2021-02-24,0.28111981098267697,0.5368035085303843,1.0967842442862072,,,,,,,,,,,,
53047,0,USWashingtonOkanogan,Washington,Okanogan,2022-04-28 09:13:11,2021-02-25,0.5062520649559045,0.8782512031559834,1.6205705073435068,,,,,,,,,,,,
53047,0,USWashingtonOkanogan,Washington,Okanogan,2022-04-28 09:13:11,2021-02-26,0.5062520649559045,0.8782512031559834,1.6205705073435068,,,,,,,,,,,,
53047,0,USWashingtonOkanogan,Washington,Okanogan,2022-04-28 09:13:11,2021-02-27,0.5062520649559045,0.8782512031559834,1.6205705073435068,,,,,,,,,,,,
53047,0,USWashingtonOkanogan,Washington,Okanogan,2022-04-28 09:13:11,2021-02-28,0.5062520649559045,0.8782512031559834,1.6205705073435068,,,,,,,,,,,,
53047,0,USWashingtonOkanogan,Washington,Okanogan,2022-04-28 09:13:11,2021-03-01,0.5062520649559045,0.8782512031559834,1.6205705073435068,,,,,,,,,,,,
53047,0,USWashingtonOkanogan,Washington,Okanogan,2022-04-28 09:13:11,2021-03-02,0.5062520649559045,0.8782512031559834,1.6205705073435068,,,,,,,,,,,,
53047,0,USWashingtonOkanogan,Washington,Okanogan,2022-04-28 09:13:11,2021-03-03,0.5062520649559045,0.8782512031559834,1.6205705073435068,,,,,,,,,,,,
53047,0,USWashingtonOkanogan,Washington,Okanogan,2022-04-28 09:13:11,2021-03-04,0.3461064962790176,0.6195171331164524,1.182088952266071,,,,,,,,,,,,
53047,0,USWashingtonOkanogan,Washington,Okanogan,2022-04-28 09:13:11,2021-03-05,0.3461064962790176,0.6195171331164524,1.182088952266071,,,,,,,,,,,,
53047,0,USWashingtonOkanogan,Washington,Okanogan,2022-04-28 09:13:11,2021-03-06,0.3461064962790176,0.6195171331164524,1.182088952266071,,,,,,,,,,,,
53047,0,USWashingtonOkanogan,Washington,Okanogan,2022-04-28 09:13:11,2021-03-07,0.3461064962790176,0.6195171331164524,1.182088952266071,,,,,,,,,,,,
53047,0,USWashingtonOkanogan,Washington,Okanogan,2022-04-28 09:13:11,2021-03-08,0.3461064962790176,0.6195171331164524,1.182088952266071,,,,,,,,,,,,
53047,0,USWashingtonOkanogan,Washington,Okanogan,2022-04-28 09:13:11,2021-03-09,0.3461064962790176,0.6195171331164524,1.182088952266071,,,,,,,,,,,,
53047,0,USWashingtonOkanogan,Washington,Okanogan,2022-04-28 09:13:11,2021-03-10,0.3461064962790176,0.6195171331164524,1.182088952266071,,,,,,,,,,,,
53047,0,USWashingtonOkanogan,Washington,Okanogan,2022-04-28 09:13:11,2021-03-11,0.2761516019192339,0.5362957440626334,1.1153069706908396,,,,,,,,,,,,
53047,0,USWashingtonOkanogan,Washington,Okanogan,2022-04-28 09:13:11,2021-03-12,0.2761516019192339,0.5362957440626334,1.1153069706908396,,,,,,,,,,,,
53047,0,USWashingtonOkanogan,Washington,Okanogan,2022-04-28 09:13:11,2021-03-13,0.2761516019192339,0.5362957440626334,1.1153069706908396,,,,,,,,,,,,
53047,0,USWashingtonOkanogan,Washington,Okanogan,2022-04-28 09:13:11,2021-03-14,0.2761516019192339,0.5362957440626334,1.1153069706908396,,,,,,,,,,,,
53047,0,USWashingtonOkanogan,Washington,Okanogan,2022-04-28 09:13:11,2021-03-15,0.2761516019192339,0.5362957440626334,1.1153069706908396,,,,,,,,,,,,
53047,0,USWashingtonOkanogan,Washington,Okanogan,2022-04-28 09:13:11,2021-03-16,0.2761516019192339,0.5362957440626334,1.1153069706908396,,,,,,,,,,,,
53047,0,USWashingtonOkanogan,Washington,Okanogan,2022-04-28 09:13:11,2021-03-17,0.2761516019192339,0.5362957440626334,1.1153069706908396,,,,,,,,,,,,
53047,0,USWashingtonOkanogan,Washington,Okanogan,2022-04-28 09:13:11,2021-03-18,0.24993591915762176,0.49341147331214724,1.043845402606786,,,,,,,,,,,,
53047,0,USWashingtonOkanogan,Washington,Okanogan,2022-04-28 09:13:11,2021-03-19,0.24993591915762176,0.49341147331214724,1.043845402606786,,,,,,,,,,,,
53047,0,USWashingtonOkanogan,Washington,Okanogan,2022-04-28 09:13:11,2021-03-20,0.24993591915762176,0.49341147331214724,1.043845402606786,,,,,,,,,,,,
53047,0,USWashingtonOkanogan,Washington,Okanogan,2022-04-28 09:13:11,2021-03-21,0.24993591915762176,0.49341147331214724,1.043845402606786,,,,,,,,,,,,
53047,0,USWashingtonOkanogan,Washington,Okanogan,2022-04-28 09:13:11,2021-03-22,0.24993591915762176,0.49341147331214724,1.043845402606786,,,,,,,,,,,,
53047,0,USWashingtonOkanogan,Washington,Okanogan,2022-04-28 09:13:11,2021-03-23,0.24993591915762176,0.49341147331214724,1.043845402606786,,,,,,,,,,,,
53047,0,USWashingtonOkanogan,Washington,Okanogan,2022-04-28 09:13:11,2021-03-24,0.24993591915762176,0.49341147331214724,1.043845402606786,,,,,,,,,,,,
53047,0,USWashingtonOkanogan,Washington,Okanogan,2022-04-28 09:13:11,2021-03-25,0.30904748263958215,0.6230034368139982,1.3469824714214091,,,,,,,,,,,,
53047,0,USWashingtonOkanogan,Washington,Okanogan,2022-04-28 09:13:11,2021-03-26,0.30904748263958215,0.6230034368139982,1.3469824714214091,,,,,,,,,,,,
53047,0,USWashingtonOkanogan,Washington,Okanogan,2022-04-28 09:13:11,2021-03-27,0.30904748263958215,0.6230034368139982,1.3469824714214091,,,,,,,,,,,,
53047,0,USWashingtonOkanogan,Washington,Okanogan,2022-04-28 09:13:11,2021-03-28,0.30904748263958215,0.6230034368139982,1.3469824714214091,,,,,,,,,,,,
53047,0,USWashingtonOkanogan,Washington,Okanogan,2022-04-28 09:13:11,2021-03-29,0.30904748263958215,0.6230034368139982,1.3469824714214091,,,,,,,,,,,,
53047,0,USWashingtonOkanogan,Washington,Okanogan,2022-04-28 09:13:11,2021-03-30,0.30904748263958215,0.6230034368139982,1.3469824714214091,,,,,,,,,,,,
53047,0,USWashingtonOkanogan,Washington,Okanogan,2022-04-28 09:13:11,2021-03-31,0.30904748263958215,0.6230034368139982,1.3469824714214091,,,,,,,,,,,,
53047,0,USWashingtonOkanogan,Washington,Okanogan,2022-04-28 09:13:11,2021-04-01,0.3279882628039925,0.6766764464207471,1.49850614560495,,,,,,,,,,,,
53047,0,USWashingtonOkanogan,Washington,Okanogan,2022-04-28 09:13:11,2021-04-02,0.3279882628039925,0.6766764464207471,1.49850614560495,,,,,,,,,,,,
53047,0,USWashingtonOkanogan,Washington,Okanogan,2022-04-28 09:13:11,2021-04-03,0.3279882628039925,0.6766764464207471,1.49850614560495,,,,,,,,,,,,
53047,0,USWashingtonOkanogan,Washington,Okanogan,2022-04-28 09:13:11,2021-04-04,0.3279882628039925,0.6766764464207471,1.49850614560495,,,,,,,,,,,,
53047,0,USWashingtonOkanogan,Washington,Okanogan,2022-04-28 09:13:11,2021-04-05,0.3279882628039925,0.6766764464207471,1.49850614560495,,,,,,,,,,,,
53047,0,USWashingtonOkanogan,Washington,Okanogan,2022-04-28 09:13:11,2021-04-06,0.3279882628039925,0.6766764464207471,1.49850614560495,,,,,,,,,,,,
53047,0,USWashingtonOkanogan,Washington,Okanogan,2022-04-28 09:13:11,2021-04-07,0.3279882628039925,0.6766764464207471,1.49850614560495,,,,,,,,,,,,
53047,0,USWashingtonOkanogan,Washington,Okanogan,2022-04-28 09:13:11,2021-04-08,0.3154176884273563,0.6907641569319911,1.626285488357827,,,,,,,,,,,,
53047,0,USWashingtonOkanogan,Washington,Okanogan,2022-04-28 09:13:11,2021-04-09,0.3154176884273563,0.6907641569319911,1.626285488357827,,,,,,,,,,,,
53047,0,USWashingtonOkanogan,Washington,Okanogan,2022-04-28 09:13:11,2021-04-10,0.3154176884273563,0.6907641569319911,1.626285488357827,,,,,,,,,,,,
53047,0,USWashingtonOkanogan,Washington,Okanogan,2022-04-28 09:13:11,2021-04-11,0.3154176884273563,0.6907641569319911,1.626285488357827,,,,,,,,,,,,
53047,0,USWashingtonOkanogan,Washington,Okanogan,2022-04-28 09:13:11,2021-04-12,0.3154176884273563,0.6907641569319911,1.626285488357827,,,,,,,,,,,,
53047,0,USWashingtonOkanogan,Washington,Okanogan,2022-04-28 09:13:11,2021-04-13,0.3154176884273563,0.6907641569319911,1.626285488357827,,,,,,,,,,,,
53047,0,USWashingtonOkanogan,Washington,Okanogan,2022-04-28 09:13:11,2021-04-14,0.3154176884273563,0.6907641569319911,1.626285488357827,,,,,,,,,,,,
53047,0,USWashingtonOkanogan,Washington,Okanogan,2022-04-28 09:13:11,2021-04-15,0.4393828254396122,0.8902506947168596,1.9349450232901886,,,,,,,,,,,,
53047,0,USWashingtonOkanogan,Washington,Okanogan,2022-04-28 09:13:11,2021-04-16,0.4393828254396122,0.8902506947168596,1.9349450232901886,,,,,,,,,,,,
53047,0,USWashingtonOkanogan,Washington,Okanogan,2022-04-28 09:13:11,2021-04-17,0.4393828254396122,0.8902506947168596,1.9349450232901886,,,,,,,,,,,,
53047,0,USWashingtonOkanogan,Washington,Okanogan,2022-04-28 09:13:11,2021-04-18,0.4393828254396122,0.8902506947168596,1.9349450232901886,,,,,,,,,,,,
53047,0,USWashingtonOkanogan,Washington,Okanogan,2022-04-28 09:13:11,2021-04-19,0.4393828254396122,0.8902506947168596,1.9349450232901886,,,,,,,,,,,,
53047,0,USWashingtonOkanogan,Washington,Okanogan,2022-04-28 09:13:11,2021-04-20,0.4393828254396122,0.8902506947168596,1.9349450232901886,,,,,,,,,,,,
53047,0,USWashingtonOkanogan,Washington,Okanogan,2022-04-28 09:13:11,2021-04-21,0.4393828254396122,0.8902506947168596,1.9349450232901886,,,,,,,,,,,,
53047,0,USWashingtonOkanogan,Washington,Okanogan,2022-04-28 09:13:11,2021-04-22,0.3709089977947168,0.8065959006182302,1.8854090194048823,,,,,,,,,,,,
53047,0,USWashingtonOkanogan,Washington,Okanogan,2022-04-28 09:13:11,2021-04-23,0.3709089977947168,0.8065959006182302,1.8854090194048823,,,,,,,,,,,,
53047,0,USWashingtonOkanogan,Washington,Okanogan,2022-04-28 09:13:11,2021-04-24,0.3709089977947168,0.8065959006182302,1.8854090194048823,,,,,,,,,,,,
53047,0,USWashingtonOkanogan,Washington,Okanogan,2022-04-28 09:13:11,2021-04-25,0.3709089977947168,0.8065959006182302,1.8854090194048823,,,,,,,,,,,,
53047,0,USWashingtonOkanogan,Washington,Okanogan,2022-04-28 09:13:11,2021-04-26,0.3709089977947168,0.8065959006182302,1.8854090194048823,,,,,,,,,,,,
53047,0,USWashingtonOkanogan,Washington,Okanogan,2022-04-28 09:13:11,2021-04-27,0.3709089977947168,0.8065959006182302,1.8854090194048823,,,,,,,,,,,,
53047,0,USWashingtonOkanogan,Washington,Okanogan,2022-04-28 09:13:11,2021-04-28,0.3709089977947168,0.8065959006182302,1.8854090194048823,,,,,,,,,,,,
53047,0,USWashingtonOkanogan,Washington,Okanogan,2022-04-28 09:13:11,2021-04-29,0.5533007167114132,1.0762947137191303,2.2421623250610563,,,,,,,,,,,,
53047,0,USWashingtonOkanogan,Washington,Okanogan,2022-04-28 09:13:11,2021-04-30,0.5533007167114132,1.0762947137191303,2.2421623250610563,,,,,,,,,,,,
53047,0,USWashingtonOkanogan,Washington,Okanogan,2022-04-28 09:13:11,2021-05-01,0.5533007167114132,1.0762947137191303,2.2421623250610563,,,,,,,,,,,,
53047,0,USWashingtonOkanogan,Washington,Okanogan,2022-04-28 09:13:11,2021-05-02,0.5533007167114132,1.0762947137191303,2.2421623250610563,,,,,,,,,,,,
53047,0,USWashingtonOkanogan,Washington,Okanogan,2022-04-28 09:13:11,2021-05-03,0.5533007167114132,1.0762947137191303,2.2421623250610563,,,,,,,,,,,,
53047,0,USWashingtonOkanogan,Washington,Okanogan,2022-04-28 09:13:11,2021-05-04,0.5533007167114132,1.0762947137191303,2.2421623250610563,,,,,,,,,,,,
53047,0,USWashingtonOkanogan,Washington,Okanogan,2022-04-28 09:13:11,2021-05-05,0.5533007167114132,1.0762947137191303,2.2421623250610563,,,,,,,,,,,,
53047,0,USWashingtonOkanogan,Washington,Okanogan,2022-04-28 09:13:11,2021-05-06,0.5164070737649904,1.0118235103744972,2.1238483630245266,,,,,,,,,,,,
53047,0,USWashingtonOkanogan,Washington,Okanogan,2022-04-28 09:13:11,2021-05-07,0.5164070737649904,1.0118235103744972,2.1238483630245266,,,,,,,,,,,,
53047,0,USWashingtonOkanogan,Washington,Okanogan,2022-04-28 09:13:11,2021-05-08,0.5164070737649904,1.0118235103744972,2.1238483630245266,,,,,,,,,,,,
53047,0,USWashingtonOkanogan,Washington,Okanogan,2022-04-28 09:13:11,2021-05-09,0.5164070737649904,1.0118235103744972,2.1238483630245266,,,,,,,,,,,,
53047,0,USWashingtonOkanogan,Washington,Okanogan,2022-04-28 09:13:11,2021-05-10,0.5164070737649904,1.0118235103744972,2.1238483630245266,,,,,,,,,,,,
53047,0,USWashingtonOkanogan,Washington,Okanogan,2022-04-28 09:13:11,2021-05-11,0.5164070737649904,1.0118235103744972,2.1238483630245266,,,,,,,,,,,,
53047,0,USWashingtonOkanogan,Washington,Okanogan,2022-04-28 09:13:11,2021-05-12,0.5164070737649904,1.0118235103744972,2.1238483630245266,,,,,,,,,,,,
53047,0,USWashingtonOkanogan,Washington,Okanogan,2022-04-28 09:13:11,2021-05-13,0.49075442587321855,0.9527405332407408,1.9806677012990346,,,,,,,,,,,,
53047,0,USWashingtonOkanogan,Washington,Okanogan,2022-04-28 09:13:11,2021-05-14,0.49075442587321855,0.9527405332407408,1.9806677012990346,,,,,,,,,,,,
53047,0,USWashingtonOkanogan,Washington,Okanogan,2022-04-28 09:13:11,2021-05-15,0.49075442587321855,0.9527405332407408,1.9806677012990346,,,,,,,,,,,,
53047,0,USWashingtonOkanogan,Washington,Okanogan,2022-04-28 09:13:11,2021-05-16,0.49075442587321855,0.9527405332407408,1.9806677012990346,,,,,,,,,,,,
53047,0,USWashingtonOkanogan,Washington,Okanogan,2022-04-28 09:13:11,2021-05-17,0.49075442587321855,0.9527405332407408,1.9806677012990346,,,,,,,,,,,,
53047,0,USWashingtonOkanogan,Washington,Okanogan,2022-04-28 09:13:11,2021-05-18,0.49075442587321855,0.9527405332407408,1.9806677012990346,,,,,,,,,,,,
53047,0,USWashingtonOkanogan,Washington,Okanogan,2022-04-28 09:13:11,2021-05-19,0.49075442587321855,0.9527405332407408,1.9806677012990346,,,,,,,,,,,,
53047,0,USWashingtonOkanogan,Washington,Okanogan,2022-04-28 09:13:11,2021-05-20,0.37694614069883076,0.6495958009397139,1.1901089179549476,,,,,,,,,,,,
53047,0,USWashingtonOkanogan,Washington,Okanogan,2022-04-28 09:13:11,2021-05-21,0.37694614069883076,0.6495958009397139,1.1901089179549476,,,,,,,,,,,,
53047,0,USWashingtonOkanogan,Washington,Okanogan,2022-04-28 09:13:11,2021-05-22,0.37694614069883076,0.6495958009397139,1.1901089179549476,,,,,,,,,,,,
53047,0,USWashingtonOkanogan,Washington,Okanogan,2022-04-28 09:13:11,2021-05-23,0.37694614069883076,0.6495958009397139,1.1901089179549476,,,,,,,,,,,,
53047,0,USWashingtonOkanogan,Washington,Okanogan,2022-04-28 09:13:11,2021-05-24,0.37694614069883076,0.6495958009397139,1.1901089179549476,,,,,,,,,,,,
53047,0,USWashingtonOkanogan,Washington,Okanogan,2022-04-28 09:13:11,2021-05-25,0.37694614069883076,0.6495958009397139,1.1901089179549476,,,,,,,,,,,,
53047,0,USWashingtonOkanogan,Washington,Okanogan,2022-04-28 09:13:11,2021-05-26,0.37694614069883076,0.6495958009397139,1.1901089179549476,,,,,,,,,,,,
53047,0,USWashingtonOkanogan,Washington,Okanogan,2022-04-28 09:13:11,2021-05-27,0.38861347608679364,0.7731392535178843,1.6488537148231872,,,,,,,,,,,,
53047,0,USWashingtonOkanogan,Washington,Okanogan,2022-04-28 09:13:11,2021-05-28,0.38861347608679364,0.7731392535178843,1.6488537148231872,,,,,,,,,,,,
53047,0,USWashingtonOkanogan,Washington,Okanogan,2022-04-28 09:13:11,2021-05-29,0.38861347608679364,0.7731392535178843,1.6488537148231872,,,,,,,,,,,,
53047,0,USWashingtonOkanogan,Washington,Okanogan,2022-04-28 09:13:11,2021-05-30,0.38861347608679364,0.7731392535178843,1.6488537148231872,,,,,,,,,,,,
53047,0,USWashingtonOkanogan,Washington,Okanogan,2022-04-28 09:13:11,2021-05-31,0.38861347608679364,0.7731392535178843,1.6488537148231872,,,,,,,,,,,,
53047,0,USWashingtonOkanogan,Washington,Okanogan,2022-04-28 09:13:11,2021-06-01,0.38861347608679364,0.7731392535178843,1.6488537148231872,,,,,,,,,,,,
53047,0,USWashingtonOkanogan,Washington,Okanogan,2022-04-28 09:13:11,2021-06-02,0.38861347608679364,0.7731392535178843,1.6488537148231872,,,,,,,,,,,,
53047,0,USWashingtonOkanogan,Washington,Okanogan,2022-04-28 09:13:11,2021-06-03,0.44457517980616634,0.7885802226635572,1.4901636999715884,,,,,,,,,,,,
53047,0,USWashingtonOkanogan,Washington,Okanogan,2022-04-28 09:13:11,2021-06-04,0.44457517980616634,0.7885802226635572,1.4901636999715884,,,,,,,,,,,,
53047,0,USWashingtonOkanogan,Washington,Okanogan,2022-04-28 09:13:11,2021-06-05,0.44457517980616634,0.7885802226635572,1.4901636999715884,,,,,,,,,,,,
53047,0,USWashingtonOkanogan,Washington,Okanogan,2022-04-28 09:13:11,2021-06-06,0.44457517980616634,0.7885802226635572,1.4901636999715884,,,,,,,,,,,,
53047,0,USWashingtonOkanogan,Washington,Okanogan,2022-04-28 09:13:11,2021-06-07,0.44457517980616634,0.7885802226635572,1.4901636999715884,,,,,,,,,,,,
53047,0,USWashingtonOkanogan,Washington,Okanogan,2022-04-28 09:13:11,2021-06-08,0.44457517980616634,0.7885802226635572,1.4901636999715884,,,,,,,,,,,,
53047,0,USWashingtonOkanogan,Washington,Okanogan,2022-04-28 09:13:11,2021-06-09,0.44457517980616634,0.7885802226635572,1.4901636999715884,,,,,,,,,,,,
53047,0,USWashingtonOkanogan,Washington,Okanogan,2022-04-28 09:13:11,2021-06-10,0.39861786809557026,0.8115315290582816,1.77261747164691,,,,,,,,,,,,
53047,0,USWashingtonOkanogan,Washington,Okanogan,2022-04-28 09:13:11,2021-06-11,0.39861786809557026,0.8115315290582816,1.77261747164691,,,,,,,,,,,,
53047,0,USWashingtonOkanogan,Washington,Okanogan,2022-04-28 09:13:11,2021-06-12,0.39861786809557026,0.8115315290582816,1.77261747164691,,,,,,,,,,,,
53047,0,USWashingtonOkanogan,Washington,Okanogan,2022-04-28 09:13:11,2021-06-13,0.39861786809557026,0.8115315290582816,1.77261747164691,,,,,,,,,,,,
53047,0,USWashingtonOkanogan,Washington,Okanogan,2022-04-28 09:13:11,2021-06-14,0.39861786809557026,0.8115315290582816,1.77261747164691,,,,,,,,,,,,
53047,0,USWashingtonOkanogan,Washington,Okanogan,2022-04-28 09:13:11,2021-06-15,0.39861786809557026,0.8115315290582816,1.77261747164691,,,,,,,,,,,,
53047,0,USWashingtonOkanogan,Washington,Okanogan,2022-04-28 09:13:11,2021-06-16,0.39861786809557026,0.8115315290582816,1.77261747164691,,,,,,,,,,,,
53047,0,USWashingtonOkanogan,Washington,Okanogan,2022-04-28 09:13:11,2021-06-17,0.2727345106669944,0.5236880114879636,1.0762317964122068,,,,,,,,,,,,
53047,0,USWashingtonOkanogan,Washington,Okanogan,2022-04-28 09:13:11,2021-06-18,0.2727345106669944,0.5236880114879636,1.0762317964122068,,,,,,,,,,,,
53047,0,USWashingtonOkanogan,Washington,Okanogan,2022-04-28 09:13:11,2021-06-19,0.2727345106669944,0.5236880114879636,1.0762317964122068,,,,,,,,,,,,
53047,0,USWashingtonOkanogan,Washington,Okanogan,2022-04-28 09:13:11,2021-06-20,0.2727345106669944,0.5236880114879636,1.0762317964122068,,,,,,,,,,,,
53047,0,USWashingtonOkanogan,Washington,Okanogan,2022-04-28 09:13:11,2021-06-21,0.2727345106669944,0.5236880114879636,1.0762317964122068,,,,,,,,,,,,
53047,0,USWashingtonOkanogan,Washington,Okanogan,2022-04-28 09:13:11,2021-06-22,0.2727345106669944,0.5236880114879636,1.0762317964122068,,,,,,,,,,,,
53047,0,USWashingtonOkanogan,Washington,Okanogan,2022-04-28 09:13:11,2021-06-23,0.2727345106669944,0.5236880114879636,1.0762317964122068,,,,,,,,,,,,
53047,0,USWashingtonOkanogan,Washington,Okanogan,2022-04-28 09:13:11,2021-06-24,0.3579907296557562,0.5884026904155956,1.0241381555311613,,,,,,,,,,,,
53047,0,USWashingtonOkanogan,Washington,Okanogan,2022-04-28 09:13:11,2021-06-25,0.3579907296557562,0.5884026904155956,1.0241381555311613,,,,,,,,,,,,
53047,0,USWashingtonOkanogan,Washington,Okanogan,2022-04-28 09:13:11,2021-06-26,0.3579907296557562,0.5884026904155956,1.0241381555311613,,,,,,,,,,,,
53047,0,USWashingtonOkanogan,Washington,Okanogan,2022-04-28 09:13:11,2021-06-27,0.3579907296557562,0.5884026904155956,1.0241381555311613,,,,,,,,,,,,
53047,0,USWashingtonOkanogan,Washington,Okanogan,2022-04-28 09:13:11,2021-06-28,0.3579907296557562,0.5884026904155956,1.0241381555311613,,,,,,,,,,,,
53047,0,USWashingtonOkanogan,Washington,Okanogan,2022-04-28 09:13:11,2021-06-29,0.3579907296557562,0.5884026904155956,1.0241381555311613,,,,,,,,,,,,
53047,0,USWashingtonOkanogan,Washington,Okanogan,2022-04-28 09:13:11,2021-06-30,0.3579907296557562,0.5884026904155956,1.0241381555311613,,,,,,,,,,,,
53047,0,USWashingtonOkanogan,Washington,Okanogan,2022-04-28 09:13:11,2021-07-01,0.16397951989590606,0.33828082849967145,0.749063695448069,,,,,,,,,,,,
53047,0,USWashingtonOkanogan,Washington,Okanogan,2022-04-28 09:13:11,2021-07-02,0.16397951989590606,0.33828082849967145,0.749063695448069,,,,,,,,,,,,
53047,0,USWashingtonOkanogan,Washington,Okanogan,2022-04-28 09:13:11,2021-07-03,0.16397951989590606,0.33828082849967145,0.749063695448069,,,,,,,,,,,,
53047,0,USWashingtonOkanogan,Washington,Okanogan,2022-04-28 09:13:11,2021-07-04,0.16397951989590606,0.33828082849967145,0.749063695448069,,,,,,,,,,,,
53047,0,USWashingtonOkanogan,Washington,Okanogan,2022-04-28 09:13:11,2021-07-05,0.16397951989590606,0.33828082849967145,0.749063695448069,,,,,,,,,,,,
53047,0,USWashingtonOkanogan,Washington,Okanogan,2022-04-28 09:13:11,2021-07-06,0.16397951989590606,0.33828082849967145,0.749063695448069,,,,,,,,,,,,
53047,0,USWashingtonOkanogan,Washington,Okanogan,2022-04-28 09:13:11,2021-07-07,0.16397951989590606,0.33828082849967145,0.749063695448069,,,,,,,,,,,,
53047,0,USWashingtonOkanogan,Washington,Okanogan,2022-04-28 09:13:11,2021-07-08,0.14739121903290892,0.3142244786824772,0.7197310268303536,,,,,,,,,,,,
53047,0,USWashingtonOkanogan,Washington,Okanogan,2022-04-28 09:13:11,2021-07-09,0.14739121903290892,0.3142244786824772,0.7197310268303536,,,,,,,,,,,,
53047,0,USWashingtonOkanogan,Washington,Okanogan,2022-04-28 09:13:11,2021-07-10,0.14739121903290892,0.3142244786824772,0.7197310268303536,,,,,,,,,,,,
53047,0,USWashingtonOkanogan,Washington,Okanogan,2022-04-28 09:13:11,2021-07-11,0.14739121903290892,0.3142244786824772,0.7197310268303536,,,,,,,,,,,,
53047,0,USWashingtonOkanogan,Washington,Okanogan,2022-04-28 09:13:11,2021-07-12,0.14739121903290892,0.3142244786824772,0.7197310268303536,,,,,,,,,,,,
53047,0,USWashingtonOkanogan,Washington,Okanogan,2022-04-28 09:13:11,2021-07-13,0.14739121903290892,0.3142244786824772,0.7197310268303536,,,,,,,,,,,,
53047,0,USWashingtonOkanogan,Washington,Okanogan,2022-04-28 09:13:11,2021-07-14,0.14739121903290892,0.3142244786824772,0.7197310268303536,,,,,,,,,,,,
53047,0,USWashingtonOkanogan,Washington,Okanogan,2022-04-28 09:13:11,2021-07-15,0.18918222878739122,0.44361526978802385,1.1193064972609998,,,,,,,,,,,,
53047,0,USWashingtonOkanogan,Washington,Okanogan,2022-04-28 09:13:11,2021-07-16,0.18918222878739122,0.44361526978802385,1.1193064972609998,,,,,,,,,,,,
53047,0,USWashingtonOkanogan,Washington,Okanogan,2022-04-28 09:13:11,2021-07-17,0.18918222878739122,0.44361526978802385,1.1193064972609998,,,,,,,,,,,,
53047,0,USWashingtonOkanogan,Washington,Okanogan,2022-04-28 09:13:11,2021-07-18,0.18918222878739122,0.44361526978802385,1.1193064972609998,,,,,,,,,,,,
53047,0,USWashingtonOkanogan,Washington,Okanogan,2022-04-28 09:13:11,2021-07-19,0.18918222878739122,0.44361526978802385,1.1193064972609998,,,,,,,,,,,,
53047,0,USWashingtonOkanogan,Washington,Okanogan,2022-04-28 09:13:11,2021-07-20,0.18918222878739122,0.44361526978802385,1.1193064972609998,,,,,,,,,,,,
53047,0,USWashingtonOkanogan,Washington,Okanogan,2022-04-28 09:13:11,2021-07-21,0.18918222878739122,0.44361526978802385,1.1193064972609998,,,,,,,,,,,,
53047,0,USWashingtonOkanogan,Washington,Okanogan,2022-04-28 09:13:11,2021-07-22,0.15003113220287742,0.24158641206757317,0.4111749122376147,,,,,,,,,,,,
53047,0,USWashingtonOkanogan,Washington,Okanogan,2022-04-28 09:13:11,2021-07-23,0.15003113220287742,0.24158641206757317,0.4111749122376147,,,,,,,,,,,,
53047,0,USWashingtonOkanogan,Washington,Okanogan,2022-04-28 09:13:11,2021-07-24,0.15003113220287742,0.24158641206757317,0.4111749122376147,,,,,,,,,,,,
53047,0,USWashingtonOkanogan,Washington,Okanogan,2022-04-28 09:13:11,2021-07-25,0.15003113220287742,0.24158641206757317,0.4111749122376147,,,,,,,,,,,,
53047,0,USWashingtonOkanogan,Washington,Okanogan,2022-04-28 09:13:11,2021-07-26,0.15003113220287742,0.24158641206757317,0.4111749122376147,,,,,,,,,,,,
53047,0,USWashingtonOkanogan,Washington,Okanogan,2022-04-28 09:13:11,2021-07-27,0.15003113220287742,0.24158641206757317,0.4111749122376147,,,,,,,,,,,,
53047,0,USWashingtonOkanogan,Washington,Okanogan,2022-04-28 09:13:11,2021-07-28,0.15003113220287742,0.24158641206757317,0.4111749122376147,,,,,,,,,,,,
53047,0,USWashingtonOkanogan,Washington,Okanogan,2022-04-28 09:13:11,2021-07-29,0.4606932915826342,1.1814000782718905,3.2598010361003418,,,,,,,,,,,,
53047,0,USWashingtonOkanogan,Washington,Okanogan,2022-04-28 09:13:11,2021-07-30,0.4606932915826342,1.1814000782718905,3.2598010361003418,,,,,,,,,,,,
53047,0,USWashingtonOkanogan,Washington,Okanogan,2022-04-28 09:13:11,2021-07-31,0.4606932915826342,1.1814000782718905,3.2598010361003418,,,,,,,,,,,,
53047,0,USWashingtonOkanogan,Washington,Okanogan,2022-04-28 09:13:11,2021-08-01,0.4606932915826342,1.1814000782718905,3.2598010361003418,,,,,,,,,,,,
53047,0,USWashingtonOkanogan,Washington,Okanogan,2022-04-28 09:13:11,2021-08-02,0.4606932915826342,1.1814000782718905,3.2598010361003418,,,,,,,,,,,,
53047,0,USWashingtonOkanogan,Washington,Okanogan,2022-04-28 09:13:11,2021-08-03,0.4606932915826342,1.1814000782718905,3.2598010361003418,,,,,,,,,,,,
53047,0,USWashingtonOkanogan,Washington,Okanogan,2022-04-28 09:13:11,2021-08-04,0.4606932915826342,1.1814000782718905,3.2598010361003418,,,,,,,,,,,,
53047,0,USWashingtonOkanogan,Washington,Okanogan,2022-04-28 09:13:11,2021-08-05,0.5700053576988561,1.2667682685305481,3.027297507550638,,,,,,,,,,,,
53047,0,USWashingtonOkanogan,Washington,Okanogan,2022-04-28 09:13:11,2021-08-06,0.5700053576988561,1.2667682685305481,3.027297507550638,,,,,,,,,,,,
53047,0,USWashingtonOkanogan,Washington,Okanogan,2022-04-28 09:13:11,2021-08-07,0.5700053576988561,1.2667682685305481,3.027297507550638,,,,,,,,,,,,
53047,0,USWashingtonOkanogan,Washington,Okanogan,2022-04-28 09:13:11,2021-08-08,0.5700053576988561,1.2667682685305481,3.027297507550638,,,,,,,,,,,,
53047,0,USWashingtonOkanogan,Washington,Okanogan,2022-04-28 09:13:11,2021-08-09,0.5700053576988561,1.2667682685305481,3.027297507550638,,,,,,,,,,,,
53047,0,USWashingtonOkanogan,Washington,Okanogan,2022-04-28 09:13:11,2021-08-10,0.5700053576988561,1.2667682685305481,3.027297507550638,,,,,,,,,,,,
53047,0,USWashingtonOkanogan,Washington,Okanogan,2022-04-28 09:13:11,2021-08-11,0.5700053576988561,1.2667682685305481,3.027297507550638,,,,,,,,,,,,
53047,0,USWashingtonOkanogan,Washington,Okanogan,2022-04-28 09:13:11,2021-08-12,0.8616266766488826,1.7536938597916563,3.8295295401755642,,,,,,,,,,,,
53047,0,USWashingtonOkanogan,Washington,Okanogan,2022-04-28 09:13:11,2021-08-13,0.8616266766488826,1.7536938597916563,3.8295295401755642,,,,,,,,,,,,
53047,0,USWashingtonOkanogan,Washington,Okanogan,2022-04-28 09:13:11,2021-08-14,0.8616266766488826,1.7536938597916563,3.8295295401755642,,,,,,,,,,,,
53047,0,USWashingtonOkanogan,Washington,Okanogan,2022-04-28 09:13:11,2021-08-15,0.8616266766488826,1.7536938597916563,3.8295295401755642,,,,,,,,,,,,
53047,0,USWashingtonOkanogan,Washington,Okanogan,2022-04-28 09:13:11,2021-08-16,0.8616266766488826,1.7536938597916563,3.8295295401755642,,,,,,,,,,,,
53047,0,USWashingtonOkanogan,Washington,Okanogan,2022-04-28 09:13:11,2021-08-17,0.8616266766488826,1.7536938597916563,3.8295295401755642,,,,,,,,,,,,
53047,0,USWashingtonOkanogan,Washington,Okanogan,2022-04-28 09:13:11,2021-08-18,0.8616266766488826,1.7536938597916563,3.8295295401755642,,,,,,,,,,,,
53047,0,USWashingtonOkanogan,Washington,Okanogan,2022-04-28 09:13:11,2021-08-19,1.5069612684935039,2.609916455398107,4.807220206281798,,,,,,,,,,,,
53047,0,USWashingtonOkanogan,Washington,Okanogan,2022-04-28 09:13:11,2021-08-20,1.5069612684935039,2.609916455398107,4.807220206281798,,,,,,,,,,,,
53047,0,USWashingtonOkanogan,Washington,Okanogan,2022-04-28 09:13:11,2021-08-21,1.5069612684935039,2.609916455398107,4.807220206281798,,,,,,,,,,,,
53047,0,USWashingtonOkanogan,Washington,Okanogan,2022-04-28 09:13:11,2021-08-22,1.5069612684935039,2.609916455398107,4.807220206281798,,,,,,,,,,,,
53047,0,USWashingtonOkanogan,Washington,Okanogan,2022-04-28 09:13:11,2021-08-23,1.5069612684935039,2.609916455398107,4.807220206281798,,,,,,,,,,,,
53047,0,USWashingtonOkanogan,Washington,Okanogan,2022-04-28 09:13:11,2021-08-24,1.5069612684935039,2.609916455398107,4.807220206281798,,,,,,,,,,,,
53047,0,USWashingtonOkanogan,Washington,Okanogan,2022-04-28 09:13:11,2021-08-25,1.5069612684935039,2.609916455398107,4.807220206281798,,,,,,,,,,,,
53047,0,USWashingtonOkanogan,Washington,Okanogan,2022-04-28 09:13:11,2021-08-26,2.2760897134322997,3.6659672853748217,6.241097978105873,,,,,,,,,,,,
53047,0,USWashingtonOkanogan,Washington,Okanogan,2022-04-28 09:13:11,2021-08-27,2.2760897134322997,3.6659672853748217,6.241097978105873,,,,,,,,,,,,
53047,0,USWashingtonOkanogan,Washington,Okanogan,2022-04-28 09:13:11,2021-08-28,2.2760897134322997,3.6659672853748217,6.241097978105873,,,,,,,,,,,,
53047,0,USWashingtonOkanogan,Washington,Okanogan,2022-04-28 09:13:11,2021-08-29,2.2760897134322997,3.6659672853748217,6.241097978105873,,,,,,,,,,,,
53047,0,USWashingtonOkanogan,Washington,Okanogan,2022-04-28 09:13:11,2021-08-30,2.2760897134322997,3.6659672853748217,6.241097978105873,,,,,,,,,,,,
53047,0,USWashingtonOkanogan,Washington,Okanogan,2022-04-28 09:13:11,2021-08-31,2.2760897134322997,3.6659672853748217,6.241097978105873,,,,,,,,,,,,
53047,0,USWashingtonOkanogan,Washington,Okanogan,2022-04-28 09:13:11,2021-09-01,2.2760897134322997,3.6659672853748217,6.241097978105873,,,,,,,,,,,,
53047,0,USWashingtonOkanogan,Washington,Okanogan,2022-04-28 09:13:11,2021-09-02,1.7739387973767797,3.024155929761631,5.476262959850729,,,,,,,,,,,,
53047,0,USWashingtonOkanogan,Washington,Okanogan,2022-04-28 09:13:11,2021-09-03,1.7739387973767797,3.024155929761631,5.476262959850729,,,,,,,,,,,,
53047,0,USWashingtonOkanogan,Washington,Okanogan,2022-04-28 09:13:11,2021-09-04,1.7739387973767797,3.024155929761631,5.476262959850729,,,,,,,,,,,,
53047,0,USWashingtonOkanogan,Washington,Okanogan,2022-04-28 09:13:11,2021-09-05,1.7739387973767797,3.024155929761631,5.476262959850729,,,,,,,,,,,,
53047,0,USWashingtonOkanogan,Washington,Okanogan,2022-04-28 09:13:11,2021-09-06,1.7739387973767797,3.024155929761631,5.476262959850729,,,,,,,,,,,,
53047,0,USWashingtonOkanogan,Washington,Okanogan,2022-04-28 09:13:11,2021-09-07,1.7739387973767797,3.024155929761631,5.476262959850729,,,,,,,,,,,,
53047,0,USWashingtonOkanogan,Washington,Okanogan,2022-04-28 09:13:11,2021-09-08,1.7739387973767797,3.024155929761631,5.476262959850729,,,,,,,,,,,,
53047,0,USWashingtonOkanogan,Washington,Okanogan,2022-04-28 09:13:11,2021-09-09,2.6039598033494578,4.248052830220921,7.333887438799244,,,,,,,,,,,,
53047,0,USWashingtonOkanogan,Washington,Okanogan,2022-04-28 09:13:11,2021-09-10,2.6039598033494578,4.248052830220921,7.333887438799244,,,,,,,,,,,,
53047,0,USWashingtonOkanogan,Washington,Okanogan,2022-04-28 09:13:11,2021-09-11,2.6039598033494578,4.248052830220921,7.333887438799244,,,,,,,,,,,,
53047,0,USWashingtonOkanogan,Washington,Okanogan,2022-04-28 09:13:11,2021-09-12,2.6039598033494578,4.248052830220921,7.333887438799244,,,,,,,,,,,,
53047,0,USWashingtonOkanogan,Washington,Okanogan,2022-04-28 09:13:11,2021-09-13,2.6039598033494578,4.248052830220921,7.333887438799244,,,,,,,,,,,,
53047,0,USWashingtonOkanogan,Washington,Okanogan,2022-04-28 09:13:11,2021-09-14,2.6039598033494578,4.248052830220921,7.333887438799244,,,,,,,,,,,,
53047,0,USWashingtonOkanogan,Washington,Okanogan,2022-04-28 09:13:11,2021-09-15,2.6039598033494578,4.248052830220921,7.333887438799244,,,,,,,,,,,,
53047,0,USWashingtonOkanogan,Washington,Okanogan,2022-04-28 09:13:11,2021-11-11,0.9452093048388862,1.8074222050522306,3.6983112105755342,,,,,,,,,,,,
53047,0,USWashingtonOkanogan,Washington,Okanogan,2022-04-28 09:13:11,2021-11-12,0.9452093048388862,1.8074222050522306,3.6983112105755342,,,,,,,,,,,,
53047,0,USWashingtonOkanogan,Washington,Okanogan,2022-04-28 09:13:11,2021-11-13,0.9452093048388862,1.8074222050522306,3.6983112105755342,,,,,,,,,,,,
53047,0,USWashingtonOkanogan,Washington,Okanogan,2022-04-28 09:13:11,2021-11-14,0.9452093048388862,1.8074222050522306,3.6983112105755342,,,,,,,,,,,,
53047,0,USWashingtonOkanogan,Washington,Okanogan,2022-04-28 09:13:11,2021-11-15,0.9452093048388862,1.8074222050522306,3.6983112105755342,,,,,,,,,,,,
53047,0,USWashingtonOkanogan,Washington,Okanogan,2022-04-28 09:13:11,2021-11-16,0.9452093048388862,1.8074222050522306,3.6983112105755342,,,,,,,,,,,,
53047,0,USWashingtonOkanogan,Washington,Okanogan,2022-04-28 09:13:11,2021-11-17,0.9452093048388862,1.8074222050522306,3.6983112105755342,,,,,,,,,,,,
53047,0,USWashingtonOkanogan,Washington,Okanogan,2022-04-28 09:13:11,2021-11-18,1.3241730636235691,4.2989099544833165,14.94359977017296,,,,,,,,,,,,
53047,0,USWashingtonOkanogan,Washington,Okanogan,2022-04-28 09:13:11,2021-11-19,1.3241730636235691,4.2989099544833165,14.94359977017296,,,,,,,,,,,,
53047,0,USWashingtonOkanogan,Washington,Okanogan,2022-04-28 09:13:11,2021-11-20,1.3241730636235691,4.2989099544833165,14.94359977017296,,,,,,,,,,,,
53047,0,USWashingtonOkanogan,Washington,Okanogan,2022-04-28 09:13:11,2021-11-21,1.3241730636235691,4.2989099544833165,14.94359977017296,,,,,,,,,,,,
53047,0,USWashingtonOkanogan,Washington,Okanogan,2022-04-28 09:13:11,2021-11-22,1.3241730636235691,4.2989099544833165,14.94359977017296,,,,,,,,,,,,
53047,0,USWashingtonOkanogan,Washington,Okanogan,2022-04-28 09:13:11,2021-11-23,1.3241730636235691,4.2989099544833165,14.94359977017296,,,,,,,,,,,,
53047,0,USWashingtonOkanogan,Washington,Okanogan,2022-04-28 09:13:11,2021-11-24,1.3241730636235691,4.2989099544833165,14.94359977017296,,,,,,,,,,,,
