FIPS,HR_UID,nameid,province,region,analysisTime,dates,pointprevalence_025,pointprevalence_50,pointprevalence_975,pointinfections_025,pointinfections_50,pointinfections_975,pointinfectious_025,pointinfectious_50,pointinfectious_975,pointinfectiousprevalence_025,pointinfectiousprevalence_50,pointinfectiousprevalence_975,infectrate_025,infectrate_50,infectrate_975
20063,0,USKansasGove,Kansas,Gove,2022-04-28 09:13:11,2020-03-19,0,0,0,,,,,,,,,,,,
20063,0,USKansasGove,Kansas,Gove,2022-04-28 09:13:11,2020-03-20,0,0,0,,,,,,,,,,,,
20063,0,USKansasGove,Kansas,Gove,2022-04-28 09:13:11,2020-03-21,0,0,0,,,,,,,,,,,,
20063,0,USKansasGove,Kansas,Gove,2022-04-28 09:13:11,2020-03-22,0,0,0,,,,,,,,,,,,
20063,0,USKansasGove,Kansas,Gove,2022-04-28 09:13:11,2020-03-23,0,0,0,,,,,,,,,,,,
20063,0,USKansasGove,Kansas,Gove,2022-04-28 09:13:11,2020-03-24,0,0,0,,,,,,,,,,,,
20063,0,USKansasGove,Kansas,Gove,2022-04-28 09:13:11,2020-03-25,0,0,0,,,,,,,,,,,,
20063,0,USKansasGove,Kansas,Gove,2022-04-28 09:13:11,2020-03-26,0.24260974771904073,0.6675384559748266,1.9746743096238855,,,,,,,,,,,,
20063,0,USKansasGove,Kansas,Gove,2022-04-28 09:13:11,2020-03-27,0.24260974771904073,0.6675384559748266,1.9746743096238855,,,,,,,,,,,,
20063,0,USKansasGove,Kansas,Gove,2022-04-28 09:13:11,2020-03-28,0.24260974771904073,0.6675384559748266,1.9746743096238855,,,,,,,,,,,,
20063,0,USKansasGove,Kansas,Gove,2022-04-28 09:13:11,2020-03-29,0.24260974771904073,0.6675384559748266,1.9746743096238855,,,,,,,,,,,,
20063,0,USKansasGove,Kansas,Gove,2022-04-28 09:13:11,2020-03-30,0.24260974771904073,0.6675384559748266,1.9746743096238855,,,,,,,,,,,,
20063,0,USKansasGove,Kansas,Gove,2022-04-28 09:13:11,2020-03-31,0.24260974771904073,0.6675384559748266,1.9746743096238855,,,,,,,,,,,,
20063,0,USKansasGove,Kansas,Gove,2022-04-28 09:13:11,2020-04-01,0.24260974771904073,0.6675384559748266,1.9746743096238855,,,,,,,,,,,,
20063,0,USKansasGove,Kansas,Gove,2022-04-28 09:13:11,2020-04-02,0,0,0,,,,,,,,,,,,
20063,0,USKansasGove,Kansas,Gove,2022-04-28 09:13:11,2020-04-03,0,0,0,,,,,,,,,,,,
20063,0,USKansasGove,Kansas,Gove,2022-04-28 09:13:11,2020-04-04,0,0,0,,,,,,,,,,,,
20063,0,USKansasGove,Kansas,Gove,2022-04-28 09:13:11,2020-04-05,0,0,0,,,,,,,,,,,,
20063,0,USKansasGove,Kansas,Gove,2022-04-28 09:13:11,2020-04-06,0,0,0,,,,,,,,,,,,
20063,0,USKansasGove,Kansas,Gove,2022-04-28 09:13:11,2020-04-07,0,0,0,,,,,,,,,,,,
20063,0,USKansasGove,Kansas,Gove,2022-04-28 09:13:11,2020-04-08,0,0,0,,,,,,,,,,,,
20063,0,USKansasGove,Kansas,Gove,2022-04-28 09:13:11,2020-04-09,0,0,0,,,,,,,,,,,,
20063,0,USKansasGove,Kansas,Gove,2022-04-28 09:13:11,2020-04-10,0,0,0,,,,,,,,,,,,
20063,0,USKansasGove,Kansas,Gove,2022-04-28 09:13:11,2020-04-11,0,0,0,,,,,,,,,,,,
20063,0,USKansasGove,Kansas,Gove,2022-04-28 09:13:11,2020-04-12,0,0,0,,,,,,,,,,,,
20063,0,USKansasGove,Kansas,Gove,2022-04-28 09:13:11,2020-04-13,0,0,0,,,,,,,,,,,,
20063,0,USKansasGove,Kansas,Gove,2022-04-28 09:13:11,2020-04-14,0,0,0,,,,,,,,,,,,
20063,0,USKansasGove,Kansas,Gove,2022-04-28 09:13:11,2020-04-15,0,0,0,,,,,,,,,,,,
20063,0,USKansasGove,Kansas,Gove,2022-04-28 09:13:11,2020-04-16,0,0,0,,,,,,,,,,,,
20063,0,USKansasGove,Kansas,Gove,2022-04-28 09:13:11,2020-04-17,0,0,0,,,,,,,,,,,,
20063,0,USKansasGove,Kansas,Gove,2022-04-28 09:13:11,2020-04-18,0,0,0,,,,,,,,,,,,
20063,0,USKansasGove,Kansas,Gove,2022-04-28 09:13:11,2020-04-19,0,0,0,,,,,,,,,,,,
20063,0,USKansasGove,Kansas,Gove,2022-04-28 09:13:11,2020-04-20,0,0,0,,,,,,,,,,,,
20063,0,USKansasGove,Kansas,Gove,2022-04-28 09:13:11,2020-04-21,0,0,0,,,,,,,,,,,,
20063,0,USKansasGove,Kansas,Gove,2022-04-28 09:13:11,2020-04-22,0,0,0,,,,,,,,,,,,
20063,0,USKansasGove,Kansas,Gove,2022-04-28 09:13:11,2020-04-23,0,0,0,,,,,,,,,,,,
20063,0,USKansasGove,Kansas,Gove,2022-04-28 09:13:11,2020-04-24,0,0,0,,,,,,,,,,,,
20063,0,USKansasGove,Kansas,Gove,2022-04-28 09:13:11,2020-04-25,0,0,0,,,,,,,,,,,,
20063,0,USKansasGove,Kansas,Gove,2022-04-28 09:13:11,2020-04-26,0,0,0,,,,,,,,,,,,
20063,0,USKansasGove,Kansas,Gove,2022-04-28 09:13:11,2020-04-27,0,0,0,,,,,,,,,,,,
20063,0,USKansasGove,Kansas,Gove,2022-04-28 09:13:11,2020-04-28,0,0,0,,,,,,,,,,,,
20063,0,USKansasGove,Kansas,Gove,2022-04-28 09:13:11,2020-04-29,0,0,0,,,,,,,,,,,,
20063,0,USKansasGove,Kansas,Gove,2022-04-28 09:13:11,2020-04-30,0,0,0,,,,,,,,,,,,
20063,0,USKansasGove,Kansas,Gove,2022-04-28 09:13:11,2020-05-01,0,0,0,,,,,,,,,,,,
20063,0,USKansasGove,Kansas,Gove,2022-04-28 09:13:11,2020-05-02,0,0,0,,,,,,,,,,,,
20063,0,USKansasGove,Kansas,Gove,2022-04-28 09:13:11,2020-05-03,0,0,0,,,,,,,,,,,,
20063,0,USKansasGove,Kansas,Gove,2022-04-28 09:13:11,2020-05-04,0,0,0,,,,,,,,,,,,
20063,0,USKansasGove,Kansas,Gove,2022-04-28 09:13:11,2020-05-05,0,0,0,,,,,,,,,,,,
20063,0,USKansasGove,Kansas,Gove,2022-04-28 09:13:11,2020-05-06,0,0,0,,,,,,,,,,,,
20063,0,USKansasGove,Kansas,Gove,2022-04-28 09:13:11,2020-05-07,0,0,0,,,,,,,,,,,,
20063,0,USKansasGove,Kansas,Gove,2022-04-28 09:13:11,2020-05-08,0,0,0,,,,,,,,,,,,
20063,0,USKansasGove,Kansas,Gove,2022-04-28 09:13:11,2020-05-09,0,0,0,,,,,,,,,,,,
20063,0,USKansasGove,Kansas,Gove,2022-04-28 09:13:11,2020-05-10,0,0,0,,,,,,,,,,,,
20063,0,USKansasGove,Kansas,Gove,2022-04-28 09:13:11,2020-05-11,0,0,0,,,,,,,,,,,,
20063,0,USKansasGove,Kansas,Gove,2022-04-28 09:13:11,2020-05-12,0,0,0,,,,,,,,,,,,
20063,0,USKansasGove,Kansas,Gove,2022-04-28 09:13:11,2020-05-13,0,0,0,,,,,,,,,,,,
20063,0,USKansasGove,Kansas,Gove,2022-04-28 09:13:11,2020-05-14,0,0,0,,,,,,,,,,,,
20063,0,USKansasGove,Kansas,Gove,2022-04-28 09:13:11,2020-05-15,0,0,0,,,,,,,,,,,,
20063,0,USKansasGove,Kansas,Gove,2022-04-28 09:13:11,2020-05-16,0,0,0,,,,,,,,,,,,
20063,0,USKansasGove,Kansas,Gove,2022-04-28 09:13:11,2020-05-17,0,0,0,,,,,,,,,,,,
20063,0,USKansasGove,Kansas,Gove,2022-04-28 09:13:11,2020-05-18,0,0,0,,,,,,,,,,,,
20063,0,USKansasGove,Kansas,Gove,2022-04-28 09:13:11,2020-05-19,0,0,0,,,,,,,,,,,,
20063,0,USKansasGove,Kansas,Gove,2022-04-28 09:13:11,2020-05-20,0,0,0,,,,,,,,,,,,
20063,0,USKansasGove,Kansas,Gove,2022-04-28 09:13:11,2020-05-21,0,0,0,,,,,,,,,,,,
20063,0,USKansasGove,Kansas,Gove,2022-04-28 09:13:11,2020-05-22,0,0,0,,,,,,,,,,,,
20063,0,USKansasGove,Kansas,Gove,2022-04-28 09:13:11,2020-05-23,0,0,0,,,,,,,,,,,,
20063,0,USKansasGove,Kansas,Gove,2022-04-28 09:13:11,2020-05-24,0,0,0,,,,,,,,,,,,
20063,0,USKansasGove,Kansas,Gove,2022-04-28 09:13:11,2020-05-25,0,0,0,,,,,,,,,,,,
20063,0,USKansasGove,Kansas,Gove,2022-04-28 09:13:11,2020-05-26,0,0,0,,,,,,,,,,,,
20063,0,USKansasGove,Kansas,Gove,2022-04-28 09:13:11,2020-05-27,0,0,0,,,,,,,,,,,,
20063,0,USKansasGove,Kansas,Gove,2022-04-28 09:13:11,2020-05-28,0,0,0,,,,,,,,,,,,
20063,0,USKansasGove,Kansas,Gove,2022-04-28 09:13:11,2020-05-29,0,0,0,,,,,,,,,,,,
20063,0,USKansasGove,Kansas,Gove,2022-04-28 09:13:11,2020-05-30,0,0,0,,,,,,,,,,,,
20063,0,USKansasGove,Kansas,Gove,2022-04-28 09:13:11,2020-05-31,0,0,0,,,,,,,,,,,,
20063,0,USKansasGove,Kansas,Gove,2022-04-28 09:13:11,2020-06-01,0,0,0,,,,,,,,,,,,
20063,0,USKansasGove,Kansas,Gove,2022-04-28 09:13:11,2020-06-02,0,0,0,,,,,,,,,,,,
20063,0,USKansasGove,Kansas,Gove,2022-04-28 09:13:11,2020-06-03,0,0,0,,,,,,,,,,,,
20063,0,USKansasGove,Kansas,Gove,2022-04-28 09:13:11,2020-06-04,0,0,0,,,,,,,,,,,,
20063,0,USKansasGove,Kansas,Gove,2022-04-28 09:13:11,2020-06-05,0,0,0,,,,,,,,,,,,
20063,0,USKansasGove,Kansas,Gove,2022-04-28 09:13:11,2020-06-06,0,0,0,,,,,,,,,,,,
20063,0,USKansasGove,Kansas,Gove,2022-04-28 09:13:11,2020-06-07,0,0,0,,,,,,,,,,,,
20063,0,USKansasGove,Kansas,Gove,2022-04-28 09:13:11,2020-06-08,0,0,0,,,,,,,,,,,,
20063,0,USKansasGove,Kansas,Gove,2022-04-28 09:13:11,2020-06-09,0,0,0,,,,,,,,,,,,
20063,0,USKansasGove,Kansas,Gove,2022-04-28 09:13:11,2020-06-10,0,0,0,,,,,,,,,,,,
20063,0,USKansasGove,Kansas,Gove,2022-04-28 09:13:11,2020-06-11,0,0,0,,,,,,,,,,,,
20063,0,USKansasGove,Kansas,Gove,2022-04-28 09:13:11,2020-06-12,0,0,0,,,,,,,,,,,,
20063,0,USKansasGove,Kansas,Gove,2022-04-28 09:13:11,2020-06-13,0,0,0,,,,,,,,,,,,
20063,0,USKansasGove,Kansas,Gove,2022-04-28 09:13:11,2020-06-14,0,0,0,,,,,,,,,,,,
20063,0,USKansasGove,Kansas,Gove,2022-04-28 09:13:11,2020-06-15,0,0,0,,,,,,,,,,,,
20063,0,USKansasGove,Kansas,Gove,2022-04-28 09:13:11,2020-06-16,0,0,0,,,,,,,,,,,,
20063,0,USKansasGove,Kansas,Gove,2022-04-28 09:13:11,2020-06-17,0,0,0,,,,,,,,,,,,
20063,0,USKansasGove,Kansas,Gove,2022-04-28 09:13:11,2020-06-18,0,0,0,,,,,,,,,,,,
20063,0,USKansasGove,Kansas,Gove,2022-04-28 09:13:11,2020-06-19,0,0,0,,,,,,,,,,,,
20063,0,USKansasGove,Kansas,Gove,2022-04-28 09:13:11,2020-06-20,0,0,0,,,,,,,,,,,,
20063,0,USKansasGove,Kansas,Gove,2022-04-28 09:13:11,2020-06-21,0,0,0,,,,,,,,,,,,
20063,0,USKansasGove,Kansas,Gove,2022-04-28 09:13:11,2020-06-22,0,0,0,,,,,,,,,,,,
20063,0,USKansasGove,Kansas,Gove,2022-04-28 09:13:11,2020-06-23,0,0,0,,,,,,,,,,,,
20063,0,USKansasGove,Kansas,Gove,2022-04-28 09:13:11,2020-06-24,0,0,0,,,,,,,,,,,,
20063,0,USKansasGove,Kansas,Gove,2022-04-28 09:13:11,2020-06-25,0,0,0,,,,,,,,,,,,
20063,0,USKansasGove,Kansas,Gove,2022-04-28 09:13:11,2020-06-26,0,0,0,,,,,,,,,,,,
20063,0,USKansasGove,Kansas,Gove,2022-04-28 09:13:11,2020-06-27,0,0,0,,,,,,,,,,,,
20063,0,USKansasGove,Kansas,Gove,2022-04-28 09:13:11,2020-06-28,0,0,0,,,,,,,,,,,,
20063,0,USKansasGove,Kansas,Gove,2022-04-28 09:13:11,2020-06-29,0,0,0,,,,,,,,,,,,
20063,0,USKansasGove,Kansas,Gove,2022-04-28 09:13:11,2020-06-30,0,0,0,,,,,,,,,,,,
20063,0,USKansasGove,Kansas,Gove,2022-04-28 09:13:11,2020-07-01,0,0,0,,,,,,,,,,,,
20063,0,USKansasGove,Kansas,Gove,2022-04-28 09:13:11,2020-07-02,0.24222448896163004,0.6655645189709594,1.9661787224494194,,,,,,,,,,,,
20063,0,USKansasGove,Kansas,Gove,2022-04-28 09:13:11,2020-07-03,0.24222448896163004,0.6655645189709594,1.9661787224494194,,,,,,,,,,,,
20063,0,USKansasGove,Kansas,Gove,2022-04-28 09:13:11,2020-07-04,0.24222448896163004,0.6655645189709594,1.9661787224494194,,,,,,,,,,,,
20063,0,USKansasGove,Kansas,Gove,2022-04-28 09:13:11,2020-07-05,0.24222448896163004,0.6655645189709594,1.9661787224494194,,,,,,,,,,,,
20063,0,USKansasGove,Kansas,Gove,2022-04-28 09:13:11,2020-07-06,0.24222448896163004,0.6655645189709594,1.9661787224494194,,,,,,,,,,,,
20063,0,USKansasGove,Kansas,Gove,2022-04-28 09:13:11,2020-07-07,0.24222448896163004,0.6655645189709594,1.9661787224494194,,,,,,,,,,,,
20063,0,USKansasGove,Kansas,Gove,2022-04-28 09:13:11,2020-07-08,0.24222448896163004,0.6655645189709594,1.9661787224494194,,,,,,,,,,,,
20063,0,USKansasGove,Kansas,Gove,2022-04-28 09:13:11,2020-07-09,0,0,0,,,,,,,,,,,,
20063,0,USKansasGove,Kansas,Gove,2022-04-28 09:13:11,2020-07-10,0,0,0,,,,,,,,,,,,
20063,0,USKansasGove,Kansas,Gove,2022-04-28 09:13:11,2020-07-11,0,0,0,,,,,,,,,,,,
20063,0,USKansasGove,Kansas,Gove,2022-04-28 09:13:11,2020-07-12,0,0,0,,,,,,,,,,,,
20063,0,USKansasGove,Kansas,Gove,2022-04-28 09:13:11,2020-07-13,0,0,0,,,,,,,,,,,,
20063,0,USKansasGove,Kansas,Gove,2022-04-28 09:13:11,2020-07-14,0,0,0,,,,,,,,,,,,
20063,0,USKansasGove,Kansas,Gove,2022-04-28 09:13:11,2020-07-15,0,0,0,,,,,,,,,,,,
20063,0,USKansasGove,Kansas,Gove,2022-04-28 09:13:11,2020-07-16,0,0,0,,,,,,,,,,,,
20063,0,USKansasGove,Kansas,Gove,2022-04-28 09:13:11,2020-07-17,0,0,0,,,,,,,,,,,,
20063,0,USKansasGove,Kansas,Gove,2022-04-28 09:13:11,2020-07-18,0,0,0,,,,,,,,,,,,
20063,0,USKansasGove,Kansas,Gove,2022-04-28 09:13:11,2020-07-19,0,0,0,,,,,,,,,,,,
20063,0,USKansasGove,Kansas,Gove,2022-04-28 09:13:11,2020-07-20,0,0,0,,,,,,,,,,,,
20063,0,USKansasGove,Kansas,Gove,2022-04-28 09:13:11,2020-07-21,0,0,0,,,,,,,,,,,,
20063,0,USKansasGove,Kansas,Gove,2022-04-28 09:13:11,2020-07-22,0,0,0,,,,,,,,,,,,
20063,0,USKansasGove,Kansas,Gove,2022-04-28 09:13:11,2020-07-23,0.27481914459572554,0.8411905574909914,2.7617188461272284,,,,,,,,,,,,
20063,0,USKansasGove,Kansas,Gove,2022-04-28 09:13:11,2020-07-24,0.27481914459572554,0.8411905574909914,2.7617188461272284,,,,,,,,,,,,
20063,0,USKansasGove,Kansas,Gove,2022-04-28 09:13:11,2020-07-25,0.27481914459572554,0.8411905574909914,2.7617188461272284,,,,,,,,,,,,
20063,0,USKansasGove,Kansas,Gove,2022-04-28 09:13:11,2020-07-26,0.27481914459572554,0.8411905574909914,2.7617188461272284,,,,,,,,,,,,
20063,0,USKansasGove,Kansas,Gove,2022-04-28 09:13:11,2020-07-27,0.27481914459572554,0.8411905574909914,2.7617188461272284,,,,,,,,,,,,
20063,0,USKansasGove,Kansas,Gove,2022-04-28 09:13:11,2020-07-28,0.27481914459572554,0.8411905574909914,2.7617188461272284,,,,,,,,,,,,
20063,0,USKansasGove,Kansas,Gove,2022-04-28 09:13:11,2020-07-29,0.27481914459572554,0.8411905574909914,2.7617188461272284,,,,,,,,,,,,
20063,0,USKansasGove,Kansas,Gove,2022-04-28 09:13:11,2020-07-30,0.5738916684369155,1.2813607219951784,3.0767043681539024,,,,,,,,,,,,
20063,0,USKansasGove,Kansas,Gove,2022-04-28 09:13:11,2020-07-31,0.5738916684369155,1.2813607219951784,3.0767043681539024,,,,,,,,,,,,
20063,0,USKansasGove,Kansas,Gove,2022-04-28 09:13:11,2020-08-01,0.5738916684369155,1.2813607219951784,3.0767043681539024,,,,,,,,,,,,
20063,0,USKansasGove,Kansas,Gove,2022-04-28 09:13:11,2020-08-02,0.5738916684369155,1.2813607219951784,3.0767043681539024,,,,,,,,,,,,
20063,0,USKansasGove,Kansas,Gove,2022-04-28 09:13:11,2020-08-03,0.5738916684369155,1.2813607219951784,3.0767043681539024,,,,,,,,,,,,
20063,0,USKansasGove,Kansas,Gove,2022-04-28 09:13:11,2020-08-04,0.5738916684369155,1.2813607219951784,3.0767043681539024,,,,,,,,,,,,
20063,0,USKansasGove,Kansas,Gove,2022-04-28 09:13:11,2020-08-05,0.5738916684369155,1.2813607219951784,3.0767043681539024,,,,,,,,,,,,
20063,0,USKansasGove,Kansas,Gove,2022-04-28 09:13:11,2020-08-06,0,0,0,,,,,,,,,,,,
20063,0,USKansasGove,Kansas,Gove,2022-04-28 09:13:11,2020-08-07,0,0,0,,,,,,,,,,,,
20063,0,USKansasGove,Kansas,Gove,2022-04-28 09:13:11,2020-08-08,0,0,0,,,,,,,,,,,,
20063,0,USKansasGove,Kansas,Gove,2022-04-28 09:13:11,2020-08-09,0,0,0,,,,,,,,,,,,
20063,0,USKansasGove,Kansas,Gove,2022-04-28 09:13:11,2020-08-10,0,0,0,,,,,,,,,,,,
20063,0,USKansasGove,Kansas,Gove,2022-04-28 09:13:11,2020-08-11,0,0,0,,,,,,,,,,,,
20063,0,USKansasGove,Kansas,Gove,2022-04-28 09:13:11,2020-08-12,0,0,0,,,,,,,,,,,,
20063,0,USKansasGove,Kansas,Gove,2022-04-28 09:13:11,2020-08-13,0.25760157335232103,0.7462615130636914,2.321977668986358,,,,,,,,,,,,
20063,0,USKansasGove,Kansas,Gove,2022-04-28 09:13:11,2020-08-14,0.25760157335232103,0.7462615130636914,2.321977668986358,,,,,,,,,,,,
20063,0,USKansasGove,Kansas,Gove,2022-04-28 09:13:11,2020-08-15,0.25760157335232103,0.7462615130636914,2.321977668986358,,,,,,,,,,,,
20063,0,USKansasGove,Kansas,Gove,2022-04-28 09:13:11,2020-08-16,0.25760157335232103,0.7462615130636914,2.321977668986358,,,,,,,,,,,,
20063,0,USKansasGove,Kansas,Gove,2022-04-28 09:13:11,2020-08-17,0.25760157335232103,0.7462615130636914,2.321977668986358,,,,,,,,,,,,
20063,0,USKansasGove,Kansas,Gove,2022-04-28 09:13:11,2020-08-18,0.25760157335232103,0.7462615130636914,2.321977668986358,,,,,,,,,,,,
20063,0,USKansasGove,Kansas,Gove,2022-04-28 09:13:11,2020-08-19,0.25760157335232103,0.7462615130636914,2.321977668986358,,,,,,,,,,,,
20063,0,USKansasGove,Kansas,Gove,2022-04-28 09:13:11,2020-08-20,0.5680530619208942,1.2567709515021994,2.989711900041103,,,,,,,,,,,,
20063,0,USKansasGove,Kansas,Gove,2022-04-28 09:13:11,2020-08-21,0.5680530619208942,1.2567709515021994,2.989711900041103,,,,,,,,,,,,
20063,0,USKansasGove,Kansas,Gove,2022-04-28 09:13:11,2020-08-22,0.5680530619208942,1.2567709515021994,2.989711900041103,,,,,,,,,,,,
20063,0,USKansasGove,Kansas,Gove,2022-04-28 09:13:11,2020-08-23,0.5680530619208942,1.2567709515021994,2.989711900041103,,,,,,,,,,,,
20063,0,USKansasGove,Kansas,Gove,2022-04-28 09:13:11,2020-08-24,0.5680530619208942,1.2567709515021994,2.989711900041103,,,,,,,,,,,,
20063,0,USKansasGove,Kansas,Gove,2022-04-28 09:13:11,2020-08-25,0.5680530619208942,1.2567709515021994,2.989711900041103,,,,,,,,,,,,
20063,0,USKansasGove,Kansas,Gove,2022-04-28 09:13:11,2020-08-26,0.5680530619208942,1.2567709515021994,2.989711900041103,,,,,,,,,,,,
20063,0,USKansasGove,Kansas,Gove,2022-04-28 09:13:11,2020-08-27,0.45772864878072544,1.1973137729340753,3.369339376369387,,,,,,,,,,,,
20063,0,USKansasGove,Kansas,Gove,2022-04-28 09:13:11,2020-08-28,0.45772864878072544,1.1973137729340753,3.369339376369387,,,,,,,,,,,,
20063,0,USKansasGove,Kansas,Gove,2022-04-28 09:13:11,2020-08-29,0.45772864878072544,1.1973137729340753,3.369339376369387,,,,,,,,,,,,
20063,0,USKansasGove,Kansas,Gove,2022-04-28 09:13:11,2020-08-30,0.45772864878072544,1.1973137729340753,3.369339376369387,,,,,,,,,,,,
20063,0,USKansasGove,Kansas,Gove,2022-04-28 09:13:11,2020-08-31,0.45772864878072544,1.1973137729340753,3.369339376369387,,,,,,,,,,,,
20063,0,USKansasGove,Kansas,Gove,2022-04-28 09:13:11,2020-09-01,0.45772864878072544,1.1973137729340753,3.369339376369387,,,,,,,,,,,,
20063,0,USKansasGove,Kansas,Gove,2022-04-28 09:13:11,2020-09-02,0.45772864878072544,1.1973137729340753,3.369339376369387,,,,,,,,,,,,
20063,0,USKansasGove,Kansas,Gove,2022-04-28 09:13:11,2020-09-03,1.1677347310126511,2.304414752978193,4.873226099663019,,,,,,,,,,,,
20063,0,USKansasGove,Kansas,Gove,2022-04-28 09:13:11,2020-09-04,1.1677347310126511,2.304414752978193,4.873226099663019,,,,,,,,,,,,
20063,0,USKansasGove,Kansas,Gove,2022-04-28 09:13:11,2020-09-05,1.1677347310126511,2.304414752978193,4.873226099663019,,,,,,,,,,,,
20063,0,USKansasGove,Kansas,Gove,2022-04-28 09:13:11,2020-09-06,1.1677347310126511,2.304414752978193,4.873226099663019,,,,,,,,,,,,
20063,0,USKansasGove,Kansas,Gove,2022-04-28 09:13:11,2020-09-07,1.1677347310126511,2.304414752978193,4.873226099663019,,,,,,,,,,,,
20063,0,USKansasGove,Kansas,Gove,2022-04-28 09:13:11,2020-09-08,1.1677347310126511,2.304414752978193,4.873226099663019,,,,,,,,,,,,
20063,0,USKansasGove,Kansas,Gove,2022-04-28 09:13:11,2020-09-09,1.1677347310126511,2.304414752978193,4.873226099663019,,,,,,,,,,,,
20063,0,USKansasGove,Kansas,Gove,2022-04-28 09:13:11,2020-09-10,0.6076609126646143,1.42765428434147,3.609166851752622,,,,,,,,,,,,
20063,0,USKansasGove,Kansas,Gove,2022-04-28 09:13:11,2020-09-11,0.6076609126646143,1.42765428434147,3.609166851752622,,,,,,,,,,,,
20063,0,USKansasGove,Kansas,Gove,2022-04-28 09:13:11,2020-09-12,0.6076609126646143,1.42765428434147,3.609166851752622,,,,,,,,,,,,
20063,0,USKansasGove,Kansas,Gove,2022-04-28 09:13:11,2020-09-13,0.6076609126646143,1.42765428434147,3.609166851752622,,,,,,,,,,,,
20063,0,USKansasGove,Kansas,Gove,2022-04-28 09:13:11,2020-09-14,0.6076609126646143,1.42765428434147,3.609166851752622,,,,,,,,,,,,
20063,0,USKansasGove,Kansas,Gove,2022-04-28 09:13:11,2020-09-15,0.6076609126646143,1.42765428434147,3.609166851752622,,,,,,,,,,,,
20063,0,USKansasGove,Kansas,Gove,2022-04-28 09:13:11,2020-09-16,0.6076609126646143,1.42765428434147,3.609166851752622,,,,,,,,,,,,
20063,0,USKansasGove,Kansas,Gove,2022-04-28 09:13:11,2020-09-17,1.7677021291972863,3.1138579693578263,5.840723305803467,,,,,,,,,,,,
20063,0,USKansasGove,Kansas,Gove,2022-04-28 09:13:11,2020-09-18,1.7677021291972863,3.1138579693578263,5.840723305803467,,,,,,,,,,,,
20063,0,USKansasGove,Kansas,Gove,2022-04-28 09:13:11,2020-09-19,1.7677021291972863,3.1138579693578263,5.840723305803467,,,,,,,,,,,,
20063,0,USKansasGove,Kansas,Gove,2022-04-28 09:13:11,2020-09-20,1.7677021291972863,3.1138579693578263,5.840723305803467,,,,,,,,,,,,
20063,0,USKansasGove,Kansas,Gove,2022-04-28 09:13:11,2020-09-21,1.7677021291972863,3.1138579693578263,5.840723305803467,,,,,,,,,,,,
20063,0,USKansasGove,Kansas,Gove,2022-04-28 09:13:11,2020-09-22,1.7677021291972863,3.1138579693578263,5.840723305803467,,,,,,,,,,,,
20063,0,USKansasGove,Kansas,Gove,2022-04-28 09:13:11,2020-09-23,1.7677021291972863,3.1138579693578263,5.840723305803467,,,,,,,,,,,,
20063,0,USKansasGove,Kansas,Gove,2022-04-28 09:13:11,2020-09-24,4.836920892404799,6.6606348291093225,9.521867112037018,,,,,,,,,,,,
20063,0,USKansasGove,Kansas,Gove,2022-04-28 09:13:11,2020-09-25,4.836920892404799,6.6606348291093225,9.521867112037018,,,,,,,,,,,,
20063,0,USKansasGove,Kansas,Gove,2022-04-28 09:13:11,2020-09-26,4.836920892404799,6.6606348291093225,9.521867112037018,,,,,,,,,,,,
20063,0,USKansasGove,Kansas,Gove,2022-04-28 09:13:11,2020-09-27,4.836920892404799,6.6606348291093225,9.521867112037018,,,,,,,,,,,,
20063,0,USKansasGove,Kansas,Gove,2022-04-28 09:13:11,2020-09-28,4.836920892404799,6.6606348291093225,9.521867112037018,,,,,,,,,,,,
20063,0,USKansasGove,Kansas,Gove,2022-04-28 09:13:11,2020-09-29,4.836920892404799,6.6606348291093225,9.521867112037018,,,,,,,,,,,,
20063,0,USKansasGove,Kansas,Gove,2022-04-28 09:13:11,2020-09-30,4.836920892404799,6.6606348291093225,9.521867112037018,,,,,,,,,,,,
20063,0,USKansasGove,Kansas,Gove,2022-04-28 09:13:11,2020-10-01,4.446025923529033,6.196493258225337,8.979869409164655,,,,,,,,,,,,
20063,0,USKansasGove,Kansas,Gove,2022-04-28 09:13:11,2020-10-02,4.446025923529033,6.196493258225337,8.979869409164655,,,,,,,,,,,,
20063,0,USKansasGove,Kansas,Gove,2022-04-28 09:13:11,2020-10-03,4.446025923529033,6.196493258225337,8.979869409164655,,,,,,,,,,,,
20063,0,USKansasGove,Kansas,Gove,2022-04-28 09:13:11,2020-10-04,4.446025923529033,6.196493258225337,8.979869409164655,,,,,,,,,,,,
20063,0,USKansasGove,Kansas,Gove,2022-04-28 09:13:11,2020-10-05,4.446025923529033,6.196493258225337,8.979869409164655,,,,,,,,,,,,
20063,0,USKansasGove,Kansas,Gove,2022-04-28 09:13:11,2020-10-06,4.446025923529033,6.196493258225337,8.979869409164655,,,,,,,,,,,,
20063,0,USKansasGove,Kansas,Gove,2022-04-28 09:13:11,2020-10-07,4.446025923529033,6.196493258225337,8.979869409164655,,,,,,,,,,,,
20063,0,USKansasGove,Kansas,Gove,2022-04-28 09:13:11,2020-10-08,2.795517874199939,4.4874574044554,7.611545620517143,,,,,,,,,,,,
20063,0,USKansasGove,Kansas,Gove,2022-04-28 09:13:11,2020-10-09,2.795517874199939,4.4874574044554,7.611545620517143,,,,,,,,,,,,
20063,0,USKansasGove,Kansas,Gove,2022-04-28 09:13:11,2020-10-10,2.795517874199939,4.4874574044554,7.611545620517143,,,,,,,,,,,,
20063,0,USKansasGove,Kansas,Gove,2022-04-28 09:13:11,2020-10-11,2.795517874199939,4.4874574044554,7.611545620517143,,,,,,,,,,,,
20063,0,USKansasGove,Kansas,Gove,2022-04-28 09:13:11,2020-10-12,2.795517874199939,4.4874574044554,7.611545620517143,,,,,,,,,,,,
20063,0,USKansasGove,Kansas,Gove,2022-04-28 09:13:11,2020-10-13,2.795517874199939,4.4874574044554,7.611545620517143,,,,,,,,,,,,
20063,0,USKansasGove,Kansas,Gove,2022-04-28 09:13:11,2020-10-14,2.795517874199939,4.4874574044554,7.611545620517143,,,,,,,,,,,,
20063,0,USKansasGove,Kansas,Gove,2022-04-28 09:13:11,2020-10-15,3.4423988498329283,5.498440202371782,9.27565819142757,,,,,,,,,,,,
20063,0,USKansasGove,Kansas,Gove,2022-04-28 09:13:11,2020-10-16,3.4423988498329283,5.498440202371782,9.27565819142757,,,,,,,,,,,,
20063,0,USKansasGove,Kansas,Gove,2022-04-28 09:13:11,2020-10-17,3.4423988498329283,5.498440202371782,9.27565819142757,,,,,,,,,,,,
20063,0,USKansasGove,Kansas,Gove,2022-04-28 09:13:11,2020-10-18,3.4423988498329283,5.498440202371782,9.27565819142757,,,,,,,,,,,,
20063,0,USKansasGove,Kansas,Gove,2022-04-28 09:13:11,2020-10-19,3.4423988498329283,5.498440202371782,9.27565819142757,,,,,,,,,,,,
20063,0,USKansasGove,Kansas,Gove,2022-04-28 09:13:11,2020-10-20,3.4423988498329283,5.498440202371782,9.27565819142757,,,,,,,,,,,,
20063,0,USKansasGove,Kansas,Gove,2022-04-28 09:13:11,2020-10-21,3.4423988498329283,5.498440202371782,9.27565819142757,,,,,,,,,,,,
20063,0,USKansasGove,Kansas,Gove,2022-04-28 09:13:11,2020-10-22,2.9881926776608734,5.332542471503573,10.142044307076977,,,,,,,,,,,,
20063,0,USKansasGove,Kansas,Gove,2022-04-28 09:13:11,2020-10-23,2.9881926776608734,5.332542471503573,10.142044307076977,,,,,,,,,,,,
20063,0,USKansasGove,Kansas,Gove,2022-04-28 09:13:11,2020-10-24,2.9881926776608734,5.332542471503573,10.142044307076977,,,,,,,,,,,,
20063,0,USKansasGove,Kansas,Gove,2022-04-28 09:13:11,2020-10-25,2.9881926776608734,5.332542471503573,10.142044307076977,,,,,,,,,,,,
20063,0,USKansasGove,Kansas,Gove,2022-04-28 09:13:11,2020-10-26,2.9881926776608734,5.332542471503573,10.142044307076977,,,,,,,,,,,,
20063,0,USKansasGove,Kansas,Gove,2022-04-28 09:13:11,2020-10-27,2.9881926776608734,5.332542471503573,10.142044307076977,,,,,,,,,,,,
20063,0,USKansasGove,Kansas,Gove,2022-04-28 09:13:11,2020-10-28,2.9881926776608734,5.332542471503573,10.142044307076977,,,,,,,,,,,,
20063,0,USKansasGove,Kansas,Gove,2022-04-28 09:13:11,2020-10-29,5.029070161253956,8.228516093294145,14.251477892302544,,,,,,,,,,,,
20063,0,USKansasGove,Kansas,Gove,2022-04-28 09:13:11,2020-10-30,5.029070161253956,8.228516093294145,14.251477892302544,,,,,,,,,,,,
20063,0,USKansasGove,Kansas,Gove,2022-04-28 09:13:11,2020-10-31,5.029070161253956,8.228516093294145,14.251477892302544,,,,,,,,,,,,
20063,0,USKansasGove,Kansas,Gove,2022-04-28 09:13:11,2020-11-01,5.029070161253956,8.228516093294145,14.251477892302544,,,,,,,,,,,,
20063,0,USKansasGove,Kansas,Gove,2022-04-28 09:13:11,2020-11-02,5.029070161253956,8.228516093294145,14.251477892302544,,,,,,,,,,,,
20063,0,USKansasGove,Kansas,Gove,2022-04-28 09:13:11,2020-11-03,5.029070161253956,8.228516093294145,14.251477892302544,,,,,,,,,,,,
20063,0,USKansasGove,Kansas,Gove,2022-04-28 09:13:11,2020-11-04,5.029070161253956,8.228516093294145,14.251477892302544,,,,,,,,,,,,
20063,0,USKansasGove,Kansas,Gove,2022-04-28 09:13:11,2020-11-05,4.157519336767133,7.6268119091399145,14.937492459872157,,,,,,,,,,,,
20063,0,USKansasGove,Kansas,Gove,2022-04-28 09:13:11,2020-11-06,4.157519336767133,7.6268119091399145,14.937492459872157,,,,,,,,,,,,
20063,0,USKansasGove,Kansas,Gove,2022-04-28 09:13:11,2020-11-07,4.157519336767133,7.6268119091399145,14.937492459872157,,,,,,,,,,,,
20063,0,USKansasGove,Kansas,Gove,2022-04-28 09:13:11,2020-11-08,4.157519336767133,7.6268119091399145,14.937492459872157,,,,,,,,,,,,
20063,0,USKansasGove,Kansas,Gove,2022-04-28 09:13:11,2020-11-09,4.157519336767133,7.6268119091399145,14.937492459872157,,,,,,,,,,,,
20063,0,USKansasGove,Kansas,Gove,2022-04-28 09:13:11,2020-11-10,4.157519336767133,7.6268119091399145,14.937492459872157,,,,,,,,,,,,
20063,0,USKansasGove,Kansas,Gove,2022-04-28 09:13:11,2020-11-11,4.157519336767133,7.6268119091399145,14.937492459872157,,,,,,,,,,,,
20063,0,USKansasGove,Kansas,Gove,2022-04-28 09:13:11,2020-11-12,2.521408237098407,5.332965959920092,12.116213805064904,,,,,,,,,,,,
20063,0,USKansasGove,Kansas,Gove,2022-04-28 09:13:11,2020-11-13,2.521408237098407,5.332965959920092,12.116213805064904,,,,,,,,,,,,
20063,0,USKansasGove,Kansas,Gove,2022-04-28 09:13:11,2020-11-14,2.521408237098407,5.332965959920092,12.116213805064904,,,,,,,,,,,,
20063,0,USKansasGove,Kansas,Gove,2022-04-28 09:13:11,2020-11-15,2.521408237098407,5.332965959920092,12.116213805064904,,,,,,,,,,,,
20063,0,USKansasGove,Kansas,Gove,2022-04-28 09:13:11,2020-11-16,2.521408237098407,5.332965959920092,12.116213805064904,,,,,,,,,,,,
20063,0,USKansasGove,Kansas,Gove,2022-04-28 09:13:11,2020-11-17,2.521408237098407,5.332965959920092,12.116213805064904,,,,,,,,,,,,
20063,0,USKansasGove,Kansas,Gove,2022-04-28 09:13:11,2020-11-18,2.521408237098407,5.332965959920092,12.116213805064904,,,,,,,,,,,,
20063,0,USKansasGove,Kansas,Gove,2022-04-28 09:13:11,2020-11-19,4.840479524287102,8.263963133108922,14.988321724888209,,,,,,,,,,,,
20063,0,USKansasGove,Kansas,Gove,2022-04-28 09:13:11,2020-11-20,4.840479524287102,8.263963133108922,14.988321724888209,,,,,,,,,,,,
20063,0,USKansasGove,Kansas,Gove,2022-04-28 09:13:11,2020-11-21,4.840479524287102,8.263963133108922,14.988321724888209,,,,,,,,,,,,
20063,0,USKansasGove,Kansas,Gove,2022-04-28 09:13:11,2020-11-22,4.840479524287102,8.263963133108922,14.988321724888209,,,,,,,,,,,,
20063,0,USKansasGove,Kansas,Gove,2022-04-28 09:13:11,2020-11-23,4.840479524287102,8.263963133108922,14.988321724888209,,,,,,,,,,,,
20063,0,USKansasGove,Kansas,Gove,2022-04-28 09:13:11,2020-11-24,4.840479524287102,8.263963133108922,14.988321724888209,,,,,,,,,,,,
20063,0,USKansasGove,Kansas,Gove,2022-04-28 09:13:11,2020-11-25,4.840479524287102,8.263963133108922,14.988321724888209,,,,,,,,,,,,
20063,0,USKansasGove,Kansas,Gove,2022-04-28 09:13:11,2020-11-26,2.5372764905956586,5.396942418002711,12.33288019934145,,,,,,,,,,,,
20063,0,USKansasGove,Kansas,Gove,2022-04-28 09:13:11,2020-11-27,2.5372764905956586,5.396942418002711,12.33288019934145,,,,,,,,,,,,
20063,0,USKansasGove,Kansas,Gove,2022-04-28 09:13:11,2020-11-28,2.5372764905956586,5.396942418002711,12.33288019934145,,,,,,,,,,,,
20063,0,USKansasGove,Kansas,Gove,2022-04-28 09:13:11,2020-11-29,2.5372764905956586,5.396942418002711,12.33288019934145,,,,,,,,,,,,
20063,0,USKansasGove,Kansas,Gove,2022-04-28 09:13:11,2020-11-30,2.5372764905956586,5.396942418002711,12.33288019934145,,,,,,,,,,,,
20063,0,USKansasGove,Kansas,Gove,2022-04-28 09:13:11,2020-12-01,2.5372764905956586,5.396942418002711,12.33288019934145,,,,,,,,,,,,
20063,0,USKansasGove,Kansas,Gove,2022-04-28 09:13:11,2020-12-02,2.5372764905956586,5.396942418002711,12.33288019934145,,,,,,,,,,,,
20063,0,USKansasGove,Kansas,Gove,2022-04-28 09:13:11,2020-12-03,1.1309880800008412,2.9283251492900955,8.157509019870675,,,,,,,,,,,,
20063,0,USKansasGove,Kansas,Gove,2022-04-28 09:13:11,2020-12-04,1.1309880800008412,2.9283251492900955,8.157509019870675,,,,,,,,,,,,
20063,0,USKansasGove,Kansas,Gove,2022-04-28 09:13:11,2020-12-05,1.1309880800008412,2.9283251492900955,8.157509019870675,,,,,,,,,,,,
20063,0,USKansasGove,Kansas,Gove,2022-04-28 09:13:11,2020-12-06,1.1309880800008412,2.9283251492900955,8.157509019870675,,,,,,,,,,,,
20063,0,USKansasGove,Kansas,Gove,2022-04-28 09:13:11,2020-12-07,1.1309880800008412,2.9283251492900955,8.157509019870675,,,,,,,,,,,,
20063,0,USKansasGove,Kansas,Gove,2022-04-28 09:13:11,2020-12-08,1.1309880800008412,2.9283251492900955,8.157509019870675,,,,,,,,,,,,
20063,0,USKansasGove,Kansas,Gove,2022-04-28 09:13:11,2020-12-09,1.1309880800008412,2.9283251492900955,8.157509019870675,,,,,,,,,,,,
20063,0,USKansasGove,Kansas,Gove,2022-04-28 09:13:11,2020-12-10,0.7483620735300425,2.109053876580578,6.387518329563437,,,,,,,,,,,,
20063,0,USKansasGove,Kansas,Gove,2022-04-28 09:13:11,2020-12-11,0.7483620735300425,2.109053876580578,6.387518329563437,,,,,,,,,,,,
20063,0,USKansasGove,Kansas,Gove,2022-04-28 09:13:11,2020-12-12,0.7483620735300425,2.109053876580578,6.387518329563437,,,,,,,,,,,,
20063,0,USKansasGove,Kansas,Gove,2022-04-28 09:13:11,2020-12-13,0.7483620735300425,2.109053876580578,6.387518329563437,,,,,,,,,,,,
20063,0,USKansasGove,Kansas,Gove,2022-04-28 09:13:11,2020-12-14,0.7483620735300425,2.109053876580578,6.387518329563437,,,,,,,,,,,,
20063,0,USKansasGove,Kansas,Gove,2022-04-28 09:13:11,2020-12-15,0.7483620735300425,2.109053876580578,6.387518329563437,,,,,,,,,,,,
20063,0,USKansasGove,Kansas,Gove,2022-04-28 09:13:11,2020-12-16,0.7483620735300425,2.109053876580578,6.387518329563437,,,,,,,,,,,,
20063,0,USKansasGove,Kansas,Gove,2022-04-28 09:13:11,2020-12-17,2.255589997452819,4.612721529571346,10.122378400726637,,,,,,,,,,,,
20063,0,USKansasGove,Kansas,Gove,2022-04-28 09:13:11,2020-12-18,2.255589997452819,4.612721529571346,10.122378400726637,,,,,,,,,,,,
20063,0,USKansasGove,Kansas,Gove,2022-04-28 09:13:11,2020-12-19,2.255589997452819,4.612721529571346,10.122378400726637,,,,,,,,,,,,
20063,0,USKansasGove,Kansas,Gove,2022-04-28 09:13:11,2020-12-20,2.255589997452819,4.612721529571346,10.122378400726637,,,,,,,,,,,,
20063,0,USKansasGove,Kansas,Gove,2022-04-28 09:13:11,2020-12-21,2.255589997452819,4.612721529571346,10.122378400726637,,,,,,,,,,,,
20063,0,USKansasGove,Kansas,Gove,2022-04-28 09:13:11,2020-12-22,2.255589997452819,4.612721529571346,10.122378400726637,,,,,,,,,,,,
20063,0,USKansasGove,Kansas,Gove,2022-04-28 09:13:11,2020-12-23,2.255589997452819,4.612721529571346,10.122378400726637,,,,,,,,,,,,
20063,0,USKansasGove,Kansas,Gove,2022-04-28 09:13:11,2020-12-24,0.7353958171558101,2.041567438442072,6.092462260981932,,,,,,,,,,,,
20063,0,USKansasGove,Kansas,Gove,2022-04-28 09:13:11,2020-12-25,0.7353958171558101,2.041567438442072,6.092462260981932,,,,,,,,,,,,
20063,0,USKansasGove,Kansas,Gove,2022-04-28 09:13:11,2020-12-26,0.7353958171558101,2.041567438442072,6.092462260981932,,,,,,,,,,,,
20063,0,USKansasGove,Kansas,Gove,2022-04-28 09:13:11,2020-12-27,0.7353958171558101,2.041567438442072,6.092462260981932,,,,,,,,,,,,
20063,0,USKansasGove,Kansas,Gove,2022-04-28 09:13:11,2020-12-28,0.7353958171558101,2.041567438442072,6.092462260981932,,,,,,,,,,,,
20063,0,USKansasGove,Kansas,Gove,2022-04-28 09:13:11,2020-12-29,0.7353958171558101,2.041567438442072,6.092462260981932,,,,,,,,,,,,
20063,0,USKansasGove,Kansas,Gove,2022-04-28 09:13:11,2020-12-30,0.7353958171558101,2.041567438442072,6.092462260981932,,,,,,,,,,,,
20063,0,USKansasGove,Kansas,Gove,2022-04-28 09:13:11,2020-12-31,1.1317116080880376,2.931834443457754,8.171806629978127,,,,,,,,,,,,
20063,0,USKansasGove,Kansas,Gove,2022-04-28 09:13:11,2021-01-01,1.1317116080880376,2.931834443457754,8.171806629978127,,,,,,,,,,,,
20063,0,USKansasGove,Kansas,Gove,2022-04-28 09:13:11,2021-01-02,1.1317116080880376,2.931834443457754,8.171806629978127,,,,,,,,,,,,
20063,0,USKansasGove,Kansas,Gove,2022-04-28 09:13:11,2021-01-03,1.1317116080880376,2.931834443457754,8.171806629978127,,,,,,,,,,,,
20063,0,USKansasGove,Kansas,Gove,2022-04-28 09:13:11,2021-01-04,1.1317116080880376,2.931834443457754,8.171806629978127,,,,,,,,,,,,
20063,0,USKansasGove,Kansas,Gove,2022-04-28 09:13:11,2021-01-05,1.1317116080880376,2.931834443457754,8.171806629978127,,,,,,,,,,,,
20063,0,USKansasGove,Kansas,Gove,2022-04-28 09:13:11,2021-01-06,1.1317116080880376,2.931834443457754,8.171806629978127,,,,,,,,,,,,
20063,0,USKansasGove,Kansas,Gove,2022-04-28 09:13:11,2021-01-07,2.36083358496761,4.704811475510129,10.051551973060645,,,,,,,,,,,,
20063,0,USKansasGove,Kansas,Gove,2022-04-28 09:13:11,2021-01-08,2.36083358496761,4.704811475510129,10.051551973060645,,,,,,,,,,,,
20063,0,USKansasGove,Kansas,Gove,2022-04-28 09:13:11,2021-01-09,2.36083358496761,4.704811475510129,10.051551973060645,,,,,,,,,,,,
20063,0,USKansasGove,Kansas,Gove,2022-04-28 09:13:11,2021-01-10,2.36083358496761,4.704811475510129,10.051551973060645,,,,,,,,,,,,
20063,0,USKansasGove,Kansas,Gove,2022-04-28 09:13:11,2021-01-11,2.36083358496761,4.704811475510129,10.051551973060645,,,,,,,,,,,,
20063,0,USKansasGove,Kansas,Gove,2022-04-28 09:13:11,2021-01-12,2.36083358496761,4.704811475510129,10.051551973060645,,,,,,,,,,,,
20063,0,USKansasGove,Kansas,Gove,2022-04-28 09:13:11,2021-01-13,2.36083358496761,4.704811475510129,10.051551973060645,,,,,,,,,,,,
20063,0,USKansasGove,Kansas,Gove,2022-04-28 09:13:11,2021-01-14,1.330622863796116,2.9541638955276714,7.052554440136177,,,,,,,,,,,,
20063,0,USKansasGove,Kansas,Gove,2022-04-28 09:13:11,2021-01-15,1.330622863796116,2.9541638955276714,7.052554440136177,,,,,,,,,,,,
20063,0,USKansasGove,Kansas,Gove,2022-04-28 09:13:11,2021-01-16,1.330622863796116,2.9541638955276714,7.052554440136177,,,,,,,,,,,,
20063,0,USKansasGove,Kansas,Gove,2022-04-28 09:13:11,2021-01-17,1.330622863796116,2.9541638955276714,7.052554440136177,,,,,,,,,,,,
20063,0,USKansasGove,Kansas,Gove,2022-04-28 09:13:11,2021-01-18,1.330622863796116,2.9541638955276714,7.052554440136177,,,,,,,,,,,,
20063,0,USKansasGove,Kansas,Gove,2022-04-28 09:13:11,2021-01-19,1.330622863796116,2.9541638955276714,7.052554440136177,,,,,,,,,,,,
20063,0,USKansasGove,Kansas,Gove,2022-04-28 09:13:11,2021-01-20,1.330622863796116,2.9541638955276714,7.052554440136177,,,,,,,,,,,,
20063,0,USKansasGove,Kansas,Gove,2022-04-28 09:13:11,2021-01-21,1.4664633923816197,3.151357937666298,7.277297119656947,,,,,,,,,,,,
20063,0,USKansasGove,Kansas,Gove,2022-04-28 09:13:11,2021-01-22,1.4664633923816197,3.151357937666298,7.277297119656947,,,,,,,,,,,,
20063,0,USKansasGove,Kansas,Gove,2022-04-28 09:13:11,2021-01-23,1.4664633923816197,3.151357937666298,7.277297119656947,,,,,,,,,,,,
20063,0,USKansasGove,Kansas,Gove,2022-04-28 09:13:11,2021-01-24,1.4664633923816197,3.151357937666298,7.277297119656947,,,,,,,,,,,,
20063,0,USKansasGove,Kansas,Gove,2022-04-28 09:13:11,2021-01-25,1.4664633923816197,3.151357937666298,7.277297119656947,,,,,,,,,,,,
20063,0,USKansasGove,Kansas,Gove,2022-04-28 09:13:11,2021-01-26,1.4664633923816197,3.151357937666298,7.277297119656947,,,,,,,,,,,,
20063,0,USKansasGove,Kansas,Gove,2022-04-28 09:13:11,2021-01-27,1.4664633923816197,3.151357937666298,7.277297119656947,,,,,,,,,,,,
20063,0,USKansasGove,Kansas,Gove,2022-04-28 09:13:11,2021-01-28,1.5586218759371555,3.1819766637676405,6.9703746407604985,,,,,,,,,,,,
20063,0,USKansasGove,Kansas,Gove,2022-04-28 09:13:11,2021-01-29,1.5586218759371555,3.1819766637676405,6.9703746407604985,,,,,,,,,,,,
20063,0,USKansasGove,Kansas,Gove,2022-04-28 09:13:11,2021-01-30,1.5586218759371555,3.1819766637676405,6.9703746407604985,,,,,,,,,,,,
20063,0,USKansasGove,Kansas,Gove,2022-04-28 09:13:11,2021-01-31,1.5586218759371555,3.1819766637676405,6.9703746407604985,,,,,,,,,,,,
20063,0,USKansasGove,Kansas,Gove,2022-04-28 09:13:11,2021-02-01,1.5586218759371555,3.1819766637676405,6.9703746407604985,,,,,,,,,,,,
20063,0,USKansasGove,Kansas,Gove,2022-04-28 09:13:11,2021-02-02,1.5586218759371555,3.1819766637676405,6.9703746407604985,,,,,,,,,,,,
20063,0,USKansasGove,Kansas,Gove,2022-04-28 09:13:11,2021-02-03,1.5586218759371555,3.1819766637676405,6.9703746407604985,,,,,,,,,,,,
20063,0,USKansasGove,Kansas,Gove,2022-04-28 09:13:11,2021-02-04,0,0,0,,,,,,,,,,,,
20063,0,USKansasGove,Kansas,Gove,2022-04-28 09:13:11,2021-02-05,0,0,0,,,,,,,,,,,,
20063,0,USKansasGove,Kansas,Gove,2022-04-28 09:13:11,2021-02-06,0,0,0,,,,,,,,,,,,
20063,0,USKansasGove,Kansas,Gove,2022-04-28 09:13:11,2021-02-07,0,0,0,,,,,,,,,,,,
20063,0,USKansasGove,Kansas,Gove,2022-04-28 09:13:11,2021-02-08,0,0,0,,,,,,,,,,,,
20063,0,USKansasGove,Kansas,Gove,2022-04-28 09:13:11,2021-02-09,0,0,0,,,,,,,,,,,,
20063,0,USKansasGove,Kansas,Gove,2022-04-28 09:13:11,2021-02-10,0,0,0,,,,,,,,,,,,
20063,0,USKansasGove,Kansas,Gove,2022-04-28 09:13:11,2021-02-11,0.29197322991302005,0.9404596384636265,3.244353265596496,,,,,,,,,,,,
20063,0,USKansasGove,Kansas,Gove,2022-04-28 09:13:11,2021-02-12,0.29197322991302005,0.9404596384636265,3.244353265596496,,,,,,,,,,,,
20063,0,USKansasGove,Kansas,Gove,2022-04-28 09:13:11,2021-02-13,0.29197322991302005,0.9404596384636265,3.244353265596496,,,,,,,,,,,,
20063,0,USKansasGove,Kansas,Gove,2022-04-28 09:13:11,2021-02-14,0.29197322991302005,0.9404596384636265,3.244353265596496,,,,,,,,,,,,
20063,0,USKansasGove,Kansas,Gove,2022-04-28 09:13:11,2021-02-15,0.29197322991302005,0.9404596384636265,3.244353265596496,,,,,,,,,,,,
20063,0,USKansasGove,Kansas,Gove,2022-04-28 09:13:11,2021-02-16,0.29197322991302005,0.9404596384636265,3.244353265596496,,,,,,,,,,,,
20063,0,USKansasGove,Kansas,Gove,2022-04-28 09:13:11,2021-02-17,0.29197322991302005,0.9404596384636265,3.244353265596496,,,,,,,,,,,,
20063,0,USKansasGove,Kansas,Gove,2022-04-28 09:13:11,2021-02-18,0.29086466618758144,0.9339051550622824,3.2117999022053265,,,,,,,,,,,,
20063,0,USKansasGove,Kansas,Gove,2022-04-28 09:13:11,2021-02-19,0.29086466618758144,0.9339051550622824,3.2117999022053265,,,,,,,,,,,,
20063,0,USKansasGove,Kansas,Gove,2022-04-28 09:13:11,2021-02-20,0.29086466618758144,0.9339051550622824,3.2117999022053265,,,,,,,,,,,,
20063,0,USKansasGove,Kansas,Gove,2022-04-28 09:13:11,2021-02-21,0.29086466618758144,0.9339051550622824,3.2117999022053265,,,,,,,,,,,,
20063,0,USKansasGove,Kansas,Gove,2022-04-28 09:13:11,2021-02-22,0.29086466618758144,0.9339051550622824,3.2117999022053265,,,,,,,,,,,,
20063,0,USKansasGove,Kansas,Gove,2022-04-28 09:13:11,2021-02-23,0.29086466618758144,0.9339051550622824,3.2117999022053265,,,,,,,,,,,,
20063,0,USKansasGove,Kansas,Gove,2022-04-28 09:13:11,2021-02-24,0.29086466618758144,0.9339051550622824,3.2117999022053265,,,,,,,,,,,,
20063,0,USKansasGove,Kansas,Gove,2022-04-28 09:13:11,2021-02-25,1.386290091101487,2.5438524005486207,4.983831274313755,,,,,,,,,,,,
20063,0,USKansasGove,Kansas,Gove,2022-04-28 09:13:11,2021-02-26,1.386290091101487,2.5438524005486207,4.983831274313755,,,,,,,,,,,,
20063,0,USKansasGove,Kansas,Gove,2022-04-28 09:13:11,2021-02-27,1.386290091101487,2.5438524005486207,4.983831274313755,,,,,,,,,,,,
20063,0,USKansasGove,Kansas,Gove,2022-04-28 09:13:11,2021-02-28,1.386290091101487,2.5438524005486207,4.983831274313755,,,,,,,,,,,,
20063,0,USKansasGove,Kansas,Gove,2022-04-28 09:13:11,2021-03-01,1.386290091101487,2.5438524005486207,4.983831274313755,,,,,,,,,,,,
20063,0,USKansasGove,Kansas,Gove,2022-04-28 09:13:11,2021-03-02,1.386290091101487,2.5438524005486207,4.983831274313755,,,,,,,,,,,,
20063,0,USKansasGove,Kansas,Gove,2022-04-28 09:13:11,2021-03-03,1.386290091101487,2.5438524005486207,4.983831274313755,,,,,,,,,,,,
20063,0,USKansasGove,Kansas,Gove,2022-04-28 09:13:11,2021-03-04,0,0,0,,,,,,,,,,,,
20063,0,USKansasGove,Kansas,Gove,2022-04-28 09:13:11,2021-03-05,0,0,0,,,,,,,,,,,,
20063,0,USKansasGove,Kansas,Gove,2022-04-28 09:13:11,2021-03-06,0,0,0,,,,,,,,,,,,
20063,0,USKansasGove,Kansas,Gove,2022-04-28 09:13:11,2021-03-07,0,0,0,,,,,,,,,,,,
20063,0,USKansasGove,Kansas,Gove,2022-04-28 09:13:11,2021-03-08,0,0,0,,,,,,,,,,,,
20063,0,USKansasGove,Kansas,Gove,2022-04-28 09:13:11,2021-03-09,0,0,0,,,,,,,,,,,,
20063,0,USKansasGove,Kansas,Gove,2022-04-28 09:13:11,2021-03-10,0,0,0,,,,,,,,,,,,
20063,0,USKansasGove,Kansas,Gove,2022-04-28 09:13:11,2021-03-11,0,0,0,,,,,,,,,,,,
20063,0,USKansasGove,Kansas,Gove,2022-04-28 09:13:11,2021-03-12,0,0,0,,,,,,,,,,,,
20063,0,USKansasGove,Kansas,Gove,2022-04-28 09:13:11,2021-03-13,0,0,0,,,,,,,,,,,,
20063,0,USKansasGove,Kansas,Gove,2022-04-28 09:13:11,2021-03-14,0,0,0,,,,,,,,,,,,
20063,0,USKansasGove,Kansas,Gove,2022-04-28 09:13:11,2021-03-15,0,0,0,,,,,,,,,,,,
20063,0,USKansasGove,Kansas,Gove,2022-04-28 09:13:11,2021-03-16,0,0,0,,,,,,,,,,,,
20063,0,USKansasGove,Kansas,Gove,2022-04-28 09:13:11,2021-03-17,0,0,0,,,,,,,,,,,,
20063,0,USKansasGove,Kansas,Gove,2022-04-28 09:13:11,2021-03-18,0,0,0,,,,,,,,,,,,
20063,0,USKansasGove,Kansas,Gove,2022-04-28 09:13:11,2021-03-19,0,0,0,,,,,,,,,,,,
20063,0,USKansasGove,Kansas,Gove,2022-04-28 09:13:11,2021-03-20,0,0,0,,,,,,,,,,,,
20063,0,USKansasGove,Kansas,Gove,2022-04-28 09:13:11,2021-03-21,0,0,0,,,,,,,,,,,,
20063,0,USKansasGove,Kansas,Gove,2022-04-28 09:13:11,2021-03-22,0,0,0,,,,,,,,,,,,
20063,0,USKansasGove,Kansas,Gove,2022-04-28 09:13:11,2021-03-23,0,0,0,,,,,,,,,,,,
20063,0,USKansasGove,Kansas,Gove,2022-04-28 09:13:11,2021-03-24,0,0,0,,,,,,,,,,,,
20063,0,USKansasGove,Kansas,Gove,2022-04-28 09:13:11,2021-03-25,0,0,0,,,,,,,,,,,,
20063,0,USKansasGove,Kansas,Gove,2022-04-28 09:13:11,2021-03-26,0,0,0,,,,,,,,,,,,
20063,0,USKansasGove,Kansas,Gove,2022-04-28 09:13:11,2021-03-27,0,0,0,,,,,,,,,,,,
20063,0,USKansasGove,Kansas,Gove,2022-04-28 09:13:11,2021-03-28,0,0,0,,,,,,,,,,,,
20063,0,USKansasGove,Kansas,Gove,2022-04-28 09:13:11,2021-03-29,0,0,0,,,,,,,,,,,,
20063,0,USKansasGove,Kansas,Gove,2022-04-28 09:13:11,2021-03-30,0,0,0,,,,,,,,,,,,
20063,0,USKansasGove,Kansas,Gove,2022-04-28 09:13:11,2021-03-31,0,0,0,,,,,,,,,,,,
20063,0,USKansasGove,Kansas,Gove,2022-04-28 09:13:11,2021-04-01,0,0,0,,,,,,,,,,,,
20063,0,USKansasGove,Kansas,Gove,2022-04-28 09:13:11,2021-04-02,0,0,0,,,,,,,,,,,,
20063,0,USKansasGove,Kansas,Gove,2022-04-28 09:13:11,2021-04-03,0,0,0,,,,,,,,,,,,
20063,0,USKansasGove,Kansas,Gove,2022-04-28 09:13:11,2021-04-04,0,0,0,,,,,,,,,,,,
20063,0,USKansasGove,Kansas,Gove,2022-04-28 09:13:11,2021-04-05,0,0,0,,,,,,,,,,,,
20063,0,USKansasGove,Kansas,Gove,2022-04-28 09:13:11,2021-04-06,0,0,0,,,,,,,,,,,,
20063,0,USKansasGove,Kansas,Gove,2022-04-28 09:13:11,2021-04-07,0,0,0,,,,,,,,,,,,
20063,0,USKansasGove,Kansas,Gove,2022-04-28 09:13:11,2021-04-08,0,0,0,,,,,,,,,,,,
20063,0,USKansasGove,Kansas,Gove,2022-04-28 09:13:11,2021-04-09,0,0,0,,,,,,,,,,,,
20063,0,USKansasGove,Kansas,Gove,2022-04-28 09:13:11,2021-04-10,0,0,0,,,,,,,,,,,,
20063,0,USKansasGove,Kansas,Gove,2022-04-28 09:13:11,2021-04-11,0,0,0,,,,,,,,,,,,
20063,0,USKansasGove,Kansas,Gove,2022-04-28 09:13:11,2021-04-12,0,0,0,,,,,,,,,,,,
20063,0,USKansasGove,Kansas,Gove,2022-04-28 09:13:11,2021-04-13,0,0,0,,,,,,,,,,,,
20063,0,USKansasGove,Kansas,Gove,2022-04-28 09:13:11,2021-04-14,0,0,0,,,,,,,,,,,,
20063,0,USKansasGove,Kansas,Gove,2022-04-28 09:13:11,2021-04-15,0,0,0,,,,,,,,,,,,
20063,0,USKansasGove,Kansas,Gove,2022-04-28 09:13:11,2021-04-16,0,0,0,,,,,,,,,,,,
20063,0,USKansasGove,Kansas,Gove,2022-04-28 09:13:11,2021-04-17,0,0,0,,,,,,,,,,,,
20063,0,USKansasGove,Kansas,Gove,2022-04-28 09:13:11,2021-04-18,0,0,0,,,,,,,,,,,,
20063,0,USKansasGove,Kansas,Gove,2022-04-28 09:13:11,2021-04-19,0,0,0,,,,,,,,,,,,
20063,0,USKansasGove,Kansas,Gove,2022-04-28 09:13:11,2021-04-20,0,0,0,,,,,,,,,,,,
20063,0,USKansasGove,Kansas,Gove,2022-04-28 09:13:11,2021-04-21,0,0,0,,,,,,,,,,,,
20063,0,USKansasGove,Kansas,Gove,2022-04-28 09:13:11,2021-04-22,0.2534987081681053,0.7243491495475287,2.22367253370485,,,,,,,,,,,,
20063,0,USKansasGove,Kansas,Gove,2022-04-28 09:13:11,2021-04-23,0.2534987081681053,0.7243491495475287,2.22367253370485,,,,,,,,,,,,
20063,0,USKansasGove,Kansas,Gove,2022-04-28 09:13:11,2021-04-24,0.2534987081681053,0.7243491495475287,2.22367253370485,,,,,,,,,,,,
20063,0,USKansasGove,Kansas,Gove,2022-04-28 09:13:11,2021-04-25,0.2534987081681053,0.7243491495475287,2.22367253370485,,,,,,,,,,,,
20063,0,USKansasGove,Kansas,Gove,2022-04-28 09:13:11,2021-04-26,0.2534987081681053,0.7243491495475287,2.22367253370485,,,,,,,,,,,,
20063,0,USKansasGove,Kansas,Gove,2022-04-28 09:13:11,2021-04-27,0.2534987081681053,0.7243491495475287,2.22367253370485,,,,,,,,,,,,
20063,0,USKansasGove,Kansas,Gove,2022-04-28 09:13:11,2021-04-28,0.2534987081681053,0.7243491495475287,2.22367253370485,,,,,,,,,,,,
20063,0,USKansasGove,Kansas,Gove,2022-04-28 09:13:11,2021-04-29,0,0,0,,,,,,,,,,,,
20063,0,USKansasGove,Kansas,Gove,2022-04-28 09:13:11,2021-04-30,0,0,0,,,,,,,,,,,,
20063,0,USKansasGove,Kansas,Gove,2022-04-28 09:13:11,2021-05-01,0,0,0,,,,,,,,,,,,
20063,0,USKansasGove,Kansas,Gove,2022-04-28 09:13:11,2021-05-02,0,0,0,,,,,,,,,,,,
20063,0,USKansasGove,Kansas,Gove,2022-04-28 09:13:11,2021-05-03,0,0,0,,,,,,,,,,,,
20063,0,USKansasGove,Kansas,Gove,2022-04-28 09:13:11,2021-05-04,0,0,0,,,,,,,,,,,,
20063,0,USKansasGove,Kansas,Gove,2022-04-28 09:13:11,2021-05-05,0,0,0,,,,,,,,,,,,
20063,0,USKansasGove,Kansas,Gove,2022-04-28 09:13:11,2021-05-06,0,0,0,,,,,,,,,,,,
20063,0,USKansasGove,Kansas,Gove,2022-04-28 09:13:11,2021-05-07,0,0,0,,,,,,,,,,,,
20063,0,USKansasGove,Kansas,Gove,2022-04-28 09:13:11,2021-05-08,0,0,0,,,,,,,,,,,,
20063,0,USKansasGove,Kansas,Gove,2022-04-28 09:13:11,2021-05-09,0,0,0,,,,,,,,,,,,
20063,0,USKansasGove,Kansas,Gove,2022-04-28 09:13:11,2021-05-10,0,0,0,,,,,,,,,,,,
20063,0,USKansasGove,Kansas,Gove,2022-04-28 09:13:11,2021-05-11,0,0,0,,,,,,,,,,,,
20063,0,USKansasGove,Kansas,Gove,2022-04-28 09:13:11,2021-05-12,0,0,0,,,,,,,,,,,,
20063,0,USKansasGove,Kansas,Gove,2022-04-28 09:13:11,2021-05-13,0,0,0,,,,,,,,,,,,
20063,0,USKansasGove,Kansas,Gove,2022-04-28 09:13:11,2021-05-14,0,0,0,,,,,,,,,,,,
20063,0,USKansasGove,Kansas,Gove,2022-04-28 09:13:11,2021-05-15,0,0,0,,,,,,,,,,,,
20063,0,USKansasGove,Kansas,Gove,2022-04-28 09:13:11,2021-05-16,0,0,0,,,,,,,,,,,,
20063,0,USKansasGove,Kansas,Gove,2022-04-28 09:13:11,2021-05-17,0,0,0,,,,,,,,,,,,
20063,0,USKansasGove,Kansas,Gove,2022-04-28 09:13:11,2021-05-18,0,0,0,,,,,,,,,,,,
20063,0,USKansasGove,Kansas,Gove,2022-04-28 09:13:11,2021-05-19,0,0,0,,,,,,,,,,,,
20063,0,USKansasGove,Kansas,Gove,2022-04-28 09:13:11,2021-05-20,0,0,0,,,,,,,,,,,,
20063,0,USKansasGove,Kansas,Gove,2022-04-28 09:13:11,2021-05-21,0,0,0,,,,,,,,,,,,
20063,0,USKansasGove,Kansas,Gove,2022-04-28 09:13:11,2021-05-22,0,0,0,,,,,,,,,,,,
20063,0,USKansasGove,Kansas,Gove,2022-04-28 09:13:11,2021-05-23,0,0,0,,,,,,,,,,,,
20063,0,USKansasGove,Kansas,Gove,2022-04-28 09:13:11,2021-05-24,0,0,0,,,,,,,,,,,,
20063,0,USKansasGove,Kansas,Gove,2022-04-28 09:13:11,2021-05-25,0,0,0,,,,,,,,,,,,
20063,0,USKansasGove,Kansas,Gove,2022-04-28 09:13:11,2021-05-26,0,0,0,,,,,,,,,,,,
20063,0,USKansasGove,Kansas,Gove,2022-04-28 09:13:11,2021-05-27,0,0,0,,,,,,,,,,,,
20063,0,USKansasGove,Kansas,Gove,2022-04-28 09:13:11,2021-05-28,0,0,0,,,,,,,,,,,,
20063,0,USKansasGove,Kansas,Gove,2022-04-28 09:13:11,2021-05-29,0,0,0,,,,,,,,,,,,
20063,0,USKansasGove,Kansas,Gove,2022-04-28 09:13:11,2021-05-30,0,0,0,,,,,,,,,,,,
20063,0,USKansasGove,Kansas,Gove,2022-04-28 09:13:11,2021-05-31,0,0,0,,,,,,,,,,,,
20063,0,USKansasGove,Kansas,Gove,2022-04-28 09:13:11,2021-06-01,0,0,0,,,,,,,,,,,,
20063,0,USKansasGove,Kansas,Gove,2022-04-28 09:13:11,2021-06-02,0,0,0,,,,,,,,,,,,
20063,0,USKansasGove,Kansas,Gove,2022-04-28 09:13:11,2021-06-03,0.24819908174614042,0.6964543829281756,2.1003366471970875,,,,,,,,,,,,
20063,0,USKansasGove,Kansas,Gove,2022-04-28 09:13:11,2021-06-04,0.24819908174614042,0.6964543829281756,2.1003366471970875,,,,,,,,,,,,
20063,0,USKansasGove,Kansas,Gove,2022-04-28 09:13:11,2021-06-05,0.24819908174614042,0.6964543829281756,2.1003366471970875,,,,,,,,,,,,
20063,0,USKansasGove,Kansas,Gove,2022-04-28 09:13:11,2021-06-06,0.24819908174614042,0.6964543829281756,2.1003366471970875,,,,,,,,,,,,
20063,0,USKansasGove,Kansas,Gove,2022-04-28 09:13:11,2021-06-07,0.24819908174614042,0.6964543829281756,2.1003366471970875,,,,,,,,,,,,
20063,0,USKansasGove,Kansas,Gove,2022-04-28 09:13:11,2021-06-08,0.24819908174614042,0.6964543829281756,2.1003366471970875,,,,,,,,,,,,
20063,0,USKansasGove,Kansas,Gove,2022-04-28 09:13:11,2021-06-09,0.24819908174614042,0.6964543829281756,2.1003366471970875,,,,,,,,,,,,
20063,0,USKansasGove,Kansas,Gove,2022-04-28 09:13:11,2021-06-10,0,0,0,,,,,,,,,,,,
20063,0,USKansasGove,Kansas,Gove,2022-04-28 09:13:11,2021-06-11,0,0,0,,,,,,,,,,,,
20063,0,USKansasGove,Kansas,Gove,2022-04-28 09:13:11,2021-06-12,0,0,0,,,,,,,,,,,,
20063,0,USKansasGove,Kansas,Gove,2022-04-28 09:13:11,2021-06-13,0,0,0,,,,,,,,,,,,
20063,0,USKansasGove,Kansas,Gove,2022-04-28 09:13:11,2021-06-14,0,0,0,,,,,,,,,,,,
20063,0,USKansasGove,Kansas,Gove,2022-04-28 09:13:11,2021-06-15,0,0,0,,,,,,,,,,,,
20063,0,USKansasGove,Kansas,Gove,2022-04-28 09:13:11,2021-06-16,0,0,0,,,,,,,,,,,,
20063,0,USKansasGove,Kansas,Gove,2022-04-28 09:13:11,2021-06-17,0,0,0,,,,,,,,,,,,
20063,0,USKansasGove,Kansas,Gove,2022-04-28 09:13:11,2021-06-18,0,0,0,,,,,,,,,,,,
20063,0,USKansasGove,Kansas,Gove,2022-04-28 09:13:11,2021-06-19,0,0,0,,,,,,,,,,,,
20063,0,USKansasGove,Kansas,Gove,2022-04-28 09:13:11,2021-06-20,0,0,0,,,,,,,,,,,,
20063,0,USKansasGove,Kansas,Gove,2022-04-28 09:13:11,2021-06-21,0,0,0,,,,,,,,,,,,
20063,0,USKansasGove,Kansas,Gove,2022-04-28 09:13:11,2021-06-22,0,0,0,,,,,,,,,,,,
20063,0,USKansasGove,Kansas,Gove,2022-04-28 09:13:11,2021-06-23,0,0,0,,,,,,,,,,,,
20063,0,USKansasGove,Kansas,Gove,2022-04-28 09:13:11,2021-06-24,0.2661517881958218,0.7928063846107793,2.5348255739260037,,,,,,,,,,,,
20063,0,USKansasGove,Kansas,Gove,2022-04-28 09:13:11,2021-06-25,0.2661517881958218,0.7928063846107793,2.5348255739260037,,,,,,,,,,,,
20063,0,USKansasGove,Kansas,Gove,2022-04-28 09:13:11,2021-06-26,0.2661517881958218,0.7928063846107793,2.5348255739260037,,,,,,,,,,,,
20063,0,USKansasGove,Kansas,Gove,2022-04-28 09:13:11,2021-06-27,0.2661517881958218,0.7928063846107793,2.5348255739260037,,,,,,,,,,,,
20063,0,USKansasGove,Kansas,Gove,2022-04-28 09:13:11,2021-06-28,0.2661517881958218,0.7928063846107793,2.5348255739260037,,,,,,,,,,,,
20063,0,USKansasGove,Kansas,Gove,2022-04-28 09:13:11,2021-06-29,0.2661517881958218,0.7928063846107793,2.5348255739260037,,,,,,,,,,,,
20063,0,USKansasGove,Kansas,Gove,2022-04-28 09:13:11,2021-06-30,0.2661517881958218,0.7928063846107793,2.5348255739260037,,,,,,,,,,,,
20063,0,USKansasGove,Kansas,Gove,2022-04-28 09:13:11,2021-07-01,0.2903255596095978,0.9307245483474015,3.196037417749156,,,,,,,,,,,,
20063,0,USKansasGove,Kansas,Gove,2022-04-28 09:13:11,2021-07-02,0.2903255596095978,0.9307245483474015,3.196037417749156,,,,,,,,,,,,
20063,0,USKansasGove,Kansas,Gove,2022-04-28 09:13:11,2021-07-03,0.2903255596095978,0.9307245483474015,3.196037417749156,,,,,,,,,,,,
20063,0,USKansasGove,Kansas,Gove,2022-04-28 09:13:11,2021-07-04,0.2903255596095978,0.9307245483474015,3.196037417749156,,,,,,,,,,,,
20063,0,USKansasGove,Kansas,Gove,2022-04-28 09:13:11,2021-07-05,0.2903255596095978,0.9307245483474015,3.196037417749156,,,,,,,,,,,,
20063,0,USKansasGove,Kansas,Gove,2022-04-28 09:13:11,2021-07-06,0.2903255596095978,0.9307245483474015,3.196037417749156,,,,,,,,,,,,
20063,0,USKansasGove,Kansas,Gove,2022-04-28 09:13:11,2021-07-07,0.2903255596095978,0.9307245483474015,3.196037417749156,,,,,,,,,,,,
20063,0,USKansasGove,Kansas,Gove,2022-04-28 09:13:11,2021-07-08,0,0,0,,,,,,,,,,,,
20063,0,USKansasGove,Kansas,Gove,2022-04-28 09:13:11,2021-07-09,0,0,0,,,,,,,,,,,,
20063,0,USKansasGove,Kansas,Gove,2022-04-28 09:13:11,2021-07-10,0,0,0,,,,,,,,,,,,
20063,0,USKansasGove,Kansas,Gove,2022-04-28 09:13:11,2021-07-11,0,0,0,,,,,,,,,,,,
20063,0,USKansasGove,Kansas,Gove,2022-04-28 09:13:11,2021-07-12,0,0,0,,,,,,,,,,,,
20063,0,USKansasGove,Kansas,Gove,2022-04-28 09:13:11,2021-07-13,0,0,0,,,,,,,,,,,,
20063,0,USKansasGove,Kansas,Gove,2022-04-28 09:13:11,2021-07-14,0,0,0,,,,,,,,,,,,
20063,0,USKansasGove,Kansas,Gove,2022-04-28 09:13:11,2021-07-15,0,0,0,,,,,,,,,,,,
20063,0,USKansasGove,Kansas,Gove,2022-04-28 09:13:11,2021-07-16,0,0,0,,,,,,,,,,,,
20063,0,USKansasGove,Kansas,Gove,2022-04-28 09:13:11,2021-07-17,0,0,0,,,,,,,,,,,,
20063,0,USKansasGove,Kansas,Gove,2022-04-28 09:13:11,2021-07-18,0,0,0,,,,,,,,,,,,
20063,0,USKansasGove,Kansas,Gove,2022-04-28 09:13:11,2021-07-19,0,0,0,,,,,,,,,,,,
20063,0,USKansasGove,Kansas,Gove,2022-04-28 09:13:11,2021-07-20,0,0,0,,,,,,,,,,,,
20063,0,USKansasGove,Kansas,Gove,2022-04-28 09:13:11,2021-07-21,0,0,0,,,,,,,,,,,,
20063,0,USKansasGove,Kansas,Gove,2022-04-28 09:13:11,2021-07-22,0.5488810144381822,1.6781036140337386,5.503141896765932,,,,,,,,,,,,
20063,0,USKansasGove,Kansas,Gove,2022-04-28 09:13:11,2021-07-23,0.5488810144381822,1.6781036140337386,5.503141896765932,,,,,,,,,,,,
20063,0,USKansasGove,Kansas,Gove,2022-04-28 09:13:11,2021-07-24,0.5488810144381822,1.6781036140337386,5.503141896765932,,,,,,,,,,,,
20063,0,USKansasGove,Kansas,Gove,2022-04-28 09:13:11,2021-07-25,0.5488810144381822,1.6781036140337386,5.503141896765932,,,,,,,,,,,,
20063,0,USKansasGove,Kansas,Gove,2022-04-28 09:13:11,2021-07-26,0.5488810144381822,1.6781036140337386,5.503141896765932,,,,,,,,,,,,
20063,0,USKansasGove,Kansas,Gove,2022-04-28 09:13:11,2021-07-27,0.5488810144381822,1.6781036140337386,5.503141896765932,,,,,,,,,,,,
20063,0,USKansasGove,Kansas,Gove,2022-04-28 09:13:11,2021-07-28,0.5488810144381822,1.6781036140337386,5.503141896765932,,,,,,,,,,,,
20063,0,USKansasGove,Kansas,Gove,2022-04-28 09:13:11,2021-07-29,0,0,0,,,,,,,,,,,,
20063,0,USKansasGove,Kansas,Gove,2022-04-28 09:13:11,2021-07-30,0,0,0,,,,,,,,,,,,
20063,0,USKansasGove,Kansas,Gove,2022-04-28 09:13:11,2021-07-31,0,0,0,,,,,,,,,,,,
20063,0,USKansasGove,Kansas,Gove,2022-04-28 09:13:11,2021-08-01,0,0,0,,,,,,,,,,,,
20063,0,USKansasGove,Kansas,Gove,2022-04-28 09:13:11,2021-08-02,0,0,0,,,,,,,,,,,,
20063,0,USKansasGove,Kansas,Gove,2022-04-28 09:13:11,2021-08-03,0,0,0,,,,,,,,,,,,
20063,0,USKansasGove,Kansas,Gove,2022-04-28 09:13:11,2021-08-04,0,0,0,,,,,,,,,,,,
20063,0,USKansasGove,Kansas,Gove,2022-04-28 09:13:11,2021-08-05,0.547656662798861,1.6711974616387282,5.470419467163639,,,,,,,,,,,,
20063,0,USKansasGove,Kansas,Gove,2022-04-28 09:13:11,2021-08-06,0.547656662798861,1.6711974616387282,5.470419467163639,,,,,,,,,,,,
20063,0,USKansasGove,Kansas,Gove,2022-04-28 09:13:11,2021-08-07,0.547656662798861,1.6711974616387282,5.470419467163639,,,,,,,,,,,,
20063,0,USKansasGove,Kansas,Gove,2022-04-28 09:13:11,2021-08-08,0.547656662798861,1.6711974616387282,5.470419467163639,,,,,,,,,,,,
20063,0,USKansasGove,Kansas,Gove,2022-04-28 09:13:11,2021-08-09,0.547656662798861,1.6711974616387282,5.470419467163639,,,,,,,,,,,,
20063,0,USKansasGove,Kansas,Gove,2022-04-28 09:13:11,2021-08-10,0.547656662798861,1.6711974616387282,5.470419467163639,,,,,,,,,,,,
20063,0,USKansasGove,Kansas,Gove,2022-04-28 09:13:11,2021-08-11,0.547656662798861,1.6711974616387282,5.470419467163639,,,,,,,,,,,,
20063,0,USKansasGove,Kansas,Gove,2022-04-28 09:13:11,2021-08-12,0.7614556773523299,2.178142454577281,6.693742387580698,,,,,,,,,,,,
20063,0,USKansasGove,Kansas,Gove,2022-04-28 09:13:11,2021-08-13,0.7614556773523299,2.178142454577281,6.693742387580698,,,,,,,,,,,,
20063,0,USKansasGove,Kansas,Gove,2022-04-28 09:13:11,2021-08-14,0.7614556773523299,2.178142454577281,6.693742387580698,,,,,,,,,,,,
20063,0,USKansasGove,Kansas,Gove,2022-04-28 09:13:11,2021-08-15,0.7614556773523299,2.178142454577281,6.693742387580698,,,,,,,,,,,,
20063,0,USKansasGove,Kansas,Gove,2022-04-28 09:13:11,2021-08-16,0.7614556773523299,2.178142454577281,6.693742387580698,,,,,,,,,,,,
20063,0,USKansasGove,Kansas,Gove,2022-04-28 09:13:11,2021-08-17,0.7614556773523299,2.178142454577281,6.693742387580698,,,,,,,,,,,,
20063,0,USKansasGove,Kansas,Gove,2022-04-28 09:13:11,2021-08-18,0.7614556773523299,2.178142454577281,6.693742387580698,,,,,,,,,,,,
20063,0,USKansasGove,Kansas,Gove,2022-04-28 09:13:11,2021-08-19,0.9394579962422492,2.5133299778232914,7.23184123913589,,,,,,,,,,,,
20063,0,USKansasGove,Kansas,Gove,2022-04-28 09:13:11,2021-08-20,0.9394579962422492,2.5133299778232914,7.23184123913589,,,,,,,,,,,,
20063,0,USKansasGove,Kansas,Gove,2022-04-28 09:13:11,2021-08-21,0.9394579962422492,2.5133299778232914,7.23184123913589,,,,,,,,,,,,
20063,0,USKansasGove,Kansas,Gove,2022-04-28 09:13:11,2021-08-22,0.9394579962422492,2.5133299778232914,7.23184123913589,,,,,,,,,,,,
20063,0,USKansasGove,Kansas,Gove,2022-04-28 09:13:11,2021-08-23,0.9394579962422492,2.5133299778232914,7.23184123913589,,,,,,,,,,,,
20063,0,USKansasGove,Kansas,Gove,2022-04-28 09:13:11,2021-08-24,0.9394579962422492,2.5133299778232914,7.23184123913589,,,,,,,,,,,,
20063,0,USKansasGove,Kansas,Gove,2022-04-28 09:13:11,2021-08-25,0.9394579962422492,2.5133299778232914,7.23184123913589,,,,,,,,,,,,
20063,0,USKansasGove,Kansas,Gove,2022-04-28 09:13:11,2021-08-26,1.0707461038755688,2.642488050716314,7.018079198804009,,,,,,,,,,,,
20063,0,USKansasGove,Kansas,Gove,2022-04-28 09:13:11,2021-08-27,1.0707461038755688,2.642488050716314,7.018079198804009,,,,,,,,,,,,
20063,0,USKansasGove,Kansas,Gove,2022-04-28 09:13:11,2021-08-28,1.0707461038755688,2.642488050716314,7.018079198804009,,,,,,,,,,,,
20063,0,USKansasGove,Kansas,Gove,2022-04-28 09:13:11,2021-08-29,1.0707461038755688,2.642488050716314,7.018079198804009,,,,,,,,,,,,
20063,0,USKansasGove,Kansas,Gove,2022-04-28 09:13:11,2021-08-30,1.0707461038755688,2.642488050716314,7.018079198804009,,,,,,,,,,,,
20063,0,USKansasGove,Kansas,Gove,2022-04-28 09:13:11,2021-08-31,1.0707461038755688,2.642488050716314,7.018079198804009,,,,,,,,,,,,
20063,0,USKansasGove,Kansas,Gove,2022-04-28 09:13:11,2021-09-01,1.0707461038755688,2.642488050716314,7.018079198804009,,,,,,,,,,,,
20063,0,USKansasGove,Kansas,Gove,2022-04-28 09:13:11,2021-09-02,2.084885227352398,4.268819509596413,9.379498113209443,,,,,,,,,,,,
20063,0,USKansasGove,Kansas,Gove,2022-04-28 09:13:11,2021-09-03,2.084885227352398,4.268819509596413,9.379498113209443,,,,,,,,,,,,
20063,0,USKansasGove,Kansas,Gove,2022-04-28 09:13:11,2021-09-04,2.084885227352398,4.268819509596413,9.379498113209443,,,,,,,,,,,,
20063,0,USKansasGove,Kansas,Gove,2022-04-28 09:13:11,2021-09-05,2.084885227352398,4.268819509596413,9.379498113209443,,,,,,,,,,,,
20063,0,USKansasGove,Kansas,Gove,2022-04-28 09:13:11,2021-09-06,2.084885227352398,4.268819509596413,9.379498113209443,,,,,,,,,,,,
20063,0,USKansasGove,Kansas,Gove,2022-04-28 09:13:11,2021-09-07,2.084885227352398,4.268819509596413,9.379498113209443,,,,,,,,,,,,
20063,0,USKansasGove,Kansas,Gove,2022-04-28 09:13:11,2021-09-08,2.084885227352398,4.268819509596413,9.379498113209443,,,,,,,,,,,,
20063,0,USKansasGove,Kansas,Gove,2022-04-28 09:13:11,2021-09-09,2.4379695617402986,4.69846760710265,9.693077451398484,,,,,,,,,,,,
20063,0,USKansasGove,Kansas,Gove,2022-04-28 09:13:11,2021-09-10,2.4379695617402986,4.69846760710265,9.693077451398484,,,,,,,,,,,,
20063,0,USKansasGove,Kansas,Gove,2022-04-28 09:13:11,2021-09-11,2.4379695617402986,4.69846760710265,9.693077451398484,,,,,,,,,,,,
20063,0,USKansasGove,Kansas,Gove,2022-04-28 09:13:11,2021-09-12,2.4379695617402986,4.69846760710265,9.693077451398484,,,,,,,,,,,,
20063,0,USKansasGove,Kansas,Gove,2022-04-28 09:13:11,2021-09-13,2.4379695617402986,4.69846760710265,9.693077451398484,,,,,,,,,,,,
20063,0,USKansasGove,Kansas,Gove,2022-04-28 09:13:11,2021-09-14,2.4379695617402986,4.69846760710265,9.693077451398484,,,,,,,,,,,,
20063,0,USKansasGove,Kansas,Gove,2022-04-28 09:13:11,2021-09-15,2.4379695617402986,4.69846760710265,9.693077451398484,,,,,,,,,,,,
20063,0,USKansasGove,Kansas,Gove,2022-04-28 09:13:11,2021-09-16,1.6307885601294905,3.468178596576438,7.923919209738924,,,,,,,,,,,,
20063,0,USKansasGove,Kansas,Gove,2022-04-28 09:13:11,2021-09-17,1.6307885601294905,3.468178596576438,7.923919209738924,,,,,,,,,,,,
20063,0,USKansasGove,Kansas,Gove,2022-04-28 09:13:11,2021-09-18,1.6307885601294905,3.468178596576438,7.923919209738924,,,,,,,,,,,,
20063,0,USKansasGove,Kansas,Gove,2022-04-28 09:13:11,2021-09-19,1.6307885601294905,3.468178596576438,7.923919209738924,,,,,,,,,,,,
20063,0,USKansasGove,Kansas,Gove,2022-04-28 09:13:11,2021-09-20,1.6307885601294905,3.468178596576438,7.923919209738924,,,,,,,,,,,,
20063,0,USKansasGove,Kansas,Gove,2022-04-28 09:13:11,2021-09-21,1.6307885601294905,3.468178596576438,7.923919209738924,,,,,,,,,,,,
20063,0,USKansasGove,Kansas,Gove,2022-04-28 09:13:11,2021-09-22,1.6307885601294905,3.468178596576438,7.923919209738924,,,,,,,,,,,,
20063,0,USKansasGove,Kansas,Gove,2022-04-28 09:13:11,2021-09-23,1.758521973080239,3.6401388700888604,8.088886439407677,,,,,,,,,,,,
20063,0,USKansasGove,Kansas,Gove,2022-04-28 09:13:11,2021-09-24,1.758521973080239,3.6401388700888604,8.088886439407677,,,,,,,,,,,,
20063,0,USKansasGove,Kansas,Gove,2022-04-28 09:13:11,2021-09-25,1.758521973080239,3.6401388700888604,8.088886439407677,,,,,,,,,,,,
20063,0,USKansasGove,Kansas,Gove,2022-04-28 09:13:11,2021-09-26,1.758521973080239,3.6401388700888604,8.088886439407677,,,,,,,,,,,,
20063,0,USKansasGove,Kansas,Gove,2022-04-28 09:13:11,2021-09-27,1.758521973080239,3.6401388700888604,8.088886439407677,,,,,,,,,,,,
20063,0,USKansasGove,Kansas,Gove,2022-04-28 09:13:11,2021-09-28,1.758521973080239,3.6401388700888604,8.088886439407677,,,,,,,,,,,,
20063,0,USKansasGove,Kansas,Gove,2022-04-28 09:13:11,2021-09-29,1.758521973080239,3.6401388700888604,8.088886439407677,,,,,,,,,,,,
20063,0,USKansasGove,Kansas,Gove,2022-04-28 09:13:11,2021-09-30,1.0663021710848009,2.621903540873125,6.9379864359233085,,,,,,,,,,,,
20063,0,USKansasGove,Kansas,Gove,2022-04-28 09:13:11,2021-10-01,1.0663021710848009,2.621903540873125,6.9379864359233085,,,,,,,,,,,,
20063,0,USKansasGove,Kansas,Gove,2022-04-28 09:13:11,2021-10-02,1.0663021710848009,2.621903540873125,6.9379864359233085,,,,,,,,,,,,
20063,0,USKansasGove,Kansas,Gove,2022-04-28 09:13:11,2021-10-03,1.0663021710848009,2.621903540873125,6.9379864359233085,,,,,,,,,,,,
20063,0,USKansasGove,Kansas,Gove,2022-04-28 09:13:11,2021-10-04,1.0663021710848009,2.621903540873125,6.9379864359233085,,,,,,,,,,,,
20063,0,USKansasGove,Kansas,Gove,2022-04-28 09:13:11,2021-10-05,1.0663021710848009,2.621903540873125,6.9379864359233085,,,,,,,,,,,,
20063,0,USKansasGove,Kansas,Gove,2022-04-28 09:13:11,2021-10-06,1.0663021710848009,2.621903540873125,6.9379864359233085,,,,,,,,,,,,
20063,0,USKansasGove,Kansas,Gove,2022-04-28 09:13:11,2021-10-07,1.3658390974022976,3.103954629423206,7.587763301767274,,,,,,,,,,,,
20063,0,USKansasGove,Kansas,Gove,2022-04-28 09:13:11,2021-10-08,1.3658390974022976,3.103954629423206,7.587763301767274,,,,,,,,,,,,
20063,0,USKansasGove,Kansas,Gove,2022-04-28 09:13:11,2021-10-09,1.3658390974022976,3.103954629423206,7.587763301767274,,,,,,,,,,,,
20063,0,USKansasGove,Kansas,Gove,2022-04-28 09:13:11,2021-10-10,1.3658390974022976,3.103954629423206,7.587763301767274,,,,,,,,,,,,
20063,0,USKansasGove,Kansas,Gove,2022-04-28 09:13:11,2021-10-11,1.3658390974022976,3.103954629423206,7.587763301767274,,,,,,,,,,,,
20063,0,USKansasGove,Kansas,Gove,2022-04-28 09:13:11,2021-10-12,1.3658390974022976,3.103954629423206,7.587763301767274,,,,,,,,,,,,
20063,0,USKansasGove,Kansas,Gove,2022-04-28 09:13:11,2021-10-13,1.3658390974022976,3.103954629423206,7.587763301767274,,,,,,,,,,,,
20063,0,USKansasGove,Kansas,Gove,2022-04-28 09:13:11,2021-10-14,1.780683194492064,3.727932874783426,8.381045527216042,,,,,,,,,,,,
20063,0,USKansasGove,Kansas,Gove,2022-04-28 09:13:11,2021-10-15,1.780683194492064,3.727932874783426,8.381045527216042,,,,,,,,,,,,
20063,0,USKansasGove,Kansas,Gove,2022-04-28 09:13:11,2021-10-16,1.780683194492064,3.727932874783426,8.381045527216042,,,,,,,,,,,,
20063,0,USKansasGove,Kansas,Gove,2022-04-28 09:13:11,2021-10-17,1.780683194492064,3.727932874783426,8.381045527216042,,,,,,,,,,,,
20063,0,USKansasGove,Kansas,Gove,2022-04-28 09:13:11,2021-10-18,1.780683194492064,3.727932874783426,8.381045527216042,,,,,,,,,,,,
20063,0,USKansasGove,Kansas,Gove,2022-04-28 09:13:11,2021-10-19,1.780683194492064,3.727932874783426,8.381045527216042,,,,,,,,,,,,
20063,0,USKansasGove,Kansas,Gove,2022-04-28 09:13:11,2021-10-20,1.780683194492064,3.727932874783426,8.381045527216042,,,,,,,,,,,,
20063,0,USKansasGove,Kansas,Gove,2022-04-28 09:13:11,2021-10-21,1.0730747054224767,2.6533019357143472,7.060263194098032,,,,,,,,,,,,
20063,0,USKansasGove,Kansas,Gove,2022-04-28 09:13:11,2021-10-22,1.0730747054224767,2.6533019357143472,7.060263194098032,,,,,,,,,,,,
20063,0,USKansasGove,Kansas,Gove,2022-04-28 09:13:11,2021-10-23,1.0730747054224767,2.6533019357143472,7.060263194098032,,,,,,,,,,,,
20063,0,USKansasGove,Kansas,Gove,2022-04-28 09:13:11,2021-10-24,1.0730747054224767,2.6533019357143472,7.060263194098032,,,,,,,,,,,,
20063,0,USKansasGove,Kansas,Gove,2022-04-28 09:13:11,2021-10-25,1.0730747054224767,2.6533019357143472,7.060263194098032,,,,,,,,,,,,
20063,0,USKansasGove,Kansas,Gove,2022-04-28 09:13:11,2021-10-26,1.0730747054224767,2.6533019357143472,7.060263194098032,,,,,,,,,,,,
20063,0,USKansasGove,Kansas,Gove,2022-04-28 09:13:11,2021-10-27,1.0730747054224767,2.6533019357143472,7.060263194098032,,,,,,,,,,,,
20063,0,USKansasGove,Kansas,Gove,2022-04-28 09:13:11,2021-10-28,1.5437861005295852,3.4738787294639346,8.40749444040179,,,,,,,,,,,,
20063,0,USKansasGove,Kansas,Gove,2022-04-28 09:13:11,2021-10-29,1.5437861005295852,3.4738787294639346,8.40749444040179,,,,,,,,,,,,
20063,0,USKansasGove,Kansas,Gove,2022-04-28 09:13:11,2021-10-30,1.5437861005295852,3.4738787294639346,8.40749444040179,,,,,,,,,,,,
20063,0,USKansasGove,Kansas,Gove,2022-04-28 09:13:11,2021-10-31,1.5437861005295852,3.4738787294639346,8.40749444040179,,,,,,,,,,,,
20063,0,USKansasGove,Kansas,Gove,2022-04-28 09:13:11,2021-11-01,1.5437861005295852,3.4738787294639346,8.40749444040179,,,,,,,,,,,,
20063,0,USKansasGove,Kansas,Gove,2022-04-28 09:13:11,2021-11-02,1.5437861005295852,3.4738787294639346,8.40749444040179,,,,,,,,,,,,
20063,0,USKansasGove,Kansas,Gove,2022-04-28 09:13:11,2021-11-03,1.5437861005295852,3.4738787294639346,8.40749444040179,,,,,,,,,,,,
20063,0,USKansasGove,Kansas,Gove,2022-04-28 09:13:11,2021-11-04,2.66145546224989,5.238445954118592,11.047833717264401,,,,,,,,,,,,
20063,0,USKansasGove,Kansas,Gove,2022-04-28 09:13:11,2021-11-05,2.66145546224989,5.238445954118592,11.047833717264401,,,,,,,,,,,,
20063,0,USKansasGove,Kansas,Gove,2022-04-28 09:13:11,2021-11-06,2.66145546224989,5.238445954118592,11.047833717264401,,,,,,,,,,,,
20063,0,USKansasGove,Kansas,Gove,2022-04-28 09:13:11,2021-11-07,2.66145546224989,5.238445954118592,11.047833717264401,,,,,,,,,,,,
20063,0,USKansasGove,Kansas,Gove,2022-04-28 09:13:11,2021-11-08,2.66145546224989,5.238445954118592,11.047833717264401,,,,,,,,,,,,
20063,0,USKansasGove,Kansas,Gove,2022-04-28 09:13:11,2021-11-09,2.66145546224989,5.238445954118592,11.047833717264401,,,,,,,,,,,,
20063,0,USKansasGove,Kansas,Gove,2022-04-28 09:13:11,2021-11-10,2.66145546224989,5.238445954118592,11.047833717264401,,,,,,,,,,,,
20063,0,USKansasGove,Kansas,Gove,2022-04-28 09:13:11,2021-11-11,2.290115187776512,4.748098923308302,10.568282593568231,,,,,,,,,,,,
20063,0,USKansasGove,Kansas,Gove,2022-04-28 09:13:11,2021-11-12,2.290115187776512,4.748098923308302,10.568282593568231,,,,,,,,,,,,
20063,0,USKansasGove,Kansas,Gove,2022-04-28 09:13:11,2021-11-13,2.290115187776512,4.748098923308302,10.568282593568231,,,,,,,,,,,,
20063,0,USKansasGove,Kansas,Gove,2022-04-28 09:13:11,2021-11-14,2.290115187776512,4.748098923308302,10.568282593568231,,,,,,,,,,,,
20063,0,USKansasGove,Kansas,Gove,2022-04-28 09:13:11,2021-11-15,2.290115187776512,4.748098923308302,10.568282593568231,,,,,,,,,,,,
20063,0,USKansasGove,Kansas,Gove,2022-04-28 09:13:11,2021-11-16,2.290115187776512,4.748098923308302,10.568282593568231,,,,,,,,,,,,
20063,0,USKansasGove,Kansas,Gove,2022-04-28 09:13:11,2021-11-17,2.290115187776512,4.748098923308302,10.568282593568231,,,,,,,,,,,,
20063,0,USKansasGove,Kansas,Gove,2022-04-28 09:13:11,2021-11-18,4.793844342585373,7.506573622617382,12.389940270627827,,,,,,,,,,,,
20063,0,USKansasGove,Kansas,Gove,2022-04-28 09:13:11,2021-11-19,4.793844342585373,7.506573622617382,12.389940270627827,,,,,,,,,,,,
20063,0,USKansasGove,Kansas,Gove,2022-04-28 09:13:11,2021-11-20,4.793844342585373,7.506573622617382,12.389940270627827,,,,,,,,,,,,
20063,0,USKansasGove,Kansas,Gove,2022-04-28 09:13:11,2021-11-21,4.793844342585373,7.506573622617382,12.389940270627827,,,,,,,,,,,,
20063,0,USKansasGove,Kansas,Gove,2022-04-28 09:13:11,2021-11-22,4.793844342585373,7.506573622617382,12.389940270627827,,,,,,,,,,,,
20063,0,USKansasGove,Kansas,Gove,2022-04-28 09:13:11,2021-11-23,4.793844342585373,7.506573622617382,12.389940270627827,,,,,,,,,,,,
20063,0,USKansasGove,Kansas,Gove,2022-04-28 09:13:11,2021-11-24,4.793844342585373,7.506573622617382,12.389940270627827,,,,,,,,,,,,
20063,0,USKansasGove,Kansas,Gove,2022-04-28 09:13:11,2021-11-25,2.834379283559072,6.656305999218339,16.82013532482659,,,,,,,,,,,,
20063,0,USKansasGove,Kansas,Gove,2022-04-28 09:13:11,2021-11-26,2.834379283559072,6.656305999218339,16.82013532482659,,,,,,,,,,,,
20063,0,USKansasGove,Kansas,Gove,2022-04-28 09:13:11,2021-11-27,2.834379283559072,6.656305999218339,16.82013532482659,,,,,,,,,,,,
20063,0,USKansasGove,Kansas,Gove,2022-04-28 09:13:11,2021-11-28,2.834379283559072,6.656305999218339,16.82013532482659,,,,,,,,,,,,
20063,0,USKansasGove,Kansas,Gove,2022-04-28 09:13:11,2021-11-29,2.834379283559072,6.656305999218339,16.82013532482659,,,,,,,,,,,,
20063,0,USKansasGove,Kansas,Gove,2022-04-28 09:13:11,2021-11-30,2.834379283559072,6.656305999218339,16.82013532482659,,,,,,,,,,,,
20063,0,USKansasGove,Kansas,Gove,2022-04-28 09:13:11,2021-12-01,2.834379283559072,6.656305999218339,16.82013532482659,,,,,,,,,,,,
20063,0,USKansasGove,Kansas,Gove,2022-04-28 09:13:11,2021-12-02,3.77063545135399,7.32413738651906,15.234759607733336,,,,,,,,,,,,
20063,0,USKansasGove,Kansas,Gove,2022-04-28 09:13:11,2021-12-03,3.77063545135399,7.32413738651906,15.234759607733336,,,,,,,,,,,,
20063,0,USKansasGove,Kansas,Gove,2022-04-28 09:13:11,2021-12-04,3.77063545135399,7.32413738651906,15.234759607733336,,,,,,,,,,,,
20063,0,USKansasGove,Kansas,Gove,2022-04-28 09:13:11,2021-12-05,3.77063545135399,7.32413738651906,15.234759607733336,,,,,,,,,,,,
20063,0,USKansasGove,Kansas,Gove,2022-04-28 09:13:11,2021-12-06,3.77063545135399,7.32413738651906,15.234759607733336,,,,,,,,,,,,
20063,0,USKansasGove,Kansas,Gove,2022-04-28 09:13:11,2021-12-07,3.77063545135399,7.32413738651906,15.234759607733336,,,,,,,,,,,,
20063,0,USKansasGove,Kansas,Gove,2022-04-28 09:13:11,2021-12-08,3.77063545135399,7.32413738651906,15.234759607733336,,,,,,,,,,,,
20063,0,USKansasGove,Kansas,Gove,2022-04-28 09:13:11,2021-12-09,2.977510027581813,6.141119406310637,13.59541396245037,,,,,,,,,,,,
20063,0,USKansasGove,Kansas,Gove,2022-04-28 09:13:11,2021-12-10,2.977510027581813,6.141119406310637,13.59541396245037,,,,,,,,,,,,
20063,0,USKansasGove,Kansas,Gove,2022-04-28 09:13:11,2021-12-11,2.977510027581813,6.141119406310637,13.59541396245037,,,,,,,,,,,,
20063,0,USKansasGove,Kansas,Gove,2022-04-28 09:13:11,2021-12-12,2.977510027581813,6.141119406310637,13.59541396245037,,,,,,,,,,,,
20063,0,USKansasGove,Kansas,Gove,2022-04-28 09:13:11,2021-12-13,2.977510027581813,6.141119406310637,13.59541396245037,,,,,,,,,,,,
20063,0,USKansasGove,Kansas,Gove,2022-04-28 09:13:11,2021-12-14,2.977510027581813,6.141119406310637,13.59541396245037,,,,,,,,,,,,
20063,0,USKansasGove,Kansas,Gove,2022-04-28 09:13:11,2021-12-15,2.977510027581813,6.141119406310637,13.59541396245037,,,,,,,,,,,,
20063,0,USKansasGove,Kansas,Gove,2022-04-28 09:13:11,2021-12-16,2.649189881727639,5.857701524855104,13.92652842979765,,,,,,,,,,,,
20063,0,USKansasGove,Kansas,Gove,2022-04-28 09:13:11,2021-12-17,2.649189881727639,5.857701524855104,13.92652842979765,,,,,,,,,,,,
20063,0,USKansasGove,Kansas,Gove,2022-04-28 09:13:11,2021-12-18,2.649189881727639,5.857701524855104,13.92652842979765,,,,,,,,,,,,
20063,0,USKansasGove,Kansas,Gove,2022-04-28 09:13:11,2021-12-19,2.649189881727639,5.857701524855104,13.92652842979765,,,,,,,,,,,,
20063,0,USKansasGove,Kansas,Gove,2022-04-28 09:13:11,2021-12-20,2.649189881727639,5.857701524855104,13.92652842979765,,,,,,,,,,,,
20063,0,USKansasGove,Kansas,Gove,2022-04-28 09:13:11,2021-12-21,2.649189881727639,5.857701524855104,13.92652842979765,,,,,,,,,,,,
20063,0,USKansasGove,Kansas,Gove,2022-04-28 09:13:11,2021-12-22,2.649189881727639,5.857701524855104,13.92652842979765,,,,,,,,,,,,
20063,0,USKansasGove,Kansas,Gove,2022-04-28 09:13:11,2021-12-23,1.9669223943426084,4.941644641089573,13.360226790238789,,,,,,,,,,,,
20063,0,USKansasGove,Kansas,Gove,2022-04-28 09:13:11,2021-12-24,1.9669223943426084,4.941644641089573,13.360226790238789,,,,,,,,,,,,
20063,0,USKansasGove,Kansas,Gove,2022-04-28 09:13:11,2021-12-25,1.9669223943426084,4.941644641089573,13.360226790238789,,,,,,,,,,,,
20063,0,USKansasGove,Kansas,Gove,2022-04-28 09:13:11,2021-12-26,1.9669223943426084,4.941644641089573,13.360226790238789,,,,,,,,,,,,
20063,0,USKansasGove,Kansas,Gove,2022-04-28 09:13:11,2021-12-27,1.9669223943426084,4.941644641089573,13.360226790238789,,,,,,,,,,,,
20063,0,USKansasGove,Kansas,Gove,2022-04-28 09:13:11,2021-12-28,1.9669223943426084,4.941644641089573,13.360226790238789,,,,,,,,,,,,
20063,0,USKansasGove,Kansas,Gove,2022-04-28 09:13:11,2021-12-29,1.9669223943426084,4.941644641089573,13.360226790238789,,,,,,,,,,,,
20063,0,USKansasGove,Kansas,Gove,2022-04-28 09:13:11,2021-12-30,3.18985538990416,7.82390410595227,20.651754037595378,,,,,,,,,,,,
20063,0,USKansasGove,Kansas,Gove,2022-04-28 09:13:11,2021-12-31,3.18985538990416,7.82390410595227,20.651754037595378,,,,,,,,,,,,
20063,0,USKansasGove,Kansas,Gove,2022-04-28 09:13:11,2022-01-01,3.18985538990416,7.82390410595227,20.651754037595378,,,,,,,,,,,,
20063,0,USKansasGove,Kansas,Gove,2022-04-28 09:13:11,2022-01-02,3.18985538990416,7.82390410595227,20.651754037595378,,,,,,,,,,,,
20063,0,USKansasGove,Kansas,Gove,2022-04-28 09:13:11,2022-01-03,3.18985538990416,7.82390410595227,20.651754037595378,,,,,,,,,,,,
20063,0,USKansasGove,Kansas,Gove,2022-04-28 09:13:11,2022-01-04,3.18985538990416,7.82390410595227,20.651754037595378,,,,,,,,,,,,
20063,0,USKansasGove,Kansas,Gove,2022-04-28 09:13:11,2022-01-05,3.18985538990416,7.82390410595227,20.651754037595378,,,,,,,,,,,,
20063,0,USKansasGove,Kansas,Gove,2022-04-28 09:13:11,2022-01-06,1.215349675225062,4.04719200394338,14.418801387445452,,,,,,,,,,,,
20063,0,USKansasGove,Kansas,Gove,2022-04-28 09:13:11,2022-01-07,1.215349675225062,4.04719200394338,14.418801387445452,,,,,,,,,,,,
20063,0,USKansasGove,Kansas,Gove,2022-04-28 09:13:11,2022-01-08,1.215349675225062,4.04719200394338,14.418801387445452,,,,,,,,,,,,
20063,0,USKansasGove,Kansas,Gove,2022-04-28 09:13:11,2022-01-09,1.215349675225062,4.04719200394338,14.418801387445452,,,,,,,,,,,,
20063,0,USKansasGove,Kansas,Gove,2022-04-28 09:13:11,2022-01-10,1.215349675225062,4.04719200394338,14.418801387445452,,,,,,,,,,,,
20063,0,USKansasGove,Kansas,Gove,2022-04-28 09:13:11,2022-01-11,1.215349675225062,4.04719200394338,14.418801387445452,,,,,,,,,,,,
20063,0,USKansasGove,Kansas,Gove,2022-04-28 09:13:11,2022-01-12,1.215349675225062,4.04719200394338,14.418801387445452,,,,,,,,,,,,
20063,0,USKansasGove,Kansas,Gove,2022-04-28 09:13:11,2022-01-13,8.625346496753219,16.361344390527304,33.19686970268632,,,,,,,,,,,,
20063,0,USKansasGove,Kansas,Gove,2022-04-28 09:13:11,2022-01-14,8.625346496753219,16.361344390527304,33.19686970268632,,,,,,,,,,,,
20063,0,USKansasGove,Kansas,Gove,2022-04-28 09:13:11,2022-01-15,8.625346496753219,16.361344390527304,33.19686970268632,,,,,,,,,,,,
20063,0,USKansasGove,Kansas,Gove,2022-04-28 09:13:11,2022-01-16,8.625346496753219,16.361344390527304,33.19686970268632,,,,,,,,,,,,
20063,0,USKansasGove,Kansas,Gove,2022-04-28 09:13:11,2022-01-17,8.625346496753219,16.361344390527304,33.19686970268632,,,,,,,,,,,,
20063,0,USKansasGove,Kansas,Gove,2022-04-28 09:13:11,2022-01-18,8.625346496753219,16.361344390527304,33.19686970268632,,,,,,,,,,,,
20063,0,USKansasGove,Kansas,Gove,2022-04-28 09:13:11,2022-01-19,8.625346496753219,16.361344390527304,33.19686970268632,,,,,,,,,,,,
20063,0,USKansasGove,Kansas,Gove,2022-04-28 09:13:11,2022-01-20,6.047274592534029,12.646914925797342,28.401739283409555,,,,,,,,,,,,
20063,0,USKansasGove,Kansas,Gove,2022-04-28 09:13:11,2022-01-21,6.047274592534029,12.646914925797342,28.401739283409555,,,,,,,,,,,,
20063,0,USKansasGove,Kansas,Gove,2022-04-28 09:13:11,2022-01-22,6.047274592534029,12.646914925797342,28.401739283409555,,,,,,,,,,,,
20063,0,USKansasGove,Kansas,Gove,2022-04-28 09:13:11,2022-01-23,6.047274592534029,12.646914925797342,28.401739283409555,,,,,,,,,,,,
20063,0,USKansasGove,Kansas,Gove,2022-04-28 09:13:11,2022-01-24,6.047274592534029,12.646914925797342,28.401739283409555,,,,,,,,,,,,
20063,0,USKansasGove,Kansas,Gove,2022-04-28 09:13:11,2022-01-25,6.047274592534029,12.646914925797342,28.401739283409555,,,,,,,,,,,,
20063,0,USKansasGove,Kansas,Gove,2022-04-28 09:13:11,2022-01-26,6.047274592534029,12.646914925797342,28.401739283409555,,,,,,,,,,,,
20063,0,USKansasGove,Kansas,Gove,2022-04-28 09:13:11,2022-01-27,4.929277414782687,10.917822913397258,26.00179656416496,,,,,,,,,,,,
20063,0,USKansasGove,Kansas,Gove,2022-04-28 09:13:11,2022-01-28,4.929277414782687,10.917822913397258,26.00179656416496,,,,,,,,,,,,
20063,0,USKansasGove,Kansas,Gove,2022-04-28 09:13:11,2022-01-29,4.929277414782687,10.917822913397258,26.00179656416496,,,,,,,,,,,,
20063,0,USKansasGove,Kansas,Gove,2022-04-28 09:13:11,2022-01-30,4.929277414782687,10.917822913397258,26.00179656416496,,,,,,,,,,,,
20063,0,USKansasGove,Kansas,Gove,2022-04-28 09:13:11,2022-01-31,4.929277414782687,10.917822913397258,26.00179656416496,,,,,,,,,,,,
20063,0,USKansasGove,Kansas,Gove,2022-04-28 09:13:11,2022-02-01,4.929277414782687,10.917822913397258,26.00179656416496,,,,,,,,,,,,
20063,0,USKansasGove,Kansas,Gove,2022-04-28 09:13:11,2022-02-02,4.929277414782687,10.917822913397258,26.00179656416496,,,,,,,,,,,,
20063,0,USKansasGove,Kansas,Gove,2022-04-28 09:13:11,2022-02-03,3.08750204076138,7.818821639794002,21.306765806778916,,,,,,,,,,,,
20063,0,USKansasGove,Kansas,Gove,2022-04-28 09:13:11,2022-02-04,3.08750204076138,7.818821639794002,21.306765806778916,,,,,,,,,,,,
20063,0,USKansasGove,Kansas,Gove,2022-04-28 09:13:11,2022-02-05,3.08750204076138,7.818821639794002,21.306765806778916,,,,,,,,,,,,
20063,0,USKansasGove,Kansas,Gove,2022-04-28 09:13:11,2022-02-06,3.08750204076138,7.818821639794002,21.306765806778916,,,,,,,,,,,,
20063,0,USKansasGove,Kansas,Gove,2022-04-28 09:13:11,2022-02-07,3.08750204076138,7.818821639794002,21.306765806778916,,,,,,,,,,,,
20063,0,USKansasGove,Kansas,Gove,2022-04-28 09:13:11,2022-02-08,3.08750204076138,7.818821639794002,21.306765806778916,,,,,,,,,,,,
20063,0,USKansasGove,Kansas,Gove,2022-04-28 09:13:11,2022-02-09,3.08750204076138,7.818821639794002,21.306765806778916,,,,,,,,,,,,
20063,0,USKansasGove,Kansas,Gove,2022-04-28 09:13:11,2022-02-10,2.597191076444371,6.469653628554135,17.34317834837844,,,,,,,,,,,,
20063,0,USKansasGove,Kansas,Gove,2022-04-28 09:13:11,2022-02-11,2.597191076444371,6.469653628554135,17.34317834837844,,,,,,,,,,,,
20063,0,USKansasGove,Kansas,Gove,2022-04-28 09:13:11,2022-02-12,2.597191076444371,6.469653628554135,17.34317834837844,,,,,,,,,,,,
20063,0,USKansasGove,Kansas,Gove,2022-04-28 09:13:11,2022-02-13,2.597191076444371,6.469653628554135,17.34317834837844,,,,,,,,,,,,
20063,0,USKansasGove,Kansas,Gove,2022-04-28 09:13:11,2022-02-14,2.597191076444371,6.469653628554135,17.34317834837844,,,,,,,,,,,,
20063,0,USKansasGove,Kansas,Gove,2022-04-28 09:13:11,2022-02-15,2.597191076444371,6.469653628554135,17.34317834837844,,,,,,,,,,,,
20063,0,USKansasGove,Kansas,Gove,2022-04-28 09:13:11,2022-02-16,2.597191076444371,6.469653628554135,17.34317834837844,,,,,,,,,,,,
20063,0,USKansasGove,Kansas,Gove,2022-04-28 09:13:11,2022-02-17,0.8132555596247426,2.460596863820496,7.987766532186898,,,,,,,,,,,,
20063,0,USKansasGove,Kansas,Gove,2022-04-28 09:13:11,2022-02-18,0.8132555596247426,2.460596863820496,7.987766532186898,,,,,,,,,,,,
20063,0,USKansasGove,Kansas,Gove,2022-04-28 09:13:11,2022-02-19,0.8132555596247426,2.460596863820496,7.987766532186898,,,,,,,,,,,,
20063,0,USKansasGove,Kansas,Gove,2022-04-28 09:13:11,2022-02-20,0.8132555596247426,2.460596863820496,7.987766532186898,,,,,,,,,,,,
20063,0,USKansasGove,Kansas,Gove,2022-04-28 09:13:11,2022-02-21,0.8132555596247426,2.460596863820496,7.987766532186898,,,,,,,,,,,,
20063,0,USKansasGove,Kansas,Gove,2022-04-28 09:13:11,2022-02-22,0.8132555596247426,2.460596863820496,7.987766532186898,,,,,,,,,,,,
20063,0,USKansasGove,Kansas,Gove,2022-04-28 09:13:11,2022-02-23,0.8132555596247426,2.460596863820496,7.987766532186898,,,,,,,,,,,,
