FIPS,HR_UID,nameid,province,region,analysisTime,dates,pointprevalence_025,pointprevalence_50,pointprevalence_975,pointinfections_025,pointinfections_50,pointinfections_975,pointinfectious_025,pointinfectious_50,pointinfectious_975,pointinfectiousprevalence_025,pointinfectiousprevalence_50,pointinfectiousprevalence_975,infectrate_025,infectrate_50,infectrate_975
53075,0,USWashingtonWhitman,Washington,Whitman,2022-04-28 09:13:11,2020-03-19,0.04150301824386745,0.17103620426858068,0.7478702542980177,,,,,,,,,,,,
53075,0,USWashingtonWhitman,Washington,Whitman,2022-04-28 09:13:11,2020-03-20,0.04150301824386745,0.17103620426858068,0.7478702542980177,,,,,,,,,,,,
53075,0,USWashingtonWhitman,Washington,Whitman,2022-04-28 09:13:11,2020-03-21,0.04150301824386745,0.17103620426858068,0.7478702542980177,,,,,,,,,,,,
53075,0,USWashingtonWhitman,Washington,Whitman,2022-04-28 09:13:11,2020-03-22,0.04150301824386745,0.17103620426858068,0.7478702542980177,,,,,,,,,,,,
53075,0,USWashingtonWhitman,Washington,Whitman,2022-04-28 09:13:11,2020-03-23,0.04150301824386745,0.17103620426858068,0.7478702542980177,,,,,,,,,,,,
53075,0,USWashingtonWhitman,Washington,Whitman,2022-04-28 09:13:11,2020-03-24,0.04150301824386745,0.17103620426858068,0.7478702542980177,,,,,,,,,,,,
53075,0,USWashingtonWhitman,Washington,Whitman,2022-04-28 09:13:11,2020-03-25,0.04150301824386745,0.17103620426858068,0.7478702542980177,,,,,,,,,,,,
53075,0,USWashingtonWhitman,Washington,Whitman,2022-04-28 09:13:11,2020-03-26,0.1254349118336195,0.41103103352247694,1.4417312336501267,,,,,,,,,,,,
53075,0,USWashingtonWhitman,Washington,Whitman,2022-04-28 09:13:11,2020-03-27,0.1254349118336195,0.41103103352247694,1.4417312336501267,,,,,,,,,,,,
53075,0,USWashingtonWhitman,Washington,Whitman,2022-04-28 09:13:11,2020-03-28,0.1254349118336195,0.41103103352247694,1.4417312336501267,,,,,,,,,,,,
53075,0,USWashingtonWhitman,Washington,Whitman,2022-04-28 09:13:11,2020-03-29,0.1254349118336195,0.41103103352247694,1.4417312336501267,,,,,,,,,,,,
53075,0,USWashingtonWhitman,Washington,Whitman,2022-04-28 09:13:11,2020-03-30,0.1254349118336195,0.41103103352247694,1.4417312336501267,,,,,,,,,,,,
53075,0,USWashingtonWhitman,Washington,Whitman,2022-04-28 09:13:11,2020-03-31,0.1254349118336195,0.41103103352247694,1.4417312336501267,,,,,,,,,,,,
53075,0,USWashingtonWhitman,Washington,Whitman,2022-04-28 09:13:11,2020-04-01,0.1254349118336195,0.41103103352247694,1.4417312336501267,,,,,,,,,,,,
53075,0,USWashingtonWhitman,Washington,Whitman,2022-04-28 09:13:11,2020-04-02,0.043177413062157007,0.1836474972660688,0.8276644519865526,,,,,,,,,,,,
53075,0,USWashingtonWhitman,Washington,Whitman,2022-04-28 09:13:11,2020-04-03,0.043177413062157007,0.1836474972660688,0.8276644519865526,,,,,,,,,,,,
53075,0,USWashingtonWhitman,Washington,Whitman,2022-04-28 09:13:11,2020-04-04,0.043177413062157007,0.1836474972660688,0.8276644519865526,,,,,,,,,,,,
53075,0,USWashingtonWhitman,Washington,Whitman,2022-04-28 09:13:11,2020-04-05,0.043177413062157007,0.1836474972660688,0.8276644519865526,,,,,,,,,,,,
53075,0,USWashingtonWhitman,Washington,Whitman,2022-04-28 09:13:11,2020-04-06,0.043177413062157007,0.1836474972660688,0.8276644519865526,,,,,,,,,,,,
53075,0,USWashingtonWhitman,Washington,Whitman,2022-04-28 09:13:11,2020-04-07,0.043177413062157007,0.1836474972660688,0.8276644519865526,,,,,,,,,,,,
53075,0,USWashingtonWhitman,Washington,Whitman,2022-04-28 09:13:11,2020-04-08,0.043177413062157007,0.1836474972660688,0.8276644519865526,,,,,,,,,,,,
53075,0,USWashingtonWhitman,Washington,Whitman,2022-04-28 09:13:11,2020-04-09,0,0,0,,,,,,,,,,,,
53075,0,USWashingtonWhitman,Washington,Whitman,2022-04-28 09:13:11,2020-04-10,0,0,0,,,,,,,,,,,,
53075,0,USWashingtonWhitman,Washington,Whitman,2022-04-28 09:13:11,2020-04-11,0,0,0,,,,,,,,,,,,
53075,0,USWashingtonWhitman,Washington,Whitman,2022-04-28 09:13:11,2020-04-12,0,0,0,,,,,,,,,,,,
53075,0,USWashingtonWhitman,Washington,Whitman,2022-04-28 09:13:11,2020-04-13,0,0,0,,,,,,,,,,,,
53075,0,USWashingtonWhitman,Washington,Whitman,2022-04-28 09:13:11,2020-04-14,0,0,0,,,,,,,,,,,,
53075,0,USWashingtonWhitman,Washington,Whitman,2022-04-28 09:13:11,2020-04-15,0,0,0,,,,,,,,,,,,
53075,0,USWashingtonWhitman,Washington,Whitman,2022-04-28 09:13:11,2020-04-16,0.054673024172473536,0.202851632961212,0.8020250945009029,,,,,,,,,,,,
53075,0,USWashingtonWhitman,Washington,Whitman,2022-04-28 09:13:11,2020-04-17,0.054673024172473536,0.202851632961212,0.8020250945009029,,,,,,,,,,,,
53075,0,USWashingtonWhitman,Washington,Whitman,2022-04-28 09:13:11,2020-04-18,0.054673024172473536,0.202851632961212,0.8020250945009029,,,,,,,,,,,,
53075,0,USWashingtonWhitman,Washington,Whitman,2022-04-28 09:13:11,2020-04-19,0.054673024172473536,0.202851632961212,0.8020250945009029,,,,,,,,,,,,
53075,0,USWashingtonWhitman,Washington,Whitman,2022-04-28 09:13:11,2020-04-20,0.054673024172473536,0.202851632961212,0.8020250945009029,,,,,,,,,,,,
53075,0,USWashingtonWhitman,Washington,Whitman,2022-04-28 09:13:11,2020-04-21,0.054673024172473536,0.202851632961212,0.8020250945009029,,,,,,,,,,,,
53075,0,USWashingtonWhitman,Washington,Whitman,2022-04-28 09:13:11,2020-04-22,0.054673024172473536,0.202851632961212,0.8020250945009029,,,,,,,,,,,,
53075,0,USWashingtonWhitman,Washington,Whitman,2022-04-28 09:13:11,2020-04-23,0.02331303294253981,0.105382546892001,0.5034133539784652,,,,,,,,,,,,
53075,0,USWashingtonWhitman,Washington,Whitman,2022-04-28 09:13:11,2020-04-24,0.02331303294253981,0.105382546892001,0.5034133539784652,,,,,,,,,,,,
53075,0,USWashingtonWhitman,Washington,Whitman,2022-04-28 09:13:11,2020-04-25,0.02331303294253981,0.105382546892001,0.5034133539784652,,,,,,,,,,,,
53075,0,USWashingtonWhitman,Washington,Whitman,2022-04-28 09:13:11,2020-04-26,0.02331303294253981,0.105382546892001,0.5034133539784652,,,,,,,,,,,,
53075,0,USWashingtonWhitman,Washington,Whitman,2022-04-28 09:13:11,2020-04-27,0.02331303294253981,0.105382546892001,0.5034133539784652,,,,,,,,,,,,
53075,0,USWashingtonWhitman,Washington,Whitman,2022-04-28 09:13:11,2020-04-28,0.02331303294253981,0.105382546892001,0.5034133539784652,,,,,,,,,,,,
53075,0,USWashingtonWhitman,Washington,Whitman,2022-04-28 09:13:11,2020-04-29,0.02331303294253981,0.105382546892001,0.5034133539784652,,,,,,,,,,,,
53075,0,USWashingtonWhitman,Washington,Whitman,2022-04-28 09:13:11,2020-04-30,0,0,0,,,,,,,,,,,,
53075,0,USWashingtonWhitman,Washington,Whitman,2022-04-28 09:13:11,2020-05-01,0,0,0,,,,,,,,,,,,
53075,0,USWashingtonWhitman,Washington,Whitman,2022-04-28 09:13:11,2020-05-02,0,0,0,,,,,,,,,,,,
53075,0,USWashingtonWhitman,Washington,Whitman,2022-04-28 09:13:11,2020-05-03,0,0,0,,,,,,,,,,,,
53075,0,USWashingtonWhitman,Washington,Whitman,2022-04-28 09:13:11,2020-05-04,0,0,0,,,,,,,,,,,,
53075,0,USWashingtonWhitman,Washington,Whitman,2022-04-28 09:13:11,2020-05-05,0,0,0,,,,,,,,,,,,
53075,0,USWashingtonWhitman,Washington,Whitman,2022-04-28 09:13:11,2020-05-06,0,0,0,,,,,,,,,,,,
53075,0,USWashingtonWhitman,Washington,Whitman,2022-04-28 09:13:11,2020-05-07,0.03688277226994294,0.13817291083724711,0.5513924153769734,,,,,,,,,,,,
53075,0,USWashingtonWhitman,Washington,Whitman,2022-04-28 09:13:11,2020-05-08,0.03688277226994294,0.13817291083724711,0.5513924153769734,,,,,,,,,,,,
53075,0,USWashingtonWhitman,Washington,Whitman,2022-04-28 09:13:11,2020-05-09,0.03688277226994294,0.13817291083724711,0.5513924153769734,,,,,,,,,,,,
53075,0,USWashingtonWhitman,Washington,Whitman,2022-04-28 09:13:11,2020-05-10,0.03688277226994294,0.13817291083724711,0.5513924153769734,,,,,,,,,,,,
53075,0,USWashingtonWhitman,Washington,Whitman,2022-04-28 09:13:11,2020-05-11,0.03688277226994294,0.13817291083724711,0.5513924153769734,,,,,,,,,,,,
53075,0,USWashingtonWhitman,Washington,Whitman,2022-04-28 09:13:11,2020-05-12,0.03688277226994294,0.13817291083724711,0.5513924153769734,,,,,,,,,,,,
53075,0,USWashingtonWhitman,Washington,Whitman,2022-04-28 09:13:11,2020-05-13,0.03688277226994294,0.13817291083724711,0.5513924153769734,,,,,,,,,,,,
53075,0,USWashingtonWhitman,Washington,Whitman,2022-04-28 09:13:11,2020-05-14,0,0,0,,,,,,,,,,,,
53075,0,USWashingtonWhitman,Washington,Whitman,2022-04-28 09:13:11,2020-05-15,0,0,0,,,,,,,,,,,,
53075,0,USWashingtonWhitman,Washington,Whitman,2022-04-28 09:13:11,2020-05-16,0,0,0,,,,,,,,,,,,
53075,0,USWashingtonWhitman,Washington,Whitman,2022-04-28 09:13:11,2020-05-17,0,0,0,,,,,,,,,,,,
53075,0,USWashingtonWhitman,Washington,Whitman,2022-04-28 09:13:11,2020-05-18,0,0,0,,,,,,,,,,,,
53075,0,USWashingtonWhitman,Washington,Whitman,2022-04-28 09:13:11,2020-05-19,0,0,0,,,,,,,,,,,,
53075,0,USWashingtonWhitman,Washington,Whitman,2022-04-28 09:13:11,2020-05-20,0,0,0,,,,,,,,,,,,
53075,0,USWashingtonWhitman,Washington,Whitman,2022-04-28 09:13:11,2020-05-21,0,0,0,,,,,,,,,,,,
53075,0,USWashingtonWhitman,Washington,Whitman,2022-04-28 09:13:11,2020-05-22,0,0,0,,,,,,,,,,,,
53075,0,USWashingtonWhitman,Washington,Whitman,2022-04-28 09:13:11,2020-05-23,0,0,0,,,,,,,,,,,,
53075,0,USWashingtonWhitman,Washington,Whitman,2022-04-28 09:13:11,2020-05-24,0,0,0,,,,,,,,,,,,
53075,0,USWashingtonWhitman,Washington,Whitman,2022-04-28 09:13:11,2020-05-25,0,0,0,,,,,,,,,,,,
53075,0,USWashingtonWhitman,Washington,Whitman,2022-04-28 09:13:11,2020-05-26,0,0,0,,,,,,,,,,,,
53075,0,USWashingtonWhitman,Washington,Whitman,2022-04-28 09:13:11,2020-05-27,0,0,0,,,,,,,,,,,,
53075,0,USWashingtonWhitman,Washington,Whitman,2022-04-28 09:13:11,2020-05-28,0.06180426792455315,0.20005338140047998,0.6934215439503528,,,,,,,,,,,,
53075,0,USWashingtonWhitman,Washington,Whitman,2022-04-28 09:13:11,2020-05-29,0.06180426792455315,0.20005338140047998,0.6934215439503528,,,,,,,,,,,,
53075,0,USWashingtonWhitman,Washington,Whitman,2022-04-28 09:13:11,2020-05-30,0.06180426792455315,0.20005338140047998,0.6934215439503528,,,,,,,,,,,,
53075,0,USWashingtonWhitman,Washington,Whitman,2022-04-28 09:13:11,2020-05-31,0.06180426792455315,0.20005338140047998,0.6934215439503528,,,,,,,,,,,,
53075,0,USWashingtonWhitman,Washington,Whitman,2022-04-28 09:13:11,2020-06-01,0.06180426792455315,0.20005338140047998,0.6934215439503528,,,,,,,,,,,,
53075,0,USWashingtonWhitman,Washington,Whitman,2022-04-28 09:13:11,2020-06-02,0.06180426792455315,0.20005338140047998,0.6934215439503528,,,,,,,,,,,,
53075,0,USWashingtonWhitman,Washington,Whitman,2022-04-28 09:13:11,2020-06-03,0.06180426792455315,0.20005338140047998,0.6934215439503528,,,,,,,,,,,,
53075,0,USWashingtonWhitman,Washington,Whitman,2022-04-28 09:13:11,2020-06-04,0.021574696900459784,0.09171672360267794,0.41314543699595463,,,,,,,,,,,,
53075,0,USWashingtonWhitman,Washington,Whitman,2022-04-28 09:13:11,2020-06-05,0.021574696900459784,0.09171672360267794,0.41314543699595463,,,,,,,,,,,,
53075,0,USWashingtonWhitman,Washington,Whitman,2022-04-28 09:13:11,2020-06-06,0.021574696900459784,0.09171672360267794,0.41314543699595463,,,,,,,,,,,,
53075,0,USWashingtonWhitman,Washington,Whitman,2022-04-28 09:13:11,2020-06-07,0.021574696900459784,0.09171672360267794,0.41314543699595463,,,,,,,,,,,,
53075,0,USWashingtonWhitman,Washington,Whitman,2022-04-28 09:13:11,2020-06-08,0.021574696900459784,0.09171672360267794,0.41314543699595463,,,,,,,,,,,,
53075,0,USWashingtonWhitman,Washington,Whitman,2022-04-28 09:13:11,2020-06-09,0.021574696900459784,0.09171672360267794,0.41314543699595463,,,,,,,,,,,,
53075,0,USWashingtonWhitman,Washington,Whitman,2022-04-28 09:13:11,2020-06-10,0.021574696900459784,0.09171672360267794,0.41314543699595463,,,,,,,,,,,,
53075,0,USWashingtonWhitman,Washington,Whitman,2022-04-28 09:13:11,2020-06-11,0.10599194417620994,0.27194217442245255,0.7507368427929966,,,,,,,,,,,,
53075,0,USWashingtonWhitman,Washington,Whitman,2022-04-28 09:13:11,2020-06-12,0.10599194417620994,0.27194217442245255,0.7507368427929966,,,,,,,,,,,,
53075,0,USWashingtonWhitman,Washington,Whitman,2022-04-28 09:13:11,2020-06-13,0.10599194417620994,0.27194217442245255,0.7507368427929966,,,,,,,,,,,,
53075,0,USWashingtonWhitman,Washington,Whitman,2022-04-28 09:13:11,2020-06-14,0.10599194417620994,0.27194217442245255,0.7507368427929966,,,,,,,,,,,,
53075,0,USWashingtonWhitman,Washington,Whitman,2022-04-28 09:13:11,2020-06-15,0.10599194417620994,0.27194217442245255,0.7507368427929966,,,,,,,,,,,,
53075,0,USWashingtonWhitman,Washington,Whitman,2022-04-28 09:13:11,2020-06-16,0.10599194417620994,0.27194217442245255,0.7507368427929966,,,,,,,,,,,,
53075,0,USWashingtonWhitman,Washington,Whitman,2022-04-28 09:13:11,2020-06-17,0.10599194417620994,0.27194217442245255,0.7507368427929966,,,,,,,,,,,,
53075,0,USWashingtonWhitman,Washington,Whitman,2022-04-28 09:13:11,2020-06-18,0.04968086926770294,0.17037142607784667,0.6244358117008365,,,,,,,,,,,,
53075,0,USWashingtonWhitman,Washington,Whitman,2022-04-28 09:13:11,2020-06-19,0.04968086926770294,0.17037142607784667,0.6244358117008365,,,,,,,,,,,,
53075,0,USWashingtonWhitman,Washington,Whitman,2022-04-28 09:13:11,2020-06-20,0.04968086926770294,0.17037142607784667,0.6244358117008365,,,,,,,,,,,,
53075,0,USWashingtonWhitman,Washington,Whitman,2022-04-28 09:13:11,2020-06-21,0.04968086926770294,0.17037142607784667,0.6244358117008365,,,,,,,,,,,,
53075,0,USWashingtonWhitman,Washington,Whitman,2022-04-28 09:13:11,2020-06-22,0.04968086926770294,0.17037142607784667,0.6244358117008365,,,,,,,,,,,,
53075,0,USWashingtonWhitman,Washington,Whitman,2022-04-28 09:13:11,2020-06-23,0.04968086926770294,0.17037142607784667,0.6244358117008365,,,,,,,,,,,,
53075,0,USWashingtonWhitman,Washington,Whitman,2022-04-28 09:13:11,2020-06-24,0.04968086926770294,0.17037142607784667,0.6244358117008365,,,,,,,,,,,,
53075,0,USWashingtonWhitman,Washington,Whitman,2022-04-28 09:13:11,2020-06-25,0.10393223556395548,0.2903611151416563,0.8718965795126146,,,,,,,,,,,,
53075,0,USWashingtonWhitman,Washington,Whitman,2022-04-28 09:13:11,2020-06-26,0.10393223556395548,0.2903611151416563,0.8718965795126146,,,,,,,,,,,,
53075,0,USWashingtonWhitman,Washington,Whitman,2022-04-28 09:13:11,2020-06-27,0.10393223556395548,0.2903611151416563,0.8718965795126146,,,,,,,,,,,,
53075,0,USWashingtonWhitman,Washington,Whitman,2022-04-28 09:13:11,2020-06-28,0.10393223556395548,0.2903611151416563,0.8718965795126146,,,,,,,,,,,,
53075,0,USWashingtonWhitman,Washington,Whitman,2022-04-28 09:13:11,2020-06-29,0.10393223556395548,0.2903611151416563,0.8718965795126146,,,,,,,,,,,,
53075,0,USWashingtonWhitman,Washington,Whitman,2022-04-28 09:13:11,2020-06-30,0.10393223556395548,0.2903611151416563,0.8718965795126146,,,,,,,,,,,,
53075,0,USWashingtonWhitman,Washington,Whitman,2022-04-28 09:13:11,2020-07-01,0.10393223556395548,0.2903611151416563,0.8718965795126146,,,,,,,,,,,,
53075,0,USWashingtonWhitman,Washington,Whitman,2022-04-28 09:13:11,2020-07-02,0.09782051151303459,0.29088880973167147,0.9285075964232479,,,,,,,,,,,,
53075,0,USWashingtonWhitman,Washington,Whitman,2022-04-28 09:13:11,2020-07-03,0.09782051151303459,0.29088880973167147,0.9285075964232479,,,,,,,,,,,,
53075,0,USWashingtonWhitman,Washington,Whitman,2022-04-28 09:13:11,2020-07-04,0.09782051151303459,0.29088880973167147,0.9285075964232479,,,,,,,,,,,,
53075,0,USWashingtonWhitman,Washington,Whitman,2022-04-28 09:13:11,2020-07-05,0.09782051151303459,0.29088880973167147,0.9285075964232479,,,,,,,,,,,,
53075,0,USWashingtonWhitman,Washington,Whitman,2022-04-28 09:13:11,2020-07-06,0.09782051151303459,0.29088880973167147,0.9285075964232479,,,,,,,,,,,,
53075,0,USWashingtonWhitman,Washington,Whitman,2022-04-28 09:13:11,2020-07-07,0.09782051151303459,0.29088880973167147,0.9285075964232479,,,,,,,,,,,,
53075,0,USWashingtonWhitman,Washington,Whitman,2022-04-28 09:13:11,2020-07-08,0.09782051151303459,0.29088880973167147,0.9285075964232479,,,,,,,,,,,,
53075,0,USWashingtonWhitman,Washington,Whitman,2022-04-28 09:13:11,2020-07-09,0.10001230864351404,0.3030578449120785,0.9852623097431339,,,,,,,,,,,,
53075,0,USWashingtonWhitman,Washington,Whitman,2022-04-28 09:13:11,2020-07-10,0.10001230864351404,0.3030578449120785,0.9852623097431339,,,,,,,,,,,,
53075,0,USWashingtonWhitman,Washington,Whitman,2022-04-28 09:13:11,2020-07-11,0.10001230864351404,0.3030578449120785,0.9852623097431339,,,,,,,,,,,,
53075,0,USWashingtonWhitman,Washington,Whitman,2022-04-28 09:13:11,2020-07-12,0.10001230864351404,0.3030578449120785,0.9852623097431339,,,,,,,,,,,,
53075,0,USWashingtonWhitman,Washington,Whitman,2022-04-28 09:13:11,2020-07-13,0.10001230864351404,0.3030578449120785,0.9852623097431339,,,,,,,,,,,,
53075,0,USWashingtonWhitman,Washington,Whitman,2022-04-28 09:13:11,2020-07-14,0.10001230864351404,0.3030578449120785,0.9852623097431339,,,,,,,,,,,,
53075,0,USWashingtonWhitman,Washington,Whitman,2022-04-28 09:13:11,2020-07-15,0.10001230864351404,0.3030578449120785,0.9852623097431339,,,,,,,,,,,,
53075,0,USWashingtonWhitman,Washington,Whitman,2022-04-28 09:13:11,2020-07-16,0.1837872080713411,0.4613482777299947,1.2462409629300941,,,,,,,,,,,,
53075,0,USWashingtonWhitman,Washington,Whitman,2022-04-28 09:13:11,2020-07-17,0.1837872080713411,0.4613482777299947,1.2462409629300941,,,,,,,,,,,,
53075,0,USWashingtonWhitman,Washington,Whitman,2022-04-28 09:13:11,2020-07-18,0.1837872080713411,0.4613482777299947,1.2462409629300941,,,,,,,,,,,,
53075,0,USWashingtonWhitman,Washington,Whitman,2022-04-28 09:13:11,2020-07-19,0.1837872080713411,0.4613482777299947,1.2462409629300941,,,,,,,,,,,,
53075,0,USWashingtonWhitman,Washington,Whitman,2022-04-28 09:13:11,2020-07-20,0.1837872080713411,0.4613482777299947,1.2462409629300941,,,,,,,,,,,,
53075,0,USWashingtonWhitman,Washington,Whitman,2022-04-28 09:13:11,2020-07-21,0.1837872080713411,0.4613482777299947,1.2462409629300941,,,,,,,,,,,,
53075,0,USWashingtonWhitman,Washington,Whitman,2022-04-28 09:13:11,2020-07-22,0.1837872080713411,0.4613482777299947,1.2462409629300941,,,,,,,,,,,,
53075,0,USWashingtonWhitman,Washington,Whitman,2022-04-28 09:13:11,2020-07-23,0.17742347355614782,0.4569471918085759,1.266240818180981,,,,,,,,,,,,
53075,0,USWashingtonWhitman,Washington,Whitman,2022-04-28 09:13:11,2020-07-24,0.17742347355614782,0.4569471918085759,1.266240818180981,,,,,,,,,,,,
53075,0,USWashingtonWhitman,Washington,Whitman,2022-04-28 09:13:11,2020-07-25,0.17742347355614782,0.4569471918085759,1.266240818180981,,,,,,,,,,,,
53075,0,USWashingtonWhitman,Washington,Whitman,2022-04-28 09:13:11,2020-07-26,0.17742347355614782,0.4569471918085759,1.266240818180981,,,,,,,,,,,,
53075,0,USWashingtonWhitman,Washington,Whitman,2022-04-28 09:13:11,2020-07-27,0.17742347355614782,0.4569471918085759,1.266240818180981,,,,,,,,,,,,
53075,0,USWashingtonWhitman,Washington,Whitman,2022-04-28 09:13:11,2020-07-28,0.17742347355614782,0.4569471918085759,1.266240818180981,,,,,,,,,,,,
53075,0,USWashingtonWhitman,Washington,Whitman,2022-04-28 09:13:11,2020-07-29,0.17742347355614782,0.4569471918085759,1.266240818180981,,,,,,,,,,,,
53075,0,USWashingtonWhitman,Washington,Whitman,2022-04-28 09:13:11,2020-07-30,0.12619739001580998,0.3438410486190664,1.0073549157337058,,,,,,,,,,,,
53075,0,USWashingtonWhitman,Washington,Whitman,2022-04-28 09:13:11,2020-07-31,0.12619739001580998,0.3438410486190664,1.0073549157337058,,,,,,,,,,,,
53075,0,USWashingtonWhitman,Washington,Whitman,2022-04-28 09:13:11,2020-08-01,0.12619739001580998,0.3438410486190664,1.0073549157337058,,,,,,,,,,,,
53075,0,USWashingtonWhitman,Washington,Whitman,2022-04-28 09:13:11,2020-08-02,0.12619739001580998,0.3438410486190664,1.0073549157337058,,,,,,,,,,,,
53075,0,USWashingtonWhitman,Washington,Whitman,2022-04-28 09:13:11,2020-08-03,0.12619739001580998,0.3438410486190664,1.0073549157337058,,,,,,,,,,,,
53075,0,USWashingtonWhitman,Washington,Whitman,2022-04-28 09:13:11,2020-08-04,0.12619739001580998,0.3438410486190664,1.0073549157337058,,,,,,,,,,,,
53075,0,USWashingtonWhitman,Washington,Whitman,2022-04-28 09:13:11,2020-08-05,0.12619739001580998,0.3438410486190664,1.0073549157337058,,,,,,,,,,,,
53075,0,USWashingtonWhitman,Washington,Whitman,2022-04-28 09:13:11,2020-08-06,0.28808858482148564,0.5987589664091906,1.3360814906424638,,,,,,,,,,,,
53075,0,USWashingtonWhitman,Washington,Whitman,2022-04-28 09:13:11,2020-08-07,0.28808858482148564,0.5987589664091906,1.3360814906424638,,,,,,,,,,,,
53075,0,USWashingtonWhitman,Washington,Whitman,2022-04-28 09:13:11,2020-08-08,0.28808858482148564,0.5987589664091906,1.3360814906424638,,,,,,,,,,,,
53075,0,USWashingtonWhitman,Washington,Whitman,2022-04-28 09:13:11,2020-08-09,0.28808858482148564,0.5987589664091906,1.3360814906424638,,,,,,,,,,,,
53075,0,USWashingtonWhitman,Washington,Whitman,2022-04-28 09:13:11,2020-08-10,0.28808858482148564,0.5987589664091906,1.3360814906424638,,,,,,,,,,,,
53075,0,USWashingtonWhitman,Washington,Whitman,2022-04-28 09:13:11,2020-08-11,0.28808858482148564,0.5987589664091906,1.3360814906424638,,,,,,,,,,,,
53075,0,USWashingtonWhitman,Washington,Whitman,2022-04-28 09:13:11,2020-08-12,0.28808858482148564,0.5987589664091906,1.3360814906424638,,,,,,,,,,,,
53075,0,USWashingtonWhitman,Washington,Whitman,2022-04-28 09:13:11,2020-08-13,0.1376079530529178,0.3449163951633894,0.9303493630671298,,,,,,,,,,,,
53075,0,USWashingtonWhitman,Washington,Whitman,2022-04-28 09:13:11,2020-08-14,0.1376079530529178,0.3449163951633894,0.9303493630671298,,,,,,,,,,,,
53075,0,USWashingtonWhitman,Washington,Whitman,2022-04-28 09:13:11,2020-08-15,0.1376079530529178,0.3449163951633894,0.9303493630671298,,,,,,,,,,,,
53075,0,USWashingtonWhitman,Washington,Whitman,2022-04-28 09:13:11,2020-08-16,0.1376079530529178,0.3449163951633894,0.9303493630671298,,,,,,,,,,,,
53075,0,USWashingtonWhitman,Washington,Whitman,2022-04-28 09:13:11,2020-08-17,0.1376079530529178,0.3449163951633894,0.9303493630671298,,,,,,,,,,,,
53075,0,USWashingtonWhitman,Washington,Whitman,2022-04-28 09:13:11,2020-08-18,0.1376079530529178,0.3449163951633894,0.9303493630671298,,,,,,,,,,,,
53075,0,USWashingtonWhitman,Washington,Whitman,2022-04-28 09:13:11,2020-08-19,0.1376079530529178,0.3449163951633894,0.9303493630671298,,,,,,,,,,,,
53075,0,USWashingtonWhitman,Washington,Whitman,2022-04-28 09:13:11,2020-08-20,1.4049250721094535,2.3146109955129828,4.039006281734127,,,,,,,,,,,,
53075,0,USWashingtonWhitman,Washington,Whitman,2022-04-28 09:13:11,2020-08-21,1.4049250721094535,2.3146109955129828,4.039006281734127,,,,,,,,,,,,
53075,0,USWashingtonWhitman,Washington,Whitman,2022-04-28 09:13:11,2020-08-22,1.4049250721094535,2.3146109955129828,4.039006281734127,,,,,,,,,,,,
53075,0,USWashingtonWhitman,Washington,Whitman,2022-04-28 09:13:11,2020-08-23,1.4049250721094535,2.3146109955129828,4.039006281734127,,,,,,,,,,,,
53075,0,USWashingtonWhitman,Washington,Whitman,2022-04-28 09:13:11,2020-08-24,1.4049250721094535,2.3146109955129828,4.039006281734127,,,,,,,,,,,,
53075,0,USWashingtonWhitman,Washington,Whitman,2022-04-28 09:13:11,2020-08-25,1.4049250721094535,2.3146109955129828,4.039006281734127,,,,,,,,,,,,
53075,0,USWashingtonWhitman,Washington,Whitman,2022-04-28 09:13:11,2020-08-26,1.4049250721094535,2.3146109955129828,4.039006281734127,,,,,,,,,,,,
53075,0,USWashingtonWhitman,Washington,Whitman,2022-04-28 09:13:11,2020-08-27,1.7162401096966138,2.125560887109178,2.6924069333452887,,,,,,,,,,,,
53075,0,USWashingtonWhitman,Washington,Whitman,2022-04-28 09:13:11,2020-08-28,1.7162401096966138,2.125560887109178,2.6924069333452887,,,,,,,,,,,,
53075,0,USWashingtonWhitman,Washington,Whitman,2022-04-28 09:13:11,2020-08-29,1.7162401096966138,2.125560887109178,2.6924069333452887,,,,,,,,,,,,
53075,0,USWashingtonWhitman,Washington,Whitman,2022-04-28 09:13:11,2020-08-30,1.7162401096966138,2.125560887109178,2.6924069333452887,,,,,,,,,,,,
53075,0,USWashingtonWhitman,Washington,Whitman,2022-04-28 09:13:11,2020-08-31,1.7162401096966138,2.125560887109178,2.6924069333452887,,,,,,,,,,,,
53075,0,USWashingtonWhitman,Washington,Whitman,2022-04-28 09:13:11,2020-09-01,1.7162401096966138,2.125560887109178,2.6924069333452887,,,,,,,,,,,,
53075,0,USWashingtonWhitman,Washington,Whitman,2022-04-28 09:13:11,2020-09-02,1.7162401096966138,2.125560887109178,2.6924069333452887,,,,,,,,,,,,
53075,0,USWashingtonWhitman,Washington,Whitman,2022-04-28 09:13:11,2020-09-03,1.2307859057270387,1.5620466433169338,2.0347655356340644,,,,,,,,,,,,
53075,0,USWashingtonWhitman,Washington,Whitman,2022-04-28 09:13:11,2020-09-04,1.2307859057270387,1.5620466433169338,2.0347655356340644,,,,,,,,,,,,
53075,0,USWashingtonWhitman,Washington,Whitman,2022-04-28 09:13:11,2020-09-05,1.2307859057270387,1.5620466433169338,2.0347655356340644,,,,,,,,,,,,
53075,0,USWashingtonWhitman,Washington,Whitman,2022-04-28 09:13:11,2020-09-06,1.2307859057270387,1.5620466433169338,2.0347655356340644,,,,,,,,,,,,
53075,0,USWashingtonWhitman,Washington,Whitman,2022-04-28 09:13:11,2020-09-07,1.2307859057270387,1.5620466433169338,2.0347655356340644,,,,,,,,,,,,
53075,0,USWashingtonWhitman,Washington,Whitman,2022-04-28 09:13:11,2020-09-08,1.2307859057270387,1.5620466433169338,2.0347655356340644,,,,,,,,,,,,
53075,0,USWashingtonWhitman,Washington,Whitman,2022-04-28 09:13:11,2020-09-09,1.2307859057270387,1.5620466433169338,2.0347655356340644,,,,,,,,,,,,
53075,0,USWashingtonWhitman,Washington,Whitman,2022-04-28 09:13:11,2020-09-10,1.1193185907528178,1.4997886970528558,2.0785219580078467,,,,,,,,,,,,
53075,0,USWashingtonWhitman,Washington,Whitman,2022-04-28 09:13:11,2020-09-11,1.1193185907528178,1.4997886970528558,2.0785219580078467,,,,,,,,,,,,
53075,0,USWashingtonWhitman,Washington,Whitman,2022-04-28 09:13:11,2020-09-12,1.1193185907528178,1.4997886970528558,2.0785219580078467,,,,,,,,,,,,
53075,0,USWashingtonWhitman,Washington,Whitman,2022-04-28 09:13:11,2020-09-13,1.1193185907528178,1.4997886970528558,2.0785219580078467,,,,,,,,,,,,
53075,0,USWashingtonWhitman,Washington,Whitman,2022-04-28 09:13:11,2020-09-14,1.1193185907528178,1.4997886970528558,2.0785219580078467,,,,,,,,,,,,
53075,0,USWashingtonWhitman,Washington,Whitman,2022-04-28 09:13:11,2020-09-15,1.1193185907528178,1.4997886970528558,2.0785219580078467,,,,,,,,,,,,
53075,0,USWashingtonWhitman,Washington,Whitman,2022-04-28 09:13:11,2020-09-16,1.1193185907528178,1.4997886970528558,2.0785219580078467,,,,,,,,,,,,
53075,0,USWashingtonWhitman,Washington,Whitman,2022-04-28 09:13:11,2020-09-17,0.7994355764940859,1.2848059826722733,2.1821029372118756,,,,,,,,,,,,
53075,0,USWashingtonWhitman,Washington,Whitman,2022-04-28 09:13:11,2020-09-18,0.7994355764940859,1.2848059826722733,2.1821029372118756,,,,,,,,,,,,
53075,0,USWashingtonWhitman,Washington,Whitman,2022-04-28 09:13:11,2020-09-19,0.7994355764940859,1.2848059826722733,2.1821029372118756,,,,,,,,,,,,
53075,0,USWashingtonWhitman,Washington,Whitman,2022-04-28 09:13:11,2020-09-20,0.7994355764940859,1.2848059826722733,2.1821029372118756,,,,,,,,,,,,
53075,0,USWashingtonWhitman,Washington,Whitman,2022-04-28 09:13:11,2020-09-21,0.7994355764940859,1.2848059826722733,2.1821029372118756,,,,,,,,,,,,
53075,0,USWashingtonWhitman,Washington,Whitman,2022-04-28 09:13:11,2020-09-22,0.7994355764940859,1.2848059826722733,2.1821029372118756,,,,,,,,,,,,
53075,0,USWashingtonWhitman,Washington,Whitman,2022-04-28 09:13:11,2020-09-23,0.7994355764940859,1.2848059826722733,2.1821029372118756,,,,,,,,,,,,
53075,0,USWashingtonWhitman,Washington,Whitman,2022-04-28 09:13:11,2020-09-24,0.8638664765457313,1.2273661510681972,1.8177206641543517,,,,,,,,,,,,
53075,0,USWashingtonWhitman,Washington,Whitman,2022-04-28 09:13:11,2020-09-25,0.8638664765457313,1.2273661510681972,1.8177206641543517,,,,,,,,,,,,
53075,0,USWashingtonWhitman,Washington,Whitman,2022-04-28 09:13:11,2020-09-26,0.8638664765457313,1.2273661510681972,1.8177206641543517,,,,,,,,,,,,
53075,0,USWashingtonWhitman,Washington,Whitman,2022-04-28 09:13:11,2020-09-27,0.8638664765457313,1.2273661510681972,1.8177206641543517,,,,,,,,,,,,
53075,0,USWashingtonWhitman,Washington,Whitman,2022-04-28 09:13:11,2020-09-28,0.8638664765457313,1.2273661510681972,1.8177206641543517,,,,,,,,,,,,
53075,0,USWashingtonWhitman,Washington,Whitman,2022-04-28 09:13:11,2020-09-29,0.8638664765457313,1.2273661510681972,1.8177206641543517,,,,,,,,,,,,
53075,0,USWashingtonWhitman,Washington,Whitman,2022-04-28 09:13:11,2020-09-30,0.8638664765457313,1.2273661510681972,1.8177206641543517,,,,,,,,,,,,
53075,0,USWashingtonWhitman,Washington,Whitman,2022-04-28 09:13:11,2020-10-01,0.781795246674896,1.1835976860322899,1.882016671767813,,,,,,,,,,,,
53075,0,USWashingtonWhitman,Washington,Whitman,2022-04-28 09:13:11,2020-10-02,0.781795246674896,1.1835976860322899,1.882016671767813,,,,,,,,,,,,
53075,0,USWashingtonWhitman,Washington,Whitman,2022-04-28 09:13:11,2020-10-03,0.781795246674896,1.1835976860322899,1.882016671767813,,,,,,,,,,,,
53075,0,USWashingtonWhitman,Washington,Whitman,2022-04-28 09:13:11,2020-10-04,0.781795246674896,1.1835976860322899,1.882016671767813,,,,,,,,,,,,
53075,0,USWashingtonWhitman,Washington,Whitman,2022-04-28 09:13:11,2020-10-05,0.781795246674896,1.1835976860322899,1.882016671767813,,,,,,,,,,,,
53075,0,USWashingtonWhitman,Washington,Whitman,2022-04-28 09:13:11,2020-10-06,0.781795246674896,1.1835976860322899,1.882016671767813,,,,,,,,,,,,
53075,0,USWashingtonWhitman,Washington,Whitman,2022-04-28 09:13:11,2020-10-07,0.781795246674896,1.1835976860322899,1.882016671767813,,,,,,,,,,,,
53075,0,USWashingtonWhitman,Washington,Whitman,2022-04-28 09:13:11,2020-10-08,0.7922443392733368,1.104861774422306,1.602295927136761,,,,,,,,,,,,
53075,0,USWashingtonWhitman,Washington,Whitman,2022-04-28 09:13:11,2020-10-09,0.7922443392733368,1.104861774422306,1.602295927136761,,,,,,,,,,,,
53075,0,USWashingtonWhitman,Washington,Whitman,2022-04-28 09:13:11,2020-10-10,0.7922443392733368,1.104861774422306,1.602295927136761,,,,,,,,,,,,
53075,0,USWashingtonWhitman,Washington,Whitman,2022-04-28 09:13:11,2020-10-11,0.7922443392733368,1.104861774422306,1.602295927136761,,,,,,,,,,,,
53075,0,USWashingtonWhitman,Washington,Whitman,2022-04-28 09:13:11,2020-10-12,0.7922443392733368,1.104861774422306,1.602295927136761,,,,,,,,,,,,
53075,0,USWashingtonWhitman,Washington,Whitman,2022-04-28 09:13:11,2020-10-13,0.7922443392733368,1.104861774422306,1.602295927136761,,,,,,,,,,,,
53075,0,USWashingtonWhitman,Washington,Whitman,2022-04-28 09:13:11,2020-10-14,0.7922443392733368,1.104861774422306,1.602295927136761,,,,,,,,,,,,
53075,0,USWashingtonWhitman,Washington,Whitman,2022-04-28 09:13:11,2020-10-15,0.8085625860851965,1.1981598273776268,1.8602214701798787,,,,,,,,,,,,
53075,0,USWashingtonWhitman,Washington,Whitman,2022-04-28 09:13:11,2020-10-16,0.8085625860851965,1.1981598273776268,1.8602214701798787,,,,,,,,,,,,
53075,0,USWashingtonWhitman,Washington,Whitman,2022-04-28 09:13:11,2020-10-17,0.8085625860851965,1.1981598273776268,1.8602214701798787,,,,,,,,,,,,
53075,0,USWashingtonWhitman,Washington,Whitman,2022-04-28 09:13:11,2020-10-18,0.8085625860851965,1.1981598273776268,1.8602214701798787,,,,,,,,,,,,
53075,0,USWashingtonWhitman,Washington,Whitman,2022-04-28 09:13:11,2020-10-19,0.8085625860851965,1.1981598273776268,1.8602214701798787,,,,,,,,,,,,
53075,0,USWashingtonWhitman,Washington,Whitman,2022-04-28 09:13:11,2020-10-20,0.8085625860851965,1.1981598273776268,1.8602214701798787,,,,,,,,,,,,
53075,0,USWashingtonWhitman,Washington,Whitman,2022-04-28 09:13:11,2020-10-21,0.8085625860851965,1.1981598273776268,1.8602214701798787,,,,,,,,,,,,
53075,0,USWashingtonWhitman,Washington,Whitman,2022-04-28 09:13:11,2020-10-22,0.7288244869789687,1.2024709448890087,2.1016150146963586,,,,,,,,,,,,
53075,0,USWashingtonWhitman,Washington,Whitman,2022-04-28 09:13:11,2020-10-23,0.7288244869789687,1.2024709448890087,2.1016150146963586,,,,,,,,,,,,
53075,0,USWashingtonWhitman,Washington,Whitman,2022-04-28 09:13:11,2020-10-24,0.7288244869789687,1.2024709448890087,2.1016150146963586,,,,,,,,,,,,
53075,0,USWashingtonWhitman,Washington,Whitman,2022-04-28 09:13:11,2020-10-25,0.7288244869789687,1.2024709448890087,2.1016150146963586,,,,,,,,,,,,
53075,0,USWashingtonWhitman,Washington,Whitman,2022-04-28 09:13:11,2020-10-26,0.7288244869789687,1.2024709448890087,2.1016150146963586,,,,,,,,,,,,
53075,0,USWashingtonWhitman,Washington,Whitman,2022-04-28 09:13:11,2020-10-27,0.7288244869789687,1.2024709448890087,2.1016150146963586,,,,,,,,,,,,
53075,0,USWashingtonWhitman,Washington,Whitman,2022-04-28 09:13:11,2020-10-28,0.7288244869789687,1.2024709448890087,2.1016150146963586,,,,,,,,,,,,
53075,0,USWashingtonWhitman,Washington,Whitman,2022-04-28 09:13:11,2020-10-29,0.43628716594867595,0.856448843984664,1.8012423148664105,,,,,,,,,,,,
53075,0,USWashingtonWhitman,Washington,Whitman,2022-04-28 09:13:11,2020-10-30,0.43628716594867595,0.856448843984664,1.8012423148664105,,,,,,,,,,,,
53075,0,USWashingtonWhitman,Washington,Whitman,2022-04-28 09:13:11,2020-10-31,0.43628716594867595,0.856448843984664,1.8012423148664105,,,,,,,,,,,,
53075,0,USWashingtonWhitman,Washington,Whitman,2022-04-28 09:13:11,2020-11-01,0.43628716594867595,0.856448843984664,1.8012423148664105,,,,,,,,,,,,
53075,0,USWashingtonWhitman,Washington,Whitman,2022-04-28 09:13:11,2020-11-02,0.43628716594867595,0.856448843984664,1.8012423148664105,,,,,,,,,,,,
53075,0,USWashingtonWhitman,Washington,Whitman,2022-04-28 09:13:11,2020-11-03,0.43628716594867595,0.856448843984664,1.8012423148664105,,,,,,,,,,,,
53075,0,USWashingtonWhitman,Washington,Whitman,2022-04-28 09:13:11,2020-11-04,0.43628716594867595,0.856448843984664,1.8012423148664105,,,,,,,,,,,,
53075,0,USWashingtonWhitman,Washington,Whitman,2022-04-28 09:13:11,2020-11-05,0.7472883660457124,1.4020909544692552,2.8122135012175646,,,,,,,,,,,,
53075,0,USWashingtonWhitman,Washington,Whitman,2022-04-28 09:13:11,2020-11-06,0.7472883660457124,1.4020909544692552,2.8122135012175646,,,,,,,,,,,,
53075,0,USWashingtonWhitman,Washington,Whitman,2022-04-28 09:13:11,2020-11-07,0.7472883660457124,1.4020909544692552,2.8122135012175646,,,,,,,,,,,,
53075,0,USWashingtonWhitman,Washington,Whitman,2022-04-28 09:13:11,2020-11-08,0.7472883660457124,1.4020909544692552,2.8122135012175646,,,,,,,,,,,,
53075,0,USWashingtonWhitman,Washington,Whitman,2022-04-28 09:13:11,2020-11-09,0.7472883660457124,1.4020909544692552,2.8122135012175646,,,,,,,,,,,,
53075,0,USWashingtonWhitman,Washington,Whitman,2022-04-28 09:13:11,2020-11-10,0.7472883660457124,1.4020909544692552,2.8122135012175646,,,,,,,,,,,,
53075,0,USWashingtonWhitman,Washington,Whitman,2022-04-28 09:13:11,2020-11-11,0.7472883660457124,1.4020909544692552,2.8122135012175646,,,,,,,,,,,,
53075,0,USWashingtonWhitman,Washington,Whitman,2022-04-28 09:13:11,2020-11-12,1.122601385670427,1.9756453331837769,3.702046295759402,,,,,,,,,,,,
53075,0,USWashingtonWhitman,Washington,Whitman,2022-04-28 09:13:11,2020-11-13,1.122601385670427,1.9756453331837769,3.702046295759402,,,,,,,,,,,,
53075,0,USWashingtonWhitman,Washington,Whitman,2022-04-28 09:13:11,2020-11-14,1.122601385670427,1.9756453331837769,3.702046295759402,,,,,,,,,,,,
53075,0,USWashingtonWhitman,Washington,Whitman,2022-04-28 09:13:11,2020-11-15,1.122601385670427,1.9756453331837769,3.702046295759402,,,,,,,,,,,,
53075,0,USWashingtonWhitman,Washington,Whitman,2022-04-28 09:13:11,2020-11-16,1.122601385670427,1.9756453331837769,3.702046295759402,,,,,,,,,,,,
53075,0,USWashingtonWhitman,Washington,Whitman,2022-04-28 09:13:11,2020-11-17,1.122601385670427,1.9756453331837769,3.702046295759402,,,,,,,,,,,,
53075,0,USWashingtonWhitman,Washington,Whitman,2022-04-28 09:13:11,2020-11-18,1.122601385670427,1.9756453331837769,3.702046295759402,,,,,,,,,,,,
53075,0,USWashingtonWhitman,Washington,Whitman,2022-04-28 09:13:11,2020-11-19,1.7094755766717622,3.4178076667140975,7.326591190744629,,,,,,,,,,,,
53075,0,USWashingtonWhitman,Washington,Whitman,2022-04-28 09:13:11,2020-11-20,1.7094755766717622,3.4178076667140975,7.326591190744629,,,,,,,,,,,,
53075,0,USWashingtonWhitman,Washington,Whitman,2022-04-28 09:13:11,2020-11-21,1.7094755766717622,3.4178076667140975,7.326591190744629,,,,,,,,,,,,
53075,0,USWashingtonWhitman,Washington,Whitman,2022-04-28 09:13:11,2020-11-22,1.7094755766717622,3.4178076667140975,7.326591190744629,,,,,,,,,,,,
53075,0,USWashingtonWhitman,Washington,Whitman,2022-04-28 09:13:11,2020-11-23,1.7094755766717622,3.4178076667140975,7.326591190744629,,,,,,,,,,,,
53075,0,USWashingtonWhitman,Washington,Whitman,2022-04-28 09:13:11,2020-11-24,1.7094755766717622,3.4178076667140975,7.326591190744629,,,,,,,,,,,,
53075,0,USWashingtonWhitman,Washington,Whitman,2022-04-28 09:13:11,2020-11-25,1.7094755766717622,3.4178076667140975,7.326591190744629,,,,,,,,,,,,
53075,0,USWashingtonWhitman,Washington,Whitman,2022-04-28 09:13:11,2020-12-03,0.8131924475861644,1.395055839380783,2.543421734903295,,,,,,,,,,,,
53075,0,USWashingtonWhitman,Washington,Whitman,2022-04-28 09:13:11,2020-12-04,0.8131924475861644,1.395055839380783,2.543421734903295,,,,,,,,,,,,
53075,0,USWashingtonWhitman,Washington,Whitman,2022-04-28 09:13:11,2020-12-05,0.8131924475861644,1.395055839380783,2.543421734903295,,,,,,,,,,,,
53075,0,USWashingtonWhitman,Washington,Whitman,2022-04-28 09:13:11,2020-12-06,0.8131924475861644,1.395055839380783,2.543421734903295,,,,,,,,,,,,
53075,0,USWashingtonWhitman,Washington,Whitman,2022-04-28 09:13:11,2020-12-07,0.8131924475861644,1.395055839380783,2.543421734903295,,,,,,,,,,,,
53075,0,USWashingtonWhitman,Washington,Whitman,2022-04-28 09:13:11,2020-12-08,0.8131924475861644,1.395055839380783,2.543421734903295,,,,,,,,,,,,
53075,0,USWashingtonWhitman,Washington,Whitman,2022-04-28 09:13:11,2020-12-09,0.8131924475861644,1.395055839380783,2.543421734903295,,,,,,,,,,,,
53075,0,USWashingtonWhitman,Washington,Whitman,2022-04-28 09:13:11,2020-12-10,0.60303023501983,1.098653276709039,2.1361242456055174,,,,,,,,,,,,
53075,0,USWashingtonWhitman,Washington,Whitman,2022-04-28 09:13:11,2020-12-11,0.60303023501983,1.098653276709039,2.1361242456055174,,,,,,,,,,,,
53075,0,USWashingtonWhitman,Washington,Whitman,2022-04-28 09:13:11,2020-12-12,0.60303023501983,1.098653276709039,2.1361242456055174,,,,,,,,,,,,
53075,0,USWashingtonWhitman,Washington,Whitman,2022-04-28 09:13:11,2020-12-13,0.60303023501983,1.098653276709039,2.1361242456055174,,,,,,,,,,,,
53075,0,USWashingtonWhitman,Washington,Whitman,2022-04-28 09:13:11,2020-12-14,0.60303023501983,1.098653276709039,2.1361242456055174,,,,,,,,,,,,
53075,0,USWashingtonWhitman,Washington,Whitman,2022-04-28 09:13:11,2020-12-15,0.60303023501983,1.098653276709039,2.1361242456055174,,,,,,,,,,,,
53075,0,USWashingtonWhitman,Washington,Whitman,2022-04-28 09:13:11,2020-12-16,0.60303023501983,1.098653276709039,2.1361242456055174,,,,,,,,,,,,
53075,0,USWashingtonWhitman,Washington,Whitman,2022-04-28 09:13:11,2020-12-17,0.7332512702626119,1.3521257216512976,2.662814416468068,,,,,,,,,,,,
53075,0,USWashingtonWhitman,Washington,Whitman,2022-04-28 09:13:11,2020-12-18,0.7332512702626119,1.3521257216512976,2.662814416468068,,,,,,,,,,,,
53075,0,USWashingtonWhitman,Washington,Whitman,2022-04-28 09:13:11,2020-12-19,0.7332512702626119,1.3521257216512976,2.662814416468068,,,,,,,,,,,,
53075,0,USWashingtonWhitman,Washington,Whitman,2022-04-28 09:13:11,2020-12-20,0.7332512702626119,1.3521257216512976,2.662814416468068,,,,,,,,,,,,
53075,0,USWashingtonWhitman,Washington,Whitman,2022-04-28 09:13:11,2020-12-21,0.7332512702626119,1.3521257216512976,2.662814416468068,,,,,,,,,,,,
53075,0,USWashingtonWhitman,Washington,Whitman,2022-04-28 09:13:11,2020-12-22,0.7332512702626119,1.3521257216512976,2.662814416468068,,,,,,,,,,,,
53075,0,USWashingtonWhitman,Washington,Whitman,2022-04-28 09:13:11,2020-12-23,0.7332512702626119,1.3521257216512976,2.662814416468068,,,,,,,,,,,,
53075,0,USWashingtonWhitman,Washington,Whitman,2022-04-28 09:13:11,2020-12-24,0.7062571673919401,1.245722832751891,2.339904131810886,,,,,,,,,,,,
53075,0,USWashingtonWhitman,Washington,Whitman,2022-04-28 09:13:11,2020-12-25,0.7062571673919401,1.245722832751891,2.339904131810886,,,,,,,,,,,,
53075,0,USWashingtonWhitman,Washington,Whitman,2022-04-28 09:13:11,2020-12-26,0.7062571673919401,1.245722832751891,2.339904131810886,,,,,,,,,,,,
53075,0,USWashingtonWhitman,Washington,Whitman,2022-04-28 09:13:11,2020-12-27,0.7062571673919401,1.245722832751891,2.339904131810886,,,,,,,,,,,,
53075,0,USWashingtonWhitman,Washington,Whitman,2022-04-28 09:13:11,2020-12-28,0.7062571673919401,1.245722832751891,2.339904131810886,,,,,,,,,,,,
53075,0,USWashingtonWhitman,Washington,Whitman,2022-04-28 09:13:11,2020-12-29,0.7062571673919401,1.245722832751891,2.339904131810886,,,,,,,,,,,,
53075,0,USWashingtonWhitman,Washington,Whitman,2022-04-28 09:13:11,2020-12-30,0.7062571673919401,1.245722832751891,2.339904131810886,,,,,,,,,,,,
53075,0,USWashingtonWhitman,Washington,Whitman,2022-04-28 09:13:11,2020-12-31,0.8518792840988758,1.6980187404379996,3.628477498655499,,,,,,,,,,,,
53075,0,USWashingtonWhitman,Washington,Whitman,2022-04-28 09:13:11,2021-01-01,0.8518792840988758,1.6980187404379996,3.628477498655499,,,,,,,,,,,,
53075,0,USWashingtonWhitman,Washington,Whitman,2022-04-28 09:13:11,2021-01-02,0.8518792840988758,1.6980187404379996,3.628477498655499,,,,,,,,,,,,
53075,0,USWashingtonWhitman,Washington,Whitman,2022-04-28 09:13:11,2021-01-03,0.8518792840988758,1.6980187404379996,3.628477498655499,,,,,,,,,,,,
53075,0,USWashingtonWhitman,Washington,Whitman,2022-04-28 09:13:11,2021-01-04,0.8518792840988758,1.6980187404379996,3.628477498655499,,,,,,,,,,,,
53075,0,USWashingtonWhitman,Washington,Whitman,2022-04-28 09:13:11,2021-01-05,0.8518792840988758,1.6980187404379996,3.628477498655499,,,,,,,,,,,,
53075,0,USWashingtonWhitman,Washington,Whitman,2022-04-28 09:13:11,2021-01-06,0.8518792840988758,1.6980187404379996,3.628477498655499,,,,,,,,,,,,
53075,0,USWashingtonWhitman,Washington,Whitman,2022-04-28 09:13:11,2021-01-07,0.7896970373068704,1.6236210787697876,3.5827368435608484,,,,,,,,,,,,
53075,0,USWashingtonWhitman,Washington,Whitman,2022-04-28 09:13:11,2021-01-08,0.7896970373068704,1.6236210787697876,3.5827368435608484,,,,,,,,,,,,
53075,0,USWashingtonWhitman,Washington,Whitman,2022-04-28 09:13:11,2021-01-09,0.7896970373068704,1.6236210787697876,3.5827368435608484,,,,,,,,,,,,
53075,0,USWashingtonWhitman,Washington,Whitman,2022-04-28 09:13:11,2021-01-10,0.7896970373068704,1.6236210787697876,3.5827368435608484,,,,,,,,,,,,
53075,0,USWashingtonWhitman,Washington,Whitman,2022-04-28 09:13:11,2021-01-11,0.7896970373068704,1.6236210787697876,3.5827368435608484,,,,,,,,,,,,
53075,0,USWashingtonWhitman,Washington,Whitman,2022-04-28 09:13:11,2021-01-12,0.7896970373068704,1.6236210787697876,3.5827368435608484,,,,,,,,,,,,
53075,0,USWashingtonWhitman,Washington,Whitman,2022-04-28 09:13:11,2021-01-13,0.7896970373068704,1.6236210787697876,3.5827368435608484,,,,,,,,,,,,
53075,0,USWashingtonWhitman,Washington,Whitman,2022-04-28 09:13:11,2021-01-14,0.741586116840304,1.4103260972533536,2.8692631373181063,,,,,,,,,,,,
53075,0,USWashingtonWhitman,Washington,Whitman,2022-04-28 09:13:11,2021-01-15,0.741586116840304,1.4103260972533536,2.8692631373181063,,,,,,,,,,,,
53075,0,USWashingtonWhitman,Washington,Whitman,2022-04-28 09:13:11,2021-01-16,0.741586116840304,1.4103260972533536,2.8692631373181063,,,,,,,,,,,,
53075,0,USWashingtonWhitman,Washington,Whitman,2022-04-28 09:13:11,2021-01-17,0.741586116840304,1.4103260972533536,2.8692631373181063,,,,,,,,,,,,
53075,0,USWashingtonWhitman,Washington,Whitman,2022-04-28 09:13:11,2021-01-18,0.741586116840304,1.4103260972533536,2.8692631373181063,,,,,,,,,,,,
53075,0,USWashingtonWhitman,Washington,Whitman,2022-04-28 09:13:11,2021-01-19,0.741586116840304,1.4103260972533536,2.8692631373181063,,,,,,,,,,,,
53075,0,USWashingtonWhitman,Washington,Whitman,2022-04-28 09:13:11,2021-01-20,0.741586116840304,1.4103260972533536,2.8692631373181063,,,,,,,,,,,,
53075,0,USWashingtonWhitman,Washington,Whitman,2022-04-28 09:13:11,2021-01-21,0.6600316206652499,1.1904231622077215,2.2898453254899325,,,,,,,,,,,,
53075,0,USWashingtonWhitman,Washington,Whitman,2022-04-28 09:13:11,2021-01-22,0.6600316206652499,1.1904231622077215,2.2898453254899325,,,,,,,,,,,,
53075,0,USWashingtonWhitman,Washington,Whitman,2022-04-28 09:13:11,2021-01-23,0.6600316206652499,1.1904231622077215,2.2898453254899325,,,,,,,,,,,,
53075,0,USWashingtonWhitman,Washington,Whitman,2022-04-28 09:13:11,2021-01-24,0.6600316206652499,1.1904231622077215,2.2898453254899325,,,,,,,,,,,,
53075,0,USWashingtonWhitman,Washington,Whitman,2022-04-28 09:13:11,2021-01-25,0.6600316206652499,1.1904231622077215,2.2898453254899325,,,,,,,,,,,,
53075,0,USWashingtonWhitman,Washington,Whitman,2022-04-28 09:13:11,2021-01-26,0.6600316206652499,1.1904231622077215,2.2898453254899325,,,,,,,,,,,,
53075,0,USWashingtonWhitman,Washington,Whitman,2022-04-28 09:13:11,2021-01-27,0.6600316206652499,1.1904231622077215,2.2898453254899325,,,,,,,,,,,,
53075,0,USWashingtonWhitman,Washington,Whitman,2022-04-28 09:13:11,2021-01-28,0.5788953392440566,1.0964770552686516,2.2212706798949067,,,,,,,,,,,,
53075,0,USWashingtonWhitman,Washington,Whitman,2022-04-28 09:13:11,2021-01-29,0.5788953392440566,1.0964770552686516,2.2212706798949067,,,,,,,,,,,,
53075,0,USWashingtonWhitman,Washington,Whitman,2022-04-28 09:13:11,2021-01-30,0.5788953392440566,1.0964770552686516,2.2212706798949067,,,,,,,,,,,,
53075,0,USWashingtonWhitman,Washington,Whitman,2022-04-28 09:13:11,2021-01-31,0.5788953392440566,1.0964770552686516,2.2212706798949067,,,,,,,,,,,,
53075,0,USWashingtonWhitman,Washington,Whitman,2022-04-28 09:13:11,2021-02-01,0.5788953392440566,1.0964770552686516,2.2212706798949067,,,,,,,,,,,,
53075,0,USWashingtonWhitman,Washington,Whitman,2022-04-28 09:13:11,2021-02-02,0.5788953392440566,1.0964770552686516,2.2212706798949067,,,,,,,,,,,,
53075,0,USWashingtonWhitman,Washington,Whitman,2022-04-28 09:13:11,2021-02-03,0.5788953392440566,1.0964770552686516,2.2212706798949067,,,,,,,,,,,,
53075,0,USWashingtonWhitman,Washington,Whitman,2022-04-28 09:13:11,2021-02-04,0.33862315968767903,0.6941156086232094,1.5268964765097974,,,,,,,,,,,,
53075,0,USWashingtonWhitman,Washington,Whitman,2022-04-28 09:13:11,2021-02-05,0.33862315968767903,0.6941156086232094,1.5268964765097974,,,,,,,,,,,,
53075,0,USWashingtonWhitman,Washington,Whitman,2022-04-28 09:13:11,2021-02-06,0.33862315968767903,0.6941156086232094,1.5268964765097974,,,,,,,,,,,,
53075,0,USWashingtonWhitman,Washington,Whitman,2022-04-28 09:13:11,2021-02-07,0.33862315968767903,0.6941156086232094,1.5268964765097974,,,,,,,,,,,,
53075,0,USWashingtonWhitman,Washington,Whitman,2022-04-28 09:13:11,2021-02-08,0.33862315968767903,0.6941156086232094,1.5268964765097974,,,,,,,,,,,,
53075,0,USWashingtonWhitman,Washington,Whitman,2022-04-28 09:13:11,2021-02-09,0.33862315968767903,0.6941156086232094,1.5268964765097974,,,,,,,,,,,,
53075,0,USWashingtonWhitman,Washington,Whitman,2022-04-28 09:13:11,2021-02-10,0.33862315968767903,0.6941156086232094,1.5268964765097974,,,,,,,,,,,,
53075,0,USWashingtonWhitman,Washington,Whitman,2022-04-28 09:13:11,2021-02-11,0.08592891070082441,0.22857984942318355,0.6540249003989456,,,,,,,,,,,,
53075,0,USWashingtonWhitman,Washington,Whitman,2022-04-28 09:13:11,2021-02-12,0.08592891070082441,0.22857984942318355,0.6540249003989456,,,,,,,,,,,,
53075,0,USWashingtonWhitman,Washington,Whitman,2022-04-28 09:13:11,2021-02-13,0.08592891070082441,0.22857984942318355,0.6540249003989456,,,,,,,,,,,,
53075,0,USWashingtonWhitman,Washington,Whitman,2022-04-28 09:13:11,2021-02-14,0.08592891070082441,0.22857984942318355,0.6540249003989456,,,,,,,,,,,,
53075,0,USWashingtonWhitman,Washington,Whitman,2022-04-28 09:13:11,2021-02-15,0.08592891070082441,0.22857984942318355,0.6540249003989456,,,,,,,,,,,,
53075,0,USWashingtonWhitman,Washington,Whitman,2022-04-28 09:13:11,2021-02-16,0.08592891070082441,0.22857984942318355,0.6540249003989456,,,,,,,,,,,,
53075,0,USWashingtonWhitman,Washington,Whitman,2022-04-28 09:13:11,2021-02-17,0.08592891070082441,0.22857984942318355,0.6540249003989456,,,,,,,,,,,,
53075,0,USWashingtonWhitman,Washington,Whitman,2022-04-28 09:13:11,2021-02-18,0.47348967548793786,0.7879898190130652,1.3902211705042824,,,,,,,,,,,,
53075,0,USWashingtonWhitman,Washington,Whitman,2022-04-28 09:13:11,2021-02-19,0.47348967548793786,0.7879898190130652,1.3902211705042824,,,,,,,,,,,,
53075,0,USWashingtonWhitman,Washington,Whitman,2022-04-28 09:13:11,2021-02-20,0.47348967548793786,0.7879898190130652,1.3902211705042824,,,,,,,,,,,,
53075,0,USWashingtonWhitman,Washington,Whitman,2022-04-28 09:13:11,2021-02-21,0.47348967548793786,0.7879898190130652,1.3902211705042824,,,,,,,,,,,,
53075,0,USWashingtonWhitman,Washington,Whitman,2022-04-28 09:13:11,2021-02-22,0.47348967548793786,0.7879898190130652,1.3902211705042824,,,,,,,,,,,,
53075,0,USWashingtonWhitman,Washington,Whitman,2022-04-28 09:13:11,2021-02-23,0.47348967548793786,0.7879898190130652,1.3902211705042824,,,,,,,,,,,,
53075,0,USWashingtonWhitman,Washington,Whitman,2022-04-28 09:13:11,2021-02-24,0.47348967548793786,0.7879898190130652,1.3902211705042824,,,,,,,,,,,,
53075,0,USWashingtonWhitman,Washington,Whitman,2022-04-28 09:13:11,2021-02-25,0.6641307578185436,1.0746971836210224,1.8390041474014351,,,,,,,,,,,,
53075,0,USWashingtonWhitman,Washington,Whitman,2022-04-28 09:13:11,2021-02-26,0.6641307578185436,1.0746971836210224,1.8390041474014351,,,,,,,,,,,,
53075,0,USWashingtonWhitman,Washington,Whitman,2022-04-28 09:13:11,2021-02-27,0.6641307578185436,1.0746971836210224,1.8390041474014351,,,,,,,,,,,,
53075,0,USWashingtonWhitman,Washington,Whitman,2022-04-28 09:13:11,2021-02-28,0.6641307578185436,1.0746971836210224,1.8390041474014351,,,,,,,,,,,,
53075,0,USWashingtonWhitman,Washington,Whitman,2022-04-28 09:13:11,2021-03-01,0.6641307578185436,1.0746971836210224,1.8390041474014351,,,,,,,,,,,,
53075,0,USWashingtonWhitman,Washington,Whitman,2022-04-28 09:13:11,2021-03-02,0.6641307578185436,1.0746971836210224,1.8390041474014351,,,,,,,,,,,,
53075,0,USWashingtonWhitman,Washington,Whitman,2022-04-28 09:13:11,2021-03-03,0.6641307578185436,1.0746971836210224,1.8390041474014351,,,,,,,,,,,,
53075,0,USWashingtonWhitman,Washington,Whitman,2022-04-28 09:13:11,2021-03-04,0.2969005486251704,0.5536263201655348,1.103212000285307,,,,,,,,,,,,
53075,0,USWashingtonWhitman,Washington,Whitman,2022-04-28 09:13:11,2021-03-05,0.2969005486251704,0.5536263201655348,1.103212000285307,,,,,,,,,,,,
53075,0,USWashingtonWhitman,Washington,Whitman,2022-04-28 09:13:11,2021-03-06,0.2969005486251704,0.5536263201655348,1.103212000285307,,,,,,,,,,,,
53075,0,USWashingtonWhitman,Washington,Whitman,2022-04-28 09:13:11,2021-03-07,0.2969005486251704,0.5536263201655348,1.103212000285307,,,,,,,,,,,,
53075,0,USWashingtonWhitman,Washington,Whitman,2022-04-28 09:13:11,2021-03-08,0.2969005486251704,0.5536263201655348,1.103212000285307,,,,,,,,,,,,
53075,0,USWashingtonWhitman,Washington,Whitman,2022-04-28 09:13:11,2021-03-09,0.2969005486251704,0.5536263201655348,1.103212000285307,,,,,,,,,,,,
53075,0,USWashingtonWhitman,Washington,Whitman,2022-04-28 09:13:11,2021-03-10,0.2969005486251704,0.5536263201655348,1.103212000285307,,,,,,,,,,,,
53075,0,USWashingtonWhitman,Washington,Whitman,2022-04-28 09:13:11,2021-03-11,0.44327518615956424,0.7589301656238279,1.3806739578762037,,,,,,,,,,,,
53075,0,USWashingtonWhitman,Washington,Whitman,2022-04-28 09:13:11,2021-03-12,0.44327518615956424,0.7589301656238279,1.3806739578762037,,,,,,,,,,,,
53075,0,USWashingtonWhitman,Washington,Whitman,2022-04-28 09:13:11,2021-03-13,0.44327518615956424,0.7589301656238279,1.3806739578762037,,,,,,,,,,,,
53075,0,USWashingtonWhitman,Washington,Whitman,2022-04-28 09:13:11,2021-03-14,0.44327518615956424,0.7589301656238279,1.3806739578762037,,,,,,,,,,,,
53075,0,USWashingtonWhitman,Washington,Whitman,2022-04-28 09:13:11,2021-03-15,0.44327518615956424,0.7589301656238279,1.3806739578762037,,,,,,,,,,,,
53075,0,USWashingtonWhitman,Washington,Whitman,2022-04-28 09:13:11,2021-03-16,0.44327518615956424,0.7589301656238279,1.3806739578762037,,,,,,,,,,,,
53075,0,USWashingtonWhitman,Washington,Whitman,2022-04-28 09:13:11,2021-03-17,0.44327518615956424,0.7589301656238279,1.3806739578762037,,,,,,,,,,,,
53075,0,USWashingtonWhitman,Washington,Whitman,2022-04-28 09:13:11,2021-03-18,1.1458784357759222,1.5466390048166367,2.1613451537418724,,,,,,,,,,,,
53075,0,USWashingtonWhitman,Washington,Whitman,2022-04-28 09:13:11,2021-03-19,1.1458784357759222,1.5466390048166367,2.1613451537418724,,,,,,,,,,,,
53075,0,USWashingtonWhitman,Washington,Whitman,2022-04-28 09:13:11,2021-03-20,1.1458784357759222,1.5466390048166367,2.1613451537418724,,,,,,,,,,,,
53075,0,USWashingtonWhitman,Washington,Whitman,2022-04-28 09:13:11,2021-03-21,1.1458784357759222,1.5466390048166367,2.1613451537418724,,,,,,,,,,,,
53075,0,USWashingtonWhitman,Washington,Whitman,2022-04-28 09:13:11,2021-03-22,1.1458784357759222,1.5466390048166367,2.1613451537418724,,,,,,,,,,,,
53075,0,USWashingtonWhitman,Washington,Whitman,2022-04-28 09:13:11,2021-03-23,1.1458784357759222,1.5466390048166367,2.1613451537418724,,,,,,,,,,,,
53075,0,USWashingtonWhitman,Washington,Whitman,2022-04-28 09:13:11,2021-03-24,1.1458784357759222,1.5466390048166367,2.1613451537418724,,,,,,,,,,,,
53075,0,USWashingtonWhitman,Washington,Whitman,2022-04-28 09:13:11,2021-03-25,0.4807505933747068,0.8599798527163802,1.639803257482705,,,,,,,,,,,,
53075,0,USWashingtonWhitman,Washington,Whitman,2022-04-28 09:13:11,2021-03-26,0.4807505933747068,0.8599798527163802,1.639803257482705,,,,,,,,,,,,
53075,0,USWashingtonWhitman,Washington,Whitman,2022-04-28 09:13:11,2021-03-27,0.4807505933747068,0.8599798527163802,1.639803257482705,,,,,,,,,,,,
53075,0,USWashingtonWhitman,Washington,Whitman,2022-04-28 09:13:11,2021-03-28,0.4807505933747068,0.8599798527163802,1.639803257482705,,,,,,,,,,,,
53075,0,USWashingtonWhitman,Washington,Whitman,2022-04-28 09:13:11,2021-03-29,0.4807505933747068,0.8599798527163802,1.639803257482705,,,,,,,,,,,,
53075,0,USWashingtonWhitman,Washington,Whitman,2022-04-28 09:13:11,2021-03-30,0.4807505933747068,0.8599798527163802,1.639803257482705,,,,,,,,,,,,
53075,0,USWashingtonWhitman,Washington,Whitman,2022-04-28 09:13:11,2021-03-31,0.4807505933747068,0.8599798527163802,1.639803257482705,,,,,,,,,,,,
53075,0,USWashingtonWhitman,Washington,Whitman,2022-04-28 09:13:11,2021-04-01,1.1840045370356265,1.7502343529204525,2.709968108638816,,,,,,,,,,,,
53075,0,USWashingtonWhitman,Washington,Whitman,2022-04-28 09:13:11,2021-04-02,1.1840045370356265,1.7502343529204525,2.709968108638816,,,,,,,,,,,,
53075,0,USWashingtonWhitman,Washington,Whitman,2022-04-28 09:13:11,2021-04-03,1.1840045370356265,1.7502343529204525,2.709968108638816,,,,,,,,,,,,
53075,0,USWashingtonWhitman,Washington,Whitman,2022-04-28 09:13:11,2021-04-04,1.1840045370356265,1.7502343529204525,2.709968108638816,,,,,,,,,,,,
53075,0,USWashingtonWhitman,Washington,Whitman,2022-04-28 09:13:11,2021-04-05,1.1840045370356265,1.7502343529204525,2.709968108638816,,,,,,,,,,,,
53075,0,USWashingtonWhitman,Washington,Whitman,2022-04-28 09:13:11,2021-04-06,1.1840045370356265,1.7502343529204525,2.709968108638816,,,,,,,,,,,,
53075,0,USWashingtonWhitman,Washington,Whitman,2022-04-28 09:13:11,2021-04-07,1.1840045370356265,1.7502343529204525,2.709968108638816,,,,,,,,,,,,
53075,0,USWashingtonWhitman,Washington,Whitman,2022-04-28 09:13:11,2021-04-08,0.5360819495464081,1.0138933976786335,2.0507965591609705,,,,,,,,,,,,
53075,0,USWashingtonWhitman,Washington,Whitman,2022-04-28 09:13:11,2021-04-09,0.5360819495464081,1.0138933976786335,2.0507965591609705,,,,,,,,,,,,
53075,0,USWashingtonWhitman,Washington,Whitman,2022-04-28 09:13:11,2021-04-10,0.5360819495464081,1.0138933976786335,2.0507965591609705,,,,,,,,,,,,
53075,0,USWashingtonWhitman,Washington,Whitman,2022-04-28 09:13:11,2021-04-11,0.5360819495464081,1.0138933976786335,2.0507965591609705,,,,,,,,,,,,
53075,0,USWashingtonWhitman,Washington,Whitman,2022-04-28 09:13:11,2021-04-12,0.5360819495464081,1.0138933976786335,2.0507965591609705,,,,,,,,,,,,
53075,0,USWashingtonWhitman,Washington,Whitman,2022-04-28 09:13:11,2021-04-13,0.5360819495464081,1.0138933976786335,2.0507965591609705,,,,,,,,,,,,
53075,0,USWashingtonWhitman,Washington,Whitman,2022-04-28 09:13:11,2021-04-14,0.5360819495464081,1.0138933976786335,2.0507965591609705,,,,,,,,,,,,
53075,0,USWashingtonWhitman,Washington,Whitman,2022-04-28 09:13:11,2021-04-15,0.6132965837588369,1.1347399730569225,2.242677222885304,,,,,,,,,,,,
53075,0,USWashingtonWhitman,Washington,Whitman,2022-04-28 09:13:11,2021-04-16,0.6132965837588369,1.1347399730569225,2.242677222885304,,,,,,,,,,,,
53075,0,USWashingtonWhitman,Washington,Whitman,2022-04-28 09:13:11,2021-04-17,0.6132965837588369,1.1347399730569225,2.242677222885304,,,,,,,,,,,,
53075,0,USWashingtonWhitman,Washington,Whitman,2022-04-28 09:13:11,2021-04-18,0.6132965837588369,1.1347399730569225,2.242677222885304,,,,,,,,,,,,
53075,0,USWashingtonWhitman,Washington,Whitman,2022-04-28 09:13:11,2021-04-19,0.6132965837588369,1.1347399730569225,2.242677222885304,,,,,,,,,,,,
53075,0,USWashingtonWhitman,Washington,Whitman,2022-04-28 09:13:11,2021-04-20,0.6132965837588369,1.1347399730569225,2.242677222885304,,,,,,,,,,,,
53075,0,USWashingtonWhitman,Washington,Whitman,2022-04-28 09:13:11,2021-04-21,0.6132965837588369,1.1347399730569225,2.242677222885304,,,,,,,,,,,,
53075,0,USWashingtonWhitman,Washington,Whitman,2022-04-28 09:13:11,2021-04-22,0.5730791331874808,1.1047416906523448,2.2797646550506703,,,,,,,,,,,,
53075,0,USWashingtonWhitman,Washington,Whitman,2022-04-28 09:13:11,2021-04-23,0.5730791331874808,1.1047416906523448,2.2797646550506703,,,,,,,,,,,,
53075,0,USWashingtonWhitman,Washington,Whitman,2022-04-28 09:13:11,2021-04-24,0.5730791331874808,1.1047416906523448,2.2797646550506703,,,,,,,,,,,,
53075,0,USWashingtonWhitman,Washington,Whitman,2022-04-28 09:13:11,2021-04-25,0.5730791331874808,1.1047416906523448,2.2797646550506703,,,,,,,,,,,,
53075,0,USWashingtonWhitman,Washington,Whitman,2022-04-28 09:13:11,2021-04-26,0.5730791331874808,1.1047416906523448,2.2797646550506703,,,,,,,,,,,,
53075,0,USWashingtonWhitman,Washington,Whitman,2022-04-28 09:13:11,2021-04-27,0.5730791331874808,1.1047416906523448,2.2797646550506703,,,,,,,,,,,,
53075,0,USWashingtonWhitman,Washington,Whitman,2022-04-28 09:13:11,2021-04-28,0.5730791331874808,1.1047416906523448,2.2797646550506703,,,,,,,,,,,,
53075,0,USWashingtonWhitman,Washington,Whitman,2022-04-28 09:13:11,2021-04-29,0.42928302641614313,0.8956008039682224,2.00627126235321,,,,,,,,,,,,
53075,0,USWashingtonWhitman,Washington,Whitman,2022-04-28 09:13:11,2021-04-30,0.42928302641614313,0.8956008039682224,2.00627126235321,,,,,,,,,,,,
53075,0,USWashingtonWhitman,Washington,Whitman,2022-04-28 09:13:11,2021-05-01,0.42928302641614313,0.8956008039682224,2.00627126235321,,,,,,,,,,,,
53075,0,USWashingtonWhitman,Washington,Whitman,2022-04-28 09:13:11,2021-05-02,0.42928302641614313,0.8956008039682224,2.00627126235321,,,,,,,,,,,,
53075,0,USWashingtonWhitman,Washington,Whitman,2022-04-28 09:13:11,2021-05-03,0.42928302641614313,0.8956008039682224,2.00627126235321,,,,,,,,,,,,
53075,0,USWashingtonWhitman,Washington,Whitman,2022-04-28 09:13:11,2021-05-04,0.42928302641614313,0.8956008039682224,2.00627126235321,,,,,,,,,,,,
53075,0,USWashingtonWhitman,Washington,Whitman,2022-04-28 09:13:11,2021-05-05,0.42928302641614313,0.8956008039682224,2.00627126235321,,,,,,,,,,,,
53075,0,USWashingtonWhitman,Washington,Whitman,2022-04-28 09:13:11,2021-05-06,0.42500559159249546,0.8786927341756888,1.9501294321893274,,,,,,,,,,,,
53075,0,USWashingtonWhitman,Washington,Whitman,2022-04-28 09:13:11,2021-05-07,0.42500559159249546,0.8786927341756888,1.9501294321893274,,,,,,,,,,,,
53075,0,USWashingtonWhitman,Washington,Whitman,2022-04-28 09:13:11,2021-05-08,0.42500559159249546,0.8786927341756888,1.9501294321893274,,,,,,,,,,,,
53075,0,USWashingtonWhitman,Washington,Whitman,2022-04-28 09:13:11,2021-05-09,0.42500559159249546,0.8786927341756888,1.9501294321893274,,,,,,,,,,,,
53075,0,USWashingtonWhitman,Washington,Whitman,2022-04-28 09:13:11,2021-05-10,0.42500559159249546,0.8786927341756888,1.9501294321893274,,,,,,,,,,,,
53075,0,USWashingtonWhitman,Washington,Whitman,2022-04-28 09:13:11,2021-05-11,0.42500559159249546,0.8786927341756888,1.9501294321893274,,,,,,,,,,,,
53075,0,USWashingtonWhitman,Washington,Whitman,2022-04-28 09:13:11,2021-05-12,0.42500559159249546,0.8786927341756888,1.9501294321893274,,,,,,,,,,,,
53075,0,USWashingtonWhitman,Washington,Whitman,2022-04-28 09:13:11,2021-05-13,0.20435787937755173,0.5077458413044039,1.35760908938911,,,,,,,,,,,,
53075,0,USWashingtonWhitman,Washington,Whitman,2022-04-28 09:13:11,2021-05-14,0.20435787937755173,0.5077458413044039,1.35760908938911,,,,,,,,,,,,
53075,0,USWashingtonWhitman,Washington,Whitman,2022-04-28 09:13:11,2021-05-15,0.20435787937755173,0.5077458413044039,1.35760908938911,,,,,,,,,,,,
53075,0,USWashingtonWhitman,Washington,Whitman,2022-04-28 09:13:11,2021-05-16,0.20435787937755173,0.5077458413044039,1.35760908938911,,,,,,,,,,,,
53075,0,USWashingtonWhitman,Washington,Whitman,2022-04-28 09:13:11,2021-05-17,0.20435787937755173,0.5077458413044039,1.35760908938911,,,,,,,,,,,,
53075,0,USWashingtonWhitman,Washington,Whitman,2022-04-28 09:13:11,2021-05-18,0.20435787937755173,0.5077458413044039,1.35760908938911,,,,,,,,,,,,
53075,0,USWashingtonWhitman,Washington,Whitman,2022-04-28 09:13:11,2021-05-19,0.20435787937755173,0.5077458413044039,1.35760908938911,,,,,,,,,,,,
53075,0,USWashingtonWhitman,Washington,Whitman,2022-04-28 09:13:11,2021-05-20,0.1864247212484713,0.3885184790105488,0.8693817034400518,,,,,,,,,,,,
53075,0,USWashingtonWhitman,Washington,Whitman,2022-04-28 09:13:11,2021-05-21,0.1864247212484713,0.3885184790105488,0.8693817034400518,,,,,,,,,,,,
53075,0,USWashingtonWhitman,Washington,Whitman,2022-04-28 09:13:11,2021-05-22,0.1864247212484713,0.3885184790105488,0.8693817034400518,,,,,,,,,,,,
53075,0,USWashingtonWhitman,Washington,Whitman,2022-04-28 09:13:11,2021-05-23,0.1864247212484713,0.3885184790105488,0.8693817034400518,,,,,,,,,,,,
53075,0,USWashingtonWhitman,Washington,Whitman,2022-04-28 09:13:11,2021-05-24,0.1864247212484713,0.3885184790105488,0.8693817034400518,,,,,,,,,,,,
53075,0,USWashingtonWhitman,Washington,Whitman,2022-04-28 09:13:11,2021-05-25,0.1864247212484713,0.3885184790105488,0.8693817034400518,,,,,,,,,,,,
53075,0,USWashingtonWhitman,Washington,Whitman,2022-04-28 09:13:11,2021-05-26,0.1864247212484713,0.3885184790105488,0.8693817034400518,,,,,,,,,,,,
53075,0,USWashingtonWhitman,Washington,Whitman,2022-04-28 09:13:11,2021-05-27,0.11726252666749762,0.3284194525978338,0.9885924634205749,,,,,,,,,,,,
53075,0,USWashingtonWhitman,Washington,Whitman,2022-04-28 09:13:11,2021-05-28,0.11726252666749762,0.3284194525978338,0.9885924634205749,,,,,,,,,,,,
53075,0,USWashingtonWhitman,Washington,Whitman,2022-04-28 09:13:11,2021-05-29,0.11726252666749762,0.3284194525978338,0.9885924634205749,,,,,,,,,,,,
53075,0,USWashingtonWhitman,Washington,Whitman,2022-04-28 09:13:11,2021-05-30,0.11726252666749762,0.3284194525978338,0.9885924634205749,,,,,,,,,,,,
53075,0,USWashingtonWhitman,Washington,Whitman,2022-04-28 09:13:11,2021-05-31,0.11726252666749762,0.3284194525978338,0.9885924634205749,,,,,,,,,,,,
53075,0,USWashingtonWhitman,Washington,Whitman,2022-04-28 09:13:11,2021-06-01,0.11726252666749762,0.3284194525978338,0.9885924634205749,,,,,,,,,,,,
53075,0,USWashingtonWhitman,Washington,Whitman,2022-04-28 09:13:11,2021-06-02,0.11726252666749762,0.3284194525978338,0.9885924634205749,,,,,,,,,,,,
53075,0,USWashingtonWhitman,Washington,Whitman,2022-04-28 09:13:11,2021-06-03,0.23591854920134944,0.49715966226212505,1.1252756442238938,,,,,,,,,,,,
53075,0,USWashingtonWhitman,Washington,Whitman,2022-04-28 09:13:11,2021-06-04,0.23591854920134944,0.49715966226212505,1.1252756442238938,,,,,,,,,,,,
53075,0,USWashingtonWhitman,Washington,Whitman,2022-04-28 09:13:11,2021-06-05,0.23591854920134944,0.49715966226212505,1.1252756442238938,,,,,,,,,,,,
53075,0,USWashingtonWhitman,Washington,Whitman,2022-04-28 09:13:11,2021-06-06,0.23591854920134944,0.49715966226212505,1.1252756442238938,,,,,,,,,,,,
53075,0,USWashingtonWhitman,Washington,Whitman,2022-04-28 09:13:11,2021-06-07,0.23591854920134944,0.49715966226212505,1.1252756442238938,,,,,,,,,,,,
53075,0,USWashingtonWhitman,Washington,Whitman,2022-04-28 09:13:11,2021-06-08,0.23591854920134944,0.49715966226212505,1.1252756442238938,,,,,,,,,,,,
53075,0,USWashingtonWhitman,Washington,Whitman,2022-04-28 09:13:11,2021-06-09,0.23591854920134944,0.49715966226212505,1.1252756442238938,,,,,,,,,,,,
53075,0,USWashingtonWhitman,Washington,Whitman,2022-04-28 09:13:11,2021-06-10,0.2517574202866031,0.5832658179066537,1.4538667612499776,,,,,,,,,,,,
53075,0,USWashingtonWhitman,Washington,Whitman,2022-04-28 09:13:11,2021-06-11,0.2517574202866031,0.5832658179066537,1.4538667612499776,,,,,,,,,,,,
53075,0,USWashingtonWhitman,Washington,Whitman,2022-04-28 09:13:11,2021-06-12,0.2517574202866031,0.5832658179066537,1.4538667612499776,,,,,,,,,,,,
53075,0,USWashingtonWhitman,Washington,Whitman,2022-04-28 09:13:11,2021-06-13,0.2517574202866031,0.5832658179066537,1.4538667612499776,,,,,,,,,,,,
53075,0,USWashingtonWhitman,Washington,Whitman,2022-04-28 09:13:11,2021-06-14,0.2517574202866031,0.5832658179066537,1.4538667612499776,,,,,,,,,,,,
53075,0,USWashingtonWhitman,Washington,Whitman,2022-04-28 09:13:11,2021-06-15,0.2517574202866031,0.5832658179066537,1.4538667612499776,,,,,,,,,,,,
53075,0,USWashingtonWhitman,Washington,Whitman,2022-04-28 09:13:11,2021-06-16,0.2517574202866031,0.5832658179066537,1.4538667612499776,,,,,,,,,,,,
53075,0,USWashingtonWhitman,Washington,Whitman,2022-04-28 09:13:11,2021-06-17,0.12899123404117277,0.3053945297183297,0.7780450792112164,,,,,,,,,,,,
53075,0,USWashingtonWhitman,Washington,Whitman,2022-04-28 09:13:11,2021-06-18,0.12899123404117277,0.3053945297183297,0.7780450792112164,,,,,,,,,,,,
53075,0,USWashingtonWhitman,Washington,Whitman,2022-04-28 09:13:11,2021-06-19,0.12899123404117277,0.3053945297183297,0.7780450792112164,,,,,,,,,,,,
53075,0,USWashingtonWhitman,Washington,Whitman,2022-04-28 09:13:11,2021-06-20,0.12899123404117277,0.3053945297183297,0.7780450792112164,,,,,,,,,,,,
53075,0,USWashingtonWhitman,Washington,Whitman,2022-04-28 09:13:11,2021-06-21,0.12899123404117277,0.3053945297183297,0.7780450792112164,,,,,,,,,,,,
53075,0,USWashingtonWhitman,Washington,Whitman,2022-04-28 09:13:11,2021-06-22,0.12899123404117277,0.3053945297183297,0.7780450792112164,,,,,,,,,,,,
53075,0,USWashingtonWhitman,Washington,Whitman,2022-04-28 09:13:11,2021-06-23,0.12899123404117277,0.3053945297183297,0.7780450792112164,,,,,,,,,,,,
53075,0,USWashingtonWhitman,Washington,Whitman,2022-04-28 09:13:11,2021-06-24,0.07943201715190905,0.19726771086001618,0.527218013889346,,,,,,,,,,,,
53075,0,USWashingtonWhitman,Washington,Whitman,2022-04-28 09:13:11,2021-06-25,0.07943201715190905,0.19726771086001618,0.527218013889346,,,,,,,,,,,,
53075,0,USWashingtonWhitman,Washington,Whitman,2022-04-28 09:13:11,2021-06-26,0.07943201715190905,0.19726771086001618,0.527218013889346,,,,,,,,,,,,
53075,0,USWashingtonWhitman,Washington,Whitman,2022-04-28 09:13:11,2021-06-27,0.07943201715190905,0.19726771086001618,0.527218013889346,,,,,,,,,,,,
53075,0,USWashingtonWhitman,Washington,Whitman,2022-04-28 09:13:11,2021-06-28,0.07943201715190905,0.19726771086001618,0.527218013889346,,,,,,,,,,,,
53075,0,USWashingtonWhitman,Washington,Whitman,2022-04-28 09:13:11,2021-06-29,0.07943201715190905,0.19726771086001618,0.527218013889346,,,,,,,,,,,,
53075,0,USWashingtonWhitman,Washington,Whitman,2022-04-28 09:13:11,2021-06-30,0.07943201715190905,0.19726771086001618,0.527218013889346,,,,,,,,,,,,
53075,0,USWashingtonWhitman,Washington,Whitman,2022-04-28 09:13:11,2021-07-01,0.0893878700816858,0.2189949272029761,0.5773917137340254,,,,,,,,,,,,
53075,0,USWashingtonWhitman,Washington,Whitman,2022-04-28 09:13:11,2021-07-02,0.0893878700816858,0.2189949272029761,0.5773917137340254,,,,,,,,,,,,
53075,0,USWashingtonWhitman,Washington,Whitman,2022-04-28 09:13:11,2021-07-03,0.0893878700816858,0.2189949272029761,0.5773917137340254,,,,,,,,,,,,
53075,0,USWashingtonWhitman,Washington,Whitman,2022-04-28 09:13:11,2021-07-04,0.0893878700816858,0.2189949272029761,0.5773917137340254,,,,,,,,,,,,
53075,0,USWashingtonWhitman,Washington,Whitman,2022-04-28 09:13:11,2021-07-05,0.0893878700816858,0.2189949272029761,0.5773917137340254,,,,,,,,,,,,
53075,0,USWashingtonWhitman,Washington,Whitman,2022-04-28 09:13:11,2021-07-06,0.0893878700816858,0.2189949272029761,0.5773917137340254,,,,,,,,,,,,
53075,0,USWashingtonWhitman,Washington,Whitman,2022-04-28 09:13:11,2021-07-07,0.0893878700816858,0.2189949272029761,0.5773917137340254,,,,,,,,,,,,
53075,0,USWashingtonWhitman,Washington,Whitman,2022-04-28 09:13:11,2021-07-08,0.1728939297905633,0.35256768660457877,0.77142042998106,,,,,,,,,,,,
53075,0,USWashingtonWhitman,Washington,Whitman,2022-04-28 09:13:11,2021-07-09,0.1728939297905633,0.35256768660457877,0.77142042998106,,,,,,,,,,,,
53075,0,USWashingtonWhitman,Washington,Whitman,2022-04-28 09:13:11,2021-07-10,0.1728939297905633,0.35256768660457877,0.77142042998106,,,,,,,,,,,,
53075,0,USWashingtonWhitman,Washington,Whitman,2022-04-28 09:13:11,2021-07-11,0.1728939297905633,0.35256768660457877,0.77142042998106,,,,,,,,,,,,
53075,0,USWashingtonWhitman,Washington,Whitman,2022-04-28 09:13:11,2021-07-12,0.1728939297905633,0.35256768660457877,0.77142042998106,,,,,,,,,,,,
53075,0,USWashingtonWhitman,Washington,Whitman,2022-04-28 09:13:11,2021-07-13,0.1728939297905633,0.35256768660457877,0.77142042998106,,,,,,,,,,,,
53075,0,USWashingtonWhitman,Washington,Whitman,2022-04-28 09:13:11,2021-07-14,0.1728939297905633,0.35256768660457877,0.77142042998106,,,,,,,,,,,,
53075,0,USWashingtonWhitman,Washington,Whitman,2022-04-28 09:13:11,2021-07-15,0.10379123555794721,0.28962846143874116,0.8686987324174774,,,,,,,,,,,,
53075,0,USWashingtonWhitman,Washington,Whitman,2022-04-28 09:13:11,2021-07-16,0.10379123555794721,0.28962846143874116,0.8686987324174774,,,,,,,,,,,,
53075,0,USWashingtonWhitman,Washington,Whitman,2022-04-28 09:13:11,2021-07-17,0.10379123555794721,0.28962846143874116,0.8686987324174774,,,,,,,,,,,,
53075,0,USWashingtonWhitman,Washington,Whitman,2022-04-28 09:13:11,2021-07-18,0.10379123555794721,0.28962846143874116,0.8686987324174774,,,,,,,,,,,,
53075,0,USWashingtonWhitman,Washington,Whitman,2022-04-28 09:13:11,2021-07-19,0.10379123555794721,0.28962846143874116,0.8686987324174774,,,,,,,,,,,,
53075,0,USWashingtonWhitman,Washington,Whitman,2022-04-28 09:13:11,2021-07-20,0.10379123555794721,0.28962846143874116,0.8686987324174774,,,,,,,,,,,,
53075,0,USWashingtonWhitman,Washington,Whitman,2022-04-28 09:13:11,2021-07-21,0.10379123555794721,0.28962846143874116,0.8686987324174774,,,,,,,,,,,,
53075,0,USWashingtonWhitman,Washington,Whitman,2022-04-28 09:13:11,2021-07-22,0.09571986627643683,0.17312510294392663,0.3340136495777034,,,,,,,,,,,,
53075,0,USWashingtonWhitman,Washington,Whitman,2022-04-28 09:13:11,2021-07-23,0.09571986627643683,0.17312510294392663,0.3340136495777034,,,,,,,,,,,,
53075,0,USWashingtonWhitman,Washington,Whitman,2022-04-28 09:13:11,2021-07-24,0.09571986627643683,0.17312510294392663,0.3340136495777034,,,,,,,,,,,,
53075,0,USWashingtonWhitman,Washington,Whitman,2022-04-28 09:13:11,2021-07-25,0.09571986627643683,0.17312510294392663,0.3340136495777034,,,,,,,,,,,,
53075,0,USWashingtonWhitman,Washington,Whitman,2022-04-28 09:13:11,2021-07-26,0.09571986627643683,0.17312510294392663,0.3340136495777034,,,,,,,,,,,,
53075,0,USWashingtonWhitman,Washington,Whitman,2022-04-28 09:13:11,2021-07-27,0.09571986627643683,0.17312510294392663,0.3340136495777034,,,,,,,,,,,,
53075,0,USWashingtonWhitman,Washington,Whitman,2022-04-28 09:13:11,2021-07-28,0.09571986627643683,0.17312510294392663,0.3340136495777034,,,,,,,,,,,,
53075,0,USWashingtonWhitman,Washington,Whitman,2022-04-28 09:13:11,2021-07-29,0.450575021948949,1.1629234796718062,3.229411101793038,,,,,,,,,,,,
53075,0,USWashingtonWhitman,Washington,Whitman,2022-04-28 09:13:11,2021-07-30,0.450575021948949,1.1629234796718062,3.229411101793038,,,,,,,,,,,,
53075,0,USWashingtonWhitman,Washington,Whitman,2022-04-28 09:13:11,2021-07-31,0.450575021948949,1.1629234796718062,3.229411101793038,,,,,,,,,,,,
53075,0,USWashingtonWhitman,Washington,Whitman,2022-04-28 09:13:11,2021-08-01,0.450575021948949,1.1629234796718062,3.229411101793038,,,,,,,,,,,,
53075,0,USWashingtonWhitman,Washington,Whitman,2022-04-28 09:13:11,2021-08-02,0.450575021948949,1.1629234796718062,3.229411101793038,,,,,,,,,,,,
53075,0,USWashingtonWhitman,Washington,Whitman,2022-04-28 09:13:11,2021-08-03,0.450575021948949,1.1629234796718062,3.229411101793038,,,,,,,,,,,,
53075,0,USWashingtonWhitman,Washington,Whitman,2022-04-28 09:13:11,2021-08-04,0.450575021948949,1.1629234796718062,3.229411101793038,,,,,,,,,,,,
53075,0,USWashingtonWhitman,Washington,Whitman,2022-04-28 09:13:11,2021-08-05,0.539855904313007,1.2183837321655562,2.957555527781864,,,,,,,,,,,,
53075,0,USWashingtonWhitman,Washington,Whitman,2022-04-28 09:13:11,2021-08-06,0.539855904313007,1.2183837321655562,2.957555527781864,,,,,,,,,,,,
53075,0,USWashingtonWhitman,Washington,Whitman,2022-04-28 09:13:11,2021-08-07,0.539855904313007,1.2183837321655562,2.957555527781864,,,,,,,,,,,,
53075,0,USWashingtonWhitman,Washington,Whitman,2022-04-28 09:13:11,2021-08-08,0.539855904313007,1.2183837321655562,2.957555527781864,,,,,,,,,,,,
53075,0,USWashingtonWhitman,Washington,Whitman,2022-04-28 09:13:11,2021-08-09,0.539855904313007,1.2183837321655562,2.957555527781864,,,,,,,,,,,,
53075,0,USWashingtonWhitman,Washington,Whitman,2022-04-28 09:13:11,2021-08-10,0.539855904313007,1.2183837321655562,2.957555527781864,,,,,,,,,,,,
53075,0,USWashingtonWhitman,Washington,Whitman,2022-04-28 09:13:11,2021-08-11,0.539855904313007,1.2183837321655562,2.957555527781864,,,,,,,,,,,,
53075,0,USWashingtonWhitman,Washington,Whitman,2022-04-28 09:13:11,2021-08-12,0.7417458372448282,1.5739733836418108,3.5879763323221425,,,,,,,,,,,,
53075,0,USWashingtonWhitman,Washington,Whitman,2022-04-28 09:13:11,2021-08-13,0.7417458372448282,1.5739733836418108,3.5879763323221425,,,,,,,,,,,,
53075,0,USWashingtonWhitman,Washington,Whitman,2022-04-28 09:13:11,2021-08-14,0.7417458372448282,1.5739733836418108,3.5879763323221425,,,,,,,,,,,,
53075,0,USWashingtonWhitman,Washington,Whitman,2022-04-28 09:13:11,2021-08-15,0.7417458372448282,1.5739733836418108,3.5879763323221425,,,,,,,,,,,,
53075,0,USWashingtonWhitman,Washington,Whitman,2022-04-28 09:13:11,2021-08-16,0.7417458372448282,1.5739733836418108,3.5879763323221425,,,,,,,,,,,,
53075,0,USWashingtonWhitman,Washington,Whitman,2022-04-28 09:13:11,2021-08-17,0.7417458372448282,1.5739733836418108,3.5879763323221425,,,,,,,,,,,,
53075,0,USWashingtonWhitman,Washington,Whitman,2022-04-28 09:13:11,2021-08-18,0.7417458372448282,1.5739733836418108,3.5879763323221425,,,,,,,,,,,,
53075,0,USWashingtonWhitman,Washington,Whitman,2022-04-28 09:13:11,2021-08-19,0.8885165829623936,1.773115611539525,3.7935535327604923,,,,,,,,,,,,
53075,0,USWashingtonWhitman,Washington,Whitman,2022-04-28 09:13:11,2021-08-20,0.8885165829623936,1.773115611539525,3.7935535327604923,,,,,,,,,,,,
53075,0,USWashingtonWhitman,Washington,Whitman,2022-04-28 09:13:11,2021-08-21,0.8885165829623936,1.773115611539525,3.7935535327604923,,,,,,,,,,,,
53075,0,USWashingtonWhitman,Washington,Whitman,2022-04-28 09:13:11,2021-08-22,0.8885165829623936,1.773115611539525,3.7935535327604923,,,,,,,,,,,,
53075,0,USWashingtonWhitman,Washington,Whitman,2022-04-28 09:13:11,2021-08-23,0.8885165829623936,1.773115611539525,3.7935535327604923,,,,,,,,,,,,
53075,0,USWashingtonWhitman,Washington,Whitman,2022-04-28 09:13:11,2021-08-24,0.8885165829623936,1.773115611539525,3.7935535327604923,,,,,,,,,,,,
53075,0,USWashingtonWhitman,Washington,Whitman,2022-04-28 09:13:11,2021-08-25,0.8885165829623936,1.773115611539525,3.7935535327604923,,,,,,,,,,,,
53075,0,USWashingtonWhitman,Washington,Whitman,2022-04-28 09:13:11,2021-08-26,0.8733115551474093,1.8146133014365142,4.048093366235801,,,,,,,,,,,,
53075,0,USWashingtonWhitman,Washington,Whitman,2022-04-28 09:13:11,2021-08-27,0.8733115551474093,1.8146133014365142,4.048093366235801,,,,,,,,,,,,
53075,0,USWashingtonWhitman,Washington,Whitman,2022-04-28 09:13:11,2021-08-28,0.8733115551474093,1.8146133014365142,4.048093366235801,,,,,,,,,,,,
53075,0,USWashingtonWhitman,Washington,Whitman,2022-04-28 09:13:11,2021-08-29,0.8733115551474093,1.8146133014365142,4.048093366235801,,,,,,,,,,,,
53075,0,USWashingtonWhitman,Washington,Whitman,2022-04-28 09:13:11,2021-08-30,0.8733115551474093,1.8146133014365142,4.048093366235801,,,,,,,,,,,,
53075,0,USWashingtonWhitman,Washington,Whitman,2022-04-28 09:13:11,2021-08-31,0.8733115551474093,1.8146133014365142,4.048093366235801,,,,,,,,,,,,
53075,0,USWashingtonWhitman,Washington,Whitman,2022-04-28 09:13:11,2021-09-01,0.8733115551474093,1.8146133014365142,4.048093366235801,,,,,,,,,,,,
53075,0,USWashingtonWhitman,Washington,Whitman,2022-04-28 09:13:11,2021-09-02,1.2748182320241843,2.371183489192721,4.712566321956843,,,,,,,,,,,,
53075,0,USWashingtonWhitman,Washington,Whitman,2022-04-28 09:13:11,2021-09-03,1.2748182320241843,2.371183489192721,4.712566321956843,,,,,,,,,,,,
53075,0,USWashingtonWhitman,Washington,Whitman,2022-04-28 09:13:11,2021-09-04,1.2748182320241843,2.371183489192721,4.712566321956843,,,,,,,,,,,,
53075,0,USWashingtonWhitman,Washington,Whitman,2022-04-28 09:13:11,2021-09-05,1.2748182320241843,2.371183489192721,4.712566321956843,,,,,,,,,,,,
53075,0,USWashingtonWhitman,Washington,Whitman,2022-04-28 09:13:11,2021-09-06,1.2748182320241843,2.371183489192721,4.712566321956843,,,,,,,,,,,,
53075,0,USWashingtonWhitman,Washington,Whitman,2022-04-28 09:13:11,2021-09-07,1.2748182320241843,2.371183489192721,4.712566321956843,,,,,,,,,,,,
53075,0,USWashingtonWhitman,Washington,Whitman,2022-04-28 09:13:11,2021-09-08,1.2748182320241843,2.371183489192721,4.712566321956843,,,,,,,,,,,,
53075,0,USWashingtonWhitman,Washington,Whitman,2022-04-28 09:13:11,2021-09-09,1.3181866346641236,2.5732297758360865,5.380407232328943,,,,,,,,,,,,
53075,0,USWashingtonWhitman,Washington,Whitman,2022-04-28 09:13:11,2021-09-10,1.3181866346641236,2.5732297758360865,5.380407232328943,,,,,,,,,,,,
53075,0,USWashingtonWhitman,Washington,Whitman,2022-04-28 09:13:11,2021-09-11,1.3181866346641236,2.5732297758360865,5.380407232328943,,,,,,,,,,,,
53075,0,USWashingtonWhitman,Washington,Whitman,2022-04-28 09:13:11,2021-09-12,1.3181866346641236,2.5732297758360865,5.380407232328943,,,,,,,,,,,,
53075,0,USWashingtonWhitman,Washington,Whitman,2022-04-28 09:13:11,2021-09-13,1.3181866346641236,2.5732297758360865,5.380407232328943,,,,,,,,,,,,
53075,0,USWashingtonWhitman,Washington,Whitman,2022-04-28 09:13:11,2021-09-14,1.3181866346641236,2.5732297758360865,5.380407232328943,,,,,,,,,,,,
53075,0,USWashingtonWhitman,Washington,Whitman,2022-04-28 09:13:11,2021-09-15,1.3181866346641236,2.5732297758360865,5.380407232328943,,,,,,,,,,,,
53075,0,USWashingtonWhitman,Washington,Whitman,2022-04-28 09:13:11,2021-11-11,0.5120394608168997,1.16115594513426,2.8323591408053432,,,,,,,,,,,,
53075,0,USWashingtonWhitman,Washington,Whitman,2022-04-28 09:13:11,2021-11-12,0.5120394608168997,1.16115594513426,2.8323591408053432,,,,,,,,,,,,
53075,0,USWashingtonWhitman,Washington,Whitman,2022-04-28 09:13:11,2021-11-13,0.5120394608168997,1.16115594513426,2.8323591408053432,,,,,,,,,,,,
53075,0,USWashingtonWhitman,Washington,Whitman,2022-04-28 09:13:11,2021-11-14,0.5120394608168997,1.16115594513426,2.8323591408053432,,,,,,,,,,,,
53075,0,USWashingtonWhitman,Washington,Whitman,2022-04-28 09:13:11,2021-11-15,0.5120394608168997,1.16115594513426,2.8323591408053432,,,,,,,,,,,,
53075,0,USWashingtonWhitman,Washington,Whitman,2022-04-28 09:13:11,2021-11-16,0.5120394608168997,1.16115594513426,2.8323591408053432,,,,,,,,,,,,
53075,0,USWashingtonWhitman,Washington,Whitman,2022-04-28 09:13:11,2021-11-17,0.5120394608168997,1.16115594513426,2.8323591408053432,,,,,,,,,,,,
53075,0,USWashingtonWhitman,Washington,Whitman,2022-04-28 09:13:11,2021-11-18,0.9060334185510305,3.2922158438362374,12.75816325180587,,,,,,,,,,,,
53075,0,USWashingtonWhitman,Washington,Whitman,2022-04-28 09:13:11,2021-11-19,0.9060334185510305,3.2922158438362374,12.75816325180587,,,,,,,,,,,,
53075,0,USWashingtonWhitman,Washington,Whitman,2022-04-28 09:13:11,2021-11-20,0.9060334185510305,3.2922158438362374,12.75816325180587,,,,,,,,,,,,
53075,0,USWashingtonWhitman,Washington,Whitman,2022-04-28 09:13:11,2021-11-21,0.9060334185510305,3.2922158438362374,12.75816325180587,,,,,,,,,,,,
53075,0,USWashingtonWhitman,Washington,Whitman,2022-04-28 09:13:11,2021-11-22,0.9060334185510305,3.2922158438362374,12.75816325180587,,,,,,,,,,,,
53075,0,USWashingtonWhitman,Washington,Whitman,2022-04-28 09:13:11,2021-11-23,0.9060334185510305,3.2922158438362374,12.75816325180587,,,,,,,,,,,,
53075,0,USWashingtonWhitman,Washington,Whitman,2022-04-28 09:13:11,2021-11-24,0.9060334185510305,3.2922158438362374,12.75816325180587,,,,,,,,,,,,
