FIPS,HR_UID,nameid,province,region,analysisTime,dates,pointprevalence_025,pointprevalence_50,pointprevalence_975,pointinfections_025,pointinfections_50,pointinfections_975,pointinfectious_025,pointinfectious_50,pointinfectious_975,pointinfectiousprevalence_025,pointinfectiousprevalence_50,pointinfectiousprevalence_975,infectrate_025,infectrate_50,infectrate_975
31029,0,USNebraskaChase,Nebraska,Chase,2022-04-28 09:13:11,2020-03-19,0,0,0,,,,,,,,,,,,
31029,0,USNebraskaChase,Nebraska,Chase,2022-04-28 09:13:11,2020-03-20,0,0,0,,,,,,,,,,,,
31029,0,USNebraskaChase,Nebraska,Chase,2022-04-28 09:13:11,2020-03-21,0,0,0,,,,,,,,,,,,
31029,0,USNebraskaChase,Nebraska,Chase,2022-04-28 09:13:11,2020-03-22,0,0,0,,,,,,,,,,,,
31029,0,USNebraskaChase,Nebraska,Chase,2022-04-28 09:13:11,2020-03-23,0,0,0,,,,,,,,,,,,
31029,0,USNebraskaChase,Nebraska,Chase,2022-04-28 09:13:11,2020-03-24,0,0,0,,,,,,,,,,,,
31029,0,USNebraskaChase,Nebraska,Chase,2022-04-28 09:13:11,2020-03-25,0,0,0,,,,,,,,,,,,
31029,0,USNebraskaChase,Nebraska,Chase,2022-04-28 09:13:11,2020-03-26,0,0,0,,,,,,,,,,,,
31029,0,USNebraskaChase,Nebraska,Chase,2022-04-28 09:13:11,2020-03-27,0,0,0,,,,,,,,,,,,
31029,0,USNebraskaChase,Nebraska,Chase,2022-04-28 09:13:11,2020-03-28,0,0,0,,,,,,,,,,,,
31029,0,USNebraskaChase,Nebraska,Chase,2022-04-28 09:13:11,2020-03-29,0,0,0,,,,,,,,,,,,
31029,0,USNebraskaChase,Nebraska,Chase,2022-04-28 09:13:11,2020-03-30,0,0,0,,,,,,,,,,,,
31029,0,USNebraskaChase,Nebraska,Chase,2022-04-28 09:13:11,2020-03-31,0,0,0,,,,,,,,,,,,
31029,0,USNebraskaChase,Nebraska,Chase,2022-04-28 09:13:11,2020-04-01,0,0,0,,,,,,,,,,,,
31029,0,USNebraskaChase,Nebraska,Chase,2022-04-28 09:13:11,2020-04-02,0,0,0,,,,,,,,,,,,
31029,0,USNebraskaChase,Nebraska,Chase,2022-04-28 09:13:11,2020-04-03,0,0,0,,,,,,,,,,,,
31029,0,USNebraskaChase,Nebraska,Chase,2022-04-28 09:13:11,2020-04-04,0,0,0,,,,,,,,,,,,
31029,0,USNebraskaChase,Nebraska,Chase,2022-04-28 09:13:11,2020-04-05,0,0,0,,,,,,,,,,,,
31029,0,USNebraskaChase,Nebraska,Chase,2022-04-28 09:13:11,2020-04-06,0,0,0,,,,,,,,,,,,
31029,0,USNebraskaChase,Nebraska,Chase,2022-04-28 09:13:11,2020-04-07,0,0,0,,,,,,,,,,,,
31029,0,USNebraskaChase,Nebraska,Chase,2022-04-28 09:13:11,2020-04-08,0,0,0,,,,,,,,,,,,
31029,0,USNebraskaChase,Nebraska,Chase,2022-04-28 09:13:11,2020-04-09,0,0,0,,,,,,,,,,,,
31029,0,USNebraskaChase,Nebraska,Chase,2022-04-28 09:13:11,2020-04-10,0,0,0,,,,,,,,,,,,
31029,0,USNebraskaChase,Nebraska,Chase,2022-04-28 09:13:11,2020-04-11,0,0,0,,,,,,,,,,,,
31029,0,USNebraskaChase,Nebraska,Chase,2022-04-28 09:13:11,2020-04-12,0,0,0,,,,,,,,,,,,
31029,0,USNebraskaChase,Nebraska,Chase,2022-04-28 09:13:11,2020-04-13,0,0,0,,,,,,,,,,,,
31029,0,USNebraskaChase,Nebraska,Chase,2022-04-28 09:13:11,2020-04-14,0,0,0,,,,,,,,,,,,
31029,0,USNebraskaChase,Nebraska,Chase,2022-04-28 09:13:11,2020-04-15,0,0,0,,,,,,,,,,,,
31029,0,USNebraskaChase,Nebraska,Chase,2022-04-28 09:13:11,2020-04-16,0,0,0,,,,,,,,,,,,
31029,0,USNebraskaChase,Nebraska,Chase,2022-04-28 09:13:11,2020-04-17,0,0,0,,,,,,,,,,,,
31029,0,USNebraskaChase,Nebraska,Chase,2022-04-28 09:13:11,2020-04-18,0,0,0,,,,,,,,,,,,
31029,0,USNebraskaChase,Nebraska,Chase,2022-04-28 09:13:11,2020-04-19,0,0,0,,,,,,,,,,,,
31029,0,USNebraskaChase,Nebraska,Chase,2022-04-28 09:13:11,2020-04-20,0,0,0,,,,,,,,,,,,
31029,0,USNebraskaChase,Nebraska,Chase,2022-04-28 09:13:11,2020-04-21,0,0,0,,,,,,,,,,,,
31029,0,USNebraskaChase,Nebraska,Chase,2022-04-28 09:13:11,2020-04-22,0,0,0,,,,,,,,,,,,
31029,0,USNebraskaChase,Nebraska,Chase,2022-04-28 09:13:11,2020-04-23,0,0,0,,,,,,,,,,,,
31029,0,USNebraskaChase,Nebraska,Chase,2022-04-28 09:13:11,2020-04-24,0,0,0,,,,,,,,,,,,
31029,0,USNebraskaChase,Nebraska,Chase,2022-04-28 09:13:11,2020-04-25,0,0,0,,,,,,,,,,,,
31029,0,USNebraskaChase,Nebraska,Chase,2022-04-28 09:13:11,2020-04-26,0,0,0,,,,,,,,,,,,
31029,0,USNebraskaChase,Nebraska,Chase,2022-04-28 09:13:11,2020-04-27,0,0,0,,,,,,,,,,,,
31029,0,USNebraskaChase,Nebraska,Chase,2022-04-28 09:13:11,2020-04-28,0,0,0,,,,,,,,,,,,
31029,0,USNebraskaChase,Nebraska,Chase,2022-04-28 09:13:11,2020-04-29,0,0,0,,,,,,,,,,,,
31029,0,USNebraskaChase,Nebraska,Chase,2022-04-28 09:13:11,2020-04-30,0,0,0,,,,,,,,,,,,
31029,0,USNebraskaChase,Nebraska,Chase,2022-04-28 09:13:11,2020-05-01,0,0,0,,,,,,,,,,,,
31029,0,USNebraskaChase,Nebraska,Chase,2022-04-28 09:13:11,2020-05-02,0,0,0,,,,,,,,,,,,
31029,0,USNebraskaChase,Nebraska,Chase,2022-04-28 09:13:11,2020-05-03,0,0,0,,,,,,,,,,,,
31029,0,USNebraskaChase,Nebraska,Chase,2022-04-28 09:13:11,2020-05-04,0,0,0,,,,,,,,,,,,
31029,0,USNebraskaChase,Nebraska,Chase,2022-04-28 09:13:11,2020-05-05,0,0,0,,,,,,,,,,,,
31029,0,USNebraskaChase,Nebraska,Chase,2022-04-28 09:13:11,2020-05-06,0,0,0,,,,,,,,,,,,
31029,0,USNebraskaChase,Nebraska,Chase,2022-04-28 09:13:11,2020-05-07,0,0,0,,,,,,,,,,,,
31029,0,USNebraskaChase,Nebraska,Chase,2022-04-28 09:13:11,2020-05-08,0,0,0,,,,,,,,,,,,
31029,0,USNebraskaChase,Nebraska,Chase,2022-04-28 09:13:11,2020-05-09,0,0,0,,,,,,,,,,,,
31029,0,USNebraskaChase,Nebraska,Chase,2022-04-28 09:13:11,2020-05-10,0,0,0,,,,,,,,,,,,
31029,0,USNebraskaChase,Nebraska,Chase,2022-04-28 09:13:11,2020-05-11,0,0,0,,,,,,,,,,,,
31029,0,USNebraskaChase,Nebraska,Chase,2022-04-28 09:13:11,2020-05-12,0,0,0,,,,,,,,,,,,
31029,0,USNebraskaChase,Nebraska,Chase,2022-04-28 09:13:11,2020-05-13,0,0,0,,,,,,,,,,,,
31029,0,USNebraskaChase,Nebraska,Chase,2022-04-28 09:13:11,2020-05-14,0,0,0,,,,,,,,,,,,
31029,0,USNebraskaChase,Nebraska,Chase,2022-04-28 09:13:11,2020-05-15,0,0,0,,,,,,,,,,,,
31029,0,USNebraskaChase,Nebraska,Chase,2022-04-28 09:13:11,2020-05-16,0,0,0,,,,,,,,,,,,
31029,0,USNebraskaChase,Nebraska,Chase,2022-04-28 09:13:11,2020-05-17,0,0,0,,,,,,,,,,,,
31029,0,USNebraskaChase,Nebraska,Chase,2022-04-28 09:13:11,2020-05-18,0,0,0,,,,,,,,,,,,
31029,0,USNebraskaChase,Nebraska,Chase,2022-04-28 09:13:11,2020-05-19,0,0,0,,,,,,,,,,,,
31029,0,USNebraskaChase,Nebraska,Chase,2022-04-28 09:13:11,2020-05-20,0,0,0,,,,,,,,,,,,
31029,0,USNebraskaChase,Nebraska,Chase,2022-04-28 09:13:11,2020-05-21,0.16934364360890575,0.4815735806324815,1.4714617303530126,,,,,,,,,,,,
31029,0,USNebraskaChase,Nebraska,Chase,2022-04-28 09:13:11,2020-05-22,0.16934364360890575,0.4815735806324815,1.4714617303530126,,,,,,,,,,,,
31029,0,USNebraskaChase,Nebraska,Chase,2022-04-28 09:13:11,2020-05-23,0.16934364360890575,0.4815735806324815,1.4714617303530126,,,,,,,,,,,,
31029,0,USNebraskaChase,Nebraska,Chase,2022-04-28 09:13:11,2020-05-24,0.16934364360890575,0.4815735806324815,1.4714617303530126,,,,,,,,,,,,
31029,0,USNebraskaChase,Nebraska,Chase,2022-04-28 09:13:11,2020-05-25,0.16934364360890575,0.4815735806324815,1.4714617303530126,,,,,,,,,,,,
31029,0,USNebraskaChase,Nebraska,Chase,2022-04-28 09:13:11,2020-05-26,0.16934364360890575,0.4815735806324815,1.4714617303530126,,,,,,,,,,,,
31029,0,USNebraskaChase,Nebraska,Chase,2022-04-28 09:13:11,2020-05-27,0.16934364360890575,0.4815735806324815,1.4714617303530126,,,,,,,,,,,,
31029,0,USNebraskaChase,Nebraska,Chase,2022-04-28 09:13:11,2020-05-28,0,0,0,,,,,,,,,,,,
31029,0,USNebraskaChase,Nebraska,Chase,2022-04-28 09:13:11,2020-05-29,0,0,0,,,,,,,,,,,,
31029,0,USNebraskaChase,Nebraska,Chase,2022-04-28 09:13:11,2020-05-30,0,0,0,,,,,,,,,,,,
31029,0,USNebraskaChase,Nebraska,Chase,2022-04-28 09:13:11,2020-05-31,0,0,0,,,,,,,,,,,,
31029,0,USNebraskaChase,Nebraska,Chase,2022-04-28 09:13:11,2020-06-01,0,0,0,,,,,,,,,,,,
31029,0,USNebraskaChase,Nebraska,Chase,2022-04-28 09:13:11,2020-06-02,0,0,0,,,,,,,,,,,,
31029,0,USNebraskaChase,Nebraska,Chase,2022-04-28 09:13:11,2020-06-03,0,0,0,,,,,,,,,,,,
31029,0,USNebraskaChase,Nebraska,Chase,2022-04-28 09:13:11,2020-06-04,0,0,0,,,,,,,,,,,,
31029,0,USNebraskaChase,Nebraska,Chase,2022-04-28 09:13:11,2020-06-05,0,0,0,,,,,,,,,,,,
31029,0,USNebraskaChase,Nebraska,Chase,2022-04-28 09:13:11,2020-06-06,0,0,0,,,,,,,,,,,,
31029,0,USNebraskaChase,Nebraska,Chase,2022-04-28 09:13:11,2020-06-07,0,0,0,,,,,,,,,,,,
31029,0,USNebraskaChase,Nebraska,Chase,2022-04-28 09:13:11,2020-06-08,0,0,0,,,,,,,,,,,,
31029,0,USNebraskaChase,Nebraska,Chase,2022-04-28 09:13:11,2020-06-09,0,0,0,,,,,,,,,,,,
31029,0,USNebraskaChase,Nebraska,Chase,2022-04-28 09:13:11,2020-06-10,0,0,0,,,,,,,,,,,,
31029,0,USNebraskaChase,Nebraska,Chase,2022-04-28 09:13:11,2020-06-11,0,0,0,,,,,,,,,,,,
31029,0,USNebraskaChase,Nebraska,Chase,2022-04-28 09:13:11,2020-06-12,0,0,0,,,,,,,,,,,,
31029,0,USNebraskaChase,Nebraska,Chase,2022-04-28 09:13:11,2020-06-13,0,0,0,,,,,,,,,,,,
31029,0,USNebraskaChase,Nebraska,Chase,2022-04-28 09:13:11,2020-06-14,0,0,0,,,,,,,,,,,,
31029,0,USNebraskaChase,Nebraska,Chase,2022-04-28 09:13:11,2020-06-15,0,0,0,,,,,,,,,,,,
31029,0,USNebraskaChase,Nebraska,Chase,2022-04-28 09:13:11,2020-06-16,0,0,0,,,,,,,,,,,,
31029,0,USNebraskaChase,Nebraska,Chase,2022-04-28 09:13:11,2020-06-17,0,0,0,,,,,,,,,,,,
31029,0,USNebraskaChase,Nebraska,Chase,2022-04-28 09:13:11,2020-06-18,0,0,0,,,,,,,,,,,,
31029,0,USNebraskaChase,Nebraska,Chase,2022-04-28 09:13:11,2020-06-19,0,0,0,,,,,,,,,,,,
31029,0,USNebraskaChase,Nebraska,Chase,2022-04-28 09:13:11,2020-06-20,0,0,0,,,,,,,,,,,,
31029,0,USNebraskaChase,Nebraska,Chase,2022-04-28 09:13:11,2020-06-21,0,0,0,,,,,,,,,,,,
31029,0,USNebraskaChase,Nebraska,Chase,2022-04-28 09:13:11,2020-06-22,0,0,0,,,,,,,,,,,,
31029,0,USNebraskaChase,Nebraska,Chase,2022-04-28 09:13:11,2020-06-23,0,0,0,,,,,,,,,,,,
31029,0,USNebraskaChase,Nebraska,Chase,2022-04-28 09:13:11,2020-06-24,0,0,0,,,,,,,,,,,,
31029,0,USNebraskaChase,Nebraska,Chase,2022-04-28 09:13:11,2020-06-25,0,0,0,,,,,,,,,,,,
31029,0,USNebraskaChase,Nebraska,Chase,2022-04-28 09:13:11,2020-06-26,0,0,0,,,,,,,,,,,,
31029,0,USNebraskaChase,Nebraska,Chase,2022-04-28 09:13:11,2020-06-27,0,0,0,,,,,,,,,,,,
31029,0,USNebraskaChase,Nebraska,Chase,2022-04-28 09:13:11,2020-06-28,0,0,0,,,,,,,,,,,,
31029,0,USNebraskaChase,Nebraska,Chase,2022-04-28 09:13:11,2020-06-29,0,0,0,,,,,,,,,,,,
31029,0,USNebraskaChase,Nebraska,Chase,2022-04-28 09:13:11,2020-06-30,0,0,0,,,,,,,,,,,,
31029,0,USNebraskaChase,Nebraska,Chase,2022-04-28 09:13:11,2020-07-01,0,0,0,,,,,,,,,,,,
31029,0,USNebraskaChase,Nebraska,Chase,2022-04-28 09:13:11,2020-07-02,0,0,0,,,,,,,,,,,,
31029,0,USNebraskaChase,Nebraska,Chase,2022-04-28 09:13:11,2020-07-03,0,0,0,,,,,,,,,,,,
31029,0,USNebraskaChase,Nebraska,Chase,2022-04-28 09:13:11,2020-07-04,0,0,0,,,,,,,,,,,,
31029,0,USNebraskaChase,Nebraska,Chase,2022-04-28 09:13:11,2020-07-05,0,0,0,,,,,,,,,,,,
31029,0,USNebraskaChase,Nebraska,Chase,2022-04-28 09:13:11,2020-07-06,0,0,0,,,,,,,,,,,,
31029,0,USNebraskaChase,Nebraska,Chase,2022-04-28 09:13:11,2020-07-07,0,0,0,,,,,,,,,,,,
31029,0,USNebraskaChase,Nebraska,Chase,2022-04-28 09:13:11,2020-07-08,0,0,0,,,,,,,,,,,,
31029,0,USNebraskaChase,Nebraska,Chase,2022-04-28 09:13:11,2020-07-09,0,0,0,,,,,,,,,,,,
31029,0,USNebraskaChase,Nebraska,Chase,2022-04-28 09:13:11,2020-07-10,0,0,0,,,,,,,,,,,,
31029,0,USNebraskaChase,Nebraska,Chase,2022-04-28 09:13:11,2020-07-11,0,0,0,,,,,,,,,,,,
31029,0,USNebraskaChase,Nebraska,Chase,2022-04-28 09:13:11,2020-07-12,0,0,0,,,,,,,,,,,,
31029,0,USNebraskaChase,Nebraska,Chase,2022-04-28 09:13:11,2020-07-13,0,0,0,,,,,,,,,,,,
31029,0,USNebraskaChase,Nebraska,Chase,2022-04-28 09:13:11,2020-07-14,0,0,0,,,,,,,,,,,,
31029,0,USNebraskaChase,Nebraska,Chase,2022-04-28 09:13:11,2020-07-15,0,0,0,,,,,,,,,,,,
31029,0,USNebraskaChase,Nebraska,Chase,2022-04-28 09:13:11,2020-07-16,0.34249703106340645,0.6873882263133417,1.479384951312632,,,,,,,,,,,,
31029,0,USNebraskaChase,Nebraska,Chase,2022-04-28 09:13:11,2020-07-17,0.34249703106340645,0.6873882263133417,1.479384951312632,,,,,,,,,,,,
31029,0,USNebraskaChase,Nebraska,Chase,2022-04-28 09:13:11,2020-07-18,0.34249703106340645,0.6873882263133417,1.479384951312632,,,,,,,,,,,,
31029,0,USNebraskaChase,Nebraska,Chase,2022-04-28 09:13:11,2020-07-19,0.34249703106340645,0.6873882263133417,1.479384951312632,,,,,,,,,,,,
31029,0,USNebraskaChase,Nebraska,Chase,2022-04-28 09:13:11,2020-07-20,0.34249703106340645,0.6873882263133417,1.479384951312632,,,,,,,,,,,,
31029,0,USNebraskaChase,Nebraska,Chase,2022-04-28 09:13:11,2020-07-21,0.34249703106340645,0.6873882263133417,1.479384951312632,,,,,,,,,,,,
31029,0,USNebraskaChase,Nebraska,Chase,2022-04-28 09:13:11,2020-07-22,0.34249703106340645,0.6873882263133417,1.479384951312632,,,,,,,,,,,,
31029,0,USNebraskaChase,Nebraska,Chase,2022-04-28 09:13:11,2020-07-23,0,0,0,,,,,,,,,,,,
31029,0,USNebraskaChase,Nebraska,Chase,2022-04-28 09:13:11,2020-07-24,0,0,0,,,,,,,,,,,,
31029,0,USNebraskaChase,Nebraska,Chase,2022-04-28 09:13:11,2020-07-25,0,0,0,,,,,,,,,,,,
31029,0,USNebraskaChase,Nebraska,Chase,2022-04-28 09:13:11,2020-07-26,0,0,0,,,,,,,,,,,,
31029,0,USNebraskaChase,Nebraska,Chase,2022-04-28 09:13:11,2020-07-27,0,0,0,,,,,,,,,,,,
31029,0,USNebraskaChase,Nebraska,Chase,2022-04-28 09:13:11,2020-07-28,0,0,0,,,,,,,,,,,,
31029,0,USNebraskaChase,Nebraska,Chase,2022-04-28 09:13:11,2020-07-29,0,0,0,,,,,,,,,,,,
31029,0,USNebraskaChase,Nebraska,Chase,2022-04-28 09:13:11,2020-07-30,0.27216269474006777,0.639481143586347,1.6167739264120506,,,,,,,,,,,,
31029,0,USNebraskaChase,Nebraska,Chase,2022-04-28 09:13:11,2020-07-31,0.27216269474006777,0.639481143586347,1.6167739264120506,,,,,,,,,,,,
31029,0,USNebraskaChase,Nebraska,Chase,2022-04-28 09:13:11,2020-08-01,0.27216269474006777,0.639481143586347,1.6167739264120506,,,,,,,,,,,,
31029,0,USNebraskaChase,Nebraska,Chase,2022-04-28 09:13:11,2020-08-02,0.27216269474006777,0.639481143586347,1.6167739264120506,,,,,,,,,,,,
31029,0,USNebraskaChase,Nebraska,Chase,2022-04-28 09:13:11,2020-08-03,0.27216269474006777,0.639481143586347,1.6167739264120506,,,,,,,,,,,,
31029,0,USNebraskaChase,Nebraska,Chase,2022-04-28 09:13:11,2020-08-04,0.27216269474006777,0.639481143586347,1.6167739264120506,,,,,,,,,,,,
31029,0,USNebraskaChase,Nebraska,Chase,2022-04-28 09:13:11,2020-08-05,0.27216269474006777,0.639481143586347,1.6167739264120506,,,,,,,,,,,,
31029,0,USNebraskaChase,Nebraska,Chase,2022-04-28 09:13:11,2020-08-06,0.1568521930777913,0.41749852926518005,1.195291476821194,,,,,,,,,,,,
31029,0,USNebraskaChase,Nebraska,Chase,2022-04-28 09:13:11,2020-08-07,0.1568521930777913,0.41749852926518005,1.195291476821194,,,,,,,,,,,,
31029,0,USNebraskaChase,Nebraska,Chase,2022-04-28 09:13:11,2020-08-08,0.1568521930777913,0.41749852926518005,1.195291476821194,,,,,,,,,,,,
31029,0,USNebraskaChase,Nebraska,Chase,2022-04-28 09:13:11,2020-08-09,0.1568521930777913,0.41749852926518005,1.195291476821194,,,,,,,,,,,,
31029,0,USNebraskaChase,Nebraska,Chase,2022-04-28 09:13:11,2020-08-10,0.1568521930777913,0.41749852926518005,1.195291476821194,,,,,,,,,,,,
31029,0,USNebraskaChase,Nebraska,Chase,2022-04-28 09:13:11,2020-08-11,0.1568521930777913,0.41749852926518005,1.195291476821194,,,,,,,,,,,,
31029,0,USNebraskaChase,Nebraska,Chase,2022-04-28 09:13:11,2020-08-12,0.1568521930777913,0.41749852926518005,1.195291476821194,,,,,,,,,,,,
31029,0,USNebraskaChase,Nebraska,Chase,2022-04-28 09:13:11,2020-08-13,0.3653817061752093,0.7774622351462712,1.7772660442171648,,,,,,,,,,,,
31029,0,USNebraskaChase,Nebraska,Chase,2022-04-28 09:13:11,2020-08-14,0.3653817061752093,0.7774622351462712,1.7772660442171648,,,,,,,,,,,,
31029,0,USNebraskaChase,Nebraska,Chase,2022-04-28 09:13:11,2020-08-15,0.3653817061752093,0.7774622351462712,1.7772660442171648,,,,,,,,,,,,
31029,0,USNebraskaChase,Nebraska,Chase,2022-04-28 09:13:11,2020-08-16,0.3653817061752093,0.7774622351462712,1.7772660442171648,,,,,,,,,,,,
31029,0,USNebraskaChase,Nebraska,Chase,2022-04-28 09:13:11,2020-08-17,0.3653817061752093,0.7774622351462712,1.7772660442171648,,,,,,,,,,,,
31029,0,USNebraskaChase,Nebraska,Chase,2022-04-28 09:13:11,2020-08-18,0.3653817061752093,0.7774622351462712,1.7772660442171648,,,,,,,,,,,,
31029,0,USNebraskaChase,Nebraska,Chase,2022-04-28 09:13:11,2020-08-19,0.3653817061752093,0.7774622351462712,1.7772660442171648,,,,,,,,,,,,
31029,0,USNebraskaChase,Nebraska,Chase,2022-04-28 09:13:11,2020-08-20,0.15750222003835318,0.4207367602916283,1.2088422466113218,,,,,,,,,,,,
31029,0,USNebraskaChase,Nebraska,Chase,2022-04-28 09:13:11,2020-08-21,0.15750222003835318,0.4207367602916283,1.2088422466113218,,,,,,,,,,,,
31029,0,USNebraskaChase,Nebraska,Chase,2022-04-28 09:13:11,2020-08-22,0.15750222003835318,0.4207367602916283,1.2088422466113218,,,,,,,,,,,,
31029,0,USNebraskaChase,Nebraska,Chase,2022-04-28 09:13:11,2020-08-23,0.15750222003835318,0.4207367602916283,1.2088422466113218,,,,,,,,,,,,
31029,0,USNebraskaChase,Nebraska,Chase,2022-04-28 09:13:11,2020-08-24,0.15750222003835318,0.4207367602916283,1.2088422466113218,,,,,,,,,,,,
31029,0,USNebraskaChase,Nebraska,Chase,2022-04-28 09:13:11,2020-08-25,0.15750222003835318,0.4207367602916283,1.2088422466113218,,,,,,,,,,,,
31029,0,USNebraskaChase,Nebraska,Chase,2022-04-28 09:13:11,2020-08-26,0.15750222003835318,0.4207367602916283,1.2088422466113218,,,,,,,,,,,,
31029,0,USNebraskaChase,Nebraska,Chase,2022-04-28 09:13:11,2020-08-27,0.27492982480292183,0.6518026841575425,1.662861327892328,,,,,,,,,,,,
31029,0,USNebraskaChase,Nebraska,Chase,2022-04-28 09:13:11,2020-08-28,0.27492982480292183,0.6518026841575425,1.662861327892328,,,,,,,,,,,,
31029,0,USNebraskaChase,Nebraska,Chase,2022-04-28 09:13:11,2020-08-29,0.27492982480292183,0.6518026841575425,1.662861327892328,,,,,,,,,,,,
31029,0,USNebraskaChase,Nebraska,Chase,2022-04-28 09:13:11,2020-08-30,0.27492982480292183,0.6518026841575425,1.662861327892328,,,,,,,,,,,,
31029,0,USNebraskaChase,Nebraska,Chase,2022-04-28 09:13:11,2020-08-31,0.27492982480292183,0.6518026841575425,1.662861327892328,,,,,,,,,,,,
31029,0,USNebraskaChase,Nebraska,Chase,2022-04-28 09:13:11,2020-09-01,0.27492982480292183,0.6518026841575425,1.662861327892328,,,,,,,,,,,,
31029,0,USNebraskaChase,Nebraska,Chase,2022-04-28 09:13:11,2020-09-02,0.27492982480292183,0.6518026841575425,1.662861327892328,,,,,,,,,,,,
31029,0,USNebraskaChase,Nebraska,Chase,2022-04-28 09:13:11,2020-09-03,0.3670003601539228,0.784019839513513,1.799582035936671,,,,,,,,,,,,
31029,0,USNebraskaChase,Nebraska,Chase,2022-04-28 09:13:11,2020-09-04,0.3670003601539228,0.784019839513513,1.799582035936671,,,,,,,,,,,,
31029,0,USNebraskaChase,Nebraska,Chase,2022-04-28 09:13:11,2020-09-05,0.3670003601539228,0.784019839513513,1.799582035936671,,,,,,,,,,,,
31029,0,USNebraskaChase,Nebraska,Chase,2022-04-28 09:13:11,2020-09-06,0.3670003601539228,0.784019839513513,1.799582035936671,,,,,,,,,,,,
31029,0,USNebraskaChase,Nebraska,Chase,2022-04-28 09:13:11,2020-09-07,0.3670003601539228,0.784019839513513,1.799582035936671,,,,,,,,,,,,
31029,0,USNebraskaChase,Nebraska,Chase,2022-04-28 09:13:11,2020-09-08,0.3670003601539228,0.784019839513513,1.799582035936671,,,,,,,,,,,,
31029,0,USNebraskaChase,Nebraska,Chase,2022-04-28 09:13:11,2020-09-09,0.3670003601539228,0.784019839513513,1.799582035936671,,,,,,,,,,,,
31029,0,USNebraskaChase,Nebraska,Chase,2022-04-28 09:13:11,2020-09-10,0.27657767211831413,0.6591886989282875,1.6906702096394568,,,,,,,,,,,,
31029,0,USNebraskaChase,Nebraska,Chase,2022-04-28 09:13:11,2020-09-11,0.27657767211831413,0.6591886989282875,1.6906702096394568,,,,,,,,,,,,
31029,0,USNebraskaChase,Nebraska,Chase,2022-04-28 09:13:11,2020-09-12,0.27657767211831413,0.6591886989282875,1.6906702096394568,,,,,,,,,,,,
31029,0,USNebraskaChase,Nebraska,Chase,2022-04-28 09:13:11,2020-09-13,0.27657767211831413,0.6591886989282875,1.6906702096394568,,,,,,,,,,,,
31029,0,USNebraskaChase,Nebraska,Chase,2022-04-28 09:13:11,2020-09-14,0.27657767211831413,0.6591886989282875,1.6906702096394568,,,,,,,,,,,,
31029,0,USNebraskaChase,Nebraska,Chase,2022-04-28 09:13:11,2020-09-15,0.27657767211831413,0.6591886989282875,1.6906702096394568,,,,,,,,,,,,
31029,0,USNebraskaChase,Nebraska,Chase,2022-04-28 09:13:11,2020-09-16,0.27657767211831413,0.6591886989282875,1.6906702096394568,,,,,,,,,,,,
31029,0,USNebraskaChase,Nebraska,Chase,2022-04-28 09:13:11,2020-09-17,0.5728687386536768,1.153468016118994,2.4908239026551633,,,,,,,,,,,,
31029,0,USNebraskaChase,Nebraska,Chase,2022-04-28 09:13:11,2020-09-18,0.5728687386536768,1.153468016118994,2.4908239026551633,,,,,,,,,,,,
31029,0,USNebraskaChase,Nebraska,Chase,2022-04-28 09:13:11,2020-09-19,0.5728687386536768,1.153468016118994,2.4908239026551633,,,,,,,,,,,,
31029,0,USNebraskaChase,Nebraska,Chase,2022-04-28 09:13:11,2020-09-20,0.5728687386536768,1.153468016118994,2.4908239026551633,,,,,,,,,,,,
31029,0,USNebraskaChase,Nebraska,Chase,2022-04-28 09:13:11,2020-09-21,0.5728687386536768,1.153468016118994,2.4908239026551633,,,,,,,,,,,,
31029,0,USNebraskaChase,Nebraska,Chase,2022-04-28 09:13:11,2020-09-22,0.5728687386536768,1.153468016118994,2.4908239026551633,,,,,,,,,,,,
31029,0,USNebraskaChase,Nebraska,Chase,2022-04-28 09:13:11,2020-09-23,0.5728687386536768,1.153468016118994,2.4908239026551633,,,,,,,,,,,,
31029,0,USNebraskaChase,Nebraska,Chase,2022-04-28 09:13:11,2020-09-24,0.1712498111121692,0.4916901330446275,1.5165627212236616,,,,,,,,,,,,
31029,0,USNebraskaChase,Nebraska,Chase,2022-04-28 09:13:11,2020-09-25,0.1712498111121692,0.4916901330446275,1.5165627212236616,,,,,,,,,,,,
31029,0,USNebraskaChase,Nebraska,Chase,2022-04-28 09:13:11,2020-09-26,0.1712498111121692,0.4916901330446275,1.5165627212236616,,,,,,,,,,,,
31029,0,USNebraskaChase,Nebraska,Chase,2022-04-28 09:13:11,2020-09-27,0.1712498111121692,0.4916901330446275,1.5165627212236616,,,,,,,,,,,,
31029,0,USNebraskaChase,Nebraska,Chase,2022-04-28 09:13:11,2020-09-28,0.1712498111121692,0.4916901330446275,1.5165627212236616,,,,,,,,,,,,
31029,0,USNebraskaChase,Nebraska,Chase,2022-04-28 09:13:11,2020-09-29,0.1712498111121692,0.4916901330446275,1.5165627212236616,,,,,,,,,,,,
31029,0,USNebraskaChase,Nebraska,Chase,2022-04-28 09:13:11,2020-09-30,0.1712498111121692,0.4916901330446275,1.5165627212236616,,,,,,,,,,,,
31029,0,USNebraskaChase,Nebraska,Chase,2022-04-28 09:13:11,2020-10-01,2.4562996403208217,3.249263123265974,4.437733281233253,,,,,,,,,,,,
31029,0,USNebraskaChase,Nebraska,Chase,2022-04-28 09:13:11,2020-10-02,2.4562996403208217,3.249263123265974,4.437733281233253,,,,,,,,,,,,
31029,0,USNebraskaChase,Nebraska,Chase,2022-04-28 09:13:11,2020-10-03,2.4562996403208217,3.249263123265974,4.437733281233253,,,,,,,,,,,,
31029,0,USNebraskaChase,Nebraska,Chase,2022-04-28 09:13:11,2020-10-04,2.4562996403208217,3.249263123265974,4.437733281233253,,,,,,,,,,,,
31029,0,USNebraskaChase,Nebraska,Chase,2022-04-28 09:13:11,2020-10-05,2.4562996403208217,3.249263123265974,4.437733281233253,,,,,,,,,,,,
31029,0,USNebraskaChase,Nebraska,Chase,2022-04-28 09:13:11,2020-10-06,2.4562996403208217,3.249263123265974,4.437733281233253,,,,,,,,,,,,
31029,0,USNebraskaChase,Nebraska,Chase,2022-04-28 09:13:11,2020-10-07,2.4562996403208217,3.249263123265974,4.437733281233253,,,,,,,,,,,,
31029,0,USNebraskaChase,Nebraska,Chase,2022-04-28 09:13:11,2020-10-08,3.2248726564228667,4.076601628210649,5.28619986059178,,,,,,,,,,,,
31029,0,USNebraskaChase,Nebraska,Chase,2022-04-28 09:13:11,2020-10-09,3.2248726564228667,4.076601628210649,5.28619986059178,,,,,,,,,,,,
31029,0,USNebraskaChase,Nebraska,Chase,2022-04-28 09:13:11,2020-10-10,3.2248726564228667,4.076601628210649,5.28619986059178,,,,,,,,,,,,
31029,0,USNebraskaChase,Nebraska,Chase,2022-04-28 09:13:11,2020-10-11,3.2248726564228667,4.076601628210649,5.28619986059178,,,,,,,,,,,,
31029,0,USNebraskaChase,Nebraska,Chase,2022-04-28 09:13:11,2020-10-12,3.2248726564228667,4.076601628210649,5.28619986059178,,,,,,,,,,,,
31029,0,USNebraskaChase,Nebraska,Chase,2022-04-28 09:13:11,2020-10-13,3.2248726564228667,4.076601628210649,5.28619986059178,,,,,,,,,,,,
31029,0,USNebraskaChase,Nebraska,Chase,2022-04-28 09:13:11,2020-10-14,3.2248726564228667,4.076601628210649,5.28619986059178,,,,,,,,,,,,
31029,0,USNebraskaChase,Nebraska,Chase,2022-04-28 09:13:11,2020-10-15,2.399184204528849,3.280603908144831,4.652587286857022,,,,,,,,,,,,
31029,0,USNebraskaChase,Nebraska,Chase,2022-04-28 09:13:11,2020-10-16,2.399184204528849,3.280603908144831,4.652587286857022,,,,,,,,,,,,
31029,0,USNebraskaChase,Nebraska,Chase,2022-04-28 09:13:11,2020-10-17,2.399184204528849,3.280603908144831,4.652587286857022,,,,,,,,,,,,
31029,0,USNebraskaChase,Nebraska,Chase,2022-04-28 09:13:11,2020-10-18,2.399184204528849,3.280603908144831,4.652587286857022,,,,,,,,,,,,
31029,0,USNebraskaChase,Nebraska,Chase,2022-04-28 09:13:11,2020-10-19,2.399184204528849,3.280603908144831,4.652587286857022,,,,,,,,,,,,
31029,0,USNebraskaChase,Nebraska,Chase,2022-04-28 09:13:11,2020-10-20,2.399184204528849,3.280603908144831,4.652587286857022,,,,,,,,,,,,
31029,0,USNebraskaChase,Nebraska,Chase,2022-04-28 09:13:11,2020-10-21,2.399184204528849,3.280603908144831,4.652587286857022,,,,,,,,,,,,
31029,0,USNebraskaChase,Nebraska,Chase,2022-04-28 09:13:11,2020-10-22,1.2035018085814404,1.9942855479520627,3.50203070933367,,,,,,,,,,,,
31029,0,USNebraskaChase,Nebraska,Chase,2022-04-28 09:13:11,2020-10-23,1.2035018085814404,1.9942855479520627,3.50203070933367,,,,,,,,,,,,
31029,0,USNebraskaChase,Nebraska,Chase,2022-04-28 09:13:11,2020-10-24,1.2035018085814404,1.9942855479520627,3.50203070933367,,,,,,,,,,,,
31029,0,USNebraskaChase,Nebraska,Chase,2022-04-28 09:13:11,2020-10-25,1.2035018085814404,1.9942855479520627,3.50203070933367,,,,,,,,,,,,
31029,0,USNebraskaChase,Nebraska,Chase,2022-04-28 09:13:11,2020-10-26,1.2035018085814404,1.9942855479520627,3.50203070933367,,,,,,,,,,,,
31029,0,USNebraskaChase,Nebraska,Chase,2022-04-28 09:13:11,2020-10-27,1.2035018085814404,1.9942855479520627,3.50203070933367,,,,,,,,,,,,
31029,0,USNebraskaChase,Nebraska,Chase,2022-04-28 09:13:11,2020-10-28,1.2035018085814404,1.9942855479520627,3.50203070933367,,,,,,,,,,,,
31029,0,USNebraskaChase,Nebraska,Chase,2022-04-28 09:13:11,2020-10-29,1.9871212873660793,3.090648450270149,5.063401527042484,,,,,,,,,,,,
31029,0,USNebraskaChase,Nebraska,Chase,2022-04-28 09:13:11,2020-10-30,1.9871212873660793,3.090648450270149,5.063401527042484,,,,,,,,,,,,
31029,0,USNebraskaChase,Nebraska,Chase,2022-04-28 09:13:11,2020-10-31,1.9871212873660793,3.090648450270149,5.063401527042484,,,,,,,,,,,,
31029,0,USNebraskaChase,Nebraska,Chase,2022-04-28 09:13:11,2020-11-01,1.9871212873660793,3.090648450270149,5.063401527042484,,,,,,,,,,,,
31029,0,USNebraskaChase,Nebraska,Chase,2022-04-28 09:13:11,2020-11-02,1.9871212873660793,3.090648450270149,5.063401527042484,,,,,,,,,,,,
31029,0,USNebraskaChase,Nebraska,Chase,2022-04-28 09:13:11,2020-11-03,1.9871212873660793,3.090648450270149,5.063401527042484,,,,,,,,,,,,
31029,0,USNebraskaChase,Nebraska,Chase,2022-04-28 09:13:11,2020-11-04,1.9871212873660793,3.090648450270149,5.063401527042484,,,,,,,,,,,,
31029,0,USNebraskaChase,Nebraska,Chase,2022-04-28 09:13:11,2020-11-05,3.395788496685294,4.971242263110782,7.614038833347562,,,,,,,,,,,,
31029,0,USNebraskaChase,Nebraska,Chase,2022-04-28 09:13:11,2020-11-06,3.395788496685294,4.971242263110782,7.614038833347562,,,,,,,,,,,,
31029,0,USNebraskaChase,Nebraska,Chase,2022-04-28 09:13:11,2020-11-07,3.395788496685294,4.971242263110782,7.614038833347562,,,,,,,,,,,,
31029,0,USNebraskaChase,Nebraska,Chase,2022-04-28 09:13:11,2020-11-08,3.395788496685294,4.971242263110782,7.614038833347562,,,,,,,,,,,,
31029,0,USNebraskaChase,Nebraska,Chase,2022-04-28 09:13:11,2020-11-09,3.395788496685294,4.971242263110782,7.614038833347562,,,,,,,,,,,,
31029,0,USNebraskaChase,Nebraska,Chase,2022-04-28 09:13:11,2020-11-10,3.395788496685294,4.971242263110782,7.614038833347562,,,,,,,,,,,,
31029,0,USNebraskaChase,Nebraska,Chase,2022-04-28 09:13:11,2020-11-11,3.395788496685294,4.971242263110782,7.614038833347562,,,,,,,,,,,,
31029,0,USNebraskaChase,Nebraska,Chase,2022-04-28 09:13:11,2020-11-12,2.198508555638133,3.6079453648072177,6.269211174394002,,,,,,,,,,,,
31029,0,USNebraskaChase,Nebraska,Chase,2022-04-28 09:13:11,2020-11-13,2.198508555638133,3.6079453648072177,6.269211174394002,,,,,,,,,,,,
31029,0,USNebraskaChase,Nebraska,Chase,2022-04-28 09:13:11,2020-11-14,2.198508555638133,3.6079453648072177,6.269211174394002,,,,,,,,,,,,
31029,0,USNebraskaChase,Nebraska,Chase,2022-04-28 09:13:11,2020-11-15,2.198508555638133,3.6079453648072177,6.269211174394002,,,,,,,,,,,,
31029,0,USNebraskaChase,Nebraska,Chase,2022-04-28 09:13:11,2020-11-16,2.198508555638133,3.6079453648072177,6.269211174394002,,,,,,,,,,,,
31029,0,USNebraskaChase,Nebraska,Chase,2022-04-28 09:13:11,2020-11-17,2.198508555638133,3.6079453648072177,6.269211174394002,,,,,,,,,,,,
31029,0,USNebraskaChase,Nebraska,Chase,2022-04-28 09:13:11,2020-11-18,2.198508555638133,3.6079453648072177,6.269211174394002,,,,,,,,,,,,
31029,0,USNebraskaChase,Nebraska,Chase,2022-04-28 09:13:11,2020-11-19,1.235497513265194,2.2568220152037792,4.400140917873198,,,,,,,,,,,,
31029,0,USNebraskaChase,Nebraska,Chase,2022-04-28 09:13:11,2020-11-20,1.235497513265194,2.2568220152037792,4.400140917873198,,,,,,,,,,,,
31029,0,USNebraskaChase,Nebraska,Chase,2022-04-28 09:13:11,2020-11-21,1.235497513265194,2.2568220152037792,4.400140917873198,,,,,,,,,,,,
31029,0,USNebraskaChase,Nebraska,Chase,2022-04-28 09:13:11,2020-11-22,1.235497513265194,2.2568220152037792,4.400140917873198,,,,,,,,,,,,
31029,0,USNebraskaChase,Nebraska,Chase,2022-04-28 09:13:11,2020-11-23,1.235497513265194,2.2568220152037792,4.400140917873198,,,,,,,,,,,,
31029,0,USNebraskaChase,Nebraska,Chase,2022-04-28 09:13:11,2020-11-24,1.235497513265194,2.2568220152037792,4.400140917873198,,,,,,,,,,,,
31029,0,USNebraskaChase,Nebraska,Chase,2022-04-28 09:13:11,2020-11-25,1.235497513265194,2.2568220152037792,4.400140917873198,,,,,,,,,,,,
31029,0,USNebraskaChase,Nebraska,Chase,2022-04-28 09:13:11,2020-11-26,2.154980039869869,3.4722191477297333,5.913706464918259,,,,,,,,,,,,
31029,0,USNebraskaChase,Nebraska,Chase,2022-04-28 09:13:11,2020-11-27,2.154980039869869,3.4722191477297333,5.913706464918259,,,,,,,,,,,,
31029,0,USNebraskaChase,Nebraska,Chase,2022-04-28 09:13:11,2020-11-28,2.154980039869869,3.4722191477297333,5.913706464918259,,,,,,,,,,,,
31029,0,USNebraskaChase,Nebraska,Chase,2022-04-28 09:13:11,2020-11-29,2.154980039869869,3.4722191477297333,5.913706464918259,,,,,,,,,,,,
31029,0,USNebraskaChase,Nebraska,Chase,2022-04-28 09:13:11,2020-11-30,2.154980039869869,3.4722191477297333,5.913706464918259,,,,,,,,,,,,
31029,0,USNebraskaChase,Nebraska,Chase,2022-04-28 09:13:11,2020-12-01,2.154980039869869,3.4722191477297333,5.913706464918259,,,,,,,,,,,,
31029,0,USNebraskaChase,Nebraska,Chase,2022-04-28 09:13:11,2020-12-02,2.154980039869869,3.4722191477297333,5.913706464918259,,,,,,,,,,,,
31029,0,USNebraskaChase,Nebraska,Chase,2022-04-28 09:13:11,2020-12-03,1.1409905990710387,2.098410188171083,4.120881693201885,,,,,,,,,,,,
31029,0,USNebraskaChase,Nebraska,Chase,2022-04-28 09:13:11,2020-12-04,1.1409905990710387,2.098410188171083,4.120881693201885,,,,,,,,,,,,
31029,0,USNebraskaChase,Nebraska,Chase,2022-04-28 09:13:11,2020-12-05,1.1409905990710387,2.098410188171083,4.120881693201885,,,,,,,,,,,,
31029,0,USNebraskaChase,Nebraska,Chase,2022-04-28 09:13:11,2020-12-06,1.1409905990710387,2.098410188171083,4.120881693201885,,,,,,,,,,,,
31029,0,USNebraskaChase,Nebraska,Chase,2022-04-28 09:13:11,2020-12-07,1.1409905990710387,2.098410188171083,4.120881693201885,,,,,,,,,,,,
31029,0,USNebraskaChase,Nebraska,Chase,2022-04-28 09:13:11,2020-12-08,1.1409905990710387,2.098410188171083,4.120881693201885,,,,,,,,,,,,
31029,0,USNebraskaChase,Nebraska,Chase,2022-04-28 09:13:11,2020-12-09,1.1409905990710387,2.098410188171083,4.120881693201885,,,,,,,,,,,,
31029,0,USNebraskaChase,Nebraska,Chase,2022-04-28 09:13:11,2020-12-10,1.2262139231252276,2.0670835055918046,3.698037327332954,,,,,,,,,,,,
31029,0,USNebraskaChase,Nebraska,Chase,2022-04-28 09:13:11,2020-12-11,1.2262139231252276,2.0670835055918046,3.698037327332954,,,,,,,,,,,,
31029,0,USNebraskaChase,Nebraska,Chase,2022-04-28 09:13:11,2020-12-12,1.2262139231252276,2.0670835055918046,3.698037327332954,,,,,,,,,,,,
31029,0,USNebraskaChase,Nebraska,Chase,2022-04-28 09:13:11,2020-12-13,1.2262139231252276,2.0670835055918046,3.698037327332954,,,,,,,,,,,,
31029,0,USNebraskaChase,Nebraska,Chase,2022-04-28 09:13:11,2020-12-14,1.2262139231252276,2.0670835055918046,3.698037327332954,,,,,,,,,,,,
31029,0,USNebraskaChase,Nebraska,Chase,2022-04-28 09:13:11,2020-12-15,1.2262139231252276,2.0670835055918046,3.698037327332954,,,,,,,,,,,,
31029,0,USNebraskaChase,Nebraska,Chase,2022-04-28 09:13:11,2020-12-16,1.2262139231252276,2.0670835055918046,3.698037327332954,,,,,,,,,,,,
31029,0,USNebraskaChase,Nebraska,Chase,2022-04-28 09:13:11,2020-12-17,2.2560117152018524,3.2922590781016066,5.024675346487486,,,,,,,,,,,,
31029,0,USNebraskaChase,Nebraska,Chase,2022-04-28 09:13:11,2020-12-18,2.2560117152018524,3.2922590781016066,5.024675346487486,,,,,,,,,,,,
31029,0,USNebraskaChase,Nebraska,Chase,2022-04-28 09:13:11,2020-12-19,2.2560117152018524,3.2922590781016066,5.024675346487486,,,,,,,,,,,,
31029,0,USNebraskaChase,Nebraska,Chase,2022-04-28 09:13:11,2020-12-20,2.2560117152018524,3.2922590781016066,5.024675346487486,,,,,,,,,,,,
31029,0,USNebraskaChase,Nebraska,Chase,2022-04-28 09:13:11,2020-12-21,2.2560117152018524,3.2922590781016066,5.024675346487486,,,,,,,,,,,,
31029,0,USNebraskaChase,Nebraska,Chase,2022-04-28 09:13:11,2020-12-22,2.2560117152018524,3.2922590781016066,5.024675346487486,,,,,,,,,,,,
31029,0,USNebraskaChase,Nebraska,Chase,2022-04-28 09:13:11,2020-12-23,2.2560117152018524,3.2922590781016066,5.024675346487486,,,,,,,,,,,,
31029,0,USNebraskaChase,Nebraska,Chase,2022-04-28 09:13:11,2020-12-24,2.7682853046918185,3.7782413636399053,5.346994428153268,,,,,,,,,,,,
31029,0,USNebraskaChase,Nebraska,Chase,2022-04-28 09:13:11,2020-12-25,2.7682853046918185,3.7782413636399053,5.346994428153268,,,,,,,,,,,,
31029,0,USNebraskaChase,Nebraska,Chase,2022-04-28 09:13:11,2020-12-26,2.7682853046918185,3.7782413636399053,5.346994428153268,,,,,,,,,,,,
31029,0,USNebraskaChase,Nebraska,Chase,2022-04-28 09:13:11,2020-12-27,2.7682853046918185,3.7782413636399053,5.346994428153268,,,,,,,,,,,,
31029,0,USNebraskaChase,Nebraska,Chase,2022-04-28 09:13:11,2020-12-28,2.7682853046918185,3.7782413636399053,5.346994428153268,,,,,,,,,,,,
31029,0,USNebraskaChase,Nebraska,Chase,2022-04-28 09:13:11,2020-12-29,2.7682853046918185,3.7782413636399053,5.346994428153268,,,,,,,,,,,,
31029,0,USNebraskaChase,Nebraska,Chase,2022-04-28 09:13:11,2020-12-30,2.7682853046918185,3.7782413636399053,5.346994428153268,,,,,,,,,,,,
31029,0,USNebraskaChase,Nebraska,Chase,2022-04-28 09:13:11,2020-12-31,1.5591930172847268,2.561661359501715,4.456649267774047,,,,,,,,,,,,
31029,0,USNebraskaChase,Nebraska,Chase,2022-04-28 09:13:11,2021-01-01,1.5591930172847268,2.561661359501715,4.456649267774047,,,,,,,,,,,,
31029,0,USNebraskaChase,Nebraska,Chase,2022-04-28 09:13:11,2021-01-02,1.5591930172847268,2.561661359501715,4.456649267774047,,,,,,,,,,,,
31029,0,USNebraskaChase,Nebraska,Chase,2022-04-28 09:13:11,2021-01-03,1.5591930172847268,2.561661359501715,4.456649267774047,,,,,,,,,,,,
31029,0,USNebraskaChase,Nebraska,Chase,2022-04-28 09:13:11,2021-01-04,1.5591930172847268,2.561661359501715,4.456649267774047,,,,,,,,,,,,
31029,0,USNebraskaChase,Nebraska,Chase,2022-04-28 09:13:11,2021-01-05,1.5591930172847268,2.561661359501715,4.456649267774047,,,,,,,,,,,,
31029,0,USNebraskaChase,Nebraska,Chase,2022-04-28 09:13:11,2021-01-06,1.5591930172847268,2.561661359501715,4.456649267774047,,,,,,,,,,,,
31029,0,USNebraskaChase,Nebraska,Chase,2022-04-28 09:13:11,2021-01-07,1.8234907725598208,2.7306062461886937,4.289316173592696,,,,,,,,,,,,
31029,0,USNebraskaChase,Nebraska,Chase,2022-04-28 09:13:11,2021-01-08,1.8234907725598208,2.7306062461886937,4.289316173592696,,,,,,,,,,,,
31029,0,USNebraskaChase,Nebraska,Chase,2022-04-28 09:13:11,2021-01-09,1.8234907725598208,2.7306062461886937,4.289316173592696,,,,,,,,,,,,
31029,0,USNebraskaChase,Nebraska,Chase,2022-04-28 09:13:11,2021-01-10,1.8234907725598208,2.7306062461886937,4.289316173592696,,,,,,,,,,,,
31029,0,USNebraskaChase,Nebraska,Chase,2022-04-28 09:13:11,2021-01-11,1.8234907725598208,2.7306062461886937,4.289316173592696,,,,,,,,,,,,
31029,0,USNebraskaChase,Nebraska,Chase,2022-04-28 09:13:11,2021-01-12,1.8234907725598208,2.7306062461886937,4.289316173592696,,,,,,,,,,,,
31029,0,USNebraskaChase,Nebraska,Chase,2022-04-28 09:13:11,2021-01-13,1.8234907725598208,2.7306062461886937,4.289316173592696,,,,,,,,,,,,
31029,0,USNebraskaChase,Nebraska,Chase,2022-04-28 09:13:11,2021-01-14,1.2688321450769988,2.0619489092516354,3.544755813856827,,,,,,,,,,,,
31029,0,USNebraskaChase,Nebraska,Chase,2022-04-28 09:13:11,2021-01-15,1.2688321450769988,2.0619489092516354,3.544755813856827,,,,,,,,,,,,
31029,0,USNebraskaChase,Nebraska,Chase,2022-04-28 09:13:11,2021-01-16,1.2688321450769988,2.0619489092516354,3.544755813856827,,,,,,,,,,,,
31029,0,USNebraskaChase,Nebraska,Chase,2022-04-28 09:13:11,2021-01-17,1.2688321450769988,2.0619489092516354,3.544755813856827,,,,,,,,,,,,
31029,0,USNebraskaChase,Nebraska,Chase,2022-04-28 09:13:11,2021-01-18,1.2688321450769988,2.0619489092516354,3.544755813856827,,,,,,,,,,,,
31029,0,USNebraskaChase,Nebraska,Chase,2022-04-28 09:13:11,2021-01-19,1.2688321450769988,2.0619489092516354,3.544755813856827,,,,,,,,,,,,
31029,0,USNebraskaChase,Nebraska,Chase,2022-04-28 09:13:11,2021-01-20,1.2688321450769988,2.0619489092516354,3.544755813856827,,,,,,,,,,,,
31029,0,USNebraskaChase,Nebraska,Chase,2022-04-28 09:13:11,2021-01-21,1.0520151026892477,1.541340638018231,2.362888550469914,,,,,,,,,,,,
31029,0,USNebraskaChase,Nebraska,Chase,2022-04-28 09:13:11,2021-01-22,1.0520151026892477,1.541340638018231,2.362888550469914,,,,,,,,,,,,
31029,0,USNebraskaChase,Nebraska,Chase,2022-04-28 09:13:11,2021-01-23,1.0520151026892477,1.541340638018231,2.362888550469914,,,,,,,,,,,,
31029,0,USNebraskaChase,Nebraska,Chase,2022-04-28 09:13:11,2021-01-24,1.0520151026892477,1.541340638018231,2.362888550469914,,,,,,,,,,,,
31029,0,USNebraskaChase,Nebraska,Chase,2022-04-28 09:13:11,2021-01-25,1.0520151026892477,1.541340638018231,2.362888550469914,,,,,,,,,,,,
31029,0,USNebraskaChase,Nebraska,Chase,2022-04-28 09:13:11,2021-01-26,1.0520151026892477,1.541340638018231,2.362888550469914,,,,,,,,,,,,
31029,0,USNebraskaChase,Nebraska,Chase,2022-04-28 09:13:11,2021-01-27,1.0520151026892477,1.541340638018231,2.362888550469914,,,,,,,,,,,,
31029,0,USNebraskaChase,Nebraska,Chase,2022-04-28 09:13:11,2021-01-28,0.7326335900941863,1.2020109773487582,2.0880521347707943,,,,,,,,,,,,
31029,0,USNebraskaChase,Nebraska,Chase,2022-04-28 09:13:11,2021-01-29,0.7326335900941863,1.2020109773487582,2.0880521347707943,,,,,,,,,,,,
31029,0,USNebraskaChase,Nebraska,Chase,2022-04-28 09:13:11,2021-01-30,0.7326335900941863,1.2020109773487582,2.0880521347707943,,,,,,,,,,,,
31029,0,USNebraskaChase,Nebraska,Chase,2022-04-28 09:13:11,2021-01-31,0.7326335900941863,1.2020109773487582,2.0880521347707943,,,,,,,,,,,,
31029,0,USNebraskaChase,Nebraska,Chase,2022-04-28 09:13:11,2021-02-01,0.7326335900941863,1.2020109773487582,2.0880521347707943,,,,,,,,,,,,
31029,0,USNebraskaChase,Nebraska,Chase,2022-04-28 09:13:11,2021-02-02,0.7326335900941863,1.2020109773487582,2.0880521347707943,,,,,,,,,,,,
31029,0,USNebraskaChase,Nebraska,Chase,2022-04-28 09:13:11,2021-02-03,0.7326335900941863,1.2020109773487582,2.0880521347707943,,,,,,,,,,,,
31029,0,USNebraskaChase,Nebraska,Chase,2022-04-28 09:13:11,2021-02-04,0.546924165825061,0.8934995225473757,1.5449192850783964,,,,,,,,,,,,
31029,0,USNebraskaChase,Nebraska,Chase,2022-04-28 09:13:11,2021-02-05,0.546924165825061,0.8934995225473757,1.5449192850783964,,,,,,,,,,,,
31029,0,USNebraskaChase,Nebraska,Chase,2022-04-28 09:13:11,2021-02-06,0.546924165825061,0.8934995225473757,1.5449192850783964,,,,,,,,,,,,
31029,0,USNebraskaChase,Nebraska,Chase,2022-04-28 09:13:11,2021-02-07,0.546924165825061,0.8934995225473757,1.5449192850783964,,,,,,,,,,,,
31029,0,USNebraskaChase,Nebraska,Chase,2022-04-28 09:13:11,2021-02-08,0.546924165825061,0.8934995225473757,1.5449192850783964,,,,,,,,,,,,
31029,0,USNebraskaChase,Nebraska,Chase,2022-04-28 09:13:11,2021-02-09,0.546924165825061,0.8934995225473757,1.5449192850783964,,,,,,,,,,,,
31029,0,USNebraskaChase,Nebraska,Chase,2022-04-28 09:13:11,2021-02-10,0.546924165825061,0.8934995225473757,1.5449192850783964,,,,,,,,,,,,
31029,0,USNebraskaChase,Nebraska,Chase,2022-04-28 09:13:11,2021-02-11,0.24192779304853468,0.5116148329987484,1.1621739431870748,,,,,,,,,,,,
31029,0,USNebraskaChase,Nebraska,Chase,2022-04-28 09:13:11,2021-02-12,0.24192779304853468,0.5116148329987484,1.1621739431870748,,,,,,,,,,,,
31029,0,USNebraskaChase,Nebraska,Chase,2022-04-28 09:13:11,2021-02-13,0.24192779304853468,0.5116148329987484,1.1621739431870748,,,,,,,,,,,,
31029,0,USNebraskaChase,Nebraska,Chase,2022-04-28 09:13:11,2021-02-14,0.24192779304853468,0.5116148329987484,1.1621739431870748,,,,,,,,,,,,
31029,0,USNebraskaChase,Nebraska,Chase,2022-04-28 09:13:11,2021-02-15,0.24192779304853468,0.5116148329987484,1.1621739431870748,,,,,,,,,,,,
31029,0,USNebraskaChase,Nebraska,Chase,2022-04-28 09:13:11,2021-02-16,0.24192779304853468,0.5116148329987484,1.1621739431870748,,,,,,,,,,,,
31029,0,USNebraskaChase,Nebraska,Chase,2022-04-28 09:13:11,2021-02-17,0.24192779304853468,0.5116148329987484,1.1621739431870748,,,,,,,,,,,,
31029,0,USNebraskaChase,Nebraska,Chase,2022-04-28 09:13:11,2021-02-18,0.13863807282921345,0.3311651479602392,0.8512698275067063,,,,,,,,,,,,
31029,0,USNebraskaChase,Nebraska,Chase,2022-04-28 09:13:11,2021-02-19,0.13863807282921345,0.3311651479602392,0.8512698275067063,,,,,,,,,,,,
31029,0,USNebraskaChase,Nebraska,Chase,2022-04-28 09:13:11,2021-02-20,0.13863807282921345,0.3311651479602392,0.8512698275067063,,,,,,,,,,,,
31029,0,USNebraskaChase,Nebraska,Chase,2022-04-28 09:13:11,2021-02-21,0.13863807282921345,0.3311651479602392,0.8512698275067063,,,,,,,,,,,,
31029,0,USNebraskaChase,Nebraska,Chase,2022-04-28 09:13:11,2021-02-22,0.13863807282921345,0.3311651479602392,0.8512698275067063,,,,,,,,,,,,
31029,0,USNebraskaChase,Nebraska,Chase,2022-04-28 09:13:11,2021-02-23,0.13863807282921345,0.3311651479602392,0.8512698275067063,,,,,,,,,,,,
31029,0,USNebraskaChase,Nebraska,Chase,2022-04-28 09:13:11,2021-02-24,0.13863807282921345,0.3311651479602392,0.8512698275067063,,,,,,,,,,,,
31029,0,USNebraskaChase,Nebraska,Chase,2022-04-28 09:13:11,2021-02-25,0.22753859064007015,0.45522921429799346,0.9765312329149585,,,,,,,,,,,,
31029,0,USNebraskaChase,Nebraska,Chase,2022-04-28 09:13:11,2021-02-26,0.22753859064007015,0.45522921429799346,0.9765312329149585,,,,,,,,,,,,
31029,0,USNebraskaChase,Nebraska,Chase,2022-04-28 09:13:11,2021-02-27,0.22753859064007015,0.45522921429799346,0.9765312329149585,,,,,,,,,,,,
31029,0,USNebraskaChase,Nebraska,Chase,2022-04-28 09:13:11,2021-02-28,0.22753859064007015,0.45522921429799346,0.9765312329149585,,,,,,,,,,,,
31029,0,USNebraskaChase,Nebraska,Chase,2022-04-28 09:13:11,2021-03-01,0.22753859064007015,0.45522921429799346,0.9765312329149585,,,,,,,,,,,,
31029,0,USNebraskaChase,Nebraska,Chase,2022-04-28 09:13:11,2021-03-02,0.22753859064007015,0.45522921429799346,0.9765312329149585,,,,,,,,,,,,
31029,0,USNebraskaChase,Nebraska,Chase,2022-04-28 09:13:11,2021-03-03,0.22753859064007015,0.45522921429799346,0.9765312329149585,,,,,,,,,,,,
31029,0,USNebraskaChase,Nebraska,Chase,2022-04-28 09:13:11,2021-03-04,0.6233020298817039,0.9966253021394164,1.6832016847869482,,,,,,,,,,,,
31029,0,USNebraskaChase,Nebraska,Chase,2022-04-28 09:13:11,2021-03-05,0.6233020298817039,0.9966253021394164,1.6832016847869482,,,,,,,,,,,,
31029,0,USNebraskaChase,Nebraska,Chase,2022-04-28 09:13:11,2021-03-06,0.6233020298817039,0.9966253021394164,1.6832016847869482,,,,,,,,,,,,
31029,0,USNebraskaChase,Nebraska,Chase,2022-04-28 09:13:11,2021-03-07,0.6233020298817039,0.9966253021394164,1.6832016847869482,,,,,,,,,,,,
31029,0,USNebraskaChase,Nebraska,Chase,2022-04-28 09:13:11,2021-03-08,0.6233020298817039,0.9966253021394164,1.6832016847869482,,,,,,,,,,,,
31029,0,USNebraskaChase,Nebraska,Chase,2022-04-28 09:13:11,2021-03-09,0.6233020298817039,0.9966253021394164,1.6832016847869482,,,,,,,,,,,,
31029,0,USNebraskaChase,Nebraska,Chase,2022-04-28 09:13:11,2021-03-10,0.6233020298817039,0.9966253021394164,1.6832016847869482,,,,,,,,,,,,
31029,0,USNebraskaChase,Nebraska,Chase,2022-04-28 09:13:11,2021-03-11,0.22802347598580375,0.4570811645200519,0.982472772111386,,,,,,,,,,,,
31029,0,USNebraskaChase,Nebraska,Chase,2022-04-28 09:13:11,2021-03-12,0.22802347598580375,0.4570811645200519,0.982472772111386,,,,,,,,,,,,
31029,0,USNebraskaChase,Nebraska,Chase,2022-04-28 09:13:11,2021-03-13,0.22802347598580375,0.4570811645200519,0.982472772111386,,,,,,,,,,,,
31029,0,USNebraskaChase,Nebraska,Chase,2022-04-28 09:13:11,2021-03-14,0.22802347598580375,0.4570811645200519,0.982472772111386,,,,,,,,,,,,
31029,0,USNebraskaChase,Nebraska,Chase,2022-04-28 09:13:11,2021-03-15,0.22802347598580375,0.4570811645200519,0.982472772111386,,,,,,,,,,,,
31029,0,USNebraskaChase,Nebraska,Chase,2022-04-28 09:13:11,2021-03-16,0.22802347598580375,0.4570811645200519,0.982472772111386,,,,,,,,,,,,
31029,0,USNebraskaChase,Nebraska,Chase,2022-04-28 09:13:11,2021-03-17,0.22802347598580375,0.4570811645200519,0.982472772111386,,,,,,,,,,,,
31029,0,USNebraskaChase,Nebraska,Chase,2022-04-28 09:13:11,2021-03-18,0.13751196751618067,0.32611176734922237,0.8322211027283876,,,,,,,,,,,,
31029,0,USNebraskaChase,Nebraska,Chase,2022-04-28 09:13:11,2021-03-19,0.13751196751618067,0.32611176734922237,0.8322211027283876,,,,,,,,,,,,
31029,0,USNebraskaChase,Nebraska,Chase,2022-04-28 09:13:11,2021-03-20,0.13751196751618067,0.32611176734922237,0.8322211027283876,,,,,,,,,,,,
31029,0,USNebraskaChase,Nebraska,Chase,2022-04-28 09:13:11,2021-03-21,0.13751196751618067,0.32611176734922237,0.8322211027283876,,,,,,,,,,,,
31029,0,USNebraskaChase,Nebraska,Chase,2022-04-28 09:13:11,2021-03-22,0.13751196751618067,0.32611176734922237,0.8322211027283876,,,,,,,,,,,,
31029,0,USNebraskaChase,Nebraska,Chase,2022-04-28 09:13:11,2021-03-23,0.13751196751618067,0.32611176734922237,0.8322211027283876,,,,,,,,,,,,
31029,0,USNebraskaChase,Nebraska,Chase,2022-04-28 09:13:11,2021-03-24,0.13751196751618067,0.32611176734922237,0.8322211027283876,,,,,,,,,,,,
31029,0,USNebraskaChase,Nebraska,Chase,2022-04-28 09:13:11,2021-03-25,0.5762328980459608,0.987571685081322,1.798599880609948,,,,,,,,,,,,
31029,0,USNebraskaChase,Nebraska,Chase,2022-04-28 09:13:11,2021-03-26,0.5762328980459608,0.987571685081322,1.798599880609948,,,,,,,,,,,,
31029,0,USNebraskaChase,Nebraska,Chase,2022-04-28 09:13:11,2021-03-27,0.5762328980459608,0.987571685081322,1.798599880609948,,,,,,,,,,,,
31029,0,USNebraskaChase,Nebraska,Chase,2022-04-28 09:13:11,2021-03-28,0.5762328980459608,0.987571685081322,1.798599880609948,,,,,,,,,,,,
31029,0,USNebraskaChase,Nebraska,Chase,2022-04-28 09:13:11,2021-03-29,0.5762328980459608,0.987571685081322,1.798599880609948,,,,,,,,,,,,
31029,0,USNebraskaChase,Nebraska,Chase,2022-04-28 09:13:11,2021-03-30,0.5762328980459608,0.987571685081322,1.798599880609948,,,,,,,,,,,,
31029,0,USNebraskaChase,Nebraska,Chase,2022-04-28 09:13:11,2021-03-31,0.5762328980459608,0.987571685081322,1.798599880609948,,,,,,,,,,,,
31029,0,USNebraskaChase,Nebraska,Chase,2022-04-28 09:13:11,2021-04-01,0.34359136409920865,0.6915822832947818,1.4928869698638958,,,,,,,,,,,,
31029,0,USNebraskaChase,Nebraska,Chase,2022-04-28 09:13:11,2021-04-02,0.34359136409920865,0.6915822832947818,1.4928869698638958,,,,,,,,,,,,
31029,0,USNebraskaChase,Nebraska,Chase,2022-04-28 09:13:11,2021-04-03,0.34359136409920865,0.6915822832947818,1.4928869698638958,,,,,,,,,,,,
31029,0,USNebraskaChase,Nebraska,Chase,2022-04-28 09:13:11,2021-04-04,0.34359136409920865,0.6915822832947818,1.4928869698638958,,,,,,,,,,,,
31029,0,USNebraskaChase,Nebraska,Chase,2022-04-28 09:13:11,2021-04-05,0.34359136409920865,0.6915822832947818,1.4928869698638958,,,,,,,,,,,,
31029,0,USNebraskaChase,Nebraska,Chase,2022-04-28 09:13:11,2021-04-06,0.34359136409920865,0.6915822832947818,1.4928869698638958,,,,,,,,,,,,
31029,0,USNebraskaChase,Nebraska,Chase,2022-04-28 09:13:11,2021-04-07,0.34359136409920865,0.6915822832947818,1.4928869698638958,,,,,,,,,,,,
31029,0,USNebraskaChase,Nebraska,Chase,2022-04-28 09:13:11,2021-04-08,0.24269912614250902,0.5147201181578605,1.1726751825485147,,,,,,,,,,,,
31029,0,USNebraskaChase,Nebraska,Chase,2022-04-28 09:13:11,2021-04-09,0.24269912614250902,0.5147201181578605,1.1726751825485147,,,,,,,,,,,,
31029,0,USNebraskaChase,Nebraska,Chase,2022-04-28 09:13:11,2021-04-10,0.24269912614250902,0.5147201181578605,1.1726751825485147,,,,,,,,,,,,
31029,0,USNebraskaChase,Nebraska,Chase,2022-04-28 09:13:11,2021-04-11,0.24269912614250902,0.5147201181578605,1.1726751825485147,,,,,,,,,,,,
31029,0,USNebraskaChase,Nebraska,Chase,2022-04-28 09:13:11,2021-04-12,0.24269912614250902,0.5147201181578605,1.1726751825485147,,,,,,,,,,,,
31029,0,USNebraskaChase,Nebraska,Chase,2022-04-28 09:13:11,2021-04-13,0.24269912614250902,0.5147201181578605,1.1726751825485147,,,,,,,,,,,,
31029,0,USNebraskaChase,Nebraska,Chase,2022-04-28 09:13:11,2021-04-14,0.24269912614250902,0.5147201181578605,1.1726751825485147,,,,,,,,,,,,
31029,0,USNebraskaChase,Nebraska,Chase,2022-04-28 09:13:11,2021-04-15,0,0,0,,,,,,,,,,,,
31029,0,USNebraskaChase,Nebraska,Chase,2022-04-28 09:13:11,2021-04-16,0,0,0,,,,,,,,,,,,
31029,0,USNebraskaChase,Nebraska,Chase,2022-04-28 09:13:11,2021-04-17,0,0,0,,,,,,,,,,,,
31029,0,USNebraskaChase,Nebraska,Chase,2022-04-28 09:13:11,2021-04-18,0,0,0,,,,,,,,,,,,
31029,0,USNebraskaChase,Nebraska,Chase,2022-04-28 09:13:11,2021-04-19,0,0,0,,,,,,,,,,,,
31029,0,USNebraskaChase,Nebraska,Chase,2022-04-28 09:13:11,2021-04-20,0,0,0,,,,,,,,,,,,
31029,0,USNebraskaChase,Nebraska,Chase,2022-04-28 09:13:11,2021-04-21,0,0,0,,,,,,,,,,,,
31029,0,USNebraskaChase,Nebraska,Chase,2022-04-28 09:13:11,2021-04-22,0.2290867707025016,0.46115410997026984,0.9955779642854788,,,,,,,,,,,,
31029,0,USNebraskaChase,Nebraska,Chase,2022-04-28 09:13:11,2021-04-23,0.2290867707025016,0.46115410997026984,0.9955779642854788,,,,,,,,,,,,
31029,0,USNebraskaChase,Nebraska,Chase,2022-04-28 09:13:11,2021-04-24,0.2290867707025016,0.46115410997026984,0.9955779642854788,,,,,,,,,,,,
31029,0,USNebraskaChase,Nebraska,Chase,2022-04-28 09:13:11,2021-04-25,0.2290867707025016,0.46115410997026984,0.9955779642854788,,,,,,,,,,,,
31029,0,USNebraskaChase,Nebraska,Chase,2022-04-28 09:13:11,2021-04-26,0.2290867707025016,0.46115410997026984,0.9955779642854788,,,,,,,,,,,,
31029,0,USNebraskaChase,Nebraska,Chase,2022-04-28 09:13:11,2021-04-27,0.2290867707025016,0.46115410997026984,0.9955779642854788,,,,,,,,,,,,
31029,0,USNebraskaChase,Nebraska,Chase,2022-04-28 09:13:11,2021-04-28,0.2290867707025016,0.46115410997026984,0.9955779642854788,,,,,,,,,,,,
31029,0,USNebraskaChase,Nebraska,Chase,2022-04-28 09:13:11,2021-04-29,0,0,0,,,,,,,,,,,,
31029,0,USNebraskaChase,Nebraska,Chase,2022-04-28 09:13:11,2021-04-30,0,0,0,,,,,,,,,,,,
31029,0,USNebraskaChase,Nebraska,Chase,2022-04-28 09:13:11,2021-05-01,0,0,0,,,,,,,,,,,,
31029,0,USNebraskaChase,Nebraska,Chase,2022-04-28 09:13:11,2021-05-02,0,0,0,,,,,,,,,,,,
31029,0,USNebraskaChase,Nebraska,Chase,2022-04-28 09:13:11,2021-05-03,0,0,0,,,,,,,,,,,,
31029,0,USNebraskaChase,Nebraska,Chase,2022-04-28 09:13:11,2021-05-04,0,0,0,,,,,,,,,,,,
31029,0,USNebraskaChase,Nebraska,Chase,2022-04-28 09:13:11,2021-05-05,0,0,0,,,,,,,,,,,,
31029,0,USNebraskaChase,Nebraska,Chase,2022-04-28 09:13:11,2021-05-06,0.2301746062276162,0.46533786681199407,1.0090940057736277,,,,,,,,,,,,
31029,0,USNebraskaChase,Nebraska,Chase,2022-04-28 09:13:11,2021-05-07,0.2301746062276162,0.46533786681199407,1.0090940057736277,,,,,,,,,,,,
31029,0,USNebraskaChase,Nebraska,Chase,2022-04-28 09:13:11,2021-05-08,0.2301746062276162,0.46533786681199407,1.0090940057736277,,,,,,,,,,,,
31029,0,USNebraskaChase,Nebraska,Chase,2022-04-28 09:13:11,2021-05-09,0.2301746062276162,0.46533786681199407,1.0090940057736277,,,,,,,,,,,,
31029,0,USNebraskaChase,Nebraska,Chase,2022-04-28 09:13:11,2021-05-10,0.2301746062276162,0.46533786681199407,1.0090940057736277,,,,,,,,,,,,
31029,0,USNebraskaChase,Nebraska,Chase,2022-04-28 09:13:11,2021-05-11,0.2301746062276162,0.46533786681199407,1.0090940057736277,,,,,,,,,,,,
31029,0,USNebraskaChase,Nebraska,Chase,2022-04-28 09:13:11,2021-05-12,0.2301746062276162,0.46533786681199407,1.0090940057736277,,,,,,,,,,,,
31029,0,USNebraskaChase,Nebraska,Chase,2022-04-28 09:13:11,2021-05-13,0,0,0,,,,,,,,,,,,
31029,0,USNebraskaChase,Nebraska,Chase,2022-04-28 09:13:11,2021-05-14,0,0,0,,,,,,,,,,,,
31029,0,USNebraskaChase,Nebraska,Chase,2022-04-28 09:13:11,2021-05-15,0,0,0,,,,,,,,,,,,
31029,0,USNebraskaChase,Nebraska,Chase,2022-04-28 09:13:11,2021-05-16,0,0,0,,,,,,,,,,,,
31029,0,USNebraskaChase,Nebraska,Chase,2022-04-28 09:13:11,2021-05-17,0,0,0,,,,,,,,,,,,
31029,0,USNebraskaChase,Nebraska,Chase,2022-04-28 09:13:11,2021-05-18,0,0,0,,,,,,,,,,,,
31029,0,USNebraskaChase,Nebraska,Chase,2022-04-28 09:13:11,2021-05-19,0,0,0,,,,,,,,,,,,
31029,0,USNebraskaChase,Nebraska,Chase,2022-04-28 09:13:11,2021-05-20,0,0,0,,,,,,,,,,,,
31029,0,USNebraskaChase,Nebraska,Chase,2022-04-28 09:13:11,2021-05-21,0,0,0,,,,,,,,,,,,
31029,0,USNebraskaChase,Nebraska,Chase,2022-04-28 09:13:11,2021-05-22,0,0,0,,,,,,,,,,,,
31029,0,USNebraskaChase,Nebraska,Chase,2022-04-28 09:13:11,2021-05-23,0,0,0,,,,,,,,,,,,
31029,0,USNebraskaChase,Nebraska,Chase,2022-04-28 09:13:11,2021-05-24,0,0,0,,,,,,,,,,,,
31029,0,USNebraskaChase,Nebraska,Chase,2022-04-28 09:13:11,2021-05-25,0,0,0,,,,,,,,,,,,
31029,0,USNebraskaChase,Nebraska,Chase,2022-04-28 09:13:11,2021-05-26,0,0,0,,,,,,,,,,,,
31029,0,USNebraskaChase,Nebraska,Chase,2022-04-28 09:13:11,2021-05-27,0,0,0,,,,,,,,,,,,
31029,0,USNebraskaChase,Nebraska,Chase,2022-04-28 09:13:11,2021-05-28,0,0,0,,,,,,,,,,,,
31029,0,USNebraskaChase,Nebraska,Chase,2022-04-28 09:13:11,2021-05-29,0,0,0,,,,,,,,,,,,
31029,0,USNebraskaChase,Nebraska,Chase,2022-04-28 09:13:11,2021-05-30,0,0,0,,,,,,,,,,,,
31029,0,USNebraskaChase,Nebraska,Chase,2022-04-28 09:13:11,2021-05-31,0,0,0,,,,,,,,,,,,
31029,0,USNebraskaChase,Nebraska,Chase,2022-04-28 09:13:11,2021-06-01,0,0,0,,,,,,,,,,,,
31029,0,USNebraskaChase,Nebraska,Chase,2022-04-28 09:13:11,2021-06-02,0,0,0,,,,,,,,,,,,
31029,0,USNebraskaChase,Nebraska,Chase,2022-04-28 09:13:11,2021-06-03,0,0,0,,,,,,,,,,,,
31029,0,USNebraskaChase,Nebraska,Chase,2022-04-28 09:13:11,2021-06-04,0,0,0,,,,,,,,,,,,
31029,0,USNebraskaChase,Nebraska,Chase,2022-04-28 09:13:11,2021-06-05,0,0,0,,,,,,,,,,,,
31029,0,USNebraskaChase,Nebraska,Chase,2022-04-28 09:13:11,2021-06-06,0,0,0,,,,,,,,,,,,
31029,0,USNebraskaChase,Nebraska,Chase,2022-04-28 09:13:11,2021-06-07,0,0,0,,,,,,,,,,,,
31029,0,USNebraskaChase,Nebraska,Chase,2022-04-28 09:13:11,2021-06-08,0,0,0,,,,,,,,,,,,
31029,0,USNebraskaChase,Nebraska,Chase,2022-04-28 09:13:11,2021-06-09,0,0,0,,,,,,,,,,,,
31029,0,USNebraskaChase,Nebraska,Chase,2022-04-28 09:13:11,2021-06-10,0,0,0,,,,,,,,,,,,
31029,0,USNebraskaChase,Nebraska,Chase,2022-04-28 09:13:11,2021-06-11,0,0,0,,,,,,,,,,,,
31029,0,USNebraskaChase,Nebraska,Chase,2022-04-28 09:13:11,2021-06-12,0,0,0,,,,,,,,,,,,
31029,0,USNebraskaChase,Nebraska,Chase,2022-04-28 09:13:11,2021-06-13,0,0,0,,,,,,,,,,,,
31029,0,USNebraskaChase,Nebraska,Chase,2022-04-28 09:13:11,2021-06-14,0,0,0,,,,,,,,,,,,
31029,0,USNebraskaChase,Nebraska,Chase,2022-04-28 09:13:11,2021-06-15,0,0,0,,,,,,,,,,,,
31029,0,USNebraskaChase,Nebraska,Chase,2022-04-28 09:13:11,2021-06-16,0,0,0,,,,,,,,,,,,
31029,0,USNebraskaChase,Nebraska,Chase,2022-04-28 09:13:11,2021-06-17,0,0,0,,,,,,,,,,,,
31029,0,USNebraskaChase,Nebraska,Chase,2022-04-28 09:13:11,2021-06-18,0,0,0,,,,,,,,,,,,
31029,0,USNebraskaChase,Nebraska,Chase,2022-04-28 09:13:11,2021-06-19,0,0,0,,,,,,,,,,,,
31029,0,USNebraskaChase,Nebraska,Chase,2022-04-28 09:13:11,2021-06-20,0,0,0,,,,,,,,,,,,
31029,0,USNebraskaChase,Nebraska,Chase,2022-04-28 09:13:11,2021-06-21,0,0,0,,,,,,,,,,,,
31029,0,USNebraskaChase,Nebraska,Chase,2022-04-28 09:13:11,2021-06-22,0,0,0,,,,,,,,,,,,
31029,0,USNebraskaChase,Nebraska,Chase,2022-04-28 09:13:11,2021-06-23,0,0,0,,,,,,,,,,,,
31029,0,USNebraskaChase,Nebraska,Chase,2022-04-28 09:13:11,2021-06-24,0,0,0,,,,,,,,,,,,
31029,0,USNebraskaChase,Nebraska,Chase,2022-04-28 09:13:11,2021-06-25,0,0,0,,,,,,,,,,,,
31029,0,USNebraskaChase,Nebraska,Chase,2022-04-28 09:13:11,2021-06-26,0,0,0,,,,,,,,,,,,
31029,0,USNebraskaChase,Nebraska,Chase,2022-04-28 09:13:11,2021-06-27,0,0,0,,,,,,,,,,,,
31029,0,USNebraskaChase,Nebraska,Chase,2022-04-28 09:13:11,2021-06-28,0,0,0,,,,,,,,,,,,
31029,0,USNebraskaChase,Nebraska,Chase,2022-04-28 09:13:11,2021-06-29,0,0,0,,,,,,,,,,,,
31029,0,USNebraskaChase,Nebraska,Chase,2022-04-28 09:13:11,2021-06-30,0,0,0,,,,,,,,,,,,
31029,0,USNebraskaChase,Nebraska,Chase,2022-04-28 09:13:11,2021-07-01,0,0,0,,,,,,,,,,,,
31029,0,USNebraskaChase,Nebraska,Chase,2022-04-28 09:13:11,2021-07-02,0,0,0,,,,,,,,,,,,
31029,0,USNebraskaChase,Nebraska,Chase,2022-04-28 09:13:11,2021-07-03,0,0,0,,,,,,,,,,,,
31029,0,USNebraskaChase,Nebraska,Chase,2022-04-28 09:13:11,2021-07-04,0,0,0,,,,,,,,,,,,
31029,0,USNebraskaChase,Nebraska,Chase,2022-04-28 09:13:11,2021-07-05,0,0,0,,,,,,,,,,,,
31029,0,USNebraskaChase,Nebraska,Chase,2022-04-28 09:13:11,2021-07-06,0,0,0,,,,,,,,,,,,
31029,0,USNebraskaChase,Nebraska,Chase,2022-04-28 09:13:11,2021-07-07,0,0,0,,,,,,,,,,,,
31029,0,USNebraskaChase,Nebraska,Chase,2022-04-28 09:13:11,2021-07-08,0,0,0,,,,,,,,,,,,
31029,0,USNebraskaChase,Nebraska,Chase,2022-04-28 09:13:11,2021-07-09,0,0,0,,,,,,,,,,,,
31029,0,USNebraskaChase,Nebraska,Chase,2022-04-28 09:13:11,2021-07-10,0,0,0,,,,,,,,,,,,
31029,0,USNebraskaChase,Nebraska,Chase,2022-04-28 09:13:11,2021-07-11,0,0,0,,,,,,,,,,,,
31029,0,USNebraskaChase,Nebraska,Chase,2022-04-28 09:13:11,2021-07-12,0,0,0,,,,,,,,,,,,
31029,0,USNebraskaChase,Nebraska,Chase,2022-04-28 09:13:11,2021-07-13,0,0,0,,,,,,,,,,,,
31029,0,USNebraskaChase,Nebraska,Chase,2022-04-28 09:13:11,2021-07-14,0,0,0,,,,,,,,,,,,
31029,0,USNebraskaChase,Nebraska,Chase,2022-04-28 09:13:11,2021-07-15,0,0,0,,,,,,,,,,,,
31029,0,USNebraskaChase,Nebraska,Chase,2022-04-28 09:13:11,2021-07-16,0,0,0,,,,,,,,,,,,
31029,0,USNebraskaChase,Nebraska,Chase,2022-04-28 09:13:11,2021-07-17,0,0,0,,,,,,,,,,,,
31029,0,USNebraskaChase,Nebraska,Chase,2022-04-28 09:13:11,2021-07-18,0,0,0,,,,,,,,,,,,
31029,0,USNebraskaChase,Nebraska,Chase,2022-04-28 09:13:11,2021-07-19,0,0,0,,,,,,,,,,,,
31029,0,USNebraskaChase,Nebraska,Chase,2022-04-28 09:13:11,2021-07-20,0,0,0,,,,,,,,,,,,
31029,0,USNebraskaChase,Nebraska,Chase,2022-04-28 09:13:11,2021-07-21,0,0,0,,,,,,,,,,,,
31029,0,USNebraskaChase,Nebraska,Chase,2022-04-28 09:13:11,2021-07-22,0,0,0,,,,,,,,,,,,
31029,0,USNebraskaChase,Nebraska,Chase,2022-04-28 09:13:11,2021-07-23,0,0,0,,,,,,,,,,,,
31029,0,USNebraskaChase,Nebraska,Chase,2022-04-28 09:13:11,2021-07-24,0,0,0,,,,,,,,,,,,
31029,0,USNebraskaChase,Nebraska,Chase,2022-04-28 09:13:11,2021-07-25,0,0,0,,,,,,,,,,,,
31029,0,USNebraskaChase,Nebraska,Chase,2022-04-28 09:13:11,2021-07-26,0,0,0,,,,,,,,,,,,
31029,0,USNebraskaChase,Nebraska,Chase,2022-04-28 09:13:11,2021-07-27,0,0,0,,,,,,,,,,,,
31029,0,USNebraskaChase,Nebraska,Chase,2022-04-28 09:13:11,2021-07-28,0,0,0,,,,,,,,,,,,
31029,0,USNebraskaChase,Nebraska,Chase,2022-04-28 09:13:11,2021-07-29,0,0,0,,,,,,,,,,,,
31029,0,USNebraskaChase,Nebraska,Chase,2022-04-28 09:13:11,2021-07-30,0,0,0,,,,,,,,,,,,
31029,0,USNebraskaChase,Nebraska,Chase,2022-04-28 09:13:11,2021-07-31,0,0,0,,,,,,,,,,,,
31029,0,USNebraskaChase,Nebraska,Chase,2022-04-28 09:13:11,2021-08-01,0,0,0,,,,,,,,,,,,
31029,0,USNebraskaChase,Nebraska,Chase,2022-04-28 09:13:11,2021-08-02,0,0,0,,,,,,,,,,,,
31029,0,USNebraskaChase,Nebraska,Chase,2022-04-28 09:13:11,2021-08-03,0,0,0,,,,,,,,,,,,
31029,0,USNebraskaChase,Nebraska,Chase,2022-04-28 09:13:11,2021-08-04,0,0,0,,,,,,,,,,,,
31029,0,USNebraskaChase,Nebraska,Chase,2022-04-28 09:13:11,2021-08-05,0,0,0,,,,,,,,,,,,
31029,0,USNebraskaChase,Nebraska,Chase,2022-04-28 09:13:11,2021-08-06,0,0,0,,,,,,,,,,,,
31029,0,USNebraskaChase,Nebraska,Chase,2022-04-28 09:13:11,2021-08-07,0,0,0,,,,,,,,,,,,
31029,0,USNebraskaChase,Nebraska,Chase,2022-04-28 09:13:11,2021-08-08,0,0,0,,,,,,,,,,,,
31029,0,USNebraskaChase,Nebraska,Chase,2022-04-28 09:13:11,2021-08-09,0,0,0,,,,,,,,,,,,
31029,0,USNebraskaChase,Nebraska,Chase,2022-04-28 09:13:11,2021-08-10,0,0,0,,,,,,,,,,,,
31029,0,USNebraskaChase,Nebraska,Chase,2022-04-28 09:13:11,2021-08-11,0,0,0,,,,,,,,,,,,
31029,0,USNebraskaChase,Nebraska,Chase,2022-04-28 09:13:11,2021-08-12,0,0,0,,,,,,,,,,,,
31029,0,USNebraskaChase,Nebraska,Chase,2022-04-28 09:13:11,2021-08-13,0,0,0,,,,,,,,,,,,
31029,0,USNebraskaChase,Nebraska,Chase,2022-04-28 09:13:11,2021-08-14,0,0,0,,,,,,,,,,,,
31029,0,USNebraskaChase,Nebraska,Chase,2022-04-28 09:13:11,2021-08-15,0,0,0,,,,,,,,,,,,
31029,0,USNebraskaChase,Nebraska,Chase,2022-04-28 09:13:11,2021-08-16,0,0,0,,,,,,,,,,,,
31029,0,USNebraskaChase,Nebraska,Chase,2022-04-28 09:13:11,2021-08-17,0,0,0,,,,,,,,,,,,
31029,0,USNebraskaChase,Nebraska,Chase,2022-04-28 09:13:11,2021-08-18,0,0,0,,,,,,,,,,,,
31029,0,USNebraskaChase,Nebraska,Chase,2022-04-28 09:13:11,2021-08-19,0,0,0,,,,,,,,,,,,
31029,0,USNebraskaChase,Nebraska,Chase,2022-04-28 09:13:11,2021-08-20,0,0,0,,,,,,,,,,,,
31029,0,USNebraskaChase,Nebraska,Chase,2022-04-28 09:13:11,2021-08-21,0,0,0,,,,,,,,,,,,
31029,0,USNebraskaChase,Nebraska,Chase,2022-04-28 09:13:11,2021-08-22,0,0,0,,,,,,,,,,,,
31029,0,USNebraskaChase,Nebraska,Chase,2022-04-28 09:13:11,2021-08-23,0,0,0,,,,,,,,,,,,
31029,0,USNebraskaChase,Nebraska,Chase,2022-04-28 09:13:11,2021-08-24,0,0,0,,,,,,,,,,,,
31029,0,USNebraskaChase,Nebraska,Chase,2022-04-28 09:13:11,2021-08-25,0,0,0,,,,,,,,,,,,
31029,0,USNebraskaChase,Nebraska,Chase,2022-04-28 09:13:11,2021-08-26,0,0,0,,,,,,,,,,,,
31029,0,USNebraskaChase,Nebraska,Chase,2022-04-28 09:13:11,2021-08-27,0,0,0,,,,,,,,,,,,
31029,0,USNebraskaChase,Nebraska,Chase,2022-04-28 09:13:11,2021-08-28,0,0,0,,,,,,,,,,,,
31029,0,USNebraskaChase,Nebraska,Chase,2022-04-28 09:13:11,2021-08-29,0,0,0,,,,,,,,,,,,
31029,0,USNebraskaChase,Nebraska,Chase,2022-04-28 09:13:11,2021-08-30,0,0,0,,,,,,,,,,,,
31029,0,USNebraskaChase,Nebraska,Chase,2022-04-28 09:13:11,2021-08-31,0,0,0,,,,,,,,,,,,
31029,0,USNebraskaChase,Nebraska,Chase,2022-04-28 09:13:11,2021-09-01,0,0,0,,,,,,,,,,,,
31029,0,USNebraskaChase,Nebraska,Chase,2022-04-28 09:13:11,2021-09-02,0,0,0,,,,,,,,,,,,
31029,0,USNebraskaChase,Nebraska,Chase,2022-04-28 09:13:11,2021-09-03,0,0,0,,,,,,,,,,,,
31029,0,USNebraskaChase,Nebraska,Chase,2022-04-28 09:13:11,2021-09-04,0,0,0,,,,,,,,,,,,
31029,0,USNebraskaChase,Nebraska,Chase,2022-04-28 09:13:11,2021-09-05,0,0,0,,,,,,,,,,,,
31029,0,USNebraskaChase,Nebraska,Chase,2022-04-28 09:13:11,2021-09-06,0,0,0,,,,,,,,,,,,
31029,0,USNebraskaChase,Nebraska,Chase,2022-04-28 09:13:11,2021-09-07,0,0,0,,,,,,,,,,,,
31029,0,USNebraskaChase,Nebraska,Chase,2022-04-28 09:13:11,2021-09-08,0,0,0,,,,,,,,,,,,
31029,0,USNebraskaChase,Nebraska,Chase,2022-04-28 09:13:11,2021-09-09,0,0,0,,,,,,,,,,,,
31029,0,USNebraskaChase,Nebraska,Chase,2022-04-28 09:13:11,2021-09-10,0,0,0,,,,,,,,,,,,
31029,0,USNebraskaChase,Nebraska,Chase,2022-04-28 09:13:11,2021-09-11,0,0,0,,,,,,,,,,,,
31029,0,USNebraskaChase,Nebraska,Chase,2022-04-28 09:13:11,2021-09-12,0,0,0,,,,,,,,,,,,
31029,0,USNebraskaChase,Nebraska,Chase,2022-04-28 09:13:11,2021-09-13,0,0,0,,,,,,,,,,,,
31029,0,USNebraskaChase,Nebraska,Chase,2022-04-28 09:13:11,2021-09-14,0,0,0,,,,,,,,,,,,
31029,0,USNebraskaChase,Nebraska,Chase,2022-04-28 09:13:11,2021-09-15,0,0,0,,,,,,,,,,,,
31029,0,USNebraskaChase,Nebraska,Chase,2022-04-28 09:13:11,2021-09-16,0,0,0,,,,,,,,,,,,
31029,0,USNebraskaChase,Nebraska,Chase,2022-04-28 09:13:11,2021-09-17,0,0,0,,,,,,,,,,,,
31029,0,USNebraskaChase,Nebraska,Chase,2022-04-28 09:13:11,2021-09-18,0,0,0,,,,,,,,,,,,
31029,0,USNebraskaChase,Nebraska,Chase,2022-04-28 09:13:11,2021-09-19,0,0,0,,,,,,,,,,,,
31029,0,USNebraskaChase,Nebraska,Chase,2022-04-28 09:13:11,2021-09-20,0,0,0,,,,,,,,,,,,
31029,0,USNebraskaChase,Nebraska,Chase,2022-04-28 09:13:11,2021-09-21,0,0,0,,,,,,,,,,,,
31029,0,USNebraskaChase,Nebraska,Chase,2022-04-28 09:13:11,2021-09-22,0,0,0,,,,,,,,,,,,
31029,0,USNebraskaChase,Nebraska,Chase,2022-04-28 09:13:11,2021-09-23,2.256367546820016,3.523802964979074,5.799153026392329,,,,,,,,,,,,
31029,0,USNebraskaChase,Nebraska,Chase,2022-04-28 09:13:11,2021-09-24,2.256367546820016,3.523802964979074,5.799153026392329,,,,,,,,,,,,
31029,0,USNebraskaChase,Nebraska,Chase,2022-04-28 09:13:11,2021-09-25,2.256367546820016,3.523802964979074,5.799153026392329,,,,,,,,,,,,
31029,0,USNebraskaChase,Nebraska,Chase,2022-04-28 09:13:11,2021-09-26,2.256367546820016,3.523802964979074,5.799153026392329,,,,,,,,,,,,
31029,0,USNebraskaChase,Nebraska,Chase,2022-04-28 09:13:11,2021-09-27,2.256367546820016,3.523802964979074,5.799153026392329,,,,,,,,,,,,
31029,0,USNebraskaChase,Nebraska,Chase,2022-04-28 09:13:11,2021-09-28,2.256367546820016,3.523802964979074,5.799153026392329,,,,,,,,,,,,
31029,0,USNebraskaChase,Nebraska,Chase,2022-04-28 09:13:11,2021-09-29,2.256367546820016,3.523802964979074,5.799153026392329,,,,,,,,,,,,
31029,0,USNebraskaChase,Nebraska,Chase,2022-04-28 09:13:11,2021-09-30,0.8737201128780591,1.512302333076028,2.783738527880887,,,,,,,,,,,,
31029,0,USNebraskaChase,Nebraska,Chase,2022-04-28 09:13:11,2021-10-01,0.8737201128780591,1.512302333076028,2.783738527880887,,,,,,,,,,,,
31029,0,USNebraskaChase,Nebraska,Chase,2022-04-28 09:13:11,2021-10-02,0.8737201128780591,1.512302333076028,2.783738527880887,,,,,,,,,,,,
31029,0,USNebraskaChase,Nebraska,Chase,2022-04-28 09:13:11,2021-10-03,0.8737201128780591,1.512302333076028,2.783738527880887,,,,,,,,,,,,
31029,0,USNebraskaChase,Nebraska,Chase,2022-04-28 09:13:11,2021-10-04,0.8737201128780591,1.512302333076028,2.783738527880887,,,,,,,,,,,,
31029,0,USNebraskaChase,Nebraska,Chase,2022-04-28 09:13:11,2021-10-05,0.8737201128780591,1.512302333076028,2.783738527880887,,,,,,,,,,,,
31029,0,USNebraskaChase,Nebraska,Chase,2022-04-28 09:13:11,2021-10-06,0.8737201128780591,1.512302333076028,2.783738527880887,,,,,,,,,,,,
31029,0,USNebraskaChase,Nebraska,Chase,2022-04-28 09:13:11,2021-10-07,0.7244705704867422,1.329673862383386,2.6056034919760545,,,,,,,,,,,,
31029,0,USNebraskaChase,Nebraska,Chase,2022-04-28 09:13:11,2021-10-08,0.7244705704867422,1.329673862383386,2.6056034919760545,,,,,,,,,,,,
31029,0,USNebraskaChase,Nebraska,Chase,2022-04-28 09:13:11,2021-10-09,0.7244705704867422,1.329673862383386,2.6056034919760545,,,,,,,,,,,,
31029,0,USNebraskaChase,Nebraska,Chase,2022-04-28 09:13:11,2021-10-10,0.7244705704867422,1.329673862383386,2.6056034919760545,,,,,,,,,,,,
31029,0,USNebraskaChase,Nebraska,Chase,2022-04-28 09:13:11,2021-10-11,0.7244705704867422,1.329673862383386,2.6056034919760545,,,,,,,,,,,,
31029,0,USNebraskaChase,Nebraska,Chase,2022-04-28 09:13:11,2021-10-12,0.7244705704867422,1.329673862383386,2.6056034919760545,,,,,,,,,,,,
31029,0,USNebraskaChase,Nebraska,Chase,2022-04-28 09:13:11,2021-10-13,0.7244705704867422,1.329673862383386,2.6056034919760545,,,,,,,,,,,,
31029,0,USNebraskaChase,Nebraska,Chase,2022-04-28 09:13:11,2021-10-14,1.9018421111246457,2.7338169621625994,4.102275084842749,,,,,,,,,,,,
31029,0,USNebraskaChase,Nebraska,Chase,2022-04-28 09:13:11,2021-10-15,1.9018421111246457,2.7338169621625994,4.102275084842749,,,,,,,,,,,,
31029,0,USNebraskaChase,Nebraska,Chase,2022-04-28 09:13:11,2021-10-16,1.9018421111246457,2.7338169621625994,4.102275084842749,,,,,,,,,,,,
31029,0,USNebraskaChase,Nebraska,Chase,2022-04-28 09:13:11,2021-10-17,1.9018421111246457,2.7338169621625994,4.102275084842749,,,,,,,,,,,,
31029,0,USNebraskaChase,Nebraska,Chase,2022-04-28 09:13:11,2021-10-18,1.9018421111246457,2.7338169621625994,4.102275084842749,,,,,,,,,,,,
31029,0,USNebraskaChase,Nebraska,Chase,2022-04-28 09:13:11,2021-10-19,1.9018421111246457,2.7338169621625994,4.102275084842749,,,,,,,,,,,,
31029,0,USNebraskaChase,Nebraska,Chase,2022-04-28 09:13:11,2021-10-20,1.9018421111246457,2.7338169621625994,4.102275084842749,,,,,,,,,,,,
31029,0,USNebraskaChase,Nebraska,Chase,2022-04-28 09:13:11,2021-10-21,1.1058901553487595,1.824913694979308,3.1901163755088993,,,,,,,,,,,,
31029,0,USNebraskaChase,Nebraska,Chase,2022-04-28 09:13:11,2021-10-22,1.1058901553487595,1.824913694979308,3.1901163755088993,,,,,,,,,,,,
31029,0,USNebraskaChase,Nebraska,Chase,2022-04-28 09:13:11,2021-10-23,1.1058901553487595,1.824913694979308,3.1901163755088993,,,,,,,,,,,,
31029,0,USNebraskaChase,Nebraska,Chase,2022-04-28 09:13:11,2021-10-24,1.1058901553487595,1.824913694979308,3.1901163755088993,,,,,,,,,,,,
31029,0,USNebraskaChase,Nebraska,Chase,2022-04-28 09:13:11,2021-10-25,1.1058901553487595,1.824913694979308,3.1901163755088993,,,,,,,,,,,,
31029,0,USNebraskaChase,Nebraska,Chase,2022-04-28 09:13:11,2021-10-26,1.1058901553487595,1.824913694979308,3.1901163755088993,,,,,,,,,,,,
31029,0,USNebraskaChase,Nebraska,Chase,2022-04-28 09:13:11,2021-10-27,1.1058901553487595,1.824913694979308,3.1901163755088993,,,,,,,,,,,,
31029,0,USNebraskaChase,Nebraska,Chase,2022-04-28 09:13:11,2021-10-28,1.2362675250514341,2.0997050640714865,3.7869510961061197,,,,,,,,,,,,
31029,0,USNebraskaChase,Nebraska,Chase,2022-04-28 09:13:11,2021-10-29,1.2362675250514341,2.0997050640714865,3.7869510961061197,,,,,,,,,,,,
31029,0,USNebraskaChase,Nebraska,Chase,2022-04-28 09:13:11,2021-10-30,1.2362675250514341,2.0997050640714865,3.7869510961061197,,,,,,,,,,,,
31029,0,USNebraskaChase,Nebraska,Chase,2022-04-28 09:13:11,2021-10-31,1.2362675250514341,2.0997050640714865,3.7869510961061197,,,,,,,,,,,,
31029,0,USNebraskaChase,Nebraska,Chase,2022-04-28 09:13:11,2021-11-01,1.2362675250514341,2.0997050640714865,3.7869510961061197,,,,,,,,,,,,
31029,0,USNebraskaChase,Nebraska,Chase,2022-04-28 09:13:11,2021-11-02,1.2362675250514341,2.0997050640714865,3.7869510961061197,,,,,,,,,,,,
31029,0,USNebraskaChase,Nebraska,Chase,2022-04-28 09:13:11,2021-11-03,1.2362675250514341,2.0997050640714865,3.7869510961061197,,,,,,,,,,,,
31029,0,USNebraskaChase,Nebraska,Chase,2022-04-28 09:13:11,2021-11-04,1.5790118875295154,2.490413626063424,4.143273794414542,,,,,,,,,,,,
31029,0,USNebraskaChase,Nebraska,Chase,2022-04-28 09:13:11,2021-11-05,1.5790118875295154,2.490413626063424,4.143273794414542,,,,,,,,,,,,
31029,0,USNebraskaChase,Nebraska,Chase,2022-04-28 09:13:11,2021-11-06,1.5790118875295154,2.490413626063424,4.143273794414542,,,,,,,,,,,,
31029,0,USNebraskaChase,Nebraska,Chase,2022-04-28 09:13:11,2021-11-07,1.5790118875295154,2.490413626063424,4.143273794414542,,,,,,,,,,,,
31029,0,USNebraskaChase,Nebraska,Chase,2022-04-28 09:13:11,2021-11-08,1.5790118875295154,2.490413626063424,4.143273794414542,,,,,,,,,,,,
31029,0,USNebraskaChase,Nebraska,Chase,2022-04-28 09:13:11,2021-11-09,1.5790118875295154,2.490413626063424,4.143273794414542,,,,,,,,,,,,
31029,0,USNebraskaChase,Nebraska,Chase,2022-04-28 09:13:11,2021-11-10,1.5790118875295154,2.490413626063424,4.143273794414542,,,,,,,,,,,,
31029,0,USNebraskaChase,Nebraska,Chase,2022-04-28 09:13:11,2021-11-11,2.4681269872439673,3.563001507578799,5.372218569431542,,,,,,,,,,,,
31029,0,USNebraskaChase,Nebraska,Chase,2022-04-28 09:13:11,2021-11-12,2.4681269872439673,3.563001507578799,5.372218569431542,,,,,,,,,,,,
31029,0,USNebraskaChase,Nebraska,Chase,2022-04-28 09:13:11,2021-11-13,2.4681269872439673,3.563001507578799,5.372218569431542,,,,,,,,,,,,
31029,0,USNebraskaChase,Nebraska,Chase,2022-04-28 09:13:11,2021-11-14,2.4681269872439673,3.563001507578799,5.372218569431542,,,,,,,,,,,,
31029,0,USNebraskaChase,Nebraska,Chase,2022-04-28 09:13:11,2021-11-15,2.4681269872439673,3.563001507578799,5.372218569431542,,,,,,,,,,,,
31029,0,USNebraskaChase,Nebraska,Chase,2022-04-28 09:13:11,2021-11-16,2.4681269872439673,3.563001507578799,5.372218569431542,,,,,,,,,,,,
31029,0,USNebraskaChase,Nebraska,Chase,2022-04-28 09:13:11,2021-11-17,2.4681269872439673,3.563001507578799,5.372218569431542,,,,,,,,,,,,
31029,0,USNebraskaChase,Nebraska,Chase,2022-04-28 09:13:11,2021-11-18,1.6293243168626916,3.3274609410514153,7.291660310919013,,,,,,,,,,,,
31029,0,USNebraskaChase,Nebraska,Chase,2022-04-28 09:13:11,2021-11-19,1.6293243168626916,3.3274609410514153,7.291660310919013,,,,,,,,,,,,
31029,0,USNebraskaChase,Nebraska,Chase,2022-04-28 09:13:11,2021-11-20,1.6293243168626916,3.3274609410514153,7.291660310919013,,,,,,,,,,,,
31029,0,USNebraskaChase,Nebraska,Chase,2022-04-28 09:13:11,2021-11-21,1.6293243168626916,3.3274609410514153,7.291660310919013,,,,,,,,,,,,
31029,0,USNebraskaChase,Nebraska,Chase,2022-04-28 09:13:11,2021-11-22,1.6293243168626916,3.3274609410514153,7.291660310919013,,,,,,,,,,,,
31029,0,USNebraskaChase,Nebraska,Chase,2022-04-28 09:13:11,2021-11-23,1.6293243168626916,3.3274609410514153,7.291660310919013,,,,,,,,,,,,
31029,0,USNebraskaChase,Nebraska,Chase,2022-04-28 09:13:11,2021-11-24,1.6293243168626916,3.3274609410514153,7.291660310919013,,,,,,,,,,,,
31029,0,USNebraskaChase,Nebraska,Chase,2022-04-28 09:13:11,2021-12-02,1.9443432688753586,4.965083203041521,13.642732262730444,,,,,,,,,,,,
31029,0,USNebraskaChase,Nebraska,Chase,2022-04-28 09:13:11,2021-12-03,1.9443432688753586,4.965083203041521,13.642732262730444,,,,,,,,,,,,
31029,0,USNebraskaChase,Nebraska,Chase,2022-04-28 09:13:11,2021-12-04,1.9443432688753586,4.965083203041521,13.642732262730444,,,,,,,,,,,,
31029,0,USNebraskaChase,Nebraska,Chase,2022-04-28 09:13:11,2021-12-05,1.9443432688753586,4.965083203041521,13.642732262730444,,,,,,,,,,,,
31029,0,USNebraskaChase,Nebraska,Chase,2022-04-28 09:13:11,2021-12-06,1.9443432688753586,4.965083203041521,13.642732262730444,,,,,,,,,,,,
31029,0,USNebraskaChase,Nebraska,Chase,2022-04-28 09:13:11,2021-12-07,1.9443432688753586,4.965083203041521,13.642732262730444,,,,,,,,,,,,
31029,0,USNebraskaChase,Nebraska,Chase,2022-04-28 09:13:11,2021-12-08,1.9443432688753586,4.965083203041521,13.642732262730444,,,,,,,,,,,,
31029,0,USNebraskaChase,Nebraska,Chase,2022-04-28 09:13:11,2021-12-09,0.6882324963990101,1.3871959696244334,2.9987785808488447,,,,,,,,,,,,
31029,0,USNebraskaChase,Nebraska,Chase,2022-04-28 09:13:11,2021-12-10,0.6882324963990101,1.3871959696244334,2.9987785808488447,,,,,,,,,,,,
31029,0,USNebraskaChase,Nebraska,Chase,2022-04-28 09:13:11,2021-12-11,0.6882324963990101,1.3871959696244334,2.9987785808488447,,,,,,,,,,,,
31029,0,USNebraskaChase,Nebraska,Chase,2022-04-28 09:13:11,2021-12-12,0.6882324963990101,1.3871959696244334,2.9987785808488447,,,,,,,,,,,,
31029,0,USNebraskaChase,Nebraska,Chase,2022-04-28 09:13:11,2021-12-13,0.6882324963990101,1.3871959696244334,2.9987785808488447,,,,,,,,,,,,
31029,0,USNebraskaChase,Nebraska,Chase,2022-04-28 09:13:11,2021-12-14,0.6882324963990101,1.3871959696244334,2.9987785808488447,,,,,,,,,,,,
31029,0,USNebraskaChase,Nebraska,Chase,2022-04-28 09:13:11,2021-12-15,0.6882324963990101,1.3871959696244334,2.9987785808488447,,,,,,,,,,,,
31029,0,USNebraskaChase,Nebraska,Chase,2022-04-28 09:13:11,2021-12-16,0.9116505779738037,1.6406240363425504,3.1484454009651373,,,,,,,,,,,,
31029,0,USNebraskaChase,Nebraska,Chase,2022-04-28 09:13:11,2021-12-17,0.9116505779738037,1.6406240363425504,3.1484454009651373,,,,,,,,,,,,
31029,0,USNebraskaChase,Nebraska,Chase,2022-04-28 09:13:11,2021-12-18,0.9116505779738037,1.6406240363425504,3.1484454009651373,,,,,,,,,,,,
31029,0,USNebraskaChase,Nebraska,Chase,2022-04-28 09:13:11,2021-12-19,0.9116505779738037,1.6406240363425504,3.1484454009651373,,,,,,,,,,,,
31029,0,USNebraskaChase,Nebraska,Chase,2022-04-28 09:13:11,2021-12-20,0.9116505779738037,1.6406240363425504,3.1484454009651373,,,,,,,,,,,,
31029,0,USNebraskaChase,Nebraska,Chase,2022-04-28 09:13:11,2021-12-21,0.9116505779738037,1.6406240363425504,3.1484454009651373,,,,,,,,,,,,
31029,0,USNebraskaChase,Nebraska,Chase,2022-04-28 09:13:11,2021-12-22,0.9116505779738037,1.6406240363425504,3.1484454009651373,,,,,,,,,,,,
31029,0,USNebraskaChase,Nebraska,Chase,2022-04-28 09:13:11,2021-12-23,0.3038836167678643,0.7867647047173635,2.191591683085104,,,,,,,,,,,,
31029,0,USNebraskaChase,Nebraska,Chase,2022-04-28 09:13:11,2021-12-24,0.3038836167678643,0.7867647047173635,2.191591683085104,,,,,,,,,,,,
31029,0,USNebraskaChase,Nebraska,Chase,2022-04-28 09:13:11,2021-12-25,0.3038836167678643,0.7867647047173635,2.191591683085104,,,,,,,,,,,,
31029,0,USNebraskaChase,Nebraska,Chase,2022-04-28 09:13:11,2021-12-26,0.3038836167678643,0.7867647047173635,2.191591683085104,,,,,,,,,,,,
31029,0,USNebraskaChase,Nebraska,Chase,2022-04-28 09:13:11,2021-12-27,0.3038836167678643,0.7867647047173635,2.191591683085104,,,,,,,,,,,,
31029,0,USNebraskaChase,Nebraska,Chase,2022-04-28 09:13:11,2021-12-28,0.3038836167678643,0.7867647047173635,2.191591683085104,,,,,,,,,,,,
31029,0,USNebraskaChase,Nebraska,Chase,2022-04-28 09:13:11,2021-12-29,0.3038836167678643,0.7867647047173635,2.191591683085104,,,,,,,,,,,,
31029,0,USNebraskaChase,Nebraska,Chase,2022-04-28 09:13:11,2021-12-30,1.0385113299461282,2.1045360162155644,4.575001994651835,,,,,,,,,,,,
31029,0,USNebraskaChase,Nebraska,Chase,2022-04-28 09:13:11,2021-12-31,1.0385113299461282,2.1045360162155644,4.575001994651835,,,,,,,,,,,,
31029,0,USNebraskaChase,Nebraska,Chase,2022-04-28 09:13:11,2022-01-01,1.0385113299461282,2.1045360162155644,4.575001994651835,,,,,,,,,,,,
31029,0,USNebraskaChase,Nebraska,Chase,2022-04-28 09:13:11,2022-01-02,1.0385113299461282,2.1045360162155644,4.575001994651835,,,,,,,,,,,,
31029,0,USNebraskaChase,Nebraska,Chase,2022-04-28 09:13:11,2022-01-03,1.0385113299461282,2.1045360162155644,4.575001994651835,,,,,,,,,,,,
31029,0,USNebraskaChase,Nebraska,Chase,2022-04-28 09:13:11,2022-01-04,1.0385113299461282,2.1045360162155644,4.575001994651835,,,,,,,,,,,,
31029,0,USNebraskaChase,Nebraska,Chase,2022-04-28 09:13:11,2022-01-05,1.0385113299461282,2.1045360162155644,4.575001994651835,,,,,,,,,,,,
31029,0,USNebraskaChase,Nebraska,Chase,2022-04-28 09:13:11,2022-01-06,1.5670891732890466,3.089289696730803,6.525953220109742,,,,,,,,,,,,
31029,0,USNebraskaChase,Nebraska,Chase,2022-04-28 09:13:11,2022-01-07,1.5670891732890466,3.089289696730803,6.525953220109742,,,,,,,,,,,,
31029,0,USNebraskaChase,Nebraska,Chase,2022-04-28 09:13:11,2022-01-08,1.5670891732890466,3.089289696730803,6.525953220109742,,,,,,,,,,,,
31029,0,USNebraskaChase,Nebraska,Chase,2022-04-28 09:13:11,2022-01-09,1.5670891732890466,3.089289696730803,6.525953220109742,,,,,,,,,,,,
31029,0,USNebraskaChase,Nebraska,Chase,2022-04-28 09:13:11,2022-01-10,1.5670891732890466,3.089289696730803,6.525953220109742,,,,,,,,,,,,
31029,0,USNebraskaChase,Nebraska,Chase,2022-04-28 09:13:11,2022-01-11,1.5670891732890466,3.089289696730803,6.525953220109742,,,,,,,,,,,,
31029,0,USNebraskaChase,Nebraska,Chase,2022-04-28 09:13:11,2022-01-12,1.5670891732890466,3.089289696730803,6.525953220109742,,,,,,,,,,,,
31029,0,USNebraskaChase,Nebraska,Chase,2022-04-28 09:13:11,2022-01-13,1.487191526417163,2.9903187416510866,6.448111090392701,,,,,,,,,,,,
31029,0,USNebraskaChase,Nebraska,Chase,2022-04-28 09:13:11,2022-01-14,1.487191526417163,2.9903187416510866,6.448111090392701,,,,,,,,,,,,
31029,0,USNebraskaChase,Nebraska,Chase,2022-04-28 09:13:11,2022-01-15,1.487191526417163,2.9903187416510866,6.448111090392701,,,,,,,,,,,,
31029,0,USNebraskaChase,Nebraska,Chase,2022-04-28 09:13:11,2022-01-16,1.487191526417163,2.9903187416510866,6.448111090392701,,,,,,,,,,,,
31029,0,USNebraskaChase,Nebraska,Chase,2022-04-28 09:13:11,2022-01-17,1.487191526417163,2.9903187416510866,6.448111090392701,,,,,,,,,,,,
31029,0,USNebraskaChase,Nebraska,Chase,2022-04-28 09:13:11,2022-01-18,1.487191526417163,2.9903187416510866,6.448111090392701,,,,,,,,,,,,
31029,0,USNebraskaChase,Nebraska,Chase,2022-04-28 09:13:11,2022-01-19,1.487191526417163,2.9903187416510866,6.448111090392701,,,,,,,,,,,,
31029,0,USNebraskaChase,Nebraska,Chase,2022-04-28 09:13:11,2022-01-20,1.8227352416901983,3.4551746612197105,7.005463007705286,,,,,,,,,,,,
31029,0,USNebraskaChase,Nebraska,Chase,2022-04-28 09:13:11,2022-01-21,1.8227352416901983,3.4551746612197105,7.005463007705286,,,,,,,,,,,,
31029,0,USNebraskaChase,Nebraska,Chase,2022-04-28 09:13:11,2022-01-22,1.8227352416901983,3.4551746612197105,7.005463007705286,,,,,,,,,,,,
31029,0,USNebraskaChase,Nebraska,Chase,2022-04-28 09:13:11,2022-01-23,1.8227352416901983,3.4551746612197105,7.005463007705286,,,,,,,,,,,,
31029,0,USNebraskaChase,Nebraska,Chase,2022-04-28 09:13:11,2022-01-24,1.8227352416901983,3.4551746612197105,7.005463007705286,,,,,,,,,,,,
31029,0,USNebraskaChase,Nebraska,Chase,2022-04-28 09:13:11,2022-01-25,1.8227352416901983,3.4551746612197105,7.005463007705286,,,,,,,,,,,,
31029,0,USNebraskaChase,Nebraska,Chase,2022-04-28 09:13:11,2022-01-26,1.8227352416901983,3.4551746612197105,7.005463007705286,,,,,,,,,,,,
31029,0,USNebraskaChase,Nebraska,Chase,2022-04-28 09:13:11,2022-01-27,0.8917663714108558,1.9756833667283111,4.706522112356974,,,,,,,,,,,,
31029,0,USNebraskaChase,Nebraska,Chase,2022-04-28 09:13:11,2022-01-28,0.8917663714108558,1.9756833667283111,4.706522112356974,,,,,,,,,,,,
31029,0,USNebraskaChase,Nebraska,Chase,2022-04-28 09:13:11,2022-01-29,0.8917663714108558,1.9756833667283111,4.706522112356974,,,,,,,,,,,,
31029,0,USNebraskaChase,Nebraska,Chase,2022-04-28 09:13:11,2022-01-30,0.8917663714108558,1.9756833667283111,4.706522112356974,,,,,,,,,,,,
31029,0,USNebraskaChase,Nebraska,Chase,2022-04-28 09:13:11,2022-01-31,0.8917663714108558,1.9756833667283111,4.706522112356974,,,,,,,,,,,,
31029,0,USNebraskaChase,Nebraska,Chase,2022-04-28 09:13:11,2022-02-01,0.8917663714108558,1.9756833667283111,4.706522112356974,,,,,,,,,,,,
31029,0,USNebraskaChase,Nebraska,Chase,2022-04-28 09:13:11,2022-02-02,0.8917663714108558,1.9756833667283111,4.706522112356974,,,,,,,,,,,,
31029,0,USNebraskaChase,Nebraska,Chase,2022-04-28 09:13:11,2022-02-03,0.7997637000563468,1.4220297429299362,2.694105250698327,,,,,,,,,,,,
31029,0,USNebraskaChase,Nebraska,Chase,2022-04-28 09:13:11,2022-02-04,0.7997637000563468,1.4220297429299362,2.694105250698327,,,,,,,,,,,,
31029,0,USNebraskaChase,Nebraska,Chase,2022-04-28 09:13:11,2022-02-05,0.7997637000563468,1.4220297429299362,2.694105250698327,,,,,,,,,,,,
31029,0,USNebraskaChase,Nebraska,Chase,2022-04-28 09:13:11,2022-02-06,0.7997637000563468,1.4220297429299362,2.694105250698327,,,,,,,,,,,,
31029,0,USNebraskaChase,Nebraska,Chase,2022-04-28 09:13:11,2022-02-07,0.7997637000563468,1.4220297429299362,2.694105250698327,,,,,,,,,,,,
31029,0,USNebraskaChase,Nebraska,Chase,2022-04-28 09:13:11,2022-02-08,0.7997637000563468,1.4220297429299362,2.694105250698327,,,,,,,,,,,,
31029,0,USNebraskaChase,Nebraska,Chase,2022-04-28 09:13:11,2022-02-09,0.7997637000563468,1.4220297429299362,2.694105250698327,,,,,,,,,,,,
31029,0,USNebraskaChase,Nebraska,Chase,2022-04-28 09:13:11,2022-02-10,0.3363300337531571,0.6639682592011302,1.404673540806119,,,,,,,,,,,,
31029,0,USNebraskaChase,Nebraska,Chase,2022-04-28 09:13:11,2022-02-11,0.3363300337531571,0.6639682592011302,1.404673540806119,,,,,,,,,,,,
31029,0,USNebraskaChase,Nebraska,Chase,2022-04-28 09:13:11,2022-02-12,0.3363300337531571,0.6639682592011302,1.404673540806119,,,,,,,,,,,,
31029,0,USNebraskaChase,Nebraska,Chase,2022-04-28 09:13:11,2022-02-13,0.3363300337531571,0.6639682592011302,1.404673540806119,,,,,,,,,,,,
31029,0,USNebraskaChase,Nebraska,Chase,2022-04-28 09:13:11,2022-02-14,0.3363300337531571,0.6639682592011302,1.404673540806119,,,,,,,,,,,,
31029,0,USNebraskaChase,Nebraska,Chase,2022-04-28 09:13:11,2022-02-15,0.3363300337531571,0.6639682592011302,1.404673540806119,,,,,,,,,,,,
31029,0,USNebraskaChase,Nebraska,Chase,2022-04-28 09:13:11,2022-02-16,0.3363300337531571,0.6639682592011302,1.404673540806119,,,,,,,,,,,,
31029,0,USNebraskaChase,Nebraska,Chase,2022-04-28 09:13:11,2022-02-17,0,0,0,,,,,,,,,,,,
31029,0,USNebraskaChase,Nebraska,Chase,2022-04-28 09:13:11,2022-02-18,0,0,0,,,,,,,,,,,,
31029,0,USNebraskaChase,Nebraska,Chase,2022-04-28 09:13:11,2022-02-19,0,0,0,,,,,,,,,,,,
31029,0,USNebraskaChase,Nebraska,Chase,2022-04-28 09:13:11,2022-02-20,0,0,0,,,,,,,,,,,,
31029,0,USNebraskaChase,Nebraska,Chase,2022-04-28 09:13:11,2022-02-21,0,0,0,,,,,,,,,,,,
31029,0,USNebraskaChase,Nebraska,Chase,2022-04-28 09:13:11,2022-02-22,0,0,0,,,,,,,,,,,,
31029,0,USNebraskaChase,Nebraska,Chase,2022-04-28 09:13:11,2022-02-23,0,0,0,,,,,,,,,,,,
31029,0,USNebraskaChase,Nebraska,Chase,2022-04-28 09:13:11,2022-02-24,2.1561530165765315,3.7647015826661847,6.994953365484916,,,,,,,,,,,,
31029,0,USNebraskaChase,Nebraska,Chase,2022-04-28 09:13:11,2022-02-25,2.1561530165765315,3.7647015826661847,6.994953365484916,,,,,,,,,,,,
31029,0,USNebraskaChase,Nebraska,Chase,2022-04-28 09:13:11,2022-02-26,2.1561530165765315,3.7647015826661847,6.994953365484916,,,,,,,,,,,,
31029,0,USNebraskaChase,Nebraska,Chase,2022-04-28 09:13:11,2022-02-27,2.1561530165765315,3.7647015826661847,6.994953365484916,,,,,,,,,,,,
31029,0,USNebraskaChase,Nebraska,Chase,2022-04-28 09:13:11,2022-02-28,2.1561530165765315,3.7647015826661847,6.994953365484916,,,,,,,,,,,,
31029,0,USNebraskaChase,Nebraska,Chase,2022-04-28 09:13:11,2022-03-01,2.1561530165765315,3.7647015826661847,6.994953365484916,,,,,,,,,,,,
31029,0,USNebraskaChase,Nebraska,Chase,2022-04-28 09:13:11,2022-03-02,2.1561530165765315,3.7647015826661847,6.994953365484916,,,,,,,,,,,,
31029,0,USNebraskaChase,Nebraska,Chase,2022-04-28 09:13:11,2022-03-03,0.22129364991288644,0.4316814187093793,0.9019426541577182,,,,,,,,,,,,
31029,0,USNebraskaChase,Nebraska,Chase,2022-04-28 09:13:11,2022-03-04,0.22129364991288644,0.4316814187093793,0.9019426541577182,,,,,,,,,,,,
31029,0,USNebraskaChase,Nebraska,Chase,2022-04-28 09:13:11,2022-03-05,0.22129364991288644,0.4316814187093793,0.9019426541577182,,,,,,,,,,,,
31029,0,USNebraskaChase,Nebraska,Chase,2022-04-28 09:13:11,2022-03-06,0.22129364991288644,0.4316814187093793,0.9019426541577182,,,,,,,,,,,,
31029,0,USNebraskaChase,Nebraska,Chase,2022-04-28 09:13:11,2022-03-07,0.22129364991288644,0.4316814187093793,0.9019426541577182,,,,,,,,,,,,
31029,0,USNebraskaChase,Nebraska,Chase,2022-04-28 09:13:11,2022-03-08,0.22129364991288644,0.4316814187093793,0.9019426541577182,,,,,,,,,,,,
31029,0,USNebraskaChase,Nebraska,Chase,2022-04-28 09:13:11,2022-03-09,0.22129364991288644,0.4316814187093793,0.9019426541577182,,,,,,,,,,,,
31029,0,USNebraskaChase,Nebraska,Chase,2022-04-28 09:13:11,2022-03-10,0.19753829457214372,0.3473655084858649,0.6503496447827793,,,,,,,,,,,,
31029,0,USNebraskaChase,Nebraska,Chase,2022-04-28 09:13:11,2022-03-11,0.19753829457214372,0.3473655084858649,0.6503496447827793,,,,,,,,,,,,
31029,0,USNebraskaChase,Nebraska,Chase,2022-04-28 09:13:11,2022-03-12,0.19753829457214372,0.3473655084858649,0.6503496447827793,,,,,,,,,,,,
31029,0,USNebraskaChase,Nebraska,Chase,2022-04-28 09:13:11,2022-03-13,0.19753829457214372,0.3473655084858649,0.6503496447827793,,,,,,,,,,,,
31029,0,USNebraskaChase,Nebraska,Chase,2022-04-28 09:13:11,2022-03-14,0.19753829457214372,0.3473655084858649,0.6503496447827793,,,,,,,,,,,,
31029,0,USNebraskaChase,Nebraska,Chase,2022-04-28 09:13:11,2022-03-15,0.19753829457214372,0.3473655084858649,0.6503496447827793,,,,,,,,,,,,
31029,0,USNebraskaChase,Nebraska,Chase,2022-04-28 09:13:11,2022-03-16,0.19753829457214372,0.3473655084858649,0.6503496447827793,,,,,,,,,,,,
31029,0,USNebraskaChase,Nebraska,Chase,2022-04-28 09:13:11,2022-03-17,0.17057403950719077,0.26218048615618733,0.4239486833181494,,,,,,,,,,,,
31029,0,USNebraskaChase,Nebraska,Chase,2022-04-28 09:13:11,2022-03-18,0.17057403950719077,0.26218048615618733,0.4239486833181494,,,,,,,,,,,,
31029,0,USNebraskaChase,Nebraska,Chase,2022-04-28 09:13:11,2022-03-19,0.17057403950719077,0.26218048615618733,0.4239486833181494,,,,,,,,,,,,
31029,0,USNebraskaChase,Nebraska,Chase,2022-04-28 09:13:11,2022-03-20,0.17057403950719077,0.26218048615618733,0.4239486833181494,,,,,,,,,,,,
31029,0,USNebraskaChase,Nebraska,Chase,2022-04-28 09:13:11,2022-03-21,0.17057403950719077,0.26218048615618733,0.4239486833181494,,,,,,,,,,,,
31029,0,USNebraskaChase,Nebraska,Chase,2022-04-28 09:13:11,2022-03-22,0.17057403950719077,0.26218048615618733,0.4239486833181494,,,,,,,,,,,,
31029,0,USNebraskaChase,Nebraska,Chase,2022-04-28 09:13:11,2022-03-23,0.17057403950719077,0.26218048615618733,0.4239486833181494,,,,,,,,,,,,
31029,0,USNebraskaChase,Nebraska,Chase,2022-04-28 09:13:11,2022-03-24,0.30073263351573304,0.5360626514508993,1.018317089372193,,,,,,,,,,,,
31029,0,USNebraskaChase,Nebraska,Chase,2022-04-28 09:13:11,2022-03-25,0.30073263351573304,0.5360626514508993,1.018317089372193,,,,,,,,,,,,
31029,0,USNebraskaChase,Nebraska,Chase,2022-04-28 09:13:11,2022-03-26,0.30073263351573304,0.5360626514508993,1.018317089372193,,,,,,,,,,,,
31029,0,USNebraskaChase,Nebraska,Chase,2022-04-28 09:13:11,2022-03-27,0.30073263351573304,0.5360626514508993,1.018317089372193,,,,,,,,,,,,
31029,0,USNebraskaChase,Nebraska,Chase,2022-04-28 09:13:11,2022-03-28,0.30073263351573304,0.5360626514508993,1.018317089372193,,,,,,,,,,,,
31029,0,USNebraskaChase,Nebraska,Chase,2022-04-28 09:13:11,2022-03-29,0.30073263351573304,0.5360626514508993,1.018317089372193,,,,,,,,,,,,
31029,0,USNebraskaChase,Nebraska,Chase,2022-04-28 09:13:11,2022-03-30,0.30073263351573304,0.5360626514508993,1.018317089372193,,,,,,,,,,,,
31029,0,USNebraskaChase,Nebraska,Chase,2022-04-28 09:13:11,2022-03-31,0.21644353511022507,0.41378507915270063,0.8464712559895015,,,,,,,,,,,,
31029,0,USNebraskaChase,Nebraska,Chase,2022-04-28 09:13:11,2022-04-01,0.21644353511022507,0.41378507915270063,0.8464712559895015,,,,,,,,,,,,
31029,0,USNebraskaChase,Nebraska,Chase,2022-04-28 09:13:11,2022-04-02,0.21644353511022507,0.41378507915270063,0.8464712559895015,,,,,,,,,,,,
31029,0,USNebraskaChase,Nebraska,Chase,2022-04-28 09:13:11,2022-04-03,0.21644353511022507,0.41378507915270063,0.8464712559895015,,,,,,,,,,,,
31029,0,USNebraskaChase,Nebraska,Chase,2022-04-28 09:13:11,2022-04-04,0.21644353511022507,0.41378507915270063,0.8464712559895015,,,,,,,,,,,,
31029,0,USNebraskaChase,Nebraska,Chase,2022-04-28 09:13:11,2022-04-05,0.21644353511022507,0.41378507915270063,0.8464712559895015,,,,,,,,,,,,
31029,0,USNebraskaChase,Nebraska,Chase,2022-04-28 09:13:11,2022-04-06,0.21644353511022507,0.41378507915270063,0.8464712559895015,,,,,,,,,,,,
31029,0,USNebraskaChase,Nebraska,Chase,2022-04-28 09:13:11,2022-04-07,0.21628032901612085,0.7556731646766873,2.8199639757384096,,,,,,,,,,,,
31029,0,USNebraskaChase,Nebraska,Chase,2022-04-28 09:13:11,2022-04-08,0.21628032901612085,0.7556731646766873,2.8199639757384096,,,,,,,,,,,,
31029,0,USNebraskaChase,Nebraska,Chase,2022-04-28 09:13:11,2022-04-09,0.21628032901612085,0.7556731646766873,2.8199639757384096,,,,,,,,,,,,
31029,0,USNebraskaChase,Nebraska,Chase,2022-04-28 09:13:11,2022-04-10,0.21628032901612085,0.7556731646766873,2.8199639757384096,,,,,,,,,,,,
31029,0,USNebraskaChase,Nebraska,Chase,2022-04-28 09:13:11,2022-04-11,0.21628032901612085,0.7556731646766873,2.8199639757384096,,,,,,,,,,,,
31029,0,USNebraskaChase,Nebraska,Chase,2022-04-28 09:13:11,2022-04-12,0.21628032901612085,0.7556731646766873,2.8199639757384096,,,,,,,,,,,,
31029,0,USNebraskaChase,Nebraska,Chase,2022-04-28 09:13:11,2022-04-13,0.21628032901612085,0.7556731646766873,2.8199639757384096,,,,,,,,,,,,
