FIPS,HR_UID,nameid,province,region,analysisTime,dates,pointprevalence_025,pointprevalence_50,pointprevalence_975,pointinfections_025,pointinfections_50,pointinfections_975,pointinfectious_025,pointinfectious_50,pointinfectious_975,pointinfectiousprevalence_025,pointinfectiousprevalence_50,pointinfectiousprevalence_975,infectrate_025,infectrate_50,infectrate_975
48283,0,USTexasLaSalle,Texas,LaSalle,2022-04-28 09:13:11,2020-03-19,0,0,0,,,,,,,,,,,,
48283,0,USTexasLaSalle,Texas,LaSalle,2022-04-28 09:13:11,2020-03-20,0,0,0,,,,,,,,,,,,
48283,0,USTexasLaSalle,Texas,LaSalle,2022-04-28 09:13:11,2020-03-21,0,0,0,,,,,,,,,,,,
48283,0,USTexasLaSalle,Texas,LaSalle,2022-04-28 09:13:11,2020-03-22,0,0,0,,,,,,,,,,,,
48283,0,USTexasLaSalle,Texas,LaSalle,2022-04-28 09:13:11,2020-03-23,0,0,0,,,,,,,,,,,,
48283,0,USTexasLaSalle,Texas,LaSalle,2022-04-28 09:13:11,2020-03-24,0,0,0,,,,,,,,,,,,
48283,0,USTexasLaSalle,Texas,LaSalle,2022-04-28 09:13:11,2020-03-25,0,0,0,,,,,,,,,,,,
48283,0,USTexasLaSalle,Texas,LaSalle,2022-04-28 09:13:11,2020-03-26,0,0,0,,,,,,,,,,,,
48283,0,USTexasLaSalle,Texas,LaSalle,2022-04-28 09:13:11,2020-03-27,0,0,0,,,,,,,,,,,,
48283,0,USTexasLaSalle,Texas,LaSalle,2022-04-28 09:13:11,2020-03-28,0,0,0,,,,,,,,,,,,
48283,0,USTexasLaSalle,Texas,LaSalle,2022-04-28 09:13:11,2020-03-29,0,0,0,,,,,,,,,,,,
48283,0,USTexasLaSalle,Texas,LaSalle,2022-04-28 09:13:11,2020-03-30,0,0,0,,,,,,,,,,,,
48283,0,USTexasLaSalle,Texas,LaSalle,2022-04-28 09:13:11,2020-03-31,0,0,0,,,,,,,,,,,,
48283,0,USTexasLaSalle,Texas,LaSalle,2022-04-28 09:13:11,2020-04-01,0,0,0,,,,,,,,,,,,
48283,0,USTexasLaSalle,Texas,LaSalle,2022-04-28 09:13:11,2020-04-02,0,0,0,,,,,,,,,,,,
48283,0,USTexasLaSalle,Texas,LaSalle,2022-04-28 09:13:11,2020-04-03,0,0,0,,,,,,,,,,,,
48283,0,USTexasLaSalle,Texas,LaSalle,2022-04-28 09:13:11,2020-04-04,0,0,0,,,,,,,,,,,,
48283,0,USTexasLaSalle,Texas,LaSalle,2022-04-28 09:13:11,2020-04-05,0,0,0,,,,,,,,,,,,
48283,0,USTexasLaSalle,Texas,LaSalle,2022-04-28 09:13:11,2020-04-06,0,0,0,,,,,,,,,,,,
48283,0,USTexasLaSalle,Texas,LaSalle,2022-04-28 09:13:11,2020-04-07,0,0,0,,,,,,,,,,,,
48283,0,USTexasLaSalle,Texas,LaSalle,2022-04-28 09:13:11,2020-04-08,0,0,0,,,,,,,,,,,,
48283,0,USTexasLaSalle,Texas,LaSalle,2022-04-28 09:13:11,2020-04-09,0.10311094130485299,0.3342038361961728,1.1599087033206479,,,,,,,,,,,,
48283,0,USTexasLaSalle,Texas,LaSalle,2022-04-28 09:13:11,2020-04-10,0.10311094130485299,0.3342038361961728,1.1599087033206479,,,,,,,,,,,,
48283,0,USTexasLaSalle,Texas,LaSalle,2022-04-28 09:13:11,2020-04-11,0.10311094130485299,0.3342038361961728,1.1599087033206479,,,,,,,,,,,,
48283,0,USTexasLaSalle,Texas,LaSalle,2022-04-28 09:13:11,2020-04-12,0.10311094130485299,0.3342038361961728,1.1599087033206479,,,,,,,,,,,,
48283,0,USTexasLaSalle,Texas,LaSalle,2022-04-28 09:13:11,2020-04-13,0.10311094130485299,0.3342038361961728,1.1599087033206479,,,,,,,,,,,,
48283,0,USTexasLaSalle,Texas,LaSalle,2022-04-28 09:13:11,2020-04-14,0.10311094130485299,0.3342038361961728,1.1599087033206479,,,,,,,,,,,,
48283,0,USTexasLaSalle,Texas,LaSalle,2022-04-28 09:13:11,2020-04-15,0.10311094130485299,0.3342038361961728,1.1599087033206479,,,,,,,,,,,,
48283,0,USTexasLaSalle,Texas,LaSalle,2022-04-28 09:13:11,2020-04-16,0,0,0,,,,,,,,,,,,
48283,0,USTexasLaSalle,Texas,LaSalle,2022-04-28 09:13:11,2020-04-17,0,0,0,,,,,,,,,,,,
48283,0,USTexasLaSalle,Texas,LaSalle,2022-04-28 09:13:11,2020-04-18,0,0,0,,,,,,,,,,,,
48283,0,USTexasLaSalle,Texas,LaSalle,2022-04-28 09:13:11,2020-04-19,0,0,0,,,,,,,,,,,,
48283,0,USTexasLaSalle,Texas,LaSalle,2022-04-28 09:13:11,2020-04-20,0,0,0,,,,,,,,,,,,
48283,0,USTexasLaSalle,Texas,LaSalle,2022-04-28 09:13:11,2020-04-21,0,0,0,,,,,,,,,,,,
48283,0,USTexasLaSalle,Texas,LaSalle,2022-04-28 09:13:11,2020-04-22,0,0,0,,,,,,,,,,,,
48283,0,USTexasLaSalle,Texas,LaSalle,2022-04-28 09:13:11,2020-04-23,0,0,0,,,,,,,,,,,,
48283,0,USTexasLaSalle,Texas,LaSalle,2022-04-28 09:13:11,2020-04-24,0,0,0,,,,,,,,,,,,
48283,0,USTexasLaSalle,Texas,LaSalle,2022-04-28 09:13:11,2020-04-25,0,0,0,,,,,,,,,,,,
48283,0,USTexasLaSalle,Texas,LaSalle,2022-04-28 09:13:11,2020-04-26,0,0,0,,,,,,,,,,,,
48283,0,USTexasLaSalle,Texas,LaSalle,2022-04-28 09:13:11,2020-04-27,0,0,0,,,,,,,,,,,,
48283,0,USTexasLaSalle,Texas,LaSalle,2022-04-28 09:13:11,2020-04-28,0,0,0,,,,,,,,,,,,
48283,0,USTexasLaSalle,Texas,LaSalle,2022-04-28 09:13:11,2020-04-29,0,0,0,,,,,,,,,,,,
48283,0,USTexasLaSalle,Texas,LaSalle,2022-04-28 09:13:11,2020-04-30,0,0,0,,,,,,,,,,,,
48283,0,USTexasLaSalle,Texas,LaSalle,2022-04-28 09:13:11,2020-05-01,0,0,0,,,,,,,,,,,,
48283,0,USTexasLaSalle,Texas,LaSalle,2022-04-28 09:13:11,2020-05-02,0,0,0,,,,,,,,,,,,
48283,0,USTexasLaSalle,Texas,LaSalle,2022-04-28 09:13:11,2020-05-03,0,0,0,,,,,,,,,,,,
48283,0,USTexasLaSalle,Texas,LaSalle,2022-04-28 09:13:11,2020-05-04,0,0,0,,,,,,,,,,,,
48283,0,USTexasLaSalle,Texas,LaSalle,2022-04-28 09:13:11,2020-05-05,0,0,0,,,,,,,,,,,,
48283,0,USTexasLaSalle,Texas,LaSalle,2022-04-28 09:13:11,2020-05-06,0,0,0,,,,,,,,,,,,
48283,0,USTexasLaSalle,Texas,LaSalle,2022-04-28 09:13:11,2020-05-07,0.15835019655817958,0.40947989975563104,1.1392737158496888,,,,,,,,,,,,
48283,0,USTexasLaSalle,Texas,LaSalle,2022-04-28 09:13:11,2020-05-08,0.15835019655817958,0.40947989975563104,1.1392737158496888,,,,,,,,,,,,
48283,0,USTexasLaSalle,Texas,LaSalle,2022-04-28 09:13:11,2020-05-09,0.15835019655817958,0.40947989975563104,1.1392737158496888,,,,,,,,,,,,
48283,0,USTexasLaSalle,Texas,LaSalle,2022-04-28 09:13:11,2020-05-10,0.15835019655817958,0.40947989975563104,1.1392737158496888,,,,,,,,,,,,
48283,0,USTexasLaSalle,Texas,LaSalle,2022-04-28 09:13:11,2020-05-11,0.15835019655817958,0.40947989975563104,1.1392737158496888,,,,,,,,,,,,
48283,0,USTexasLaSalle,Texas,LaSalle,2022-04-28 09:13:11,2020-05-12,0.15835019655817958,0.40947989975563104,1.1392737158496888,,,,,,,,,,,,
48283,0,USTexasLaSalle,Texas,LaSalle,2022-04-28 09:13:11,2020-05-13,0.15835019655817958,0.40947989975563104,1.1392737158496888,,,,,,,,,,,,
48283,0,USTexasLaSalle,Texas,LaSalle,2022-04-28 09:13:11,2020-05-14,0,0,0,,,,,,,,,,,,
48283,0,USTexasLaSalle,Texas,LaSalle,2022-04-28 09:13:11,2020-05-15,0,0,0,,,,,,,,,,,,
48283,0,USTexasLaSalle,Texas,LaSalle,2022-04-28 09:13:11,2020-05-16,0,0,0,,,,,,,,,,,,
48283,0,USTexasLaSalle,Texas,LaSalle,2022-04-28 09:13:11,2020-05-17,0,0,0,,,,,,,,,,,,
48283,0,USTexasLaSalle,Texas,LaSalle,2022-04-28 09:13:11,2020-05-18,0,0,0,,,,,,,,,,,,
48283,0,USTexasLaSalle,Texas,LaSalle,2022-04-28 09:13:11,2020-05-19,0,0,0,,,,,,,,,,,,
48283,0,USTexasLaSalle,Texas,LaSalle,2022-04-28 09:13:11,2020-05-20,0,0,0,,,,,,,,,,,,
48283,0,USTexasLaSalle,Texas,LaSalle,2022-04-28 09:13:11,2020-05-21,0,0,0,,,,,,,,,,,,
48283,0,USTexasLaSalle,Texas,LaSalle,2022-04-28 09:13:11,2020-05-22,0,0,0,,,,,,,,,,,,
48283,0,USTexasLaSalle,Texas,LaSalle,2022-04-28 09:13:11,2020-05-23,0,0,0,,,,,,,,,,,,
48283,0,USTexasLaSalle,Texas,LaSalle,2022-04-28 09:13:11,2020-05-24,0,0,0,,,,,,,,,,,,
48283,0,USTexasLaSalle,Texas,LaSalle,2022-04-28 09:13:11,2020-05-25,0,0,0,,,,,,,,,,,,
48283,0,USTexasLaSalle,Texas,LaSalle,2022-04-28 09:13:11,2020-05-26,0,0,0,,,,,,,,,,,,
48283,0,USTexasLaSalle,Texas,LaSalle,2022-04-28 09:13:11,2020-05-27,0,0,0,,,,,,,,,,,,
48283,0,USTexasLaSalle,Texas,LaSalle,2022-04-28 09:13:11,2020-05-28,0,0,0,,,,,,,,,,,,
48283,0,USTexasLaSalle,Texas,LaSalle,2022-04-28 09:13:11,2020-05-29,0,0,0,,,,,,,,,,,,
48283,0,USTexasLaSalle,Texas,LaSalle,2022-04-28 09:13:11,2020-05-30,0,0,0,,,,,,,,,,,,
48283,0,USTexasLaSalle,Texas,LaSalle,2022-04-28 09:13:11,2020-05-31,0,0,0,,,,,,,,,,,,
48283,0,USTexasLaSalle,Texas,LaSalle,2022-04-28 09:13:11,2020-06-01,0,0,0,,,,,,,,,,,,
48283,0,USTexasLaSalle,Texas,LaSalle,2022-04-28 09:13:11,2020-06-02,0,0,0,,,,,,,,,,,,
48283,0,USTexasLaSalle,Texas,LaSalle,2022-04-28 09:13:11,2020-06-03,0,0,0,,,,,,,,,,,,
48283,0,USTexasLaSalle,Texas,LaSalle,2022-04-28 09:13:11,2020-06-04,0.1121183465784393,0.3896174245461491,1.4463653258645464,,,,,,,,,,,,
48283,0,USTexasLaSalle,Texas,LaSalle,2022-04-28 09:13:11,2020-06-05,0.1121183465784393,0.3896174245461491,1.4463653258645464,,,,,,,,,,,,
48283,0,USTexasLaSalle,Texas,LaSalle,2022-04-28 09:13:11,2020-06-06,0.1121183465784393,0.3896174245461491,1.4463653258645464,,,,,,,,,,,,
48283,0,USTexasLaSalle,Texas,LaSalle,2022-04-28 09:13:11,2020-06-07,0.1121183465784393,0.3896174245461491,1.4463653258645464,,,,,,,,,,,,
48283,0,USTexasLaSalle,Texas,LaSalle,2022-04-28 09:13:11,2020-06-08,0.1121183465784393,0.3896174245461491,1.4463653258645464,,,,,,,,,,,,
48283,0,USTexasLaSalle,Texas,LaSalle,2022-04-28 09:13:11,2020-06-09,0.1121183465784393,0.3896174245461491,1.4463653258645464,,,,,,,,,,,,
48283,0,USTexasLaSalle,Texas,LaSalle,2022-04-28 09:13:11,2020-06-10,0.1121183465784393,0.3896174245461491,1.4463653258645464,,,,,,,,,,,,
48283,0,USTexasLaSalle,Texas,LaSalle,2022-04-28 09:13:11,2020-06-11,0.10154203199557531,0.3249153777254956,1.1137159628054898,,,,,,,,,,,,
48283,0,USTexasLaSalle,Texas,LaSalle,2022-04-28 09:13:11,2020-06-12,0.10154203199557531,0.3249153777254956,1.1137159628054898,,,,,,,,,,,,
48283,0,USTexasLaSalle,Texas,LaSalle,2022-04-28 09:13:11,2020-06-13,0.10154203199557531,0.3249153777254956,1.1137159628054898,,,,,,,,,,,,
48283,0,USTexasLaSalle,Texas,LaSalle,2022-04-28 09:13:11,2020-06-14,0.10154203199557531,0.3249153777254956,1.1137159628054898,,,,,,,,,,,,
48283,0,USTexasLaSalle,Texas,LaSalle,2022-04-28 09:13:11,2020-06-15,0.10154203199557531,0.3249153777254956,1.1137159628054898,,,,,,,,,,,,
48283,0,USTexasLaSalle,Texas,LaSalle,2022-04-28 09:13:11,2020-06-16,0.10154203199557531,0.3249153777254956,1.1137159628054898,,,,,,,,,,,,
48283,0,USTexasLaSalle,Texas,LaSalle,2022-04-28 09:13:11,2020-06-17,0.10154203199557531,0.3249153777254956,1.1137159628054898,,,,,,,,,,,,
48283,0,USTexasLaSalle,Texas,LaSalle,2022-04-28 09:13:11,2020-06-18,0.10908496380499205,0.37056265206237265,1.3458169088641225,,,,,,,,,,,,
48283,0,USTexasLaSalle,Texas,LaSalle,2022-04-28 09:13:11,2020-06-19,0.10908496380499205,0.37056265206237265,1.3458169088641225,,,,,,,,,,,,
48283,0,USTexasLaSalle,Texas,LaSalle,2022-04-28 09:13:11,2020-06-20,0.10908496380499205,0.37056265206237265,1.3458169088641225,,,,,,,,,,,,
48283,0,USTexasLaSalle,Texas,LaSalle,2022-04-28 09:13:11,2020-06-21,0.10908496380499205,0.37056265206237265,1.3458169088641225,,,,,,,,,,,,
48283,0,USTexasLaSalle,Texas,LaSalle,2022-04-28 09:13:11,2020-06-22,0.10908496380499205,0.37056265206237265,1.3458169088641225,,,,,,,,,,,,
48283,0,USTexasLaSalle,Texas,LaSalle,2022-04-28 09:13:11,2020-06-23,0.10908496380499205,0.37056265206237265,1.3458169088641225,,,,,,,,,,,,
48283,0,USTexasLaSalle,Texas,LaSalle,2022-04-28 09:13:11,2020-06-24,0.10908496380499205,0.37056265206237265,1.3458169088641225,,,,,,,,,,,,
48283,0,USTexasLaSalle,Texas,LaSalle,2022-04-28 09:13:11,2020-06-25,0,0,0,,,,,,,,,,,,
48283,0,USTexasLaSalle,Texas,LaSalle,2022-04-28 09:13:11,2020-06-26,0,0,0,,,,,,,,,,,,
48283,0,USTexasLaSalle,Texas,LaSalle,2022-04-28 09:13:11,2020-06-27,0,0,0,,,,,,,,,,,,
48283,0,USTexasLaSalle,Texas,LaSalle,2022-04-28 09:13:11,2020-06-28,0,0,0,,,,,,,,,,,,
48283,0,USTexasLaSalle,Texas,LaSalle,2022-04-28 09:13:11,2020-06-29,0,0,0,,,,,,,,,,,,
48283,0,USTexasLaSalle,Texas,LaSalle,2022-04-28 09:13:11,2020-06-30,0,0,0,,,,,,,,,,,,
48283,0,USTexasLaSalle,Texas,LaSalle,2022-04-28 09:13:11,2020-07-01,0,0,0,,,,,,,,,,,,
48283,0,USTexasLaSalle,Texas,LaSalle,2022-04-28 09:13:11,2020-07-02,1.5498237852250618,2.574238057597633,4.532061731152883,,,,,,,,,,,,
48283,0,USTexasLaSalle,Texas,LaSalle,2022-04-28 09:13:11,2020-07-03,1.5498237852250618,2.574238057597633,4.532061731152883,,,,,,,,,,,,
48283,0,USTexasLaSalle,Texas,LaSalle,2022-04-28 09:13:11,2020-07-04,1.5498237852250618,2.574238057597633,4.532061731152883,,,,,,,,,,,,
48283,0,USTexasLaSalle,Texas,LaSalle,2022-04-28 09:13:11,2020-07-05,1.5498237852250618,2.574238057597633,4.532061731152883,,,,,,,,,,,,
48283,0,USTexasLaSalle,Texas,LaSalle,2022-04-28 09:13:11,2020-07-06,1.5498237852250618,2.574238057597633,4.532061731152883,,,,,,,,,,,,
48283,0,USTexasLaSalle,Texas,LaSalle,2022-04-28 09:13:11,2020-07-07,1.5498237852250618,2.574238057597633,4.532061731152883,,,,,,,,,,,,
48283,0,USTexasLaSalle,Texas,LaSalle,2022-04-28 09:13:11,2020-07-08,1.5498237852250618,2.574238057597633,4.532061731152883,,,,,,,,,,,,
48283,0,USTexasLaSalle,Texas,LaSalle,2022-04-28 09:13:11,2020-07-09,2.3184538699588826,3.56959322889412,5.782861563312728,,,,,,,,,,,,
48283,0,USTexasLaSalle,Texas,LaSalle,2022-04-28 09:13:11,2020-07-10,2.3184538699588826,3.56959322889412,5.782861563312728,,,,,,,,,,,,
48283,0,USTexasLaSalle,Texas,LaSalle,2022-04-28 09:13:11,2020-07-11,2.3184538699588826,3.56959322889412,5.782861563312728,,,,,,,,,,,,
48283,0,USTexasLaSalle,Texas,LaSalle,2022-04-28 09:13:11,2020-07-12,2.3184538699588826,3.56959322889412,5.782861563312728,,,,,,,,,,,,
48283,0,USTexasLaSalle,Texas,LaSalle,2022-04-28 09:13:11,2020-07-13,2.3184538699588826,3.56959322889412,5.782861563312728,,,,,,,,,,,,
48283,0,USTexasLaSalle,Texas,LaSalle,2022-04-28 09:13:11,2020-07-14,2.3184538699588826,3.56959322889412,5.782861563312728,,,,,,,,,,,,
48283,0,USTexasLaSalle,Texas,LaSalle,2022-04-28 09:13:11,2020-07-15,2.3184538699588826,3.56959322889412,5.782861563312728,,,,,,,,,,,,
48283,0,USTexasLaSalle,Texas,LaSalle,2022-04-28 09:13:11,2020-07-16,8.070424350409061,9.805253531838332,12.15029258970149,,,,,,,,,,,,
48283,0,USTexasLaSalle,Texas,LaSalle,2022-04-28 09:13:11,2020-07-17,8.070424350409061,9.805253531838332,12.15029258970149,,,,,,,,,,,,
48283,0,USTexasLaSalle,Texas,LaSalle,2022-04-28 09:13:11,2020-07-18,8.070424350409061,9.805253531838332,12.15029258970149,,,,,,,,,,,,
48283,0,USTexasLaSalle,Texas,LaSalle,2022-04-28 09:13:11,2020-07-19,8.070424350409061,9.805253531838332,12.15029258970149,,,,,,,,,,,,
48283,0,USTexasLaSalle,Texas,LaSalle,2022-04-28 09:13:11,2020-07-20,8.070424350409061,9.805253531838332,12.15029258970149,,,,,,,,,,,,
48283,0,USTexasLaSalle,Texas,LaSalle,2022-04-28 09:13:11,2020-07-21,8.070424350409061,9.805253531838332,12.15029258970149,,,,,,,,,,,,
48283,0,USTexasLaSalle,Texas,LaSalle,2022-04-28 09:13:11,2020-07-22,8.070424350409061,9.805253531838332,12.15029258970149,,,,,,,,,,,,
48283,0,USTexasLaSalle,Texas,LaSalle,2022-04-28 09:13:11,2020-07-23,3.403516326412057,5.137950541870407,8.143687876264691,,,,,,,,,,,,
48283,0,USTexasLaSalle,Texas,LaSalle,2022-04-28 09:13:11,2020-07-24,3.403516326412057,5.137950541870407,8.143687876264691,,,,,,,,,,,,
48283,0,USTexasLaSalle,Texas,LaSalle,2022-04-28 09:13:11,2020-07-25,3.403516326412057,5.137950541870407,8.143687876264691,,,,,,,,,,,,
48283,0,USTexasLaSalle,Texas,LaSalle,2022-04-28 09:13:11,2020-07-26,3.403516326412057,5.137950541870407,8.143687876264691,,,,,,,,,,,,
48283,0,USTexasLaSalle,Texas,LaSalle,2022-04-28 09:13:11,2020-07-27,3.403516326412057,5.137950541870407,8.143687876264691,,,,,,,,,,,,
48283,0,USTexasLaSalle,Texas,LaSalle,2022-04-28 09:13:11,2020-07-28,3.403516326412057,5.137950541870407,8.143687876264691,,,,,,,,,,,,
48283,0,USTexasLaSalle,Texas,LaSalle,2022-04-28 09:13:11,2020-07-29,3.403516326412057,5.137950541870407,8.143687876264691,,,,,,,,,,,,
48283,0,USTexasLaSalle,Texas,LaSalle,2022-04-28 09:13:11,2020-07-30,1.1870581054472487,2.4872421333845365,5.596588366159375,,,,,,,,,,,,
48283,0,USTexasLaSalle,Texas,LaSalle,2022-04-28 09:13:11,2020-07-31,1.1870581054472487,2.4872421333845365,5.596588366159375,,,,,,,,,,,,
48283,0,USTexasLaSalle,Texas,LaSalle,2022-04-28 09:13:11,2020-08-01,1.1870581054472487,2.4872421333845365,5.596588366159375,,,,,,,,,,,,
48283,0,USTexasLaSalle,Texas,LaSalle,2022-04-28 09:13:11,2020-08-02,1.1870581054472487,2.4872421333845365,5.596588366159375,,,,,,,,,,,,
48283,0,USTexasLaSalle,Texas,LaSalle,2022-04-28 09:13:11,2020-08-03,1.1870581054472487,2.4872421333845365,5.596588366159375,,,,,,,,,,,,
48283,0,USTexasLaSalle,Texas,LaSalle,2022-04-28 09:13:11,2020-08-04,1.1870581054472487,2.4872421333845365,5.596588366159375,,,,,,,,,,,,
48283,0,USTexasLaSalle,Texas,LaSalle,2022-04-28 09:13:11,2020-08-05,1.1870581054472487,2.4872421333845365,5.596588366159375,,,,,,,,,,,,
48283,0,USTexasLaSalle,Texas,LaSalle,2022-04-28 09:13:11,2020-08-06,1.1801517242441235,2.8677671925852333,7.499447031868141,,,,,,,,,,,,
48283,0,USTexasLaSalle,Texas,LaSalle,2022-04-28 09:13:11,2020-08-07,1.1801517242441235,2.8677671925852333,7.499447031868141,,,,,,,,,,,,
48283,0,USTexasLaSalle,Texas,LaSalle,2022-04-28 09:13:11,2020-08-08,1.1801517242441235,2.8677671925852333,7.499447031868141,,,,,,,,,,,,
48283,0,USTexasLaSalle,Texas,LaSalle,2022-04-28 09:13:11,2020-08-09,1.1801517242441235,2.8677671925852333,7.499447031868141,,,,,,,,,,,,
48283,0,USTexasLaSalle,Texas,LaSalle,2022-04-28 09:13:11,2020-08-10,1.1801517242441235,2.8677671925852333,7.499447031868141,,,,,,,,,,,,
48283,0,USTexasLaSalle,Texas,LaSalle,2022-04-28 09:13:11,2020-08-11,1.1801517242441235,2.8677671925852333,7.499447031868141,,,,,,,,,,,,
48283,0,USTexasLaSalle,Texas,LaSalle,2022-04-28 09:13:11,2020-08-12,1.1801517242441235,2.8677671925852333,7.499447031868141,,,,,,,,,,,,
48283,0,USTexasLaSalle,Texas,LaSalle,2022-04-28 09:13:11,2020-08-13,0.6992497234070887,1.7786003343738983,4.86806190365394,,,,,,,,,,,,
48283,0,USTexasLaSalle,Texas,LaSalle,2022-04-28 09:13:11,2020-08-14,0.6992497234070887,1.7786003343738983,4.86806190365394,,,,,,,,,,,,
48283,0,USTexasLaSalle,Texas,LaSalle,2022-04-28 09:13:11,2020-08-15,0.6992497234070887,1.7786003343738983,4.86806190365394,,,,,,,,,,,,
48283,0,USTexasLaSalle,Texas,LaSalle,2022-04-28 09:13:11,2020-08-16,0.6992497234070887,1.7786003343738983,4.86806190365394,,,,,,,,,,,,
48283,0,USTexasLaSalle,Texas,LaSalle,2022-04-28 09:13:11,2020-08-17,0.6992497234070887,1.7786003343738983,4.86806190365394,,,,,,,,,,,,
48283,0,USTexasLaSalle,Texas,LaSalle,2022-04-28 09:13:11,2020-08-18,0.6992497234070887,1.7786003343738983,4.86806190365394,,,,,,,,,,,,
48283,0,USTexasLaSalle,Texas,LaSalle,2022-04-28 09:13:11,2020-08-19,0.6992497234070887,1.7786003343738983,4.86806190365394,,,,,,,,,,,,
48283,0,USTexasLaSalle,Texas,LaSalle,2022-04-28 09:13:11,2020-08-20,0.26305069923076546,0.7430989912597531,2.2558116307443004,,,,,,,,,,,,
48283,0,USTexasLaSalle,Texas,LaSalle,2022-04-28 09:13:11,2020-08-21,0.26305069923076546,0.7430989912597531,2.2558116307443004,,,,,,,,,,,,
48283,0,USTexasLaSalle,Texas,LaSalle,2022-04-28 09:13:11,2020-08-22,0.26305069923076546,0.7430989912597531,2.2558116307443004,,,,,,,,,,,,
48283,0,USTexasLaSalle,Texas,LaSalle,2022-04-28 09:13:11,2020-08-23,0.26305069923076546,0.7430989912597531,2.2558116307443004,,,,,,,,,,,,
48283,0,USTexasLaSalle,Texas,LaSalle,2022-04-28 09:13:11,2020-08-24,0.26305069923076546,0.7430989912597531,2.2558116307443004,,,,,,,,,,,,
48283,0,USTexasLaSalle,Texas,LaSalle,2022-04-28 09:13:11,2020-08-25,0.26305069923076546,0.7430989912597531,2.2558116307443004,,,,,,,,,,,,
48283,0,USTexasLaSalle,Texas,LaSalle,2022-04-28 09:13:11,2020-08-26,0.26305069923076546,0.7430989912597531,2.2558116307443004,,,,,,,,,,,,
48283,0,USTexasLaSalle,Texas,LaSalle,2022-04-28 09:13:11,2020-08-27,0.1181298505532159,0.4285401159956169,1.6580834030093483,,,,,,,,,,,,
48283,0,USTexasLaSalle,Texas,LaSalle,2022-04-28 09:13:11,2020-08-28,0.1181298505532159,0.4285401159956169,1.6580834030093483,,,,,,,,,,,,
48283,0,USTexasLaSalle,Texas,LaSalle,2022-04-28 09:13:11,2020-08-29,0.1181298505532159,0.4285401159956169,1.6580834030093483,,,,,,,,,,,,
48283,0,USTexasLaSalle,Texas,LaSalle,2022-04-28 09:13:11,2020-08-30,0.1181298505532159,0.4285401159956169,1.6580834030093483,,,,,,,,,,,,
48283,0,USTexasLaSalle,Texas,LaSalle,2022-04-28 09:13:11,2020-08-31,0.1181298505532159,0.4285401159956169,1.6580834030093483,,,,,,,,,,,,
48283,0,USTexasLaSalle,Texas,LaSalle,2022-04-28 09:13:11,2020-09-01,0.1181298505532159,0.4285401159956169,1.6580834030093483,,,,,,,,,,,,
48283,0,USTexasLaSalle,Texas,LaSalle,2022-04-28 09:13:11,2020-09-02,0.1181298505532159,0.4285401159956169,1.6580834030093483,,,,,,,,,,,,
48283,0,USTexasLaSalle,Texas,LaSalle,2022-04-28 09:13:11,2020-09-03,0.11293434412850362,0.39481068493298943,1.4741286661271715,,,,,,,,,,,,
48283,0,USTexasLaSalle,Texas,LaSalle,2022-04-28 09:13:11,2020-09-04,0.11293434412850362,0.39481068493298943,1.4741286661271715,,,,,,,,,,,,
48283,0,USTexasLaSalle,Texas,LaSalle,2022-04-28 09:13:11,2020-09-05,0.11293434412850362,0.39481068493298943,1.4741286661271715,,,,,,,,,,,,
48283,0,USTexasLaSalle,Texas,LaSalle,2022-04-28 09:13:11,2020-09-06,0.11293434412850362,0.39481068493298943,1.4741286661271715,,,,,,,,,,,,
48283,0,USTexasLaSalle,Texas,LaSalle,2022-04-28 09:13:11,2020-09-07,0.11293434412850362,0.39481068493298943,1.4741286661271715,,,,,,,,,,,,
48283,0,USTexasLaSalle,Texas,LaSalle,2022-04-28 09:13:11,2020-09-08,0.11293434412850362,0.39481068493298943,1.4741286661271715,,,,,,,,,,,,
48283,0,USTexasLaSalle,Texas,LaSalle,2022-04-28 09:13:11,2020-09-09,0.11293434412850362,0.39481068493298943,1.4741286661271715,,,,,,,,,,,,
48283,0,USTexasLaSalle,Texas,LaSalle,2022-04-28 09:13:11,2020-09-10,0.12701529265144426,0.48884134577115007,2.001925423898119,,,,,,,,,,,,
48283,0,USTexasLaSalle,Texas,LaSalle,2022-04-28 09:13:11,2020-09-11,0.12701529265144426,0.48884134577115007,2.001925423898119,,,,,,,,,,,,
48283,0,USTexasLaSalle,Texas,LaSalle,2022-04-28 09:13:11,2020-09-12,0.12701529265144426,0.48884134577115007,2.001925423898119,,,,,,,,,,,,
48283,0,USTexasLaSalle,Texas,LaSalle,2022-04-28 09:13:11,2020-09-13,0.12701529265144426,0.48884134577115007,2.001925423898119,,,,,,,,,,,,
48283,0,USTexasLaSalle,Texas,LaSalle,2022-04-28 09:13:11,2020-09-14,0.12701529265144426,0.48884134577115007,2.001925423898119,,,,,,,,,,,,
48283,0,USTexasLaSalle,Texas,LaSalle,2022-04-28 09:13:11,2020-09-15,0.12701529265144426,0.48884134577115007,2.001925423898119,,,,,,,,,,,,
48283,0,USTexasLaSalle,Texas,LaSalle,2022-04-28 09:13:11,2020-09-16,0.12701529265144426,0.48884134577115007,2.001925423898119,,,,,,,,,,,,
48283,0,USTexasLaSalle,Texas,LaSalle,2022-04-28 09:13:11,2020-09-17,0.49295664821647056,1.1497745345268318,2.8854632346968403,,,,,,,,,,,,
48283,0,USTexasLaSalle,Texas,LaSalle,2022-04-28 09:13:11,2020-09-18,0.49295664821647056,1.1497745345268318,2.8854632346968403,,,,,,,,,,,,
48283,0,USTexasLaSalle,Texas,LaSalle,2022-04-28 09:13:11,2020-09-19,0.49295664821647056,1.1497745345268318,2.8854632346968403,,,,,,,,,,,,
48283,0,USTexasLaSalle,Texas,LaSalle,2022-04-28 09:13:11,2020-09-20,0.49295664821647056,1.1497745345268318,2.8854632346968403,,,,,,,,,,,,
48283,0,USTexasLaSalle,Texas,LaSalle,2022-04-28 09:13:11,2020-09-21,0.49295664821647056,1.1497745345268318,2.8854632346968403,,,,,,,,,,,,
48283,0,USTexasLaSalle,Texas,LaSalle,2022-04-28 09:13:11,2020-09-22,0.49295664821647056,1.1497745345268318,2.8854632346968403,,,,,,,,,,,,
48283,0,USTexasLaSalle,Texas,LaSalle,2022-04-28 09:13:11,2020-09-23,0.49295664821647056,1.1497745345268318,2.8854632346968403,,,,,,,,,,,,
48283,0,USTexasLaSalle,Texas,LaSalle,2022-04-28 09:13:11,2020-09-24,0.5554458887904974,1.151026385430278,2.5606146552227615,,,,,,,,,,,,
48283,0,USTexasLaSalle,Texas,LaSalle,2022-04-28 09:13:11,2020-09-25,0.5554458887904974,1.151026385430278,2.5606146552227615,,,,,,,,,,,,
48283,0,USTexasLaSalle,Texas,LaSalle,2022-04-28 09:13:11,2020-09-26,0.5554458887904974,1.151026385430278,2.5606146552227615,,,,,,,,,,,,
48283,0,USTexasLaSalle,Texas,LaSalle,2022-04-28 09:13:11,2020-09-27,0.5554458887904974,1.151026385430278,2.5606146552227615,,,,,,,,,,,,
48283,0,USTexasLaSalle,Texas,LaSalle,2022-04-28 09:13:11,2020-09-28,0.5554458887904974,1.151026385430278,2.5606146552227615,,,,,,,,,,,,
48283,0,USTexasLaSalle,Texas,LaSalle,2022-04-28 09:13:11,2020-09-29,0.5554458887904974,1.151026385430278,2.5606146552227615,,,,,,,,,,,,
48283,0,USTexasLaSalle,Texas,LaSalle,2022-04-28 09:13:11,2020-09-30,0.5554458887904974,1.151026385430278,2.5606146552227615,,,,,,,,,,,,
48283,0,USTexasLaSalle,Texas,LaSalle,2022-04-28 09:13:11,2020-10-01,0.10147527591390987,0.3245225827487603,1.1117745391888776,,,,,,,,,,,,
48283,0,USTexasLaSalle,Texas,LaSalle,2022-04-28 09:13:11,2020-10-02,0.10147527591390987,0.3245225827487603,1.1117745391888776,,,,,,,,,,,,
48283,0,USTexasLaSalle,Texas,LaSalle,2022-04-28 09:13:11,2020-10-03,0.10147527591390987,0.3245225827487603,1.1117745391888776,,,,,,,,,,,,
48283,0,USTexasLaSalle,Texas,LaSalle,2022-04-28 09:13:11,2020-10-04,0.10147527591390987,0.3245225827487603,1.1117745391888776,,,,,,,,,,,,
48283,0,USTexasLaSalle,Texas,LaSalle,2022-04-28 09:13:11,2020-10-05,0.10147527591390987,0.3245225827487603,1.1117745391888776,,,,,,,,,,,,
48283,0,USTexasLaSalle,Texas,LaSalle,2022-04-28 09:13:11,2020-10-06,0.10147527591390987,0.3245225827487603,1.1117745391888776,,,,,,,,,,,,
48283,0,USTexasLaSalle,Texas,LaSalle,2022-04-28 09:13:11,2020-10-07,0.10147527591390987,0.3245225827487603,1.1117745391888776,,,,,,,,,,,,
48283,0,USTexasLaSalle,Texas,LaSalle,2022-04-28 09:13:11,2020-10-08,0.09716484082537037,0.2995816913439731,0.9905410767131766,,,,,,,,,,,,
48283,0,USTexasLaSalle,Texas,LaSalle,2022-04-28 09:13:11,2020-10-09,0.09716484082537037,0.2995816913439731,0.9905410767131766,,,,,,,,,,,,
48283,0,USTexasLaSalle,Texas,LaSalle,2022-04-28 09:13:11,2020-10-10,0.09716484082537037,0.2995816913439731,0.9905410767131766,,,,,,,,,,,,
48283,0,USTexasLaSalle,Texas,LaSalle,2022-04-28 09:13:11,2020-10-11,0.09716484082537037,0.2995816913439731,0.9905410767131766,,,,,,,,,,,,
48283,0,USTexasLaSalle,Texas,LaSalle,2022-04-28 09:13:11,2020-10-12,0.09716484082537037,0.2995816913439731,0.9905410767131766,,,,,,,,,,,,
48283,0,USTexasLaSalle,Texas,LaSalle,2022-04-28 09:13:11,2020-10-13,0.09716484082537037,0.2995816913439731,0.9905410767131766,,,,,,,,,,,,
48283,0,USTexasLaSalle,Texas,LaSalle,2022-04-28 09:13:11,2020-10-14,0.09716484082537037,0.2995816913439731,0.9905410767131766,,,,,,,,,,,,
48283,0,USTexasLaSalle,Texas,LaSalle,2022-04-28 09:13:11,2020-10-15,0.2923935089364682,0.7048898616535495,1.8287231893149878,,,,,,,,,,,,
48283,0,USTexasLaSalle,Texas,LaSalle,2022-04-28 09:13:11,2020-10-16,0.2923935089364682,0.7048898616535495,1.8287231893149878,,,,,,,,,,,,
48283,0,USTexasLaSalle,Texas,LaSalle,2022-04-28 09:13:11,2020-10-17,0.2923935089364682,0.7048898616535495,1.8287231893149878,,,,,,,,,,,,
48283,0,USTexasLaSalle,Texas,LaSalle,2022-04-28 09:13:11,2020-10-18,0.2923935089364682,0.7048898616535495,1.8287231893149878,,,,,,,,,,,,
48283,0,USTexasLaSalle,Texas,LaSalle,2022-04-28 09:13:11,2020-10-19,0.2923935089364682,0.7048898616535495,1.8287231893149878,,,,,,,,,,,,
48283,0,USTexasLaSalle,Texas,LaSalle,2022-04-28 09:13:11,2020-10-20,0.2923935089364682,0.7048898616535495,1.8287231893149878,,,,,,,,,,,,
48283,0,USTexasLaSalle,Texas,LaSalle,2022-04-28 09:13:11,2020-10-21,0.2923935089364682,0.7048898616535495,1.8287231893149878,,,,,,,,,,,,
48283,0,USTexasLaSalle,Texas,LaSalle,2022-04-28 09:13:11,2020-10-22,0,0,0,,,,,,,,,,,,
48283,0,USTexasLaSalle,Texas,LaSalle,2022-04-28 09:13:11,2020-10-23,0,0,0,,,,,,,,,,,,
48283,0,USTexasLaSalle,Texas,LaSalle,2022-04-28 09:13:11,2020-10-24,0,0,0,,,,,,,,,,,,
48283,0,USTexasLaSalle,Texas,LaSalle,2022-04-28 09:13:11,2020-10-25,0,0,0,,,,,,,,,,,,
48283,0,USTexasLaSalle,Texas,LaSalle,2022-04-28 09:13:11,2020-10-26,0,0,0,,,,,,,,,,,,
48283,0,USTexasLaSalle,Texas,LaSalle,2022-04-28 09:13:11,2020-10-27,0,0,0,,,,,,,,,,,,
48283,0,USTexasLaSalle,Texas,LaSalle,2022-04-28 09:13:11,2020-10-28,0,0,0,,,,,,,,,,,,
48283,0,USTexasLaSalle,Texas,LaSalle,2022-04-28 09:13:11,2020-10-29,0.17583344394250944,0.49785092624217014,1.5147012786519727,,,,,,,,,,,,
48283,0,USTexasLaSalle,Texas,LaSalle,2022-04-28 09:13:11,2020-10-30,0.17583344394250944,0.49785092624217014,1.5147012786519727,,,,,,,,,,,,
48283,0,USTexasLaSalle,Texas,LaSalle,2022-04-28 09:13:11,2020-10-31,0.17583344394250944,0.49785092624217014,1.5147012786519727,,,,,,,,,,,,
48283,0,USTexasLaSalle,Texas,LaSalle,2022-04-28 09:13:11,2020-11-01,0.17583344394250944,0.49785092624217014,1.5147012786519727,,,,,,,,,,,,
48283,0,USTexasLaSalle,Texas,LaSalle,2022-04-28 09:13:11,2020-11-02,0.17583344394250944,0.49785092624217014,1.5147012786519727,,,,,,,,,,,,
48283,0,USTexasLaSalle,Texas,LaSalle,2022-04-28 09:13:11,2020-11-03,0.17583344394250944,0.49785092624217014,1.5147012786519727,,,,,,,,,,,,
48283,0,USTexasLaSalle,Texas,LaSalle,2022-04-28 09:13:11,2020-11-04,0.17583344394250944,0.49785092624217014,1.5147012786519727,,,,,,,,,,,,
48283,0,USTexasLaSalle,Texas,LaSalle,2022-04-28 09:13:11,2020-11-05,0.10961354657629518,0.3738545215337933,1.3630376557030652,,,,,,,,,,,,
48283,0,USTexasLaSalle,Texas,LaSalle,2022-04-28 09:13:11,2020-11-06,0.10961354657629518,0.3738545215337933,1.3630376557030652,,,,,,,,,,,,
48283,0,USTexasLaSalle,Texas,LaSalle,2022-04-28 09:13:11,2020-11-07,0.10961354657629518,0.3738545215337933,1.3630376557030652,,,,,,,,,,,,
48283,0,USTexasLaSalle,Texas,LaSalle,2022-04-28 09:13:11,2020-11-08,0.10961354657629518,0.3738545215337933,1.3630376557030652,,,,,,,,,,,,
48283,0,USTexasLaSalle,Texas,LaSalle,2022-04-28 09:13:11,2020-11-09,0.10961354657629518,0.3738545215337933,1.3630376557030652,,,,,,,,,,,,
48283,0,USTexasLaSalle,Texas,LaSalle,2022-04-28 09:13:11,2020-11-10,0.10961354657629518,0.3738545215337933,1.3630376557030652,,,,,,,,,,,,
48283,0,USTexasLaSalle,Texas,LaSalle,2022-04-28 09:13:11,2020-11-11,0.10961354657629518,0.3738545215337933,1.3630376557030652,,,,,,,,,,,,
48283,0,USTexasLaSalle,Texas,LaSalle,2022-04-28 09:13:11,2020-11-12,0.42063564384097735,0.977174385417189,2.4424319649613104,,,,,,,,,,,,
48283,0,USTexasLaSalle,Texas,LaSalle,2022-04-28 09:13:11,2020-11-13,0.42063564384097735,0.977174385417189,2.4424319649613104,,,,,,,,,,,,
48283,0,USTexasLaSalle,Texas,LaSalle,2022-04-28 09:13:11,2020-11-14,0.42063564384097735,0.977174385417189,2.4424319649613104,,,,,,,,,,,,
48283,0,USTexasLaSalle,Texas,LaSalle,2022-04-28 09:13:11,2020-11-15,0.42063564384097735,0.977174385417189,2.4424319649613104,,,,,,,,,,,,
48283,0,USTexasLaSalle,Texas,LaSalle,2022-04-28 09:13:11,2020-11-16,0.42063564384097735,0.977174385417189,2.4424319649613104,,,,,,,,,,,,
48283,0,USTexasLaSalle,Texas,LaSalle,2022-04-28 09:13:11,2020-11-17,0.42063564384097735,0.977174385417189,2.4424319649613104,,,,,,,,,,,,
48283,0,USTexasLaSalle,Texas,LaSalle,2022-04-28 09:13:11,2020-11-18,0.42063564384097735,0.977174385417189,2.4424319649613104,,,,,,,,,,,,
48283,0,USTexasLaSalle,Texas,LaSalle,2022-04-28 09:13:11,2020-11-19,0.6050175877999538,1.353890195829036,3.2582701879224554,,,,,,,,,,,,
48283,0,USTexasLaSalle,Texas,LaSalle,2022-04-28 09:13:11,2020-11-20,0.6050175877999538,1.353890195829036,3.2582701879224554,,,,,,,,,,,,
48283,0,USTexasLaSalle,Texas,LaSalle,2022-04-28 09:13:11,2020-11-21,0.6050175877999538,1.353890195829036,3.2582701879224554,,,,,,,,,,,,
48283,0,USTexasLaSalle,Texas,LaSalle,2022-04-28 09:13:11,2020-11-22,0.6050175877999538,1.353890195829036,3.2582701879224554,,,,,,,,,,,,
48283,0,USTexasLaSalle,Texas,LaSalle,2022-04-28 09:13:11,2020-11-23,0.6050175877999538,1.353890195829036,3.2582701879224554,,,,,,,,,,,,
48283,0,USTexasLaSalle,Texas,LaSalle,2022-04-28 09:13:11,2020-11-24,0.6050175877999538,1.353890195829036,3.2582701879224554,,,,,,,,,,,,
48283,0,USTexasLaSalle,Texas,LaSalle,2022-04-28 09:13:11,2020-11-25,0.6050175877999538,1.353890195829036,3.2582701879224554,,,,,,,,,,,,
48283,0,USTexasLaSalle,Texas,LaSalle,2022-04-28 09:13:11,2020-11-26,0.6461339295651117,1.5330306782516794,3.914050787504538,,,,,,,,,,,,
48283,0,USTexasLaSalle,Texas,LaSalle,2022-04-28 09:13:11,2020-11-27,0.6461339295651117,1.5330306782516794,3.914050787504538,,,,,,,,,,,,
48283,0,USTexasLaSalle,Texas,LaSalle,2022-04-28 09:13:11,2020-11-28,0.6461339295651117,1.5330306782516794,3.914050787504538,,,,,,,,,,,,
48283,0,USTexasLaSalle,Texas,LaSalle,2022-04-28 09:13:11,2020-11-29,0.6461339295651117,1.5330306782516794,3.914050787504538,,,,,,,,,,,,
48283,0,USTexasLaSalle,Texas,LaSalle,2022-04-28 09:13:11,2020-11-30,0.6461339295651117,1.5330306782516794,3.914050787504538,,,,,,,,,,,,
48283,0,USTexasLaSalle,Texas,LaSalle,2022-04-28 09:13:11,2020-12-01,0.6461339295651117,1.5330306782516794,3.914050787504538,,,,,,,,,,,,
48283,0,USTexasLaSalle,Texas,LaSalle,2022-04-28 09:13:11,2020-12-02,0.6461339295651117,1.5330306782516794,3.914050787504538,,,,,,,,,,,,
48283,0,USTexasLaSalle,Texas,LaSalle,2022-04-28 09:13:11,2020-12-03,1.1170109711349274,2.215086029701233,4.708159510084345,,,,,,,,,,,,
48283,0,USTexasLaSalle,Texas,LaSalle,2022-04-28 09:13:11,2020-12-04,1.1170109711349274,2.215086029701233,4.708159510084345,,,,,,,,,,,,
48283,0,USTexasLaSalle,Texas,LaSalle,2022-04-28 09:13:11,2020-12-05,1.1170109711349274,2.215086029701233,4.708159510084345,,,,,,,,,,,,
48283,0,USTexasLaSalle,Texas,LaSalle,2022-04-28 09:13:11,2020-12-06,1.1170109711349274,2.215086029701233,4.708159510084345,,,,,,,,,,,,
48283,0,USTexasLaSalle,Texas,LaSalle,2022-04-28 09:13:11,2020-12-07,1.1170109711349274,2.215086029701233,4.708159510084345,,,,,,,,,,,,
48283,0,USTexasLaSalle,Texas,LaSalle,2022-04-28 09:13:11,2020-12-08,1.1170109711349274,2.215086029701233,4.708159510084345,,,,,,,,,,,,
48283,0,USTexasLaSalle,Texas,LaSalle,2022-04-28 09:13:11,2020-12-09,1.1170109711349274,2.215086029701233,4.708159510084345,,,,,,,,,,,,
48283,0,USTexasLaSalle,Texas,LaSalle,2022-04-28 09:13:11,2020-12-10,3.7448107189788153,6.243877327359107,11.038284570225366,,,,,,,,,,,,
48283,0,USTexasLaSalle,Texas,LaSalle,2022-04-28 09:13:11,2020-12-11,3.7448107189788153,6.243877327359107,11.038284570225366,,,,,,,,,,,,
48283,0,USTexasLaSalle,Texas,LaSalle,2022-04-28 09:13:11,2020-12-12,3.7448107189788153,6.243877327359107,11.038284570225366,,,,,,,,,,,,
48283,0,USTexasLaSalle,Texas,LaSalle,2022-04-28 09:13:11,2020-12-13,3.7448107189788153,6.243877327359107,11.038284570225366,,,,,,,,,,,,
48283,0,USTexasLaSalle,Texas,LaSalle,2022-04-28 09:13:11,2020-12-14,3.7448107189788153,6.243877327359107,11.038284570225366,,,,,,,,,,,,
48283,0,USTexasLaSalle,Texas,LaSalle,2022-04-28 09:13:11,2020-12-15,3.7448107189788153,6.243877327359107,11.038284570225366,,,,,,,,,,,,
48283,0,USTexasLaSalle,Texas,LaSalle,2022-04-28 09:13:11,2020-12-16,3.7448107189788153,6.243877327359107,11.038284570225366,,,,,,,,,,,,
48283,0,USTexasLaSalle,Texas,LaSalle,2022-04-28 09:13:11,2020-12-17,4.19825646599833,6.35055966761152,10.088402571995356,,,,,,,,,,,,
48283,0,USTexasLaSalle,Texas,LaSalle,2022-04-28 09:13:11,2020-12-18,4.19825646599833,6.35055966761152,10.088402571995356,,,,,,,,,,,,
48283,0,USTexasLaSalle,Texas,LaSalle,2022-04-28 09:13:11,2020-12-19,4.19825646599833,6.35055966761152,10.088402571995356,,,,,,,,,,,,
48283,0,USTexasLaSalle,Texas,LaSalle,2022-04-28 09:13:11,2020-12-20,4.19825646599833,6.35055966761152,10.088402571995356,,,,,,,,,,,,
48283,0,USTexasLaSalle,Texas,LaSalle,2022-04-28 09:13:11,2020-12-21,4.19825646599833,6.35055966761152,10.088402571995356,,,,,,,,,,,,
48283,0,USTexasLaSalle,Texas,LaSalle,2022-04-28 09:13:11,2020-12-22,4.19825646599833,6.35055966761152,10.088402571995356,,,,,,,,,,,,
48283,0,USTexasLaSalle,Texas,LaSalle,2022-04-28 09:13:11,2020-12-23,4.19825646599833,6.35055966761152,10.088402571995356,,,,,,,,,,,,
48283,0,USTexasLaSalle,Texas,LaSalle,2022-04-28 09:13:11,2020-12-24,2.7170696954967286,4.447638559995241,7.706910602362468,,,,,,,,,,,,
48283,0,USTexasLaSalle,Texas,LaSalle,2022-04-28 09:13:11,2020-12-25,2.7170696954967286,4.447638559995241,7.706910602362468,,,,,,,,,,,,
48283,0,USTexasLaSalle,Texas,LaSalle,2022-04-28 09:13:11,2020-12-26,2.7170696954967286,4.447638559995241,7.706910602362468,,,,,,,,,,,,
48283,0,USTexasLaSalle,Texas,LaSalle,2022-04-28 09:13:11,2020-12-27,2.7170696954967286,4.447638559995241,7.706910602362468,,,,,,,,,,,,
48283,0,USTexasLaSalle,Texas,LaSalle,2022-04-28 09:13:11,2020-12-28,2.7170696954967286,4.447638559995241,7.706910602362468,,,,,,,,,,,,
48283,0,USTexasLaSalle,Texas,LaSalle,2022-04-28 09:13:11,2020-12-29,2.7170696954967286,4.447638559995241,7.706910602362468,,,,,,,,,,,,
48283,0,USTexasLaSalle,Texas,LaSalle,2022-04-28 09:13:11,2020-12-30,2.7170696954967286,4.447638559995241,7.706910602362468,,,,,,,,,,,,
48283,0,USTexasLaSalle,Texas,LaSalle,2022-04-28 09:13:11,2020-12-31,3.944491753774416,6.438949965167103,11.123773951874682,,,,,,,,,,,,
48283,0,USTexasLaSalle,Texas,LaSalle,2022-04-28 09:13:11,2021-01-01,3.944491753774416,6.438949965167103,11.123773951874682,,,,,,,,,,,,
48283,0,USTexasLaSalle,Texas,LaSalle,2022-04-28 09:13:11,2021-01-02,3.944491753774416,6.438949965167103,11.123773951874682,,,,,,,,,,,,
48283,0,USTexasLaSalle,Texas,LaSalle,2022-04-28 09:13:11,2021-01-03,3.944491753774416,6.438949965167103,11.123773951874682,,,,,,,,,,,,
48283,0,USTexasLaSalle,Texas,LaSalle,2022-04-28 09:13:11,2021-01-04,3.944491753774416,6.438949965167103,11.123773951874682,,,,,,,,,,,,
48283,0,USTexasLaSalle,Texas,LaSalle,2022-04-28 09:13:11,2021-01-05,3.944491753774416,6.438949965167103,11.123773951874682,,,,,,,,,,,,
48283,0,USTexasLaSalle,Texas,LaSalle,2022-04-28 09:13:11,2021-01-06,3.944491753774416,6.438949965167103,11.123773951874682,,,,,,,,,,,,
48283,0,USTexasLaSalle,Texas,LaSalle,2022-04-28 09:13:11,2021-01-07,2.2489975002177793,3.9248896269539477,7.288761448609514,,,,,,,,,,,,
48283,0,USTexasLaSalle,Texas,LaSalle,2022-04-28 09:13:11,2021-01-08,2.2489975002177793,3.9248896269539477,7.288761448609514,,,,,,,,,,,,
48283,0,USTexasLaSalle,Texas,LaSalle,2022-04-28 09:13:11,2021-01-09,2.2489975002177793,3.9248896269539477,7.288761448609514,,,,,,,,,,,,
48283,0,USTexasLaSalle,Texas,LaSalle,2022-04-28 09:13:11,2021-01-10,2.2489975002177793,3.9248896269539477,7.288761448609514,,,,,,,,,,,,
48283,0,USTexasLaSalle,Texas,LaSalle,2022-04-28 09:13:11,2021-01-11,2.2489975002177793,3.9248896269539477,7.288761448609514,,,,,,,,,,,,
48283,0,USTexasLaSalle,Texas,LaSalle,2022-04-28 09:13:11,2021-01-12,2.2489975002177793,3.9248896269539477,7.288761448609514,,,,,,,,,,,,
48283,0,USTexasLaSalle,Texas,LaSalle,2022-04-28 09:13:11,2021-01-13,2.2489975002177793,3.9248896269539477,7.288761448609514,,,,,,,,,,,,
48283,0,USTexasLaSalle,Texas,LaSalle,2022-04-28 09:13:11,2021-01-14,4.8234199164037825,6.707628545203112,9.6963254638571,,,,,,,,,,,,
48283,0,USTexasLaSalle,Texas,LaSalle,2022-04-28 09:13:11,2021-01-15,4.8234199164037825,6.707628545203112,9.6963254638571,,,,,,,,,,,,
48283,0,USTexasLaSalle,Texas,LaSalle,2022-04-28 09:13:11,2021-01-16,4.8234199164037825,6.707628545203112,9.6963254638571,,,,,,,,,,,,
48283,0,USTexasLaSalle,Texas,LaSalle,2022-04-28 09:13:11,2021-01-17,4.8234199164037825,6.707628545203112,9.6963254638571,,,,,,,,,,,,
48283,0,USTexasLaSalle,Texas,LaSalle,2022-04-28 09:13:11,2021-01-18,4.8234199164037825,6.707628545203112,9.6963254638571,,,,,,,,,,,,
48283,0,USTexasLaSalle,Texas,LaSalle,2022-04-28 09:13:11,2021-01-19,4.8234199164037825,6.707628545203112,9.6963254638571,,,,,,,,,,,,
48283,0,USTexasLaSalle,Texas,LaSalle,2022-04-28 09:13:11,2021-01-20,4.8234199164037825,6.707628545203112,9.6963254638571,,,,,,,,,,,,
48283,0,USTexasLaSalle,Texas,LaSalle,2022-04-28 09:13:11,2021-01-21,0,0,0,,,,,,,,,,,,
48283,0,USTexasLaSalle,Texas,LaSalle,2022-04-28 09:13:11,2021-01-22,0,0,0,,,,,,,,,,,,
48283,0,USTexasLaSalle,Texas,LaSalle,2022-04-28 09:13:11,2021-01-23,0,0,0,,,,,,,,,,,,
48283,0,USTexasLaSalle,Texas,LaSalle,2022-04-28 09:13:11,2021-01-24,0,0,0,,,,,,,,,,,,
48283,0,USTexasLaSalle,Texas,LaSalle,2022-04-28 09:13:11,2021-01-25,0,0,0,,,,,,,,,,,,
48283,0,USTexasLaSalle,Texas,LaSalle,2022-04-28 09:13:11,2021-01-26,0,0,0,,,,,,,,,,,,
48283,0,USTexasLaSalle,Texas,LaSalle,2022-04-28 09:13:11,2021-01-27,0,0,0,,,,,,,,,,,,
48283,0,USTexasLaSalle,Texas,LaSalle,2022-04-28 09:13:11,2021-01-28,0.4133937722670773,1.1100433607914941,3.205696923929186,,,,,,,,,,,,
48283,0,USTexasLaSalle,Texas,LaSalle,2022-04-28 09:13:11,2021-01-29,0.4133937722670773,1.1100433607914941,3.205696923929186,,,,,,,,,,,,
48283,0,USTexasLaSalle,Texas,LaSalle,2022-04-28 09:13:11,2021-01-30,0.4133937722670773,1.1100433607914941,3.205696923929186,,,,,,,,,,,,
48283,0,USTexasLaSalle,Texas,LaSalle,2022-04-28 09:13:11,2021-01-31,0.4133937722670773,1.1100433607914941,3.205696923929186,,,,,,,,,,,,
48283,0,USTexasLaSalle,Texas,LaSalle,2022-04-28 09:13:11,2021-02-01,0.4133937722670773,1.1100433607914941,3.205696923929186,,,,,,,,,,,,
48283,0,USTexasLaSalle,Texas,LaSalle,2022-04-28 09:13:11,2021-02-02,0.4133937722670773,1.1100433607914941,3.205696923929186,,,,,,,,,,,,
48283,0,USTexasLaSalle,Texas,LaSalle,2022-04-28 09:13:11,2021-02-03,0.4133937722670773,1.1100433607914941,3.205696923929186,,,,,,,,,,,,
48283,0,USTexasLaSalle,Texas,LaSalle,2022-04-28 09:13:11,2021-02-04,0.32154404560817723,0.842563022498565,2.3751645908757153,,,,,,,,,,,,
48283,0,USTexasLaSalle,Texas,LaSalle,2022-04-28 09:13:11,2021-02-05,0.32154404560817723,0.842563022498565,2.3751645908757153,,,,,,,,,,,,
48283,0,USTexasLaSalle,Texas,LaSalle,2022-04-28 09:13:11,2021-02-06,0.32154404560817723,0.842563022498565,2.3751645908757153,,,,,,,,,,,,
48283,0,USTexasLaSalle,Texas,LaSalle,2022-04-28 09:13:11,2021-02-07,0.32154404560817723,0.842563022498565,2.3751645908757153,,,,,,,,,,,,
48283,0,USTexasLaSalle,Texas,LaSalle,2022-04-28 09:13:11,2021-02-08,0.32154404560817723,0.842563022498565,2.3751645908757153,,,,,,,,,,,,
48283,0,USTexasLaSalle,Texas,LaSalle,2022-04-28 09:13:11,2021-02-09,0.32154404560817723,0.842563022498565,2.3751645908757153,,,,,,,,,,,,
48283,0,USTexasLaSalle,Texas,LaSalle,2022-04-28 09:13:11,2021-02-10,0.32154404560817723,0.842563022498565,2.3751645908757153,,,,,,,,,,,,
48283,0,USTexasLaSalle,Texas,LaSalle,2022-04-28 09:13:11,2021-02-11,0,0,0,,,,,,,,,,,,
48283,0,USTexasLaSalle,Texas,LaSalle,2022-04-28 09:13:11,2021-02-12,0,0,0,,,,,,,,,,,,
48283,0,USTexasLaSalle,Texas,LaSalle,2022-04-28 09:13:11,2021-02-13,0,0,0,,,,,,,,,,,,
48283,0,USTexasLaSalle,Texas,LaSalle,2022-04-28 09:13:11,2021-02-14,0,0,0,,,,,,,,,,,,
48283,0,USTexasLaSalle,Texas,LaSalle,2022-04-28 09:13:11,2021-02-15,0,0,0,,,,,,,,,,,,
48283,0,USTexasLaSalle,Texas,LaSalle,2022-04-28 09:13:11,2021-02-16,0,0,0,,,,,,,,,,,,
48283,0,USTexasLaSalle,Texas,LaSalle,2022-04-28 09:13:11,2021-02-17,0,0,0,,,,,,,,,,,,
48283,0,USTexasLaSalle,Texas,LaSalle,2022-04-28 09:13:11,2021-02-18,4.189005151545145,5.256260824086205,6.75828641410843,,,,,,,,,,,,
48283,0,USTexasLaSalle,Texas,LaSalle,2022-04-28 09:13:11,2021-02-19,4.189005151545145,5.256260824086205,6.75828641410843,,,,,,,,,,,,
48283,0,USTexasLaSalle,Texas,LaSalle,2022-04-28 09:13:11,2021-02-20,4.189005151545145,5.256260824086205,6.75828641410843,,,,,,,,,,,,
48283,0,USTexasLaSalle,Texas,LaSalle,2022-04-28 09:13:11,2021-02-21,4.189005151545145,5.256260824086205,6.75828641410843,,,,,,,,,,,,
48283,0,USTexasLaSalle,Texas,LaSalle,2022-04-28 09:13:11,2021-02-22,4.189005151545145,5.256260824086205,6.75828641410843,,,,,,,,,,,,
48283,0,USTexasLaSalle,Texas,LaSalle,2022-04-28 09:13:11,2021-02-23,4.189005151545145,5.256260824086205,6.75828641410843,,,,,,,,,,,,
48283,0,USTexasLaSalle,Texas,LaSalle,2022-04-28 09:13:11,2021-02-24,4.189005151545145,5.256260824086205,6.75828641410843,,,,,,,,,,,,
48283,0,USTexasLaSalle,Texas,LaSalle,2022-04-28 09:13:11,2021-02-25,3.0164354036304495,4.387862875942534,6.672755005742376,,,,,,,,,,,,
48283,0,USTexasLaSalle,Texas,LaSalle,2022-04-28 09:13:11,2021-02-26,3.0164354036304495,4.387862875942534,6.672755005742376,,,,,,,,,,,,
48283,0,USTexasLaSalle,Texas,LaSalle,2022-04-28 09:13:11,2021-02-27,3.0164354036304495,4.387862875942534,6.672755005742376,,,,,,,,,,,,
48283,0,USTexasLaSalle,Texas,LaSalle,2022-04-28 09:13:11,2021-02-28,3.0164354036304495,4.387862875942534,6.672755005742376,,,,,,,,,,,,
48283,0,USTexasLaSalle,Texas,LaSalle,2022-04-28 09:13:11,2021-03-01,3.0164354036304495,4.387862875942534,6.672755005742376,,,,,,,,,,,,
48283,0,USTexasLaSalle,Texas,LaSalle,2022-04-28 09:13:11,2021-03-02,3.0164354036304495,4.387862875942534,6.672755005742376,,,,,,,,,,,,
48283,0,USTexasLaSalle,Texas,LaSalle,2022-04-28 09:13:11,2021-03-03,3.0164354036304495,4.387862875942534,6.672755005742376,,,,,,,,,,,,
48283,0,USTexasLaSalle,Texas,LaSalle,2022-04-28 09:13:11,2021-03-04,0.868924269378713,1.6029734656756895,3.158208971413423,,,,,,,,,,,,
48283,0,USTexasLaSalle,Texas,LaSalle,2022-04-28 09:13:11,2021-03-05,0.868924269378713,1.6029734656756895,3.158208971413423,,,,,,,,,,,,
48283,0,USTexasLaSalle,Texas,LaSalle,2022-04-28 09:13:11,2021-03-06,0.868924269378713,1.6029734656756895,3.158208971413423,,,,,,,,,,,,
48283,0,USTexasLaSalle,Texas,LaSalle,2022-04-28 09:13:11,2021-03-07,0.868924269378713,1.6029734656756895,3.158208971413423,,,,,,,,,,,,
48283,0,USTexasLaSalle,Texas,LaSalle,2022-04-28 09:13:11,2021-03-08,0.868924269378713,1.6029734656756895,3.158208971413423,,,,,,,,,,,,
48283,0,USTexasLaSalle,Texas,LaSalle,2022-04-28 09:13:11,2021-03-09,0.868924269378713,1.6029734656756895,3.158208971413423,,,,,,,,,,,,
48283,0,USTexasLaSalle,Texas,LaSalle,2022-04-28 09:13:11,2021-03-10,0.868924269378713,1.6029734656756895,3.158208971413423,,,,,,,,,,,,
48283,0,USTexasLaSalle,Texas,LaSalle,2022-04-28 09:13:11,2021-03-11,0.4515376040699532,0.9737267501630564,2.25663455788359,,,,,,,,,,,,
48283,0,USTexasLaSalle,Texas,LaSalle,2022-04-28 09:13:11,2021-03-12,0.4515376040699532,0.9737267501630564,2.25663455788359,,,,,,,,,,,,
48283,0,USTexasLaSalle,Texas,LaSalle,2022-04-28 09:13:11,2021-03-13,0.4515376040699532,0.9737267501630564,2.25663455788359,,,,,,,,,,,,
48283,0,USTexasLaSalle,Texas,LaSalle,2022-04-28 09:13:11,2021-03-14,0.4515376040699532,0.9737267501630564,2.25663455788359,,,,,,,,,,,,
48283,0,USTexasLaSalle,Texas,LaSalle,2022-04-28 09:13:11,2021-03-15,0.4515376040699532,0.9737267501630564,2.25663455788359,,,,,,,,,,,,
48283,0,USTexasLaSalle,Texas,LaSalle,2022-04-28 09:13:11,2021-03-16,0.4515376040699532,0.9737267501630564,2.25663455788359,,,,,,,,,,,,
48283,0,USTexasLaSalle,Texas,LaSalle,2022-04-28 09:13:11,2021-03-17,0.4515376040699532,0.9737267501630564,2.25663455788359,,,,,,,,,,,,
48283,0,USTexasLaSalle,Texas,LaSalle,2022-04-28 09:13:11,2021-03-18,0.27361146318264273,0.621856896628152,1.520301478605314,,,,,,,,,,,,
48283,0,USTexasLaSalle,Texas,LaSalle,2022-04-28 09:13:11,2021-03-19,0.27361146318264273,0.621856896628152,1.520301478605314,,,,,,,,,,,,
48283,0,USTexasLaSalle,Texas,LaSalle,2022-04-28 09:13:11,2021-03-20,0.27361146318264273,0.621856896628152,1.520301478605314,,,,,,,,,,,,
48283,0,USTexasLaSalle,Texas,LaSalle,2022-04-28 09:13:11,2021-03-21,0.27361146318264273,0.621856896628152,1.520301478605314,,,,,,,,,,,,
48283,0,USTexasLaSalle,Texas,LaSalle,2022-04-28 09:13:11,2021-03-22,0.27361146318264273,0.621856896628152,1.520301478605314,,,,,,,,,,,,
48283,0,USTexasLaSalle,Texas,LaSalle,2022-04-28 09:13:11,2021-03-23,0.27361146318264273,0.621856896628152,1.520301478605314,,,,,,,,,,,,
48283,0,USTexasLaSalle,Texas,LaSalle,2022-04-28 09:13:11,2021-03-24,0.27361146318264273,0.621856896628152,1.520301478605314,,,,,,,,,,,,
48283,0,USTexasLaSalle,Texas,LaSalle,2022-04-28 09:13:11,2021-03-25,1.302406876180032,2.0845746391650377,3.5245302505630725,,,,,,,,,,,,
48283,0,USTexasLaSalle,Texas,LaSalle,2022-04-28 09:13:11,2021-03-26,1.302406876180032,2.0845746391650377,3.5245302505630725,,,,,,,,,,,,
48283,0,USTexasLaSalle,Texas,LaSalle,2022-04-28 09:13:11,2021-03-27,1.302406876180032,2.0845746391650377,3.5245302505630725,,,,,,,,,,,,
48283,0,USTexasLaSalle,Texas,LaSalle,2022-04-28 09:13:11,2021-03-28,1.302406876180032,2.0845746391650377,3.5245302505630725,,,,,,,,,,,,
48283,0,USTexasLaSalle,Texas,LaSalle,2022-04-28 09:13:11,2021-03-29,1.302406876180032,2.0845746391650377,3.5245302505630725,,,,,,,,,,,,
48283,0,USTexasLaSalle,Texas,LaSalle,2022-04-28 09:13:11,2021-03-30,1.302406876180032,2.0845746391650377,3.5245302505630725,,,,,,,,,,,,
48283,0,USTexasLaSalle,Texas,LaSalle,2022-04-28 09:13:11,2021-03-31,1.302406876180032,2.0845746391650377,3.5245302505630725,,,,,,,,,,,,
48283,0,USTexasLaSalle,Texas,LaSalle,2022-04-28 09:13:11,2021-04-01,0.24836556401222684,0.5175022846123445,1.1577670584904707,,,,,,,,,,,,
48283,0,USTexasLaSalle,Texas,LaSalle,2022-04-28 09:13:11,2021-04-02,0.24836556401222684,0.5175022846123445,1.1577670584904707,,,,,,,,,,,,
48283,0,USTexasLaSalle,Texas,LaSalle,2022-04-28 09:13:11,2021-04-03,0.24836556401222684,0.5175022846123445,1.1577670584904707,,,,,,,,,,,,
48283,0,USTexasLaSalle,Texas,LaSalle,2022-04-28 09:13:11,2021-04-04,0.24836556401222684,0.5175022846123445,1.1577670584904707,,,,,,,,,,,,
48283,0,USTexasLaSalle,Texas,LaSalle,2022-04-28 09:13:11,2021-04-05,0.24836556401222684,0.5175022846123445,1.1577670584904707,,,,,,,,,,,,
48283,0,USTexasLaSalle,Texas,LaSalle,2022-04-28 09:13:11,2021-04-06,0.24836556401222684,0.5175022846123445,1.1577670584904707,,,,,,,,,,,,
48283,0,USTexasLaSalle,Texas,LaSalle,2022-04-28 09:13:11,2021-04-07,0.24836556401222684,0.5175022846123445,1.1577670584904707,,,,,,,,,,,,
48283,0,USTexasLaSalle,Texas,LaSalle,2022-04-28 09:13:11,2021-04-08,0,0,0,,,,,,,,,,,,
48283,0,USTexasLaSalle,Texas,LaSalle,2022-04-28 09:13:11,2021-04-09,0,0,0,,,,,,,,,,,,
48283,0,USTexasLaSalle,Texas,LaSalle,2022-04-28 09:13:11,2021-04-10,0,0,0,,,,,,,,,,,,
48283,0,USTexasLaSalle,Texas,LaSalle,2022-04-28 09:13:11,2021-04-11,0,0,0,,,,,,,,,,,,
48283,0,USTexasLaSalle,Texas,LaSalle,2022-04-28 09:13:11,2021-04-12,0,0,0,,,,,,,,,,,,
48283,0,USTexasLaSalle,Texas,LaSalle,2022-04-28 09:13:11,2021-04-13,0,0,0,,,,,,,,,,,,
48283,0,USTexasLaSalle,Texas,LaSalle,2022-04-28 09:13:11,2021-04-14,0,0,0,,,,,,,,,,,,
48283,0,USTexasLaSalle,Texas,LaSalle,2022-04-28 09:13:11,2021-04-15,0.16043741241300258,0.4196424218916385,1.180837865868424,,,,,,,,,,,,
48283,0,USTexasLaSalle,Texas,LaSalle,2022-04-28 09:13:11,2021-04-16,0.16043741241300258,0.4196424218916385,1.180837865868424,,,,,,,,,,,,
48283,0,USTexasLaSalle,Texas,LaSalle,2022-04-28 09:13:11,2021-04-17,0.16043741241300258,0.4196424218916385,1.180837865868424,,,,,,,,,,,,
48283,0,USTexasLaSalle,Texas,LaSalle,2022-04-28 09:13:11,2021-04-18,0.16043741241300258,0.4196424218916385,1.180837865868424,,,,,,,,,,,,
48283,0,USTexasLaSalle,Texas,LaSalle,2022-04-28 09:13:11,2021-04-19,0.16043741241300258,0.4196424218916385,1.180837865868424,,,,,,,,,,,,
48283,0,USTexasLaSalle,Texas,LaSalle,2022-04-28 09:13:11,2021-04-20,0.16043741241300258,0.4196424218916385,1.180837865868424,,,,,,,,,,,,
48283,0,USTexasLaSalle,Texas,LaSalle,2022-04-28 09:13:11,2021-04-21,0.16043741241300258,0.4196424218916385,1.180837865868424,,,,,,,,,,,,
48283,0,USTexasLaSalle,Texas,LaSalle,2022-04-28 09:13:11,2021-04-22,0.2160521160123986,0.5140304841561636,1.3160498630381965,,,,,,,,,,,,
48283,0,USTexasLaSalle,Texas,LaSalle,2022-04-28 09:13:11,2021-04-23,0.2160521160123986,0.5140304841561636,1.3160498630381965,,,,,,,,,,,,
48283,0,USTexasLaSalle,Texas,LaSalle,2022-04-28 09:13:11,2021-04-24,0.2160521160123986,0.5140304841561636,1.3160498630381965,,,,,,,,,,,,
48283,0,USTexasLaSalle,Texas,LaSalle,2022-04-28 09:13:11,2021-04-25,0.2160521160123986,0.5140304841561636,1.3160498630381965,,,,,,,,,,,,
48283,0,USTexasLaSalle,Texas,LaSalle,2022-04-28 09:13:11,2021-04-26,0.2160521160123986,0.5140304841561636,1.3160498630381965,,,,,,,,,,,,
48283,0,USTexasLaSalle,Texas,LaSalle,2022-04-28 09:13:11,2021-04-27,0.2160521160123986,0.5140304841561636,1.3160498630381965,,,,,,,,,,,,
48283,0,USTexasLaSalle,Texas,LaSalle,2022-04-28 09:13:11,2021-04-28,0.2160521160123986,0.5140304841561636,1.3160498630381965,,,,,,,,,,,,
48283,0,USTexasLaSalle,Texas,LaSalle,2022-04-28 09:13:11,2021-04-29,0,0,0,,,,,,,,,,,,
48283,0,USTexasLaSalle,Texas,LaSalle,2022-04-28 09:13:11,2021-04-30,0,0,0,,,,,,,,,,,,
48283,0,USTexasLaSalle,Texas,LaSalle,2022-04-28 09:13:11,2021-05-01,0,0,0,,,,,,,,,,,,
48283,0,USTexasLaSalle,Texas,LaSalle,2022-04-28 09:13:11,2021-05-02,0,0,0,,,,,,,,,,,,
48283,0,USTexasLaSalle,Texas,LaSalle,2022-04-28 09:13:11,2021-05-03,0,0,0,,,,,,,,,,,,
48283,0,USTexasLaSalle,Texas,LaSalle,2022-04-28 09:13:11,2021-05-04,0,0,0,,,,,,,,,,,,
48283,0,USTexasLaSalle,Texas,LaSalle,2022-04-28 09:13:11,2021-05-05,0,0,0,,,,,,,,,,,,
48283,0,USTexasLaSalle,Texas,LaSalle,2022-04-28 09:13:11,2021-05-06,0.2548492708983096,0.5434933500890021,1.245289869106166,,,,,,,,,,,,
48283,0,USTexasLaSalle,Texas,LaSalle,2022-04-28 09:13:11,2021-05-07,0.2548492708983096,0.5434933500890021,1.245289869106166,,,,,,,,,,,,
48283,0,USTexasLaSalle,Texas,LaSalle,2022-04-28 09:13:11,2021-05-08,0.2548492708983096,0.5434933500890021,1.245289869106166,,,,,,,,,,,,
48283,0,USTexasLaSalle,Texas,LaSalle,2022-04-28 09:13:11,2021-05-09,0.2548492708983096,0.5434933500890021,1.245289869106166,,,,,,,,,,,,
48283,0,USTexasLaSalle,Texas,LaSalle,2022-04-28 09:13:11,2021-05-10,0.2548492708983096,0.5434933500890021,1.245289869106166,,,,,,,,,,,,
48283,0,USTexasLaSalle,Texas,LaSalle,2022-04-28 09:13:11,2021-05-11,0.2548492708983096,0.5434933500890021,1.245289869106166,,,,,,,,,,,,
48283,0,USTexasLaSalle,Texas,LaSalle,2022-04-28 09:13:11,2021-05-12,0.2548492708983096,0.5434933500890021,1.245289869106166,,,,,,,,,,,,
48283,0,USTexasLaSalle,Texas,LaSalle,2022-04-28 09:13:11,2021-05-13,0.3007176555900457,0.6087783876207102,1.3220054342925973,,,,,,,,,,,,
48283,0,USTexasLaSalle,Texas,LaSalle,2022-04-28 09:13:11,2021-05-14,0.3007176555900457,0.6087783876207102,1.3220054342925973,,,,,,,,,,,,
48283,0,USTexasLaSalle,Texas,LaSalle,2022-04-28 09:13:11,2021-05-15,0.3007176555900457,0.6087783876207102,1.3220054342925973,,,,,,,,,,,,
48283,0,USTexasLaSalle,Texas,LaSalle,2022-04-28 09:13:11,2021-05-16,0.3007176555900457,0.6087783876207102,1.3220054342925973,,,,,,,,,,,,
48283,0,USTexasLaSalle,Texas,LaSalle,2022-04-28 09:13:11,2021-05-17,0.3007176555900457,0.6087783876207102,1.3220054342925973,,,,,,,,,,,,
48283,0,USTexasLaSalle,Texas,LaSalle,2022-04-28 09:13:11,2021-05-18,0.3007176555900457,0.6087783876207102,1.3220054342925973,,,,,,,,,,,,
48283,0,USTexasLaSalle,Texas,LaSalle,2022-04-28 09:13:11,2021-05-19,0.3007176555900457,0.6087783876207102,1.3220054342925973,,,,,,,,,,,,
48283,0,USTexasLaSalle,Texas,LaSalle,2022-04-28 09:13:11,2021-05-20,0.24973586030869135,0.5229481172131939,1.1759470704407613,,,,,,,,,,,,
48283,0,USTexasLaSalle,Texas,LaSalle,2022-04-28 09:13:11,2021-05-21,0.24973586030869135,0.5229481172131939,1.1759470704407613,,,,,,,,,,,,
48283,0,USTexasLaSalle,Texas,LaSalle,2022-04-28 09:13:11,2021-05-22,0.24973586030869135,0.5229481172131939,1.1759470704407613,,,,,,,,,,,,
48283,0,USTexasLaSalle,Texas,LaSalle,2022-04-28 09:13:11,2021-05-23,0.24973586030869135,0.5229481172131939,1.1759470704407613,,,,,,,,,,,,
48283,0,USTexasLaSalle,Texas,LaSalle,2022-04-28 09:13:11,2021-05-24,0.24973586030869135,0.5229481172131939,1.1759470704407613,,,,,,,,,,,,
48283,0,USTexasLaSalle,Texas,LaSalle,2022-04-28 09:13:11,2021-05-25,0.24973586030869135,0.5229481172131939,1.1759470704407613,,,,,,,,,,,,
48283,0,USTexasLaSalle,Texas,LaSalle,2022-04-28 09:13:11,2021-05-26,0.24973586030869135,0.5229481172131939,1.1759470704407613,,,,,,,,,,,,
48283,0,USTexasLaSalle,Texas,LaSalle,2022-04-28 09:13:11,2021-05-27,0.13087360401495643,0.2858815500518541,0.6713071848293122,,,,,,,,,,,,
48283,0,USTexasLaSalle,Texas,LaSalle,2022-04-28 09:13:11,2021-05-28,0.13087360401495643,0.2858815500518541,0.6713071848293122,,,,,,,,,,,,
48283,0,USTexasLaSalle,Texas,LaSalle,2022-04-28 09:13:11,2021-05-29,0.13087360401495643,0.2858815500518541,0.6713071848293122,,,,,,,,,,,,
48283,0,USTexasLaSalle,Texas,LaSalle,2022-04-28 09:13:11,2021-05-30,0.13087360401495643,0.2858815500518541,0.6713071848293122,,,,,,,,,,,,
48283,0,USTexasLaSalle,Texas,LaSalle,2022-04-28 09:13:11,2021-05-31,0.13087360401495643,0.2858815500518541,0.6713071848293122,,,,,,,,,,,,
48283,0,USTexasLaSalle,Texas,LaSalle,2022-04-28 09:13:11,2021-06-01,0.13087360401495643,0.2858815500518541,0.6713071848293122,,,,,,,,,,,,
48283,0,USTexasLaSalle,Texas,LaSalle,2022-04-28 09:13:11,2021-06-02,0.13087360401495643,0.2858815500518541,0.6713071848293122,,,,,,,,,,,,
48283,0,USTexasLaSalle,Texas,LaSalle,2022-04-28 09:13:11,2021-06-03,0,0,0,,,,,,,,,,,,
48283,0,USTexasLaSalle,Texas,LaSalle,2022-04-28 09:13:11,2021-06-04,0,0,0,,,,,,,,,,,,
48283,0,USTexasLaSalle,Texas,LaSalle,2022-04-28 09:13:11,2021-06-05,0,0,0,,,,,,,,,,,,
48283,0,USTexasLaSalle,Texas,LaSalle,2022-04-28 09:13:11,2021-06-06,0,0,0,,,,,,,,,,,,
48283,0,USTexasLaSalle,Texas,LaSalle,2022-04-28 09:13:11,2021-06-07,0,0,0,,,,,,,,,,,,
48283,0,USTexasLaSalle,Texas,LaSalle,2022-04-28 09:13:11,2021-06-08,0,0,0,,,,,,,,,,,,
48283,0,USTexasLaSalle,Texas,LaSalle,2022-04-28 09:13:11,2021-06-09,0,0,0,,,,,,,,,,,,
48283,0,USTexasLaSalle,Texas,LaSalle,2022-04-28 09:13:11,2021-06-10,0.14016423348830379,0.3255157455168216,0.8133735546001905,,,,,,,,,,,,
48283,0,USTexasLaSalle,Texas,LaSalle,2022-04-28 09:13:11,2021-06-11,0.14016423348830379,0.3255157455168216,0.8133735546001905,,,,,,,,,,,,
48283,0,USTexasLaSalle,Texas,LaSalle,2022-04-28 09:13:11,2021-06-12,0.14016423348830379,0.3255157455168216,0.8133735546001905,,,,,,,,,,,,
48283,0,USTexasLaSalle,Texas,LaSalle,2022-04-28 09:13:11,2021-06-13,0.14016423348830379,0.3255157455168216,0.8133735546001905,,,,,,,,,,,,
48283,0,USTexasLaSalle,Texas,LaSalle,2022-04-28 09:13:11,2021-06-14,0.14016423348830379,0.3255157455168216,0.8133735546001905,,,,,,,,,,,,
48283,0,USTexasLaSalle,Texas,LaSalle,2022-04-28 09:13:11,2021-06-15,0.14016423348830379,0.3255157455168216,0.8133735546001905,,,,,,,,,,,,
48283,0,USTexasLaSalle,Texas,LaSalle,2022-04-28 09:13:11,2021-06-16,0.14016423348830379,0.3255157455168216,0.8133735546001905,,,,,,,,,,,,
48283,0,USTexasLaSalle,Texas,LaSalle,2022-04-28 09:13:11,2021-06-17,0.1901508176976559,0.40363262656143506,0.9204242436114356,,,,,,,,,,,,
48283,0,USTexasLaSalle,Texas,LaSalle,2022-04-28 09:13:11,2021-06-18,0.1901508176976559,0.40363262656143506,0.9204242436114356,,,,,,,,,,,,
48283,0,USTexasLaSalle,Texas,LaSalle,2022-04-28 09:13:11,2021-06-19,0.1901508176976559,0.40363262656143506,0.9204242436114356,,,,,,,,,,,,
48283,0,USTexasLaSalle,Texas,LaSalle,2022-04-28 09:13:11,2021-06-20,0.1901508176976559,0.40363262656143506,0.9204242436114356,,,,,,,,,,,,
48283,0,USTexasLaSalle,Texas,LaSalle,2022-04-28 09:13:11,2021-06-21,0.1901508176976559,0.40363262656143506,0.9204242436114356,,,,,,,,,,,,
48283,0,USTexasLaSalle,Texas,LaSalle,2022-04-28 09:13:11,2021-06-22,0.1901508176976559,0.40363262656143506,0.9204242436114356,,,,,,,,,,,,
48283,0,USTexasLaSalle,Texas,LaSalle,2022-04-28 09:13:11,2021-06-23,0.1901508176976559,0.40363262656143506,0.9204242436114356,,,,,,,,,,,,
48283,0,USTexasLaSalle,Texas,LaSalle,2022-04-28 09:13:11,2021-06-24,0.20325930855604224,0.4580439847691162,1.1101901303528043,,,,,,,,,,,,
48283,0,USTexasLaSalle,Texas,LaSalle,2022-04-28 09:13:11,2021-06-25,0.20325930855604224,0.4580439847691162,1.1101901303528043,,,,,,,,,,,,
48283,0,USTexasLaSalle,Texas,LaSalle,2022-04-28 09:13:11,2021-06-26,0.20325930855604224,0.4580439847691162,1.1101901303528043,,,,,,,,,,,,
48283,0,USTexasLaSalle,Texas,LaSalle,2022-04-28 09:13:11,2021-06-27,0.20325930855604224,0.4580439847691162,1.1101901303528043,,,,,,,,,,,,
48283,0,USTexasLaSalle,Texas,LaSalle,2022-04-28 09:13:11,2021-06-28,0.20325930855604224,0.4580439847691162,1.1101901303528043,,,,,,,,,,,,
48283,0,USTexasLaSalle,Texas,LaSalle,2022-04-28 09:13:11,2021-06-29,0.20325930855604224,0.4580439847691162,1.1101901303528043,,,,,,,,,,,,
48283,0,USTexasLaSalle,Texas,LaSalle,2022-04-28 09:13:11,2021-06-30,0.20325930855604224,0.4580439847691162,1.1101901303528043,,,,,,,,,,,,
48283,0,USTexasLaSalle,Texas,LaSalle,2022-04-28 09:13:11,2021-07-01,0.19808585555682787,0.43620785649747434,1.0327677166965217,,,,,,,,,,,,
48283,0,USTexasLaSalle,Texas,LaSalle,2022-04-28 09:13:11,2021-07-02,0.19808585555682787,0.43620785649747434,1.0327677166965217,,,,,,,,,,,,
48283,0,USTexasLaSalle,Texas,LaSalle,2022-04-28 09:13:11,2021-07-03,0.19808585555682787,0.43620785649747434,1.0327677166965217,,,,,,,,,,,,
48283,0,USTexasLaSalle,Texas,LaSalle,2022-04-28 09:13:11,2021-07-04,0.19808585555682787,0.43620785649747434,1.0327677166965217,,,,,,,,,,,,
48283,0,USTexasLaSalle,Texas,LaSalle,2022-04-28 09:13:11,2021-07-05,0.19808585555682787,0.43620785649747434,1.0327677166965217,,,,,,,,,,,,
48283,0,USTexasLaSalle,Texas,LaSalle,2022-04-28 09:13:11,2021-07-06,0.19808585555682787,0.43620785649747434,1.0327677166965217,,,,,,,,,,,,
48283,0,USTexasLaSalle,Texas,LaSalle,2022-04-28 09:13:11,2021-07-07,0.19808585555682787,0.43620785649747434,1.0327677166965217,,,,,,,,,,,,
48283,0,USTexasLaSalle,Texas,LaSalle,2022-04-28 09:13:11,2021-07-08,0.5324226235296183,1.0618182898680586,2.270233600531818,,,,,,,,,,,,
48283,0,USTexasLaSalle,Texas,LaSalle,2022-04-28 09:13:11,2021-07-09,0.5324226235296183,1.0618182898680586,2.270233600531818,,,,,,,,,,,,
48283,0,USTexasLaSalle,Texas,LaSalle,2022-04-28 09:13:11,2021-07-10,0.5324226235296183,1.0618182898680586,2.270233600531818,,,,,,,,,,,,
48283,0,USTexasLaSalle,Texas,LaSalle,2022-04-28 09:13:11,2021-07-11,0.5324226235296183,1.0618182898680586,2.270233600531818,,,,,,,,,,,,
48283,0,USTexasLaSalle,Texas,LaSalle,2022-04-28 09:13:11,2021-07-12,0.5324226235296183,1.0618182898680586,2.270233600531818,,,,,,,,,,,,
48283,0,USTexasLaSalle,Texas,LaSalle,2022-04-28 09:13:11,2021-07-13,0.5324226235296183,1.0618182898680586,2.270233600531818,,,,,,,,,,,,
48283,0,USTexasLaSalle,Texas,LaSalle,2022-04-28 09:13:11,2021-07-14,0.5324226235296183,1.0618182898680586,2.270233600531818,,,,,,,,,,,,
48283,0,USTexasLaSalle,Texas,LaSalle,2022-04-28 09:13:11,2021-07-15,0.7435113303755655,1.43795449439845,2.977505189717684,,,,,,,,,,,,
48283,0,USTexasLaSalle,Texas,LaSalle,2022-04-28 09:13:11,2021-07-16,0.7435113303755655,1.43795449439845,2.977505189717684,,,,,,,,,,,,
48283,0,USTexasLaSalle,Texas,LaSalle,2022-04-28 09:13:11,2021-07-17,0.7435113303755655,1.43795449439845,2.977505189717684,,,,,,,,,,,,
48283,0,USTexasLaSalle,Texas,LaSalle,2022-04-28 09:13:11,2021-07-18,0.7435113303755655,1.43795449439845,2.977505189717684,,,,,,,,,,,,
48283,0,USTexasLaSalle,Texas,LaSalle,2022-04-28 09:13:11,2021-07-19,0.7435113303755655,1.43795449439845,2.977505189717684,,,,,,,,,,,,
48283,0,USTexasLaSalle,Texas,LaSalle,2022-04-28 09:13:11,2021-07-20,0.7435113303755655,1.43795449439845,2.977505189717684,,,,,,,,,,,,
48283,0,USTexasLaSalle,Texas,LaSalle,2022-04-28 09:13:11,2021-07-21,0.7435113303755655,1.43795449439845,2.977505189717684,,,,,,,,,,,,
48283,0,USTexasLaSalle,Texas,LaSalle,2022-04-28 09:13:11,2021-07-22,0.5308813459567112,1.1743190996741049,2.793054227577492,,,,,,,,,,,,
48283,0,USTexasLaSalle,Texas,LaSalle,2022-04-28 09:13:11,2021-07-23,0.5308813459567112,1.1743190996741049,2.793054227577492,,,,,,,,,,,,
48283,0,USTexasLaSalle,Texas,LaSalle,2022-04-28 09:13:11,2021-07-24,0.5308813459567112,1.1743190996741049,2.793054227577492,,,,,,,,,,,,
48283,0,USTexasLaSalle,Texas,LaSalle,2022-04-28 09:13:11,2021-07-25,0.5308813459567112,1.1743190996741049,2.793054227577492,,,,,,,,,,,,
48283,0,USTexasLaSalle,Texas,LaSalle,2022-04-28 09:13:11,2021-07-26,0.5308813459567112,1.1743190996741049,2.793054227577492,,,,,,,,,,,,
48283,0,USTexasLaSalle,Texas,LaSalle,2022-04-28 09:13:11,2021-07-27,0.5308813459567112,1.1743190996741049,2.793054227577492,,,,,,,,,,,,
48283,0,USTexasLaSalle,Texas,LaSalle,2022-04-28 09:13:11,2021-07-28,0.5308813459567112,1.1743190996741049,2.793054227577492,,,,,,,,,,,,
48283,0,USTexasLaSalle,Texas,LaSalle,2022-04-28 09:13:11,2021-07-29,0.15151084336604823,0.16404005312147227,0.18004784752384348,,,,,,,,,,,,
48283,0,USTexasLaSalle,Texas,LaSalle,2022-04-28 09:13:11,2021-07-30,0.15151084336604823,0.16404005312147227,0.18004784752384348,,,,,,,,,,,,
48283,0,USTexasLaSalle,Texas,LaSalle,2022-04-28 09:13:11,2021-07-31,0.15151084336604823,0.16404005312147227,0.18004784752384348,,,,,,,,,,,,
48283,0,USTexasLaSalle,Texas,LaSalle,2022-04-28 09:13:11,2021-08-01,0.15151084336604823,0.16404005312147227,0.18004784752384348,,,,,,,,,,,,
48283,0,USTexasLaSalle,Texas,LaSalle,2022-04-28 09:13:11,2021-08-02,0.15151084336604823,0.16404005312147227,0.18004784752384348,,,,,,,,,,,,
48283,0,USTexasLaSalle,Texas,LaSalle,2022-04-28 09:13:11,2021-08-03,0.15151084336604823,0.16404005312147227,0.18004784752384348,,,,,,,,,,,,
48283,0,USTexasLaSalle,Texas,LaSalle,2022-04-28 09:13:11,2021-08-04,0.15151084336604823,0.16404005312147227,0.18004784752384348,,,,,,,,,,,,
48283,0,USTexasLaSalle,Texas,LaSalle,2022-04-28 09:13:11,2021-08-05,0.3255390416164845,0.4612026741191293,0.6808458276117627,,,,,,,,,,,,
48283,0,USTexasLaSalle,Texas,LaSalle,2022-04-28 09:13:11,2021-08-06,0.3255390416164845,0.4612026741191293,0.6808458276117627,,,,,,,,,,,,
48283,0,USTexasLaSalle,Texas,LaSalle,2022-04-28 09:13:11,2021-08-07,0.3255390416164845,0.4612026741191293,0.6808458276117627,,,,,,,,,,,,
48283,0,USTexasLaSalle,Texas,LaSalle,2022-04-28 09:13:11,2021-08-08,0.3255390416164845,0.4612026741191293,0.6808458276117627,,,,,,,,,,,,
48283,0,USTexasLaSalle,Texas,LaSalle,2022-04-28 09:13:11,2021-08-09,0.3255390416164845,0.4612026741191293,0.6808458276117627,,,,,,,,,,,,
48283,0,USTexasLaSalle,Texas,LaSalle,2022-04-28 09:13:11,2021-08-10,0.3255390416164845,0.4612026741191293,0.6808458276117627,,,,,,,,,,,,
48283,0,USTexasLaSalle,Texas,LaSalle,2022-04-28 09:13:11,2021-08-11,0.3255390416164845,0.4612026741191293,0.6808458276117627,,,,,,,,,,,,
48283,0,USTexasLaSalle,Texas,LaSalle,2022-04-28 09:13:11,2021-08-12,0.24279313277068598,0.34223925891658147,0.5023551650065728,,,,,,,,,,,,
48283,0,USTexasLaSalle,Texas,LaSalle,2022-04-28 09:13:11,2021-08-13,0.24279313277068598,0.34223925891658147,0.5023551650065728,,,,,,,,,,,,
48283,0,USTexasLaSalle,Texas,LaSalle,2022-04-28 09:13:11,2021-08-14,0.24279313277068598,0.34223925891658147,0.5023551650065728,,,,,,,,,,,,
48283,0,USTexasLaSalle,Texas,LaSalle,2022-04-28 09:13:11,2021-08-15,0.24279313277068598,0.34223925891658147,0.5023551650065728,,,,,,,,,,,,
48283,0,USTexasLaSalle,Texas,LaSalle,2022-04-28 09:13:11,2021-08-16,0.24279313277068598,0.34223925891658147,0.5023551650065728,,,,,,,,,,,,
48283,0,USTexasLaSalle,Texas,LaSalle,2022-04-28 09:13:11,2021-08-17,0.24279313277068598,0.34223925891658147,0.5023551650065728,,,,,,,,,,,,
48283,0,USTexasLaSalle,Texas,LaSalle,2022-04-28 09:13:11,2021-08-18,0.24279313277068598,0.34223925891658147,0.5023551650065728,,,,,,,,,,,,
48283,0,USTexasLaSalle,Texas,LaSalle,2022-04-28 09:13:11,2021-08-19,0.8593998563248236,1.2792998020815884,1.9963068666070325,,,,,,,,,,,,
48283,0,USTexasLaSalle,Texas,LaSalle,2022-04-28 09:13:11,2021-08-20,0.8593998563248236,1.2792998020815884,1.9963068666070325,,,,,,,,,,,,
48283,0,USTexasLaSalle,Texas,LaSalle,2022-04-28 09:13:11,2021-08-21,0.8593998563248236,1.2792998020815884,1.9963068666070325,,,,,,,,,,,,
48283,0,USTexasLaSalle,Texas,LaSalle,2022-04-28 09:13:11,2021-08-22,0.8593998563248236,1.2792998020815884,1.9963068666070325,,,,,,,,,,,,
48283,0,USTexasLaSalle,Texas,LaSalle,2022-04-28 09:13:11,2021-08-23,0.8593998563248236,1.2792998020815884,1.9963068666070325,,,,,,,,,,,,
48283,0,USTexasLaSalle,Texas,LaSalle,2022-04-28 09:13:11,2021-08-24,0.8593998563248236,1.2792998020815884,1.9963068666070325,,,,,,,,,,,,
48283,0,USTexasLaSalle,Texas,LaSalle,2022-04-28 09:13:11,2021-08-25,0.8593998563248236,1.2792998020815884,1.9963068666070325,,,,,,,,,,,,
48283,0,USTexasLaSalle,Texas,LaSalle,2022-04-28 09:13:11,2021-08-26,1.145133072931171,2.2169306106912168,4.595349860673557,,,,,,,,,,,,
48283,0,USTexasLaSalle,Texas,LaSalle,2022-04-28 09:13:11,2021-08-27,1.145133072931171,2.2169306106912168,4.595349860673557,,,,,,,,,,,,
48283,0,USTexasLaSalle,Texas,LaSalle,2022-04-28 09:13:11,2021-08-28,1.145133072931171,2.2169306106912168,4.595349860673557,,,,,,,,,,,,
48283,0,USTexasLaSalle,Texas,LaSalle,2022-04-28 09:13:11,2021-08-29,1.145133072931171,2.2169306106912168,4.595349860673557,,,,,,,,,,,,
48283,0,USTexasLaSalle,Texas,LaSalle,2022-04-28 09:13:11,2021-08-30,1.145133072931171,2.2169306106912168,4.595349860673557,,,,,,,,,,,,
48283,0,USTexasLaSalle,Texas,LaSalle,2022-04-28 09:13:11,2021-08-31,1.145133072931171,2.2169306106912168,4.595349860673557,,,,,,,,,,,,
48283,0,USTexasLaSalle,Texas,LaSalle,2022-04-28 09:13:11,2021-09-01,1.145133072931171,2.2169306106912168,4.595349860673557,,,,,,,,,,,,
48283,0,USTexasLaSalle,Texas,LaSalle,2022-04-28 09:13:11,2021-09-02,2.3728697397175544,3.7318116457497856,6.1890910416903075,,,,,,,,,,,,
48283,0,USTexasLaSalle,Texas,LaSalle,2022-04-28 09:13:11,2021-09-03,2.3728697397175544,3.7318116457497856,6.1890910416903075,,,,,,,,,,,,
48283,0,USTexasLaSalle,Texas,LaSalle,2022-04-28 09:13:11,2021-09-04,2.3728697397175544,3.7318116457497856,6.1890910416903075,,,,,,,,,,,,
48283,0,USTexasLaSalle,Texas,LaSalle,2022-04-28 09:13:11,2021-09-05,2.3728697397175544,3.7318116457497856,6.1890910416903075,,,,,,,,,,,,
48283,0,USTexasLaSalle,Texas,LaSalle,2022-04-28 09:13:11,2021-09-06,2.3728697397175544,3.7318116457497856,6.1890910416903075,,,,,,,,,,,,
48283,0,USTexasLaSalle,Texas,LaSalle,2022-04-28 09:13:11,2021-09-07,2.3728697397175544,3.7318116457497856,6.1890910416903075,,,,,,,,,,,,
48283,0,USTexasLaSalle,Texas,LaSalle,2022-04-28 09:13:11,2021-09-08,2.3728697397175544,3.7318116457497856,6.1890910416903075,,,,,,,,,,,,
48283,0,USTexasLaSalle,Texas,LaSalle,2022-04-28 09:13:11,2021-09-09,0.9835496297608404,1.6567255715471991,2.9614104112364434,,,,,,,,,,,,
48283,0,USTexasLaSalle,Texas,LaSalle,2022-04-28 09:13:11,2021-09-10,0.9835496297608404,1.6567255715471991,2.9614104112364434,,,,,,,,,,,,
48283,0,USTexasLaSalle,Texas,LaSalle,2022-04-28 09:13:11,2021-09-11,0.9835496297608404,1.6567255715471991,2.9614104112364434,,,,,,,,,,,,
48283,0,USTexasLaSalle,Texas,LaSalle,2022-04-28 09:13:11,2021-09-12,0.9835496297608404,1.6567255715471991,2.9614104112364434,,,,,,,,,,,,
48283,0,USTexasLaSalle,Texas,LaSalle,2022-04-28 09:13:11,2021-09-13,0.9835496297608404,1.6567255715471991,2.9614104112364434,,,,,,,,,,,,
48283,0,USTexasLaSalle,Texas,LaSalle,2022-04-28 09:13:11,2021-09-14,0.9835496297608404,1.6567255715471991,2.9614104112364434,,,,,,,,,,,,
48283,0,USTexasLaSalle,Texas,LaSalle,2022-04-28 09:13:11,2021-09-15,0.9835496297608404,1.6567255715471991,2.9614104112364434,,,,,,,,,,,,
48283,0,USTexasLaSalle,Texas,LaSalle,2022-04-28 09:13:11,2021-09-16,1.1956516230648837,2.4073292549811107,5.1981957440309925,,,,,,,,,,,,
48283,0,USTexasLaSalle,Texas,LaSalle,2022-04-28 09:13:11,2021-09-17,1.1956516230648837,2.4073292549811107,5.1981957440309925,,,,,,,,,,,,
48283,0,USTexasLaSalle,Texas,LaSalle,2022-04-28 09:13:11,2021-09-18,1.1956516230648837,2.4073292549811107,5.1981957440309925,,,,,,,,,,,,
48283,0,USTexasLaSalle,Texas,LaSalle,2022-04-28 09:13:11,2021-09-19,1.1956516230648837,2.4073292549811107,5.1981957440309925,,,,,,,,,,,,
48283,0,USTexasLaSalle,Texas,LaSalle,2022-04-28 09:13:11,2021-09-20,1.1956516230648837,2.4073292549811107,5.1981957440309925,,,,,,,,,,,,
48283,0,USTexasLaSalle,Texas,LaSalle,2022-04-28 09:13:11,2021-09-21,1.1956516230648837,2.4073292549811107,5.1981957440309925,,,,,,,,,,,,
48283,0,USTexasLaSalle,Texas,LaSalle,2022-04-28 09:13:11,2021-09-22,1.1956516230648837,2.4073292549811107,5.1981957440309925,,,,,,,,,,,,
48283,0,USTexasLaSalle,Texas,LaSalle,2022-04-28 09:13:11,2021-09-23,0.6463686363944702,1.3964269383838526,3.242314048357468,,,,,,,,,,,,
48283,0,USTexasLaSalle,Texas,LaSalle,2022-04-28 09:13:11,2021-09-24,0.6463686363944702,1.3964269383838526,3.242314048357468,,,,,,,,,,,,
48283,0,USTexasLaSalle,Texas,LaSalle,2022-04-28 09:13:11,2021-09-25,0.6463686363944702,1.3964269383838526,3.242314048357468,,,,,,,,,,,,
48283,0,USTexasLaSalle,Texas,LaSalle,2022-04-28 09:13:11,2021-09-26,0.6463686363944702,1.3964269383838526,3.242314048357468,,,,,,,,,,,,
48283,0,USTexasLaSalle,Texas,LaSalle,2022-04-28 09:13:11,2021-09-27,0.6463686363944702,1.3964269383838526,3.242314048357468,,,,,,,,,,,,
48283,0,USTexasLaSalle,Texas,LaSalle,2022-04-28 09:13:11,2021-09-28,0.6463686363944702,1.3964269383838526,3.242314048357468,,,,,,,,,,,,
48283,0,USTexasLaSalle,Texas,LaSalle,2022-04-28 09:13:11,2021-09-29,0.6463686363944702,1.3964269383838526,3.242314048357468,,,,,,,,,,,,
48283,0,USTexasLaSalle,Texas,LaSalle,2022-04-28 09:13:11,2021-09-30,0.2672501880799668,0.4858910573123874,0.9426452605113659,,,,,,,,,,,,
48283,0,USTexasLaSalle,Texas,LaSalle,2022-04-28 09:13:11,2021-10-01,0.2672501880799668,0.4858910573123874,0.9426452605113659,,,,,,,,,,,,
48283,0,USTexasLaSalle,Texas,LaSalle,2022-04-28 09:13:11,2021-10-02,0.2672501880799668,0.4858910573123874,0.9426452605113659,,,,,,,,,,,,
48283,0,USTexasLaSalle,Texas,LaSalle,2022-04-28 09:13:11,2021-10-03,0.2672501880799668,0.4858910573123874,0.9426452605113659,,,,,,,,,,,,
48283,0,USTexasLaSalle,Texas,LaSalle,2022-04-28 09:13:11,2021-10-04,0.2672501880799668,0.4858910573123874,0.9426452605113659,,,,,,,,,,,,
48283,0,USTexasLaSalle,Texas,LaSalle,2022-04-28 09:13:11,2021-10-05,0.2672501880799668,0.4858910573123874,0.9426452605113659,,,,,,,,,,,,
48283,0,USTexasLaSalle,Texas,LaSalle,2022-04-28 09:13:11,2021-10-06,0.2672501880799668,0.4858910573123874,0.9426452605113659,,,,,,,,,,,,
48283,0,USTexasLaSalle,Texas,LaSalle,2022-04-28 09:13:11,2021-10-07,1.0024446369130307,2.1057600545680124,4.750594754037741,,,,,,,,,,,,
48283,0,USTexasLaSalle,Texas,LaSalle,2022-04-28 09:13:11,2021-10-08,1.0024446369130307,2.1057600545680124,4.750594754037741,,,,,,,,,,,,
48283,0,USTexasLaSalle,Texas,LaSalle,2022-04-28 09:13:11,2021-10-09,1.0024446369130307,2.1057600545680124,4.750594754037741,,,,,,,,,,,,
48283,0,USTexasLaSalle,Texas,LaSalle,2022-04-28 09:13:11,2021-10-10,1.0024446369130307,2.1057600545680124,4.750594754037741,,,,,,,,,,,,
48283,0,USTexasLaSalle,Texas,LaSalle,2022-04-28 09:13:11,2021-10-11,1.0024446369130307,2.1057600545680124,4.750594754037741,,,,,,,,,,,,
48283,0,USTexasLaSalle,Texas,LaSalle,2022-04-28 09:13:11,2021-10-12,1.0024446369130307,2.1057600545680124,4.750594754037741,,,,,,,,,,,,
48283,0,USTexasLaSalle,Texas,LaSalle,2022-04-28 09:13:11,2021-10-13,1.0024446369130307,2.1057600545680124,4.750594754037741,,,,,,,,,,,,
48283,0,USTexasLaSalle,Texas,LaSalle,2022-04-28 09:13:11,2021-10-14,0.8438434061369963,1.711662808478722,3.7245958062530495,,,,,,,,,,,,
48283,0,USTexasLaSalle,Texas,LaSalle,2022-04-28 09:13:11,2021-10-15,0.8438434061369963,1.711662808478722,3.7245958062530495,,,,,,,,,,,,
48283,0,USTexasLaSalle,Texas,LaSalle,2022-04-28 09:13:11,2021-10-16,0.8438434061369963,1.711662808478722,3.7245958062530495,,,,,,,,,,,,
48283,0,USTexasLaSalle,Texas,LaSalle,2022-04-28 09:13:11,2021-10-17,0.8438434061369963,1.711662808478722,3.7245958062530495,,,,,,,,,,,,
48283,0,USTexasLaSalle,Texas,LaSalle,2022-04-28 09:13:11,2021-10-18,0.8438434061369963,1.711662808478722,3.7245958062530495,,,,,,,,,,,,
48283,0,USTexasLaSalle,Texas,LaSalle,2022-04-28 09:13:11,2021-10-19,0.8438434061369963,1.711662808478722,3.7245958062530495,,,,,,,,,,,,
48283,0,USTexasLaSalle,Texas,LaSalle,2022-04-28 09:13:11,2021-10-20,0.8438434061369963,1.711662808478722,3.7245958062530495,,,,,,,,,,,,
48283,0,USTexasLaSalle,Texas,LaSalle,2022-04-28 09:13:11,2021-10-21,0.6304864137898928,1.1284260262079677,2.1528841520691024,,,,,,,,,,,,
48283,0,USTexasLaSalle,Texas,LaSalle,2022-04-28 09:13:11,2021-10-22,0.6304864137898928,1.1284260262079677,2.1528841520691024,,,,,,,,,,,,
48283,0,USTexasLaSalle,Texas,LaSalle,2022-04-28 09:13:11,2021-10-23,0.6304864137898928,1.1284260262079677,2.1528841520691024,,,,,,,,,,,,
48283,0,USTexasLaSalle,Texas,LaSalle,2022-04-28 09:13:11,2021-10-24,0.6304864137898928,1.1284260262079677,2.1528841520691024,,,,,,,,,,,,
48283,0,USTexasLaSalle,Texas,LaSalle,2022-04-28 09:13:11,2021-10-25,0.6304864137898928,1.1284260262079677,2.1528841520691024,,,,,,,,,,,,
48283,0,USTexasLaSalle,Texas,LaSalle,2022-04-28 09:13:11,2021-10-26,0.6304864137898928,1.1284260262079677,2.1528841520691024,,,,,,,,,,,,
48283,0,USTexasLaSalle,Texas,LaSalle,2022-04-28 09:13:11,2021-10-27,0.6304864137898928,1.1284260262079677,2.1528841520691024,,,,,,,,,,,,
48283,0,USTexasLaSalle,Texas,LaSalle,2022-04-28 09:13:11,2021-10-28,0.4506616521391011,0.8596265558781138,1.7543964350775512,,,,,,,,,,,,
48283,0,USTexasLaSalle,Texas,LaSalle,2022-04-28 09:13:11,2021-10-29,0.4506616521391011,0.8596265558781138,1.7543964350775512,,,,,,,,,,,,
48283,0,USTexasLaSalle,Texas,LaSalle,2022-04-28 09:13:11,2021-10-30,0.4506616521391011,0.8596265558781138,1.7543964350775512,,,,,,,,,,,,
48283,0,USTexasLaSalle,Texas,LaSalle,2022-04-28 09:13:11,2021-10-31,0.4506616521391011,0.8596265558781138,1.7543964350775512,,,,,,,,,,,,
48283,0,USTexasLaSalle,Texas,LaSalle,2022-04-28 09:13:11,2021-11-01,0.4506616521391011,0.8596265558781138,1.7543964350775512,,,,,,,,,,,,
48283,0,USTexasLaSalle,Texas,LaSalle,2022-04-28 09:13:11,2021-11-02,0.4506616521391011,0.8596265558781138,1.7543964350775512,,,,,,,,,,,,
48283,0,USTexasLaSalle,Texas,LaSalle,2022-04-28 09:13:11,2021-11-03,0.4506616521391011,0.8596265558781138,1.7543964350775512,,,,,,,,,,,,
48283,0,USTexasLaSalle,Texas,LaSalle,2022-04-28 09:13:11,2021-11-04,0,0,0,,,,,,,,,,,,
48283,0,USTexasLaSalle,Texas,LaSalle,2022-04-28 09:13:11,2021-11-05,0,0,0,,,,,,,,,,,,
48283,0,USTexasLaSalle,Texas,LaSalle,2022-04-28 09:13:11,2021-11-06,0,0,0,,,,,,,,,,,,
48283,0,USTexasLaSalle,Texas,LaSalle,2022-04-28 09:13:11,2021-11-07,0,0,0,,,,,,,,,,,,
48283,0,USTexasLaSalle,Texas,LaSalle,2022-04-28 09:13:11,2021-11-08,0,0,0,,,,,,,,,,,,
48283,0,USTexasLaSalle,Texas,LaSalle,2022-04-28 09:13:11,2021-11-09,0,0,0,,,,,,,,,,,,
48283,0,USTexasLaSalle,Texas,LaSalle,2022-04-28 09:13:11,2021-11-10,0,0,0,,,,,,,,,,,,
48283,0,USTexasLaSalle,Texas,LaSalle,2022-04-28 09:13:11,2021-11-11,3.8438296073760383,6.98091714120293,13.527572594697507,,,,,,,,,,,,
48283,0,USTexasLaSalle,Texas,LaSalle,2022-04-28 09:13:11,2021-11-12,3.8438296073760383,6.98091714120293,13.527572594697507,,,,,,,,,,,,
48283,0,USTexasLaSalle,Texas,LaSalle,2022-04-28 09:13:11,2021-11-13,3.8438296073760383,6.98091714120293,13.527572594697507,,,,,,,,,,,,
48283,0,USTexasLaSalle,Texas,LaSalle,2022-04-28 09:13:11,2021-11-14,3.8438296073760383,6.98091714120293,13.527572594697507,,,,,,,,,,,,
48283,0,USTexasLaSalle,Texas,LaSalle,2022-04-28 09:13:11,2021-11-15,3.8438296073760383,6.98091714120293,13.527572594697507,,,,,,,,,,,,
48283,0,USTexasLaSalle,Texas,LaSalle,2022-04-28 09:13:11,2021-11-16,3.8438296073760383,6.98091714120293,13.527572594697507,,,,,,,,,,,,
48283,0,USTexasLaSalle,Texas,LaSalle,2022-04-28 09:13:11,2021-11-17,3.8438296073760383,6.98091714120293,13.527572594697507,,,,,,,,,,,,
48283,0,USTexasLaSalle,Texas,LaSalle,2022-04-28 09:13:11,2021-11-18,2.76308690274104,4.252446990223807,6.8860203959767095,,,,,,,,,,,,
48283,0,USTexasLaSalle,Texas,LaSalle,2022-04-28 09:13:11,2021-11-19,2.76308690274104,4.252446990223807,6.8860203959767095,,,,,,,,,,,,
48283,0,USTexasLaSalle,Texas,LaSalle,2022-04-28 09:13:11,2021-11-20,2.76308690274104,4.252446990223807,6.8860203959767095,,,,,,,,,,,,
48283,0,USTexasLaSalle,Texas,LaSalle,2022-04-28 09:13:11,2021-11-21,2.76308690274104,4.252446990223807,6.8860203959767095,,,,,,,,,,,,
48283,0,USTexasLaSalle,Texas,LaSalle,2022-04-28 09:13:11,2021-11-22,2.76308690274104,4.252446990223807,6.8860203959767095,,,,,,,,,,,,
48283,0,USTexasLaSalle,Texas,LaSalle,2022-04-28 09:13:11,2021-11-23,2.76308690274104,4.252446990223807,6.8860203959767095,,,,,,,,,,,,
48283,0,USTexasLaSalle,Texas,LaSalle,2022-04-28 09:13:11,2021-11-24,2.76308690274104,4.252446990223807,6.8860203959767095,,,,,,,,,,,,
48283,0,USTexasLaSalle,Texas,LaSalle,2022-04-28 09:13:11,2021-11-25,1.297225394264114,3.424607362239741,9.725270399122959,,,,,,,,,,,,
48283,0,USTexasLaSalle,Texas,LaSalle,2022-04-28 09:13:11,2021-11-26,1.297225394264114,3.424607362239741,9.725270399122959,,,,,,,,,,,,
48283,0,USTexasLaSalle,Texas,LaSalle,2022-04-28 09:13:11,2021-11-27,1.297225394264114,3.424607362239741,9.725270399122959,,,,,,,,,,,,
48283,0,USTexasLaSalle,Texas,LaSalle,2022-04-28 09:13:11,2021-11-28,1.297225394264114,3.424607362239741,9.725270399122959,,,,,,,,,,,,
48283,0,USTexasLaSalle,Texas,LaSalle,2022-04-28 09:13:11,2021-11-29,1.297225394264114,3.424607362239741,9.725270399122959,,,,,,,,,,,,
48283,0,USTexasLaSalle,Texas,LaSalle,2022-04-28 09:13:11,2021-11-30,1.297225394264114,3.424607362239741,9.725270399122959,,,,,,,,,,,,
48283,0,USTexasLaSalle,Texas,LaSalle,2022-04-28 09:13:11,2021-12-01,1.297225394264114,3.424607362239741,9.725270399122959,,,,,,,,,,,,
48283,0,USTexasLaSalle,Texas,LaSalle,2022-04-28 09:13:11,2021-12-02,1.5794132403319414,2.4587004212965202,4.032022142110072,,,,,,,,,,,,
48283,0,USTexasLaSalle,Texas,LaSalle,2022-04-28 09:13:11,2021-12-03,1.5794132403319414,2.4587004212965202,4.032022142110072,,,,,,,,,,,,
48283,0,USTexasLaSalle,Texas,LaSalle,2022-04-28 09:13:11,2021-12-04,1.5794132403319414,2.4587004212965202,4.032022142110072,,,,,,,,,,,,
48283,0,USTexasLaSalle,Texas,LaSalle,2022-04-28 09:13:11,2021-12-05,1.5794132403319414,2.4587004212965202,4.032022142110072,,,,,,,,,,,,
48283,0,USTexasLaSalle,Texas,LaSalle,2022-04-28 09:13:11,2021-12-06,1.5794132403319414,2.4587004212965202,4.032022142110072,,,,,,,,,,,,
48283,0,USTexasLaSalle,Texas,LaSalle,2022-04-28 09:13:11,2021-12-07,1.5794132403319414,2.4587004212965202,4.032022142110072,,,,,,,,,,,,
48283,0,USTexasLaSalle,Texas,LaSalle,2022-04-28 09:13:11,2021-12-08,1.5794132403319414,2.4587004212965202,4.032022142110072,,,,,,,,,,,,
48283,0,USTexasLaSalle,Texas,LaSalle,2022-04-28 09:13:11,2021-12-09,2.3329046171045342,5.938556889059345,16.26651547741109,,,,,,,,,,,,
48283,0,USTexasLaSalle,Texas,LaSalle,2022-04-28 09:13:11,2021-12-10,2.3329046171045342,5.938556889059345,16.26651547741109,,,,,,,,,,,,
48283,0,USTexasLaSalle,Texas,LaSalle,2022-04-28 09:13:11,2021-12-11,2.3329046171045342,5.938556889059345,16.26651547741109,,,,,,,,,,,,
48283,0,USTexasLaSalle,Texas,LaSalle,2022-04-28 09:13:11,2021-12-12,2.3329046171045342,5.938556889059345,16.26651547741109,,,,,,,,,,,,
48283,0,USTexasLaSalle,Texas,LaSalle,2022-04-28 09:13:11,2021-12-13,2.3329046171045342,5.938556889059345,16.26651547741109,,,,,,,,,,,,
48283,0,USTexasLaSalle,Texas,LaSalle,2022-04-28 09:13:11,2021-12-14,2.3329046171045342,5.938556889059345,16.26651547741109,,,,,,,,,,,,
48283,0,USTexasLaSalle,Texas,LaSalle,2022-04-28 09:13:11,2021-12-15,2.3329046171045342,5.938556889059345,16.26651547741109,,,,,,,,,,,,
48283,0,USTexasLaSalle,Texas,LaSalle,2022-04-28 09:13:11,2021-12-16,0.7675404409795289,2.117019505906233,6.277437507327521,,,,,,,,,,,,
48283,0,USTexasLaSalle,Texas,LaSalle,2022-04-28 09:13:11,2021-12-17,0.7675404409795289,2.117019505906233,6.277437507327521,,,,,,,,,,,,
48283,0,USTexasLaSalle,Texas,LaSalle,2022-04-28 09:13:11,2021-12-18,0.7675404409795289,2.117019505906233,6.277437507327521,,,,,,,,,,,,
48283,0,USTexasLaSalle,Texas,LaSalle,2022-04-28 09:13:11,2021-12-19,0.7675404409795289,2.117019505906233,6.277437507327521,,,,,,,,,,,,
48283,0,USTexasLaSalle,Texas,LaSalle,2022-04-28 09:13:11,2021-12-20,0.7675404409795289,2.117019505906233,6.277437507327521,,,,,,,,,,,,
48283,0,USTexasLaSalle,Texas,LaSalle,2022-04-28 09:13:11,2021-12-21,0.7675404409795289,2.117019505906233,6.277437507327521,,,,,,,,,,,,
48283,0,USTexasLaSalle,Texas,LaSalle,2022-04-28 09:13:11,2021-12-22,0.7675404409795289,2.117019505906233,6.277437507327521,,,,,,,,,,,,
48283,0,USTexasLaSalle,Texas,LaSalle,2022-04-28 09:13:11,2021-12-23,0.469606844339364,1.2021946610719896,3.3115344293455884,,,,,,,,,,,,
48283,0,USTexasLaSalle,Texas,LaSalle,2022-04-28 09:13:11,2021-12-24,0.469606844339364,1.2021946610719896,3.3115344293455884,,,,,,,,,,,,
48283,0,USTexasLaSalle,Texas,LaSalle,2022-04-28 09:13:11,2021-12-25,0.469606844339364,1.2021946610719896,3.3115344293455884,,,,,,,,,,,,
48283,0,USTexasLaSalle,Texas,LaSalle,2022-04-28 09:13:11,2021-12-26,0.469606844339364,1.2021946610719896,3.3115344293455884,,,,,,,,,,,,
48283,0,USTexasLaSalle,Texas,LaSalle,2022-04-28 09:13:11,2021-12-27,0.469606844339364,1.2021946610719896,3.3115344293455884,,,,,,,,,,,,
48283,0,USTexasLaSalle,Texas,LaSalle,2022-04-28 09:13:11,2021-12-28,0.469606844339364,1.2021946610719896,3.3115344293455884,,,,,,,,,,,,
48283,0,USTexasLaSalle,Texas,LaSalle,2022-04-28 09:13:11,2021-12-29,0.469606844339364,1.2021946610719896,3.3115344293455884,,,,,,,,,,,,
48283,0,USTexasLaSalle,Texas,LaSalle,2022-04-28 09:13:11,2021-12-30,2.8011145480434827,3.959923819298223,5.831658593337008,,,,,,,,,,,,
48283,0,USTexasLaSalle,Texas,LaSalle,2022-04-28 09:13:11,2021-12-31,2.8011145480434827,3.959923819298223,5.831658593337008,,,,,,,,,,,,
48283,0,USTexasLaSalle,Texas,LaSalle,2022-04-28 09:13:11,2022-01-01,2.8011145480434827,3.959923819298223,5.831658593337008,,,,,,,,,,,,
48283,0,USTexasLaSalle,Texas,LaSalle,2022-04-28 09:13:11,2022-01-02,2.8011145480434827,3.959923819298223,5.831658593337008,,,,,,,,,,,,
48283,0,USTexasLaSalle,Texas,LaSalle,2022-04-28 09:13:11,2022-01-03,2.8011145480434827,3.959923819298223,5.831658593337008,,,,,,,,,,,,
48283,0,USTexasLaSalle,Texas,LaSalle,2022-04-28 09:13:11,2022-01-04,2.8011145480434827,3.959923819298223,5.831658593337008,,,,,,,,,,,,
48283,0,USTexasLaSalle,Texas,LaSalle,2022-04-28 09:13:11,2022-01-05,2.8011145480434827,3.959923819298223,5.831658593337008,,,,,,,,,,,,
48283,0,USTexasLaSalle,Texas,LaSalle,2022-04-28 09:13:11,2022-01-06,5.067533921522486,8.039530517246714,13.461827341174748,,,,,,,,,,,,
48283,0,USTexasLaSalle,Texas,LaSalle,2022-04-28 09:13:11,2022-01-07,5.067533921522486,8.039530517246714,13.461827341174748,,,,,,,,,,,,
48283,0,USTexasLaSalle,Texas,LaSalle,2022-04-28 09:13:11,2022-01-08,5.067533921522486,8.039530517246714,13.461827341174748,,,,,,,,,,,,
48283,0,USTexasLaSalle,Texas,LaSalle,2022-04-28 09:13:11,2022-01-09,5.067533921522486,8.039530517246714,13.461827341174748,,,,,,,,,,,,
48283,0,USTexasLaSalle,Texas,LaSalle,2022-04-28 09:13:11,2022-01-10,5.067533921522486,8.039530517246714,13.461827341174748,,,,,,,,,,,,
48283,0,USTexasLaSalle,Texas,LaSalle,2022-04-28 09:13:11,2022-01-11,5.067533921522486,8.039530517246714,13.461827341174748,,,,,,,,,,,,
48283,0,USTexasLaSalle,Texas,LaSalle,2022-04-28 09:13:11,2022-01-12,5.067533921522486,8.039530517246714,13.461827341174748,,,,,,,,,,,,
48283,0,USTexasLaSalle,Texas,LaSalle,2022-04-28 09:13:11,2022-01-13,5.003897440338053,8.261381881928637,14.44939465534279,,,,,,,,,,,,
48283,0,USTexasLaSalle,Texas,LaSalle,2022-04-28 09:13:11,2022-01-14,5.003897440338053,8.261381881928637,14.44939465534279,,,,,,,,,,,,
48283,0,USTexasLaSalle,Texas,LaSalle,2022-04-28 09:13:11,2022-01-15,5.003897440338053,8.261381881928637,14.44939465534279,,,,,,,,,,,,
48283,0,USTexasLaSalle,Texas,LaSalle,2022-04-28 09:13:11,2022-01-16,5.003897440338053,8.261381881928637,14.44939465534279,,,,,,,,,,,,
48283,0,USTexasLaSalle,Texas,LaSalle,2022-04-28 09:13:11,2022-01-17,5.003897440338053,8.261381881928637,14.44939465534279,,,,,,,,,,,,
48283,0,USTexasLaSalle,Texas,LaSalle,2022-04-28 09:13:11,2022-01-18,5.003897440338053,8.261381881928637,14.44939465534279,,,,,,,,,,,,
48283,0,USTexasLaSalle,Texas,LaSalle,2022-04-28 09:13:11,2022-01-19,5.003897440338053,8.261381881928637,14.44939465534279,,,,,,,,,,,,
48283,0,USTexasLaSalle,Texas,LaSalle,2022-04-28 09:13:11,2022-01-20,5.801216049065677,8.754466141569068,13.87051150550144,,,,,,,,,,,,
48283,0,USTexasLaSalle,Texas,LaSalle,2022-04-28 09:13:11,2022-01-21,5.801216049065677,8.754466141569068,13.87051150550144,,,,,,,,,,,,
48283,0,USTexasLaSalle,Texas,LaSalle,2022-04-28 09:13:11,2022-01-22,5.801216049065677,8.754466141569068,13.87051150550144,,,,,,,,,,,,
48283,0,USTexasLaSalle,Texas,LaSalle,2022-04-28 09:13:11,2022-01-23,5.801216049065677,8.754466141569068,13.87051150550144,,,,,,,,,,,,
48283,0,USTexasLaSalle,Texas,LaSalle,2022-04-28 09:13:11,2022-01-24,5.801216049065677,8.754466141569068,13.87051150550144,,,,,,,,,,,,
48283,0,USTexasLaSalle,Texas,LaSalle,2022-04-28 09:13:11,2022-01-25,5.801216049065677,8.754466141569068,13.87051150550144,,,,,,,,,,,,
48283,0,USTexasLaSalle,Texas,LaSalle,2022-04-28 09:13:11,2022-01-26,5.801216049065677,8.754466141569068,13.87051150550144,,,,,,,,,,,,
48283,0,USTexasLaSalle,Texas,LaSalle,2022-04-28 09:13:11,2022-01-27,3.884877777719616,7.7124337946631645,16.411663256187605,,,,,,,,,,,,
48283,0,USTexasLaSalle,Texas,LaSalle,2022-04-28 09:13:11,2022-01-28,3.884877777719616,7.7124337946631645,16.411663256187605,,,,,,,,,,,,
48283,0,USTexasLaSalle,Texas,LaSalle,2022-04-28 09:13:11,2022-01-29,3.884877777719616,7.7124337946631645,16.411663256187605,,,,,,,,,,,,
48283,0,USTexasLaSalle,Texas,LaSalle,2022-04-28 09:13:11,2022-01-30,3.884877777719616,7.7124337946631645,16.411663256187605,,,,,,,,,,,,
48283,0,USTexasLaSalle,Texas,LaSalle,2022-04-28 09:13:11,2022-01-31,3.884877777719616,7.7124337946631645,16.411663256187605,,,,,,,,,,,,
48283,0,USTexasLaSalle,Texas,LaSalle,2022-04-28 09:13:11,2022-02-01,3.884877777719616,7.7124337946631645,16.411663256187605,,,,,,,,,,,,
48283,0,USTexasLaSalle,Texas,LaSalle,2022-04-28 09:13:11,2022-02-02,3.884877777719616,7.7124337946631645,16.411663256187605,,,,,,,,,,,,
48283,0,USTexasLaSalle,Texas,LaSalle,2022-04-28 09:13:11,2022-02-03,2.140559651772457,3.896040064008915,7.567239569676262,,,,,,,,,,,,
48283,0,USTexasLaSalle,Texas,LaSalle,2022-04-28 09:13:11,2022-02-04,2.140559651772457,3.896040064008915,7.567239569676262,,,,,,,,,,,,
48283,0,USTexasLaSalle,Texas,LaSalle,2022-04-28 09:13:11,2022-02-05,2.140559651772457,3.896040064008915,7.567239569676262,,,,,,,,,,,,
48283,0,USTexasLaSalle,Texas,LaSalle,2022-04-28 09:13:11,2022-02-06,2.140559651772457,3.896040064008915,7.567239569676262,,,,,,,,,,,,
48283,0,USTexasLaSalle,Texas,LaSalle,2022-04-28 09:13:11,2022-02-07,2.140559651772457,3.896040064008915,7.567239569676262,,,,,,,,,,,,
48283,0,USTexasLaSalle,Texas,LaSalle,2022-04-28 09:13:11,2022-02-08,2.140559651772457,3.896040064008915,7.567239569676262,,,,,,,,,,,,
48283,0,USTexasLaSalle,Texas,LaSalle,2022-04-28 09:13:11,2022-02-09,2.140559651772457,3.896040064008915,7.567239569676262,,,,,,,,,,,,
48283,0,USTexasLaSalle,Texas,LaSalle,2022-04-28 09:13:11,2022-02-10,2.1003710787945145,3.937584642297203,7.89093851116162,,,,,,,,,,,,
48283,0,USTexasLaSalle,Texas,LaSalle,2022-04-28 09:13:11,2022-02-11,2.1003710787945145,3.937584642297203,7.89093851116162,,,,,,,,,,,,
48283,0,USTexasLaSalle,Texas,LaSalle,2022-04-28 09:13:11,2022-02-12,2.1003710787945145,3.937584642297203,7.89093851116162,,,,,,,,,,,,
48283,0,USTexasLaSalle,Texas,LaSalle,2022-04-28 09:13:11,2022-02-13,2.1003710787945145,3.937584642297203,7.89093851116162,,,,,,,,,,,,
48283,0,USTexasLaSalle,Texas,LaSalle,2022-04-28 09:13:11,2022-02-14,2.1003710787945145,3.937584642297203,7.89093851116162,,,,,,,,,,,,
48283,0,USTexasLaSalle,Texas,LaSalle,2022-04-28 09:13:11,2022-02-15,2.1003710787945145,3.937584642297203,7.89093851116162,,,,,,,,,,,,
48283,0,USTexasLaSalle,Texas,LaSalle,2022-04-28 09:13:11,2022-02-16,2.1003710787945145,3.937584642297203,7.89093851116162,,,,,,,,,,,,
48283,0,USTexasLaSalle,Texas,LaSalle,2022-04-28 09:13:11,2022-02-17,3.5276566108374263,6.5965804010395646,13.184266289364558,,,,,,,,,,,,
48283,0,USTexasLaSalle,Texas,LaSalle,2022-04-28 09:13:11,2022-02-18,3.5276566108374263,6.5965804010395646,13.184266289364558,,,,,,,,,,,,
48283,0,USTexasLaSalle,Texas,LaSalle,2022-04-28 09:13:11,2022-02-19,3.5276566108374263,6.5965804010395646,13.184266289364558,,,,,,,,,,,,
48283,0,USTexasLaSalle,Texas,LaSalle,2022-04-28 09:13:11,2022-02-20,3.5276566108374263,6.5965804010395646,13.184266289364558,,,,,,,,,,,,
48283,0,USTexasLaSalle,Texas,LaSalle,2022-04-28 09:13:11,2022-02-21,3.5276566108374263,6.5965804010395646,13.184266289364558,,,,,,,,,,,,
48283,0,USTexasLaSalle,Texas,LaSalle,2022-04-28 09:13:11,2022-02-22,3.5276566108374263,6.5965804010395646,13.184266289364558,,,,,,,,,,,,
48283,0,USTexasLaSalle,Texas,LaSalle,2022-04-28 09:13:11,2022-02-23,3.5276566108374263,6.5965804010395646,13.184266289364558,,,,,,,,,,,,
48283,0,USTexasLaSalle,Texas,LaSalle,2022-04-28 09:13:11,2022-02-24,2.99033949676888,5.260204042090268,9.85189779366312,,,,,,,,,,,,
48283,0,USTexasLaSalle,Texas,LaSalle,2022-04-28 09:13:11,2022-02-25,2.99033949676888,5.260204042090268,9.85189779366312,,,,,,,,,,,,
48283,0,USTexasLaSalle,Texas,LaSalle,2022-04-28 09:13:11,2022-02-26,2.99033949676888,5.260204042090268,9.85189779366312,,,,,,,,,,,,
48283,0,USTexasLaSalle,Texas,LaSalle,2022-04-28 09:13:11,2022-02-27,2.99033949676888,5.260204042090268,9.85189779366312,,,,,,,,,,,,
48283,0,USTexasLaSalle,Texas,LaSalle,2022-04-28 09:13:11,2022-02-28,2.99033949676888,5.260204042090268,9.85189779366312,,,,,,,,,,,,
48283,0,USTexasLaSalle,Texas,LaSalle,2022-04-28 09:13:11,2022-03-01,2.99033949676888,5.260204042090268,9.85189779366312,,,,,,,,,,,,
48283,0,USTexasLaSalle,Texas,LaSalle,2022-04-28 09:13:11,2022-03-02,2.99033949676888,5.260204042090268,9.85189779366312,,,,,,,,,,,,
48283,0,USTexasLaSalle,Texas,LaSalle,2022-04-28 09:13:11,2022-03-03,1.2631379036310848,2.5573467618596784,5.553970720360589,,,,,,,,,,,,
48283,0,USTexasLaSalle,Texas,LaSalle,2022-04-28 09:13:11,2022-03-04,1.2631379036310848,2.5573467618596784,5.553970720360589,,,,,,,,,,,,
48283,0,USTexasLaSalle,Texas,LaSalle,2022-04-28 09:13:11,2022-03-05,1.2631379036310848,2.5573467618596784,5.553970720360589,,,,,,,,,,,,
48283,0,USTexasLaSalle,Texas,LaSalle,2022-04-28 09:13:11,2022-03-06,1.2631379036310848,2.5573467618596784,5.553970720360589,,,,,,,,,,,,
48283,0,USTexasLaSalle,Texas,LaSalle,2022-04-28 09:13:11,2022-03-07,1.2631379036310848,2.5573467618596784,5.553970720360589,,,,,,,,,,,,
48283,0,USTexasLaSalle,Texas,LaSalle,2022-04-28 09:13:11,2022-03-08,1.2631379036310848,2.5573467618596784,5.553970720360589,,,,,,,,,,,,
48283,0,USTexasLaSalle,Texas,LaSalle,2022-04-28 09:13:11,2022-03-09,1.2631379036310848,2.5573467618596784,5.553970720360589,,,,,,,,,,,,
48283,0,USTexasLaSalle,Texas,LaSalle,2022-04-28 09:13:11,2022-03-10,0.3939484125734626,1.0143843389367313,2.810358817976923,,,,,,,,,,,,
48283,0,USTexasLaSalle,Texas,LaSalle,2022-04-28 09:13:11,2022-03-11,0.3939484125734626,1.0143843389367313,2.810358817976923,,,,,,,,,,,,
48283,0,USTexasLaSalle,Texas,LaSalle,2022-04-28 09:13:11,2022-03-12,0.3939484125734626,1.0143843389367313,2.810358817976923,,,,,,,,,,,,
48283,0,USTexasLaSalle,Texas,LaSalle,2022-04-28 09:13:11,2022-03-13,0.3939484125734626,1.0143843389367313,2.810358817976923,,,,,,,,,,,,
48283,0,USTexasLaSalle,Texas,LaSalle,2022-04-28 09:13:11,2022-03-14,0.3939484125734626,1.0143843389367313,2.810358817976923,,,,,,,,,,,,
48283,0,USTexasLaSalle,Texas,LaSalle,2022-04-28 09:13:11,2022-03-15,0.3939484125734626,1.0143843389367313,2.810358817976923,,,,,,,,,,,,
48283,0,USTexasLaSalle,Texas,LaSalle,2022-04-28 09:13:11,2022-03-16,0.3939484125734626,1.0143843389367313,2.810358817976923,,,,,,,,,,,,
48283,0,USTexasLaSalle,Texas,LaSalle,2022-04-28 09:13:11,2022-03-17,0.6529967143837251,1.9449628798318508,6.218072048588655,,,,,,,,,,,,
48283,0,USTexasLaSalle,Texas,LaSalle,2022-04-28 09:13:11,2022-03-18,0.6529967143837251,1.9449628798318508,6.218072048588655,,,,,,,,,,,,
48283,0,USTexasLaSalle,Texas,LaSalle,2022-04-28 09:13:11,2022-03-19,0.6529967143837251,1.9449628798318508,6.218072048588655,,,,,,,,,,,,
48283,0,USTexasLaSalle,Texas,LaSalle,2022-04-28 09:13:11,2022-03-20,0.6529967143837251,1.9449628798318508,6.218072048588655,,,,,,,,,,,,
48283,0,USTexasLaSalle,Texas,LaSalle,2022-04-28 09:13:11,2022-03-21,0.6529967143837251,1.9449628798318508,6.218072048588655,,,,,,,,,,,,
48283,0,USTexasLaSalle,Texas,LaSalle,2022-04-28 09:13:11,2022-03-22,0.6529967143837251,1.9449628798318508,6.218072048588655,,,,,,,,,,,,
48283,0,USTexasLaSalle,Texas,LaSalle,2022-04-28 09:13:11,2022-03-23,0.6529967143837251,1.9449628798318508,6.218072048588655,,,,,,,,,,,,
48283,0,USTexasLaSalle,Texas,LaSalle,2022-04-28 09:13:11,2022-03-24,0.5812979216582881,1.5668509682493867,4.541935582333774,,,,,,,,,,,,
48283,0,USTexasLaSalle,Texas,LaSalle,2022-04-28 09:13:11,2022-03-25,0.5812979216582881,1.5668509682493867,4.541935582333774,,,,,,,,,,,,
48283,0,USTexasLaSalle,Texas,LaSalle,2022-04-28 09:13:11,2022-03-26,0.5812979216582881,1.5668509682493867,4.541935582333774,,,,,,,,,,,,
48283,0,USTexasLaSalle,Texas,LaSalle,2022-04-28 09:13:11,2022-03-27,0.5812979216582881,1.5668509682493867,4.541935582333774,,,,,,,,,,,,
48283,0,USTexasLaSalle,Texas,LaSalle,2022-04-28 09:13:11,2022-03-28,0.5812979216582881,1.5668509682493867,4.541935582333774,,,,,,,,,,,,
48283,0,USTexasLaSalle,Texas,LaSalle,2022-04-28 09:13:11,2022-03-29,0.5812979216582881,1.5668509682493867,4.541935582333774,,,,,,,,,,,,
48283,0,USTexasLaSalle,Texas,LaSalle,2022-04-28 09:13:11,2022-03-30,0.5812979216582881,1.5668509682493867,4.541935582333774,,,,,,,,,,,,
48283,0,USTexasLaSalle,Texas,LaSalle,2022-04-28 09:13:11,2022-03-31,0.08047227859821163,0.21106386849887968,0.5955343432733168,,,,,,,,,,,,
48283,0,USTexasLaSalle,Texas,LaSalle,2022-04-28 09:13:11,2022-04-01,0.08047227859821163,0.21106386849887968,0.5955343432733168,,,,,,,,,,,,
48283,0,USTexasLaSalle,Texas,LaSalle,2022-04-28 09:13:11,2022-04-02,0.08047227859821163,0.21106386849887968,0.5955343432733168,,,,,,,,,,,,
48283,0,USTexasLaSalle,Texas,LaSalle,2022-04-28 09:13:11,2022-04-03,0.08047227859821163,0.21106386849887968,0.5955343432733168,,,,,,,,,,,,
48283,0,USTexasLaSalle,Texas,LaSalle,2022-04-28 09:13:11,2022-04-04,0.08047227859821163,0.21106386849887968,0.5955343432733168,,,,,,,,,,,,
48283,0,USTexasLaSalle,Texas,LaSalle,2022-04-28 09:13:11,2022-04-05,0.08047227859821163,0.21106386849887968,0.5955343432733168,,,,,,,,,,,,
48283,0,USTexasLaSalle,Texas,LaSalle,2022-04-28 09:13:11,2022-04-06,0.08047227859821163,0.21106386849887968,0.5955343432733168,,,,,,,,,,,,
48283,0,USTexasLaSalle,Texas,LaSalle,2022-04-28 09:13:11,2022-04-07,0,0,0,,,,,,,,,,,,
48283,0,USTexasLaSalle,Texas,LaSalle,2022-04-28 09:13:11,2022-04-08,0,0,0,,,,,,,,,,,,
48283,0,USTexasLaSalle,Texas,LaSalle,2022-04-28 09:13:11,2022-04-09,0,0,0,,,,,,,,,,,,
48283,0,USTexasLaSalle,Texas,LaSalle,2022-04-28 09:13:11,2022-04-10,0,0,0,,,,,,,,,,,,
48283,0,USTexasLaSalle,Texas,LaSalle,2022-04-28 09:13:11,2022-04-11,0,0,0,,,,,,,,,,,,
48283,0,USTexasLaSalle,Texas,LaSalle,2022-04-28 09:13:11,2022-04-12,0,0,0,,,,,,,,,,,,
48283,0,USTexasLaSalle,Texas,LaSalle,2022-04-28 09:13:11,2022-04-13,0,0,0,,,,,,,,,,,,
48283,0,USTexasLaSalle,Texas,LaSalle,2022-04-28 09:13:11,2022-04-14,0.4151451812717348,0.9532117900943453,2.3545818569740007,,,,,,,,,,,,
48283,0,USTexasLaSalle,Texas,LaSalle,2022-04-28 09:13:11,2022-04-15,0.4151451812717348,0.9532117900943453,2.3545818569740007,,,,,,,,,,,,
48283,0,USTexasLaSalle,Texas,LaSalle,2022-04-28 09:13:11,2022-04-16,0.4151451812717348,0.9532117900943453,2.3545818569740007,,,,,,,,,,,,
48283,0,USTexasLaSalle,Texas,LaSalle,2022-04-28 09:13:11,2022-04-17,0.4151451812717348,0.9532117900943453,2.3545818569740007,,,,,,,,,,,,
48283,0,USTexasLaSalle,Texas,LaSalle,2022-04-28 09:13:11,2022-04-18,0.4151451812717348,0.9532117900943453,2.3545818569740007,,,,,,,,,,,,
48283,0,USTexasLaSalle,Texas,LaSalle,2022-04-28 09:13:11,2022-04-19,0.4151451812717348,0.9532117900943453,2.3545818569740007,,,,,,,,,,,,
48283,0,USTexasLaSalle,Texas,LaSalle,2022-04-28 09:13:11,2022-04-20,0.4151451812717348,0.9532117900943453,2.3545818569740007,,,,,,,,,,,,
48283,0,USTexasLaSalle,Texas,LaSalle,2022-04-28 09:13:11,2022-04-21,0.4641667639116635,1.026043651319862,2.4386918722023427,,,,,,,,,,,,
48283,0,USTexasLaSalle,Texas,LaSalle,2022-04-28 09:13:11,2022-04-22,0.4641667639116635,1.026043651319862,2.4386918722023427,,,,,,,,,,,,
48283,0,USTexasLaSalle,Texas,LaSalle,2022-04-28 09:13:11,2022-04-23,0.4641667639116635,1.026043651319862,2.4386918722023427,,,,,,,,,,,,
48283,0,USTexasLaSalle,Texas,LaSalle,2022-04-28 09:13:11,2022-04-24,0.4641667639116635,1.026043651319862,2.4386918722023427,,,,,,,,,,,,
48283,0,USTexasLaSalle,Texas,LaSalle,2022-04-28 09:13:11,2022-04-25,0.4641667639116635,1.026043651319862,2.4386918722023427,,,,,,,,,,,,
48283,0,USTexasLaSalle,Texas,LaSalle,2022-04-28 09:13:11,2022-04-26,0.4641667639116635,1.026043651319862,2.4386918722023427,,,,,,,,,,,,
48283,0,USTexasLaSalle,Texas,LaSalle,2022-04-28 09:13:11,2022-04-27,0.4641667639116635,1.026043651319862,2.4386918722023427,,,,,,,,,,,,
