FIPS,HR_UID,nameid,province,region,analysisTime,dates,pointprevalence_025,pointprevalence_50,pointprevalence_975,pointinfections_025,pointinfections_50,pointinfections_975,pointinfectious_025,pointinfectious_50,pointinfectious_975,pointinfectiousprevalence_05,pointinfectiousprevalence_50,pointinfectiousprevalence_95,infectrate_025,infectrate_50,infectrate_975
0,0,Jamaica,,,2022-03-22 20:36:48.968407,2021-08-27,0.01246693,0.03459330,0.63926734,369,1024,18929,137,519,10433,0.00463604,0.01753319,0.35234009,0.52233144,1.66428134,2.02876029
0,0,Jamaica,,,2022-03-22 20:36:48.968407,2021-08-28,0.01862112,0.05125554,0.69244862,551,1517,20504,237,758,11541,0.00801929,0.02562883,0.38975385,0.52233166,1.66427766,2.02875521
0,0,Jamaica,,,2022-03-22 20:36:48.968407,2021-08-29,0.02779336,0.07603722,0.77301094,823,2251,22890,363,1118,13186,0.01228470,0.03776934,0.44532928,0.52233236,1.66426612,2.02873930
0,0,Jamaica,,,2022-03-22 20:36:48.968407,2021-08-30,0.04150920,0.11037550,0.87079216,1229,3268,25785,545,1651,15278,0.01843120,0.05575816,0.51596054,0.52233454,1.66422992,2.02868938
0,0,Jamaica,,,2022-03-22 20:36:48.968407,2021-08-31,0.06181285,0.16288346,0.97303721,1830,4823,28813,808,2441,17454,0.02730556,0.08244011,0.58945240,0.52234137,1.66411644,2.02853288
0,0,Jamaica,,,2022-03-22 20:36:48.968407,2021-09-01,0.09159163,0.24044060,1.07227309,2712,7119,31751,1199,3615,19582,0.04050951,0.12209413,0.66130695,0.52236281,1.66376074,2.02804236
0,0,Jamaica,,,2022-03-22 20:36:48.968407,2021-09-02,0.13486843,0.35574463,1.17274838,3993,10534,34726,1784,5356,21625,0.06025552,0.18090062,0.73029533,0.52242997,1.66264690,2.02650645
0,0,Jamaica,,,2022-03-22 20:36:48.968407,2021-09-03,0.19960316,0.52113607,1.29551880,5910,15431,38362,2636,7890,23965,0.08904371,0.26647876,0.80934424,0.52263999,1.65916937,2.02171199
0,0,Jamaica,,,2022-03-22 20:36:48.968407,2021-09-04,0.29358626,0.71072779,1.43152831,8693,21045,42389,3869,11160,26491,0.13066026,0.37688750,0.89461619,0.52329305,1.64841147,2.00688683
0,0,Jamaica,,,2022-03-22 20:36:48.968407,2021-09-05,0.42764390,0.97274710,1.64368238,12663,28804,48672,5636,15416,29350,0.19035990,0.52061746,0.99117362,0.52528806,1.61605805,1.96216285
0,0,Jamaica,,,2022-03-22 20:36:48.968407,2021-09-06,0.60835025,1.28486876,2.12193014,18014,38047,62833,8121,20672,33577,0.27426001,0.69812536,1.13394111,0.53106727,1.52926559,1.83860093
0,0,Jamaica,,,2022-03-22 20:36:48.968407,2021-09-07,0.76541468,1.61499642,2.69206644,22665,47822,79716,11315,26949,42776,0.38212315,0.91008572,1.44459051,0.54557727,1.33359761,1.56866161
0,0,Jamaica,,,2022-03-22 20:36:48.968407,2021-09-08,0.90578667,1.94957736,3.19237282,26821,57730,94531,14504,32888,53235,0.48982287,1.11067168,1.79778754,0.57256132,1.05350408,1.19288436
0,0,Jamaica,,,2022-03-22 20:36:48.968407,2021-09-09,0.99257189,2.23304310,3.56198175,29391,66124,105476,17293,39419,62431,0.58399825,1.33122167,2.10834581,0.59025473,0.83341844,0.92575737
0,0,Jamaica,,,2022-03-22 20:36:48.968407,2021-09-10,1.07119140,2.41766231,3.87216186,31719,71590,114660,19470,44382,70213,0.65752786,1.49882010,2.37115451,0.58164083,0.72195322,0.80932977
0,0,Jamaica,,,2022-03-22 20:36:48.968407,2021-09-11,1.14041263,2.58272893,4.15813460,33769,76478,123129,21042,48382,76444,0.71060973,1.63391435,2.58156072,0.57408103,0.67741559,0.76353430
0,0,Jamaica,,,2022-03-22 20:36:48.968407,2021-09-12,1.21301808,2.74985023,4.60825284,35919,81427,136457,22816,51873,85808,0.77053930,1.75181130,2.89780648,0.56905774,0.65755812,0.74003026
0,0,Jamaica,,,2022-03-22 20:36:48.968407,2021-09-13,1.29834898,2.91079804,5.03791199,38446,86193,149180,24269,55164,93831,0.81960255,1.86291888,3.16874382,0.55602679,0.63421949,0.70839349
0,0,Jamaica,,,2022-03-22 20:36:48.968407,2021-09-14,1.38107589,3.05384483,5.44305920,40895,90429,161177,25966,58239,103489,0.87691255,1.96679227,3.49488759,0.52625535,0.59434680,0.64847297
0,0,Jamaica,,,2022-03-22 20:36:48.968407,2021-09-15,1.45268513,3.15583809,5.75219386,43016,93449,170331,27520,60806,111299,0.92936687,2.05345492,3.75865043,0.48015898,0.51922416,0.56226428
0,0,Jamaica,,,2022-03-22 20:36:48.968407,2021-09-16,1.49597342,3.19702385,5.90124632,44298,94669,174745,28772,62643,117068,0.97166215,2.11549601,3.95345288,0.43022423,0.45558273,0.52628131
0,0,Jamaica,,,2022-03-22 20:36:48.968407,2021-09-17,1.53245549,3.20683408,5.94524992,45378,94959,176048,29710,63786,119590,1.00333650,2.15410951,4.03864650,0.39413505,0.42395396,0.51183548
0,0,Jamaica,,,2022-03-22 20:36:48.968407,2021-09-18,1.56201583,3.21735186,5.96519677,46253,95270,176639,30437,64129,120518,1.02789209,2.16569089,4.06996969,0.37894605,0.41125840,0.50297603
0,0,Jamaica,,,2022-03-22 20:36:48.968407,2021-09-19,1.58243290,3.22051900,5.96751118,46858,95364,176707,30795,63988,121216,1.03996611,2.16092285,4.09356074,0.37237196,0.40378558,0.49335645
0,0,Jamaica,,,2022-03-22 20:36:48.968407,2021-09-20,1.56608126,3.19291220,5.92558840,46374,94547,175466,30760,63820,121183,1.03878476,2.15526347,4.09241773,0.36561198,0.39237928,0.47145803
0,0,Jamaica,,,2022-03-22 20:36:48.968407,2021-09-21,1.52875200,3.13434699,5.80810695,45268,92813,171987,30349,63145,120345,1.02491753,2.13244111,4.06411798,0.35256518,0.37036522,0.42198931
0,0,Jamaica,,,2022-03-22 20:36:48.968407,2021-09-22,1.47869717,3.02256907,5.62408526,43786,89503,166538,29813,61726,118107,1.00681908,2.08453978,3.98853932,0.31894492,0.33647376,0.35753866
0,0,Jamaica,,,2022-03-22 20:36:48.968407,2021-09-23,1.40843528,2.86364947,5.38222306,41706,84797,159376,28975,59400,114155,0.97850765,2.00599928,3.85509249,0.28167995,0.29868065,0.33084192
0,0,Jamaica,,,2022-03-22 20:36:48.968407,2021-09-24,1.32092624,2.68475375,5.11144187,39114,79499,151358,27605,56354,109209,0.93226563,1.90313342,3.68805959,0.25319299,0.27751879,0.31919836
0,0,Jamaica,,,2022-03-22 20:36:48.968407,2021-09-25,1.22899818,2.51410391,4.83347422,36392,74446,143126,25901,52946,103738,0.87470068,1.78801653,3.50329805,0.24328033,0.26921774,0.31428516
0,0,Jamaica,,,2022-03-22 20:36:48.968407,2021-09-26,1.13894024,2.35208902,4.55786963,33725,69649,134965,24110,49423,98111,0.81420840,1.66906593,3.31329113,0.23933061,0.26477140,0.31014437
0,0,Jamaica,,,2022-03-22 20:36:48.968407,2021-09-27,1.05313723,2.18303324,4.28617310,31185,64643,126920,22349,45852,92505,0.75474255,1.54847614,3.12394849,0.23631751,0.25929626,0.30193934
0,0,Jamaica,,,2022-03-22 20:36:48.968407,2021-09-28,0.97238611,2.02374909,4.01294746,28793,59926,118829,20664,42566,86923,0.69786813,1.43750971,2.93545407,0.23072043,0.24911099,0.28447748
0,0,Jamaica,,,2022-03-22 20:36:48.968407,2021-09-29,0.90201847,1.85524786,3.73212896,26710,54936,110514,19072,39396,81272,0.64407481,1.33042540,2.74461745,0.21533989,0.23622222,0.25907597
0,0,Jamaica,,,2022-03-22 20:36:48.968407,2021-09-30,0.83294748,1.68945265,3.44749927,24664,50027,102086,17598,36059,75508,0.59431395,1.21776273,2.54997068,0.19380604,0.22113290,0.23684106
0,0,Jamaica,,,2022-03-22 20:36:48.968407,2021-10-01,0.76688623,1.53734567,3.17017288,22708,45523,93873,16239,32802,69740,0.54843308,1.10776979,2.35518919,0.18220574,0.21133163,0.22751332
0,0,Jamaica,,,2022-03-22 20:36:48.968407,2021-10-02,0.70485770,1.39766493,2.90743641,20871,41387,86093,14954,29757,64142,0.50501035,1.00491378,2.16613996,0.17791829,0.20671433,0.22425946
0,0,Jamaica,,,2022-03-22 20:36:48.968407,2021-10-03,0.64715145,1.26813732,2.66126835,19163,37551,78804,13746,27061,58831,0.46421233,0.91388306,1.98676039,0.17688370,0.20456897,0.22225437
0,0,Jamaica,,,2022-03-22 20:36:48.968407,2021-10-04,0.59347961,1.14279153,2.42948434,17573,33839,71940,12619,24564,53832,0.42617671,0.82957314,1.81794318,0.17807118,0.20105247,0.21985940
0,0,Jamaica,,,2022-03-22 20:36:48.968407,2021-10-05,0.54312716,1.03185592,2.20152333,16082,30554,65190,11568,22210,48907,0.39068028,0.75007098,1.65163445,0.18150856,0.19578489,0.21574853
0,0,Jamaica,,,2022-03-22 20:36:48.968407,2021-10-06,0.49536887,0.93098711,1.97320529,14668,27568,58429,10580,20025,44080,0.35729668,0.67628019,1.48861993,0.17325896,0.18745906,0.20929342
0,0,Jamaica,,,2022-03-22 20:36:48.968407,2021-10-07,0.45022852,0.83548815,1.75650438,13331,24740,52012,9645,18000,39476,0.32572834,0.60788901,1.33312605,0.15734543,0.18449486,0.20970461
0,0,Jamaica,,,2022-03-22 20:36:48.968407,2021-10-08,0.40812514,0.75193972,1.55647780,12085,22266,46089,8765,16191,35140,0.29601385,0.54680356,1.18672707,0.14704648,0.18139164,0.20992082
0,0,Jamaica,,,2022-03-22 20:36:48.968407,2021-10-09,0.36947333,0.67676175,1.37590403,10940,20040,40742,7947,14578,31150,0.26838207,0.49232122,1.05197135,0.14378467,0.18010510,0.20930632
0,0,Jamaica,,,2022-03-22 20:36:48.968407,2021-10-10,0.33429037,0.60692865,1.21500835,9898,17972,35978,7195,13055,27547,0.24300927,0.44090177,0.93030525,0.14326449,0.17940367,0.20876451
0,0,Jamaica,,,2022-03-22 20:36:48.968407,2021-10-11,0.30241405,0.54477534,1.07676546,8954,16131,31884,6511,11741,24426,0.21990544,0.39651034,0.82489426,0.14484332,0.17892657,0.20795506
0,0,Jamaica,,,2022-03-22 20:36:48.968407,2021-10-12,0.27364833,0.48804803,0.95418480,8103,14451,28254,5891,10519,21624,0.19897340,0.35526356,0.73027294,0.14883891,0.17710000,0.20666630
0,0,Jamaica,,,2022-03-22 20:36:48.968407,2021-10-13,0.24778081,0.43821702,0.84657267,7337,12976,25068,5332,9433,19165,0.18008689,0.31856111,0.64722316,0.14995120,0.17870426,0.20519722
0,0,Jamaica,,,2022-03-22 20:36:48.968407,2021-10-14,0.22452958,0.39448364,0.75345161,6648,11681,22310,4837,8511,17032,0.16334836,0.28742225,0.57519579,0.14906546,0.18560829,0.20383376
0,0,Jamaica,,,2022-03-22 20:36:48.968407,2021-10-15,0.20356485,0.35371246,0.67223861,6027,10473,19906,4390,7652,15163,0.14826765,0.25841840,0.51206362,0.14846781,0.18794357,0.20391713
0,0,Jamaica,,,2022-03-22 20:36:48.968407,2021-10-16,0.18461872,0.31877714,0.60175584,5466,9439,17818,3985,6865,13527,0.13458530,0.23184251,0.45684501,0.14852899,0.18872173,0.20393797
0,0,Jamaica,,,2022-03-22 20:36:48.968407,2021-10-17,0.16754370,0.28593414,0.53770662,4961,8466,15922,3597,6169,12084,0.12149534,0.20835449,0.40809507,0.14943686,0.18902058,0.20406862
0,0,Jamaica,,,2022-03-22 20:36:48.968407,2021-10-18,0.15192240,0.25754252,0.48039691,4498,7626,14225,3263,5554,10797,0.11021612,0.18758451,0.36463414,0.15212758,0.19000652,0.20441673
0,0,Jamaica,,,2022-03-22 20:36:48.968407,2021-10-19,0.13779425,0.23177820,0.42904579,4080,6863,12704,2936,5013,9644,0.09915279,0.16929677,0.32571310,0.15905184,0.18873179,0.20540526
0,0,Jamaica,,,2022-03-22 20:36:48.968407,2021-10-20,0.12387893,0.20847691,0.38296596,3668,6173,11340,2651,4513,8611,0.08954073,0.15241838,0.29082827,0.16935000,0.18417682,0.20692561
0,0,Jamaica,,,2022-03-22 20:36:48.968407,2021-10-21,0.11258840,0.18807240,0.34232737,3333,5569,10136,2391,4067,7700,0.08076576,0.13734548,0.26006572,0.16650750,0.18736464,0.20824451
0,0,Jamaica,,,2022-03-22 20:36:48.968407,2021-10-22,0.10240797,0.16840726,0.30508313,3032,4986,9034,2172,3645,6868,0.07335701,0.12311198,0.23196954,0.16517374,0.19065701,0.21069680
0,0,Jamaica,,,2022-03-22 20:36:48.968407,2021-10-23,0.09309470,0.15069310,0.27174445,2756,4462,8046,1964,3266,6121,0.06633485,0.11029996,0.20671500,0.16470027,0.19207640,0.21209060
0,0,Jamaica,,,2022-03-22 20:36:48.968407,2021-10-24,0.08474005,0.13525663,0.24203014,2509,4005,7166,1781,2927,5452,0.06015441,0.09886087,0.18414042,0.16481378,0.19283870,0.21258320
0,0,Jamaica,,,2022-03-22 20:36:48.968407,2021-10-25,0.07721514,0.12064993,0.21562148,2286,3572,6384,1618,2612,4857,0.05464883,0.08824156,0.16402586,0.16565282,0.19384367,0.21275982
0,0,Jamaica,,,2022-03-22 20:36:48.968407,2021-10-26,0.07039032,0.10836002,0.19305044,2084,3208,5716,1472,2336,4329,0.04971469,0.07889967,0.14619908,0.16787322,0.19620461,0.21273144
0,0,Jamaica,,,2022-03-22 20:36:48.968407,2021-10-27,0.06419370,0.09782761,0.17265687,1900,2896,5112,1341,2114,3884,0.04529010,0.07139220,0.13118409,0.17130783,0.20058513,0.21293245
0,0,Jamaica,,,2022-03-22 20:36:48.968407,2021-10-28,0.05859846,0.08839953,0.15482410,1735,2617,4584,1223,1904,3471,0.04132747,0.06432201,0.11723141,0.17460887,0.20524957,0.21536532
0,0,Jamaica,,,2022-03-22 20:36:48.968407,2021-10-29,0.05357247,0.07948287,0.13906917,1586,2353,4118,1118,1715,3118,0.03777684,0.05794460,0.10530510,0.17722834,0.20769691,0.21684322
0,0,Jamaica,,,2022-03-22 20:36:48.968407,2021-10-30,0.04907436,0.07195040,0.12491570,1453,2130,3698,1024,1546,2800,0.03458136,0.05221863,0.09458925,0.17752348,0.20847264,0.21731132
0,0,Jamaica,,,2022-03-22 20:36:48.968407,2021-10-31,0.04499721,0.06490066,0.11220671,1332,1921,3322,938,1391,2515,0.03168237,0.04698595,0.08496392,0.17755781,0.20880480,0.21710972
0,0,Jamaica,,,2022-03-22 20:36:48.968407,2021-11-01,0.04123615,0.05872894,0.10079930,1221,1739,2984,859,1252,2260,0.02903142,0.04230498,0.07632142,0.17753056,0.20666570,0.21615262
0,0,Jamaica,,,2022-03-22 20:36:48.968407,2021-11-02,0.03772120,0.05299128,0.09056630,1116,1569,2681,787,1129,2030,0.02658221,0.03813732,0.06856492,0.17741719,0.20767640,0.21413770
0,0,Jamaica,,,2022-03-22 20:36:48.968407,2021-11-03,0.03431191,0.04802340,0.08139315,1016,1422,2410,719,1023,1824,0.02428867,0.03455829,0.06160774,0.17375996,0.20891483,0.21533038
0,0,Jamaica,,,2022-03-22 20:36:48.968407,2021-11-04,0.03124528,0.04352396,0.07317093,925,1288,2166,655,924,1639,0.02212080,0.03122979,0.05537046,0.15573857,0.20584680,0.22110112
0,0,Jamaica,,,2022-03-22 20:36:48.968407,2021-11-05,0.02838546,0.03955495,0.06597349,840,1171,1953,594,837,1475,0.02008089,0.02829323,0.04982036,0.14627562,0.20375094,0.22463266
0,0,Jamaica,,,2022-03-22 20:36:48.968407,2021-11-06,0.02564227,0.03601485,0.05934274,759,1066,1757,538,761,1327,0.01818884,0.02570912,0.04482676,0.14292071,0.20318497,0.22609415
0,0,Jamaica,,,2022-03-22 20:36:48.968407,2021-11-07,0.02304196,0.03280273,0.05340345,682,971,1581,487,691,1193,0.01645215,0.02333937,0.04029760,0.14280479,0.20370405,0.22662644
0,0,Jamaica,,,2022-03-22 20:36:48.968407,2021-11-08,0.02080078,0.02982414,0.04817261,615,883,1426,438,628,1074,0.01480967,0.02123763,0.03628253,0.14577762,0.20631838,0.22686435
0,0,Jamaica,,,2022-03-22 20:36:48.968407,2021-11-09,0.01871838,0.02714787,0.04367712,554,803,1293,397,573,970,0.01341745,0.01937186,0.03276807,0.15430981,0.21095392,0.22715235
0,0,Jamaica,,,2022-03-22 20:36:48.968407,2021-11-10,0.01696237,0.02482776,0.03996902,502,735,1183,359,523,881,0.01213605,0.01768792,0.02977163,0.17058541,0.22100452,0.23613703
0,0,Jamaica,,,2022-03-22 20:36:48.968407,2021-11-11,0.01545703,0.02269819,0.03697236,457,672,1094,323,478,808,0.01092324,0.01616878,0.02729360,0.18915042,0.22856060,0.25096120
0,0,Jamaica,,,2022-03-22 20:36:48.968407,2021-11-12,0.01433597,0.02087661,0.03425927,424,618,1014,295,438,746,0.00999584,0.01480958,0.02520825,0.20066247,0.23090521,0.26909455
0,0,Jamaica,,,2022-03-22 20:36:48.968407,2021-11-13,0.01336957,0.01920832,0.03186680,395,568,943,273,403,691,0.00922115,0.01361588,0.02336726,0.20579536,0.23252553,0.27686627
0,0,Jamaica,,,2022-03-22 20:36:48.968407,2021-11-14,0.01260032,0.01767456,0.02967381,373,523,878,254,370,643,0.00860314,0.01252021,0.02173221,0.20825914,0.23447212,0.27974633
0,0,Jamaica,,,2022-03-22 20:36:48.968407,2021-11-15,0.01191800,0.01629384,0.02766997,352,482,819,239,340,599,0.00808029,0.01149735,0.02023132,0.21210412,0.23914727,0.28165136
0,0,Jamaica,,,2022-03-22 20:36:48.968407,2021-11-16,0.01125359,0.01522193,0.02583640,333,450,765,226,315,558,0.00763235,0.01064095,0.01886753,0.22092843,0.24722904,0.28372007
0,0,Jamaica,,,2022-03-22 20:36:48.968407,2021-11-17,0.01072425,0.01429736,0.02419930,317,423,716,214,293,521,0.00724659,0.00990184,0.01762193,0.23417951,0.25167213,0.30198797
0,0,Jamaica,,,2022-03-22 20:36:48.968407,2021-11-18,0.01036902,0.01343015,0.02272775,307,397,673,204,276,488,0.00690899,0.00934153,0.01651176,0.24029819,0.25680229,0.33418565
0,0,Jamaica,,,2022-03-22 20:36:48.968407,2021-11-19,0.00983948,0.01255977,0.02164356,291,371,640,196,259,461,0.00663011,0.00875338,0.01557969,0.24089113,0.26506541,0.35535984
0,0,Jamaica,,,2022-03-22 20:36:48.968407,2021-11-20,0.00930948,0.01193469,0.02065365,275,353,611,187,244,438,0.00631516,0.00826036,0.01481363,0.24112070,0.26903689,0.36434653
0,0,Jamaica,,,2022-03-22 20:36:48.968407,2021-11-21,0.00878510,0.01125358,0.01974176,260,333,584,177,229,418,0.00598015,0.00775881,0.01413325,0.24129110,0.27029026,0.36555147
0,0,Jamaica,,,2022-03-22 20:36:48.968407,2021-11-22,0.00817583,0.01068304,0.01889501,242,316,559,168,216,399,0.00568513,0.00732653,0.01350802,0.24261975,0.27012451,0.36082055
0,0,Jamaica,,,2022-03-22 20:36:48.968407,2021-11-23,0.00763535,0.01012376,0.01809769,226,299,535,156,204,382,0.00529999,0.00691630,0.01292455,0.24764479,0.27006400,0.34736754
0,0,Jamaica,,,2022-03-22 20:36:48.968407,2021-11-24,0.00713271,0.00956482,0.01732890,211,283,513,146,193,366,0.00493359,0.00654915,0.01237516,0.25459562,0.27442639,0.32516370
0,0,Jamaica,,,2022-03-22 20:36:48.968407,2021-11-25,0.00670163,0.00907486,0.01660833,198,268,491,137,183,351,0.00462815,0.00619763,0.01185523,0.26039984,0.28235120,0.30816467
0,0,Jamaica,,,2022-03-22 20:36:48.968407,2021-11-26,0.00642645,0.00859250,0.01593218,190,254,471,130,174,335,0.00439566,0.00589436,0.01134198,0.25982423,0.28301780,0.31113864
0,0,Jamaica,,,2022-03-22 20:36:48.968407,2021-11-27,0.00619847,0.00813608,0.01528958,183,240,452,124,165,322,0.00419676,0.00559327,0.01088393,0.25924211,0.28367738,0.31567906
0,0,Jamaica,,,2022-03-22 20:36:48.968407,2021-11-28,0.00594781,0.00774054,0.01464696,176,229,433,118,156,309,0.00400555,0.00529800,0.01044790,0.25992272,0.28476053,0.31815034
0,0,Jamaica,,,2022-03-22 20:36:48.968407,2021-11-29,0.00572347,0.00737367,0.01404151,169,218,415,114,148,296,0.00386080,0.00502125,0.01002212,0.26265125,0.28574018,0.32143039
0,0,Jamaica,,,2022-03-22 20:36:48.968407,2021-11-30,0.00556343,0.00701328,0.01355625,164,207,401,110,141,284,0.00372938,0.00476509,0.00960814,0.26871668,0.29000927,0.32827176
0,0,Jamaica,,,2022-03-22 20:36:48.968407,2021-12-01,0.00540627,0.00669773,0.01314082,160,198,389,107,134,274,0.00362291,0.00452645,0.00928493,0.27442142,0.30133098,0.34094885
0,0,Jamaica,,,2022-03-22 20:36:48.968407,2021-12-02,0.00523722,0.00645318,0.01279274,155,191,378,103,128,266,0.00348396,0.00434798,0.00900756,0.26810975,0.31624878,0.35527001
0,0,Jamaica,,,2022-03-22 20:36:48.968407,2021-12-03,0.00511874,0.00622453,0.01233355,151,184,365,99,124,258,0.00336932,0.00420734,0.00873315,0.26478870,0.32577553,0.36591770
0,0,Jamaica,,,2022-03-22 20:36:48.968407,2021-12-04,0.00501271,0.00608717,0.01189903,148,180,352,97,119,249,0.00329110,0.00404400,0.00843266,0.26429123,0.33002301,0.37118317
0,0,Jamaica,,,2022-03-22 20:36:48.968407,2021-12-05,0.00493714,0.00595185,0.01149101,146,176,340,95,116,241,0.00322913,0.00392630,0.00813903,0.26674622,0.33340587,0.37439201
0,0,Jamaica,,,2022-03-22 20:36:48.968407,2021-12-06,0.00485086,0.00577731,0.01112592,143,171,329,94,113,232,0.00317678,0.00383617,0.00786589,0.27528358,0.33980546,0.37921495
0,0,Jamaica,,,2022-03-22 20:36:48.968407,2021-12-07,0.00481173,0.00570534,0.01083719,142,168,320,92,111,225,0.00313179,0.00377417,0.00762864,0.29782926,0.35505905,0.39000498
0,0,Jamaica,,,2022-03-22 20:36:48.968407,2021-12-08,0.00471847,0.00569284,0.01066968,139,168,315,91,110,220,0.00310165,0.00371511,0.00745126,0.34173186,0.38290866,0.40925146
0,0,Jamaica,,,2022-03-22 20:36:48.968407,2021-12-09,0.00464590,0.00575028,0.01063056,137,170,314,92,110,217,0.00311527,0.00372480,0.00735391,0.39240842,0.41494248,0.43090334
0,0,Jamaica,,,2022-03-22 20:36:48.968407,2021-12-10,0.00465429,0.00577072,0.01058208,137,170,313,91,110,216,0.00310555,0.00373585,0.00730977,0.41985525,0.43626669,0.44559695
0,0,Jamaica,,,2022-03-22 20:36:48.968407,2021-12-11,0.00469340,0.00581624,0.01057517,138,172,313,91,111,215,0.00310627,0.00375225,0.00728472,0.43154887,0.44689141,0.45305707
0,0,Jamaica,,,2022-03-22 20:36:48.968407,2021-12-12,0.00475165,0.00587510,0.01060239,140,173,313,92,112,215,0.00313119,0.00378444,0.00728342,0.43898825,0.45477224,0.45998033
0,0,Jamaica,,,2022-03-22 20:36:48.968407,2021-12-13,0.00484698,0.00596612,0.01069673,143,176,316,94,113,216,0.00318058,0.00382631,0.00731383,0.45042465,0.47173460,0.47839970
0,0,Jamaica,,,2022-03-22 20:36:48.968407,2021-12-14,0.00501091,0.00613174,0.01095667,148,181,324,96,115,219,0.00325249,0.00389552,0.00741103,0.47574218,0.51374925,0.53184040
0,0,Jamaica,,,2022-03-22 20:36:48.968407,2021-12-15,0.00521531,0.00648065,0.01155452,154,191,342,98,119,226,0.00333890,0.00402614,0.00765312,0.51100597,0.59449695,0.63767340
0,0,Jamaica,,,2022-03-22 20:36:48.968407,2021-12-16,0.00551492,0.00704020,0.01260323,163,208,373,103,125,240,0.00350623,0.00422182,0.00813485,0.54639425,0.68799459,0.76534505
0,0,Jamaica,,,2022-03-22 20:36:48.968407,2021-12-17,0.00587295,0.00791415,0.01407377,173,234,416,109,135,263,0.00370621,0.00457526,0.00890395,0.56868267,0.74905511,0.85158868
0,0,Jamaica,,,2022-03-22 20:36:48.968407,2021-12-18,0.00631297,0.00888391,0.01588456,186,263,470,117,150,294,0.00397610,0.00508205,0.00994340,0.58038486,0.77749698,0.89093343
0,0,Jamaica,,,2022-03-22 20:36:48.968407,2021-12-19,0.00684997,0.01011627,0.01803545,202,299,534,127,169,332,0.00429666,0.00573532,0.01122477,0.59199793,0.79388310,0.90976301
0,0,Jamaica,,,2022-03-22 20:36:48.968407,2021-12-20,0.00750891,0.01152182,0.02063537,222,341,611,138,191,378,0.00467036,0.00647944,0.01276684,0.61804618,0.81812473,0.92983234
0,0,Jamaica,,,2022-03-22 20:36:48.968407,2021-12-21,0.00836292,0.01323942,0.02403597,247,392,711,150,218,434,0.00509062,0.00737062,0.01468304,0.68389822,0.87131539,0.97772652
0,0,Jamaica,,,2022-03-22 20:36:48.968407,2021-12-22,0.00959756,0.01560286,0.02887759,284,462,855,168,253,510,0.00569301,0.00857553,0.01725156,0.81378105,0.98302378,1.11811691
0,0,Jamaica,,,2022-03-22 20:36:48.968407,2021-12-23,0.01163932,0.01889204,0.03575371,344,559,1058,197,302,618,0.00665371,0.01020256,0.02088908,0.96661495,1.10918808,1.33618094
0,0,Jamaica,,,2022-03-22 20:36:48.968407,2021-12-24,0.01428224,0.02320577,0.04520858,422,687,1338,236,365,769,0.00797528,0.01235562,0.02597682,1.06717220,1.18917832,1.48266067
0,0,Jamaica,,,2022-03-22 20:36:48.968407,2021-12-25,0.01775650,0.02862512,0.05735158,525,847,1698,291,448,973,0.00983446,0.01515104,0.03288835,1.11393785,1.22409037,1.54995930
0,0,Jamaica,,,2022-03-22 20:36:48.968407,2021-12-26,0.02233144,0.03550264,0.07317305,661,1051,2166,365,553,1233,0.01233341,0.01870052,0.04164246,1.14058587,1.24893018,1.58395955
0,0,Jamaica,,,2022-03-22 20:36:48.968407,2021-12-27,0.02843028,0.04481414,0.09367647,841,1327,2773,461,691,1573,0.01559960,0.02334889,0.05313634,1.18272604,1.28499433,1.62427151
0,0,Jamaica,,,2022-03-22 20:36:48.968407,2021-12-28,0.03692467,0.05736769,0.12070054,1093,1698,3574,591,875,2018,0.01999075,0.02956933,0.06817471,1.28121922,1.37019506,1.71003208
0,0,Jamaica,,,2022-03-22 20:36:48.968407,2021-12-29,0.04971073,0.07688797,0.15538436,1472,2276,4601,777,1145,2611,0.02626476,0.03869005,0.08817685,1.44212136,1.52260379,1.87110111
0,0,Jamaica,,,2022-03-22 20:36:48.968407,2021-12-30,0.07002211,0.10695256,0.20180833,2073,3167,5975,1057,1544,3375,0.03572327,0.05214591,0.11397715,1.52151856,1.73264946,2.05698654
0,0,Jamaica,,,2022-03-22 20:36:48.968407,2021-12-31,0.10234326,0.15154816,0.26601868,3030,4487,7877,1484,2162,4387,0.05012325,0.07303378,0.14816490,1.55647582,1.86645455,2.18378151
0,0,Jamaica,,,2022-03-22 20:36:48.968407,2022-01-01,0.14951641,0.21751918,0.37728076,4427,6441,11171,2162,3101,5780,0.07304390,0.10472799,0.19522677,1.57143455,1.92444218,2.24109497
0,0,Jamaica,,,2022-03-22 20:36:48.968407,2022-01-02,0.22107734,0.31399645,0.51187694,6546,9297,15157,3198,4471,8025,0.10801212,0.15101523,0.27104012,1.58773985,1.95302542,2.27039357
0,0,Jamaica,,,2022-03-22 20:36:48.968407,2022-01-03,0.32977565,0.45554753,0.73930354,9765,13489,21891,4683,6432,11170,0.15815147,0.21721951,0.37723533,1.62365925,1.99063113,2.31250812
0,0,Jamaica,,,2022-03-22 20:36:48.968407,2022-01-04,0.48092234,0.66581054,1.10346691,14240,19715,32675,7032,9410,16009,0.23748517,0.31781157,0.54065683,1.71544042,2.05890426,2.40432388
0,0,Jamaica,,,2022-03-22 20:36:48.968407,2022-01-05,0.72275464,0.98687119,1.68311899,21401,29222,49839,10327,13980,23514,0.34877270,0.47212088,0.79409365,1.88224792,2.18532865,2.56840984
0,0,Jamaica,,,2022-03-22 20:36:48.968407,2022-01-06,1.06965454,1.49895894,2.63524516,31674,44386,78033,15773,20940,36183,0.53268668,0.70718557,1.22192986,2.05286057,2.32431665,2.74418131
0,0,Jamaica,,,2022-03-22 20:36:48.968407,2022-01-07,1.58601692,2.29639579,4.12308949,46964,67999,122091,23682,31930,56331,0.79977999,1.07829875,1.90235374,2.15983751,2.41109691,2.85067116
0,0,Jamaica,,,2022-03-22 20:36:48.968407,2022-01-08,2.34392333,3.51919563,6.42939047,69407,104209,190384,35031,49469,87932,1.18303419,1.67062623,2.96954454,2.21001268,2.44510039,2.89365922
0,0,Jamaica,,,2022-03-22 20:36:48.968407,2022-01-09,3.51995919,5.38418508,10.25394187,104231,159434,303635,51858,74888,139338,1.75130136,2.52903510,4.70552915,2.23466408,2.46570643,2.90388840
0,0,Jamaica,,,2022-03-22 20:36:48.968407,2022-01-10,5.21076849,8.18982271,15.34837727,154299,242513,454490,76925,114253,215831,2.59781330,3.85840553,7.28874545,2.26460590,2.49457120,2.89327739
0,0,Jamaica,,,2022-03-22 20:36:48.968407,2022-01-11,7.72136676,12.41356254,22.53064059,228642,367585,667168,114073,172525,320253,3.85232158,5.82627554,10.81514090,2.32303524,2.53774211,2.86321303
0,0,Jamaica,,,2022-03-22 20:36:48.968407,2022-01-12,11.39841791,18.25798623,31.53355605,337525,540648,933759,170791,256329,468314,5.76771644,8.65637063,15.81524658,2.40376602,2.60789302,2.82800268
0,0,Jamaica,,,2022-03-22 20:36:48.968407,2022-01-13,16.83667362,25.88049285,40.96876402,498561,766363,1213151,251486,377558,640533,8.49285042,12.75036277,21.63116245,2.48308553,2.70135109,2.88744055
0,0,Jamaica,,,2022-03-22 20:36:48.968407,2022-01-14,23.85928687,35.30872338,48.61563380,706511,1045548,1439587,364652,530327,812496,12.31451333,17.90943583,27.43843039,2.52571644,2.70837428,2.97221077
0,0,Jamaica,,,2022-03-22 20:36:48.968407,2022-01-15,31.96587115,44.90504540,53.14656967,946560,1329710,1573755,512371,707925,948144,17.30307574,23.90702246,32.01934869,2.54039385,2.71888617,3.00187648
0,0,Jamaica,,,2022-03-22 20:36:48.968407,2022-01-16,39.62943335,51.68958055,57.95371333,1173491,1530611,1716102,674939,876315,1042650,22.79308162,29.59363204,35.21085427,2.53203966,2.71305427,2.99522203
0,0,Jamaica,,,2022-03-22 20:36:48.968407,2022-01-17,45.52555066,52.62286893,60.32832422,1348084,1558247,1786418,824498,989929,1111023,27.84376499,33.43046580,37.51984489,2.48710517,2.69686921,2.94420301
0,0,Jamaica,,,2022-03-22 20:36:48.968407,2022-01-18,45.97601652,52.20650986,59.69002501,1361423,1545918,1767517,926484,1029394,1133777,31.28787706,34.76320721,38.28828846,2.37047433,2.65623255,2.81355157
0,0,Jamaica,,,2022-03-22 20:36:48.968407,2022-01-19,40.21985055,49.08503048,56.07118560,1190974,1453486,1660358,873617,1029328,1098431,29.50254136,34.76097030,37.09463711,2.13131557,2.56756236,2.68418960
0,0,Jamaica,,,2022-03-22 20:36:48.968407,2022-01-20,34.21583259,44.26258648,50.27915084,1013185,1310686,1488846,764807,961818,1037151,25.82797580,32.48112115,35.02514825,1.91818496,2.44660013,2.60440293
0,0,Jamaica,,,2022-03-22 20:36:48.968407,2022-01-21,28.70784192,38.64479129,44.15236949,850085,1144334,1307422,650338,862639,944552,21.96229290,29.13179717,31.89804215,1.80423757,2.36972629,2.57543966
0,0,Jamaica,,,2022-03-22 20:36:48.968407,2022-01-22,23.78712816,32.79476780,38.19847560,704375,971105,1131118,548710,748452,841032,18.53025112,25.27563295,28.40213395,1.75471966,2.33429893,2.55955678
0,0,Jamaica,,,2022-03-22 20:36:48.968407,2022-01-23,19.57540243,27.69176954,32.52944734,579659,819997,963249,455657,640994,731800,15.38778314,21.64671478,24.71329754,1.72438595,2.29561041,2.53719660
0,0,Jamaica,,,2022-03-22 20:36:48.968407,2022-01-24,16.03339530,23.08490340,27.43664705,474774,683581,812443,375366,540357,624203,12.67634411,18.24816482,21.07969860,1.67841442,2.21486625,2.47814460
0,0,Jamaica,,,2022-03-22 20:36:48.968407,2022-01-25,13.08754801,19.14023825,22.87112703,387543,566773,677250,307512,451318,525589,10.38487054,15.24126109,17.74944507,1.57445646,2.03444711,2.34102689
0,0,Jamaica,,,2022-03-22 20:36:48.968407,2022-01-26,10.65018040,15.79734512,18.90188993,315368,467784,559715,250827,373470,437360,8.47058784,12.61229335,14.76988318,1.40877579,1.82286297,2.12061235
0,0,Jamaica,,,2022-03-22 20:36:48.968407,2022-01-27,8.64123039,12.97612540,15.52081299,255880,384243,459596,203919,307745,362690,6.88646405,10.39274147,12.24826665,1.25410110,1.63555497,1.91938017
0,0,Jamaica,,,2022-03-22 20:36:48.968407,2022-01-28,7.00320258,10.62856170,12.73154505,207376,314728,377001,165442,252898,298525,5.58708274,8.54051638,10.08137725,1.17599415,1.51764938,1.81002061
0,0,Jamaica,,,2022-03-22 20:36:48.968407,2022-01-29,5.66633323,8.68876259,10.41386686,167789,257288,308371,134038,206790,245089,4.52656320,6.98342367,8.27681599,1.14112002,1.47097012,1.76211054
0,0,Jamaica,,,2022-03-22 20:36:48.968407,2022-01-30,4.58225245,7.10266987,8.47766041,135687,210321,251037,108497,168894,201623,3.66402530,5.70367108,6.80893507,1.12549487,1.45158441,1.72997896
0,0,Jamaica,,,2022-03-22 20:36:48.968407,2022-01-31,3.70418648,5.79536016,6.92894446,109686,171609,205177,87771,138248,164854,2.96407506,4.66873346,5.56721576,1.10800761,1.43521956,1.67639231
0,0,Jamaica,,,2022-03-22 20:36:48.968407,2022-02-01,2.99330779,4.72884536,5.68291247,88636,140028,168280,70972,113060,135685,2.39678313,3.81810646,4.58218184,1.06120220,1.38815952,1.56062813
0,0,Jamaica,,,2022-03-22 20:36:48.968407,2022-02-02,2.41789183,3.86673436,4.65418058,71597,114500,137817,57366,92647,111692,1.93728934,3.12877138,3.77191712,0.96304703,1.28159045,1.41908571
0,0,Jamaica,,,2022-03-22 20:36:48.968407,2022-02-03,1.95240890,3.16272819,3.81750335,57813,93653,113042,46350,75659,91802,1.56527080,2.55507231,3.10023656,0.87490809,1.16185801,1.42491215
0,0,Jamaica,,,2022-03-22 20:36:48.968407,2022-02-04,1.57627935,2.57873456,3.14757147,46676,76360,93204,37433,61555,75751,1.26415096,2.07875803,2.55816467,0.82700685,1.09121528,1.42814858
0,0,Jamaica,,,2022-03-22 20:36:48.968407,2022-02-05,1.27168775,2.10159674,2.58113126,37656,62231,76431,30205,50376,62480,1.02005220,1.70123155,2.11000796,0.80754493,1.06170861,1.42571740
0,0,Jamaica,,,2022-03-22 20:36:48.968407,2022-02-06,1.02585887,1.71734675,2.12503056,30377,50853,62925,24371,40983,51513,0.82302921,1.38403773,1.73962505,0.79759707,1.04945192,1.40949026
0,0,Jamaica,,,2022-03-22 20:36:48.968407,2022-02-07,0.82760846,1.39943613,1.75167110,24506,41439,51869,19663,33425,42248,0.66406149,1.12879540,1.42676637,0.78536159,1.03971946,1.36050510
0,0,Jamaica,,,2022-03-22 20:36:48.968407,2022-02-08,0.66774575,1.14083419,1.44375810,19773,33781,42752,15866,27212,34816,0.53582776,0.91897132,1.17577686,0.76084583,1.01986345,1.24840014
0,0,Jamaica,,,2022-03-22 20:36:48.968407,2022-02-09,0.53884468,0.92709312,1.18413139,15956,27452,35064,12804,22209,28695,0.43240000,0.75003059,0.96906826,0.72016435,0.98408311,1.07328102
0,0,Jamaica,,,2022-03-22 20:36:48.968407,2022-02-10,0.43490461,0.75529209,0.97529983,12878,22365,28880,10333,18122,23636,0.34898451,0.61201096,0.79822690,0.68271249,0.91500224,1.03800359
0,0,Jamaica,,,2022-03-22 20:36:48.968407,2022-02-11,0.35104619,0.61690828,0.80321268,10395,18267,23784,8341,14769,19468,0.28169949,0.49876698,0.65746609,0.66156321,0.86660214,1.04933149
0,0,Jamaica,,,2022-03-22 20:36:48.968407,2022-02-12,0.28340142,0.50203511,0.66150850,8391,14866,19588,6734,12000,16045,0.22741369,0.40525435,0.54184869,0.65190474,0.84172386,1.05149341
0,0,Jamaica,,,2022-03-22 20:36:48.968407,2022-02-13,0.22882810,0.40788939,0.54503178,6775,12078,16139,5437,9777,13231,0.18361444,0.33017945,0.44682893,0.64427999,0.82647780,1.04175575
0,0,Jamaica,,,2022-03-22 20:36:48.968407,2022-02-14,0.18479215,0.33213878,0.44942875,5471,9835,13308,4390,7962,10910,0.14827246,0.26889332,0.36846640,0.63103765,0.80253388,1.01067148
0,0,Jamaica,,,2022-03-22 20:36:48.968407,2022-02-15,0.14924794,0.27052505,0.37056462,4419,8010,10973,3545,6467,8997,0.11974929,0.21840141,0.30383628,0.60154412,0.75431734,0.93791154
0,0,Jamaica,,,2022-03-22 20:36:48.968407,2022-02-16,0.12055001,0.21971325,0.30548405,3569,6506,9045,2864,5254,7418,0.09672336,0.17746181,0.25052033,0.55419220,0.66668756,0.83483545
0,0,Jamaica,,,2022-03-22 20:36:48.968407,2022-02-17,0.09738250,0.17843744,0.25179903,2883,5283,7456,2313,4265,6115,0.07813235,0.14403680,0.20653164,0.51030218,0.60653922,0.74976746
0,0,Jamaica,,,2022-03-22 20:36:48.968407,2022-02-18,0.07865522,0.14488563,0.20746888,2329,4290,6143,1868,3460,5040,0.06311692,0.11687565,0.17023468,0.48554562,0.57600942,0.70558297
0,0,Jamaica,,,2022-03-22 20:36:48.968407,2022-02-19,0.06354219,0.11760443,0.17092919,1881,3482,5061,1509,2810,4154,0.05098702,0.09492623,0.14028599,0.47173708,0.56655515,0.68881749
0,0,Jamaica,,,2022-03-22 20:36:48.968407,2022-02-20,0.05134961,0.09555040,0.14083413,1520,2829,4170,1219,2282,3418,0.04119562,0.07708395,0.11544551,0.46573045,0.56065216,0.68132177
0,0,Jamaica,,,2022-03-22 20:36:48.968407,2022-02-21,0.04151540,0.07762430,0.11589180,1229,2298,3431,985,1857,2818,0.03329539,0.06273513,0.09516598,0.46118173,0.55121945,0.67440454
0,0,Jamaica,,,2022-03-22 20:36:48.968407,2022-02-22,0.03358494,0.06326325,0.09553785,994,1873,2829,797,1511,2323,0.02692226,0.05105046,0.07845104,0.45388961,0.53077989,0.66204091
0,0,Jamaica,,,2022-03-22 20:36:48.968407,2022-02-23,0.02718930,0.05155667,0.07876410,805,1526,2332,644,1228,1914,0.02178168,0.04150288,0.06466749,0.44184205,0.50265006,0.64136931
0,0,Jamaica,,,2022-03-22 20:36:48.968407,2022-02-24,0.02203144,0.04199003,0.06493200,652,1243,1922,522,1001,1578,0.01763550,0.03380579,0.05329093,0.42128730,0.47911940,0.62177369
0,0,Jamaica,,,2022-03-22 20:36:48.968407,2022-02-25,0.01783969,0.03414016,0.05352011,528,1010,1584,422,815,1300,0.01428442,0.02753165,0.04391998,0.41002828,0.45988319,0.61331270
0,0,Jamaica,,,2022-03-22 20:36:48.968407,2022-02-26,0.01445343,0.02776927,0.04412223,427,822,1306,342,663,1072,0.01158087,0.02239627,0.03620233,0.40506778,0.45438365,0.60846636
0,0,Jamaica,,,2022-03-22 20:36:48.968407,2022-02-27,0.01172566,0.02261066,0.03638340,347,669,1077,278,541,883,0.00938915,0.01829441,0.02984663,0.40187299,0.45233224,0.60304106
0,0,Jamaica,,,2022-03-22 20:36:48.968407,2022-02-28,0.00952651,0.01852851,0.03001066,282,548,888,225,442,728,0.00761368,0.01495672,0.02461268,0.39865255,0.45148582,0.59204456
0,0,Jamaica,,,2022-03-22 20:36:48.968407,2022-03-01,0.00774306,0.01518362,0.02476256,229,449,733,183,361,601,0.00618055,0.01222148,0.02030245,0.38582846,0.45057343,0.56759601
0,0,Jamaica,,,2022-03-22 20:36:48.968407,2022-03-02,0.00630419,0.01243809,0.02044034,186,368,605,148,296,496,0.00502408,0.00999948,0.01675275,0.35946956,0.44905341,0.52730880
0,0,Jamaica,,,2022-03-22 20:36:48.968407,2022-03-03,0.00514348,0.01020468,0.01688073,152,302,499,121,243,409,0.00409101,0.00821923,0.01382929,0.33307010,0.44790172,0.49060270
0,0,Jamaica,,,2022-03-22 20:36:48.968407,2022-03-04,0.00425352,0.00842113,0.01394345,125,249,412,99,199,338,0.00334844,0.00673131,0.01142020,0.31845862,0.44604597,0.48306821
0,0,Jamaica,,,2022-03-22 20:36:48.968407,2022-03-05,0.00357595,0.00696073,0.01152390,105,206,341,82,163,279,0.00277108,0.00553700,0.00943403,0.31299208,0.44383470,0.48435589
0,0,Jamaica,,,2022-03-22 20:36:48.968407,2022-03-06,0.00301815,0.00577964,0.00953121,89,171,282,69,135,230,0.00233278,0.00457656,0.00779761,0.31202962,0.44221402,0.48478776
0,0,Jamaica,,,2022-03-22 20:36:48.968407,2022-03-07,0.00256903,0.00480785,0.00789038,76,142,233,58,112,190,0.00196842,0.00379936,0.00644985,0.31436194,0.44017745,0.48488130
0,0,Jamaica,,,2022-03-22 20:36:48.968407,2022-03-08,0.00219191,0.00402213,0.00653943,64,119,193,49,93,158,0.00167558,0.00316313,0.00534004,0.32193208,0.43057625,0.48479436
0,0,Jamaica,,,2022-03-22 20:36:48.968407,2022-03-09,0.00190790,0.00339545,0.00542715,56,100,160,42,78,131,0.00142722,0.00264631,0.00442628,0.33393723,0.40794801,0.49661740
0,0,Jamaica,,,2022-03-22 20:36:48.968407,2022-03-10,0.00168248,0.00288561,0.00450910,49,85,133,36,66,108,0.00124429,0.00223108,0.00367398,0.34365290,0.39858748,0.53161269
0,0,Jamaica,,,2022-03-22 20:36:48.968407,2022-03-11,0.00144586,0.00243372,0.00383495,42,72,113,32,55,91,0.00109155,0.00188827,0.00307507,0.34941203,0.39136575,0.55315834
0,0,Jamaica,,,2022-03-22 20:36:48.968407,2022-03-12,0.00121379,0.00206944,0.00329466,35,61,97,27,47,77,0.00093425,0.00159418,0.00261157,0.34663578,0.38725565,0.56160519
0,0,Jamaica,,,2022-03-22 20:36:48.968407,2022-03-13,0.00101877,0.00180034,0.00285966,30,53,84,23,40,66,0.00078570,0.00135410,0.00224531,0.34636220,0.38366524,0.56516925
0,0,Jamaica,,,2022-03-22 20:36:48.968407,2022-03-14,0.00085837,0.00161014,0.00250923,25,47,74,19,35,57,0.00066027,0.00119122,0.00195125,0.34529974,0.37537244,0.56806640
0,0,Jamaica,,,2022-03-22 20:36:48.968407,2022-03-15,0.00072725,0.00144592,0.00222039,21,42,65,16,31,50,0.00055684,0.00106648,0.00171116,0.33631282,0.35924104,0.57315027
0,0,Jamaica,,,2022-03-22 20:36:48.968407,2022-03-16,0.00062053,0.00130906,0.00198173,18,38,58,13,28,44,0.00047213,0.00095825,0.00151420,0.31837496,0.34322053,0.58346342
0,0,Jamaica,,,2022-03-22 20:36:48.968407,2022-03-17,0.00053419,0.00117567,0.00179178,15,34,53,11,25,40,0.00040313,0.00087485,0.00135219,0.29382214,0.33441346,0.59174037
0,0,Jamaica,,,2022-03-22 20:36:48.968407,2022-03-18,0.00044013,0.00098323,0.00153225,13,29,45,10,22,35,0.00034193,0.00076699,0.00119032,0.27811232,0.33061812,0.59679539
0,0,Jamaica,,,2022-03-22 20:36:48.968407,2022-03-19,0.00035975,0.00081286,0.00127860,10,24,37,8,19,30,0.00028350,0.00064642,0.00102352,0.27200308,0.32927511,0.60000154
0,0,Jamaica,,,2022-03-22 20:36:48.968407,2022-03-20,0.00029220,0.00066712,0.00105830,8,19,31,6,15,25,0.00023215,0.00053563,0.00085862,0.26992177,0.32881325,0.60197008
0,0,Jamaica,,,2022-03-22 20:36:48.968407,2022-03-21,0.00023649,0.00054556,0.00087260,7,16,25,5,13,21,0.00018878,0.00044015,0.00071202,0.26924223,0.32866226,0.60231999
0,0,Jamaica,,,2022-03-22 20:36:48.968407,2022-03-22,0.00019100,0.00044575,0.00072056,5,13,21,4,10,17,0.00015290,0.00036046,0.00058505,0.26902387,0.32861372,0.60242023
0,0,Jamaica,,,2022-03-22 20:36:48.968407,2022-03-23,0.00015409,0.00036392,0.00059079,4,10,17,3,8,14,0.00012356,0.00029466,0.00047827,0.26895407,0.32859820,0.60245229
0,0,Jamaica,,,2022-03-22 20:36:48.968407,2022-03-24,0.00012424,0.00029688,0.00048039,3,8,14,2,7,11,0.00009972,0.00024047,0.00039079,0.26893179,0.32859325,0.60246253
0,0,Jamaica,,,2022-03-22 20:36:48.968407,2022-03-25,0.00010013,0.00024199,0.00039195,2,7,11,2,5,9,0.00008042,0.00019587,0.00032129,0.26892468,0.32859167,0.60246579
0,0,Jamaica,,,2022-03-22 20:36:48.968407,2022-03-26,0.00008069,0.00019700,0.00032201,2,5,9,1,4,7,0.00006484,0.00015924,0.00026413,0.26892242,0.32859116,0.60246684
0,0,Jamaica,,,2022-03-22 20:36:48.968407,2022-03-27,0.00006503,0.00016050,0.00026465,1,4,7,1,3,6,0.00005226,0.00012930,0.00021713,0.26892169,0.32859100,0.60246717
0,0,Jamaica,,,2022-03-22 20:36:48.968407,2022-03-28,0.00005240,0.00013021,0.00021753,1,3,6,1,3,5,0.00004212,0.00010521,0.00017879,0.26892146,0.32859095,0.60246727
0,0,Jamaica,,,2022-03-22 20:36:48.968407,2022-03-29,0.00004222,0.00010603,0.00017907,1,3,5,1,2,4,0.00003395,0.00008578,0.00014725,0.26892139,0.32859094,0.60246731
0,0,Jamaica,,,2022-03-22 20:36:48.968407,2022-03-30,0.00003403,0.00008645,0.00014747,1,2,4,0,2,3,0.00002736,0.00006995,0.00012128,0.26892137,0.32859093,0.60246732
0,0,Jamaica,,,2022-03-22 20:36:48.968407,2022-03-31,0.00002742,0.00007049,0.00012146,0,2,3,0,1,2,0.00002205,0.00005699,0.00009982,0.26892136,0.32859093,0.60246732
0,0,Jamaica,,,2022-03-22 20:36:48.968407,2022-04-01,0.00002210,0.00005736,0.00010000,0,1,2,0,1,2,0.00001777,0.00004630,0.00008216,0.26892136,0.32859093,0.60246732
0,0,Jamaica,,,2022-03-22 20:36:48.968407,2022-04-02,0.00001781,0.00004656,0.00008230,0,1,2,0,1,2,0.00001433,0.00003768,0.00006762,0.26892136,0.32859093,0.60246732
0,0,Jamaica,,,2022-03-22 20:36:48.968407,2022-04-03,0.00001436,0.00003797,0.00006774,0,1,2,0,0,1,0.00001155,0.00003073,0.00005566,0.26892136,0.32859093,0.60246732
0,0,Jamaica,,,2022-03-22 20:36:48.968407,2022-04-04,0.00001157,0.00003096,0.00005576,0,0,1,0,0,1,0.00000931,0.00002492,0.00004582,0.26892136,0.32859093,0.60246732
0,0,Jamaica,,,2022-03-22 20:36:48.968407,2022-04-05,0.00000933,0.00002510,0.00004590,0,0,1,0,0,1,0.00000751,0.00002023,0.00003772,0.26892136,0.32859093,0.60246732
