FIPS,HR_UID,nameid,province,region,analysisTime,dates,pointprevalence_025,pointprevalence_50,pointprevalence_975,pointinfections_025,pointinfections_50,pointinfections_975,pointinfectious_025,pointinfectious_50,pointinfectious_975,pointinfectiousprevalence_025,pointinfectiousprevalence_50,pointinfectiousprevalence_975,infectrate_025,infectrate_50,infectrate_975
40139,0,USOklahomaTexas,Oklahoma,Texas,2022-04-28 09:13:11,2020-03-19,0,0,0,,,,,,,,,,,,
40139,0,USOklahomaTexas,Oklahoma,Texas,2022-04-28 09:13:11,2020-03-20,0,0,0,,,,,,,,,,,,
40139,0,USOklahomaTexas,Oklahoma,Texas,2022-04-28 09:13:11,2020-03-21,0,0,0,,,,,,,,,,,,
40139,0,USOklahomaTexas,Oklahoma,Texas,2022-04-28 09:13:11,2020-03-22,0,0,0,,,,,,,,,,,,
40139,0,USOklahomaTexas,Oklahoma,Texas,2022-04-28 09:13:11,2020-03-23,0,0,0,,,,,,,,,,,,
40139,0,USOklahomaTexas,Oklahoma,Texas,2022-04-28 09:13:11,2020-03-24,0,0,0,,,,,,,,,,,,
40139,0,USOklahomaTexas,Oklahoma,Texas,2022-04-28 09:13:11,2020-03-25,0,0,0,,,,,,,,,,,,
40139,0,USOklahomaTexas,Oklahoma,Texas,2022-04-28 09:13:11,2020-03-26,0.08686698871679557,0.5325387652698226,3.404507832895959,,,,,,,,,,,,
40139,0,USOklahomaTexas,Oklahoma,Texas,2022-04-28 09:13:11,2020-03-27,0.08686698871679557,0.5325387652698226,3.404507832895959,,,,,,,,,,,,
40139,0,USOklahomaTexas,Oklahoma,Texas,2022-04-28 09:13:11,2020-03-28,0.08686698871679557,0.5325387652698226,3.404507832895959,,,,,,,,,,,,
40139,0,USOklahomaTexas,Oklahoma,Texas,2022-04-28 09:13:11,2020-03-29,0.08686698871679557,0.5325387652698226,3.404507832895959,,,,,,,,,,,,
40139,0,USOklahomaTexas,Oklahoma,Texas,2022-04-28 09:13:11,2020-03-30,0.08686698871679557,0.5325387652698226,3.404507832895959,,,,,,,,,,,,
40139,0,USOklahomaTexas,Oklahoma,Texas,2022-04-28 09:13:11,2020-03-31,0.08686698871679557,0.5325387652698226,3.404507832895959,,,,,,,,,,,,
40139,0,USOklahomaTexas,Oklahoma,Texas,2022-04-28 09:13:11,2020-04-01,0.08686698871679557,0.5325387652698226,3.404507832895959,,,,,,,,,,,,
40139,0,USOklahomaTexas,Oklahoma,Texas,2022-04-28 09:13:11,2020-04-02,0.08165212371286162,0.27611142045132403,0.9983835209678925,,,,,,,,,,,,
40139,0,USOklahomaTexas,Oklahoma,Texas,2022-04-28 09:13:11,2020-04-03,0.08165212371286162,0.27611142045132403,0.9983835209678925,,,,,,,,,,,,
40139,0,USOklahomaTexas,Oklahoma,Texas,2022-04-28 09:13:11,2020-04-04,0.08165212371286162,0.27611142045132403,0.9983835209678925,,,,,,,,,,,,
40139,0,USOklahomaTexas,Oklahoma,Texas,2022-04-28 09:13:11,2020-04-05,0.08165212371286162,0.27611142045132403,0.9983835209678925,,,,,,,,,,,,
40139,0,USOklahomaTexas,Oklahoma,Texas,2022-04-28 09:13:11,2020-04-06,0.08165212371286162,0.27611142045132403,0.9983835209678925,,,,,,,,,,,,
40139,0,USOklahomaTexas,Oklahoma,Texas,2022-04-28 09:13:11,2020-04-07,0.08165212371286162,0.27611142045132403,0.9983835209678925,,,,,,,,,,,,
40139,0,USOklahomaTexas,Oklahoma,Texas,2022-04-28 09:13:11,2020-04-08,0.08165212371286162,0.27611142045132403,0.9983835209678925,,,,,,,,,,,,
40139,0,USOklahomaTexas,Oklahoma,Texas,2022-04-28 09:13:11,2020-04-09,0.1663678832764208,0.40389870195185423,1.0552472744461001,,,,,,,,,,,,
40139,0,USOklahomaTexas,Oklahoma,Texas,2022-04-28 09:13:11,2020-04-10,0.1663678832764208,0.40389870195185423,1.0552472744461001,,,,,,,,,,,,
40139,0,USOklahomaTexas,Oklahoma,Texas,2022-04-28 09:13:11,2020-04-11,0.1663678832764208,0.40389870195185423,1.0552472744461001,,,,,,,,,,,,
40139,0,USOklahomaTexas,Oklahoma,Texas,2022-04-28 09:13:11,2020-04-12,0.1663678832764208,0.40389870195185423,1.0552472744461001,,,,,,,,,,,,
40139,0,USOklahomaTexas,Oklahoma,Texas,2022-04-28 09:13:11,2020-04-13,0.1663678832764208,0.40389870195185423,1.0552472744461001,,,,,,,,,,,,
40139,0,USOklahomaTexas,Oklahoma,Texas,2022-04-28 09:13:11,2020-04-14,0.1663678832764208,0.40389870195185423,1.0552472744461001,,,,,,,,,,,,
40139,0,USOklahomaTexas,Oklahoma,Texas,2022-04-28 09:13:11,2020-04-15,0.1663678832764208,0.40389870195185423,1.0552472744461001,,,,,,,,,,,,
40139,0,USOklahomaTexas,Oklahoma,Texas,2022-04-28 09:13:11,2020-04-16,0.47291165124546564,0.8127669298464316,1.484709174309504,,,,,,,,,,,,
40139,0,USOklahomaTexas,Oklahoma,Texas,2022-04-28 09:13:11,2020-04-17,0.47291165124546564,0.8127669298464316,1.484709174309504,,,,,,,,,,,,
40139,0,USOklahomaTexas,Oklahoma,Texas,2022-04-28 09:13:11,2020-04-18,0.47291165124546564,0.8127669298464316,1.484709174309504,,,,,,,,,,,,
40139,0,USOklahomaTexas,Oklahoma,Texas,2022-04-28 09:13:11,2020-04-19,0.47291165124546564,0.8127669298464316,1.484709174309504,,,,,,,,,,,,
40139,0,USOklahomaTexas,Oklahoma,Texas,2022-04-28 09:13:11,2020-04-20,0.47291165124546564,0.8127669298464316,1.484709174309504,,,,,,,,,,,,
40139,0,USOklahomaTexas,Oklahoma,Texas,2022-04-28 09:13:11,2020-04-21,0.47291165124546564,0.8127669298464316,1.484709174309504,,,,,,,,,,,,
40139,0,USOklahomaTexas,Oklahoma,Texas,2022-04-28 09:13:11,2020-04-22,0.47291165124546564,0.8127669298464316,1.484709174309504,,,,,,,,,,,,
40139,0,USOklahomaTexas,Oklahoma,Texas,2022-04-28 09:13:11,2020-04-23,1.2439542704685704,1.6918686678870427,2.3848711343697864,,,,,,,,,,,,
40139,0,USOklahomaTexas,Oklahoma,Texas,2022-04-28 09:13:11,2020-04-24,1.2439542704685704,1.6918686678870427,2.3848711343697864,,,,,,,,,,,,
40139,0,USOklahomaTexas,Oklahoma,Texas,2022-04-28 09:13:11,2020-04-25,1.2439542704685704,1.6918686678870427,2.3848711343697864,,,,,,,,,,,,
40139,0,USOklahomaTexas,Oklahoma,Texas,2022-04-28 09:13:11,2020-04-26,1.2439542704685704,1.6918686678870427,2.3848711343697864,,,,,,,,,,,,
40139,0,USOklahomaTexas,Oklahoma,Texas,2022-04-28 09:13:11,2020-04-27,1.2439542704685704,1.6918686678870427,2.3848711343697864,,,,,,,,,,,,
40139,0,USOklahomaTexas,Oklahoma,Texas,2022-04-28 09:13:11,2020-04-28,1.2439542704685704,1.6918686678870427,2.3848711343697864,,,,,,,,,,,,
40139,0,USOklahomaTexas,Oklahoma,Texas,2022-04-28 09:13:11,2020-04-29,1.2439542704685704,1.6918686678870427,2.3848711343697864,,,,,,,,,,,,
40139,0,USOklahomaTexas,Oklahoma,Texas,2022-04-28 09:13:11,2020-04-30,1.9805130672325235,2.3916662461707476,2.943124367177099,,,,,,,,,,,,
40139,0,USOklahomaTexas,Oklahoma,Texas,2022-04-28 09:13:11,2020-05-01,1.9805130672325235,2.3916662461707476,2.943124367177099,,,,,,,,,,,,
40139,0,USOklahomaTexas,Oklahoma,Texas,2022-04-28 09:13:11,2020-05-02,1.9805130672325235,2.3916662461707476,2.943124367177099,,,,,,,,,,,,
40139,0,USOklahomaTexas,Oklahoma,Texas,2022-04-28 09:13:11,2020-05-03,1.9805130672325235,2.3916662461707476,2.943124367177099,,,,,,,,,,,,
40139,0,USOklahomaTexas,Oklahoma,Texas,2022-04-28 09:13:11,2020-05-04,1.9805130672325235,2.3916662461707476,2.943124367177099,,,,,,,,,,,,
40139,0,USOklahomaTexas,Oklahoma,Texas,2022-04-28 09:13:11,2020-05-05,1.9805130672325235,2.3916662461707476,2.943124367177099,,,,,,,,,,,,
40139,0,USOklahomaTexas,Oklahoma,Texas,2022-04-28 09:13:11,2020-05-06,1.9805130672325235,2.3916662461707476,2.943124367177099,,,,,,,,,,,,
40139,0,USOklahomaTexas,Oklahoma,Texas,2022-04-28 09:13:11,2020-05-07,2.315041936165823,2.5767122772228555,2.890484144076834,,,,,,,,,,,,
40139,0,USOklahomaTexas,Oklahoma,Texas,2022-04-28 09:13:11,2020-05-08,2.315041936165823,2.5767122772228555,2.890484144076834,,,,,,,,,,,,
40139,0,USOklahomaTexas,Oklahoma,Texas,2022-04-28 09:13:11,2020-05-09,2.315041936165823,2.5767122772228555,2.890484144076834,,,,,,,,,,,,
40139,0,USOklahomaTexas,Oklahoma,Texas,2022-04-28 09:13:11,2020-05-10,2.315041936165823,2.5767122772228555,2.890484144076834,,,,,,,,,,,,
40139,0,USOklahomaTexas,Oklahoma,Texas,2022-04-28 09:13:11,2020-05-11,2.315041936165823,2.5767122772228555,2.890484144076834,,,,,,,,,,,,
40139,0,USOklahomaTexas,Oklahoma,Texas,2022-04-28 09:13:11,2020-05-12,2.315041936165823,2.5767122772228555,2.890484144076834,,,,,,,,,,,,
40139,0,USOklahomaTexas,Oklahoma,Texas,2022-04-28 09:13:11,2020-05-13,2.315041936165823,2.5767122772228555,2.890484144076834,,,,,,,,,,,,
40139,0,USOklahomaTexas,Oklahoma,Texas,2022-04-28 09:13:11,2020-05-14,3.268658749643974,3.3358371174129293,3.4056980657691653,,,,,,,,,,,,
40139,0,USOklahomaTexas,Oklahoma,Texas,2022-04-28 09:13:11,2020-05-15,3.268658749643974,3.3358371174129293,3.4056980657691653,,,,,,,,,,,,
40139,0,USOklahomaTexas,Oklahoma,Texas,2022-04-28 09:13:11,2020-05-16,3.268658749643974,3.3358371174129293,3.4056980657691653,,,,,,,,,,,,
40139,0,USOklahomaTexas,Oklahoma,Texas,2022-04-28 09:13:11,2020-05-17,3.268658749643974,3.3358371174129293,3.4056980657691653,,,,,,,,,,,,
40139,0,USOklahomaTexas,Oklahoma,Texas,2022-04-28 09:13:11,2020-05-18,3.268658749643974,3.3358371174129293,3.4056980657691653,,,,,,,,,,,,
40139,0,USOklahomaTexas,Oklahoma,Texas,2022-04-28 09:13:11,2020-05-19,3.268658749643974,3.3358371174129293,3.4056980657691653,,,,,,,,,,,,
40139,0,USOklahomaTexas,Oklahoma,Texas,2022-04-28 09:13:11,2020-05-20,3.268658749643974,3.3358371174129293,3.4056980657691653,,,,,,,,,,,,
40139,0,USOklahomaTexas,Oklahoma,Texas,2022-04-28 09:13:11,2020-05-21,1.375390511131586,1.618413966073089,1.9334694702370279,,,,,,,,,,,,
40139,0,USOklahomaTexas,Oklahoma,Texas,2022-04-28 09:13:11,2020-05-22,1.375390511131586,1.618413966073089,1.9334694702370279,,,,,,,,,,,,
40139,0,USOklahomaTexas,Oklahoma,Texas,2022-04-28 09:13:11,2020-05-23,1.375390511131586,1.618413966073089,1.9334694702370279,,,,,,,,,,,,
40139,0,USOklahomaTexas,Oklahoma,Texas,2022-04-28 09:13:11,2020-05-24,1.375390511131586,1.618413966073089,1.9334694702370279,,,,,,,,,,,,
40139,0,USOklahomaTexas,Oklahoma,Texas,2022-04-28 09:13:11,2020-05-25,1.375390511131586,1.618413966073089,1.9334694702370279,,,,,,,,,,,,
40139,0,USOklahomaTexas,Oklahoma,Texas,2022-04-28 09:13:11,2020-05-26,1.375390511131586,1.618413966073089,1.9334694702370279,,,,,,,,,,,,
40139,0,USOklahomaTexas,Oklahoma,Texas,2022-04-28 09:13:11,2020-05-27,1.375390511131586,1.618413966073089,1.9334694702370279,,,,,,,,,,,,
40139,0,USOklahomaTexas,Oklahoma,Texas,2022-04-28 09:13:11,2020-05-28,0.5608556955927348,0.7873074181969251,1.150252654499544,,,,,,,,,,,,
40139,0,USOklahomaTexas,Oklahoma,Texas,2022-04-28 09:13:11,2020-05-29,0.5608556955927348,0.7873074181969251,1.150252654499544,,,,,,,,,,,,
40139,0,USOklahomaTexas,Oklahoma,Texas,2022-04-28 09:13:11,2020-05-30,0.5608556955927348,0.7873074181969251,1.150252654499544,,,,,,,,,,,,
40139,0,USOklahomaTexas,Oklahoma,Texas,2022-04-28 09:13:11,2020-05-31,0.5608556955927348,0.7873074181969251,1.150252654499544,,,,,,,,,,,,
40139,0,USOklahomaTexas,Oklahoma,Texas,2022-04-28 09:13:11,2020-06-01,0.5608556955927348,0.7873074181969251,1.150252654499544,,,,,,,,,,,,
40139,0,USOklahomaTexas,Oklahoma,Texas,2022-04-28 09:13:11,2020-06-02,0.5608556955927348,0.7873074181969251,1.150252654499544,,,,,,,,,,,,
40139,0,USOklahomaTexas,Oklahoma,Texas,2022-04-28 09:13:11,2020-06-03,0.5608556955927348,0.7873074181969251,1.150252654499544,,,,,,,,,,,,
40139,0,USOklahomaTexas,Oklahoma,Texas,2022-04-28 09:13:11,2020-06-04,0.2995491689670743,0.5099564522297977,0.9220723227349924,,,,,,,,,,,,
40139,0,USOklahomaTexas,Oklahoma,Texas,2022-04-28 09:13:11,2020-06-05,0.2995491689670743,0.5099564522297977,0.9220723227349924,,,,,,,,,,,,
40139,0,USOklahomaTexas,Oklahoma,Texas,2022-04-28 09:13:11,2020-06-06,0.2995491689670743,0.5099564522297977,0.9220723227349924,,,,,,,,,,,,
40139,0,USOklahomaTexas,Oklahoma,Texas,2022-04-28 09:13:11,2020-06-07,0.2995491689670743,0.5099564522297977,0.9220723227349924,,,,,,,,,,,,
40139,0,USOklahomaTexas,Oklahoma,Texas,2022-04-28 09:13:11,2020-06-08,0.2995491689670743,0.5099564522297977,0.9220723227349924,,,,,,,,,,,,
40139,0,USOklahomaTexas,Oklahoma,Texas,2022-04-28 09:13:11,2020-06-09,0.2995491689670743,0.5099564522297977,0.9220723227349924,,,,,,,,,,,,
40139,0,USOklahomaTexas,Oklahoma,Texas,2022-04-28 09:13:11,2020-06-10,0.2995491689670743,0.5099564522297977,0.9220723227349924,,,,,,,,,,,,
40139,0,USOklahomaTexas,Oklahoma,Texas,2022-04-28 09:13:11,2020-06-11,0.42482630586257053,0.8118165742410229,1.6599785459537182,,,,,,,,,,,,
40139,0,USOklahomaTexas,Oklahoma,Texas,2022-04-28 09:13:11,2020-06-12,0.42482630586257053,0.8118165742410229,1.6599785459537182,,,,,,,,,,,,
40139,0,USOklahomaTexas,Oklahoma,Texas,2022-04-28 09:13:11,2020-06-13,0.42482630586257053,0.8118165742410229,1.6599785459537182,,,,,,,,,,,,
40139,0,USOklahomaTexas,Oklahoma,Texas,2022-04-28 09:13:11,2020-06-14,0.42482630586257053,0.8118165742410229,1.6599785459537182,,,,,,,,,,,,
40139,0,USOklahomaTexas,Oklahoma,Texas,2022-04-28 09:13:11,2020-06-15,0.42482630586257053,0.8118165742410229,1.6599785459537182,,,,,,,,,,,,
40139,0,USOklahomaTexas,Oklahoma,Texas,2022-04-28 09:13:11,2020-06-16,0.42482630586257053,0.8118165742410229,1.6599785459537182,,,,,,,,,,,,
40139,0,USOklahomaTexas,Oklahoma,Texas,2022-04-28 09:13:11,2020-06-17,0.42482630586257053,0.8118165742410229,1.6599785459537182,,,,,,,,,,,,
40139,0,USOklahomaTexas,Oklahoma,Texas,2022-04-28 09:13:11,2020-06-18,0.23571477064839672,0.6036205667320935,1.663238145996897,,,,,,,,,,,,
40139,0,USOklahomaTexas,Oklahoma,Texas,2022-04-28 09:13:11,2020-06-19,0.23571477064839672,0.6036205667320935,1.663238145996897,,,,,,,,,,,,
40139,0,USOklahomaTexas,Oklahoma,Texas,2022-04-28 09:13:11,2020-06-20,0.23571477064839672,0.6036205667320935,1.663238145996897,,,,,,,,,,,,
40139,0,USOklahomaTexas,Oklahoma,Texas,2022-04-28 09:13:11,2020-06-21,0.23571477064839672,0.6036205667320935,1.663238145996897,,,,,,,,,,,,
40139,0,USOklahomaTexas,Oklahoma,Texas,2022-04-28 09:13:11,2020-06-22,0.23571477064839672,0.6036205667320935,1.663238145996897,,,,,,,,,,,,
40139,0,USOklahomaTexas,Oklahoma,Texas,2022-04-28 09:13:11,2020-06-23,0.23571477064839672,0.6036205667320935,1.663238145996897,,,,,,,,,,,,
40139,0,USOklahomaTexas,Oklahoma,Texas,2022-04-28 09:13:11,2020-06-24,0.23571477064839672,0.6036205667320935,1.663238145996897,,,,,,,,,,,,
40139,0,USOklahomaTexas,Oklahoma,Texas,2022-04-28 09:13:11,2020-06-25,0.12744176682698127,0.3493038739162786,1.0293731770063645,,,,,,,,,,,,
40139,0,USOklahomaTexas,Oklahoma,Texas,2022-04-28 09:13:11,2020-06-26,0.12744176682698127,0.3493038739162786,1.0293731770063645,,,,,,,,,,,,
40139,0,USOklahomaTexas,Oklahoma,Texas,2022-04-28 09:13:11,2020-06-27,0.12744176682698127,0.3493038739162786,1.0293731770063645,,,,,,,,,,,,
40139,0,USOklahomaTexas,Oklahoma,Texas,2022-04-28 09:13:11,2020-06-28,0.12744176682698127,0.3493038739162786,1.0293731770063645,,,,,,,,,,,,
40139,0,USOklahomaTexas,Oklahoma,Texas,2022-04-28 09:13:11,2020-06-29,0.12744176682698127,0.3493038739162786,1.0293731770063645,,,,,,,,,,,,
40139,0,USOklahomaTexas,Oklahoma,Texas,2022-04-28 09:13:11,2020-06-30,0.12744176682698127,0.3493038739162786,1.0293731770063645,,,,,,,,,,,,
40139,0,USOklahomaTexas,Oklahoma,Texas,2022-04-28 09:13:11,2020-07-01,0.12744176682698127,0.3493038739162786,1.0293731770063645,,,,,,,,,,,,
40139,0,USOklahomaTexas,Oklahoma,Texas,2022-04-28 09:13:11,2020-07-02,0.3185727481937813,0.7441957643851619,1.8705527945625573,,,,,,,,,,,,
40139,0,USOklahomaTexas,Oklahoma,Texas,2022-04-28 09:13:11,2020-07-03,0.3185727481937813,0.7441957643851619,1.8705527945625573,,,,,,,,,,,,
40139,0,USOklahomaTexas,Oklahoma,Texas,2022-04-28 09:13:11,2020-07-04,0.3185727481937813,0.7441957643851619,1.8705527945625573,,,,,,,,,,,,
40139,0,USOklahomaTexas,Oklahoma,Texas,2022-04-28 09:13:11,2020-07-05,0.3185727481937813,0.7441957643851619,1.8705527945625573,,,,,,,,,,,,
40139,0,USOklahomaTexas,Oklahoma,Texas,2022-04-28 09:13:11,2020-07-06,0.3185727481937813,0.7441957643851619,1.8705527945625573,,,,,,,,,,,,
40139,0,USOklahomaTexas,Oklahoma,Texas,2022-04-28 09:13:11,2020-07-07,0.3185727481937813,0.7441957643851619,1.8705527945625573,,,,,,,,,,,,
40139,0,USOklahomaTexas,Oklahoma,Texas,2022-04-28 09:13:11,2020-07-08,0.3185727481937813,0.7441957643851619,1.8705527945625573,,,,,,,,,,,,
40139,0,USOklahomaTexas,Oklahoma,Texas,2022-04-28 09:13:11,2020-07-09,0.26841816150268694,0.6946974004198201,1.934451829563254,,,,,,,,,,,,
40139,0,USOklahomaTexas,Oklahoma,Texas,2022-04-28 09:13:11,2020-07-10,0.26841816150268694,0.6946974004198201,1.934451829563254,,,,,,,,,,,,
40139,0,USOklahomaTexas,Oklahoma,Texas,2022-04-28 09:13:11,2020-07-11,0.26841816150268694,0.6946974004198201,1.934451829563254,,,,,,,,,,,,
40139,0,USOklahomaTexas,Oklahoma,Texas,2022-04-28 09:13:11,2020-07-12,0.26841816150268694,0.6946974004198201,1.934451829563254,,,,,,,,,,,,
40139,0,USOklahomaTexas,Oklahoma,Texas,2022-04-28 09:13:11,2020-07-13,0.26841816150268694,0.6946974004198201,1.934451829563254,,,,,,,,,,,,
40139,0,USOklahomaTexas,Oklahoma,Texas,2022-04-28 09:13:11,2020-07-14,0.26841816150268694,0.6946974004198201,1.934451829563254,,,,,,,,,,,,
40139,0,USOklahomaTexas,Oklahoma,Texas,2022-04-28 09:13:11,2020-07-15,0.26841816150268694,0.6946974004198201,1.934451829563254,,,,,,,,,,,,
40139,0,USOklahomaTexas,Oklahoma,Texas,2022-04-28 09:13:11,2020-07-16,0.08349950716060461,0.2876455368319527,1.0588759914067334,,,,,,,,,,,,
40139,0,USOklahomaTexas,Oklahoma,Texas,2022-04-28 09:13:11,2020-07-17,0.08349950716060461,0.2876455368319527,1.0588759914067334,,,,,,,,,,,,
40139,0,USOklahomaTexas,Oklahoma,Texas,2022-04-28 09:13:11,2020-07-18,0.08349950716060461,0.2876455368319527,1.0588759914067334,,,,,,,,,,,,
40139,0,USOklahomaTexas,Oklahoma,Texas,2022-04-28 09:13:11,2020-07-19,0.08349950716060461,0.2876455368319527,1.0588759914067334,,,,,,,,,,,,
40139,0,USOklahomaTexas,Oklahoma,Texas,2022-04-28 09:13:11,2020-07-20,0.08349950716060461,0.2876455368319527,1.0588759914067334,,,,,,,,,,,,
40139,0,USOklahomaTexas,Oklahoma,Texas,2022-04-28 09:13:11,2020-07-21,0.08349950716060461,0.2876455368319527,1.0588759914067334,,,,,,,,,,,,
40139,0,USOklahomaTexas,Oklahoma,Texas,2022-04-28 09:13:11,2020-07-22,0.08349950716060461,0.2876455368319527,1.0588759914067334,,,,,,,,,,,,
40139,0,USOklahomaTexas,Oklahoma,Texas,2022-04-28 09:13:11,2020-07-23,0.4079618416640598,0.8707259325296439,1.9967218217829275,,,,,,,,,,,,
40139,0,USOklahomaTexas,Oklahoma,Texas,2022-04-28 09:13:11,2020-07-24,0.4079618416640598,0.8707259325296439,1.9967218217829275,,,,,,,,,,,,
40139,0,USOklahomaTexas,Oklahoma,Texas,2022-04-28 09:13:11,2020-07-25,0.4079618416640598,0.8707259325296439,1.9967218217829275,,,,,,,,,,,,
40139,0,USOklahomaTexas,Oklahoma,Texas,2022-04-28 09:13:11,2020-07-26,0.4079618416640598,0.8707259325296439,1.9967218217829275,,,,,,,,,,,,
40139,0,USOklahomaTexas,Oklahoma,Texas,2022-04-28 09:13:11,2020-07-27,0.4079618416640598,0.8707259325296439,1.9967218217829275,,,,,,,,,,,,
40139,0,USOklahomaTexas,Oklahoma,Texas,2022-04-28 09:13:11,2020-07-28,0.4079618416640598,0.8707259325296439,1.9967218217829275,,,,,,,,,,,,
40139,0,USOklahomaTexas,Oklahoma,Texas,2022-04-28 09:13:11,2020-07-29,0.4079618416640598,0.8707259325296439,1.9967218217829275,,,,,,,,,,,,
40139,0,USOklahomaTexas,Oklahoma,Texas,2022-04-28 09:13:11,2020-07-30,0.46235783855690704,1.0488384788025809,2.559242952688535,,,,,,,,,,,,
40139,0,USOklahomaTexas,Oklahoma,Texas,2022-04-28 09:13:11,2020-07-31,0.46235783855690704,1.0488384788025809,2.559242952688535,,,,,,,,,,,,
40139,0,USOklahomaTexas,Oklahoma,Texas,2022-04-28 09:13:11,2020-08-01,0.46235783855690704,1.0488384788025809,2.559242952688535,,,,,,,,,,,,
40139,0,USOklahomaTexas,Oklahoma,Texas,2022-04-28 09:13:11,2020-08-02,0.46235783855690704,1.0488384788025809,2.559242952688535,,,,,,,,,,,,
40139,0,USOklahomaTexas,Oklahoma,Texas,2022-04-28 09:13:11,2020-08-03,0.46235783855690704,1.0488384788025809,2.559242952688535,,,,,,,,,,,,
40139,0,USOklahomaTexas,Oklahoma,Texas,2022-04-28 09:13:11,2020-08-04,0.46235783855690704,1.0488384788025809,2.559242952688535,,,,,,,,,,,,
40139,0,USOklahomaTexas,Oklahoma,Texas,2022-04-28 09:13:11,2020-08-05,0.46235783855690704,1.0488384788025809,2.559242952688535,,,,,,,,,,,,
40139,0,USOklahomaTexas,Oklahoma,Texas,2022-04-28 09:13:11,2020-08-06,0.4037303822310423,0.9013911842280484,2.1642515636466655,,,,,,,,,,,,
40139,0,USOklahomaTexas,Oklahoma,Texas,2022-04-28 09:13:11,2020-08-07,0.4037303822310423,0.9013911842280484,2.1642515636466655,,,,,,,,,,,,
40139,0,USOklahomaTexas,Oklahoma,Texas,2022-04-28 09:13:11,2020-08-08,0.4037303822310423,0.9013911842280484,2.1642515636466655,,,,,,,,,,,,
40139,0,USOklahomaTexas,Oklahoma,Texas,2022-04-28 09:13:11,2020-08-09,0.4037303822310423,0.9013911842280484,2.1642515636466655,,,,,,,,,,,,
40139,0,USOklahomaTexas,Oklahoma,Texas,2022-04-28 09:13:11,2020-08-10,0.4037303822310423,0.9013911842280484,2.1642515636466655,,,,,,,,,,,,
40139,0,USOklahomaTexas,Oklahoma,Texas,2022-04-28 09:13:11,2020-08-11,0.4037303822310423,0.9013911842280484,2.1642515636466655,,,,,,,,,,,,
40139,0,USOklahomaTexas,Oklahoma,Texas,2022-04-28 09:13:11,2020-08-12,0.4037303822310423,0.9013911842280484,2.1642515636466655,,,,,,,,,,,,
40139,0,USOklahomaTexas,Oklahoma,Texas,2022-04-28 09:13:11,2020-08-13,0.5174625228718689,1.0419027672269991,2.2498959597669748,,,,,,,,,,,,
40139,0,USOklahomaTexas,Oklahoma,Texas,2022-04-28 09:13:11,2020-08-14,0.5174625228718689,1.0419027672269991,2.2498959597669748,,,,,,,,,,,,
40139,0,USOklahomaTexas,Oklahoma,Texas,2022-04-28 09:13:11,2020-08-15,0.5174625228718689,1.0419027672269991,2.2498959597669748,,,,,,,,,,,,
40139,0,USOklahomaTexas,Oklahoma,Texas,2022-04-28 09:13:11,2020-08-16,0.5174625228718689,1.0419027672269991,2.2498959597669748,,,,,,,,,,,,
40139,0,USOklahomaTexas,Oklahoma,Texas,2022-04-28 09:13:11,2020-08-17,0.5174625228718689,1.0419027672269991,2.2498959597669748,,,,,,,,,,,,
40139,0,USOklahomaTexas,Oklahoma,Texas,2022-04-28 09:13:11,2020-08-18,0.5174625228718689,1.0419027672269991,2.2498959597669748,,,,,,,,,,,,
40139,0,USOklahomaTexas,Oklahoma,Texas,2022-04-28 09:13:11,2020-08-19,0.5174625228718689,1.0419027672269991,2.2498959597669748,,,,,,,,,,,,
40139,0,USOklahomaTexas,Oklahoma,Texas,2022-04-28 09:13:11,2020-08-20,0.6963484686786693,1.3602851077553684,2.846306240518914,,,,,,,,,,,,
40139,0,USOklahomaTexas,Oklahoma,Texas,2022-04-28 09:13:11,2020-08-21,0.6963484686786693,1.3602851077553684,2.846306240518914,,,,,,,,,,,,
40139,0,USOklahomaTexas,Oklahoma,Texas,2022-04-28 09:13:11,2020-08-22,0.6963484686786693,1.3602851077553684,2.846306240518914,,,,,,,,,,,,
40139,0,USOklahomaTexas,Oklahoma,Texas,2022-04-28 09:13:11,2020-08-23,0.6963484686786693,1.3602851077553684,2.846306240518914,,,,,,,,,,,,
40139,0,USOklahomaTexas,Oklahoma,Texas,2022-04-28 09:13:11,2020-08-24,0.6963484686786693,1.3602851077553684,2.846306240518914,,,,,,,,,,,,
40139,0,USOklahomaTexas,Oklahoma,Texas,2022-04-28 09:13:11,2020-08-25,0.6963484686786693,1.3602851077553684,2.846306240518914,,,,,,,,,,,,
40139,0,USOklahomaTexas,Oklahoma,Texas,2022-04-28 09:13:11,2020-08-26,0.6963484686786693,1.3602851077553684,2.846306240518914,,,,,,,,,,,,
40139,0,USOklahomaTexas,Oklahoma,Texas,2022-04-28 09:13:11,2020-08-27,1.2482506519310246,2.115536357840752,3.8067133982095482,,,,,,,,,,,,
40139,0,USOklahomaTexas,Oklahoma,Texas,2022-04-28 09:13:11,2020-08-28,1.2482506519310246,2.115536357840752,3.8067133982095482,,,,,,,,,,,,
40139,0,USOklahomaTexas,Oklahoma,Texas,2022-04-28 09:13:11,2020-08-29,1.2482506519310246,2.115536357840752,3.8067133982095482,,,,,,,,,,,,
40139,0,USOklahomaTexas,Oklahoma,Texas,2022-04-28 09:13:11,2020-08-30,1.2482506519310246,2.115536357840752,3.8067133982095482,,,,,,,,,,,,
40139,0,USOklahomaTexas,Oklahoma,Texas,2022-04-28 09:13:11,2020-08-31,1.2482506519310246,2.115536357840752,3.8067133982095482,,,,,,,,,,,,
40139,0,USOklahomaTexas,Oklahoma,Texas,2022-04-28 09:13:11,2020-09-01,1.2482506519310246,2.115536357840752,3.8067133982095482,,,,,,,,,,,,
40139,0,USOklahomaTexas,Oklahoma,Texas,2022-04-28 09:13:11,2020-09-02,1.2482506519310246,2.115536357840752,3.8067133982095482,,,,,,,,,,,,
40139,0,USOklahomaTexas,Oklahoma,Texas,2022-04-28 09:13:11,2020-09-03,1.688780994611247,2.664474638889638,4.434566292489962,,,,,,,,,,,,
40139,0,USOklahomaTexas,Oklahoma,Texas,2022-04-28 09:13:11,2020-09-04,1.688780994611247,2.664474638889638,4.434566292489962,,,,,,,,,,,,
40139,0,USOklahomaTexas,Oklahoma,Texas,2022-04-28 09:13:11,2020-09-05,1.688780994611247,2.664474638889638,4.434566292489962,,,,,,,,,,,,
40139,0,USOklahomaTexas,Oklahoma,Texas,2022-04-28 09:13:11,2020-09-06,1.688780994611247,2.664474638889638,4.434566292489962,,,,,,,,,,,,
40139,0,USOklahomaTexas,Oklahoma,Texas,2022-04-28 09:13:11,2020-09-07,1.688780994611247,2.664474638889638,4.434566292489962,,,,,,,,,,,,
40139,0,USOklahomaTexas,Oklahoma,Texas,2022-04-28 09:13:11,2020-09-08,1.688780994611247,2.664474638889638,4.434566292489962,,,,,,,,,,,,
40139,0,USOklahomaTexas,Oklahoma,Texas,2022-04-28 09:13:11,2020-09-09,1.688780994611247,2.664474638889638,4.434566292489962,,,,,,,,,,,,
40139,0,USOklahomaTexas,Oklahoma,Texas,2022-04-28 09:13:11,2020-09-10,1.6211490433814022,2.5107596846374465,4.0941363111102715,,,,,,,,,,,,
40139,0,USOklahomaTexas,Oklahoma,Texas,2022-04-28 09:13:11,2020-09-11,1.6211490433814022,2.5107596846374465,4.0941363111102715,,,,,,,,,,,,
40139,0,USOklahomaTexas,Oklahoma,Texas,2022-04-28 09:13:11,2020-09-12,1.6211490433814022,2.5107596846374465,4.0941363111102715,,,,,,,,,,,,
40139,0,USOklahomaTexas,Oklahoma,Texas,2022-04-28 09:13:11,2020-09-13,1.6211490433814022,2.5107596846374465,4.0941363111102715,,,,,,,,,,,,
40139,0,USOklahomaTexas,Oklahoma,Texas,2022-04-28 09:13:11,2020-09-14,1.6211490433814022,2.5107596846374465,4.0941363111102715,,,,,,,,,,,,
40139,0,USOklahomaTexas,Oklahoma,Texas,2022-04-28 09:13:11,2020-09-15,1.6211490433814022,2.5107596846374465,4.0941363111102715,,,,,,,,,,,,
40139,0,USOklahomaTexas,Oklahoma,Texas,2022-04-28 09:13:11,2020-09-16,1.6211490433814022,2.5107596846374465,4.0941363111102715,,,,,,,,,,,,
40139,0,USOklahomaTexas,Oklahoma,Texas,2022-04-28 09:13:11,2020-09-17,1.4216511699362455,2.307163364427033,3.9604455508147383,,,,,,,,,,,,
40139,0,USOklahomaTexas,Oklahoma,Texas,2022-04-28 09:13:11,2020-09-18,1.4216511699362455,2.307163364427033,3.9604455508147383,,,,,,,,,,,,
40139,0,USOklahomaTexas,Oklahoma,Texas,2022-04-28 09:13:11,2020-09-19,1.4216511699362455,2.307163364427033,3.9604455508147383,,,,,,,,,,,,
40139,0,USOklahomaTexas,Oklahoma,Texas,2022-04-28 09:13:11,2020-09-20,1.4216511699362455,2.307163364427033,3.9604455508147383,,,,,,,,,,,,
40139,0,USOklahomaTexas,Oklahoma,Texas,2022-04-28 09:13:11,2020-09-21,1.4216511699362455,2.307163364427033,3.9604455508147383,,,,,,,,,,,,
40139,0,USOklahomaTexas,Oklahoma,Texas,2022-04-28 09:13:11,2020-09-22,1.4216511699362455,2.307163364427033,3.9604455508147383,,,,,,,,,,,,
40139,0,USOklahomaTexas,Oklahoma,Texas,2022-04-28 09:13:11,2020-09-23,1.4216511699362455,2.307163364427033,3.9604455508147383,,,,,,,,,,,,
40139,0,USOklahomaTexas,Oklahoma,Texas,2022-04-28 09:13:11,2020-09-24,1.7464065748381794,2.5996905524253586,4.0567269628321005,,,,,,,,,,,,
40139,0,USOklahomaTexas,Oklahoma,Texas,2022-04-28 09:13:11,2020-09-25,1.7464065748381794,2.5996905524253586,4.0567269628321005,,,,,,,,,,,,
40139,0,USOklahomaTexas,Oklahoma,Texas,2022-04-28 09:13:11,2020-09-26,1.7464065748381794,2.5996905524253586,4.0567269628321005,,,,,,,,,,,,
40139,0,USOklahomaTexas,Oklahoma,Texas,2022-04-28 09:13:11,2020-09-27,1.7464065748381794,2.5996905524253586,4.0567269628321005,,,,,,,,,,,,
40139,0,USOklahomaTexas,Oklahoma,Texas,2022-04-28 09:13:11,2020-09-28,1.7464065748381794,2.5996905524253586,4.0567269628321005,,,,,,,,,,,,
40139,0,USOklahomaTexas,Oklahoma,Texas,2022-04-28 09:13:11,2020-09-29,1.7464065748381794,2.5996905524253586,4.0567269628321005,,,,,,,,,,,,
40139,0,USOklahomaTexas,Oklahoma,Texas,2022-04-28 09:13:11,2020-09-30,1.7464065748381794,2.5996905524253586,4.0567269628321005,,,,,,,,,,,,
40139,0,USOklahomaTexas,Oklahoma,Texas,2022-04-28 09:13:11,2020-10-01,1.351778102317636,2.1694009471991764,3.678737506690774,,,,,,,,,,,,
40139,0,USOklahomaTexas,Oklahoma,Texas,2022-04-28 09:13:11,2020-10-02,1.351778102317636,2.1694009471991764,3.678737506690774,,,,,,,,,,,,
40139,0,USOklahomaTexas,Oklahoma,Texas,2022-04-28 09:13:11,2020-10-03,1.351778102317636,2.1694009471991764,3.678737506690774,,,,,,,,,,,,
40139,0,USOklahomaTexas,Oklahoma,Texas,2022-04-28 09:13:11,2020-10-04,1.351778102317636,2.1694009471991764,3.678737506690774,,,,,,,,,,,,
40139,0,USOklahomaTexas,Oklahoma,Texas,2022-04-28 09:13:11,2020-10-05,1.351778102317636,2.1694009471991764,3.678737506690774,,,,,,,,,,,,
40139,0,USOklahomaTexas,Oklahoma,Texas,2022-04-28 09:13:11,2020-10-06,1.351778102317636,2.1694009471991764,3.678737506690774,,,,,,,,,,,,
40139,0,USOklahomaTexas,Oklahoma,Texas,2022-04-28 09:13:11,2020-10-07,1.351778102317636,2.1694009471991764,3.678737506690774,,,,,,,,,,,,
40139,0,USOklahomaTexas,Oklahoma,Texas,2022-04-28 09:13:11,2020-10-08,0.9604223278300693,1.7052648867097273,3.225806068058861,,,,,,,,,,,,
40139,0,USOklahomaTexas,Oklahoma,Texas,2022-04-28 09:13:11,2020-10-09,0.9604223278300693,1.7052648867097273,3.225806068058861,,,,,,,,,,,,
40139,0,USOklahomaTexas,Oklahoma,Texas,2022-04-28 09:13:11,2020-10-10,0.9604223278300693,1.7052648867097273,3.225806068058861,,,,,,,,,,,,
40139,0,USOklahomaTexas,Oklahoma,Texas,2022-04-28 09:13:11,2020-10-11,0.9604223278300693,1.7052648867097273,3.225806068058861,,,,,,,,,,,,
40139,0,USOklahomaTexas,Oklahoma,Texas,2022-04-28 09:13:11,2020-10-12,0.9604223278300693,1.7052648867097273,3.225806068058861,,,,,,,,,,,,
40139,0,USOklahomaTexas,Oklahoma,Texas,2022-04-28 09:13:11,2020-10-13,0.9604223278300693,1.7052648867097273,3.225806068058861,,,,,,,,,,,,
40139,0,USOklahomaTexas,Oklahoma,Texas,2022-04-28 09:13:11,2020-10-14,0.9604223278300693,1.7052648867097273,3.225806068058861,,,,,,,,,,,,
40139,0,USOklahomaTexas,Oklahoma,Texas,2022-04-28 09:13:11,2020-10-15,1.011146336273866,1.7822842440856763,3.345316888994866,,,,,,,,,,,,
40139,0,USOklahomaTexas,Oklahoma,Texas,2022-04-28 09:13:11,2020-10-16,1.011146336273866,1.7822842440856763,3.345316888994866,,,,,,,,,,,,
40139,0,USOklahomaTexas,Oklahoma,Texas,2022-04-28 09:13:11,2020-10-17,1.011146336273866,1.7822842440856763,3.345316888994866,,,,,,,,,,,,
40139,0,USOklahomaTexas,Oklahoma,Texas,2022-04-28 09:13:11,2020-10-18,1.011146336273866,1.7822842440856763,3.345316888994866,,,,,,,,,,,,
40139,0,USOklahomaTexas,Oklahoma,Texas,2022-04-28 09:13:11,2020-10-19,1.011146336273866,1.7822842440856763,3.345316888994866,,,,,,,,,,,,
40139,0,USOklahomaTexas,Oklahoma,Texas,2022-04-28 09:13:11,2020-10-20,1.011146336273866,1.7822842440856763,3.345316888994866,,,,,,,,,,,,
40139,0,USOklahomaTexas,Oklahoma,Texas,2022-04-28 09:13:11,2020-10-21,1.011146336273866,1.7822842440856763,3.345316888994866,,,,,,,,,,,,
40139,0,USOklahomaTexas,Oklahoma,Texas,2022-04-28 09:13:11,2020-10-22,1.20527445547305,2.0055555523504554,3.5377845726123165,,,,,,,,,,,,
40139,0,USOklahomaTexas,Oklahoma,Texas,2022-04-28 09:13:11,2020-10-23,1.20527445547305,2.0055555523504554,3.5377845726123165,,,,,,,,,,,,
40139,0,USOklahomaTexas,Oklahoma,Texas,2022-04-28 09:13:11,2020-10-24,1.20527445547305,2.0055555523504554,3.5377845726123165,,,,,,,,,,,,
40139,0,USOklahomaTexas,Oklahoma,Texas,2022-04-28 09:13:11,2020-10-25,1.20527445547305,2.0055555523504554,3.5377845726123165,,,,,,,,,,,,
40139,0,USOklahomaTexas,Oklahoma,Texas,2022-04-28 09:13:11,2020-10-26,1.20527445547305,2.0055555523504554,3.5377845726123165,,,,,,,,,,,,
40139,0,USOklahomaTexas,Oklahoma,Texas,2022-04-28 09:13:11,2020-10-27,1.20527445547305,2.0055555523504554,3.5377845726123165,,,,,,,,,,,,
40139,0,USOklahomaTexas,Oklahoma,Texas,2022-04-28 09:13:11,2020-10-28,1.20527445547305,2.0055555523504554,3.5377845726123165,,,,,,,,,,,,
40139,0,USOklahomaTexas,Oklahoma,Texas,2022-04-28 09:13:11,2020-10-29,1.541798841072259,2.5496740063391927,4.467418775164307,,,,,,,,,,,,
40139,0,USOklahomaTexas,Oklahoma,Texas,2022-04-28 09:13:11,2020-10-30,1.541798841072259,2.5496740063391927,4.467418775164307,,,,,,,,,,,,
40139,0,USOklahomaTexas,Oklahoma,Texas,2022-04-28 09:13:11,2020-10-31,1.541798841072259,2.5496740063391927,4.467418775164307,,,,,,,,,,,,
40139,0,USOklahomaTexas,Oklahoma,Texas,2022-04-28 09:13:11,2020-11-01,1.541798841072259,2.5496740063391927,4.467418775164307,,,,,,,,,,,,
40139,0,USOklahomaTexas,Oklahoma,Texas,2022-04-28 09:13:11,2020-11-02,1.541798841072259,2.5496740063391927,4.467418775164307,,,,,,,,,,,,
40139,0,USOklahomaTexas,Oklahoma,Texas,2022-04-28 09:13:11,2020-11-03,1.541798841072259,2.5496740063391927,4.467418775164307,,,,,,,,,,,,
40139,0,USOklahomaTexas,Oklahoma,Texas,2022-04-28 09:13:11,2020-11-04,1.541798841072259,2.5496740063391927,4.467418775164307,,,,,,,,,,,,
40139,0,USOklahomaTexas,Oklahoma,Texas,2022-04-28 09:13:11,2020-11-05,2.2940334780071194,3.8066568593869095,6.69471330455272,,,,,,,,,,,,
40139,0,USOklahomaTexas,Oklahoma,Texas,2022-04-28 09:13:11,2020-11-06,2.2940334780071194,3.8066568593869095,6.69471330455272,,,,,,,,,,,,
40139,0,USOklahomaTexas,Oklahoma,Texas,2022-04-28 09:13:11,2020-11-07,2.2940334780071194,3.8066568593869095,6.69471330455272,,,,,,,,,,,,
40139,0,USOklahomaTexas,Oklahoma,Texas,2022-04-28 09:13:11,2020-11-08,2.2940334780071194,3.8066568593869095,6.69471330455272,,,,,,,,,,,,
40139,0,USOklahomaTexas,Oklahoma,Texas,2022-04-28 09:13:11,2020-11-09,2.2940334780071194,3.8066568593869095,6.69471330455272,,,,,,,,,,,,
40139,0,USOklahomaTexas,Oklahoma,Texas,2022-04-28 09:13:11,2020-11-10,2.2940334780071194,3.8066568593869095,6.69471330455272,,,,,,,,,,,,
40139,0,USOklahomaTexas,Oklahoma,Texas,2022-04-28 09:13:11,2020-11-11,2.2940334780071194,3.8066568593869095,6.69471330455272,,,,,,,,,,,,
40139,0,USOklahomaTexas,Oklahoma,Texas,2022-04-28 09:13:11,2020-11-12,2.414957814152394,3.943033800717045,6.813548713845644,,,,,,,,,,,,
40139,0,USOklahomaTexas,Oklahoma,Texas,2022-04-28 09:13:11,2020-11-13,2.414957814152394,3.943033800717045,6.813548713845644,,,,,,,,,,,,
40139,0,USOklahomaTexas,Oklahoma,Texas,2022-04-28 09:13:11,2020-11-14,2.414957814152394,3.943033800717045,6.813548713845644,,,,,,,,,,,,
40139,0,USOklahomaTexas,Oklahoma,Texas,2022-04-28 09:13:11,2020-11-15,2.414957814152394,3.943033800717045,6.813548713845644,,,,,,,,,,,,
40139,0,USOklahomaTexas,Oklahoma,Texas,2022-04-28 09:13:11,2020-11-16,2.414957814152394,3.943033800717045,6.813548713845644,,,,,,,,,,,,
40139,0,USOklahomaTexas,Oklahoma,Texas,2022-04-28 09:13:11,2020-11-17,2.414957814152394,3.943033800717045,6.813548713845644,,,,,,,,,,,,
40139,0,USOklahomaTexas,Oklahoma,Texas,2022-04-28 09:13:11,2020-11-18,2.414957814152394,3.943033800717045,6.813548713845644,,,,,,,,,,,,
40139,0,USOklahomaTexas,Oklahoma,Texas,2022-04-28 09:13:11,2020-11-19,2.75499870498333,4.222863850191634,6.807523476830295,,,,,,,,,,,,
40139,0,USOklahomaTexas,Oklahoma,Texas,2022-04-28 09:13:11,2020-11-20,2.75499870498333,4.222863850191634,6.807523476830295,,,,,,,,,,,,
40139,0,USOklahomaTexas,Oklahoma,Texas,2022-04-28 09:13:11,2020-11-21,2.75499870498333,4.222863850191634,6.807523476830295,,,,,,,,,,,,
40139,0,USOklahomaTexas,Oklahoma,Texas,2022-04-28 09:13:11,2020-11-22,2.75499870498333,4.222863850191634,6.807523476830295,,,,,,,,,,,,
40139,0,USOklahomaTexas,Oklahoma,Texas,2022-04-28 09:13:11,2020-11-23,2.75499870498333,4.222863850191634,6.807523476830295,,,,,,,,,,,,
40139,0,USOklahomaTexas,Oklahoma,Texas,2022-04-28 09:13:11,2020-11-24,2.75499870498333,4.222863850191634,6.807523476830295,,,,,,,,,,,,
40139,0,USOklahomaTexas,Oklahoma,Texas,2022-04-28 09:13:11,2020-11-25,2.75499870498333,4.222863850191634,6.807523476830295,,,,,,,,,,,,
40139,0,USOklahomaTexas,Oklahoma,Texas,2022-04-28 09:13:11,2020-11-26,2.3330701740008144,3.8754326234793344,6.823316956500941,,,,,,,,,,,,
40139,0,USOklahomaTexas,Oklahoma,Texas,2022-04-28 09:13:11,2020-11-27,2.3330701740008144,3.8754326234793344,6.823316956500941,,,,,,,,,,,,
40139,0,USOklahomaTexas,Oklahoma,Texas,2022-04-28 09:13:11,2020-11-28,2.3330701740008144,3.8754326234793344,6.823316956500941,,,,,,,,,,,,
40139,0,USOklahomaTexas,Oklahoma,Texas,2022-04-28 09:13:11,2020-11-29,2.3330701740008144,3.8754326234793344,6.823316956500941,,,,,,,,,,,,
40139,0,USOklahomaTexas,Oklahoma,Texas,2022-04-28 09:13:11,2020-11-30,2.3330701740008144,3.8754326234793344,6.823316956500941,,,,,,,,,,,,
40139,0,USOklahomaTexas,Oklahoma,Texas,2022-04-28 09:13:11,2020-12-01,2.3330701740008144,3.8754326234793344,6.823316956500941,,,,,,,,,,,,
40139,0,USOklahomaTexas,Oklahoma,Texas,2022-04-28 09:13:11,2020-12-02,2.3330701740008144,3.8754326234793344,6.823316956500941,,,,,,,,,,,,
40139,0,USOklahomaTexas,Oklahoma,Texas,2022-04-28 09:13:11,2020-12-03,2.4227031492323574,3.9141508344029288,6.68611781611054,,,,,,,,,,,,
40139,0,USOklahomaTexas,Oklahoma,Texas,2022-04-28 09:13:11,2020-12-04,2.4227031492323574,3.9141508344029288,6.68611781611054,,,,,,,,,,,,
40139,0,USOklahomaTexas,Oklahoma,Texas,2022-04-28 09:13:11,2020-12-05,2.4227031492323574,3.9141508344029288,6.68611781611054,,,,,,,,,,,,
40139,0,USOklahomaTexas,Oklahoma,Texas,2022-04-28 09:13:11,2020-12-06,2.4227031492323574,3.9141508344029288,6.68611781611054,,,,,,,,,,,,
40139,0,USOklahomaTexas,Oklahoma,Texas,2022-04-28 09:13:11,2020-12-07,2.4227031492323574,3.9141508344029288,6.68611781611054,,,,,,,,,,,,
40139,0,USOklahomaTexas,Oklahoma,Texas,2022-04-28 09:13:11,2020-12-08,2.4227031492323574,3.9141508344029288,6.68611781611054,,,,,,,,,,,,
40139,0,USOklahomaTexas,Oklahoma,Texas,2022-04-28 09:13:11,2020-12-09,2.4227031492323574,3.9141508344029288,6.68611781611054,,,,,,,,,,,,
40139,0,USOklahomaTexas,Oklahoma,Texas,2022-04-28 09:13:11,2020-12-10,2.941322163263465,4.708619706660025,7.962792129755803,,,,,,,,,,,,
40139,0,USOklahomaTexas,Oklahoma,Texas,2022-04-28 09:13:11,2020-12-11,2.941322163263465,4.708619706660025,7.962792129755803,,,,,,,,,,,,
40139,0,USOklahomaTexas,Oklahoma,Texas,2022-04-28 09:13:11,2020-12-12,2.941322163263465,4.708619706660025,7.962792129755803,,,,,,,,,,,,
40139,0,USOklahomaTexas,Oklahoma,Texas,2022-04-28 09:13:11,2020-12-13,2.941322163263465,4.708619706660025,7.962792129755803,,,,,,,,,,,,
40139,0,USOklahomaTexas,Oklahoma,Texas,2022-04-28 09:13:11,2020-12-14,2.941322163263465,4.708619706660025,7.962792129755803,,,,,,,,,,,,
40139,0,USOklahomaTexas,Oklahoma,Texas,2022-04-28 09:13:11,2020-12-15,2.941322163263465,4.708619706660025,7.962792129755803,,,,,,,,,,,,
40139,0,USOklahomaTexas,Oklahoma,Texas,2022-04-28 09:13:11,2020-12-16,2.941322163263465,4.708619706660025,7.962792129755803,,,,,,,,,,,,
40139,0,USOklahomaTexas,Oklahoma,Texas,2022-04-28 09:13:11,2020-12-17,2.3320934179778563,3.928691464244874,7.023402490913256,,,,,,,,,,,,
40139,0,USOklahomaTexas,Oklahoma,Texas,2022-04-28 09:13:11,2020-12-18,2.3320934179778563,3.928691464244874,7.023402490913256,,,,,,,,,,,,
40139,0,USOklahomaTexas,Oklahoma,Texas,2022-04-28 09:13:11,2020-12-19,2.3320934179778563,3.928691464244874,7.023402490913256,,,,,,,,,,,,
40139,0,USOklahomaTexas,Oklahoma,Texas,2022-04-28 09:13:11,2020-12-20,2.3320934179778563,3.928691464244874,7.023402490913256,,,,,,,,,,,,
40139,0,USOklahomaTexas,Oklahoma,Texas,2022-04-28 09:13:11,2020-12-21,2.3320934179778563,3.928691464244874,7.023402490913256,,,,,,,,,,,,
40139,0,USOklahomaTexas,Oklahoma,Texas,2022-04-28 09:13:11,2020-12-22,2.3320934179778563,3.928691464244874,7.023402490913256,,,,,,,,,,,,
40139,0,USOklahomaTexas,Oklahoma,Texas,2022-04-28 09:13:11,2020-12-23,2.3320934179778563,3.928691464244874,7.023402490913256,,,,,,,,,,,,
40139,0,USOklahomaTexas,Oklahoma,Texas,2022-04-28 09:13:11,2020-12-24,1.1330230816761895,2.2962153282834468,4.992031342340279,,,,,,,,,,,,
40139,0,USOklahomaTexas,Oklahoma,Texas,2022-04-28 09:13:11,2020-12-25,1.1330230816761895,2.2962153282834468,4.992031342340279,,,,,,,,,,,,
40139,0,USOklahomaTexas,Oklahoma,Texas,2022-04-28 09:13:11,2020-12-26,1.1330230816761895,2.2962153282834468,4.992031342340279,,,,,,,,,,,,
40139,0,USOklahomaTexas,Oklahoma,Texas,2022-04-28 09:13:11,2020-12-27,1.1330230816761895,2.2962153282834468,4.992031342340279,,,,,,,,,,,,
40139,0,USOklahomaTexas,Oklahoma,Texas,2022-04-28 09:13:11,2020-12-28,1.1330230816761895,2.2962153282834468,4.992031342340279,,,,,,,,,,,,
40139,0,USOklahomaTexas,Oklahoma,Texas,2022-04-28 09:13:11,2020-12-29,1.1330230816761895,2.2962153282834468,4.992031342340279,,,,,,,,,,,,
40139,0,USOklahomaTexas,Oklahoma,Texas,2022-04-28 09:13:11,2020-12-30,1.1330230816761895,2.2962153282834468,4.992031342340279,,,,,,,,,,,,
40139,0,USOklahomaTexas,Oklahoma,Texas,2022-04-28 09:13:11,2020-12-31,1.4304944225522305,2.9467475748813348,6.51527766021978,,,,,,,,,,,,
40139,0,USOklahomaTexas,Oklahoma,Texas,2022-04-28 09:13:11,2021-01-01,1.4304944225522305,2.9467475748813348,6.51527766021978,,,,,,,,,,,,
40139,0,USOklahomaTexas,Oklahoma,Texas,2022-04-28 09:13:11,2021-01-02,1.4304944225522305,2.9467475748813348,6.51527766021978,,,,,,,,,,,,
40139,0,USOklahomaTexas,Oklahoma,Texas,2022-04-28 09:13:11,2021-01-03,1.4304944225522305,2.9467475748813348,6.51527766021978,,,,,,,,,,,,
40139,0,USOklahomaTexas,Oklahoma,Texas,2022-04-28 09:13:11,2021-01-04,1.4304944225522305,2.9467475748813348,6.51527766021978,,,,,,,,,,,,
40139,0,USOklahomaTexas,Oklahoma,Texas,2022-04-28 09:13:11,2021-01-05,1.4304944225522305,2.9467475748813348,6.51527766021978,,,,,,,,,,,,
40139,0,USOklahomaTexas,Oklahoma,Texas,2022-04-28 09:13:11,2021-01-06,1.4304944225522305,2.9467475748813348,6.51527766021978,,,,,,,,,,,,
40139,0,USOklahomaTexas,Oklahoma,Texas,2022-04-28 09:13:11,2021-01-07,3.4182127320713387,5.610301136721199,9.749881931023532,,,,,,,,,,,,
40139,0,USOklahomaTexas,Oklahoma,Texas,2022-04-28 09:13:11,2021-01-08,3.4182127320713387,5.610301136721199,9.749881931023532,,,,,,,,,,,,
40139,0,USOklahomaTexas,Oklahoma,Texas,2022-04-28 09:13:11,2021-01-09,3.4182127320713387,5.610301136721199,9.749881931023532,,,,,,,,,,,,
40139,0,USOklahomaTexas,Oklahoma,Texas,2022-04-28 09:13:11,2021-01-10,3.4182127320713387,5.610301136721199,9.749881931023532,,,,,,,,,,,,
40139,0,USOklahomaTexas,Oklahoma,Texas,2022-04-28 09:13:11,2021-01-11,3.4182127320713387,5.610301136721199,9.749881931023532,,,,,,,,,,,,
40139,0,USOklahomaTexas,Oklahoma,Texas,2022-04-28 09:13:11,2021-01-12,3.4182127320713387,5.610301136721199,9.749881931023532,,,,,,,,,,,,
40139,0,USOklahomaTexas,Oklahoma,Texas,2022-04-28 09:13:11,2021-01-13,3.4182127320713387,5.610301136721199,9.749881931023532,,,,,,,,,,,,
40139,0,USOklahomaTexas,Oklahoma,Texas,2022-04-28 09:13:11,2021-01-14,1.4369201776343454,2.661508443908168,5.266168010039933,,,,,,,,,,,,
40139,0,USOklahomaTexas,Oklahoma,Texas,2022-04-28 09:13:11,2021-01-15,1.4369201776343454,2.661508443908168,5.266168010039933,,,,,,,,,,,,
40139,0,USOklahomaTexas,Oklahoma,Texas,2022-04-28 09:13:11,2021-01-16,1.4369201776343454,2.661508443908168,5.266168010039933,,,,,,,,,,,,
40139,0,USOklahomaTexas,Oklahoma,Texas,2022-04-28 09:13:11,2021-01-17,1.4369201776343454,2.661508443908168,5.266168010039933,,,,,,,,,,,,
40139,0,USOklahomaTexas,Oklahoma,Texas,2022-04-28 09:13:11,2021-01-18,1.4369201776343454,2.661508443908168,5.266168010039933,,,,,,,,,,,,
40139,0,USOklahomaTexas,Oklahoma,Texas,2022-04-28 09:13:11,2021-01-19,1.4369201776343454,2.661508443908168,5.266168010039933,,,,,,,,,,,,
40139,0,USOklahomaTexas,Oklahoma,Texas,2022-04-28 09:13:11,2021-01-20,1.4369201776343454,2.661508443908168,5.266168010039933,,,,,,,,,,,,
40139,0,USOklahomaTexas,Oklahoma,Texas,2022-04-28 09:13:11,2021-01-21,1.1957152477646333,2.4555856013989277,5.412177907904411,,,,,,,,,,,,
40139,0,USOklahomaTexas,Oklahoma,Texas,2022-04-28 09:13:11,2021-01-22,1.1957152477646333,2.4555856013989277,5.412177907904411,,,,,,,,,,,,
40139,0,USOklahomaTexas,Oklahoma,Texas,2022-04-28 09:13:11,2021-01-23,1.1957152477646333,2.4555856013989277,5.412177907904411,,,,,,,,,,,,
40139,0,USOklahomaTexas,Oklahoma,Texas,2022-04-28 09:13:11,2021-01-24,1.1957152477646333,2.4555856013989277,5.412177907904411,,,,,,,,,,,,
40139,0,USOklahomaTexas,Oklahoma,Texas,2022-04-28 09:13:11,2021-01-25,1.1957152477646333,2.4555856013989277,5.412177907904411,,,,,,,,,,,,
40139,0,USOklahomaTexas,Oklahoma,Texas,2022-04-28 09:13:11,2021-01-26,1.1957152477646333,2.4555856013989277,5.412177907904411,,,,,,,,,,,,
40139,0,USOklahomaTexas,Oklahoma,Texas,2022-04-28 09:13:11,2021-01-27,1.1957152477646333,2.4555856013989277,5.412177907904411,,,,,,,,,,,,
40139,0,USOklahomaTexas,Oklahoma,Texas,2022-04-28 09:13:11,2021-01-28,0.7021682103664485,1.5107293243434305,3.492932145201412,,,,,,,,,,,,
40139,0,USOklahomaTexas,Oklahoma,Texas,2022-04-28 09:13:11,2021-01-29,0.7021682103664485,1.5107293243434305,3.492932145201412,,,,,,,,,,,,
40139,0,USOklahomaTexas,Oklahoma,Texas,2022-04-28 09:13:11,2021-01-30,0.7021682103664485,1.5107293243434305,3.492932145201412,,,,,,,,,,,,
40139,0,USOklahomaTexas,Oklahoma,Texas,2022-04-28 09:13:11,2021-01-31,0.7021682103664485,1.5107293243434305,3.492932145201412,,,,,,,,,,,,
40139,0,USOklahomaTexas,Oklahoma,Texas,2022-04-28 09:13:11,2021-02-01,0.7021682103664485,1.5107293243434305,3.492932145201412,,,,,,,,,,,,
40139,0,USOklahomaTexas,Oklahoma,Texas,2022-04-28 09:13:11,2021-02-02,0.7021682103664485,1.5107293243434305,3.492932145201412,,,,,,,,,,,,
40139,0,USOklahomaTexas,Oklahoma,Texas,2022-04-28 09:13:11,2021-02-03,0.7021682103664485,1.5107293243434305,3.492932145201412,,,,,,,,,,,,
40139,0,USOklahomaTexas,Oklahoma,Texas,2022-04-28 09:13:11,2021-02-04,0.9210070662845581,1.8937103194280622,4.17898731878721,,,,,,,,,,,,
40139,0,USOklahomaTexas,Oklahoma,Texas,2022-04-28 09:13:11,2021-02-05,0.9210070662845581,1.8937103194280622,4.17898731878721,,,,,,,,,,,,
40139,0,USOklahomaTexas,Oklahoma,Texas,2022-04-28 09:13:11,2021-02-06,0.9210070662845581,1.8937103194280622,4.17898731878721,,,,,,,,,,,,
40139,0,USOklahomaTexas,Oklahoma,Texas,2022-04-28 09:13:11,2021-02-07,0.9210070662845581,1.8937103194280622,4.17898731878721,,,,,,,,,,,,
40139,0,USOklahomaTexas,Oklahoma,Texas,2022-04-28 09:13:11,2021-02-08,0.9210070662845581,1.8937103194280622,4.17898731878721,,,,,,,,,,,,
40139,0,USOklahomaTexas,Oklahoma,Texas,2022-04-28 09:13:11,2021-02-09,0.9210070662845581,1.8937103194280622,4.17898731878721,,,,,,,,,,,,
40139,0,USOklahomaTexas,Oklahoma,Texas,2022-04-28 09:13:11,2021-02-10,0.9210070662845581,1.8937103194280622,4.17898731878721,,,,,,,,,,,,
40139,0,USOklahomaTexas,Oklahoma,Texas,2022-04-28 09:13:11,2021-02-11,0.9335320473572292,1.7820321548496738,3.639795024648708,,,,,,,,,,,,
40139,0,USOklahomaTexas,Oklahoma,Texas,2022-04-28 09:13:11,2021-02-12,0.9335320473572292,1.7820321548496738,3.639795024648708,,,,,,,,,,,,
40139,0,USOklahomaTexas,Oklahoma,Texas,2022-04-28 09:13:11,2021-02-13,0.9335320473572292,1.7820321548496738,3.639795024648708,,,,,,,,,,,,
40139,0,USOklahomaTexas,Oklahoma,Texas,2022-04-28 09:13:11,2021-02-14,0.9335320473572292,1.7820321548496738,3.639795024648708,,,,,,,,,,,,
40139,0,USOklahomaTexas,Oklahoma,Texas,2022-04-28 09:13:11,2021-02-15,0.9335320473572292,1.7820321548496738,3.639795024648708,,,,,,,,,,,,
40139,0,USOklahomaTexas,Oklahoma,Texas,2022-04-28 09:13:11,2021-02-16,0.9335320473572292,1.7820321548496738,3.639795024648708,,,,,,,,,,,,
40139,0,USOklahomaTexas,Oklahoma,Texas,2022-04-28 09:13:11,2021-02-17,0.9335320473572292,1.7820321548496738,3.639795024648708,,,,,,,,,,,,
40139,0,USOklahomaTexas,Oklahoma,Texas,2022-04-28 09:13:11,2021-02-18,0.610281279566035,1.3227043161844083,3.0812378216695437,,,,,,,,,,,,
40139,0,USOklahomaTexas,Oklahoma,Texas,2022-04-28 09:13:11,2021-02-19,0.610281279566035,1.3227043161844083,3.0812378216695437,,,,,,,,,,,,
40139,0,USOklahomaTexas,Oklahoma,Texas,2022-04-28 09:13:11,2021-02-20,0.610281279566035,1.3227043161844083,3.0812378216695437,,,,,,,,,,,,
40139,0,USOklahomaTexas,Oklahoma,Texas,2022-04-28 09:13:11,2021-02-21,0.610281279566035,1.3227043161844083,3.0812378216695437,,,,,,,,,,,,
40139,0,USOklahomaTexas,Oklahoma,Texas,2022-04-28 09:13:11,2021-02-22,0.610281279566035,1.3227043161844083,3.0812378216695437,,,,,,,,,,,,
40139,0,USOklahomaTexas,Oklahoma,Texas,2022-04-28 09:13:11,2021-02-23,0.610281279566035,1.3227043161844083,3.0812378216695437,,,,,,,,,,,,
40139,0,USOklahomaTexas,Oklahoma,Texas,2022-04-28 09:13:11,2021-02-24,0.610281279566035,1.3227043161844083,3.0812378216695437,,,,,,,,,,,,
40139,0,USOklahomaTexas,Oklahoma,Texas,2022-04-28 09:13:11,2021-02-25,0.32063973462995815,0.6561072627399399,1.440686371081112,,,,,,,,,,,,
40139,0,USOklahomaTexas,Oklahoma,Texas,2022-04-28 09:13:11,2021-02-26,0.32063973462995815,0.6561072627399399,1.440686371081112,,,,,,,,,,,,
40139,0,USOklahomaTexas,Oklahoma,Texas,2022-04-28 09:13:11,2021-02-27,0.32063973462995815,0.6561072627399399,1.440686371081112,,,,,,,,,,,,
40139,0,USOklahomaTexas,Oklahoma,Texas,2022-04-28 09:13:11,2021-02-28,0.32063973462995815,0.6561072627399399,1.440686371081112,,,,,,,,,,,,
40139,0,USOklahomaTexas,Oklahoma,Texas,2022-04-28 09:13:11,2021-03-01,0.32063973462995815,0.6561072627399399,1.440686371081112,,,,,,,,,,,,
40139,0,USOklahomaTexas,Oklahoma,Texas,2022-04-28 09:13:11,2021-03-02,0.32063973462995815,0.6561072627399399,1.440686371081112,,,,,,,,,,,,
40139,0,USOklahomaTexas,Oklahoma,Texas,2022-04-28 09:13:11,2021-03-03,0.32063973462995815,0.6561072627399399,1.440686371081112,,,,,,,,,,,,
40139,0,USOklahomaTexas,Oklahoma,Texas,2022-04-28 09:13:11,2021-03-04,0.3722766512517398,0.9298185424181131,2.499181246512555,,,,,,,,,,,,
40139,0,USOklahomaTexas,Oklahoma,Texas,2022-04-28 09:13:11,2021-03-05,0.3722766512517398,0.9298185424181131,2.499181246512555,,,,,,,,,,,,
40139,0,USOklahomaTexas,Oklahoma,Texas,2022-04-28 09:13:11,2021-03-06,0.3722766512517398,0.9298185424181131,2.499181246512555,,,,,,,,,,,,
40139,0,USOklahomaTexas,Oklahoma,Texas,2022-04-28 09:13:11,2021-03-07,0.3722766512517398,0.9298185424181131,2.499181246512555,,,,,,,,,,,,
40139,0,USOklahomaTexas,Oklahoma,Texas,2022-04-28 09:13:11,2021-03-08,0.3722766512517398,0.9298185424181131,2.499181246512555,,,,,,,,,,,,
40139,0,USOklahomaTexas,Oklahoma,Texas,2022-04-28 09:13:11,2021-03-09,0.3722766512517398,0.9298185424181131,2.499181246512555,,,,,,,,,,,,
40139,0,USOklahomaTexas,Oklahoma,Texas,2022-04-28 09:13:11,2021-03-10,0.3722766512517398,0.9298185424181131,2.499181246512555,,,,,,,,,,,,
40139,0,USOklahomaTexas,Oklahoma,Texas,2022-04-28 09:13:11,2021-03-11,0.27920541937629506,0.5795322888067479,1.291423965440742,,,,,,,,,,,,
40139,0,USOklahomaTexas,Oklahoma,Texas,2022-04-28 09:13:11,2021-03-12,0.27920541937629506,0.5795322888067479,1.291423965440742,,,,,,,,,,,,
40139,0,USOklahomaTexas,Oklahoma,Texas,2022-04-28 09:13:11,2021-03-13,0.27920541937629506,0.5795322888067479,1.291423965440742,,,,,,,,,,,,
40139,0,USOklahomaTexas,Oklahoma,Texas,2022-04-28 09:13:11,2021-03-14,0.27920541937629506,0.5795322888067479,1.291423965440742,,,,,,,,,,,,
40139,0,USOklahomaTexas,Oklahoma,Texas,2022-04-28 09:13:11,2021-03-15,0.27920541937629506,0.5795322888067479,1.291423965440742,,,,,,,,,,,,
40139,0,USOklahomaTexas,Oklahoma,Texas,2022-04-28 09:13:11,2021-03-16,0.27920541937629506,0.5795322888067479,1.291423965440742,,,,,,,,,,,,
40139,0,USOklahomaTexas,Oklahoma,Texas,2022-04-28 09:13:11,2021-03-17,0.27920541937629506,0.5795322888067479,1.291423965440742,,,,,,,,,,,,
40139,0,USOklahomaTexas,Oklahoma,Texas,2022-04-28 09:13:11,2021-03-18,0.1666242061756365,0.40507090182869954,1.05975020530951,,,,,,,,,,,,
40139,0,USOklahomaTexas,Oklahoma,Texas,2022-04-28 09:13:11,2021-03-19,0.1666242061756365,0.40507090182869954,1.05975020530951,,,,,,,,,,,,
40139,0,USOklahomaTexas,Oklahoma,Texas,2022-04-28 09:13:11,2021-03-20,0.1666242061756365,0.40507090182869954,1.05975020530951,,,,,,,,,,,,
40139,0,USOklahomaTexas,Oklahoma,Texas,2022-04-28 09:13:11,2021-03-21,0.1666242061756365,0.40507090182869954,1.05975020530951,,,,,,,,,,,,
40139,0,USOklahomaTexas,Oklahoma,Texas,2022-04-28 09:13:11,2021-03-22,0.1666242061756365,0.40507090182869954,1.05975020530951,,,,,,,,,,,,
40139,0,USOklahomaTexas,Oklahoma,Texas,2022-04-28 09:13:11,2021-03-23,0.1666242061756365,0.40507090182869954,1.05975020530951,,,,,,,,,,,,
40139,0,USOklahomaTexas,Oklahoma,Texas,2022-04-28 09:13:11,2021-03-24,0.1666242061756365,0.40507090182869954,1.05975020530951,,,,,,,,,,,,
40139,0,USOklahomaTexas,Oklahoma,Texas,2022-04-28 09:13:11,2021-03-25,0.24759821260736192,0.49874726006735903,1.077475523048233,,,,,,,,,,,,
40139,0,USOklahomaTexas,Oklahoma,Texas,2022-04-28 09:13:11,2021-03-26,0.24759821260736192,0.49874726006735903,1.077475523048233,,,,,,,,,,,,
40139,0,USOklahomaTexas,Oklahoma,Texas,2022-04-28 09:13:11,2021-03-27,0.24759821260736192,0.49874726006735903,1.077475523048233,,,,,,,,,,,,
40139,0,USOklahomaTexas,Oklahoma,Texas,2022-04-28 09:13:11,2021-03-28,0.24759821260736192,0.49874726006735903,1.077475523048233,,,,,,,,,,,,
40139,0,USOklahomaTexas,Oklahoma,Texas,2022-04-28 09:13:11,2021-03-29,0.24759821260736192,0.49874726006735903,1.077475523048233,,,,,,,,,,,,
40139,0,USOklahomaTexas,Oklahoma,Texas,2022-04-28 09:13:11,2021-03-30,0.24759821260736192,0.49874726006735903,1.077475523048233,,,,,,,,,,,,
40139,0,USOklahomaTexas,Oklahoma,Texas,2022-04-28 09:13:11,2021-03-31,0.24759821260736192,0.49874726006735903,1.077475523048233,,,,,,,,,,,,
40139,0,USOklahomaTexas,Oklahoma,Texas,2022-04-28 09:13:11,2021-04-01,0.0491323227897769,0.19335412778275163,0.808929640850288,,,,,,,,,,,,
40139,0,USOklahomaTexas,Oklahoma,Texas,2022-04-28 09:13:11,2021-04-02,0.0491323227897769,0.19335412778275163,0.808929640850288,,,,,,,,,,,,
40139,0,USOklahomaTexas,Oklahoma,Texas,2022-04-28 09:13:11,2021-04-03,0.0491323227897769,0.19335412778275163,0.808929640850288,,,,,,,,,,,,
40139,0,USOklahomaTexas,Oklahoma,Texas,2022-04-28 09:13:11,2021-04-04,0.0491323227897769,0.19335412778275163,0.808929640850288,,,,,,,,,,,,
40139,0,USOklahomaTexas,Oklahoma,Texas,2022-04-28 09:13:11,2021-04-05,0.0491323227897769,0.19335412778275163,0.808929640850288,,,,,,,,,,,,
40139,0,USOklahomaTexas,Oklahoma,Texas,2022-04-28 09:13:11,2021-04-06,0.0491323227897769,0.19335412778275163,0.808929640850288,,,,,,,,,,,,
40139,0,USOklahomaTexas,Oklahoma,Texas,2022-04-28 09:13:11,2021-04-07,0.0491323227897769,0.19335412778275163,0.808929640850288,,,,,,,,,,,,
40139,0,USOklahomaTexas,Oklahoma,Texas,2022-04-28 09:13:11,2021-04-08,0.15205032524211662,0.34078173487229524,0.8214172815723217,,,,,,,,,,,,
40139,0,USOklahomaTexas,Oklahoma,Texas,2022-04-28 09:13:11,2021-04-09,0.15205032524211662,0.34078173487229524,0.8214172815723217,,,,,,,,,,,,
40139,0,USOklahomaTexas,Oklahoma,Texas,2022-04-28 09:13:11,2021-04-10,0.15205032524211662,0.34078173487229524,0.8214172815723217,,,,,,,,,,,,
40139,0,USOklahomaTexas,Oklahoma,Texas,2022-04-28 09:13:11,2021-04-11,0.15205032524211662,0.34078173487229524,0.8214172815723217,,,,,,,,,,,,
40139,0,USOklahomaTexas,Oklahoma,Texas,2022-04-28 09:13:11,2021-04-12,0.15205032524211662,0.34078173487229524,0.8214172815723217,,,,,,,,,,,,
40139,0,USOklahomaTexas,Oklahoma,Texas,2022-04-28 09:13:11,2021-04-13,0.15205032524211662,0.34078173487229524,0.8214172815723217,,,,,,,,,,,,
40139,0,USOklahomaTexas,Oklahoma,Texas,2022-04-28 09:13:11,2021-04-14,0.15205032524211662,0.34078173487229524,0.8214172815723217,,,,,,,,,,,,
40139,0,USOklahomaTexas,Oklahoma,Texas,2022-04-28 09:13:11,2021-04-15,0.15003636939484513,0.33228073316531526,0.7912751471374095,,,,,,,,,,,,
40139,0,USOklahomaTexas,Oklahoma,Texas,2022-04-28 09:13:11,2021-04-16,0.15003636939484513,0.33228073316531526,0.7912751471374095,,,,,,,,,,,,
40139,0,USOklahomaTexas,Oklahoma,Texas,2022-04-28 09:13:11,2021-04-17,0.15003636939484513,0.33228073316531526,0.7912751471374095,,,,,,,,,,,,
40139,0,USOklahomaTexas,Oklahoma,Texas,2022-04-28 09:13:11,2021-04-18,0.15003636939484513,0.33228073316531526,0.7912751471374095,,,,,,,,,,,,
40139,0,USOklahomaTexas,Oklahoma,Texas,2022-04-28 09:13:11,2021-04-19,0.15003636939484513,0.33228073316531526,0.7912751471374095,,,,,,,,,,,,
40139,0,USOklahomaTexas,Oklahoma,Texas,2022-04-28 09:13:11,2021-04-20,0.15003636939484513,0.33228073316531526,0.7912751471374095,,,,,,,,,,,,
40139,0,USOklahomaTexas,Oklahoma,Texas,2022-04-28 09:13:11,2021-04-21,0.15003636939484513,0.33228073316531526,0.7912751471374095,,,,,,,,,,,,
40139,0,USOklahomaTexas,Oklahoma,Texas,2022-04-28 09:13:11,2021-04-22,0.09398631589109768,0.25388321573340245,0.7375216334143443,,,,,,,,,,,,
40139,0,USOklahomaTexas,Oklahoma,Texas,2022-04-28 09:13:11,2021-04-23,0.09398631589109768,0.25388321573340245,0.7375216334143443,,,,,,,,,,,,
40139,0,USOklahomaTexas,Oklahoma,Texas,2022-04-28 09:13:11,2021-04-24,0.09398631589109768,0.25388321573340245,0.7375216334143443,,,,,,,,,,,,
40139,0,USOklahomaTexas,Oklahoma,Texas,2022-04-28 09:13:11,2021-04-25,0.09398631589109768,0.25388321573340245,0.7375216334143443,,,,,,,,,,,,
40139,0,USOklahomaTexas,Oklahoma,Texas,2022-04-28 09:13:11,2021-04-26,0.09398631589109768,0.25388321573340245,0.7375216334143443,,,,,,,,,,,,
40139,0,USOklahomaTexas,Oklahoma,Texas,2022-04-28 09:13:11,2021-04-27,0.09398631589109768,0.25388321573340245,0.7375216334143443,,,,,,,,,,,,
40139,0,USOklahomaTexas,Oklahoma,Texas,2022-04-28 09:13:11,2021-04-28,0.09398631589109768,0.25388321573340245,0.7375216334143443,,,,,,,,,,,,
40139,0,USOklahomaTexas,Oklahoma,Texas,2022-04-28 09:13:11,2021-04-29,0.20298513960199138,0.4554431319824051,1.0990309402431506,,,,,,,,,,,,
40139,0,USOklahomaTexas,Oklahoma,Texas,2022-04-28 09:13:11,2021-04-30,0.20298513960199138,0.4554431319824051,1.0990309402431506,,,,,,,,,,,,
40139,0,USOklahomaTexas,Oklahoma,Texas,2022-04-28 09:13:11,2021-05-01,0.20298513960199138,0.4554431319824051,1.0990309402431506,,,,,,,,,,,,
40139,0,USOklahomaTexas,Oklahoma,Texas,2022-04-28 09:13:11,2021-05-02,0.20298513960199138,0.4554431319824051,1.0990309402431506,,,,,,,,,,,,
40139,0,USOklahomaTexas,Oklahoma,Texas,2022-04-28 09:13:11,2021-05-03,0.20298513960199138,0.4554431319824051,1.0990309402431506,,,,,,,,,,,,
40139,0,USOklahomaTexas,Oklahoma,Texas,2022-04-28 09:13:11,2021-05-04,0.20298513960199138,0.4554431319824051,1.0990309402431506,,,,,,,,,,,,
40139,0,USOklahomaTexas,Oklahoma,Texas,2022-04-28 09:13:11,2021-05-05,0.20298513960199138,0.4554431319824051,1.0990309402431506,,,,,,,,,,,,
40139,0,USOklahomaTexas,Oklahoma,Texas,2022-04-28 09:13:11,2021-05-20,0.10899633362496228,0.2605726830420063,0.6703594786481806,,,,,,,,,,,,
40139,0,USOklahomaTexas,Oklahoma,Texas,2022-04-28 09:13:11,2021-05-21,0.10899633362496228,0.2605726830420063,0.6703594786481806,,,,,,,,,,,,
40139,0,USOklahomaTexas,Oklahoma,Texas,2022-04-28 09:13:11,2021-05-22,0.10899633362496228,0.2605726830420063,0.6703594786481806,,,,,,,,,,,,
40139,0,USOklahomaTexas,Oklahoma,Texas,2022-04-28 09:13:11,2021-05-23,0.10899633362496228,0.2605726830420063,0.6703594786481806,,,,,,,,,,,,
40139,0,USOklahomaTexas,Oklahoma,Texas,2022-04-28 09:13:11,2021-05-24,0.10899633362496228,0.2605726830420063,0.6703594786481806,,,,,,,,,,,,
40139,0,USOklahomaTexas,Oklahoma,Texas,2022-04-28 09:13:11,2021-05-25,0.10899633362496228,0.2605726830420063,0.6703594786481806,,,,,,,,,,,,
40139,0,USOklahomaTexas,Oklahoma,Texas,2022-04-28 09:13:11,2021-05-26,0.10899633362496228,0.2605726830420063,0.6703594786481806,,,,,,,,,,,,
40139,0,USOklahomaTexas,Oklahoma,Texas,2022-04-28 09:13:11,2021-05-27,0.09802314529472703,0.2745782786869313,0.8266492627094044,,,,,,,,,,,,
40139,0,USOklahomaTexas,Oklahoma,Texas,2022-04-28 09:13:11,2021-05-28,0.09802314529472703,0.2745782786869313,0.8266492627094044,,,,,,,,,,,,
40139,0,USOklahomaTexas,Oklahoma,Texas,2022-04-28 09:13:11,2021-05-29,0.09802314529472703,0.2745782786869313,0.8266492627094044,,,,,,,,,,,,
40139,0,USOklahomaTexas,Oklahoma,Texas,2022-04-28 09:13:11,2021-05-30,0.09802314529472703,0.2745782786869313,0.8266492627094044,,,,,,,,,,,,
40139,0,USOklahomaTexas,Oklahoma,Texas,2022-04-28 09:13:11,2021-05-31,0.09802314529472703,0.2745782786869313,0.8266492627094044,,,,,,,,,,,,
40139,0,USOklahomaTexas,Oklahoma,Texas,2022-04-28 09:13:11,2021-06-01,0.09802314529472703,0.2745782786869313,0.8266492627094044,,,,,,,,,,,,
40139,0,USOklahomaTexas,Oklahoma,Texas,2022-04-28 09:13:11,2021-06-02,0.09802314529472703,0.2745782786869313,0.8266492627094044,,,,,,,,,,,,
40139,0,USOklahomaTexas,Oklahoma,Texas,2022-04-28 09:13:11,2021-06-03,0.045089661965191645,0.16548304532666064,0.6474685230183755,,,,,,,,,,,,
40139,0,USOklahomaTexas,Oklahoma,Texas,2022-04-28 09:13:11,2021-06-04,0.045089661965191645,0.16548304532666064,0.6474685230183755,,,,,,,,,,,,
40139,0,USOklahomaTexas,Oklahoma,Texas,2022-04-28 09:13:11,2021-06-05,0.045089661965191645,0.16548304532666064,0.6474685230183755,,,,,,,,,,,,
40139,0,USOklahomaTexas,Oklahoma,Texas,2022-04-28 09:13:11,2021-06-06,0.045089661965191645,0.16548304532666064,0.6474685230183755,,,,,,,,,,,,
40139,0,USOklahomaTexas,Oklahoma,Texas,2022-04-28 09:13:11,2021-06-07,0.045089661965191645,0.16548304532666064,0.6474685230183755,,,,,,,,,,,,
40139,0,USOklahomaTexas,Oklahoma,Texas,2022-04-28 09:13:11,2021-06-08,0.045089661965191645,0.16548304532666064,0.6474685230183755,,,,,,,,,,,,
40139,0,USOklahomaTexas,Oklahoma,Texas,2022-04-28 09:13:11,2021-06-09,0.045089661965191645,0.16548304532666064,0.6474685230183755,,,,,,,,,,,,
40139,0,USOklahomaTexas,Oklahoma,Texas,2022-04-28 09:13:11,2021-06-10,0.08519734584732085,0.2984179151160136,1.1162895469093719,,,,,,,,,,,,
40139,0,USOklahomaTexas,Oklahoma,Texas,2022-04-28 09:13:11,2021-06-11,0.08519734584732085,0.2984179151160136,1.1162895469093719,,,,,,,,,,,,
40139,0,USOklahomaTexas,Oklahoma,Texas,2022-04-28 09:13:11,2021-06-12,0.08519734584732085,0.2984179151160136,1.1162895469093719,,,,,,,,,,,,
40139,0,USOklahomaTexas,Oklahoma,Texas,2022-04-28 09:13:11,2021-06-13,0.08519734584732085,0.2984179151160136,1.1162895469093719,,,,,,,,,,,,
40139,0,USOklahomaTexas,Oklahoma,Texas,2022-04-28 09:13:11,2021-06-14,0.08519734584732085,0.2984179151160136,1.1162895469093719,,,,,,,,,,,,
40139,0,USOklahomaTexas,Oklahoma,Texas,2022-04-28 09:13:11,2021-06-15,0.08519734584732085,0.2984179151160136,1.1162895469093719,,,,,,,,,,,,
40139,0,USOklahomaTexas,Oklahoma,Texas,2022-04-28 09:13:11,2021-06-16,0.08519734584732085,0.2984179151160136,1.1162895469093719,,,,,,,,,,,,
40139,0,USOklahomaTexas,Oklahoma,Texas,2022-04-28 09:13:11,2021-06-17,0,0,0,,,,,,,,,,,,
40139,0,USOklahomaTexas,Oklahoma,Texas,2022-04-28 09:13:11,2021-06-18,0,0,0,,,,,,,,,,,,
40139,0,USOklahomaTexas,Oklahoma,Texas,2022-04-28 09:13:11,2021-06-19,0,0,0,,,,,,,,,,,,
40139,0,USOklahomaTexas,Oklahoma,Texas,2022-04-28 09:13:11,2021-06-20,0,0,0,,,,,,,,,,,,
40139,0,USOklahomaTexas,Oklahoma,Texas,2022-04-28 09:13:11,2021-06-21,0,0,0,,,,,,,,,,,,
40139,0,USOklahomaTexas,Oklahoma,Texas,2022-04-28 09:13:11,2021-06-22,0,0,0,,,,,,,,,,,,
40139,0,USOklahomaTexas,Oklahoma,Texas,2022-04-28 09:13:11,2021-06-23,0,0,0,,,,,,,,,,,,
40139,0,USOklahomaTexas,Oklahoma,Texas,2022-04-28 09:13:11,2021-06-24,0.23227415918782188,0.6593146932408325,2.010911932727486,,,,,,,,,,,,
40139,0,USOklahomaTexas,Oklahoma,Texas,2022-04-28 09:13:11,2021-06-25,0.23227415918782188,0.6593146932408325,2.010911932727486,,,,,,,,,,,,
40139,0,USOklahomaTexas,Oklahoma,Texas,2022-04-28 09:13:11,2021-06-26,0.23227415918782188,0.6593146932408325,2.010911932727486,,,,,,,,,,,,
40139,0,USOklahomaTexas,Oklahoma,Texas,2022-04-28 09:13:11,2021-06-27,0.23227415918782188,0.6593146932408325,2.010911932727486,,,,,,,,,,,,
40139,0,USOklahomaTexas,Oklahoma,Texas,2022-04-28 09:13:11,2021-06-28,0.23227415918782188,0.6593146932408325,2.010911932727486,,,,,,,,,,,,
40139,0,USOklahomaTexas,Oklahoma,Texas,2022-04-28 09:13:11,2021-06-29,0.23227415918782188,0.6593146932408325,2.010911932727486,,,,,,,,,,,,
40139,0,USOklahomaTexas,Oklahoma,Texas,2022-04-28 09:13:11,2021-06-30,0.23227415918782188,0.6593146932408325,2.010911932727486,,,,,,,,,,,,
40139,0,USOklahomaTexas,Oklahoma,Texas,2022-04-28 09:13:11,2021-07-01,0,0,0,,,,,,,,,,,,
40139,0,USOklahomaTexas,Oklahoma,Texas,2022-04-28 09:13:11,2021-07-02,0,0,0,,,,,,,,,,,,
40139,0,USOklahomaTexas,Oklahoma,Texas,2022-04-28 09:13:11,2021-07-03,0,0,0,,,,,,,,,,,,
40139,0,USOklahomaTexas,Oklahoma,Texas,2022-04-28 09:13:11,2021-07-04,0,0,0,,,,,,,,,,,,
40139,0,USOklahomaTexas,Oklahoma,Texas,2022-04-28 09:13:11,2021-07-05,0,0,0,,,,,,,,,,,,
40139,0,USOklahomaTexas,Oklahoma,Texas,2022-04-28 09:13:11,2021-07-06,0,0,0,,,,,,,,,,,,
40139,0,USOklahomaTexas,Oklahoma,Texas,2022-04-28 09:13:11,2021-07-07,0,0,0,,,,,,,,,,,,
40139,0,USOklahomaTexas,Oklahoma,Texas,2022-04-28 09:13:11,2021-07-08,0.19348849605185914,0.7519094821118826,3.107940051112167,,,,,,,,,,,,
40139,0,USOklahomaTexas,Oklahoma,Texas,2022-04-28 09:13:11,2021-07-09,0.19348849605185914,0.7519094821118826,3.107940051112167,,,,,,,,,,,,
40139,0,USOklahomaTexas,Oklahoma,Texas,2022-04-28 09:13:11,2021-07-10,0.19348849605185914,0.7519094821118826,3.107940051112167,,,,,,,,,,,,
40139,0,USOklahomaTexas,Oklahoma,Texas,2022-04-28 09:13:11,2021-07-11,0.19348849605185914,0.7519094821118826,3.107940051112167,,,,,,,,,,,,
40139,0,USOklahomaTexas,Oklahoma,Texas,2022-04-28 09:13:11,2021-07-12,0.19348849605185914,0.7519094821118826,3.107940051112167,,,,,,,,,,,,
40139,0,USOklahomaTexas,Oklahoma,Texas,2022-04-28 09:13:11,2021-07-13,0.19348849605185914,0.7519094821118826,3.107940051112167,,,,,,,,,,,,
40139,0,USOklahomaTexas,Oklahoma,Texas,2022-04-28 09:13:11,2021-07-14,0.19348849605185914,0.7519094821118826,3.107940051112167,,,,,,,,,,,,
40139,0,USOklahomaTexas,Oklahoma,Texas,2022-04-28 09:13:11,2021-07-15,0.38958612823342625,1.3827463635876953,5.238694062042397,,,,,,,,,,,,
40139,0,USOklahomaTexas,Oklahoma,Texas,2022-04-28 09:13:11,2021-07-16,0.38958612823342625,1.3827463635876953,5.238694062042397,,,,,,,,,,,,
40139,0,USOklahomaTexas,Oklahoma,Texas,2022-04-28 09:13:11,2021-07-17,0.38958612823342625,1.3827463635876953,5.238694062042397,,,,,,,,,,,,
40139,0,USOklahomaTexas,Oklahoma,Texas,2022-04-28 09:13:11,2021-07-18,0.38958612823342625,1.3827463635876953,5.238694062042397,,,,,,,,,,,,
40139,0,USOklahomaTexas,Oklahoma,Texas,2022-04-28 09:13:11,2021-07-19,0.38958612823342625,1.3827463635876953,5.238694062042397,,,,,,,,,,,,
40139,0,USOklahomaTexas,Oklahoma,Texas,2022-04-28 09:13:11,2021-07-20,0.38958612823342625,1.3827463635876953,5.238694062042397,,,,,,,,,,,,
40139,0,USOklahomaTexas,Oklahoma,Texas,2022-04-28 09:13:11,2021-07-21,0.38958612823342625,1.3827463635876953,5.238694062042397,,,,,,,,,,,,
40139,0,USOklahomaTexas,Oklahoma,Texas,2022-04-28 09:13:11,2021-07-22,0.8624441602546495,2.4473618566968067,7.462361445136895,,,,,,,,,,,,
40139,0,USOklahomaTexas,Oklahoma,Texas,2022-04-28 09:13:11,2021-07-23,0.8624441602546495,2.4473618566968067,7.462361445136895,,,,,,,,,,,,
40139,0,USOklahomaTexas,Oklahoma,Texas,2022-04-28 09:13:11,2021-07-24,0.8624441602546495,2.4473618566968067,7.462361445136895,,,,,,,,,,,,
40139,0,USOklahomaTexas,Oklahoma,Texas,2022-04-28 09:13:11,2021-07-25,0.8624441602546495,2.4473618566968067,7.462361445136895,,,,,,,,,,,,
40139,0,USOklahomaTexas,Oklahoma,Texas,2022-04-28 09:13:11,2021-07-26,0.8624441602546495,2.4473618566968067,7.462361445136895,,,,,,,,,,,,
40139,0,USOklahomaTexas,Oklahoma,Texas,2022-04-28 09:13:11,2021-07-27,0.8624441602546495,2.4473618566968067,7.462361445136895,,,,,,,,,,,,
40139,0,USOklahomaTexas,Oklahoma,Texas,2022-04-28 09:13:11,2021-07-28,0.8624441602546495,2.4473618566968067,7.462361445136895,,,,,,,,,,,,
40139,0,USOklahomaTexas,Oklahoma,Texas,2022-04-28 09:13:11,2021-07-29,0.5453006338207511,2.0140676817194376,7.928539957445629,,,,,,,,,,,,
40139,0,USOklahomaTexas,Oklahoma,Texas,2022-04-28 09:13:11,2021-07-30,0.5453006338207511,2.0140676817194376,7.928539957445629,,,,,,,,,,,,
40139,0,USOklahomaTexas,Oklahoma,Texas,2022-04-28 09:13:11,2021-07-31,0.5453006338207511,2.0140676817194376,7.928539957445629,,,,,,,,,,,,
40139,0,USOklahomaTexas,Oklahoma,Texas,2022-04-28 09:13:11,2021-08-01,0.5453006338207511,2.0140676817194376,7.928539957445629,,,,,,,,,,,,
40139,0,USOklahomaTexas,Oklahoma,Texas,2022-04-28 09:13:11,2021-08-02,0.5453006338207511,2.0140676817194376,7.928539957445629,,,,,,,,,,,,
40139,0,USOklahomaTexas,Oklahoma,Texas,2022-04-28 09:13:11,2021-08-03,0.5453006338207511,2.0140676817194376,7.928539957445629,,,,,,,,,,,,
40139,0,USOklahomaTexas,Oklahoma,Texas,2022-04-28 09:13:11,2021-08-04,0.5453006338207511,2.0140676817194376,7.928539957445629,,,,,,,,,,,,
40139,0,USOklahomaTexas,Oklahoma,Texas,2022-04-28 09:13:11,2021-08-05,0.42968990842491944,1.5158416540642676,5.709418080412125,,,,,,,,,,,,
40139,0,USOklahomaTexas,Oklahoma,Texas,2022-04-28 09:13:11,2021-08-06,0.42968990842491944,1.5158416540642676,5.709418080412125,,,,,,,,,,,,
40139,0,USOklahomaTexas,Oklahoma,Texas,2022-04-28 09:13:11,2021-08-07,0.42968990842491944,1.5158416540642676,5.709418080412125,,,,,,,,,,,,
40139,0,USOklahomaTexas,Oklahoma,Texas,2022-04-28 09:13:11,2021-08-08,0.42968990842491944,1.5158416540642676,5.709418080412125,,,,,,,,,,,,
40139,0,USOklahomaTexas,Oklahoma,Texas,2022-04-28 09:13:11,2021-08-09,0.42968990842491944,1.5158416540642676,5.709418080412125,,,,,,,,,,,,
40139,0,USOklahomaTexas,Oklahoma,Texas,2022-04-28 09:13:11,2021-08-10,0.42968990842491944,1.5158416540642676,5.709418080412125,,,,,,,,,,,,
40139,0,USOklahomaTexas,Oklahoma,Texas,2022-04-28 09:13:11,2021-08-11,0.42968990842491944,1.5158416540642676,5.709418080412125,,,,,,,,,,,,
40139,0,USOklahomaTexas,Oklahoma,Texas,2022-04-28 09:13:11,2021-08-12,0.7682066052153566,2.468800615925697,8.497978345071427,,,,,,,,,,,,
40139,0,USOklahomaTexas,Oklahoma,Texas,2022-04-28 09:13:11,2021-08-13,0.7682066052153566,2.468800615925697,8.497978345071427,,,,,,,,,,,,
40139,0,USOklahomaTexas,Oklahoma,Texas,2022-04-28 09:13:11,2021-08-14,0.7682066052153566,2.468800615925697,8.497978345071427,,,,,,,,,,,,
40139,0,USOklahomaTexas,Oklahoma,Texas,2022-04-28 09:13:11,2021-08-15,0.7682066052153566,2.468800615925697,8.497978345071427,,,,,,,,,,,,
40139,0,USOklahomaTexas,Oklahoma,Texas,2022-04-28 09:13:11,2021-08-16,0.7682066052153566,2.468800615925697,8.497978345071427,,,,,,,,,,,,
40139,0,USOklahomaTexas,Oklahoma,Texas,2022-04-28 09:13:11,2021-08-17,0.7682066052153566,2.468800615925697,8.497978345071427,,,,,,,,,,,,
40139,0,USOklahomaTexas,Oklahoma,Texas,2022-04-28 09:13:11,2021-08-18,0.7682066052153566,2.468800615925697,8.497978345071427,,,,,,,,,,,,
40139,0,USOklahomaTexas,Oklahoma,Texas,2022-04-28 09:13:11,2021-08-19,1.2867135047905127,3.9853943866323336,13.23599165458138,,,,,,,,,,,,
40139,0,USOklahomaTexas,Oklahoma,Texas,2022-04-28 09:13:11,2021-08-20,1.2867135047905127,3.9853943866323336,13.23599165458138,,,,,,,,,,,,
40139,0,USOklahomaTexas,Oklahoma,Texas,2022-04-28 09:13:11,2021-08-21,1.2867135047905127,3.9853943866323336,13.23599165458138,,,,,,,,,,,,
40139,0,USOklahomaTexas,Oklahoma,Texas,2022-04-28 09:13:11,2021-08-22,1.2867135047905127,3.9853943866323336,13.23599165458138,,,,,,,,,,,,
40139,0,USOklahomaTexas,Oklahoma,Texas,2022-04-28 09:13:11,2021-08-23,1.2867135047905127,3.9853943866323336,13.23599165458138,,,,,,,,,,,,
40139,0,USOklahomaTexas,Oklahoma,Texas,2022-04-28 09:13:11,2021-08-24,1.2867135047905127,3.9853943866323336,13.23599165458138,,,,,,,,,,,,
40139,0,USOklahomaTexas,Oklahoma,Texas,2022-04-28 09:13:11,2021-08-25,1.2867135047905127,3.9853943866323336,13.23599165458138,,,,,,,,,,,,
40139,0,USOklahomaTexas,Oklahoma,Texas,2022-04-28 09:13:11,2021-08-26,1.6273149433967786,4.970625141042133,16.28593126698566,,,,,,,,,,,,
40139,0,USOklahomaTexas,Oklahoma,Texas,2022-04-28 09:13:11,2021-08-27,1.6273149433967786,4.970625141042133,16.28593126698566,,,,,,,,,,,,
40139,0,USOklahomaTexas,Oklahoma,Texas,2022-04-28 09:13:11,2021-08-28,1.6273149433967786,4.970625141042133,16.28593126698566,,,,,,,,,,,,
40139,0,USOklahomaTexas,Oklahoma,Texas,2022-04-28 09:13:11,2021-08-29,1.6273149433967786,4.970625141042133,16.28593126698566,,,,,,,,,,,,
40139,0,USOklahomaTexas,Oklahoma,Texas,2022-04-28 09:13:11,2021-08-30,1.6273149433967786,4.970625141042133,16.28593126698566,,,,,,,,,,,,
40139,0,USOklahomaTexas,Oklahoma,Texas,2022-04-28 09:13:11,2021-08-31,1.6273149433967786,4.970625141042133,16.28593126698566,,,,,,,,,,,,
40139,0,USOklahomaTexas,Oklahoma,Texas,2022-04-28 09:13:11,2021-09-01,1.6273149433967786,4.970625141042133,16.28593126698566,,,,,,,,,,,,
40139,0,USOklahomaTexas,Oklahoma,Texas,2022-04-28 09:13:11,2021-09-02,1.167692841508292,2.726921899932689,6.852040854043731,,,,,,,,,,,,
40139,0,USOklahomaTexas,Oklahoma,Texas,2022-04-28 09:13:11,2021-09-03,1.167692841508292,2.726921899932689,6.852040854043731,,,,,,,,,,,,
40139,0,USOklahomaTexas,Oklahoma,Texas,2022-04-28 09:13:11,2021-09-04,1.167692841508292,2.726921899932689,6.852040854043731,,,,,,,,,,,,
40139,0,USOklahomaTexas,Oklahoma,Texas,2022-04-28 09:13:11,2021-09-05,1.167692841508292,2.726921899932689,6.852040854043731,,,,,,,,,,,,
40139,0,USOklahomaTexas,Oklahoma,Texas,2022-04-28 09:13:11,2021-09-06,1.167692841508292,2.726921899932689,6.852040854043731,,,,,,,,,,,,
40139,0,USOklahomaTexas,Oklahoma,Texas,2022-04-28 09:13:11,2021-09-07,1.167692841508292,2.726921899932689,6.852040854043731,,,,,,,,,,,,
40139,0,USOklahomaTexas,Oklahoma,Texas,2022-04-28 09:13:11,2021-09-08,1.167692841508292,2.726921899932689,6.852040854043731,,,,,,,,,,,,
40139,0,USOklahomaTexas,Oklahoma,Texas,2022-04-28 09:13:11,2021-09-09,1.4391090947606762,3.0247006503765164,6.827606149179815,,,,,,,,,,,,
40139,0,USOklahomaTexas,Oklahoma,Texas,2022-04-28 09:13:11,2021-09-10,1.4391090947606762,3.0247006503765164,6.827606149179815,,,,,,,,,,,,
40139,0,USOklahomaTexas,Oklahoma,Texas,2022-04-28 09:13:11,2021-09-11,1.4391090947606762,3.0247006503765164,6.827606149179815,,,,,,,,,,,,
40139,0,USOklahomaTexas,Oklahoma,Texas,2022-04-28 09:13:11,2021-09-12,1.4391090947606762,3.0247006503765164,6.827606149179815,,,,,,,,,,,,
40139,0,USOklahomaTexas,Oklahoma,Texas,2022-04-28 09:13:11,2021-09-13,1.4391090947606762,3.0247006503765164,6.827606149179815,,,,,,,,,,,,
40139,0,USOklahomaTexas,Oklahoma,Texas,2022-04-28 09:13:11,2021-09-14,1.4391090947606762,3.0247006503765164,6.827606149179815,,,,,,,,,,,,
40139,0,USOklahomaTexas,Oklahoma,Texas,2022-04-28 09:13:11,2021-09-15,1.4391090947606762,3.0247006503765164,6.827606149179815,,,,,,,,,,,,
40139,0,USOklahomaTexas,Oklahoma,Texas,2022-04-28 09:13:11,2021-09-16,1.0138241741832466,2.4356237858404253,6.296901073096922,,,,,,,,,,,,
40139,0,USOklahomaTexas,Oklahoma,Texas,2022-04-28 09:13:11,2021-09-17,1.0138241741832466,2.4356237858404253,6.296901073096922,,,,,,,,,,,,
40139,0,USOklahomaTexas,Oklahoma,Texas,2022-04-28 09:13:11,2021-09-18,1.0138241741832466,2.4356237858404253,6.296901073096922,,,,,,,,,,,,
40139,0,USOklahomaTexas,Oklahoma,Texas,2022-04-28 09:13:11,2021-09-19,1.0138241741832466,2.4356237858404253,6.296901073096922,,,,,,,,,,,,
40139,0,USOklahomaTexas,Oklahoma,Texas,2022-04-28 09:13:11,2021-09-20,1.0138241741832466,2.4356237858404253,6.296901073096922,,,,,,,,,,,,
40139,0,USOklahomaTexas,Oklahoma,Texas,2022-04-28 09:13:11,2021-09-21,1.0138241741832466,2.4356237858404253,6.296901073096922,,,,,,,,,,,,
40139,0,USOklahomaTexas,Oklahoma,Texas,2022-04-28 09:13:11,2021-09-22,1.0138241741832466,2.4356237858404253,6.296901073096922,,,,,,,,,,,,
40139,0,USOklahomaTexas,Oklahoma,Texas,2022-04-28 09:13:11,2021-09-23,1.2320396824935023,2.6928111213119466,6.326932032838684,,,,,,,,,,,,
40139,0,USOklahomaTexas,Oklahoma,Texas,2022-04-28 09:13:11,2021-09-24,1.2320396824935023,2.6928111213119466,6.326932032838684,,,,,,,,,,,,
40139,0,USOklahomaTexas,Oklahoma,Texas,2022-04-28 09:13:11,2021-09-25,1.2320396824935023,2.6928111213119466,6.326932032838684,,,,,,,,,,,,
40139,0,USOklahomaTexas,Oklahoma,Texas,2022-04-28 09:13:11,2021-09-26,1.2320396824935023,2.6928111213119466,6.326932032838684,,,,,,,,,,,,
40139,0,USOklahomaTexas,Oklahoma,Texas,2022-04-28 09:13:11,2021-09-27,1.2320396824935023,2.6928111213119466,6.326932032838684,,,,,,,,,,,,
40139,0,USOklahomaTexas,Oklahoma,Texas,2022-04-28 09:13:11,2021-09-28,1.2320396824935023,2.6928111213119466,6.326932032838684,,,,,,,,,,,,
40139,0,USOklahomaTexas,Oklahoma,Texas,2022-04-28 09:13:11,2021-09-29,1.2320396824935023,2.6928111213119466,6.326932032838684,,,,,,,,,,,,
40139,0,USOklahomaTexas,Oklahoma,Texas,2022-04-28 09:13:11,2021-09-30,0.9582080133403537,2.2435804658704472,5.652430808509229,,,,,,,,,,,,
40139,0,USOklahomaTexas,Oklahoma,Texas,2022-04-28 09:13:11,2021-10-01,0.9582080133403537,2.2435804658704472,5.652430808509229,,,,,,,,,,,,
40139,0,USOklahomaTexas,Oklahoma,Texas,2022-04-28 09:13:11,2021-10-02,0.9582080133403537,2.2435804658704472,5.652430808509229,,,,,,,,,,,,
40139,0,USOklahomaTexas,Oklahoma,Texas,2022-04-28 09:13:11,2021-10-03,0.9582080133403537,2.2435804658704472,5.652430808509229,,,,,,,,,,,,
40139,0,USOklahomaTexas,Oklahoma,Texas,2022-04-28 09:13:11,2021-10-04,0.9582080133403537,2.2435804658704472,5.652430808509229,,,,,,,,,,,,
40139,0,USOklahomaTexas,Oklahoma,Texas,2022-04-28 09:13:11,2021-10-05,0.9582080133403537,2.2435804658704472,5.652430808509229,,,,,,,,,,,,
40139,0,USOklahomaTexas,Oklahoma,Texas,2022-04-28 09:13:11,2021-10-06,0.9582080133403537,2.2435804658704472,5.652430808509229,,,,,,,,,,,,
40139,0,USOklahomaTexas,Oklahoma,Texas,2022-04-28 09:13:11,2021-10-07,1.881914017662829,4.745837445279233,12.87884710987209,,,,,,,,,,,,
40139,0,USOklahomaTexas,Oklahoma,Texas,2022-04-28 09:13:11,2021-10-08,1.881914017662829,4.745837445279233,12.87884710987209,,,,,,,,,,,,
40139,0,USOklahomaTexas,Oklahoma,Texas,2022-04-28 09:13:11,2021-10-09,1.881914017662829,4.745837445279233,12.87884710987209,,,,,,,,,,,,
40139,0,USOklahomaTexas,Oklahoma,Texas,2022-04-28 09:13:11,2021-10-10,1.881914017662829,4.745837445279233,12.87884710987209,,,,,,,,,,,,
40139,0,USOklahomaTexas,Oklahoma,Texas,2022-04-28 09:13:11,2021-10-11,1.881914017662829,4.745837445279233,12.87884710987209,,,,,,,,,,,,
40139,0,USOklahomaTexas,Oklahoma,Texas,2022-04-28 09:13:11,2021-10-12,1.881914017662829,4.745837445279233,12.87884710987209,,,,,,,,,,,,
40139,0,USOklahomaTexas,Oklahoma,Texas,2022-04-28 09:13:11,2021-10-13,1.881914017662829,4.745837445279233,12.87884710987209,,,,,,,,,,,,
40139,0,USOklahomaTexas,Oklahoma,Texas,2022-04-28 09:13:11,2021-10-14,1.495495635613603,3.88021744790253,10.831691017233194,,,,,,,,,,,,
40139,0,USOklahomaTexas,Oklahoma,Texas,2022-04-28 09:13:11,2021-10-15,1.495495635613603,3.88021744790253,10.831691017233194,,,,,,,,,,,,
40139,0,USOklahomaTexas,Oklahoma,Texas,2022-04-28 09:13:11,2021-10-16,1.495495635613603,3.88021744790253,10.831691017233194,,,,,,,,,,,,
40139,0,USOklahomaTexas,Oklahoma,Texas,2022-04-28 09:13:11,2021-10-17,1.495495635613603,3.88021744790253,10.831691017233194,,,,,,,,,,,,
40139,0,USOklahomaTexas,Oklahoma,Texas,2022-04-28 09:13:11,2021-10-18,1.495495635613603,3.88021744790253,10.831691017233194,,,,,,,,,,,,
40139,0,USOklahomaTexas,Oklahoma,Texas,2022-04-28 09:13:11,2021-10-19,1.495495635613603,3.88021744790253,10.831691017233194,,,,,,,,,,,,
40139,0,USOklahomaTexas,Oklahoma,Texas,2022-04-28 09:13:11,2021-10-20,1.495495635613603,3.88021744790253,10.831691017233194,,,,,,,,,,,,
40139,0,USOklahomaTexas,Oklahoma,Texas,2022-04-28 09:13:11,2021-10-21,1.589989214902519,3.8805352663533292,10.192245714934051,,,,,,,,,,,,
40139,0,USOklahomaTexas,Oklahoma,Texas,2022-04-28 09:13:11,2021-10-22,1.589989214902519,3.8805352663533292,10.192245714934051,,,,,,,,,,,,
40139,0,USOklahomaTexas,Oklahoma,Texas,2022-04-28 09:13:11,2021-10-23,1.589989214902519,3.8805352663533292,10.192245714934051,,,,,,,,,,,,
40139,0,USOklahomaTexas,Oklahoma,Texas,2022-04-28 09:13:11,2021-10-24,1.589989214902519,3.8805352663533292,10.192245714934051,,,,,,,,,,,,
40139,0,USOklahomaTexas,Oklahoma,Texas,2022-04-28 09:13:11,2021-10-25,1.589989214902519,3.8805352663533292,10.192245714934051,,,,,,,,,,,,
40139,0,USOklahomaTexas,Oklahoma,Texas,2022-04-28 09:13:11,2021-10-26,1.589989214902519,3.8805352663533292,10.192245714934051,,,,,,,,,,,,
40139,0,USOklahomaTexas,Oklahoma,Texas,2022-04-28 09:13:11,2021-10-27,1.589989214902519,3.8805352663533292,10.192245714934051,,,,,,,,,,,,
40139,0,USOklahomaTexas,Oklahoma,Texas,2022-04-28 09:13:11,2021-10-28,1.088626474675805,2.8516772963236585,8.036235439545186,,,,,,,,,,,,
40139,0,USOklahomaTexas,Oklahoma,Texas,2022-04-28 09:13:11,2021-10-29,1.088626474675805,2.8516772963236585,8.036235439545186,,,,,,,,,,,,
40139,0,USOklahomaTexas,Oklahoma,Texas,2022-04-28 09:13:11,2021-10-30,1.088626474675805,2.8516772963236585,8.036235439545186,,,,,,,,,,,,
40139,0,USOklahomaTexas,Oklahoma,Texas,2022-04-28 09:13:11,2021-10-31,1.088626474675805,2.8516772963236585,8.036235439545186,,,,,,,,,,,,
40139,0,USOklahomaTexas,Oklahoma,Texas,2022-04-28 09:13:11,2021-11-01,1.088626474675805,2.8516772963236585,8.036235439545186,,,,,,,,,,,,
40139,0,USOklahomaTexas,Oklahoma,Texas,2022-04-28 09:13:11,2021-11-02,1.088626474675805,2.8516772963236585,8.036235439545186,,,,,,,,,,,,
40139,0,USOklahomaTexas,Oklahoma,Texas,2022-04-28 09:13:11,2021-11-03,1.088626474675805,2.8516772963236585,8.036235439545186,,,,,,,,,,,,
40139,0,USOklahomaTexas,Oklahoma,Texas,2022-04-28 09:13:11,2021-11-04,0,0,0,,,,,,,,,,,,
40139,0,USOklahomaTexas,Oklahoma,Texas,2022-04-28 09:13:11,2021-11-05,0,0,0,,,,,,,,,,,,
40139,0,USOklahomaTexas,Oklahoma,Texas,2022-04-28 09:13:11,2021-11-06,0,0,0,,,,,,,,,,,,
40139,0,USOklahomaTexas,Oklahoma,Texas,2022-04-28 09:13:11,2021-11-07,0,0,0,,,,,,,,,,,,
40139,0,USOklahomaTexas,Oklahoma,Texas,2022-04-28 09:13:11,2021-11-08,0,0,0,,,,,,,,,,,,
40139,0,USOklahomaTexas,Oklahoma,Texas,2022-04-28 09:13:11,2021-11-09,0,0,0,,,,,,,,,,,,
40139,0,USOklahomaTexas,Oklahoma,Texas,2022-04-28 09:13:11,2021-11-10,0,0,0,,,,,,,,,,,,
40139,0,USOklahomaTexas,Oklahoma,Texas,2022-04-28 09:13:11,2021-11-11,2.1733697915008636,5.125227373682389,13.005443977992098,,,,,,,,,,,,
40139,0,USOklahomaTexas,Oklahoma,Texas,2022-04-28 09:13:11,2021-11-12,2.1733697915008636,5.125227373682389,13.005443977992098,,,,,,,,,,,,
40139,0,USOklahomaTexas,Oklahoma,Texas,2022-04-28 09:13:11,2021-11-13,2.1733697915008636,5.125227373682389,13.005443977992098,,,,,,,,,,,,
40139,0,USOklahomaTexas,Oklahoma,Texas,2022-04-28 09:13:11,2021-11-14,2.1733697915008636,5.125227373682389,13.005443977992098,,,,,,,,,,,,
40139,0,USOklahomaTexas,Oklahoma,Texas,2022-04-28 09:13:11,2021-11-15,2.1733697915008636,5.125227373682389,13.005443977992098,,,,,,,,,,,,
40139,0,USOklahomaTexas,Oklahoma,Texas,2022-04-28 09:13:11,2021-11-16,2.1733697915008636,5.125227373682389,13.005443977992098,,,,,,,,,,,,
40139,0,USOklahomaTexas,Oklahoma,Texas,2022-04-28 09:13:11,2021-11-17,2.1733697915008636,5.125227373682389,13.005443977992098,,,,,,,,,,,,
40139,0,USOklahomaTexas,Oklahoma,Texas,2022-04-28 09:13:11,2021-11-18,1.2494894876515468,3.1610306906480155,8.605363653554777,,,,,,,,,,,,
40139,0,USOklahomaTexas,Oklahoma,Texas,2022-04-28 09:13:11,2021-11-19,1.2494894876515468,3.1610306906480155,8.605363653554777,,,,,,,,,,,,
40139,0,USOklahomaTexas,Oklahoma,Texas,2022-04-28 09:13:11,2021-11-20,1.2494894876515468,3.1610306906480155,8.605363653554777,,,,,,,,,,,,
40139,0,USOklahomaTexas,Oklahoma,Texas,2022-04-28 09:13:11,2021-11-21,1.2494894876515468,3.1610306906480155,8.605363653554777,,,,,,,,,,,,
40139,0,USOklahomaTexas,Oklahoma,Texas,2022-04-28 09:13:11,2021-11-22,1.2494894876515468,3.1610306906480155,8.605363653554777,,,,,,,,,,,,
40139,0,USOklahomaTexas,Oklahoma,Texas,2022-04-28 09:13:11,2021-11-23,1.2494894876515468,3.1610306906480155,8.605363653554777,,,,,,,,,,,,
40139,0,USOklahomaTexas,Oklahoma,Texas,2022-04-28 09:13:11,2021-11-24,1.2494894876515468,3.1610306906480155,8.605363653554777,,,,,,,,,,,,
40139,0,USOklahomaTexas,Oklahoma,Texas,2022-04-28 09:13:11,2021-11-25,1.1466173100686818,2.3922780528063736,5.359322637465145,,,,,,,,,,,,
40139,0,USOklahomaTexas,Oklahoma,Texas,2022-04-28 09:13:11,2021-11-26,1.1466173100686818,2.3922780528063736,5.359322637465145,,,,,,,,,,,,
40139,0,USOklahomaTexas,Oklahoma,Texas,2022-04-28 09:13:11,2021-11-27,1.1466173100686818,2.3922780528063736,5.359322637465145,,,,,,,,,,,,
40139,0,USOklahomaTexas,Oklahoma,Texas,2022-04-28 09:13:11,2021-11-28,1.1466173100686818,2.3922780528063736,5.359322637465145,,,,,,,,,,,,
40139,0,USOklahomaTexas,Oklahoma,Texas,2022-04-28 09:13:11,2021-11-29,1.1466173100686818,2.3922780528063736,5.359322637465145,,,,,,,,,,,,
40139,0,USOklahomaTexas,Oklahoma,Texas,2022-04-28 09:13:11,2021-11-30,1.1466173100686818,2.3922780528063736,5.359322637465145,,,,,,,,,,,,
40139,0,USOklahomaTexas,Oklahoma,Texas,2022-04-28 09:13:11,2021-12-01,1.1466173100686818,2.3922780528063736,5.359322637465145,,,,,,,,,,,,
40139,0,USOklahomaTexas,Oklahoma,Texas,2022-04-28 09:13:11,2021-12-02,1.306241526735366,2.762000944814054,6.273259787722238,,,,,,,,,,,,
40139,0,USOklahomaTexas,Oklahoma,Texas,2022-04-28 09:13:11,2021-12-03,1.306241526735366,2.762000944814054,6.273259787722238,,,,,,,,,,,,
40139,0,USOklahomaTexas,Oklahoma,Texas,2022-04-28 09:13:11,2021-12-04,1.306241526735366,2.762000944814054,6.273259787722238,,,,,,,,,,,,
40139,0,USOklahomaTexas,Oklahoma,Texas,2022-04-28 09:13:11,2021-12-05,1.306241526735366,2.762000944814054,6.273259787722238,,,,,,,,,,,,
40139,0,USOklahomaTexas,Oklahoma,Texas,2022-04-28 09:13:11,2021-12-06,1.306241526735366,2.762000944814054,6.273259787722238,,,,,,,,,,,,
40139,0,USOklahomaTexas,Oklahoma,Texas,2022-04-28 09:13:11,2021-12-07,1.306241526735366,2.762000944814054,6.273259787722238,,,,,,,,,,,,
40139,0,USOklahomaTexas,Oklahoma,Texas,2022-04-28 09:13:11,2021-12-08,1.306241526735366,2.762000944814054,6.273259787722238,,,,,,,,,,,,
40139,0,USOklahomaTexas,Oklahoma,Texas,2022-04-28 09:13:11,2021-12-09,1.4622486466850557,3.0724777373921857,6.933463477664399,,,,,,,,,,,,
40139,0,USOklahomaTexas,Oklahoma,Texas,2022-04-28 09:13:11,2021-12-10,1.4622486466850557,3.0724777373921857,6.933463477664399,,,,,,,,,,,,
40139,0,USOklahomaTexas,Oklahoma,Texas,2022-04-28 09:13:11,2021-12-11,1.4622486466850557,3.0724777373921857,6.933463477664399,,,,,,,,,,,,
40139,0,USOklahomaTexas,Oklahoma,Texas,2022-04-28 09:13:11,2021-12-12,1.4622486466850557,3.0724777373921857,6.933463477664399,,,,,,,,,,,,
40139,0,USOklahomaTexas,Oklahoma,Texas,2022-04-28 09:13:11,2021-12-13,1.4622486466850557,3.0724777373921857,6.933463477664399,,,,,,,,,,,,
40139,0,USOklahomaTexas,Oklahoma,Texas,2022-04-28 09:13:11,2021-12-14,1.4622486466850557,3.0724777373921857,6.933463477664399,,,,,,,,,,,,
40139,0,USOklahomaTexas,Oklahoma,Texas,2022-04-28 09:13:11,2021-12-15,1.4622486466850557,3.0724777373921857,6.933463477664399,,,,,,,,,,,,
40139,0,USOklahomaTexas,Oklahoma,Texas,2022-04-28 09:13:11,2021-12-16,1.1097335042561864,2.2478615447133468,4.884309843074798,,,,,,,,,,,,
40139,0,USOklahomaTexas,Oklahoma,Texas,2022-04-28 09:13:11,2021-12-17,1.1097335042561864,2.2478615447133468,4.884309843074798,,,,,,,,,,,,
40139,0,USOklahomaTexas,Oklahoma,Texas,2022-04-28 09:13:11,2021-12-18,1.1097335042561864,2.2478615447133468,4.884309843074798,,,,,,,,,,,,
40139,0,USOklahomaTexas,Oklahoma,Texas,2022-04-28 09:13:11,2021-12-19,1.1097335042561864,2.2478615447133468,4.884309843074798,,,,,,,,,,,,
40139,0,USOklahomaTexas,Oklahoma,Texas,2022-04-28 09:13:11,2021-12-20,1.1097335042561864,2.2478615447133468,4.884309843074798,,,,,,,,,,,,
40139,0,USOklahomaTexas,Oklahoma,Texas,2022-04-28 09:13:11,2021-12-21,1.1097335042561864,2.2478615447133468,4.884309843074798,,,,,,,,,,,,
40139,0,USOklahomaTexas,Oklahoma,Texas,2022-04-28 09:13:11,2021-12-22,1.1097335042561864,2.2478615447133468,4.884309843074798,,,,,,,,,,,,
40139,0,USOklahomaTexas,Oklahoma,Texas,2022-04-28 09:13:11,2021-12-23,0.8103431140627442,2.1088201456923814,5.904293653126216,,,,,,,,,,,,
40139,0,USOklahomaTexas,Oklahoma,Texas,2022-04-28 09:13:11,2021-12-24,0.8103431140627442,2.1088201456923814,5.904293653126216,,,,,,,,,,,,
40139,0,USOklahomaTexas,Oklahoma,Texas,2022-04-28 09:13:11,2021-12-25,0.8103431140627442,2.1088201456923814,5.904293653126216,,,,,,,,,,,,
40139,0,USOklahomaTexas,Oklahoma,Texas,2022-04-28 09:13:11,2021-12-26,0.8103431140627442,2.1088201456923814,5.904293653126216,,,,,,,,,,,,
40139,0,USOklahomaTexas,Oklahoma,Texas,2022-04-28 09:13:11,2021-12-27,0.8103431140627442,2.1088201456923814,5.904293653126216,,,,,,,,,,,,
40139,0,USOklahomaTexas,Oklahoma,Texas,2022-04-28 09:13:11,2021-12-28,0.8103431140627442,2.1088201456923814,5.904293653126216,,,,,,,,,,,,
40139,0,USOklahomaTexas,Oklahoma,Texas,2022-04-28 09:13:11,2021-12-29,0.8103431140627442,2.1088201456923814,5.904293653126216,,,,,,,,,,,,
40139,0,USOklahomaTexas,Oklahoma,Texas,2022-04-28 09:13:11,2021-12-30,2.7683576897983304,5.833890836431821,13.204552759480043,,,,,,,,,,,,
40139,0,USOklahomaTexas,Oklahoma,Texas,2022-04-28 09:13:11,2021-12-31,2.7683576897983304,5.833890836431821,13.204552759480043,,,,,,,,,,,,
40139,0,USOklahomaTexas,Oklahoma,Texas,2022-04-28 09:13:11,2022-01-01,2.7683576897983304,5.833890836431821,13.204552759480043,,,,,,,,,,,,
40139,0,USOklahomaTexas,Oklahoma,Texas,2022-04-28 09:13:11,2022-01-02,2.7683576897983304,5.833890836431821,13.204552759480043,,,,,,,,,,,,
40139,0,USOklahomaTexas,Oklahoma,Texas,2022-04-28 09:13:11,2022-01-03,2.7683576897983304,5.833890836431821,13.204552759480043,,,,,,,,,,,,
40139,0,USOklahomaTexas,Oklahoma,Texas,2022-04-28 09:13:11,2022-01-04,2.7683576897983304,5.833890836431821,13.204552759480043,,,,,,,,,,,,
40139,0,USOklahomaTexas,Oklahoma,Texas,2022-04-28 09:13:11,2022-01-05,2.7683576897983304,5.833890836431821,13.204552759480043,,,,,,,,,,,,
40139,0,USOklahomaTexas,Oklahoma,Texas,2022-04-28 09:13:11,2022-01-06,5.097599061601093,11.184083840479943,26.379942095847085,,,,,,,,,,,,
40139,0,USOklahomaTexas,Oklahoma,Texas,2022-04-28 09:13:11,2022-01-07,5.097599061601093,11.184083840479943,26.379942095847085,,,,,,,,,,,,
40139,0,USOklahomaTexas,Oklahoma,Texas,2022-04-28 09:13:11,2022-01-08,5.097599061601093,11.184083840479943,26.379942095847085,,,,,,,,,,,,
40139,0,USOklahomaTexas,Oklahoma,Texas,2022-04-28 09:13:11,2022-01-09,5.097599061601093,11.184083840479943,26.379942095847085,,,,,,,,,,,,
40139,0,USOklahomaTexas,Oklahoma,Texas,2022-04-28 09:13:11,2022-01-10,5.097599061601093,11.184083840479943,26.379942095847085,,,,,,,,,,,,
40139,0,USOklahomaTexas,Oklahoma,Texas,2022-04-28 09:13:11,2022-01-11,5.097599061601093,11.184083840479943,26.379942095847085,,,,,,,,,,,,
40139,0,USOklahomaTexas,Oklahoma,Texas,2022-04-28 09:13:11,2022-01-12,5.097599061601093,11.184083840479943,26.379942095847085,,,,,,,,,,,,
40139,0,USOklahomaTexas,Oklahoma,Texas,2022-04-28 09:13:11,2022-01-13,8.144511449047451,15.691527083990723,32.362105474455014,,,,,,,,,,,,
40139,0,USOklahomaTexas,Oklahoma,Texas,2022-04-28 09:13:11,2022-01-14,8.144511449047451,15.691527083990723,32.362105474455014,,,,,,,,,,,,
40139,0,USOklahomaTexas,Oklahoma,Texas,2022-04-28 09:13:11,2022-01-15,8.144511449047451,15.691527083990723,32.362105474455014,,,,,,,,,,,,
40139,0,USOklahomaTexas,Oklahoma,Texas,2022-04-28 09:13:11,2022-01-16,8.144511449047451,15.691527083990723,32.362105474455014,,,,,,,,,,,,
40139,0,USOklahomaTexas,Oklahoma,Texas,2022-04-28 09:13:11,2022-01-17,8.144511449047451,15.691527083990723,32.362105474455014,,,,,,,,,,,,
40139,0,USOklahomaTexas,Oklahoma,Texas,2022-04-28 09:13:11,2022-01-18,8.144511449047451,15.691527083990723,32.362105474455014,,,,,,,,,,,,
40139,0,USOklahomaTexas,Oklahoma,Texas,2022-04-28 09:13:11,2022-01-19,8.144511449047451,15.691527083990723,32.362105474455014,,,,,,,,,,,,
40139,0,USOklahomaTexas,Oklahoma,Texas,2022-04-28 09:13:11,2022-01-20,6.209024470743834,11.658175241629989,23.40125865792219,,,,,,,,,,,,
40139,0,USOklahomaTexas,Oklahoma,Texas,2022-04-28 09:13:11,2022-01-21,6.209024470743834,11.658175241629989,23.40125865792219,,,,,,,,,,,,
40139,0,USOklahomaTexas,Oklahoma,Texas,2022-04-28 09:13:11,2022-01-22,6.209024470743834,11.658175241629989,23.40125865792219,,,,,,,,,,,,
40139,0,USOklahomaTexas,Oklahoma,Texas,2022-04-28 09:13:11,2022-01-23,6.209024470743834,11.658175241629989,23.40125865792219,,,,,,,,,,,,
40139,0,USOklahomaTexas,Oklahoma,Texas,2022-04-28 09:13:11,2022-01-24,6.209024470743834,11.658175241629989,23.40125865792219,,,,,,,,,,,,
40139,0,USOklahomaTexas,Oklahoma,Texas,2022-04-28 09:13:11,2022-01-25,6.209024470743834,11.658175241629989,23.40125865792219,,,,,,,,,,,,
40139,0,USOklahomaTexas,Oklahoma,Texas,2022-04-28 09:13:11,2022-01-26,6.209024470743834,11.658175241629989,23.40125865792219,,,,,,,,,,,,
40139,0,USOklahomaTexas,Oklahoma,Texas,2022-04-28 09:13:11,2022-01-27,4.314023789608045,7.927112703338865,15.553088746971582,,,,,,,,,,,,
40139,0,USOklahomaTexas,Oklahoma,Texas,2022-04-28 09:13:11,2022-01-28,4.314023789608045,7.927112703338865,15.553088746971582,,,,,,,,,,,,
40139,0,USOklahomaTexas,Oklahoma,Texas,2022-04-28 09:13:11,2022-01-29,4.314023789608045,7.927112703338865,15.553088746971582,,,,,,,,,,,,
40139,0,USOklahomaTexas,Oklahoma,Texas,2022-04-28 09:13:11,2022-01-30,4.314023789608045,7.927112703338865,15.553088746971582,,,,,,,,,,,,
40139,0,USOklahomaTexas,Oklahoma,Texas,2022-04-28 09:13:11,2022-01-31,4.314023789608045,7.927112703338865,15.553088746971582,,,,,,,,,,,,
40139,0,USOklahomaTexas,Oklahoma,Texas,2022-04-28 09:13:11,2022-02-01,4.314023789608045,7.927112703338865,15.553088746971582,,,,,,,,,,,,
40139,0,USOklahomaTexas,Oklahoma,Texas,2022-04-28 09:13:11,2022-02-02,4.314023789608045,7.927112703338865,15.553088746971582,,,,,,,,,,,,
40139,0,USOklahomaTexas,Oklahoma,Texas,2022-04-28 09:13:11,2022-02-03,2.888019377612214,4.2258522035880475,6.468882145499045,,,,,,,,,,,,
40139,0,USOklahomaTexas,Oklahoma,Texas,2022-04-28 09:13:11,2022-02-04,2.888019377612214,4.2258522035880475,6.468882145499045,,,,,,,,,,,,
40139,0,USOklahomaTexas,Oklahoma,Texas,2022-04-28 09:13:11,2022-02-05,2.888019377612214,4.2258522035880475,6.468882145499045,,,,,,,,,,,,
40139,0,USOklahomaTexas,Oklahoma,Texas,2022-04-28 09:13:11,2022-02-06,2.888019377612214,4.2258522035880475,6.468882145499045,,,,,,,,,,,,
40139,0,USOklahomaTexas,Oklahoma,Texas,2022-04-28 09:13:11,2022-02-07,2.888019377612214,4.2258522035880475,6.468882145499045,,,,,,,,,,,,
40139,0,USOklahomaTexas,Oklahoma,Texas,2022-04-28 09:13:11,2022-02-08,2.888019377612214,4.2258522035880475,6.468882145499045,,,,,,,,,,,,
40139,0,USOklahomaTexas,Oklahoma,Texas,2022-04-28 09:13:11,2022-02-09,2.888019377612214,4.2258522035880475,6.468882145499045,,,,,,,,,,,,
40139,0,USOklahomaTexas,Oklahoma,Texas,2022-04-28 09:13:11,2022-02-10,0.8263949549370002,1.7841454060476836,4.139664181018386,,,,,,,,,,,,
40139,0,USOklahomaTexas,Oklahoma,Texas,2022-04-28 09:13:11,2022-02-11,0.8263949549370002,1.7841454060476836,4.139664181018386,,,,,,,,,,,,
40139,0,USOklahomaTexas,Oklahoma,Texas,2022-04-28 09:13:11,2022-02-12,0.8263949549370002,1.7841454060476836,4.139664181018386,,,,,,,,,,,,
40139,0,USOklahomaTexas,Oklahoma,Texas,2022-04-28 09:13:11,2022-02-13,0.8263949549370002,1.7841454060476836,4.139664181018386,,,,,,,,,,,,
40139,0,USOklahomaTexas,Oklahoma,Texas,2022-04-28 09:13:11,2022-02-14,0.8263949549370002,1.7841454060476836,4.139664181018386,,,,,,,,,,,,
40139,0,USOklahomaTexas,Oklahoma,Texas,2022-04-28 09:13:11,2022-02-15,0.8263949549370002,1.7841454060476836,4.139664181018386,,,,,,,,,,,,
40139,0,USOklahomaTexas,Oklahoma,Texas,2022-04-28 09:13:11,2022-02-16,0.8263949549370002,1.7841454060476836,4.139664181018386,,,,,,,,,,,,
40139,0,USOklahomaTexas,Oklahoma,Texas,2022-04-28 09:13:11,2022-02-17,0.30868095351354463,0.995797122289686,3.4403450208947848,,,,,,,,,,,,
40139,0,USOklahomaTexas,Oklahoma,Texas,2022-04-28 09:13:11,2022-02-18,0.30868095351354463,0.995797122289686,3.4403450208947848,,,,,,,,,,,,
40139,0,USOklahomaTexas,Oklahoma,Texas,2022-04-28 09:13:11,2022-02-19,0.30868095351354463,0.995797122289686,3.4403450208947848,,,,,,,,,,,,
40139,0,USOklahomaTexas,Oklahoma,Texas,2022-04-28 09:13:11,2022-02-20,0.30868095351354463,0.995797122289686,3.4403450208947848,,,,,,,,,,,,
40139,0,USOklahomaTexas,Oklahoma,Texas,2022-04-28 09:13:11,2022-02-21,0.30868095351354463,0.995797122289686,3.4403450208947848,,,,,,,,,,,,
40139,0,USOklahomaTexas,Oklahoma,Texas,2022-04-28 09:13:11,2022-02-22,0.30868095351354463,0.995797122289686,3.4403450208947848,,,,,,,,,,,,
40139,0,USOklahomaTexas,Oklahoma,Texas,2022-04-28 09:13:11,2022-02-23,0.30868095351354463,0.995797122289686,3.4403450208947848,,,,,,,,,,,,
40139,0,USOklahomaTexas,Oklahoma,Texas,2022-04-28 09:13:11,2022-02-24,0.4344912055067839,1.2409724724187234,3.808008192505214,,,,,,,,,,,,
40139,0,USOklahomaTexas,Oklahoma,Texas,2022-04-28 09:13:11,2022-02-25,0.4344912055067839,1.2409724724187234,3.808008192505214,,,,,,,,,,,,
40139,0,USOklahomaTexas,Oklahoma,Texas,2022-04-28 09:13:11,2022-02-26,0.4344912055067839,1.2409724724187234,3.808008192505214,,,,,,,,,,,,
40139,0,USOklahomaTexas,Oklahoma,Texas,2022-04-28 09:13:11,2022-02-27,0.4344912055067839,1.2409724724187234,3.808008192505214,,,,,,,,,,,,
40139,0,USOklahomaTexas,Oklahoma,Texas,2022-04-28 09:13:11,2022-02-28,0.4344912055067839,1.2409724724187234,3.808008192505214,,,,,,,,,,,,
40139,0,USOklahomaTexas,Oklahoma,Texas,2022-04-28 09:13:11,2022-03-01,0.4344912055067839,1.2409724724187234,3.808008192505214,,,,,,,,,,,,
40139,0,USOklahomaTexas,Oklahoma,Texas,2022-04-28 09:13:11,2022-03-02,0.4344912055067839,1.2409724724187234,3.808008192505214,,,,,,,,,,,,
