0 Divergences
Passed validation
2022-04-26 date of last case count
2022-04-25 date of last test positivity data
covid_prevalence version: WGM 0.1.7 2022-04-13

Data provenance: R = region/public health unit, P = province/state
week_start case_data_origin positivity_data_origin
2020-03-18         P                   P
2020-03-25         P                   P
2020-04-01         P                   P
2020-04-08         P                   P
2020-04-15         P                   P
2020-04-22         P                   P
2020-04-29         P                   P
2020-05-06         P                   P
2020-05-13         P                   P
2020-05-20         P                   P
2020-05-27         P                   P
2020-06-03         P                   P
2020-06-10         P                   P
2020-06-17         P                   P
2020-06-24         P                   P
2020-07-01         P                   P
2020-07-08         P                   P
2020-07-15         P                   P
2020-07-22         P                   P
2020-07-29         P                   P
2020-08-05         P                   P
2020-08-12         P                   P
2020-08-19         P                   P
2020-08-26         P                   P
2020-09-02         P                   P
2020-09-09         P                   P
2020-09-16         P                   P
2020-09-23         P                   P
2020-09-30         P                   P
2020-10-07         P                   P
2020-10-14         P                   P
2020-10-21         P                   P
2020-10-28         P                   P
2020-11-04         P                   P
2020-11-11         P                   P
2020-11-18         P                   P
2020-11-25         P                   P
2020-12-02         P                   P
2020-12-09         P                   P
2020-12-16         P                   P
2020-12-23         P                   P
2020-12-30         P                   P
2021-01-06         P                   P
2021-01-13         P                   P
2021-01-20         P                   P
2021-01-27         P                   P
2021-02-03         P                   P
2021-02-10         P                   P
2021-02-17         P                   P
2021-02-24         P                   P
2021-03-03         P                   P
2021-03-10         P                   P
2021-03-17         P                   P
2021-03-24         P                   P
2021-03-31         P                   P
2021-04-07         P                   P
2021-04-14         P                   P
2021-04-21         P                   P
2021-04-28         P                   P
2021-05-05         P                   P
2021-05-12         P                   P
2021-05-19         P                   P
2021-05-26         P                   P
2021-06-02         P                   P
2021-06-09         P                   P
2021-06-16         P                   P
2021-06-23         P                   P
2021-06-30         P                   P
2021-07-07         P                   P
2021-07-14         P                   P
2021-07-21         P                   P
2021-07-28         P                   P
2021-08-04         P                   P
2021-08-11         P                   P
2021-08-18         P                   P
2021-08-25         P                   P
2021-09-01         P                   P
2021-09-08         P                   P
2021-09-15         P                   P
2021-09-22         P                   P
2021-09-29         P                   P
2021-10-06         P                   P
2021-10-13         P                   P
2021-10-20         P                   P
2021-10-27         P                   P
2021-11-03         P                   P
2021-11-10         P                   P
2021-11-17         P                   P
2021-11-24         P                   P
2021-12-01         P                   P
2021-12-08         P                   P
2021-12-15         P                   P
2021-12-22         P                   P
2021-12-29         P                   P
2022-01-05         P                   P
2022-01-12         P                   P
2022-01-19         P                   P
2022-01-26         P                   P
2022-02-02         P                   P
2022-02-09         P                   P
2022-02-16         P                   P
2022-02-23         P                   P
2022-03-02         P                   P
2022-03-09         P                   P
2022-03-16         P                   P
2022-03-23         P                   P
2022-03-30         P                   P
2022-04-06         P                   P
2022-04-13         P                   P
2022-04-20         P                   P
