FIPS,HR_UID,nameid,province,region,analysisTime,dates,pointprevalence_025,pointprevalence_50,pointprevalence_975,pointinfections_025,pointinfections_50,pointinfections_975,pointinfectious_025,pointinfectious_50,pointinfectious_975,pointinfectiousprevalence_025,pointinfectiousprevalence_50,pointinfectiousprevalence_975,infectrate_025,infectrate_50,infectrate_975
21181,0,USKentuckyNicholas,Kentucky,Nicholas,2022-04-28 09:13:11,2020-03-19,0,0,0,,,,,,,,,,,,
21181,0,USKentuckyNicholas,Kentucky,Nicholas,2022-04-28 09:13:11,2020-03-20,0,0,0,,,,,,,,,,,,
21181,0,USKentuckyNicholas,Kentucky,Nicholas,2022-04-28 09:13:11,2020-03-21,0,0,0,,,,,,,,,,,,
21181,0,USKentuckyNicholas,Kentucky,Nicholas,2022-04-28 09:13:11,2020-03-22,0,0,0,,,,,,,,,,,,
21181,0,USKentuckyNicholas,Kentucky,Nicholas,2022-04-28 09:13:11,2020-03-23,0,0,0,,,,,,,,,,,,
21181,0,USKentuckyNicholas,Kentucky,Nicholas,2022-04-28 09:13:11,2020-03-24,0,0,0,,,,,,,,,,,,
21181,0,USKentuckyNicholas,Kentucky,Nicholas,2022-04-28 09:13:11,2020-03-25,0,0,0,,,,,,,,,,,,
21181,0,USKentuckyNicholas,Kentucky,Nicholas,2022-04-28 09:13:11,2020-03-26,0.1117670068699925,0.3766401751327012,1.3573364888762103,,,,,,,,,,,,
21181,0,USKentuckyNicholas,Kentucky,Nicholas,2022-04-28 09:13:11,2020-03-27,0.1117670068699925,0.3766401751327012,1.3573364888762103,,,,,,,,,,,,
21181,0,USKentuckyNicholas,Kentucky,Nicholas,2022-04-28 09:13:11,2020-03-28,0.1117670068699925,0.3766401751327012,1.3573364888762103,,,,,,,,,,,,
21181,0,USKentuckyNicholas,Kentucky,Nicholas,2022-04-28 09:13:11,2020-03-29,0.1117670068699925,0.3766401751327012,1.3573364888762103,,,,,,,,,,,,
21181,0,USKentuckyNicholas,Kentucky,Nicholas,2022-04-28 09:13:11,2020-03-30,0.1117670068699925,0.3766401751327012,1.3573364888762103,,,,,,,,,,,,
21181,0,USKentuckyNicholas,Kentucky,Nicholas,2022-04-28 09:13:11,2020-03-31,0.1117670068699925,0.3766401751327012,1.3573364888762103,,,,,,,,,,,,
21181,0,USKentuckyNicholas,Kentucky,Nicholas,2022-04-28 09:13:11,2020-04-01,0.1117670068699925,0.3766401751327012,1.3573364888762103,,,,,,,,,,,,
21181,0,USKentuckyNicholas,Kentucky,Nicholas,2022-04-28 09:13:11,2020-04-02,0,0,0,,,,,,,,,,,,
21181,0,USKentuckyNicholas,Kentucky,Nicholas,2022-04-28 09:13:11,2020-04-03,0,0,0,,,,,,,,,,,,
21181,0,USKentuckyNicholas,Kentucky,Nicholas,2022-04-28 09:13:11,2020-04-04,0,0,0,,,,,,,,,,,,
21181,0,USKentuckyNicholas,Kentucky,Nicholas,2022-04-28 09:13:11,2020-04-05,0,0,0,,,,,,,,,,,,
21181,0,USKentuckyNicholas,Kentucky,Nicholas,2022-04-28 09:13:11,2020-04-06,0,0,0,,,,,,,,,,,,
21181,0,USKentuckyNicholas,Kentucky,Nicholas,2022-04-28 09:13:11,2020-04-07,0,0,0,,,,,,,,,,,,
21181,0,USKentuckyNicholas,Kentucky,Nicholas,2022-04-28 09:13:11,2020-04-08,0,0,0,,,,,,,,,,,,
21181,0,USKentuckyNicholas,Kentucky,Nicholas,2022-04-28 09:13:11,2020-04-09,0,0,0,,,,,,,,,,,,
21181,0,USKentuckyNicholas,Kentucky,Nicholas,2022-04-28 09:13:11,2020-04-10,0,0,0,,,,,,,,,,,,
21181,0,USKentuckyNicholas,Kentucky,Nicholas,2022-04-28 09:13:11,2020-04-11,0,0,0,,,,,,,,,,,,
21181,0,USKentuckyNicholas,Kentucky,Nicholas,2022-04-28 09:13:11,2020-04-12,0,0,0,,,,,,,,,,,,
21181,0,USKentuckyNicholas,Kentucky,Nicholas,2022-04-28 09:13:11,2020-04-13,0,0,0,,,,,,,,,,,,
21181,0,USKentuckyNicholas,Kentucky,Nicholas,2022-04-28 09:13:11,2020-04-14,0,0,0,,,,,,,,,,,,
21181,0,USKentuckyNicholas,Kentucky,Nicholas,2022-04-28 09:13:11,2020-04-15,0,0,0,,,,,,,,,,,,
21181,0,USKentuckyNicholas,Kentucky,Nicholas,2022-04-28 09:13:11,2020-04-16,0,0,0,,,,,,,,,,,,
21181,0,USKentuckyNicholas,Kentucky,Nicholas,2022-04-28 09:13:11,2020-04-17,0,0,0,,,,,,,,,,,,
21181,0,USKentuckyNicholas,Kentucky,Nicholas,2022-04-28 09:13:11,2020-04-18,0,0,0,,,,,,,,,,,,
21181,0,USKentuckyNicholas,Kentucky,Nicholas,2022-04-28 09:13:11,2020-04-19,0,0,0,,,,,,,,,,,,
21181,0,USKentuckyNicholas,Kentucky,Nicholas,2022-04-28 09:13:11,2020-04-20,0,0,0,,,,,,,,,,,,
21181,0,USKentuckyNicholas,Kentucky,Nicholas,2022-04-28 09:13:11,2020-04-21,0,0,0,,,,,,,,,,,,
21181,0,USKentuckyNicholas,Kentucky,Nicholas,2022-04-28 09:13:11,2020-04-22,0,0,0,,,,,,,,,,,,
21181,0,USKentuckyNicholas,Kentucky,Nicholas,2022-04-28 09:13:11,2020-04-23,0,0,0,,,,,,,,,,,,
21181,0,USKentuckyNicholas,Kentucky,Nicholas,2022-04-28 09:13:11,2020-04-24,0,0,0,,,,,,,,,,,,
21181,0,USKentuckyNicholas,Kentucky,Nicholas,2022-04-28 09:13:11,2020-04-25,0,0,0,,,,,,,,,,,,
21181,0,USKentuckyNicholas,Kentucky,Nicholas,2022-04-28 09:13:11,2020-04-26,0,0,0,,,,,,,,,,,,
21181,0,USKentuckyNicholas,Kentucky,Nicholas,2022-04-28 09:13:11,2020-04-27,0,0,0,,,,,,,,,,,,
21181,0,USKentuckyNicholas,Kentucky,Nicholas,2022-04-28 09:13:11,2020-04-28,0,0,0,,,,,,,,,,,,
21181,0,USKentuckyNicholas,Kentucky,Nicholas,2022-04-28 09:13:11,2020-04-29,0,0,0,,,,,,,,,,,,
21181,0,USKentuckyNicholas,Kentucky,Nicholas,2022-04-28 09:13:11,2020-04-30,0,0,0,,,,,,,,,,,,
21181,0,USKentuckyNicholas,Kentucky,Nicholas,2022-04-28 09:13:11,2020-05-01,0,0,0,,,,,,,,,,,,
21181,0,USKentuckyNicholas,Kentucky,Nicholas,2022-04-28 09:13:11,2020-05-02,0,0,0,,,,,,,,,,,,
21181,0,USKentuckyNicholas,Kentucky,Nicholas,2022-04-28 09:13:11,2020-05-03,0,0,0,,,,,,,,,,,,
21181,0,USKentuckyNicholas,Kentucky,Nicholas,2022-04-28 09:13:11,2020-05-04,0,0,0,,,,,,,,,,,,
21181,0,USKentuckyNicholas,Kentucky,Nicholas,2022-04-28 09:13:11,2020-05-05,0,0,0,,,,,,,,,,,,
21181,0,USKentuckyNicholas,Kentucky,Nicholas,2022-04-28 09:13:11,2020-05-06,0,0,0,,,,,,,,,,,,
21181,0,USKentuckyNicholas,Kentucky,Nicholas,2022-04-28 09:13:11,2020-05-07,0,0,0,,,,,,,,,,,,
21181,0,USKentuckyNicholas,Kentucky,Nicholas,2022-04-28 09:13:11,2020-05-08,0,0,0,,,,,,,,,,,,
21181,0,USKentuckyNicholas,Kentucky,Nicholas,2022-04-28 09:13:11,2020-05-09,0,0,0,,,,,,,,,,,,
21181,0,USKentuckyNicholas,Kentucky,Nicholas,2022-04-28 09:13:11,2020-05-10,0,0,0,,,,,,,,,,,,
21181,0,USKentuckyNicholas,Kentucky,Nicholas,2022-04-28 09:13:11,2020-05-11,0,0,0,,,,,,,,,,,,
21181,0,USKentuckyNicholas,Kentucky,Nicholas,2022-04-28 09:13:11,2020-05-12,0,0,0,,,,,,,,,,,,
21181,0,USKentuckyNicholas,Kentucky,Nicholas,2022-04-28 09:13:11,2020-05-13,0,0,0,,,,,,,,,,,,
21181,0,USKentuckyNicholas,Kentucky,Nicholas,2022-04-28 09:13:11,2020-05-14,0,0,0,,,,,,,,,,,,
21181,0,USKentuckyNicholas,Kentucky,Nicholas,2022-04-28 09:13:11,2020-05-15,0,0,0,,,,,,,,,,,,
21181,0,USKentuckyNicholas,Kentucky,Nicholas,2022-04-28 09:13:11,2020-05-16,0,0,0,,,,,,,,,,,,
21181,0,USKentuckyNicholas,Kentucky,Nicholas,2022-04-28 09:13:11,2020-05-17,0,0,0,,,,,,,,,,,,
21181,0,USKentuckyNicholas,Kentucky,Nicholas,2022-04-28 09:13:11,2020-05-18,0,0,0,,,,,,,,,,,,
21181,0,USKentuckyNicholas,Kentucky,Nicholas,2022-04-28 09:13:11,2020-05-19,0,0,0,,,,,,,,,,,,
21181,0,USKentuckyNicholas,Kentucky,Nicholas,2022-04-28 09:13:11,2020-05-20,0,0,0,,,,,,,,,,,,
21181,0,USKentuckyNicholas,Kentucky,Nicholas,2022-04-28 09:13:11,2020-05-21,0.14606166265060702,0.3414089277692137,0.8586569848611308,,,,,,,,,,,,
21181,0,USKentuckyNicholas,Kentucky,Nicholas,2022-04-28 09:13:11,2020-05-22,0.14606166265060702,0.3414089277692137,0.8586569848611308,,,,,,,,,,,,
21181,0,USKentuckyNicholas,Kentucky,Nicholas,2022-04-28 09:13:11,2020-05-23,0.14606166265060702,0.3414089277692137,0.8586569848611308,,,,,,,,,,,,
21181,0,USKentuckyNicholas,Kentucky,Nicholas,2022-04-28 09:13:11,2020-05-24,0.14606166265060702,0.3414089277692137,0.8586569848611308,,,,,,,,,,,,
21181,0,USKentuckyNicholas,Kentucky,Nicholas,2022-04-28 09:13:11,2020-05-25,0.14606166265060702,0.3414089277692137,0.8586569848611308,,,,,,,,,,,,
21181,0,USKentuckyNicholas,Kentucky,Nicholas,2022-04-28 09:13:11,2020-05-26,0.14606166265060702,0.3414089277692137,0.8586569848611308,,,,,,,,,,,,
21181,0,USKentuckyNicholas,Kentucky,Nicholas,2022-04-28 09:13:11,2020-05-27,0.14606166265060702,0.3414089277692137,0.8586569848611308,,,,,,,,,,,,
21181,0,USKentuckyNicholas,Kentucky,Nicholas,2022-04-28 09:13:11,2020-05-28,0,0,0,,,,,,,,,,,,
21181,0,USKentuckyNicholas,Kentucky,Nicholas,2022-04-28 09:13:11,2020-05-29,0,0,0,,,,,,,,,,,,
21181,0,USKentuckyNicholas,Kentucky,Nicholas,2022-04-28 09:13:11,2020-05-30,0,0,0,,,,,,,,,,,,
21181,0,USKentuckyNicholas,Kentucky,Nicholas,2022-04-28 09:13:11,2020-05-31,0,0,0,,,,,,,,,,,,
21181,0,USKentuckyNicholas,Kentucky,Nicholas,2022-04-28 09:13:11,2020-06-01,0,0,0,,,,,,,,,,,,
21181,0,USKentuckyNicholas,Kentucky,Nicholas,2022-04-28 09:13:11,2020-06-02,0,0,0,,,,,,,,,,,,
21181,0,USKentuckyNicholas,Kentucky,Nicholas,2022-04-28 09:13:11,2020-06-03,0,0,0,,,,,,,,,,,,
21181,0,USKentuckyNicholas,Kentucky,Nicholas,2022-04-28 09:13:11,2020-06-04,0.08632410162554632,0.23365216033224193,0.6800905803137024,,,,,,,,,,,,
21181,0,USKentuckyNicholas,Kentucky,Nicholas,2022-04-28 09:13:11,2020-06-05,0.08632410162554632,0.23365216033224193,0.6800905803137024,,,,,,,,,,,,
21181,0,USKentuckyNicholas,Kentucky,Nicholas,2022-04-28 09:13:11,2020-06-06,0.08632410162554632,0.23365216033224193,0.6800905803137024,,,,,,,,,,,,
21181,0,USKentuckyNicholas,Kentucky,Nicholas,2022-04-28 09:13:11,2020-06-07,0.08632410162554632,0.23365216033224193,0.6800905803137024,,,,,,,,,,,,
21181,0,USKentuckyNicholas,Kentucky,Nicholas,2022-04-28 09:13:11,2020-06-08,0.08632410162554632,0.23365216033224193,0.6800905803137024,,,,,,,,,,,,
21181,0,USKentuckyNicholas,Kentucky,Nicholas,2022-04-28 09:13:11,2020-06-09,0.08632410162554632,0.23365216033224193,0.6800905803137024,,,,,,,,,,,,
21181,0,USKentuckyNicholas,Kentucky,Nicholas,2022-04-28 09:13:11,2020-06-10,0.08632410162554632,0.23365216033224193,0.6800905803137024,,,,,,,,,,,,
21181,0,USKentuckyNicholas,Kentucky,Nicholas,2022-04-28 09:13:11,2020-06-11,0,0,0,,,,,,,,,,,,
21181,0,USKentuckyNicholas,Kentucky,Nicholas,2022-04-28 09:13:11,2020-06-12,0,0,0,,,,,,,,,,,,
21181,0,USKentuckyNicholas,Kentucky,Nicholas,2022-04-28 09:13:11,2020-06-13,0,0,0,,,,,,,,,,,,
21181,0,USKentuckyNicholas,Kentucky,Nicholas,2022-04-28 09:13:11,2020-06-14,0,0,0,,,,,,,,,,,,
21181,0,USKentuckyNicholas,Kentucky,Nicholas,2022-04-28 09:13:11,2020-06-15,0,0,0,,,,,,,,,,,,
21181,0,USKentuckyNicholas,Kentucky,Nicholas,2022-04-28 09:13:11,2020-06-16,0,0,0,,,,,,,,,,,,
21181,0,USKentuckyNicholas,Kentucky,Nicholas,2022-04-28 09:13:11,2020-06-17,0,0,0,,,,,,,,,,,,
21181,0,USKentuckyNicholas,Kentucky,Nicholas,2022-04-28 09:13:11,2020-06-18,0.08819405405204306,0.2431770370356837,0.7208452956828293,,,,,,,,,,,,
21181,0,USKentuckyNicholas,Kentucky,Nicholas,2022-04-28 09:13:11,2020-06-19,0.08819405405204306,0.2431770370356837,0.7208452956828293,,,,,,,,,,,,
21181,0,USKentuckyNicholas,Kentucky,Nicholas,2022-04-28 09:13:11,2020-06-20,0.08819405405204306,0.2431770370356837,0.7208452956828293,,,,,,,,,,,,
21181,0,USKentuckyNicholas,Kentucky,Nicholas,2022-04-28 09:13:11,2020-06-21,0.08819405405204306,0.2431770370356837,0.7208452956828293,,,,,,,,,,,,
21181,0,USKentuckyNicholas,Kentucky,Nicholas,2022-04-28 09:13:11,2020-06-22,0.08819405405204306,0.2431770370356837,0.7208452956828293,,,,,,,,,,,,
21181,0,USKentuckyNicholas,Kentucky,Nicholas,2022-04-28 09:13:11,2020-06-23,0.08819405405204306,0.2431770370356837,0.7208452956828293,,,,,,,,,,,,
21181,0,USKentuckyNicholas,Kentucky,Nicholas,2022-04-28 09:13:11,2020-06-24,0.08819405405204306,0.2431770370356837,0.7208452956828293,,,,,,,,,,,,
21181,0,USKentuckyNicholas,Kentucky,Nicholas,2022-04-28 09:13:11,2020-06-25,0,0,0,,,,,,,,,,,,
21181,0,USKentuckyNicholas,Kentucky,Nicholas,2022-04-28 09:13:11,2020-06-26,0,0,0,,,,,,,,,,,,
21181,0,USKentuckyNicholas,Kentucky,Nicholas,2022-04-28 09:13:11,2020-06-27,0,0,0,,,,,,,,,,,,
21181,0,USKentuckyNicholas,Kentucky,Nicholas,2022-04-28 09:13:11,2020-06-28,0,0,0,,,,,,,,,,,,
21181,0,USKentuckyNicholas,Kentucky,Nicholas,2022-04-28 09:13:11,2020-06-29,0,0,0,,,,,,,,,,,,
21181,0,USKentuckyNicholas,Kentucky,Nicholas,2022-04-28 09:13:11,2020-06-30,0,0,0,,,,,,,,,,,,
21181,0,USKentuckyNicholas,Kentucky,Nicholas,2022-04-28 09:13:11,2020-07-01,0,0,0,,,,,,,,,,,,
21181,0,USKentuckyNicholas,Kentucky,Nicholas,2022-04-28 09:13:11,2020-07-02,0.3714055603939621,0.7483816457741173,1.61732396526904,,,,,,,,,,,,
21181,0,USKentuckyNicholas,Kentucky,Nicholas,2022-04-28 09:13:11,2020-07-03,0.3714055603939621,0.7483816457741173,1.61732396526904,,,,,,,,,,,,
21181,0,USKentuckyNicholas,Kentucky,Nicholas,2022-04-28 09:13:11,2020-07-04,0.3714055603939621,0.7483816457741173,1.61732396526904,,,,,,,,,,,,
21181,0,USKentuckyNicholas,Kentucky,Nicholas,2022-04-28 09:13:11,2020-07-05,0.3714055603939621,0.7483816457741173,1.61732396526904,,,,,,,,,,,,
21181,0,USKentuckyNicholas,Kentucky,Nicholas,2022-04-28 09:13:11,2020-07-06,0.3714055603939621,0.7483816457741173,1.61732396526904,,,,,,,,,,,,
21181,0,USKentuckyNicholas,Kentucky,Nicholas,2022-04-28 09:13:11,2020-07-07,0.3714055603939621,0.7483816457741173,1.61732396526904,,,,,,,,,,,,
21181,0,USKentuckyNicholas,Kentucky,Nicholas,2022-04-28 09:13:11,2020-07-08,0.3714055603939621,0.7483816457741173,1.61732396526904,,,,,,,,,,,,
21181,0,USKentuckyNicholas,Kentucky,Nicholas,2022-04-28 09:13:11,2020-07-09,0.2287533893049099,0.5555150615989916,1.451787700428845,,,,,,,,,,,,
21181,0,USKentuckyNicholas,Kentucky,Nicholas,2022-04-28 09:13:11,2020-07-10,0.2287533893049099,0.5555150615989916,1.451787700428845,,,,,,,,,,,,
21181,0,USKentuckyNicholas,Kentucky,Nicholas,2022-04-28 09:13:11,2020-07-11,0.2287533893049099,0.5555150615989916,1.451787700428845,,,,,,,,,,,,
21181,0,USKentuckyNicholas,Kentucky,Nicholas,2022-04-28 09:13:11,2020-07-12,0.2287533893049099,0.5555150615989916,1.451787700428845,,,,,,,,,,,,
21181,0,USKentuckyNicholas,Kentucky,Nicholas,2022-04-28 09:13:11,2020-07-13,0.2287533893049099,0.5555150615989916,1.451787700428845,,,,,,,,,,,,
21181,0,USKentuckyNicholas,Kentucky,Nicholas,2022-04-28 09:13:11,2020-07-14,0.2287533893049099,0.5555150615989916,1.451787700428845,,,,,,,,,,,,
21181,0,USKentuckyNicholas,Kentucky,Nicholas,2022-04-28 09:13:11,2020-07-15,0.2287533893049099,0.5555150615989916,1.451787700428845,,,,,,,,,,,,
21181,0,USKentuckyNicholas,Kentucky,Nicholas,2022-04-28 09:13:11,2020-07-16,0.2850986327603143,0.6521246135648217,1.6046585630079553,,,,,,,,,,,,
21181,0,USKentuckyNicholas,Kentucky,Nicholas,2022-04-28 09:13:11,2020-07-17,0.2850986327603143,0.6521246135648217,1.6046585630079553,,,,,,,,,,,,
21181,0,USKentuckyNicholas,Kentucky,Nicholas,2022-04-28 09:13:11,2020-07-18,0.2850986327603143,0.6521246135648217,1.6046585630079553,,,,,,,,,,,,
21181,0,USKentuckyNicholas,Kentucky,Nicholas,2022-04-28 09:13:11,2020-07-19,0.2850986327603143,0.6521246135648217,1.6046585630079553,,,,,,,,,,,,
21181,0,USKentuckyNicholas,Kentucky,Nicholas,2022-04-28 09:13:11,2020-07-20,0.2850986327603143,0.6521246135648217,1.6046585630079553,,,,,,,,,,,,
21181,0,USKentuckyNicholas,Kentucky,Nicholas,2022-04-28 09:13:11,2020-07-21,0.2850986327603143,0.6521246135648217,1.6046585630079553,,,,,,,,,,,,
21181,0,USKentuckyNicholas,Kentucky,Nicholas,2022-04-28 09:13:11,2020-07-22,0.2850986327603143,0.6521246135648217,1.6046585630079553,,,,,,,,,,,,
21181,0,USKentuckyNicholas,Kentucky,Nicholas,2022-04-28 09:13:11,2020-07-23,0.3051464241390686,0.7413355891399274,1.9382089857878049,,,,,,,,,,,,
21181,0,USKentuckyNicholas,Kentucky,Nicholas,2022-04-28 09:13:11,2020-07-24,0.3051464241390686,0.7413355891399274,1.9382089857878049,,,,,,,,,,,,
21181,0,USKentuckyNicholas,Kentucky,Nicholas,2022-04-28 09:13:11,2020-07-25,0.3051464241390686,0.7413355891399274,1.9382089857878049,,,,,,,,,,,,
21181,0,USKentuckyNicholas,Kentucky,Nicholas,2022-04-28 09:13:11,2020-07-26,0.3051464241390686,0.7413355891399274,1.9382089857878049,,,,,,,,,,,,
21181,0,USKentuckyNicholas,Kentucky,Nicholas,2022-04-28 09:13:11,2020-07-27,0.3051464241390686,0.7413355891399274,1.9382089857878049,,,,,,,,,,,,
21181,0,USKentuckyNicholas,Kentucky,Nicholas,2022-04-28 09:13:11,2020-07-28,0.3051464241390686,0.7413355891399274,1.9382089857878049,,,,,,,,,,,,
21181,0,USKentuckyNicholas,Kentucky,Nicholas,2022-04-28 09:13:11,2020-07-29,0.3051464241390686,0.7413355891399274,1.9382089857878049,,,,,,,,,,,,
21181,0,USKentuckyNicholas,Kentucky,Nicholas,2022-04-28 09:13:11,2020-07-30,0,0,0,,,,,,,,,,,,
21181,0,USKentuckyNicholas,Kentucky,Nicholas,2022-04-28 09:13:11,2020-07-31,0,0,0,,,,,,,,,,,,
21181,0,USKentuckyNicholas,Kentucky,Nicholas,2022-04-28 09:13:11,2020-08-01,0,0,0,,,,,,,,,,,,
21181,0,USKentuckyNicholas,Kentucky,Nicholas,2022-04-28 09:13:11,2020-08-02,0,0,0,,,,,,,,,,,,
21181,0,USKentuckyNicholas,Kentucky,Nicholas,2022-04-28 09:13:11,2020-08-03,0,0,0,,,,,,,,,,,,
21181,0,USKentuckyNicholas,Kentucky,Nicholas,2022-04-28 09:13:11,2020-08-04,0,0,0,,,,,,,,,,,,
21181,0,USKentuckyNicholas,Kentucky,Nicholas,2022-04-28 09:13:11,2020-08-05,0,0,0,,,,,,,,,,,,
21181,0,USKentuckyNicholas,Kentucky,Nicholas,2022-04-28 09:13:11,2020-08-06,0,0,0,,,,,,,,,,,,
21181,0,USKentuckyNicholas,Kentucky,Nicholas,2022-04-28 09:13:11,2020-08-07,0,0,0,,,,,,,,,,,,
21181,0,USKentuckyNicholas,Kentucky,Nicholas,2022-04-28 09:13:11,2020-08-08,0,0,0,,,,,,,,,,,,
21181,0,USKentuckyNicholas,Kentucky,Nicholas,2022-04-28 09:13:11,2020-08-09,0,0,0,,,,,,,,,,,,
21181,0,USKentuckyNicholas,Kentucky,Nicholas,2022-04-28 09:13:11,2020-08-10,0,0,0,,,,,,,,,,,,
21181,0,USKentuckyNicholas,Kentucky,Nicholas,2022-04-28 09:13:11,2020-08-11,0,0,0,,,,,,,,,,,,
21181,0,USKentuckyNicholas,Kentucky,Nicholas,2022-04-28 09:13:11,2020-08-12,0,0,0,,,,,,,,,,,,
21181,0,USKentuckyNicholas,Kentucky,Nicholas,2022-04-28 09:13:11,2020-08-13,0.10364149378437207,0.32789760124018474,1.1116587786180674,,,,,,,,,,,,
21181,0,USKentuckyNicholas,Kentucky,Nicholas,2022-04-28 09:13:11,2020-08-14,0.10364149378437207,0.32789760124018474,1.1116587786180674,,,,,,,,,,,,
21181,0,USKentuckyNicholas,Kentucky,Nicholas,2022-04-28 09:13:11,2020-08-15,0.10364149378437207,0.32789760124018474,1.1116587786180674,,,,,,,,,,,,
21181,0,USKentuckyNicholas,Kentucky,Nicholas,2022-04-28 09:13:11,2020-08-16,0.10364149378437207,0.32789760124018474,1.1116587786180674,,,,,,,,,,,,
21181,0,USKentuckyNicholas,Kentucky,Nicholas,2022-04-28 09:13:11,2020-08-17,0.10364149378437207,0.32789760124018474,1.1116587786180674,,,,,,,,,,,,
21181,0,USKentuckyNicholas,Kentucky,Nicholas,2022-04-28 09:13:11,2020-08-18,0.10364149378437207,0.32789760124018474,1.1116587786180674,,,,,,,,,,,,
21181,0,USKentuckyNicholas,Kentucky,Nicholas,2022-04-28 09:13:11,2020-08-19,0.10364149378437207,0.32789760124018474,1.1116587786180674,,,,,,,,,,,,
21181,0,USKentuckyNicholas,Kentucky,Nicholas,2022-04-28 09:13:11,2020-08-20,0.1075928378393534,0.3512494135848523,1.2275913280483324,,,,,,,,,,,,
21181,0,USKentuckyNicholas,Kentucky,Nicholas,2022-04-28 09:13:11,2020-08-21,0.1075928378393534,0.3512494135848523,1.2275913280483324,,,,,,,,,,,,
21181,0,USKentuckyNicholas,Kentucky,Nicholas,2022-04-28 09:13:11,2020-08-22,0.1075928378393534,0.3512494135848523,1.2275913280483324,,,,,,,,,,,,
21181,0,USKentuckyNicholas,Kentucky,Nicholas,2022-04-28 09:13:11,2020-08-23,0.1075928378393534,0.3512494135848523,1.2275913280483324,,,,,,,,,,,,
21181,0,USKentuckyNicholas,Kentucky,Nicholas,2022-04-28 09:13:11,2020-08-24,0.1075928378393534,0.3512494135848523,1.2275913280483324,,,,,,,,,,,,
21181,0,USKentuckyNicholas,Kentucky,Nicholas,2022-04-28 09:13:11,2020-08-25,0.1075928378393534,0.3512494135848523,1.2275913280483324,,,,,,,,,,,,
21181,0,USKentuckyNicholas,Kentucky,Nicholas,2022-04-28 09:13:11,2020-08-26,0.1075928378393534,0.3512494135848523,1.2275913280483324,,,,,,,,,,,,
21181,0,USKentuckyNicholas,Kentucky,Nicholas,2022-04-28 09:13:11,2020-08-27,0.24876318640847991,0.6502066971300614,1.8283397436425712,,,,,,,,,,,,
21181,0,USKentuckyNicholas,Kentucky,Nicholas,2022-04-28 09:13:11,2020-08-28,0.24876318640847991,0.6502066971300614,1.8283397436425712,,,,,,,,,,,,
21181,0,USKentuckyNicholas,Kentucky,Nicholas,2022-04-28 09:13:11,2020-08-29,0.24876318640847991,0.6502066971300614,1.8283397436425712,,,,,,,,,,,,
21181,0,USKentuckyNicholas,Kentucky,Nicholas,2022-04-28 09:13:11,2020-08-30,0.24876318640847991,0.6502066971300614,1.8283397436425712,,,,,,,,,,,,
21181,0,USKentuckyNicholas,Kentucky,Nicholas,2022-04-28 09:13:11,2020-08-31,0.24876318640847991,0.6502066971300614,1.8283397436425712,,,,,,,,,,,,
21181,0,USKentuckyNicholas,Kentucky,Nicholas,2022-04-28 09:13:11,2020-09-01,0.24876318640847991,0.6502066971300614,1.8283397436425712,,,,,,,,,,,,
21181,0,USKentuckyNicholas,Kentucky,Nicholas,2022-04-28 09:13:11,2020-09-02,0.24876318640847991,0.6502066971300614,1.8283397436425712,,,,,,,,,,,,
21181,0,USKentuckyNicholas,Kentucky,Nicholas,2022-04-28 09:13:11,2020-09-03,0.188429759613988,0.5498625314373455,1.723109701276568,,,,,,,,,,,,
21181,0,USKentuckyNicholas,Kentucky,Nicholas,2022-04-28 09:13:11,2020-09-04,0.188429759613988,0.5498625314373455,1.723109701276568,,,,,,,,,,,,
21181,0,USKentuckyNicholas,Kentucky,Nicholas,2022-04-28 09:13:11,2020-09-05,0.188429759613988,0.5498625314373455,1.723109701276568,,,,,,,,,,,,
21181,0,USKentuckyNicholas,Kentucky,Nicholas,2022-04-28 09:13:11,2020-09-06,0.188429759613988,0.5498625314373455,1.723109701276568,,,,,,,,,,,,
21181,0,USKentuckyNicholas,Kentucky,Nicholas,2022-04-28 09:13:11,2020-09-07,0.188429759613988,0.5498625314373455,1.723109701276568,,,,,,,,,,,,
21181,0,USKentuckyNicholas,Kentucky,Nicholas,2022-04-28 09:13:11,2020-09-08,0.188429759613988,0.5498625314373455,1.723109701276568,,,,,,,,,,,,
21181,0,USKentuckyNicholas,Kentucky,Nicholas,2022-04-28 09:13:11,2020-09-09,0.188429759613988,0.5498625314373455,1.723109701276568,,,,,,,,,,,,
21181,0,USKentuckyNicholas,Kentucky,Nicholas,2022-04-28 09:13:11,2020-09-10,0.14237037701605684,0.32528871292422545,0.7995199728206596,,,,,,,,,,,,
21181,0,USKentuckyNicholas,Kentucky,Nicholas,2022-04-28 09:13:11,2020-09-11,0.14237037701605684,0.32528871292422545,0.7995199728206596,,,,,,,,,,,,
21181,0,USKentuckyNicholas,Kentucky,Nicholas,2022-04-28 09:13:11,2020-09-12,0.14237037701605684,0.32528871292422545,0.7995199728206596,,,,,,,,,,,,
21181,0,USKentuckyNicholas,Kentucky,Nicholas,2022-04-28 09:13:11,2020-09-13,0.14237037701605684,0.32528871292422545,0.7995199728206596,,,,,,,,,,,,
21181,0,USKentuckyNicholas,Kentucky,Nicholas,2022-04-28 09:13:11,2020-09-14,0.14237037701605684,0.32528871292422545,0.7995199728206596,,,,,,,,,,,,
21181,0,USKentuckyNicholas,Kentucky,Nicholas,2022-04-28 09:13:11,2020-09-15,0.14237037701605684,0.32528871292422545,0.7995199728206596,,,,,,,,,,,,
21181,0,USKentuckyNicholas,Kentucky,Nicholas,2022-04-28 09:13:11,2020-09-16,0.14237037701605684,0.32528871292422545,0.7995199728206596,,,,,,,,,,,,
21181,0,USKentuckyNicholas,Kentucky,Nicholas,2022-04-28 09:13:11,2020-09-17,0.1330864996450199,0.28626414396980204,0.6616910789886071,,,,,,,,,,,,
21181,0,USKentuckyNicholas,Kentucky,Nicholas,2022-04-28 09:13:11,2020-09-18,0.1330864996450199,0.28626414396980204,0.6616910789886071,,,,,,,,,,,,
21181,0,USKentuckyNicholas,Kentucky,Nicholas,2022-04-28 09:13:11,2020-09-19,0.1330864996450199,0.28626414396980204,0.6616910789886071,,,,,,,,,,,,
21181,0,USKentuckyNicholas,Kentucky,Nicholas,2022-04-28 09:13:11,2020-09-20,0.1330864996450199,0.28626414396980204,0.6616910789886071,,,,,,,,,,,,
21181,0,USKentuckyNicholas,Kentucky,Nicholas,2022-04-28 09:13:11,2020-09-21,0.1330864996450199,0.28626414396980204,0.6616910789886071,,,,,,,,,,,,
21181,0,USKentuckyNicholas,Kentucky,Nicholas,2022-04-28 09:13:11,2020-09-22,0.1330864996450199,0.28626414396980204,0.6616910789886071,,,,,,,,,,,,
21181,0,USKentuckyNicholas,Kentucky,Nicholas,2022-04-28 09:13:11,2020-09-23,0.1330864996450199,0.28626414396980204,0.6616910789886071,,,,,,,,,,,,
21181,0,USKentuckyNicholas,Kentucky,Nicholas,2022-04-28 09:13:11,2020-09-24,0.3331134614233589,0.6078745742957223,1.1839220347304549,,,,,,,,,,,,
21181,0,USKentuckyNicholas,Kentucky,Nicholas,2022-04-28 09:13:11,2020-09-25,0.3331134614233589,0.6078745742957223,1.1839220347304549,,,,,,,,,,,,
21181,0,USKentuckyNicholas,Kentucky,Nicholas,2022-04-28 09:13:11,2020-09-26,0.3331134614233589,0.6078745742957223,1.1839220347304549,,,,,,,,,,,,
21181,0,USKentuckyNicholas,Kentucky,Nicholas,2022-04-28 09:13:11,2020-09-27,0.3331134614233589,0.6078745742957223,1.1839220347304549,,,,,,,,,,,,
21181,0,USKentuckyNicholas,Kentucky,Nicholas,2022-04-28 09:13:11,2020-09-28,0.3331134614233589,0.6078745742957223,1.1839220347304549,,,,,,,,,,,,
21181,0,USKentuckyNicholas,Kentucky,Nicholas,2022-04-28 09:13:11,2020-09-29,0.3331134614233589,0.6078745742957223,1.1839220347304549,,,,,,,,,,,,
21181,0,USKentuckyNicholas,Kentucky,Nicholas,2022-04-28 09:13:11,2020-09-30,0.3331134614233589,0.6078745742957223,1.1839220347304549,,,,,,,,,,,,
21181,0,USKentuckyNicholas,Kentucky,Nicholas,2022-04-28 09:13:11,2020-10-01,1.051816941846283,1.7464840609519077,3.073672432330835,,,,,,,,,,,,
21181,0,USKentuckyNicholas,Kentucky,Nicholas,2022-04-28 09:13:11,2020-10-02,1.051816941846283,1.7464840609519077,3.073672432330835,,,,,,,,,,,,
21181,0,USKentuckyNicholas,Kentucky,Nicholas,2022-04-28 09:13:11,2020-10-03,1.051816941846283,1.7464840609519077,3.073672432330835,,,,,,,,,,,,
21181,0,USKentuckyNicholas,Kentucky,Nicholas,2022-04-28 09:13:11,2020-10-04,1.051816941846283,1.7464840609519077,3.073672432330835,,,,,,,,,,,,
21181,0,USKentuckyNicholas,Kentucky,Nicholas,2022-04-28 09:13:11,2020-10-05,1.051816941846283,1.7464840609519077,3.073672432330835,,,,,,,,,,,,
21181,0,USKentuckyNicholas,Kentucky,Nicholas,2022-04-28 09:13:11,2020-10-06,1.051816941846283,1.7464840609519077,3.073672432330835,,,,,,,,,,,,
21181,0,USKentuckyNicholas,Kentucky,Nicholas,2022-04-28 09:13:11,2020-10-07,1.051816941846283,1.7464840609519077,3.073672432330835,,,,,,,,,,,,
21181,0,USKentuckyNicholas,Kentucky,Nicholas,2022-04-28 09:13:11,2020-10-08,1.0182861610693805,1.5727903096528526,2.5569500058213417,,,,,,,,,,,,
21181,0,USKentuckyNicholas,Kentucky,Nicholas,2022-04-28 09:13:11,2020-10-09,1.0182861610693805,1.5727903096528526,2.5569500058213417,,,,,,,,,,,,
21181,0,USKentuckyNicholas,Kentucky,Nicholas,2022-04-28 09:13:11,2020-10-10,1.0182861610693805,1.5727903096528526,2.5569500058213417,,,,,,,,,,,,
21181,0,USKentuckyNicholas,Kentucky,Nicholas,2022-04-28 09:13:11,2020-10-11,1.0182861610693805,1.5727903096528526,2.5569500058213417,,,,,,,,,,,,
21181,0,USKentuckyNicholas,Kentucky,Nicholas,2022-04-28 09:13:11,2020-10-12,1.0182861610693805,1.5727903096528526,2.5569500058213417,,,,,,,,,,,,
21181,0,USKentuckyNicholas,Kentucky,Nicholas,2022-04-28 09:13:11,2020-10-13,1.0182861610693805,1.5727903096528526,2.5569500058213417,,,,,,,,,,,,
21181,0,USKentuckyNicholas,Kentucky,Nicholas,2022-04-28 09:13:11,2020-10-14,1.0182861610693805,1.5727903096528526,2.5569500058213417,,,,,,,,,,,,
21181,0,USKentuckyNicholas,Kentucky,Nicholas,2022-04-28 09:13:11,2020-10-15,1.1197853974039729,1.8115921902658676,3.0991328426856466,,,,,,,,,,,,
21181,0,USKentuckyNicholas,Kentucky,Nicholas,2022-04-28 09:13:11,2020-10-16,1.1197853974039729,1.8115921902658676,3.0991328426856466,,,,,,,,,,,,
21181,0,USKentuckyNicholas,Kentucky,Nicholas,2022-04-28 09:13:11,2020-10-17,1.1197853974039729,1.8115921902658676,3.0991328426856466,,,,,,,,,,,,
21181,0,USKentuckyNicholas,Kentucky,Nicholas,2022-04-28 09:13:11,2020-10-18,1.1197853974039729,1.8115921902658676,3.0991328426856466,,,,,,,,,,,,
21181,0,USKentuckyNicholas,Kentucky,Nicholas,2022-04-28 09:13:11,2020-10-19,1.1197853974039729,1.8115921902658676,3.0991328426856466,,,,,,,,,,,,
21181,0,USKentuckyNicholas,Kentucky,Nicholas,2022-04-28 09:13:11,2020-10-20,1.1197853974039729,1.8115921902658676,3.0991328426856466,,,,,,,,,,,,
21181,0,USKentuckyNicholas,Kentucky,Nicholas,2022-04-28 09:13:11,2020-10-21,1.1197853974039729,1.8115921902658676,3.0991328426856466,,,,,,,,,,,,
21181,0,USKentuckyNicholas,Kentucky,Nicholas,2022-04-28 09:13:11,2020-10-22,0.7584958492197811,1.448350840531894,2.9592124162718796,,,,,,,,,,,,
21181,0,USKentuckyNicholas,Kentucky,Nicholas,2022-04-28 09:13:11,2020-10-23,0.7584958492197811,1.448350840531894,2.9592124162718796,,,,,,,,,,,,
21181,0,USKentuckyNicholas,Kentucky,Nicholas,2022-04-28 09:13:11,2020-10-24,0.7584958492197811,1.448350840531894,2.9592124162718796,,,,,,,,,,,,
21181,0,USKentuckyNicholas,Kentucky,Nicholas,2022-04-28 09:13:11,2020-10-25,0.7584958492197811,1.448350840531894,2.9592124162718796,,,,,,,,,,,,
21181,0,USKentuckyNicholas,Kentucky,Nicholas,2022-04-28 09:13:11,2020-10-26,0.7584958492197811,1.448350840531894,2.9592124162718796,,,,,,,,,,,,
21181,0,USKentuckyNicholas,Kentucky,Nicholas,2022-04-28 09:13:11,2020-10-27,0.7584958492197811,1.448350840531894,2.9592124162718796,,,,,,,,,,,,
21181,0,USKentuckyNicholas,Kentucky,Nicholas,2022-04-28 09:13:11,2020-10-28,0.7584958492197811,1.448350840531894,2.9592124162718796,,,,,,,,,,,,
21181,0,USKentuckyNicholas,Kentucky,Nicholas,2022-04-28 09:13:11,2020-10-29,0.5973485224226143,1.1653425119569583,2.4350167903273654,,,,,,,,,,,,
21181,0,USKentuckyNicholas,Kentucky,Nicholas,2022-04-28 09:13:11,2020-10-30,0.5973485224226143,1.1653425119569583,2.4350167903273654,,,,,,,,,,,,
21181,0,USKentuckyNicholas,Kentucky,Nicholas,2022-04-28 09:13:11,2020-10-31,0.5973485224226143,1.1653425119569583,2.4350167903273654,,,,,,,,,,,,
21181,0,USKentuckyNicholas,Kentucky,Nicholas,2022-04-28 09:13:11,2020-11-01,0.5973485224226143,1.1653425119569583,2.4350167903273654,,,,,,,,,,,,
21181,0,USKentuckyNicholas,Kentucky,Nicholas,2022-04-28 09:13:11,2020-11-02,0.5973485224226143,1.1653425119569583,2.4350167903273654,,,,,,,,,,,,
21181,0,USKentuckyNicholas,Kentucky,Nicholas,2022-04-28 09:13:11,2020-11-03,0.5973485224226143,1.1653425119569583,2.4350167903273654,,,,,,,,,,,,
21181,0,USKentuckyNicholas,Kentucky,Nicholas,2022-04-28 09:13:11,2020-11-04,0.5973485224226143,1.1653425119569583,2.4350167903273654,,,,,,,,,,,,
21181,0,USKentuckyNicholas,Kentucky,Nicholas,2022-04-28 09:13:11,2020-11-05,0.6064233177852236,1.3191267831521751,3.0843288982115586,,,,,,,,,,,,
21181,0,USKentuckyNicholas,Kentucky,Nicholas,2022-04-28 09:13:11,2020-11-06,0.6064233177852236,1.3191267831521751,3.0843288982115586,,,,,,,,,,,,
21181,0,USKentuckyNicholas,Kentucky,Nicholas,2022-04-28 09:13:11,2020-11-07,0.6064233177852236,1.3191267831521751,3.0843288982115586,,,,,,,,,,,,
21181,0,USKentuckyNicholas,Kentucky,Nicholas,2022-04-28 09:13:11,2020-11-08,0.6064233177852236,1.3191267831521751,3.0843288982115586,,,,,,,,,,,,
21181,0,USKentuckyNicholas,Kentucky,Nicholas,2022-04-28 09:13:11,2020-11-09,0.6064233177852236,1.3191267831521751,3.0843288982115586,,,,,,,,,,,,
21181,0,USKentuckyNicholas,Kentucky,Nicholas,2022-04-28 09:13:11,2020-11-10,0.6064233177852236,1.3191267831521751,3.0843288982115586,,,,,,,,,,,,
21181,0,USKentuckyNicholas,Kentucky,Nicholas,2022-04-28 09:13:11,2020-11-11,0.6064233177852236,1.3191267831521751,3.0843288982115586,,,,,,,,,,,,
21181,0,USKentuckyNicholas,Kentucky,Nicholas,2022-04-28 09:13:11,2020-11-12,0.8079861425072419,1.5275911187471076,3.088668136523542,,,,,,,,,,,,
21181,0,USKentuckyNicholas,Kentucky,Nicholas,2022-04-28 09:13:11,2020-11-13,0.8079861425072419,1.5275911187471076,3.088668136523542,,,,,,,,,,,,
21181,0,USKentuckyNicholas,Kentucky,Nicholas,2022-04-28 09:13:11,2020-11-14,0.8079861425072419,1.5275911187471076,3.088668136523542,,,,,,,,,,,,
21181,0,USKentuckyNicholas,Kentucky,Nicholas,2022-04-28 09:13:11,2020-11-15,0.8079861425072419,1.5275911187471076,3.088668136523542,,,,,,,,,,,,
21181,0,USKentuckyNicholas,Kentucky,Nicholas,2022-04-28 09:13:11,2020-11-16,0.8079861425072419,1.5275911187471076,3.088668136523542,,,,,,,,,,,,
21181,0,USKentuckyNicholas,Kentucky,Nicholas,2022-04-28 09:13:11,2020-11-17,0.8079861425072419,1.5275911187471076,3.088668136523542,,,,,,,,,,,,
21181,0,USKentuckyNicholas,Kentucky,Nicholas,2022-04-28 09:13:11,2020-11-18,0.8079861425072419,1.5275911187471076,3.088668136523542,,,,,,,,,,,,
21181,0,USKentuckyNicholas,Kentucky,Nicholas,2022-04-28 09:13:11,2020-11-19,1.1176833374661337,2.0518487559458585,4.02176632644749,,,,,,,,,,,,
21181,0,USKentuckyNicholas,Kentucky,Nicholas,2022-04-28 09:13:11,2020-11-20,1.1176833374661337,2.0518487559458585,4.02176632644749,,,,,,,,,,,,
21181,0,USKentuckyNicholas,Kentucky,Nicholas,2022-04-28 09:13:11,2020-11-21,1.1176833374661337,2.0518487559458585,4.02176632644749,,,,,,,,,,,,
21181,0,USKentuckyNicholas,Kentucky,Nicholas,2022-04-28 09:13:11,2020-11-22,1.1176833374661337,2.0518487559458585,4.02176632644749,,,,,,,,,,,,
21181,0,USKentuckyNicholas,Kentucky,Nicholas,2022-04-28 09:13:11,2020-11-23,1.1176833374661337,2.0518487559458585,4.02176632644749,,,,,,,,,,,,
21181,0,USKentuckyNicholas,Kentucky,Nicholas,2022-04-28 09:13:11,2020-11-24,1.1176833374661337,2.0518487559458585,4.02176632644749,,,,,,,,,,,,
21181,0,USKentuckyNicholas,Kentucky,Nicholas,2022-04-28 09:13:11,2020-11-25,1.1176833374661337,2.0518487559458585,4.02176632644749,,,,,,,,,,,,
21181,0,USKentuckyNicholas,Kentucky,Nicholas,2022-04-28 09:13:11,2020-11-26,0.85101683229521,1.8037355012931984,4.106805826731668,,,,,,,,,,,,
21181,0,USKentuckyNicholas,Kentucky,Nicholas,2022-04-28 09:13:11,2020-11-27,0.85101683229521,1.8037355012931984,4.106805826731668,,,,,,,,,,,,
21181,0,USKentuckyNicholas,Kentucky,Nicholas,2022-04-28 09:13:11,2020-11-28,0.85101683229521,1.8037355012931984,4.106805826731668,,,,,,,,,,,,
21181,0,USKentuckyNicholas,Kentucky,Nicholas,2022-04-28 09:13:11,2020-11-29,0.85101683229521,1.8037355012931984,4.106805826731668,,,,,,,,,,,,
21181,0,USKentuckyNicholas,Kentucky,Nicholas,2022-04-28 09:13:11,2020-11-30,0.85101683229521,1.8037355012931984,4.106805826731668,,,,,,,,,,,,
21181,0,USKentuckyNicholas,Kentucky,Nicholas,2022-04-28 09:13:11,2020-12-01,0.85101683229521,1.8037355012931984,4.106805826731668,,,,,,,,,,,,
21181,0,USKentuckyNicholas,Kentucky,Nicholas,2022-04-28 09:13:11,2020-12-02,0.85101683229521,1.8037355012931984,4.106805826731668,,,,,,,,,,,,
21181,0,USKentuckyNicholas,Kentucky,Nicholas,2022-04-28 09:13:11,2020-12-03,0.9210025343582746,1.8421976988893518,3.9508333702943252,,,,,,,,,,,,
21181,0,USKentuckyNicholas,Kentucky,Nicholas,2022-04-28 09:13:11,2020-12-04,0.9210025343582746,1.8421976988893518,3.9508333702943252,,,,,,,,,,,,
21181,0,USKentuckyNicholas,Kentucky,Nicholas,2022-04-28 09:13:11,2020-12-05,0.9210025343582746,1.8421976988893518,3.9508333702943252,,,,,,,,,,,,
21181,0,USKentuckyNicholas,Kentucky,Nicholas,2022-04-28 09:13:11,2020-12-06,0.9210025343582746,1.8421976988893518,3.9508333702943252,,,,,,,,,,,,
21181,0,USKentuckyNicholas,Kentucky,Nicholas,2022-04-28 09:13:11,2020-12-07,0.9210025343582746,1.8421976988893518,3.9508333702943252,,,,,,,,,,,,
21181,0,USKentuckyNicholas,Kentucky,Nicholas,2022-04-28 09:13:11,2020-12-08,0.9210025343582746,1.8421976988893518,3.9508333702943252,,,,,,,,,,,,
21181,0,USKentuckyNicholas,Kentucky,Nicholas,2022-04-28 09:13:11,2020-12-09,0.9210025343582746,1.8421976988893518,3.9508333702943252,,,,,,,,,,,,
21181,0,USKentuckyNicholas,Kentucky,Nicholas,2022-04-28 09:13:11,2020-12-10,1.1349396091085322,2.2140666361620855,4.626268597531342,,,,,,,,,,,,
21181,0,USKentuckyNicholas,Kentucky,Nicholas,2022-04-28 09:13:11,2020-12-11,1.1349396091085322,2.2140666361620855,4.626268597531342,,,,,,,,,,,,
21181,0,USKentuckyNicholas,Kentucky,Nicholas,2022-04-28 09:13:11,2020-12-12,1.1349396091085322,2.2140666361620855,4.626268597531342,,,,,,,,,,,,
21181,0,USKentuckyNicholas,Kentucky,Nicholas,2022-04-28 09:13:11,2020-12-13,1.1349396091085322,2.2140666361620855,4.626268597531342,,,,,,,,,,,,
21181,0,USKentuckyNicholas,Kentucky,Nicholas,2022-04-28 09:13:11,2020-12-14,1.1349396091085322,2.2140666361620855,4.626268597531342,,,,,,,,,,,,
21181,0,USKentuckyNicholas,Kentucky,Nicholas,2022-04-28 09:13:11,2020-12-15,1.1349396091085322,2.2140666361620855,4.626268597531342,,,,,,,,,,,,
21181,0,USKentuckyNicholas,Kentucky,Nicholas,2022-04-28 09:13:11,2020-12-16,1.1349396091085322,2.2140666361620855,4.626268597531342,,,,,,,,,,,,
21181,0,USKentuckyNicholas,Kentucky,Nicholas,2022-04-28 09:13:11,2020-12-17,1.389987142308804,2.6363555207017497,5.348479563179655,,,,,,,,,,,,
21181,0,USKentuckyNicholas,Kentucky,Nicholas,2022-04-28 09:13:11,2020-12-18,1.389987142308804,2.6363555207017497,5.348479563179655,,,,,,,,,,,,
21181,0,USKentuckyNicholas,Kentucky,Nicholas,2022-04-28 09:13:11,2020-12-19,1.389987142308804,2.6363555207017497,5.348479563179655,,,,,,,,,,,,
21181,0,USKentuckyNicholas,Kentucky,Nicholas,2022-04-28 09:13:11,2020-12-20,1.389987142308804,2.6363555207017497,5.348479563179655,,,,,,,,,,,,
21181,0,USKentuckyNicholas,Kentucky,Nicholas,2022-04-28 09:13:11,2020-12-21,1.389987142308804,2.6363555207017497,5.348479563179655,,,,,,,,,,,,
21181,0,USKentuckyNicholas,Kentucky,Nicholas,2022-04-28 09:13:11,2020-12-22,1.389987142308804,2.6363555207017497,5.348479563179655,,,,,,,,,,,,
21181,0,USKentuckyNicholas,Kentucky,Nicholas,2022-04-28 09:13:11,2020-12-23,1.389987142308804,2.6363555207017497,5.348479563179655,,,,,,,,,,,,
21181,0,USKentuckyNicholas,Kentucky,Nicholas,2022-04-28 09:13:11,2020-12-24,1.2271317963380846,2.4529394926016397,5.257128544457826,,,,,,,,,,,,
21181,0,USKentuckyNicholas,Kentucky,Nicholas,2022-04-28 09:13:11,2020-12-25,1.2271317963380846,2.4529394926016397,5.257128544457826,,,,,,,,,,,,
21181,0,USKentuckyNicholas,Kentucky,Nicholas,2022-04-28 09:13:11,2020-12-26,1.2271317963380846,2.4529394926016397,5.257128544457826,,,,,,,,,,,,
21181,0,USKentuckyNicholas,Kentucky,Nicholas,2022-04-28 09:13:11,2020-12-27,1.2271317963380846,2.4529394926016397,5.257128544457826,,,,,,,,,,,,
21181,0,USKentuckyNicholas,Kentucky,Nicholas,2022-04-28 09:13:11,2020-12-28,1.2271317963380846,2.4529394926016397,5.257128544457826,,,,,,,,,,,,
21181,0,USKentuckyNicholas,Kentucky,Nicholas,2022-04-28 09:13:11,2020-12-29,1.2271317963380846,2.4529394926016397,5.257128544457826,,,,,,,,,,,,
21181,0,USKentuckyNicholas,Kentucky,Nicholas,2022-04-28 09:13:11,2020-12-30,1.2271317963380846,2.4529394926016397,5.257128544457826,,,,,,,,,,,,
21181,0,USKentuckyNicholas,Kentucky,Nicholas,2022-04-28 09:13:11,2020-12-31,3.100154273215544,5.139709126288778,9.030346333272549,,,,,,,,,,,,
21181,0,USKentuckyNicholas,Kentucky,Nicholas,2022-04-28 09:13:11,2021-01-01,3.100154273215544,5.139709126288778,9.030346333272549,,,,,,,,,,,,
21181,0,USKentuckyNicholas,Kentucky,Nicholas,2022-04-28 09:13:11,2021-01-02,3.100154273215544,5.139709126288778,9.030346333272549,,,,,,,,,,,,
21181,0,USKentuckyNicholas,Kentucky,Nicholas,2022-04-28 09:13:11,2021-01-03,3.100154273215544,5.139709126288778,9.030346333272549,,,,,,,,,,,,
21181,0,USKentuckyNicholas,Kentucky,Nicholas,2022-04-28 09:13:11,2021-01-04,3.100154273215544,5.139709126288778,9.030346333272549,,,,,,,,,,,,
21181,0,USKentuckyNicholas,Kentucky,Nicholas,2022-04-28 09:13:11,2021-01-05,3.100154273215544,5.139709126288778,9.030346333272549,,,,,,,,,,,,
21181,0,USKentuckyNicholas,Kentucky,Nicholas,2022-04-28 09:13:11,2021-01-06,3.100154273215544,5.139709126288778,9.030346333272549,,,,,,,,,,,,
21181,0,USKentuckyNicholas,Kentucky,Nicholas,2022-04-28 09:13:11,2021-01-07,2.6841785822097437,4.6642395135622206,8.621856473192722,,,,,,,,,,,,
21181,0,USKentuckyNicholas,Kentucky,Nicholas,2022-04-28 09:13:11,2021-01-08,2.6841785822097437,4.6642395135622206,8.621856473192722,,,,,,,,,,,,
21181,0,USKentuckyNicholas,Kentucky,Nicholas,2022-04-28 09:13:11,2021-01-09,2.6841785822097437,4.6642395135622206,8.621856473192722,,,,,,,,,,,,
21181,0,USKentuckyNicholas,Kentucky,Nicholas,2022-04-28 09:13:11,2021-01-10,2.6841785822097437,4.6642395135622206,8.621856473192722,,,,,,,,,,,,
21181,0,USKentuckyNicholas,Kentucky,Nicholas,2022-04-28 09:13:11,2021-01-11,2.6841785822097437,4.6642395135622206,8.621856473192722,,,,,,,,,,,,
21181,0,USKentuckyNicholas,Kentucky,Nicholas,2022-04-28 09:13:11,2021-01-12,2.6841785822097437,4.6642395135622206,8.621856473192722,,,,,,,,,,,,
21181,0,USKentuckyNicholas,Kentucky,Nicholas,2022-04-28 09:13:11,2021-01-13,2.6841785822097437,4.6642395135622206,8.621856473192722,,,,,,,,,,,,
21181,0,USKentuckyNicholas,Kentucky,Nicholas,2022-04-28 09:13:11,2021-01-14,1.7312687584002702,3.484932340125551,7.523271225221243,,,,,,,,,,,,
21181,0,USKentuckyNicholas,Kentucky,Nicholas,2022-04-28 09:13:11,2021-01-15,1.7312687584002702,3.484932340125551,7.523271225221243,,,,,,,,,,,,
21181,0,USKentuckyNicholas,Kentucky,Nicholas,2022-04-28 09:13:11,2021-01-16,1.7312687584002702,3.484932340125551,7.523271225221243,,,,,,,,,,,,
21181,0,USKentuckyNicholas,Kentucky,Nicholas,2022-04-28 09:13:11,2021-01-17,1.7312687584002702,3.484932340125551,7.523271225221243,,,,,,,,,,,,
21181,0,USKentuckyNicholas,Kentucky,Nicholas,2022-04-28 09:13:11,2021-01-18,1.7312687584002702,3.484932340125551,7.523271225221243,,,,,,,,,,,,
21181,0,USKentuckyNicholas,Kentucky,Nicholas,2022-04-28 09:13:11,2021-01-19,1.7312687584002702,3.484932340125551,7.523271225221243,,,,,,,,,,,,
21181,0,USKentuckyNicholas,Kentucky,Nicholas,2022-04-28 09:13:11,2021-01-20,1.7312687584002702,3.484932340125551,7.523271225221243,,,,,,,,,,,,
21181,0,USKentuckyNicholas,Kentucky,Nicholas,2022-04-28 09:13:11,2021-01-21,1.1700655497117736,2.464277569164719,5.574311993481436,,,,,,,,,,,,
21181,0,USKentuckyNicholas,Kentucky,Nicholas,2022-04-28 09:13:11,2021-01-22,1.1700655497117736,2.464277569164719,5.574311993481436,,,,,,,,,,,,
21181,0,USKentuckyNicholas,Kentucky,Nicholas,2022-04-28 09:13:11,2021-01-23,1.1700655497117736,2.464277569164719,5.574311993481436,,,,,,,,,,,,
21181,0,USKentuckyNicholas,Kentucky,Nicholas,2022-04-28 09:13:11,2021-01-24,1.1700655497117736,2.464277569164719,5.574311993481436,,,,,,,,,,,,
21181,0,USKentuckyNicholas,Kentucky,Nicholas,2022-04-28 09:13:11,2021-01-25,1.1700655497117736,2.464277569164719,5.574311993481436,,,,,,,,,,,,
21181,0,USKentuckyNicholas,Kentucky,Nicholas,2022-04-28 09:13:11,2021-01-26,1.1700655497117736,2.464277569164719,5.574311993481436,,,,,,,,,,,,
21181,0,USKentuckyNicholas,Kentucky,Nicholas,2022-04-28 09:13:11,2021-01-27,1.1700655497117736,2.464277569164719,5.574311993481436,,,,,,,,,,,,
21181,0,USKentuckyNicholas,Kentucky,Nicholas,2022-04-28 09:13:11,2021-01-28,0.78898959471576,1.8148893153654266,4.49130321420329,,,,,,,,,,,,
21181,0,USKentuckyNicholas,Kentucky,Nicholas,2022-04-28 09:13:11,2021-01-29,0.78898959471576,1.8148893153654266,4.49130321420329,,,,,,,,,,,,
21181,0,USKentuckyNicholas,Kentucky,Nicholas,2022-04-28 09:13:11,2021-01-30,0.78898959471576,1.8148893153654266,4.49130321420329,,,,,,,,,,,,
21181,0,USKentuckyNicholas,Kentucky,Nicholas,2022-04-28 09:13:11,2021-01-31,0.78898959471576,1.8148893153654266,4.49130321420329,,,,,,,,,,,,
21181,0,USKentuckyNicholas,Kentucky,Nicholas,2022-04-28 09:13:11,2021-02-01,0.78898959471576,1.8148893153654266,4.49130321420329,,,,,,,,,,,,
21181,0,USKentuckyNicholas,Kentucky,Nicholas,2022-04-28 09:13:11,2021-02-02,0.78898959471576,1.8148893153654266,4.49130321420329,,,,,,,,,,,,
21181,0,USKentuckyNicholas,Kentucky,Nicholas,2022-04-28 09:13:11,2021-02-03,0.78898959471576,1.8148893153654266,4.49130321420329,,,,,,,,,,,,
21181,0,USKentuckyNicholas,Kentucky,Nicholas,2022-04-28 09:13:11,2021-02-04,0.9355090118033909,2.0198224350523457,4.686743599745215,,,,,,,,,,,,
21181,0,USKentuckyNicholas,Kentucky,Nicholas,2022-04-28 09:13:11,2021-02-05,0.9355090118033909,2.0198224350523457,4.686743599745215,,,,,,,,,,,,
21181,0,USKentuckyNicholas,Kentucky,Nicholas,2022-04-28 09:13:11,2021-02-06,0.9355090118033909,2.0198224350523457,4.686743599745215,,,,,,,,,,,,
21181,0,USKentuckyNicholas,Kentucky,Nicholas,2022-04-28 09:13:11,2021-02-07,0.9355090118033909,2.0198224350523457,4.686743599745215,,,,,,,,,,,,
21181,0,USKentuckyNicholas,Kentucky,Nicholas,2022-04-28 09:13:11,2021-02-08,0.9355090118033909,2.0198224350523457,4.686743599745215,,,,,,,,,,,,
21181,0,USKentuckyNicholas,Kentucky,Nicholas,2022-04-28 09:13:11,2021-02-09,0.9355090118033909,2.0198224350523457,4.686743599745215,,,,,,,,,,,,
21181,0,USKentuckyNicholas,Kentucky,Nicholas,2022-04-28 09:13:11,2021-02-10,0.9355090118033909,2.0198224350523457,4.686743599745215,,,,,,,,,,,,
21181,0,USKentuckyNicholas,Kentucky,Nicholas,2022-04-28 09:13:11,2021-02-11,0.401314739545428,1.0195068950491093,2.7869551494781786,,,,,,,,,,,,
21181,0,USKentuckyNicholas,Kentucky,Nicholas,2022-04-28 09:13:11,2021-02-12,0.401314739545428,1.0195068950491093,2.7869551494781786,,,,,,,,,,,,
21181,0,USKentuckyNicholas,Kentucky,Nicholas,2022-04-28 09:13:11,2021-02-13,0.401314739545428,1.0195068950491093,2.7869551494781786,,,,,,,,,,,,
21181,0,USKentuckyNicholas,Kentucky,Nicholas,2022-04-28 09:13:11,2021-02-14,0.401314739545428,1.0195068950491093,2.7869551494781786,,,,,,,,,,,,
21181,0,USKentuckyNicholas,Kentucky,Nicholas,2022-04-28 09:13:11,2021-02-15,0.401314739545428,1.0195068950491093,2.7869551494781786,,,,,,,,,,,,
21181,0,USKentuckyNicholas,Kentucky,Nicholas,2022-04-28 09:13:11,2021-02-16,0.401314739545428,1.0195068950491093,2.7869551494781786,,,,,,,,,,,,
21181,0,USKentuckyNicholas,Kentucky,Nicholas,2022-04-28 09:13:11,2021-02-17,0.401314739545428,1.0195068950491093,2.7869551494781786,,,,,,,,,,,,
21181,0,USKentuckyNicholas,Kentucky,Nicholas,2022-04-28 09:13:11,2021-02-18,0.8736258161960426,1.6654779733550693,3.3970243824319346,,,,,,,,,,,,
21181,0,USKentuckyNicholas,Kentucky,Nicholas,2022-04-28 09:13:11,2021-02-19,0.8736258161960426,1.6654779733550693,3.3970243824319346,,,,,,,,,,,,
21181,0,USKentuckyNicholas,Kentucky,Nicholas,2022-04-28 09:13:11,2021-02-20,0.8736258161960426,1.6654779733550693,3.3970243824319346,,,,,,,,,,,,
21181,0,USKentuckyNicholas,Kentucky,Nicholas,2022-04-28 09:13:11,2021-02-21,0.8736258161960426,1.6654779733550693,3.3970243824319346,,,,,,,,,,,,
21181,0,USKentuckyNicholas,Kentucky,Nicholas,2022-04-28 09:13:11,2021-02-22,0.8736258161960426,1.6654779733550693,3.3970243824319346,,,,,,,,,,,,
21181,0,USKentuckyNicholas,Kentucky,Nicholas,2022-04-28 09:13:11,2021-02-23,0.8736258161960426,1.6654779733550693,3.3970243824319346,,,,,,,,,,,,
21181,0,USKentuckyNicholas,Kentucky,Nicholas,2022-04-28 09:13:11,2021-02-24,0.8736258161960426,1.6654779733550693,3.3970243824319346,,,,,,,,,,,,
21181,0,USKentuckyNicholas,Kentucky,Nicholas,2022-04-28 09:13:11,2021-02-25,0.6688422482290021,1.326024384702422,2.8177497070235415,,,,,,,,,,,,
21181,0,USKentuckyNicholas,Kentucky,Nicholas,2022-04-28 09:13:11,2021-02-26,0.6688422482290021,1.326024384702422,2.8177497070235415,,,,,,,,,,,,
21181,0,USKentuckyNicholas,Kentucky,Nicholas,2022-04-28 09:13:11,2021-02-27,0.6688422482290021,1.326024384702422,2.8177497070235415,,,,,,,,,,,,
21181,0,USKentuckyNicholas,Kentucky,Nicholas,2022-04-28 09:13:11,2021-02-28,0.6688422482290021,1.326024384702422,2.8177497070235415,,,,,,,,,,,,
21181,0,USKentuckyNicholas,Kentucky,Nicholas,2022-04-28 09:13:11,2021-03-01,0.6688422482290021,1.326024384702422,2.8177497070235415,,,,,,,,,,,,
21181,0,USKentuckyNicholas,Kentucky,Nicholas,2022-04-28 09:13:11,2021-03-02,0.6688422482290021,1.326024384702422,2.8177497070235415,,,,,,,,,,,,
21181,0,USKentuckyNicholas,Kentucky,Nicholas,2022-04-28 09:13:11,2021-03-03,0.6688422482290021,1.326024384702422,2.8177497070235415,,,,,,,,,,,,
21181,0,USKentuckyNicholas,Kentucky,Nicholas,2022-04-28 09:13:11,2021-03-04,0.7410214647116193,1.4898950328481146,3.2125066287472346,,,,,,,,,,,,
21181,0,USKentuckyNicholas,Kentucky,Nicholas,2022-04-28 09:13:11,2021-03-05,0.7410214647116193,1.4898950328481146,3.2125066287472346,,,,,,,,,,,,
21181,0,USKentuckyNicholas,Kentucky,Nicholas,2022-04-28 09:13:11,2021-03-06,0.7410214647116193,1.4898950328481146,3.2125066287472346,,,,,,,,,,,,
21181,0,USKentuckyNicholas,Kentucky,Nicholas,2022-04-28 09:13:11,2021-03-07,0.7410214647116193,1.4898950328481146,3.2125066287472346,,,,,,,,,,,,
21181,0,USKentuckyNicholas,Kentucky,Nicholas,2022-04-28 09:13:11,2021-03-08,0.7410214647116193,1.4898950328481146,3.2125066287472346,,,,,,,,,,,,
21181,0,USKentuckyNicholas,Kentucky,Nicholas,2022-04-28 09:13:11,2021-03-09,0.7410214647116193,1.4898950328481146,3.2125066287472346,,,,,,,,,,,,
21181,0,USKentuckyNicholas,Kentucky,Nicholas,2022-04-28 09:13:11,2021-03-10,0.7410214647116193,1.4898950328481146,3.2125066287472346,,,,,,,,,,,,
21181,0,USKentuckyNicholas,Kentucky,Nicholas,2022-04-28 09:13:11,2021-03-11,0.363166098981675,0.8447685248463479,2.1142649299729523,,,,,,,,,,,,
21181,0,USKentuckyNicholas,Kentucky,Nicholas,2022-04-28 09:13:11,2021-03-12,0.363166098981675,0.8447685248463479,2.1142649299729523,,,,,,,,,,,,
21181,0,USKentuckyNicholas,Kentucky,Nicholas,2022-04-28 09:13:11,2021-03-13,0.363166098981675,0.8447685248463479,2.1142649299729523,,,,,,,,,,,,
21181,0,USKentuckyNicholas,Kentucky,Nicholas,2022-04-28 09:13:11,2021-03-14,0.363166098981675,0.8447685248463479,2.1142649299729523,,,,,,,,,,,,
21181,0,USKentuckyNicholas,Kentucky,Nicholas,2022-04-28 09:13:11,2021-03-15,0.363166098981675,0.8447685248463479,2.1142649299729523,,,,,,,,,,,,
21181,0,USKentuckyNicholas,Kentucky,Nicholas,2022-04-28 09:13:11,2021-03-16,0.363166098981675,0.8447685248463479,2.1142649299729523,,,,,,,,,,,,
21181,0,USKentuckyNicholas,Kentucky,Nicholas,2022-04-28 09:13:11,2021-03-17,0.363166098981675,0.8447685248463479,2.1142649299729523,,,,,,,,,,,,
21181,0,USKentuckyNicholas,Kentucky,Nicholas,2022-04-28 09:13:11,2021-03-18,0.45230141326478845,0.9474477211234549,2.131269443646897,,,,,,,,,,,,
21181,0,USKentuckyNicholas,Kentucky,Nicholas,2022-04-28 09:13:11,2021-03-19,0.45230141326478845,0.9474477211234549,2.131269443646897,,,,,,,,,,,,
21181,0,USKentuckyNicholas,Kentucky,Nicholas,2022-04-28 09:13:11,2021-03-20,0.45230141326478845,0.9474477211234549,2.131269443646897,,,,,,,,,,,,
21181,0,USKentuckyNicholas,Kentucky,Nicholas,2022-04-28 09:13:11,2021-03-21,0.45230141326478845,0.9474477211234549,2.131269443646897,,,,,,,,,,,,
21181,0,USKentuckyNicholas,Kentucky,Nicholas,2022-04-28 09:13:11,2021-03-22,0.45230141326478845,0.9474477211234549,2.131269443646897,,,,,,,,,,,,
21181,0,USKentuckyNicholas,Kentucky,Nicholas,2022-04-28 09:13:11,2021-03-23,0.45230141326478845,0.9474477211234549,2.131269443646897,,,,,,,,,,,,
21181,0,USKentuckyNicholas,Kentucky,Nicholas,2022-04-28 09:13:11,2021-03-24,0.45230141326478845,0.9474477211234549,2.131269443646897,,,,,,,,,,,,
21181,0,USKentuckyNicholas,Kentucky,Nicholas,2022-04-28 09:13:11,2021-03-25,0.6041196731004627,1.0078259468238675,1.7827525799327306,,,,,,,,,,,,
21181,0,USKentuckyNicholas,Kentucky,Nicholas,2022-04-28 09:13:11,2021-03-26,0.6041196731004627,1.0078259468238675,1.7827525799327306,,,,,,,,,,,,
21181,0,USKentuckyNicholas,Kentucky,Nicholas,2022-04-28 09:13:11,2021-03-27,0.6041196731004627,1.0078259468238675,1.7827525799327306,,,,,,,,,,,,
21181,0,USKentuckyNicholas,Kentucky,Nicholas,2022-04-28 09:13:11,2021-03-28,0.6041196731004627,1.0078259468238675,1.7827525799327306,,,,,,,,,,,,
21181,0,USKentuckyNicholas,Kentucky,Nicholas,2022-04-28 09:13:11,2021-03-29,0.6041196731004627,1.0078259468238675,1.7827525799327306,,,,,,,,,,,,
21181,0,USKentuckyNicholas,Kentucky,Nicholas,2022-04-28 09:13:11,2021-03-30,0.6041196731004627,1.0078259468238675,1.7827525799327306,,,,,,,,,,,,
21181,0,USKentuckyNicholas,Kentucky,Nicholas,2022-04-28 09:13:11,2021-03-31,0.6041196731004627,1.0078259468238675,1.7827525799327306,,,,,,,,,,,,
21181,0,USKentuckyNicholas,Kentucky,Nicholas,2022-04-28 09:13:11,2021-04-01,0.5066547331189911,0.7790515067539608,1.2602699155851036,,,,,,,,,,,,
21181,0,USKentuckyNicholas,Kentucky,Nicholas,2022-04-28 09:13:11,2021-04-02,0.5066547331189911,0.7790515067539608,1.2602699155851036,,,,,,,,,,,,
21181,0,USKentuckyNicholas,Kentucky,Nicholas,2022-04-28 09:13:11,2021-04-03,0.5066547331189911,0.7790515067539608,1.2602699155851036,,,,,,,,,,,,
21181,0,USKentuckyNicholas,Kentucky,Nicholas,2022-04-28 09:13:11,2021-04-04,0.5066547331189911,0.7790515067539608,1.2602699155851036,,,,,,,,,,,,
21181,0,USKentuckyNicholas,Kentucky,Nicholas,2022-04-28 09:13:11,2021-04-05,0.5066547331189911,0.7790515067539608,1.2602699155851036,,,,,,,,,,,,
21181,0,USKentuckyNicholas,Kentucky,Nicholas,2022-04-28 09:13:11,2021-04-06,0.5066547331189911,0.7790515067539608,1.2602699155851036,,,,,,,,,,,,
21181,0,USKentuckyNicholas,Kentucky,Nicholas,2022-04-28 09:13:11,2021-04-07,0.5066547331189911,0.7790515067539608,1.2602699155851036,,,,,,,,,,,,
21181,0,USKentuckyNicholas,Kentucky,Nicholas,2022-04-28 09:13:11,2021-04-08,0.6401197036282987,1.2193860146586648,2.485139333084394,,,,,,,,,,,,
21181,0,USKentuckyNicholas,Kentucky,Nicholas,2022-04-28 09:13:11,2021-04-09,0.6401197036282987,1.2193860146586648,2.485139333084394,,,,,,,,,,,,
21181,0,USKentuckyNicholas,Kentucky,Nicholas,2022-04-28 09:13:11,2021-04-10,0.6401197036282987,1.2193860146586648,2.485139333084394,,,,,,,,,,,,
21181,0,USKentuckyNicholas,Kentucky,Nicholas,2022-04-28 09:13:11,2021-04-11,0.6401197036282987,1.2193860146586648,2.485139333084394,,,,,,,,,,,,
21181,0,USKentuckyNicholas,Kentucky,Nicholas,2022-04-28 09:13:11,2021-04-12,0.6401197036282987,1.2193860146586648,2.485139333084394,,,,,,,,,,,,
21181,0,USKentuckyNicholas,Kentucky,Nicholas,2022-04-28 09:13:11,2021-04-13,0.6401197036282987,1.2193860146586648,2.485139333084394,,,,,,,,,,,,
21181,0,USKentuckyNicholas,Kentucky,Nicholas,2022-04-28 09:13:11,2021-04-14,0.6401197036282987,1.2193860146586648,2.485139333084394,,,,,,,,,,,,
21181,0,USKentuckyNicholas,Kentucky,Nicholas,2022-04-28 09:13:11,2021-04-15,0.4114600064890523,0.700036263560306,1.264907347341816,,,,,,,,,,,,
21181,0,USKentuckyNicholas,Kentucky,Nicholas,2022-04-28 09:13:11,2021-04-16,0.4114600064890523,0.700036263560306,1.264907347341816,,,,,,,,,,,,
21181,0,USKentuckyNicholas,Kentucky,Nicholas,2022-04-28 09:13:11,2021-04-17,0.4114600064890523,0.700036263560306,1.264907347341816,,,,,,,,,,,,
21181,0,USKentuckyNicholas,Kentucky,Nicholas,2022-04-28 09:13:11,2021-04-18,0.4114600064890523,0.700036263560306,1.264907347341816,,,,,,,,,,,,
21181,0,USKentuckyNicholas,Kentucky,Nicholas,2022-04-28 09:13:11,2021-04-19,0.4114600064890523,0.700036263560306,1.264907347341816,,,,,,,,,,,,
21181,0,USKentuckyNicholas,Kentucky,Nicholas,2022-04-28 09:13:11,2021-04-20,0.4114600064890523,0.700036263560306,1.264907347341816,,,,,,,,,,,,
21181,0,USKentuckyNicholas,Kentucky,Nicholas,2022-04-28 09:13:11,2021-04-21,0.4114600064890523,0.700036263560306,1.264907347341816,,,,,,,,,,,,
21181,0,USKentuckyNicholas,Kentucky,Nicholas,2022-04-28 09:13:11,2021-04-22,0.5367831999317287,0.9497593461593231,1.789949605235959,,,,,,,,,,,,
21181,0,USKentuckyNicholas,Kentucky,Nicholas,2022-04-28 09:13:11,2021-04-23,0.5367831999317287,0.9497593461593231,1.789949605235959,,,,,,,,,,,,
21181,0,USKentuckyNicholas,Kentucky,Nicholas,2022-04-28 09:13:11,2021-04-24,0.5367831999317287,0.9497593461593231,1.789949605235959,,,,,,,,,,,,
21181,0,USKentuckyNicholas,Kentucky,Nicholas,2022-04-28 09:13:11,2021-04-25,0.5367831999317287,0.9497593461593231,1.789949605235959,,,,,,,,,,,,
21181,0,USKentuckyNicholas,Kentucky,Nicholas,2022-04-28 09:13:11,2021-04-26,0.5367831999317287,0.9497593461593231,1.789949605235959,,,,,,,,,,,,
21181,0,USKentuckyNicholas,Kentucky,Nicholas,2022-04-28 09:13:11,2021-04-27,0.5367831999317287,0.9497593461593231,1.789949605235959,,,,,,,,,,,,
21181,0,USKentuckyNicholas,Kentucky,Nicholas,2022-04-28 09:13:11,2021-04-28,0.5367831999317287,0.9497593461593231,1.789949605235959,,,,,,,,,,,,
21181,0,USKentuckyNicholas,Kentucky,Nicholas,2022-04-28 09:13:11,2021-04-29,0.4305866857512807,0.5295381360062085,0.6653683538835273,,,,,,,,,,,,
21181,0,USKentuckyNicholas,Kentucky,Nicholas,2022-04-28 09:13:11,2021-04-30,0.4305866857512807,0.5295381360062085,0.6653683538835273,,,,,,,,,,,,
21181,0,USKentuckyNicholas,Kentucky,Nicholas,2022-04-28 09:13:11,2021-05-01,0.4305866857512807,0.5295381360062085,0.6653683538835273,,,,,,,,,,,,
21181,0,USKentuckyNicholas,Kentucky,Nicholas,2022-04-28 09:13:11,2021-05-02,0.4305866857512807,0.5295381360062085,0.6653683538835273,,,,,,,,,,,,
21181,0,USKentuckyNicholas,Kentucky,Nicholas,2022-04-28 09:13:11,2021-05-03,0.4305866857512807,0.5295381360062085,0.6653683538835273,,,,,,,,,,,,
21181,0,USKentuckyNicholas,Kentucky,Nicholas,2022-04-28 09:13:11,2021-05-04,0.4305866857512807,0.5295381360062085,0.6653683538835273,,,,,,,,,,,,
21181,0,USKentuckyNicholas,Kentucky,Nicholas,2022-04-28 09:13:11,2021-05-05,0.4305866857512807,0.5295381360062085,0.6653683538835273,,,,,,,,,,,,
21181,0,USKentuckyNicholas,Kentucky,Nicholas,2022-04-28 09:13:11,2021-05-06,0.3891022245862929,0.8177463792748576,1.8457376709150857,,,,,,,,,,,,
21181,0,USKentuckyNicholas,Kentucky,Nicholas,2022-04-28 09:13:11,2021-05-07,0.3891022245862929,0.8177463792748576,1.8457376709150857,,,,,,,,,,,,
21181,0,USKentuckyNicholas,Kentucky,Nicholas,2022-04-28 09:13:11,2021-05-08,0.3891022245862929,0.8177463792748576,1.8457376709150857,,,,,,,,,,,,
21181,0,USKentuckyNicholas,Kentucky,Nicholas,2022-04-28 09:13:11,2021-05-09,0.3891022245862929,0.8177463792748576,1.8457376709150857,,,,,,,,,,,,
21181,0,USKentuckyNicholas,Kentucky,Nicholas,2022-04-28 09:13:11,2021-05-10,0.3891022245862929,0.8177463792748576,1.8457376709150857,,,,,,,,,,,,
21181,0,USKentuckyNicholas,Kentucky,Nicholas,2022-04-28 09:13:11,2021-05-11,0.3891022245862929,0.8177463792748576,1.8457376709150857,,,,,,,,,,,,
21181,0,USKentuckyNicholas,Kentucky,Nicholas,2022-04-28 09:13:11,2021-05-12,0.3891022245862929,0.8177463792748576,1.8457376709150857,,,,,,,,,,,,
21181,0,USKentuckyNicholas,Kentucky,Nicholas,2022-04-28 09:13:11,2021-05-13,0.28574663788989296,0.6549301652102671,1.6148617889779064,,,,,,,,,,,,
21181,0,USKentuckyNicholas,Kentucky,Nicholas,2022-04-28 09:13:11,2021-05-14,0.28574663788989296,0.6549301652102671,1.6148617889779064,,,,,,,,,,,,
21181,0,USKentuckyNicholas,Kentucky,Nicholas,2022-04-28 09:13:11,2021-05-15,0.28574663788989296,0.6549301652102671,1.6148617889779064,,,,,,,,,,,,
21181,0,USKentuckyNicholas,Kentucky,Nicholas,2022-04-28 09:13:11,2021-05-16,0.28574663788989296,0.6549301652102671,1.6148617889779064,,,,,,,,,,,,
21181,0,USKentuckyNicholas,Kentucky,Nicholas,2022-04-28 09:13:11,2021-05-17,0.28574663788989296,0.6549301652102671,1.6148617889779064,,,,,,,,,,,,
21181,0,USKentuckyNicholas,Kentucky,Nicholas,2022-04-28 09:13:11,2021-05-18,0.28574663788989296,0.6549301652102671,1.6148617889779064,,,,,,,,,,,,
21181,0,USKentuckyNicholas,Kentucky,Nicholas,2022-04-28 09:13:11,2021-05-19,0.28574663788989296,0.6549301652102671,1.6148617889779064,,,,,,,,,,,,
21181,0,USKentuckyNicholas,Kentucky,Nicholas,2022-04-28 09:13:11,2021-05-20,0.2265419177658005,0.5454451439611624,1.413270737718621,,,,,,,,,,,,
21181,0,USKentuckyNicholas,Kentucky,Nicholas,2022-04-28 09:13:11,2021-05-21,0.2265419177658005,0.5454451439611624,1.413270737718621,,,,,,,,,,,,
21181,0,USKentuckyNicholas,Kentucky,Nicholas,2022-04-28 09:13:11,2021-05-22,0.2265419177658005,0.5454451439611624,1.413270737718621,,,,,,,,,,,,
21181,0,USKentuckyNicholas,Kentucky,Nicholas,2022-04-28 09:13:11,2021-05-23,0.2265419177658005,0.5454451439611624,1.413270737718621,,,,,,,,,,,,
21181,0,USKentuckyNicholas,Kentucky,Nicholas,2022-04-28 09:13:11,2021-05-24,0.2265419177658005,0.5454451439611624,1.413270737718621,,,,,,,,,,,,
21181,0,USKentuckyNicholas,Kentucky,Nicholas,2022-04-28 09:13:11,2021-05-25,0.2265419177658005,0.5454451439611624,1.413270737718621,,,,,,,,,,,,
21181,0,USKentuckyNicholas,Kentucky,Nicholas,2022-04-28 09:13:11,2021-05-26,0.2265419177658005,0.5454451439611624,1.413270737718621,,,,,,,,,,,,
21181,0,USKentuckyNicholas,Kentucky,Nicholas,2022-04-28 09:13:11,2021-05-27,0,0,0,,,,,,,,,,,,
21181,0,USKentuckyNicholas,Kentucky,Nicholas,2022-04-28 09:13:11,2021-05-28,0,0,0,,,,,,,,,,,,
21181,0,USKentuckyNicholas,Kentucky,Nicholas,2022-04-28 09:13:11,2021-05-29,0,0,0,,,,,,,,,,,,
21181,0,USKentuckyNicholas,Kentucky,Nicholas,2022-04-28 09:13:11,2021-05-30,0,0,0,,,,,,,,,,,,
21181,0,USKentuckyNicholas,Kentucky,Nicholas,2022-04-28 09:13:11,2021-05-31,0,0,0,,,,,,,,,,,,
21181,0,USKentuckyNicholas,Kentucky,Nicholas,2022-04-28 09:13:11,2021-06-01,0,0,0,,,,,,,,,,,,
21181,0,USKentuckyNicholas,Kentucky,Nicholas,2022-04-28 09:13:11,2021-06-02,0,0,0,,,,,,,,,,,,
21181,0,USKentuckyNicholas,Kentucky,Nicholas,2022-04-28 09:13:11,2021-06-03,1.7367019867010336,2.42095958981333,3.5092262510181134,,,,,,,,,,,,
21181,0,USKentuckyNicholas,Kentucky,Nicholas,2022-04-28 09:13:11,2021-06-04,1.7367019867010336,2.42095958981333,3.5092262510181134,,,,,,,,,,,,
21181,0,USKentuckyNicholas,Kentucky,Nicholas,2022-04-28 09:13:11,2021-06-05,1.7367019867010336,2.42095958981333,3.5092262510181134,,,,,,,,,,,,
21181,0,USKentuckyNicholas,Kentucky,Nicholas,2022-04-28 09:13:11,2021-06-06,1.7367019867010336,2.42095958981333,3.5092262510181134,,,,,,,,,,,,
21181,0,USKentuckyNicholas,Kentucky,Nicholas,2022-04-28 09:13:11,2021-06-07,1.7367019867010336,2.42095958981333,3.5092262510181134,,,,,,,,,,,,
21181,0,USKentuckyNicholas,Kentucky,Nicholas,2022-04-28 09:13:11,2021-06-08,1.7367019867010336,2.42095958981333,3.5092262510181134,,,,,,,,,,,,
21181,0,USKentuckyNicholas,Kentucky,Nicholas,2022-04-28 09:13:11,2021-06-09,1.7367019867010336,2.42095958981333,3.5092262510181134,,,,,,,,,,,,
21181,0,USKentuckyNicholas,Kentucky,Nicholas,2022-04-28 09:13:11,2021-06-10,0,0,0,,,,,,,,,,,,
21181,0,USKentuckyNicholas,Kentucky,Nicholas,2022-04-28 09:13:11,2021-06-11,0,0,0,,,,,,,,,,,,
21181,0,USKentuckyNicholas,Kentucky,Nicholas,2022-04-28 09:13:11,2021-06-12,0,0,0,,,,,,,,,,,,
21181,0,USKentuckyNicholas,Kentucky,Nicholas,2022-04-28 09:13:11,2021-06-13,0,0,0,,,,,,,,,,,,
21181,0,USKentuckyNicholas,Kentucky,Nicholas,2022-04-28 09:13:11,2021-06-14,0,0,0,,,,,,,,,,,,
21181,0,USKentuckyNicholas,Kentucky,Nicholas,2022-04-28 09:13:11,2021-06-15,0,0,0,,,,,,,,,,,,
21181,0,USKentuckyNicholas,Kentucky,Nicholas,2022-04-28 09:13:11,2021-06-16,0,0,0,,,,,,,,,,,,
21181,0,USKentuckyNicholas,Kentucky,Nicholas,2022-04-28 09:13:11,2021-06-17,0.37585203577632065,0.6651835361573649,1.2539674202777795,,,,,,,,,,,,
21181,0,USKentuckyNicholas,Kentucky,Nicholas,2022-04-28 09:13:11,2021-06-18,0.37585203577632065,0.6651835361573649,1.2539674202777795,,,,,,,,,,,,
21181,0,USKentuckyNicholas,Kentucky,Nicholas,2022-04-28 09:13:11,2021-06-19,0.37585203577632065,0.6651835361573649,1.2539674202777795,,,,,,,,,,,,
21181,0,USKentuckyNicholas,Kentucky,Nicholas,2022-04-28 09:13:11,2021-06-20,0.37585203577632065,0.6651835361573649,1.2539674202777795,,,,,,,,,,,,
21181,0,USKentuckyNicholas,Kentucky,Nicholas,2022-04-28 09:13:11,2021-06-21,0.37585203577632065,0.6651835361573649,1.2539674202777795,,,,,,,,,,,,
21181,0,USKentuckyNicholas,Kentucky,Nicholas,2022-04-28 09:13:11,2021-06-22,0.37585203577632065,0.6651835361573649,1.2539674202777795,,,,,,,,,,,,
21181,0,USKentuckyNicholas,Kentucky,Nicholas,2022-04-28 09:13:11,2021-06-23,0.37585203577632065,0.6651835361573649,1.2539674202777795,,,,,,,,,,,,
21181,0,USKentuckyNicholas,Kentucky,Nicholas,2022-04-28 09:13:11,2021-06-24,0.14204036251182908,0.32386409491250223,0.7943541054312788,,,,,,,,,,,,
21181,0,USKentuckyNicholas,Kentucky,Nicholas,2022-04-28 09:13:11,2021-06-25,0.14204036251182908,0.32386409491250223,0.7943541054312788,,,,,,,,,,,,
21181,0,USKentuckyNicholas,Kentucky,Nicholas,2022-04-28 09:13:11,2021-06-26,0.14204036251182908,0.32386409491250223,0.7943541054312788,,,,,,,,,,,,
21181,0,USKentuckyNicholas,Kentucky,Nicholas,2022-04-28 09:13:11,2021-06-27,0.14204036251182908,0.32386409491250223,0.7943541054312788,,,,,,,,,,,,
21181,0,USKentuckyNicholas,Kentucky,Nicholas,2022-04-28 09:13:11,2021-06-28,0.14204036251182908,0.32386409491250223,0.7943541054312788,,,,,,,,,,,,
21181,0,USKentuckyNicholas,Kentucky,Nicholas,2022-04-28 09:13:11,2021-06-29,0.14204036251182908,0.32386409491250223,0.7943541054312788,,,,,,,,,,,,
21181,0,USKentuckyNicholas,Kentucky,Nicholas,2022-04-28 09:13:11,2021-06-30,0.14204036251182908,0.32386409491250223,0.7943541054312788,,,,,,,,,,,,
21181,0,USKentuckyNicholas,Kentucky,Nicholas,2022-04-28 09:13:11,2021-07-01,0,0,0,,,,,,,,,,,,
21181,0,USKentuckyNicholas,Kentucky,Nicholas,2022-04-28 09:13:11,2021-07-02,0,0,0,,,,,,,,,,,,
21181,0,USKentuckyNicholas,Kentucky,Nicholas,2022-04-28 09:13:11,2021-07-03,0,0,0,,,,,,,,,,,,
21181,0,USKentuckyNicholas,Kentucky,Nicholas,2022-04-28 09:13:11,2021-07-04,0,0,0,,,,,,,,,,,,
21181,0,USKentuckyNicholas,Kentucky,Nicholas,2022-04-28 09:13:11,2021-07-05,0,0,0,,,,,,,,,,,,
21181,0,USKentuckyNicholas,Kentucky,Nicholas,2022-04-28 09:13:11,2021-07-06,0,0,0,,,,,,,,,,,,
21181,0,USKentuckyNicholas,Kentucky,Nicholas,2022-04-28 09:13:11,2021-07-07,0,0,0,,,,,,,,,,,,
21181,0,USKentuckyNicholas,Kentucky,Nicholas,2022-04-28 09:13:11,2021-07-08,0.23394850499970035,0.5794831767826638,1.544676605622076,,,,,,,,,,,,
21181,0,USKentuckyNicholas,Kentucky,Nicholas,2022-04-28 09:13:11,2021-07-09,0.23394850499970035,0.5794831767826638,1.544676605622076,,,,,,,,,,,,
21181,0,USKentuckyNicholas,Kentucky,Nicholas,2022-04-28 09:13:11,2021-07-10,0.23394850499970035,0.5794831767826638,1.544676605622076,,,,,,,,,,,,
21181,0,USKentuckyNicholas,Kentucky,Nicholas,2022-04-28 09:13:11,2021-07-11,0.23394850499970035,0.5794831767826638,1.544676605622076,,,,,,,,,,,,
21181,0,USKentuckyNicholas,Kentucky,Nicholas,2022-04-28 09:13:11,2021-07-12,0.23394850499970035,0.5794831767826638,1.544676605622076,,,,,,,,,,,,
21181,0,USKentuckyNicholas,Kentucky,Nicholas,2022-04-28 09:13:11,2021-07-13,0.23394850499970035,0.5794831767826638,1.544676605622076,,,,,,,,,,,,
21181,0,USKentuckyNicholas,Kentucky,Nicholas,2022-04-28 09:13:11,2021-07-14,0.23394850499970035,0.5794831767826638,1.544676605622076,,,,,,,,,,,,
21181,0,USKentuckyNicholas,Kentucky,Nicholas,2022-04-28 09:13:11,2021-07-15,0.318861819873028,0.8051987447791474,2.1880234121960944,,,,,,,,,,,,
21181,0,USKentuckyNicholas,Kentucky,Nicholas,2022-04-28 09:13:11,2021-07-16,0.318861819873028,0.8051987447791474,2.1880234121960944,,,,,,,,,,,,
21181,0,USKentuckyNicholas,Kentucky,Nicholas,2022-04-28 09:13:11,2021-07-17,0.318861819873028,0.8051987447791474,2.1880234121960944,,,,,,,,,,,,
21181,0,USKentuckyNicholas,Kentucky,Nicholas,2022-04-28 09:13:11,2021-07-18,0.318861819873028,0.8051987447791474,2.1880234121960944,,,,,,,,,,,,
21181,0,USKentuckyNicholas,Kentucky,Nicholas,2022-04-28 09:13:11,2021-07-19,0.318861819873028,0.8051987447791474,2.1880234121960944,,,,,,,,,,,,
21181,0,USKentuckyNicholas,Kentucky,Nicholas,2022-04-28 09:13:11,2021-07-20,0.318861819873028,0.8051987447791474,2.1880234121960944,,,,,,,,,,,,
21181,0,USKentuckyNicholas,Kentucky,Nicholas,2022-04-28 09:13:11,2021-07-21,0.318861819873028,0.8051987447791474,2.1880234121960944,,,,,,,,,,,,
21181,0,USKentuckyNicholas,Kentucky,Nicholas,2022-04-28 09:13:11,2021-07-22,0.7840845640307311,1.6590710194442744,3.7708932565924163,,,,,,,,,,,,
21181,0,USKentuckyNicholas,Kentucky,Nicholas,2022-04-28 09:13:11,2021-07-23,0.7840845640307311,1.6590710194442744,3.7708932565924163,,,,,,,,,,,,
21181,0,USKentuckyNicholas,Kentucky,Nicholas,2022-04-28 09:13:11,2021-07-24,0.7840845640307311,1.6590710194442744,3.7708932565924163,,,,,,,,,,,,
21181,0,USKentuckyNicholas,Kentucky,Nicholas,2022-04-28 09:13:11,2021-07-25,0.7840845640307311,1.6590710194442744,3.7708932565924163,,,,,,,,,,,,
21181,0,USKentuckyNicholas,Kentucky,Nicholas,2022-04-28 09:13:11,2021-07-26,0.7840845640307311,1.6590710194442744,3.7708932565924163,,,,,,,,,,,,
21181,0,USKentuckyNicholas,Kentucky,Nicholas,2022-04-28 09:13:11,2021-07-27,0.7840845640307311,1.6590710194442744,3.7708932565924163,,,,,,,,,,,,
21181,0,USKentuckyNicholas,Kentucky,Nicholas,2022-04-28 09:13:11,2021-07-28,0.7840845640307311,1.6590710194442744,3.7708932565924163,,,,,,,,,,,,
21181,0,USKentuckyNicholas,Kentucky,Nicholas,2022-04-28 09:13:11,2021-07-29,0.4759927170143544,1.1969196883798356,3.2388154005003047,,,,,,,,,,,,
21181,0,USKentuckyNicholas,Kentucky,Nicholas,2022-04-28 09:13:11,2021-07-30,0.4759927170143544,1.1969196883798356,3.2388154005003047,,,,,,,,,,,,
21181,0,USKentuckyNicholas,Kentucky,Nicholas,2022-04-28 09:13:11,2021-07-31,0.4759927170143544,1.1969196883798356,3.2388154005003047,,,,,,,,,,,,
21181,0,USKentuckyNicholas,Kentucky,Nicholas,2022-04-28 09:13:11,2021-08-01,0.4759927170143544,1.1969196883798356,3.2388154005003047,,,,,,,,,,,,
21181,0,USKentuckyNicholas,Kentucky,Nicholas,2022-04-28 09:13:11,2021-08-02,0.4759927170143544,1.1969196883798356,3.2388154005003047,,,,,,,,,,,,
21181,0,USKentuckyNicholas,Kentucky,Nicholas,2022-04-28 09:13:11,2021-08-03,0.4759927170143544,1.1969196883798356,3.2388154005003047,,,,,,,,,,,,
21181,0,USKentuckyNicholas,Kentucky,Nicholas,2022-04-28 09:13:11,2021-08-04,0.4759927170143544,1.1969196883798356,3.2388154005003047,,,,,,,,,,,,
21181,0,USKentuckyNicholas,Kentucky,Nicholas,2022-04-28 09:13:11,2021-08-05,0.8551982718377569,1.820617197875643,4.164057246806608,,,,,,,,,,,,
21181,0,USKentuckyNicholas,Kentucky,Nicholas,2022-04-28 09:13:11,2021-08-06,0.8551982718377569,1.820617197875643,4.164057246806608,,,,,,,,,,,,
21181,0,USKentuckyNicholas,Kentucky,Nicholas,2022-04-28 09:13:11,2021-08-07,0.8551982718377569,1.820617197875643,4.164057246806608,,,,,,,,,,,,
21181,0,USKentuckyNicholas,Kentucky,Nicholas,2022-04-28 09:13:11,2021-08-08,0.8551982718377569,1.820617197875643,4.164057246806608,,,,,,,,,,,,
21181,0,USKentuckyNicholas,Kentucky,Nicholas,2022-04-28 09:13:11,2021-08-09,0.8551982718377569,1.820617197875643,4.164057246806608,,,,,,,,,,,,
21181,0,USKentuckyNicholas,Kentucky,Nicholas,2022-04-28 09:13:11,2021-08-10,0.8551982718377569,1.820617197875643,4.164057246806608,,,,,,,,,,,,
21181,0,USKentuckyNicholas,Kentucky,Nicholas,2022-04-28 09:13:11,2021-08-11,0.8551982718377569,1.820617197875643,4.164057246806608,,,,,,,,,,,,
21181,0,USKentuckyNicholas,Kentucky,Nicholas,2022-04-28 09:13:11,2021-08-12,1.35584289260395,2.613391788506323,5.392378504030311,,,,,,,,,,,,
21181,0,USKentuckyNicholas,Kentucky,Nicholas,2022-04-28 09:13:11,2021-08-13,1.35584289260395,2.613391788506323,5.392378504030311,,,,,,,,,,,,
21181,0,USKentuckyNicholas,Kentucky,Nicholas,2022-04-28 09:13:11,2021-08-14,1.35584289260395,2.613391788506323,5.392378504030311,,,,,,,,,,,,
21181,0,USKentuckyNicholas,Kentucky,Nicholas,2022-04-28 09:13:11,2021-08-15,1.35584289260395,2.613391788506323,5.392378504030311,,,,,,,,,,,,
21181,0,USKentuckyNicholas,Kentucky,Nicholas,2022-04-28 09:13:11,2021-08-16,1.35584289260395,2.613391788506323,5.392378504030311,,,,,,,,,,,,
21181,0,USKentuckyNicholas,Kentucky,Nicholas,2022-04-28 09:13:11,2021-08-17,1.35584289260395,2.613391788506323,5.392378504030311,,,,,,,,,,,,
21181,0,USKentuckyNicholas,Kentucky,Nicholas,2022-04-28 09:13:11,2021-08-18,1.35584289260395,2.613391788506323,5.392378504030311,,,,,,,,,,,,
21181,0,USKentuckyNicholas,Kentucky,Nicholas,2022-04-28 09:13:11,2021-08-19,2.36365777794874,4.017912816872948,7.2532325880141135,,,,,,,,,,,,
21181,0,USKentuckyNicholas,Kentucky,Nicholas,2022-04-28 09:13:11,2021-08-20,2.36365777794874,4.017912816872948,7.2532325880141135,,,,,,,,,,,,
21181,0,USKentuckyNicholas,Kentucky,Nicholas,2022-04-28 09:13:11,2021-08-21,2.36365777794874,4.017912816872948,7.2532325880141135,,,,,,,,,,,,
21181,0,USKentuckyNicholas,Kentucky,Nicholas,2022-04-28 09:13:11,2021-08-22,2.36365777794874,4.017912816872948,7.2532325880141135,,,,,,,,,,,,
21181,0,USKentuckyNicholas,Kentucky,Nicholas,2022-04-28 09:13:11,2021-08-23,2.36365777794874,4.017912816872948,7.2532325880141135,,,,,,,,,,,,
21181,0,USKentuckyNicholas,Kentucky,Nicholas,2022-04-28 09:13:11,2021-08-24,2.36365777794874,4.017912816872948,7.2532325880141135,,,,,,,,,,,,
21181,0,USKentuckyNicholas,Kentucky,Nicholas,2022-04-28 09:13:11,2021-08-25,2.36365777794874,4.017912816872948,7.2532325880141135,,,,,,,,,,,,
21181,0,USKentuckyNicholas,Kentucky,Nicholas,2022-04-28 09:13:11,2021-08-26,3.4873476929411105,5.343812651237495,8.61171401204023,,,,,,,,,,,,
21181,0,USKentuckyNicholas,Kentucky,Nicholas,2022-04-28 09:13:11,2021-08-27,3.4873476929411105,5.343812651237495,8.61171401204023,,,,,,,,,,,,
21181,0,USKentuckyNicholas,Kentucky,Nicholas,2022-04-28 09:13:11,2021-08-28,3.4873476929411105,5.343812651237495,8.61171401204023,,,,,,,,,,,,
21181,0,USKentuckyNicholas,Kentucky,Nicholas,2022-04-28 09:13:11,2021-08-29,3.4873476929411105,5.343812651237495,8.61171401204023,,,,,,,,,,,,
21181,0,USKentuckyNicholas,Kentucky,Nicholas,2022-04-28 09:13:11,2021-08-30,3.4873476929411105,5.343812651237495,8.61171401204023,,,,,,,,,,,,
21181,0,USKentuckyNicholas,Kentucky,Nicholas,2022-04-28 09:13:11,2021-08-31,3.4873476929411105,5.343812651237495,8.61171401204023,,,,,,,,,,,,
21181,0,USKentuckyNicholas,Kentucky,Nicholas,2022-04-28 09:13:11,2021-09-01,3.4873476929411105,5.343812651237495,8.61171401204023,,,,,,,,,,,,
21181,0,USKentuckyNicholas,Kentucky,Nicholas,2022-04-28 09:13:11,2021-09-02,2.6969494661801985,4.543676321241243,8.123483459130641,,,,,,,,,,,,
21181,0,USKentuckyNicholas,Kentucky,Nicholas,2022-04-28 09:13:11,2021-09-03,2.6969494661801985,4.543676321241243,8.123483459130641,,,,,,,,,,,,
21181,0,USKentuckyNicholas,Kentucky,Nicholas,2022-04-28 09:13:11,2021-09-04,2.6969494661801985,4.543676321241243,8.123483459130641,,,,,,,,,,,,
21181,0,USKentuckyNicholas,Kentucky,Nicholas,2022-04-28 09:13:11,2021-09-05,2.6969494661801985,4.543676321241243,8.123483459130641,,,,,,,,,,,,
21181,0,USKentuckyNicholas,Kentucky,Nicholas,2022-04-28 09:13:11,2021-09-06,2.6969494661801985,4.543676321241243,8.123483459130641,,,,,,,,,,,,
21181,0,USKentuckyNicholas,Kentucky,Nicholas,2022-04-28 09:13:11,2021-09-07,2.6969494661801985,4.543676321241243,8.123483459130641,,,,,,,,,,,,
21181,0,USKentuckyNicholas,Kentucky,Nicholas,2022-04-28 09:13:11,2021-09-08,2.6969494661801985,4.543676321241243,8.123483459130641,,,,,,,,,,,,
21181,0,USKentuckyNicholas,Kentucky,Nicholas,2022-04-28 09:13:11,2021-09-09,2.3340260047549197,3.8452341114342174,6.709819922278788,,,,,,,,,,,,
21181,0,USKentuckyNicholas,Kentucky,Nicholas,2022-04-28 09:13:11,2021-09-10,2.3340260047549197,3.8452341114342174,6.709819922278788,,,,,,,,,,,,
21181,0,USKentuckyNicholas,Kentucky,Nicholas,2022-04-28 09:13:11,2021-09-11,2.3340260047549197,3.8452341114342174,6.709819922278788,,,,,,,,,,,,
21181,0,USKentuckyNicholas,Kentucky,Nicholas,2022-04-28 09:13:11,2021-09-12,2.3340260047549197,3.8452341114342174,6.709819922278788,,,,,,,,,,,,
21181,0,USKentuckyNicholas,Kentucky,Nicholas,2022-04-28 09:13:11,2021-09-13,2.3340260047549197,3.8452341114342174,6.709819922278788,,,,,,,,,,,,
21181,0,USKentuckyNicholas,Kentucky,Nicholas,2022-04-28 09:13:11,2021-09-14,2.3340260047549197,3.8452341114342174,6.709819922278788,,,,,,,,,,,,
21181,0,USKentuckyNicholas,Kentucky,Nicholas,2022-04-28 09:13:11,2021-09-15,2.3340260047549197,3.8452341114342174,6.709819922278788,,,,,,,,,,,,
21181,0,USKentuckyNicholas,Kentucky,Nicholas,2022-04-28 09:13:11,2021-09-16,2.7280469668364473,4.4158377279069905,7.558758129068208,,,,,,,,,,,,
21181,0,USKentuckyNicholas,Kentucky,Nicholas,2022-04-28 09:13:11,2021-09-17,2.7280469668364473,4.4158377279069905,7.558758129068208,,,,,,,,,,,,
21181,0,USKentuckyNicholas,Kentucky,Nicholas,2022-04-28 09:13:11,2021-09-18,2.7280469668364473,4.4158377279069905,7.558758129068208,,,,,,,,,,,,
21181,0,USKentuckyNicholas,Kentucky,Nicholas,2022-04-28 09:13:11,2021-09-19,2.7280469668364473,4.4158377279069905,7.558758129068208,,,,,,,,,,,,
21181,0,USKentuckyNicholas,Kentucky,Nicholas,2022-04-28 09:13:11,2021-09-20,2.7280469668364473,4.4158377279069905,7.558758129068208,,,,,,,,,,,,
21181,0,USKentuckyNicholas,Kentucky,Nicholas,2022-04-28 09:13:11,2021-09-21,2.7280469668364473,4.4158377279069905,7.558758129068208,,,,,,,,,,,,
21181,0,USKentuckyNicholas,Kentucky,Nicholas,2022-04-28 09:13:11,2021-09-22,2.7280469668364473,4.4158377279069905,7.558758129068208,,,,,,,,,,,,
21181,0,USKentuckyNicholas,Kentucky,Nicholas,2022-04-28 09:13:11,2021-09-23,3.5076682498959886,5.215838714757279,8.129301851136752,,,,,,,,,,,,
21181,0,USKentuckyNicholas,Kentucky,Nicholas,2022-04-28 09:13:11,2021-09-24,3.5076682498959886,5.215838714757279,8.129301851136752,,,,,,,,,,,,
21181,0,USKentuckyNicholas,Kentucky,Nicholas,2022-04-28 09:13:11,2021-09-25,3.5076682498959886,5.215838714757279,8.129301851136752,,,,,,,,,,,,
21181,0,USKentuckyNicholas,Kentucky,Nicholas,2022-04-28 09:13:11,2021-09-26,3.5076682498959886,5.215838714757279,8.129301851136752,,,,,,,,,,,,
21181,0,USKentuckyNicholas,Kentucky,Nicholas,2022-04-28 09:13:11,2021-09-27,3.5076682498959886,5.215838714757279,8.129301851136752,,,,,,,,,,,,
21181,0,USKentuckyNicholas,Kentucky,Nicholas,2022-04-28 09:13:11,2021-09-28,3.5076682498959886,5.215838714757279,8.129301851136752,,,,,,,,,,,,
21181,0,USKentuckyNicholas,Kentucky,Nicholas,2022-04-28 09:13:11,2021-09-29,3.5076682498959886,5.215838714757279,8.129301851136752,,,,,,,,,,,,
21181,0,USKentuckyNicholas,Kentucky,Nicholas,2022-04-28 09:13:11,2021-09-30,2.74097788240018,4.183107898607885,6.710948919271592,,,,,,,,,,,,
21181,0,USKentuckyNicholas,Kentucky,Nicholas,2022-04-28 09:13:11,2021-10-01,2.74097788240018,4.183107898607885,6.710948919271592,,,,,,,,,,,,
21181,0,USKentuckyNicholas,Kentucky,Nicholas,2022-04-28 09:13:11,2021-10-02,2.74097788240018,4.183107898607885,6.710948919271592,,,,,,,,,,,,
21181,0,USKentuckyNicholas,Kentucky,Nicholas,2022-04-28 09:13:11,2021-10-03,2.74097788240018,4.183107898607885,6.710948919271592,,,,,,,,,,,,
21181,0,USKentuckyNicholas,Kentucky,Nicholas,2022-04-28 09:13:11,2021-10-04,2.74097788240018,4.183107898607885,6.710948919271592,,,,,,,,,,,,
21181,0,USKentuckyNicholas,Kentucky,Nicholas,2022-04-28 09:13:11,2021-10-05,2.74097788240018,4.183107898607885,6.710948919271592,,,,,,,,,,,,
21181,0,USKentuckyNicholas,Kentucky,Nicholas,2022-04-28 09:13:11,2021-10-06,2.74097788240018,4.183107898607885,6.710948919271592,,,,,,,,,,,,
21181,0,USKentuckyNicholas,Kentucky,Nicholas,2022-04-28 09:13:11,2021-10-07,2.414334064157219,3.7396511192523136,6.0988109993789115,,,,,,,,,,,,
21181,0,USKentuckyNicholas,Kentucky,Nicholas,2022-04-28 09:13:11,2021-10-08,2.414334064157219,3.7396511192523136,6.0988109993789115,,,,,,,,,,,,
21181,0,USKentuckyNicholas,Kentucky,Nicholas,2022-04-28 09:13:11,2021-10-09,2.414334064157219,3.7396511192523136,6.0988109993789115,,,,,,,,,,,,
21181,0,USKentuckyNicholas,Kentucky,Nicholas,2022-04-28 09:13:11,2021-10-10,2.414334064157219,3.7396511192523136,6.0988109993789115,,,,,,,,,,,,
21181,0,USKentuckyNicholas,Kentucky,Nicholas,2022-04-28 09:13:11,2021-10-11,2.414334064157219,3.7396511192523136,6.0988109993789115,,,,,,,,,,,,
21181,0,USKentuckyNicholas,Kentucky,Nicholas,2022-04-28 09:13:11,2021-10-12,2.414334064157219,3.7396511192523136,6.0988109993789115,,,,,,,,,,,,
21181,0,USKentuckyNicholas,Kentucky,Nicholas,2022-04-28 09:13:11,2021-10-13,2.414334064157219,3.7396511192523136,6.0988109993789115,,,,,,,,,,,,
21181,0,USKentuckyNicholas,Kentucky,Nicholas,2022-04-28 09:13:11,2021-10-14,1.9023217025105867,3.0121164949874593,5.032864195812538,,,,,,,,,,,,
21181,0,USKentuckyNicholas,Kentucky,Nicholas,2022-04-28 09:13:11,2021-10-15,1.9023217025105867,3.0121164949874593,5.032864195812538,,,,,,,,,,,,
21181,0,USKentuckyNicholas,Kentucky,Nicholas,2022-04-28 09:13:11,2021-10-16,1.9023217025105867,3.0121164949874593,5.032864195812538,,,,,,,,,,,,
21181,0,USKentuckyNicholas,Kentucky,Nicholas,2022-04-28 09:13:11,2021-10-17,1.9023217025105867,3.0121164949874593,5.032864195812538,,,,,,,,,,,,
21181,0,USKentuckyNicholas,Kentucky,Nicholas,2022-04-28 09:13:11,2021-10-18,1.9023217025105867,3.0121164949874593,5.032864195812538,,,,,,,,,,,,
21181,0,USKentuckyNicholas,Kentucky,Nicholas,2022-04-28 09:13:11,2021-10-19,1.9023217025105867,3.0121164949874593,5.032864195812538,,,,,,,,,,,,
21181,0,USKentuckyNicholas,Kentucky,Nicholas,2022-04-28 09:13:11,2021-10-20,1.9023217025105867,3.0121164949874593,5.032864195812538,,,,,,,,,,,,
21181,0,USKentuckyNicholas,Kentucky,Nicholas,2022-04-28 09:13:11,2021-10-21,0.989161125524252,1.7882158229313487,3.4483075366219653,,,,,,,,,,,,
21181,0,USKentuckyNicholas,Kentucky,Nicholas,2022-04-28 09:13:11,2021-10-22,0.989161125524252,1.7882158229313487,3.4483075366219653,,,,,,,,,,,,
21181,0,USKentuckyNicholas,Kentucky,Nicholas,2022-04-28 09:13:11,2021-10-23,0.989161125524252,1.7882158229313487,3.4483075366219653,,,,,,,,,,,,
21181,0,USKentuckyNicholas,Kentucky,Nicholas,2022-04-28 09:13:11,2021-10-24,0.989161125524252,1.7882158229313487,3.4483075366219653,,,,,,,,,,,,
21181,0,USKentuckyNicholas,Kentucky,Nicholas,2022-04-28 09:13:11,2021-10-25,0.989161125524252,1.7882158229313487,3.4483075366219653,,,,,,,,,,,,
21181,0,USKentuckyNicholas,Kentucky,Nicholas,2022-04-28 09:13:11,2021-10-26,0.989161125524252,1.7882158229313487,3.4483075366219653,,,,,,,,,,,,
21181,0,USKentuckyNicholas,Kentucky,Nicholas,2022-04-28 09:13:11,2021-10-27,0.989161125524252,1.7882158229313487,3.4483075366219653,,,,,,,,,,,,
21181,0,USKentuckyNicholas,Kentucky,Nicholas,2022-04-28 09:13:11,2021-10-28,0.6708423206657506,1.3336006725891258,2.841856905204943,,,,,,,,,,,,
21181,0,USKentuckyNicholas,Kentucky,Nicholas,2022-04-28 09:13:11,2021-10-29,0.6708423206657506,1.3336006725891258,2.841856905204943,,,,,,,,,,,,
21181,0,USKentuckyNicholas,Kentucky,Nicholas,2022-04-28 09:13:11,2021-10-30,0.6708423206657506,1.3336006725891258,2.841856905204943,,,,,,,,,,,,
21181,0,USKentuckyNicholas,Kentucky,Nicholas,2022-04-28 09:13:11,2021-10-31,0.6708423206657506,1.3336006725891258,2.841856905204943,,,,,,,,,,,,
21181,0,USKentuckyNicholas,Kentucky,Nicholas,2022-04-28 09:13:11,2021-11-01,0.6708423206657506,1.3336006725891258,2.841856905204943,,,,,,,,,,,,
21181,0,USKentuckyNicholas,Kentucky,Nicholas,2022-04-28 09:13:11,2021-11-02,0.6708423206657506,1.3336006725891258,2.841856905204943,,,,,,,,,,,,
21181,0,USKentuckyNicholas,Kentucky,Nicholas,2022-04-28 09:13:11,2021-11-03,0.6708423206657506,1.3336006725891258,2.841856905204943,,,,,,,,,,,,
21181,0,USKentuckyNicholas,Kentucky,Nicholas,2022-04-28 09:13:11,2021-11-04,1.071697443890337,1.8931863933815,3.561877204821383,,,,,,,,,,,,
21181,0,USKentuckyNicholas,Kentucky,Nicholas,2022-04-28 09:13:11,2021-11-05,1.071697443890337,1.8931863933815,3.561877204821383,,,,,,,,,,,,
21181,0,USKentuckyNicholas,Kentucky,Nicholas,2022-04-28 09:13:11,2021-11-06,1.071697443890337,1.8931863933815,3.561877204821383,,,,,,,,,,,,
21181,0,USKentuckyNicholas,Kentucky,Nicholas,2022-04-28 09:13:11,2021-11-07,1.071697443890337,1.8931863933815,3.561877204821383,,,,,,,,,,,,
21181,0,USKentuckyNicholas,Kentucky,Nicholas,2022-04-28 09:13:11,2021-11-08,1.071697443890337,1.8931863933815,3.561877204821383,,,,,,,,,,,,
21181,0,USKentuckyNicholas,Kentucky,Nicholas,2022-04-28 09:13:11,2021-11-09,1.071697443890337,1.8931863933815,3.561877204821383,,,,,,,,,,,,
21181,0,USKentuckyNicholas,Kentucky,Nicholas,2022-04-28 09:13:11,2021-11-10,1.071697443890337,1.8931863933815,3.561877204821383,,,,,,,,,,,,
21181,0,USKentuckyNicholas,Kentucky,Nicholas,2022-04-28 09:13:11,2021-11-11,0.6835934077245887,1.3823585768906292,2.998471269820634,,,,,,,,,,,,
21181,0,USKentuckyNicholas,Kentucky,Nicholas,2022-04-28 09:13:11,2021-11-12,0.6835934077245887,1.3823585768906292,2.998471269820634,,,,,,,,,,,,
21181,0,USKentuckyNicholas,Kentucky,Nicholas,2022-04-28 09:13:11,2021-11-13,0.6835934077245887,1.3823585768906292,2.998471269820634,,,,,,,,,,,,
21181,0,USKentuckyNicholas,Kentucky,Nicholas,2022-04-28 09:13:11,2021-11-14,0.6835934077245887,1.3823585768906292,2.998471269820634,,,,,,,,,,,,
21181,0,USKentuckyNicholas,Kentucky,Nicholas,2022-04-28 09:13:11,2021-11-15,0.6835934077245887,1.3823585768906292,2.998471269820634,,,,,,,,,,,,
21181,0,USKentuckyNicholas,Kentucky,Nicholas,2022-04-28 09:13:11,2021-11-16,0.6835934077245887,1.3823585768906292,2.998471269820634,,,,,,,,,,,,
21181,0,USKentuckyNicholas,Kentucky,Nicholas,2022-04-28 09:13:11,2021-11-17,0.6835934077245887,1.3823585768906292,2.998471269820634,,,,,,,,,,,,
21181,0,USKentuckyNicholas,Kentucky,Nicholas,2022-04-28 09:13:11,2021-11-18,1.3368038873374302,2.2736789169089966,4.107006174907833,,,,,,,,,,,,
21181,0,USKentuckyNicholas,Kentucky,Nicholas,2022-04-28 09:13:11,2021-11-19,1.3368038873374302,2.2736789169089966,4.107006174907833,,,,,,,,,,,,
21181,0,USKentuckyNicholas,Kentucky,Nicholas,2022-04-28 09:13:11,2021-11-20,1.3368038873374302,2.2736789169089966,4.107006174907833,,,,,,,,,,,,
21181,0,USKentuckyNicholas,Kentucky,Nicholas,2022-04-28 09:13:11,2021-11-21,1.3368038873374302,2.2736789169089966,4.107006174907833,,,,,,,,,,,,
21181,0,USKentuckyNicholas,Kentucky,Nicholas,2022-04-28 09:13:11,2021-11-22,1.3368038873374302,2.2736789169089966,4.107006174907833,,,,,,,,,,,,
21181,0,USKentuckyNicholas,Kentucky,Nicholas,2022-04-28 09:13:11,2021-11-23,1.3368038873374302,2.2736789169089966,4.107006174907833,,,,,,,,,,,,
21181,0,USKentuckyNicholas,Kentucky,Nicholas,2022-04-28 09:13:11,2021-11-24,1.3368038873374302,2.2736789169089966,4.107006174907833,,,,,,,,,,,,
21181,0,USKentuckyNicholas,Kentucky,Nicholas,2022-04-28 09:13:11,2021-11-25,0.9222315532357772,1.8468891375695673,3.965876315319747,,,,,,,,,,,,
21181,0,USKentuckyNicholas,Kentucky,Nicholas,2022-04-28 09:13:11,2021-11-26,0.9222315532357772,1.8468891375695673,3.965876315319747,,,,,,,,,,,,
21181,0,USKentuckyNicholas,Kentucky,Nicholas,2022-04-28 09:13:11,2021-11-27,0.9222315532357772,1.8468891375695673,3.965876315319747,,,,,,,,,,,,
21181,0,USKentuckyNicholas,Kentucky,Nicholas,2022-04-28 09:13:11,2021-11-28,0.9222315532357772,1.8468891375695673,3.965876315319747,,,,,,,,,,,,
21181,0,USKentuckyNicholas,Kentucky,Nicholas,2022-04-28 09:13:11,2021-11-29,0.9222315532357772,1.8468891375695673,3.965876315319747,,,,,,,,,,,,
21181,0,USKentuckyNicholas,Kentucky,Nicholas,2022-04-28 09:13:11,2021-11-30,0.9222315532357772,1.8468891375695673,3.965876315319747,,,,,,,,,,,,
21181,0,USKentuckyNicholas,Kentucky,Nicholas,2022-04-28 09:13:11,2021-12-01,0.9222315532357772,1.8468891375695673,3.965876315319747,,,,,,,,,,,,
21181,0,USKentuckyNicholas,Kentucky,Nicholas,2022-04-28 09:13:11,2021-12-02,1.0314627891625379,2.040985694998979,4.32827380909695,,,,,,,,,,,,
21181,0,USKentuckyNicholas,Kentucky,Nicholas,2022-04-28 09:13:11,2021-12-03,1.0314627891625379,2.040985694998979,4.32827380909695,,,,,,,,,,,,
21181,0,USKentuckyNicholas,Kentucky,Nicholas,2022-04-28 09:13:11,2021-12-04,1.0314627891625379,2.040985694998979,4.32827380909695,,,,,,,,,,,,
21181,0,USKentuckyNicholas,Kentucky,Nicholas,2022-04-28 09:13:11,2021-12-05,1.0314627891625379,2.040985694998979,4.32827380909695,,,,,,,,,,,,
21181,0,USKentuckyNicholas,Kentucky,Nicholas,2022-04-28 09:13:11,2021-12-06,1.0314627891625379,2.040985694998979,4.32827380909695,,,,,,,,,,,,
21181,0,USKentuckyNicholas,Kentucky,Nicholas,2022-04-28 09:13:11,2021-12-07,1.0314627891625379,2.040985694998979,4.32827380909695,,,,,,,,,,,,
21181,0,USKentuckyNicholas,Kentucky,Nicholas,2022-04-28 09:13:11,2021-12-08,1.0314627891625379,2.040985694998979,4.32827380909695,,,,,,,,,,,,
21181,0,USKentuckyNicholas,Kentucky,Nicholas,2022-04-28 09:13:11,2021-12-09,1.2482195080220684,2.323438878783227,4.621310771771653,,,,,,,,,,,,
21181,0,USKentuckyNicholas,Kentucky,Nicholas,2022-04-28 09:13:11,2021-12-10,1.2482195080220684,2.323438878783227,4.621310771771653,,,,,,,,,,,,
21181,0,USKentuckyNicholas,Kentucky,Nicholas,2022-04-28 09:13:11,2021-12-11,1.2482195080220684,2.323438878783227,4.621310771771653,,,,,,,,,,,,
21181,0,USKentuckyNicholas,Kentucky,Nicholas,2022-04-28 09:13:11,2021-12-12,1.2482195080220684,2.323438878783227,4.621310771771653,,,,,,,,,,,,
21181,0,USKentuckyNicholas,Kentucky,Nicholas,2022-04-28 09:13:11,2021-12-13,1.2482195080220684,2.323438878783227,4.621310771771653,,,,,,,,,,,,
21181,0,USKentuckyNicholas,Kentucky,Nicholas,2022-04-28 09:13:11,2021-12-14,1.2482195080220684,2.323438878783227,4.621310771771653,,,,,,,,,,,,
21181,0,USKentuckyNicholas,Kentucky,Nicholas,2022-04-28 09:13:11,2021-12-15,1.2482195080220684,2.323438878783227,4.621310771771653,,,,,,,,,,,,
21181,0,USKentuckyNicholas,Kentucky,Nicholas,2022-04-28 09:13:11,2021-12-16,1.1180585374925884,2.1515814297198914,4.431983353872587,,,,,,,,,,,,
21181,0,USKentuckyNicholas,Kentucky,Nicholas,2022-04-28 09:13:11,2021-12-17,1.1180585374925884,2.1515814297198914,4.431983353872587,,,,,,,,,,,,
21181,0,USKentuckyNicholas,Kentucky,Nicholas,2022-04-28 09:13:11,2021-12-18,1.1180585374925884,2.1515814297198914,4.431983353872587,,,,,,,,,,,,
21181,0,USKentuckyNicholas,Kentucky,Nicholas,2022-04-28 09:13:11,2021-12-19,1.1180585374925884,2.1515814297198914,4.431983353872587,,,,,,,,,,,,
21181,0,USKentuckyNicholas,Kentucky,Nicholas,2022-04-28 09:13:11,2021-12-20,1.1180585374925884,2.1515814297198914,4.431983353872587,,,,,,,,,,,,
21181,0,USKentuckyNicholas,Kentucky,Nicholas,2022-04-28 09:13:11,2021-12-21,1.1180585374925884,2.1515814297198914,4.431983353872587,,,,,,,,,,,,
21181,0,USKentuckyNicholas,Kentucky,Nicholas,2022-04-28 09:13:11,2021-12-22,1.1180585374925884,2.1515814297198914,4.431983353872587,,,,,,,,,,,,
21181,0,USKentuckyNicholas,Kentucky,Nicholas,2022-04-28 09:13:11,2021-12-23,1.0365907692742016,2.1766010182747926,4.908354620031818,,,,,,,,,,,,
21181,0,USKentuckyNicholas,Kentucky,Nicholas,2022-04-28 09:13:11,2021-12-24,1.0365907692742016,2.1766010182747926,4.908354620031818,,,,,,,,,,,,
21181,0,USKentuckyNicholas,Kentucky,Nicholas,2022-04-28 09:13:11,2021-12-25,1.0365907692742016,2.1766010182747926,4.908354620031818,,,,,,,,,,,,
21181,0,USKentuckyNicholas,Kentucky,Nicholas,2022-04-28 09:13:11,2021-12-26,1.0365907692742016,2.1766010182747926,4.908354620031818,,,,,,,,,,,,
21181,0,USKentuckyNicholas,Kentucky,Nicholas,2022-04-28 09:13:11,2021-12-27,1.0365907692742016,2.1766010182747926,4.908354620031818,,,,,,,,,,,,
21181,0,USKentuckyNicholas,Kentucky,Nicholas,2022-04-28 09:13:11,2021-12-28,1.0365907692742016,2.1766010182747926,4.908354620031818,,,,,,,,,,,,
21181,0,USKentuckyNicholas,Kentucky,Nicholas,2022-04-28 09:13:11,2021-12-29,1.0365907692742016,2.1766010182747926,4.908354620031818,,,,,,,,,,,,
21181,0,USKentuckyNicholas,Kentucky,Nicholas,2022-04-28 09:13:11,2021-12-30,2.5317918848254073,4.7735829570789265,9.624081554184045,,,,,,,,,,,,
21181,0,USKentuckyNicholas,Kentucky,Nicholas,2022-04-28 09:13:11,2021-12-31,2.5317918848254073,4.7735829570789265,9.624081554184045,,,,,,,,,,,,
21181,0,USKentuckyNicholas,Kentucky,Nicholas,2022-04-28 09:13:11,2022-01-01,2.5317918848254073,4.7735829570789265,9.624081554184045,,,,,,,,,,,,
21181,0,USKentuckyNicholas,Kentucky,Nicholas,2022-04-28 09:13:11,2022-01-02,2.5317918848254073,4.7735829570789265,9.624081554184045,,,,,,,,,,,,
21181,0,USKentuckyNicholas,Kentucky,Nicholas,2022-04-28 09:13:11,2022-01-03,2.5317918848254073,4.7735829570789265,9.624081554184045,,,,,,,,,,,,
21181,0,USKentuckyNicholas,Kentucky,Nicholas,2022-04-28 09:13:11,2022-01-04,2.5317918848254073,4.7735829570789265,9.624081554184045,,,,,,,,,,,,
21181,0,USKentuckyNicholas,Kentucky,Nicholas,2022-04-28 09:13:11,2022-01-05,2.5317918848254073,4.7735829570789265,9.624081554184045,,,,,,,,,,,,
21181,0,USKentuckyNicholas,Kentucky,Nicholas,2022-04-28 09:13:11,2022-01-06,3.3595815787453134,6.0857979959775506,11.76085250772363,,,,,,,,,,,,
21181,0,USKentuckyNicholas,Kentucky,Nicholas,2022-04-28 09:13:11,2022-01-07,3.3595815787453134,6.0857979959775506,11.76085250772363,,,,,,,,,,,,
21181,0,USKentuckyNicholas,Kentucky,Nicholas,2022-04-28 09:13:11,2022-01-08,3.3595815787453134,6.0857979959775506,11.76085250772363,,,,,,,,,,,,
21181,0,USKentuckyNicholas,Kentucky,Nicholas,2022-04-28 09:13:11,2022-01-09,3.3595815787453134,6.0857979959775506,11.76085250772363,,,,,,,,,,,,
21181,0,USKentuckyNicholas,Kentucky,Nicholas,2022-04-28 09:13:11,2022-01-10,3.3595815787453134,6.0857979959775506,11.76085250772363,,,,,,,,,,,,
21181,0,USKentuckyNicholas,Kentucky,Nicholas,2022-04-28 09:13:11,2022-01-11,3.3595815787453134,6.0857979959775506,11.76085250772363,,,,,,,,,,,,
21181,0,USKentuckyNicholas,Kentucky,Nicholas,2022-04-28 09:13:11,2022-01-12,3.3595815787453134,6.0857979959775506,11.76085250772363,,,,,,,,,,,,
21181,0,USKentuckyNicholas,Kentucky,Nicholas,2022-04-28 09:13:11,2022-01-13,3.909951301766364,6.904225956549884,12.984064160600973,,,,,,,,,,,,
21181,0,USKentuckyNicholas,Kentucky,Nicholas,2022-04-28 09:13:11,2022-01-14,3.909951301766364,6.904225956549884,12.984064160600973,,,,,,,,,,,,
21181,0,USKentuckyNicholas,Kentucky,Nicholas,2022-04-28 09:13:11,2022-01-15,3.909951301766364,6.904225956549884,12.984064160600973,,,,,,,,,,,,
21181,0,USKentuckyNicholas,Kentucky,Nicholas,2022-04-28 09:13:11,2022-01-16,3.909951301766364,6.904225956549884,12.984064160600973,,,,,,,,,,,,
21181,0,USKentuckyNicholas,Kentucky,Nicholas,2022-04-28 09:13:11,2022-01-17,3.909951301766364,6.904225956549884,12.984064160600973,,,,,,,,,,,,
21181,0,USKentuckyNicholas,Kentucky,Nicholas,2022-04-28 09:13:11,2022-01-18,3.909951301766364,6.904225956549884,12.984064160600973,,,,,,,,,,,,
21181,0,USKentuckyNicholas,Kentucky,Nicholas,2022-04-28 09:13:11,2022-01-19,3.909951301766364,6.904225956549884,12.984064160600973,,,,,,,,,,,,
21181,0,USKentuckyNicholas,Kentucky,Nicholas,2022-04-28 09:13:11,2022-01-20,5.703848271370629,9.386239577699634,16.358467113428908,,,,,,,,,,,,
21181,0,USKentuckyNicholas,Kentucky,Nicholas,2022-04-28 09:13:11,2022-01-21,5.703848271370629,9.386239577699634,16.358467113428908,,,,,,,,,,,,
21181,0,USKentuckyNicholas,Kentucky,Nicholas,2022-04-28 09:13:11,2022-01-22,5.703848271370629,9.386239577699634,16.358467113428908,,,,,,,,,,,,
21181,0,USKentuckyNicholas,Kentucky,Nicholas,2022-04-28 09:13:11,2022-01-23,5.703848271370629,9.386239577699634,16.358467113428908,,,,,,,,,,,,
21181,0,USKentuckyNicholas,Kentucky,Nicholas,2022-04-28 09:13:11,2022-01-24,5.703848271370629,9.386239577699634,16.358467113428908,,,,,,,,,,,,
21181,0,USKentuckyNicholas,Kentucky,Nicholas,2022-04-28 09:13:11,2022-01-25,5.703848271370629,9.386239577699634,16.358467113428908,,,,,,,,,,,,
21181,0,USKentuckyNicholas,Kentucky,Nicholas,2022-04-28 09:13:11,2022-01-26,5.703848271370629,9.386239577699634,16.358467113428908,,,,,,,,,,,,
21181,0,USKentuckyNicholas,Kentucky,Nicholas,2022-04-28 09:13:11,2022-01-27,4.77695698045392,8.117492859937714,14.648598098580132,,,,,,,,,,,,
21181,0,USKentuckyNicholas,Kentucky,Nicholas,2022-04-28 09:13:11,2022-01-28,4.77695698045392,8.117492859937714,14.648598098580132,,,,,,,,,,,,
21181,0,USKentuckyNicholas,Kentucky,Nicholas,2022-04-28 09:13:11,2022-01-29,4.77695698045392,8.117492859937714,14.648598098580132,,,,,,,,,,,,
21181,0,USKentuckyNicholas,Kentucky,Nicholas,2022-04-28 09:13:11,2022-01-30,4.77695698045392,8.117492859937714,14.648598098580132,,,,,,,,,,,,
21181,0,USKentuckyNicholas,Kentucky,Nicholas,2022-04-28 09:13:11,2022-01-31,4.77695698045392,8.117492859937714,14.648598098580132,,,,,,,,,,,,
21181,0,USKentuckyNicholas,Kentucky,Nicholas,2022-04-28 09:13:11,2022-02-01,4.77695698045392,8.117492859937714,14.648598098580132,,,,,,,,,,,,
21181,0,USKentuckyNicholas,Kentucky,Nicholas,2022-04-28 09:13:11,2022-02-02,4.77695698045392,8.117492859937714,14.648598098580132,,,,,,,,,,,,
21181,0,USKentuckyNicholas,Kentucky,Nicholas,2022-04-28 09:13:11,2022-02-03,2.841242919735935,5.497048260828883,11.386971382761725,,,,,,,,,,,,
21181,0,USKentuckyNicholas,Kentucky,Nicholas,2022-04-28 09:13:11,2022-02-04,2.841242919735935,5.497048260828883,11.386971382761725,,,,,,,,,,,,
21181,0,USKentuckyNicholas,Kentucky,Nicholas,2022-04-28 09:13:11,2022-02-05,2.841242919735935,5.497048260828883,11.386971382761725,,,,,,,,,,,,
21181,0,USKentuckyNicholas,Kentucky,Nicholas,2022-04-28 09:13:11,2022-02-06,2.841242919735935,5.497048260828883,11.386971382761725,,,,,,,,,,,,
21181,0,USKentuckyNicholas,Kentucky,Nicholas,2022-04-28 09:13:11,2022-02-07,2.841242919735935,5.497048260828883,11.386971382761725,,,,,,,,,,,,
21181,0,USKentuckyNicholas,Kentucky,Nicholas,2022-04-28 09:13:11,2022-02-08,2.841242919735935,5.497048260828883,11.386971382761725,,,,,,,,,,,,
21181,0,USKentuckyNicholas,Kentucky,Nicholas,2022-04-28 09:13:11,2022-02-09,2.841242919735935,5.497048260828883,11.386971382761725,,,,,,,,,,,,
21181,0,USKentuckyNicholas,Kentucky,Nicholas,2022-04-28 09:13:11,2022-02-10,2.2866552396851594,4.285777800850426,8.586531698056687,,,,,,,,,,,,
21181,0,USKentuckyNicholas,Kentucky,Nicholas,2022-04-28 09:13:11,2022-02-11,2.2866552396851594,4.285777800850426,8.586531698056687,,,,,,,,,,,,
21181,0,USKentuckyNicholas,Kentucky,Nicholas,2022-04-28 09:13:11,2022-02-12,2.2866552396851594,4.285777800850426,8.586531698056687,,,,,,,,,,,,
21181,0,USKentuckyNicholas,Kentucky,Nicholas,2022-04-28 09:13:11,2022-02-13,2.2866552396851594,4.285777800850426,8.586531698056687,,,,,,,,,,,,
21181,0,USKentuckyNicholas,Kentucky,Nicholas,2022-04-28 09:13:11,2022-02-14,2.2866552396851594,4.285777800850426,8.586531698056687,,,,,,,,,,,,
21181,0,USKentuckyNicholas,Kentucky,Nicholas,2022-04-28 09:13:11,2022-02-15,2.2866552396851594,4.285777800850426,8.586531698056687,,,,,,,,,,,,
21181,0,USKentuckyNicholas,Kentucky,Nicholas,2022-04-28 09:13:11,2022-02-16,2.2866552396851594,4.285777800850426,8.586531698056687,,,,,,,,,,,,
21181,0,USKentuckyNicholas,Kentucky,Nicholas,2022-04-28 09:13:11,2022-02-17,1.79207855628764,3.393256192888098,6.871814516923472,,,,,,,,,,,,
21181,0,USKentuckyNicholas,Kentucky,Nicholas,2022-04-28 09:13:11,2022-02-18,1.79207855628764,3.393256192888098,6.871814516923472,,,,,,,,,,,,
21181,0,USKentuckyNicholas,Kentucky,Nicholas,2022-04-28 09:13:11,2022-02-19,1.79207855628764,3.393256192888098,6.871814516923472,,,,,,,,,,,,
21181,0,USKentuckyNicholas,Kentucky,Nicholas,2022-04-28 09:13:11,2022-02-20,1.79207855628764,3.393256192888098,6.871814516923472,,,,,,,,,,,,
21181,0,USKentuckyNicholas,Kentucky,Nicholas,2022-04-28 09:13:11,2022-02-21,1.79207855628764,3.393256192888098,6.871814516923472,,,,,,,,,,,,
21181,0,USKentuckyNicholas,Kentucky,Nicholas,2022-04-28 09:13:11,2022-02-22,1.79207855628764,3.393256192888098,6.871814516923472,,,,,,,,,,,,
21181,0,USKentuckyNicholas,Kentucky,Nicholas,2022-04-28 09:13:11,2022-02-23,1.79207855628764,3.393256192888098,6.871814516923472,,,,,,,,,,,,
21181,0,USKentuckyNicholas,Kentucky,Nicholas,2022-04-28 09:13:11,2022-02-24,1.4250402567578222,2.6638600426519976,5.322210488274518,,,,,,,,,,,,
21181,0,USKentuckyNicholas,Kentucky,Nicholas,2022-04-28 09:13:11,2022-02-25,1.4250402567578222,2.6638600426519976,5.322210488274518,,,,,,,,,,,,
21181,0,USKentuckyNicholas,Kentucky,Nicholas,2022-04-28 09:13:11,2022-02-26,1.4250402567578222,2.6638600426519976,5.322210488274518,,,,,,,,,,,,
21181,0,USKentuckyNicholas,Kentucky,Nicholas,2022-04-28 09:13:11,2022-02-27,1.4250402567578222,2.6638600426519976,5.322210488274518,,,,,,,,,,,,
21181,0,USKentuckyNicholas,Kentucky,Nicholas,2022-04-28 09:13:11,2022-02-28,1.4250402567578222,2.6638600426519976,5.322210488274518,,,,,,,,,,,,
21181,0,USKentuckyNicholas,Kentucky,Nicholas,2022-04-28 09:13:11,2022-03-01,1.4250402567578222,2.6638600426519976,5.322210488274518,,,,,,,,,,,,
21181,0,USKentuckyNicholas,Kentucky,Nicholas,2022-04-28 09:13:11,2022-03-02,1.4250402567578222,2.6638600426519976,5.322210488274518,,,,,,,,,,,,
21181,0,USKentuckyNicholas,Kentucky,Nicholas,2022-04-28 09:13:11,2022-03-03,0.4679229912741394,1.159087313540652,3.089826255975609,,,,,,,,,,,,
21181,0,USKentuckyNicholas,Kentucky,Nicholas,2022-04-28 09:13:11,2022-03-04,0.4679229912741394,1.159087313540652,3.089826255975609,,,,,,,,,,,,
21181,0,USKentuckyNicholas,Kentucky,Nicholas,2022-04-28 09:13:11,2022-03-05,0.4679229912741394,1.159087313540652,3.089826255975609,,,,,,,,,,,,
21181,0,USKentuckyNicholas,Kentucky,Nicholas,2022-04-28 09:13:11,2022-03-06,0.4679229912741394,1.159087313540652,3.089826255975609,,,,,,,,,,,,
21181,0,USKentuckyNicholas,Kentucky,Nicholas,2022-04-28 09:13:11,2022-03-07,0.4679229912741394,1.159087313540652,3.089826255975609,,,,,,,,,,,,
21181,0,USKentuckyNicholas,Kentucky,Nicholas,2022-04-28 09:13:11,2022-03-08,0.4679229912741394,1.159087313540652,3.089826255975609,,,,,,,,,,,,
21181,0,USKentuckyNicholas,Kentucky,Nicholas,2022-04-28 09:13:11,2022-03-09,0.4679229912741394,1.159087313540652,3.089826255975609,,,,,,,,,,,,
