FIPS,HR_UID,nameid,province,region,analysisTime,dates,pointprevalence_025,pointprevalence_50,pointprevalence_975,pointinfections_025,pointinfections_50,pointinfections_975,pointinfectious_025,pointinfectious_50,pointinfectious_975,pointinfectiousprevalence_05,pointinfectiousprevalence_50,pointinfectiousprevalence_95,infectrate_025,infectrate_50,infectrate_975
0,0,Libya,,,2022-03-22 19:59:42.665897,2021-08-27,0.00192647,0.00406079,0.01281742,132,279,880,55,126,346,0.00080191,0.00184063,0.00503577,2.45996998,2.89067114,2.98437132
0,0,Libya,,,2022-03-22 19:59:42.665897,2021-08-28,0.00366717,0.00735850,0.02141233,251,505,1471,109,228,605,0.00159030,0.00333246,0.00881715,2.45996529,2.89066389,2.98436543
0,0,Libya,,,2022-03-22 19:59:42.665897,2021-08-29,0.00669816,0.01337140,0.03456475,460,918,2375,201,418,998,0.00293059,0.00608505,0.01452937,2.45995057,2.89064114,2.98434695
0,0,Libya,,,2022-03-22 19:59:42.665897,2021-08-30,0.01203581,0.02418354,0.05491320,827,1661,3773,363,758,1601,0.00529275,0.01103529,0.02330485,2.45990443,2.89056980,2.98428899
0,0,Libya,,,2022-03-22 19:59:42.665897,2021-08-31,0.02152621,0.04361269,0.08659803,1479,2996,5950,651,1369,2536,0.00948360,0.01993036,0.03691086,2.45975977,2.89034615,2.98410729
0,0,Libya,,,2022-03-22 19:59:42.665897,2021-09-01,0.03838326,0.07851111,0.13606667,2637,5394,9349,1161,2467,3993,0.01690298,0.03591047,0.05812029,2.45930635,2.88964517,2.98353778
0,0,Libya,,,2022-03-22 19:59:42.665897,2021-09-02,0.06799651,0.14112345,0.21332984,4672,9696,14658,2061,4355,6269,0.03000141,0.06338095,0.09123889,2.45788643,2.88745031,2.98175435
0,0,Libya,,,2022-03-22 19:59:42.665897,2021-09-03,0.12049755,0.23732995,0.33645037,8279,16307,23118,3654,7233,10481,0.05317988,0.10527609,0.15253391,2.45345240,2.88060208,2.97618540
0,0,Libya,,,2022-03-22 19:59:42.665897,2021-09-04,0.21162577,0.39338541,0.59090944,14541,27030,40603,6450,12038,18636,0.09387069,0.17519688,0.27122974,2.43972733,2.85947803,2.95857320
0,0,Libya,,,2022-03-22 19:59:42.665897,2021-09-05,0.36910167,0.64882304,1.03445118,25362,44582,71080,11307,19995,32870,0.16455517,0.29100656,0.47837301,2.39826873,2.79608011,2.90377636
0,0,Libya,,,2022-03-22 19:59:42.665897,2021-09-06,0.62549184,1.03634804,1.74056960,42979,71210,119599,19429,32352,56399,0.28276793,0.47083066,0.82079630,2.28301710,2.62192347,2.75607078
0,0,Libya,,,2022-03-22 19:59:42.665897,2021-09-07,0.99242607,1.58692034,2.68400269,68192,109041,184425,31838,50855,90825,0.46336017,0.74011943,1.32181290,2.02371489,2.24091068,2.42980249
0,0,Libya,,,2022-03-22 19:59:42.665897,2021-09-08,1.42246141,2.21969243,3.63797787,97741,152521,249975,48037,73883,131607,0.69909990,1.07524642,1.91532835,1.56494942,1.74941039,1.95811961
0,0,Libya,,,2022-03-22 19:59:42.665897,2021-09-09,1.86233554,2.81892176,4.41904932,127966,193696,303645,65762,101554,169573,0.95705724,1.47795438,2.46785442,1.14097456,1.39785912,1.57734091
0,0,Libya,,,2022-03-22 19:59:42.665897,2021-09-10,2.30479714,3.50217746,5.05586989,158369,240644,347403,83669,132118,200532,1.21766695,1.92276302,2.91840560,0.94930194,1.22494290,1.39112659
0,0,Libya,,,2022-03-22 19:59:42.665897,2021-09-11,2.80002304,4.31944575,5.61193342,192397,296801,385612,102549,165319,226132,1.49243587,2.40594952,3.29098259,0.87790706,1.15627487,1.31551783
0,0,Libya,,,2022-03-22 19:59:42.665897,2021-09-12,3.32257390,5.24366156,6.24293701,228303,360307,428970,123400,202422,249147,1.79588153,2.94591695,3.62592058,0.84574497,1.11960407,1.27118203
0,0,Libya,,,2022-03-22 19:59:42.665897,2021-09-13,3.88321736,6.22520557,7.42565808,266827,427751,510238,145721,243667,287769,2.12072867,3.54617265,4.18799478,0.81145293,1.06975624,1.20441274
0,0,Libya,,,2022-03-22 19:59:42.665897,2021-09-14,4.36966921,6.70655350,8.51548379,300252,460826,585123,166497,276104,337574,2.42309142,4.01823342,4.91283018,0.74645637,0.96924741,1.06258835
0,0,Libya,,,2022-03-22 19:59:42.665897,2021-09-15,4.63479093,6.80347876,9.24166134,318469,467486,635021,181933,287413,378002,2.64773619,4.18282113,5.50118824,0.64868308,0.83538549,0.90626167
0,0,Libya,,,2022-03-22 19:59:42.665897,2021-09-16,4.68564500,6.66766826,9.67323819,321964,458154,664675,189139,286889,405251,2.75261342,4.17519060,5.89775574,0.56397299,0.71339116,0.78969620
0,0,Libya,,,2022-03-22 19:59:42.665897,2021-09-17,4.57705572,6.39948436,9.88521459,314502,439726,679241,187637,278357,419789,2.73075099,4.05102006,6.10932435,0.51989010,0.64474233,0.72847449
0,0,Libya,,,2022-03-22 19:59:42.665897,2021-09-18,4.36786993,6.08297955,9.99780435,300128,417978,686977,181928,265552,428309,2.64765997,3.86466175,6.23332990,0.50202777,0.61787089,0.70233629
0,0,Libya,,,2022-03-22 19:59:42.665897,2021-09-19,4.15920173,5.73937213,9.99597602,285790,394368,686852,174100,251313,430898,2.53374239,3.65745067,6.27099811,0.49334027,0.60607614,0.68568128
0,0,Libya,,,2022-03-22 19:59:42.665897,2021-09-20,3.93819166,5.44321249,9.87841343,270604,374018,678774,165362,235811,428035,2.40657080,3.43183520,6.22933235,0.48306919,0.59454399,0.65861562
0,0,Libya,,,2022-03-22 19:59:42.665897,2021-09-21,3.70037827,5.19337893,9.55082059,254263,356851,656264,156000,219902,419357,2.27032116,3.20030431,6.10303910,0.46245170,0.57277172,0.60920435
0,0,Libya,,,2022-03-22 19:59:42.665897,2021-09-22,3.44001646,4.94941419,8.97416415,236373,340088,616640,145856,205209,400027,2.12269521,2.98647508,5.82172466,0.42961454,0.51205103,0.57676853
0,0,Libya,,,2022-03-22 19:59:42.665897,2021-09-23,3.16363789,4.64664354,8.20673303,217382,319284,563908,134915,189505,371639,1.96347293,2.75792917,5.40858765,0.39913750,0.45844720,0.54689034
0,0,Libya,,,2022-03-22 19:59:42.665897,2021-09-24,2.88718069,4.34284301,7.37503349,198386,298409,506759,123618,178365,337612,1.79905626,2.59581551,4.91337592,0.38230334,0.43051610,0.53074073
0,0,Libya,,,2022-03-22 19:59:42.665897,2021-09-25,2.62251461,4.05013344,6.55375994,180200,278296,450327,112553,166585,301650,1.63802332,2.42437533,4.39001046,0.37496702,0.41923243,0.52387979
0,0,Libya,,,2022-03-22 19:59:42.665897,2021-09-26,2.37430969,3.76397094,5.80273036,163145,258633,398722,102069,154759,267461,1.48545299,2.25226433,3.89244674,0.37033104,0.41392619,0.52017452
0,0,Libya,,,2022-03-22 19:59:42.665897,2021-09-27,2.14087658,3.48375530,5.11945939,147105,239378,351772,92230,143393,236215,1.34225738,2.08684905,3.43772454,0.36277108,0.40807704,0.51537122
0,0,Libya,,,2022-03-22 19:59:42.665897,2021-09-28,1.91617654,3.20429940,4.51825179,131665,220176,310462,82621,132766,208643,1.20241514,1.93218690,3.03644868,0.34610781,0.39660656,0.50494198
0,0,Libya,,,2022-03-22 19:59:42.665897,2021-09-29,1.69025209,2.93317806,3.98317329,116142,201547,273695,73243,121726,184043,1.06593434,1.77152016,2.67843990,0.31925355,0.38646098,0.48864285
0,0,Libya,,,2022-03-22 19:59:42.665897,2021-09-30,1.47026243,2.66316823,3.51299650,101025,182993,241388,64135,111173,162171,0.93339041,1.61793662,2.36013795,0.29455956,0.38145388,0.47341491
0,0,Libya,,,2022-03-22 19:59:42.665897,2021-10-01,1.26777033,2.41059146,3.09852243,87112,165638,212908,55549,101011,143226,0.80842576,1.47004501,2.08441802,0.28134410,0.37568606,0.46479565
0,0,Libya,,,2022-03-22 19:59:42.665897,2021-10-02,1.08806687,2.16311072,2.73279079,74764,148633,187777,47778,91375,126281,0.69533371,1.32981222,1.83781359,0.27676702,0.37406417,0.46153159
0,0,Libya,,,2022-03-22 19:59:42.665897,2021-10-03,0.93242106,1.93977159,2.41097790,64069,133287,165665,40965,82021,111405,0.59618392,1.19368735,1.62131627,0.27717004,0.37554440,0.46177482
0,0,Libya,,,2022-03-22 19:59:42.665897,2021-10-04,0.80045830,1.73684373,2.13121557,55001,119343,146441,35127,73489,98357,0.51122112,1.06950962,1.43142760,0.28307036,0.38174054,0.46551276
0,0,Libya,,,2022-03-22 19:59:42.665897,2021-10-05,0.69207944,1.54869558,1.89066882,47554,106415,129913,30250,66205,87088,0.44024233,0.96351346,1.26742620,0.29947825,0.39787925,0.47567299
0,0,Libya,,,2022-03-22 19:59:42.665897,2021-10-06,0.60712362,1.38052640,1.69147660,41717,94859,116226,26326,59583,77513,0.38314104,0.86713518,1.12807649,0.33042513,0.42752777,0.49379152
0,0,Libya,,,2022-03-22 19:59:42.665897,2021-10-07,0.54204883,1.24603120,1.52833032,37245,85618,105015,23284,54186,69624,0.33886213,0.78859519,1.01326700,0.36467009,0.46268903,0.51465442
0,0,Libya,,,2022-03-22 19:59:42.665897,2021-10-08,0.49037080,1.13408345,1.39745490,33694,77926,96023,20922,49052,63289,0.30449028,0.71388123,0.92107797,0.38627734,0.48709832,0.52787854
0,0,Libya,,,2022-03-22 19:59:42.665897,2021-10-09,0.44692964,1.03677055,1.28260028,30709,71239,88131,19001,44719,57895,0.27653906,0.65081441,0.84256637,0.39604266,0.49682826,0.53415976
0,0,Libya,,,2022-03-22 19:59:42.665897,2021-10-10,0.40074470,0.95051917,1.17938690,27536,65312,81039,17356,40916,53286,0.25259519,0.59546875,0.77549139,0.40137503,0.50062398,0.53859628
0,0,Libya,,,2022-03-22 19:59:42.665897,2021-10-11,0.35960490,0.87386170,1.08570439,24709,60045,74601,15764,37542,49007,0.22942388,0.54636095,0.71322550,0.40858154,0.50254255,0.54663663
0,0,Libya,,,2022-03-22 19:59:42.665897,2021-10-12,0.32430493,0.80752673,0.99783022,22283,55487,68563,14369,34572,45091,0.20912569,0.50314967,0.65622775,0.42429212,0.50672151,0.56591002
0,0,Libya,,,2022-03-22 19:59:42.665897,2021-10-13,0.29514920,0.73992249,0.91514087,20280,50842,62881,13185,32050,41395,0.19189606,0.46643853,0.60244807,0.45232795,0.51838797,0.60169785
0,0,Libya,,,2022-03-22 19:59:42.665897,2021-10-14,0.27153962,0.67884888,0.85605213,18658,46645,58821,12061,29991,37886,0.17554152,0.43648148,0.55137673,0.48216444,0.53232880,0.64221684
0,0,Libya,,,2022-03-22 19:59:42.665897,2021-10-15,0.25169236,0.62454055,0.82329647,17294,42913,56571,11140,28106,34592,0.16212899,0.40904872,0.50344265,0.48496826,0.54539911,0.66698393
0,0,Libya,,,2022-03-22 19:59:42.665897,2021-10-16,0.23423711,0.57563432,0.79654975,16095,39553,54733,10347,25879,31932,0.15059150,0.37662523,0.46472839,0.48440527,0.55373239,0.67815748
0,0,Libya,,,2022-03-22 19:59:42.665897,2021-10-17,0.21843861,0.53137996,0.77256490,15009,36512,53085,9639,23868,30850,0.14028639,0.34736951,0.44897010,0.48685941,0.55816502,0.68424582
0,0,Libya,,,2022-03-22 19:59:42.665897,2021-10-18,0.20433211,0.49165638,0.75044394,14040,33783,51565,8998,22055,29944,0.13095641,0.32098578,0.43578794,0.49536234,0.56400276,0.69285606
0,0,Libya,,,2022-03-22 19:59:42.665897,2021-10-19,0.19240207,0.46039890,0.73321675,13220,31635,50381,8444,20407,29144,0.12289870,0.29699338,0.42415230,0.51726460,0.57669118,0.71214113
0,0,Libya,,,2022-03-22 19:59:42.665897,2021-10-20,0.18317602,0.42715393,0.72304142,12586,29350,49682,7988,19136,28577,0.11625389,0.27849683,0.41589777,0.55751895,0.59694975,0.74615119
0,0,Libya,,,2022-03-22 19:59:42.665897,2021-10-21,0.17663430,0.40145744,0.72011107,12137,27585,49480,7644,17881,28277,0.11124649,0.26023057,0.41152987,0.60101652,0.62331702,0.78310750
0,0,Libya,,,2022-03-22 19:59:42.665897,2021-10-22,0.17171565,0.38218615,0.72174246,11799,26261,49592,7397,16816,28218,0.10766176,0.24474102,0.41067764,0.62744629,0.64746311,0.80577221
0,0,Libya,,,2022-03-22 19:59:42.665897,2021-10-23,0.16779830,0.36249270,0.72511017,11529,24907,49824,7211,16049,28309,0.10495669,0.23357659,0.41199418,0.63869120,0.65799575,0.81429034
0,0,Libya,,,2022-03-22 19:59:42.665897,2021-10-24,0.16434854,0.34538979,0.72713909,11292,23732,49963,7053,15240,28388,0.10265382,0.22179906,0.41314038,0.64173924,0.66280997,0.81416993
0,0,Libya,,,2022-03-22 19:59:42.665897,2021-10-25,0.16124470,0.32840799,0.72894845,11079,22565,50088,6910,14552,28497,0.10056797,0.21178001,0.41473933,0.64536959,0.66745914,0.80507833
0,0,Libya,,,2022-03-22 19:59:42.665897,2021-10-26,0.15860022,0.31469121,0.72595267,10897,21623,49882,6781,13834,28498,0.09869543,0.20134165,0.41475334,0.64833466,0.67671531,0.78188911
0,0,Libya,,,2022-03-22 19:59:42.665897,2021-10-27,0.15667875,0.30186213,0.71618151,10765,20741,49210,6678,13219,28298,0.09718823,0.19238328,0.41183885,0.65302021,0.69222156,0.74301366
0,0,Libya,,,2022-03-22 19:59:42.665897,2021-10-28,0.15534395,0.28897104,0.69930653,10674,19856,48051,6605,12657,27819,0.09613327,0.18420248,0.40486709,0.64091416,0.70303629,0.74744752
0,0,Libya,,,2022-03-22 19:59:42.665897,2021-10-29,0.15475913,0.28021573,0.67795271,10633,19254,46584,6560,12158,27102,0.09547221,0.17694400,0.39442423,0.62955417,0.68401217,0.75547681
0,0,Libya,,,2022-03-22 19:59:42.665897,2021-10-30,0.15414396,0.27204971,0.65427871,10591,18693,44957,6531,11703,26232,0.09504930,0.17032800,0.38177454,0.62508181,0.67628542,0.75898599
0,0,Libya,,,2022-03-22 19:59:42.665897,2021-10-31,0.15289877,0.26179696,0.63051663,10506,17988,43324,6510,11330,25303,0.09475198,0.16489065,0.36825248,0.62433214,0.67531572,0.75788870
0,0,Libya,,,2022-03-22 19:59:42.665897,2021-11-01,0.15265456,0.25279506,0.60806932,10489,17370,41782,6496,10966,24395,0.09455216,0.15960162,0.35503430,0.62653923,0.68024652,0.75300015
0,0,Libya,,,2022-03-22 19:59:42.665897,2021-11-02,0.15271359,0.24585495,0.58807602,10493,16893,40408,6462,10503,23551,0.09405415,0.15285652,0.34275130,0.63670455,0.71038022,0.73968955
0,0,Libya,,,2022-03-22 19:59:42.665897,2021-11-03,0.15090849,0.24085262,0.57199289,10369,16549,39303,6325,10237,22824,0.09206063,0.14899442,0.33216950,0.65880292,0.74279311,0.76693995
0,0,Libya,,,2022-03-22 19:59:42.665897,2021-11-04,0.14370745,0.23587650,0.55991805,9874,16207,38473,6195,9996,22249,0.09015957,0.14548556,0.32380015,0.66618987,0.75717868,0.82783266
0,0,Libya,,,2022-03-22 19:59:42.665897,2021-11-05,0.13937902,0.23317251,0.55047220,9577,16021,37824,5901,9944,21796,0.08588637,0.14473062,0.31721393,0.65915961,0.76987151,0.86502940
0,0,Libya,,,2022-03-22 19:59:42.665897,2021-11-06,0.13510720,0.23045713,0.54224525,9283,15835,37259,5642,9908,21427,0.08211480,0.14419822,0.31184096,0.65711635,0.77565641,0.87990372
0,0,Libya,,,2022-03-22 19:59:42.665897,2021-11-07,0.12849630,0.22886815,0.53435017,8829,15726,36716,5396,9761,21114,0.07853090,0.14206280,0.30728048,0.65911774,0.77948950,0.88243659
0,0,Libya,,,2022-03-22 19:59:42.665897,2021-11-08,0.12254167,0.22828866,0.52712798,8420,15686,36220,5234,9765,20829,0.07617833,0.14211736,0.30313601,0.66864928,0.78588823,0.87562928
0,0,Libya,,,2022-03-22 19:59:42.665897,2021-11-09,0.11952466,0.22661711,0.52089703,8212,15571,35792,5059,9786,20567,0.07363843,0.14242661,0.29932335,0.69171697,0.80044221,0.85586332
0,0,Libya,,,2022-03-22 19:59:42.665897,2021-11-10,0.11856851,0.22585460,0.51585964,8147,15519,35446,4873,9750,20340,0.07091979,0.14189740,0.29602376,0.73596992,0.80036413,0.87127883
0,0,Libya,,,2022-03-22 19:59:42.665897,2021-11-11,0.11915256,0.22394001,0.51205740,8187,15387,35184,4776,9679,20160,0.06951884,0.14087252,0.29339809,0.77378410,0.78875359,0.91863032
0,0,Libya,,,2022-03-22 19:59:42.665897,2021-11-12,0.12086545,0.22291605,0.50903924,8305,15317,34977,4821,9538,20021,0.07016551,0.13881245,0.29137416,0.76690348,0.79445542,0.94662093
0,0,Libya,,,2022-03-22 19:59:42.665897,2021-11-13,0.12317541,0.22832147,0.50637516,8463,15688,34794,4900,9548,19907,0.07131452,0.13896319,0.28971637,0.75967804,0.79712100,0.95635247
0,0,Libya,,,2022-03-22 19:59:42.665897,2021-11-14,0.12584569,0.24093731,0.50386285,8647,16555,34621,4998,9948,19804,0.07275081,0.14478959,0.28822730,0.75826569,0.79861215,0.95381977
0,0,Libya,,,2022-03-22 19:59:42.665897,2021-11-15,0.12890227,0.25334225,0.50152259,8857,17407,34461,5113,10526,19709,0.07442407,0.15319838,0.28683320,0.76054505,0.80326285,0.93623587
0,0,Libya,,,2022-03-22 19:59:42.665897,2021-11-16,0.13269480,0.26434765,0.49961731,9117,18164,34330,5250,11011,19624,0.07641034,0.16024729,0.28559474,0.76774983,0.81746803,0.89224546
0,0,Libya,,,2022-03-22 19:59:42.665897,2021-11-17,0.13777877,0.27145738,0.49853148,9467,18652,34255,5426,11389,19561,0.07897777,0.16575943,0.28468273,0.77971391,0.81512470,0.89832140
0,0,Libya,,,2022-03-22 19:59:42.665897,2021-11-18,0.14163019,0.27366173,0.49831659,9731,18804,34240,5659,11610,19530,0.08236109,0.16897066,0.28423690,0.74984893,0.80989626,0.93173688
0,0,Libya,,,2022-03-22 19:59:42.665897,2021-11-19,0.14536344,0.27403726,0.49862741,9988,18829,34262,5947,11665,19528,0.08655369,0.16977881,0.28420900,0.71395571,0.81671517,0.95459251
0,0,Libya,,,2022-03-22 19:59:42.665897,2021-11-20,0.14958035,0.27346356,0.49908362,10278,18790,34293,6224,11644,19542,0.09058422,0.16946659,0.28440164,0.70075383,0.81801150,0.96114355
0,0,Libya,,,2022-03-22 19:59:42.665897,2021-11-21,0.15709368,0.27240299,0.49984644,10794,18717,34345,6406,11613,19556,0.09323330,0.16901836,0.28461629,0.69908158,0.81751417,0.96117205
0,0,Libya,,,2022-03-22 19:59:42.665897,2021-11-22,0.16252082,0.27266760,0.49944203,11167,18735,34318,6589,11574,19564,0.09590583,0.16844535,0.28472759,0.70682077,0.81381657,0.95524196
0,0,Libya,,,2022-03-22 19:59:42.665897,2021-11-23,0.16580515,0.27224091,0.49757247,11392,18706,34189,6820,11606,19535,0.09926558,0.16891422,0.28430843,0.72975718,0.80415490,0.93845345
0,0,Libya,,,2022-03-22 19:59:42.665897,2021-11-24,0.17061350,0.27448156,0.49349263,11723,18860,33909,6876,11656,19436,0.10007198,0.16964323,0.28286065,0.77165736,0.78766015,0.90724023
0,0,Libya,,,2022-03-22 19:59:42.665897,2021-11-25,0.16964724,0.27768009,0.48690987,11656,19080,33456,6938,11750,19241,0.10097214,0.17101408,0.28003256,0.76137541,0.77385268,0.87774613
0,0,Libya,,,2022-03-22 19:59:42.665897,2021-11-26,0.16566665,0.28492523,0.47868543,11383,19578,32891,6984,11961,18962,0.10165472,0.17407445,0.27597010,0.75093009,0.76297554,0.86042229
0,0,Libya,,,2022-03-22 19:59:42.665897,2021-11-27,0.16205450,0.29071688,0.46963405,11135,19975,32269,7013,12243,18617,0.10207664,0.17817889,0.27095037,0.74273385,0.75926331,0.85440294
0,0,Libya,,,2022-03-22 19:59:42.665897,2021-11-28,0.15800715,0.30020823,0.45994314,10857,20628,31604,6886,12539,18275,0.10022214,0.18249023,0.26597399,0.73982573,0.75937710,0.85548431
0,0,Libya,,,2022-03-22 19:59:42.665897,2021-11-29,0.15419131,0.30944071,0.44979411,10594,21262,30906,6715,12933,17949,0.09773083,0.18822966,0.26122113,0.74094893,0.76361709,0.84877436
0,0,Libya,,,2022-03-22 19:59:42.665897,2021-11-30,0.15087239,0.31766010,0.43949065,10366,21827,30198,6570,13064,17675,0.09562373,0.19013404,0.25723148,0.74024839,0.77487975,0.84793723
0,0,Libya,,,2022-03-22 19:59:42.665897,2021-12-01,0.14841289,0.31771777,0.42873944,10197,21831,29459,6443,13102,17242,0.09377322,0.19068588,0.25093338,0.72650056,0.79461535,0.84792802
0,0,Libya,,,2022-03-22 19:59:42.665897,2021-12-02,0.14674734,0.31882031,0.41876741,10083,21907,28774,6352,13187,16793,0.09244578,0.19192464,0.24440498,0.71202975,0.77276030,0.84874132
0,0,Libya,,,2022-03-22 19:59:42.665897,2021-12-03,0.14567297,0.31577860,0.40506523,10009,21698,27833,6292,13033,16324,0.09157742,0.18967716,0.23757351,0.70404178,0.77724116,0.85108468
0,0,Libya,,,2022-03-22 19:59:42.665897,2021-12-04,0.14490323,0.31364281,0.39429186,9956,21551,27092,6252,12883,15903,0.09099606,0.18750471,0.23144268,0.70165124,0.77942870,0.85277476
0,0,Libya,,,2022-03-22 19:59:42.665897,2021-12-05,0.14432406,0.31244597,0.38283684,9916,21469,26305,6223,12762,15949,0.09057200,0.18573480,0.23211615,0.70342741,0.78137459,0.85265003
0,0,Libya,,,2022-03-22 19:59:42.665897,2021-12-06,0.14400511,0.31042081,0.38601270,9895,21329,26524,6203,12665,16085,0.09028461,0.18432264,0.23409846,0.71156444,0.78572381,0.85427304
0,0,Libya,,,2022-03-22 19:59:42.665897,2021-12-07,0.14424848,0.30790096,0.39073981,9911,21156,26848,6164,12582,16255,0.08970773,0.18311708,0.23656585,0.71560192,0.79576157,0.86344523
0,0,Libya,,,2022-03-22 19:59:42.665897,2021-12-08,0.14540477,0.30573368,0.39778634,9991,21007,27333,6191,12540,16496,0.09010134,0.18250690,0.24008192,0.69396402,0.81365087,0.89371718
0,0,Libya,,,2022-03-22 19:59:42.665897,2021-12-09,0.14777683,0.30323617,0.40747688,10154,20836,27998,6263,12569,16841,0.09115873,0.18292757,0.24509867,0.67297021,0.82934241,0.92536755
0,0,Libya,,,2022-03-22 19:59:42.665897,2021-12-10,0.15101289,0.30329578,0.41569848,10376,20840,28563,6379,12546,17181,0.09284073,0.18258674,0.25004602,0.66137650,0.84241399,0.94402555
0,0,Libya,,,2022-03-22 19:59:42.665897,2021-12-11,0.15468342,0.29999693,0.42364275,10628,20613,29109,6523,12509,17495,0.09494050,0.18206068,0.25462332,0.65763833,0.84906450,0.95120394
0,0,Libya,,,2022-03-22 19:59:42.665897,2021-12-12,0.15728165,0.29626066,0.43185277,10807,20356,29673,6600,12494,17834,0.09606394,0.18183026,0.25955269,0.65935276,0.85326677,0.95199790
0,0,Libya,,,2022-03-22 19:59:42.665897,2021-12-13,0.16085673,0.29291616,0.43903385,11052,20127,30167,6750,12315,18189,0.09824124,0.17923842,0.26472111,0.66865329,0.85962265,0.94744299
0,0,Libya,,,2022-03-22 19:59:42.665897,2021-12-14,0.16177188,0.29288816,0.44483117,11115,20125,30565,6887,12241,18548,0.10023851,0.17814864,0.26994885,0.69328177,0.87297515,0.93488428
0,0,Libya,,,2022-03-22 19:59:42.665897,2021-12-15,0.16344774,0.29366640,0.45949817,11230,20178,31573,6992,12185,18835,0.10176041,0.17733877,0.27411365,0.73824331,0.89564686,0.91429456
0,0,Libya,,,2022-03-22 19:59:42.665897,2021-12-16,0.16472290,0.29790776,0.47630187,11318,20470,32728,7036,12315,19256,0.10240230,0.17923624,0.28024112,0.78595335,0.88776595,0.92792112
0,0,Libya,,,2022-03-22 19:59:42.665897,2021-12-17,0.16535428,0.30317090,0.49111825,11361,20831,33746,7088,12489,19979,0.10316404,0.18176470,0.29077184,0.81466110,0.87778435,0.94323808
0,0,Libya,,,2022-03-22 19:59:42.665897,2021-12-18,0.16609803,0.30936542,0.50641338,11413,21257,34797,7141,12730,20764,0.10393935,0.18526671,0.30218996,0.82562893,0.87644038,0.94998363
0,0,Libya,,,2022-03-22 19:59:42.665897,2021-12-19,0.16752801,0.31642834,0.52686635,11511,21742,36202,7158,13000,21597,0.10418404,0.18920440,0.31431445,0.82622884,0.88065890,0.95720385
0,0,Libya,,,2022-03-22 19:59:42.665897,2021-12-20,0.16942504,0.32411064,0.54939406,11641,22270,37750,7188,13301,22405,0.10462163,0.19357745,0.32607937,0.81727248,0.89605340,0.97279346
0,0,Libya,,,2022-03-22 19:59:42.665897,2021-12-21,0.17251335,0.33196670,0.58144077,11853,22810,39952,7263,13607,23371,0.10571473,0.19803596,0.34013881,0.79231433,0.93714088,1.01173875
0,0,Libya,,,2022-03-22 19:59:42.665897,2021-12-22,0.17786416,0.34447201,0.62469160,12221,23669,42924,7437,13910,24662,0.10824595,0.20244777,0.35891999,0.75033557,1.01507414,1.08395989
0,0,Libya,,,2022-03-22 19:59:42.665897,2021-12-23,0.18592115,0.36360454,0.67928647,12775,24984,46675,7761,14420,26658,0.11295615,0.20986016,0.38797109,0.71060031,1.09930040,1.16156429
0,0,Libya,,,2022-03-22 19:59:42.665897,2021-12-24,0.19814167,0.39229359,0.74671123,13614,26955,51308,8240,15234,29153,0.11993160,0.22170590,0.42428504,0.68908709,1.15108049,1.20899279
0,0,Libya,,,2022-03-22 19:59:42.665897,2021-12-25,0.21140560,0.42296055,0.83946342,14526,29062,57681,8770,16471,32197,0.12764108,0.23971478,0.46858152,0.68225217,1.17425340,1.22878382
0,0,Libya,,,2022-03-22 19:59:42.665897,2021-12-26,0.22828137,0.45622390,0.94323858,15685,31348,64812,9308,17895,36257,0.13547084,0.26044342,0.52766666,0.68531519,1.18563315,1.23576044
0,0,Libya,,,2022-03-22 19:59:42.665897,2021-12-27,0.24331895,0.49738469,1.04127998,16719,34176,71549,9886,19317,40853,0.14387432,0.28112926,0.59455284,0.70218694,1.19870747,1.23944842
0,0,Libya,,,2022-03-22 19:59:42.665897,2021-12-28,0.25232966,0.53808056,1.17813820,17338,36973,80953,10661,21036,45686,0.15516141,0.30614675,0.66488748,0.74773085,1.22479230,1.24423712
0,0,Libya,,,2022-03-22 19:59:42.665897,2021-12-29,0.26466970,0.58804546,1.30989809,18186,40406,90006,10996,22916,51132,0.16003587,0.33350524,0.74415174,0.83403569,1.22958613,1.31459350
0,0,Libya,,,2022-03-22 19:59:42.665897,2021-12-30,0.28068963,0.65273831,1.47713910,19286,44851,101498,11587,25004,57348,0.16863068,0.36389553,0.83460797,0.93045679,1.22984528,1.39728653
0,0,Libya,,,2022-03-22 19:59:42.665897,2021-12-31,0.29850608,0.71716533,1.68740250,20511,49278,115946,12262,27367,64937,0.17846581,0.39828664,0.94505758,0.99143458,1.22947740,1.44212396
0,0,Libya,,,2022-03-22 19:59:42.665897,2022-01-01,0.32020019,0.78828999,1.92573948,22001,54165,132323,13087,29881,74463,0.19046292,0.43486875,1.08369793,1.01825085,1.22855059,1.46615236
0,0,Libya,,,2022-03-22 19:59:42.665897,2022-01-02,0.34390906,0.85688439,2.16049749,23630,58878,148453,14103,32560,85077,0.20525117,0.47386105,1.23816592,1.03049488,1.22582491,1.47167584
0,0,Libya,,,2022-03-22 19:59:42.665897,2022-01-03,0.37257083,0.92905633,2.44667995,25600,63838,168118,15174,35551,95791,0.22084548,0.51739552,1.39407685,1.04300661,1.21818998,1.46510057
0,0,Libya,,,2022-03-22 19:59:42.665897,2022-01-04,0.40697962,1.00995518,2.79333852,27964,69396,191938,16479,38858,107785,0.23982829,0.56551644,1.56864237,1.06727516,1.20484817,1.43928190
0,0,Libya,,,2022-03-22 19:59:42.665897,2022-01-05,0.44640366,1.09710282,3.18687843,30673,75385,218979,18074,42408,122506,0.26303807,0.61718804,1.78287268,1.10884832,1.18129127,1.39152677
0,0,Libya,,,2022-03-22 19:59:42.665897,2022-01-06,0.49460260,1.17855130,3.57328298,33985,80981,245530,19917,45881,137930,0.28986501,0.66772923,2.00734855,1.13250320,1.16284540,1.36732207
0,0,Libya,,,2022-03-22 19:59:42.665897,2022-01-07,0.55136384,1.25725155,4.00263305,37885,86389,275032,22130,49276,154375,0.32207855,0.71712973,2.24667274,1.11721371,1.17318410,1.35619478
0,0,Libya,,,2022-03-22 19:59:42.665897,2022-01-08,0.61589082,1.32502400,4.45820262,42319,91046,306335,24695,52091,172893,0.35940491,0.75810586,2.51616910,1.10894271,1.16965885,1.37827697
0,0,Libya,,,2022-03-22 19:59:42.665897,2022-01-09,0.68717101,1.39933795,4.83136044,47217,96152,331976,27572,55318,191051,0.40127499,0.80506193,2.78043019,1.10336283,1.16086014,1.37912222
0,0,Libya,,,2022-03-22 19:59:42.665897,2022-01-10,0.76259265,1.48663277,5.29231703,52399,102150,363650,30687,58182,210767,0.44661181,0.84675052,3.06737125,1.09560915,1.13638246,1.36119792
0,0,Libya,,,2022-03-22 19:59:42.665897,2022-01-11,0.83128042,1.56356822,5.73598224,57119,107437,394135,33852,61022,229475,0.49266849,0.88807903,3.33962696,1.04691308,1.09256139,1.31192757
0,0,Libya,,,2022-03-22 19:59:42.665897,2022-01-12,0.89071493,1.62067673,6.13898299,61203,111361,421827,36567,63817,245416,0.53218471,0.92875276,3.57161622,0.95069054,1.03700533,1.22975706
0,0,Libya,,,2022-03-22 19:59:42.665897,2022-01-13,0.92075192,1.67150746,6.32880173,63267,114854,434870,38807,65793,257544,0.56477659,0.95751213,3.74812252,0.86324412,0.98332028,1.15321016
0,0,Libya,,,2022-03-22 19:59:42.665897,2022-01-14,0.93959944,1.70679652,6.45813975,64562,117278,443757,39871,67292,267176,0.58026480,0.97932930,3.88830131,0.81698837,0.95451130,1.12274966
0,0,Libya,,,2022-03-22 19:59:42.665897,2022-01-15,0.93247299,1.73076928,6.56120630,64072,118926,450839,40200,68531,271447,0.58505388,0.99735455,3.95046802,0.80187687,0.94537962,1.11338762
0,0,Libya,,,2022-03-22 19:59:42.665897,2022-01-16,0.92381466,1.75865871,6.69912445,63477,120842,460316,39786,69642,274769,0.57902645,1.01352545,3.99880742,0.80605710,0.94938174,1.11320942
0,0,Libya,,,2022-03-22 19:59:42.665897,2022-01-17,0.90848649,1.75519587,6.85823651,62424,120604,471249,39476,71034,278578,0.57451569,1.03378188,4.05423598,0.83528197,0.97122027,1.12439923
0,0,Libya,,,2022-03-22 19:59:42.665897,2022-01-18,0.90829436,1.79305744,7.03700928,62411,123206,483533,39108,72793,280032,0.56915108,1.05938637,4.07539852,0.91613966,1.01694978,1.15852857
0,0,Libya,,,2022-03-22 19:59:42.665897,2022-01-19,0.94443205,1.87677380,7.03458885,64894,128958,483366,39685,74856,289082,0.57755783,1.08941745,4.20711082,1.07221129,1.08286907,1.23413490
0,0,Libya,,,2022-03-22 19:59:42.665897,2022-01-20,1.02936227,2.01339933,7.12649724,70730,138346,489682,41739,79212,292341,0.60744394,1.15280506,4.25453519,1.12405556,1.26524949,1.33795731
0,0,Libya,,,2022-03-22 19:59:42.665897,2022-01-21,1.13737804,2.21197900,7.29549418,78152,151991,501294,45424,86041,296112,0.66107016,1.25219432,4.30942240,1.13738961,1.37886384,1.41671144
0,0,Libya,,,2022-03-22 19:59:42.665897,2022-01-22,1.26441130,2.44401023,7.52664196,86881,167934,517177,50350,94858,305032,0.73277325,1.38050227,4.43922914,1.14466447,1.42846143,1.45570880
0,0,Libya,,,2022-03-22 19:59:42.665897,2022-01-23,1.40833723,2.69546250,7.60770715,96770,185212,522747,56358,104704,308114,0.82020546,1.52379170,4.48408654,1.15215283,1.44811994,1.48358901
0,0,Libya,,,2022-03-22 19:59:42.665897,2022-01-24,1.57192461,2.98255021,7.70786762,108011,204939,529629,63398,115998,316685,0.92265181,1.68815831,4.60881967,1.16900364,1.45719914,1.51431158
0,0,Libya,,,2022-03-22 19:59:42.665897,2022-01-25,1.78926084,3.31787232,7.89311806,122945,227980,542358,71813,128620,323425,1.04513028,1.87185307,4.70690882,1.21513819,1.47345223,1.57732447
0,0,Libya,,,2022-03-22 19:59:42.665897,2022-01-26,2.05308533,3.73009471,7.97091970,141073,256305,547704,82433,142874,328696,1.19967364,2.07929923,4.78362569,1.29135408,1.50781301,1.68956997
0,0,Libya,,,2022-03-22 19:59:42.665897,2022-01-27,2.42188611,4.22749528,8.13776587,166414,290483,559169,95391,161988,330017,1.38826489,2.35746409,4.80284477,1.36723828,1.56820999,1.80986017
0,0,Libya,,,2022-03-22 19:59:42.665897,2022-01-28,2.85715447,4.79202078,8.28439647,196323,329273,569244,111952,184903,339512,1.62928558,2.69096209,4.94103651,1.40333564,1.61173838,1.88471275
0,0,Libya,,,2022-03-22 19:59:42.665897,2022-01-29,3.40571947,5.48039806,8.42030121,234016,376573,578583,133343,210176,345904,1.94058435,3.05876853,5.03405777,1.41525318,1.62693376,1.91693548
0,0,Libya,,,2022-03-22 19:59:42.665897,2022-01-30,3.88554341,6.22736762,8.40435835,266986,427900,577487,152229,239983,349774,2.21544605,3.49255244,5.09037518,1.42240708,1.63212993,1.93019320
0,0,Libya,,,2022-03-22 19:59:42.665897,2022-01-31,4.53107810,6.93565373,8.43500303,311343,476568,579593,178488,268707,347092,2.59760318,3.91058377,5.05134524,1.43882593,1.63474244,1.93908435
0,0,Libya,,,2022-03-22 19:59:42.665897,2022-02-01,5.07471346,7.51807850,9.19200525,348698,516588,631609,201678,298642,371261,2.93508684,4.34623649,5.40308279,1.47116682,1.65733377,1.95333684
0,0,Libya,,,2022-03-22 19:59:42.665897,2022-02-02,5.51577528,7.86330021,10.47258737,379004,540309,719601,219868,315250,415295,3.19981358,4.58793981,6.04392198,1.45030374,1.69955631,1.97697078
0,0,Libya,,,2022-03-22 19:59:42.665897,2022-02-03,5.72514230,8.34292223,12.01531927,393390,573266,825607,236073,335176,475553,3.43564915,4.87793047,6.92088284,1.38081171,1.74955862,1.99949140
0,0,Libya,,,2022-03-22 19:59:42.665897,2022-02-04,5.86399276,8.88471225,13.61313645,402931,610494,935397,235093,365030,542518,3.42139237,5.31240893,7.89543527,1.34275981,1.78393567,2.01293545
0,0,Libya,,,2022-03-22 19:59:42.665897,2022-02-05,5.95927592,9.43124762,15.13651645,409478,648048,1040073,246693,390017,609442,3.59020224,5.67604109,8.86941497,1.32630476,1.80108459,2.01918225
0,0,Libya,,,2022-03-22 19:59:42.665897,2022-02-06,5.84000434,10.17527635,16.45600351,401283,699172,1130739,244113,413202,670713,3.55265470,6.01346968,9.76110439,1.31675660,1.80396341,2.02274729
0,0,Libya,,,2022-03-22 19:59:42.665897,2022-02-07,5.67552352,10.90529958,17.45862933,389981,749334,1199632,233959,446491,721121,3.40488991,6.49793840,10.49471434,1.30258894,1.79876005,2.02824049
0,0,Libya,,,2022-03-22 19:59:42.665897,2022-02-08,5.34891037,11.10716879,18.08395524,367538,763205,1242600,222456,471434,756738,3.23748310,6.86093318,11.01305263,1.27193070,1.78947767,2.04054777
0,0,Libya,,,2022-03-22 19:59:42.665897,2022-02-09,4.96166771,10.96272636,18.50279573,340930,753280,1271380,209593,468864,778447,3.05027769,6.82353445,11.32898989,1.22184616,1.79787175,2.06291422
0,0,Libya,,,2022-03-22 19:59:42.665897,2022-02-10,4.58534276,10.66744340,18.61856117,315072,732990,1279334,195391,459588,791682,2.84359428,6.68853764,11.52159708,1.17524497,1.80980490,2.08423256
0,0,Libya,,,2022-03-22 19:59:42.665897,2022-02-11,4.08630994,10.24264367,18.27928427,280782,703801,1256022,176047,444311,787646,2.56206883,6.46620635,11.46287088,1.14853282,1.81991593,2.09580031
0,0,Libya,,,2022-03-22 19:59:42.665897,2022-02-12,3.69089213,9.80157201,17.50708203,253611,673494,1202961,162492,424054,764400,2.36480956,6.17139287,11.12455543,1.13448987,1.82361601,2.09745523
0,0,Libya,,,2022-03-22 19:59:42.665897,2022-02-13,3.36981945,9.60743888,16.37502179,231549,660154,1125174,147191,410493,723896,2.14212944,5.97404669,10.53509404,1.12852573,1.82365888,2.08812210
0,0,Libya,,,2022-03-22 19:59:42.665897,2022-02-14,3.02381703,8.81125084,14.97788120,207775,605446,1029173,132093,397428,670137,1.92240318,5.78390611,9.75272492,1.12101906,1.82032395,2.05696914
0,0,Libya,,,2022-03-22 19:59:42.665897,2022-02-15,2.71944736,8.06491143,13.39926007,186861,554163,920701,118707,364109,606621,1.72759333,5.29900326,8.82835883,1.10480129,1.81227639,1.98096005
0,0,Libya,,,2022-03-22 19:59:42.665897,2022-02-16,2.47459050,7.21381366,11.72792051,170036,495681,805859,107519,329766,537161,1.56476419,4.79919290,7.81747324,1.07576938,1.79736174,1.85611116
0,0,Libya,,,2022-03-22 19:59:42.665897,2022-02-17,2.28668123,6.36587690,10.10177514,157124,437417,694121,98032,291867,466612,1.42669998,4.24764629,6.79075422,1.04700247,1.69089824,1.90489592
0,0,Libya,,,2022-03-22 19:59:42.665897,2022-02-18,2.13432119,5.61448963,8.78836777,146655,385787,603873,90401,261818,399924,1.31563767,3.81032692,5.82023061,1.03111099,1.64400026,1.98275471
0,0,Libya,,,2022-03-22 19:59:42.665897,2022-02-19,1.99490719,4.84843345,7.96268511,137075,333149,547138,83800,226083,361008,1.21958156,3.29025778,5.25387085,1.02505878,1.61856092,2.01344061
0,0,Libya,,,2022-03-22 19:59:42.665897,2022-02-20,1.86113456,4.14735531,7.12901036,127883,284976,489854,77740,194543,320669,1.13137812,2.83125214,4.66680980,1.02457329,1.60720981,2.00580873
0,0,Libya,,,2022-03-22 19:59:42.665897,2022-02-21,1.71353059,3.52483912,6.72345224,117741,242201,461987,71876,166195,294677,1.04604780,2.41869227,4.28853857,1.02908662,1.60344110,1.95052390
0,0,Libya,,,2022-03-22 19:59:42.665897,2022-02-22,1.54565770,3.01377224,6.22125054,106206,207084,427479,65629,140637,275536,0.95513171,2.04673581,4.00996689,1.04082434,1.57804358,1.81326825
0,0,Libya,,,2022-03-22 19:59:42.665897,2022-02-23,1.36244023,2.53564045,5.61743141,93617,174231,385989,59449,120074,252183,0.86518410,1.74748667,3.67010847,1.06226098,1.44780347,1.68604829
0,0,Libya,,,2022-03-22 19:59:42.665897,2022-02-24,1.20179643,2.14412063,4.95787223,82578,147328,340669,52501,100555,225401,0.76407500,1.46341956,3.28034325,1.08137098,1.32811584,1.73614261
0,0,Libya,,,2022-03-22 19:59:42.665897,2022-02-25,1.04068374,1.84491565,4.30742656,71508,126769,295975,45764,83939,197504,0.66601934,1.22159437,2.87434999,1.09096505,1.26516331,1.76538901
0,0,Libya,,,2022-03-22 19:59:42.665897,2022-02-26,0.90143387,1.60303299,3.70686458,61940,110148,254709,39603,70274,170807,0.57636596,1.02273077,2.48582219,1.09444023,1.24044108,1.77468410
0,0,Libya,,,2022-03-22 19:59:42.665897,2022-02-27,0.76991551,1.37951235,3.17199771,52903,94790,217957,34135,61487,146581,0.49678198,0.89484112,2.13325070,1.09511401,1.23494062,1.76945545
0,0,Libya,,,2022-03-22 19:59:42.665897,2022-02-28,0.65778667,1.16833506,2.70473001,45198,80279,185849,29209,52530,125636,0.42509547,0.76449747,1.82842356,1.09355999,1.23885244,1.74368333
0,0,Libya,,,2022-03-22 19:59:42.665897,2022-03-01,0.55827642,0.98108827,2.30808725,38360,67413,158595,24922,44816,107389,0.36271066,0.65222932,1.56287729,1.08906560,1.25584643,1.67913237
0,0,Libya,,,2022-03-22 19:59:42.665897,2022-03-02,0.46903201,0.81373830,1.96369332,32228,55914,134931,21119,37654,91520,0.30735827,0.54799077,1.33191989,1.03976445,1.28988708,1.57255705
0,0,Libya,,,2022-03-22 19:59:42.665897,2022-03-03,0.39843413,0.67196747,1.66605319,27377,46172,114479,17741,31248,77770,0.25820349,0.45476809,1.13181472,0.95505271,1.32441413,1.47248627
0,0,Libya,,,2022-03-22 19:59:42.665897,2022-03-04,0.33277226,0.54765269,1.41049867,22865,37630,96919,14976,25880,65920,0.21795262,0.37664983,0.95936020,0.90962160,1.34290208,1.41652827
0,0,Libya,,,2022-03-22 19:59:42.665897,2022-03-05,0.27343393,0.44769141,1.19224096,18788,30762,81922,12267,21106,55769,0.17853520,0.30716258,0.81162644,0.89303947,1.34661428,1.38996425
0,0,Libya,,,2022-03-22 19:59:42.665897,2022-03-06,0.22583952,0.36328621,1.00631130,15518,24962,69146,10314,17339,47109,0.15011332,0.25234483,0.68560116,0.89136526,1.33681817,1.38833669
0,0,Libya,,,2022-03-22 19:59:42.665897,2022-03-07,0.18807972,0.29550383,0.84771683,12923,20304,58249,8669,13976,39729,0.12617131,0.20339959,0.57819284,0.90247347,1.30300315,1.38445477
0,0,Libya,,,2022-03-22 19:59:42.665897,2022-03-08,0.15625885,0.23773915,0.71158086,10736,16335,48894,7195,11368,33417,0.10471792,0.16545159,0.48633126,0.93488471,1.21865345,1.37650296
0,0,Libya,,,2022-03-22 19:59:42.665897,2022-03-09,0.12725810,0.19035778,0.62617861,8744,13080,43026,5911,9166,27983,0.08603653,0.13340892,0.40724894,0.97360217,1.08248654,1.38663200
0,0,Libya,,,2022-03-22 19:59:42.665897,2022-03-10,0.10389312,0.15349824,0.55056927,7138,10547,37831,4848,7377,23573,0.07055620,0.10736091,0.34306755,0.92310428,0.96820519,1.39203795
0,0,Libya,,,2022-03-22 19:59:42.665897,2022-03-11,0.08358085,0.12592905,0.47456937,5743,8652,32609,4000,5962,20827,0.05822068,0.08677394,0.30311477,0.85323962,0.90566412,1.38393814
0,0,Libya,,,2022-03-22 19:59:42.665897,2022-03-12,0.06699932,0.10183225,0.39492031,4603,6997,27136,3248,4823,17895,0.04728271,0.07019386,0.26043536,0.82573523,0.88053073,1.37680366
0,0,Libya,,,2022-03-22 19:59:42.665897,2022-03-13,0.05383366,0.08269032,0.35329488,3699,5681,24275,2583,3912,15201,0.03759782,0.05693752,0.22122501,0.81584138,0.86936104,1.36794193
0,0,Libya,,,2022-03-22 19:59:42.665897,2022-03-14,0.04273383,0.06696899,0.30064139,2936,4601,20657,2086,3214,13282,0.03036504,0.04678693,0.19331032,0.81107924,0.86376433,1.33908775
0,0,Libya,,,2022-03-22 19:59:42.665897,2022-03-15,0.03388171,0.05418706,0.26505267,2328,3723,18212,1658,2570,11445,0.02412965,0.03741425,0.16657642,0.80586088,0.86254154,1.26985616
0,0,Libya,,,2022-03-22 19:59:42.665897,2022-03-16,0.02681638,0.04360686,0.23357613,1842,2996,16049,1313,2081,9967,0.01911708,0.03029063,0.14505575,0.79826706,0.86161075,1.17518796
0,0,Libya,,,2022-03-22 19:59:42.665897,2022-03-17,0.02118628,0.03545277,0.20705572,1455,2436,14227,1038,1690,8910,0.01511905,0.02460875,0.12967315,0.77065726,0.86863200,1.12560531
0,0,Libya,,,2022-03-22 19:59:42.665897,2022-03-18,0.01669260,0.02822946,0.18497465,1146,1939,12710,819,1333,7764,0.01193109,0.01940692,0.11299529,0.75263019,0.85015530,1.10516348
0,0,Libya,,,2022-03-22 19:59:42.665897,2022-03-19,0.01304895,0.02285352,0.16516771,896,1570,11349,637,1084,6935,0.00928266,0.01578320,0.10093339,0.74539275,0.84052618,1.09597743
0,0,Libya,,,2022-03-22 19:59:42.665897,2022-03-20,0.01016458,0.01837833,0.14743673,698,1262,10130,499,860,6192,0.00727034,0.01252498,0.09011643,0.74289255,0.83722293,1.09301475
0,0,Libya,,,2022-03-22 19:59:42.665897,2022-03-21,0.00796090,0.01462191,0.13158532,547,1004,9041,388,698,5527,0.00565786,0.01016210,0.08043740,0.74207392,0.83614373,1.09214378
0,0,Libya,,,2022-03-22 19:59:42.665897,2022-03-22,0.00616825,0.01170905,0.11742401,423,804,8068,301,556,4932,0.00439374,0.00810481,0.07178640,0.74181062,0.83579683,1.09175649
0,0,Libya,,,2022-03-22 19:59:42.665897,2022-03-23,0.00479171,0.00928871,0.10477741,329,638,7199,234,441,4401,0.00340868,0.00642155,0.06405879,0.74172642,0.83568592,1.09163254
0,0,Libya,,,2022-03-22 19:59:42.665897,2022-03-24,0.00373101,0.00754497,0.09348612,256,518,6423,182,350,3927,0.00265197,0.00509743,0.05715827,0.74169955,0.83565052,1.09159298
0,0,Libya,,,2022-03-22 19:59:42.665897,2022-03-25,0.00289741,0.00608407,0.08340655,199,418,5731,141,279,3504,0.00206232,0.00406622,0.05099760,0.74169098,0.83563923,1.09158036
0,0,Libya,,,2022-03-22 19:59:42.665897,2022-03-26,0.00225907,0.00490433,0.07440979,155,336,5112,110,222,3126,0.00160806,0.00324517,0.04549830,0.74168824,0.83563563,1.09157633
0,0,Libya,,,2022-03-22 19:59:42.665897,2022-03-27,0.00175224,0.00396197,0.06638038,120,272,4561,85,181,2789,0.00124653,0.00263825,0.04058994,0.74168737,0.83563448,1.09157505
0,0,Libya,,,2022-03-22 19:59:42.665897,2022-03-28,0.00135836,0.00317685,0.05921494,93,218,4068,66,145,2488,0.00096632,0.00212181,0.03620946,0.74168709,0.83563411,1.09157464
0,0,Libya,,,2022-03-22 19:59:42.665897,2022-03-29,0.00105307,0.00253765,0.05282103,72,174,3629,51,117,2219,0.00074914,0.00171568,0.03230044,0.74168701,0.83563400,1.09157451
0,0,Libya,,,2022-03-22 19:59:42.665897,2022-03-30,0.00081643,0.00202499,0.04711597,56,139,3237,39,94,1979,0.00058080,0.00137622,0.02881239,0.74168698,0.83563396,1.09157446
0,0,Libya,,,2022-03-22 19:59:42.665897,2022-03-31,0.00063300,0.00161614,0.04202586,43,111,2887,30,75,1765,0.00045031,0.00109765,0.02570019,0.74168697,0.83563395,1.09157445
0,0,Libya,,,2022-03-22 19:59:42.665897,2022-04-01,0.00049080,0.00129003,0.03748468,33,88,2575,23,60,1575,0.00034915,0.00087560,0.02292351,0.74168697,0.83563394,1.09157445
0,0,Libya,,,2022-03-22 19:59:42.665897,2022-04-02,0.00038056,0.00102987,0.03342912,26,70,2297,18,48,1404,0.00027073,0.00069857,0.02044631,0.74168696,0.83563394,1.09157445
0,0,Libya,,,2022-03-22 19:59:42.665897,2022-04-03,0.00029510,0.00082230,0.02976764,20,56,2045,14,38,1253,0.00020993,0.00055742,0.01823639,0.74168696,0.83563394,1.09157445
0,0,Libya,,,2022-03-22 19:59:42.665897,2022-04-04,0.00022883,0.00065666,0.02650672,15,45,1821,11,30,1115,0.00016279,0.00044485,0.01623909,0.74168696,0.83563394,1.09157445
0,0,Libya,,,2022-03-22 19:59:42.665897,2022-04-05,0.00017746,0.00052446,0.02360263,12,36,1621,8,24,993,0.00012624,0.00035507,0.01446009,0.74168696,0.83563394,1.09157445
