FIPS,HR_UID,nameid,province,region,analysisTime,dates,pointprevalence_025,pointprevalence_50,pointprevalence_975,pointinfections_025,pointinfections_50,pointinfections_975,pointinfectious_025,pointinfectious_50,pointinfectious_975,pointinfectiousprevalence_025,pointinfectiousprevalence_50,pointinfectiousprevalence_975,infectrate_025,infectrate_50,infectrate_975
31011,0,USNebraskaBoone,Nebraska,Boone,2022-04-28 09:13:11,2020-03-19,0,0,0,,,,,,,,,,,,
31011,0,USNebraskaBoone,Nebraska,Boone,2022-04-28 09:13:11,2020-03-20,0,0,0,,,,,,,,,,,,
31011,0,USNebraskaBoone,Nebraska,Boone,2022-04-28 09:13:11,2020-03-21,0,0,0,,,,,,,,,,,,
31011,0,USNebraskaBoone,Nebraska,Boone,2022-04-28 09:13:11,2020-03-22,0,0,0,,,,,,,,,,,,
31011,0,USNebraskaBoone,Nebraska,Boone,2022-04-28 09:13:11,2020-03-23,0,0,0,,,,,,,,,,,,
31011,0,USNebraskaBoone,Nebraska,Boone,2022-04-28 09:13:11,2020-03-24,0,0,0,,,,,,,,,,,,
31011,0,USNebraskaBoone,Nebraska,Boone,2022-04-28 09:13:11,2020-03-25,0,0,0,,,,,,,,,,,,
31011,0,USNebraskaBoone,Nebraska,Boone,2022-04-28 09:13:11,2020-03-26,0,0,0,,,,,,,,,,,,
31011,0,USNebraskaBoone,Nebraska,Boone,2022-04-28 09:13:11,2020-03-27,0,0,0,,,,,,,,,,,,
31011,0,USNebraskaBoone,Nebraska,Boone,2022-04-28 09:13:11,2020-03-28,0,0,0,,,,,,,,,,,,
31011,0,USNebraskaBoone,Nebraska,Boone,2022-04-28 09:13:11,2020-03-29,0,0,0,,,,,,,,,,,,
31011,0,USNebraskaBoone,Nebraska,Boone,2022-04-28 09:13:11,2020-03-30,0,0,0,,,,,,,,,,,,
31011,0,USNebraskaBoone,Nebraska,Boone,2022-04-28 09:13:11,2020-03-31,0,0,0,,,,,,,,,,,,
31011,0,USNebraskaBoone,Nebraska,Boone,2022-04-28 09:13:11,2020-04-01,0,0,0,,,,,,,,,,,,
31011,0,USNebraskaBoone,Nebraska,Boone,2022-04-28 09:13:11,2020-04-02,0,0,0,,,,,,,,,,,,
31011,0,USNebraskaBoone,Nebraska,Boone,2022-04-28 09:13:11,2020-04-03,0,0,0,,,,,,,,,,,,
31011,0,USNebraskaBoone,Nebraska,Boone,2022-04-28 09:13:11,2020-04-04,0,0,0,,,,,,,,,,,,
31011,0,USNebraskaBoone,Nebraska,Boone,2022-04-28 09:13:11,2020-04-05,0,0,0,,,,,,,,,,,,
31011,0,USNebraskaBoone,Nebraska,Boone,2022-04-28 09:13:11,2020-04-06,0,0,0,,,,,,,,,,,,
31011,0,USNebraskaBoone,Nebraska,Boone,2022-04-28 09:13:11,2020-04-07,0,0,0,,,,,,,,,,,,
31011,0,USNebraskaBoone,Nebraska,Boone,2022-04-28 09:13:11,2020-04-08,0,0,0,,,,,,,,,,,,
31011,0,USNebraskaBoone,Nebraska,Boone,2022-04-28 09:13:11,2020-04-09,0,0,0,,,,,,,,,,,,
31011,0,USNebraskaBoone,Nebraska,Boone,2022-04-28 09:13:11,2020-04-10,0,0,0,,,,,,,,,,,,
31011,0,USNebraskaBoone,Nebraska,Boone,2022-04-28 09:13:11,2020-04-11,0,0,0,,,,,,,,,,,,
31011,0,USNebraskaBoone,Nebraska,Boone,2022-04-28 09:13:11,2020-04-12,0,0,0,,,,,,,,,,,,
31011,0,USNebraskaBoone,Nebraska,Boone,2022-04-28 09:13:11,2020-04-13,0,0,0,,,,,,,,,,,,
31011,0,USNebraskaBoone,Nebraska,Boone,2022-04-28 09:13:11,2020-04-14,0,0,0,,,,,,,,,,,,
31011,0,USNebraskaBoone,Nebraska,Boone,2022-04-28 09:13:11,2020-04-15,0,0,0,,,,,,,,,,,,
31011,0,USNebraskaBoone,Nebraska,Boone,2022-04-28 09:13:11,2020-04-16,0,0,0,,,,,,,,,,,,
31011,0,USNebraskaBoone,Nebraska,Boone,2022-04-28 09:13:11,2020-04-17,0,0,0,,,,,,,,,,,,
31011,0,USNebraskaBoone,Nebraska,Boone,2022-04-28 09:13:11,2020-04-18,0,0,0,,,,,,,,,,,,
31011,0,USNebraskaBoone,Nebraska,Boone,2022-04-28 09:13:11,2020-04-19,0,0,0,,,,,,,,,,,,
31011,0,USNebraskaBoone,Nebraska,Boone,2022-04-28 09:13:11,2020-04-20,0,0,0,,,,,,,,,,,,
31011,0,USNebraskaBoone,Nebraska,Boone,2022-04-28 09:13:11,2020-04-21,0,0,0,,,,,,,,,,,,
31011,0,USNebraskaBoone,Nebraska,Boone,2022-04-28 09:13:11,2020-04-22,0,0,0,,,,,,,,,,,,
31011,0,USNebraskaBoone,Nebraska,Boone,2022-04-28 09:13:11,2020-04-23,0,0,0,,,,,,,,,,,,
31011,0,USNebraskaBoone,Nebraska,Boone,2022-04-28 09:13:11,2020-04-24,0,0,0,,,,,,,,,,,,
31011,0,USNebraskaBoone,Nebraska,Boone,2022-04-28 09:13:11,2020-04-25,0,0,0,,,,,,,,,,,,
31011,0,USNebraskaBoone,Nebraska,Boone,2022-04-28 09:13:11,2020-04-26,0,0,0,,,,,,,,,,,,
31011,0,USNebraskaBoone,Nebraska,Boone,2022-04-28 09:13:11,2020-04-27,0,0,0,,,,,,,,,,,,
31011,0,USNebraskaBoone,Nebraska,Boone,2022-04-28 09:13:11,2020-04-28,0,0,0,,,,,,,,,,,,
31011,0,USNebraskaBoone,Nebraska,Boone,2022-04-28 09:13:11,2020-04-29,0,0,0,,,,,,,,,,,,
31011,0,USNebraskaBoone,Nebraska,Boone,2022-04-28 09:13:11,2020-04-30,0.2963979741050443,0.954511982884032,3.2921621977059417,,,,,,,,,,,,
31011,0,USNebraskaBoone,Nebraska,Boone,2022-04-28 09:13:11,2020-05-01,0.2963979741050443,0.954511982884032,3.2921621977059417,,,,,,,,,,,,
31011,0,USNebraskaBoone,Nebraska,Boone,2022-04-28 09:13:11,2020-05-02,0.2963979741050443,0.954511982884032,3.2921621977059417,,,,,,,,,,,,
31011,0,USNebraskaBoone,Nebraska,Boone,2022-04-28 09:13:11,2020-05-03,0.2963979741050443,0.954511982884032,3.2921621977059417,,,,,,,,,,,,
31011,0,USNebraskaBoone,Nebraska,Boone,2022-04-28 09:13:11,2020-05-04,0.2963979741050443,0.954511982884032,3.2921621977059417,,,,,,,,,,,,
31011,0,USNebraskaBoone,Nebraska,Boone,2022-04-28 09:13:11,2020-05-05,0.2963979741050443,0.954511982884032,3.2921621977059417,,,,,,,,,,,,
31011,0,USNebraskaBoone,Nebraska,Boone,2022-04-28 09:13:11,2020-05-06,0.2963979741050443,0.954511982884032,3.2921621977059417,,,,,,,,,,,,
31011,0,USNebraskaBoone,Nebraska,Boone,2022-04-28 09:13:11,2020-05-07,0,0,0,,,,,,,,,,,,
31011,0,USNebraskaBoone,Nebraska,Boone,2022-04-28 09:13:11,2020-05-08,0,0,0,,,,,,,,,,,,
31011,0,USNebraskaBoone,Nebraska,Boone,2022-04-28 09:13:11,2020-05-09,0,0,0,,,,,,,,,,,,
31011,0,USNebraskaBoone,Nebraska,Boone,2022-04-28 09:13:11,2020-05-10,0,0,0,,,,,,,,,,,,
31011,0,USNebraskaBoone,Nebraska,Boone,2022-04-28 09:13:11,2020-05-11,0,0,0,,,,,,,,,,,,
31011,0,USNebraskaBoone,Nebraska,Boone,2022-04-28 09:13:11,2020-05-12,0,0,0,,,,,,,,,,,,
31011,0,USNebraskaBoone,Nebraska,Boone,2022-04-28 09:13:11,2020-05-13,0,0,0,,,,,,,,,,,,
31011,0,USNebraskaBoone,Nebraska,Boone,2022-04-28 09:13:11,2020-05-14,0.13794985009728078,0.41820260366498335,1.3601957749847036,,,,,,,,,,,,
31011,0,USNebraskaBoone,Nebraska,Boone,2022-04-28 09:13:11,2020-05-15,0.13794985009728078,0.41820260366498335,1.3601957749847036,,,,,,,,,,,,
31011,0,USNebraskaBoone,Nebraska,Boone,2022-04-28 09:13:11,2020-05-16,0.13794985009728078,0.41820260366498335,1.3601957749847036,,,,,,,,,,,,
31011,0,USNebraskaBoone,Nebraska,Boone,2022-04-28 09:13:11,2020-05-17,0.13794985009728078,0.41820260366498335,1.3601957749847036,,,,,,,,,,,,
31011,0,USNebraskaBoone,Nebraska,Boone,2022-04-28 09:13:11,2020-05-18,0.13794985009728078,0.41820260366498335,1.3601957749847036,,,,,,,,,,,,
31011,0,USNebraskaBoone,Nebraska,Boone,2022-04-28 09:13:11,2020-05-19,0.13794985009728078,0.41820260366498335,1.3601957749847036,,,,,,,,,,,,
31011,0,USNebraskaBoone,Nebraska,Boone,2022-04-28 09:13:11,2020-05-20,0.13794985009728078,0.41820260366498335,1.3601957749847036,,,,,,,,,,,,
31011,0,USNebraskaBoone,Nebraska,Boone,2022-04-28 09:13:11,2020-05-21,0,0,0,,,,,,,,,,,,
31011,0,USNebraskaBoone,Nebraska,Boone,2022-04-28 09:13:11,2020-05-22,0,0,0,,,,,,,,,,,,
31011,0,USNebraskaBoone,Nebraska,Boone,2022-04-28 09:13:11,2020-05-23,0,0,0,,,,,,,,,,,,
31011,0,USNebraskaBoone,Nebraska,Boone,2022-04-28 09:13:11,2020-05-24,0,0,0,,,,,,,,,,,,
31011,0,USNebraskaBoone,Nebraska,Boone,2022-04-28 09:13:11,2020-05-25,0,0,0,,,,,,,,,,,,
31011,0,USNebraskaBoone,Nebraska,Boone,2022-04-28 09:13:11,2020-05-26,0,0,0,,,,,,,,,,,,
31011,0,USNebraskaBoone,Nebraska,Boone,2022-04-28 09:13:11,2020-05-27,0,0,0,,,,,,,,,,,,
31011,0,USNebraskaBoone,Nebraska,Boone,2022-04-28 09:13:11,2020-05-28,0.3147552421508246,0.7527378396659258,1.9372112325188162,,,,,,,,,,,,
31011,0,USNebraskaBoone,Nebraska,Boone,2022-04-28 09:13:11,2020-05-29,0.3147552421508246,0.7527378396659258,1.9372112325188162,,,,,,,,,,,,
31011,0,USNebraskaBoone,Nebraska,Boone,2022-04-28 09:13:11,2020-05-30,0.3147552421508246,0.7527378396659258,1.9372112325188162,,,,,,,,,,,,
31011,0,USNebraskaBoone,Nebraska,Boone,2022-04-28 09:13:11,2020-05-31,0.3147552421508246,0.7527378396659258,1.9372112325188162,,,,,,,,,,,,
31011,0,USNebraskaBoone,Nebraska,Boone,2022-04-28 09:13:11,2020-06-01,0.3147552421508246,0.7527378396659258,1.9372112325188162,,,,,,,,,,,,
31011,0,USNebraskaBoone,Nebraska,Boone,2022-04-28 09:13:11,2020-06-02,0.3147552421508246,0.7527378396659258,1.9372112325188162,,,,,,,,,,,,
31011,0,USNebraskaBoone,Nebraska,Boone,2022-04-28 09:13:11,2020-06-03,0.3147552421508246,0.7527378396659258,1.9372112325188162,,,,,,,,,,,,
31011,0,USNebraskaBoone,Nebraska,Boone,2022-04-28 09:13:11,2020-06-04,0.1279258999238488,0.36364410164370087,1.1106843970926874,,,,,,,,,,,,
31011,0,USNebraskaBoone,Nebraska,Boone,2022-04-28 09:13:11,2020-06-05,0.1279258999238488,0.36364410164370087,1.1106843970926874,,,,,,,,,,,,
31011,0,USNebraskaBoone,Nebraska,Boone,2022-04-28 09:13:11,2020-06-06,0.1279258999238488,0.36364410164370087,1.1106843970926874,,,,,,,,,,,,
31011,0,USNebraskaBoone,Nebraska,Boone,2022-04-28 09:13:11,2020-06-07,0.1279258999238488,0.36364410164370087,1.1106843970926874,,,,,,,,,,,,
31011,0,USNebraskaBoone,Nebraska,Boone,2022-04-28 09:13:11,2020-06-08,0.1279258999238488,0.36364410164370087,1.1106843970926874,,,,,,,,,,,,
31011,0,USNebraskaBoone,Nebraska,Boone,2022-04-28 09:13:11,2020-06-09,0.1279258999238488,0.36364410164370087,1.1106843970926874,,,,,,,,,,,,
31011,0,USNebraskaBoone,Nebraska,Boone,2022-04-28 09:13:11,2020-06-10,0.1279258999238488,0.36364410164370087,1.1106843970926874,,,,,,,,,,,,
31011,0,USNebraskaBoone,Nebraska,Boone,2022-04-28 09:13:11,2020-06-11,0,0,0,,,,,,,,,,,,
31011,0,USNebraskaBoone,Nebraska,Boone,2022-04-28 09:13:11,2020-06-12,0,0,0,,,,,,,,,,,,
31011,0,USNebraskaBoone,Nebraska,Boone,2022-04-28 09:13:11,2020-06-13,0,0,0,,,,,,,,,,,,
31011,0,USNebraskaBoone,Nebraska,Boone,2022-04-28 09:13:11,2020-06-14,0,0,0,,,,,,,,,,,,
31011,0,USNebraskaBoone,Nebraska,Boone,2022-04-28 09:13:11,2020-06-15,0,0,0,,,,,,,,,,,,
31011,0,USNebraskaBoone,Nebraska,Boone,2022-04-28 09:13:11,2020-06-16,0,0,0,,,,,,,,,,,,
31011,0,USNebraskaBoone,Nebraska,Boone,2022-04-28 09:13:11,2020-06-17,0,0,0,,,,,,,,,,,,
31011,0,USNebraskaBoone,Nebraska,Boone,2022-04-28 09:13:11,2020-06-18,0,0,0,,,,,,,,,,,,
31011,0,USNebraskaBoone,Nebraska,Boone,2022-04-28 09:13:11,2020-06-19,0,0,0,,,,,,,,,,,,
31011,0,USNebraskaBoone,Nebraska,Boone,2022-04-28 09:13:11,2020-06-20,0,0,0,,,,,,,,,,,,
31011,0,USNebraskaBoone,Nebraska,Boone,2022-04-28 09:13:11,2020-06-21,0,0,0,,,,,,,,,,,,
31011,0,USNebraskaBoone,Nebraska,Boone,2022-04-28 09:13:11,2020-06-22,0,0,0,,,,,,,,,,,,
31011,0,USNebraskaBoone,Nebraska,Boone,2022-04-28 09:13:11,2020-06-23,0,0,0,,,,,,,,,,,,
31011,0,USNebraskaBoone,Nebraska,Boone,2022-04-28 09:13:11,2020-06-24,0,0,0,,,,,,,,,,,,
31011,0,USNebraskaBoone,Nebraska,Boone,2022-04-28 09:13:11,2020-06-25,0,0,0,,,,,,,,,,,,
31011,0,USNebraskaBoone,Nebraska,Boone,2022-04-28 09:13:11,2020-06-26,0,0,0,,,,,,,,,,,,
31011,0,USNebraskaBoone,Nebraska,Boone,2022-04-28 09:13:11,2020-06-27,0,0,0,,,,,,,,,,,,
31011,0,USNebraskaBoone,Nebraska,Boone,2022-04-28 09:13:11,2020-06-28,0,0,0,,,,,,,,,,,,
31011,0,USNebraskaBoone,Nebraska,Boone,2022-04-28 09:13:11,2020-06-29,0,0,0,,,,,,,,,,,,
31011,0,USNebraskaBoone,Nebraska,Boone,2022-04-28 09:13:11,2020-06-30,0,0,0,,,,,,,,,,,,
31011,0,USNebraskaBoone,Nebraska,Boone,2022-04-28 09:13:11,2020-07-01,0,0,0,,,,,,,,,,,,
31011,0,USNebraskaBoone,Nebraska,Boone,2022-04-28 09:13:11,2020-07-02,0,0,0,,,,,,,,,,,,
31011,0,USNebraskaBoone,Nebraska,Boone,2022-04-28 09:13:11,2020-07-03,0,0,0,,,,,,,,,,,,
31011,0,USNebraskaBoone,Nebraska,Boone,2022-04-28 09:13:11,2020-07-04,0,0,0,,,,,,,,,,,,
31011,0,USNebraskaBoone,Nebraska,Boone,2022-04-28 09:13:11,2020-07-05,0,0,0,,,,,,,,,,,,
31011,0,USNebraskaBoone,Nebraska,Boone,2022-04-28 09:13:11,2020-07-06,0,0,0,,,,,,,,,,,,
31011,0,USNebraskaBoone,Nebraska,Boone,2022-04-28 09:13:11,2020-07-07,0,0,0,,,,,,,,,,,,
31011,0,USNebraskaBoone,Nebraska,Boone,2022-04-28 09:13:11,2020-07-08,0,0,0,,,,,,,,,,,,
31011,0,USNebraskaBoone,Nebraska,Boone,2022-04-28 09:13:11,2020-07-09,0,0,0,,,,,,,,,,,,
31011,0,USNebraskaBoone,Nebraska,Boone,2022-04-28 09:13:11,2020-07-10,0,0,0,,,,,,,,,,,,
31011,0,USNebraskaBoone,Nebraska,Boone,2022-04-28 09:13:11,2020-07-11,0,0,0,,,,,,,,,,,,
31011,0,USNebraskaBoone,Nebraska,Boone,2022-04-28 09:13:11,2020-07-12,0,0,0,,,,,,,,,,,,
31011,0,USNebraskaBoone,Nebraska,Boone,2022-04-28 09:13:11,2020-07-13,0,0,0,,,,,,,,,,,,
31011,0,USNebraskaBoone,Nebraska,Boone,2022-04-28 09:13:11,2020-07-14,0,0,0,,,,,,,,,,,,
31011,0,USNebraskaBoone,Nebraska,Boone,2022-04-28 09:13:11,2020-07-15,0,0,0,,,,,,,,,,,,
31011,0,USNebraskaBoone,Nebraska,Boone,2022-04-28 09:13:11,2020-07-16,0,0,0,,,,,,,,,,,,
31011,0,USNebraskaBoone,Nebraska,Boone,2022-04-28 09:13:11,2020-07-17,0,0,0,,,,,,,,,,,,
31011,0,USNebraskaBoone,Nebraska,Boone,2022-04-28 09:13:11,2020-07-18,0,0,0,,,,,,,,,,,,
31011,0,USNebraskaBoone,Nebraska,Boone,2022-04-28 09:13:11,2020-07-19,0,0,0,,,,,,,,,,,,
31011,0,USNebraskaBoone,Nebraska,Boone,2022-04-28 09:13:11,2020-07-20,0,0,0,,,,,,,,,,,,
31011,0,USNebraskaBoone,Nebraska,Boone,2022-04-28 09:13:11,2020-07-21,0,0,0,,,,,,,,,,,,
31011,0,USNebraskaBoone,Nebraska,Boone,2022-04-28 09:13:11,2020-07-22,0,0,0,,,,,,,,,,,,
31011,0,USNebraskaBoone,Nebraska,Boone,2022-04-28 09:13:11,2020-07-23,0,0,0,,,,,,,,,,,,
31011,0,USNebraskaBoone,Nebraska,Boone,2022-04-28 09:13:11,2020-07-24,0,0,0,,,,,,,,,,,,
31011,0,USNebraskaBoone,Nebraska,Boone,2022-04-28 09:13:11,2020-07-25,0,0,0,,,,,,,,,,,,
31011,0,USNebraskaBoone,Nebraska,Boone,2022-04-28 09:13:11,2020-07-26,0,0,0,,,,,,,,,,,,
31011,0,USNebraskaBoone,Nebraska,Boone,2022-04-28 09:13:11,2020-07-27,0,0,0,,,,,,,,,,,,
31011,0,USNebraskaBoone,Nebraska,Boone,2022-04-28 09:13:11,2020-07-28,0,0,0,,,,,,,,,,,,
31011,0,USNebraskaBoone,Nebraska,Boone,2022-04-28 09:13:11,2020-07-29,0,0,0,,,,,,,,,,,,
31011,0,USNebraskaBoone,Nebraska,Boone,2022-04-28 09:13:11,2020-07-30,0.13118587539608695,0.3810349667607059,1.1886173943346567,,,,,,,,,,,,
31011,0,USNebraskaBoone,Nebraska,Boone,2022-04-28 09:13:11,2020-07-31,0.13118587539608695,0.3810349667607059,1.1886173943346567,,,,,,,,,,,,
31011,0,USNebraskaBoone,Nebraska,Boone,2022-04-28 09:13:11,2020-08-01,0.13118587539608695,0.3810349667607059,1.1886173943346567,,,,,,,,,,,,
31011,0,USNebraskaBoone,Nebraska,Boone,2022-04-28 09:13:11,2020-08-02,0.13118587539608695,0.3810349667607059,1.1886173943346567,,,,,,,,,,,,
31011,0,USNebraskaBoone,Nebraska,Boone,2022-04-28 09:13:11,2020-08-03,0.13118587539608695,0.3810349667607059,1.1886173943346567,,,,,,,,,,,,
31011,0,USNebraskaBoone,Nebraska,Boone,2022-04-28 09:13:11,2020-08-04,0.13118587539608695,0.3810349667607059,1.1886173943346567,,,,,,,,,,,,
31011,0,USNebraskaBoone,Nebraska,Boone,2022-04-28 09:13:11,2020-08-05,0.13118587539608695,0.3810349667607059,1.1886173943346567,,,,,,,,,,,,
31011,0,USNebraskaBoone,Nebraska,Boone,2022-04-28 09:13:11,2020-08-06,0.1272459361228078,0.3600600189498044,1.0948153748218896,,,,,,,,,,,,
31011,0,USNebraskaBoone,Nebraska,Boone,2022-04-28 09:13:11,2020-08-07,0.1272459361228078,0.3600600189498044,1.0948153748218896,,,,,,,,,,,,
31011,0,USNebraskaBoone,Nebraska,Boone,2022-04-28 09:13:11,2020-08-08,0.1272459361228078,0.3600600189498044,1.0948153748218896,,,,,,,,,,,,
31011,0,USNebraskaBoone,Nebraska,Boone,2022-04-28 09:13:11,2020-08-09,0.1272459361228078,0.3600600189498044,1.0948153748218896,,,,,,,,,,,,
31011,0,USNebraskaBoone,Nebraska,Boone,2022-04-28 09:13:11,2020-08-10,0.1272459361228078,0.3600600189498044,1.0948153748218896,,,,,,,,,,,,
31011,0,USNebraskaBoone,Nebraska,Boone,2022-04-28 09:13:11,2020-08-11,0.1272459361228078,0.3600600189498044,1.0948153748218896,,,,,,,,,,,,
31011,0,USNebraskaBoone,Nebraska,Boone,2022-04-28 09:13:11,2020-08-12,0.1272459361228078,0.3600600189498044,1.0948153748218896,,,,,,,,,,,,
31011,0,USNebraskaBoone,Nebraska,Boone,2022-04-28 09:13:11,2020-08-13,0.6259782616960333,1.1492720770082168,2.2528568134014724,,,,,,,,,,,,
31011,0,USNebraskaBoone,Nebraska,Boone,2022-04-28 09:13:11,2020-08-14,0.6259782616960333,1.1492720770082168,2.2528568134014724,,,,,,,,,,,,
31011,0,USNebraskaBoone,Nebraska,Boone,2022-04-28 09:13:11,2020-08-15,0.6259782616960333,1.1492720770082168,2.2528568134014724,,,,,,,,,,,,
31011,0,USNebraskaBoone,Nebraska,Boone,2022-04-28 09:13:11,2020-08-16,0.6259782616960333,1.1492720770082168,2.2528568134014724,,,,,,,,,,,,
31011,0,USNebraskaBoone,Nebraska,Boone,2022-04-28 09:13:11,2020-08-17,0.6259782616960333,1.1492720770082168,2.2528568134014724,,,,,,,,,,,,
31011,0,USNebraskaBoone,Nebraska,Boone,2022-04-28 09:13:11,2020-08-18,0.6259782616960333,1.1492720770082168,2.2528568134014724,,,,,,,,,,,,
31011,0,USNebraskaBoone,Nebraska,Boone,2022-04-28 09:13:11,2020-08-19,0.6259782616960333,1.1492720770082168,2.2528568134014724,,,,,,,,,,,,
31011,0,USNebraskaBoone,Nebraska,Boone,2022-04-28 09:13:11,2020-08-20,0.36342723744944244,0.7642711838157653,1.7261623675808566,,,,,,,,,,,,
31011,0,USNebraskaBoone,Nebraska,Boone,2022-04-28 09:13:11,2020-08-21,0.36342723744944244,0.7642711838157653,1.7261623675808566,,,,,,,,,,,,
31011,0,USNebraskaBoone,Nebraska,Boone,2022-04-28 09:13:11,2020-08-22,0.36342723744944244,0.7642711838157653,1.7261623675808566,,,,,,,,,,,,
31011,0,USNebraskaBoone,Nebraska,Boone,2022-04-28 09:13:11,2020-08-23,0.36342723744944244,0.7642711838157653,1.7261623675808566,,,,,,,,,,,,
31011,0,USNebraskaBoone,Nebraska,Boone,2022-04-28 09:13:11,2020-08-24,0.36342723744944244,0.7642711838157653,1.7261623675808566,,,,,,,,,,,,
31011,0,USNebraskaBoone,Nebraska,Boone,2022-04-28 09:13:11,2020-08-25,0.36342723744944244,0.7642711838157653,1.7261623675808566,,,,,,,,,,,,
31011,0,USNebraskaBoone,Nebraska,Boone,2022-04-28 09:13:11,2020-08-26,0.36342723744944244,0.7642711838157653,1.7261623675808566,,,,,,,,,,,,
31011,0,USNebraskaBoone,Nebraska,Boone,2022-04-28 09:13:11,2020-08-27,0.6399209326379942,1.1987597867221942,2.400407642708923,,,,,,,,,,,,
31011,0,USNebraskaBoone,Nebraska,Boone,2022-04-28 09:13:11,2020-08-28,0.6399209326379942,1.1987597867221942,2.400407642708923,,,,,,,,,,,,
31011,0,USNebraskaBoone,Nebraska,Boone,2022-04-28 09:13:11,2020-08-29,0.6399209326379942,1.1987597867221942,2.400407642708923,,,,,,,,,,,,
31011,0,USNebraskaBoone,Nebraska,Boone,2022-04-28 09:13:11,2020-08-30,0.6399209326379942,1.1987597867221942,2.400407642708923,,,,,,,,,,,,
31011,0,USNebraskaBoone,Nebraska,Boone,2022-04-28 09:13:11,2020-08-31,0.6399209326379942,1.1987597867221942,2.400407642708923,,,,,,,,,,,,
31011,0,USNebraskaBoone,Nebraska,Boone,2022-04-28 09:13:11,2020-09-01,0.6399209326379942,1.1987597867221942,2.400407642708923,,,,,,,,,,,,
31011,0,USNebraskaBoone,Nebraska,Boone,2022-04-28 09:13:11,2020-09-02,0.6399209326379942,1.1987597867221942,2.400407642708923,,,,,,,,,,,,
31011,0,USNebraskaBoone,Nebraska,Boone,2022-04-28 09:13:11,2020-09-03,0.74736852218371,1.3156673368643887,2.4661294540653023,,,,,,,,,,,,
31011,0,USNebraskaBoone,Nebraska,Boone,2022-04-28 09:13:11,2020-09-04,0.74736852218371,1.3156673368643887,2.4661294540653023,,,,,,,,,,,,
31011,0,USNebraskaBoone,Nebraska,Boone,2022-04-28 09:13:11,2020-09-05,0.74736852218371,1.3156673368643887,2.4661294540653023,,,,,,,,,,,,
31011,0,USNebraskaBoone,Nebraska,Boone,2022-04-28 09:13:11,2020-09-06,0.74736852218371,1.3156673368643887,2.4661294540653023,,,,,,,,,,,,
31011,0,USNebraskaBoone,Nebraska,Boone,2022-04-28 09:13:11,2020-09-07,0.74736852218371,1.3156673368643887,2.4661294540653023,,,,,,,,,,,,
31011,0,USNebraskaBoone,Nebraska,Boone,2022-04-28 09:13:11,2020-09-08,0.74736852218371,1.3156673368643887,2.4661294540653023,,,,,,,,,,,,
31011,0,USNebraskaBoone,Nebraska,Boone,2022-04-28 09:13:11,2020-09-09,0.74736852218371,1.3156673368643887,2.4661294540653023,,,,,,,,,,,,
31011,0,USNebraskaBoone,Nebraska,Boone,2022-04-28 09:13:11,2020-09-10,0.9937506874525471,1.668611378016063,2.9724373458396145,,,,,,,,,,,,
31011,0,USNebraskaBoone,Nebraska,Boone,2022-04-28 09:13:11,2020-09-11,0.9937506874525471,1.668611378016063,2.9724373458396145,,,,,,,,,,,,
31011,0,USNebraskaBoone,Nebraska,Boone,2022-04-28 09:13:11,2020-09-12,0.9937506874525471,1.668611378016063,2.9724373458396145,,,,,,,,,,,,
31011,0,USNebraskaBoone,Nebraska,Boone,2022-04-28 09:13:11,2020-09-13,0.9937506874525471,1.668611378016063,2.9724373458396145,,,,,,,,,,,,
31011,0,USNebraskaBoone,Nebraska,Boone,2022-04-28 09:13:11,2020-09-14,0.9937506874525471,1.668611378016063,2.9724373458396145,,,,,,,,,,,,
31011,0,USNebraskaBoone,Nebraska,Boone,2022-04-28 09:13:11,2020-09-15,0.9937506874525471,1.668611378016063,2.9724373458396145,,,,,,,,,,,,
31011,0,USNebraskaBoone,Nebraska,Boone,2022-04-28 09:13:11,2020-09-16,0.9937506874525471,1.668611378016063,2.9724373458396145,,,,,,,,,,,,
31011,0,USNebraskaBoone,Nebraska,Boone,2022-04-28 09:13:11,2020-09-17,1.4043470355397722,2.232522599565028,3.7466561882425844,,,,,,,,,,,,
31011,0,USNebraskaBoone,Nebraska,Boone,2022-04-28 09:13:11,2020-09-18,1.4043470355397722,2.232522599565028,3.7466561882425844,,,,,,,,,,,,
31011,0,USNebraskaBoone,Nebraska,Boone,2022-04-28 09:13:11,2020-09-19,1.4043470355397722,2.232522599565028,3.7466561882425844,,,,,,,,,,,,
31011,0,USNebraskaBoone,Nebraska,Boone,2022-04-28 09:13:11,2020-09-20,1.4043470355397722,2.232522599565028,3.7466561882425844,,,,,,,,,,,,
31011,0,USNebraskaBoone,Nebraska,Boone,2022-04-28 09:13:11,2020-09-21,1.4043470355397722,2.232522599565028,3.7466561882425844,,,,,,,,,,,,
31011,0,USNebraskaBoone,Nebraska,Boone,2022-04-28 09:13:11,2020-09-22,1.4043470355397722,2.232522599565028,3.7466561882425844,,,,,,,,,,,,
31011,0,USNebraskaBoone,Nebraska,Boone,2022-04-28 09:13:11,2020-09-23,1.4043470355397722,2.232522599565028,3.7466561882425844,,,,,,,,,,,,
31011,0,USNebraskaBoone,Nebraska,Boone,2022-04-28 09:13:11,2020-09-24,1.08652407146816,1.8586201958998718,3.378107150099023,,,,,,,,,,,,
31011,0,USNebraskaBoone,Nebraska,Boone,2022-04-28 09:13:11,2020-09-25,1.08652407146816,1.8586201958998718,3.378107150099023,,,,,,,,,,,,
31011,0,USNebraskaBoone,Nebraska,Boone,2022-04-28 09:13:11,2020-09-26,1.08652407146816,1.8586201958998718,3.378107150099023,,,,,,,,,,,,
31011,0,USNebraskaBoone,Nebraska,Boone,2022-04-28 09:13:11,2020-09-27,1.08652407146816,1.8586201958998718,3.378107150099023,,,,,,,,,,,,
31011,0,USNebraskaBoone,Nebraska,Boone,2022-04-28 09:13:11,2020-09-28,1.08652407146816,1.8586201958998718,3.378107150099023,,,,,,,,,,,,
31011,0,USNebraskaBoone,Nebraska,Boone,2022-04-28 09:13:11,2020-09-29,1.08652407146816,1.8586201958998718,3.378107150099023,,,,,,,,,,,,
31011,0,USNebraskaBoone,Nebraska,Boone,2022-04-28 09:13:11,2020-09-30,1.08652407146816,1.8586201958998718,3.378107150099023,,,,,,,,,,,,
31011,0,USNebraskaBoone,Nebraska,Boone,2022-04-28 09:13:11,2020-10-01,1.2355502676011207,1.914486624092699,3.1234979211832914,,,,,,,,,,,,
31011,0,USNebraskaBoone,Nebraska,Boone,2022-04-28 09:13:11,2020-10-02,1.2355502676011207,1.914486624092699,3.1234979211832914,,,,,,,,,,,,
31011,0,USNebraskaBoone,Nebraska,Boone,2022-04-28 09:13:11,2020-10-03,1.2355502676011207,1.914486624092699,3.1234979211832914,,,,,,,,,,,,
31011,0,USNebraskaBoone,Nebraska,Boone,2022-04-28 09:13:11,2020-10-04,1.2355502676011207,1.914486624092699,3.1234979211832914,,,,,,,,,,,,
31011,0,USNebraskaBoone,Nebraska,Boone,2022-04-28 09:13:11,2020-10-05,1.2355502676011207,1.914486624092699,3.1234979211832914,,,,,,,,,,,,
31011,0,USNebraskaBoone,Nebraska,Boone,2022-04-28 09:13:11,2020-10-06,1.2355502676011207,1.914486624092699,3.1234979211832914,,,,,,,,,,,,
31011,0,USNebraskaBoone,Nebraska,Boone,2022-04-28 09:13:11,2020-10-07,1.2355502676011207,1.914486624092699,3.1234979211832914,,,,,,,,,,,,
31011,0,USNebraskaBoone,Nebraska,Boone,2022-04-28 09:13:11,2020-10-08,0.9834440398724168,1.6355818059465894,2.8835231593152564,,,,,,,,,,,,
31011,0,USNebraskaBoone,Nebraska,Boone,2022-04-28 09:13:11,2020-10-09,0.9834440398724168,1.6355818059465894,2.8835231593152564,,,,,,,,,,,,
31011,0,USNebraskaBoone,Nebraska,Boone,2022-04-28 09:13:11,2020-10-10,0.9834440398724168,1.6355818059465894,2.8835231593152564,,,,,,,,,,,,
31011,0,USNebraskaBoone,Nebraska,Boone,2022-04-28 09:13:11,2020-10-11,0.9834440398724168,1.6355818059465894,2.8835231593152564,,,,,,,,,,,,
31011,0,USNebraskaBoone,Nebraska,Boone,2022-04-28 09:13:11,2020-10-12,0.9834440398724168,1.6355818059465894,2.8835231593152564,,,,,,,,,,,,
31011,0,USNebraskaBoone,Nebraska,Boone,2022-04-28 09:13:11,2020-10-13,0.9834440398724168,1.6355818059465894,2.8835231593152564,,,,,,,,,,,,
31011,0,USNebraskaBoone,Nebraska,Boone,2022-04-28 09:13:11,2020-10-14,0.9834440398724168,1.6355818059465894,2.8835231593152564,,,,,,,,,,,,
31011,0,USNebraskaBoone,Nebraska,Boone,2022-04-28 09:13:11,2020-10-15,0.9433345789537935,1.6163202995543258,2.9429032368128065,,,,,,,,,,,,
31011,0,USNebraskaBoone,Nebraska,Boone,2022-04-28 09:13:11,2020-10-16,0.9433345789537935,1.6163202995543258,2.9429032368128065,,,,,,,,,,,,
31011,0,USNebraskaBoone,Nebraska,Boone,2022-04-28 09:13:11,2020-10-17,0.9433345789537935,1.6163202995543258,2.9429032368128065,,,,,,,,,,,,
31011,0,USNebraskaBoone,Nebraska,Boone,2022-04-28 09:13:11,2020-10-18,0.9433345789537935,1.6163202995543258,2.9429032368128065,,,,,,,,,,,,
31011,0,USNebraskaBoone,Nebraska,Boone,2022-04-28 09:13:11,2020-10-19,0.9433345789537935,1.6163202995543258,2.9429032368128065,,,,,,,,,,,,
31011,0,USNebraskaBoone,Nebraska,Boone,2022-04-28 09:13:11,2020-10-20,0.9433345789537935,1.6163202995543258,2.9429032368128065,,,,,,,,,,,,
31011,0,USNebraskaBoone,Nebraska,Boone,2022-04-28 09:13:11,2020-10-21,0.9433345789537935,1.6163202995543258,2.9429032368128065,,,,,,,,,,,,
31011,0,USNebraskaBoone,Nebraska,Boone,2022-04-28 09:13:11,2020-10-22,1.3545038410660137,2.1784147628114225,3.7026580153523105,,,,,,,,,,,,
31011,0,USNebraskaBoone,Nebraska,Boone,2022-04-28 09:13:11,2020-10-23,1.3545038410660137,2.1784147628114225,3.7026580153523105,,,,,,,,,,,,
31011,0,USNebraskaBoone,Nebraska,Boone,2022-04-28 09:13:11,2020-10-24,1.3545038410660137,2.1784147628114225,3.7026580153523105,,,,,,,,,,,,
31011,0,USNebraskaBoone,Nebraska,Boone,2022-04-28 09:13:11,2020-10-25,1.3545038410660137,2.1784147628114225,3.7026580153523105,,,,,,,,,,,,
31011,0,USNebraskaBoone,Nebraska,Boone,2022-04-28 09:13:11,2020-10-26,1.3545038410660137,2.1784147628114225,3.7026580153523105,,,,,,,,,,,,
31011,0,USNebraskaBoone,Nebraska,Boone,2022-04-28 09:13:11,2020-10-27,1.3545038410660137,2.1784147628114225,3.7026580153523105,,,,,,,,,,,,
31011,0,USNebraskaBoone,Nebraska,Boone,2022-04-28 09:13:11,2020-10-28,1.3545038410660137,2.1784147628114225,3.7026580153523105,,,,,,,,,,,,
31011,0,USNebraskaBoone,Nebraska,Boone,2022-04-28 09:13:11,2020-10-29,1.8084422203741206,2.879086614799854,4.839415325891781,,,,,,,,,,,,
31011,0,USNebraskaBoone,Nebraska,Boone,2022-04-28 09:13:11,2020-10-30,1.8084422203741206,2.879086614799854,4.839415325891781,,,,,,,,,,,,
31011,0,USNebraskaBoone,Nebraska,Boone,2022-04-28 09:13:11,2020-10-31,1.8084422203741206,2.879086614799854,4.839415325891781,,,,,,,,,,,,
31011,0,USNebraskaBoone,Nebraska,Boone,2022-04-28 09:13:11,2020-11-01,1.8084422203741206,2.879086614799854,4.839415325891781,,,,,,,,,,,,
31011,0,USNebraskaBoone,Nebraska,Boone,2022-04-28 09:13:11,2020-11-02,1.8084422203741206,2.879086614799854,4.839415325891781,,,,,,,,,,,,
31011,0,USNebraskaBoone,Nebraska,Boone,2022-04-28 09:13:11,2020-11-03,1.8084422203741206,2.879086614799854,4.839415325891781,,,,,,,,,,,,
31011,0,USNebraskaBoone,Nebraska,Boone,2022-04-28 09:13:11,2020-11-04,1.8084422203741206,2.879086614799854,4.839415325891781,,,,,,,,,,,,
31011,0,USNebraskaBoone,Nebraska,Boone,2022-04-28 09:13:11,2020-11-05,2.7714837340525804,4.259604053761965,6.887289783578372,,,,,,,,,,,,
31011,0,USNebraskaBoone,Nebraska,Boone,2022-04-28 09:13:11,2020-11-06,2.7714837340525804,4.259604053761965,6.887289783578372,,,,,,,,,,,,
31011,0,USNebraskaBoone,Nebraska,Boone,2022-04-28 09:13:11,2020-11-07,2.7714837340525804,4.259604053761965,6.887289783578372,,,,,,,,,,,,
31011,0,USNebraskaBoone,Nebraska,Boone,2022-04-28 09:13:11,2020-11-08,2.7714837340525804,4.259604053761965,6.887289783578372,,,,,,,,,,,,
31011,0,USNebraskaBoone,Nebraska,Boone,2022-04-28 09:13:11,2020-11-09,2.7714837340525804,4.259604053761965,6.887289783578372,,,,,,,,,,,,
31011,0,USNebraskaBoone,Nebraska,Boone,2022-04-28 09:13:11,2020-11-10,2.7714837340525804,4.259604053761965,6.887289783578372,,,,,,,,,,,,
31011,0,USNebraskaBoone,Nebraska,Boone,2022-04-28 09:13:11,2020-11-11,2.7714837340525804,4.259604053761965,6.887289783578372,,,,,,,,,,,,
31011,0,USNebraskaBoone,Nebraska,Boone,2022-04-28 09:13:11,2020-11-12,3.0435591037430174,4.608341363143236,7.328609387335902,,,,,,,,,,,,
31011,0,USNebraskaBoone,Nebraska,Boone,2022-04-28 09:13:11,2020-11-13,3.0435591037430174,4.608341363143236,7.328609387335902,,,,,,,,,,,,
31011,0,USNebraskaBoone,Nebraska,Boone,2022-04-28 09:13:11,2020-11-14,3.0435591037430174,4.608341363143236,7.328609387335902,,,,,,,,,,,,
31011,0,USNebraskaBoone,Nebraska,Boone,2022-04-28 09:13:11,2020-11-15,3.0435591037430174,4.608341363143236,7.328609387335902,,,,,,,,,,,,
31011,0,USNebraskaBoone,Nebraska,Boone,2022-04-28 09:13:11,2020-11-16,3.0435591037430174,4.608341363143236,7.328609387335902,,,,,,,,,,,,
31011,0,USNebraskaBoone,Nebraska,Boone,2022-04-28 09:13:11,2020-11-17,3.0435591037430174,4.608341363143236,7.328609387335902,,,,,,,,,,,,
31011,0,USNebraskaBoone,Nebraska,Boone,2022-04-28 09:13:11,2020-11-18,3.0435591037430174,4.608341363143236,7.328609387335902,,,,,,,,,,,,
31011,0,USNebraskaBoone,Nebraska,Boone,2022-04-28 09:13:11,2020-11-19,1.6480125176631757,2.7911633919751195,5.0187695773653695,,,,,,,,,,,,
31011,0,USNebraskaBoone,Nebraska,Boone,2022-04-28 09:13:11,2020-11-20,1.6480125176631757,2.7911633919751195,5.0187695773653695,,,,,,,,,,,,
31011,0,USNebraskaBoone,Nebraska,Boone,2022-04-28 09:13:11,2020-11-21,1.6480125176631757,2.7911633919751195,5.0187695773653695,,,,,,,,,,,,
31011,0,USNebraskaBoone,Nebraska,Boone,2022-04-28 09:13:11,2020-11-22,1.6480125176631757,2.7911633919751195,5.0187695773653695,,,,,,,,,,,,
31011,0,USNebraskaBoone,Nebraska,Boone,2022-04-28 09:13:11,2020-11-23,1.6480125176631757,2.7911633919751195,5.0187695773653695,,,,,,,,,,,,
31011,0,USNebraskaBoone,Nebraska,Boone,2022-04-28 09:13:11,2020-11-24,1.6480125176631757,2.7911633919751195,5.0187695773653695,,,,,,,,,,,,
31011,0,USNebraskaBoone,Nebraska,Boone,2022-04-28 09:13:11,2020-11-25,1.6480125176631757,2.7911633919751195,5.0187695773653695,,,,,,,,,,,,
31011,0,USNebraskaBoone,Nebraska,Boone,2022-04-28 09:13:11,2020-11-26,2.836616931916728,4.2720125335189,6.753330100316887,,,,,,,,,,,,
31011,0,USNebraskaBoone,Nebraska,Boone,2022-04-28 09:13:11,2020-11-27,2.836616931916728,4.2720125335189,6.753330100316887,,,,,,,,,,,,
31011,0,USNebraskaBoone,Nebraska,Boone,2022-04-28 09:13:11,2020-11-28,2.836616931916728,4.2720125335189,6.753330100316887,,,,,,,,,,,,
31011,0,USNebraskaBoone,Nebraska,Boone,2022-04-28 09:13:11,2020-11-29,2.836616931916728,4.2720125335189,6.753330100316887,,,,,,,,,,,,
31011,0,USNebraskaBoone,Nebraska,Boone,2022-04-28 09:13:11,2020-11-30,2.836616931916728,4.2720125335189,6.753330100316887,,,,,,,,,,,,
31011,0,USNebraskaBoone,Nebraska,Boone,2022-04-28 09:13:11,2020-12-01,2.836616931916728,4.2720125335189,6.753330100316887,,,,,,,,,,,,
31011,0,USNebraskaBoone,Nebraska,Boone,2022-04-28 09:13:11,2020-12-02,2.836616931916728,4.2720125335189,6.753330100316887,,,,,,,,,,,,
31011,0,USNebraskaBoone,Nebraska,Boone,2022-04-28 09:13:11,2020-12-03,1.9530357586207796,3.1248890372042926,5.281507983894424,,,,,,,,,,,,
31011,0,USNebraskaBoone,Nebraska,Boone,2022-04-28 09:13:11,2020-12-04,1.9530357586207796,3.1248890372042926,5.281507983894424,,,,,,,,,,,,
31011,0,USNebraskaBoone,Nebraska,Boone,2022-04-28 09:13:11,2020-12-05,1.9530357586207796,3.1248890372042926,5.281507983894424,,,,,,,,,,,,
31011,0,USNebraskaBoone,Nebraska,Boone,2022-04-28 09:13:11,2020-12-06,1.9530357586207796,3.1248890372042926,5.281507983894424,,,,,,,,,,,,
31011,0,USNebraskaBoone,Nebraska,Boone,2022-04-28 09:13:11,2020-12-07,1.9530357586207796,3.1248890372042926,5.281507983894424,,,,,,,,,,,,
31011,0,USNebraskaBoone,Nebraska,Boone,2022-04-28 09:13:11,2020-12-08,1.9530357586207796,3.1248890372042926,5.281507983894424,,,,,,,,,,,,
31011,0,USNebraskaBoone,Nebraska,Boone,2022-04-28 09:13:11,2020-12-09,1.9530357586207796,3.1248890372042926,5.281507983894424,,,,,,,,,,,,
31011,0,USNebraskaBoone,Nebraska,Boone,2022-04-28 09:13:11,2020-12-10,1.3797441252618443,2.2569129584954095,3.9077341025792274,,,,,,,,,,,,
31011,0,USNebraskaBoone,Nebraska,Boone,2022-04-28 09:13:11,2020-12-11,1.3797441252618443,2.2569129584954095,3.9077341025792274,,,,,,,,,,,,
31011,0,USNebraskaBoone,Nebraska,Boone,2022-04-28 09:13:11,2020-12-12,1.3797441252618443,2.2569129584954095,3.9077341025792274,,,,,,,,,,,,
31011,0,USNebraskaBoone,Nebraska,Boone,2022-04-28 09:13:11,2020-12-13,1.3797441252618443,2.2569129584954095,3.9077341025792274,,,,,,,,,,,,
31011,0,USNebraskaBoone,Nebraska,Boone,2022-04-28 09:13:11,2020-12-14,1.3797441252618443,2.2569129584954095,3.9077341025792274,,,,,,,,,,,,
31011,0,USNebraskaBoone,Nebraska,Boone,2022-04-28 09:13:11,2020-12-15,1.3797441252618443,2.2569129584954095,3.9077341025792274,,,,,,,,,,,,
31011,0,USNebraskaBoone,Nebraska,Boone,2022-04-28 09:13:11,2020-12-16,1.3797441252618443,2.2569129584954095,3.9077341025792274,,,,,,,,,,,,
31011,0,USNebraskaBoone,Nebraska,Boone,2022-04-28 09:13:11,2020-12-17,1.3324549912187944,2.2126461797112262,3.8944210340145933,,,,,,,,,,,,
31011,0,USNebraskaBoone,Nebraska,Boone,2022-04-28 09:13:11,2020-12-18,1.3324549912187944,2.2126461797112262,3.8944210340145933,,,,,,,,,,,,
31011,0,USNebraskaBoone,Nebraska,Boone,2022-04-28 09:13:11,2020-12-19,1.3324549912187944,2.2126461797112262,3.8944210340145933,,,,,,,,,,,,
31011,0,USNebraskaBoone,Nebraska,Boone,2022-04-28 09:13:11,2020-12-20,1.3324549912187944,2.2126461797112262,3.8944210340145933,,,,,,,,,,,,
31011,0,USNebraskaBoone,Nebraska,Boone,2022-04-28 09:13:11,2020-12-21,1.3324549912187944,2.2126461797112262,3.8944210340145933,,,,,,,,,,,,
31011,0,USNebraskaBoone,Nebraska,Boone,2022-04-28 09:13:11,2020-12-22,1.3324549912187944,2.2126461797112262,3.8944210340145933,,,,,,,,,,,,
31011,0,USNebraskaBoone,Nebraska,Boone,2022-04-28 09:13:11,2020-12-23,1.3324549912187944,2.2126461797112262,3.8944210340145933,,,,,,,,,,,,
31011,0,USNebraskaBoone,Nebraska,Boone,2022-04-28 09:13:11,2020-12-24,0.9719013437337869,1.7114550197339804,3.2090508414423944,,,,,,,,,,,,
31011,0,USNebraskaBoone,Nebraska,Boone,2022-04-28 09:13:11,2020-12-25,0.9719013437337869,1.7114550197339804,3.2090508414423944,,,,,,,,,,,,
31011,0,USNebraskaBoone,Nebraska,Boone,2022-04-28 09:13:11,2020-12-26,0.9719013437337869,1.7114550197339804,3.2090508414423944,,,,,,,,,,,,
31011,0,USNebraskaBoone,Nebraska,Boone,2022-04-28 09:13:11,2020-12-27,0.9719013437337869,1.7114550197339804,3.2090508414423944,,,,,,,,,,,,
31011,0,USNebraskaBoone,Nebraska,Boone,2022-04-28 09:13:11,2020-12-28,0.9719013437337869,1.7114550197339804,3.2090508414423944,,,,,,,,,,,,
31011,0,USNebraskaBoone,Nebraska,Boone,2022-04-28 09:13:11,2020-12-29,0.9719013437337869,1.7114550197339804,3.2090508414423944,,,,,,,,,,,,
31011,0,USNebraskaBoone,Nebraska,Boone,2022-04-28 09:13:11,2020-12-30,0.9719013437337869,1.7114550197339804,3.2090508414423944,,,,,,,,,,,,
31011,0,USNebraskaBoone,Nebraska,Boone,2022-04-28 09:13:11,2020-12-31,1.6404881760890857,2.6608063719885284,4.5646886058340925,,,,,,,,,,,,
31011,0,USNebraskaBoone,Nebraska,Boone,2022-04-28 09:13:11,2021-01-01,1.6404881760890857,2.6608063719885284,4.5646886058340925,,,,,,,,,,,,
31011,0,USNebraskaBoone,Nebraska,Boone,2022-04-28 09:13:11,2021-01-02,1.6404881760890857,2.6608063719885284,4.5646886058340925,,,,,,,,,,,,
31011,0,USNebraskaBoone,Nebraska,Boone,2022-04-28 09:13:11,2021-01-03,1.6404881760890857,2.6608063719885284,4.5646886058340925,,,,,,,,,,,,
31011,0,USNebraskaBoone,Nebraska,Boone,2022-04-28 09:13:11,2021-01-04,1.6404881760890857,2.6608063719885284,4.5646886058340925,,,,,,,,,,,,
31011,0,USNebraskaBoone,Nebraska,Boone,2022-04-28 09:13:11,2021-01-05,1.6404881760890857,2.6608063719885284,4.5646886058340925,,,,,,,,,,,,
31011,0,USNebraskaBoone,Nebraska,Boone,2022-04-28 09:13:11,2021-01-06,1.6404881760890857,2.6608063719885284,4.5646886058340925,,,,,,,,,,,,
31011,0,USNebraskaBoone,Nebraska,Boone,2022-04-28 09:13:11,2021-01-07,0.8508672564074332,1.545793231418239,2.996462488365938,,,,,,,,,,,,
31011,0,USNebraskaBoone,Nebraska,Boone,2022-04-28 09:13:11,2021-01-08,0.8508672564074332,1.545793231418239,2.996462488365938,,,,,,,,,,,,
31011,0,USNebraskaBoone,Nebraska,Boone,2022-04-28 09:13:11,2021-01-09,0.8508672564074332,1.545793231418239,2.996462488365938,,,,,,,,,,,,
31011,0,USNebraskaBoone,Nebraska,Boone,2022-04-28 09:13:11,2021-01-10,0.8508672564074332,1.545793231418239,2.996462488365938,,,,,,,,,,,,
31011,0,USNebraskaBoone,Nebraska,Boone,2022-04-28 09:13:11,2021-01-11,0.8508672564074332,1.545793231418239,2.996462488365938,,,,,,,,,,,,
31011,0,USNebraskaBoone,Nebraska,Boone,2022-04-28 09:13:11,2021-01-12,0.8508672564074332,1.545793231418239,2.996462488365938,,,,,,,,,,,,
31011,0,USNebraskaBoone,Nebraska,Boone,2022-04-28 09:13:11,2021-01-13,0.8508672564074332,1.545793231418239,2.996462488365938,,,,,,,,,,,,
31011,0,USNebraskaBoone,Nebraska,Boone,2022-04-28 09:13:11,2021-01-14,1.1313384773732327,1.892916710227628,3.359088098812778,,,,,,,,,,,,
31011,0,USNebraskaBoone,Nebraska,Boone,2022-04-28 09:13:11,2021-01-15,1.1313384773732327,1.892916710227628,3.359088098812778,,,,,,,,,,,,
31011,0,USNebraskaBoone,Nebraska,Boone,2022-04-28 09:13:11,2021-01-16,1.1313384773732327,1.892916710227628,3.359088098812778,,,,,,,,,,,,
31011,0,USNebraskaBoone,Nebraska,Boone,2022-04-28 09:13:11,2021-01-17,1.1313384773732327,1.892916710227628,3.359088098812778,,,,,,,,,,,,
31011,0,USNebraskaBoone,Nebraska,Boone,2022-04-28 09:13:11,2021-01-18,1.1313384773732327,1.892916710227628,3.359088098812778,,,,,,,,,,,,
31011,0,USNebraskaBoone,Nebraska,Boone,2022-04-28 09:13:11,2021-01-19,1.1313384773732327,1.892916710227628,3.359088098812778,,,,,,,,,,,,
31011,0,USNebraskaBoone,Nebraska,Boone,2022-04-28 09:13:11,2021-01-20,1.1313384773732327,1.892916710227628,3.359088098812778,,,,,,,,,,,,
31011,0,USNebraskaBoone,Nebraska,Boone,2022-04-28 09:13:11,2021-01-21,0.6313297177829609,1.048626882536415,1.8461472004791775,,,,,,,,,,,,
31011,0,USNebraskaBoone,Nebraska,Boone,2022-04-28 09:13:11,2021-01-22,0.6313297177829609,1.048626882536415,1.8461472004791775,,,,,,,,,,,,
31011,0,USNebraskaBoone,Nebraska,Boone,2022-04-28 09:13:11,2021-01-23,0.6313297177829609,1.048626882536415,1.8461472004791775,,,,,,,,,,,,
31011,0,USNebraskaBoone,Nebraska,Boone,2022-04-28 09:13:11,2021-01-24,0.6313297177829609,1.048626882536415,1.8461472004791775,,,,,,,,,,,,
31011,0,USNebraskaBoone,Nebraska,Boone,2022-04-28 09:13:11,2021-01-25,0.6313297177829609,1.048626882536415,1.8461472004791775,,,,,,,,,,,,
31011,0,USNebraskaBoone,Nebraska,Boone,2022-04-28 09:13:11,2021-01-26,0.6313297177829609,1.048626882536415,1.8461472004791775,,,,,,,,,,,,
31011,0,USNebraskaBoone,Nebraska,Boone,2022-04-28 09:13:11,2021-01-27,0.6313297177829609,1.048626882536415,1.8461472004791775,,,,,,,,,,,,
31011,0,USNebraskaBoone,Nebraska,Boone,2022-04-28 09:13:11,2021-01-28,0.2765354496492076,0.589158640383436,1.3485537698007055,,,,,,,,,,,,
31011,0,USNebraskaBoone,Nebraska,Boone,2022-04-28 09:13:11,2021-01-29,0.2765354496492076,0.589158640383436,1.3485537698007055,,,,,,,,,,,,
31011,0,USNebraskaBoone,Nebraska,Boone,2022-04-28 09:13:11,2021-01-30,0.2765354496492076,0.589158640383436,1.3485537698007055,,,,,,,,,,,,
31011,0,USNebraskaBoone,Nebraska,Boone,2022-04-28 09:13:11,2021-01-31,0.2765354496492076,0.589158640383436,1.3485537698007055,,,,,,,,,,,,
31011,0,USNebraskaBoone,Nebraska,Boone,2022-04-28 09:13:11,2021-02-01,0.2765354496492076,0.589158640383436,1.3485537698007055,,,,,,,,,,,,
31011,0,USNebraskaBoone,Nebraska,Boone,2022-04-28 09:13:11,2021-02-02,0.2765354496492076,0.589158640383436,1.3485537698007055,,,,,,,,,,,,
31011,0,USNebraskaBoone,Nebraska,Boone,2022-04-28 09:13:11,2021-02-03,0.2765354496492076,0.589158640383436,1.3485537698007055,,,,,,,,,,,,
31011,0,USNebraskaBoone,Nebraska,Boone,2022-04-28 09:13:11,2021-02-04,0.5502246342276801,0.8975248837774757,1.5493059435050787,,,,,,,,,,,,
31011,0,USNebraskaBoone,Nebraska,Boone,2022-04-28 09:13:11,2021-02-05,0.5502246342276801,0.8975248837774757,1.5493059435050787,,,,,,,,,,,,
31011,0,USNebraskaBoone,Nebraska,Boone,2022-04-28 09:13:11,2021-02-06,0.5502246342276801,0.8975248837774757,1.5493059435050787,,,,,,,,,,,,
31011,0,USNebraskaBoone,Nebraska,Boone,2022-04-28 09:13:11,2021-02-07,0.5502246342276801,0.8975248837774757,1.5493059435050787,,,,,,,,,,,,
31011,0,USNebraskaBoone,Nebraska,Boone,2022-04-28 09:13:11,2021-02-08,0.5502246342276801,0.8975248837774757,1.5493059435050787,,,,,,,,,,,,
31011,0,USNebraskaBoone,Nebraska,Boone,2022-04-28 09:13:11,2021-02-09,0.5502246342276801,0.8975248837774757,1.5493059435050787,,,,,,,,,,,,
31011,0,USNebraskaBoone,Nebraska,Boone,2022-04-28 09:13:11,2021-02-10,0.5502246342276801,0.8975248837774757,1.5493059435050787,,,,,,,,,,,,
31011,0,USNebraskaBoone,Nebraska,Boone,2022-04-28 09:13:11,2021-02-11,0.9811121338468873,1.440853273772365,2.21467905411754,,,,,,,,,,,,
31011,0,USNebraskaBoone,Nebraska,Boone,2022-04-28 09:13:11,2021-02-12,0.9811121338468873,1.440853273772365,2.21467905411754,,,,,,,,,,,,
31011,0,USNebraskaBoone,Nebraska,Boone,2022-04-28 09:13:11,2021-02-13,0.9811121338468873,1.440853273772365,2.21467905411754,,,,,,,,,,,,
31011,0,USNebraskaBoone,Nebraska,Boone,2022-04-28 09:13:11,2021-02-14,0.9811121338468873,1.440853273772365,2.21467905411754,,,,,,,,,,,,
31011,0,USNebraskaBoone,Nebraska,Boone,2022-04-28 09:13:11,2021-02-15,0.9811121338468873,1.440853273772365,2.21467905411754,,,,,,,,,,,,
31011,0,USNebraskaBoone,Nebraska,Boone,2022-04-28 09:13:11,2021-02-16,0.9811121338468873,1.440853273772365,2.21467905411754,,,,,,,,,,,,
31011,0,USNebraskaBoone,Nebraska,Boone,2022-04-28 09:13:11,2021-02-17,0.9811121338468873,1.440853273772365,2.21467905411754,,,,,,,,,,,,
31011,0,USNebraskaBoone,Nebraska,Boone,2022-04-28 09:13:11,2021-02-18,0,0,0,,,,,,,,,,,,
31011,0,USNebraskaBoone,Nebraska,Boone,2022-04-28 09:13:11,2021-02-19,0,0,0,,,,,,,,,,,,
31011,0,USNebraskaBoone,Nebraska,Boone,2022-04-28 09:13:11,2021-02-20,0,0,0,,,,,,,,,,,,
31011,0,USNebraskaBoone,Nebraska,Boone,2022-04-28 09:13:11,2021-02-21,0,0,0,,,,,,,,,,,,
31011,0,USNebraskaBoone,Nebraska,Boone,2022-04-28 09:13:11,2021-02-22,0,0,0,,,,,,,,,,,,
31011,0,USNebraskaBoone,Nebraska,Boone,2022-04-28 09:13:11,2021-02-23,0,0,0,,,,,,,,,,,,
31011,0,USNebraskaBoone,Nebraska,Boone,2022-04-28 09:13:11,2021-02-24,0,0,0,,,,,,,,,,,,
31011,0,USNebraskaBoone,Nebraska,Boone,2022-04-28 09:13:11,2021-02-25,0.6403919642931998,0.9784615137885512,1.5717657524285407,,,,,,,,,,,,
31011,0,USNebraskaBoone,Nebraska,Boone,2022-04-28 09:13:11,2021-02-26,0.6403919642931998,0.9784615137885512,1.5717657524285407,,,,,,,,,,,,
31011,0,USNebraskaBoone,Nebraska,Boone,2022-04-28 09:13:11,2021-02-27,0.6403919642931998,0.9784615137885512,1.5717657524285407,,,,,,,,,,,,
31011,0,USNebraskaBoone,Nebraska,Boone,2022-04-28 09:13:11,2021-02-28,0.6403919642931998,0.9784615137885512,1.5717657524285407,,,,,,,,,,,,
31011,0,USNebraskaBoone,Nebraska,Boone,2022-04-28 09:13:11,2021-03-01,0.6403919642931998,0.9784615137885512,1.5717657524285407,,,,,,,,,,,,
31011,0,USNebraskaBoone,Nebraska,Boone,2022-04-28 09:13:11,2021-03-02,0.6403919642931998,0.9784615137885512,1.5717657524285407,,,,,,,,,,,,
31011,0,USNebraskaBoone,Nebraska,Boone,2022-04-28 09:13:11,2021-03-03,0.6403919642931998,0.9784615137885512,1.5717657524285407,,,,,,,,,,,,
31011,0,USNebraskaBoone,Nebraska,Boone,2022-04-28 09:13:11,2021-03-04,0.814467511063828,1.2197747847274618,1.9163054936876465,,,,,,,,,,,,
31011,0,USNebraskaBoone,Nebraska,Boone,2022-04-28 09:13:11,2021-03-05,0.814467511063828,1.2197747847274618,1.9163054936876465,,,,,,,,,,,,
31011,0,USNebraskaBoone,Nebraska,Boone,2022-04-28 09:13:11,2021-03-06,0.814467511063828,1.2197747847274618,1.9163054936876465,,,,,,,,,,,,
31011,0,USNebraskaBoone,Nebraska,Boone,2022-04-28 09:13:11,2021-03-07,0.814467511063828,1.2197747847274618,1.9163054936876465,,,,,,,,,,,,
31011,0,USNebraskaBoone,Nebraska,Boone,2022-04-28 09:13:11,2021-03-08,0.814467511063828,1.2197747847274618,1.9163054936876465,,,,,,,,,,,,
31011,0,USNebraskaBoone,Nebraska,Boone,2022-04-28 09:13:11,2021-03-09,0.814467511063828,1.2197747847274618,1.9163054936876465,,,,,,,,,,,,
31011,0,USNebraskaBoone,Nebraska,Boone,2022-04-28 09:13:11,2021-03-10,0.814467511063828,1.2197747847274618,1.9163054936876465,,,,,,,,,,,,
31011,0,USNebraskaBoone,Nebraska,Boone,2022-04-28 09:13:11,2021-03-11,1.0242571972264611,1.4058557022703106,2.0023654667146493,,,,,,,,,,,,
31011,0,USNebraskaBoone,Nebraska,Boone,2022-04-28 09:13:11,2021-03-12,1.0242571972264611,1.4058557022703106,2.0023654667146493,,,,,,,,,,,,
31011,0,USNebraskaBoone,Nebraska,Boone,2022-04-28 09:13:11,2021-03-13,1.0242571972264611,1.4058557022703106,2.0023654667146493,,,,,,,,,,,,
31011,0,USNebraskaBoone,Nebraska,Boone,2022-04-28 09:13:11,2021-03-14,1.0242571972264611,1.4058557022703106,2.0023654667146493,,,,,,,,,,,,
31011,0,USNebraskaBoone,Nebraska,Boone,2022-04-28 09:13:11,2021-03-15,1.0242571972264611,1.4058557022703106,2.0023654667146493,,,,,,,,,,,,
31011,0,USNebraskaBoone,Nebraska,Boone,2022-04-28 09:13:11,2021-03-16,1.0242571972264611,1.4058557022703106,2.0023654667146493,,,,,,,,,,,,
31011,0,USNebraskaBoone,Nebraska,Boone,2022-04-28 09:13:11,2021-03-17,1.0242571972264611,1.4058557022703106,2.0023654667146493,,,,,,,,,,,,
31011,0,USNebraskaBoone,Nebraska,Boone,2022-04-28 09:13:11,2021-03-18,1.0431412419093595,1.4555101781322466,2.112041876056022,,,,,,,,,,,,
31011,0,USNebraskaBoone,Nebraska,Boone,2022-04-28 09:13:11,2021-03-19,1.0431412419093595,1.4555101781322466,2.112041876056022,,,,,,,,,,,,
31011,0,USNebraskaBoone,Nebraska,Boone,2022-04-28 09:13:11,2021-03-20,1.0431412419093595,1.4555101781322466,2.112041876056022,,,,,,,,,,,,
31011,0,USNebraskaBoone,Nebraska,Boone,2022-04-28 09:13:11,2021-03-21,1.0431412419093595,1.4555101781322466,2.112041876056022,,,,,,,,,,,,
31011,0,USNebraskaBoone,Nebraska,Boone,2022-04-28 09:13:11,2021-03-22,1.0431412419093595,1.4555101781322466,2.112041876056022,,,,,,,,,,,,
31011,0,USNebraskaBoone,Nebraska,Boone,2022-04-28 09:13:11,2021-03-23,1.0431412419093595,1.4555101781322466,2.112041876056022,,,,,,,,,,,,
31011,0,USNebraskaBoone,Nebraska,Boone,2022-04-28 09:13:11,2021-03-24,1.0431412419093595,1.4555101781322466,2.112041876056022,,,,,,,,,,,,
31011,0,USNebraskaBoone,Nebraska,Boone,2022-04-28 09:13:11,2021-03-25,1.517274895438684,2.0593064349160186,2.8959480864357126,,,,,,,,,,,,
31011,0,USNebraskaBoone,Nebraska,Boone,2022-04-28 09:13:11,2021-03-26,1.517274895438684,2.0593064349160186,2.8959480864357126,,,,,,,,,,,,
31011,0,USNebraskaBoone,Nebraska,Boone,2022-04-28 09:13:11,2021-03-27,1.517274895438684,2.0593064349160186,2.8959480864357126,,,,,,,,,,,,
31011,0,USNebraskaBoone,Nebraska,Boone,2022-04-28 09:13:11,2021-03-28,1.517274895438684,2.0593064349160186,2.8959480864357126,,,,,,,,,,,,
31011,0,USNebraskaBoone,Nebraska,Boone,2022-04-28 09:13:11,2021-03-29,1.517274895438684,2.0593064349160186,2.8959480864357126,,,,,,,,,,,,
31011,0,USNebraskaBoone,Nebraska,Boone,2022-04-28 09:13:11,2021-03-30,1.517274895438684,2.0593064349160186,2.8959480864357126,,,,,,,,,,,,
31011,0,USNebraskaBoone,Nebraska,Boone,2022-04-28 09:13:11,2021-03-31,1.517274895438684,2.0593064349160186,2.8959480864357126,,,,,,,,,,,,
31011,0,USNebraskaBoone,Nebraska,Boone,2022-04-28 09:13:11,2021-04-01,0.9151774670338286,1.4248723485871857,2.3370088275599445,,,,,,,,,,,,
31011,0,USNebraskaBoone,Nebraska,Boone,2022-04-28 09:13:11,2021-04-02,0.9151774670338286,1.4248723485871857,2.3370088275599445,,,,,,,,,,,,
31011,0,USNebraskaBoone,Nebraska,Boone,2022-04-28 09:13:11,2021-04-03,0.9151774670338286,1.4248723485871857,2.3370088275599445,,,,,,,,,,,,
31011,0,USNebraskaBoone,Nebraska,Boone,2022-04-28 09:13:11,2021-04-04,0.9151774670338286,1.4248723485871857,2.3370088275599445,,,,,,,,,,,,
31011,0,USNebraskaBoone,Nebraska,Boone,2022-04-28 09:13:11,2021-04-05,0.9151774670338286,1.4248723485871857,2.3370088275599445,,,,,,,,,,,,
31011,0,USNebraskaBoone,Nebraska,Boone,2022-04-28 09:13:11,2021-04-06,0.9151774670338286,1.4248723485871857,2.3370088275599445,,,,,,,,,,,,
31011,0,USNebraskaBoone,Nebraska,Boone,2022-04-28 09:13:11,2021-04-07,0.9151774670338286,1.4248723485871857,2.3370088275599445,,,,,,,,,,,,
31011,0,USNebraskaBoone,Nebraska,Boone,2022-04-28 09:13:11,2021-04-08,0.5136275135903954,0.8890752232551347,1.6366433929898907,,,,,,,,,,,,
31011,0,USNebraskaBoone,Nebraska,Boone,2022-04-28 09:13:11,2021-04-09,0.5136275135903954,0.8890752232551347,1.6366433929898907,,,,,,,,,,,,
31011,0,USNebraskaBoone,Nebraska,Boone,2022-04-28 09:13:11,2021-04-10,0.5136275135903954,0.8890752232551347,1.6366433929898907,,,,,,,,,,,,
31011,0,USNebraskaBoone,Nebraska,Boone,2022-04-28 09:13:11,2021-04-11,0.5136275135903954,0.8890752232551347,1.6366433929898907,,,,,,,,,,,,
31011,0,USNebraskaBoone,Nebraska,Boone,2022-04-28 09:13:11,2021-04-12,0.5136275135903954,0.8890752232551347,1.6366433929898907,,,,,,,,,,,,
31011,0,USNebraskaBoone,Nebraska,Boone,2022-04-28 09:13:11,2021-04-13,0.5136275135903954,0.8890752232551347,1.6366433929898907,,,,,,,,,,,,
31011,0,USNebraskaBoone,Nebraska,Boone,2022-04-28 09:13:11,2021-04-14,0.5136275135903954,0.8890752232551347,1.6366433929898907,,,,,,,,,,,,
31011,0,USNebraskaBoone,Nebraska,Boone,2022-04-28 09:13:11,2021-04-15,0.20046017301567537,0.4603376041430652,1.137261726669668,,,,,,,,,,,,
31011,0,USNebraskaBoone,Nebraska,Boone,2022-04-28 09:13:11,2021-04-16,0.20046017301567537,0.4603376041430652,1.137261726669668,,,,,,,,,,,,
31011,0,USNebraskaBoone,Nebraska,Boone,2022-04-28 09:13:11,2021-04-17,0.20046017301567537,0.4603376041430652,1.137261726669668,,,,,,,,,,,,
31011,0,USNebraskaBoone,Nebraska,Boone,2022-04-28 09:13:11,2021-04-18,0.20046017301567537,0.4603376041430652,1.137261726669668,,,,,,,,,,,,
31011,0,USNebraskaBoone,Nebraska,Boone,2022-04-28 09:13:11,2021-04-19,0.20046017301567537,0.4603376041430652,1.137261726669668,,,,,,,,,,,,
31011,0,USNebraskaBoone,Nebraska,Boone,2022-04-28 09:13:11,2021-04-20,0.20046017301567537,0.4603376041430652,1.137261726669668,,,,,,,,,,,,
31011,0,USNebraskaBoone,Nebraska,Boone,2022-04-28 09:13:11,2021-04-21,0.20046017301567537,0.4603376041430652,1.137261726669668,,,,,,,,,,,,
31011,0,USNebraskaBoone,Nebraska,Boone,2022-04-28 09:13:11,2021-04-22,0.25224941181545985,0.4945215478059693,1.0386208456113937,,,,,,,,,,,,
31011,0,USNebraskaBoone,Nebraska,Boone,2022-04-28 09:13:11,2021-04-23,0.25224941181545985,0.4945215478059693,1.0386208456113937,,,,,,,,,,,,
31011,0,USNebraskaBoone,Nebraska,Boone,2022-04-28 09:13:11,2021-04-24,0.25224941181545985,0.4945215478059693,1.0386208456113937,,,,,,,,,,,,
31011,0,USNebraskaBoone,Nebraska,Boone,2022-04-28 09:13:11,2021-04-25,0.25224941181545985,0.4945215478059693,1.0386208456113937,,,,,,,,,,,,
31011,0,USNebraskaBoone,Nebraska,Boone,2022-04-28 09:13:11,2021-04-26,0.25224941181545985,0.4945215478059693,1.0386208456113937,,,,,,,,,,,,
31011,0,USNebraskaBoone,Nebraska,Boone,2022-04-28 09:13:11,2021-04-27,0.25224941181545985,0.4945215478059693,1.0386208456113937,,,,,,,,,,,,
31011,0,USNebraskaBoone,Nebraska,Boone,2022-04-28 09:13:11,2021-04-28,0.25224941181545985,0.4945215478059693,1.0386208456113937,,,,,,,,,,,,
31011,0,USNebraskaBoone,Nebraska,Boone,2022-04-28 09:13:11,2021-04-29,0.37302260171851426,0.6556030091257838,1.2267477194574292,,,,,,,,,,,,
31011,0,USNebraskaBoone,Nebraska,Boone,2022-04-28 09:13:11,2021-04-30,0.37302260171851426,0.6556030091257838,1.2267477194574292,,,,,,,,,,,,
31011,0,USNebraskaBoone,Nebraska,Boone,2022-04-28 09:13:11,2021-05-01,0.37302260171851426,0.6556030091257838,1.2267477194574292,,,,,,,,,,,,
31011,0,USNebraskaBoone,Nebraska,Boone,2022-04-28 09:13:11,2021-05-02,0.37302260171851426,0.6556030091257838,1.2267477194574292,,,,,,,,,,,,
31011,0,USNebraskaBoone,Nebraska,Boone,2022-04-28 09:13:11,2021-05-03,0.37302260171851426,0.6556030091257838,1.2267477194574292,,,,,,,,,,,,
31011,0,USNebraskaBoone,Nebraska,Boone,2022-04-28 09:13:11,2021-05-04,0.37302260171851426,0.6556030091257838,1.2267477194574292,,,,,,,,,,,,
31011,0,USNebraskaBoone,Nebraska,Boone,2022-04-28 09:13:11,2021-05-05,0.37302260171851426,0.6556030091257838,1.2267477194574292,,,,,,,,,,,,
31011,0,USNebraskaBoone,Nebraska,Boone,2022-04-28 09:13:11,2021-05-06,0,0,0,,,,,,,,,,,,
31011,0,USNebraskaBoone,Nebraska,Boone,2022-04-28 09:13:11,2021-05-07,0,0,0,,,,,,,,,,,,
31011,0,USNebraskaBoone,Nebraska,Boone,2022-04-28 09:13:11,2021-05-08,0,0,0,,,,,,,,,,,,
31011,0,USNebraskaBoone,Nebraska,Boone,2022-04-28 09:13:11,2021-05-09,0,0,0,,,,,,,,,,,,
31011,0,USNebraskaBoone,Nebraska,Boone,2022-04-28 09:13:11,2021-05-10,0,0,0,,,,,,,,,,,,
31011,0,USNebraskaBoone,Nebraska,Boone,2022-04-28 09:13:11,2021-05-11,0,0,0,,,,,,,,,,,,
31011,0,USNebraskaBoone,Nebraska,Boone,2022-04-28 09:13:11,2021-05-12,0,0,0,,,,,,,,,,,,
31011,0,USNebraskaBoone,Nebraska,Boone,2022-04-28 09:13:11,2021-05-13,0,0,0,,,,,,,,,,,,
31011,0,USNebraskaBoone,Nebraska,Boone,2022-04-28 09:13:11,2021-05-14,0,0,0,,,,,,,,,,,,
31011,0,USNebraskaBoone,Nebraska,Boone,2022-04-28 09:13:11,2021-05-15,0,0,0,,,,,,,,,,,,
31011,0,USNebraskaBoone,Nebraska,Boone,2022-04-28 09:13:11,2021-05-16,0,0,0,,,,,,,,,,,,
31011,0,USNebraskaBoone,Nebraska,Boone,2022-04-28 09:13:11,2021-05-17,0,0,0,,,,,,,,,,,,
31011,0,USNebraskaBoone,Nebraska,Boone,2022-04-28 09:13:11,2021-05-18,0,0,0,,,,,,,,,,,,
31011,0,USNebraskaBoone,Nebraska,Boone,2022-04-28 09:13:11,2021-05-19,0,0,0,,,,,,,,,,,,
31011,0,USNebraskaBoone,Nebraska,Boone,2022-04-28 09:13:11,2021-05-20,0,0,0,,,,,,,,,,,,
31011,0,USNebraskaBoone,Nebraska,Boone,2022-04-28 09:13:11,2021-05-21,0,0,0,,,,,,,,,,,,
31011,0,USNebraskaBoone,Nebraska,Boone,2022-04-28 09:13:11,2021-05-22,0,0,0,,,,,,,,,,,,
31011,0,USNebraskaBoone,Nebraska,Boone,2022-04-28 09:13:11,2021-05-23,0,0,0,,,,,,,,,,,,
31011,0,USNebraskaBoone,Nebraska,Boone,2022-04-28 09:13:11,2021-05-24,0,0,0,,,,,,,,,,,,
31011,0,USNebraskaBoone,Nebraska,Boone,2022-04-28 09:13:11,2021-05-25,0,0,0,,,,,,,,,,,,
31011,0,USNebraskaBoone,Nebraska,Boone,2022-04-28 09:13:11,2021-05-26,0,0,0,,,,,,,,,,,,
31011,0,USNebraskaBoone,Nebraska,Boone,2022-04-28 09:13:11,2021-05-27,0,0,0,,,,,,,,,,,,
31011,0,USNebraskaBoone,Nebraska,Boone,2022-04-28 09:13:11,2021-05-28,0,0,0,,,,,,,,,,,,
31011,0,USNebraskaBoone,Nebraska,Boone,2022-04-28 09:13:11,2021-05-29,0,0,0,,,,,,,,,,,,
31011,0,USNebraskaBoone,Nebraska,Boone,2022-04-28 09:13:11,2021-05-30,0,0,0,,,,,,,,,,,,
31011,0,USNebraskaBoone,Nebraska,Boone,2022-04-28 09:13:11,2021-05-31,0,0,0,,,,,,,,,,,,
31011,0,USNebraskaBoone,Nebraska,Boone,2022-04-28 09:13:11,2021-06-01,0,0,0,,,,,,,,,,,,
31011,0,USNebraskaBoone,Nebraska,Boone,2022-04-28 09:13:11,2021-06-02,0,0,0,,,,,,,,,,,,
31011,0,USNebraskaBoone,Nebraska,Boone,2022-04-28 09:13:11,2021-06-03,0,0,0,,,,,,,,,,,,
31011,0,USNebraskaBoone,Nebraska,Boone,2022-04-28 09:13:11,2021-06-04,0,0,0,,,,,,,,,,,,
31011,0,USNebraskaBoone,Nebraska,Boone,2022-04-28 09:13:11,2021-06-05,0,0,0,,,,,,,,,,,,
31011,0,USNebraskaBoone,Nebraska,Boone,2022-04-28 09:13:11,2021-06-06,0,0,0,,,,,,,,,,,,
31011,0,USNebraskaBoone,Nebraska,Boone,2022-04-28 09:13:11,2021-06-07,0,0,0,,,,,,,,,,,,
31011,0,USNebraskaBoone,Nebraska,Boone,2022-04-28 09:13:11,2021-06-08,0,0,0,,,,,,,,,,,,
31011,0,USNebraskaBoone,Nebraska,Boone,2022-04-28 09:13:11,2021-06-09,0,0,0,,,,,,,,,,,,
31011,0,USNebraskaBoone,Nebraska,Boone,2022-04-28 09:13:11,2021-06-10,0,0,0,,,,,,,,,,,,
31011,0,USNebraskaBoone,Nebraska,Boone,2022-04-28 09:13:11,2021-06-11,0,0,0,,,,,,,,,,,,
31011,0,USNebraskaBoone,Nebraska,Boone,2022-04-28 09:13:11,2021-06-12,0,0,0,,,,,,,,,,,,
31011,0,USNebraskaBoone,Nebraska,Boone,2022-04-28 09:13:11,2021-06-13,0,0,0,,,,,,,,,,,,
31011,0,USNebraskaBoone,Nebraska,Boone,2022-04-28 09:13:11,2021-06-14,0,0,0,,,,,,,,,,,,
31011,0,USNebraskaBoone,Nebraska,Boone,2022-04-28 09:13:11,2021-06-15,0,0,0,,,,,,,,,,,,
31011,0,USNebraskaBoone,Nebraska,Boone,2022-04-28 09:13:11,2021-06-16,0,0,0,,,,,,,,,,,,
31011,0,USNebraskaBoone,Nebraska,Boone,2022-04-28 09:13:11,2021-06-17,0,0,0,,,,,,,,,,,,
31011,0,USNebraskaBoone,Nebraska,Boone,2022-04-28 09:13:11,2021-06-18,0,0,0,,,,,,,,,,,,
31011,0,USNebraskaBoone,Nebraska,Boone,2022-04-28 09:13:11,2021-06-19,0,0,0,,,,,,,,,,,,
31011,0,USNebraskaBoone,Nebraska,Boone,2022-04-28 09:13:11,2021-06-20,0,0,0,,,,,,,,,,,,
31011,0,USNebraskaBoone,Nebraska,Boone,2022-04-28 09:13:11,2021-06-21,0,0,0,,,,,,,,,,,,
31011,0,USNebraskaBoone,Nebraska,Boone,2022-04-28 09:13:11,2021-06-22,0,0,0,,,,,,,,,,,,
31011,0,USNebraskaBoone,Nebraska,Boone,2022-04-28 09:13:11,2021-06-23,0,0,0,,,,,,,,,,,,
31011,0,USNebraskaBoone,Nebraska,Boone,2022-04-28 09:13:11,2021-06-24,0,0,0,,,,,,,,,,,,
31011,0,USNebraskaBoone,Nebraska,Boone,2022-04-28 09:13:11,2021-06-25,0,0,0,,,,,,,,,,,,
31011,0,USNebraskaBoone,Nebraska,Boone,2022-04-28 09:13:11,2021-06-26,0,0,0,,,,,,,,,,,,
31011,0,USNebraskaBoone,Nebraska,Boone,2022-04-28 09:13:11,2021-06-27,0,0,0,,,,,,,,,,,,
31011,0,USNebraskaBoone,Nebraska,Boone,2022-04-28 09:13:11,2021-06-28,0,0,0,,,,,,,,,,,,
31011,0,USNebraskaBoone,Nebraska,Boone,2022-04-28 09:13:11,2021-06-29,0,0,0,,,,,,,,,,,,
31011,0,USNebraskaBoone,Nebraska,Boone,2022-04-28 09:13:11,2021-06-30,0,0,0,,,,,,,,,,,,
31011,0,USNebraskaBoone,Nebraska,Boone,2022-04-28 09:13:11,2021-07-01,0,0,0,,,,,,,,,,,,
31011,0,USNebraskaBoone,Nebraska,Boone,2022-04-28 09:13:11,2021-07-02,0,0,0,,,,,,,,,,,,
31011,0,USNebraskaBoone,Nebraska,Boone,2022-04-28 09:13:11,2021-07-03,0,0,0,,,,,,,,,,,,
31011,0,USNebraskaBoone,Nebraska,Boone,2022-04-28 09:13:11,2021-07-04,0,0,0,,,,,,,,,,,,
31011,0,USNebraskaBoone,Nebraska,Boone,2022-04-28 09:13:11,2021-07-05,0,0,0,,,,,,,,,,,,
31011,0,USNebraskaBoone,Nebraska,Boone,2022-04-28 09:13:11,2021-07-06,0,0,0,,,,,,,,,,,,
31011,0,USNebraskaBoone,Nebraska,Boone,2022-04-28 09:13:11,2021-07-07,0,0,0,,,,,,,,,,,,
31011,0,USNebraskaBoone,Nebraska,Boone,2022-04-28 09:13:11,2021-07-08,0,0,0,,,,,,,,,,,,
31011,0,USNebraskaBoone,Nebraska,Boone,2022-04-28 09:13:11,2021-07-09,0,0,0,,,,,,,,,,,,
31011,0,USNebraskaBoone,Nebraska,Boone,2022-04-28 09:13:11,2021-07-10,0,0,0,,,,,,,,,,,,
31011,0,USNebraskaBoone,Nebraska,Boone,2022-04-28 09:13:11,2021-07-11,0,0,0,,,,,,,,,,,,
31011,0,USNebraskaBoone,Nebraska,Boone,2022-04-28 09:13:11,2021-07-12,0,0,0,,,,,,,,,,,,
31011,0,USNebraskaBoone,Nebraska,Boone,2022-04-28 09:13:11,2021-07-13,0,0,0,,,,,,,,,,,,
31011,0,USNebraskaBoone,Nebraska,Boone,2022-04-28 09:13:11,2021-07-14,0,0,0,,,,,,,,,,,,
31011,0,USNebraskaBoone,Nebraska,Boone,2022-04-28 09:13:11,2021-07-15,0,0,0,,,,,,,,,,,,
31011,0,USNebraskaBoone,Nebraska,Boone,2022-04-28 09:13:11,2021-07-16,0,0,0,,,,,,,,,,,,
31011,0,USNebraskaBoone,Nebraska,Boone,2022-04-28 09:13:11,2021-07-17,0,0,0,,,,,,,,,,,,
31011,0,USNebraskaBoone,Nebraska,Boone,2022-04-28 09:13:11,2021-07-18,0,0,0,,,,,,,,,,,,
31011,0,USNebraskaBoone,Nebraska,Boone,2022-04-28 09:13:11,2021-07-19,0,0,0,,,,,,,,,,,,
31011,0,USNebraskaBoone,Nebraska,Boone,2022-04-28 09:13:11,2021-07-20,0,0,0,,,,,,,,,,,,
31011,0,USNebraskaBoone,Nebraska,Boone,2022-04-28 09:13:11,2021-07-21,0,0,0,,,,,,,,,,,,
31011,0,USNebraskaBoone,Nebraska,Boone,2022-04-28 09:13:11,2021-07-22,0,0,0,,,,,,,,,,,,
31011,0,USNebraskaBoone,Nebraska,Boone,2022-04-28 09:13:11,2021-07-23,0,0,0,,,,,,,,,,,,
31011,0,USNebraskaBoone,Nebraska,Boone,2022-04-28 09:13:11,2021-07-24,0,0,0,,,,,,,,,,,,
31011,0,USNebraskaBoone,Nebraska,Boone,2022-04-28 09:13:11,2021-07-25,0,0,0,,,,,,,,,,,,
31011,0,USNebraskaBoone,Nebraska,Boone,2022-04-28 09:13:11,2021-07-26,0,0,0,,,,,,,,,,,,
31011,0,USNebraskaBoone,Nebraska,Boone,2022-04-28 09:13:11,2021-07-27,0,0,0,,,,,,,,,,,,
31011,0,USNebraskaBoone,Nebraska,Boone,2022-04-28 09:13:11,2021-07-28,0,0,0,,,,,,,,,,,,
31011,0,USNebraskaBoone,Nebraska,Boone,2022-04-28 09:13:11,2021-07-29,0,0,0,,,,,,,,,,,,
31011,0,USNebraskaBoone,Nebraska,Boone,2022-04-28 09:13:11,2021-07-30,0,0,0,,,,,,,,,,,,
31011,0,USNebraskaBoone,Nebraska,Boone,2022-04-28 09:13:11,2021-07-31,0,0,0,,,,,,,,,,,,
31011,0,USNebraskaBoone,Nebraska,Boone,2022-04-28 09:13:11,2021-08-01,0,0,0,,,,,,,,,,,,
31011,0,USNebraskaBoone,Nebraska,Boone,2022-04-28 09:13:11,2021-08-02,0,0,0,,,,,,,,,,,,
31011,0,USNebraskaBoone,Nebraska,Boone,2022-04-28 09:13:11,2021-08-03,0,0,0,,,,,,,,,,,,
31011,0,USNebraskaBoone,Nebraska,Boone,2022-04-28 09:13:11,2021-08-04,0,0,0,,,,,,,,,,,,
31011,0,USNebraskaBoone,Nebraska,Boone,2022-04-28 09:13:11,2021-08-05,0,0,0,,,,,,,,,,,,
31011,0,USNebraskaBoone,Nebraska,Boone,2022-04-28 09:13:11,2021-08-06,0,0,0,,,,,,,,,,,,
31011,0,USNebraskaBoone,Nebraska,Boone,2022-04-28 09:13:11,2021-08-07,0,0,0,,,,,,,,,,,,
31011,0,USNebraskaBoone,Nebraska,Boone,2022-04-28 09:13:11,2021-08-08,0,0,0,,,,,,,,,,,,
31011,0,USNebraskaBoone,Nebraska,Boone,2022-04-28 09:13:11,2021-08-09,0,0,0,,,,,,,,,,,,
31011,0,USNebraskaBoone,Nebraska,Boone,2022-04-28 09:13:11,2021-08-10,0,0,0,,,,,,,,,,,,
31011,0,USNebraskaBoone,Nebraska,Boone,2022-04-28 09:13:11,2021-08-11,0,0,0,,,,,,,,,,,,
31011,0,USNebraskaBoone,Nebraska,Boone,2022-04-28 09:13:11,2021-08-12,0,0,0,,,,,,,,,,,,
31011,0,USNebraskaBoone,Nebraska,Boone,2022-04-28 09:13:11,2021-08-13,0,0,0,,,,,,,,,,,,
31011,0,USNebraskaBoone,Nebraska,Boone,2022-04-28 09:13:11,2021-08-14,0,0,0,,,,,,,,,,,,
31011,0,USNebraskaBoone,Nebraska,Boone,2022-04-28 09:13:11,2021-08-15,0,0,0,,,,,,,,,,,,
31011,0,USNebraskaBoone,Nebraska,Boone,2022-04-28 09:13:11,2021-08-16,0,0,0,,,,,,,,,,,,
31011,0,USNebraskaBoone,Nebraska,Boone,2022-04-28 09:13:11,2021-08-17,0,0,0,,,,,,,,,,,,
31011,0,USNebraskaBoone,Nebraska,Boone,2022-04-28 09:13:11,2021-08-18,0,0,0,,,,,,,,,,,,
31011,0,USNebraskaBoone,Nebraska,Boone,2022-04-28 09:13:11,2021-08-19,0,0,0,,,,,,,,,,,,
31011,0,USNebraskaBoone,Nebraska,Boone,2022-04-28 09:13:11,2021-08-20,0,0,0,,,,,,,,,,,,
31011,0,USNebraskaBoone,Nebraska,Boone,2022-04-28 09:13:11,2021-08-21,0,0,0,,,,,,,,,,,,
31011,0,USNebraskaBoone,Nebraska,Boone,2022-04-28 09:13:11,2021-08-22,0,0,0,,,,,,,,,,,,
31011,0,USNebraskaBoone,Nebraska,Boone,2022-04-28 09:13:11,2021-08-23,0,0,0,,,,,,,,,,,,
31011,0,USNebraskaBoone,Nebraska,Boone,2022-04-28 09:13:11,2021-08-24,0,0,0,,,,,,,,,,,,
31011,0,USNebraskaBoone,Nebraska,Boone,2022-04-28 09:13:11,2021-08-25,0,0,0,,,,,,,,,,,,
31011,0,USNebraskaBoone,Nebraska,Boone,2022-04-28 09:13:11,2021-08-26,0,0,0,,,,,,,,,,,,
31011,0,USNebraskaBoone,Nebraska,Boone,2022-04-28 09:13:11,2021-08-27,0,0,0,,,,,,,,,,,,
31011,0,USNebraskaBoone,Nebraska,Boone,2022-04-28 09:13:11,2021-08-28,0,0,0,,,,,,,,,,,,
31011,0,USNebraskaBoone,Nebraska,Boone,2022-04-28 09:13:11,2021-08-29,0,0,0,,,,,,,,,,,,
31011,0,USNebraskaBoone,Nebraska,Boone,2022-04-28 09:13:11,2021-08-30,0,0,0,,,,,,,,,,,,
31011,0,USNebraskaBoone,Nebraska,Boone,2022-04-28 09:13:11,2021-08-31,0,0,0,,,,,,,,,,,,
31011,0,USNebraskaBoone,Nebraska,Boone,2022-04-28 09:13:11,2021-09-01,0,0,0,,,,,,,,,,,,
31011,0,USNebraskaBoone,Nebraska,Boone,2022-04-28 09:13:11,2021-09-02,0,0,0,,,,,,,,,,,,
31011,0,USNebraskaBoone,Nebraska,Boone,2022-04-28 09:13:11,2021-09-03,0,0,0,,,,,,,,,,,,
31011,0,USNebraskaBoone,Nebraska,Boone,2022-04-28 09:13:11,2021-09-04,0,0,0,,,,,,,,,,,,
31011,0,USNebraskaBoone,Nebraska,Boone,2022-04-28 09:13:11,2021-09-05,0,0,0,,,,,,,,,,,,
31011,0,USNebraskaBoone,Nebraska,Boone,2022-04-28 09:13:11,2021-09-06,0,0,0,,,,,,,,,,,,
31011,0,USNebraskaBoone,Nebraska,Boone,2022-04-28 09:13:11,2021-09-07,0,0,0,,,,,,,,,,,,
31011,0,USNebraskaBoone,Nebraska,Boone,2022-04-28 09:13:11,2021-09-08,0,0,0,,,,,,,,,,,,
31011,0,USNebraskaBoone,Nebraska,Boone,2022-04-28 09:13:11,2021-09-09,0,0,0,,,,,,,,,,,,
31011,0,USNebraskaBoone,Nebraska,Boone,2022-04-28 09:13:11,2021-09-10,0,0,0,,,,,,,,,,,,
31011,0,USNebraskaBoone,Nebraska,Boone,2022-04-28 09:13:11,2021-09-11,0,0,0,,,,,,,,,,,,
31011,0,USNebraskaBoone,Nebraska,Boone,2022-04-28 09:13:11,2021-09-12,0,0,0,,,,,,,,,,,,
31011,0,USNebraskaBoone,Nebraska,Boone,2022-04-28 09:13:11,2021-09-13,0,0,0,,,,,,,,,,,,
31011,0,USNebraskaBoone,Nebraska,Boone,2022-04-28 09:13:11,2021-09-14,0,0,0,,,,,,,,,,,,
31011,0,USNebraskaBoone,Nebraska,Boone,2022-04-28 09:13:11,2021-09-15,0,0,0,,,,,,,,,,,,
31011,0,USNebraskaBoone,Nebraska,Boone,2022-04-28 09:13:11,2021-09-16,0,0,0,,,,,,,,,,,,
31011,0,USNebraskaBoone,Nebraska,Boone,2022-04-28 09:13:11,2021-09-17,0,0,0,,,,,,,,,,,,
31011,0,USNebraskaBoone,Nebraska,Boone,2022-04-28 09:13:11,2021-09-18,0,0,0,,,,,,,,,,,,
31011,0,USNebraskaBoone,Nebraska,Boone,2022-04-28 09:13:11,2021-09-19,0,0,0,,,,,,,,,,,,
31011,0,USNebraskaBoone,Nebraska,Boone,2022-04-28 09:13:11,2021-09-20,0,0,0,,,,,,,,,,,,
31011,0,USNebraskaBoone,Nebraska,Boone,2022-04-28 09:13:11,2021-09-21,0,0,0,,,,,,,,,,,,
31011,0,USNebraskaBoone,Nebraska,Boone,2022-04-28 09:13:11,2021-09-22,0,0,0,,,,,,,,,,,,
31011,0,USNebraskaBoone,Nebraska,Boone,2022-04-28 09:13:11,2021-09-23,4.418135001935986,5.904038709177967,8.15729638072107,,,,,,,,,,,,
31011,0,USNebraskaBoone,Nebraska,Boone,2022-04-28 09:13:11,2021-09-24,4.418135001935986,5.904038709177967,8.15729638072107,,,,,,,,,,,,
31011,0,USNebraskaBoone,Nebraska,Boone,2022-04-28 09:13:11,2021-09-25,4.418135001935986,5.904038709177967,8.15729638072107,,,,,,,,,,,,
31011,0,USNebraskaBoone,Nebraska,Boone,2022-04-28 09:13:11,2021-09-26,4.418135001935986,5.904038709177967,8.15729638072107,,,,,,,,,,,,
31011,0,USNebraskaBoone,Nebraska,Boone,2022-04-28 09:13:11,2021-09-27,4.418135001935986,5.904038709177967,8.15729638072107,,,,,,,,,,,,
31011,0,USNebraskaBoone,Nebraska,Boone,2022-04-28 09:13:11,2021-09-28,4.418135001935986,5.904038709177967,8.15729638072107,,,,,,,,,,,,
31011,0,USNebraskaBoone,Nebraska,Boone,2022-04-28 09:13:11,2021-09-29,4.418135001935986,5.904038709177967,8.15729638072107,,,,,,,,,,,,
31011,0,USNebraskaBoone,Nebraska,Boone,2022-04-28 09:13:11,2021-09-30,0.6418355742006624,1.2056304194785252,2.4211179014064674,,,,,,,,,,,,
31011,0,USNebraskaBoone,Nebraska,Boone,2022-04-28 09:13:11,2021-10-01,0.6418355742006624,1.2056304194785252,2.4211179014064674,,,,,,,,,,,,
31011,0,USNebraskaBoone,Nebraska,Boone,2022-04-28 09:13:11,2021-10-02,0.6418355742006624,1.2056304194785252,2.4211179014064674,,,,,,,,,,,,
31011,0,USNebraskaBoone,Nebraska,Boone,2022-04-28 09:13:11,2021-10-03,0.6418355742006624,1.2056304194785252,2.4211179014064674,,,,,,,,,,,,
31011,0,USNebraskaBoone,Nebraska,Boone,2022-04-28 09:13:11,2021-10-04,0.6418355742006624,1.2056304194785252,2.4211179014064674,,,,,,,,,,,,
31011,0,USNebraskaBoone,Nebraska,Boone,2022-04-28 09:13:11,2021-10-05,0.6418355742006624,1.2056304194785252,2.4211179014064674,,,,,,,,,,,,
31011,0,USNebraskaBoone,Nebraska,Boone,2022-04-28 09:13:11,2021-10-06,0.6418355742006624,1.2056304194785252,2.4211179014064674,,,,,,,,,,,,
31011,0,USNebraskaBoone,Nebraska,Boone,2022-04-28 09:13:11,2021-10-07,0.9988583029461935,1.6850964774648356,3.0171309139470908,,,,,,,,,,,,
31011,0,USNebraskaBoone,Nebraska,Boone,2022-04-28 09:13:11,2021-10-08,0.9988583029461935,1.6850964774648356,3.0171309139470908,,,,,,,,,,,,
31011,0,USNebraskaBoone,Nebraska,Boone,2022-04-28 09:13:11,2021-10-09,0.9988583029461935,1.6850964774648356,3.0171309139470908,,,,,,,,,,,,
31011,0,USNebraskaBoone,Nebraska,Boone,2022-04-28 09:13:11,2021-10-10,0.9988583029461935,1.6850964774648356,3.0171309139470908,,,,,,,,,,,,
31011,0,USNebraskaBoone,Nebraska,Boone,2022-04-28 09:13:11,2021-10-11,0.9988583029461935,1.6850964774648356,3.0171309139470908,,,,,,,,,,,,
31011,0,USNebraskaBoone,Nebraska,Boone,2022-04-28 09:13:11,2021-10-12,0.9988583029461935,1.6850964774648356,3.0171309139470908,,,,,,,,,,,,
31011,0,USNebraskaBoone,Nebraska,Boone,2022-04-28 09:13:11,2021-10-13,0.9988583029461935,1.6850964774648356,3.0171309139470908,,,,,,,,,,,,
31011,0,USNebraskaBoone,Nebraska,Boone,2022-04-28 09:13:11,2021-10-14,0.7672393890307927,1.3835088519681986,2.6606983735591365,,,,,,,,,,,,
31011,0,USNebraskaBoone,Nebraska,Boone,2022-04-28 09:13:11,2021-10-15,0.7672393890307927,1.3835088519681986,2.6606983735591365,,,,,,,,,,,,
31011,0,USNebraskaBoone,Nebraska,Boone,2022-04-28 09:13:11,2021-10-16,0.7672393890307927,1.3835088519681986,2.6606983735591365,,,,,,,,,,,,
31011,0,USNebraskaBoone,Nebraska,Boone,2022-04-28 09:13:11,2021-10-17,0.7672393890307927,1.3835088519681986,2.6606983735591365,,,,,,,,,,,,
31011,0,USNebraskaBoone,Nebraska,Boone,2022-04-28 09:13:11,2021-10-18,0.7672393890307927,1.3835088519681986,2.6606983735591365,,,,,,,,,,,,
31011,0,USNebraskaBoone,Nebraska,Boone,2022-04-28 09:13:11,2021-10-19,0.7672393890307927,1.3835088519681986,2.6606983735591365,,,,,,,,,,,,
31011,0,USNebraskaBoone,Nebraska,Boone,2022-04-28 09:13:11,2021-10-20,0.7672393890307927,1.3835088519681986,2.6606983735591365,,,,,,,,,,,,
31011,0,USNebraskaBoone,Nebraska,Boone,2022-04-28 09:13:11,2021-10-21,0.94595830720752,1.6249509536209017,2.9667510237498926,,,,,,,,,,,,
31011,0,USNebraskaBoone,Nebraska,Boone,2022-04-28 09:13:11,2021-10-22,0.94595830720752,1.6249509536209017,2.9667510237498926,,,,,,,,,,,,
31011,0,USNebraskaBoone,Nebraska,Boone,2022-04-28 09:13:11,2021-10-23,0.94595830720752,1.6249509536209017,2.9667510237498926,,,,,,,,,,,,
31011,0,USNebraskaBoone,Nebraska,Boone,2022-04-28 09:13:11,2021-10-24,0.94595830720752,1.6249509536209017,2.9667510237498926,,,,,,,,,,,,
31011,0,USNebraskaBoone,Nebraska,Boone,2022-04-28 09:13:11,2021-10-25,0.94595830720752,1.6249509536209017,2.9667510237498926,,,,,,,,,,,,
31011,0,USNebraskaBoone,Nebraska,Boone,2022-04-28 09:13:11,2021-10-26,0.94595830720752,1.6249509536209017,2.9667510237498926,,,,,,,,,,,,
31011,0,USNebraskaBoone,Nebraska,Boone,2022-04-28 09:13:11,2021-10-27,0.94595830720752,1.6249509536209017,2.9667510237498926,,,,,,,,,,,,
31011,0,USNebraskaBoone,Nebraska,Boone,2022-04-28 09:13:11,2021-10-28,1.4988245458060163,2.423682314587868,4.144154712672213,,,,,,,,,,,,
31011,0,USNebraskaBoone,Nebraska,Boone,2022-04-28 09:13:11,2021-10-29,1.4988245458060163,2.423682314587868,4.144154712672213,,,,,,,,,,,,
31011,0,USNebraskaBoone,Nebraska,Boone,2022-04-28 09:13:11,2021-10-30,1.4988245458060163,2.423682314587868,4.144154712672213,,,,,,,,,,,,
31011,0,USNebraskaBoone,Nebraska,Boone,2022-04-28 09:13:11,2021-10-31,1.4988245458060163,2.423682314587868,4.144154712672213,,,,,,,,,,,,
31011,0,USNebraskaBoone,Nebraska,Boone,2022-04-28 09:13:11,2021-11-01,1.4988245458060163,2.423682314587868,4.144154712672213,,,,,,,,,,,,
31011,0,USNebraskaBoone,Nebraska,Boone,2022-04-28 09:13:11,2021-11-02,1.4988245458060163,2.423682314587868,4.144154712672213,,,,,,,,,,,,
31011,0,USNebraskaBoone,Nebraska,Boone,2022-04-28 09:13:11,2021-11-03,1.4988245458060163,2.423682314587868,4.144154712672213,,,,,,,,,,,,
31011,0,USNebraskaBoone,Nebraska,Boone,2022-04-28 09:13:11,2021-11-04,1.9443942623551473,2.9150055939512156,4.5848458156178395,,,,,,,,,,,,
31011,0,USNebraskaBoone,Nebraska,Boone,2022-04-28 09:13:11,2021-11-05,1.9443942623551473,2.9150055939512156,4.5848458156178395,,,,,,,,,,,,
31011,0,USNebraskaBoone,Nebraska,Boone,2022-04-28 09:13:11,2021-11-06,1.9443942623551473,2.9150055939512156,4.5848458156178395,,,,,,,,,,,,
31011,0,USNebraskaBoone,Nebraska,Boone,2022-04-28 09:13:11,2021-11-07,1.9443942623551473,2.9150055939512156,4.5848458156178395,,,,,,,,,,,,
31011,0,USNebraskaBoone,Nebraska,Boone,2022-04-28 09:13:11,2021-11-08,1.9443942623551473,2.9150055939512156,4.5848458156178395,,,,,,,,,,,,
31011,0,USNebraskaBoone,Nebraska,Boone,2022-04-28 09:13:11,2021-11-09,1.9443942623551473,2.9150055939512156,4.5848458156178395,,,,,,,,,,,,
31011,0,USNebraskaBoone,Nebraska,Boone,2022-04-28 09:13:11,2021-11-10,1.9443942623551473,2.9150055939512156,4.5848458156178395,,,,,,,,,,,,
31011,0,USNebraskaBoone,Nebraska,Boone,2022-04-28 09:13:11,2021-11-11,1.4547325223822904,2.388618256534325,4.152907083217335,,,,,,,,,,,,
31011,0,USNebraskaBoone,Nebraska,Boone,2022-04-28 09:13:11,2021-11-12,1.4547325223822904,2.388618256534325,4.152907083217335,,,,,,,,,,,,
31011,0,USNebraskaBoone,Nebraska,Boone,2022-04-28 09:13:11,2021-11-13,1.4547325223822904,2.388618256534325,4.152907083217335,,,,,,,,,,,,
31011,0,USNebraskaBoone,Nebraska,Boone,2022-04-28 09:13:11,2021-11-14,1.4547325223822904,2.388618256534325,4.152907083217335,,,,,,,,,,,,
31011,0,USNebraskaBoone,Nebraska,Boone,2022-04-28 09:13:11,2021-11-15,1.4547325223822904,2.388618256534325,4.152907083217335,,,,,,,,,,,,
31011,0,USNebraskaBoone,Nebraska,Boone,2022-04-28 09:13:11,2021-11-16,1.4547325223822904,2.388618256534325,4.152907083217335,,,,,,,,,,,,
31011,0,USNebraskaBoone,Nebraska,Boone,2022-04-28 09:13:11,2021-11-17,1.4547325223822904,2.388618256534325,4.152907083217335,,,,,,,,,,,,
31011,0,USNebraskaBoone,Nebraska,Boone,2022-04-28 09:13:11,2021-11-18,1.661297948597043,3.3745592134057936,7.353820708352112,,,,,,,,,,,,
31011,0,USNebraskaBoone,Nebraska,Boone,2022-04-28 09:13:11,2021-11-19,1.661297948597043,3.3745592134057936,7.353820708352112,,,,,,,,,,,,
31011,0,USNebraskaBoone,Nebraska,Boone,2022-04-28 09:13:11,2021-11-20,1.661297948597043,3.3745592134057936,7.353820708352112,,,,,,,,,,,,
31011,0,USNebraskaBoone,Nebraska,Boone,2022-04-28 09:13:11,2021-11-21,1.661297948597043,3.3745592134057936,7.353820708352112,,,,,,,,,,,,
31011,0,USNebraskaBoone,Nebraska,Boone,2022-04-28 09:13:11,2021-11-22,1.661297948597043,3.3745592134057936,7.353820708352112,,,,,,,,,,,,
31011,0,USNebraskaBoone,Nebraska,Boone,2022-04-28 09:13:11,2021-11-23,1.661297948597043,3.3745592134057936,7.353820708352112,,,,,,,,,,,,
31011,0,USNebraskaBoone,Nebraska,Boone,2022-04-28 09:13:11,2021-11-24,1.661297948597043,3.3745592134057936,7.353820708352112,,,,,,,,,,,,
31011,0,USNebraskaBoone,Nebraska,Boone,2022-04-28 09:13:11,2021-12-02,1.3914732651500938,3.917460170262917,11.852536537128287,,,,,,,,,,,,
31011,0,USNebraskaBoone,Nebraska,Boone,2022-04-28 09:13:11,2021-12-03,1.3914732651500938,3.917460170262917,11.852536537128287,,,,,,,,,,,,
31011,0,USNebraskaBoone,Nebraska,Boone,2022-04-28 09:13:11,2021-12-04,1.3914732651500938,3.917460170262917,11.852536537128287,,,,,,,,,,,,
31011,0,USNebraskaBoone,Nebraska,Boone,2022-04-28 09:13:11,2021-12-05,1.3914732651500938,3.917460170262917,11.852536537128287,,,,,,,,,,,,
31011,0,USNebraskaBoone,Nebraska,Boone,2022-04-28 09:13:11,2021-12-06,1.3914732651500938,3.917460170262917,11.852536537128287,,,,,,,,,,,,
31011,0,USNebraskaBoone,Nebraska,Boone,2022-04-28 09:13:11,2021-12-07,1.3914732651500938,3.917460170262917,11.852536537128287,,,,,,,,,,,,
31011,0,USNebraskaBoone,Nebraska,Boone,2022-04-28 09:13:11,2021-12-08,1.3914732651500938,3.917460170262917,11.852536537128287,,,,,,,,,,,,
31011,0,USNebraskaBoone,Nebraska,Boone,2022-04-28 09:13:11,2021-12-09,0.7578096584638263,1.487539991800239,3.1283691934691262,,,,,,,,,,,,
31011,0,USNebraskaBoone,Nebraska,Boone,2022-04-28 09:13:11,2021-12-10,0.7578096584638263,1.487539991800239,3.1283691934691262,,,,,,,,,,,,
31011,0,USNebraskaBoone,Nebraska,Boone,2022-04-28 09:13:11,2021-12-11,0.7578096584638263,1.487539991800239,3.1283691934691262,,,,,,,,,,,,
31011,0,USNebraskaBoone,Nebraska,Boone,2022-04-28 09:13:11,2021-12-12,0.7578096584638263,1.487539991800239,3.1283691934691262,,,,,,,,,,,,
31011,0,USNebraskaBoone,Nebraska,Boone,2022-04-28 09:13:11,2021-12-13,0.7578096584638263,1.487539991800239,3.1283691934691262,,,,,,,,,,,,
31011,0,USNebraskaBoone,Nebraska,Boone,2022-04-28 09:13:11,2021-12-14,0.7578096584638263,1.487539991800239,3.1283691934691262,,,,,,,,,,,,
31011,0,USNebraskaBoone,Nebraska,Boone,2022-04-28 09:13:11,2021-12-15,0.7578096584638263,1.487539991800239,3.1283691934691262,,,,,,,,,,,,
31011,0,USNebraskaBoone,Nebraska,Boone,2022-04-28 09:13:11,2021-12-16,0.4679707490740915,1.0107728332865,2.3463079783286664,,,,,,,,,,,,
31011,0,USNebraskaBoone,Nebraska,Boone,2022-04-28 09:13:11,2021-12-17,0.4679707490740915,1.0107728332865,2.3463079783286664,,,,,,,,,,,,
31011,0,USNebraskaBoone,Nebraska,Boone,2022-04-28 09:13:11,2021-12-18,0.4679707490740915,1.0107728332865,2.3463079783286664,,,,,,,,,,,,
31011,0,USNebraskaBoone,Nebraska,Boone,2022-04-28 09:13:11,2021-12-19,0.4679707490740915,1.0107728332865,2.3463079783286664,,,,,,,,,,,,
31011,0,USNebraskaBoone,Nebraska,Boone,2022-04-28 09:13:11,2021-12-20,0.4679707490740915,1.0107728332865,2.3463079783286664,,,,,,,,,,,,
31011,0,USNebraskaBoone,Nebraska,Boone,2022-04-28 09:13:11,2021-12-21,0.4679707490740915,1.0107728332865,2.3463079783286664,,,,,,,,,,,,
31011,0,USNebraskaBoone,Nebraska,Boone,2022-04-28 09:13:11,2021-12-22,0.4679707490740915,1.0107728332865,2.3463079783286664,,,,,,,,,,,,
31011,0,USNebraskaBoone,Nebraska,Boone,2022-04-28 09:13:11,2021-12-23,0.8975181691707826,1.712019306671055,3.494081827741484,,,,,,,,,,,,
31011,0,USNebraskaBoone,Nebraska,Boone,2022-04-28 09:13:11,2021-12-24,0.8975181691707826,1.712019306671055,3.494081827741484,,,,,,,,,,,,
31011,0,USNebraskaBoone,Nebraska,Boone,2022-04-28 09:13:11,2021-12-25,0.8975181691707826,1.712019306671055,3.494081827741484,,,,,,,,,,,,
31011,0,USNebraskaBoone,Nebraska,Boone,2022-04-28 09:13:11,2021-12-26,0.8975181691707826,1.712019306671055,3.494081827741484,,,,,,,,,,,,
31011,0,USNebraskaBoone,Nebraska,Boone,2022-04-28 09:13:11,2021-12-27,0.8975181691707826,1.712019306671055,3.494081827741484,,,,,,,,,,,,
31011,0,USNebraskaBoone,Nebraska,Boone,2022-04-28 09:13:11,2021-12-28,0.8975181691707826,1.712019306671055,3.494081827741484,,,,,,,,,,,,
31011,0,USNebraskaBoone,Nebraska,Boone,2022-04-28 09:13:11,2021-12-29,0.8975181691707826,1.712019306671055,3.494081827741484,,,,,,,,,,,,
31011,0,USNebraskaBoone,Nebraska,Boone,2022-04-28 09:13:11,2021-12-30,1.4881332816808108,2.734566852619931,5.365438568099703,,,,,,,,,,,,
31011,0,USNebraskaBoone,Nebraska,Boone,2022-04-28 09:13:11,2021-12-31,1.4881332816808108,2.734566852619931,5.365438568099703,,,,,,,,,,,,
31011,0,USNebraskaBoone,Nebraska,Boone,2022-04-28 09:13:11,2022-01-01,1.4881332816808108,2.734566852619931,5.365438568099703,,,,,,,,,,,,
31011,0,USNebraskaBoone,Nebraska,Boone,2022-04-28 09:13:11,2022-01-02,1.4881332816808108,2.734566852619931,5.365438568099703,,,,,,,,,,,,
31011,0,USNebraskaBoone,Nebraska,Boone,2022-04-28 09:13:11,2022-01-03,1.4881332816808108,2.734566852619931,5.365438568099703,,,,,,,,,,,,
31011,0,USNebraskaBoone,Nebraska,Boone,2022-04-28 09:13:11,2022-01-04,1.4881332816808108,2.734566852619931,5.365438568099703,,,,,,,,,,,,
31011,0,USNebraskaBoone,Nebraska,Boone,2022-04-28 09:13:11,2022-01-05,1.4881332816808108,2.734566852619931,5.365438568099703,,,,,,,,,,,,
31011,0,USNebraskaBoone,Nebraska,Boone,2022-04-28 09:13:11,2022-01-06,1.851280971045121,3.487790543772029,7.026010872500368,,,,,,,,,,,,
31011,0,USNebraskaBoone,Nebraska,Boone,2022-04-28 09:13:11,2022-01-07,1.851280971045121,3.487790543772029,7.026010872500368,,,,,,,,,,,,
31011,0,USNebraskaBoone,Nebraska,Boone,2022-04-28 09:13:11,2022-01-08,1.851280971045121,3.487790543772029,7.026010872500368,,,,,,,,,,,,
31011,0,USNebraskaBoone,Nebraska,Boone,2022-04-28 09:13:11,2022-01-09,1.851280971045121,3.487790543772029,7.026010872500368,,,,,,,,,,,,
31011,0,USNebraskaBoone,Nebraska,Boone,2022-04-28 09:13:11,2022-01-10,1.851280971045121,3.487790543772029,7.026010872500368,,,,,,,,,,,,
31011,0,USNebraskaBoone,Nebraska,Boone,2022-04-28 09:13:11,2022-01-11,1.851280971045121,3.487790543772029,7.026010872500368,,,,,,,,,,,,
31011,0,USNebraskaBoone,Nebraska,Boone,2022-04-28 09:13:11,2022-01-12,1.851280971045121,3.487790543772029,7.026010872500368,,,,,,,,,,,,
31011,0,USNebraskaBoone,Nebraska,Boone,2022-04-28 09:13:11,2022-01-13,3.3490750740341073,5.4316868161018075,9.317501410135216,,,,,,,,,,,,
31011,0,USNebraskaBoone,Nebraska,Boone,2022-04-28 09:13:11,2022-01-14,3.3490750740341073,5.4316868161018075,9.317501410135216,,,,,,,,,,,,
31011,0,USNebraskaBoone,Nebraska,Boone,2022-04-28 09:13:11,2022-01-15,3.3490750740341073,5.4316868161018075,9.317501410135216,,,,,,,,,,,,
31011,0,USNebraskaBoone,Nebraska,Boone,2022-04-28 09:13:11,2022-01-16,3.3490750740341073,5.4316868161018075,9.317501410135216,,,,,,,,,,,,
31011,0,USNebraskaBoone,Nebraska,Boone,2022-04-28 09:13:11,2022-01-17,3.3490750740341073,5.4316868161018075,9.317501410135216,,,,,,,,,,,,
31011,0,USNebraskaBoone,Nebraska,Boone,2022-04-28 09:13:11,2022-01-18,3.3490750740341073,5.4316868161018075,9.317501410135216,,,,,,,,,,,,
31011,0,USNebraskaBoone,Nebraska,Boone,2022-04-28 09:13:11,2022-01-19,3.3490750740341073,5.4316868161018075,9.317501410135216,,,,,,,,,,,,
31011,0,USNebraskaBoone,Nebraska,Boone,2022-04-28 09:13:11,2022-01-20,3.605119459897024,5.722325485066692,9.587079384792506,,,,,,,,,,,,
31011,0,USNebraskaBoone,Nebraska,Boone,2022-04-28 09:13:11,2022-01-21,3.605119459897024,5.722325485066692,9.587079384792506,,,,,,,,,,,,
31011,0,USNebraskaBoone,Nebraska,Boone,2022-04-28 09:13:11,2022-01-22,3.605119459897024,5.722325485066692,9.587079384792506,,,,,,,,,,,,
31011,0,USNebraskaBoone,Nebraska,Boone,2022-04-28 09:13:11,2022-01-23,3.605119459897024,5.722325485066692,9.587079384792506,,,,,,,,,,,,
31011,0,USNebraskaBoone,Nebraska,Boone,2022-04-28 09:13:11,2022-01-24,3.605119459897024,5.722325485066692,9.587079384792506,,,,,,,,,,,,
31011,0,USNebraskaBoone,Nebraska,Boone,2022-04-28 09:13:11,2022-01-25,3.605119459897024,5.722325485066692,9.587079384792506,,,,,,,,,,,,
31011,0,USNebraskaBoone,Nebraska,Boone,2022-04-28 09:13:11,2022-01-26,3.605119459897024,5.722325485066692,9.587079384792506,,,,,,,,,,,,
31011,0,USNebraskaBoone,Nebraska,Boone,2022-04-28 09:13:11,2022-01-27,1.6079856170665712,3.0262922425450482,6.089700705085723,,,,,,,,,,,,
31011,0,USNebraskaBoone,Nebraska,Boone,2022-04-28 09:13:11,2022-01-28,1.6079856170665712,3.0262922425450482,6.089700705085723,,,,,,,,,,,,
31011,0,USNebraskaBoone,Nebraska,Boone,2022-04-28 09:13:11,2022-01-29,1.6079856170665712,3.0262922425450482,6.089700705085723,,,,,,,,,,,,
31011,0,USNebraskaBoone,Nebraska,Boone,2022-04-28 09:13:11,2022-01-30,1.6079856170665712,3.0262922425450482,6.089700705085723,,,,,,,,,,,,
31011,0,USNebraskaBoone,Nebraska,Boone,2022-04-28 09:13:11,2022-01-31,1.6079856170665712,3.0262922425450482,6.089700705085723,,,,,,,,,,,,
31011,0,USNebraskaBoone,Nebraska,Boone,2022-04-28 09:13:11,2022-02-01,1.6079856170665712,3.0262922425450482,6.089700705085723,,,,,,,,,,,,
31011,0,USNebraskaBoone,Nebraska,Boone,2022-04-28 09:13:11,2022-02-02,1.6079856170665712,3.0262922425450482,6.089700705085723,,,,,,,,,,,,
31011,0,USNebraskaBoone,Nebraska,Boone,2022-04-28 09:13:11,2022-02-03,1.5191329989581295,2.2965089794852154,3.6456731290327067,,,,,,,,,,,,
31011,0,USNebraskaBoone,Nebraska,Boone,2022-04-28 09:13:11,2022-02-04,1.5191329989581295,2.2965089794852154,3.6456731290327067,,,,,,,,,,,,
31011,0,USNebraskaBoone,Nebraska,Boone,2022-04-28 09:13:11,2022-02-05,1.5191329989581295,2.2965089794852154,3.6456731290327067,,,,,,,,,,,,
31011,0,USNebraskaBoone,Nebraska,Boone,2022-04-28 09:13:11,2022-02-06,1.5191329989581295,2.2965089794852154,3.6456731290327067,,,,,,,,,,,,
31011,0,USNebraskaBoone,Nebraska,Boone,2022-04-28 09:13:11,2022-02-07,1.5191329989581295,2.2965089794852154,3.6456731290327067,,,,,,,,,,,,
31011,0,USNebraskaBoone,Nebraska,Boone,2022-04-28 09:13:11,2022-02-08,1.5191329989581295,2.2965089794852154,3.6456731290327067,,,,,,,,,,,,
31011,0,USNebraskaBoone,Nebraska,Boone,2022-04-28 09:13:11,2022-02-09,1.5191329989581295,2.2965089794852154,3.6456731290327067,,,,,,,,,,,,
31011,0,USNebraskaBoone,Nebraska,Boone,2022-04-28 09:13:11,2022-02-10,0.4017510087612695,0.7556899118139779,1.5197553655013183,,,,,,,,,,,,
31011,0,USNebraskaBoone,Nebraska,Boone,2022-04-28 09:13:11,2022-02-11,0.4017510087612695,0.7556899118139779,1.5197553655013183,,,,,,,,,,,,
31011,0,USNebraskaBoone,Nebraska,Boone,2022-04-28 09:13:11,2022-02-12,0.4017510087612695,0.7556899118139779,1.5197553655013183,,,,,,,,,,,,
31011,0,USNebraskaBoone,Nebraska,Boone,2022-04-28 09:13:11,2022-02-13,0.4017510087612695,0.7556899118139779,1.5197553655013183,,,,,,,,,,,,
31011,0,USNebraskaBoone,Nebraska,Boone,2022-04-28 09:13:11,2022-02-14,0.4017510087612695,0.7556899118139779,1.5197553655013183,,,,,,,,,,,,
31011,0,USNebraskaBoone,Nebraska,Boone,2022-04-28 09:13:11,2022-02-15,0.4017510087612695,0.7556899118139779,1.5197553655013183,,,,,,,,,,,,
31011,0,USNebraskaBoone,Nebraska,Boone,2022-04-28 09:13:11,2022-02-16,0.4017510087612695,0.7556899118139779,1.5197553655013183,,,,,,,,,,,,
31011,0,USNebraskaBoone,Nebraska,Boone,2022-04-28 09:13:11,2022-02-17,0.5514470577702223,0.9013523682037601,1.559372584899354,,,,,,,,,,,,
31011,0,USNebraskaBoone,Nebraska,Boone,2022-04-28 09:13:11,2022-02-18,0.5514470577702223,0.9013523682037601,1.559372584899354,,,,,,,,,,,,
31011,0,USNebraskaBoone,Nebraska,Boone,2022-04-28 09:13:11,2022-02-19,0.5514470577702223,0.9013523682037601,1.559372584899354,,,,,,,,,,,,
31011,0,USNebraskaBoone,Nebraska,Boone,2022-04-28 09:13:11,2022-02-20,0.5514470577702223,0.9013523682037601,1.559372584899354,,,,,,,,,,,,
31011,0,USNebraskaBoone,Nebraska,Boone,2022-04-28 09:13:11,2022-02-21,0.5514470577702223,0.9013523682037601,1.559372584899354,,,,,,,,,,,,
31011,0,USNebraskaBoone,Nebraska,Boone,2022-04-28 09:13:11,2022-02-22,0.5514470577702223,0.9013523682037601,1.559372584899354,,,,,,,,,,,,
31011,0,USNebraskaBoone,Nebraska,Boone,2022-04-28 09:13:11,2022-02-23,0.5514470577702223,0.9013523682037601,1.559372584899354,,,,,,,,,,,,
31011,0,USNebraskaBoone,Nebraska,Boone,2022-04-28 09:13:11,2022-02-24,2.7634702527360764,4.526324383374447,7.848420928053003,,,,,,,,,,,,
31011,0,USNebraskaBoone,Nebraska,Boone,2022-04-28 09:13:11,2022-02-25,2.7634702527360764,4.526324383374447,7.848420928053003,,,,,,,,,,,,
31011,0,USNebraskaBoone,Nebraska,Boone,2022-04-28 09:13:11,2022-02-26,2.7634702527360764,4.526324383374447,7.848420928053003,,,,,,,,,,,,
31011,0,USNebraskaBoone,Nebraska,Boone,2022-04-28 09:13:11,2022-02-27,2.7634702527360764,4.526324383374447,7.848420928053003,,,,,,,,,,,,
31011,0,USNebraskaBoone,Nebraska,Boone,2022-04-28 09:13:11,2022-02-28,2.7634702527360764,4.526324383374447,7.848420928053003,,,,,,,,,,,,
31011,0,USNebraskaBoone,Nebraska,Boone,2022-04-28 09:13:11,2022-03-01,2.7634702527360764,4.526324383374447,7.848420928053003,,,,,,,,,,,,
31011,0,USNebraskaBoone,Nebraska,Boone,2022-04-28 09:13:11,2022-03-02,2.7634702527360764,4.526324383374447,7.848420928053003,,,,,,,,,,,,
31011,0,USNebraskaBoone,Nebraska,Boone,2022-04-28 09:13:11,2022-03-03,0.17852951192913247,0.3694955688780989,0.8209313832102123,,,,,,,,,,,,
31011,0,USNebraskaBoone,Nebraska,Boone,2022-04-28 09:13:11,2022-03-04,0.17852951192913247,0.3694955688780989,0.8209313832102123,,,,,,,,,,,,
31011,0,USNebraskaBoone,Nebraska,Boone,2022-04-28 09:13:11,2022-03-05,0.17852951192913247,0.3694955688780989,0.8209313832102123,,,,,,,,,,,,
31011,0,USNebraskaBoone,Nebraska,Boone,2022-04-28 09:13:11,2022-03-06,0.17852951192913247,0.3694955688780989,0.8209313832102123,,,,,,,,,,,,
31011,0,USNebraskaBoone,Nebraska,Boone,2022-04-28 09:13:11,2022-03-07,0.17852951192913247,0.3694955688780989,0.8209313832102123,,,,,,,,,,,,
31011,0,USNebraskaBoone,Nebraska,Boone,2022-04-28 09:13:11,2022-03-08,0.17852951192913247,0.3694955688780989,0.8209313832102123,,,,,,,,,,,,
31011,0,USNebraskaBoone,Nebraska,Boone,2022-04-28 09:13:11,2022-03-09,0.17852951192913247,0.3694955688780989,0.8209313832102123,,,,,,,,,,,,
31011,0,USNebraskaBoone,Nebraska,Boone,2022-04-28 09:13:11,2022-03-10,0.09342553707738069,0.20146365206794295,0.46688345403004217,,,,,,,,,,,,
31011,0,USNebraskaBoone,Nebraska,Boone,2022-04-28 09:13:11,2022-03-11,0.09342553707738069,0.20146365206794295,0.46688345403004217,,,,,,,,,,,,
31011,0,USNebraskaBoone,Nebraska,Boone,2022-04-28 09:13:11,2022-03-12,0.09342553707738069,0.20146365206794295,0.46688345403004217,,,,,,,,,,,,
31011,0,USNebraskaBoone,Nebraska,Boone,2022-04-28 09:13:11,2022-03-13,0.09342553707738069,0.20146365206794295,0.46688345403004217,,,,,,,,,,,,
31011,0,USNebraskaBoone,Nebraska,Boone,2022-04-28 09:13:11,2022-03-14,0.09342553707738069,0.20146365206794295,0.46688345403004217,,,,,,,,,,,,
31011,0,USNebraskaBoone,Nebraska,Boone,2022-04-28 09:13:11,2022-03-15,0.09342553707738069,0.20146365206794295,0.46688345403004217,,,,,,,,,,,,
31011,0,USNebraskaBoone,Nebraska,Boone,2022-04-28 09:13:11,2022-03-16,0.09342553707738069,0.20146365206794295,0.46688345403004217,,,,,,,,,,,,
31011,0,USNebraskaBoone,Nebraska,Boone,2022-04-28 09:13:11,2022-03-17,0.07978148243207234,0.14909813439679617,0.2978052746913088,,,,,,,,,,,,
31011,0,USNebraskaBoone,Nebraska,Boone,2022-04-28 09:13:11,2022-03-18,0.07978148243207234,0.14909813439679617,0.2978052746913088,,,,,,,,,,,,
31011,0,USNebraskaBoone,Nebraska,Boone,2022-04-28 09:13:11,2022-03-19,0.07978148243207234,0.14909813439679617,0.2978052746913088,,,,,,,,,,,,
31011,0,USNebraskaBoone,Nebraska,Boone,2022-04-28 09:13:11,2022-03-20,0.07978148243207234,0.14909813439679617,0.2978052746913088,,,,,,,,,,,,
31011,0,USNebraskaBoone,Nebraska,Boone,2022-04-28 09:13:11,2022-03-21,0.07978148243207234,0.14909813439679617,0.2978052746913088,,,,,,,,,,,,
31011,0,USNebraskaBoone,Nebraska,Boone,2022-04-28 09:13:11,2022-03-22,0.07978148243207234,0.14909813439679617,0.2978052746913088,,,,,,,,,,,,
31011,0,USNebraskaBoone,Nebraska,Boone,2022-04-28 09:13:11,2022-03-23,0.07978148243207234,0.14909813439679617,0.2978052746913088,,,,,,,,,,,,
31011,0,USNebraskaBoone,Nebraska,Boone,2022-04-28 09:13:11,2022-03-24,0.2421411740434816,0.45734549975943717,0.9237589206796555,,,,,,,,,,,,
31011,0,USNebraskaBoone,Nebraska,Boone,2022-04-28 09:13:11,2022-03-25,0.2421411740434816,0.45734549975943717,0.9237589206796555,,,,,,,,,,,,
31011,0,USNebraskaBoone,Nebraska,Boone,2022-04-28 09:13:11,2022-03-26,0.2421411740434816,0.45734549975943717,0.9237589206796555,,,,,,,,,,,,
31011,0,USNebraskaBoone,Nebraska,Boone,2022-04-28 09:13:11,2022-03-27,0.2421411740434816,0.45734549975943717,0.9237589206796555,,,,,,,,,,,,
31011,0,USNebraskaBoone,Nebraska,Boone,2022-04-28 09:13:11,2022-03-28,0.2421411740434816,0.45734549975943717,0.9237589206796555,,,,,,,,,,,,
31011,0,USNebraskaBoone,Nebraska,Boone,2022-04-28 09:13:11,2022-03-29,0.2421411740434816,0.45734549975943717,0.9237589206796555,,,,,,,,,,,,
31011,0,USNebraskaBoone,Nebraska,Boone,2022-04-28 09:13:11,2022-03-30,0.2421411740434816,0.45734549975943717,0.9237589206796555,,,,,,,,,,,,
31011,0,USNebraskaBoone,Nebraska,Boone,2022-04-28 09:13:11,2022-03-31,0.2980097947776903,0.5231078879534166,0.9775111631153471,,,,,,,,,,,,
31011,0,USNebraskaBoone,Nebraska,Boone,2022-04-28 09:13:11,2022-04-01,0.2980097947776903,0.5231078879534166,0.9775111631153471,,,,,,,,,,,,
31011,0,USNebraskaBoone,Nebraska,Boone,2022-04-28 09:13:11,2022-04-02,0.2980097947776903,0.5231078879534166,0.9775111631153471,,,,,,,,,,,,
31011,0,USNebraskaBoone,Nebraska,Boone,2022-04-28 09:13:11,2022-04-03,0.2980097947776903,0.5231078879534166,0.9775111631153471,,,,,,,,,,,,
31011,0,USNebraskaBoone,Nebraska,Boone,2022-04-28 09:13:11,2022-04-04,0.2980097947776903,0.5231078879534166,0.9775111631153471,,,,,,,,,,,,
31011,0,USNebraskaBoone,Nebraska,Boone,2022-04-28 09:13:11,2022-04-05,0.2980097947776903,0.5231078879534166,0.9775111631153471,,,,,,,,,,,,
31011,0,USNebraskaBoone,Nebraska,Boone,2022-04-28 09:13:11,2022-04-06,0.2980097947776903,0.5231078879534166,0.9775111631153471,,,,,,,,,,,,
31011,0,USNebraskaBoone,Nebraska,Boone,2022-04-28 09:13:11,2022-04-07,0,0,0,,,,,,,,,,,,
31011,0,USNebraskaBoone,Nebraska,Boone,2022-04-28 09:13:11,2022-04-08,0,0,0,,,,,,,,,,,,
31011,0,USNebraskaBoone,Nebraska,Boone,2022-04-28 09:13:11,2022-04-09,0,0,0,,,,,,,,,,,,
31011,0,USNebraskaBoone,Nebraska,Boone,2022-04-28 09:13:11,2022-04-10,0,0,0,,,,,,,,,,,,
31011,0,USNebraskaBoone,Nebraska,Boone,2022-04-28 09:13:11,2022-04-11,0,0,0,,,,,,,,,,,,
31011,0,USNebraskaBoone,Nebraska,Boone,2022-04-28 09:13:11,2022-04-12,0,0,0,,,,,,,,,,,,
31011,0,USNebraskaBoone,Nebraska,Boone,2022-04-28 09:13:11,2022-04-13,0,0,0,,,,,,,,,,,,
31011,0,USNebraskaBoone,Nebraska,Boone,2022-04-28 09:13:11,2022-04-14,0.1685847453350823,0.33124906578589347,0.6973493294592861,,,,,,,,,,,,
31011,0,USNebraskaBoone,Nebraska,Boone,2022-04-28 09:13:11,2022-04-15,0.1685847453350823,0.33124906578589347,0.6973493294592861,,,,,,,,,,,,
31011,0,USNebraskaBoone,Nebraska,Boone,2022-04-28 09:13:11,2022-04-16,0.1685847453350823,0.33124906578589347,0.6973493294592861,,,,,,,,,,,,
31011,0,USNebraskaBoone,Nebraska,Boone,2022-04-28 09:13:11,2022-04-17,0.1685847453350823,0.33124906578589347,0.6973493294592861,,,,,,,,,,,,
31011,0,USNebraskaBoone,Nebraska,Boone,2022-04-28 09:13:11,2022-04-18,0.1685847453350823,0.33124906578589347,0.6973493294592861,,,,,,,,,,,,
31011,0,USNebraskaBoone,Nebraska,Boone,2022-04-28 09:13:11,2022-04-19,0.1685847453350823,0.33124906578589347,0.6973493294592861,,,,,,,,,,,,
31011,0,USNebraskaBoone,Nebraska,Boone,2022-04-28 09:13:11,2022-04-20,0.1685847453350823,0.33124906578589347,0.6973493294592861,,,,,,,,,,,,
31011,0,USNebraskaBoone,Nebraska,Boone,2022-04-28 09:13:11,2022-04-21,1.482679098741763,3.173923149910645,7.300480559286508,,,,,,,,,,,,
31011,0,USNebraskaBoone,Nebraska,Boone,2022-04-28 09:13:11,2022-04-22,1.482679098741763,3.173923149910645,7.300480559286508,,,,,,,,,,,,
31011,0,USNebraskaBoone,Nebraska,Boone,2022-04-28 09:13:11,2022-04-23,1.482679098741763,3.173923149910645,7.300480559286508,,,,,,,,,,,,
31011,0,USNebraskaBoone,Nebraska,Boone,2022-04-28 09:13:11,2022-04-24,1.482679098741763,3.173923149910645,7.300480559286508,,,,,,,,,,,,
31011,0,USNebraskaBoone,Nebraska,Boone,2022-04-28 09:13:11,2022-04-25,1.482679098741763,3.173923149910645,7.300480559286508,,,,,,,,,,,,
31011,0,USNebraskaBoone,Nebraska,Boone,2022-04-28 09:13:11,2022-04-26,1.482679098741763,3.173923149910645,7.300480559286508,,,,,,,,,,,,
31011,0,USNebraskaBoone,Nebraska,Boone,2022-04-28 09:13:11,2022-04-27,1.482679098741763,3.173923149910645,7.300480559286508,,,,,,,,,,,,
