FIPS,HR_UID,nameid,province,region,analysisTime,dates,pointprevalence_025,pointprevalence_50,pointprevalence_975,pointinfections_025,pointinfections_50,pointinfections_975,pointinfectious_025,pointinfectious_50,pointinfectious_975,pointinfectiousprevalence_025,pointinfectiousprevalence_50,pointinfectiousprevalence_975,infectrate_025,infectrate_50,infectrate_975
40097,0,USOklahomaMayes,Oklahoma,Mayes,2022-04-28 09:13:11,2020-03-19,0.040847127927902904,0.24418939849239393,1.5239110671851375,,,,,,,,,,,,
40097,0,USOklahomaMayes,Oklahoma,Mayes,2022-04-28 09:13:11,2020-03-20,0.040847127927902904,0.24418939849239393,1.5239110671851375,,,,,,,,,,,,
40097,0,USOklahomaMayes,Oklahoma,Mayes,2022-04-28 09:13:11,2020-03-21,0.040847127927902904,0.24418939849239393,1.5239110671851375,,,,,,,,,,,,
40097,0,USOklahomaMayes,Oklahoma,Mayes,2022-04-28 09:13:11,2020-03-22,0.040847127927902904,0.24418939849239393,1.5239110671851375,,,,,,,,,,,,
40097,0,USOklahomaMayes,Oklahoma,Mayes,2022-04-28 09:13:11,2020-03-23,0.040847127927902904,0.24418939849239393,1.5239110671851375,,,,,,,,,,,,
40097,0,USOklahomaMayes,Oklahoma,Mayes,2022-04-28 09:13:11,2020-03-24,0.040847127927902904,0.24418939849239393,1.5239110671851375,,,,,,,,,,,,
40097,0,USOklahomaMayes,Oklahoma,Mayes,2022-04-28 09:13:11,2020-03-25,0.040847127927902904,0.24418939849239393,1.5239110671851375,,,,,,,,,,,,
40097,0,USOklahomaMayes,Oklahoma,Mayes,2022-04-28 09:13:11,2020-03-26,0.1401395243596804,0.745414657210712,4.1600292041968805,,,,,,,,,,,,
40097,0,USOklahomaMayes,Oklahoma,Mayes,2022-04-28 09:13:11,2020-03-27,0.1401395243596804,0.745414657210712,4.1600292041968805,,,,,,,,,,,,
40097,0,USOklahomaMayes,Oklahoma,Mayes,2022-04-28 09:13:11,2020-03-28,0.1401395243596804,0.745414657210712,4.1600292041968805,,,,,,,,,,,,
40097,0,USOklahomaMayes,Oklahoma,Mayes,2022-04-28 09:13:11,2020-03-29,0.1401395243596804,0.745414657210712,4.1600292041968805,,,,,,,,,,,,
40097,0,USOklahomaMayes,Oklahoma,Mayes,2022-04-28 09:13:11,2020-03-30,0.1401395243596804,0.745414657210712,4.1600292041968805,,,,,,,,,,,,
40097,0,USOklahomaMayes,Oklahoma,Mayes,2022-04-28 09:13:11,2020-03-31,0.1401395243596804,0.745414657210712,4.1600292041968805,,,,,,,,,,,,
40097,0,USOklahomaMayes,Oklahoma,Mayes,2022-04-28 09:13:11,2020-04-01,0.1401395243596804,0.745414657210712,4.1600292041968805,,,,,,,,,,,,
40097,0,USOklahomaMayes,Oklahoma,Mayes,2022-04-28 09:13:11,2020-04-02,0.12097536989714003,0.3641623784977838,1.176310262544667,,,,,,,,,,,,
40097,0,USOklahomaMayes,Oklahoma,Mayes,2022-04-28 09:13:11,2020-04-03,0.12097536989714003,0.3641623784977838,1.176310262544667,,,,,,,,,,,,
40097,0,USOklahomaMayes,Oklahoma,Mayes,2022-04-28 09:13:11,2020-04-04,0.12097536989714003,0.3641623784977838,1.176310262544667,,,,,,,,,,,,
40097,0,USOklahomaMayes,Oklahoma,Mayes,2022-04-28 09:13:11,2020-04-05,0.12097536989714003,0.3641623784977838,1.176310262544667,,,,,,,,,,,,
40097,0,USOklahomaMayes,Oklahoma,Mayes,2022-04-28 09:13:11,2020-04-06,0.12097536989714003,0.3641623784977838,1.176310262544667,,,,,,,,,,,,
40097,0,USOklahomaMayes,Oklahoma,Mayes,2022-04-28 09:13:11,2020-04-07,0.12097536989714003,0.3641623784977838,1.176310262544667,,,,,,,,,,,,
40097,0,USOklahomaMayes,Oklahoma,Mayes,2022-04-28 09:13:11,2020-04-08,0.12097536989714003,0.3641623784977838,1.176310262544667,,,,,,,,,,,,
40097,0,USOklahomaMayes,Oklahoma,Mayes,2022-04-28 09:13:11,2020-04-09,0.08460523408482186,0.25014690895942265,0.7939896308694742,,,,,,,,,,,,
40097,0,USOklahomaMayes,Oklahoma,Mayes,2022-04-28 09:13:11,2020-04-10,0.08460523408482186,0.25014690895942265,0.7939896308694742,,,,,,,,,,,,
40097,0,USOklahomaMayes,Oklahoma,Mayes,2022-04-28 09:13:11,2020-04-11,0.08460523408482186,0.25014690895942265,0.7939896308694742,,,,,,,,,,,,
40097,0,USOklahomaMayes,Oklahoma,Mayes,2022-04-28 09:13:11,2020-04-12,0.08460523408482186,0.25014690895942265,0.7939896308694742,,,,,,,,,,,,
40097,0,USOklahomaMayes,Oklahoma,Mayes,2022-04-28 09:13:11,2020-04-13,0.08460523408482186,0.25014690895942265,0.7939896308694742,,,,,,,,,,,,
40097,0,USOklahomaMayes,Oklahoma,Mayes,2022-04-28 09:13:11,2020-04-14,0.08460523408482186,0.25014690895942265,0.7939896308694742,,,,,,,,,,,,
40097,0,USOklahomaMayes,Oklahoma,Mayes,2022-04-28 09:13:11,2020-04-15,0.08460523408482186,0.25014690895942265,0.7939896308694742,,,,,,,,,,,,
40097,0,USOklahomaMayes,Oklahoma,Mayes,2022-04-28 09:13:11,2020-04-16,0.05489152563569582,0.17340101371824615,0.5870110092160089,,,,,,,,,,,,
40097,0,USOklahomaMayes,Oklahoma,Mayes,2022-04-28 09:13:11,2020-04-17,0.05489152563569582,0.17340101371824615,0.5870110092160089,,,,,,,,,,,,
40097,0,USOklahomaMayes,Oklahoma,Mayes,2022-04-28 09:13:11,2020-04-18,0.05489152563569582,0.17340101371824615,0.5870110092160089,,,,,,,,,,,,
40097,0,USOklahomaMayes,Oklahoma,Mayes,2022-04-28 09:13:11,2020-04-19,0.05489152563569582,0.17340101371824615,0.5870110092160089,,,,,,,,,,,,
40097,0,USOklahomaMayes,Oklahoma,Mayes,2022-04-28 09:13:11,2020-04-20,0.05489152563569582,0.17340101371824615,0.5870110092160089,,,,,,,,,,,,
40097,0,USOklahomaMayes,Oklahoma,Mayes,2022-04-28 09:13:11,2020-04-21,0.05489152563569582,0.17340101371824615,0.5870110092160089,,,,,,,,,,,,
40097,0,USOklahomaMayes,Oklahoma,Mayes,2022-04-28 09:13:11,2020-04-22,0.05489152563569582,0.17340101371824615,0.5870110092160089,,,,,,,,,,,,
40097,0,USOklahomaMayes,Oklahoma,Mayes,2022-04-28 09:13:11,2020-04-23,0.04067325372734906,0.14032977619553055,0.5173455310760067,,,,,,,,,,,,
40097,0,USOklahomaMayes,Oklahoma,Mayes,2022-04-28 09:13:11,2020-04-24,0.04067325372734906,0.14032977619553055,0.5173455310760067,,,,,,,,,,,,
40097,0,USOklahomaMayes,Oklahoma,Mayes,2022-04-28 09:13:11,2020-04-25,0.04067325372734906,0.14032977619553055,0.5173455310760067,,,,,,,,,,,,
40097,0,USOklahomaMayes,Oklahoma,Mayes,2022-04-28 09:13:11,2020-04-26,0.04067325372734906,0.14032977619553055,0.5173455310760067,,,,,,,,,,,,
40097,0,USOklahomaMayes,Oklahoma,Mayes,2022-04-28 09:13:11,2020-04-27,0.04067325372734906,0.14032977619553055,0.5173455310760067,,,,,,,,,,,,
40097,0,USOklahomaMayes,Oklahoma,Mayes,2022-04-28 09:13:11,2020-04-28,0.04067325372734906,0.14032977619553055,0.5173455310760067,,,,,,,,,,,,
40097,0,USOklahomaMayes,Oklahoma,Mayes,2022-04-28 09:13:11,2020-04-29,0.04067325372734906,0.14032977619553055,0.5173455310760067,,,,,,,,,,,,
40097,0,USOklahomaMayes,Oklahoma,Mayes,2022-04-28 09:13:11,2020-04-30,0.05326775946603922,0.16406366550349907,0.5419062584507652,,,,,,,,,,,,
40097,0,USOklahomaMayes,Oklahoma,Mayes,2022-04-28 09:13:11,2020-05-01,0.05326775946603922,0.16406366550349907,0.5419062584507652,,,,,,,,,,,,
40097,0,USOklahomaMayes,Oklahoma,Mayes,2022-04-28 09:13:11,2020-05-02,0.05326775946603922,0.16406366550349907,0.5419062584507652,,,,,,,,,,,,
40097,0,USOklahomaMayes,Oklahoma,Mayes,2022-04-28 09:13:11,2020-05-03,0.05326775946603922,0.16406366550349907,0.5419062584507652,,,,,,,,,,,,
40097,0,USOklahomaMayes,Oklahoma,Mayes,2022-04-28 09:13:11,2020-05-04,0.05326775946603922,0.16406366550349907,0.5419062584507652,,,,,,,,,,,,
40097,0,USOklahomaMayes,Oklahoma,Mayes,2022-04-28 09:13:11,2020-05-05,0.05326775946603922,0.16406366550349907,0.5419062584507652,,,,,,,,,,,,
40097,0,USOklahomaMayes,Oklahoma,Mayes,2022-04-28 09:13:11,2020-05-06,0.05326775946603922,0.16406366550349907,0.5419062584507652,,,,,,,,,,,,
40097,0,USOklahomaMayes,Oklahoma,Mayes,2022-04-28 09:13:11,2020-05-07,0.03644760821325638,0.11474841736651506,0.38718283827734556,,,,,,,,,,,,
40097,0,USOklahomaMayes,Oklahoma,Mayes,2022-04-28 09:13:11,2020-05-08,0.03644760821325638,0.11474841736651506,0.38718283827734556,,,,,,,,,,,,
40097,0,USOklahomaMayes,Oklahoma,Mayes,2022-04-28 09:13:11,2020-05-09,0.03644760821325638,0.11474841736651506,0.38718283827734556,,,,,,,,,,,,
40097,0,USOklahomaMayes,Oklahoma,Mayes,2022-04-28 09:13:11,2020-05-10,0.03644760821325638,0.11474841736651506,0.38718283827734556,,,,,,,,,,,,
40097,0,USOklahomaMayes,Oklahoma,Mayes,2022-04-28 09:13:11,2020-05-11,0.03644760821325638,0.11474841736651506,0.38718283827734556,,,,,,,,,,,,
40097,0,USOklahomaMayes,Oklahoma,Mayes,2022-04-28 09:13:11,2020-05-12,0.03644760821325638,0.11474841736651506,0.38718283827734556,,,,,,,,,,,,
40097,0,USOklahomaMayes,Oklahoma,Mayes,2022-04-28 09:13:11,2020-05-13,0.03644760821325638,0.11474841736651506,0.38718283827734556,,,,,,,,,,,,
40097,0,USOklahomaMayes,Oklahoma,Mayes,2022-04-28 09:13:11,2020-05-14,0.03415209775643987,0.10176220187205376,0.3254584571588877,,,,,,,,,,,,
40097,0,USOklahomaMayes,Oklahoma,Mayes,2022-04-28 09:13:11,2020-05-15,0.03415209775643987,0.10176220187205376,0.3254584571588877,,,,,,,,,,,,
40097,0,USOklahomaMayes,Oklahoma,Mayes,2022-04-28 09:13:11,2020-05-16,0.03415209775643987,0.10176220187205376,0.3254584571588877,,,,,,,,,,,,
40097,0,USOklahomaMayes,Oklahoma,Mayes,2022-04-28 09:13:11,2020-05-17,0.03415209775643987,0.10176220187205376,0.3254584571588877,,,,,,,,,,,,
40097,0,USOklahomaMayes,Oklahoma,Mayes,2022-04-28 09:13:11,2020-05-18,0.03415209775643987,0.10176220187205376,0.3254584571588877,,,,,,,,,,,,
40097,0,USOklahomaMayes,Oklahoma,Mayes,2022-04-28 09:13:11,2020-05-19,0.03415209775643987,0.10176220187205376,0.3254584571588877,,,,,,,,,,,,
40097,0,USOklahomaMayes,Oklahoma,Mayes,2022-04-28 09:13:11,2020-05-20,0.03415209775643987,0.10176220187205376,0.3254584571588877,,,,,,,,,,,,
40097,0,USOklahomaMayes,Oklahoma,Mayes,2022-04-28 09:13:11,2020-05-21,0.03461972589427221,0.10435457711151781,0.33753043463856536,,,,,,,,,,,,
40097,0,USOklahomaMayes,Oklahoma,Mayes,2022-04-28 09:13:11,2020-05-22,0.03461972589427221,0.10435457711151781,0.33753043463856536,,,,,,,,,,,,
40097,0,USOklahomaMayes,Oklahoma,Mayes,2022-04-28 09:13:11,2020-05-23,0.03461972589427221,0.10435457711151781,0.33753043463856536,,,,,,,,,,,,
40097,0,USOklahomaMayes,Oklahoma,Mayes,2022-04-28 09:13:11,2020-05-24,0.03461972589427221,0.10435457711151781,0.33753043463856536,,,,,,,,,,,,
40097,0,USOklahomaMayes,Oklahoma,Mayes,2022-04-28 09:13:11,2020-05-25,0.03461972589427221,0.10435457711151781,0.33753043463856536,,,,,,,,,,,,
40097,0,USOklahomaMayes,Oklahoma,Mayes,2022-04-28 09:13:11,2020-05-26,0.03461972589427221,0.10435457711151781,0.33753043463856536,,,,,,,,,,,,
40097,0,USOklahomaMayes,Oklahoma,Mayes,2022-04-28 09:13:11,2020-05-27,0.03461972589427221,0.10435457711151781,0.33753043463856536,,,,,,,,,,,,
40097,0,USOklahomaMayes,Oklahoma,Mayes,2022-04-28 09:13:11,2020-05-28,0,0,0,,,,,,,,,,,,
40097,0,USOklahomaMayes,Oklahoma,Mayes,2022-04-28 09:13:11,2020-05-29,0,0,0,,,,,,,,,,,,
40097,0,USOklahomaMayes,Oklahoma,Mayes,2022-04-28 09:13:11,2020-05-30,0,0,0,,,,,,,,,,,,
40097,0,USOklahomaMayes,Oklahoma,Mayes,2022-04-28 09:13:11,2020-05-31,0,0,0,,,,,,,,,,,,
40097,0,USOklahomaMayes,Oklahoma,Mayes,2022-04-28 09:13:11,2020-06-01,0,0,0,,,,,,,,,,,,
40097,0,USOklahomaMayes,Oklahoma,Mayes,2022-04-28 09:13:11,2020-06-02,0,0,0,,,,,,,,,,,,
40097,0,USOklahomaMayes,Oklahoma,Mayes,2022-04-28 09:13:11,2020-06-03,0,0,0,,,,,,,,,,,,
40097,0,USOklahomaMayes,Oklahoma,Mayes,2022-04-28 09:13:11,2020-06-04,0.09130874002027015,0.21530034094424527,0.5462724925485978,,,,,,,,,,,,
40097,0,USOklahomaMayes,Oklahoma,Mayes,2022-04-28 09:13:11,2020-06-05,0.09130874002027015,0.21530034094424527,0.5462724925485978,,,,,,,,,,,,
40097,0,USOklahomaMayes,Oklahoma,Mayes,2022-04-28 09:13:11,2020-06-06,0.09130874002027015,0.21530034094424527,0.5462724925485978,,,,,,,,,,,,
40097,0,USOklahomaMayes,Oklahoma,Mayes,2022-04-28 09:13:11,2020-06-07,0.09130874002027015,0.21530034094424527,0.5462724925485978,,,,,,,,,,,,
40097,0,USOklahomaMayes,Oklahoma,Mayes,2022-04-28 09:13:11,2020-06-08,0.09130874002027015,0.21530034094424527,0.5462724925485978,,,,,,,,,,,,
40097,0,USOklahomaMayes,Oklahoma,Mayes,2022-04-28 09:13:11,2020-06-09,0.09130874002027015,0.21530034094424527,0.5462724925485978,,,,,,,,,,,,
40097,0,USOklahomaMayes,Oklahoma,Mayes,2022-04-28 09:13:11,2020-06-10,0.09130874002027015,0.21530034094424527,0.5462724925485978,,,,,,,,,,,,
40097,0,USOklahomaMayes,Oklahoma,Mayes,2022-04-28 09:13:11,2020-06-11,0.26307694654317554,0.574029455324396,1.346408544056824,,,,,,,,,,,,
40097,0,USOklahomaMayes,Oklahoma,Mayes,2022-04-28 09:13:11,2020-06-12,0.26307694654317554,0.574029455324396,1.346408544056824,,,,,,,,,,,,
40097,0,USOklahomaMayes,Oklahoma,Mayes,2022-04-28 09:13:11,2020-06-13,0.26307694654317554,0.574029455324396,1.346408544056824,,,,,,,,,,,,
40097,0,USOklahomaMayes,Oklahoma,Mayes,2022-04-28 09:13:11,2020-06-14,0.26307694654317554,0.574029455324396,1.346408544056824,,,,,,,,,,,,
40097,0,USOklahomaMayes,Oklahoma,Mayes,2022-04-28 09:13:11,2020-06-15,0.26307694654317554,0.574029455324396,1.346408544056824,,,,,,,,,,,,
40097,0,USOklahomaMayes,Oklahoma,Mayes,2022-04-28 09:13:11,2020-06-16,0.26307694654317554,0.574029455324396,1.346408544056824,,,,,,,,,,,,
40097,0,USOklahomaMayes,Oklahoma,Mayes,2022-04-28 09:13:11,2020-06-17,0.26307694654317554,0.574029455324396,1.346408544056824,,,,,,,,,,,,
40097,0,USOklahomaMayes,Oklahoma,Mayes,2022-04-28 09:13:11,2020-06-18,0.18608343557158977,0.5104968717479238,1.5057403325249286,,,,,,,,,,,,
40097,0,USOklahomaMayes,Oklahoma,Mayes,2022-04-28 09:13:11,2020-06-19,0.18608343557158977,0.5104968717479238,1.5057403325249286,,,,,,,,,,,,
40097,0,USOklahomaMayes,Oklahoma,Mayes,2022-04-28 09:13:11,2020-06-20,0.18608343557158977,0.5104968717479238,1.5057403325249286,,,,,,,,,,,,
40097,0,USOklahomaMayes,Oklahoma,Mayes,2022-04-28 09:13:11,2020-06-21,0.18608343557158977,0.5104968717479238,1.5057403325249286,,,,,,,,,,,,
40097,0,USOklahomaMayes,Oklahoma,Mayes,2022-04-28 09:13:11,2020-06-22,0.18608343557158977,0.5104968717479238,1.5057403325249286,,,,,,,,,,,,
40097,0,USOklahomaMayes,Oklahoma,Mayes,2022-04-28 09:13:11,2020-06-23,0.18608343557158977,0.5104968717479238,1.5057403325249286,,,,,,,,,,,,
40097,0,USOklahomaMayes,Oklahoma,Mayes,2022-04-28 09:13:11,2020-06-24,0.18608343557158977,0.5104968717479238,1.5057403325249286,,,,,,,,,,,,
40097,0,USOklahomaMayes,Oklahoma,Mayes,2022-04-28 09:13:11,2020-06-25,0.1584108346702739,0.4075229926238511,1.1280240966769706,,,,,,,,,,,,
40097,0,USOklahomaMayes,Oklahoma,Mayes,2022-04-28 09:13:11,2020-06-26,0.1584108346702739,0.4075229926238511,1.1280240966769706,,,,,,,,,,,,
40097,0,USOklahomaMayes,Oklahoma,Mayes,2022-04-28 09:13:11,2020-06-27,0.1584108346702739,0.4075229926238511,1.1280240966769706,,,,,,,,,,,,
40097,0,USOklahomaMayes,Oklahoma,Mayes,2022-04-28 09:13:11,2020-06-28,0.1584108346702739,0.4075229926238511,1.1280240966769706,,,,,,,,,,,,
40097,0,USOklahomaMayes,Oklahoma,Mayes,2022-04-28 09:13:11,2020-06-29,0.1584108346702739,0.4075229926238511,1.1280240966769706,,,,,,,,,,,,
40097,0,USOklahomaMayes,Oklahoma,Mayes,2022-04-28 09:13:11,2020-06-30,0.1584108346702739,0.4075229926238511,1.1280240966769706,,,,,,,,,,,,
40097,0,USOklahomaMayes,Oklahoma,Mayes,2022-04-28 09:13:11,2020-07-01,0.1584108346702739,0.4075229926238511,1.1280240966769706,,,,,,,,,,,,
40097,0,USOklahomaMayes,Oklahoma,Mayes,2022-04-28 09:13:11,2020-07-02,0.30202776248485413,0.7163970250169585,1.8285522592626342,,,,,,,,,,,,
40097,0,USOklahomaMayes,Oklahoma,Mayes,2022-04-28 09:13:11,2020-07-03,0.30202776248485413,0.7163970250169585,1.8285522592626342,,,,,,,,,,,,
40097,0,USOklahomaMayes,Oklahoma,Mayes,2022-04-28 09:13:11,2020-07-04,0.30202776248485413,0.7163970250169585,1.8285522592626342,,,,,,,,,,,,
40097,0,USOklahomaMayes,Oklahoma,Mayes,2022-04-28 09:13:11,2020-07-05,0.30202776248485413,0.7163970250169585,1.8285522592626342,,,,,,,,,,,,
40097,0,USOklahomaMayes,Oklahoma,Mayes,2022-04-28 09:13:11,2020-07-06,0.30202776248485413,0.7163970250169585,1.8285522592626342,,,,,,,,,,,,
40097,0,USOklahomaMayes,Oklahoma,Mayes,2022-04-28 09:13:11,2020-07-07,0.30202776248485413,0.7163970250169585,1.8285522592626342,,,,,,,,,,,,
40097,0,USOklahomaMayes,Oklahoma,Mayes,2022-04-28 09:13:11,2020-07-08,0.30202776248485413,0.7163970250169585,1.8285522592626342,,,,,,,,,,,,
40097,0,USOklahomaMayes,Oklahoma,Mayes,2022-04-28 09:13:11,2020-07-09,0.5075953807699503,1.094788722453797,2.5376136821709325,,,,,,,,,,,,
40097,0,USOklahomaMayes,Oklahoma,Mayes,2022-04-28 09:13:11,2020-07-10,0.5075953807699503,1.094788722453797,2.5376136821709325,,,,,,,,,,,,
40097,0,USOklahomaMayes,Oklahoma,Mayes,2022-04-28 09:13:11,2020-07-11,0.5075953807699503,1.094788722453797,2.5376136821709325,,,,,,,,,,,,
40097,0,USOklahomaMayes,Oklahoma,Mayes,2022-04-28 09:13:11,2020-07-12,0.5075953807699503,1.094788722453797,2.5376136821709325,,,,,,,,,,,,
40097,0,USOklahomaMayes,Oklahoma,Mayes,2022-04-28 09:13:11,2020-07-13,0.5075953807699503,1.094788722453797,2.5376136821709325,,,,,,,,,,,,
40097,0,USOklahomaMayes,Oklahoma,Mayes,2022-04-28 09:13:11,2020-07-14,0.5075953807699503,1.094788722453797,2.5376136821709325,,,,,,,,,,,,
40097,0,USOklahomaMayes,Oklahoma,Mayes,2022-04-28 09:13:11,2020-07-15,0.5075953807699503,1.094788722453797,2.5376136821709325,,,,,,,,,,,,
40097,0,USOklahomaMayes,Oklahoma,Mayes,2022-04-28 09:13:11,2020-07-16,0.5770041151861767,1.1373190484468572,2.402168695538175,,,,,,,,,,,,
40097,0,USOklahomaMayes,Oklahoma,Mayes,2022-04-28 09:13:11,2020-07-17,0.5770041151861767,1.1373190484468572,2.402168695538175,,,,,,,,,,,,
40097,0,USOklahomaMayes,Oklahoma,Mayes,2022-04-28 09:13:11,2020-07-18,0.5770041151861767,1.1373190484468572,2.402168695538175,,,,,,,,,,,,
40097,0,USOklahomaMayes,Oklahoma,Mayes,2022-04-28 09:13:11,2020-07-19,0.5770041151861767,1.1373190484468572,2.402168695538175,,,,,,,,,,,,
40097,0,USOklahomaMayes,Oklahoma,Mayes,2022-04-28 09:13:11,2020-07-20,0.5770041151861767,1.1373190484468572,2.402168695538175,,,,,,,,,,,,
40097,0,USOklahomaMayes,Oklahoma,Mayes,2022-04-28 09:13:11,2020-07-21,0.5770041151861767,1.1373190484468572,2.402168695538175,,,,,,,,,,,,
40097,0,USOklahomaMayes,Oklahoma,Mayes,2022-04-28 09:13:11,2020-07-22,0.5770041151861767,1.1373190484468572,2.402168695538175,,,,,,,,,,,,
40097,0,USOklahomaMayes,Oklahoma,Mayes,2022-04-28 09:13:11,2020-07-23,0.5932818316188883,1.1418075808321482,2.352197261878459,,,,,,,,,,,,
40097,0,USOklahomaMayes,Oklahoma,Mayes,2022-04-28 09:13:11,2020-07-24,0.5932818316188883,1.1418075808321482,2.352197261878459,,,,,,,,,,,,
40097,0,USOklahomaMayes,Oklahoma,Mayes,2022-04-28 09:13:11,2020-07-25,0.5932818316188883,1.1418075808321482,2.352197261878459,,,,,,,,,,,,
40097,0,USOklahomaMayes,Oklahoma,Mayes,2022-04-28 09:13:11,2020-07-26,0.5932818316188883,1.1418075808321482,2.352197261878459,,,,,,,,,,,,
40097,0,USOklahomaMayes,Oklahoma,Mayes,2022-04-28 09:13:11,2020-07-27,0.5932818316188883,1.1418075808321482,2.352197261878459,,,,,,,,,,,,
40097,0,USOklahomaMayes,Oklahoma,Mayes,2022-04-28 09:13:11,2020-07-28,0.5932818316188883,1.1418075808321482,2.352197261878459,,,,,,,,,,,,
40097,0,USOklahomaMayes,Oklahoma,Mayes,2022-04-28 09:13:11,2020-07-29,0.5932818316188883,1.1418075808321482,2.352197261878459,,,,,,,,,,,,
40097,0,USOklahomaMayes,Oklahoma,Mayes,2022-04-28 09:13:11,2020-07-30,0.44309076712842776,1.017377207142304,2.5130798584374703,,,,,,,,,,,,
40097,0,USOklahomaMayes,Oklahoma,Mayes,2022-04-28 09:13:11,2020-07-31,0.44309076712842776,1.017377207142304,2.5130798584374703,,,,,,,,,,,,
40097,0,USOklahomaMayes,Oklahoma,Mayes,2022-04-28 09:13:11,2020-08-01,0.44309076712842776,1.017377207142304,2.5130798584374703,,,,,,,,,,,,
40097,0,USOklahomaMayes,Oklahoma,Mayes,2022-04-28 09:13:11,2020-08-02,0.44309076712842776,1.017377207142304,2.5130798584374703,,,,,,,,,,,,
40097,0,USOklahomaMayes,Oklahoma,Mayes,2022-04-28 09:13:11,2020-08-03,0.44309076712842776,1.017377207142304,2.5130798584374703,,,,,,,,,,,,
40097,0,USOklahomaMayes,Oklahoma,Mayes,2022-04-28 09:13:11,2020-08-04,0.44309076712842776,1.017377207142304,2.5130798584374703,,,,,,,,,,,,
40097,0,USOklahomaMayes,Oklahoma,Mayes,2022-04-28 09:13:11,2020-08-05,0.44309076712842776,1.017377207142304,2.5130798584374703,,,,,,,,,,,,
40097,0,USOklahomaMayes,Oklahoma,Mayes,2022-04-28 09:13:11,2020-08-06,0.45041361760585824,0.9750398801440564,2.268566689443454,,,,,,,,,,,,
40097,0,USOklahomaMayes,Oklahoma,Mayes,2022-04-28 09:13:11,2020-08-07,0.45041361760585824,0.9750398801440564,2.268566689443454,,,,,,,,,,,,
40097,0,USOklahomaMayes,Oklahoma,Mayes,2022-04-28 09:13:11,2020-08-08,0.45041361760585824,0.9750398801440564,2.268566689443454,,,,,,,,,,,,
40097,0,USOklahomaMayes,Oklahoma,Mayes,2022-04-28 09:13:11,2020-08-09,0.45041361760585824,0.9750398801440564,2.268566689443454,,,,,,,,,,,,
40097,0,USOklahomaMayes,Oklahoma,Mayes,2022-04-28 09:13:11,2020-08-10,0.45041361760585824,0.9750398801440564,2.268566689443454,,,,,,,,,,,,
40097,0,USOklahomaMayes,Oklahoma,Mayes,2022-04-28 09:13:11,2020-08-11,0.45041361760585824,0.9750398801440564,2.268566689443454,,,,,,,,,,,,
40097,0,USOklahomaMayes,Oklahoma,Mayes,2022-04-28 09:13:11,2020-08-12,0.45041361760585824,0.9750398801440564,2.268566689443454,,,,,,,,,,,,
40097,0,USOklahomaMayes,Oklahoma,Mayes,2022-04-28 09:13:11,2020-08-13,0.48952867390431576,1.0008967944575877,2.1959669045743535,,,,,,,,,,,,
40097,0,USOklahomaMayes,Oklahoma,Mayes,2022-04-28 09:13:11,2020-08-14,0.48952867390431576,1.0008967944575877,2.1959669045743535,,,,,,,,,,,,
40097,0,USOklahomaMayes,Oklahoma,Mayes,2022-04-28 09:13:11,2020-08-15,0.48952867390431576,1.0008967944575877,2.1959669045743535,,,,,,,,,,,,
40097,0,USOklahomaMayes,Oklahoma,Mayes,2022-04-28 09:13:11,2020-08-16,0.48952867390431576,1.0008967944575877,2.1959669045743535,,,,,,,,,,,,
40097,0,USOklahomaMayes,Oklahoma,Mayes,2022-04-28 09:13:11,2020-08-17,0.48952867390431576,1.0008967944575877,2.1959669045743535,,,,,,,,,,,,
40097,0,USOklahomaMayes,Oklahoma,Mayes,2022-04-28 09:13:11,2020-08-18,0.48952867390431576,1.0008967944575877,2.1959669045743535,,,,,,,,,,,,
40097,0,USOklahomaMayes,Oklahoma,Mayes,2022-04-28 09:13:11,2020-08-19,0.48952867390431576,1.0008967944575877,2.1959669045743535,,,,,,,,,,,,
40097,0,USOklahomaMayes,Oklahoma,Mayes,2022-04-28 09:13:11,2020-08-20,0.31283174248435114,0.7654302387572849,2.0154938457554246,,,,,,,,,,,,
40097,0,USOklahomaMayes,Oklahoma,Mayes,2022-04-28 09:13:11,2020-08-21,0.31283174248435114,0.7654302387572849,2.0154938457554246,,,,,,,,,,,,
40097,0,USOklahomaMayes,Oklahoma,Mayes,2022-04-28 09:13:11,2020-08-22,0.31283174248435114,0.7654302387572849,2.0154938457554246,,,,,,,,,,,,
40097,0,USOklahomaMayes,Oklahoma,Mayes,2022-04-28 09:13:11,2020-08-23,0.31283174248435114,0.7654302387572849,2.0154938457554246,,,,,,,,,,,,
40097,0,USOklahomaMayes,Oklahoma,Mayes,2022-04-28 09:13:11,2020-08-24,0.31283174248435114,0.7654302387572849,2.0154938457554246,,,,,,,,,,,,
40097,0,USOklahomaMayes,Oklahoma,Mayes,2022-04-28 09:13:11,2020-08-25,0.31283174248435114,0.7654302387572849,2.0154938457554246,,,,,,,,,,,,
40097,0,USOklahomaMayes,Oklahoma,Mayes,2022-04-28 09:13:11,2020-08-26,0.31283174248435114,0.7654302387572849,2.0154938457554246,,,,,,,,,,,,
40097,0,USOklahomaMayes,Oklahoma,Mayes,2022-04-28 09:13:11,2020-08-27,0.2957356369938719,0.7460600085326703,2.025322496543288,,,,,,,,,,,,
40097,0,USOklahomaMayes,Oklahoma,Mayes,2022-04-28 09:13:11,2020-08-28,0.2957356369938719,0.7460600085326703,2.025322496543288,,,,,,,,,,,,
40097,0,USOklahomaMayes,Oklahoma,Mayes,2022-04-28 09:13:11,2020-08-29,0.2957356369938719,0.7460600085326703,2.025322496543288,,,,,,,,,,,,
40097,0,USOklahomaMayes,Oklahoma,Mayes,2022-04-28 09:13:11,2020-08-30,0.2957356369938719,0.7460600085326703,2.025322496543288,,,,,,,,,,,,
40097,0,USOklahomaMayes,Oklahoma,Mayes,2022-04-28 09:13:11,2020-08-31,0.2957356369938719,0.7460600085326703,2.025322496543288,,,,,,,,,,,,
40097,0,USOklahomaMayes,Oklahoma,Mayes,2022-04-28 09:13:11,2020-09-01,0.2957356369938719,0.7460600085326703,2.025322496543288,,,,,,,,,,,,
40097,0,USOklahomaMayes,Oklahoma,Mayes,2022-04-28 09:13:11,2020-09-02,0.2957356369938719,0.7460600085326703,2.025322496543288,,,,,,,,,,,,
40097,0,USOklahomaMayes,Oklahoma,Mayes,2022-04-28 09:13:11,2020-09-03,0.5820215828382723,1.2176726462923733,2.7356610812547295,,,,,,,,,,,,
40097,0,USOklahomaMayes,Oklahoma,Mayes,2022-04-28 09:13:11,2020-09-04,0.5820215828382723,1.2176726462923733,2.7356610812547295,,,,,,,,,,,,
40097,0,USOklahomaMayes,Oklahoma,Mayes,2022-04-28 09:13:11,2020-09-05,0.5820215828382723,1.2176726462923733,2.7356610812547295,,,,,,,,,,,,
40097,0,USOklahomaMayes,Oklahoma,Mayes,2022-04-28 09:13:11,2020-09-06,0.5820215828382723,1.2176726462923733,2.7356610812547295,,,,,,,,,,,,
40097,0,USOklahomaMayes,Oklahoma,Mayes,2022-04-28 09:13:11,2020-09-07,0.5820215828382723,1.2176726462923733,2.7356610812547295,,,,,,,,,,,,
40097,0,USOklahomaMayes,Oklahoma,Mayes,2022-04-28 09:13:11,2020-09-08,0.5820215828382723,1.2176726462923733,2.7356610812547295,,,,,,,,,,,,
40097,0,USOklahomaMayes,Oklahoma,Mayes,2022-04-28 09:13:11,2020-09-09,0.5820215828382723,1.2176726462923733,2.7356610812547295,,,,,,,,,,,,
40097,0,USOklahomaMayes,Oklahoma,Mayes,2022-04-28 09:13:11,2020-09-10,0.44329817631469093,0.968937303610566,2.2766793115208506,,,,,,,,,,,,
40097,0,USOklahomaMayes,Oklahoma,Mayes,2022-04-28 09:13:11,2020-09-11,0.44329817631469093,0.968937303610566,2.2766793115208506,,,,,,,,,,,,
40097,0,USOklahomaMayes,Oklahoma,Mayes,2022-04-28 09:13:11,2020-09-12,0.44329817631469093,0.968937303610566,2.2766793115208506,,,,,,,,,,,,
40097,0,USOklahomaMayes,Oklahoma,Mayes,2022-04-28 09:13:11,2020-09-13,0.44329817631469093,0.968937303610566,2.2766793115208506,,,,,,,,,,,,
40097,0,USOklahomaMayes,Oklahoma,Mayes,2022-04-28 09:13:11,2020-09-14,0.44329817631469093,0.968937303610566,2.2766793115208506,,,,,,,,,,,,
40097,0,USOklahomaMayes,Oklahoma,Mayes,2022-04-28 09:13:11,2020-09-15,0.44329817631469093,0.968937303610566,2.2766793115208506,,,,,,,,,,,,
40097,0,USOklahomaMayes,Oklahoma,Mayes,2022-04-28 09:13:11,2020-09-16,0.44329817631469093,0.968937303610566,2.2766793115208506,,,,,,,,,,,,
40097,0,USOklahomaMayes,Oklahoma,Mayes,2022-04-28 09:13:11,2020-09-17,0.6249595983733383,1.2609946683463984,2.728949712778781,,,,,,,,,,,,
40097,0,USOklahomaMayes,Oklahoma,Mayes,2022-04-28 09:13:11,2020-09-18,0.6249595983733383,1.2609946683463984,2.728949712778781,,,,,,,,,,,,
40097,0,USOklahomaMayes,Oklahoma,Mayes,2022-04-28 09:13:11,2020-09-19,0.6249595983733383,1.2609946683463984,2.728949712778781,,,,,,,,,,,,
40097,0,USOklahomaMayes,Oklahoma,Mayes,2022-04-28 09:13:11,2020-09-20,0.6249595983733383,1.2609946683463984,2.728949712778781,,,,,,,,,,,,
40097,0,USOklahomaMayes,Oklahoma,Mayes,2022-04-28 09:13:11,2020-09-21,0.6249595983733383,1.2609946683463984,2.728949712778781,,,,,,,,,,,,
40097,0,USOklahomaMayes,Oklahoma,Mayes,2022-04-28 09:13:11,2020-09-22,0.6249595983733383,1.2609946683463984,2.728949712778781,,,,,,,,,,,,
40097,0,USOklahomaMayes,Oklahoma,Mayes,2022-04-28 09:13:11,2020-09-23,0.6249595983733383,1.2609946683463984,2.728949712778781,,,,,,,,,,,,
40097,0,USOklahomaMayes,Oklahoma,Mayes,2022-04-28 09:13:11,2020-09-24,0.9763946363170845,1.6804183999274354,3.0742937475786527,,,,,,,,,,,,
40097,0,USOklahomaMayes,Oklahoma,Mayes,2022-04-28 09:13:11,2020-09-25,0.9763946363170845,1.6804183999274354,3.0742937475786527,,,,,,,,,,,,
40097,0,USOklahomaMayes,Oklahoma,Mayes,2022-04-28 09:13:11,2020-09-26,0.9763946363170845,1.6804183999274354,3.0742937475786527,,,,,,,,,,,,
40097,0,USOklahomaMayes,Oklahoma,Mayes,2022-04-28 09:13:11,2020-09-27,0.9763946363170845,1.6804183999274354,3.0742937475786527,,,,,,,,,,,,
40097,0,USOklahomaMayes,Oklahoma,Mayes,2022-04-28 09:13:11,2020-09-28,0.9763946363170845,1.6804183999274354,3.0742937475786527,,,,,,,,,,,,
40097,0,USOklahomaMayes,Oklahoma,Mayes,2022-04-28 09:13:11,2020-09-29,0.9763946363170845,1.6804183999274354,3.0742937475786527,,,,,,,,,,,,
40097,0,USOklahomaMayes,Oklahoma,Mayes,2022-04-28 09:13:11,2020-09-30,0.9763946363170845,1.6804183999274354,3.0742937475786527,,,,,,,,,,,,
40097,0,USOklahomaMayes,Oklahoma,Mayes,2022-04-28 09:13:11,2020-10-01,0.8696755507643076,1.5639030449853148,2.9988001311774974,,,,,,,,,,,,
40097,0,USOklahomaMayes,Oklahoma,Mayes,2022-04-28 09:13:11,2020-10-02,0.8696755507643076,1.5639030449853148,2.9988001311774974,,,,,,,,,,,,
40097,0,USOklahomaMayes,Oklahoma,Mayes,2022-04-28 09:13:11,2020-10-03,0.8696755507643076,1.5639030449853148,2.9988001311774974,,,,,,,,,,,,
40097,0,USOklahomaMayes,Oklahoma,Mayes,2022-04-28 09:13:11,2020-10-04,0.8696755507643076,1.5639030449853148,2.9988001311774974,,,,,,,,,,,,
40097,0,USOklahomaMayes,Oklahoma,Mayes,2022-04-28 09:13:11,2020-10-05,0.8696755507643076,1.5639030449853148,2.9988001311774974,,,,,,,,,,,,
40097,0,USOklahomaMayes,Oklahoma,Mayes,2022-04-28 09:13:11,2020-10-06,0.8696755507643076,1.5639030449853148,2.9988001311774974,,,,,,,,,,,,
40097,0,USOklahomaMayes,Oklahoma,Mayes,2022-04-28 09:13:11,2020-10-07,0.8696755507643076,1.5639030449853148,2.9988001311774974,,,,,,,,,,,,
40097,0,USOklahomaMayes,Oklahoma,Mayes,2022-04-28 09:13:11,2020-10-08,0.7403857242950723,1.4092737840543543,2.869755385413502,,,,,,,,,,,,
40097,0,USOklahomaMayes,Oklahoma,Mayes,2022-04-28 09:13:11,2020-10-09,0.7403857242950723,1.4092737840543543,2.869755385413502,,,,,,,,,,,,
40097,0,USOklahomaMayes,Oklahoma,Mayes,2022-04-28 09:13:11,2020-10-10,0.7403857242950723,1.4092737840543543,2.869755385413502,,,,,,,,,,,,
40097,0,USOklahomaMayes,Oklahoma,Mayes,2022-04-28 09:13:11,2020-10-11,0.7403857242950723,1.4092737840543543,2.869755385413502,,,,,,,,,,,,
40097,0,USOklahomaMayes,Oklahoma,Mayes,2022-04-28 09:13:11,2020-10-12,0.7403857242950723,1.4092737840543543,2.869755385413502,,,,,,,,,,,,
40097,0,USOklahomaMayes,Oklahoma,Mayes,2022-04-28 09:13:11,2020-10-13,0.7403857242950723,1.4092737840543543,2.869755385413502,,,,,,,,,,,,
40097,0,USOklahomaMayes,Oklahoma,Mayes,2022-04-28 09:13:11,2020-10-14,0.7403857242950723,1.4092737840543543,2.869755385413502,,,,,,,,,,,,
40097,0,USOklahomaMayes,Oklahoma,Mayes,2022-04-28 09:13:11,2020-10-15,0.7682291920286191,1.4570733104405396,2.9560041435389124,,,,,,,,,,,,
40097,0,USOklahomaMayes,Oklahoma,Mayes,2022-04-28 09:13:11,2020-10-16,0.7682291920286191,1.4570733104405396,2.9560041435389124,,,,,,,,,,,,
40097,0,USOklahomaMayes,Oklahoma,Mayes,2022-04-28 09:13:11,2020-10-17,0.7682291920286191,1.4570733104405396,2.9560041435389124,,,,,,,,,,,,
40097,0,USOklahomaMayes,Oklahoma,Mayes,2022-04-28 09:13:11,2020-10-18,0.7682291920286191,1.4570733104405396,2.9560041435389124,,,,,,,,,,,,
40097,0,USOklahomaMayes,Oklahoma,Mayes,2022-04-28 09:13:11,2020-10-19,0.7682291920286191,1.4570733104405396,2.9560041435389124,,,,,,,,,,,,
40097,0,USOklahomaMayes,Oklahoma,Mayes,2022-04-28 09:13:11,2020-10-20,0.7682291920286191,1.4570733104405396,2.9560041435389124,,,,,,,,,,,,
40097,0,USOklahomaMayes,Oklahoma,Mayes,2022-04-28 09:13:11,2020-10-21,0.7682291920286191,1.4570733104405396,2.9560041435389124,,,,,,,,,,,,
40097,0,USOklahomaMayes,Oklahoma,Mayes,2022-04-28 09:13:11,2020-10-22,0.7522641252622737,1.4169623187386273,2.853788699275472,,,,,,,,,,,,
40097,0,USOklahomaMayes,Oklahoma,Mayes,2022-04-28 09:13:11,2020-10-23,0.7522641252622737,1.4169623187386273,2.853788699275472,,,,,,,,,,,,
40097,0,USOklahomaMayes,Oklahoma,Mayes,2022-04-28 09:13:11,2020-10-24,0.7522641252622737,1.4169623187386273,2.853788699275472,,,,,,,,,,,,
40097,0,USOklahomaMayes,Oklahoma,Mayes,2022-04-28 09:13:11,2020-10-25,0.7522641252622737,1.4169623187386273,2.853788699275472,,,,,,,,,,,,
40097,0,USOklahomaMayes,Oklahoma,Mayes,2022-04-28 09:13:11,2020-10-26,0.7522641252622737,1.4169623187386273,2.853788699275472,,,,,,,,,,,,
40097,0,USOklahomaMayes,Oklahoma,Mayes,2022-04-28 09:13:11,2020-10-27,0.7522641252622737,1.4169623187386273,2.853788699275472,,,,,,,,,,,,
40097,0,USOklahomaMayes,Oklahoma,Mayes,2022-04-28 09:13:11,2020-10-28,0.7522641252622737,1.4169623187386273,2.853788699275472,,,,,,,,,,,,
40097,0,USOklahomaMayes,Oklahoma,Mayes,2022-04-28 09:13:11,2020-10-29,0.6912181506055607,1.4159205689167622,3.1125439481854587,,,,,,,,,,,,
40097,0,USOklahomaMayes,Oklahoma,Mayes,2022-04-28 09:13:11,2020-10-30,0.6912181506055607,1.4159205689167622,3.1125439481854587,,,,,,,,,,,,
40097,0,USOklahomaMayes,Oklahoma,Mayes,2022-04-28 09:13:11,2020-10-31,0.6912181506055607,1.4159205689167622,3.1125439481854587,,,,,,,,,,,,
40097,0,USOklahomaMayes,Oklahoma,Mayes,2022-04-28 09:13:11,2020-11-01,0.6912181506055607,1.4159205689167622,3.1125439481854587,,,,,,,,,,,,
40097,0,USOklahomaMayes,Oklahoma,Mayes,2022-04-28 09:13:11,2020-11-02,0.6912181506055607,1.4159205689167622,3.1125439481854587,,,,,,,,,,,,
40097,0,USOklahomaMayes,Oklahoma,Mayes,2022-04-28 09:13:11,2020-11-03,0.6912181506055607,1.4159205689167622,3.1125439481854587,,,,,,,,,,,,
40097,0,USOklahomaMayes,Oklahoma,Mayes,2022-04-28 09:13:11,2020-11-04,0.6912181506055607,1.4159205689167622,3.1125439481854587,,,,,,,,,,,,
40097,0,USOklahomaMayes,Oklahoma,Mayes,2022-04-28 09:13:11,2020-11-05,1.1889599104680375,2.348729246451431,4.972296669750697,,,,,,,,,,,,
40097,0,USOklahomaMayes,Oklahoma,Mayes,2022-04-28 09:13:11,2020-11-06,1.1889599104680375,2.348729246451431,4.972296669750697,,,,,,,,,,,,
40097,0,USOklahomaMayes,Oklahoma,Mayes,2022-04-28 09:13:11,2020-11-07,1.1889599104680375,2.348729246451431,4.972296669750697,,,,,,,,,,,,
40097,0,USOklahomaMayes,Oklahoma,Mayes,2022-04-28 09:13:11,2020-11-08,1.1889599104680375,2.348729246451431,4.972296669750697,,,,,,,,,,,,
40097,0,USOklahomaMayes,Oklahoma,Mayes,2022-04-28 09:13:11,2020-11-09,1.1889599104680375,2.348729246451431,4.972296669750697,,,,,,,,,,,,
40097,0,USOklahomaMayes,Oklahoma,Mayes,2022-04-28 09:13:11,2020-11-10,1.1889599104680375,2.348729246451431,4.972296669750697,,,,,,,,,,,,
40097,0,USOklahomaMayes,Oklahoma,Mayes,2022-04-28 09:13:11,2020-11-11,1.1889599104680375,2.348729246451431,4.972296669750697,,,,,,,,,,,,
40097,0,USOklahomaMayes,Oklahoma,Mayes,2022-04-28 09:13:11,2020-11-12,1.4721051992210097,2.735114484520941,5.42950731002617,,,,,,,,,,,,
40097,0,USOklahomaMayes,Oklahoma,Mayes,2022-04-28 09:13:11,2020-11-13,1.4721051992210097,2.735114484520941,5.42950731002617,,,,,,,,,,,,
40097,0,USOklahomaMayes,Oklahoma,Mayes,2022-04-28 09:13:11,2020-11-14,1.4721051992210097,2.735114484520941,5.42950731002617,,,,,,,,,,,,
40097,0,USOklahomaMayes,Oklahoma,Mayes,2022-04-28 09:13:11,2020-11-15,1.4721051992210097,2.735114484520941,5.42950731002617,,,,,,,,,,,,
40097,0,USOklahomaMayes,Oklahoma,Mayes,2022-04-28 09:13:11,2020-11-16,1.4721051992210097,2.735114484520941,5.42950731002617,,,,,,,,,,,,
40097,0,USOklahomaMayes,Oklahoma,Mayes,2022-04-28 09:13:11,2020-11-17,1.4721051992210097,2.735114484520941,5.42950731002617,,,,,,,,,,,,
40097,0,USOklahomaMayes,Oklahoma,Mayes,2022-04-28 09:13:11,2020-11-18,1.4721051992210097,2.735114484520941,5.42950731002617,,,,,,,,,,,,
40097,0,USOklahomaMayes,Oklahoma,Mayes,2022-04-28 09:13:11,2020-11-19,1.9874832480230378,3.3050035619685723,5.825916996671103,,,,,,,,,,,,
40097,0,USOklahomaMayes,Oklahoma,Mayes,2022-04-28 09:13:11,2020-11-20,1.9874832480230378,3.3050035619685723,5.825916996671103,,,,,,,,,,,,
40097,0,USOklahomaMayes,Oklahoma,Mayes,2022-04-28 09:13:11,2020-11-21,1.9874832480230378,3.3050035619685723,5.825916996671103,,,,,,,,,,,,
40097,0,USOklahomaMayes,Oklahoma,Mayes,2022-04-28 09:13:11,2020-11-22,1.9874832480230378,3.3050035619685723,5.825916996671103,,,,,,,,,,,,
40097,0,USOklahomaMayes,Oklahoma,Mayes,2022-04-28 09:13:11,2020-11-23,1.9874832480230378,3.3050035619685723,5.825916996671103,,,,,,,,,,,,
40097,0,USOklahomaMayes,Oklahoma,Mayes,2022-04-28 09:13:11,2020-11-24,1.9874832480230378,3.3050035619685723,5.825916996671103,,,,,,,,,,,,
40097,0,USOklahomaMayes,Oklahoma,Mayes,2022-04-28 09:13:11,2020-11-25,1.9874832480230378,3.3050035619685723,5.825916996671103,,,,,,,,,,,,
40097,0,USOklahomaMayes,Oklahoma,Mayes,2022-04-28 09:13:11,2020-11-26,1.3968549178402405,2.6559549346122173,5.402297223605906,,,,,,,,,,,,
40097,0,USOklahomaMayes,Oklahoma,Mayes,2022-04-28 09:13:11,2020-11-27,1.3968549178402405,2.6559549346122173,5.402297223605906,,,,,,,,,,,,
40097,0,USOklahomaMayes,Oklahoma,Mayes,2022-04-28 09:13:11,2020-11-28,1.3968549178402405,2.6559549346122173,5.402297223605906,,,,,,,,,,,,
40097,0,USOklahomaMayes,Oklahoma,Mayes,2022-04-28 09:13:11,2020-11-29,1.3968549178402405,2.6559549346122173,5.402297223605906,,,,,,,,,,,,
40097,0,USOklahomaMayes,Oklahoma,Mayes,2022-04-28 09:13:11,2020-11-30,1.3968549178402405,2.6559549346122173,5.402297223605906,,,,,,,,,,,,
40097,0,USOklahomaMayes,Oklahoma,Mayes,2022-04-28 09:13:11,2020-12-01,1.3968549178402405,2.6559549346122173,5.402297223605906,,,,,,,,,,,,
40097,0,USOklahomaMayes,Oklahoma,Mayes,2022-04-28 09:13:11,2020-12-02,1.3968549178402405,2.6559549346122173,5.402297223605906,,,,,,,,,,,,
40097,0,USOklahomaMayes,Oklahoma,Mayes,2022-04-28 09:13:11,2020-12-03,1.7587184242238767,3.0851341126042366,5.7610453120330005,,,,,,,,,,,,
40097,0,USOklahomaMayes,Oklahoma,Mayes,2022-04-28 09:13:11,2020-12-04,1.7587184242238767,3.0851341126042366,5.7610453120330005,,,,,,,,,,,,
40097,0,USOklahomaMayes,Oklahoma,Mayes,2022-04-28 09:13:11,2020-12-05,1.7587184242238767,3.0851341126042366,5.7610453120330005,,,,,,,,,,,,
40097,0,USOklahomaMayes,Oklahoma,Mayes,2022-04-28 09:13:11,2020-12-06,1.7587184242238767,3.0851341126042366,5.7610453120330005,,,,,,,,,,,,
40097,0,USOklahomaMayes,Oklahoma,Mayes,2022-04-28 09:13:11,2020-12-07,1.7587184242238767,3.0851341126042366,5.7610453120330005,,,,,,,,,,,,
40097,0,USOklahomaMayes,Oklahoma,Mayes,2022-04-28 09:13:11,2020-12-08,1.7587184242238767,3.0851341126042366,5.7610453120330005,,,,,,,,,,,,
40097,0,USOklahomaMayes,Oklahoma,Mayes,2022-04-28 09:13:11,2020-12-09,1.7587184242238767,3.0851341126042366,5.7610453120330005,,,,,,,,,,,,
40097,0,USOklahomaMayes,Oklahoma,Mayes,2022-04-28 09:13:11,2020-12-10,1.9340897102620387,3.448858434328591,6.554168887990959,,,,,,,,,,,,
40097,0,USOklahomaMayes,Oklahoma,Mayes,2022-04-28 09:13:11,2020-12-11,1.9340897102620387,3.448858434328591,6.554168887990959,,,,,,,,,,,,
40097,0,USOklahomaMayes,Oklahoma,Mayes,2022-04-28 09:13:11,2020-12-12,1.9340897102620387,3.448858434328591,6.554168887990959,,,,,,,,,,,,
40097,0,USOklahomaMayes,Oklahoma,Mayes,2022-04-28 09:13:11,2020-12-13,1.9340897102620387,3.448858434328591,6.554168887990959,,,,,,,,,,,,
40097,0,USOklahomaMayes,Oklahoma,Mayes,2022-04-28 09:13:11,2020-12-14,1.9340897102620387,3.448858434328591,6.554168887990959,,,,,,,,,,,,
40097,0,USOklahomaMayes,Oklahoma,Mayes,2022-04-28 09:13:11,2020-12-15,1.9340897102620387,3.448858434328591,6.554168887990959,,,,,,,,,,,,
40097,0,USOklahomaMayes,Oklahoma,Mayes,2022-04-28 09:13:11,2020-12-16,1.9340897102620387,3.448858434328591,6.554168887990959,,,,,,,,,,,,
40097,0,USOklahomaMayes,Oklahoma,Mayes,2022-04-28 09:13:11,2020-12-17,2.352103261334729,3.953709447551737,7.051345026629223,,,,,,,,,,,,
40097,0,USOklahomaMayes,Oklahoma,Mayes,2022-04-28 09:13:11,2020-12-18,2.352103261334729,3.953709447551737,7.051345026629223,,,,,,,,,,,,
40097,0,USOklahomaMayes,Oklahoma,Mayes,2022-04-28 09:13:11,2020-12-19,2.352103261334729,3.953709447551737,7.051345026629223,,,,,,,,,,,,
40097,0,USOklahomaMayes,Oklahoma,Mayes,2022-04-28 09:13:11,2020-12-20,2.352103261334729,3.953709447551737,7.051345026629223,,,,,,,,,,,,
40097,0,USOklahomaMayes,Oklahoma,Mayes,2022-04-28 09:13:11,2020-12-21,2.352103261334729,3.953709447551737,7.051345026629223,,,,,,,,,,,,
40097,0,USOklahomaMayes,Oklahoma,Mayes,2022-04-28 09:13:11,2020-12-22,2.352103261334729,3.953709447551737,7.051345026629223,,,,,,,,,,,,
40097,0,USOklahomaMayes,Oklahoma,Mayes,2022-04-28 09:13:11,2020-12-23,2.352103261334729,3.953709447551737,7.051345026629223,,,,,,,,,,,,
40097,0,USOklahomaMayes,Oklahoma,Mayes,2022-04-28 09:13:11,2020-12-24,1.8338511144828151,3.262793227082557,6.1857565612151975,,,,,,,,,,,,
40097,0,USOklahomaMayes,Oklahoma,Mayes,2022-04-28 09:13:11,2020-12-25,1.8338511144828151,3.262793227082557,6.1857565612151975,,,,,,,,,,,,
40097,0,USOklahomaMayes,Oklahoma,Mayes,2022-04-28 09:13:11,2020-12-26,1.8338511144828151,3.262793227082557,6.1857565612151975,,,,,,,,,,,,
40097,0,USOklahomaMayes,Oklahoma,Mayes,2022-04-28 09:13:11,2020-12-27,1.8338511144828151,3.262793227082557,6.1857565612151975,,,,,,,,,,,,
40097,0,USOklahomaMayes,Oklahoma,Mayes,2022-04-28 09:13:11,2020-12-28,1.8338511144828151,3.262793227082557,6.1857565612151975,,,,,,,,,,,,
40097,0,USOklahomaMayes,Oklahoma,Mayes,2022-04-28 09:13:11,2020-12-29,1.8338511144828151,3.262793227082557,6.1857565612151975,,,,,,,,,,,,
40097,0,USOklahomaMayes,Oklahoma,Mayes,2022-04-28 09:13:11,2020-12-30,1.8338511144828151,3.262793227082557,6.1857565612151975,,,,,,,,,,,,
40097,0,USOklahomaMayes,Oklahoma,Mayes,2022-04-28 09:13:11,2020-12-31,2.5508521186385016,4.493305188785011,8.427990395762933,,,,,,,,,,,,
40097,0,USOklahomaMayes,Oklahoma,Mayes,2022-04-28 09:13:11,2021-01-01,2.5508521186385016,4.493305188785011,8.427990395762933,,,,,,,,,,,,
40097,0,USOklahomaMayes,Oklahoma,Mayes,2022-04-28 09:13:11,2021-01-02,2.5508521186385016,4.493305188785011,8.427990395762933,,,,,,,,,,,,
40097,0,USOklahomaMayes,Oklahoma,Mayes,2022-04-28 09:13:11,2021-01-03,2.5508521186385016,4.493305188785011,8.427990395762933,,,,,,,,,,,,
40097,0,USOklahomaMayes,Oklahoma,Mayes,2022-04-28 09:13:11,2021-01-04,2.5508521186385016,4.493305188785011,8.427990395762933,,,,,,,,,,,,
40097,0,USOklahomaMayes,Oklahoma,Mayes,2022-04-28 09:13:11,2021-01-05,2.5508521186385016,4.493305188785011,8.427990395762933,,,,,,,,,,,,
40097,0,USOklahomaMayes,Oklahoma,Mayes,2022-04-28 09:13:11,2021-01-06,2.5508521186385016,4.493305188785011,8.427990395762933,,,,,,,,,,,,
40097,0,USOklahomaMayes,Oklahoma,Mayes,2022-04-28 09:13:11,2021-01-07,2.2773596355768126,4.154649122556335,8.089415000178278,,,,,,,,,,,,
40097,0,USOklahomaMayes,Oklahoma,Mayes,2022-04-28 09:13:11,2021-01-08,2.2773596355768126,4.154649122556335,8.089415000178278,,,,,,,,,,,,
40097,0,USOklahomaMayes,Oklahoma,Mayes,2022-04-28 09:13:11,2021-01-09,2.2773596355768126,4.154649122556335,8.089415000178278,,,,,,,,,,,,
40097,0,USOklahomaMayes,Oklahoma,Mayes,2022-04-28 09:13:11,2021-01-10,2.2773596355768126,4.154649122556335,8.089415000178278,,,,,,,,,,,,
40097,0,USOklahomaMayes,Oklahoma,Mayes,2022-04-28 09:13:11,2021-01-11,2.2773596355768126,4.154649122556335,8.089415000178278,,,,,,,,,,,,
40097,0,USOklahomaMayes,Oklahoma,Mayes,2022-04-28 09:13:11,2021-01-12,2.2773596355768126,4.154649122556335,8.089415000178278,,,,,,,,,,,,
40097,0,USOklahomaMayes,Oklahoma,Mayes,2022-04-28 09:13:11,2021-01-13,2.2773596355768126,4.154649122556335,8.089415000178278,,,,,,,,,,,,
40097,0,USOklahomaMayes,Oklahoma,Mayes,2022-04-28 09:13:11,2021-01-14,2.459463959890996,3.9614758512429016,6.744479019582411,,,,,,,,,,,,
40097,0,USOklahomaMayes,Oklahoma,Mayes,2022-04-28 09:13:11,2021-01-15,2.459463959890996,3.9614758512429016,6.744479019582411,,,,,,,,,,,,
40097,0,USOklahomaMayes,Oklahoma,Mayes,2022-04-28 09:13:11,2021-01-16,2.459463959890996,3.9614758512429016,6.744479019582411,,,,,,,,,,,,
40097,0,USOklahomaMayes,Oklahoma,Mayes,2022-04-28 09:13:11,2021-01-17,2.459463959890996,3.9614758512429016,6.744479019582411,,,,,,,,,,,,
40097,0,USOklahomaMayes,Oklahoma,Mayes,2022-04-28 09:13:11,2021-01-18,2.459463959890996,3.9614758512429016,6.744479019582411,,,,,,,,,,,,
40097,0,USOklahomaMayes,Oklahoma,Mayes,2022-04-28 09:13:11,2021-01-19,2.459463959890996,3.9614758512429016,6.744479019582411,,,,,,,,,,,,
40097,0,USOklahomaMayes,Oklahoma,Mayes,2022-04-28 09:13:11,2021-01-20,2.459463959890996,3.9614758512429016,6.744479019582411,,,,,,,,,,,,
40097,0,USOklahomaMayes,Oklahoma,Mayes,2022-04-28 09:13:11,2021-01-21,1.6764801765500035,3.1389628155025178,6.28215968338621,,,,,,,,,,,,
40097,0,USOklahomaMayes,Oklahoma,Mayes,2022-04-28 09:13:11,2021-01-22,1.6764801765500035,3.1389628155025178,6.28215968338621,,,,,,,,,,,,
40097,0,USOklahomaMayes,Oklahoma,Mayes,2022-04-28 09:13:11,2021-01-23,1.6764801765500035,3.1389628155025178,6.28215968338621,,,,,,,,,,,,
40097,0,USOklahomaMayes,Oklahoma,Mayes,2022-04-28 09:13:11,2021-01-24,1.6764801765500035,3.1389628155025178,6.28215968338621,,,,,,,,,,,,
40097,0,USOklahomaMayes,Oklahoma,Mayes,2022-04-28 09:13:11,2021-01-25,1.6764801765500035,3.1389628155025178,6.28215968338621,,,,,,,,,,,,
40097,0,USOklahomaMayes,Oklahoma,Mayes,2022-04-28 09:13:11,2021-01-26,1.6764801765500035,3.1389628155025178,6.28215968338621,,,,,,,,,,,,
40097,0,USOklahomaMayes,Oklahoma,Mayes,2022-04-28 09:13:11,2021-01-27,1.6764801765500035,3.1389628155025178,6.28215968338621,,,,,,,,,,,,
40097,0,USOklahomaMayes,Oklahoma,Mayes,2022-04-28 09:13:11,2021-01-28,1.5732007771709313,2.7190996901433317,4.997382263590121,,,,,,,,,,,,
40097,0,USOklahomaMayes,Oklahoma,Mayes,2022-04-28 09:13:11,2021-01-29,1.5732007771709313,2.7190996901433317,4.997382263590121,,,,,,,,,,,,
40097,0,USOklahomaMayes,Oklahoma,Mayes,2022-04-28 09:13:11,2021-01-30,1.5732007771709313,2.7190996901433317,4.997382263590121,,,,,,,,,,,,
40097,0,USOklahomaMayes,Oklahoma,Mayes,2022-04-28 09:13:11,2021-01-31,1.5732007771709313,2.7190996901433317,4.997382263590121,,,,,,,,,,,,
40097,0,USOklahomaMayes,Oklahoma,Mayes,2022-04-28 09:13:11,2021-02-01,1.5732007771709313,2.7190996901433317,4.997382263590121,,,,,,,,,,,,
40097,0,USOklahomaMayes,Oklahoma,Mayes,2022-04-28 09:13:11,2021-02-02,1.5732007771709313,2.7190996901433317,4.997382263590121,,,,,,,,,,,,
40097,0,USOklahomaMayes,Oklahoma,Mayes,2022-04-28 09:13:11,2021-02-03,1.5732007771709313,2.7190996901433317,4.997382263590121,,,,,,,,,,,,
40097,0,USOklahomaMayes,Oklahoma,Mayes,2022-04-28 09:13:11,2021-02-04,1.5226534246010746,2.7313763177534325,5.223686177227743,,,,,,,,,,,,
40097,0,USOklahomaMayes,Oklahoma,Mayes,2022-04-28 09:13:11,2021-02-05,1.5226534246010746,2.7313763177534325,5.223686177227743,,,,,,,,,,,,
40097,0,USOklahomaMayes,Oklahoma,Mayes,2022-04-28 09:13:11,2021-02-06,1.5226534246010746,2.7313763177534325,5.223686177227743,,,,,,,,,,,,
40097,0,USOklahomaMayes,Oklahoma,Mayes,2022-04-28 09:13:11,2021-02-07,1.5226534246010746,2.7313763177534325,5.223686177227743,,,,,,,,,,,,
40097,0,USOklahomaMayes,Oklahoma,Mayes,2022-04-28 09:13:11,2021-02-08,1.5226534246010746,2.7313763177534325,5.223686177227743,,,,,,,,,,,,
40097,0,USOklahomaMayes,Oklahoma,Mayes,2022-04-28 09:13:11,2021-02-09,1.5226534246010746,2.7313763177534325,5.223686177227743,,,,,,,,,,,,
40097,0,USOklahomaMayes,Oklahoma,Mayes,2022-04-28 09:13:11,2021-02-10,1.5226534246010746,2.7313763177534325,5.223686177227743,,,,,,,,,,,,
40097,0,USOklahomaMayes,Oklahoma,Mayes,2022-04-28 09:13:11,2021-02-11,1.3378024965571091,2.32052847517713,4.2812913591477955,,,,,,,,,,,,
40097,0,USOklahomaMayes,Oklahoma,Mayes,2022-04-28 09:13:11,2021-02-12,1.3378024965571091,2.32052847517713,4.2812913591477955,,,,,,,,,,,,
40097,0,USOklahomaMayes,Oklahoma,Mayes,2022-04-28 09:13:11,2021-02-13,1.3378024965571091,2.32052847517713,4.2812913591477955,,,,,,,,,,,,
40097,0,USOklahomaMayes,Oklahoma,Mayes,2022-04-28 09:13:11,2021-02-14,1.3378024965571091,2.32052847517713,4.2812913591477955,,,,,,,,,,,,
40097,0,USOklahomaMayes,Oklahoma,Mayes,2022-04-28 09:13:11,2021-02-15,1.3378024965571091,2.32052847517713,4.2812913591477955,,,,,,,,,,,,
40097,0,USOklahomaMayes,Oklahoma,Mayes,2022-04-28 09:13:11,2021-02-16,1.3378024965571091,2.32052847517713,4.2812913591477955,,,,,,,,,,,,
40097,0,USOklahomaMayes,Oklahoma,Mayes,2022-04-28 09:13:11,2021-02-17,1.3378024965571091,2.32052847517713,4.2812913591477955,,,,,,,,,,,,
40097,0,USOklahomaMayes,Oklahoma,Mayes,2022-04-28 09:13:11,2021-02-18,0.6155286103553403,1.3308691201183915,3.0926385617398133,,,,,,,,,,,,
40097,0,USOklahomaMayes,Oklahoma,Mayes,2022-04-28 09:13:11,2021-02-19,0.6155286103553403,1.3308691201183915,3.0926385617398133,,,,,,,,,,,,
40097,0,USOklahomaMayes,Oklahoma,Mayes,2022-04-28 09:13:11,2021-02-20,0.6155286103553403,1.3308691201183915,3.0926385617398133,,,,,,,,,,,,
40097,0,USOklahomaMayes,Oklahoma,Mayes,2022-04-28 09:13:11,2021-02-21,0.6155286103553403,1.3308691201183915,3.0926385617398133,,,,,,,,,,,,
40097,0,USOklahomaMayes,Oklahoma,Mayes,2022-04-28 09:13:11,2021-02-22,0.6155286103553403,1.3308691201183915,3.0926385617398133,,,,,,,,,,,,
40097,0,USOklahomaMayes,Oklahoma,Mayes,2022-04-28 09:13:11,2021-02-23,0.6155286103553403,1.3308691201183915,3.0926385617398133,,,,,,,,,,,,
40097,0,USOklahomaMayes,Oklahoma,Mayes,2022-04-28 09:13:11,2021-02-24,0.6155286103553403,1.3308691201183915,3.0926385617398133,,,,,,,,,,,,
40097,0,USOklahomaMayes,Oklahoma,Mayes,2022-04-28 09:13:11,2021-02-25,0.3223904448055113,0.6586951037786319,1.4441140423881924,,,,,,,,,,,,
40097,0,USOklahomaMayes,Oklahoma,Mayes,2022-04-28 09:13:11,2021-02-26,0.3223904448055113,0.6586951037786319,1.4441140423881924,,,,,,,,,,,,
40097,0,USOklahomaMayes,Oklahoma,Mayes,2022-04-28 09:13:11,2021-02-27,0.3223904448055113,0.6586951037786319,1.4441140423881924,,,,,,,,,,,,
40097,0,USOklahomaMayes,Oklahoma,Mayes,2022-04-28 09:13:11,2021-02-28,0.3223904448055113,0.6586951037786319,1.4441140423881924,,,,,,,,,,,,
40097,0,USOklahomaMayes,Oklahoma,Mayes,2022-04-28 09:13:11,2021-03-01,0.3223904448055113,0.6586951037786319,1.4441140423881924,,,,,,,,,,,,
40097,0,USOklahomaMayes,Oklahoma,Mayes,2022-04-28 09:13:11,2021-03-02,0.3223904448055113,0.6586951037786319,1.4441140423881924,,,,,,,,,,,,
40097,0,USOklahomaMayes,Oklahoma,Mayes,2022-04-28 09:13:11,2021-03-03,0.3223904448055113,0.6586951037786319,1.4441140423881924,,,,,,,,,,,,
40097,0,USOklahomaMayes,Oklahoma,Mayes,2022-04-28 09:13:11,2021-03-04,0.6068832790191115,1.3184058390919167,3.0785383314992947,,,,,,,,,,,,
40097,0,USOklahomaMayes,Oklahoma,Mayes,2022-04-28 09:13:11,2021-03-05,0.6068832790191115,1.3184058390919167,3.0785383314992947,,,,,,,,,,,,
40097,0,USOklahomaMayes,Oklahoma,Mayes,2022-04-28 09:13:11,2021-03-06,0.6068832790191115,1.3184058390919167,3.0785383314992947,,,,,,,,,,,,
40097,0,USOklahomaMayes,Oklahoma,Mayes,2022-04-28 09:13:11,2021-03-07,0.6068832790191115,1.3184058390919167,3.0785383314992947,,,,,,,,,,,,
40097,0,USOklahomaMayes,Oklahoma,Mayes,2022-04-28 09:13:11,2021-03-08,0.6068832790191115,1.3184058390919167,3.0785383314992947,,,,,,,,,,,,
40097,0,USOklahomaMayes,Oklahoma,Mayes,2022-04-28 09:13:11,2021-03-09,0.6068832790191115,1.3184058390919167,3.0785383314992947,,,,,,,,,,,,
40097,0,USOklahomaMayes,Oklahoma,Mayes,2022-04-28 09:13:11,2021-03-10,0.6068832790191115,1.3184058390919167,3.0785383314992947,,,,,,,,,,,,
40097,0,USOklahomaMayes,Oklahoma,Mayes,2022-04-28 09:13:11,2021-03-11,0.24682155160754862,0.5302745015308191,1.2242263296858606,,,,,,,,,,,,
40097,0,USOklahomaMayes,Oklahoma,Mayes,2022-04-28 09:13:11,2021-03-12,0.24682155160754862,0.5302745015308191,1.2242263296858606,,,,,,,,,,,,
40097,0,USOklahomaMayes,Oklahoma,Mayes,2022-04-28 09:13:11,2021-03-13,0.24682155160754862,0.5302745015308191,1.2242263296858606,,,,,,,,,,,,
40097,0,USOklahomaMayes,Oklahoma,Mayes,2022-04-28 09:13:11,2021-03-14,0.24682155160754862,0.5302745015308191,1.2242263296858606,,,,,,,,,,,,
40097,0,USOklahomaMayes,Oklahoma,Mayes,2022-04-28 09:13:11,2021-03-15,0.24682155160754862,0.5302745015308191,1.2242263296858606,,,,,,,,,,,,
40097,0,USOklahomaMayes,Oklahoma,Mayes,2022-04-28 09:13:11,2021-03-16,0.24682155160754862,0.5302745015308191,1.2242263296858606,,,,,,,,,,,,
40097,0,USOklahomaMayes,Oklahoma,Mayes,2022-04-28 09:13:11,2021-03-17,0.24682155160754862,0.5302745015308191,1.2242263296858606,,,,,,,,,,,,
40097,0,USOklahomaMayes,Oklahoma,Mayes,2022-04-28 09:13:11,2021-03-18,0.22170735821641802,0.4967493925579004,1.196991706539725,,,,,,,,,,,,
40097,0,USOklahomaMayes,Oklahoma,Mayes,2022-04-28 09:13:11,2021-03-19,0.22170735821641802,0.4967493925579004,1.196991706539725,,,,,,,,,,,,
40097,0,USOklahomaMayes,Oklahoma,Mayes,2022-04-28 09:13:11,2021-03-20,0.22170735821641802,0.4967493925579004,1.196991706539725,,,,,,,,,,,,
40097,0,USOklahomaMayes,Oklahoma,Mayes,2022-04-28 09:13:11,2021-03-21,0.22170735821641802,0.4967493925579004,1.196991706539725,,,,,,,,,,,,
40097,0,USOklahomaMayes,Oklahoma,Mayes,2022-04-28 09:13:11,2021-03-22,0.22170735821641802,0.4967493925579004,1.196991706539725,,,,,,,,,,,,
40097,0,USOklahomaMayes,Oklahoma,Mayes,2022-04-28 09:13:11,2021-03-23,0.22170735821641802,0.4967493925579004,1.196991706539725,,,,,,,,,,,,
40097,0,USOklahomaMayes,Oklahoma,Mayes,2022-04-28 09:13:11,2021-03-24,0.22170735821641802,0.4967493925579004,1.196991706539725,,,,,,,,,,,,
40097,0,USOklahomaMayes,Oklahoma,Mayes,2022-04-28 09:13:11,2021-03-25,0.2590690019213902,0.5153861638416415,1.099091089255254,,,,,,,,,,,,
40097,0,USOklahomaMayes,Oklahoma,Mayes,2022-04-28 09:13:11,2021-03-26,0.2590690019213902,0.5153861638416415,1.099091089255254,,,,,,,,,,,,
40097,0,USOklahomaMayes,Oklahoma,Mayes,2022-04-28 09:13:11,2021-03-27,0.2590690019213902,0.5153861638416415,1.099091089255254,,,,,,,,,,,,
40097,0,USOklahomaMayes,Oklahoma,Mayes,2022-04-28 09:13:11,2021-03-28,0.2590690019213902,0.5153861638416415,1.099091089255254,,,,,,,,,,,,
40097,0,USOklahomaMayes,Oklahoma,Mayes,2022-04-28 09:13:11,2021-03-29,0.2590690019213902,0.5153861638416415,1.099091089255254,,,,,,,,,,,,
40097,0,USOklahomaMayes,Oklahoma,Mayes,2022-04-28 09:13:11,2021-03-30,0.2590690019213902,0.5153861638416415,1.099091089255254,,,,,,,,,,,,
40097,0,USOklahomaMayes,Oklahoma,Mayes,2022-04-28 09:13:11,2021-03-31,0.2590690019213902,0.5153861638416415,1.099091089255254,,,,,,,,,,,,
40097,0,USOklahomaMayes,Oklahoma,Mayes,2022-04-28 09:13:11,2021-04-01,0.22444148828738714,0.5642625324511258,1.5265679023766572,,,,,,,,,,,,
40097,0,USOklahomaMayes,Oklahoma,Mayes,2022-04-28 09:13:11,2021-04-02,0.22444148828738714,0.5642625324511258,1.5265679023766572,,,,,,,,,,,,
40097,0,USOklahomaMayes,Oklahoma,Mayes,2022-04-28 09:13:11,2021-04-03,0.22444148828738714,0.5642625324511258,1.5265679023766572,,,,,,,,,,,,
40097,0,USOklahomaMayes,Oklahoma,Mayes,2022-04-28 09:13:11,2021-04-04,0.22444148828738714,0.5642625324511258,1.5265679023766572,,,,,,,,,,,,
40097,0,USOklahomaMayes,Oklahoma,Mayes,2022-04-28 09:13:11,2021-04-05,0.22444148828738714,0.5642625324511258,1.5265679023766572,,,,,,,,,,,,
40097,0,USOklahomaMayes,Oklahoma,Mayes,2022-04-28 09:13:11,2021-04-06,0.22444148828738714,0.5642625324511258,1.5265679023766572,,,,,,,,,,,,
40097,0,USOklahomaMayes,Oklahoma,Mayes,2022-04-28 09:13:11,2021-04-07,0.22444148828738714,0.5642625324511258,1.5265679023766572,,,,,,,,,,,,
40097,0,USOklahomaMayes,Oklahoma,Mayes,2022-04-28 09:13:11,2021-04-08,0.14885524037722367,0.3356362321469891,0.8139739289642095,,,,,,,,,,,,
40097,0,USOklahomaMayes,Oklahoma,Mayes,2022-04-28 09:13:11,2021-04-09,0.14885524037722367,0.3356362321469891,0.8139739289642095,,,,,,,,,,,,
40097,0,USOklahomaMayes,Oklahoma,Mayes,2022-04-28 09:13:11,2021-04-10,0.14885524037722367,0.3356362321469891,0.8139739289642095,,,,,,,,,,,,
40097,0,USOklahomaMayes,Oklahoma,Mayes,2022-04-28 09:13:11,2021-04-11,0.14885524037722367,0.3356362321469891,0.8139739289642095,,,,,,,,,,,,
40097,0,USOklahomaMayes,Oklahoma,Mayes,2022-04-28 09:13:11,2021-04-12,0.14885524037722367,0.3356362321469891,0.8139739289642095,,,,,,,,,,,,
40097,0,USOklahomaMayes,Oklahoma,Mayes,2022-04-28 09:13:11,2021-04-13,0.14885524037722367,0.3356362321469891,0.8139739289642095,,,,,,,,,,,,
40097,0,USOklahomaMayes,Oklahoma,Mayes,2022-04-28 09:13:11,2021-04-14,0.14885524037722367,0.3356362321469891,0.8139739289642095,,,,,,,,,,,,
40097,0,USOklahomaMayes,Oklahoma,Mayes,2022-04-28 09:13:11,2021-04-15,0.12791374513467801,0.29641778343328473,0.7390368158963763,,,,,,,,,,,,
40097,0,USOklahomaMayes,Oklahoma,Mayes,2022-04-28 09:13:11,2021-04-16,0.12791374513467801,0.29641778343328473,0.7390368158963763,,,,,,,,,,,,
40097,0,USOklahomaMayes,Oklahoma,Mayes,2022-04-28 09:13:11,2021-04-17,0.12791374513467801,0.29641778343328473,0.7390368158963763,,,,,,,,,,,,
40097,0,USOklahomaMayes,Oklahoma,Mayes,2022-04-28 09:13:11,2021-04-18,0.12791374513467801,0.29641778343328473,0.7390368158963763,,,,,,,,,,,,
40097,0,USOklahomaMayes,Oklahoma,Mayes,2022-04-28 09:13:11,2021-04-19,0.12791374513467801,0.29641778343328473,0.7390368158963763,,,,,,,,,,,,
40097,0,USOklahomaMayes,Oklahoma,Mayes,2022-04-28 09:13:11,2021-04-20,0.12791374513467801,0.29641778343328473,0.7390368158963763,,,,,,,,,,,,
40097,0,USOklahomaMayes,Oklahoma,Mayes,2022-04-28 09:13:11,2021-04-21,0.12791374513467801,0.29641778343328473,0.7390368158963763,,,,,,,,,,,,
40097,0,USOklahomaMayes,Oklahoma,Mayes,2022-04-28 09:13:11,2021-04-22,0.1451348757373271,0.34570295858172434,0.8861143711119386,,,,,,,,,,,,
40097,0,USOklahomaMayes,Oklahoma,Mayes,2022-04-28 09:13:11,2021-04-23,0.1451348757373271,0.34570295858172434,0.8861143711119386,,,,,,,,,,,,
40097,0,USOklahomaMayes,Oklahoma,Mayes,2022-04-28 09:13:11,2021-04-24,0.1451348757373271,0.34570295858172434,0.8861143711119386,,,,,,,,,,,,
40097,0,USOklahomaMayes,Oklahoma,Mayes,2022-04-28 09:13:11,2021-04-25,0.1451348757373271,0.34570295858172434,0.8861143711119386,,,,,,,,,,,,
40097,0,USOklahomaMayes,Oklahoma,Mayes,2022-04-28 09:13:11,2021-04-26,0.1451348757373271,0.34570295858172434,0.8861143711119386,,,,,,,,,,,,
40097,0,USOklahomaMayes,Oklahoma,Mayes,2022-04-28 09:13:11,2021-04-27,0.1451348757373271,0.34570295858172434,0.8861143711119386,,,,,,,,,,,,
40097,0,USOklahomaMayes,Oklahoma,Mayes,2022-04-28 09:13:11,2021-04-28,0.1451348757373271,0.34570295858172434,0.8861143711119386,,,,,,,,,,,,
40097,0,USOklahomaMayes,Oklahoma,Mayes,2022-04-28 09:13:11,2021-04-29,0.15984256751639486,0.383954160630396,0.9925107677678586,,,,,,,,,,,,
40097,0,USOklahomaMayes,Oklahoma,Mayes,2022-04-28 09:13:11,2021-04-30,0.15984256751639486,0.383954160630396,0.9925107677678586,,,,,,,,,,,,
40097,0,USOklahomaMayes,Oklahoma,Mayes,2022-04-28 09:13:11,2021-05-01,0.15984256751639486,0.383954160630396,0.9925107677678586,,,,,,,,,,,,
40097,0,USOklahomaMayes,Oklahoma,Mayes,2022-04-28 09:13:11,2021-05-02,0.15984256751639486,0.383954160630396,0.9925107677678586,,,,,,,,,,,,
40097,0,USOklahomaMayes,Oklahoma,Mayes,2022-04-28 09:13:11,2021-05-03,0.15984256751639486,0.383954160630396,0.9925107677678586,,,,,,,,,,,,
40097,0,USOklahomaMayes,Oklahoma,Mayes,2022-04-28 09:13:11,2021-05-04,0.15984256751639486,0.383954160630396,0.9925107677678586,,,,,,,,,,,,
40097,0,USOklahomaMayes,Oklahoma,Mayes,2022-04-28 09:13:11,2021-05-05,0.15984256751639486,0.383954160630396,0.9925107677678586,,,,,,,,,,,,
40097,0,USOklahomaMayes,Oklahoma,Mayes,2022-04-28 09:13:11,2021-05-20,0.2386994529496222,0.458176707720348,0.9412563033440544,,,,,,,,,,,,
40097,0,USOklahomaMayes,Oklahoma,Mayes,2022-04-28 09:13:11,2021-05-21,0.2386994529496222,0.458176707720348,0.9412563033440544,,,,,,,,,,,,
40097,0,USOklahomaMayes,Oklahoma,Mayes,2022-04-28 09:13:11,2021-05-22,0.2386994529496222,0.458176707720348,0.9412563033440544,,,,,,,,,,,,
40097,0,USOklahomaMayes,Oklahoma,Mayes,2022-04-28 09:13:11,2021-05-23,0.2386994529496222,0.458176707720348,0.9412563033440544,,,,,,,,,,,,
40097,0,USOklahomaMayes,Oklahoma,Mayes,2022-04-28 09:13:11,2021-05-24,0.2386994529496222,0.458176707720348,0.9412563033440544,,,,,,,,,,,,
40097,0,USOklahomaMayes,Oklahoma,Mayes,2022-04-28 09:13:11,2021-05-25,0.2386994529496222,0.458176707720348,0.9412563033440544,,,,,,,,,,,,
40097,0,USOklahomaMayes,Oklahoma,Mayes,2022-04-28 09:13:11,2021-05-26,0.2386994529496222,0.458176707720348,0.9412563033440544,,,,,,,,,,,,
40097,0,USOklahomaMayes,Oklahoma,Mayes,2022-04-28 09:13:11,2021-05-27,0.19108750282463563,0.4412040185308819,1.0959896917773857,,,,,,,,,,,,
40097,0,USOklahomaMayes,Oklahoma,Mayes,2022-04-28 09:13:11,2021-05-28,0.19108750282463563,0.4412040185308819,1.0959896917773857,,,,,,,,,,,,
40097,0,USOklahomaMayes,Oklahoma,Mayes,2022-04-28 09:13:11,2021-05-29,0.19108750282463563,0.4412040185308819,1.0959896917773857,,,,,,,,,,,,
40097,0,USOklahomaMayes,Oklahoma,Mayes,2022-04-28 09:13:11,2021-05-30,0.19108750282463563,0.4412040185308819,1.0959896917773857,,,,,,,,,,,,
40097,0,USOklahomaMayes,Oklahoma,Mayes,2022-04-28 09:13:11,2021-05-31,0.19108750282463563,0.4412040185308819,1.0959896917773857,,,,,,,,,,,,
40097,0,USOklahomaMayes,Oklahoma,Mayes,2022-04-28 09:13:11,2021-06-01,0.19108750282463563,0.4412040185308819,1.0959896917773857,,,,,,,,,,,,
40097,0,USOklahomaMayes,Oklahoma,Mayes,2022-04-28 09:13:11,2021-06-02,0.19108750282463563,0.4412040185308819,1.0959896917773857,,,,,,,,,,,,
40097,0,USOklahomaMayes,Oklahoma,Mayes,2022-04-28 09:13:11,2021-06-03,0.11150907663749773,0.3130891516575643,0.9447668654745358,,,,,,,,,,,,
40097,0,USOklahomaMayes,Oklahoma,Mayes,2022-04-28 09:13:11,2021-06-04,0.11150907663749773,0.3130891516575643,0.9447668654745358,,,,,,,,,,,,
40097,0,USOklahomaMayes,Oklahoma,Mayes,2022-04-28 09:13:11,2021-06-05,0.11150907663749773,0.3130891516575643,0.9447668654745358,,,,,,,,,,,,
40097,0,USOklahomaMayes,Oklahoma,Mayes,2022-04-28 09:13:11,2021-06-06,0.11150907663749773,0.3130891516575643,0.9447668654745358,,,,,,,,,,,,
40097,0,USOklahomaMayes,Oklahoma,Mayes,2022-04-28 09:13:11,2021-06-07,0.11150907663749773,0.3130891516575643,0.9447668654745358,,,,,,,,,,,,
40097,0,USOklahomaMayes,Oklahoma,Mayes,2022-04-28 09:13:11,2021-06-08,0.11150907663749773,0.3130891516575643,0.9447668654745358,,,,,,,,,,,,
40097,0,USOklahomaMayes,Oklahoma,Mayes,2022-04-28 09:13:11,2021-06-09,0.11150907663749773,0.3130891516575643,0.9447668654745358,,,,,,,,,,,,
40097,0,USOklahomaMayes,Oklahoma,Mayes,2022-04-28 09:13:11,2021-06-10,0.24437365229786015,0.6276739041079257,1.7346738314532004,,,,,,,,,,,,
40097,0,USOklahomaMayes,Oklahoma,Mayes,2022-04-28 09:13:11,2021-06-11,0.24437365229786015,0.6276739041079257,1.7346738314532004,,,,,,,,,,,,
40097,0,USOklahomaMayes,Oklahoma,Mayes,2022-04-28 09:13:11,2021-06-12,0.24437365229786015,0.6276739041079257,1.7346738314532004,,,,,,,,,,,,
40097,0,USOklahomaMayes,Oklahoma,Mayes,2022-04-28 09:13:11,2021-06-13,0.24437365229786015,0.6276739041079257,1.7346738314532004,,,,,,,,,,,,
40097,0,USOklahomaMayes,Oklahoma,Mayes,2022-04-28 09:13:11,2021-06-14,0.24437365229786015,0.6276739041079257,1.7346738314532004,,,,,,,,,,,,
40097,0,USOklahomaMayes,Oklahoma,Mayes,2022-04-28 09:13:11,2021-06-15,0.24437365229786015,0.6276739041079257,1.7346738314532004,,,,,,,,,,,,
40097,0,USOklahomaMayes,Oklahoma,Mayes,2022-04-28 09:13:11,2021-06-16,0.24437365229786015,0.6276739041079257,1.7346738314532004,,,,,,,,,,,,
40097,0,USOklahomaMayes,Oklahoma,Mayes,2022-04-28 09:13:11,2021-06-17,0.20295654628048726,0.5600421971733718,1.6613808059426896,,,,,,,,,,,,
40097,0,USOklahomaMayes,Oklahoma,Mayes,2022-04-28 09:13:11,2021-06-18,0.20295654628048726,0.5600421971733718,1.6613808059426896,,,,,,,,,,,,
40097,0,USOklahomaMayes,Oklahoma,Mayes,2022-04-28 09:13:11,2021-06-19,0.20295654628048726,0.5600421971733718,1.6613808059426896,,,,,,,,,,,,
40097,0,USOklahomaMayes,Oklahoma,Mayes,2022-04-28 09:13:11,2021-06-20,0.20295654628048726,0.5600421971733718,1.6613808059426896,,,,,,,,,,,,
40097,0,USOklahomaMayes,Oklahoma,Mayes,2022-04-28 09:13:11,2021-06-21,0.20295654628048726,0.5600421971733718,1.6613808059426896,,,,,,,,,,,,
40097,0,USOklahomaMayes,Oklahoma,Mayes,2022-04-28 09:13:11,2021-06-22,0.20295654628048726,0.5600421971733718,1.6613808059426896,,,,,,,,,,,,
40097,0,USOklahomaMayes,Oklahoma,Mayes,2022-04-28 09:13:11,2021-06-23,0.20295654628048726,0.5600421971733718,1.6613808059426896,,,,,,,,,,,,
40097,0,USOklahomaMayes,Oklahoma,Mayes,2022-04-28 09:13:11,2021-06-24,0.2274821340098087,0.6496755398505543,1.9934298489994378,,,,,,,,,,,,
40097,0,USOklahomaMayes,Oklahoma,Mayes,2022-04-28 09:13:11,2021-06-25,0.2274821340098087,0.6496755398505543,1.9934298489994378,,,,,,,,,,,,
40097,0,USOklahomaMayes,Oklahoma,Mayes,2022-04-28 09:13:11,2021-06-26,0.2274821340098087,0.6496755398505543,1.9934298489994378,,,,,,,,,,,,
40097,0,USOklahomaMayes,Oklahoma,Mayes,2022-04-28 09:13:11,2021-06-27,0.2274821340098087,0.6496755398505543,1.9934298489994378,,,,,,,,,,,,
40097,0,USOklahomaMayes,Oklahoma,Mayes,2022-04-28 09:13:11,2021-06-28,0.2274821340098087,0.6496755398505543,1.9934298489994378,,,,,,,,,,,,
40097,0,USOklahomaMayes,Oklahoma,Mayes,2022-04-28 09:13:11,2021-06-29,0.2274821340098087,0.6496755398505543,1.9934298489994378,,,,,,,,,,,,
40097,0,USOklahomaMayes,Oklahoma,Mayes,2022-04-28 09:13:11,2021-06-30,0.2274821340098087,0.6496755398505543,1.9934298489994378,,,,,,,,,,,,
40097,0,USOklahomaMayes,Oklahoma,Mayes,2022-04-28 09:13:11,2021-07-01,0.3990671354155038,1.0173591151875423,2.790797834979449,,,,,,,,,,,,
40097,0,USOklahomaMayes,Oklahoma,Mayes,2022-04-28 09:13:11,2021-07-02,0.3990671354155038,1.0173591151875423,2.790797834979449,,,,,,,,,,,,
40097,0,USOklahomaMayes,Oklahoma,Mayes,2022-04-28 09:13:11,2021-07-03,0.3990671354155038,1.0173591151875423,2.790797834979449,,,,,,,,,,,,
40097,0,USOklahomaMayes,Oklahoma,Mayes,2022-04-28 09:13:11,2021-07-04,0.3990671354155038,1.0173591151875423,2.790797834979449,,,,,,,,,,,,
40097,0,USOklahomaMayes,Oklahoma,Mayes,2022-04-28 09:13:11,2021-07-05,0.3990671354155038,1.0173591151875423,2.790797834979449,,,,,,,,,,,,
40097,0,USOklahomaMayes,Oklahoma,Mayes,2022-04-28 09:13:11,2021-07-06,0.3990671354155038,1.0173591151875423,2.790797834979449,,,,,,,,,,,,
40097,0,USOklahomaMayes,Oklahoma,Mayes,2022-04-28 09:13:11,2021-07-07,0.3990671354155038,1.0173591151875423,2.790797834979449,,,,,,,,,,,,
40097,0,USOklahomaMayes,Oklahoma,Mayes,2022-04-28 09:13:11,2021-07-08,1.027359524663038,2.443366401880334,6.2532688598784345,,,,,,,,,,,,
40097,0,USOklahomaMayes,Oklahoma,Mayes,2022-04-28 09:13:11,2021-07-09,1.027359524663038,2.443366401880334,6.2532688598784345,,,,,,,,,,,,
40097,0,USOklahomaMayes,Oklahoma,Mayes,2022-04-28 09:13:11,2021-07-10,1.027359524663038,2.443366401880334,6.2532688598784345,,,,,,,,,,,,
40097,0,USOklahomaMayes,Oklahoma,Mayes,2022-04-28 09:13:11,2021-07-11,1.027359524663038,2.443366401880334,6.2532688598784345,,,,,,,,,,,,
40097,0,USOklahomaMayes,Oklahoma,Mayes,2022-04-28 09:13:11,2021-07-12,1.027359524663038,2.443366401880334,6.2532688598784345,,,,,,,,,,,,
40097,0,USOklahomaMayes,Oklahoma,Mayes,2022-04-28 09:13:11,2021-07-13,1.027359524663038,2.443366401880334,6.2532688598784345,,,,,,,,,,,,
40097,0,USOklahomaMayes,Oklahoma,Mayes,2022-04-28 09:13:11,2021-07-14,1.027359524663038,2.443366401880334,6.2532688598784345,,,,,,,,,,,,
40097,0,USOklahomaMayes,Oklahoma,Mayes,2022-04-28 09:13:11,2021-07-15,1.3448404649386778,3.316399954919856,8.801205201246953,,,,,,,,,,,,
40097,0,USOklahomaMayes,Oklahoma,Mayes,2022-04-28 09:13:11,2021-07-16,1.3448404649386778,3.316399954919856,8.801205201246953,,,,,,,,,,,,
40097,0,USOklahomaMayes,Oklahoma,Mayes,2022-04-28 09:13:11,2021-07-17,1.3448404649386778,3.316399954919856,8.801205201246953,,,,,,,,,,,,
40097,0,USOklahomaMayes,Oklahoma,Mayes,2022-04-28 09:13:11,2021-07-18,1.3448404649386778,3.316399954919856,8.801205201246953,,,,,,,,,,,,
40097,0,USOklahomaMayes,Oklahoma,Mayes,2022-04-28 09:13:11,2021-07-19,1.3448404649386778,3.316399954919856,8.801205201246953,,,,,,,,,,,,
40097,0,USOklahomaMayes,Oklahoma,Mayes,2022-04-28 09:13:11,2021-07-20,1.3448404649386778,3.316399954919856,8.801205201246953,,,,,,,,,,,,
40097,0,USOklahomaMayes,Oklahoma,Mayes,2022-04-28 09:13:11,2021-07-21,1.3448404649386778,3.316399954919856,8.801205201246953,,,,,,,,,,,,
40097,0,USOklahomaMayes,Oklahoma,Mayes,2022-04-28 09:13:11,2021-07-22,1.4504022483335206,3.538180820495038,9.288643163616273,,,,,,,,,,,,
40097,0,USOklahomaMayes,Oklahoma,Mayes,2022-04-28 09:13:11,2021-07-23,1.4504022483335206,3.538180820495038,9.288643163616273,,,,,,,,,,,,
40097,0,USOklahomaMayes,Oklahoma,Mayes,2022-04-28 09:13:11,2021-07-24,1.4504022483335206,3.538180820495038,9.288643163616273,,,,,,,,,,,,
40097,0,USOklahomaMayes,Oklahoma,Mayes,2022-04-28 09:13:11,2021-07-25,1.4504022483335206,3.538180820495038,9.288643163616273,,,,,,,,,,,,
40097,0,USOklahomaMayes,Oklahoma,Mayes,2022-04-28 09:13:11,2021-07-26,1.4504022483335206,3.538180820495038,9.288643163616273,,,,,,,,,,,,
40097,0,USOklahomaMayes,Oklahoma,Mayes,2022-04-28 09:13:11,2021-07-27,1.4504022483335206,3.538180820495038,9.288643163616273,,,,,,,,,,,,
40097,0,USOklahomaMayes,Oklahoma,Mayes,2022-04-28 09:13:11,2021-07-28,1.4504022483335206,3.538180820495038,9.288643163616273,,,,,,,,,,,,
40097,0,USOklahomaMayes,Oklahoma,Mayes,2022-04-28 09:13:11,2021-07-29,2.3375717753412335,5.628937708064683,14.586794511669277,,,,,,,,,,,,
40097,0,USOklahomaMayes,Oklahoma,Mayes,2022-04-28 09:13:11,2021-07-30,2.3375717753412335,5.628937708064683,14.586794511669277,,,,,,,,,,,,
40097,0,USOklahomaMayes,Oklahoma,Mayes,2022-04-28 09:13:11,2021-07-31,2.3375717753412335,5.628937708064683,14.586794511669277,,,,,,,,,,,,
40097,0,USOklahomaMayes,Oklahoma,Mayes,2022-04-28 09:13:11,2021-08-01,2.3375717753412335,5.628937708064683,14.586794511669277,,,,,,,,,,,,
40097,0,USOklahomaMayes,Oklahoma,Mayes,2022-04-28 09:13:11,2021-08-02,2.3375717753412335,5.628937708064683,14.586794511669277,,,,,,,,,,,,
40097,0,USOklahomaMayes,Oklahoma,Mayes,2022-04-28 09:13:11,2021-08-03,2.3375717753412335,5.628937708064683,14.586794511669277,,,,,,,,,,,,
40097,0,USOklahomaMayes,Oklahoma,Mayes,2022-04-28 09:13:11,2021-08-04,2.3375717753412335,5.628937708064683,14.586794511669277,,,,,,,,,,,,
40097,0,USOklahomaMayes,Oklahoma,Mayes,2022-04-28 09:13:11,2021-08-05,2.316525690163531,5.001816267967498,11.606778797517748,,,,,,,,,,,,
40097,0,USOklahomaMayes,Oklahoma,Mayes,2022-04-28 09:13:11,2021-08-06,2.316525690163531,5.001816267967498,11.606778797517748,,,,,,,,,,,,
40097,0,USOklahomaMayes,Oklahoma,Mayes,2022-04-28 09:13:11,2021-08-07,2.316525690163531,5.001816267967498,11.606778797517748,,,,,,,,,,,,
40097,0,USOklahomaMayes,Oklahoma,Mayes,2022-04-28 09:13:11,2021-08-08,2.316525690163531,5.001816267967498,11.606778797517748,,,,,,,,,,,,
40097,0,USOklahomaMayes,Oklahoma,Mayes,2022-04-28 09:13:11,2021-08-09,2.316525690163531,5.001816267967498,11.606778797517748,,,,,,,,,,,,
40097,0,USOklahomaMayes,Oklahoma,Mayes,2022-04-28 09:13:11,2021-08-10,2.316525690163531,5.001816267967498,11.606778797517748,,,,,,,,,,,,
40097,0,USOklahomaMayes,Oklahoma,Mayes,2022-04-28 09:13:11,2021-08-11,2.316525690163531,5.001816267967498,11.606778797517748,,,,,,,,,,,,
40097,0,USOklahomaMayes,Oklahoma,Mayes,2022-04-28 09:13:11,2021-08-12,2.6960249959980658,6.013237648843589,14.42309141080218,,,,,,,,,,,,
40097,0,USOklahomaMayes,Oklahoma,Mayes,2022-04-28 09:13:11,2021-08-13,2.6960249959980658,6.013237648843589,14.42309141080218,,,,,,,,,,,,
40097,0,USOklahomaMayes,Oklahoma,Mayes,2022-04-28 09:13:11,2021-08-14,2.6960249959980658,6.013237648843589,14.42309141080218,,,,,,,,,,,,
40097,0,USOklahomaMayes,Oklahoma,Mayes,2022-04-28 09:13:11,2021-08-15,2.6960249959980658,6.013237648843589,14.42309141080218,,,,,,,,,,,,
40097,0,USOklahomaMayes,Oklahoma,Mayes,2022-04-28 09:13:11,2021-08-16,2.6960249959980658,6.013237648843589,14.42309141080218,,,,,,,,,,,,
40097,0,USOklahomaMayes,Oklahoma,Mayes,2022-04-28 09:13:11,2021-08-17,2.6960249959980658,6.013237648843589,14.42309141080218,,,,,,,,,,,,
40097,0,USOklahomaMayes,Oklahoma,Mayes,2022-04-28 09:13:11,2021-08-18,2.6960249959980658,6.013237648843589,14.42309141080218,,,,,,,,,,,,
40097,0,USOklahomaMayes,Oklahoma,Mayes,2022-04-28 09:13:11,2021-08-19,3.1263151717948077,7.473181090347716,19.22383190708534,,,,,,,,,,,,
40097,0,USOklahomaMayes,Oklahoma,Mayes,2022-04-28 09:13:11,2021-08-20,3.1263151717948077,7.473181090347716,19.22383190708534,,,,,,,,,,,,
40097,0,USOklahomaMayes,Oklahoma,Mayes,2022-04-28 09:13:11,2021-08-21,3.1263151717948077,7.473181090347716,19.22383190708534,,,,,,,,,,,,
40097,0,USOklahomaMayes,Oklahoma,Mayes,2022-04-28 09:13:11,2021-08-22,3.1263151717948077,7.473181090347716,19.22383190708534,,,,,,,,,,,,
40097,0,USOklahomaMayes,Oklahoma,Mayes,2022-04-28 09:13:11,2021-08-23,3.1263151717948077,7.473181090347716,19.22383190708534,,,,,,,,,,,,
40097,0,USOklahomaMayes,Oklahoma,Mayes,2022-04-28 09:13:11,2021-08-24,3.1263151717948077,7.473181090347716,19.22383190708534,,,,,,,,,,,,
40097,0,USOklahomaMayes,Oklahoma,Mayes,2022-04-28 09:13:11,2021-08-25,3.1263151717948077,7.473181090347716,19.22383190708534,,,,,,,,,,,,
40097,0,USOklahomaMayes,Oklahoma,Mayes,2022-04-28 09:13:11,2021-08-26,3.6033118775183124,8.727141665013574,22.746757062338265,,,,,,,,,,,,
40097,0,USOklahomaMayes,Oklahoma,Mayes,2022-04-28 09:13:11,2021-08-27,3.6033118775183124,8.727141665013574,22.746757062338265,,,,,,,,,,,,
40097,0,USOklahomaMayes,Oklahoma,Mayes,2022-04-28 09:13:11,2021-08-28,3.6033118775183124,8.727141665013574,22.746757062338265,,,,,,,,,,,,
40097,0,USOklahomaMayes,Oklahoma,Mayes,2022-04-28 09:13:11,2021-08-29,3.6033118775183124,8.727141665013574,22.746757062338265,,,,,,,,,,,,
40097,0,USOklahomaMayes,Oklahoma,Mayes,2022-04-28 09:13:11,2021-08-30,3.6033118775183124,8.727141665013574,22.746757062338265,,,,,,,,,,,,
40097,0,USOklahomaMayes,Oklahoma,Mayes,2022-04-28 09:13:11,2021-08-31,3.6033118775183124,8.727141665013574,22.746757062338265,,,,,,,,,,,,
40097,0,USOklahomaMayes,Oklahoma,Mayes,2022-04-28 09:13:11,2021-09-01,3.6033118775183124,8.727141665013574,22.746757062338265,,,,,,,,,,,,
40097,0,USOklahomaMayes,Oklahoma,Mayes,2022-04-28 09:13:11,2021-09-02,2.1208455563945154,4.18961816183919,8.869480060463381,,,,,,,,,,,,
40097,0,USOklahomaMayes,Oklahoma,Mayes,2022-04-28 09:13:11,2021-09-03,2.1208455563945154,4.18961816183919,8.869480060463381,,,,,,,,,,,,
40097,0,USOklahomaMayes,Oklahoma,Mayes,2022-04-28 09:13:11,2021-09-04,2.1208455563945154,4.18961816183919,8.869480060463381,,,,,,,,,,,,
40097,0,USOklahomaMayes,Oklahoma,Mayes,2022-04-28 09:13:11,2021-09-05,2.1208455563945154,4.18961816183919,8.869480060463381,,,,,,,,,,,,
40097,0,USOklahomaMayes,Oklahoma,Mayes,2022-04-28 09:13:11,2021-09-06,2.1208455563945154,4.18961816183919,8.869480060463381,,,,,,,,,,,,
40097,0,USOklahomaMayes,Oklahoma,Mayes,2022-04-28 09:13:11,2021-09-07,2.1208455563945154,4.18961816183919,8.869480060463381,,,,,,,,,,,,
40097,0,USOklahomaMayes,Oklahoma,Mayes,2022-04-28 09:13:11,2021-09-08,2.1208455563945154,4.18961816183919,8.869480060463381,,,,,,,,,,,,
40097,0,USOklahomaMayes,Oklahoma,Mayes,2022-04-28 09:13:11,2021-09-09,1.6666753469648021,3.3631002792071776,7.278646292893262,,,,,,,,,,,,
40097,0,USOklahomaMayes,Oklahoma,Mayes,2022-04-28 09:13:11,2021-09-10,1.6666753469648021,3.3631002792071776,7.278646292893262,,,,,,,,,,,,
40097,0,USOklahomaMayes,Oklahoma,Mayes,2022-04-28 09:13:11,2021-09-11,1.6666753469648021,3.3631002792071776,7.278646292893262,,,,,,,,,,,,
40097,0,USOklahomaMayes,Oklahoma,Mayes,2022-04-28 09:13:11,2021-09-12,1.6666753469648021,3.3631002792071776,7.278646292893262,,,,,,,,,,,,
40097,0,USOklahomaMayes,Oklahoma,Mayes,2022-04-28 09:13:11,2021-09-13,1.6666753469648021,3.3631002792071776,7.278646292893262,,,,,,,,,,,,
40097,0,USOklahomaMayes,Oklahoma,Mayes,2022-04-28 09:13:11,2021-09-14,1.6666753469648021,3.3631002792071776,7.278646292893262,,,,,,,,,,,,
40097,0,USOklahomaMayes,Oklahoma,Mayes,2022-04-28 09:13:11,2021-09-15,1.6666753469648021,3.3631002792071776,7.278646292893262,,,,,,,,,,,,
40097,0,USOklahomaMayes,Oklahoma,Mayes,2022-04-28 09:13:11,2021-09-16,1.395334198100866,3.0607365126902293,7.217896482707629,,,,,,,,,,,,
40097,0,USOklahomaMayes,Oklahoma,Mayes,2022-04-28 09:13:11,2021-09-17,1.395334198100866,3.0607365126902293,7.217896482707629,,,,,,,,,,,,
40097,0,USOklahomaMayes,Oklahoma,Mayes,2022-04-28 09:13:11,2021-09-18,1.395334198100866,3.0607365126902293,7.217896482707629,,,,,,,,,,,,
40097,0,USOklahomaMayes,Oklahoma,Mayes,2022-04-28 09:13:11,2021-09-19,1.395334198100866,3.0607365126902293,7.217896482707629,,,,,,,,,,,,
40097,0,USOklahomaMayes,Oklahoma,Mayes,2022-04-28 09:13:11,2021-09-20,1.395334198100866,3.0607365126902293,7.217896482707629,,,,,,,,,,,,
40097,0,USOklahomaMayes,Oklahoma,Mayes,2022-04-28 09:13:11,2021-09-21,1.395334198100866,3.0607365126902293,7.217896482707629,,,,,,,,,,,,
40097,0,USOklahomaMayes,Oklahoma,Mayes,2022-04-28 09:13:11,2021-09-22,1.395334198100866,3.0607365126902293,7.217896482707629,,,,,,,,,,,,
40097,0,USOklahomaMayes,Oklahoma,Mayes,2022-04-28 09:13:11,2021-09-23,2.3608991205955476,4.315430276930647,8.419811392739264,,,,,,,,,,,,
40097,0,USOklahomaMayes,Oklahoma,Mayes,2022-04-28 09:13:11,2021-09-24,2.3608991205955476,4.315430276930647,8.419811392739264,,,,,,,,,,,,
40097,0,USOklahomaMayes,Oklahoma,Mayes,2022-04-28 09:13:11,2021-09-25,2.3608991205955476,4.315430276930647,8.419811392739264,,,,,,,,,,,,
40097,0,USOklahomaMayes,Oklahoma,Mayes,2022-04-28 09:13:11,2021-09-26,2.3608991205955476,4.315430276930647,8.419811392739264,,,,,,,,,,,,
40097,0,USOklahomaMayes,Oklahoma,Mayes,2022-04-28 09:13:11,2021-09-27,2.3608991205955476,4.315430276930647,8.419811392739264,,,,,,,,,,,,
40097,0,USOklahomaMayes,Oklahoma,Mayes,2022-04-28 09:13:11,2021-09-28,2.3608991205955476,4.315430276930647,8.419811392739264,,,,,,,,,,,,
40097,0,USOklahomaMayes,Oklahoma,Mayes,2022-04-28 09:13:11,2021-09-29,2.3608991205955476,4.315430276930647,8.419811392739264,,,,,,,,,,,,
40097,0,USOklahomaMayes,Oklahoma,Mayes,2022-04-28 09:13:11,2021-09-30,1.3120056302621808,2.8103001270998185,6.468178439604087,,,,,,,,,,,,
40097,0,USOklahomaMayes,Oklahoma,Mayes,2022-04-28 09:13:11,2021-10-01,1.3120056302621808,2.8103001270998185,6.468178439604087,,,,,,,,,,,,
40097,0,USOklahomaMayes,Oklahoma,Mayes,2022-04-28 09:13:11,2021-10-02,1.3120056302621808,2.8103001270998185,6.468178439604087,,,,,,,,,,,,
40097,0,USOklahomaMayes,Oklahoma,Mayes,2022-04-28 09:13:11,2021-10-03,1.3120056302621808,2.8103001270998185,6.468178439604087,,,,,,,,,,,,
40097,0,USOklahomaMayes,Oklahoma,Mayes,2022-04-28 09:13:11,2021-10-04,1.3120056302621808,2.8103001270998185,6.468178439604087,,,,,,,,,,,,
40097,0,USOklahomaMayes,Oklahoma,Mayes,2022-04-28 09:13:11,2021-10-05,1.3120056302621808,2.8103001270998185,6.468178439604087,,,,,,,,,,,,
40097,0,USOklahomaMayes,Oklahoma,Mayes,2022-04-28 09:13:11,2021-10-06,1.3120056302621808,2.8103001270998185,6.468178439604087,,,,,,,,,,,,
40097,0,USOklahomaMayes,Oklahoma,Mayes,2022-04-28 09:13:11,2021-10-07,1.6807140864852799,4.379760060127943,12.278894371190537,,,,,,,,,,,,
40097,0,USOklahomaMayes,Oklahoma,Mayes,2022-04-28 09:13:11,2021-10-08,1.6807140864852799,4.379760060127943,12.278894371190537,,,,,,,,,,,,
40097,0,USOklahomaMayes,Oklahoma,Mayes,2022-04-28 09:13:11,2021-10-09,1.6807140864852799,4.379760060127943,12.278894371190537,,,,,,,,,,,,
40097,0,USOklahomaMayes,Oklahoma,Mayes,2022-04-28 09:13:11,2021-10-10,1.6807140864852799,4.379760060127943,12.278894371190537,,,,,,,,,,,,
40097,0,USOklahomaMayes,Oklahoma,Mayes,2022-04-28 09:13:11,2021-10-11,1.6807140864852799,4.379760060127943,12.278894371190537,,,,,,,,,,,,
40097,0,USOklahomaMayes,Oklahoma,Mayes,2022-04-28 09:13:11,2021-10-12,1.6807140864852799,4.379760060127943,12.278894371190537,,,,,,,,,,,,
40097,0,USOklahomaMayes,Oklahoma,Mayes,2022-04-28 09:13:11,2021-10-13,1.6807140864852799,4.379760060127943,12.278894371190537,,,,,,,,,,,,
40097,0,USOklahomaMayes,Oklahoma,Mayes,2022-04-28 09:13:11,2021-10-14,1.0123774885476868,2.94415697099957,9.195321958441784,,,,,,,,,,,,
40097,0,USOklahomaMayes,Oklahoma,Mayes,2022-04-28 09:13:11,2021-10-15,1.0123774885476868,2.94415697099957,9.195321958441784,,,,,,,,,,,,
40097,0,USOklahomaMayes,Oklahoma,Mayes,2022-04-28 09:13:11,2021-10-16,1.0123774885476868,2.94415697099957,9.195321958441784,,,,,,,,,,,,
40097,0,USOklahomaMayes,Oklahoma,Mayes,2022-04-28 09:13:11,2021-10-17,1.0123774885476868,2.94415697099957,9.195321958441784,,,,,,,,,,,,
40097,0,USOklahomaMayes,Oklahoma,Mayes,2022-04-28 09:13:11,2021-10-18,1.0123774885476868,2.94415697099957,9.195321958441784,,,,,,,,,,,,
40097,0,USOklahomaMayes,Oklahoma,Mayes,2022-04-28 09:13:11,2021-10-19,1.0123774885476868,2.94415697099957,9.195321958441784,,,,,,,,,,,,
40097,0,USOklahomaMayes,Oklahoma,Mayes,2022-04-28 09:13:11,2021-10-20,1.0123774885476868,2.94415697099957,9.195321958441784,,,,,,,,,,,,
40097,0,USOklahomaMayes,Oklahoma,Mayes,2022-04-28 09:13:11,2021-10-21,1.0215793598943863,2.8352407171849228,8.458560300095451,,,,,,,,,,,,
40097,0,USOklahomaMayes,Oklahoma,Mayes,2022-04-28 09:13:11,2021-10-22,1.0215793598943863,2.8352407171849228,8.458560300095451,,,,,,,,,,,,
40097,0,USOklahomaMayes,Oklahoma,Mayes,2022-04-28 09:13:11,2021-10-23,1.0215793598943863,2.8352407171849228,8.458560300095451,,,,,,,,,,,,
40097,0,USOklahomaMayes,Oklahoma,Mayes,2022-04-28 09:13:11,2021-10-24,1.0215793598943863,2.8352407171849228,8.458560300095451,,,,,,,,,,,,
40097,0,USOklahomaMayes,Oklahoma,Mayes,2022-04-28 09:13:11,2021-10-25,1.0215793598943863,2.8352407171849228,8.458560300095451,,,,,,,,,,,,
40097,0,USOklahomaMayes,Oklahoma,Mayes,2022-04-28 09:13:11,2021-10-26,1.0215793598943863,2.8352407171849228,8.458560300095451,,,,,,,,,,,,
40097,0,USOklahomaMayes,Oklahoma,Mayes,2022-04-28 09:13:11,2021-10-27,1.0215793598943863,2.8352407171849228,8.458560300095451,,,,,,,,,,,,
40097,0,USOklahomaMayes,Oklahoma,Mayes,2022-04-28 09:13:11,2021-10-28,0.8716010552680431,2.4363146275718317,7.319530869990771,,,,,,,,,,,,
40097,0,USOklahomaMayes,Oklahoma,Mayes,2022-04-28 09:13:11,2021-10-29,0.8716010552680431,2.4363146275718317,7.319530869990771,,,,,,,,,,,,
40097,0,USOklahomaMayes,Oklahoma,Mayes,2022-04-28 09:13:11,2021-10-30,0.8716010552680431,2.4363146275718317,7.319530869990771,,,,,,,,,,,,
40097,0,USOklahomaMayes,Oklahoma,Mayes,2022-04-28 09:13:11,2021-10-31,0.8716010552680431,2.4363146275718317,7.319530869990771,,,,,,,,,,,,
40097,0,USOklahomaMayes,Oklahoma,Mayes,2022-04-28 09:13:11,2021-11-01,0.8716010552680431,2.4363146275718317,7.319530869990771,,,,,,,,,,,,
40097,0,USOklahomaMayes,Oklahoma,Mayes,2022-04-28 09:13:11,2021-11-02,0.8716010552680431,2.4363146275718317,7.319530869990771,,,,,,,,,,,,
40097,0,USOklahomaMayes,Oklahoma,Mayes,2022-04-28 09:13:11,2021-11-03,0.8716010552680431,2.4363146275718317,7.319530869990771,,,,,,,,,,,,
40097,0,USOklahomaMayes,Oklahoma,Mayes,2022-04-28 09:13:11,2021-11-04,0,0,0,,,,,,,,,,,,
40097,0,USOklahomaMayes,Oklahoma,Mayes,2022-04-28 09:13:11,2021-11-05,0,0,0,,,,,,,,,,,,
40097,0,USOklahomaMayes,Oklahoma,Mayes,2022-04-28 09:13:11,2021-11-06,0,0,0,,,,,,,,,,,,
40097,0,USOklahomaMayes,Oklahoma,Mayes,2022-04-28 09:13:11,2021-11-07,0,0,0,,,,,,,,,,,,
40097,0,USOklahomaMayes,Oklahoma,Mayes,2022-04-28 09:13:11,2021-11-08,0,0,0,,,,,,,,,,,,
40097,0,USOklahomaMayes,Oklahoma,Mayes,2022-04-28 09:13:11,2021-11-09,0,0,0,,,,,,,,,,,,
40097,0,USOklahomaMayes,Oklahoma,Mayes,2022-04-28 09:13:11,2021-11-10,0,0,0,,,,,,,,,,,,
40097,0,USOklahomaMayes,Oklahoma,Mayes,2022-04-28 09:13:11,2021-11-11,1.3792580748753762,3.709751430017911,10.731019843327136,,,,,,,,,,,,
40097,0,USOklahomaMayes,Oklahoma,Mayes,2022-04-28 09:13:11,2021-11-12,1.3792580748753762,3.709751430017911,10.731019843327136,,,,,,,,,,,,
40097,0,USOklahomaMayes,Oklahoma,Mayes,2022-04-28 09:13:11,2021-11-13,1.3792580748753762,3.709751430017911,10.731019843327136,,,,,,,,,,,,
40097,0,USOklahomaMayes,Oklahoma,Mayes,2022-04-28 09:13:11,2021-11-14,1.3792580748753762,3.709751430017911,10.731019843327136,,,,,,,,,,,,
40097,0,USOklahomaMayes,Oklahoma,Mayes,2022-04-28 09:13:11,2021-11-15,1.3792580748753762,3.709751430017911,10.731019843327136,,,,,,,,,,,,
40097,0,USOklahomaMayes,Oklahoma,Mayes,2022-04-28 09:13:11,2021-11-16,1.3792580748753762,3.709751430017911,10.731019843327136,,,,,,,,,,,,
40097,0,USOklahomaMayes,Oklahoma,Mayes,2022-04-28 09:13:11,2021-11-17,1.3792580748753762,3.709751430017911,10.731019843327136,,,,,,,,,,,,
40097,0,USOklahomaMayes,Oklahoma,Mayes,2022-04-28 09:13:11,2021-11-18,0.9226483287591174,2.5496403491980706,7.574291933686067,,,,,,,,,,,,
40097,0,USOklahomaMayes,Oklahoma,Mayes,2022-04-28 09:13:11,2021-11-19,0.9226483287591174,2.5496403491980706,7.574291933686067,,,,,,,,,,,,
40097,0,USOklahomaMayes,Oklahoma,Mayes,2022-04-28 09:13:11,2021-11-20,0.9226483287591174,2.5496403491980706,7.574291933686067,,,,,,,,,,,,
40097,0,USOklahomaMayes,Oklahoma,Mayes,2022-04-28 09:13:11,2021-11-21,0.9226483287591174,2.5496403491980706,7.574291933686067,,,,,,,,,,,,
40097,0,USOklahomaMayes,Oklahoma,Mayes,2022-04-28 09:13:11,2021-11-22,0.9226483287591174,2.5496403491980706,7.574291933686067,,,,,,,,,,,,
40097,0,USOklahomaMayes,Oklahoma,Mayes,2022-04-28 09:13:11,2021-11-23,0.9226483287591174,2.5496403491980706,7.574291933686067,,,,,,,,,,,,
40097,0,USOklahomaMayes,Oklahoma,Mayes,2022-04-28 09:13:11,2021-11-24,0.9226483287591174,2.5496403491980706,7.574291933686067,,,,,,,,,,,,
40097,0,USOklahomaMayes,Oklahoma,Mayes,2022-04-28 09:13:11,2021-11-25,0.5260911771273333,1.3708338502165063,3.8429203944087624,,,,,,,,,,,,
40097,0,USOklahomaMayes,Oklahoma,Mayes,2022-04-28 09:13:11,2021-11-26,0.5260911771273333,1.3708338502165063,3.8429203944087624,,,,,,,,,,,,
40097,0,USOklahomaMayes,Oklahoma,Mayes,2022-04-28 09:13:11,2021-11-27,0.5260911771273333,1.3708338502165063,3.8429203944087624,,,,,,,,,,,,
40097,0,USOklahomaMayes,Oklahoma,Mayes,2022-04-28 09:13:11,2021-11-28,0.5260911771273333,1.3708338502165063,3.8429203944087624,,,,,,,,,,,,
40097,0,USOklahomaMayes,Oklahoma,Mayes,2022-04-28 09:13:11,2021-11-29,0.5260911771273333,1.3708338502165063,3.8429203944087624,,,,,,,,,,,,
40097,0,USOklahomaMayes,Oklahoma,Mayes,2022-04-28 09:13:11,2021-11-30,0.5260911771273333,1.3708338502165063,3.8429203944087624,,,,,,,,,,,,
40097,0,USOklahomaMayes,Oklahoma,Mayes,2022-04-28 09:13:11,2021-12-01,0.5260911771273333,1.3708338502165063,3.8429203944087624,,,,,,,,,,,,
40097,0,USOklahomaMayes,Oklahoma,Mayes,2022-04-28 09:13:11,2021-12-02,1.1343819150559518,2.4955830466965834,5.9026348177882975,,,,,,,,,,,,
40097,0,USOklahomaMayes,Oklahoma,Mayes,2022-04-28 09:13:11,2021-12-03,1.1343819150559518,2.4955830466965834,5.9026348177882975,,,,,,,,,,,,
40097,0,USOklahomaMayes,Oklahoma,Mayes,2022-04-28 09:13:11,2021-12-04,1.1343819150559518,2.4955830466965834,5.9026348177882975,,,,,,,,,,,,
40097,0,USOklahomaMayes,Oklahoma,Mayes,2022-04-28 09:13:11,2021-12-05,1.1343819150559518,2.4955830466965834,5.9026348177882975,,,,,,,,,,,,
40097,0,USOklahomaMayes,Oklahoma,Mayes,2022-04-28 09:13:11,2021-12-06,1.1343819150559518,2.4955830466965834,5.9026348177882975,,,,,,,,,,,,
40097,0,USOklahomaMayes,Oklahoma,Mayes,2022-04-28 09:13:11,2021-12-07,1.1343819150559518,2.4955830466965834,5.9026348177882975,,,,,,,,,,,,
40097,0,USOklahomaMayes,Oklahoma,Mayes,2022-04-28 09:13:11,2021-12-08,1.1343819150559518,2.4955830466965834,5.9026348177882975,,,,,,,,,,,,
40097,0,USOklahomaMayes,Oklahoma,Mayes,2022-04-28 09:13:11,2021-12-09,0.8462280682927174,2.0768980348458035,5.485594718379027,,,,,,,,,,,,
40097,0,USOklahomaMayes,Oklahoma,Mayes,2022-04-28 09:13:11,2021-12-10,0.8462280682927174,2.0768980348458035,5.485594718379027,,,,,,,,,,,,
40097,0,USOklahomaMayes,Oklahoma,Mayes,2022-04-28 09:13:11,2021-12-11,0.8462280682927174,2.0768980348458035,5.485594718379027,,,,,,,,,,,,
40097,0,USOklahomaMayes,Oklahoma,Mayes,2022-04-28 09:13:11,2021-12-12,0.8462280682927174,2.0768980348458035,5.485594718379027,,,,,,,,,,,,
40097,0,USOklahomaMayes,Oklahoma,Mayes,2022-04-28 09:13:11,2021-12-13,0.8462280682927174,2.0768980348458035,5.485594718379027,,,,,,,,,,,,
40097,0,USOklahomaMayes,Oklahoma,Mayes,2022-04-28 09:13:11,2021-12-14,0.8462280682927174,2.0768980348458035,5.485594718379027,,,,,,,,,,,,
40097,0,USOklahomaMayes,Oklahoma,Mayes,2022-04-28 09:13:11,2021-12-15,0.8462280682927174,2.0768980348458035,5.485594718379027,,,,,,,,,,,,
40097,0,USOklahomaMayes,Oklahoma,Mayes,2022-04-28 09:13:11,2021-12-16,0.840173415401313,1.8393539928578309,4.32894469801245,,,,,,,,,,,,
40097,0,USOklahomaMayes,Oklahoma,Mayes,2022-04-28 09:13:11,2021-12-17,0.840173415401313,1.8393539928578309,4.32894469801245,,,,,,,,,,,,
40097,0,USOklahomaMayes,Oklahoma,Mayes,2022-04-28 09:13:11,2021-12-18,0.840173415401313,1.8393539928578309,4.32894469801245,,,,,,,,,,,,
40097,0,USOklahomaMayes,Oklahoma,Mayes,2022-04-28 09:13:11,2021-12-19,0.840173415401313,1.8393539928578309,4.32894469801245,,,,,,,,,,,,
40097,0,USOklahomaMayes,Oklahoma,Mayes,2022-04-28 09:13:11,2021-12-20,0.840173415401313,1.8393539928578309,4.32894469801245,,,,,,,,,,,,
40097,0,USOklahomaMayes,Oklahoma,Mayes,2022-04-28 09:13:11,2021-12-21,0.840173415401313,1.8393539928578309,4.32894469801245,,,,,,,,,,,,
40097,0,USOklahomaMayes,Oklahoma,Mayes,2022-04-28 09:13:11,2021-12-22,0.840173415401313,1.8393539928578309,4.32894469801245,,,,,,,,,,,,
40097,0,USOklahomaMayes,Oklahoma,Mayes,2022-04-28 09:13:11,2021-12-23,0.6922869075284807,1.8861972847522446,5.525933385435953,,,,,,,,,,,,
40097,0,USOklahomaMayes,Oklahoma,Mayes,2022-04-28 09:13:11,2021-12-24,0.6922869075284807,1.8861972847522446,5.525933385435953,,,,,,,,,,,,
40097,0,USOklahomaMayes,Oklahoma,Mayes,2022-04-28 09:13:11,2021-12-25,0.6922869075284807,1.8861972847522446,5.525933385435953,,,,,,,,,,,,
40097,0,USOklahomaMayes,Oklahoma,Mayes,2022-04-28 09:13:11,2021-12-26,0.6922869075284807,1.8861972847522446,5.525933385435953,,,,,,,,,,,,
40097,0,USOklahomaMayes,Oklahoma,Mayes,2022-04-28 09:13:11,2021-12-27,0.6922869075284807,1.8861972847522446,5.525933385435953,,,,,,,,,,,,
40097,0,USOklahomaMayes,Oklahoma,Mayes,2022-04-28 09:13:11,2021-12-28,0.6922869075284807,1.8861972847522446,5.525933385435953,,,,,,,,,,,,
40097,0,USOklahomaMayes,Oklahoma,Mayes,2022-04-28 09:13:11,2021-12-29,0.6922869075284807,1.8861972847522446,5.525933385435953,,,,,,,,,,,,
40097,0,USOklahomaMayes,Oklahoma,Mayes,2022-04-28 09:13:11,2021-12-30,0.41537330216687196,1.5209829861015873,5.937958461867948,,,,,,,,,,,,
40097,0,USOklahomaMayes,Oklahoma,Mayes,2022-04-28 09:13:11,2021-12-31,0.41537330216687196,1.5209829861015873,5.937958461867948,,,,,,,,,,,,
40097,0,USOklahomaMayes,Oklahoma,Mayes,2022-04-28 09:13:11,2022-01-01,0.41537330216687196,1.5209829861015873,5.937958461867948,,,,,,,,,,,,
40097,0,USOklahomaMayes,Oklahoma,Mayes,2022-04-28 09:13:11,2022-01-02,0.41537330216687196,1.5209829861015873,5.937958461867948,,,,,,,,,,,,
40097,0,USOklahomaMayes,Oklahoma,Mayes,2022-04-28 09:13:11,2022-01-03,0.41537330216687196,1.5209829861015873,5.937958461867948,,,,,,,,,,,,
40097,0,USOklahomaMayes,Oklahoma,Mayes,2022-04-28 09:13:11,2022-01-04,0.41537330216687196,1.5209829861015873,5.937958461867948,,,,,,,,,,,,
40097,0,USOklahomaMayes,Oklahoma,Mayes,2022-04-28 09:13:11,2022-01-05,0.41537330216687196,1.5209829861015873,5.937958461867948,,,,,,,,,,,,
40097,0,USOklahomaMayes,Oklahoma,Mayes,2022-04-28 09:13:11,2022-01-06,2.847658656159361,7.3825763761067185,20.592081932124678,,,,,,,,,,,,
40097,0,USOklahomaMayes,Oklahoma,Mayes,2022-04-28 09:13:11,2022-01-07,2.847658656159361,7.3825763761067185,20.592081932124678,,,,,,,,,,,,
40097,0,USOklahomaMayes,Oklahoma,Mayes,2022-04-28 09:13:11,2022-01-08,2.847658656159361,7.3825763761067185,20.592081932124678,,,,,,,,,,,,
40097,0,USOklahomaMayes,Oklahoma,Mayes,2022-04-28 09:13:11,2022-01-09,2.847658656159361,7.3825763761067185,20.592081932124678,,,,,,,,,,,,
40097,0,USOklahomaMayes,Oklahoma,Mayes,2022-04-28 09:13:11,2022-01-10,2.847658656159361,7.3825763761067185,20.592081932124678,,,,,,,,,,,,
40097,0,USOklahomaMayes,Oklahoma,Mayes,2022-04-28 09:13:11,2022-01-11,2.847658656159361,7.3825763761067185,20.592081932124678,,,,,,,,,,,,
40097,0,USOklahomaMayes,Oklahoma,Mayes,2022-04-28 09:13:11,2022-01-12,2.847658656159361,7.3825763761067185,20.592081932124678,,,,,,,,,,,,
40097,0,USOklahomaMayes,Oklahoma,Mayes,2022-04-28 09:13:11,2022-01-13,5.9063074163421465,12.433668106496434,28.112487312989877,,,,,,,,,,,,
40097,0,USOklahomaMayes,Oklahoma,Mayes,2022-04-28 09:13:11,2022-01-14,5.9063074163421465,12.433668106496434,28.112487312989877,,,,,,,,,,,,
40097,0,USOklahomaMayes,Oklahoma,Mayes,2022-04-28 09:13:11,2022-01-15,5.9063074163421465,12.433668106496434,28.112487312989877,,,,,,,,,,,,
40097,0,USOklahomaMayes,Oklahoma,Mayes,2022-04-28 09:13:11,2022-01-16,5.9063074163421465,12.433668106496434,28.112487312989877,,,,,,,,,,,,
40097,0,USOklahomaMayes,Oklahoma,Mayes,2022-04-28 09:13:11,2022-01-17,5.9063074163421465,12.433668106496434,28.112487312989877,,,,,,,,,,,,
40097,0,USOklahomaMayes,Oklahoma,Mayes,2022-04-28 09:13:11,2022-01-18,5.9063074163421465,12.433668106496434,28.112487312989877,,,,,,,,,,,,
40097,0,USOklahomaMayes,Oklahoma,Mayes,2022-04-28 09:13:11,2022-01-19,5.9063074163421465,12.433668106496434,28.112487312989877,,,,,,,,,,,,
40097,0,USOklahomaMayes,Oklahoma,Mayes,2022-04-28 09:13:11,2022-01-20,6.850272918048936,12.527579563876412,24.4551861255656,,,,,,,,,,,,
40097,0,USOklahomaMayes,Oklahoma,Mayes,2022-04-28 09:13:11,2022-01-21,6.850272918048936,12.527579563876412,24.4551861255656,,,,,,,,,,,,
40097,0,USOklahomaMayes,Oklahoma,Mayes,2022-04-28 09:13:11,2022-01-22,6.850272918048936,12.527579563876412,24.4551861255656,,,,,,,,,,,,
40097,0,USOklahomaMayes,Oklahoma,Mayes,2022-04-28 09:13:11,2022-01-23,6.850272918048936,12.527579563876412,24.4551861255656,,,,,,,,,,,,
40097,0,USOklahomaMayes,Oklahoma,Mayes,2022-04-28 09:13:11,2022-01-24,6.850272918048936,12.527579563876412,24.4551861255656,,,,,,,,,,,,
40097,0,USOklahomaMayes,Oklahoma,Mayes,2022-04-28 09:13:11,2022-01-25,6.850272918048936,12.527579563876412,24.4551861255656,,,,,,,,,,,,
40097,0,USOklahomaMayes,Oklahoma,Mayes,2022-04-28 09:13:11,2022-01-26,6.850272918048936,12.527579563876412,24.4551861255656,,,,,,,,,,,,
40097,0,USOklahomaMayes,Oklahoma,Mayes,2022-04-28 09:13:11,2022-01-27,8.242773281405613,12.823667963194252,21.01505404474872,,,,,,,,,,,,
40097,0,USOklahomaMayes,Oklahoma,Mayes,2022-04-28 09:13:11,2022-01-28,8.242773281405613,12.823667963194252,21.01505404474872,,,,,,,,,,,,
40097,0,USOklahomaMayes,Oklahoma,Mayes,2022-04-28 09:13:11,2022-01-29,8.242773281405613,12.823667963194252,21.01505404474872,,,,,,,,,,,,
40097,0,USOklahomaMayes,Oklahoma,Mayes,2022-04-28 09:13:11,2022-01-30,8.242773281405613,12.823667963194252,21.01505404474872,,,,,,,,,,,,
40097,0,USOklahomaMayes,Oklahoma,Mayes,2022-04-28 09:13:11,2022-01-31,8.242773281405613,12.823667963194252,21.01505404474872,,,,,,,,,,,,
40097,0,USOklahomaMayes,Oklahoma,Mayes,2022-04-28 09:13:11,2022-02-01,8.242773281405613,12.823667963194252,21.01505404474872,,,,,,,,,,,,
40097,0,USOklahomaMayes,Oklahoma,Mayes,2022-04-28 09:13:11,2022-02-02,8.242773281405613,12.823667963194252,21.01505404474872,,,,,,,,,,,,
40097,0,USOklahomaMayes,Oklahoma,Mayes,2022-04-28 09:13:11,2022-02-03,1.9723459037599527,3.1662387102026006,5.370822789847613,,,,,,,,,,,,
40097,0,USOklahomaMayes,Oklahoma,Mayes,2022-04-28 09:13:11,2022-02-04,1.9723459037599527,3.1662387102026006,5.370822789847613,,,,,,,,,,,,
40097,0,USOklahomaMayes,Oklahoma,Mayes,2022-04-28 09:13:11,2022-02-05,1.9723459037599527,3.1662387102026006,5.370822789847613,,,,,,,,,,,,
40097,0,USOklahomaMayes,Oklahoma,Mayes,2022-04-28 09:13:11,2022-02-06,1.9723459037599527,3.1662387102026006,5.370822789847613,,,,,,,,,,,,
40097,0,USOklahomaMayes,Oklahoma,Mayes,2022-04-28 09:13:11,2022-02-07,1.9723459037599527,3.1662387102026006,5.370822789847613,,,,,,,,,,,,
40097,0,USOklahomaMayes,Oklahoma,Mayes,2022-04-28 09:13:11,2022-02-08,1.9723459037599527,3.1662387102026006,5.370822789847613,,,,,,,,,,,,
40097,0,USOklahomaMayes,Oklahoma,Mayes,2022-04-28 09:13:11,2022-02-09,1.9723459037599527,3.1662387102026006,5.370822789847613,,,,,,,,,,,,
40097,0,USOklahomaMayes,Oklahoma,Mayes,2022-04-28 09:13:11,2022-02-10,1.3841135745667386,2.59242575875182,5.190199104422347,,,,,,,,,,,,
40097,0,USOklahomaMayes,Oklahoma,Mayes,2022-04-28 09:13:11,2022-02-11,1.3841135745667386,2.59242575875182,5.190199104422347,,,,,,,,,,,,
40097,0,USOklahomaMayes,Oklahoma,Mayes,2022-04-28 09:13:11,2022-02-12,1.3841135745667386,2.59242575875182,5.190199104422347,,,,,,,,,,,,
40097,0,USOklahomaMayes,Oklahoma,Mayes,2022-04-28 09:13:11,2022-02-13,1.3841135745667386,2.59242575875182,5.190199104422347,,,,,,,,,,,,
40097,0,USOklahomaMayes,Oklahoma,Mayes,2022-04-28 09:13:11,2022-02-14,1.3841135745667386,2.59242575875182,5.190199104422347,,,,,,,,,,,,
40097,0,USOklahomaMayes,Oklahoma,Mayes,2022-04-28 09:13:11,2022-02-15,1.3841135745667386,2.59242575875182,5.190199104422347,,,,,,,,,,,,
40097,0,USOklahomaMayes,Oklahoma,Mayes,2022-04-28 09:13:11,2022-02-16,1.3841135745667386,2.59242575875182,5.190199104422347,,,,,,,,,,,,
40097,0,USOklahomaMayes,Oklahoma,Mayes,2022-04-28 09:13:11,2022-02-17,1.0547921200769235,2.379134444027705,5.771784618787397,,,,,,,,,,,,
40097,0,USOklahomaMayes,Oklahoma,Mayes,2022-04-28 09:13:11,2022-02-18,1.0547921200769235,2.379134444027705,5.771784618787397,,,,,,,,,,,,
40097,0,USOklahomaMayes,Oklahoma,Mayes,2022-04-28 09:13:11,2022-02-19,1.0547921200769235,2.379134444027705,5.771784618787397,,,,,,,,,,,,
40097,0,USOklahomaMayes,Oklahoma,Mayes,2022-04-28 09:13:11,2022-02-20,1.0547921200769235,2.379134444027705,5.771784618787397,,,,,,,,,,,,
40097,0,USOklahomaMayes,Oklahoma,Mayes,2022-04-28 09:13:11,2022-02-21,1.0547921200769235,2.379134444027705,5.771784618787397,,,,,,,,,,,,
40097,0,USOklahomaMayes,Oklahoma,Mayes,2022-04-28 09:13:11,2022-02-22,1.0547921200769235,2.379134444027705,5.771784618787397,,,,,,,,,,,,
40097,0,USOklahomaMayes,Oklahoma,Mayes,2022-04-28 09:13:11,2022-02-23,1.0547921200769235,2.379134444027705,5.771784618787397,,,,,,,,,,,,
40097,0,USOklahomaMayes,Oklahoma,Mayes,2022-04-28 09:13:11,2022-02-24,0.5760590136246149,1.5150816358558028,4.286650403893657,,,,,,,,,,,,
40097,0,USOklahomaMayes,Oklahoma,Mayes,2022-04-28 09:13:11,2022-02-25,0.5760590136246149,1.5150816358558028,4.286650403893657,,,,,,,,,,,,
40097,0,USOklahomaMayes,Oklahoma,Mayes,2022-04-28 09:13:11,2022-02-26,0.5760590136246149,1.5150816358558028,4.286650403893657,,,,,,,,,,,,
40097,0,USOklahomaMayes,Oklahoma,Mayes,2022-04-28 09:13:11,2022-02-27,0.5760590136246149,1.5150816358558028,4.286650403893657,,,,,,,,,,,,
40097,0,USOklahomaMayes,Oklahoma,Mayes,2022-04-28 09:13:11,2022-02-28,0.5760590136246149,1.5150816358558028,4.286650403893657,,,,,,,,,,,,
40097,0,USOklahomaMayes,Oklahoma,Mayes,2022-04-28 09:13:11,2022-03-01,0.5760590136246149,1.5150816358558028,4.286650403893657,,,,,,,,,,,,
40097,0,USOklahomaMayes,Oklahoma,Mayes,2022-04-28 09:13:11,2022-03-02,0.5760590136246149,1.5150816358558028,4.286650403893657,,,,,,,,,,,,
