FIPS,HR_UID,nameid,province,region,analysisTime,dates,pointprevalence_025,pointprevalence_50,pointprevalence_975,pointinfections_025,pointinfections_50,pointinfections_975,pointinfectious_025,pointinfectious_50,pointinfectious_975,pointinfectiousprevalence_025,pointinfectiousprevalence_50,pointinfectiousprevalence_975,infectrate_025,infectrate_50,infectrate_975
21053,0,USKentuckyClinton,Kentucky,Clinton,2022-04-28 09:13:11,2020-03-19,0,0,0,,,,,,,,,,,,
21053,0,USKentuckyClinton,Kentucky,Clinton,2022-04-28 09:13:11,2020-03-20,0,0,0,,,,,,,,,,,,
21053,0,USKentuckyClinton,Kentucky,Clinton,2022-04-28 09:13:11,2020-03-21,0,0,0,,,,,,,,,,,,
21053,0,USKentuckyClinton,Kentucky,Clinton,2022-04-28 09:13:11,2020-03-22,0,0,0,,,,,,,,,,,,
21053,0,USKentuckyClinton,Kentucky,Clinton,2022-04-28 09:13:11,2020-03-23,0,0,0,,,,,,,,,,,,
21053,0,USKentuckyClinton,Kentucky,Clinton,2022-04-28 09:13:11,2020-03-24,0,0,0,,,,,,,,,,,,
21053,0,USKentuckyClinton,Kentucky,Clinton,2022-04-28 09:13:11,2020-03-25,0,0,0,,,,,,,,,,,,
21053,0,USKentuckyClinton,Kentucky,Clinton,2022-04-28 09:13:11,2020-03-26,0,0,0,,,,,,,,,,,,
21053,0,USKentuckyClinton,Kentucky,Clinton,2022-04-28 09:13:11,2020-03-27,0,0,0,,,,,,,,,,,,
21053,0,USKentuckyClinton,Kentucky,Clinton,2022-04-28 09:13:11,2020-03-28,0,0,0,,,,,,,,,,,,
21053,0,USKentuckyClinton,Kentucky,Clinton,2022-04-28 09:13:11,2020-03-29,0,0,0,,,,,,,,,,,,
21053,0,USKentuckyClinton,Kentucky,Clinton,2022-04-28 09:13:11,2020-03-30,0,0,0,,,,,,,,,,,,
21053,0,USKentuckyClinton,Kentucky,Clinton,2022-04-28 09:13:11,2020-03-31,0,0,0,,,,,,,,,,,,
21053,0,USKentuckyClinton,Kentucky,Clinton,2022-04-28 09:13:11,2020-04-01,0,0,0,,,,,,,,,,,,
21053,0,USKentuckyClinton,Kentucky,Clinton,2022-04-28 09:13:11,2020-04-02,0.06909963604559785,0.20695032441713054,0.6651830045644574,,,,,,,,,,,,
21053,0,USKentuckyClinton,Kentucky,Clinton,2022-04-28 09:13:11,2020-04-03,0.06909963604559785,0.20695032441713054,0.6651830045644574,,,,,,,,,,,,
21053,0,USKentuckyClinton,Kentucky,Clinton,2022-04-28 09:13:11,2020-04-04,0.06909963604559785,0.20695032441713054,0.6651830045644574,,,,,,,,,,,,
21053,0,USKentuckyClinton,Kentucky,Clinton,2022-04-28 09:13:11,2020-04-05,0.06909963604559785,0.20695032441713054,0.6651830045644574,,,,,,,,,,,,
21053,0,USKentuckyClinton,Kentucky,Clinton,2022-04-28 09:13:11,2020-04-06,0.06909963604559785,0.20695032441713054,0.6651830045644574,,,,,,,,,,,,
21053,0,USKentuckyClinton,Kentucky,Clinton,2022-04-28 09:13:11,2020-04-07,0.06909963604559785,0.20695032441713054,0.6651830045644574,,,,,,,,,,,,
21053,0,USKentuckyClinton,Kentucky,Clinton,2022-04-28 09:13:11,2020-04-08,0.06909963604559785,0.20695032441713054,0.6651830045644574,,,,,,,,,,,,
21053,0,USKentuckyClinton,Kentucky,Clinton,2022-04-28 09:13:11,2020-04-09,0.16969038951836962,0.6033868265229455,2.2900558771052926,,,,,,,,,,,,
21053,0,USKentuckyClinton,Kentucky,Clinton,2022-04-28 09:13:11,2020-04-10,0.16969038951836962,0.6033868265229455,2.2900558771052926,,,,,,,,,,,,
21053,0,USKentuckyClinton,Kentucky,Clinton,2022-04-28 09:13:11,2020-04-11,0.16969038951836962,0.6033868265229455,2.2900558771052926,,,,,,,,,,,,
21053,0,USKentuckyClinton,Kentucky,Clinton,2022-04-28 09:13:11,2020-04-12,0.16969038951836962,0.6033868265229455,2.2900558771052926,,,,,,,,,,,,
21053,0,USKentuckyClinton,Kentucky,Clinton,2022-04-28 09:13:11,2020-04-13,0.16969038951836962,0.6033868265229455,2.2900558771052926,,,,,,,,,,,,
21053,0,USKentuckyClinton,Kentucky,Clinton,2022-04-28 09:13:11,2020-04-14,0.16969038951836962,0.6033868265229455,2.2900558771052926,,,,,,,,,,,,
21053,0,USKentuckyClinton,Kentucky,Clinton,2022-04-28 09:13:11,2020-04-15,0.16969038951836962,0.6033868265229455,2.2900558771052926,,,,,,,,,,,,
21053,0,USKentuckyClinton,Kentucky,Clinton,2022-04-28 09:13:11,2020-04-16,0,0,0,,,,,,,,,,,,
21053,0,USKentuckyClinton,Kentucky,Clinton,2022-04-28 09:13:11,2020-04-17,0,0,0,,,,,,,,,,,,
21053,0,USKentuckyClinton,Kentucky,Clinton,2022-04-28 09:13:11,2020-04-18,0,0,0,,,,,,,,,,,,
21053,0,USKentuckyClinton,Kentucky,Clinton,2022-04-28 09:13:11,2020-04-19,0,0,0,,,,,,,,,,,,
21053,0,USKentuckyClinton,Kentucky,Clinton,2022-04-28 09:13:11,2020-04-20,0,0,0,,,,,,,,,,,,
21053,0,USKentuckyClinton,Kentucky,Clinton,2022-04-28 09:13:11,2020-04-21,0,0,0,,,,,,,,,,,,
21053,0,USKentuckyClinton,Kentucky,Clinton,2022-04-28 09:13:11,2020-04-22,0,0,0,,,,,,,,,,,,
21053,0,USKentuckyClinton,Kentucky,Clinton,2022-04-28 09:13:11,2020-04-23,0.077574542731394025,0.2561054040757684,0.9048274403047921,,,,,,,,,,,,
21053,0,USKentuckyClinton,Kentucky,Clinton,2022-04-28 09:13:11,2020-04-24,0.077574542731394025,0.2561054040757684,0.9048274403047921,,,,,,,,,,,,
21053,0,USKentuckyClinton,Kentucky,Clinton,2022-04-28 09:13:11,2020-04-25,0.077574542731394025,0.2561054040757684,0.9048274403047921,,,,,,,,,,,,
21053,0,USKentuckyClinton,Kentucky,Clinton,2022-04-28 09:13:11,2020-04-26,0.077574542731394025,0.2561054040757684,0.9048274403047921,,,,,,,,,,,,
21053,0,USKentuckyClinton,Kentucky,Clinton,2022-04-28 09:13:11,2020-04-27,0.077574542731394025,0.2561054040757684,0.9048274403047921,,,,,,,,,,,,
21053,0,USKentuckyClinton,Kentucky,Clinton,2022-04-28 09:13:11,2020-04-28,0.077574542731394025,0.2561054040757684,0.9048274403047921,,,,,,,,,,,,
21053,0,USKentuckyClinton,Kentucky,Clinton,2022-04-28 09:13:11,2020-04-29,0.077574542731394025,0.2561054040757684,0.9048274403047921,,,,,,,,,,,,
21053,0,USKentuckyClinton,Kentucky,Clinton,2022-04-28 09:13:11,2020-04-30,0,0,0,,,,,,,,,,,,
21053,0,USKentuckyClinton,Kentucky,Clinton,2022-04-28 09:13:11,2020-05-01,0,0,0,,,,,,,,,,,,
21053,0,USKentuckyClinton,Kentucky,Clinton,2022-04-28 09:13:11,2020-05-02,0,0,0,,,,,,,,,,,,
21053,0,USKentuckyClinton,Kentucky,Clinton,2022-04-28 09:13:11,2020-05-03,0,0,0,,,,,,,,,,,,
21053,0,USKentuckyClinton,Kentucky,Clinton,2022-04-28 09:13:11,2020-05-04,0,0,0,,,,,,,,,,,,
21053,0,USKentuckyClinton,Kentucky,Clinton,2022-04-28 09:13:11,2020-05-05,0,0,0,,,,,,,,,,,,
21053,0,USKentuckyClinton,Kentucky,Clinton,2022-04-28 09:13:11,2020-05-06,0,0,0,,,,,,,,,,,,
21053,0,USKentuckyClinton,Kentucky,Clinton,2022-04-28 09:13:11,2020-05-07,0,0,0,,,,,,,,,,,,
21053,0,USKentuckyClinton,Kentucky,Clinton,2022-04-28 09:13:11,2020-05-08,0,0,0,,,,,,,,,,,,
21053,0,USKentuckyClinton,Kentucky,Clinton,2022-04-28 09:13:11,2020-05-09,0,0,0,,,,,,,,,,,,
21053,0,USKentuckyClinton,Kentucky,Clinton,2022-04-28 09:13:11,2020-05-10,0,0,0,,,,,,,,,,,,
21053,0,USKentuckyClinton,Kentucky,Clinton,2022-04-28 09:13:11,2020-05-11,0,0,0,,,,,,,,,,,,
21053,0,USKentuckyClinton,Kentucky,Clinton,2022-04-28 09:13:11,2020-05-12,0,0,0,,,,,,,,,,,,
21053,0,USKentuckyClinton,Kentucky,Clinton,2022-04-28 09:13:11,2020-05-13,0,0,0,,,,,,,,,,,,
21053,0,USKentuckyClinton,Kentucky,Clinton,2022-04-28 09:13:11,2020-05-14,0,0,0,,,,,,,,,,,,
21053,0,USKentuckyClinton,Kentucky,Clinton,2022-04-28 09:13:11,2020-05-15,0,0,0,,,,,,,,,,,,
21053,0,USKentuckyClinton,Kentucky,Clinton,2022-04-28 09:13:11,2020-05-16,0,0,0,,,,,,,,,,,,
21053,0,USKentuckyClinton,Kentucky,Clinton,2022-04-28 09:13:11,2020-05-17,0,0,0,,,,,,,,,,,,
21053,0,USKentuckyClinton,Kentucky,Clinton,2022-04-28 09:13:11,2020-05-18,0,0,0,,,,,,,,,,,,
21053,0,USKentuckyClinton,Kentucky,Clinton,2022-04-28 09:13:11,2020-05-19,0,0,0,,,,,,,,,,,,
21053,0,USKentuckyClinton,Kentucky,Clinton,2022-04-28 09:13:11,2020-05-20,0,0,0,,,,,,,,,,,,
21053,0,USKentuckyClinton,Kentucky,Clinton,2022-04-28 09:13:11,2020-05-21,0,0,0,,,,,,,,,,,,
21053,0,USKentuckyClinton,Kentucky,Clinton,2022-04-28 09:13:11,2020-05-22,0,0,0,,,,,,,,,,,,
21053,0,USKentuckyClinton,Kentucky,Clinton,2022-04-28 09:13:11,2020-05-23,0,0,0,,,,,,,,,,,,
21053,0,USKentuckyClinton,Kentucky,Clinton,2022-04-28 09:13:11,2020-05-24,0,0,0,,,,,,,,,,,,
21053,0,USKentuckyClinton,Kentucky,Clinton,2022-04-28 09:13:11,2020-05-25,0,0,0,,,,,,,,,,,,
21053,0,USKentuckyClinton,Kentucky,Clinton,2022-04-28 09:13:11,2020-05-26,0,0,0,,,,,,,,,,,,
21053,0,USKentuckyClinton,Kentucky,Clinton,2022-04-28 09:13:11,2020-05-27,0,0,0,,,,,,,,,,,,
21053,0,USKentuckyClinton,Kentucky,Clinton,2022-04-28 09:13:11,2020-05-28,0.062333841807993416,0.17091047894786227,0.5038356674209427,,,,,,,,,,,,
21053,0,USKentuckyClinton,Kentucky,Clinton,2022-04-28 09:13:11,2020-05-29,0.062333841807993416,0.17091047894786227,0.5038356674209427,,,,,,,,,,,,
21053,0,USKentuckyClinton,Kentucky,Clinton,2022-04-28 09:13:11,2020-05-30,0.062333841807993416,0.17091047894786227,0.5038356674209427,,,,,,,,,,,,
21053,0,USKentuckyClinton,Kentucky,Clinton,2022-04-28 09:13:11,2020-05-31,0.062333841807993416,0.17091047894786227,0.5038356674209427,,,,,,,,,,,,
21053,0,USKentuckyClinton,Kentucky,Clinton,2022-04-28 09:13:11,2020-06-01,0.062333841807993416,0.17091047894786227,0.5038356674209427,,,,,,,,,,,,
21053,0,USKentuckyClinton,Kentucky,Clinton,2022-04-28 09:13:11,2020-06-02,0.062333841807993416,0.17091047894786227,0.5038356674209427,,,,,,,,,,,,
21053,0,USKentuckyClinton,Kentucky,Clinton,2022-04-28 09:13:11,2020-06-03,0.062333841807993416,0.17091047894786227,0.5038356674209427,,,,,,,,,,,,
21053,0,USKentuckyClinton,Kentucky,Clinton,2022-04-28 09:13:11,2020-06-04,0.06696289397943779,0.19525506434094914,0.611409467698362,,,,,,,,,,,,
21053,0,USKentuckyClinton,Kentucky,Clinton,2022-04-28 09:13:11,2020-06-05,0.06696289397943779,0.19525506434094914,0.611409467698362,,,,,,,,,,,,
21053,0,USKentuckyClinton,Kentucky,Clinton,2022-04-28 09:13:11,2020-06-06,0.06696289397943779,0.19525506434094914,0.611409467698362,,,,,,,,,,,,
21053,0,USKentuckyClinton,Kentucky,Clinton,2022-04-28 09:13:11,2020-06-07,0.06696289397943779,0.19525506434094914,0.611409467698362,,,,,,,,,,,,
21053,0,USKentuckyClinton,Kentucky,Clinton,2022-04-28 09:13:11,2020-06-08,0.06696289397943779,0.19525506434094914,0.611409467698362,,,,,,,,,,,,
21053,0,USKentuckyClinton,Kentucky,Clinton,2022-04-28 09:13:11,2020-06-09,0.06696289397943779,0.19525506434094914,0.611409467698362,,,,,,,,,,,,
21053,0,USKentuckyClinton,Kentucky,Clinton,2022-04-28 09:13:11,2020-06-10,0.06696289397943779,0.19525506434094914,0.611409467698362,,,,,,,,,,,,
21053,0,USKentuckyClinton,Kentucky,Clinton,2022-04-28 09:13:11,2020-06-11,0,0,0,,,,,,,,,,,,
21053,0,USKentuckyClinton,Kentucky,Clinton,2022-04-28 09:13:11,2020-06-12,0,0,0,,,,,,,,,,,,
21053,0,USKentuckyClinton,Kentucky,Clinton,2022-04-28 09:13:11,2020-06-13,0,0,0,,,,,,,,,,,,
21053,0,USKentuckyClinton,Kentucky,Clinton,2022-04-28 09:13:11,2020-06-14,0,0,0,,,,,,,,,,,,
21053,0,USKentuckyClinton,Kentucky,Clinton,2022-04-28 09:13:11,2020-06-15,0,0,0,,,,,,,,,,,,
21053,0,USKentuckyClinton,Kentucky,Clinton,2022-04-28 09:13:11,2020-06-16,0,0,0,,,,,,,,,,,,
21053,0,USKentuckyClinton,Kentucky,Clinton,2022-04-28 09:13:11,2020-06-17,0,0,0,,,,,,,,,,,,
21053,0,USKentuckyClinton,Kentucky,Clinton,2022-04-28 09:13:11,2020-06-18,0,0,0,,,,,,,,,,,,
21053,0,USKentuckyClinton,Kentucky,Clinton,2022-04-28 09:13:11,2020-06-19,0,0,0,,,,,,,,,,,,
21053,0,USKentuckyClinton,Kentucky,Clinton,2022-04-28 09:13:11,2020-06-20,0,0,0,,,,,,,,,,,,
21053,0,USKentuckyClinton,Kentucky,Clinton,2022-04-28 09:13:11,2020-06-21,0,0,0,,,,,,,,,,,,
21053,0,USKentuckyClinton,Kentucky,Clinton,2022-04-28 09:13:11,2020-06-22,0,0,0,,,,,,,,,,,,
21053,0,USKentuckyClinton,Kentucky,Clinton,2022-04-28 09:13:11,2020-06-23,0,0,0,,,,,,,,,,,,
21053,0,USKentuckyClinton,Kentucky,Clinton,2022-04-28 09:13:11,2020-06-24,0,0,0,,,,,,,,,,,,
21053,0,USKentuckyClinton,Kentucky,Clinton,2022-04-28 09:13:11,2020-06-25,0,0,0,,,,,,,,,,,,
21053,0,USKentuckyClinton,Kentucky,Clinton,2022-04-28 09:13:11,2020-06-26,0,0,0,,,,,,,,,,,,
21053,0,USKentuckyClinton,Kentucky,Clinton,2022-04-28 09:13:11,2020-06-27,0,0,0,,,,,,,,,,,,
21053,0,USKentuckyClinton,Kentucky,Clinton,2022-04-28 09:13:11,2020-06-28,0,0,0,,,,,,,,,,,,
21053,0,USKentuckyClinton,Kentucky,Clinton,2022-04-28 09:13:11,2020-06-29,0,0,0,,,,,,,,,,,,
21053,0,USKentuckyClinton,Kentucky,Clinton,2022-04-28 09:13:11,2020-06-30,0,0,0,,,,,,,,,,,,
21053,0,USKentuckyClinton,Kentucky,Clinton,2022-04-28 09:13:11,2020-07-01,0,0,0,,,,,,,,,,,,
21053,0,USKentuckyClinton,Kentucky,Clinton,2022-04-28 09:13:11,2020-07-02,0.07471921743704091,0.23905716946320635,0.8193183470972526,,,,,,,,,,,,
21053,0,USKentuckyClinton,Kentucky,Clinton,2022-04-28 09:13:11,2020-07-03,0.07471921743704091,0.23905716946320635,0.8193183470972526,,,,,,,,,,,,
21053,0,USKentuckyClinton,Kentucky,Clinton,2022-04-28 09:13:11,2020-07-04,0.07471921743704091,0.23905716946320635,0.8193183470972526,,,,,,,,,,,,
21053,0,USKentuckyClinton,Kentucky,Clinton,2022-04-28 09:13:11,2020-07-05,0.07471921743704091,0.23905716946320635,0.8193183470972526,,,,,,,,,,,,
21053,0,USKentuckyClinton,Kentucky,Clinton,2022-04-28 09:13:11,2020-07-06,0.07471921743704091,0.23905716946320635,0.8193183470972526,,,,,,,,,,,,
21053,0,USKentuckyClinton,Kentucky,Clinton,2022-04-28 09:13:11,2020-07-07,0.07471921743704091,0.23905716946320635,0.8193183470972526,,,,,,,,,,,,
21053,0,USKentuckyClinton,Kentucky,Clinton,2022-04-28 09:13:11,2020-07-08,0.07471921743704091,0.23905716946320635,0.8193183470972526,,,,,,,,,,,,
21053,0,USKentuckyClinton,Kentucky,Clinton,2022-04-28 09:13:11,2020-07-09,0.17707892210949266,0.46309402808544076,1.3028947538292186,,,,,,,,,,,,
21053,0,USKentuckyClinton,Kentucky,Clinton,2022-04-28 09:13:11,2020-07-10,0.17707892210949266,0.46309402808544076,1.3028947538292186,,,,,,,,,,,,
21053,0,USKentuckyClinton,Kentucky,Clinton,2022-04-28 09:13:11,2020-07-11,0.17707892210949266,0.46309402808544076,1.3028947538292186,,,,,,,,,,,,
21053,0,USKentuckyClinton,Kentucky,Clinton,2022-04-28 09:13:11,2020-07-12,0.17707892210949266,0.46309402808544076,1.3028947538292186,,,,,,,,,,,,
21053,0,USKentuckyClinton,Kentucky,Clinton,2022-04-28 09:13:11,2020-07-13,0.17707892210949266,0.46309402808544076,1.3028947538292186,,,,,,,,,,,,
21053,0,USKentuckyClinton,Kentucky,Clinton,2022-04-28 09:13:11,2020-07-14,0.17707892210949266,0.46309402808544076,1.3028947538292186,,,,,,,,,,,,
21053,0,USKentuckyClinton,Kentucky,Clinton,2022-04-28 09:13:11,2020-07-15,0.17707892210949266,0.46309402808544076,1.3028947538292186,,,,,,,,,,,,
21053,0,USKentuckyClinton,Kentucky,Clinton,2022-04-28 09:13:11,2020-07-16,0.3367095248046345,0.7347268710332245,1.7234081059903898,,,,,,,,,,,,
21053,0,USKentuckyClinton,Kentucky,Clinton,2022-04-28 09:13:11,2020-07-17,0.3367095248046345,0.7347268710332245,1.7234081059903898,,,,,,,,,,,,
21053,0,USKentuckyClinton,Kentucky,Clinton,2022-04-28 09:13:11,2020-07-18,0.3367095248046345,0.7347268710332245,1.7234081059903898,,,,,,,,,,,,
21053,0,USKentuckyClinton,Kentucky,Clinton,2022-04-28 09:13:11,2020-07-19,0.3367095248046345,0.7347268710332245,1.7234081059903898,,,,,,,,,,,,
21053,0,USKentuckyClinton,Kentucky,Clinton,2022-04-28 09:13:11,2020-07-20,0.3367095248046345,0.7347268710332245,1.7234081059903898,,,,,,,,,,,,
21053,0,USKentuckyClinton,Kentucky,Clinton,2022-04-28 09:13:11,2020-07-21,0.3367095248046345,0.7347268710332245,1.7234081059903898,,,,,,,,,,,,
21053,0,USKentuckyClinton,Kentucky,Clinton,2022-04-28 09:13:11,2020-07-22,0.3367095248046345,0.7347268710332245,1.7234081059903898,,,,,,,,,,,,
21053,0,USKentuckyClinton,Kentucky,Clinton,2022-04-28 09:13:11,2020-07-23,0.2362170377779533,0.6180059622529834,1.7394430423705785,,,,,,,,,,,,
21053,0,USKentuckyClinton,Kentucky,Clinton,2022-04-28 09:13:11,2020-07-24,0.2362170377779533,0.6180059622529834,1.7394430423705785,,,,,,,,,,,,
21053,0,USKentuckyClinton,Kentucky,Clinton,2022-04-28 09:13:11,2020-07-25,0.2362170377779533,0.6180059622529834,1.7394430423705785,,,,,,,,,,,,
21053,0,USKentuckyClinton,Kentucky,Clinton,2022-04-28 09:13:11,2020-07-26,0.2362170377779533,0.6180059622529834,1.7394430423705785,,,,,,,,,,,,
21053,0,USKentuckyClinton,Kentucky,Clinton,2022-04-28 09:13:11,2020-07-27,0.2362170377779533,0.6180059622529834,1.7394430423705785,,,,,,,,,,,,
21053,0,USKentuckyClinton,Kentucky,Clinton,2022-04-28 09:13:11,2020-07-28,0.2362170377779533,0.6180059622529834,1.7394430423705785,,,,,,,,,,,,
21053,0,USKentuckyClinton,Kentucky,Clinton,2022-04-28 09:13:11,2020-07-29,0.2362170377779533,0.6180059622529834,1.7394430423705785,,,,,,,,,,,,
21053,0,USKentuckyClinton,Kentucky,Clinton,2022-04-28 09:13:11,2020-07-30,0.4251115992200339,0.9125980919453713,2.1051905206440686,,,,,,,,,,,,
21053,0,USKentuckyClinton,Kentucky,Clinton,2022-04-28 09:13:11,2020-07-31,0.4251115992200339,0.9125980919453713,2.1051905206440686,,,,,,,,,,,,
21053,0,USKentuckyClinton,Kentucky,Clinton,2022-04-28 09:13:11,2020-08-01,0.4251115992200339,0.9125980919453713,2.1051905206440686,,,,,,,,,,,,
21053,0,USKentuckyClinton,Kentucky,Clinton,2022-04-28 09:13:11,2020-08-02,0.4251115992200339,0.9125980919453713,2.1051905206440686,,,,,,,,,,,,
21053,0,USKentuckyClinton,Kentucky,Clinton,2022-04-28 09:13:11,2020-08-03,0.4251115992200339,0.9125980919453713,2.1051905206440686,,,,,,,,,,,,
21053,0,USKentuckyClinton,Kentucky,Clinton,2022-04-28 09:13:11,2020-08-04,0.4251115992200339,0.9125980919453713,2.1051905206440686,,,,,,,,,,,,
21053,0,USKentuckyClinton,Kentucky,Clinton,2022-04-28 09:13:11,2020-08-05,0.4251115992200339,0.9125980919453713,2.1051905206440686,,,,,,,,,,,,
21053,0,USKentuckyClinton,Kentucky,Clinton,2022-04-28 09:13:11,2020-08-06,0.49771042950372163,1.0278119257803255,2.2783399314673276,,,,,,,,,,,,
21053,0,USKentuckyClinton,Kentucky,Clinton,2022-04-28 09:13:11,2020-08-07,0.49771042950372163,1.0278119257803255,2.2783399314673276,,,,,,,,,,,,
21053,0,USKentuckyClinton,Kentucky,Clinton,2022-04-28 09:13:11,2020-08-08,0.49771042950372163,1.0278119257803255,2.2783399314673276,,,,,,,,,,,,
21053,0,USKentuckyClinton,Kentucky,Clinton,2022-04-28 09:13:11,2020-08-09,0.49771042950372163,1.0278119257803255,2.2783399314673276,,,,,,,,,,,,
21053,0,USKentuckyClinton,Kentucky,Clinton,2022-04-28 09:13:11,2020-08-10,0.49771042950372163,1.0278119257803255,2.2783399314673276,,,,,,,,,,,,
21053,0,USKentuckyClinton,Kentucky,Clinton,2022-04-28 09:13:11,2020-08-11,0.49771042950372163,1.0278119257803255,2.2783399314673276,,,,,,,,,,,,
21053,0,USKentuckyClinton,Kentucky,Clinton,2022-04-28 09:13:11,2020-08-12,0.49771042950372163,1.0278119257803255,2.2783399314673276,,,,,,,,,,,,
21053,0,USKentuckyClinton,Kentucky,Clinton,2022-04-28 09:13:11,2020-08-13,0.5537284109224576,1.0825490857073659,2.267055643078709,,,,,,,,,,,,
21053,0,USKentuckyClinton,Kentucky,Clinton,2022-04-28 09:13:11,2020-08-14,0.5537284109224576,1.0825490857073659,2.267055643078709,,,,,,,,,,,,
21053,0,USKentuckyClinton,Kentucky,Clinton,2022-04-28 09:13:11,2020-08-15,0.5537284109224576,1.0825490857073659,2.267055643078709,,,,,,,,,,,,
21053,0,USKentuckyClinton,Kentucky,Clinton,2022-04-28 09:13:11,2020-08-16,0.5537284109224576,1.0825490857073659,2.267055643078709,,,,,,,,,,,,
21053,0,USKentuckyClinton,Kentucky,Clinton,2022-04-28 09:13:11,2020-08-17,0.5537284109224576,1.0825490857073659,2.267055643078709,,,,,,,,,,,,
21053,0,USKentuckyClinton,Kentucky,Clinton,2022-04-28 09:13:11,2020-08-18,0.5537284109224576,1.0825490857073659,2.267055643078709,,,,,,,,,,,,
21053,0,USKentuckyClinton,Kentucky,Clinton,2022-04-28 09:13:11,2020-08-19,0.5537284109224576,1.0825490857073659,2.267055643078709,,,,,,,,,,,,
21053,0,USKentuckyClinton,Kentucky,Clinton,2022-04-28 09:13:11,2020-08-20,0.53842955430188,1.1035125641108072,2.427091033457048,,,,,,,,,,,,
21053,0,USKentuckyClinton,Kentucky,Clinton,2022-04-28 09:13:11,2020-08-21,0.53842955430188,1.1035125641108072,2.427091033457048,,,,,,,,,,,,
21053,0,USKentuckyClinton,Kentucky,Clinton,2022-04-28 09:13:11,2020-08-22,0.53842955430188,1.1035125641108072,2.427091033457048,,,,,,,,,,,,
21053,0,USKentuckyClinton,Kentucky,Clinton,2022-04-28 09:13:11,2020-08-23,0.53842955430188,1.1035125641108072,2.427091033457048,,,,,,,,,,,,
21053,0,USKentuckyClinton,Kentucky,Clinton,2022-04-28 09:13:11,2020-08-24,0.53842955430188,1.1035125641108072,2.427091033457048,,,,,,,,,,,,
21053,0,USKentuckyClinton,Kentucky,Clinton,2022-04-28 09:13:11,2020-08-25,0.53842955430188,1.1035125641108072,2.427091033457048,,,,,,,,,,,,
21053,0,USKentuckyClinton,Kentucky,Clinton,2022-04-28 09:13:11,2020-08-26,0.53842955430188,1.1035125641108072,2.427091033457048,,,,,,,,,,,,
21053,0,USKentuckyClinton,Kentucky,Clinton,2022-04-28 09:13:11,2020-08-27,0.4031228713418837,0.9169998405926795,2.2438245463949915,,,,,,,,,,,,
21053,0,USKentuckyClinton,Kentucky,Clinton,2022-04-28 09:13:11,2020-08-28,0.4031228713418837,0.9169998405926795,2.2438245463949915,,,,,,,,,,,,
21053,0,USKentuckyClinton,Kentucky,Clinton,2022-04-28 09:13:11,2020-08-29,0.4031228713418837,0.9169998405926795,2.2438245463949915,,,,,,,,,,,,
21053,0,USKentuckyClinton,Kentucky,Clinton,2022-04-28 09:13:11,2020-08-30,0.4031228713418837,0.9169998405926795,2.2438245463949915,,,,,,,,,,,,
21053,0,USKentuckyClinton,Kentucky,Clinton,2022-04-28 09:13:11,2020-08-31,0.4031228713418837,0.9169998405926795,2.2438245463949915,,,,,,,,,,,,
21053,0,USKentuckyClinton,Kentucky,Clinton,2022-04-28 09:13:11,2020-09-01,0.4031228713418837,0.9169998405926795,2.2438245463949915,,,,,,,,,,,,
21053,0,USKentuckyClinton,Kentucky,Clinton,2022-04-28 09:13:11,2020-09-02,0.4031228713418837,0.9169998405926795,2.2438245463949915,,,,,,,,,,,,
21053,0,USKentuckyClinton,Kentucky,Clinton,2022-04-28 09:13:11,2020-09-03,0.4514282206299838,1.0226694424824037,2.491992417461359,,,,,,,,,,,,
21053,0,USKentuckyClinton,Kentucky,Clinton,2022-04-28 09:13:11,2020-09-04,0.4514282206299838,1.0226694424824037,2.491992417461359,,,,,,,,,,,,
21053,0,USKentuckyClinton,Kentucky,Clinton,2022-04-28 09:13:11,2020-09-05,0.4514282206299838,1.0226694424824037,2.491992417461359,,,,,,,,,,,,
21053,0,USKentuckyClinton,Kentucky,Clinton,2022-04-28 09:13:11,2020-09-06,0.4514282206299838,1.0226694424824037,2.491992417461359,,,,,,,,,,,,
21053,0,USKentuckyClinton,Kentucky,Clinton,2022-04-28 09:13:11,2020-09-07,0.4514282206299838,1.0226694424824037,2.491992417461359,,,,,,,,,,,,
21053,0,USKentuckyClinton,Kentucky,Clinton,2022-04-28 09:13:11,2020-09-08,0.4514282206299838,1.0226694424824037,2.491992417461359,,,,,,,,,,,,
21053,0,USKentuckyClinton,Kentucky,Clinton,2022-04-28 09:13:11,2020-09-09,0.4514282206299838,1.0226694424824037,2.491992417461359,,,,,,,,,,,,
21053,0,USKentuckyClinton,Kentucky,Clinton,2022-04-28 09:13:11,2020-09-10,0.7001544802822893,1.0482936511948682,1.6464098103612947,,,,,,,,,,,,
21053,0,USKentuckyClinton,Kentucky,Clinton,2022-04-28 09:13:11,2020-09-11,0.7001544802822893,1.0482936511948682,1.6464098103612947,,,,,,,,,,,,
21053,0,USKentuckyClinton,Kentucky,Clinton,2022-04-28 09:13:11,2020-09-12,0.7001544802822893,1.0482936511948682,1.6464098103612947,,,,,,,,,,,,
21053,0,USKentuckyClinton,Kentucky,Clinton,2022-04-28 09:13:11,2020-09-13,0.7001544802822893,1.0482936511948682,1.6464098103612947,,,,,,,,,,,,
21053,0,USKentuckyClinton,Kentucky,Clinton,2022-04-28 09:13:11,2020-09-14,0.7001544802822893,1.0482936511948682,1.6464098103612947,,,,,,,,,,,,
21053,0,USKentuckyClinton,Kentucky,Clinton,2022-04-28 09:13:11,2020-09-15,0.7001544802822893,1.0482936511948682,1.6464098103612947,,,,,,,,,,,,
21053,0,USKentuckyClinton,Kentucky,Clinton,2022-04-28 09:13:11,2020-09-16,0.7001544802822893,1.0482936511948682,1.6464098103612947,,,,,,,,,,,,
21053,0,USKentuckyClinton,Kentucky,Clinton,2022-04-28 09:13:11,2020-09-17,0.38198765077571034,0.6194718743362927,1.062540005718422,,,,,,,,,,,,
21053,0,USKentuckyClinton,Kentucky,Clinton,2022-04-28 09:13:11,2020-09-18,0.38198765077571034,0.6194718743362927,1.062540005718422,,,,,,,,,,,,
21053,0,USKentuckyClinton,Kentucky,Clinton,2022-04-28 09:13:11,2020-09-19,0.38198765077571034,0.6194718743362927,1.062540005718422,,,,,,,,,,,,
21053,0,USKentuckyClinton,Kentucky,Clinton,2022-04-28 09:13:11,2020-09-20,0.38198765077571034,0.6194718743362927,1.062540005718422,,,,,,,,,,,,
21053,0,USKentuckyClinton,Kentucky,Clinton,2022-04-28 09:13:11,2020-09-21,0.38198765077571034,0.6194718743362927,1.062540005718422,,,,,,,,,,,,
21053,0,USKentuckyClinton,Kentucky,Clinton,2022-04-28 09:13:11,2020-09-22,0.38198765077571034,0.6194718743362927,1.062540005718422,,,,,,,,,,,,
21053,0,USKentuckyClinton,Kentucky,Clinton,2022-04-28 09:13:11,2020-09-23,0.38198765077571034,0.6194718743362927,1.062540005718422,,,,,,,,,,,,
21053,0,USKentuckyClinton,Kentucky,Clinton,2022-04-28 09:13:11,2020-09-24,0.43816141756050764,0.7440586741643543,1.3417140474760658,,,,,,,,,,,,
21053,0,USKentuckyClinton,Kentucky,Clinton,2022-04-28 09:13:11,2020-09-25,0.43816141756050764,0.7440586741643543,1.3417140474760658,,,,,,,,,,,,
21053,0,USKentuckyClinton,Kentucky,Clinton,2022-04-28 09:13:11,2020-09-26,0.43816141756050764,0.7440586741643543,1.3417140474760658,,,,,,,,,,,,
21053,0,USKentuckyClinton,Kentucky,Clinton,2022-04-28 09:13:11,2020-09-27,0.43816141756050764,0.7440586741643543,1.3417140474760658,,,,,,,,,,,,
21053,0,USKentuckyClinton,Kentucky,Clinton,2022-04-28 09:13:11,2020-09-28,0.43816141756050764,0.7440586741643543,1.3417140474760658,,,,,,,,,,,,
21053,0,USKentuckyClinton,Kentucky,Clinton,2022-04-28 09:13:11,2020-09-29,0.43816141756050764,0.7440586741643543,1.3417140474760658,,,,,,,,,,,,
21053,0,USKentuckyClinton,Kentucky,Clinton,2022-04-28 09:13:11,2020-09-30,0.43816141756050764,0.7440586741643543,1.3417140474760658,,,,,,,,,,,,
21053,0,USKentuckyClinton,Kentucky,Clinton,2022-04-28 09:13:11,2020-10-01,0.8363138619538585,1.4736239097142148,2.764974481881018,,,,,,,,,,,,
21053,0,USKentuckyClinton,Kentucky,Clinton,2022-04-28 09:13:11,2020-10-02,0.8363138619538585,1.4736239097142148,2.764974481881018,,,,,,,,,,,,
21053,0,USKentuckyClinton,Kentucky,Clinton,2022-04-28 09:13:11,2020-10-03,0.8363138619538585,1.4736239097142148,2.764974481881018,,,,,,,,,,,,
21053,0,USKentuckyClinton,Kentucky,Clinton,2022-04-28 09:13:11,2020-10-04,0.8363138619538585,1.4736239097142148,2.764974481881018,,,,,,,,,,,,
21053,0,USKentuckyClinton,Kentucky,Clinton,2022-04-28 09:13:11,2020-10-05,0.8363138619538585,1.4736239097142148,2.764974481881018,,,,,,,,,,,,
21053,0,USKentuckyClinton,Kentucky,Clinton,2022-04-28 09:13:11,2020-10-06,0.8363138619538585,1.4736239097142148,2.764974481881018,,,,,,,,,,,,
21053,0,USKentuckyClinton,Kentucky,Clinton,2022-04-28 09:13:11,2020-10-07,0.8363138619538585,1.4736239097142148,2.764974481881018,,,,,,,,,,,,
21053,0,USKentuckyClinton,Kentucky,Clinton,2022-04-28 09:13:11,2020-10-08,0.915004406678541,1.4510323108463838,2.428580563131638,,,,,,,,,,,,
21053,0,USKentuckyClinton,Kentucky,Clinton,2022-04-28 09:13:11,2020-10-09,0.915004406678541,1.4510323108463838,2.428580563131638,,,,,,,,,,,,
21053,0,USKentuckyClinton,Kentucky,Clinton,2022-04-28 09:13:11,2020-10-10,0.915004406678541,1.4510323108463838,2.428580563131638,,,,,,,,,,,,
21053,0,USKentuckyClinton,Kentucky,Clinton,2022-04-28 09:13:11,2020-10-11,0.915004406678541,1.4510323108463838,2.428580563131638,,,,,,,,,,,,
21053,0,USKentuckyClinton,Kentucky,Clinton,2022-04-28 09:13:11,2020-10-12,0.915004406678541,1.4510323108463838,2.428580563131638,,,,,,,,,,,,
21053,0,USKentuckyClinton,Kentucky,Clinton,2022-04-28 09:13:11,2020-10-13,0.915004406678541,1.4510323108463838,2.428580563131638,,,,,,,,,,,,
21053,0,USKentuckyClinton,Kentucky,Clinton,2022-04-28 09:13:11,2020-10-14,0.915004406678541,1.4510323108463838,2.428580563131638,,,,,,,,,,,,
21053,0,USKentuckyClinton,Kentucky,Clinton,2022-04-28 09:13:11,2020-10-15,1.2184747301491161,1.9300585970714317,3.2262392484888784,,,,,,,,,,,,
21053,0,USKentuckyClinton,Kentucky,Clinton,2022-04-28 09:13:11,2020-10-16,1.2184747301491161,1.9300585970714317,3.2262392484888784,,,,,,,,,,,,
21053,0,USKentuckyClinton,Kentucky,Clinton,2022-04-28 09:13:11,2020-10-17,1.2184747301491161,1.9300585970714317,3.2262392484888784,,,,,,,,,,,,
21053,0,USKentuckyClinton,Kentucky,Clinton,2022-04-28 09:13:11,2020-10-18,1.2184747301491161,1.9300585970714317,3.2262392484888784,,,,,,,,,,,,
21053,0,USKentuckyClinton,Kentucky,Clinton,2022-04-28 09:13:11,2020-10-19,1.2184747301491161,1.9300585970714317,3.2262392484888784,,,,,,,,,,,,
21053,0,USKentuckyClinton,Kentucky,Clinton,2022-04-28 09:13:11,2020-10-20,1.2184747301491161,1.9300585970714317,3.2262392484888784,,,,,,,,,,,,
21053,0,USKentuckyClinton,Kentucky,Clinton,2022-04-28 09:13:11,2020-10-21,1.2184747301491161,1.9300585970714317,3.2262392484888784,,,,,,,,,,,,
21053,0,USKentuckyClinton,Kentucky,Clinton,2022-04-28 09:13:11,2020-10-22,1.1996464139286505,2.028945731859454,3.642718200541742,,,,,,,,,,,,
21053,0,USKentuckyClinton,Kentucky,Clinton,2022-04-28 09:13:11,2020-10-23,1.1996464139286505,2.028945731859454,3.642718200541742,,,,,,,,,,,,
21053,0,USKentuckyClinton,Kentucky,Clinton,2022-04-28 09:13:11,2020-10-24,1.1996464139286505,2.028945731859454,3.642718200541742,,,,,,,,,,,,
21053,0,USKentuckyClinton,Kentucky,Clinton,2022-04-28 09:13:11,2020-10-25,1.1996464139286505,2.028945731859454,3.642718200541742,,,,,,,,,,,,
21053,0,USKentuckyClinton,Kentucky,Clinton,2022-04-28 09:13:11,2020-10-26,1.1996464139286505,2.028945731859454,3.642718200541742,,,,,,,,,,,,
21053,0,USKentuckyClinton,Kentucky,Clinton,2022-04-28 09:13:11,2020-10-27,1.1996464139286505,2.028945731859454,3.642718200541742,,,,,,,,,,,,
21053,0,USKentuckyClinton,Kentucky,Clinton,2022-04-28 09:13:11,2020-10-28,1.1996464139286505,2.028945731859454,3.642718200541742,,,,,,,,,,,,
21053,0,USKentuckyClinton,Kentucky,Clinton,2022-04-28 09:13:11,2020-10-29,0.6279583335302206,1.2084874985710474,2.4894387979963435,,,,,,,,,,,,
21053,0,USKentuckyClinton,Kentucky,Clinton,2022-04-28 09:13:11,2020-10-30,0.6279583335302206,1.2084874985710474,2.4894387979963435,,,,,,,,,,,,
21053,0,USKentuckyClinton,Kentucky,Clinton,2022-04-28 09:13:11,2020-10-31,0.6279583335302206,1.2084874985710474,2.4894387979963435,,,,,,,,,,,,
21053,0,USKentuckyClinton,Kentucky,Clinton,2022-04-28 09:13:11,2020-11-01,0.6279583335302206,1.2084874985710474,2.4894387979963435,,,,,,,,,,,,
21053,0,USKentuckyClinton,Kentucky,Clinton,2022-04-28 09:13:11,2020-11-02,0.6279583335302206,1.2084874985710474,2.4894387979963435,,,,,,,,,,,,
21053,0,USKentuckyClinton,Kentucky,Clinton,2022-04-28 09:13:11,2020-11-03,0.6279583335302206,1.2084874985710474,2.4894387979963435,,,,,,,,,,,,
21053,0,USKentuckyClinton,Kentucky,Clinton,2022-04-28 09:13:11,2020-11-04,0.6279583335302206,1.2084874985710474,2.4894387979963435,,,,,,,,,,,,
21053,0,USKentuckyClinton,Kentucky,Clinton,2022-04-28 09:13:11,2020-11-05,0.9584442653799324,1.8367729517375888,3.7670685323913253,,,,,,,,,,,,
21053,0,USKentuckyClinton,Kentucky,Clinton,2022-04-28 09:13:11,2020-11-06,0.9584442653799324,1.8367729517375888,3.7670685323913253,,,,,,,,,,,,
21053,0,USKentuckyClinton,Kentucky,Clinton,2022-04-28 09:13:11,2020-11-07,0.9584442653799324,1.8367729517375888,3.7670685323913253,,,,,,,,,,,,
21053,0,USKentuckyClinton,Kentucky,Clinton,2022-04-28 09:13:11,2020-11-08,0.9584442653799324,1.8367729517375888,3.7670685323913253,,,,,,,,,,,,
21053,0,USKentuckyClinton,Kentucky,Clinton,2022-04-28 09:13:11,2020-11-09,0.9584442653799324,1.8367729517375888,3.7670685323913253,,,,,,,,,,,,
21053,0,USKentuckyClinton,Kentucky,Clinton,2022-04-28 09:13:11,2020-11-10,0.9584442653799324,1.8367729517375888,3.7670685323913253,,,,,,,,,,,,
21053,0,USKentuckyClinton,Kentucky,Clinton,2022-04-28 09:13:11,2020-11-11,0.9584442653799324,1.8367729517375888,3.7670685323913253,,,,,,,,,,,,
21053,0,USKentuckyClinton,Kentucky,Clinton,2022-04-28 09:13:11,2020-11-12,1.8018058842631481,2.7700413243130906,4.480223840741402,,,,,,,,,,,,
21053,0,USKentuckyClinton,Kentucky,Clinton,2022-04-28 09:13:11,2020-11-13,1.8018058842631481,2.7700413243130906,4.480223840741402,,,,,,,,,,,,
21053,0,USKentuckyClinton,Kentucky,Clinton,2022-04-28 09:13:11,2020-11-14,1.8018058842631481,2.7700413243130906,4.480223840741402,,,,,,,,,,,,
21053,0,USKentuckyClinton,Kentucky,Clinton,2022-04-28 09:13:11,2020-11-15,1.8018058842631481,2.7700413243130906,4.480223840741402,,,,,,,,,,,,
21053,0,USKentuckyClinton,Kentucky,Clinton,2022-04-28 09:13:11,2020-11-16,1.8018058842631481,2.7700413243130906,4.480223840741402,,,,,,,,,,,,
21053,0,USKentuckyClinton,Kentucky,Clinton,2022-04-28 09:13:11,2020-11-17,1.8018058842631481,2.7700413243130906,4.480223840741402,,,,,,,,,,,,
21053,0,USKentuckyClinton,Kentucky,Clinton,2022-04-28 09:13:11,2020-11-18,1.8018058842631481,2.7700413243130906,4.480223840741402,,,,,,,,,,,,
21053,0,USKentuckyClinton,Kentucky,Clinton,2022-04-28 09:13:11,2020-11-19,1.295204856279642,2.286612431758863,4.299247160406999,,,,,,,,,,,,
21053,0,USKentuckyClinton,Kentucky,Clinton,2022-04-28 09:13:11,2020-11-20,1.295204856279642,2.286612431758863,4.299247160406999,,,,,,,,,,,,
21053,0,USKentuckyClinton,Kentucky,Clinton,2022-04-28 09:13:11,2020-11-21,1.295204856279642,2.286612431758863,4.299247160406999,,,,,,,,,,,,
21053,0,USKentuckyClinton,Kentucky,Clinton,2022-04-28 09:13:11,2020-11-22,1.295204856279642,2.286612431758863,4.299247160406999,,,,,,,,,,,,
21053,0,USKentuckyClinton,Kentucky,Clinton,2022-04-28 09:13:11,2020-11-23,1.295204856279642,2.286612431758863,4.299247160406999,,,,,,,,,,,,
21053,0,USKentuckyClinton,Kentucky,Clinton,2022-04-28 09:13:11,2020-11-24,1.295204856279642,2.286612431758863,4.299247160406999,,,,,,,,,,,,
21053,0,USKentuckyClinton,Kentucky,Clinton,2022-04-28 09:13:11,2020-11-25,1.295204856279642,2.286612431758863,4.299247160406999,,,,,,,,,,,,
21053,0,USKentuckyClinton,Kentucky,Clinton,2022-04-28 09:13:11,2020-11-26,1.8202579665607364,3.140306142348469,5.76005708733848,,,,,,,,,,,,
21053,0,USKentuckyClinton,Kentucky,Clinton,2022-04-28 09:13:11,2020-11-27,1.8202579665607364,3.140306142348469,5.76005708733848,,,,,,,,,,,,
21053,0,USKentuckyClinton,Kentucky,Clinton,2022-04-28 09:13:11,2020-11-28,1.8202579665607364,3.140306142348469,5.76005708733848,,,,,,,,,,,,
21053,0,USKentuckyClinton,Kentucky,Clinton,2022-04-28 09:13:11,2020-11-29,1.8202579665607364,3.140306142348469,5.76005708733848,,,,,,,,,,,,
21053,0,USKentuckyClinton,Kentucky,Clinton,2022-04-28 09:13:11,2020-11-30,1.8202579665607364,3.140306142348469,5.76005708733848,,,,,,,,,,,,
21053,0,USKentuckyClinton,Kentucky,Clinton,2022-04-28 09:13:11,2020-12-01,1.8202579665607364,3.140306142348469,5.76005708733848,,,,,,,,,,,,
21053,0,USKentuckyClinton,Kentucky,Clinton,2022-04-28 09:13:11,2020-12-02,1.8202579665607364,3.140306142348469,5.76005708733848,,,,,,,,,,,,
21053,0,USKentuckyClinton,Kentucky,Clinton,2022-04-28 09:13:11,2020-12-03,1.853236309198452,3.0778328712106466,5.417956298010836,,,,,,,,,,,,
21053,0,USKentuckyClinton,Kentucky,Clinton,2022-04-28 09:13:11,2020-12-04,1.853236309198452,3.0778328712106466,5.417956298010836,,,,,,,,,,,,
21053,0,USKentuckyClinton,Kentucky,Clinton,2022-04-28 09:13:11,2020-12-05,1.853236309198452,3.0778328712106466,5.417956298010836,,,,,,,,,,,,
21053,0,USKentuckyClinton,Kentucky,Clinton,2022-04-28 09:13:11,2020-12-06,1.853236309198452,3.0778328712106466,5.417956298010836,,,,,,,,,,,,
21053,0,USKentuckyClinton,Kentucky,Clinton,2022-04-28 09:13:11,2020-12-07,1.853236309198452,3.0778328712106466,5.417956298010836,,,,,,,,,,,,
21053,0,USKentuckyClinton,Kentucky,Clinton,2022-04-28 09:13:11,2020-12-08,1.853236309198452,3.0778328712106466,5.417956298010836,,,,,,,,,,,,
21053,0,USKentuckyClinton,Kentucky,Clinton,2022-04-28 09:13:11,2020-12-09,1.853236309198452,3.0778328712106466,5.417956298010836,,,,,,,,,,,,
21053,0,USKentuckyClinton,Kentucky,Clinton,2022-04-28 09:13:11,2020-12-10,4.321084693718889,6.019718221676533,8.719360915376729,,,,,,,,,,,,
21053,0,USKentuckyClinton,Kentucky,Clinton,2022-04-28 09:13:11,2020-12-11,4.321084693718889,6.019718221676533,8.719360915376729,,,,,,,,,,,,
21053,0,USKentuckyClinton,Kentucky,Clinton,2022-04-28 09:13:11,2020-12-12,4.321084693718889,6.019718221676533,8.719360915376729,,,,,,,,,,,,
21053,0,USKentuckyClinton,Kentucky,Clinton,2022-04-28 09:13:11,2020-12-13,4.321084693718889,6.019718221676533,8.719360915376729,,,,,,,,,,,,
21053,0,USKentuckyClinton,Kentucky,Clinton,2022-04-28 09:13:11,2020-12-14,4.321084693718889,6.019718221676533,8.719360915376729,,,,,,,,,,,,
21053,0,USKentuckyClinton,Kentucky,Clinton,2022-04-28 09:13:11,2020-12-15,4.321084693718889,6.019718221676533,8.719360915376729,,,,,,,,,,,,
21053,0,USKentuckyClinton,Kentucky,Clinton,2022-04-28 09:13:11,2020-12-16,4.321084693718889,6.019718221676533,8.719360915376729,,,,,,,,,,,,
21053,0,USKentuckyClinton,Kentucky,Clinton,2022-04-28 09:13:11,2020-12-17,4.215763807147898,6.0414728944853175,9.0345109452797,,,,,,,,,,,,
21053,0,USKentuckyClinton,Kentucky,Clinton,2022-04-28 09:13:11,2020-12-18,4.215763807147898,6.0414728944853175,9.0345109452797,,,,,,,,,,,,
21053,0,USKentuckyClinton,Kentucky,Clinton,2022-04-28 09:13:11,2020-12-19,4.215763807147898,6.0414728944853175,9.0345109452797,,,,,,,,,,,,
21053,0,USKentuckyClinton,Kentucky,Clinton,2022-04-28 09:13:11,2020-12-20,4.215763807147898,6.0414728944853175,9.0345109452797,,,,,,,,,,,,
21053,0,USKentuckyClinton,Kentucky,Clinton,2022-04-28 09:13:11,2020-12-21,4.215763807147898,6.0414728944853175,9.0345109452797,,,,,,,,,,,,
21053,0,USKentuckyClinton,Kentucky,Clinton,2022-04-28 09:13:11,2020-12-22,4.215763807147898,6.0414728944853175,9.0345109452797,,,,,,,,,,,,
21053,0,USKentuckyClinton,Kentucky,Clinton,2022-04-28 09:13:11,2020-12-23,4.215763807147898,6.0414728944853175,9.0345109452797,,,,,,,,,,,,
21053,0,USKentuckyClinton,Kentucky,Clinton,2022-04-28 09:13:11,2020-12-24,2.870330686161033,4.586486976594896,7.740548569236527,,,,,,,,,,,,
21053,0,USKentuckyClinton,Kentucky,Clinton,2022-04-28 09:13:11,2020-12-25,2.870330686161033,4.586486976594896,7.740548569236527,,,,,,,,,,,,
21053,0,USKentuckyClinton,Kentucky,Clinton,2022-04-28 09:13:11,2020-12-26,2.870330686161033,4.586486976594896,7.740548569236527,,,,,,,,,,,,
21053,0,USKentuckyClinton,Kentucky,Clinton,2022-04-28 09:13:11,2020-12-27,2.870330686161033,4.586486976594896,7.740548569236527,,,,,,,,,,,,
21053,0,USKentuckyClinton,Kentucky,Clinton,2022-04-28 09:13:11,2020-12-28,2.870330686161033,4.586486976594896,7.740548569236527,,,,,,,,,,,,
21053,0,USKentuckyClinton,Kentucky,Clinton,2022-04-28 09:13:11,2020-12-29,2.870330686161033,4.586486976594896,7.740548569236527,,,,,,,,,,,,
21053,0,USKentuckyClinton,Kentucky,Clinton,2022-04-28 09:13:11,2020-12-30,2.870330686161033,4.586486976594896,7.740548569236527,,,,,,,,,,,,
21053,0,USKentuckyClinton,Kentucky,Clinton,2022-04-28 09:13:11,2020-12-31,2.554367339209606,4.452039530103109,8.256222003238207,,,,,,,,,,,,
21053,0,USKentuckyClinton,Kentucky,Clinton,2022-04-28 09:13:11,2021-01-01,2.554367339209606,4.452039530103109,8.256222003238207,,,,,,,,,,,,
21053,0,USKentuckyClinton,Kentucky,Clinton,2022-04-28 09:13:11,2021-01-02,2.554367339209606,4.452039530103109,8.256222003238207,,,,,,,,,,,,
21053,0,USKentuckyClinton,Kentucky,Clinton,2022-04-28 09:13:11,2021-01-03,2.554367339209606,4.452039530103109,8.256222003238207,,,,,,,,,,,,
21053,0,USKentuckyClinton,Kentucky,Clinton,2022-04-28 09:13:11,2021-01-04,2.554367339209606,4.452039530103109,8.256222003238207,,,,,,,,,,,,
21053,0,USKentuckyClinton,Kentucky,Clinton,2022-04-28 09:13:11,2021-01-05,2.554367339209606,4.452039530103109,8.256222003238207,,,,,,,,,,,,
21053,0,USKentuckyClinton,Kentucky,Clinton,2022-04-28 09:13:11,2021-01-06,2.554367339209606,4.452039530103109,8.256222003238207,,,,,,,,,,,,
21053,0,USKentuckyClinton,Kentucky,Clinton,2022-04-28 09:13:11,2021-01-07,5.093487982742824,7.542200457807781,11.700179305265577,,,,,,,,,,,,
21053,0,USKentuckyClinton,Kentucky,Clinton,2022-04-28 09:13:11,2021-01-08,5.093487982742824,7.542200457807781,11.700179305265577,,,,,,,,,,,,
21053,0,USKentuckyClinton,Kentucky,Clinton,2022-04-28 09:13:11,2021-01-09,5.093487982742824,7.542200457807781,11.700179305265577,,,,,,,,,,,,
21053,0,USKentuckyClinton,Kentucky,Clinton,2022-04-28 09:13:11,2021-01-10,5.093487982742824,7.542200457807781,11.700179305265577,,,,,,,,,,,,
21053,0,USKentuckyClinton,Kentucky,Clinton,2022-04-28 09:13:11,2021-01-11,5.093487982742824,7.542200457807781,11.700179305265577,,,,,,,,,,,,
21053,0,USKentuckyClinton,Kentucky,Clinton,2022-04-28 09:13:11,2021-01-12,5.093487982742824,7.542200457807781,11.700179305265577,,,,,,,,,,,,
21053,0,USKentuckyClinton,Kentucky,Clinton,2022-04-28 09:13:11,2021-01-13,5.093487982742824,7.542200457807781,11.700179305265577,,,,,,,,,,,,
21053,0,USKentuckyClinton,Kentucky,Clinton,2022-04-28 09:13:11,2021-01-14,2.9653070014395846,5.164651344138706,9.570546335282263,,,,,,,,,,,,
21053,0,USKentuckyClinton,Kentucky,Clinton,2022-04-28 09:13:11,2021-01-15,2.9653070014395846,5.164651344138706,9.570546335282263,,,,,,,,,,,,
21053,0,USKentuckyClinton,Kentucky,Clinton,2022-04-28 09:13:11,2021-01-16,2.9653070014395846,5.164651344138706,9.570546335282263,,,,,,,,,,,,
21053,0,USKentuckyClinton,Kentucky,Clinton,2022-04-28 09:13:11,2021-01-17,2.9653070014395846,5.164651344138706,9.570546335282263,,,,,,,,,,,,
21053,0,USKentuckyClinton,Kentucky,Clinton,2022-04-28 09:13:11,2021-01-18,2.9653070014395846,5.164651344138706,9.570546335282263,,,,,,,,,,,,
21053,0,USKentuckyClinton,Kentucky,Clinton,2022-04-28 09:13:11,2021-01-19,2.9653070014395846,5.164651344138706,9.570546335282263,,,,,,,,,,,,
21053,0,USKentuckyClinton,Kentucky,Clinton,2022-04-28 09:13:11,2021-01-20,2.9653070014395846,5.164651344138706,9.570546335282263,,,,,,,,,,,,
21053,0,USKentuckyClinton,Kentucky,Clinton,2022-04-28 09:13:11,2021-01-21,2.3341888310368666,4.076626606481826,7.576654086895193,,,,,,,,,,,,
21053,0,USKentuckyClinton,Kentucky,Clinton,2022-04-28 09:13:11,2021-01-22,2.3341888310368666,4.076626606481826,7.576654086895193,,,,,,,,,,,,
21053,0,USKentuckyClinton,Kentucky,Clinton,2022-04-28 09:13:11,2021-01-23,2.3341888310368666,4.076626606481826,7.576654086895193,,,,,,,,,,,,
21053,0,USKentuckyClinton,Kentucky,Clinton,2022-04-28 09:13:11,2021-01-24,2.3341888310368666,4.076626606481826,7.576654086895193,,,,,,,,,,,,
21053,0,USKentuckyClinton,Kentucky,Clinton,2022-04-28 09:13:11,2021-01-25,2.3341888310368666,4.076626606481826,7.576654086895193,,,,,,,,,,,,
21053,0,USKentuckyClinton,Kentucky,Clinton,2022-04-28 09:13:11,2021-01-26,2.3341888310368666,4.076626606481826,7.576654086895193,,,,,,,,,,,,
21053,0,USKentuckyClinton,Kentucky,Clinton,2022-04-28 09:13:11,2021-01-27,2.3341888310368666,4.076626606481826,7.576654086895193,,,,,,,,,,,,
21053,0,USKentuckyClinton,Kentucky,Clinton,2022-04-28 09:13:11,2021-01-28,1.3410221295144318,2.6588574886210536,5.650391640270909,,,,,,,,,,,,
21053,0,USKentuckyClinton,Kentucky,Clinton,2022-04-28 09:13:11,2021-01-29,1.3410221295144318,2.6588574886210536,5.650391640270909,,,,,,,,,,,,
21053,0,USKentuckyClinton,Kentucky,Clinton,2022-04-28 09:13:11,2021-01-30,1.3410221295144318,2.6588574886210536,5.650391640270909,,,,,,,,,,,,
21053,0,USKentuckyClinton,Kentucky,Clinton,2022-04-28 09:13:11,2021-01-31,1.3410221295144318,2.6588574886210536,5.650391640270909,,,,,,,,,,,,
21053,0,USKentuckyClinton,Kentucky,Clinton,2022-04-28 09:13:11,2021-02-01,1.3410221295144318,2.6588574886210536,5.650391640270909,,,,,,,,,,,,
21053,0,USKentuckyClinton,Kentucky,Clinton,2022-04-28 09:13:11,2021-02-02,1.3410221295144318,2.6588574886210536,5.650391640270909,,,,,,,,,,,,
21053,0,USKentuckyClinton,Kentucky,Clinton,2022-04-28 09:13:11,2021-02-03,1.3410221295144318,2.6588574886210536,5.650391640270909,,,,,,,,,,,,
21053,0,USKentuckyClinton,Kentucky,Clinton,2022-04-28 09:13:11,2021-02-04,2.1218338754092554,3.6675464677941014,6.740903184836706,,,,,,,,,,,,
21053,0,USKentuckyClinton,Kentucky,Clinton,2022-04-28 09:13:11,2021-02-05,2.1218338754092554,3.6675464677941014,6.740903184836706,,,,,,,,,,,,
21053,0,USKentuckyClinton,Kentucky,Clinton,2022-04-28 09:13:11,2021-02-06,2.1218338754092554,3.6675464677941014,6.740903184836706,,,,,,,,,,,,
21053,0,USKentuckyClinton,Kentucky,Clinton,2022-04-28 09:13:11,2021-02-07,2.1218338754092554,3.6675464677941014,6.740903184836706,,,,,,,,,,,,
21053,0,USKentuckyClinton,Kentucky,Clinton,2022-04-28 09:13:11,2021-02-08,2.1218338754092554,3.6675464677941014,6.740903184836706,,,,,,,,,,,,
21053,0,USKentuckyClinton,Kentucky,Clinton,2022-04-28 09:13:11,2021-02-09,2.1218338754092554,3.6675464677941014,6.740903184836706,,,,,,,,,,,,
21053,0,USKentuckyClinton,Kentucky,Clinton,2022-04-28 09:13:11,2021-02-10,2.1218338754092554,3.6675464677941014,6.740903184836706,,,,,,,,,,,,
21053,0,USKentuckyClinton,Kentucky,Clinton,2022-04-28 09:13:11,2021-02-11,1.2119578760440282,2.2577890565863115,4.4946181337478786,,,,,,,,,,,,
21053,0,USKentuckyClinton,Kentucky,Clinton,2022-04-28 09:13:11,2021-02-12,1.2119578760440282,2.2577890565863115,4.4946181337478786,,,,,,,,,,,,
21053,0,USKentuckyClinton,Kentucky,Clinton,2022-04-28 09:13:11,2021-02-13,1.2119578760440282,2.2577890565863115,4.4946181337478786,,,,,,,,,,,,
21053,0,USKentuckyClinton,Kentucky,Clinton,2022-04-28 09:13:11,2021-02-14,1.2119578760440282,2.2577890565863115,4.4946181337478786,,,,,,,,,,,,
21053,0,USKentuckyClinton,Kentucky,Clinton,2022-04-28 09:13:11,2021-02-15,1.2119578760440282,2.2577890565863115,4.4946181337478786,,,,,,,,,,,,
21053,0,USKentuckyClinton,Kentucky,Clinton,2022-04-28 09:13:11,2021-02-16,1.2119578760440282,2.2577890565863115,4.4946181337478786,,,,,,,,,,,,
21053,0,USKentuckyClinton,Kentucky,Clinton,2022-04-28 09:13:11,2021-02-17,1.2119578760440282,2.2577890565863115,4.4946181337478786,,,,,,,,,,,,
21053,0,USKentuckyClinton,Kentucky,Clinton,2022-04-28 09:13:11,2021-02-18,0.8708960855522117,1.6616829435669143,3.3923045196306485,,,,,,,,,,,,
21053,0,USKentuckyClinton,Kentucky,Clinton,2022-04-28 09:13:11,2021-02-19,0.8708960855522117,1.6616829435669143,3.3923045196306485,,,,,,,,,,,,
21053,0,USKentuckyClinton,Kentucky,Clinton,2022-04-28 09:13:11,2021-02-20,0.8708960855522117,1.6616829435669143,3.3923045196306485,,,,,,,,,,,,
21053,0,USKentuckyClinton,Kentucky,Clinton,2022-04-28 09:13:11,2021-02-21,0.8708960855522117,1.6616829435669143,3.3923045196306485,,,,,,,,,,,,
21053,0,USKentuckyClinton,Kentucky,Clinton,2022-04-28 09:13:11,2021-02-22,0.8708960855522117,1.6616829435669143,3.3923045196306485,,,,,,,,,,,,
21053,0,USKentuckyClinton,Kentucky,Clinton,2022-04-28 09:13:11,2021-02-23,0.8708960855522117,1.6616829435669143,3.3923045196306485,,,,,,,,,,,,
21053,0,USKentuckyClinton,Kentucky,Clinton,2022-04-28 09:13:11,2021-02-24,0.8708960855522117,1.6616829435669143,3.3923045196306485,,,,,,,,,,,,
21053,0,USKentuckyClinton,Kentucky,Clinton,2022-04-28 09:13:11,2021-02-25,0.7837402495374649,1.4880952430143295,3.02236163758531,,,,,,,,,,,,
21053,0,USKentuckyClinton,Kentucky,Clinton,2022-04-28 09:13:11,2021-02-26,0.7837402495374649,1.4880952430143295,3.02236163758531,,,,,,,,,,,,
21053,0,USKentuckyClinton,Kentucky,Clinton,2022-04-28 09:13:11,2021-02-27,0.7837402495374649,1.4880952430143295,3.02236163758531,,,,,,,,,,,,
21053,0,USKentuckyClinton,Kentucky,Clinton,2022-04-28 09:13:11,2021-02-28,0.7837402495374649,1.4880952430143295,3.02236163758531,,,,,,,,,,,,
21053,0,USKentuckyClinton,Kentucky,Clinton,2022-04-28 09:13:11,2021-03-01,0.7837402495374649,1.4880952430143295,3.02236163758531,,,,,,,,,,,,
21053,0,USKentuckyClinton,Kentucky,Clinton,2022-04-28 09:13:11,2021-03-02,0.7837402495374649,1.4880952430143295,3.02236163758531,,,,,,,,,,,,
21053,0,USKentuckyClinton,Kentucky,Clinton,2022-04-28 09:13:11,2021-03-03,0.7837402495374649,1.4880952430143295,3.02236163758531,,,,,,,,,,,,
21053,0,USKentuckyClinton,Kentucky,Clinton,2022-04-28 09:13:11,2021-03-04,1.1554045489329483,2.0603618451949592,3.915589434963286,,,,,,,,,,,,
21053,0,USKentuckyClinton,Kentucky,Clinton,2022-04-28 09:13:11,2021-03-05,1.1554045489329483,2.0603618451949592,3.915589434963286,,,,,,,,,,,,
21053,0,USKentuckyClinton,Kentucky,Clinton,2022-04-28 09:13:11,2021-03-06,1.1554045489329483,2.0603618451949592,3.915589434963286,,,,,,,,,,,,
21053,0,USKentuckyClinton,Kentucky,Clinton,2022-04-28 09:13:11,2021-03-07,1.1554045489329483,2.0603618451949592,3.915589434963286,,,,,,,,,,,,
21053,0,USKentuckyClinton,Kentucky,Clinton,2022-04-28 09:13:11,2021-03-08,1.1554045489329483,2.0603618451949592,3.915589434963286,,,,,,,,,,,,
21053,0,USKentuckyClinton,Kentucky,Clinton,2022-04-28 09:13:11,2021-03-09,1.1554045489329483,2.0603618451949592,3.915589434963286,,,,,,,,,,,,
21053,0,USKentuckyClinton,Kentucky,Clinton,2022-04-28 09:13:11,2021-03-10,1.1554045489329483,2.0603618451949592,3.915589434963286,,,,,,,,,,,,
21053,0,USKentuckyClinton,Kentucky,Clinton,2022-04-28 09:13:11,2021-03-11,0.2808786151467872,0.7034288752835046,1.8957669951967695,,,,,,,,,,,,
21053,0,USKentuckyClinton,Kentucky,Clinton,2022-04-28 09:13:11,2021-03-12,0.2808786151467872,0.7034288752835046,1.8957669951967695,,,,,,,,,,,,
21053,0,USKentuckyClinton,Kentucky,Clinton,2022-04-28 09:13:11,2021-03-13,0.2808786151467872,0.7034288752835046,1.8957669951967695,,,,,,,,,,,,
21053,0,USKentuckyClinton,Kentucky,Clinton,2022-04-28 09:13:11,2021-03-14,0.2808786151467872,0.7034288752835046,1.8957669951967695,,,,,,,,,,,,
21053,0,USKentuckyClinton,Kentucky,Clinton,2022-04-28 09:13:11,2021-03-15,0.2808786151467872,0.7034288752835046,1.8957669951967695,,,,,,,,,,,,
21053,0,USKentuckyClinton,Kentucky,Clinton,2022-04-28 09:13:11,2021-03-16,0.2808786151467872,0.7034288752835046,1.8957669951967695,,,,,,,,,,,,
21053,0,USKentuckyClinton,Kentucky,Clinton,2022-04-28 09:13:11,2021-03-17,0.2808786151467872,0.7034288752835046,1.8957669951967695,,,,,,,,,,,,
21053,0,USKentuckyClinton,Kentucky,Clinton,2022-04-28 09:13:11,2021-03-18,0.08162560863896023,0.2811246612026408,1.0346388788843026,,,,,,,,,,,,
21053,0,USKentuckyClinton,Kentucky,Clinton,2022-04-28 09:13:11,2021-03-19,0.08162560863896023,0.2811246612026408,1.0346388788843026,,,,,,,,,,,,
21053,0,USKentuckyClinton,Kentucky,Clinton,2022-04-28 09:13:11,2021-03-20,0.08162560863896023,0.2811246612026408,1.0346388788843026,,,,,,,,,,,,
21053,0,USKentuckyClinton,Kentucky,Clinton,2022-04-28 09:13:11,2021-03-21,0.08162560863896023,0.2811246612026408,1.0346388788843026,,,,,,,,,,,,
21053,0,USKentuckyClinton,Kentucky,Clinton,2022-04-28 09:13:11,2021-03-22,0.08162560863896023,0.2811246612026408,1.0346388788843026,,,,,,,,,,,,
21053,0,USKentuckyClinton,Kentucky,Clinton,2022-04-28 09:13:11,2021-03-23,0.08162560863896023,0.2811246612026408,1.0346388788843026,,,,,,,,,,,,
21053,0,USKentuckyClinton,Kentucky,Clinton,2022-04-28 09:13:11,2021-03-24,0.08162560863896023,0.2811246612026408,1.0346388788843026,,,,,,,,,,,,
21053,0,USKentuckyClinton,Kentucky,Clinton,2022-04-28 09:13:11,2021-03-25,0.9000042701507166,1.359794325545335,2.1573069221162022,,,,,,,,,,,,
21053,0,USKentuckyClinton,Kentucky,Clinton,2022-04-28 09:13:11,2021-03-26,0.9000042701507166,1.359794325545335,2.1573069221162022,,,,,,,,,,,,
21053,0,USKentuckyClinton,Kentucky,Clinton,2022-04-28 09:13:11,2021-03-27,0.9000042701507166,1.359794325545335,2.1573069221162022,,,,,,,,,,,,
21053,0,USKentuckyClinton,Kentucky,Clinton,2022-04-28 09:13:11,2021-03-28,0.9000042701507166,1.359794325545335,2.1573069221162022,,,,,,,,,,,,
21053,0,USKentuckyClinton,Kentucky,Clinton,2022-04-28 09:13:11,2021-03-29,0.9000042701507166,1.359794325545335,2.1573069221162022,,,,,,,,,,,,
21053,0,USKentuckyClinton,Kentucky,Clinton,2022-04-28 09:13:11,2021-03-30,0.9000042701507166,1.359794325545335,2.1573069221162022,,,,,,,,,,,,
21053,0,USKentuckyClinton,Kentucky,Clinton,2022-04-28 09:13:11,2021-03-31,0.9000042701507166,1.359794325545335,2.1573069221162022,,,,,,,,,,,,
21053,0,USKentuckyClinton,Kentucky,Clinton,2022-04-28 09:13:11,2021-04-01,0.6701116700760559,0.9640584730492687,1.4479870415782936,,,,,,,,,,,,
21053,0,USKentuckyClinton,Kentucky,Clinton,2022-04-28 09:13:11,2021-04-02,0.6701116700760559,0.9640584730492687,1.4479870415782936,,,,,,,,,,,,
21053,0,USKentuckyClinton,Kentucky,Clinton,2022-04-28 09:13:11,2021-04-03,0.6701116700760559,0.9640584730492687,1.4479870415782936,,,,,,,,,,,,
21053,0,USKentuckyClinton,Kentucky,Clinton,2022-04-28 09:13:11,2021-04-04,0.6701116700760559,0.9640584730492687,1.4479870415782936,,,,,,,,,,,,
21053,0,USKentuckyClinton,Kentucky,Clinton,2022-04-28 09:13:11,2021-04-05,0.6701116700760559,0.9640584730492687,1.4479870415782936,,,,,,,,,,,,
21053,0,USKentuckyClinton,Kentucky,Clinton,2022-04-28 09:13:11,2021-04-06,0.6701116700760559,0.9640584730492687,1.4479870415782936,,,,,,,,,,,,
21053,0,USKentuckyClinton,Kentucky,Clinton,2022-04-28 09:13:11,2021-04-07,0.6701116700760559,0.9640584730492687,1.4479870415782936,,,,,,,,,,,,
21053,0,USKentuckyClinton,Kentucky,Clinton,2022-04-28 09:13:11,2021-04-08,0.13634738827665696,0.4036943142080609,1.2831152121460712,,,,,,,,,,,,
21053,0,USKentuckyClinton,Kentucky,Clinton,2022-04-28 09:13:11,2021-04-09,0.13634738827665696,0.4036943142080609,1.2831152121460712,,,,,,,,,,,,
21053,0,USKentuckyClinton,Kentucky,Clinton,2022-04-28 09:13:11,2021-04-10,0.13634738827665696,0.4036943142080609,1.2831152121460712,,,,,,,,,,,,
21053,0,USKentuckyClinton,Kentucky,Clinton,2022-04-28 09:13:11,2021-04-11,0.13634738827665696,0.4036943142080609,1.2831152121460712,,,,,,,,,,,,
21053,0,USKentuckyClinton,Kentucky,Clinton,2022-04-28 09:13:11,2021-04-12,0.13634738827665696,0.4036943142080609,1.2831152121460712,,,,,,,,,,,,
21053,0,USKentuckyClinton,Kentucky,Clinton,2022-04-28 09:13:11,2021-04-13,0.13634738827665696,0.4036943142080609,1.2831152121460712,,,,,,,,,,,,
21053,0,USKentuckyClinton,Kentucky,Clinton,2022-04-28 09:13:11,2021-04-14,0.13634738827665696,0.4036943142080609,1.2831152121460712,,,,,,,,,,,,
21053,0,USKentuckyClinton,Kentucky,Clinton,2022-04-28 09:13:11,2021-04-15,0.25288334824986636,0.48966526026581025,1.015202219175081,,,,,,,,,,,,
21053,0,USKentuckyClinton,Kentucky,Clinton,2022-04-28 09:13:11,2021-04-16,0.25288334824986636,0.48966526026581025,1.015202219175081,,,,,,,,,,,,
21053,0,USKentuckyClinton,Kentucky,Clinton,2022-04-28 09:13:11,2021-04-17,0.25288334824986636,0.48966526026581025,1.015202219175081,,,,,,,,,,,,
21053,0,USKentuckyClinton,Kentucky,Clinton,2022-04-28 09:13:11,2021-04-18,0.25288334824986636,0.48966526026581025,1.015202219175081,,,,,,,,,,,,
21053,0,USKentuckyClinton,Kentucky,Clinton,2022-04-28 09:13:11,2021-04-19,0.25288334824986636,0.48966526026581025,1.015202219175081,,,,,,,,,,,,
21053,0,USKentuckyClinton,Kentucky,Clinton,2022-04-28 09:13:11,2021-04-20,0.25288334824986636,0.48966526026581025,1.015202219175081,,,,,,,,,,,,
21053,0,USKentuckyClinton,Kentucky,Clinton,2022-04-28 09:13:11,2021-04-21,0.25288334824986636,0.48966526026581025,1.015202219175081,,,,,,,,,,,,
21053,0,USKentuckyClinton,Kentucky,Clinton,2022-04-28 09:13:11,2021-04-22,0.2047703018632218,0.47239942516359357,1.1724868776552302,,,,,,,,,,,,
21053,0,USKentuckyClinton,Kentucky,Clinton,2022-04-28 09:13:11,2021-04-23,0.2047703018632218,0.47239942516359357,1.1724868776552302,,,,,,,,,,,,
21053,0,USKentuckyClinton,Kentucky,Clinton,2022-04-28 09:13:11,2021-04-24,0.2047703018632218,0.47239942516359357,1.1724868776552302,,,,,,,,,,,,
21053,0,USKentuckyClinton,Kentucky,Clinton,2022-04-28 09:13:11,2021-04-25,0.2047703018632218,0.47239942516359357,1.1724868776552302,,,,,,,,,,,,
21053,0,USKentuckyClinton,Kentucky,Clinton,2022-04-28 09:13:11,2021-04-26,0.2047703018632218,0.47239942516359357,1.1724868776552302,,,,,,,,,,,,
21053,0,USKentuckyClinton,Kentucky,Clinton,2022-04-28 09:13:11,2021-04-27,0.2047703018632218,0.47239942516359357,1.1724868776552302,,,,,,,,,,,,
21053,0,USKentuckyClinton,Kentucky,Clinton,2022-04-28 09:13:11,2021-04-28,0.2047703018632218,0.47239942516359357,1.1724868776552302,,,,,,,,,,,,
21053,0,USKentuckyClinton,Kentucky,Clinton,2022-04-28 09:13:11,2021-04-29,0.1086287145666424,0.18305736361611039,0.3273700841652208,,,,,,,,,,,,
21053,0,USKentuckyClinton,Kentucky,Clinton,2022-04-28 09:13:11,2021-04-30,0.1086287145666424,0.18305736361611039,0.3273700841652208,,,,,,,,,,,,
21053,0,USKentuckyClinton,Kentucky,Clinton,2022-04-28 09:13:11,2021-05-01,0.1086287145666424,0.18305736361611039,0.3273700841652208,,,,,,,,,,,,
21053,0,USKentuckyClinton,Kentucky,Clinton,2022-04-28 09:13:11,2021-05-02,0.1086287145666424,0.18305736361611039,0.3273700841652208,,,,,,,,,,,,
21053,0,USKentuckyClinton,Kentucky,Clinton,2022-04-28 09:13:11,2021-05-03,0.1086287145666424,0.18305736361611039,0.3273700841652208,,,,,,,,,,,,
21053,0,USKentuckyClinton,Kentucky,Clinton,2022-04-28 09:13:11,2021-05-04,0.1086287145666424,0.18305736361611039,0.3273700841652208,,,,,,,,,,,,
21053,0,USKentuckyClinton,Kentucky,Clinton,2022-04-28 09:13:11,2021-05-05,0.1086287145666424,0.18305736361611039,0.3273700841652208,,,,,,,,,,,,
21053,0,USKentuckyClinton,Kentucky,Clinton,2022-04-28 09:13:11,2021-05-06,0.13151880124940588,0.37758866578205796,1.1645501127882285,,,,,,,,,,,,
21053,0,USKentuckyClinton,Kentucky,Clinton,2022-04-28 09:13:11,2021-05-07,0.13151880124940588,0.37758866578205796,1.1645501127882285,,,,,,,,,,,,
21053,0,USKentuckyClinton,Kentucky,Clinton,2022-04-28 09:13:11,2021-05-08,0.13151880124940588,0.37758866578205796,1.1645501127882285,,,,,,,,,,,,
21053,0,USKentuckyClinton,Kentucky,Clinton,2022-04-28 09:13:11,2021-05-09,0.13151880124940588,0.37758866578205796,1.1645501127882285,,,,,,,,,,,,
21053,0,USKentuckyClinton,Kentucky,Clinton,2022-04-28 09:13:11,2021-05-10,0.13151880124940588,0.37758866578205796,1.1645501127882285,,,,,,,,,,,,
21053,0,USKentuckyClinton,Kentucky,Clinton,2022-04-28 09:13:11,2021-05-11,0.13151880124940588,0.37758866578205796,1.1645501127882285,,,,,,,,,,,,
21053,0,USKentuckyClinton,Kentucky,Clinton,2022-04-28 09:13:11,2021-05-12,0.13151880124940588,0.37758866578205796,1.1645501127882285,,,,,,,,,,,,
21053,0,USKentuckyClinton,Kentucky,Clinton,2022-04-28 09:13:11,2021-05-13,0.07867034747187046,0.262777418650696,0.9389517771278398,,,,,,,,,,,,
21053,0,USKentuckyClinton,Kentucky,Clinton,2022-04-28 09:13:11,2021-05-14,0.07867034747187046,0.262777418650696,0.9389517771278398,,,,,,,,,,,,
21053,0,USKentuckyClinton,Kentucky,Clinton,2022-04-28 09:13:11,2021-05-15,0.07867034747187046,0.262777418650696,0.9389517771278398,,,,,,,,,,,,
21053,0,USKentuckyClinton,Kentucky,Clinton,2022-04-28 09:13:11,2021-05-16,0.07867034747187046,0.262777418650696,0.9389517771278398,,,,,,,,,,,,
21053,0,USKentuckyClinton,Kentucky,Clinton,2022-04-28 09:13:11,2021-05-17,0.07867034747187046,0.262777418650696,0.9389517771278398,,,,,,,,,,,,
21053,0,USKentuckyClinton,Kentucky,Clinton,2022-04-28 09:13:11,2021-05-18,0.07867034747187046,0.262777418650696,0.9389517771278398,,,,,,,,,,,,
21053,0,USKentuckyClinton,Kentucky,Clinton,2022-04-28 09:13:11,2021-05-19,0.07867034747187046,0.262777418650696,0.9389517771278398,,,,,,,,,,,,
21053,0,USKentuckyClinton,Kentucky,Clinton,2022-04-28 09:13:11,2021-05-20,0.21768850430831763,0.530172269238624,1.389564648863596,,,,,,,,,,,,
21053,0,USKentuckyClinton,Kentucky,Clinton,2022-04-28 09:13:11,2021-05-21,0.21768850430831763,0.530172269238624,1.389564648863596,,,,,,,,,,,,
21053,0,USKentuckyClinton,Kentucky,Clinton,2022-04-28 09:13:11,2021-05-22,0.21768850430831763,0.530172269238624,1.389564648863596,,,,,,,,,,,,
21053,0,USKentuckyClinton,Kentucky,Clinton,2022-04-28 09:13:11,2021-05-23,0.21768850430831763,0.530172269238624,1.389564648863596,,,,,,,,,,,,
21053,0,USKentuckyClinton,Kentucky,Clinton,2022-04-28 09:13:11,2021-05-24,0.21768850430831763,0.530172269238624,1.389564648863596,,,,,,,,,,,,
21053,0,USKentuckyClinton,Kentucky,Clinton,2022-04-28 09:13:11,2021-05-25,0.21768850430831763,0.530172269238624,1.389564648863596,,,,,,,,,,,,
21053,0,USKentuckyClinton,Kentucky,Clinton,2022-04-28 09:13:11,2021-05-26,0.21768850430831763,0.530172269238624,1.389564648863596,,,,,,,,,,,,
21053,0,USKentuckyClinton,Kentucky,Clinton,2022-04-28 09:13:11,2021-05-27,0,0,0,,,,,,,,,,,,
21053,0,USKentuckyClinton,Kentucky,Clinton,2022-04-28 09:13:11,2021-05-28,0,0,0,,,,,,,,,,,,
21053,0,USKentuckyClinton,Kentucky,Clinton,2022-04-28 09:13:11,2021-05-29,0,0,0,,,,,,,,,,,,
21053,0,USKentuckyClinton,Kentucky,Clinton,2022-04-28 09:13:11,2021-05-30,0,0,0,,,,,,,,,,,,
21053,0,USKentuckyClinton,Kentucky,Clinton,2022-04-28 09:13:11,2021-05-31,0,0,0,,,,,,,,,,,,
21053,0,USKentuckyClinton,Kentucky,Clinton,2022-04-28 09:13:11,2021-06-01,0,0,0,,,,,,,,,,,,
21053,0,USKentuckyClinton,Kentucky,Clinton,2022-04-28 09:13:11,2021-06-02,0,0,0,,,,,,,,,,,,
21053,0,USKentuckyClinton,Kentucky,Clinton,2022-04-28 09:13:11,2021-06-03,0.12795870439066123,0.35881450312269636,1.08138227266059,,,,,,,,,,,,
21053,0,USKentuckyClinton,Kentucky,Clinton,2022-04-28 09:13:11,2021-06-04,0.12795870439066123,0.35881450312269636,1.08138227266059,,,,,,,,,,,,
21053,0,USKentuckyClinton,Kentucky,Clinton,2022-04-28 09:13:11,2021-06-05,0.12795870439066123,0.35881450312269636,1.08138227266059,,,,,,,,,,,,
21053,0,USKentuckyClinton,Kentucky,Clinton,2022-04-28 09:13:11,2021-06-06,0.12795870439066123,0.35881450312269636,1.08138227266059,,,,,,,,,,,,
21053,0,USKentuckyClinton,Kentucky,Clinton,2022-04-28 09:13:11,2021-06-07,0.12795870439066123,0.35881450312269636,1.08138227266059,,,,,,,,,,,,
21053,0,USKentuckyClinton,Kentucky,Clinton,2022-04-28 09:13:11,2021-06-08,0.12795870439066123,0.35881450312269636,1.08138227266059,,,,,,,,,,,,
21053,0,USKentuckyClinton,Kentucky,Clinton,2022-04-28 09:13:11,2021-06-09,0.12795870439066123,0.35881450312269636,1.08138227266059,,,,,,,,,,,,
21053,0,USKentuckyClinton,Kentucky,Clinton,2022-04-28 09:13:11,2021-06-10,0.11886732094223151,0.3127272520290355,0.8850759711355891,,,,,,,,,,,,
21053,0,USKentuckyClinton,Kentucky,Clinton,2022-04-28 09:13:11,2021-06-11,0.11886732094223151,0.3127272520290355,0.8850759711355891,,,,,,,,,,,,
21053,0,USKentuckyClinton,Kentucky,Clinton,2022-04-28 09:13:11,2021-06-12,0.11886732094223151,0.3127272520290355,0.8850759711355891,,,,,,,,,,,,
21053,0,USKentuckyClinton,Kentucky,Clinton,2022-04-28 09:13:11,2021-06-13,0.11886732094223151,0.3127272520290355,0.8850759711355891,,,,,,,,,,,,
21053,0,USKentuckyClinton,Kentucky,Clinton,2022-04-28 09:13:11,2021-06-14,0.11886732094223151,0.3127272520290355,0.8850759711355891,,,,,,,,,,,,
21053,0,USKentuckyClinton,Kentucky,Clinton,2022-04-28 09:13:11,2021-06-15,0.11886732094223151,0.3127272520290355,0.8850759711355891,,,,,,,,,,,,
21053,0,USKentuckyClinton,Kentucky,Clinton,2022-04-28 09:13:11,2021-06-16,0.11886732094223151,0.3127272520290355,0.8850759711355891,,,,,,,,,,,,
21053,0,USKentuckyClinton,Kentucky,Clinton,2022-04-28 09:13:11,2021-06-17,0.06619860916407327,0.19114152171260027,0.592811779072064,,,,,,,,,,,,
21053,0,USKentuckyClinton,Kentucky,Clinton,2022-04-28 09:13:11,2021-06-18,0.06619860916407327,0.19114152171260027,0.592811779072064,,,,,,,,,,,,
21053,0,USKentuckyClinton,Kentucky,Clinton,2022-04-28 09:13:11,2021-06-19,0.06619860916407327,0.19114152171260027,0.592811779072064,,,,,,,,,,,,
21053,0,USKentuckyClinton,Kentucky,Clinton,2022-04-28 09:13:11,2021-06-20,0.06619860916407327,0.19114152171260027,0.592811779072064,,,,,,,,,,,,
21053,0,USKentuckyClinton,Kentucky,Clinton,2022-04-28 09:13:11,2021-06-21,0.06619860916407327,0.19114152171260027,0.592811779072064,,,,,,,,,,,,
21053,0,USKentuckyClinton,Kentucky,Clinton,2022-04-28 09:13:11,2021-06-22,0.06619860916407327,0.19114152171260027,0.592811779072064,,,,,,,,,,,,
21053,0,USKentuckyClinton,Kentucky,Clinton,2022-04-28 09:13:11,2021-06-23,0.06619860916407327,0.19114152171260027,0.592811779072064,,,,,,,,,,,,
21053,0,USKentuckyClinton,Kentucky,Clinton,2022-04-28 09:13:11,2021-06-24,0.22030500429727826,0.4441445174643832,0.960355018685666,,,,,,,,,,,,
21053,0,USKentuckyClinton,Kentucky,Clinton,2022-04-28 09:13:11,2021-06-25,0.22030500429727826,0.4441445174643832,0.960355018685666,,,,,,,,,,,,
21053,0,USKentuckyClinton,Kentucky,Clinton,2022-04-28 09:13:11,2021-06-26,0.22030500429727826,0.4441445174643832,0.960355018685666,,,,,,,,,,,,
21053,0,USKentuckyClinton,Kentucky,Clinton,2022-04-28 09:13:11,2021-06-27,0.22030500429727826,0.4441445174643832,0.960355018685666,,,,,,,,,,,,
21053,0,USKentuckyClinton,Kentucky,Clinton,2022-04-28 09:13:11,2021-06-28,0.22030500429727826,0.4441445174643832,0.960355018685666,,,,,,,,,,,,
21053,0,USKentuckyClinton,Kentucky,Clinton,2022-04-28 09:13:11,2021-06-29,0.22030500429727826,0.4441445174643832,0.960355018685666,,,,,,,,,,,,
21053,0,USKentuckyClinton,Kentucky,Clinton,2022-04-28 09:13:11,2021-06-30,0.22030500429727826,0.4441445174643832,0.960355018685666,,,,,,,,,,,,
21053,0,USKentuckyClinton,Kentucky,Clinton,2022-04-28 09:13:11,2021-07-01,0.06989957137801261,0.21140202422706536,0.6859933378245178,,,,,,,,,,,,
21053,0,USKentuckyClinton,Kentucky,Clinton,2022-04-28 09:13:11,2021-07-02,0.06989957137801261,0.21140202422706536,0.6859933378245178,,,,,,,,,,,,
21053,0,USKentuckyClinton,Kentucky,Clinton,2022-04-28 09:13:11,2021-07-03,0.06989957137801261,0.21140202422706536,0.6859933378245178,,,,,,,,,,,,
21053,0,USKentuckyClinton,Kentucky,Clinton,2022-04-28 09:13:11,2021-07-04,0.06989957137801261,0.21140202422706536,0.6859933378245178,,,,,,,,,,,,
21053,0,USKentuckyClinton,Kentucky,Clinton,2022-04-28 09:13:11,2021-07-05,0.06989957137801261,0.21140202422706536,0.6859933378245178,,,,,,,,,,,,
21053,0,USKentuckyClinton,Kentucky,Clinton,2022-04-28 09:13:11,2021-07-06,0.06989957137801261,0.21140202422706536,0.6859933378245178,,,,,,,,,,,,
21053,0,USKentuckyClinton,Kentucky,Clinton,2022-04-28 09:13:11,2021-07-07,0.06989957137801261,0.21140202422706536,0.6859933378245178,,,,,,,,,,,,
21053,0,USKentuckyClinton,Kentucky,Clinton,2022-04-28 09:13:11,2021-07-08,0,0,0,,,,,,,,,,,,
21053,0,USKentuckyClinton,Kentucky,Clinton,2022-04-28 09:13:11,2021-07-09,0,0,0,,,,,,,,,,,,
21053,0,USKentuckyClinton,Kentucky,Clinton,2022-04-28 09:13:11,2021-07-10,0,0,0,,,,,,,,,,,,
21053,0,USKentuckyClinton,Kentucky,Clinton,2022-04-28 09:13:11,2021-07-11,0,0,0,,,,,,,,,,,,
21053,0,USKentuckyClinton,Kentucky,Clinton,2022-04-28 09:13:11,2021-07-12,0,0,0,,,,,,,,,,,,
21053,0,USKentuckyClinton,Kentucky,Clinton,2022-04-28 09:13:11,2021-07-13,0,0,0,,,,,,,,,,,,
21053,0,USKentuckyClinton,Kentucky,Clinton,2022-04-28 09:13:11,2021-07-14,0,0,0,,,,,,,,,,,,
21053,0,USKentuckyClinton,Kentucky,Clinton,2022-04-28 09:13:11,2021-07-15,0.08855727365015023,0.3261487120055624,1.2803739623883197,,,,,,,,,,,,
21053,0,USKentuckyClinton,Kentucky,Clinton,2022-04-28 09:13:11,2021-07-16,0.08855727365015023,0.3261487120055624,1.2803739623883197,,,,,,,,,,,,
21053,0,USKentuckyClinton,Kentucky,Clinton,2022-04-28 09:13:11,2021-07-17,0.08855727365015023,0.3261487120055624,1.2803739623883197,,,,,,,,,,,,
21053,0,USKentuckyClinton,Kentucky,Clinton,2022-04-28 09:13:11,2021-07-18,0.08855727365015023,0.3261487120055624,1.2803739623883197,,,,,,,,,,,,
21053,0,USKentuckyClinton,Kentucky,Clinton,2022-04-28 09:13:11,2021-07-19,0.08855727365015023,0.3261487120055624,1.2803739623883197,,,,,,,,,,,,
21053,0,USKentuckyClinton,Kentucky,Clinton,2022-04-28 09:13:11,2021-07-20,0.08855727365015023,0.3261487120055624,1.2803739623883197,,,,,,,,,,,,
21053,0,USKentuckyClinton,Kentucky,Clinton,2022-04-28 09:13:11,2021-07-21,0.08855727365015023,0.3261487120055624,1.2803739623883197,,,,,,,,,,,,
21053,0,USKentuckyClinton,Kentucky,Clinton,2022-04-28 09:13:11,2021-07-22,0.4029390874319621,1.0309150131581561,2.838063798798885,,,,,,,,,,,,
21053,0,USKentuckyClinton,Kentucky,Clinton,2022-04-28 09:13:11,2021-07-23,0.4029390874319621,1.0309150131581561,2.838063798798885,,,,,,,,,,,,
21053,0,USKentuckyClinton,Kentucky,Clinton,2022-04-28 09:13:11,2021-07-24,0.4029390874319621,1.0309150131581561,2.838063798798885,,,,,,,,,,,,
21053,0,USKentuckyClinton,Kentucky,Clinton,2022-04-28 09:13:11,2021-07-25,0.4029390874319621,1.0309150131581561,2.838063798798885,,,,,,,,,,,,
21053,0,USKentuckyClinton,Kentucky,Clinton,2022-04-28 09:13:11,2021-07-26,0.4029390874319621,1.0309150131581561,2.838063798798885,,,,,,,,,,,,
21053,0,USKentuckyClinton,Kentucky,Clinton,2022-04-28 09:13:11,2021-07-27,0.4029390874319621,1.0309150131581561,2.838063798798885,,,,,,,,,,,,
21053,0,USKentuckyClinton,Kentucky,Clinton,2022-04-28 09:13:11,2021-07-28,0.4029390874319621,1.0309150131581561,2.838063798798885,,,,,,,,,,,,
21053,0,USKentuckyClinton,Kentucky,Clinton,2022-04-28 09:13:11,2021-07-29,1.0864844092426293,2.163251318745184,4.617307372439344,,,,,,,,,,,,
21053,0,USKentuckyClinton,Kentucky,Clinton,2022-04-28 09:13:11,2021-07-30,1.0864844092426293,2.163251318745184,4.617307372439344,,,,,,,,,,,,
21053,0,USKentuckyClinton,Kentucky,Clinton,2022-04-28 09:13:11,2021-07-31,1.0864844092426293,2.163251318745184,4.617307372439344,,,,,,,,,,,,
21053,0,USKentuckyClinton,Kentucky,Clinton,2022-04-28 09:13:11,2021-08-01,1.0864844092426293,2.163251318745184,4.617307372439344,,,,,,,,,,,,
21053,0,USKentuckyClinton,Kentucky,Clinton,2022-04-28 09:13:11,2021-08-02,1.0864844092426293,2.163251318745184,4.617307372439344,,,,,,,,,,,,
21053,0,USKentuckyClinton,Kentucky,Clinton,2022-04-28 09:13:11,2021-08-03,1.0864844092426293,2.163251318745184,4.617307372439344,,,,,,,,,,,,
21053,0,USKentuckyClinton,Kentucky,Clinton,2022-04-28 09:13:11,2021-08-04,1.0864844092426293,2.163251318745184,4.617307372439344,,,,,,,,,,,,
21053,0,USKentuckyClinton,Kentucky,Clinton,2022-04-28 09:13:11,2021-08-05,0.500045780223977,1.240252995711917,3.3104409055461343,,,,,,,,,,,,
21053,0,USKentuckyClinton,Kentucky,Clinton,2022-04-28 09:13:11,2021-08-06,0.500045780223977,1.240252995711917,3.3104409055461343,,,,,,,,,,,,
21053,0,USKentuckyClinton,Kentucky,Clinton,2022-04-28 09:13:11,2021-08-07,0.500045780223977,1.240252995711917,3.3104409055461343,,,,,,,,,,,,
21053,0,USKentuckyClinton,Kentucky,Clinton,2022-04-28 09:13:11,2021-08-08,0.500045780223977,1.240252995711917,3.3104409055461343,,,,,,,,,,,,
21053,0,USKentuckyClinton,Kentucky,Clinton,2022-04-28 09:13:11,2021-08-09,0.500045780223977,1.240252995711917,3.3104409055461343,,,,,,,,,,,,
21053,0,USKentuckyClinton,Kentucky,Clinton,2022-04-28 09:13:11,2021-08-10,0.500045780223977,1.240252995711917,3.3104409055461343,,,,,,,,,,,,
21053,0,USKentuckyClinton,Kentucky,Clinton,2022-04-28 09:13:11,2021-08-11,0.500045780223977,1.240252995711917,3.3104409055461343,,,,,,,,,,,,
21053,0,USKentuckyClinton,Kentucky,Clinton,2022-04-28 09:13:11,2021-08-12,0.829163837341242,1.8319782794296322,4.352069138856014,,,,,,,,,,,,
21053,0,USKentuckyClinton,Kentucky,Clinton,2022-04-28 09:13:11,2021-08-13,0.829163837341242,1.8319782794296322,4.352069138856014,,,,,,,,,,,,
21053,0,USKentuckyClinton,Kentucky,Clinton,2022-04-28 09:13:11,2021-08-14,0.829163837341242,1.8319782794296322,4.352069138856014,,,,,,,,,,,,
21053,0,USKentuckyClinton,Kentucky,Clinton,2022-04-28 09:13:11,2021-08-15,0.829163837341242,1.8319782794296322,4.352069138856014,,,,,,,,,,,,
21053,0,USKentuckyClinton,Kentucky,Clinton,2022-04-28 09:13:11,2021-08-16,0.829163837341242,1.8319782794296322,4.352069138856014,,,,,,,,,,,,
21053,0,USKentuckyClinton,Kentucky,Clinton,2022-04-28 09:13:11,2021-08-17,0.829163837341242,1.8319782794296322,4.352069138856014,,,,,,,,,,,,
21053,0,USKentuckyClinton,Kentucky,Clinton,2022-04-28 09:13:11,2021-08-18,0.829163837341242,1.8319782794296322,4.352069138856014,,,,,,,,,,,,
21053,0,USKentuckyClinton,Kentucky,Clinton,2022-04-28 09:13:11,2021-08-19,1.7833179229645002,3.2643151581700733,6.3785854492427,,,,,,,,,,,,
21053,0,USKentuckyClinton,Kentucky,Clinton,2022-04-28 09:13:11,2021-08-20,1.7833179229645002,3.2643151581700733,6.3785854492427,,,,,,,,,,,,
21053,0,USKentuckyClinton,Kentucky,Clinton,2022-04-28 09:13:11,2021-08-21,1.7833179229645002,3.2643151581700733,6.3785854492427,,,,,,,,,,,,
21053,0,USKentuckyClinton,Kentucky,Clinton,2022-04-28 09:13:11,2021-08-22,1.7833179229645002,3.2643151581700733,6.3785854492427,,,,,,,,,,,,
21053,0,USKentuckyClinton,Kentucky,Clinton,2022-04-28 09:13:11,2021-08-23,1.7833179229645002,3.2643151581700733,6.3785854492427,,,,,,,,,,,,
21053,0,USKentuckyClinton,Kentucky,Clinton,2022-04-28 09:13:11,2021-08-24,1.7833179229645002,3.2643151581700733,6.3785854492427,,,,,,,,,,,,
21053,0,USKentuckyClinton,Kentucky,Clinton,2022-04-28 09:13:11,2021-08-25,1.7833179229645002,3.2643151581700733,6.3785854492427,,,,,,,,,,,,
21053,0,USKentuckyClinton,Kentucky,Clinton,2022-04-28 09:13:11,2021-08-26,1.9840048346310097,3.5076791985327676,6.605202907600086,,,,,,,,,,,,
21053,0,USKentuckyClinton,Kentucky,Clinton,2022-04-28 09:13:11,2021-08-27,1.9840048346310097,3.5076791985327676,6.605202907600086,,,,,,,,,,,,
21053,0,USKentuckyClinton,Kentucky,Clinton,2022-04-28 09:13:11,2021-08-28,1.9840048346310097,3.5076791985327676,6.605202907600086,,,,,,,,,,,,
21053,0,USKentuckyClinton,Kentucky,Clinton,2022-04-28 09:13:11,2021-08-29,1.9840048346310097,3.5076791985327676,6.605202907600086,,,,,,,,,,,,
21053,0,USKentuckyClinton,Kentucky,Clinton,2022-04-28 09:13:11,2021-08-30,1.9840048346310097,3.5076791985327676,6.605202907600086,,,,,,,,,,,,
21053,0,USKentuckyClinton,Kentucky,Clinton,2022-04-28 09:13:11,2021-08-31,1.9840048346310097,3.5076791985327676,6.605202907600086,,,,,,,,,,,,
21053,0,USKentuckyClinton,Kentucky,Clinton,2022-04-28 09:13:11,2021-09-01,1.9840048346310097,3.5076791985327676,6.605202907600086,,,,,,,,,,,,
21053,0,USKentuckyClinton,Kentucky,Clinton,2022-04-28 09:13:11,2021-09-02,1.3346087049065412,2.7141864986386857,5.922023769113556,,,,,,,,,,,,
21053,0,USKentuckyClinton,Kentucky,Clinton,2022-04-28 09:13:11,2021-09-03,1.3346087049065412,2.7141864986386857,5.922023769113556,,,,,,,,,,,,
21053,0,USKentuckyClinton,Kentucky,Clinton,2022-04-28 09:13:11,2021-09-04,1.3346087049065412,2.7141864986386857,5.922023769113556,,,,,,,,,,,,
21053,0,USKentuckyClinton,Kentucky,Clinton,2022-04-28 09:13:11,2021-09-05,1.3346087049065412,2.7141864986386857,5.922023769113556,,,,,,,,,,,,
21053,0,USKentuckyClinton,Kentucky,Clinton,2022-04-28 09:13:11,2021-09-06,1.3346087049065412,2.7141864986386857,5.922023769113556,,,,,,,,,,,,
21053,0,USKentuckyClinton,Kentucky,Clinton,2022-04-28 09:13:11,2021-09-07,1.3346087049065412,2.7141864986386857,5.922023769113556,,,,,,,,,,,,
21053,0,USKentuckyClinton,Kentucky,Clinton,2022-04-28 09:13:11,2021-09-08,1.3346087049065412,2.7141864986386857,5.922023769113556,,,,,,,,,,,,
21053,0,USKentuckyClinton,Kentucky,Clinton,2022-04-28 09:13:11,2021-09-09,2.414807361600576,3.944144747594389,6.818026312150936,,,,,,,,,,,,
21053,0,USKentuckyClinton,Kentucky,Clinton,2022-04-28 09:13:11,2021-09-10,2.414807361600576,3.944144747594389,6.818026312150936,,,,,,,,,,,,
21053,0,USKentuckyClinton,Kentucky,Clinton,2022-04-28 09:13:11,2021-09-11,2.414807361600576,3.944144747594389,6.818026312150936,,,,,,,,,,,,
21053,0,USKentuckyClinton,Kentucky,Clinton,2022-04-28 09:13:11,2021-09-12,2.414807361600576,3.944144747594389,6.818026312150936,,,,,,,,,,,,
21053,0,USKentuckyClinton,Kentucky,Clinton,2022-04-28 09:13:11,2021-09-13,2.414807361600576,3.944144747594389,6.818026312150936,,,,,,,,,,,,
21053,0,USKentuckyClinton,Kentucky,Clinton,2022-04-28 09:13:11,2021-09-14,2.414807361600576,3.944144747594389,6.818026312150936,,,,,,,,,,,,
21053,0,USKentuckyClinton,Kentucky,Clinton,2022-04-28 09:13:11,2021-09-15,2.414807361600576,3.944144747594389,6.818026312150936,,,,,,,,,,,,
21053,0,USKentuckyClinton,Kentucky,Clinton,2022-04-28 09:13:11,2021-09-16,2.708478180001686,4.392116502667539,7.533062792928711,,,,,,,,,,,,
21053,0,USKentuckyClinton,Kentucky,Clinton,2022-04-28 09:13:11,2021-09-17,2.708478180001686,4.392116502667539,7.533062792928711,,,,,,,,,,,,
21053,0,USKentuckyClinton,Kentucky,Clinton,2022-04-28 09:13:11,2021-09-18,2.708478180001686,4.392116502667539,7.533062792928711,,,,,,,,,,,,
21053,0,USKentuckyClinton,Kentucky,Clinton,2022-04-28 09:13:11,2021-09-19,2.708478180001686,4.392116502667539,7.533062792928711,,,,,,,,,,,,
21053,0,USKentuckyClinton,Kentucky,Clinton,2022-04-28 09:13:11,2021-09-20,2.708478180001686,4.392116502667539,7.533062792928711,,,,,,,,,,,,
21053,0,USKentuckyClinton,Kentucky,Clinton,2022-04-28 09:13:11,2021-09-21,2.708478180001686,4.392116502667539,7.533062792928711,,,,,,,,,,,,
21053,0,USKentuckyClinton,Kentucky,Clinton,2022-04-28 09:13:11,2021-09-22,2.708478180001686,4.392116502667539,7.533062792928711,,,,,,,,,,,,
21053,0,USKentuckyClinton,Kentucky,Clinton,2022-04-28 09:13:11,2021-09-23,2.70722006145347,4.287496544969567,7.165538118355899,,,,,,,,,,,,
21053,0,USKentuckyClinton,Kentucky,Clinton,2022-04-28 09:13:11,2021-09-24,2.70722006145347,4.287496544969567,7.165538118355899,,,,,,,,,,,,
21053,0,USKentuckyClinton,Kentucky,Clinton,2022-04-28 09:13:11,2021-09-25,2.70722006145347,4.287496544969567,7.165538118355899,,,,,,,,,,,,
21053,0,USKentuckyClinton,Kentucky,Clinton,2022-04-28 09:13:11,2021-09-26,2.70722006145347,4.287496544969567,7.165538118355899,,,,,,,,,,,,
21053,0,USKentuckyClinton,Kentucky,Clinton,2022-04-28 09:13:11,2021-09-27,2.70722006145347,4.287496544969567,7.165538118355899,,,,,,,,,,,,
21053,0,USKentuckyClinton,Kentucky,Clinton,2022-04-28 09:13:11,2021-09-28,2.70722006145347,4.287496544969567,7.165538118355899,,,,,,,,,,,,
21053,0,USKentuckyClinton,Kentucky,Clinton,2022-04-28 09:13:11,2021-09-29,2.70722006145347,4.287496544969567,7.165538118355899,,,,,,,,,,,,
21053,0,USKentuckyClinton,Kentucky,Clinton,2022-04-28 09:13:11,2021-09-30,1.4380907075562122,2.586028111029779,4.9586672969285335,,,,,,,,,,,,
21053,0,USKentuckyClinton,Kentucky,Clinton,2022-04-28 09:13:11,2021-10-01,1.4380907075562122,2.586028111029779,4.9586672969285335,,,,,,,,,,,,
21053,0,USKentuckyClinton,Kentucky,Clinton,2022-04-28 09:13:11,2021-10-02,1.4380907075562122,2.586028111029779,4.9586672969285335,,,,,,,,,,,,
21053,0,USKentuckyClinton,Kentucky,Clinton,2022-04-28 09:13:11,2021-10-03,1.4380907075562122,2.586028111029779,4.9586672969285335,,,,,,,,,,,,
21053,0,USKentuckyClinton,Kentucky,Clinton,2022-04-28 09:13:11,2021-10-04,1.4380907075562122,2.586028111029779,4.9586672969285335,,,,,,,,,,,,
21053,0,USKentuckyClinton,Kentucky,Clinton,2022-04-28 09:13:11,2021-10-05,1.4380907075562122,2.586028111029779,4.9586672969285335,,,,,,,,,,,,
21053,0,USKentuckyClinton,Kentucky,Clinton,2022-04-28 09:13:11,2021-10-06,1.4380907075562122,2.586028111029779,4.9586672969285335,,,,,,,,,,,,
21053,0,USKentuckyClinton,Kentucky,Clinton,2022-04-28 09:13:11,2021-10-07,2.0938752006749226,3.359727353229304,5.696053768381773,,,,,,,,,,,,
21053,0,USKentuckyClinton,Kentucky,Clinton,2022-04-28 09:13:11,2021-10-08,2.0938752006749226,3.359727353229304,5.696053768381773,,,,,,,,,,,,
21053,0,USKentuckyClinton,Kentucky,Clinton,2022-04-28 09:13:11,2021-10-09,2.0938752006749226,3.359727353229304,5.696053768381773,,,,,,,,,,,,
21053,0,USKentuckyClinton,Kentucky,Clinton,2022-04-28 09:13:11,2021-10-10,2.0938752006749226,3.359727353229304,5.696053768381773,,,,,,,,,,,,
21053,0,USKentuckyClinton,Kentucky,Clinton,2022-04-28 09:13:11,2021-10-11,2.0938752006749226,3.359727353229304,5.696053768381773,,,,,,,,,,,,
21053,0,USKentuckyClinton,Kentucky,Clinton,2022-04-28 09:13:11,2021-10-12,2.0938752006749226,3.359727353229304,5.696053768381773,,,,,,,,,,,,
21053,0,USKentuckyClinton,Kentucky,Clinton,2022-04-28 09:13:11,2021-10-13,2.0938752006749226,3.359727353229304,5.696053768381773,,,,,,,,,,,,
21053,0,USKentuckyClinton,Kentucky,Clinton,2022-04-28 09:13:11,2021-10-14,1.103942359014711,2.011275964815746,3.910582423864301,,,,,,,,,,,,
21053,0,USKentuckyClinton,Kentucky,Clinton,2022-04-28 09:13:11,2021-10-15,1.103942359014711,2.011275964815746,3.910582423864301,,,,,,,,,,,,
21053,0,USKentuckyClinton,Kentucky,Clinton,2022-04-28 09:13:11,2021-10-16,1.103942359014711,2.011275964815746,3.910582423864301,,,,,,,,,,,,
21053,0,USKentuckyClinton,Kentucky,Clinton,2022-04-28 09:13:11,2021-10-17,1.103942359014711,2.011275964815746,3.910582423864301,,,,,,,,,,,,
21053,0,USKentuckyClinton,Kentucky,Clinton,2022-04-28 09:13:11,2021-10-18,1.103942359014711,2.011275964815746,3.910582423864301,,,,,,,,,,,,
21053,0,USKentuckyClinton,Kentucky,Clinton,2022-04-28 09:13:11,2021-10-19,1.103942359014711,2.011275964815746,3.910582423864301,,,,,,,,,,,,
21053,0,USKentuckyClinton,Kentucky,Clinton,2022-04-28 09:13:11,2021-10-20,1.103942359014711,2.011275964815746,3.910582423864301,,,,,,,,,,,,
21053,0,USKentuckyClinton,Kentucky,Clinton,2022-04-28 09:13:11,2021-10-21,1.9186724605464163,2.929919315079679,4.703598630033557,,,,,,,,,,,,
21053,0,USKentuckyClinton,Kentucky,Clinton,2022-04-28 09:13:11,2021-10-22,1.9186724605464163,2.929919315079679,4.703598630033557,,,,,,,,,,,,
21053,0,USKentuckyClinton,Kentucky,Clinton,2022-04-28 09:13:11,2021-10-23,1.9186724605464163,2.929919315079679,4.703598630033557,,,,,,,,,,,,
21053,0,USKentuckyClinton,Kentucky,Clinton,2022-04-28 09:13:11,2021-10-24,1.9186724605464163,2.929919315079679,4.703598630033557,,,,,,,,,,,,
21053,0,USKentuckyClinton,Kentucky,Clinton,2022-04-28 09:13:11,2021-10-25,1.9186724605464163,2.929919315079679,4.703598630033557,,,,,,,,,,,,
21053,0,USKentuckyClinton,Kentucky,Clinton,2022-04-28 09:13:11,2021-10-26,1.9186724605464163,2.929919315079679,4.703598630033557,,,,,,,,,,,,
21053,0,USKentuckyClinton,Kentucky,Clinton,2022-04-28 09:13:11,2021-10-27,1.9186724605464163,2.929919315079679,4.703598630033557,,,,,,,,,,,,
21053,0,USKentuckyClinton,Kentucky,Clinton,2022-04-28 09:13:11,2021-10-28,1.9800973993745117,2.97417268283243,4.687804984947162,,,,,,,,,,,,
21053,0,USKentuckyClinton,Kentucky,Clinton,2022-04-28 09:13:11,2021-10-29,1.9800973993745117,2.97417268283243,4.687804984947162,,,,,,,,,,,,
21053,0,USKentuckyClinton,Kentucky,Clinton,2022-04-28 09:13:11,2021-10-30,1.9800973993745117,2.97417268283243,4.687804984947162,,,,,,,,,,,,
21053,0,USKentuckyClinton,Kentucky,Clinton,2022-04-28 09:13:11,2021-10-31,1.9800973993745117,2.97417268283243,4.687804984947162,,,,,,,,,,,,
21053,0,USKentuckyClinton,Kentucky,Clinton,2022-04-28 09:13:11,2021-11-01,1.9800973993745117,2.97417268283243,4.687804984947162,,,,,,,,,,,,
21053,0,USKentuckyClinton,Kentucky,Clinton,2022-04-28 09:13:11,2021-11-02,1.9800973993745117,2.97417268283243,4.687804984947162,,,,,,,,,,,,
21053,0,USKentuckyClinton,Kentucky,Clinton,2022-04-28 09:13:11,2021-11-03,1.9800973993745117,2.97417268283243,4.687804984947162,,,,,,,,,,,,
21053,0,USKentuckyClinton,Kentucky,Clinton,2022-04-28 09:13:11,2021-11-04,1.9157574703027,2.9214042305829873,4.682704697864394,,,,,,,,,,,,
21053,0,USKentuckyClinton,Kentucky,Clinton,2022-04-28 09:13:11,2021-11-05,1.9157574703027,2.9214042305829873,4.682704697864394,,,,,,,,,,,,
21053,0,USKentuckyClinton,Kentucky,Clinton,2022-04-28 09:13:11,2021-11-06,1.9157574703027,2.9214042305829873,4.682704697864394,,,,,,,,,,,,
21053,0,USKentuckyClinton,Kentucky,Clinton,2022-04-28 09:13:11,2021-11-07,1.9157574703027,2.9214042305829873,4.682704697864394,,,,,,,,,,,,
21053,0,USKentuckyClinton,Kentucky,Clinton,2022-04-28 09:13:11,2021-11-08,1.9157574703027,2.9214042305829873,4.682704697864394,,,,,,,,,,,,
21053,0,USKentuckyClinton,Kentucky,Clinton,2022-04-28 09:13:11,2021-11-09,1.9157574703027,2.9214042305829873,4.682704697864394,,,,,,,,,,,,
21053,0,USKentuckyClinton,Kentucky,Clinton,2022-04-28 09:13:11,2021-11-10,1.9157574703027,2.9214042305829873,4.682704697864394,,,,,,,,,,,,
21053,0,USKentuckyClinton,Kentucky,Clinton,2022-04-28 09:13:11,2021-11-11,1.0805932973783623,1.9305819751436588,3.676318545377842,,,,,,,,,,,,
21053,0,USKentuckyClinton,Kentucky,Clinton,2022-04-28 09:13:11,2021-11-12,1.0805932973783623,1.9305819751436588,3.676318545377842,,,,,,,,,,,,
21053,0,USKentuckyClinton,Kentucky,Clinton,2022-04-28 09:13:11,2021-11-13,1.0805932973783623,1.9305819751436588,3.676318545377842,,,,,,,,,,,,
21053,0,USKentuckyClinton,Kentucky,Clinton,2022-04-28 09:13:11,2021-11-14,1.0805932973783623,1.9305819751436588,3.676318545377842,,,,,,,,,,,,
21053,0,USKentuckyClinton,Kentucky,Clinton,2022-04-28 09:13:11,2021-11-15,1.0805932973783623,1.9305819751436588,3.676318545377842,,,,,,,,,,,,
21053,0,USKentuckyClinton,Kentucky,Clinton,2022-04-28 09:13:11,2021-11-16,1.0805932973783623,1.9305819751436588,3.676318545377842,,,,,,,,,,,,
21053,0,USKentuckyClinton,Kentucky,Clinton,2022-04-28 09:13:11,2021-11-17,1.0805932973783623,1.9305819751436588,3.676318545377842,,,,,,,,,,,,
21053,0,USKentuckyClinton,Kentucky,Clinton,2022-04-28 09:13:11,2021-11-18,1.3780815643347493,2.3255753803963732,4.165291916737376,,,,,,,,,,,,
21053,0,USKentuckyClinton,Kentucky,Clinton,2022-04-28 09:13:11,2021-11-19,1.3780815643347493,2.3255753803963732,4.165291916737376,,,,,,,,,,,,
21053,0,USKentuckyClinton,Kentucky,Clinton,2022-04-28 09:13:11,2021-11-20,1.3780815643347493,2.3255753803963732,4.165291916737376,,,,,,,,,,,,
21053,0,USKentuckyClinton,Kentucky,Clinton,2022-04-28 09:13:11,2021-11-21,1.3780815643347493,2.3255753803963732,4.165291916737376,,,,,,,,,,,,
21053,0,USKentuckyClinton,Kentucky,Clinton,2022-04-28 09:13:11,2021-11-22,1.3780815643347493,2.3255753803963732,4.165291916737376,,,,,,,,,,,,
21053,0,USKentuckyClinton,Kentucky,Clinton,2022-04-28 09:13:11,2021-11-23,1.3780815643347493,2.3255753803963732,4.165291916737376,,,,,,,,,,,,
21053,0,USKentuckyClinton,Kentucky,Clinton,2022-04-28 09:13:11,2021-11-24,1.3780815643347493,2.3255753803963732,4.165291916737376,,,,,,,,,,,,
21053,0,USKentuckyClinton,Kentucky,Clinton,2022-04-28 09:13:11,2021-11-25,1.9111715325397012,3.15385029608111,5.513372208401367,,,,,,,,,,,,
21053,0,USKentuckyClinton,Kentucky,Clinton,2022-04-28 09:13:11,2021-11-26,1.9111715325397012,3.15385029608111,5.513372208401367,,,,,,,,,,,,
21053,0,USKentuckyClinton,Kentucky,Clinton,2022-04-28 09:13:11,2021-11-27,1.9111715325397012,3.15385029608111,5.513372208401367,,,,,,,,,,,,
21053,0,USKentuckyClinton,Kentucky,Clinton,2022-04-28 09:13:11,2021-11-28,1.9111715325397012,3.15385029608111,5.513372208401367,,,,,,,,,,,,
21053,0,USKentuckyClinton,Kentucky,Clinton,2022-04-28 09:13:11,2021-11-29,1.9111715325397012,3.15385029608111,5.513372208401367,,,,,,,,,,,,
21053,0,USKentuckyClinton,Kentucky,Clinton,2022-04-28 09:13:11,2021-11-30,1.9111715325397012,3.15385029608111,5.513372208401367,,,,,,,,,,,,
21053,0,USKentuckyClinton,Kentucky,Clinton,2022-04-28 09:13:11,2021-12-01,1.9111715325397012,3.15385029608111,5.513372208401367,,,,,,,,,,,,
21053,0,USKentuckyClinton,Kentucky,Clinton,2022-04-28 09:13:11,2021-12-02,2.297034275389198,3.681596883446344,6.2341239978561385,,,,,,,,,,,,
21053,0,USKentuckyClinton,Kentucky,Clinton,2022-04-28 09:13:11,2021-12-03,2.297034275389198,3.681596883446344,6.2341239978561385,,,,,,,,,,,,
21053,0,USKentuckyClinton,Kentucky,Clinton,2022-04-28 09:13:11,2021-12-04,2.297034275389198,3.681596883446344,6.2341239978561385,,,,,,,,,,,,
21053,0,USKentuckyClinton,Kentucky,Clinton,2022-04-28 09:13:11,2021-12-05,2.297034275389198,3.681596883446344,6.2341239978561385,,,,,,,,,,,,
21053,0,USKentuckyClinton,Kentucky,Clinton,2022-04-28 09:13:11,2021-12-06,2.297034275389198,3.681596883446344,6.2341239978561385,,,,,,,,,,,,
21053,0,USKentuckyClinton,Kentucky,Clinton,2022-04-28 09:13:11,2021-12-07,2.297034275389198,3.681596883446344,6.2341239978561385,,,,,,,,,,,,
21053,0,USKentuckyClinton,Kentucky,Clinton,2022-04-28 09:13:11,2021-12-08,2.297034275389198,3.681596883446344,6.2341239978561385,,,,,,,,,,,,
21053,0,USKentuckyClinton,Kentucky,Clinton,2022-04-28 09:13:11,2021-12-09,2.1182415530924743,3.4350864526433886,5.891831980379276,,,,,,,,,,,,
21053,0,USKentuckyClinton,Kentucky,Clinton,2022-04-28 09:13:11,2021-12-10,2.1182415530924743,3.4350864526433886,5.891831980379276,,,,,,,,,,,,
21053,0,USKentuckyClinton,Kentucky,Clinton,2022-04-28 09:13:11,2021-12-11,2.1182415530924743,3.4350864526433886,5.891831980379276,,,,,,,,,,,,
21053,0,USKentuckyClinton,Kentucky,Clinton,2022-04-28 09:13:11,2021-12-12,2.1182415530924743,3.4350864526433886,5.891831980379276,,,,,,,,,,,,
21053,0,USKentuckyClinton,Kentucky,Clinton,2022-04-28 09:13:11,2021-12-13,2.1182415530924743,3.4350864526433886,5.891831980379276,,,,,,,,,,,,
21053,0,USKentuckyClinton,Kentucky,Clinton,2022-04-28 09:13:11,2021-12-14,2.1182415530924743,3.4350864526433886,5.891831980379276,,,,,,,,,,,,
21053,0,USKentuckyClinton,Kentucky,Clinton,2022-04-28 09:13:11,2021-12-15,2.1182415530924743,3.4350864526433886,5.891831980379276,,,,,,,,,,,,
21053,0,USKentuckyClinton,Kentucky,Clinton,2022-04-28 09:13:11,2021-12-16,1.4983104984019293,2.66578965621595,5.053911488979444,,,,,,,,,,,,
21053,0,USKentuckyClinton,Kentucky,Clinton,2022-04-28 09:13:11,2021-12-17,1.4983104984019293,2.66578965621595,5.053911488979444,,,,,,,,,,,,
21053,0,USKentuckyClinton,Kentucky,Clinton,2022-04-28 09:13:11,2021-12-18,1.4983104984019293,2.66578965621595,5.053911488979444,,,,,,,,,,,,
21053,0,USKentuckyClinton,Kentucky,Clinton,2022-04-28 09:13:11,2021-12-19,1.4983104984019293,2.66578965621595,5.053911488979444,,,,,,,,,,,,
21053,0,USKentuckyClinton,Kentucky,Clinton,2022-04-28 09:13:11,2021-12-20,1.4983104984019293,2.66578965621595,5.053911488979444,,,,,,,,,,,,
21053,0,USKentuckyClinton,Kentucky,Clinton,2022-04-28 09:13:11,2021-12-21,1.4983104984019293,2.66578965621595,5.053911488979444,,,,,,,,,,,,
21053,0,USKentuckyClinton,Kentucky,Clinton,2022-04-28 09:13:11,2021-12-22,1.4983104984019293,2.66578965621595,5.053911488979444,,,,,,,,,,,,
21053,0,USKentuckyClinton,Kentucky,Clinton,2022-04-28 09:13:11,2021-12-23,1.5189581492865023,2.8715210962500124,5.805467338111521,,,,,,,,,,,,
21053,0,USKentuckyClinton,Kentucky,Clinton,2022-04-28 09:13:11,2021-12-24,1.5189581492865023,2.8715210962500124,5.805467338111521,,,,,,,,,,,,
21053,0,USKentuckyClinton,Kentucky,Clinton,2022-04-28 09:13:11,2021-12-25,1.5189581492865023,2.8715210962500124,5.805467338111521,,,,,,,,,,,,
21053,0,USKentuckyClinton,Kentucky,Clinton,2022-04-28 09:13:11,2021-12-26,1.5189581492865023,2.8715210962500124,5.805467338111521,,,,,,,,,,,,
21053,0,USKentuckyClinton,Kentucky,Clinton,2022-04-28 09:13:11,2021-12-27,1.5189581492865023,2.8715210962500124,5.805467338111521,,,,,,,,,,,,
21053,0,USKentuckyClinton,Kentucky,Clinton,2022-04-28 09:13:11,2021-12-28,1.5189581492865023,2.8715210962500124,5.805467338111521,,,,,,,,,,,,
21053,0,USKentuckyClinton,Kentucky,Clinton,2022-04-28 09:13:11,2021-12-29,1.5189581492865023,2.8715210962500124,5.805467338111521,,,,,,,,,,,,
21053,0,USKentuckyClinton,Kentucky,Clinton,2022-04-28 09:13:11,2021-12-30,1.4175248804611045,3.1380048077362375,7.46942223673088,,,,,,,,,,,,
21053,0,USKentuckyClinton,Kentucky,Clinton,2022-04-28 09:13:11,2021-12-31,1.4175248804611045,3.1380048077362375,7.46942223673088,,,,,,,,,,,,
21053,0,USKentuckyClinton,Kentucky,Clinton,2022-04-28 09:13:11,2022-01-01,1.4175248804611045,3.1380048077362375,7.46942223673088,,,,,,,,,,,,
21053,0,USKentuckyClinton,Kentucky,Clinton,2022-04-28 09:13:11,2022-01-02,1.4175248804611045,3.1380048077362375,7.46942223673088,,,,,,,,,,,,
21053,0,USKentuckyClinton,Kentucky,Clinton,2022-04-28 09:13:11,2022-01-03,1.4175248804611045,3.1380048077362375,7.46942223673088,,,,,,,,,,,,
21053,0,USKentuckyClinton,Kentucky,Clinton,2022-04-28 09:13:11,2022-01-04,1.4175248804611045,3.1380048077362375,7.46942223673088,,,,,,,,,,,,
21053,0,USKentuckyClinton,Kentucky,Clinton,2022-04-28 09:13:11,2022-01-05,1.4175248804611045,3.1380048077362375,7.46942223673088,,,,,,,,,,,,
21053,0,USKentuckyClinton,Kentucky,Clinton,2022-04-28 09:13:11,2022-01-06,2.5828330930694965,5.022195080493481,10.458004307964083,,,,,,,,,,,,
21053,0,USKentuckyClinton,Kentucky,Clinton,2022-04-28 09:13:11,2022-01-07,2.5828330930694965,5.022195080493481,10.458004307964083,,,,,,,,,,,,
21053,0,USKentuckyClinton,Kentucky,Clinton,2022-04-28 09:13:11,2022-01-08,2.5828330930694965,5.022195080493481,10.458004307964083,,,,,,,,,,,,
21053,0,USKentuckyClinton,Kentucky,Clinton,2022-04-28 09:13:11,2022-01-09,2.5828330930694965,5.022195080493481,10.458004307964083,,,,,,,,,,,,
21053,0,USKentuckyClinton,Kentucky,Clinton,2022-04-28 09:13:11,2022-01-10,2.5828330930694965,5.022195080493481,10.458004307964083,,,,,,,,,,,,
21053,0,USKentuckyClinton,Kentucky,Clinton,2022-04-28 09:13:11,2022-01-11,2.5828330930694965,5.022195080493481,10.458004307964083,,,,,,,,,,,,
21053,0,USKentuckyClinton,Kentucky,Clinton,2022-04-28 09:13:11,2022-01-12,2.5828330930694965,5.022195080493481,10.458004307964083,,,,,,,,,,,,
21053,0,USKentuckyClinton,Kentucky,Clinton,2022-04-28 09:13:11,2022-01-13,4.416493465006999,7.554575295338544,13.730062423434635,,,,,,,,,,,,
21053,0,USKentuckyClinton,Kentucky,Clinton,2022-04-28 09:13:11,2022-01-14,4.416493465006999,7.554575295338544,13.730062423434635,,,,,,,,,,,,
21053,0,USKentuckyClinton,Kentucky,Clinton,2022-04-28 09:13:11,2022-01-15,4.416493465006999,7.554575295338544,13.730062423434635,,,,,,,,,,,,
21053,0,USKentuckyClinton,Kentucky,Clinton,2022-04-28 09:13:11,2022-01-16,4.416493465006999,7.554575295338544,13.730062423434635,,,,,,,,,,,,
21053,0,USKentuckyClinton,Kentucky,Clinton,2022-04-28 09:13:11,2022-01-17,4.416493465006999,7.554575295338544,13.730062423434635,,,,,,,,,,,,
21053,0,USKentuckyClinton,Kentucky,Clinton,2022-04-28 09:13:11,2022-01-18,4.416493465006999,7.554575295338544,13.730062423434635,,,,,,,,,,,,
21053,0,USKentuckyClinton,Kentucky,Clinton,2022-04-28 09:13:11,2022-01-19,4.416493465006999,7.554575295338544,13.730062423434635,,,,,,,,,,,,
21053,0,USKentuckyClinton,Kentucky,Clinton,2022-04-28 09:13:11,2022-01-20,7.552494562886508,11.589793096246195,18.707300000578737,,,,,,,,,,,,
21053,0,USKentuckyClinton,Kentucky,Clinton,2022-04-28 09:13:11,2022-01-21,7.552494562886508,11.589793096246195,18.707300000578737,,,,,,,,,,,,
21053,0,USKentuckyClinton,Kentucky,Clinton,2022-04-28 09:13:11,2022-01-22,7.552494562886508,11.589793096246195,18.707300000578737,,,,,,,,,,,,
21053,0,USKentuckyClinton,Kentucky,Clinton,2022-04-28 09:13:11,2022-01-23,7.552494562886508,11.589793096246195,18.707300000578737,,,,,,,,,,,,
21053,0,USKentuckyClinton,Kentucky,Clinton,2022-04-28 09:13:11,2022-01-24,7.552494562886508,11.589793096246195,18.707300000578737,,,,,,,,,,,,
21053,0,USKentuckyClinton,Kentucky,Clinton,2022-04-28 09:13:11,2022-01-25,7.552494562886508,11.589793096246195,18.707300000578737,,,,,,,,,,,,
21053,0,USKentuckyClinton,Kentucky,Clinton,2022-04-28 09:13:11,2022-01-26,7.552494562886508,11.589793096246195,18.707300000578737,,,,,,,,,,,,
21053,0,USKentuckyClinton,Kentucky,Clinton,2022-04-28 09:13:11,2022-01-27,5.402044080391071,8.89499872648371,15.51259147966675,,,,,,,,,,,,
21053,0,USKentuckyClinton,Kentucky,Clinton,2022-04-28 09:13:11,2022-01-28,5.402044080391071,8.89499872648371,15.51259147966675,,,,,,,,,,,,
21053,0,USKentuckyClinton,Kentucky,Clinton,2022-04-28 09:13:11,2022-01-29,5.402044080391071,8.89499872648371,15.51259147966675,,,,,,,,,,,,
21053,0,USKentuckyClinton,Kentucky,Clinton,2022-04-28 09:13:11,2022-01-30,5.402044080391071,8.89499872648371,15.51259147966675,,,,,,,,,,,,
21053,0,USKentuckyClinton,Kentucky,Clinton,2022-04-28 09:13:11,2022-01-31,5.402044080391071,8.89499872648371,15.51259147966675,,,,,,,,,,,,
21053,0,USKentuckyClinton,Kentucky,Clinton,2022-04-28 09:13:11,2022-02-01,5.402044080391071,8.89499872648371,15.51259147966675,,,,,,,,,,,,
21053,0,USKentuckyClinton,Kentucky,Clinton,2022-04-28 09:13:11,2022-02-02,5.402044080391071,8.89499872648371,15.51259147966675,,,,,,,,,,,,
21053,0,USKentuckyClinton,Kentucky,Clinton,2022-04-28 09:13:11,2022-02-03,2.825888246800829,5.475418883696018,11.359706126411869,,,,,,,,,,,,
21053,0,USKentuckyClinton,Kentucky,Clinton,2022-04-28 09:13:11,2022-02-04,2.825888246800829,5.475418883696018,11.359706126411869,,,,,,,,,,,,
21053,0,USKentuckyClinton,Kentucky,Clinton,2022-04-28 09:13:11,2022-02-05,2.825888246800829,5.475418883696018,11.359706126411869,,,,,,,,,,,,
21053,0,USKentuckyClinton,Kentucky,Clinton,2022-04-28 09:13:11,2022-02-06,2.825888246800829,5.475418883696018,11.359706126411869,,,,,,,,,,,,
21053,0,USKentuckyClinton,Kentucky,Clinton,2022-04-28 09:13:11,2022-02-07,2.825888246800829,5.475418883696018,11.359706126411869,,,,,,,,,,,,
21053,0,USKentuckyClinton,Kentucky,Clinton,2022-04-28 09:13:11,2022-02-08,2.825888246800829,5.475418883696018,11.359706126411869,,,,,,,,,,,,
21053,0,USKentuckyClinton,Kentucky,Clinton,2022-04-28 09:13:11,2022-02-09,2.825888246800829,5.475418883696018,11.359706126411869,,,,,,,,,,,,
21053,0,USKentuckyClinton,Kentucky,Clinton,2022-04-28 09:13:11,2022-02-10,3.379694128860307,5.7142814997729,10.255882296723264,,,,,,,,,,,,
21053,0,USKentuckyClinton,Kentucky,Clinton,2022-04-28 09:13:11,2022-02-11,3.379694128860307,5.7142814997729,10.255882296723264,,,,,,,,,,,,
21053,0,USKentuckyClinton,Kentucky,Clinton,2022-04-28 09:13:11,2022-02-12,3.379694128860307,5.7142814997729,10.255882296723264,,,,,,,,,,,,
21053,0,USKentuckyClinton,Kentucky,Clinton,2022-04-28 09:13:11,2022-02-13,3.379694128860307,5.7142814997729,10.255882296723264,,,,,,,,,,,,
21053,0,USKentuckyClinton,Kentucky,Clinton,2022-04-28 09:13:11,2022-02-14,3.379694128860307,5.7142814997729,10.255882296723264,,,,,,,,,,,,
21053,0,USKentuckyClinton,Kentucky,Clinton,2022-04-28 09:13:11,2022-02-15,3.379694128860307,5.7142814997729,10.255882296723264,,,,,,,,,,,,
21053,0,USKentuckyClinton,Kentucky,Clinton,2022-04-28 09:13:11,2022-02-16,3.379694128860307,5.7142814997729,10.255882296723264,,,,,,,,,,,,
21053,0,USKentuckyClinton,Kentucky,Clinton,2022-04-28 09:13:11,2022-02-17,2.3251320825600086,4.107129564066599,7.726653702605603,,,,,,,,,,,,
21053,0,USKentuckyClinton,Kentucky,Clinton,2022-04-28 09:13:11,2022-02-18,2.3251320825600086,4.107129564066599,7.726653702605603,,,,,,,,,,,,
21053,0,USKentuckyClinton,Kentucky,Clinton,2022-04-28 09:13:11,2022-02-19,2.3251320825600086,4.107129564066599,7.726653702605603,,,,,,,,,,,,
21053,0,USKentuckyClinton,Kentucky,Clinton,2022-04-28 09:13:11,2022-02-20,2.3251320825600086,4.107129564066599,7.726653702605603,,,,,,,,,,,,
21053,0,USKentuckyClinton,Kentucky,Clinton,2022-04-28 09:13:11,2022-02-21,2.3251320825600086,4.107129564066599,7.726653702605603,,,,,,,,,,,,
21053,0,USKentuckyClinton,Kentucky,Clinton,2022-04-28 09:13:11,2022-02-22,2.3251320825600086,4.107129564066599,7.726653702605603,,,,,,,,,,,,
21053,0,USKentuckyClinton,Kentucky,Clinton,2022-04-28 09:13:11,2022-02-23,2.3251320825600086,4.107129564066599,7.726653702605603,,,,,,,,,,,,
21053,0,USKentuckyClinton,Kentucky,Clinton,2022-04-28 09:13:11,2022-02-24,1.8731175722154678,3.2565607311403135,6.023105270557565,,,,,,,,,,,,
21053,0,USKentuckyClinton,Kentucky,Clinton,2022-04-28 09:13:11,2022-02-25,1.8731175722154678,3.2565607311403135,6.023105270557565,,,,,,,,,,,,
21053,0,USKentuckyClinton,Kentucky,Clinton,2022-04-28 09:13:11,2022-02-26,1.8731175722154678,3.2565607311403135,6.023105270557565,,,,,,,,,,,,
21053,0,USKentuckyClinton,Kentucky,Clinton,2022-04-28 09:13:11,2022-02-27,1.8731175722154678,3.2565607311403135,6.023105270557565,,,,,,,,,,,,
21053,0,USKentuckyClinton,Kentucky,Clinton,2022-04-28 09:13:11,2022-02-28,1.8731175722154678,3.2565607311403135,6.023105270557565,,,,,,,,,,,,
21053,0,USKentuckyClinton,Kentucky,Clinton,2022-04-28 09:13:11,2022-03-01,1.8731175722154678,3.2565607311403135,6.023105270557565,,,,,,,,,,,,
21053,0,USKentuckyClinton,Kentucky,Clinton,2022-04-28 09:13:11,2022-03-02,1.8731175722154678,3.2565607311403135,6.023105270557565,,,,,,,,,,,,
21053,0,USKentuckyClinton,Kentucky,Clinton,2022-04-28 09:13:11,2022-03-03,1.2932611148198763,2.4101125309616758,4.7996626497916886,,,,,,,,,,,,
21053,0,USKentuckyClinton,Kentucky,Clinton,2022-04-28 09:13:11,2022-03-04,1.2932611148198763,2.4101125309616758,4.7996626497916886,,,,,,,,,,,,
21053,0,USKentuckyClinton,Kentucky,Clinton,2022-04-28 09:13:11,2022-03-05,1.2932611148198763,2.4101125309616758,4.7996626497916886,,,,,,,,,,,,
21053,0,USKentuckyClinton,Kentucky,Clinton,2022-04-28 09:13:11,2022-03-06,1.2932611148198763,2.4101125309616758,4.7996626497916886,,,,,,,,,,,,
21053,0,USKentuckyClinton,Kentucky,Clinton,2022-04-28 09:13:11,2022-03-07,1.2932611148198763,2.4101125309616758,4.7996626497916886,,,,,,,,,,,,
21053,0,USKentuckyClinton,Kentucky,Clinton,2022-04-28 09:13:11,2022-03-08,1.2932611148198763,2.4101125309616758,4.7996626497916886,,,,,,,,,,,,
21053,0,USKentuckyClinton,Kentucky,Clinton,2022-04-28 09:13:11,2022-03-09,1.2932611148198763,2.4101125309616758,4.7996626497916886,,,,,,,,,,,,
