FIPS,HR_UID,nameid,province,region,analysisTime,dates,pointprevalence_025,pointprevalence_50,pointprevalence_975,pointinfections_025,pointinfections_50,pointinfections_975,pointinfectious_025,pointinfectious_50,pointinfectious_975,pointinfectiousprevalence_025,pointinfectiousprevalence_50,pointinfectiousprevalence_975,infectrate_025,infectrate_50,infectrate_975
48235,0,USTexasIrion,Texas,Irion,2022-04-28 09:13:11,2020-03-19,0,0,0,,,,,,,,,,,,
48235,0,USTexasIrion,Texas,Irion,2022-04-28 09:13:11,2020-03-20,0,0,0,,,,,,,,,,,,
48235,0,USTexasIrion,Texas,Irion,2022-04-28 09:13:11,2020-03-21,0,0,0,,,,,,,,,,,,
48235,0,USTexasIrion,Texas,Irion,2022-04-28 09:13:11,2020-03-22,0,0,0,,,,,,,,,,,,
48235,0,USTexasIrion,Texas,Irion,2022-04-28 09:13:11,2020-03-23,0,0,0,,,,,,,,,,,,
48235,0,USTexasIrion,Texas,Irion,2022-04-28 09:13:11,2020-03-24,0,0,0,,,,,,,,,,,,
48235,0,USTexasIrion,Texas,Irion,2022-04-28 09:13:11,2020-03-25,0,0,0,,,,,,,,,,,,
48235,0,USTexasIrion,Texas,Irion,2022-04-28 09:13:11,2020-03-26,0,0,0,,,,,,,,,,,,
48235,0,USTexasIrion,Texas,Irion,2022-04-28 09:13:11,2020-03-27,0,0,0,,,,,,,,,,,,
48235,0,USTexasIrion,Texas,Irion,2022-04-28 09:13:11,2020-03-28,0,0,0,,,,,,,,,,,,
48235,0,USTexasIrion,Texas,Irion,2022-04-28 09:13:11,2020-03-29,0,0,0,,,,,,,,,,,,
48235,0,USTexasIrion,Texas,Irion,2022-04-28 09:13:11,2020-03-30,0,0,0,,,,,,,,,,,,
48235,0,USTexasIrion,Texas,Irion,2022-04-28 09:13:11,2020-03-31,0,0,0,,,,,,,,,,,,
48235,0,USTexasIrion,Texas,Irion,2022-04-28 09:13:11,2020-04-01,0,0,0,,,,,,,,,,,,
48235,0,USTexasIrion,Texas,Irion,2022-04-28 09:13:11,2020-04-02,0,0,0,,,,,,,,,,,,
48235,0,USTexasIrion,Texas,Irion,2022-04-28 09:13:11,2020-04-03,0,0,0,,,,,,,,,,,,
48235,0,USTexasIrion,Texas,Irion,2022-04-28 09:13:11,2020-04-04,0,0,0,,,,,,,,,,,,
48235,0,USTexasIrion,Texas,Irion,2022-04-28 09:13:11,2020-04-05,0,0,0,,,,,,,,,,,,
48235,0,USTexasIrion,Texas,Irion,2022-04-28 09:13:11,2020-04-06,0,0,0,,,,,,,,,,,,
48235,0,USTexasIrion,Texas,Irion,2022-04-28 09:13:11,2020-04-07,0,0,0,,,,,,,,,,,,
48235,0,USTexasIrion,Texas,Irion,2022-04-28 09:13:11,2020-04-08,0,0,0,,,,,,,,,,,,
48235,0,USTexasIrion,Texas,Irion,2022-04-28 09:13:11,2020-04-09,0,0,0,,,,,,,,,,,,
48235,0,USTexasIrion,Texas,Irion,2022-04-28 09:13:11,2020-04-10,0,0,0,,,,,,,,,,,,
48235,0,USTexasIrion,Texas,Irion,2022-04-28 09:13:11,2020-04-11,0,0,0,,,,,,,,,,,,
48235,0,USTexasIrion,Texas,Irion,2022-04-28 09:13:11,2020-04-12,0,0,0,,,,,,,,,,,,
48235,0,USTexasIrion,Texas,Irion,2022-04-28 09:13:11,2020-04-13,0,0,0,,,,,,,,,,,,
48235,0,USTexasIrion,Texas,Irion,2022-04-28 09:13:11,2020-04-14,0,0,0,,,,,,,,,,,,
48235,0,USTexasIrion,Texas,Irion,2022-04-28 09:13:11,2020-04-15,0,0,0,,,,,,,,,,,,
48235,0,USTexasIrion,Texas,Irion,2022-04-28 09:13:11,2020-04-16,0,0,0,,,,,,,,,,,,
48235,0,USTexasIrion,Texas,Irion,2022-04-28 09:13:11,2020-04-17,0,0,0,,,,,,,,,,,,
48235,0,USTexasIrion,Texas,Irion,2022-04-28 09:13:11,2020-04-18,0,0,0,,,,,,,,,,,,
48235,0,USTexasIrion,Texas,Irion,2022-04-28 09:13:11,2020-04-19,0,0,0,,,,,,,,,,,,
48235,0,USTexasIrion,Texas,Irion,2022-04-28 09:13:11,2020-04-20,0,0,0,,,,,,,,,,,,
48235,0,USTexasIrion,Texas,Irion,2022-04-28 09:13:11,2020-04-21,0,0,0,,,,,,,,,,,,
48235,0,USTexasIrion,Texas,Irion,2022-04-28 09:13:11,2020-04-22,0,0,0,,,,,,,,,,,,
48235,0,USTexasIrion,Texas,Irion,2022-04-28 09:13:11,2020-04-23,0,0,0,,,,,,,,,,,,
48235,0,USTexasIrion,Texas,Irion,2022-04-28 09:13:11,2020-04-24,0,0,0,,,,,,,,,,,,
48235,0,USTexasIrion,Texas,Irion,2022-04-28 09:13:11,2020-04-25,0,0,0,,,,,,,,,,,,
48235,0,USTexasIrion,Texas,Irion,2022-04-28 09:13:11,2020-04-26,0,0,0,,,,,,,,,,,,
48235,0,USTexasIrion,Texas,Irion,2022-04-28 09:13:11,2020-04-27,0,0,0,,,,,,,,,,,,
48235,0,USTexasIrion,Texas,Irion,2022-04-28 09:13:11,2020-04-28,0,0,0,,,,,,,,,,,,
48235,0,USTexasIrion,Texas,Irion,2022-04-28 09:13:11,2020-04-29,0,0,0,,,,,,,,,,,,
48235,0,USTexasIrion,Texas,Irion,2022-04-28 09:13:11,2020-04-30,0,0,0,,,,,,,,,,,,
48235,0,USTexasIrion,Texas,Irion,2022-04-28 09:13:11,2020-05-01,0,0,0,,,,,,,,,,,,
48235,0,USTexasIrion,Texas,Irion,2022-04-28 09:13:11,2020-05-02,0,0,0,,,,,,,,,,,,
48235,0,USTexasIrion,Texas,Irion,2022-04-28 09:13:11,2020-05-03,0,0,0,,,,,,,,,,,,
48235,0,USTexasIrion,Texas,Irion,2022-04-28 09:13:11,2020-05-04,0,0,0,,,,,,,,,,,,
48235,0,USTexasIrion,Texas,Irion,2022-04-28 09:13:11,2020-05-05,0,0,0,,,,,,,,,,,,
48235,0,USTexasIrion,Texas,Irion,2022-04-28 09:13:11,2020-05-06,0,0,0,,,,,,,,,,,,
48235,0,USTexasIrion,Texas,Irion,2022-04-28 09:13:11,2020-05-07,0,0,0,,,,,,,,,,,,
48235,0,USTexasIrion,Texas,Irion,2022-04-28 09:13:11,2020-05-08,0,0,0,,,,,,,,,,,,
48235,0,USTexasIrion,Texas,Irion,2022-04-28 09:13:11,2020-05-09,0,0,0,,,,,,,,,,,,
48235,0,USTexasIrion,Texas,Irion,2022-04-28 09:13:11,2020-05-10,0,0,0,,,,,,,,,,,,
48235,0,USTexasIrion,Texas,Irion,2022-04-28 09:13:11,2020-05-11,0,0,0,,,,,,,,,,,,
48235,0,USTexasIrion,Texas,Irion,2022-04-28 09:13:11,2020-05-12,0,0,0,,,,,,,,,,,,
48235,0,USTexasIrion,Texas,Irion,2022-04-28 09:13:11,2020-05-13,0,0,0,,,,,,,,,,,,
48235,0,USTexasIrion,Texas,Irion,2022-04-28 09:13:11,2020-05-14,0,0,0,,,,,,,,,,,,
48235,0,USTexasIrion,Texas,Irion,2022-04-28 09:13:11,2020-05-15,0,0,0,,,,,,,,,,,,
48235,0,USTexasIrion,Texas,Irion,2022-04-28 09:13:11,2020-05-16,0,0,0,,,,,,,,,,,,
48235,0,USTexasIrion,Texas,Irion,2022-04-28 09:13:11,2020-05-17,0,0,0,,,,,,,,,,,,
48235,0,USTexasIrion,Texas,Irion,2022-04-28 09:13:11,2020-05-18,0,0,0,,,,,,,,,,,,
48235,0,USTexasIrion,Texas,Irion,2022-04-28 09:13:11,2020-05-19,0,0,0,,,,,,,,,,,,
48235,0,USTexasIrion,Texas,Irion,2022-04-28 09:13:11,2020-05-20,0,0,0,,,,,,,,,,,,
48235,0,USTexasIrion,Texas,Irion,2022-04-28 09:13:11,2020-05-21,0,0,0,,,,,,,,,,,,
48235,0,USTexasIrion,Texas,Irion,2022-04-28 09:13:11,2020-05-22,0,0,0,,,,,,,,,,,,
48235,0,USTexasIrion,Texas,Irion,2022-04-28 09:13:11,2020-05-23,0,0,0,,,,,,,,,,,,
48235,0,USTexasIrion,Texas,Irion,2022-04-28 09:13:11,2020-05-24,0,0,0,,,,,,,,,,,,
48235,0,USTexasIrion,Texas,Irion,2022-04-28 09:13:11,2020-05-25,0,0,0,,,,,,,,,,,,
48235,0,USTexasIrion,Texas,Irion,2022-04-28 09:13:11,2020-05-26,0,0,0,,,,,,,,,,,,
48235,0,USTexasIrion,Texas,Irion,2022-04-28 09:13:11,2020-05-27,0,0,0,,,,,,,,,,,,
48235,0,USTexasIrion,Texas,Irion,2022-04-28 09:13:11,2020-05-28,0.47876994431001135,0.8022147247126438,1.4257973363485241,,,,,,,,,,,,
48235,0,USTexasIrion,Texas,Irion,2022-04-28 09:13:11,2020-05-29,0.47876994431001135,0.8022147247126438,1.4257973363485241,,,,,,,,,,,,
48235,0,USTexasIrion,Texas,Irion,2022-04-28 09:13:11,2020-05-30,0.47876994431001135,0.8022147247126438,1.4257973363485241,,,,,,,,,,,,
48235,0,USTexasIrion,Texas,Irion,2022-04-28 09:13:11,2020-05-31,0.47876994431001135,0.8022147247126438,1.4257973363485241,,,,,,,,,,,,
48235,0,USTexasIrion,Texas,Irion,2022-04-28 09:13:11,2020-06-01,0.47876994431001135,0.8022147247126438,1.4257973363485241,,,,,,,,,,,,
48235,0,USTexasIrion,Texas,Irion,2022-04-28 09:13:11,2020-06-02,0.47876994431001135,0.8022147247126438,1.4257973363485241,,,,,,,,,,,,
48235,0,USTexasIrion,Texas,Irion,2022-04-28 09:13:11,2020-06-03,0.47876994431001135,0.8022147247126438,1.4257973363485241,,,,,,,,,,,,
48235,0,USTexasIrion,Texas,Irion,2022-04-28 09:13:11,2020-06-04,0,0,0,,,,,,,,,,,,
48235,0,USTexasIrion,Texas,Irion,2022-04-28 09:13:11,2020-06-05,0,0,0,,,,,,,,,,,,
48235,0,USTexasIrion,Texas,Irion,2022-04-28 09:13:11,2020-06-06,0,0,0,,,,,,,,,,,,
48235,0,USTexasIrion,Texas,Irion,2022-04-28 09:13:11,2020-06-07,0,0,0,,,,,,,,,,,,
48235,0,USTexasIrion,Texas,Irion,2022-04-28 09:13:11,2020-06-08,0,0,0,,,,,,,,,,,,
48235,0,USTexasIrion,Texas,Irion,2022-04-28 09:13:11,2020-06-09,0,0,0,,,,,,,,,,,,
48235,0,USTexasIrion,Texas,Irion,2022-04-28 09:13:11,2020-06-10,0,0,0,,,,,,,,,,,,
48235,0,USTexasIrion,Texas,Irion,2022-04-28 09:13:11,2020-06-11,0,0,0,,,,,,,,,,,,
48235,0,USTexasIrion,Texas,Irion,2022-04-28 09:13:11,2020-06-12,0,0,0,,,,,,,,,,,,
48235,0,USTexasIrion,Texas,Irion,2022-04-28 09:13:11,2020-06-13,0,0,0,,,,,,,,,,,,
48235,0,USTexasIrion,Texas,Irion,2022-04-28 09:13:11,2020-06-14,0,0,0,,,,,,,,,,,,
48235,0,USTexasIrion,Texas,Irion,2022-04-28 09:13:11,2020-06-15,0,0,0,,,,,,,,,,,,
48235,0,USTexasIrion,Texas,Irion,2022-04-28 09:13:11,2020-06-16,0,0,0,,,,,,,,,,,,
48235,0,USTexasIrion,Texas,Irion,2022-04-28 09:13:11,2020-06-17,0,0,0,,,,,,,,,,,,
48235,0,USTexasIrion,Texas,Irion,2022-04-28 09:13:11,2020-06-18,0,0,0,,,,,,,,,,,,
48235,0,USTexasIrion,Texas,Irion,2022-04-28 09:13:11,2020-06-19,0,0,0,,,,,,,,,,,,
48235,0,USTexasIrion,Texas,Irion,2022-04-28 09:13:11,2020-06-20,0,0,0,,,,,,,,,,,,
48235,0,USTexasIrion,Texas,Irion,2022-04-28 09:13:11,2020-06-21,0,0,0,,,,,,,,,,,,
48235,0,USTexasIrion,Texas,Irion,2022-04-28 09:13:11,2020-06-22,0,0,0,,,,,,,,,,,,
48235,0,USTexasIrion,Texas,Irion,2022-04-28 09:13:11,2020-06-23,0,0,0,,,,,,,,,,,,
48235,0,USTexasIrion,Texas,Irion,2022-04-28 09:13:11,2020-06-24,0,0,0,,,,,,,,,,,,
48235,0,USTexasIrion,Texas,Irion,2022-04-28 09:13:11,2020-06-25,0.35344353758350533,0.8427241062033684,2.162260612705617,,,,,,,,,,,,
48235,0,USTexasIrion,Texas,Irion,2022-04-28 09:13:11,2020-06-26,0.35344353758350533,0.8427241062033684,2.162260612705617,,,,,,,,,,,,
48235,0,USTexasIrion,Texas,Irion,2022-04-28 09:13:11,2020-06-27,0.35344353758350533,0.8427241062033684,2.162260612705617,,,,,,,,,,,,
48235,0,USTexasIrion,Texas,Irion,2022-04-28 09:13:11,2020-06-28,0.35344353758350533,0.8427241062033684,2.162260612705617,,,,,,,,,,,,
48235,0,USTexasIrion,Texas,Irion,2022-04-28 09:13:11,2020-06-29,0.35344353758350533,0.8427241062033684,2.162260612705617,,,,,,,,,,,,
48235,0,USTexasIrion,Texas,Irion,2022-04-28 09:13:11,2020-06-30,0.35344353758350533,0.8427241062033684,2.162260612705617,,,,,,,,,,,,
48235,0,USTexasIrion,Texas,Irion,2022-04-28 09:13:11,2020-07-01,0.35344353758350533,0.8427241062033684,2.162260612705617,,,,,,,,,,,,
48235,0,USTexasIrion,Texas,Irion,2022-04-28 09:13:11,2020-07-02,0,0,0,,,,,,,,,,,,
48235,0,USTexasIrion,Texas,Irion,2022-04-28 09:13:11,2020-07-03,0,0,0,,,,,,,,,,,,
48235,0,USTexasIrion,Texas,Irion,2022-04-28 09:13:11,2020-07-04,0,0,0,,,,,,,,,,,,
48235,0,USTexasIrion,Texas,Irion,2022-04-28 09:13:11,2020-07-05,0,0,0,,,,,,,,,,,,
48235,0,USTexasIrion,Texas,Irion,2022-04-28 09:13:11,2020-07-06,0,0,0,,,,,,,,,,,,
48235,0,USTexasIrion,Texas,Irion,2022-04-28 09:13:11,2020-07-07,0,0,0,,,,,,,,,,,,
48235,0,USTexasIrion,Texas,Irion,2022-04-28 09:13:11,2020-07-08,0,0,0,,,,,,,,,,,,
48235,0,USTexasIrion,Texas,Irion,2022-04-28 09:13:11,2020-07-09,0.37631476311705914,0.9482208792348892,2.571108579474705,,,,,,,,,,,,
48235,0,USTexasIrion,Texas,Irion,2022-04-28 09:13:11,2020-07-10,0.37631476311705914,0.9482208792348892,2.571108579474705,,,,,,,,,,,,
48235,0,USTexasIrion,Texas,Irion,2022-04-28 09:13:11,2020-07-11,0.37631476311705914,0.9482208792348892,2.571108579474705,,,,,,,,,,,,
48235,0,USTexasIrion,Texas,Irion,2022-04-28 09:13:11,2020-07-12,0.37631476311705914,0.9482208792348892,2.571108579474705,,,,,,,,,,,,
48235,0,USTexasIrion,Texas,Irion,2022-04-28 09:13:11,2020-07-13,0.37631476311705914,0.9482208792348892,2.571108579474705,,,,,,,,,,,,
48235,0,USTexasIrion,Texas,Irion,2022-04-28 09:13:11,2020-07-14,0.37631476311705914,0.9482208792348892,2.571108579474705,,,,,,,,,,,,
48235,0,USTexasIrion,Texas,Irion,2022-04-28 09:13:11,2020-07-15,0.37631476311705914,0.9482208792348892,2.571108579474705,,,,,,,,,,,,
48235,0,USTexasIrion,Texas,Irion,2022-04-28 09:13:11,2020-07-16,0.3923502371672048,1.025355408974086,2.88280781989182,,,,,,,,,,,,
48235,0,USTexasIrion,Texas,Irion,2022-04-28 09:13:11,2020-07-17,0.3923502371672048,1.025355408974086,2.88280781989182,,,,,,,,,,,,
48235,0,USTexasIrion,Texas,Irion,2022-04-28 09:13:11,2020-07-18,0.3923502371672048,1.025355408974086,2.88280781989182,,,,,,,,,,,,
48235,0,USTexasIrion,Texas,Irion,2022-04-28 09:13:11,2020-07-19,0.3923502371672048,1.025355408974086,2.88280781989182,,,,,,,,,,,,
48235,0,USTexasIrion,Texas,Irion,2022-04-28 09:13:11,2020-07-20,0.3923502371672048,1.025355408974086,2.88280781989182,,,,,,,,,,,,
48235,0,USTexasIrion,Texas,Irion,2022-04-28 09:13:11,2020-07-21,0.3923502371672048,1.025355408974086,2.88280781989182,,,,,,,,,,,,
48235,0,USTexasIrion,Texas,Irion,2022-04-28 09:13:11,2020-07-22,0.3923502371672048,1.025355408974086,2.88280781989182,,,,,,,,,,,,
48235,0,USTexasIrion,Texas,Irion,2022-04-28 09:13:11,2020-07-23,1.5851213940202404,2.9071507691582212,5.692358834057995,,,,,,,,,,,,
48235,0,USTexasIrion,Texas,Irion,2022-04-28 09:13:11,2020-07-24,1.5851213940202404,2.9071507691582212,5.692358834057995,,,,,,,,,,,,
48235,0,USTexasIrion,Texas,Irion,2022-04-28 09:13:11,2020-07-25,1.5851213940202404,2.9071507691582212,5.692358834057995,,,,,,,,,,,,
48235,0,USTexasIrion,Texas,Irion,2022-04-28 09:13:11,2020-07-26,1.5851213940202404,2.9071507691582212,5.692358834057995,,,,,,,,,,,,
48235,0,USTexasIrion,Texas,Irion,2022-04-28 09:13:11,2020-07-27,1.5851213940202404,2.9071507691582212,5.692358834057995,,,,,,,,,,,,
48235,0,USTexasIrion,Texas,Irion,2022-04-28 09:13:11,2020-07-28,1.5851213940202404,2.9071507691582212,5.692358834057995,,,,,,,,,,,,
48235,0,USTexasIrion,Texas,Irion,2022-04-28 09:13:11,2020-07-29,1.5851213940202404,2.9071507691582212,5.692358834057995,,,,,,,,,,,,
48235,0,USTexasIrion,Texas,Irion,2022-04-28 09:13:11,2020-07-30,0.9756242418183437,2.160000280676644,5.14205092347322,,,,,,,,,,,,
48235,0,USTexasIrion,Texas,Irion,2022-04-28 09:13:11,2020-07-31,0.9756242418183437,2.160000280676644,5.14205092347322,,,,,,,,,,,,
48235,0,USTexasIrion,Texas,Irion,2022-04-28 09:13:11,2020-08-01,0.9756242418183437,2.160000280676644,5.14205092347322,,,,,,,,,,,,
48235,0,USTexasIrion,Texas,Irion,2022-04-28 09:13:11,2020-08-02,0.9756242418183437,2.160000280676644,5.14205092347322,,,,,,,,,,,,
48235,0,USTexasIrion,Texas,Irion,2022-04-28 09:13:11,2020-08-03,0.9756242418183437,2.160000280676644,5.14205092347322,,,,,,,,,,,,
48235,0,USTexasIrion,Texas,Irion,2022-04-28 09:13:11,2020-08-04,0.9756242418183437,2.160000280676644,5.14205092347322,,,,,,,,,,,,
48235,0,USTexasIrion,Texas,Irion,2022-04-28 09:13:11,2020-08-05,0.9756242418183437,2.160000280676644,5.14205092347322,,,,,,,,,,,,
48235,0,USTexasIrion,Texas,Irion,2022-04-28 09:13:11,2020-08-06,0,0,0,,,,,,,,,,,,
48235,0,USTexasIrion,Texas,Irion,2022-04-28 09:13:11,2020-08-07,0,0,0,,,,,,,,,,,,
48235,0,USTexasIrion,Texas,Irion,2022-04-28 09:13:11,2020-08-08,0,0,0,,,,,,,,,,,,
48235,0,USTexasIrion,Texas,Irion,2022-04-28 09:13:11,2020-08-09,0,0,0,,,,,,,,,,,,
48235,0,USTexasIrion,Texas,Irion,2022-04-28 09:13:11,2020-08-10,0,0,0,,,,,,,,,,,,
48235,0,USTexasIrion,Texas,Irion,2022-04-28 09:13:11,2020-08-11,0,0,0,,,,,,,,,,,,
48235,0,USTexasIrion,Texas,Irion,2022-04-28 09:13:11,2020-08-12,0,0,0,,,,,,,,,,,,
48235,0,USTexasIrion,Texas,Irion,2022-04-28 09:13:11,2020-08-13,0,0,0,,,,,,,,,,,,
48235,0,USTexasIrion,Texas,Irion,2022-04-28 09:13:11,2020-08-14,0,0,0,,,,,,,,,,,,
48235,0,USTexasIrion,Texas,Irion,2022-04-28 09:13:11,2020-08-15,0,0,0,,,,,,,,,,,,
48235,0,USTexasIrion,Texas,Irion,2022-04-28 09:13:11,2020-08-16,0,0,0,,,,,,,,,,,,
48235,0,USTexasIrion,Texas,Irion,2022-04-28 09:13:11,2020-08-17,0,0,0,,,,,,,,,,,,
48235,0,USTexasIrion,Texas,Irion,2022-04-28 09:13:11,2020-08-18,0,0,0,,,,,,,,,,,,
48235,0,USTexasIrion,Texas,Irion,2022-04-28 09:13:11,2020-08-19,0,0,0,,,,,,,,,,,,
48235,0,USTexasIrion,Texas,Irion,2022-04-28 09:13:11,2020-08-20,0,0,0,,,,,,,,,,,,
48235,0,USTexasIrion,Texas,Irion,2022-04-28 09:13:11,2020-08-21,0,0,0,,,,,,,,,,,,
48235,0,USTexasIrion,Texas,Irion,2022-04-28 09:13:11,2020-08-22,0,0,0,,,,,,,,,,,,
48235,0,USTexasIrion,Texas,Irion,2022-04-28 09:13:11,2020-08-23,0,0,0,,,,,,,,,,,,
48235,0,USTexasIrion,Texas,Irion,2022-04-28 09:13:11,2020-08-24,0,0,0,,,,,,,,,,,,
48235,0,USTexasIrion,Texas,Irion,2022-04-28 09:13:11,2020-08-25,0,0,0,,,,,,,,,,,,
48235,0,USTexasIrion,Texas,Irion,2022-04-28 09:13:11,2020-08-26,0,0,0,,,,,,,,,,,,
48235,0,USTexasIrion,Texas,Irion,2022-04-28 09:13:11,2020-08-27,0.38379708899283044,0.9838911660941314,2.713953548558386,,,,,,,,,,,,
48235,0,USTexasIrion,Texas,Irion,2022-04-28 09:13:11,2020-08-28,0.38379708899283044,0.9838911660941314,2.713953548558386,,,,,,,,,,,,
48235,0,USTexasIrion,Texas,Irion,2022-04-28 09:13:11,2020-08-29,0.38379708899283044,0.9838911660941314,2.713953548558386,,,,,,,,,,,,
48235,0,USTexasIrion,Texas,Irion,2022-04-28 09:13:11,2020-08-30,0.38379708899283044,0.9838911660941314,2.713953548558386,,,,,,,,,,,,
48235,0,USTexasIrion,Texas,Irion,2022-04-28 09:13:11,2020-08-31,0.38379708899283044,0.9838911660941314,2.713953548558386,,,,,,,,,,,,
48235,0,USTexasIrion,Texas,Irion,2022-04-28 09:13:11,2020-09-01,0.38379708899283044,0.9838911660941314,2.713953548558386,,,,,,,,,,,,
48235,0,USTexasIrion,Texas,Irion,2022-04-28 09:13:11,2020-09-02,0.38379708899283044,0.9838911660941314,2.713953548558386,,,,,,,,,,,,
48235,0,USTexasIrion,Texas,Irion,2022-04-28 09:13:11,2020-09-03,0,0,0,,,,,,,,,,,,
48235,0,USTexasIrion,Texas,Irion,2022-04-28 09:13:11,2020-09-04,0,0,0,,,,,,,,,,,,
48235,0,USTexasIrion,Texas,Irion,2022-04-28 09:13:11,2020-09-05,0,0,0,,,,,,,,,,,,
48235,0,USTexasIrion,Texas,Irion,2022-04-28 09:13:11,2020-09-06,0,0,0,,,,,,,,,,,,
48235,0,USTexasIrion,Texas,Irion,2022-04-28 09:13:11,2020-09-07,0,0,0,,,,,,,,,,,,
48235,0,USTexasIrion,Texas,Irion,2022-04-28 09:13:11,2020-09-08,0,0,0,,,,,,,,,,,,
48235,0,USTexasIrion,Texas,Irion,2022-04-28 09:13:11,2020-09-09,0,0,0,,,,,,,,,,,,
48235,0,USTexasIrion,Texas,Irion,2022-04-28 09:13:11,2020-09-10,0,0,0,,,,,,,,,,,,
48235,0,USTexasIrion,Texas,Irion,2022-04-28 09:13:11,2020-09-11,0,0,0,,,,,,,,,,,,
48235,0,USTexasIrion,Texas,Irion,2022-04-28 09:13:11,2020-09-12,0,0,0,,,,,,,,,,,,
48235,0,USTexasIrion,Texas,Irion,2022-04-28 09:13:11,2020-09-13,0,0,0,,,,,,,,,,,,
48235,0,USTexasIrion,Texas,Irion,2022-04-28 09:13:11,2020-09-14,0,0,0,,,,,,,,,,,,
48235,0,USTexasIrion,Texas,Irion,2022-04-28 09:13:11,2020-09-15,0,0,0,,,,,,,,,,,,
48235,0,USTexasIrion,Texas,Irion,2022-04-28 09:13:11,2020-09-16,0,0,0,,,,,,,,,,,,
48235,0,USTexasIrion,Texas,Irion,2022-04-28 09:13:11,2020-09-17,0,0,0,,,,,,,,,,,,
48235,0,USTexasIrion,Texas,Irion,2022-04-28 09:13:11,2020-09-18,0,0,0,,,,,,,,,,,,
48235,0,USTexasIrion,Texas,Irion,2022-04-28 09:13:11,2020-09-19,0,0,0,,,,,,,,,,,,
48235,0,USTexasIrion,Texas,Irion,2022-04-28 09:13:11,2020-09-20,0,0,0,,,,,,,,,,,,
48235,0,USTexasIrion,Texas,Irion,2022-04-28 09:13:11,2020-09-21,0,0,0,,,,,,,,,,,,
48235,0,USTexasIrion,Texas,Irion,2022-04-28 09:13:11,2020-09-22,0,0,0,,,,,,,,,,,,
48235,0,USTexasIrion,Texas,Irion,2022-04-28 09:13:11,2020-09-23,0,0,0,,,,,,,,,,,,
48235,0,USTexasIrion,Texas,Irion,2022-04-28 09:13:11,2020-09-24,0,0,0,,,,,,,,,,,,
48235,0,USTexasIrion,Texas,Irion,2022-04-28 09:13:11,2020-09-25,0,0,0,,,,,,,,,,,,
48235,0,USTexasIrion,Texas,Irion,2022-04-28 09:13:11,2020-09-26,0,0,0,,,,,,,,,,,,
48235,0,USTexasIrion,Texas,Irion,2022-04-28 09:13:11,2020-09-27,0,0,0,,,,,,,,,,,,
48235,0,USTexasIrion,Texas,Irion,2022-04-28 09:13:11,2020-09-28,0,0,0,,,,,,,,,,,,
48235,0,USTexasIrion,Texas,Irion,2022-04-28 09:13:11,2020-09-29,0,0,0,,,,,,,,,,,,
48235,0,USTexasIrion,Texas,Irion,2022-04-28 09:13:11,2020-09-30,0,0,0,,,,,,,,,,,,
48235,0,USTexasIrion,Texas,Irion,2022-04-28 09:13:11,2020-10-01,0.5656770295173152,1.1040814596237627,2.3081579182789103,,,,,,,,,,,,
48235,0,USTexasIrion,Texas,Irion,2022-04-28 09:13:11,2020-10-02,0.5656770295173152,1.1040814596237627,2.3081579182789103,,,,,,,,,,,,
48235,0,USTexasIrion,Texas,Irion,2022-04-28 09:13:11,2020-10-03,0.5656770295173152,1.1040814596237627,2.3081579182789103,,,,,,,,,,,,
48235,0,USTexasIrion,Texas,Irion,2022-04-28 09:13:11,2020-10-04,0.5656770295173152,1.1040814596237627,2.3081579182789103,,,,,,,,,,,,
48235,0,USTexasIrion,Texas,Irion,2022-04-28 09:13:11,2020-10-05,0.5656770295173152,1.1040814596237627,2.3081579182789103,,,,,,,,,,,,
48235,0,USTexasIrion,Texas,Irion,2022-04-28 09:13:11,2020-10-06,0.5656770295173152,1.1040814596237627,2.3081579182789103,,,,,,,,,,,,
48235,0,USTexasIrion,Texas,Irion,2022-04-28 09:13:11,2020-10-07,0.5656770295173152,1.1040814596237627,2.3081579182789103,,,,,,,,,,,,
48235,0,USTexasIrion,Texas,Irion,2022-04-28 09:13:11,2020-10-08,0.5443897215231794,1.0260373227909836,2.0677883435313604,,,,,,,,,,,,
48235,0,USTexasIrion,Texas,Irion,2022-04-28 09:13:11,2020-10-09,0.5443897215231794,1.0260373227909836,2.0677883435313604,,,,,,,,,,,,
48235,0,USTexasIrion,Texas,Irion,2022-04-28 09:13:11,2020-10-10,0.5443897215231794,1.0260373227909836,2.0677883435313604,,,,,,,,,,,,
48235,0,USTexasIrion,Texas,Irion,2022-04-28 09:13:11,2020-10-11,0.5443897215231794,1.0260373227909836,2.0677883435313604,,,,,,,,,,,,
48235,0,USTexasIrion,Texas,Irion,2022-04-28 09:13:11,2020-10-12,0.5443897215231794,1.0260373227909836,2.0677883435313604,,,,,,,,,,,,
48235,0,USTexasIrion,Texas,Irion,2022-04-28 09:13:11,2020-10-13,0.5443897215231794,1.0260373227909836,2.0677883435313604,,,,,,,,,,,,
48235,0,USTexasIrion,Texas,Irion,2022-04-28 09:13:11,2020-10-14,0.5443897215231794,1.0260373227909836,2.0677883435313604,,,,,,,,,,,,
48235,0,USTexasIrion,Texas,Irion,2022-04-28 09:13:11,2020-10-15,0.3406548456864584,0.7860953485115915,1.9516111647525054,,,,,,,,,,,,
48235,0,USTexasIrion,Texas,Irion,2022-04-28 09:13:11,2020-10-16,0.3406548456864584,0.7860953485115915,1.9516111647525054,,,,,,,,,,,,
48235,0,USTexasIrion,Texas,Irion,2022-04-28 09:13:11,2020-10-17,0.3406548456864584,0.7860953485115915,1.9516111647525054,,,,,,,,,,,,
48235,0,USTexasIrion,Texas,Irion,2022-04-28 09:13:11,2020-10-18,0.3406548456864584,0.7860953485115915,1.9516111647525054,,,,,,,,,,,,
48235,0,USTexasIrion,Texas,Irion,2022-04-28 09:13:11,2020-10-19,0.3406548456864584,0.7860953485115915,1.9516111647525054,,,,,,,,,,,,
48235,0,USTexasIrion,Texas,Irion,2022-04-28 09:13:11,2020-10-20,0.3406548456864584,0.7860953485115915,1.9516111647525054,,,,,,,,,,,,
48235,0,USTexasIrion,Texas,Irion,2022-04-28 09:13:11,2020-10-21,0.3406548456864584,0.7860953485115915,1.9516111647525054,,,,,,,,,,,,
48235,0,USTexasIrion,Texas,Irion,2022-04-28 09:13:11,2020-10-22,0.6010285376664141,1.2393813586335134,2.743232984210902,,,,,,,,,,,,
48235,0,USTexasIrion,Texas,Irion,2022-04-28 09:13:11,2020-10-23,0.6010285376664141,1.2393813586335134,2.743232984210902,,,,,,,,,,,,
48235,0,USTexasIrion,Texas,Irion,2022-04-28 09:13:11,2020-10-24,0.6010285376664141,1.2393813586335134,2.743232984210902,,,,,,,,,,,,
48235,0,USTexasIrion,Texas,Irion,2022-04-28 09:13:11,2020-10-25,0.6010285376664141,1.2393813586335134,2.743232984210902,,,,,,,,,,,,
48235,0,USTexasIrion,Texas,Irion,2022-04-28 09:13:11,2020-10-26,0.6010285376664141,1.2393813586335134,2.743232984210902,,,,,,,,,,,,
48235,0,USTexasIrion,Texas,Irion,2022-04-28 09:13:11,2020-10-27,0.6010285376664141,1.2393813586335134,2.743232984210902,,,,,,,,,,,,
48235,0,USTexasIrion,Texas,Irion,2022-04-28 09:13:11,2020-10-28,0.6010285376664141,1.2393813586335134,2.743232984210902,,,,,,,,,,,,
48235,0,USTexasIrion,Texas,Irion,2022-04-28 09:13:11,2020-10-29,0.3443818193129315,0.8024215158346377,2.011686244512539,,,,,,,,,,,,
48235,0,USTexasIrion,Texas,Irion,2022-04-28 09:13:11,2020-10-30,0.3443818193129315,0.8024215158346377,2.011686244512539,,,,,,,,,,,,
48235,0,USTexasIrion,Texas,Irion,2022-04-28 09:13:11,2020-10-31,0.3443818193129315,0.8024215158346377,2.011686244512539,,,,,,,,,,,,
48235,0,USTexasIrion,Texas,Irion,2022-04-28 09:13:11,2020-11-01,0.3443818193129315,0.8024215158346377,2.011686244512539,,,,,,,,,,,,
48235,0,USTexasIrion,Texas,Irion,2022-04-28 09:13:11,2020-11-02,0.3443818193129315,0.8024215158346377,2.011686244512539,,,,,,,,,,,,
48235,0,USTexasIrion,Texas,Irion,2022-04-28 09:13:11,2020-11-03,0.3443818193129315,0.8024215158346377,2.011686244512539,,,,,,,,,,,,
48235,0,USTexasIrion,Texas,Irion,2022-04-28 09:13:11,2020-11-04,0.3443818193129315,0.8024215158346377,2.011686244512539,,,,,,,,,,,,
48235,0,USTexasIrion,Texas,Irion,2022-04-28 09:13:11,2020-11-05,1.0331285665854837,1.8559901753729684,3.5551178637788277,,,,,,,,,,,,
48235,0,USTexasIrion,Texas,Irion,2022-04-28 09:13:11,2020-11-06,1.0331285665854837,1.8559901753729684,3.5551178637788277,,,,,,,,,,,,
48235,0,USTexasIrion,Texas,Irion,2022-04-28 09:13:11,2020-11-07,1.0331285665854837,1.8559901753729684,3.5551178637788277,,,,,,,,,,,,
48235,0,USTexasIrion,Texas,Irion,2022-04-28 09:13:11,2020-11-08,1.0331285665854837,1.8559901753729684,3.5551178637788277,,,,,,,,,,,,
48235,0,USTexasIrion,Texas,Irion,2022-04-28 09:13:11,2020-11-09,1.0331285665854837,1.8559901753729684,3.5551178637788277,,,,,,,,,,,,
48235,0,USTexasIrion,Texas,Irion,2022-04-28 09:13:11,2020-11-10,1.0331285665854837,1.8559901753729684,3.5551178637788277,,,,,,,,,,,,
48235,0,USTexasIrion,Texas,Irion,2022-04-28 09:13:11,2020-11-11,1.0331285665854837,1.8559901753729684,3.5551178637788277,,,,,,,,,,,,
48235,0,USTexasIrion,Texas,Irion,2022-04-28 09:13:11,2020-11-12,0.6104446852770623,1.2765987111766373,2.8668002075063748,,,,,,,,,,,,
48235,0,USTexasIrion,Texas,Irion,2022-04-28 09:13:11,2020-11-13,0.6104446852770623,1.2765987111766373,2.8668002075063748,,,,,,,,,,,,
48235,0,USTexasIrion,Texas,Irion,2022-04-28 09:13:11,2020-11-14,0.6104446852770623,1.2765987111766373,2.8668002075063748,,,,,,,,,,,,
48235,0,USTexasIrion,Texas,Irion,2022-04-28 09:13:11,2020-11-15,0.6104446852770623,1.2765987111766373,2.8668002075063748,,,,,,,,,,,,
48235,0,USTexasIrion,Texas,Irion,2022-04-28 09:13:11,2020-11-16,0.6104446852770623,1.2765987111766373,2.8668002075063748,,,,,,,,,,,,
48235,0,USTexasIrion,Texas,Irion,2022-04-28 09:13:11,2020-11-17,0.6104446852770623,1.2765987111766373,2.8668002075063748,,,,,,,,,,,,
48235,0,USTexasIrion,Texas,Irion,2022-04-28 09:13:11,2020-11-18,0.6104446852770623,1.2765987111766373,2.8668002075063748,,,,,,,,,,,,
48235,0,USTexasIrion,Texas,Irion,2022-04-28 09:13:11,2020-11-19,2.4141037655432642,3.735243973612175,6.084331586187554,,,,,,,,,,,,
48235,0,USTexasIrion,Texas,Irion,2022-04-28 09:13:11,2020-11-20,2.4141037655432642,3.735243973612175,6.084331586187554,,,,,,,,,,,,
48235,0,USTexasIrion,Texas,Irion,2022-04-28 09:13:11,2020-11-21,2.4141037655432642,3.735243973612175,6.084331586187554,,,,,,,,,,,,
48235,0,USTexasIrion,Texas,Irion,2022-04-28 09:13:11,2020-11-22,2.4141037655432642,3.735243973612175,6.084331586187554,,,,,,,,,,,,
48235,0,USTexasIrion,Texas,Irion,2022-04-28 09:13:11,2020-11-23,2.4141037655432642,3.735243973612175,6.084331586187554,,,,,,,,,,,,
48235,0,USTexasIrion,Texas,Irion,2022-04-28 09:13:11,2020-11-24,2.4141037655432642,3.735243973612175,6.084331586187554,,,,,,,,,,,,
48235,0,USTexasIrion,Texas,Irion,2022-04-28 09:13:11,2020-11-25,2.4141037655432642,3.735243973612175,6.084331586187554,,,,,,,,,,,,
48235,0,USTexasIrion,Texas,Irion,2022-04-28 09:13:11,2020-11-26,2.373975305987772,3.9474554991406743,6.95792656747323,,,,,,,,,,,,
48235,0,USTexasIrion,Texas,Irion,2022-04-28 09:13:11,2020-11-27,2.373975305987772,3.9474554991406743,6.95792656747323,,,,,,,,,,,,
48235,0,USTexasIrion,Texas,Irion,2022-04-28 09:13:11,2020-11-28,2.373975305987772,3.9474554991406743,6.95792656747323,,,,,,,,,,,,
48235,0,USTexasIrion,Texas,Irion,2022-04-28 09:13:11,2020-11-29,2.373975305987772,3.9474554991406743,6.95792656747323,,,,,,,,,,,,
48235,0,USTexasIrion,Texas,Irion,2022-04-28 09:13:11,2020-11-30,2.373975305987772,3.9474554991406743,6.95792656747323,,,,,,,,,,,,
48235,0,USTexasIrion,Texas,Irion,2022-04-28 09:13:11,2020-12-01,2.373975305987772,3.9474554991406743,6.95792656747323,,,,,,,,,,,,
48235,0,USTexasIrion,Texas,Irion,2022-04-28 09:13:11,2020-12-02,2.373975305987772,3.9474554991406743,6.95792656747323,,,,,,,,,,,,
48235,0,USTexasIrion,Texas,Irion,2022-04-28 09:13:11,2020-12-03,0.6736619105814243,1.5389939200402138,3.7821795640002516,,,,,,,,,,,,
48235,0,USTexasIrion,Texas,Irion,2022-04-28 09:13:11,2020-12-04,0.6736619105814243,1.5389939200402138,3.7821795640002516,,,,,,,,,,,,
48235,0,USTexasIrion,Texas,Irion,2022-04-28 09:13:11,2020-12-05,0.6736619105814243,1.5389939200402138,3.7821795640002516,,,,,,,,,,,,
48235,0,USTexasIrion,Texas,Irion,2022-04-28 09:13:11,2020-12-06,0.6736619105814243,1.5389939200402138,3.7821795640002516,,,,,,,,,,,,
48235,0,USTexasIrion,Texas,Irion,2022-04-28 09:13:11,2020-12-07,0.6736619105814243,1.5389939200402138,3.7821795640002516,,,,,,,,,,,,
48235,0,USTexasIrion,Texas,Irion,2022-04-28 09:13:11,2020-12-08,0.6736619105814243,1.5389939200402138,3.7821795640002516,,,,,,,,,,,,
48235,0,USTexasIrion,Texas,Irion,2022-04-28 09:13:11,2020-12-09,0.6736619105814243,1.5389939200402138,3.7821795640002516,,,,,,,,,,,,
48235,0,USTexasIrion,Texas,Irion,2022-04-28 09:13:11,2020-12-10,1.7765812565498529,3.6147300393558117,7.8907558704187375,,,,,,,,,,,,
48235,0,USTexasIrion,Texas,Irion,2022-04-28 09:13:11,2020-12-11,1.7765812565498529,3.6147300393558117,7.8907558704187375,,,,,,,,,,,,
48235,0,USTexasIrion,Texas,Irion,2022-04-28 09:13:11,2020-12-12,1.7765812565498529,3.6147300393558117,7.8907558704187375,,,,,,,,,,,,
48235,0,USTexasIrion,Texas,Irion,2022-04-28 09:13:11,2020-12-13,1.7765812565498529,3.6147300393558117,7.8907558704187375,,,,,,,,,,,,
48235,0,USTexasIrion,Texas,Irion,2022-04-28 09:13:11,2020-12-14,1.7765812565498529,3.6147300393558117,7.8907558704187375,,,,,,,,,,,,
48235,0,USTexasIrion,Texas,Irion,2022-04-28 09:13:11,2020-12-15,1.7765812565498529,3.6147300393558117,7.8907558704187375,,,,,,,,,,,,
48235,0,USTexasIrion,Texas,Irion,2022-04-28 09:13:11,2020-12-16,1.7765812565498529,3.6147300393558117,7.8907558704187375,,,,,,,,,,,,
48235,0,USTexasIrion,Texas,Irion,2022-04-28 09:13:11,2020-12-17,1.2206141208851888,2.5521024287902283,5.7299413037572355,,,,,,,,,,,,
48235,0,USTexasIrion,Texas,Irion,2022-04-28 09:13:11,2020-12-18,1.2206141208851888,2.5521024287902283,5.7299413037572355,,,,,,,,,,,,
48235,0,USTexasIrion,Texas,Irion,2022-04-28 09:13:11,2020-12-19,1.2206141208851888,2.5521024287902283,5.7299413037572355,,,,,,,,,,,,
48235,0,USTexasIrion,Texas,Irion,2022-04-28 09:13:11,2020-12-20,1.2206141208851888,2.5521024287902283,5.7299413037572355,,,,,,,,,,,,
48235,0,USTexasIrion,Texas,Irion,2022-04-28 09:13:11,2020-12-21,1.2206141208851888,2.5521024287902283,5.7299413037572355,,,,,,,,,,,,
48235,0,USTexasIrion,Texas,Irion,2022-04-28 09:13:11,2020-12-22,1.2206141208851888,2.5521024287902283,5.7299413037572355,,,,,,,,,,,,
48235,0,USTexasIrion,Texas,Irion,2022-04-28 09:13:11,2020-12-23,1.2206141208851888,2.5521024287902283,5.7299413037572355,,,,,,,,,,,,
48235,0,USTexasIrion,Texas,Irion,2022-04-28 09:13:11,2020-12-24,0.7010844034738306,1.659453833426584,4.226704791802701,,,,,,,,,,,,
48235,0,USTexasIrion,Texas,Irion,2022-04-28 09:13:11,2020-12-25,0.7010844034738306,1.659453833426584,4.226704791802701,,,,,,,,,,,,
48235,0,USTexasIrion,Texas,Irion,2022-04-28 09:13:11,2020-12-26,0.7010844034738306,1.659453833426584,4.226704791802701,,,,,,,,,,,,
48235,0,USTexasIrion,Texas,Irion,2022-04-28 09:13:11,2020-12-27,0.7010844034738306,1.659453833426584,4.226704791802701,,,,,,,,,,,,
48235,0,USTexasIrion,Texas,Irion,2022-04-28 09:13:11,2020-12-28,0.7010844034738306,1.659453833426584,4.226704791802701,,,,,,,,,,,,
48235,0,USTexasIrion,Texas,Irion,2022-04-28 09:13:11,2020-12-29,0.7010844034738306,1.659453833426584,4.226704791802701,,,,,,,,,,,,
48235,0,USTexasIrion,Texas,Irion,2022-04-28 09:13:11,2020-12-30,0.7010844034738306,1.659453833426584,4.226704791802701,,,,,,,,,,,,
48235,0,USTexasIrion,Texas,Irion,2022-04-28 09:13:11,2020-12-31,1.7636096083020039,3.5645945646019075,7.727985328808081,,,,,,,,,,,,
48235,0,USTexasIrion,Texas,Irion,2022-04-28 09:13:11,2021-01-01,1.7636096083020039,3.5645945646019075,7.727985328808081,,,,,,,,,,,,
48235,0,USTexasIrion,Texas,Irion,2022-04-28 09:13:11,2021-01-02,1.7636096083020039,3.5645945646019075,7.727985328808081,,,,,,,,,,,,
48235,0,USTexasIrion,Texas,Irion,2022-04-28 09:13:11,2021-01-03,1.7636096083020039,3.5645945646019075,7.727985328808081,,,,,,,,,,,,
48235,0,USTexasIrion,Texas,Irion,2022-04-28 09:13:11,2021-01-04,1.7636096083020039,3.5645945646019075,7.727985328808081,,,,,,,,,,,,
48235,0,USTexasIrion,Texas,Irion,2022-04-28 09:13:11,2021-01-05,1.7636096083020039,3.5645945646019075,7.727985328808081,,,,,,,,,,,,
48235,0,USTexasIrion,Texas,Irion,2022-04-28 09:13:11,2021-01-06,1.7636096083020039,3.5645945646019075,7.727985328808081,,,,,,,,,,,,
48235,0,USTexasIrion,Texas,Irion,2022-04-28 09:13:11,2021-01-07,0.9672311705749375,2.124906246777854,5.018789596144076,,,,,,,,,,,,
48235,0,USTexasIrion,Texas,Irion,2022-04-28 09:13:11,2021-01-08,0.9672311705749375,2.124906246777854,5.018789596144076,,,,,,,,,,,,
48235,0,USTexasIrion,Texas,Irion,2022-04-28 09:13:11,2021-01-09,0.9672311705749375,2.124906246777854,5.018789596144076,,,,,,,,,,,,
48235,0,USTexasIrion,Texas,Irion,2022-04-28 09:13:11,2021-01-10,0.9672311705749375,2.124906246777854,5.018789596144076,,,,,,,,,,,,
48235,0,USTexasIrion,Texas,Irion,2022-04-28 09:13:11,2021-01-11,0.9672311705749375,2.124906246777854,5.018789596144076,,,,,,,,,,,,
48235,0,USTexasIrion,Texas,Irion,2022-04-28 09:13:11,2021-01-12,0.9672311705749375,2.124906246777854,5.018789596144076,,,,,,,,,,,,
48235,0,USTexasIrion,Texas,Irion,2022-04-28 09:13:11,2021-01-13,0.9672311705749375,2.124906246777854,5.018789596144076,,,,,,,,,,,,
48235,0,USTexasIrion,Texas,Irion,2022-04-28 09:13:11,2021-01-14,2.1708142550360776,3.662683399423725,6.5588721774382,,,,,,,,,,,,
48235,0,USTexasIrion,Texas,Irion,2022-04-28 09:13:11,2021-01-15,2.1708142550360776,3.662683399423725,6.5588721774382,,,,,,,,,,,,
48235,0,USTexasIrion,Texas,Irion,2022-04-28 09:13:11,2021-01-16,2.1708142550360776,3.662683399423725,6.5588721774382,,,,,,,,,,,,
48235,0,USTexasIrion,Texas,Irion,2022-04-28 09:13:11,2021-01-17,2.1708142550360776,3.662683399423725,6.5588721774382,,,,,,,,,,,,
48235,0,USTexasIrion,Texas,Irion,2022-04-28 09:13:11,2021-01-18,2.1708142550360776,3.662683399423725,6.5588721774382,,,,,,,,,,,,
48235,0,USTexasIrion,Texas,Irion,2022-04-28 09:13:11,2021-01-19,2.1708142550360776,3.662683399423725,6.5588721774382,,,,,,,,,,,,
48235,0,USTexasIrion,Texas,Irion,2022-04-28 09:13:11,2021-01-20,2.1708142550360776,3.662683399423725,6.5588721774382,,,,,,,,,,,,
48235,0,USTexasIrion,Texas,Irion,2022-04-28 09:13:11,2021-01-21,1.1661415245335065,2.3395449912319655,5.033140471764265,,,,,,,,,,,,
48235,0,USTexasIrion,Texas,Irion,2022-04-28 09:13:11,2021-01-22,1.1661415245335065,2.3395449912319655,5.033140471764265,,,,,,,,,,,,
48235,0,USTexasIrion,Texas,Irion,2022-04-28 09:13:11,2021-01-23,1.1661415245335065,2.3395449912319655,5.033140471764265,,,,,,,,,,,,
48235,0,USTexasIrion,Texas,Irion,2022-04-28 09:13:11,2021-01-24,1.1661415245335065,2.3395449912319655,5.033140471764265,,,,,,,,,,,,
48235,0,USTexasIrion,Texas,Irion,2022-04-28 09:13:11,2021-01-25,1.1661415245335065,2.3395449912319655,5.033140471764265,,,,,,,,,,,,
48235,0,USTexasIrion,Texas,Irion,2022-04-28 09:13:11,2021-01-26,1.1661415245335065,2.3395449912319655,5.033140471764265,,,,,,,,,,,,
48235,0,USTexasIrion,Texas,Irion,2022-04-28 09:13:11,2021-01-27,1.1661415245335065,2.3395449912319655,5.033140471764265,,,,,,,,,,,,
48235,0,USTexasIrion,Texas,Irion,2022-04-28 09:13:11,2021-01-28,1.9862881976647984,3.4415419403818657,6.341919314837771,,,,,,,,,,,,
48235,0,USTexasIrion,Texas,Irion,2022-04-28 09:13:11,2021-01-29,1.9862881976647984,3.4415419403818657,6.341919314837771,,,,,,,,,,,,
48235,0,USTexasIrion,Texas,Irion,2022-04-28 09:13:11,2021-01-30,1.9862881976647984,3.4415419403818657,6.341919314837771,,,,,,,,,,,,
48235,0,USTexasIrion,Texas,Irion,2022-04-28 09:13:11,2021-01-31,1.9862881976647984,3.4415419403818657,6.341919314837771,,,,,,,,,,,,
48235,0,USTexasIrion,Texas,Irion,2022-04-28 09:13:11,2021-02-01,1.9862881976647984,3.4415419403818657,6.341919314837771,,,,,,,,,,,,
48235,0,USTexasIrion,Texas,Irion,2022-04-28 09:13:11,2021-02-02,1.9862881976647984,3.4415419403818657,6.341919314837771,,,,,,,,,,,,
48235,0,USTexasIrion,Texas,Irion,2022-04-28 09:13:11,2021-02-03,1.9862881976647984,3.4415419403818657,6.341919314837771,,,,,,,,,,,,
48235,0,USTexasIrion,Texas,Irion,2022-04-28 09:13:11,2021-02-04,1.6627395554724267,2.7662707940763505,4.878725572915586,,,,,,,,,,,,
48235,0,USTexasIrion,Texas,Irion,2022-04-28 09:13:11,2021-02-05,1.6627395554724267,2.7662707940763505,4.878725572915586,,,,,,,,,,,,
48235,0,USTexasIrion,Texas,Irion,2022-04-28 09:13:11,2021-02-06,1.6627395554724267,2.7662707940763505,4.878725572915586,,,,,,,,,,,,
48235,0,USTexasIrion,Texas,Irion,2022-04-28 09:13:11,2021-02-07,1.6627395554724267,2.7662707940763505,4.878725572915586,,,,,,,,,,,,
48235,0,USTexasIrion,Texas,Irion,2022-04-28 09:13:11,2021-02-08,1.6627395554724267,2.7662707940763505,4.878725572915586,,,,,,,,,,,,
48235,0,USTexasIrion,Texas,Irion,2022-04-28 09:13:11,2021-02-09,1.6627395554724267,2.7662707940763505,4.878725572915586,,,,,,,,,,,,
48235,0,USTexasIrion,Texas,Irion,2022-04-28 09:13:11,2021-02-10,1.6627395554724267,2.7662707940763505,4.878725572915586,,,,,,,,,,,,
48235,0,USTexasIrion,Texas,Irion,2022-04-28 09:13:11,2021-02-11,1.5223527471766023,2.690636018799571,5.064938853130214,,,,,,,,,,,,
48235,0,USTexasIrion,Texas,Irion,2022-04-28 09:13:11,2021-02-12,1.5223527471766023,2.690636018799571,5.064938853130214,,,,,,,,,,,,
48235,0,USTexasIrion,Texas,Irion,2022-04-28 09:13:11,2021-02-13,1.5223527471766023,2.690636018799571,5.064938853130214,,,,,,,,,,,,
48235,0,USTexasIrion,Texas,Irion,2022-04-28 09:13:11,2021-02-14,1.5223527471766023,2.690636018799571,5.064938853130214,,,,,,,,,,,,
48235,0,USTexasIrion,Texas,Irion,2022-04-28 09:13:11,2021-02-15,1.5223527471766023,2.690636018799571,5.064938853130214,,,,,,,,,,,,
48235,0,USTexasIrion,Texas,Irion,2022-04-28 09:13:11,2021-02-16,1.5223527471766023,2.690636018799571,5.064938853130214,,,,,,,,,,,,
48235,0,USTexasIrion,Texas,Irion,2022-04-28 09:13:11,2021-02-17,1.5223527471766023,2.690636018799571,5.064938853130214,,,,,,,,,,,,
48235,0,USTexasIrion,Texas,Irion,2022-04-28 09:13:11,2021-02-18,1.3804184244860627,2.230270958763248,3.809820530977792,,,,,,,,,,,,
48235,0,USTexasIrion,Texas,Irion,2022-04-28 09:13:11,2021-02-19,1.3804184244860627,2.230270958763248,3.809820530977792,,,,,,,,,,,,
48235,0,USTexasIrion,Texas,Irion,2022-04-28 09:13:11,2021-02-20,1.3804184244860627,2.230270958763248,3.809820530977792,,,,,,,,,,,,
48235,0,USTexasIrion,Texas,Irion,2022-04-28 09:13:11,2021-02-21,1.3804184244860627,2.230270958763248,3.809820530977792,,,,,,,,,,,,
48235,0,USTexasIrion,Texas,Irion,2022-04-28 09:13:11,2021-02-22,1.3804184244860627,2.230270958763248,3.809820530977792,,,,,,,,,,,,
48235,0,USTexasIrion,Texas,Irion,2022-04-28 09:13:11,2021-02-23,1.3804184244860627,2.230270958763248,3.809820530977792,,,,,,,,,,,,
48235,0,USTexasIrion,Texas,Irion,2022-04-28 09:13:11,2021-02-24,1.3804184244860627,2.230270958763248,3.809820530977792,,,,,,,,,,,,
48235,0,USTexasIrion,Texas,Irion,2022-04-28 09:13:11,2021-02-25,0.8719946324850816,1.7446801697947216,3.7428277378994568,,,,,,,,,,,,
48235,0,USTexasIrion,Texas,Irion,2022-04-28 09:13:11,2021-02-26,0.8719946324850816,1.7446801697947216,3.7428277378994568,,,,,,,,,,,,
48235,0,USTexasIrion,Texas,Irion,2022-04-28 09:13:11,2021-02-27,0.8719946324850816,1.7446801697947216,3.7428277378994568,,,,,,,,,,,,
48235,0,USTexasIrion,Texas,Irion,2022-04-28 09:13:11,2021-02-28,0.8719946324850816,1.7446801697947216,3.7428277378994568,,,,,,,,,,,,
48235,0,USTexasIrion,Texas,Irion,2022-04-28 09:13:11,2021-03-01,0.8719946324850816,1.7446801697947216,3.7428277378994568,,,,,,,,,,,,
48235,0,USTexasIrion,Texas,Irion,2022-04-28 09:13:11,2021-03-02,0.8719946324850816,1.7446801697947216,3.7428277378994568,,,,,,,,,,,,
48235,0,USTexasIrion,Texas,Irion,2022-04-28 09:13:11,2021-03-03,0.8719946324850816,1.7446801697947216,3.7428277378994568,,,,,,,,,,,,
48235,0,USTexasIrion,Texas,Irion,2022-04-28 09:13:11,2021-03-04,1.2091749138254808,2.0450832838206576,3.671734115661121,,,,,,,,,,,,
48235,0,USTexasIrion,Texas,Irion,2022-04-28 09:13:11,2021-03-05,1.2091749138254808,2.0450832838206576,3.671734115661121,,,,,,,,,,,,
48235,0,USTexasIrion,Texas,Irion,2022-04-28 09:13:11,2021-03-06,1.2091749138254808,2.0450832838206576,3.671734115661121,,,,,,,,,,,,
48235,0,USTexasIrion,Texas,Irion,2022-04-28 09:13:11,2021-03-07,1.2091749138254808,2.0450832838206576,3.671734115661121,,,,,,,,,,,,
48235,0,USTexasIrion,Texas,Irion,2022-04-28 09:13:11,2021-03-08,1.2091749138254808,2.0450832838206576,3.671734115661121,,,,,,,,,,,,
48235,0,USTexasIrion,Texas,Irion,2022-04-28 09:13:11,2021-03-09,1.2091749138254808,2.0450832838206576,3.671734115661121,,,,,,,,,,,,
48235,0,USTexasIrion,Texas,Irion,2022-04-28 09:13:11,2021-03-10,1.2091749138254808,2.0450832838206576,3.671734115661121,,,,,,,,,,,,
48235,0,USTexasIrion,Texas,Irion,2022-04-28 09:13:11,2021-03-11,0,0,0,,,,,,,,,,,,
48235,0,USTexasIrion,Texas,Irion,2022-04-28 09:13:11,2021-03-12,0,0,0,,,,,,,,,,,,
48235,0,USTexasIrion,Texas,Irion,2022-04-28 09:13:11,2021-03-13,0,0,0,,,,,,,,,,,,
48235,0,USTexasIrion,Texas,Irion,2022-04-28 09:13:11,2021-03-14,0,0,0,,,,,,,,,,,,
48235,0,USTexasIrion,Texas,Irion,2022-04-28 09:13:11,2021-03-15,0,0,0,,,,,,,,,,,,
48235,0,USTexasIrion,Texas,Irion,2022-04-28 09:13:11,2021-03-16,0,0,0,,,,,,,,,,,,
48235,0,USTexasIrion,Texas,Irion,2022-04-28 09:13:11,2021-03-17,0,0,0,,,,,,,,,,,,
48235,0,USTexasIrion,Texas,Irion,2022-04-28 09:13:11,2021-03-18,1.280632087729519,1.9316715313186579,3.058945785790189,,,,,,,,,,,,
48235,0,USTexasIrion,Texas,Irion,2022-04-28 09:13:11,2021-03-19,1.280632087729519,1.9316715313186579,3.058945785790189,,,,,,,,,,,,
48235,0,USTexasIrion,Texas,Irion,2022-04-28 09:13:11,2021-03-20,1.280632087729519,1.9316715313186579,3.058945785790189,,,,,,,,,,,,
48235,0,USTexasIrion,Texas,Irion,2022-04-28 09:13:11,2021-03-21,1.280632087729519,1.9316715313186579,3.058945785790189,,,,,,,,,,,,
48235,0,USTexasIrion,Texas,Irion,2022-04-28 09:13:11,2021-03-22,1.280632087729519,1.9316715313186579,3.058945785790189,,,,,,,,,,,,
48235,0,USTexasIrion,Texas,Irion,2022-04-28 09:13:11,2021-03-23,1.280632087729519,1.9316715313186579,3.058945785790189,,,,,,,,,,,,
48235,0,USTexasIrion,Texas,Irion,2022-04-28 09:13:11,2021-03-24,1.280632087729519,1.9316715313186579,3.058945785790189,,,,,,,,,,,,
48235,0,USTexasIrion,Texas,Irion,2022-04-28 09:13:11,2021-03-25,0.5759702799036481,1.1427489781296136,2.430177106470287,,,,,,,,,,,,
48235,0,USTexasIrion,Texas,Irion,2022-04-28 09:13:11,2021-03-26,0.5759702799036481,1.1427489781296136,2.430177106470287,,,,,,,,,,,,
48235,0,USTexasIrion,Texas,Irion,2022-04-28 09:13:11,2021-03-27,0.5759702799036481,1.1427489781296136,2.430177106470287,,,,,,,,,,,,
48235,0,USTexasIrion,Texas,Irion,2022-04-28 09:13:11,2021-03-28,0.5759702799036481,1.1427489781296136,2.430177106470287,,,,,,,,,,,,
48235,0,USTexasIrion,Texas,Irion,2022-04-28 09:13:11,2021-03-29,0.5759702799036481,1.1427489781296136,2.430177106470287,,,,,,,,,,,,
48235,0,USTexasIrion,Texas,Irion,2022-04-28 09:13:11,2021-03-30,0.5759702799036481,1.1427489781296136,2.430177106470287,,,,,,,,,,,,
48235,0,USTexasIrion,Texas,Irion,2022-04-28 09:13:11,2021-03-31,0.5759702799036481,1.1427489781296136,2.430177106470287,,,,,,,,,,,,
48235,0,USTexasIrion,Texas,Irion,2022-04-28 09:13:11,2021-04-01,0.28993650249985875,0.5787835055206874,1.2387185499699296,,,,,,,,,,,,
48235,0,USTexasIrion,Texas,Irion,2022-04-28 09:13:11,2021-04-02,0.28993650249985875,0.5787835055206874,1.2387185499699296,,,,,,,,,,,,
48235,0,USTexasIrion,Texas,Irion,2022-04-28 09:13:11,2021-04-03,0.28993650249985875,0.5787835055206874,1.2387185499699296,,,,,,,,,,,,
48235,0,USTexasIrion,Texas,Irion,2022-04-28 09:13:11,2021-04-04,0.28993650249985875,0.5787835055206874,1.2387185499699296,,,,,,,,,,,,
48235,0,USTexasIrion,Texas,Irion,2022-04-28 09:13:11,2021-04-05,0.28993650249985875,0.5787835055206874,1.2387185499699296,,,,,,,,,,,,
48235,0,USTexasIrion,Texas,Irion,2022-04-28 09:13:11,2021-04-06,0.28993650249985875,0.5787835055206874,1.2387185499699296,,,,,,,,,,,,
48235,0,USTexasIrion,Texas,Irion,2022-04-28 09:13:11,2021-04-07,0.28993650249985875,0.5787835055206874,1.2387185499699296,,,,,,,,,,,,
48235,0,USTexasIrion,Texas,Irion,2022-04-28 09:13:11,2021-04-08,0,0,0,,,,,,,,,,,,
48235,0,USTexasIrion,Texas,Irion,2022-04-28 09:13:11,2021-04-09,0,0,0,,,,,,,,,,,,
48235,0,USTexasIrion,Texas,Irion,2022-04-28 09:13:11,2021-04-10,0,0,0,,,,,,,,,,,,
48235,0,USTexasIrion,Texas,Irion,2022-04-28 09:13:11,2021-04-11,0,0,0,,,,,,,,,,,,
48235,0,USTexasIrion,Texas,Irion,2022-04-28 09:13:11,2021-04-12,0,0,0,,,,,,,,,,,,
48235,0,USTexasIrion,Texas,Irion,2022-04-28 09:13:11,2021-04-13,0,0,0,,,,,,,,,,,,
48235,0,USTexasIrion,Texas,Irion,2022-04-28 09:13:11,2021-04-14,0,0,0,,,,,,,,,,,,
48235,0,USTexasIrion,Texas,Irion,2022-04-28 09:13:11,2021-04-15,0,0,0,,,,,,,,,,,,
48235,0,USTexasIrion,Texas,Irion,2022-04-28 09:13:11,2021-04-16,0,0,0,,,,,,,,,,,,
48235,0,USTexasIrion,Texas,Irion,2022-04-28 09:13:11,2021-04-17,0,0,0,,,,,,,,,,,,
48235,0,USTexasIrion,Texas,Irion,2022-04-28 09:13:11,2021-04-18,0,0,0,,,,,,,,,,,,
48235,0,USTexasIrion,Texas,Irion,2022-04-28 09:13:11,2021-04-19,0,0,0,,,,,,,,,,,,
48235,0,USTexasIrion,Texas,Irion,2022-04-28 09:13:11,2021-04-20,0,0,0,,,,,,,,,,,,
48235,0,USTexasIrion,Texas,Irion,2022-04-28 09:13:11,2021-04-21,0,0,0,,,,,,,,,,,,
48235,0,USTexasIrion,Texas,Irion,2022-04-28 09:13:11,2021-04-22,0.7308405687550895,1.2444128652184778,2.2505018364993377,,,,,,,,,,,,
48235,0,USTexasIrion,Texas,Irion,2022-04-28 09:13:11,2021-04-23,0.7308405687550895,1.2444128652184778,2.2505018364993377,,,,,,,,,,,,
48235,0,USTexasIrion,Texas,Irion,2022-04-28 09:13:11,2021-04-24,0.7308405687550895,1.2444128652184778,2.2505018364993377,,,,,,,,,,,,
48235,0,USTexasIrion,Texas,Irion,2022-04-28 09:13:11,2021-04-25,0.7308405687550895,1.2444128652184778,2.2505018364993377,,,,,,,,,,,,
48235,0,USTexasIrion,Texas,Irion,2022-04-28 09:13:11,2021-04-26,0.7308405687550895,1.2444128652184778,2.2505018364993377,,,,,,,,,,,,
48235,0,USTexasIrion,Texas,Irion,2022-04-28 09:13:11,2021-04-27,0.7308405687550895,1.2444128652184778,2.2505018364993377,,,,,,,,,,,,
48235,0,USTexasIrion,Texas,Irion,2022-04-28 09:13:11,2021-04-28,0.7308405687550895,1.2444128652184778,2.2505018364993377,,,,,,,,,,,,
48235,0,USTexasIrion,Texas,Irion,2022-04-28 09:13:11,2021-04-29,0.30304292297574154,0.6296546573021603,1.4045969900332522,,,,,,,,,,,,
48235,0,USTexasIrion,Texas,Irion,2022-04-28 09:13:11,2021-04-30,0.30304292297574154,0.6296546573021603,1.4045969900332522,,,,,,,,,,,,
48235,0,USTexasIrion,Texas,Irion,2022-04-28 09:13:11,2021-05-01,0.30304292297574154,0.6296546573021603,1.4045969900332522,,,,,,,,,,,,
48235,0,USTexasIrion,Texas,Irion,2022-04-28 09:13:11,2021-05-02,0.30304292297574154,0.6296546573021603,1.4045969900332522,,,,,,,,,,,,
48235,0,USTexasIrion,Texas,Irion,2022-04-28 09:13:11,2021-05-03,0.30304292297574154,0.6296546573021603,1.4045969900332522,,,,,,,,,,,,
48235,0,USTexasIrion,Texas,Irion,2022-04-28 09:13:11,2021-05-04,0.30304292297574154,0.6296546573021603,1.4045969900332522,,,,,,,,,,,,
48235,0,USTexasIrion,Texas,Irion,2022-04-28 09:13:11,2021-05-05,0.30304292297574154,0.6296546573021603,1.4045969900332522,,,,,,,,,,,,
48235,0,USTexasIrion,Texas,Irion,2022-04-28 09:13:11,2021-05-06,0.29740546048859756,0.607538110123309,1.331711761368518,,,,,,,,,,,,
48235,0,USTexasIrion,Texas,Irion,2022-04-28 09:13:11,2021-05-07,0.29740546048859756,0.607538110123309,1.331711761368518,,,,,,,,,,,,
48235,0,USTexasIrion,Texas,Irion,2022-04-28 09:13:11,2021-05-08,0.29740546048859756,0.607538110123309,1.331711761368518,,,,,,,,,,,,
48235,0,USTexasIrion,Texas,Irion,2022-04-28 09:13:11,2021-05-09,0.29740546048859756,0.607538110123309,1.331711761368518,,,,,,,,,,,,
48235,0,USTexasIrion,Texas,Irion,2022-04-28 09:13:11,2021-05-10,0.29740546048859756,0.607538110123309,1.331711761368518,,,,,,,,,,,,
48235,0,USTexasIrion,Texas,Irion,2022-04-28 09:13:11,2021-05-11,0.29740546048859756,0.607538110123309,1.331711761368518,,,,,,,,,,,,
48235,0,USTexasIrion,Texas,Irion,2022-04-28 09:13:11,2021-05-12,0.29740546048859756,0.607538110123309,1.331711761368518,,,,,,,,,,,,
48235,0,USTexasIrion,Texas,Irion,2022-04-28 09:13:11,2021-05-13,0,0,0,,,,,,,,,,,,
48235,0,USTexasIrion,Texas,Irion,2022-04-28 09:13:11,2021-05-14,0,0,0,,,,,,,,,,,,
48235,0,USTexasIrion,Texas,Irion,2022-04-28 09:13:11,2021-05-15,0,0,0,,,,,,,,,,,,
48235,0,USTexasIrion,Texas,Irion,2022-04-28 09:13:11,2021-05-16,0,0,0,,,,,,,,,,,,
48235,0,USTexasIrion,Texas,Irion,2022-04-28 09:13:11,2021-05-17,0,0,0,,,,,,,,,,,,
48235,0,USTexasIrion,Texas,Irion,2022-04-28 09:13:11,2021-05-18,0,0,0,,,,,,,,,,,,
48235,0,USTexasIrion,Texas,Irion,2022-04-28 09:13:11,2021-05-19,0,0,0,,,,,,,,,,,,
48235,0,USTexasIrion,Texas,Irion,2022-04-28 09:13:11,2021-05-20,0,0,0,,,,,,,,,,,,
48235,0,USTexasIrion,Texas,Irion,2022-04-28 09:13:11,2021-05-21,0,0,0,,,,,,,,,,,,
48235,0,USTexasIrion,Texas,Irion,2022-04-28 09:13:11,2021-05-22,0,0,0,,,,,,,,,,,,
48235,0,USTexasIrion,Texas,Irion,2022-04-28 09:13:11,2021-05-23,0,0,0,,,,,,,,,,,,
48235,0,USTexasIrion,Texas,Irion,2022-04-28 09:13:11,2021-05-24,0,0,0,,,,,,,,,,,,
48235,0,USTexasIrion,Texas,Irion,2022-04-28 09:13:11,2021-05-25,0,0,0,,,,,,,,,,,,
48235,0,USTexasIrion,Texas,Irion,2022-04-28 09:13:11,2021-05-26,0,0,0,,,,,,,,,,,,
48235,0,USTexasIrion,Texas,Irion,2022-04-28 09:13:11,2021-05-27,0.2602457154970726,0.47077805668023454,0.9084474014883109,,,,,,,,,,,,
48235,0,USTexasIrion,Texas,Irion,2022-04-28 09:13:11,2021-05-28,0.2602457154970726,0.47077805668023454,0.9084474014883109,,,,,,,,,,,,
48235,0,USTexasIrion,Texas,Irion,2022-04-28 09:13:11,2021-05-29,0.2602457154970726,0.47077805668023454,0.9084474014883109,,,,,,,,,,,,
48235,0,USTexasIrion,Texas,Irion,2022-04-28 09:13:11,2021-05-30,0.2602457154970726,0.47077805668023454,0.9084474014883109,,,,,,,,,,,,
48235,0,USTexasIrion,Texas,Irion,2022-04-28 09:13:11,2021-05-31,0.2602457154970726,0.47077805668023454,0.9084474014883109,,,,,,,,,,,,
48235,0,USTexasIrion,Texas,Irion,2022-04-28 09:13:11,2021-06-01,0.2602457154970726,0.47077805668023454,0.9084474014883109,,,,,,,,,,,,
48235,0,USTexasIrion,Texas,Irion,2022-04-28 09:13:11,2021-06-02,0.2602457154970726,0.47077805668023454,0.9084474014883109,,,,,,,,,,,,
48235,0,USTexasIrion,Texas,Irion,2022-04-28 09:13:11,2021-06-03,0.7453792847505453,1.2923100967254266,2.383053626319969,,,,,,,,,,,,
48235,0,USTexasIrion,Texas,Irion,2022-04-28 09:13:11,2021-06-04,0.7453792847505453,1.2923100967254266,2.383053626319969,,,,,,,,,,,,
48235,0,USTexasIrion,Texas,Irion,2022-04-28 09:13:11,2021-06-05,0.7453792847505453,1.2923100967254266,2.383053626319969,,,,,,,,,,,,
48235,0,USTexasIrion,Texas,Irion,2022-04-28 09:13:11,2021-06-06,0.7453792847505453,1.2923100967254266,2.383053626319969,,,,,,,,,,,,
48235,0,USTexasIrion,Texas,Irion,2022-04-28 09:13:11,2021-06-07,0.7453792847505453,1.2923100967254266,2.383053626319969,,,,,,,,,,,,
48235,0,USTexasIrion,Texas,Irion,2022-04-28 09:13:11,2021-06-08,0.7453792847505453,1.2923100967254266,2.383053626319969,,,,,,,,,,,,
48235,0,USTexasIrion,Texas,Irion,2022-04-28 09:13:11,2021-06-09,0.7453792847505453,1.2923100967254266,2.383053626319969,,,,,,,,,,,,
48235,0,USTexasIrion,Texas,Irion,2022-04-28 09:13:11,2021-06-10,0,0,0,,,,,,,,,,,,
48235,0,USTexasIrion,Texas,Irion,2022-04-28 09:13:11,2021-06-11,0,0,0,,,,,,,,,,,,
48235,0,USTexasIrion,Texas,Irion,2022-04-28 09:13:11,2021-06-12,0,0,0,,,,,,,,,,,,
48235,0,USTexasIrion,Texas,Irion,2022-04-28 09:13:11,2021-06-13,0,0,0,,,,,,,,,,,,
48235,0,USTexasIrion,Texas,Irion,2022-04-28 09:13:11,2021-06-14,0,0,0,,,,,,,,,,,,
48235,0,USTexasIrion,Texas,Irion,2022-04-28 09:13:11,2021-06-15,0,0,0,,,,,,,,,,,,
48235,0,USTexasIrion,Texas,Irion,2022-04-28 09:13:11,2021-06-16,0,0,0,,,,,,,,,,,,
48235,0,USTexasIrion,Texas,Irion,2022-04-28 09:13:11,2021-06-17,0,0,0,,,,,,,,,,,,
48235,0,USTexasIrion,Texas,Irion,2022-04-28 09:13:11,2021-06-18,0,0,0,,,,,,,,,,,,
48235,0,USTexasIrion,Texas,Irion,2022-04-28 09:13:11,2021-06-19,0,0,0,,,,,,,,,,,,
48235,0,USTexasIrion,Texas,Irion,2022-04-28 09:13:11,2021-06-20,0,0,0,,,,,,,,,,,,
48235,0,USTexasIrion,Texas,Irion,2022-04-28 09:13:11,2021-06-21,0,0,0,,,,,,,,,,,,
48235,0,USTexasIrion,Texas,Irion,2022-04-28 09:13:11,2021-06-22,0,0,0,,,,,,,,,,,,
48235,0,USTexasIrion,Texas,Irion,2022-04-28 09:13:11,2021-06-23,0,0,0,,,,,,,,,,,,
48235,0,USTexasIrion,Texas,Irion,2022-04-28 09:13:11,2021-06-24,0,0,0,,,,,,,,,,,,
48235,0,USTexasIrion,Texas,Irion,2022-04-28 09:13:11,2021-06-25,0,0,0,,,,,,,,,,,,
48235,0,USTexasIrion,Texas,Irion,2022-04-28 09:13:11,2021-06-26,0,0,0,,,,,,,,,,,,
48235,0,USTexasIrion,Texas,Irion,2022-04-28 09:13:11,2021-06-27,0,0,0,,,,,,,,,,,,
48235,0,USTexasIrion,Texas,Irion,2022-04-28 09:13:11,2021-06-28,0,0,0,,,,,,,,,,,,
48235,0,USTexasIrion,Texas,Irion,2022-04-28 09:13:11,2021-06-29,0,0,0,,,,,,,,,,,,
48235,0,USTexasIrion,Texas,Irion,2022-04-28 09:13:11,2021-06-30,0,0,0,,,,,,,,,,,,
48235,0,USTexasIrion,Texas,Irion,2022-04-28 09:13:11,2021-07-01,0,0,0,,,,,,,,,,,,
48235,0,USTexasIrion,Texas,Irion,2022-04-28 09:13:11,2021-07-02,0,0,0,,,,,,,,,,,,
48235,0,USTexasIrion,Texas,Irion,2022-04-28 09:13:11,2021-07-03,0,0,0,,,,,,,,,,,,
48235,0,USTexasIrion,Texas,Irion,2022-04-28 09:13:11,2021-07-04,0,0,0,,,,,,,,,,,,
48235,0,USTexasIrion,Texas,Irion,2022-04-28 09:13:11,2021-07-05,0,0,0,,,,,,,,,,,,
48235,0,USTexasIrion,Texas,Irion,2022-04-28 09:13:11,2021-07-06,0,0,0,,,,,,,,,,,,
48235,0,USTexasIrion,Texas,Irion,2022-04-28 09:13:11,2021-07-07,0,0,0,,,,,,,,,,,,
48235,0,USTexasIrion,Texas,Irion,2022-04-28 09:13:11,2021-07-08,0,0,0,,,,,,,,,,,,
48235,0,USTexasIrion,Texas,Irion,2022-04-28 09:13:11,2021-07-09,0,0,0,,,,,,,,,,,,
48235,0,USTexasIrion,Texas,Irion,2022-04-28 09:13:11,2021-07-10,0,0,0,,,,,,,,,,,,
48235,0,USTexasIrion,Texas,Irion,2022-04-28 09:13:11,2021-07-11,0,0,0,,,,,,,,,,,,
48235,0,USTexasIrion,Texas,Irion,2022-04-28 09:13:11,2021-07-12,0,0,0,,,,,,,,,,,,
48235,0,USTexasIrion,Texas,Irion,2022-04-28 09:13:11,2021-07-13,0,0,0,,,,,,,,,,,,
48235,0,USTexasIrion,Texas,Irion,2022-04-28 09:13:11,2021-07-14,0,0,0,,,,,,,,,,,,
48235,0,USTexasIrion,Texas,Irion,2022-04-28 09:13:11,2021-07-15,0,0,0,,,,,,,,,,,,
48235,0,USTexasIrion,Texas,Irion,2022-04-28 09:13:11,2021-07-16,0,0,0,,,,,,,,,,,,
48235,0,USTexasIrion,Texas,Irion,2022-04-28 09:13:11,2021-07-17,0,0,0,,,,,,,,,,,,
48235,0,USTexasIrion,Texas,Irion,2022-04-28 09:13:11,2021-07-18,0,0,0,,,,,,,,,,,,
48235,0,USTexasIrion,Texas,Irion,2022-04-28 09:13:11,2021-07-19,0,0,0,,,,,,,,,,,,
48235,0,USTexasIrion,Texas,Irion,2022-04-28 09:13:11,2021-07-20,0,0,0,,,,,,,,,,,,
48235,0,USTexasIrion,Texas,Irion,2022-04-28 09:13:11,2021-07-21,0,0,0,,,,,,,,,,,,
48235,0,USTexasIrion,Texas,Irion,2022-04-28 09:13:11,2021-07-22,1.4457345305672293,2.4370188412765685,4.359623129856092,,,,,,,,,,,,
48235,0,USTexasIrion,Texas,Irion,2022-04-28 09:13:11,2021-07-23,1.4457345305672293,2.4370188412765685,4.359623129856092,,,,,,,,,,,,
48235,0,USTexasIrion,Texas,Irion,2022-04-28 09:13:11,2021-07-24,1.4457345305672293,2.4370188412765685,4.359623129856092,,,,,,,,,,,,
48235,0,USTexasIrion,Texas,Irion,2022-04-28 09:13:11,2021-07-25,1.4457345305672293,2.4370188412765685,4.359623129856092,,,,,,,,,,,,
48235,0,USTexasIrion,Texas,Irion,2022-04-28 09:13:11,2021-07-26,1.4457345305672293,2.4370188412765685,4.359623129856092,,,,,,,,,,,,
48235,0,USTexasIrion,Texas,Irion,2022-04-28 09:13:11,2021-07-27,1.4457345305672293,2.4370188412765685,4.359623129856092,,,,,,,,,,,,
48235,0,USTexasIrion,Texas,Irion,2022-04-28 09:13:11,2021-07-28,1.4457345305672293,2.4370188412765685,4.359623129856092,,,,,,,,,,,,
48235,0,USTexasIrion,Texas,Irion,2022-04-28 09:13:11,2021-07-29,0.2886813325245532,0.31085624365085834,0.33613405991538325,,,,,,,,,,,,
48235,0,USTexasIrion,Texas,Irion,2022-04-28 09:13:11,2021-07-30,0.2886813325245532,0.31085624365085834,0.33613405991538325,,,,,,,,,,,,
48235,0,USTexasIrion,Texas,Irion,2022-04-28 09:13:11,2021-07-31,0.2886813325245532,0.31085624365085834,0.33613405991538325,,,,,,,,,,,,
48235,0,USTexasIrion,Texas,Irion,2022-04-28 09:13:11,2021-08-01,0.2886813325245532,0.31085624365085834,0.33613405991538325,,,,,,,,,,,,
48235,0,USTexasIrion,Texas,Irion,2022-04-28 09:13:11,2021-08-02,0.2886813325245532,0.31085624365085834,0.33613405991538325,,,,,,,,,,,,
48235,0,USTexasIrion,Texas,Irion,2022-04-28 09:13:11,2021-08-03,0.2886813325245532,0.31085624365085834,0.33613405991538325,,,,,,,,,,,,
48235,0,USTexasIrion,Texas,Irion,2022-04-28 09:13:11,2021-08-04,0.2886813325245532,0.31085624365085834,0.33613405991538325,,,,,,,,,,,,
48235,0,USTexasIrion,Texas,Irion,2022-04-28 09:13:11,2021-08-05,1.4452529905516407,2.877072648732477,6.139783310924546,,,,,,,,,,,,
48235,0,USTexasIrion,Texas,Irion,2022-04-28 09:13:11,2021-08-06,1.4452529905516407,2.877072648732477,6.139783310924546,,,,,,,,,,,,
48235,0,USTexasIrion,Texas,Irion,2022-04-28 09:13:11,2021-08-07,1.4452529905516407,2.877072648732477,6.139783310924546,,,,,,,,,,,,
48235,0,USTexasIrion,Texas,Irion,2022-04-28 09:13:11,2021-08-08,1.4452529905516407,2.877072648732477,6.139783310924546,,,,,,,,,,,,
48235,0,USTexasIrion,Texas,Irion,2022-04-28 09:13:11,2021-08-09,1.4452529905516407,2.877072648732477,6.139783310924546,,,,,,,,,,,,
48235,0,USTexasIrion,Texas,Irion,2022-04-28 09:13:11,2021-08-10,1.4452529905516407,2.877072648732477,6.139783310924546,,,,,,,,,,,,
48235,0,USTexasIrion,Texas,Irion,2022-04-28 09:13:11,2021-08-11,1.4452529905516407,2.877072648732477,6.139783310924546,,,,,,,,,,,,
48235,0,USTexasIrion,Texas,Irion,2022-04-28 09:13:11,2021-08-12,1.1171915785293731,2.1556617756139254,4.452829368363629,,,,,,,,,,,,
48235,0,USTexasIrion,Texas,Irion,2022-04-28 09:13:11,2021-08-13,1.1171915785293731,2.1556617756139254,4.452829368363629,,,,,,,,,,,,
48235,0,USTexasIrion,Texas,Irion,2022-04-28 09:13:11,2021-08-14,1.1171915785293731,2.1556617756139254,4.452829368363629,,,,,,,,,,,,
48235,0,USTexasIrion,Texas,Irion,2022-04-28 09:13:11,2021-08-15,1.1171915785293731,2.1556617756139254,4.452829368363629,,,,,,,,,,,,
48235,0,USTexasIrion,Texas,Irion,2022-04-28 09:13:11,2021-08-16,1.1171915785293731,2.1556617756139254,4.452829368363629,,,,,,,,,,,,
48235,0,USTexasIrion,Texas,Irion,2022-04-28 09:13:11,2021-08-17,1.1171915785293731,2.1556617756139254,4.452829368363629,,,,,,,,,,,,
48235,0,USTexasIrion,Texas,Irion,2022-04-28 09:13:11,2021-08-18,1.1171915785293731,2.1556617756139254,4.452829368363629,,,,,,,,,,,,
48235,0,USTexasIrion,Texas,Irion,2022-04-28 09:13:11,2021-08-19,2.577879340744012,5.089541825768076,10.768188561858922,,,,,,,,,,,,
48235,0,USTexasIrion,Texas,Irion,2022-04-28 09:13:11,2021-08-20,2.577879340744012,5.089541825768076,10.768188561858922,,,,,,,,,,,,
48235,0,USTexasIrion,Texas,Irion,2022-04-28 09:13:11,2021-08-21,2.577879340744012,5.089541825768076,10.768188561858922,,,,,,,,,,,,
48235,0,USTexasIrion,Texas,Irion,2022-04-28 09:13:11,2021-08-22,2.577879340744012,5.089541825768076,10.768188561858922,,,,,,,,,,,,
48235,0,USTexasIrion,Texas,Irion,2022-04-28 09:13:11,2021-08-23,2.577879340744012,5.089541825768076,10.768188561858922,,,,,,,,,,,,
48235,0,USTexasIrion,Texas,Irion,2022-04-28 09:13:11,2021-08-24,2.577879340744012,5.089541825768076,10.768188561858922,,,,,,,,,,,,
48235,0,USTexasIrion,Texas,Irion,2022-04-28 09:13:11,2021-08-25,2.577879340744012,5.089541825768076,10.768188561858922,,,,,,,,,,,,
48235,0,USTexasIrion,Texas,Irion,2022-04-28 09:13:11,2021-08-26,2.0433974818157763,3.633697365156785,6.88504628966638,,,,,,,,,,,,
48235,0,USTexasIrion,Texas,Irion,2022-04-28 09:13:11,2021-08-27,2.0433974818157763,3.633697365156785,6.88504628966638,,,,,,,,,,,,
48235,0,USTexasIrion,Texas,Irion,2022-04-28 09:13:11,2021-08-28,2.0433974818157763,3.633697365156785,6.88504628966638,,,,,,,,,,,,
48235,0,USTexasIrion,Texas,Irion,2022-04-28 09:13:11,2021-08-29,2.0433974818157763,3.633697365156785,6.88504628966638,,,,,,,,,,,,
48235,0,USTexasIrion,Texas,Irion,2022-04-28 09:13:11,2021-08-30,2.0433974818157763,3.633697365156785,6.88504628966638,,,,,,,,,,,,
48235,0,USTexasIrion,Texas,Irion,2022-04-28 09:13:11,2021-08-31,2.0433974818157763,3.633697365156785,6.88504628966638,,,,,,,,,,,,
48235,0,USTexasIrion,Texas,Irion,2022-04-28 09:13:11,2021-09-01,2.0433974818157763,3.633697365156785,6.88504628966638,,,,,,,,,,,,
48235,0,USTexasIrion,Texas,Irion,2022-04-28 09:13:11,2021-09-02,1.2642328971467145,2.22733526911516,4.178564048155808,,,,,,,,,,,,
48235,0,USTexasIrion,Texas,Irion,2022-04-28 09:13:11,2021-09-03,1.2642328971467145,2.22733526911516,4.178564048155808,,,,,,,,,,,,
48235,0,USTexasIrion,Texas,Irion,2022-04-28 09:13:11,2021-09-04,1.2642328971467145,2.22733526911516,4.178564048155808,,,,,,,,,,,,
48235,0,USTexasIrion,Texas,Irion,2022-04-28 09:13:11,2021-09-05,1.2642328971467145,2.22733526911516,4.178564048155808,,,,,,,,,,,,
48235,0,USTexasIrion,Texas,Irion,2022-04-28 09:13:11,2021-09-06,1.2642328971467145,2.22733526911516,4.178564048155808,,,,,,,,,,,,
48235,0,USTexasIrion,Texas,Irion,2022-04-28 09:13:11,2021-09-07,1.2642328971467145,2.22733526911516,4.178564048155808,,,,,,,,,,,,
48235,0,USTexasIrion,Texas,Irion,2022-04-28 09:13:11,2021-09-08,1.2642328971467145,2.22733526911516,4.178564048155808,,,,,,,,,,,,
48235,0,USTexasIrion,Texas,Irion,2022-04-28 09:13:11,2021-09-09,1.5852095186953277,2.9074602070525914,5.6932715355316015,,,,,,,,,,,,
48235,0,USTexasIrion,Texas,Irion,2022-04-28 09:13:11,2021-09-10,1.5852095186953277,2.9074602070525914,5.6932715355316015,,,,,,,,,,,,
48235,0,USTexasIrion,Texas,Irion,2022-04-28 09:13:11,2021-09-11,1.5852095186953277,2.9074602070525914,5.6932715355316015,,,,,,,,,,,,
48235,0,USTexasIrion,Texas,Irion,2022-04-28 09:13:11,2021-09-12,1.5852095186953277,2.9074602070525914,5.6932715355316015,,,,,,,,,,,,
48235,0,USTexasIrion,Texas,Irion,2022-04-28 09:13:11,2021-09-13,1.5852095186953277,2.9074602070525914,5.6932715355316015,,,,,,,,,,,,
48235,0,USTexasIrion,Texas,Irion,2022-04-28 09:13:11,2021-09-14,1.5852095186953277,2.9074602070525914,5.6932715355316015,,,,,,,,,,,,
48235,0,USTexasIrion,Texas,Irion,2022-04-28 09:13:11,2021-09-15,1.5852095186953277,2.9074602070525914,5.6932715355316015,,,,,,,,,,,,
48235,0,USTexasIrion,Texas,Irion,2022-04-28 09:13:11,2021-09-16,0.8971502544102808,1.4160420754692271,2.3577932008661207,,,,,,,,,,,,
48235,0,USTexasIrion,Texas,Irion,2022-04-28 09:13:11,2021-09-17,0.8971502544102808,1.4160420754692271,2.3577932008661207,,,,,,,,,,,,
48235,0,USTexasIrion,Texas,Irion,2022-04-28 09:13:11,2021-09-18,0.8971502544102808,1.4160420754692271,2.3577932008661207,,,,,,,,,,,,
48235,0,USTexasIrion,Texas,Irion,2022-04-28 09:13:11,2021-09-19,0.8971502544102808,1.4160420754692271,2.3577932008661207,,,,,,,,,,,,
48235,0,USTexasIrion,Texas,Irion,2022-04-28 09:13:11,2021-09-20,0.8971502544102808,1.4160420754692271,2.3577932008661207,,,,,,,,,,,,
48235,0,USTexasIrion,Texas,Irion,2022-04-28 09:13:11,2021-09-21,0.8971502544102808,1.4160420754692271,2.3577932008661207,,,,,,,,,,,,
48235,0,USTexasIrion,Texas,Irion,2022-04-28 09:13:11,2021-09-22,0.8971502544102808,1.4160420754692271,2.3577932008661207,,,,,,,,,,,,
48235,0,USTexasIrion,Texas,Irion,2022-04-28 09:13:11,2021-09-23,0.8672221015785366,1.7265106156613024,3.684721884679968,,,,,,,,,,,,
48235,0,USTexasIrion,Texas,Irion,2022-04-28 09:13:11,2021-09-24,0.8672221015785366,1.7265106156613024,3.684721884679968,,,,,,,,,,,,
48235,0,USTexasIrion,Texas,Irion,2022-04-28 09:13:11,2021-09-25,0.8672221015785366,1.7265106156613024,3.684721884679968,,,,,,,,,,,,
48235,0,USTexasIrion,Texas,Irion,2022-04-28 09:13:11,2021-09-26,0.8672221015785366,1.7265106156613024,3.684721884679968,,,,,,,,,,,,
48235,0,USTexasIrion,Texas,Irion,2022-04-28 09:13:11,2021-09-27,0.8672221015785366,1.7265106156613024,3.684721884679968,,,,,,,,,,,,
48235,0,USTexasIrion,Texas,Irion,2022-04-28 09:13:11,2021-09-28,0.8672221015785366,1.7265106156613024,3.684721884679968,,,,,,,,,,,,
48235,0,USTexasIrion,Texas,Irion,2022-04-28 09:13:11,2021-09-29,0.8672221015785366,1.7265106156613024,3.684721884679968,,,,,,,,,,,,
48235,0,USTexasIrion,Texas,Irion,2022-04-28 09:13:11,2021-09-30,1.4644568693066182,4.614729882415922,15.584617666811454,,,,,,,,,,,,
48235,0,USTexasIrion,Texas,Irion,2022-04-28 09:13:11,2021-10-01,1.4644568693066182,4.614729882415922,15.584617666811454,,,,,,,,,,,,
48235,0,USTexasIrion,Texas,Irion,2022-04-28 09:13:11,2021-10-02,1.4644568693066182,4.614729882415922,15.584617666811454,,,,,,,,,,,,
48235,0,USTexasIrion,Texas,Irion,2022-04-28 09:13:11,2021-10-03,1.4644568693066182,4.614729882415922,15.584617666811454,,,,,,,,,,,,
48235,0,USTexasIrion,Texas,Irion,2022-04-28 09:13:11,2021-10-04,1.4644568693066182,4.614729882415922,15.584617666811454,,,,,,,,,,,,
48235,0,USTexasIrion,Texas,Irion,2022-04-28 09:13:11,2021-10-05,1.4644568693066182,4.614729882415922,15.584617666811454,,,,,,,,,,,,
48235,0,USTexasIrion,Texas,Irion,2022-04-28 09:13:11,2021-10-06,1.4644568693066182,4.614729882415922,15.584617666811454,,,,,,,,,,,,
48235,0,USTexasIrion,Texas,Irion,2022-04-28 09:13:11,2021-10-07,1.7121777123665607,4.82477131254305,14.61080400833114,,,,,,,,,,,,
48235,0,USTexasIrion,Texas,Irion,2022-04-28 09:13:11,2021-10-08,1.7121777123665607,4.82477131254305,14.61080400833114,,,,,,,,,,,,
48235,0,USTexasIrion,Texas,Irion,2022-04-28 09:13:11,2021-10-09,1.7121777123665607,4.82477131254305,14.61080400833114,,,,,,,,,,,,
48235,0,USTexasIrion,Texas,Irion,2022-04-28 09:13:11,2021-10-10,1.7121777123665607,4.82477131254305,14.61080400833114,,,,,,,,,,,,
48235,0,USTexasIrion,Texas,Irion,2022-04-28 09:13:11,2021-10-11,1.7121777123665607,4.82477131254305,14.61080400833114,,,,,,,,,,,,
48235,0,USTexasIrion,Texas,Irion,2022-04-28 09:13:11,2021-10-12,1.7121777123665607,4.82477131254305,14.61080400833114,,,,,,,,,,,,
48235,0,USTexasIrion,Texas,Irion,2022-04-28 09:13:11,2021-10-13,1.7121777123665607,4.82477131254305,14.61080400833114,,,,,,,,,,,,
48235,0,USTexasIrion,Texas,Irion,2022-04-28 09:13:11,2021-10-14,0,0,0,,,,,,,,,,,,
48235,0,USTexasIrion,Texas,Irion,2022-04-28 09:13:11,2021-10-15,0,0,0,,,,,,,,,,,,
48235,0,USTexasIrion,Texas,Irion,2022-04-28 09:13:11,2021-10-16,0,0,0,,,,,,,,,,,,
48235,0,USTexasIrion,Texas,Irion,2022-04-28 09:13:11,2021-10-17,0,0,0,,,,,,,,,,,,
48235,0,USTexasIrion,Texas,Irion,2022-04-28 09:13:11,2021-10-18,0,0,0,,,,,,,,,,,,
48235,0,USTexasIrion,Texas,Irion,2022-04-28 09:13:11,2021-10-19,0,0,0,,,,,,,,,,,,
48235,0,USTexasIrion,Texas,Irion,2022-04-28 09:13:11,2021-10-20,0,0,0,,,,,,,,,,,,
48235,0,USTexasIrion,Texas,Irion,2022-04-28 09:13:11,2021-10-21,0.5428722680429177,1.8693237578842474,6.878468901475111,,,,,,,,,,,,
48235,0,USTexasIrion,Texas,Irion,2022-04-28 09:13:11,2021-10-22,0.5428722680429177,1.8693237578842474,6.878468901475111,,,,,,,,,,,,
48235,0,USTexasIrion,Texas,Irion,2022-04-28 09:13:11,2021-10-23,0.5428722680429177,1.8693237578842474,6.878468901475111,,,,,,,,,,,,
48235,0,USTexasIrion,Texas,Irion,2022-04-28 09:13:11,2021-10-24,0.5428722680429177,1.8693237578842474,6.878468901475111,,,,,,,,,,,,
48235,0,USTexasIrion,Texas,Irion,2022-04-28 09:13:11,2021-10-25,0.5428722680429177,1.8693237578842474,6.878468901475111,,,,,,,,,,,,
48235,0,USTexasIrion,Texas,Irion,2022-04-28 09:13:11,2021-10-26,0.5428722680429177,1.8693237578842474,6.878468901475111,,,,,,,,,,,,
48235,0,USTexasIrion,Texas,Irion,2022-04-28 09:13:11,2021-10-27,0.5428722680429177,1.8693237578842474,6.878468901475111,,,,,,,,,,,,
48235,0,USTexasIrion,Texas,Irion,2022-04-28 09:13:11,2021-10-28,1.0857445360858353,3.7386475157684944,13.756937802950223,,,,,,,,,,,,
48235,0,USTexasIrion,Texas,Irion,2022-04-28 09:13:11,2021-10-29,1.0857445360858353,3.7386475157684944,13.756937802950223,,,,,,,,,,,,
48235,0,USTexasIrion,Texas,Irion,2022-04-28 09:13:11,2021-10-30,1.0857445360858353,3.7386475157684944,13.756937802950223,,,,,,,,,,,,
48235,0,USTexasIrion,Texas,Irion,2022-04-28 09:13:11,2021-10-31,1.0857445360858353,3.7386475157684944,13.756937802950223,,,,,,,,,,,,
48235,0,USTexasIrion,Texas,Irion,2022-04-28 09:13:11,2021-11-01,1.0857445360858353,3.7386475157684944,13.756937802950223,,,,,,,,,,,,
48235,0,USTexasIrion,Texas,Irion,2022-04-28 09:13:11,2021-11-02,1.0857445360858353,3.7386475157684944,13.756937802950223,,,,,,,,,,,,
48235,0,USTexasIrion,Texas,Irion,2022-04-28 09:13:11,2021-11-03,1.0857445360858353,3.7386475157684944,13.756937802950223,,,,,,,,,,,,
48235,0,USTexasIrion,Texas,Irion,2022-04-28 09:13:11,2021-11-04,1.0857445360858353,3.7386475157684944,13.756937802950223,,,,,,,,,,,,
48235,0,USTexasIrion,Texas,Irion,2022-04-28 09:13:11,2021-11-05,1.0857445360858353,3.7386475157684944,13.756937802950223,,,,,,,,,,,,
48235,0,USTexasIrion,Texas,Irion,2022-04-28 09:13:11,2021-11-06,1.0857445360858353,3.7386475157684944,13.756937802950223,,,,,,,,,,,,
48235,0,USTexasIrion,Texas,Irion,2022-04-28 09:13:11,2021-11-07,1.0857445360858353,3.7386475157684944,13.756937802950223,,,,,,,,,,,,
48235,0,USTexasIrion,Texas,Irion,2022-04-28 09:13:11,2021-11-08,1.0857445360858353,3.7386475157684944,13.756937802950223,,,,,,,,,,,,
48235,0,USTexasIrion,Texas,Irion,2022-04-28 09:13:11,2021-11-09,1.0857445360858353,3.7386475157684944,13.756937802950223,,,,,,,,,,,,
48235,0,USTexasIrion,Texas,Irion,2022-04-28 09:13:11,2021-11-10,1.0857445360858353,3.7386475157684944,13.756937802950223,,,,,,,,,,,,
48235,0,USTexasIrion,Texas,Irion,2022-04-28 09:13:11,2021-11-11,0.3803135613071213,0.967213962275457,2.6468866172233882,,,,,,,,,,,,
48235,0,USTexasIrion,Texas,Irion,2022-04-28 09:13:11,2021-11-12,0.3803135613071213,0.967213962275457,2.6468866172233882,,,,,,,,,,,,
48235,0,USTexasIrion,Texas,Irion,2022-04-28 09:13:11,2021-11-13,0.3803135613071213,0.967213962275457,2.6468866172233882,,,,,,,,,,,,
48235,0,USTexasIrion,Texas,Irion,2022-04-28 09:13:11,2021-11-14,0.3803135613071213,0.967213962275457,2.6468866172233882,,,,,,,,,,,,
48235,0,USTexasIrion,Texas,Irion,2022-04-28 09:13:11,2021-11-15,0.3803135613071213,0.967213962275457,2.6468866172233882,,,,,,,,,,,,
48235,0,USTexasIrion,Texas,Irion,2022-04-28 09:13:11,2021-11-16,0.3803135613071213,0.967213962275457,2.6468866172233882,,,,,,,,,,,,
48235,0,USTexasIrion,Texas,Irion,2022-04-28 09:13:11,2021-11-17,0.3803135613071213,0.967213962275457,2.6468866172233882,,,,,,,,,,,,
48235,0,USTexasIrion,Texas,Irion,2022-04-28 09:13:11,2021-11-18,0.42804442809164017,1.2061928281357626,3.652701002082786,,,,,,,,,,,,
48235,0,USTexasIrion,Texas,Irion,2022-04-28 09:13:11,2021-11-19,0.42804442809164017,1.2061928281357626,3.652701002082786,,,,,,,,,,,,
48235,0,USTexasIrion,Texas,Irion,2022-04-28 09:13:11,2021-11-20,0.42804442809164017,1.2061928281357626,3.652701002082786,,,,,,,,,,,,
48235,0,USTexasIrion,Texas,Irion,2022-04-28 09:13:11,2021-11-21,0.42804442809164017,1.2061928281357626,3.652701002082786,,,,,,,,,,,,
48235,0,USTexasIrion,Texas,Irion,2022-04-28 09:13:11,2021-11-22,0.42804442809164017,1.2061928281357626,3.652701002082786,,,,,,,,,,,,
48235,0,USTexasIrion,Texas,Irion,2022-04-28 09:13:11,2021-11-23,0.42804442809164017,1.2061928281357626,3.652701002082786,,,,,,,,,,,,
48235,0,USTexasIrion,Texas,Irion,2022-04-28 09:13:11,2021-11-24,0.42804442809164017,1.2061928281357626,3.652701002082786,,,,,,,,,,,,
48235,0,USTexasIrion,Texas,Irion,2022-04-28 09:13:11,2021-11-25,0.8560888561832803,2.412385656271525,7.30540200416557,,,,,,,,,,,,
48235,0,USTexasIrion,Texas,Irion,2022-04-28 09:13:11,2021-11-26,0.8560888561832803,2.412385656271525,7.30540200416557,,,,,,,,,,,,
48235,0,USTexasIrion,Texas,Irion,2022-04-28 09:13:11,2021-11-27,0.8560888561832803,2.412385656271525,7.30540200416557,,,,,,,,,,,,
48235,0,USTexasIrion,Texas,Irion,2022-04-28 09:13:11,2021-11-28,0.8560888561832803,2.412385656271525,7.30540200416557,,,,,,,,,,,,
48235,0,USTexasIrion,Texas,Irion,2022-04-28 09:13:11,2021-11-29,0.8560888561832803,2.412385656271525,7.30540200416557,,,,,,,,,,,,
48235,0,USTexasIrion,Texas,Irion,2022-04-28 09:13:11,2021-11-30,0.8560888561832803,2.412385656271525,7.30540200416557,,,,,,,,,,,,
48235,0,USTexasIrion,Texas,Irion,2022-04-28 09:13:11,2021-12-01,0.8560888561832803,2.412385656271525,7.30540200416557,,,,,,,,,,,,
48235,0,USTexasIrion,Texas,Irion,2022-04-28 09:13:11,2021-12-02,0.5428722680429177,1.8693237578842474,6.878468901475111,,,,,,,,,,,,
48235,0,USTexasIrion,Texas,Irion,2022-04-28 09:13:11,2021-12-03,0.5428722680429177,1.8693237578842474,6.878468901475111,,,,,,,,,,,,
48235,0,USTexasIrion,Texas,Irion,2022-04-28 09:13:11,2021-12-04,0.5428722680429177,1.8693237578842474,6.878468901475111,,,,,,,,,,,,
48235,0,USTexasIrion,Texas,Irion,2022-04-28 09:13:11,2021-12-05,0.5428722680429177,1.8693237578842474,6.878468901475111,,,,,,,,,,,,
48235,0,USTexasIrion,Texas,Irion,2022-04-28 09:13:11,2021-12-06,0.5428722680429177,1.8693237578842474,6.878468901475111,,,,,,,,,,,,
48235,0,USTexasIrion,Texas,Irion,2022-04-28 09:13:11,2021-12-07,0.5428722680429177,1.8693237578842474,6.878468901475111,,,,,,,,,,,,
48235,0,USTexasIrion,Texas,Irion,2022-04-28 09:13:11,2021-12-08,0.5428722680429177,1.8693237578842474,6.878468901475111,,,,,,,,,,,,
48235,0,USTexasIrion,Texas,Irion,2022-04-28 09:13:11,2021-12-09,0.3515934252325695,0.8344259852874963,2.130996841207945,,,,,,,,,,,,
48235,0,USTexasIrion,Texas,Irion,2022-04-28 09:13:11,2021-12-10,0.3515934252325695,0.8344259852874963,2.130996841207945,,,,,,,,,,,,
48235,0,USTexasIrion,Texas,Irion,2022-04-28 09:13:11,2021-12-11,0.3515934252325695,0.8344259852874963,2.130996841207945,,,,,,,,,,,,
48235,0,USTexasIrion,Texas,Irion,2022-04-28 09:13:11,2021-12-12,0.3515934252325695,0.8344259852874963,2.130996841207945,,,,,,,,,,,,
48235,0,USTexasIrion,Texas,Irion,2022-04-28 09:13:11,2021-12-13,0.3515934252325695,0.8344259852874963,2.130996841207945,,,,,,,,,,,,
48235,0,USTexasIrion,Texas,Irion,2022-04-28 09:13:11,2021-12-14,0.3515934252325695,0.8344259852874963,2.130996841207945,,,,,,,,,,,,
48235,0,USTexasIrion,Texas,Irion,2022-04-28 09:13:11,2021-12-15,0.3515934252325695,0.8344259852874963,2.130996841207945,,,,,,,,,,,,
48235,0,USTexasIrion,Texas,Irion,2022-04-28 09:13:11,2021-12-16,1.8126898076483815,5.363520297464954,17.036888525348033,,,,,,,,,,,,
48235,0,USTexasIrion,Texas,Irion,2022-04-28 09:13:11,2021-12-17,1.8126898076483815,5.363520297464954,17.036888525348033,,,,,,,,,,,,
48235,0,USTexasIrion,Texas,Irion,2022-04-28 09:13:11,2021-12-18,1.8126898076483815,5.363520297464954,17.036888525348033,,,,,,,,,,,,
48235,0,USTexasIrion,Texas,Irion,2022-04-28 09:13:11,2021-12-19,1.8126898076483815,5.363520297464954,17.036888525348033,,,,,,,,,,,,
48235,0,USTexasIrion,Texas,Irion,2022-04-28 09:13:11,2021-12-20,1.8126898076483815,5.363520297464954,17.036888525348033,,,,,,,,,,,,
48235,0,USTexasIrion,Texas,Irion,2022-04-28 09:13:11,2021-12-21,1.8126898076483815,5.363520297464954,17.036888525348033,,,,,,,,,,,,
48235,0,USTexasIrion,Texas,Irion,2022-04-28 09:13:11,2021-12-22,1.8126898076483815,5.363520297464954,17.036888525348033,,,,,,,,,,,,
48235,0,USTexasIrion,Texas,Irion,2022-04-28 09:13:11,2021-12-23,3.3243313175056204,8.240592946197431,21.983060742621316,,,,,,,,,,,,
48235,0,USTexasIrion,Texas,Irion,2022-04-28 09:13:11,2021-12-24,3.3243313175056204,8.240592946197431,21.983060742621316,,,,,,,,,,,,
48235,0,USTexasIrion,Texas,Irion,2022-04-28 09:13:11,2021-12-25,3.3243313175056204,8.240592946197431,21.983060742621316,,,,,,,,,,,,
48235,0,USTexasIrion,Texas,Irion,2022-04-28 09:13:11,2021-12-26,3.3243313175056204,8.240592946197431,21.983060742621316,,,,,,,,,,,,
48235,0,USTexasIrion,Texas,Irion,2022-04-28 09:13:11,2021-12-27,3.3243313175056204,8.240592946197431,21.983060742621316,,,,,,,,,,,,
48235,0,USTexasIrion,Texas,Irion,2022-04-28 09:13:11,2021-12-28,3.3243313175056204,8.240592946197431,21.983060742621316,,,,,,,,,,,,
48235,0,USTexasIrion,Texas,Irion,2022-04-28 09:13:11,2021-12-29,3.3243313175056204,8.240592946197431,21.983060742621316,,,,,,,,,,,,
48235,0,USTexasIrion,Texas,Irion,2022-04-28 09:13:11,2021-12-30,8.099638944337956,15.628547873200956,32.2830129206363,,,,,,,,,,,,
48235,0,USTexasIrion,Texas,Irion,2022-04-28 09:13:11,2021-12-31,8.099638944337956,15.628547873200956,32.2830129206363,,,,,,,,,,,,
48235,0,USTexasIrion,Texas,Irion,2022-04-28 09:13:11,2022-01-01,8.099638944337956,15.628547873200956,32.2830129206363,,,,,,,,,,,,
48235,0,USTexasIrion,Texas,Irion,2022-04-28 09:13:11,2022-01-02,8.099638944337956,15.628547873200956,32.2830129206363,,,,,,,,,,,,
48235,0,USTexasIrion,Texas,Irion,2022-04-28 09:13:11,2022-01-03,8.099638944337956,15.628547873200956,32.2830129206363,,,,,,,,,,,,
48235,0,USTexasIrion,Texas,Irion,2022-04-28 09:13:11,2022-01-04,8.099638944337956,15.628547873200956,32.2830129206363,,,,,,,,,,,,
48235,0,USTexasIrion,Texas,Irion,2022-04-28 09:13:11,2022-01-05,8.099638944337956,15.628547873200956,32.2830129206363,,,,,,,,,,,,
48235,0,USTexasIrion,Texas,Irion,2022-04-28 09:13:11,2022-01-06,10.983261464759797,19.53112333771772,37.0071238069568,,,,,,,,,,,,
48235,0,USTexasIrion,Texas,Irion,2022-04-28 09:13:11,2022-01-07,10.983261464759797,19.53112333771772,37.0071238069568,,,,,,,,,,,,
48235,0,USTexasIrion,Texas,Irion,2022-04-28 09:13:11,2022-01-08,10.983261464759797,19.53112333771772,37.0071238069568,,,,,,,,,,,,
48235,0,USTexasIrion,Texas,Irion,2022-04-28 09:13:11,2022-01-09,10.983261464759797,19.53112333771772,37.0071238069568,,,,,,,,,,,,
48235,0,USTexasIrion,Texas,Irion,2022-04-28 09:13:11,2022-01-10,10.983261464759797,19.53112333771772,37.0071238069568,,,,,,,,,,,,
48235,0,USTexasIrion,Texas,Irion,2022-04-28 09:13:11,2022-01-11,10.983261464759797,19.53112333771772,37.0071238069568,,,,,,,,,,,,
48235,0,USTexasIrion,Texas,Irion,2022-04-28 09:13:11,2022-01-12,10.983261464759797,19.53112333771772,37.0071238069568,,,,,,,,,,,,
48235,0,USTexasIrion,Texas,Irion,2022-04-28 09:13:11,2022-01-13,13.491786550878034,22.73989872898267,40.67458263550095,,,,,,,,,,,,
48235,0,USTexasIrion,Texas,Irion,2022-04-28 09:13:11,2022-01-14,13.491786550878034,22.73989872898267,40.67458263550095,,,,,,,,,,,,
48235,0,USTexasIrion,Texas,Irion,2022-04-28 09:13:11,2022-01-15,13.491786550878034,22.73989872898267,40.67458263550095,,,,,,,,,,,,
48235,0,USTexasIrion,Texas,Irion,2022-04-28 09:13:11,2022-01-16,13.491786550878034,22.73989872898267,40.67458263550095,,,,,,,,,,,,
48235,0,USTexasIrion,Texas,Irion,2022-04-28 09:13:11,2022-01-17,13.491786550878034,22.73989872898267,40.67458263550095,,,,,,,,,,,,
48235,0,USTexasIrion,Texas,Irion,2022-04-28 09:13:11,2022-01-18,13.491786550878034,22.73989872898267,40.67458263550095,,,,,,,,,,,,
48235,0,USTexasIrion,Texas,Irion,2022-04-28 09:13:11,2022-01-19,13.491786550878034,22.73989872898267,40.67458263550095,,,,,,,,,,,,
48235,0,USTexasIrion,Texas,Irion,2022-04-28 09:13:11,2022-01-20,11.769424432368467,20.552453774736108,38.19263348428172,,,,,,,,,,,,
48235,0,USTexasIrion,Texas,Irion,2022-04-28 09:13:11,2022-01-21,11.769424432368467,20.552453774736108,38.19263348428172,,,,,,,,,,,,
48235,0,USTexasIrion,Texas,Irion,2022-04-28 09:13:11,2022-01-22,11.769424432368467,20.552453774736108,38.19263348428172,,,,,,,,,,,,
48235,0,USTexasIrion,Texas,Irion,2022-04-28 09:13:11,2022-01-23,11.769424432368467,20.552453774736108,38.19263348428172,,,,,,,,,,,,
48235,0,USTexasIrion,Texas,Irion,2022-04-28 09:13:11,2022-01-24,11.769424432368467,20.552453774736108,38.19263348428172,,,,,,,,,,,,
48235,0,USTexasIrion,Texas,Irion,2022-04-28 09:13:11,2022-01-25,11.769424432368467,20.552453774736108,38.19263348428172,,,,,,,,,,,,
48235,0,USTexasIrion,Texas,Irion,2022-04-28 09:13:11,2022-01-26,11.769424432368467,20.552453774736108,38.19263348428172,,,,,,,,,,,,
48235,0,USTexasIrion,Texas,Irion,2022-04-28 09:13:11,2022-01-27,8.5267055708455,16.224668434360265,33.02747067472288,,,,,,,,,,,,
48235,0,USTexasIrion,Texas,Irion,2022-04-28 09:13:11,2022-01-28,8.5267055708455,16.224668434360265,33.02747067472288,,,,,,,,,,,,
48235,0,USTexasIrion,Texas,Irion,2022-04-28 09:13:11,2022-01-29,8.5267055708455,16.224668434360265,33.02747067472288,,,,,,,,,,,,
48235,0,USTexasIrion,Texas,Irion,2022-04-28 09:13:11,2022-01-30,8.5267055708455,16.224668434360265,33.02747067472288,,,,,,,,,,,,
48235,0,USTexasIrion,Texas,Irion,2022-04-28 09:13:11,2022-01-31,8.5267055708455,16.224668434360265,33.02747067472288,,,,,,,,,,,,
48235,0,USTexasIrion,Texas,Irion,2022-04-28 09:13:11,2022-02-01,8.5267055708455,16.224668434360265,33.02747067472288,,,,,,,,,,,,
48235,0,USTexasIrion,Texas,Irion,2022-04-28 09:13:11,2022-02-02,8.5267055708455,16.224668434360265,33.02747067472288,,,,,,,,,,,,
48235,0,USTexasIrion,Texas,Irion,2022-04-28 09:13:11,2022-02-03,5.62040888087208,11.997192547305483,27.514823741805895,,,,,,,,,,,,
48235,0,USTexasIrion,Texas,Irion,2022-04-28 09:13:11,2022-02-04,5.62040888087208,11.997192547305483,27.514823741805895,,,,,,,,,,,,
48235,0,USTexasIrion,Texas,Irion,2022-04-28 09:13:11,2022-02-05,5.62040888087208,11.997192547305483,27.514823741805895,,,,,,,,,,,,
48235,0,USTexasIrion,Texas,Irion,2022-04-28 09:13:11,2022-02-06,5.62040888087208,11.997192547305483,27.514823741805895,,,,,,,,,,,,
48235,0,USTexasIrion,Texas,Irion,2022-04-28 09:13:11,2022-02-07,5.62040888087208,11.997192547305483,27.514823741805895,,,,,,,,,,,,
48235,0,USTexasIrion,Texas,Irion,2022-04-28 09:13:11,2022-02-08,5.62040888087208,11.997192547305483,27.514823741805895,,,,,,,,,,,,
48235,0,USTexasIrion,Texas,Irion,2022-04-28 09:13:11,2022-02-09,5.62040888087208,11.997192547305483,27.514823741805895,,,,,,,,,,,,
48235,0,USTexasIrion,Texas,Irion,2022-04-28 09:13:11,2022-02-10,1.7121777123665607,4.82477131254305,14.61080400833114,,,,,,,,,,,,
48235,0,USTexasIrion,Texas,Irion,2022-04-28 09:13:11,2022-02-11,1.7121777123665607,4.82477131254305,14.61080400833114,,,,,,,,,,,,
48235,0,USTexasIrion,Texas,Irion,2022-04-28 09:13:11,2022-02-12,1.7121777123665607,4.82477131254305,14.61080400833114,,,,,,,,,,,,
48235,0,USTexasIrion,Texas,Irion,2022-04-28 09:13:11,2022-02-13,1.7121777123665607,4.82477131254305,14.61080400833114,,,,,,,,,,,,
48235,0,USTexasIrion,Texas,Irion,2022-04-28 09:13:11,2022-02-14,1.7121777123665607,4.82477131254305,14.61080400833114,,,,,,,,,,,,
48235,0,USTexasIrion,Texas,Irion,2022-04-28 09:13:11,2022-02-15,1.7121777123665607,4.82477131254305,14.61080400833114,,,,,,,,,,,,
48235,0,USTexasIrion,Texas,Irion,2022-04-28 09:13:11,2022-02-16,1.7121777123665607,4.82477131254305,14.61080400833114,,,,,,,,,,,,
48235,0,USTexasIrion,Texas,Irion,2022-04-28 09:13:11,2022-02-17,2.1402221404582007,6.030964140678814,18.263505010413926,,,,,,,,,,,,
48235,0,USTexasIrion,Texas,Irion,2022-04-28 09:13:11,2022-02-18,2.1402221404582007,6.030964140678814,18.263505010413926,,,,,,,,,,,,
48235,0,USTexasIrion,Texas,Irion,2022-04-28 09:13:11,2022-02-19,2.1402221404582007,6.030964140678814,18.263505010413926,,,,,,,,,,,,
48235,0,USTexasIrion,Texas,Irion,2022-04-28 09:13:11,2022-02-20,2.1402221404582007,6.030964140678814,18.263505010413926,,,,,,,,,,,,
48235,0,USTexasIrion,Texas,Irion,2022-04-28 09:13:11,2022-02-21,2.1402221404582007,6.030964140678814,18.263505010413926,,,,,,,,,,,,
48235,0,USTexasIrion,Texas,Irion,2022-04-28 09:13:11,2022-02-22,2.1402221404582007,6.030964140678814,18.263505010413926,,,,,,,,,,,,
48235,0,USTexasIrion,Texas,Irion,2022-04-28 09:13:11,2022-02-23,2.1402221404582007,6.030964140678814,18.263505010413926,,,,,,,,,,,,
48235,0,USTexasIrion,Texas,Irion,2022-04-28 09:13:11,2022-02-24,0,0,0,,,,,,,,,,,,
48235,0,USTexasIrion,Texas,Irion,2022-04-28 09:13:11,2022-02-25,0,0,0,,,,,,,,,,,,
48235,0,USTexasIrion,Texas,Irion,2022-04-28 09:13:11,2022-02-26,0,0,0,,,,,,,,,,,,
48235,0,USTexasIrion,Texas,Irion,2022-04-28 09:13:11,2022-02-27,0,0,0,,,,,,,,,,,,
48235,0,USTexasIrion,Texas,Irion,2022-04-28 09:13:11,2022-02-28,0,0,0,,,,,,,,,,,,
48235,0,USTexasIrion,Texas,Irion,2022-04-28 09:13:11,2022-03-01,0,0,0,,,,,,,,,,,,
48235,0,USTexasIrion,Texas,Irion,2022-04-28 09:13:11,2022-03-02,0,0,0,,,,,,,,,,,,
48235,0,USTexasIrion,Texas,Irion,2022-04-28 09:13:11,2022-03-03,0,0,0,,,,,,,,,,,,
48235,0,USTexasIrion,Texas,Irion,2022-04-28 09:13:11,2022-03-04,0,0,0,,,,,,,,,,,,
48235,0,USTexasIrion,Texas,Irion,2022-04-28 09:13:11,2022-03-05,0,0,0,,,,,,,,,,,,
48235,0,USTexasIrion,Texas,Irion,2022-04-28 09:13:11,2022-03-06,0,0,0,,,,,,,,,,,,
48235,0,USTexasIrion,Texas,Irion,2022-04-28 09:13:11,2022-03-07,0,0,0,,,,,,,,,,,,
48235,0,USTexasIrion,Texas,Irion,2022-04-28 09:13:11,2022-03-08,0,0,0,,,,,,,,,,,,
48235,0,USTexasIrion,Texas,Irion,2022-04-28 09:13:11,2022-03-09,0,0,0,,,,,,,,,,,,
48235,0,USTexasIrion,Texas,Irion,2022-04-28 09:13:11,2022-03-10,0,0,0,,,,,,,,,,,,
48235,0,USTexasIrion,Texas,Irion,2022-04-28 09:13:11,2022-03-11,0,0,0,,,,,,,,,,,,
48235,0,USTexasIrion,Texas,Irion,2022-04-28 09:13:11,2022-03-12,0,0,0,,,,,,,,,,,,
48235,0,USTexasIrion,Texas,Irion,2022-04-28 09:13:11,2022-03-13,0,0,0,,,,,,,,,,,,
48235,0,USTexasIrion,Texas,Irion,2022-04-28 09:13:11,2022-03-14,0,0,0,,,,,,,,,,,,
48235,0,USTexasIrion,Texas,Irion,2022-04-28 09:13:11,2022-03-15,0,0,0,,,,,,,,,,,,
48235,0,USTexasIrion,Texas,Irion,2022-04-28 09:13:11,2022-03-16,0,0,0,,,,,,,,,,,,
48235,0,USTexasIrion,Texas,Irion,2022-04-28 09:13:11,2022-03-17,0.33939741699405707,0.780620159269799,1.9315851502846668,,,,,,,,,,,,
48235,0,USTexasIrion,Texas,Irion,2022-04-28 09:13:11,2022-03-18,0.33939741699405707,0.780620159269799,1.9315851502846668,,,,,,,,,,,,
48235,0,USTexasIrion,Texas,Irion,2022-04-28 09:13:11,2022-03-19,0.33939741699405707,0.780620159269799,1.9315851502846668,,,,,,,,,,,,
48235,0,USTexasIrion,Texas,Irion,2022-04-28 09:13:11,2022-03-20,0.33939741699405707,0.780620159269799,1.9315851502846668,,,,,,,,,,,,
48235,0,USTexasIrion,Texas,Irion,2022-04-28 09:13:11,2022-03-21,0.33939741699405707,0.780620159269799,1.9315851502846668,,,,,,,,,,,,
48235,0,USTexasIrion,Texas,Irion,2022-04-28 09:13:11,2022-03-22,0.33939741699405707,0.780620159269799,1.9315851502846668,,,,,,,,,,,,
48235,0,USTexasIrion,Texas,Irion,2022-04-28 09:13:11,2022-03-23,0.33939741699405707,0.780620159269799,1.9315851502846668,,,,,,,,,,,,
48235,0,USTexasIrion,Texas,Irion,2022-04-28 09:13:11,2022-03-24,0,0,0,,,,,,,,,,,,
48235,0,USTexasIrion,Texas,Irion,2022-04-28 09:13:11,2022-03-25,0,0,0,,,,,,,,,,,,
48235,0,USTexasIrion,Texas,Irion,2022-04-28 09:13:11,2022-03-26,0,0,0,,,,,,,,,,,,
48235,0,USTexasIrion,Texas,Irion,2022-04-28 09:13:11,2022-03-27,0,0,0,,,,,,,,,,,,
48235,0,USTexasIrion,Texas,Irion,2022-04-28 09:13:11,2022-03-28,0,0,0,,,,,,,,,,,,
48235,0,USTexasIrion,Texas,Irion,2022-04-28 09:13:11,2022-03-29,0,0,0,,,,,,,,,,,,
48235,0,USTexasIrion,Texas,Irion,2022-04-28 09:13:11,2022-03-30,0,0,0,,,,,,,,,,,,
48235,0,USTexasIrion,Texas,Irion,2022-04-28 09:13:11,2022-03-31,1.0857445360858353,3.7386475157684944,13.756937802950223,,,,,,,,,,,,
48235,0,USTexasIrion,Texas,Irion,2022-04-28 09:13:11,2022-04-01,1.0857445360858353,3.7386475157684944,13.756937802950223,,,,,,,,,,,,
48235,0,USTexasIrion,Texas,Irion,2022-04-28 09:13:11,2022-04-02,1.0857445360858353,3.7386475157684944,13.756937802950223,,,,,,,,,,,,
48235,0,USTexasIrion,Texas,Irion,2022-04-28 09:13:11,2022-04-03,1.0857445360858353,3.7386475157684944,13.756937802950223,,,,,,,,,,,,
48235,0,USTexasIrion,Texas,Irion,2022-04-28 09:13:11,2022-04-04,1.0857445360858353,3.7386475157684944,13.756937802950223,,,,,,,,,,,,
48235,0,USTexasIrion,Texas,Irion,2022-04-28 09:13:11,2022-04-05,1.0857445360858353,3.7386475157684944,13.756937802950223,,,,,,,,,,,,
48235,0,USTexasIrion,Texas,Irion,2022-04-28 09:13:11,2022-04-06,1.0857445360858353,3.7386475157684944,13.756937802950223,,,,,,,,,,,,
48235,0,USTexasIrion,Texas,Irion,2022-04-28 09:13:11,2022-04-07,0.5948342614229787,1.2151670567478687,2.66372047793793,,,,,,,,,,,,
48235,0,USTexasIrion,Texas,Irion,2022-04-28 09:13:11,2022-04-08,0.5948342614229787,1.2151670567478687,2.66372047793793,,,,,,,,,,,,
48235,0,USTexasIrion,Texas,Irion,2022-04-28 09:13:11,2022-04-09,0.5948342614229787,1.2151670567478687,2.66372047793793,,,,,,,,,,,,
48235,0,USTexasIrion,Texas,Irion,2022-04-28 09:13:11,2022-04-10,0.5948342614229787,1.2151670567478687,2.66372047793793,,,,,,,,,,,,
48235,0,USTexasIrion,Texas,Irion,2022-04-28 09:13:11,2022-04-11,0.5948342614229787,1.2151670567478687,2.66372047793793,,,,,,,,,,,,
48235,0,USTexasIrion,Texas,Irion,2022-04-28 09:13:11,2022-04-12,0.5948342614229787,1.2151670567478687,2.66372047793793,,,,,,,,,,,,
48235,0,USTexasIrion,Texas,Irion,2022-04-28 09:13:11,2022-04-13,0.5948342614229787,1.2151670567478687,2.66372047793793,,,,,,,,,,,,
48235,0,USTexasIrion,Texas,Irion,2022-04-28 09:13:11,2022-04-14,0,0,0,,,,,,,,,,,,
48235,0,USTexasIrion,Texas,Irion,2022-04-28 09:13:11,2022-04-15,0,0,0,,,,,,,,,,,,
48235,0,USTexasIrion,Texas,Irion,2022-04-28 09:13:11,2022-04-16,0,0,0,,,,,,,,,,,,
48235,0,USTexasIrion,Texas,Irion,2022-04-28 09:13:11,2022-04-17,0,0,0,,,,,,,,,,,,
48235,0,USTexasIrion,Texas,Irion,2022-04-28 09:13:11,2022-04-18,0,0,0,,,,,,,,,,,,
48235,0,USTexasIrion,Texas,Irion,2022-04-28 09:13:11,2022-04-19,0,0,0,,,,,,,,,,,,
48235,0,USTexasIrion,Texas,Irion,2022-04-28 09:13:11,2022-04-20,0,0,0,,,,,,,,,,,,
48235,0,USTexasIrion,Texas,Irion,2022-04-28 09:13:11,2022-04-21,0.35402542471036275,0.8453413424209015,2.172149022247613,,,,,,,,,,,,
48235,0,USTexasIrion,Texas,Irion,2022-04-28 09:13:11,2022-04-22,0.35402542471036275,0.8453413424209015,2.172149022247613,,,,,,,,,,,,
48235,0,USTexasIrion,Texas,Irion,2022-04-28 09:13:11,2022-04-23,0.35402542471036275,0.8453413424209015,2.172149022247613,,,,,,,,,,,,
48235,0,USTexasIrion,Texas,Irion,2022-04-28 09:13:11,2022-04-24,0.35402542471036275,0.8453413424209015,2.172149022247613,,,,,,,,,,,,
48235,0,USTexasIrion,Texas,Irion,2022-04-28 09:13:11,2022-04-25,0.35402542471036275,0.8453413424209015,2.172149022247613,,,,,,,,,,,,
48235,0,USTexasIrion,Texas,Irion,2022-04-28 09:13:11,2022-04-26,0.35402542471036275,0.8453413424209015,2.172149022247613,,,,,,,,,,,,
48235,0,USTexasIrion,Texas,Irion,2022-04-28 09:13:11,2022-04-27,0.35402542471036275,0.8453413424209015,2.172149022247613,,,,,,,,,,,,
