FIPS,HR_UID,nameid,province,region,analysisTime,dates,pointprevalence_025,pointprevalence_50,pointprevalence_975,pointinfections_025,pointinfections_50,pointinfections_975,pointinfectious_025,pointinfectious_50,pointinfectious_975,pointinfectiousprevalence_025,pointinfectiousprevalence_50,pointinfectiousprevalence_975,infectrate_025,infectrate_50,infectrate_975
39073,0,USOhioHocking,Ohio,Hocking,2022-04-28 09:13:11,2020-03-19,0,0,0,,,,,,,,,,,,
39073,0,USOhioHocking,Ohio,Hocking,2022-04-28 09:13:11,2020-03-20,0,0,0,,,,,,,,,,,,
39073,0,USOhioHocking,Ohio,Hocking,2022-04-28 09:13:11,2020-03-21,0,0,0,,,,,,,,,,,,
39073,0,USOhioHocking,Ohio,Hocking,2022-04-28 09:13:11,2020-03-22,0,0,0,,,,,,,,,,,,
39073,0,USOhioHocking,Ohio,Hocking,2022-04-28 09:13:11,2020-03-23,0,0,0,,,,,,,,,,,,
39073,0,USOhioHocking,Ohio,Hocking,2022-04-28 09:13:11,2020-03-24,0,0,0,,,,,,,,,,,,
39073,0,USOhioHocking,Ohio,Hocking,2022-04-28 09:13:11,2020-03-25,0,0,0,,,,,,,,,,,,
39073,0,USOhioHocking,Ohio,Hocking,2022-04-28 09:13:11,2020-03-26,0,0,0,,,,,,,,,,,,
39073,0,USOhioHocking,Ohio,Hocking,2022-04-28 09:13:11,2020-03-27,0,0,0,,,,,,,,,,,,
39073,0,USOhioHocking,Ohio,Hocking,2022-04-28 09:13:11,2020-03-28,0,0,0,,,,,,,,,,,,
39073,0,USOhioHocking,Ohio,Hocking,2022-04-28 09:13:11,2020-03-29,0,0,0,,,,,,,,,,,,
39073,0,USOhioHocking,Ohio,Hocking,2022-04-28 09:13:11,2020-03-30,0,0,0,,,,,,,,,,,,
39073,0,USOhioHocking,Ohio,Hocking,2022-04-28 09:13:11,2020-03-31,0,0,0,,,,,,,,,,,,
39073,0,USOhioHocking,Ohio,Hocking,2022-04-28 09:13:11,2020-04-01,0,0,0,,,,,,,,,,,,
39073,0,USOhioHocking,Ohio,Hocking,2022-04-28 09:13:11,2020-04-02,0,0,0,,,,,,,,,,,,
39073,0,USOhioHocking,Ohio,Hocking,2022-04-28 09:13:11,2020-04-03,0,0,0,,,,,,,,,,,,
39073,0,USOhioHocking,Ohio,Hocking,2022-04-28 09:13:11,2020-04-04,0,0,0,,,,,,,,,,,,
39073,0,USOhioHocking,Ohio,Hocking,2022-04-28 09:13:11,2020-04-05,0,0,0,,,,,,,,,,,,
39073,0,USOhioHocking,Ohio,Hocking,2022-04-28 09:13:11,2020-04-06,0,0,0,,,,,,,,,,,,
39073,0,USOhioHocking,Ohio,Hocking,2022-04-28 09:13:11,2020-04-07,0,0,0,,,,,,,,,,,,
39073,0,USOhioHocking,Ohio,Hocking,2022-04-28 09:13:11,2020-04-08,0,0,0,,,,,,,,,,,,
39073,0,USOhioHocking,Ohio,Hocking,2022-04-28 09:13:11,2020-04-09,0.12440967292025468,0.447458871536053,1.717027669050324,,,,,,,,,,,,
39073,0,USOhioHocking,Ohio,Hocking,2022-04-28 09:13:11,2020-04-10,0.12440967292025468,0.447458871536053,1.717027669050324,,,,,,,,,,,,
39073,0,USOhioHocking,Ohio,Hocking,2022-04-28 09:13:11,2020-04-11,0.12440967292025468,0.447458871536053,1.717027669050324,,,,,,,,,,,,
39073,0,USOhioHocking,Ohio,Hocking,2022-04-28 09:13:11,2020-04-12,0.12440967292025468,0.447458871536053,1.717027669050324,,,,,,,,,,,,
39073,0,USOhioHocking,Ohio,Hocking,2022-04-28 09:13:11,2020-04-13,0.12440967292025468,0.447458871536053,1.717027669050324,,,,,,,,,,,,
39073,0,USOhioHocking,Ohio,Hocking,2022-04-28 09:13:11,2020-04-14,0.12440967292025468,0.447458871536053,1.717027669050324,,,,,,,,,,,,
39073,0,USOhioHocking,Ohio,Hocking,2022-04-28 09:13:11,2020-04-15,0.12440967292025468,0.447458871536053,1.717027669050324,,,,,,,,,,,,
39073,0,USOhioHocking,Ohio,Hocking,2022-04-28 09:13:11,2020-04-16,0.05267383933833725,0.28742932962883544,1.6437738485999114,,,,,,,,,,,,
39073,0,USOhioHocking,Ohio,Hocking,2022-04-28 09:13:11,2020-04-17,0.05267383933833725,0.28742932962883544,1.6437738485999114,,,,,,,,,,,,
39073,0,USOhioHocking,Ohio,Hocking,2022-04-28 09:13:11,2020-04-18,0.05267383933833725,0.28742932962883544,1.6437738485999114,,,,,,,,,,,,
39073,0,USOhioHocking,Ohio,Hocking,2022-04-28 09:13:11,2020-04-19,0.05267383933833725,0.28742932962883544,1.6437738485999114,,,,,,,,,,,,
39073,0,USOhioHocking,Ohio,Hocking,2022-04-28 09:13:11,2020-04-20,0.05267383933833725,0.28742932962883544,1.6437738485999114,,,,,,,,,,,,
39073,0,USOhioHocking,Ohio,Hocking,2022-04-28 09:13:11,2020-04-21,0.05267383933833725,0.28742932962883544,1.6437738485999114,,,,,,,,,,,,
39073,0,USOhioHocking,Ohio,Hocking,2022-04-28 09:13:11,2020-04-22,0.05267383933833725,0.28742932962883544,1.6437738485999114,,,,,,,,,,,,
39073,0,USOhioHocking,Ohio,Hocking,2022-04-28 09:13:11,2020-04-23,0.24353574976837644,0.657594986709342,1.9095370253256478,,,,,,,,,,,,
39073,0,USOhioHocking,Ohio,Hocking,2022-04-28 09:13:11,2020-04-24,0.24353574976837644,0.657594986709342,1.9095370253256478,,,,,,,,,,,,
39073,0,USOhioHocking,Ohio,Hocking,2022-04-28 09:13:11,2020-04-25,0.24353574976837644,0.657594986709342,1.9095370253256478,,,,,,,,,,,,
39073,0,USOhioHocking,Ohio,Hocking,2022-04-28 09:13:11,2020-04-26,0.24353574976837644,0.657594986709342,1.9095370253256478,,,,,,,,,,,,
39073,0,USOhioHocking,Ohio,Hocking,2022-04-28 09:13:11,2020-04-27,0.24353574976837644,0.657594986709342,1.9095370253256478,,,,,,,,,,,,
39073,0,USOhioHocking,Ohio,Hocking,2022-04-28 09:13:11,2020-04-28,0.24353574976837644,0.657594986709342,1.9095370253256478,,,,,,,,,,,,
39073,0,USOhioHocking,Ohio,Hocking,2022-04-28 09:13:11,2020-04-29,0.24353574976837644,0.657594986709342,1.9095370253256478,,,,,,,,,,,,
39073,0,USOhioHocking,Ohio,Hocking,2022-04-28 09:13:11,2020-04-30,0.11406987061757204,0.3818737770020961,1.3674585142387925,,,,,,,,,,,,
39073,0,USOhioHocking,Ohio,Hocking,2022-04-28 09:13:11,2020-05-01,0.11406987061757204,0.3818737770020961,1.3674585142387925,,,,,,,,,,,,
39073,0,USOhioHocking,Ohio,Hocking,2022-04-28 09:13:11,2020-05-02,0.11406987061757204,0.3818737770020961,1.3674585142387925,,,,,,,,,,,,
39073,0,USOhioHocking,Ohio,Hocking,2022-04-28 09:13:11,2020-05-03,0.11406987061757204,0.3818737770020961,1.3674585142387925,,,,,,,,,,,,
39073,0,USOhioHocking,Ohio,Hocking,2022-04-28 09:13:11,2020-05-04,0.11406987061757204,0.3818737770020961,1.3674585142387925,,,,,,,,,,,,
39073,0,USOhioHocking,Ohio,Hocking,2022-04-28 09:13:11,2020-05-05,0.11406987061757204,0.3818737770020961,1.3674585142387925,,,,,,,,,,,,
39073,0,USOhioHocking,Ohio,Hocking,2022-04-28 09:13:11,2020-05-06,0.11406987061757204,0.3818737770020961,1.3674585142387925,,,,,,,,,,,,
39073,0,USOhioHocking,Ohio,Hocking,2022-04-28 09:13:11,2020-05-07,0.17562886218799215,0.4707772029611061,1.3572233813169547,,,,,,,,,,,,
39073,0,USOhioHocking,Ohio,Hocking,2022-04-28 09:13:11,2020-05-08,0.17562886218799215,0.4707772029611061,1.3572233813169547,,,,,,,,,,,,
39073,0,USOhioHocking,Ohio,Hocking,2022-04-28 09:13:11,2020-05-09,0.17562886218799215,0.4707772029611061,1.3572233813169547,,,,,,,,,,,,
39073,0,USOhioHocking,Ohio,Hocking,2022-04-28 09:13:11,2020-05-10,0.17562886218799215,0.4707772029611061,1.3572233813169547,,,,,,,,,,,,
39073,0,USOhioHocking,Ohio,Hocking,2022-04-28 09:13:11,2020-05-11,0.17562886218799215,0.4707772029611061,1.3572233813169547,,,,,,,,,,,,
39073,0,USOhioHocking,Ohio,Hocking,2022-04-28 09:13:11,2020-05-12,0.17562886218799215,0.4707772029611061,1.3572233813169547,,,,,,,,,,,,
39073,0,USOhioHocking,Ohio,Hocking,2022-04-28 09:13:11,2020-05-13,0.17562886218799215,0.4707772029611061,1.3572233813169547,,,,,,,,,,,,
39073,0,USOhioHocking,Ohio,Hocking,2022-04-28 09:13:11,2020-05-14,0.5053504119962651,0.9316291107042013,1.834198681381042,,,,,,,,,,,,
39073,0,USOhioHocking,Ohio,Hocking,2022-04-28 09:13:11,2020-05-15,0.5053504119962651,0.9316291107042013,1.834198681381042,,,,,,,,,,,,
39073,0,USOhioHocking,Ohio,Hocking,2022-04-28 09:13:11,2020-05-16,0.5053504119962651,0.9316291107042013,1.834198681381042,,,,,,,,,,,,
39073,0,USOhioHocking,Ohio,Hocking,2022-04-28 09:13:11,2020-05-17,0.5053504119962651,0.9316291107042013,1.834198681381042,,,,,,,,,,,,
39073,0,USOhioHocking,Ohio,Hocking,2022-04-28 09:13:11,2020-05-18,0.5053504119962651,0.9316291107042013,1.834198681381042,,,,,,,,,,,,
39073,0,USOhioHocking,Ohio,Hocking,2022-04-28 09:13:11,2020-05-19,0.5053504119962651,0.9316291107042013,1.834198681381042,,,,,,,,,,,,
39073,0,USOhioHocking,Ohio,Hocking,2022-04-28 09:13:11,2020-05-20,0.5053504119962651,0.9316291107042013,1.834198681381042,,,,,,,,,,,,
39073,0,USOhioHocking,Ohio,Hocking,2022-04-28 09:13:11,2020-05-21,0.1351693604920711,0.370519847611012,1.0919980642923603,,,,,,,,,,,,
39073,0,USOhioHocking,Ohio,Hocking,2022-04-28 09:13:11,2020-05-22,0.1351693604920711,0.370519847611012,1.0919980642923603,,,,,,,,,,,,
39073,0,USOhioHocking,Ohio,Hocking,2022-04-28 09:13:11,2020-05-23,0.1351693604920711,0.370519847611012,1.0919980642923603,,,,,,,,,,,,
39073,0,USOhioHocking,Ohio,Hocking,2022-04-28 09:13:11,2020-05-24,0.1351693604920711,0.370519847611012,1.0919980642923603,,,,,,,,,,,,
39073,0,USOhioHocking,Ohio,Hocking,2022-04-28 09:13:11,2020-05-25,0.1351693604920711,0.370519847611012,1.0919980642923603,,,,,,,,,,,,
39073,0,USOhioHocking,Ohio,Hocking,2022-04-28 09:13:11,2020-05-26,0.1351693604920711,0.370519847611012,1.0919980642923603,,,,,,,,,,,,
39073,0,USOhioHocking,Ohio,Hocking,2022-04-28 09:13:11,2020-05-27,0.1351693604920711,0.370519847611012,1.0919980642923603,,,,,,,,,,,,
39073,0,USOhioHocking,Ohio,Hocking,2022-04-28 09:13:11,2020-05-28,0.033653227699399484,0.12908256095773388,0.5269096975052028,,,,,,,,,,,,
39073,0,USOhioHocking,Ohio,Hocking,2022-04-28 09:13:11,2020-05-29,0.033653227699399484,0.12908256095773388,0.5269096975052028,,,,,,,,,,,,
39073,0,USOhioHocking,Ohio,Hocking,2022-04-28 09:13:11,2020-05-30,0.033653227699399484,0.12908256095773388,0.5269096975052028,,,,,,,,,,,,
39073,0,USOhioHocking,Ohio,Hocking,2022-04-28 09:13:11,2020-05-31,0.033653227699399484,0.12908256095773388,0.5269096975052028,,,,,,,,,,,,
39073,0,USOhioHocking,Ohio,Hocking,2022-04-28 09:13:11,2020-06-01,0.033653227699399484,0.12908256095773388,0.5269096975052028,,,,,,,,,,,,
39073,0,USOhioHocking,Ohio,Hocking,2022-04-28 09:13:11,2020-06-02,0.033653227699399484,0.12908256095773388,0.5269096975052028,,,,,,,,,,,,
39073,0,USOhioHocking,Ohio,Hocking,2022-04-28 09:13:11,2020-06-03,0.033653227699399484,0.12908256095773388,0.5269096975052028,,,,,,,,,,,,
39073,0,USOhioHocking,Ohio,Hocking,2022-04-28 09:13:11,2020-06-04,0.0882133308187969,0.23738895739559962,0.6870378674716981,,,,,,,,,,,,
39073,0,USOhioHocking,Ohio,Hocking,2022-04-28 09:13:11,2020-06-05,0.0882133308187969,0.23738895739559962,0.6870378674716981,,,,,,,,,,,,
39073,0,USOhioHocking,Ohio,Hocking,2022-04-28 09:13:11,2020-06-06,0.0882133308187969,0.23738895739559962,0.6870378674716981,,,,,,,,,,,,
39073,0,USOhioHocking,Ohio,Hocking,2022-04-28 09:13:11,2020-06-07,0.0882133308187969,0.23738895739559962,0.6870378674716981,,,,,,,,,,,,
39073,0,USOhioHocking,Ohio,Hocking,2022-04-28 09:13:11,2020-06-08,0.0882133308187969,0.23738895739559962,0.6870378674716981,,,,,,,,,,,,
39073,0,USOhioHocking,Ohio,Hocking,2022-04-28 09:13:11,2020-06-09,0.0882133308187969,0.23738895739559962,0.6870378674716981,,,,,,,,,,,,
39073,0,USOhioHocking,Ohio,Hocking,2022-04-28 09:13:11,2020-06-10,0.0882133308187969,0.23738895739559962,0.6870378674716981,,,,,,,,,,,,
39073,0,USOhioHocking,Ohio,Hocking,2022-04-28 09:13:11,2020-06-11,0,0,0,,,,,,,,,,,,
39073,0,USOhioHocking,Ohio,Hocking,2022-04-28 09:13:11,2020-06-12,0,0,0,,,,,,,,,,,,
39073,0,USOhioHocking,Ohio,Hocking,2022-04-28 09:13:11,2020-06-13,0,0,0,,,,,,,,,,,,
39073,0,USOhioHocking,Ohio,Hocking,2022-04-28 09:13:11,2020-06-14,0,0,0,,,,,,,,,,,,
39073,0,USOhioHocking,Ohio,Hocking,2022-04-28 09:13:11,2020-06-15,0,0,0,,,,,,,,,,,,
39073,0,USOhioHocking,Ohio,Hocking,2022-04-28 09:13:11,2020-06-16,0,0,0,,,,,,,,,,,,
39073,0,USOhioHocking,Ohio,Hocking,2022-04-28 09:13:11,2020-06-17,0,0,0,,,,,,,,,,,,
39073,0,USOhioHocking,Ohio,Hocking,2022-04-28 09:13:11,2020-06-18,0.03345810340381492,0.12772976296882635,0.5190313612060531,,,,,,,,,,,,
39073,0,USOhioHocking,Ohio,Hocking,2022-04-28 09:13:11,2020-06-19,0.03345810340381492,0.12772976296882635,0.5190313612060531,,,,,,,,,,,,
39073,0,USOhioHocking,Ohio,Hocking,2022-04-28 09:13:11,2020-06-20,0.03345810340381492,0.12772976296882635,0.5190313612060531,,,,,,,,,,,,
39073,0,USOhioHocking,Ohio,Hocking,2022-04-28 09:13:11,2020-06-21,0.03345810340381492,0.12772976296882635,0.5190313612060531,,,,,,,,,,,,
39073,0,USOhioHocking,Ohio,Hocking,2022-04-28 09:13:11,2020-06-22,0.03345810340381492,0.12772976296882635,0.5190313612060531,,,,,,,,,,,,
39073,0,USOhioHocking,Ohio,Hocking,2022-04-28 09:13:11,2020-06-23,0.03345810340381492,0.12772976296882635,0.5190313612060531,,,,,,,,,,,,
39073,0,USOhioHocking,Ohio,Hocking,2022-04-28 09:13:11,2020-06-24,0.03345810340381492,0.12772976296882635,0.5190313612060531,,,,,,,,,,,,
39073,0,USOhioHocking,Ohio,Hocking,2022-04-28 09:13:11,2020-06-25,0.0566481038555734,0.1885702917894629,0.6715672013062867,,,,,,,,,,,,
39073,0,USOhioHocking,Ohio,Hocking,2022-04-28 09:13:11,2020-06-26,0.0566481038555734,0.1885702917894629,0.6715672013062867,,,,,,,,,,,,
39073,0,USOhioHocking,Ohio,Hocking,2022-04-28 09:13:11,2020-06-27,0.0566481038555734,0.1885702917894629,0.6715672013062867,,,,,,,,,,,,
39073,0,USOhioHocking,Ohio,Hocking,2022-04-28 09:13:11,2020-06-28,0.0566481038555734,0.1885702917894629,0.6715672013062867,,,,,,,,,,,,
39073,0,USOhioHocking,Ohio,Hocking,2022-04-28 09:13:11,2020-06-29,0.0566481038555734,0.1885702917894629,0.6715672013062867,,,,,,,,,,,,
39073,0,USOhioHocking,Ohio,Hocking,2022-04-28 09:13:11,2020-06-30,0.0566481038555734,0.1885702917894629,0.6715672013062867,,,,,,,,,,,,
39073,0,USOhioHocking,Ohio,Hocking,2022-04-28 09:13:11,2020-07-01,0.0566481038555734,0.1885702917894629,0.6715672013062867,,,,,,,,,,,,
39073,0,USOhioHocking,Ohio,Hocking,2022-04-28 09:13:11,2020-07-02,0.07922869475898066,0.24871889109467116,0.8368805427229528,,,,,,,,,,,,
39073,0,USOhioHocking,Ohio,Hocking,2022-04-28 09:13:11,2020-07-03,0.07922869475898066,0.24871889109467116,0.8368805427229528,,,,,,,,,,,,
39073,0,USOhioHocking,Ohio,Hocking,2022-04-28 09:13:11,2020-07-04,0.07922869475898066,0.24871889109467116,0.8368805427229528,,,,,,,,,,,,
39073,0,USOhioHocking,Ohio,Hocking,2022-04-28 09:13:11,2020-07-05,0.07922869475898066,0.24871889109467116,0.8368805427229528,,,,,,,,,,,,
39073,0,USOhioHocking,Ohio,Hocking,2022-04-28 09:13:11,2020-07-06,0.07922869475898066,0.24871889109467116,0.8368805427229528,,,,,,,,,,,,
39073,0,USOhioHocking,Ohio,Hocking,2022-04-28 09:13:11,2020-07-07,0.07922869475898066,0.24871889109467116,0.8368805427229528,,,,,,,,,,,,
39073,0,USOhioHocking,Ohio,Hocking,2022-04-28 09:13:11,2020-07-08,0.07922869475898066,0.24871889109467116,0.8368805427229528,,,,,,,,,,,,
39073,0,USOhioHocking,Ohio,Hocking,2022-04-28 09:13:11,2020-07-09,0.2140823721519438,0.5164118537494778,1.3405570104746811,,,,,,,,,,,,
39073,0,USOhioHocking,Ohio,Hocking,2022-04-28 09:13:11,2020-07-10,0.2140823721519438,0.5164118537494778,1.3405570104746811,,,,,,,,,,,,
39073,0,USOhioHocking,Ohio,Hocking,2022-04-28 09:13:11,2020-07-11,0.2140823721519438,0.5164118537494778,1.3405570104746811,,,,,,,,,,,,
39073,0,USOhioHocking,Ohio,Hocking,2022-04-28 09:13:11,2020-07-12,0.2140823721519438,0.5164118537494778,1.3405570104746811,,,,,,,,,,,,
39073,0,USOhioHocking,Ohio,Hocking,2022-04-28 09:13:11,2020-07-13,0.2140823721519438,0.5164118537494778,1.3405570104746811,,,,,,,,,,,,
39073,0,USOhioHocking,Ohio,Hocking,2022-04-28 09:13:11,2020-07-14,0.2140823721519438,0.5164118537494778,1.3405570104746811,,,,,,,,,,,,
39073,0,USOhioHocking,Ohio,Hocking,2022-04-28 09:13:11,2020-07-15,0.2140823721519438,0.5164118537494778,1.3405570104746811,,,,,,,,,,,,
39073,0,USOhioHocking,Ohio,Hocking,2022-04-28 09:13:11,2020-07-16,0.1657231082405073,0.42231224937599665,1.158006917170381,,,,,,,,,,,,
39073,0,USOhioHocking,Ohio,Hocking,2022-04-28 09:13:11,2020-07-17,0.1657231082405073,0.42231224937599665,1.158006917170381,,,,,,,,,,,,
39073,0,USOhioHocking,Ohio,Hocking,2022-04-28 09:13:11,2020-07-18,0.1657231082405073,0.42231224937599665,1.158006917170381,,,,,,,,,,,,
39073,0,USOhioHocking,Ohio,Hocking,2022-04-28 09:13:11,2020-07-19,0.1657231082405073,0.42231224937599665,1.158006917170381,,,,,,,,,,,,
39073,0,USOhioHocking,Ohio,Hocking,2022-04-28 09:13:11,2020-07-20,0.1657231082405073,0.42231224937599665,1.158006917170381,,,,,,,,,,,,
39073,0,USOhioHocking,Ohio,Hocking,2022-04-28 09:13:11,2020-07-21,0.1657231082405073,0.42231224937599665,1.158006917170381,,,,,,,,,,,,
39073,0,USOhioHocking,Ohio,Hocking,2022-04-28 09:13:11,2020-07-22,0.1657231082405073,0.42231224937599665,1.158006917170381,,,,,,,,,,,,
39073,0,USOhioHocking,Ohio,Hocking,2022-04-28 09:13:11,2020-07-23,0.13376416860465498,0.3633699301705092,1.061438427850853,,,,,,,,,,,,
39073,0,USOhioHocking,Ohio,Hocking,2022-04-28 09:13:11,2020-07-24,0.13376416860465498,0.3633699301705092,1.061438427850853,,,,,,,,,,,,
39073,0,USOhioHocking,Ohio,Hocking,2022-04-28 09:13:11,2020-07-25,0.13376416860465498,0.3633699301705092,1.061438427850853,,,,,,,,,,,,
39073,0,USOhioHocking,Ohio,Hocking,2022-04-28 09:13:11,2020-07-26,0.13376416860465498,0.3633699301705092,1.061438427850853,,,,,,,,,,,,
39073,0,USOhioHocking,Ohio,Hocking,2022-04-28 09:13:11,2020-07-27,0.13376416860465498,0.3633699301705092,1.061438427850853,,,,,,,,,,,,
39073,0,USOhioHocking,Ohio,Hocking,2022-04-28 09:13:11,2020-07-28,0.13376416860465498,0.3633699301705092,1.061438427850853,,,,,,,,,,,,
39073,0,USOhioHocking,Ohio,Hocking,2022-04-28 09:13:11,2020-07-29,0.13376416860465498,0.3633699301705092,1.061438427850853,,,,,,,,,,,,
39073,0,USOhioHocking,Ohio,Hocking,2022-04-28 09:13:11,2020-07-30,0.20766268583023154,0.48760304049816455,1.2319548075233997,,,,,,,,,,,,
39073,0,USOhioHocking,Ohio,Hocking,2022-04-28 09:13:11,2020-07-31,0.20766268583023154,0.48760304049816455,1.2319548075233997,,,,,,,,,,,,
39073,0,USOhioHocking,Ohio,Hocking,2022-04-28 09:13:11,2020-08-01,0.20766268583023154,0.48760304049816455,1.2319548075233997,,,,,,,,,,,,
39073,0,USOhioHocking,Ohio,Hocking,2022-04-28 09:13:11,2020-08-02,0.20766268583023154,0.48760304049816455,1.2319548075233997,,,,,,,,,,,,
39073,0,USOhioHocking,Ohio,Hocking,2022-04-28 09:13:11,2020-08-03,0.20766268583023154,0.48760304049816455,1.2319548075233997,,,,,,,,,,,,
39073,0,USOhioHocking,Ohio,Hocking,2022-04-28 09:13:11,2020-08-04,0.20766268583023154,0.48760304049816455,1.2319548075233997,,,,,,,,,,,,
39073,0,USOhioHocking,Ohio,Hocking,2022-04-28 09:13:11,2020-08-05,0.20766268583023154,0.48760304049816455,1.2319548075233997,,,,,,,,,,,,
39073,0,USOhioHocking,Ohio,Hocking,2022-04-28 09:13:11,2020-08-06,0.16182039887013336,0.40383955931706705,1.0845577776270183,,,,,,,,,,,,
39073,0,USOhioHocking,Ohio,Hocking,2022-04-28 09:13:11,2020-08-07,0.16182039887013336,0.40383955931706705,1.0845577776270183,,,,,,,,,,,,
39073,0,USOhioHocking,Ohio,Hocking,2022-04-28 09:13:11,2020-08-08,0.16182039887013336,0.40383955931706705,1.0845577776270183,,,,,,,,,,,,
39073,0,USOhioHocking,Ohio,Hocking,2022-04-28 09:13:11,2020-08-09,0.16182039887013336,0.40383955931706705,1.0845577776270183,,,,,,,,,,,,
39073,0,USOhioHocking,Ohio,Hocking,2022-04-28 09:13:11,2020-08-10,0.16182039887013336,0.40383955931706705,1.0845577776270183,,,,,,,,,,,,
39073,0,USOhioHocking,Ohio,Hocking,2022-04-28 09:13:11,2020-08-11,0.16182039887013336,0.40383955931706705,1.0845577776270183,,,,,,,,,,,,
39073,0,USOhioHocking,Ohio,Hocking,2022-04-28 09:13:11,2020-08-12,0.16182039887013336,0.40383955931706705,1.0845577776270183,,,,,,,,,,,,
39073,0,USOhioHocking,Ohio,Hocking,2022-04-28 09:13:11,2020-08-13,0.13878808477076238,0.34031702500731786,0.8980408852501114,,,,,,,,,,,,
39073,0,USOhioHocking,Ohio,Hocking,2022-04-28 09:13:11,2020-08-14,0.13878808477076238,0.34031702500731786,0.8980408852501114,,,,,,,,,,,,
39073,0,USOhioHocking,Ohio,Hocking,2022-04-28 09:13:11,2020-08-15,0.13878808477076238,0.34031702500731786,0.8980408852501114,,,,,,,,,,,,
39073,0,USOhioHocking,Ohio,Hocking,2022-04-28 09:13:11,2020-08-16,0.13878808477076238,0.34031702500731786,0.8980408852501114,,,,,,,,,,,,
39073,0,USOhioHocking,Ohio,Hocking,2022-04-28 09:13:11,2020-08-17,0.13878808477076238,0.34031702500731786,0.8980408852501114,,,,,,,,,,,,
39073,0,USOhioHocking,Ohio,Hocking,2022-04-28 09:13:11,2020-08-18,0.13878808477076238,0.34031702500731786,0.8980408852501114,,,,,,,,,,,,
39073,0,USOhioHocking,Ohio,Hocking,2022-04-28 09:13:11,2020-08-19,0.13878808477076238,0.34031702500731786,0.8980408852501114,,,,,,,,,,,,
39073,0,USOhioHocking,Ohio,Hocking,2022-04-28 09:13:11,2020-08-20,0.10503428754775451,0.2709486591145881,0.7520260389104807,,,,,,,,,,,,
39073,0,USOhioHocking,Ohio,Hocking,2022-04-28 09:13:11,2020-08-21,0.10503428754775451,0.2709486591145881,0.7520260389104807,,,,,,,,,,,,
39073,0,USOhioHocking,Ohio,Hocking,2022-04-28 09:13:11,2020-08-22,0.10503428754775451,0.2709486591145881,0.7520260389104807,,,,,,,,,,,,
39073,0,USOhioHocking,Ohio,Hocking,2022-04-28 09:13:11,2020-08-23,0.10503428754775451,0.2709486591145881,0.7520260389104807,,,,,,,,,,,,
39073,0,USOhioHocking,Ohio,Hocking,2022-04-28 09:13:11,2020-08-24,0.10503428754775451,0.2709486591145881,0.7520260389104807,,,,,,,,,,,,
39073,0,USOhioHocking,Ohio,Hocking,2022-04-28 09:13:11,2020-08-25,0.10503428754775451,0.2709486591145881,0.7520260389104807,,,,,,,,,,,,
39073,0,USOhioHocking,Ohio,Hocking,2022-04-28 09:13:11,2020-08-26,0.10503428754775451,0.2709486591145881,0.7520260389104807,,,,,,,,,,,,
39073,0,USOhioHocking,Ohio,Hocking,2022-04-28 09:13:11,2020-08-27,0.16906826380162562,0.3952436699635192,0.9942015635609083,,,,,,,,,,,,
39073,0,USOhioHocking,Ohio,Hocking,2022-04-28 09:13:11,2020-08-28,0.16906826380162562,0.3952436699635192,0.9942015635609083,,,,,,,,,,,,
39073,0,USOhioHocking,Ohio,Hocking,2022-04-28 09:13:11,2020-08-29,0.16906826380162562,0.3952436699635192,0.9942015635609083,,,,,,,,,,,,
39073,0,USOhioHocking,Ohio,Hocking,2022-04-28 09:13:11,2020-08-30,0.16906826380162562,0.3952436699635192,0.9942015635609083,,,,,,,,,,,,
39073,0,USOhioHocking,Ohio,Hocking,2022-04-28 09:13:11,2020-08-31,0.16906826380162562,0.3952436699635192,0.9942015635609083,,,,,,,,,,,,
39073,0,USOhioHocking,Ohio,Hocking,2022-04-28 09:13:11,2020-09-01,0.16906826380162562,0.3952436699635192,0.9942015635609083,,,,,,,,,,,,
39073,0,USOhioHocking,Ohio,Hocking,2022-04-28 09:13:11,2020-09-02,0.16906826380162562,0.3952436699635192,0.9942015635609083,,,,,,,,,,,,
39073,0,USOhioHocking,Ohio,Hocking,2022-04-28 09:13:11,2020-09-03,0.10744303554316226,0.2826958244830759,0.800150512017133,,,,,,,,,,,,
39073,0,USOhioHocking,Ohio,Hocking,2022-04-28 09:13:11,2020-09-04,0.10744303554316226,0.2826958244830759,0.800150512017133,,,,,,,,,,,,
39073,0,USOhioHocking,Ohio,Hocking,2022-04-28 09:13:11,2020-09-05,0.10744303554316226,0.2826958244830759,0.800150512017133,,,,,,,,,,,,
39073,0,USOhioHocking,Ohio,Hocking,2022-04-28 09:13:11,2020-09-06,0.10744303554316226,0.2826958244830759,0.800150512017133,,,,,,,,,,,,
39073,0,USOhioHocking,Ohio,Hocking,2022-04-28 09:13:11,2020-09-07,0.10744303554316226,0.2826958244830759,0.800150512017133,,,,,,,,,,,,
39073,0,USOhioHocking,Ohio,Hocking,2022-04-28 09:13:11,2020-09-08,0.10744303554316226,0.2826958244830759,0.800150512017133,,,,,,,,,,,,
39073,0,USOhioHocking,Ohio,Hocking,2022-04-28 09:13:11,2020-09-09,0.10744303554316226,0.2826958244830759,0.800150512017133,,,,,,,,,,,,
39073,0,USOhioHocking,Ohio,Hocking,2022-04-28 09:13:11,2020-09-10,0.16303826222844348,0.3690210091640876,0.898405459611084,,,,,,,,,,,,
39073,0,USOhioHocking,Ohio,Hocking,2022-04-28 09:13:11,2020-09-11,0.16303826222844348,0.3690210091640876,0.898405459611084,,,,,,,,,,,,
39073,0,USOhioHocking,Ohio,Hocking,2022-04-28 09:13:11,2020-09-12,0.16303826222844348,0.3690210091640876,0.898405459611084,,,,,,,,,,,,
39073,0,USOhioHocking,Ohio,Hocking,2022-04-28 09:13:11,2020-09-13,0.16303826222844348,0.3690210091640876,0.898405459611084,,,,,,,,,,,,
39073,0,USOhioHocking,Ohio,Hocking,2022-04-28 09:13:11,2020-09-14,0.16303826222844348,0.3690210091640876,0.898405459611084,,,,,,,,,,,,
39073,0,USOhioHocking,Ohio,Hocking,2022-04-28 09:13:11,2020-09-15,0.16303826222844348,0.3690210091640876,0.898405459611084,,,,,,,,,,,,
39073,0,USOhioHocking,Ohio,Hocking,2022-04-28 09:13:11,2020-09-16,0.16303826222844348,0.3690210091640876,0.898405459611084,,,,,,,,,,,,
39073,0,USOhioHocking,Ohio,Hocking,2022-04-28 09:13:11,2020-09-17,0.08258774924576336,0.2098494371887358,0.5737652614383936,,,,,,,,,,,,
39073,0,USOhioHocking,Ohio,Hocking,2022-04-28 09:13:11,2020-09-18,0.08258774924576336,0.2098494371887358,0.5737652614383936,,,,,,,,,,,,
39073,0,USOhioHocking,Ohio,Hocking,2022-04-28 09:13:11,2020-09-19,0.08258774924576336,0.2098494371887358,0.5737652614383936,,,,,,,,,,,,
39073,0,USOhioHocking,Ohio,Hocking,2022-04-28 09:13:11,2020-09-20,0.08258774924576336,0.2098494371887358,0.5737652614383936,,,,,,,,,,,,
39073,0,USOhioHocking,Ohio,Hocking,2022-04-28 09:13:11,2020-09-21,0.08258774924576336,0.2098494371887358,0.5737652614383936,,,,,,,,,,,,
39073,0,USOhioHocking,Ohio,Hocking,2022-04-28 09:13:11,2020-09-22,0.08258774924576336,0.2098494371887358,0.5737652614383936,,,,,,,,,,,,
39073,0,USOhioHocking,Ohio,Hocking,2022-04-28 09:13:11,2020-09-23,0.08258774924576336,0.2098494371887358,0.5737652614383936,,,,,,,,,,,,
39073,0,USOhioHocking,Ohio,Hocking,2022-04-28 09:13:11,2020-09-24,0.15724344471427001,0.34456673245089287,0.8117128688238064,,,,,,,,,,,,
39073,0,USOhioHocking,Ohio,Hocking,2022-04-28 09:13:11,2020-09-25,0.15724344471427001,0.34456673245089287,0.8117128688238064,,,,,,,,,,,,
39073,0,USOhioHocking,Ohio,Hocking,2022-04-28 09:13:11,2020-09-26,0.15724344471427001,0.34456673245089287,0.8117128688238064,,,,,,,,,,,,
39073,0,USOhioHocking,Ohio,Hocking,2022-04-28 09:13:11,2020-09-27,0.15724344471427001,0.34456673245089287,0.8117128688238064,,,,,,,,,,,,
39073,0,USOhioHocking,Ohio,Hocking,2022-04-28 09:13:11,2020-09-28,0.15724344471427001,0.34456673245089287,0.8117128688238064,,,,,,,,,,,,
39073,0,USOhioHocking,Ohio,Hocking,2022-04-28 09:13:11,2020-09-29,0.15724344471427001,0.34456673245089287,0.8117128688238064,,,,,,,,,,,,
39073,0,USOhioHocking,Ohio,Hocking,2022-04-28 09:13:11,2020-09-30,0.15724344471427001,0.34456673245089287,0.8117128688238064,,,,,,,,,,,,
39073,0,USOhioHocking,Ohio,Hocking,2022-04-28 09:13:11,2020-10-01,0.1479318380464205,0.34101770733315334,0.8457561746108366,,,,,,,,,,,,
39073,0,USOhioHocking,Ohio,Hocking,2022-04-28 09:13:11,2020-10-02,0.1479318380464205,0.34101770733315334,0.8457561746108366,,,,,,,,,,,,
39073,0,USOhioHocking,Ohio,Hocking,2022-04-28 09:13:11,2020-10-03,0.1479318380464205,0.34101770733315334,0.8457561746108366,,,,,,,,,,,,
39073,0,USOhioHocking,Ohio,Hocking,2022-04-28 09:13:11,2020-10-04,0.1479318380464205,0.34101770733315334,0.8457561746108366,,,,,,,,,,,,
39073,0,USOhioHocking,Ohio,Hocking,2022-04-28 09:13:11,2020-10-05,0.1479318380464205,0.34101770733315334,0.8457561746108366,,,,,,,,,,,,
39073,0,USOhioHocking,Ohio,Hocking,2022-04-28 09:13:11,2020-10-06,0.1479318380464205,0.34101770733315334,0.8457561746108366,,,,,,,,,,,,
39073,0,USOhioHocking,Ohio,Hocking,2022-04-28 09:13:11,2020-10-07,0.1479318380464205,0.34101770733315334,0.8457561746108366,,,,,,,,,,,,
39073,0,USOhioHocking,Ohio,Hocking,2022-04-28 09:13:11,2020-10-08,0.16837966797199067,0.3922095230205465,0.9829713368306786,,,,,,,,,,,,
39073,0,USOhioHocking,Ohio,Hocking,2022-04-28 09:13:11,2020-10-09,0.16837966797199067,0.3922095230205465,0.9829713368306786,,,,,,,,,,,,
39073,0,USOhioHocking,Ohio,Hocking,2022-04-28 09:13:11,2020-10-10,0.16837966797199067,0.3922095230205465,0.9829713368306786,,,,,,,,,,,,
39073,0,USOhioHocking,Ohio,Hocking,2022-04-28 09:13:11,2020-10-11,0.16837966797199067,0.3922095230205465,0.9829713368306786,,,,,,,,,,,,
39073,0,USOhioHocking,Ohio,Hocking,2022-04-28 09:13:11,2020-10-12,0.16837966797199067,0.3922095230205465,0.9829713368306786,,,,,,,,,,,,
39073,0,USOhioHocking,Ohio,Hocking,2022-04-28 09:13:11,2020-10-13,0.16837966797199067,0.3922095230205465,0.9829713368306786,,,,,,,,,,,,
39073,0,USOhioHocking,Ohio,Hocking,2022-04-28 09:13:11,2020-10-14,0.16837966797199067,0.3922095230205465,0.9829713368306786,,,,,,,,,,,,
39073,0,USOhioHocking,Ohio,Hocking,2022-04-28 09:13:11,2020-10-15,0.14687835001008526,0.37850864123716893,1.0495114116739626,,,,,,,,,,,,
39073,0,USOhioHocking,Ohio,Hocking,2022-04-28 09:13:11,2020-10-16,0.14687835001008526,0.37850864123716893,1.0495114116739626,,,,,,,,,,,,
39073,0,USOhioHocking,Ohio,Hocking,2022-04-28 09:13:11,2020-10-17,0.14687835001008526,0.37850864123716893,1.0495114116739626,,,,,,,,,,,,
39073,0,USOhioHocking,Ohio,Hocking,2022-04-28 09:13:11,2020-10-18,0.14687835001008526,0.37850864123716893,1.0495114116739626,,,,,,,,,,,,
39073,0,USOhioHocking,Ohio,Hocking,2022-04-28 09:13:11,2020-10-19,0.14687835001008526,0.37850864123716893,1.0495114116739626,,,,,,,,,,,,
39073,0,USOhioHocking,Ohio,Hocking,2022-04-28 09:13:11,2020-10-20,0.14687835001008526,0.37850864123716893,1.0495114116739626,,,,,,,,,,,,
39073,0,USOhioHocking,Ohio,Hocking,2022-04-28 09:13:11,2020-10-21,0.14687835001008526,0.37850864123716893,1.0495114116739626,,,,,,,,,,,,
39073,0,USOhioHocking,Ohio,Hocking,2022-04-28 09:13:11,2020-10-22,0.4217001126556331,0.8351187662456017,1.7725396677849201,,,,,,,,,,,,
39073,0,USOhioHocking,Ohio,Hocking,2022-04-28 09:13:11,2020-10-23,0.4217001126556331,0.8351187662456017,1.7725396677849201,,,,,,,,,,,,
39073,0,USOhioHocking,Ohio,Hocking,2022-04-28 09:13:11,2020-10-24,0.4217001126556331,0.8351187662456017,1.7725396677849201,,,,,,,,,,,,
39073,0,USOhioHocking,Ohio,Hocking,2022-04-28 09:13:11,2020-10-25,0.4217001126556331,0.8351187662456017,1.7725396677849201,,,,,,,,,,,,
39073,0,USOhioHocking,Ohio,Hocking,2022-04-28 09:13:11,2020-10-26,0.4217001126556331,0.8351187662456017,1.7725396677849201,,,,,,,,,,,,
39073,0,USOhioHocking,Ohio,Hocking,2022-04-28 09:13:11,2020-10-27,0.4217001126556331,0.8351187662456017,1.7725396677849201,,,,,,,,,,,,
39073,0,USOhioHocking,Ohio,Hocking,2022-04-28 09:13:11,2020-10-28,0.4217001126556331,0.8351187662456017,1.7725396677849201,,,,,,,,,,,,
39073,0,USOhioHocking,Ohio,Hocking,2022-04-28 09:13:11,2020-10-29,0.9684975343299966,1.6522715532916554,2.9943597966822773,,,,,,,,,,,,
39073,0,USOhioHocking,Ohio,Hocking,2022-04-28 09:13:11,2020-10-30,0.9684975343299966,1.6522715532916554,2.9943597966822773,,,,,,,,,,,,
39073,0,USOhioHocking,Ohio,Hocking,2022-04-28 09:13:11,2020-10-31,0.9684975343299966,1.6522715532916554,2.9943597966822773,,,,,,,,,,,,
39073,0,USOhioHocking,Ohio,Hocking,2022-04-28 09:13:11,2020-11-01,0.9684975343299966,1.6522715532916554,2.9943597966822773,,,,,,,,,,,,
39073,0,USOhioHocking,Ohio,Hocking,2022-04-28 09:13:11,2020-11-02,0.9684975343299966,1.6522715532916554,2.9943597966822773,,,,,,,,,,,,
39073,0,USOhioHocking,Ohio,Hocking,2022-04-28 09:13:11,2020-11-03,0.9684975343299966,1.6522715532916554,2.9943597966822773,,,,,,,,,,,,
39073,0,USOhioHocking,Ohio,Hocking,2022-04-28 09:13:11,2020-11-04,0.9684975343299966,1.6522715532916554,2.9943597966822773,,,,,,,,,,,,
39073,0,USOhioHocking,Ohio,Hocking,2022-04-28 09:13:11,2020-11-05,1.5957153268859332,2.589765892503783,4.445778556061239,,,,,,,,,,,,
39073,0,USOhioHocking,Ohio,Hocking,2022-04-28 09:13:11,2020-11-06,1.5957153268859332,2.589765892503783,4.445778556061239,,,,,,,,,,,,
39073,0,USOhioHocking,Ohio,Hocking,2022-04-28 09:13:11,2020-11-07,1.5957153268859332,2.589765892503783,4.445778556061239,,,,,,,,,,,,
39073,0,USOhioHocking,Ohio,Hocking,2022-04-28 09:13:11,2020-11-08,1.5957153268859332,2.589765892503783,4.445778556061239,,,,,,,,,,,,
39073,0,USOhioHocking,Ohio,Hocking,2022-04-28 09:13:11,2020-11-09,1.5957153268859332,2.589765892503783,4.445778556061239,,,,,,,,,,,,
39073,0,USOhioHocking,Ohio,Hocking,2022-04-28 09:13:11,2020-11-10,1.5957153268859332,2.589765892503783,4.445778556061239,,,,,,,,,,,,
39073,0,USOhioHocking,Ohio,Hocking,2022-04-28 09:13:11,2020-11-11,1.5957153268859332,2.589765892503783,4.445778556061239,,,,,,,,,,,,
39073,0,USOhioHocking,Ohio,Hocking,2022-04-28 09:13:11,2020-11-12,1.2729995049079874,2.326707735467429,4.539259438579866,,,,,,,,,,,,
39073,0,USOhioHocking,Ohio,Hocking,2022-04-28 09:13:11,2020-11-13,1.2729995049079874,2.326707735467429,4.539259438579866,,,,,,,,,,,,
39073,0,USOhioHocking,Ohio,Hocking,2022-04-28 09:13:11,2020-11-14,1.2729995049079874,2.326707735467429,4.539259438579866,,,,,,,,,,,,
39073,0,USOhioHocking,Ohio,Hocking,2022-04-28 09:13:11,2020-11-15,1.2729995049079874,2.326707735467429,4.539259438579866,,,,,,,,,,,,
39073,0,USOhioHocking,Ohio,Hocking,2022-04-28 09:13:11,2020-11-16,1.2729995049079874,2.326707735467429,4.539259438579866,,,,,,,,,,,,
39073,0,USOhioHocking,Ohio,Hocking,2022-04-28 09:13:11,2020-11-17,1.2729995049079874,2.326707735467429,4.539259438579866,,,,,,,,,,,,
39073,0,USOhioHocking,Ohio,Hocking,2022-04-28 09:13:11,2020-11-18,1.2729995049079874,2.326707735467429,4.539259438579866,,,,,,,,,,,,
39073,0,USOhioHocking,Ohio,Hocking,2022-04-28 09:13:11,2020-11-19,1.8038736919315286,3.097633575372509,5.653474107845743,,,,,,,,,,,,
39073,0,USOhioHocking,Ohio,Hocking,2022-04-28 09:13:11,2020-11-20,1.8038736919315286,3.097633575372509,5.653474107845743,,,,,,,,,,,,
39073,0,USOhioHocking,Ohio,Hocking,2022-04-28 09:13:11,2020-11-21,1.8038736919315286,3.097633575372509,5.653474107845743,,,,,,,,,,,,
39073,0,USOhioHocking,Ohio,Hocking,2022-04-28 09:13:11,2020-11-22,1.8038736919315286,3.097633575372509,5.653474107845743,,,,,,,,,,,,
39073,0,USOhioHocking,Ohio,Hocking,2022-04-28 09:13:11,2020-11-23,1.8038736919315286,3.097633575372509,5.653474107845743,,,,,,,,,,,,
39073,0,USOhioHocking,Ohio,Hocking,2022-04-28 09:13:11,2020-11-24,1.8038736919315286,3.097633575372509,5.653474107845743,,,,,,,,,,,,
39073,0,USOhioHocking,Ohio,Hocking,2022-04-28 09:13:11,2020-11-25,1.8038736919315286,3.097633575372509,5.653474107845743,,,,,,,,,,,,
39073,0,USOhioHocking,Ohio,Hocking,2022-04-28 09:13:11,2020-11-26,1.9440373188945554,3.3068433523877463,5.973945122955959,,,,,,,,,,,,
39073,0,USOhioHocking,Ohio,Hocking,2022-04-28 09:13:11,2020-11-27,1.9440373188945554,3.3068433523877463,5.973945122955959,,,,,,,,,,,,
39073,0,USOhioHocking,Ohio,Hocking,2022-04-28 09:13:11,2020-11-28,1.9440373188945554,3.3068433523877463,5.973945122955959,,,,,,,,,,,,
39073,0,USOhioHocking,Ohio,Hocking,2022-04-28 09:13:11,2020-11-29,1.9440373188945554,3.3068433523877463,5.973945122955959,,,,,,,,,,,,
39073,0,USOhioHocking,Ohio,Hocking,2022-04-28 09:13:11,2020-11-30,1.9440373188945554,3.3068433523877463,5.973945122955959,,,,,,,,,,,,
39073,0,USOhioHocking,Ohio,Hocking,2022-04-28 09:13:11,2020-12-01,1.9440373188945554,3.3068433523877463,5.973945122955959,,,,,,,,,,,,
39073,0,USOhioHocking,Ohio,Hocking,2022-04-28 09:13:11,2020-12-02,1.9440373188945554,3.3068433523877463,5.973945122955959,,,,,,,,,,,,
39073,0,USOhioHocking,Ohio,Hocking,2022-04-28 09:13:11,2020-12-03,2.430815014711886,4.2584462557029985,7.940694002211022,,,,,,,,,,,,
39073,0,USOhioHocking,Ohio,Hocking,2022-04-28 09:13:11,2020-12-04,2.430815014711886,4.2584462557029985,7.940694002211022,,,,,,,,,,,,
39073,0,USOhioHocking,Ohio,Hocking,2022-04-28 09:13:11,2020-12-05,2.430815014711886,4.2584462557029985,7.940694002211022,,,,,,,,,,,,
39073,0,USOhioHocking,Ohio,Hocking,2022-04-28 09:13:11,2020-12-06,2.430815014711886,4.2584462557029985,7.940694002211022,,,,,,,,,,,,
39073,0,USOhioHocking,Ohio,Hocking,2022-04-28 09:13:11,2020-12-07,2.430815014711886,4.2584462557029985,7.940694002211022,,,,,,,,,,,,
39073,0,USOhioHocking,Ohio,Hocking,2022-04-28 09:13:11,2020-12-08,2.430815014711886,4.2584462557029985,7.940694002211022,,,,,,,,,,,,
39073,0,USOhioHocking,Ohio,Hocking,2022-04-28 09:13:11,2020-12-09,2.430815014711886,4.2584462557029985,7.940694002211022,,,,,,,,,,,,
39073,0,USOhioHocking,Ohio,Hocking,2022-04-28 09:13:11,2020-12-10,2.1611175905567834,3.6846813873900928,6.673297386523148,,,,,,,,,,,,
39073,0,USOhioHocking,Ohio,Hocking,2022-04-28 09:13:11,2020-12-11,2.1611175905567834,3.6846813873900928,6.673297386523148,,,,,,,,,,,,
39073,0,USOhioHocking,Ohio,Hocking,2022-04-28 09:13:11,2020-12-12,2.1611175905567834,3.6846813873900928,6.673297386523148,,,,,,,,,,,,
39073,0,USOhioHocking,Ohio,Hocking,2022-04-28 09:13:11,2020-12-13,2.1611175905567834,3.6846813873900928,6.673297386523148,,,,,,,,,,,,
39073,0,USOhioHocking,Ohio,Hocking,2022-04-28 09:13:11,2020-12-14,2.1611175905567834,3.6846813873900928,6.673297386523148,,,,,,,,,,,,
39073,0,USOhioHocking,Ohio,Hocking,2022-04-28 09:13:11,2020-12-15,2.1611175905567834,3.6846813873900928,6.673297386523148,,,,,,,,,,,,
39073,0,USOhioHocking,Ohio,Hocking,2022-04-28 09:13:11,2020-12-16,2.1611175905567834,3.6846813873900928,6.673297386523148,,,,,,,,,,,,
39073,0,USOhioHocking,Ohio,Hocking,2022-04-28 09:13:11,2020-12-17,1.8182451674121727,3.25582316248148,6.2148886065317,,,,,,,,,,,,
39073,0,USOhioHocking,Ohio,Hocking,2022-04-28 09:13:11,2020-12-18,1.8182451674121727,3.25582316248148,6.2148886065317,,,,,,,,,,,,
39073,0,USOhioHocking,Ohio,Hocking,2022-04-28 09:13:11,2020-12-19,1.8182451674121727,3.25582316248148,6.2148886065317,,,,,,,,,,,,
39073,0,USOhioHocking,Ohio,Hocking,2022-04-28 09:13:11,2020-12-20,1.8182451674121727,3.25582316248148,6.2148886065317,,,,,,,,,,,,
39073,0,USOhioHocking,Ohio,Hocking,2022-04-28 09:13:11,2020-12-21,1.8182451674121727,3.25582316248148,6.2148886065317,,,,,,,,,,,,
39073,0,USOhioHocking,Ohio,Hocking,2022-04-28 09:13:11,2020-12-22,1.8182451674121727,3.25582316248148,6.2148886065317,,,,,,,,,,,,
39073,0,USOhioHocking,Ohio,Hocking,2022-04-28 09:13:11,2020-12-23,1.8182451674121727,3.25582316248148,6.2148886065317,,,,,,,,,,,,
39073,0,USOhioHocking,Ohio,Hocking,2022-04-28 09:13:11,2020-12-24,1.4231110822502213,2.713242797049838,5.5346057106593145,,,,,,,,,,,,
39073,0,USOhioHocking,Ohio,Hocking,2022-04-28 09:13:11,2020-12-25,1.4231110822502213,2.713242797049838,5.5346057106593145,,,,,,,,,,,,
39073,0,USOhioHocking,Ohio,Hocking,2022-04-28 09:13:11,2020-12-26,1.4231110822502213,2.713242797049838,5.5346057106593145,,,,,,,,,,,,
39073,0,USOhioHocking,Ohio,Hocking,2022-04-28 09:13:11,2020-12-27,1.4231110822502213,2.713242797049838,5.5346057106593145,,,,,,,,,,,,
39073,0,USOhioHocking,Ohio,Hocking,2022-04-28 09:13:11,2020-12-28,1.4231110822502213,2.713242797049838,5.5346057106593145,,,,,,,,,,,,
39073,0,USOhioHocking,Ohio,Hocking,2022-04-28 09:13:11,2020-12-29,1.4231110822502213,2.713242797049838,5.5346057106593145,,,,,,,,,,,,
39073,0,USOhioHocking,Ohio,Hocking,2022-04-28 09:13:11,2020-12-30,1.4231110822502213,2.713242797049838,5.5346057106593145,,,,,,,,,,,,
39073,0,USOhioHocking,Ohio,Hocking,2022-04-28 09:13:11,2020-12-31,1.4881120234598977,2.8724761449819494,5.935914725850179,,,,,,,,,,,,
39073,0,USOhioHocking,Ohio,Hocking,2022-04-28 09:13:11,2021-01-01,1.4881120234598977,2.8724761449819494,5.935914725850179,,,,,,,,,,,,
39073,0,USOhioHocking,Ohio,Hocking,2022-04-28 09:13:11,2021-01-02,1.4881120234598977,2.8724761449819494,5.935914725850179,,,,,,,,,,,,
39073,0,USOhioHocking,Ohio,Hocking,2022-04-28 09:13:11,2021-01-03,1.4881120234598977,2.8724761449819494,5.935914725850179,,,,,,,,,,,,
39073,0,USOhioHocking,Ohio,Hocking,2022-04-28 09:13:11,2021-01-04,1.4881120234598977,2.8724761449819494,5.935914725850179,,,,,,,,,,,,
39073,0,USOhioHocking,Ohio,Hocking,2022-04-28 09:13:11,2021-01-05,1.4881120234598977,2.8724761449819494,5.935914725850179,,,,,,,,,,,,
39073,0,USOhioHocking,Ohio,Hocking,2022-04-28 09:13:11,2021-01-06,1.4881120234598977,2.8724761449819494,5.935914725850179,,,,,,,,,,,,
39073,0,USOhioHocking,Ohio,Hocking,2022-04-28 09:13:11,2021-01-07,1.5216233037504332,2.839299043297155,5.6619790655547275,,,,,,,,,,,,
39073,0,USOhioHocking,Ohio,Hocking,2022-04-28 09:13:11,2021-01-08,1.5216233037504332,2.839299043297155,5.6619790655547275,,,,,,,,,,,,
39073,0,USOhioHocking,Ohio,Hocking,2022-04-28 09:13:11,2021-01-09,1.5216233037504332,2.839299043297155,5.6619790655547275,,,,,,,,,,,,
39073,0,USOhioHocking,Ohio,Hocking,2022-04-28 09:13:11,2021-01-10,1.5216233037504332,2.839299043297155,5.6619790655547275,,,,,,,,,,,,
39073,0,USOhioHocking,Ohio,Hocking,2022-04-28 09:13:11,2021-01-11,1.5216233037504332,2.839299043297155,5.6619790655547275,,,,,,,,,,,,
39073,0,USOhioHocking,Ohio,Hocking,2022-04-28 09:13:11,2021-01-12,1.5216233037504332,2.839299043297155,5.6619790655547275,,,,,,,,,,,,
39073,0,USOhioHocking,Ohio,Hocking,2022-04-28 09:13:11,2021-01-13,1.5216233037504332,2.839299043297155,5.6619790655547275,,,,,,,,,,,,
39073,0,USOhioHocking,Ohio,Hocking,2022-04-28 09:13:11,2021-01-14,1.5926912900886665,2.760390741202254,5.0883378801169155,,,,,,,,,,,,
39073,0,USOhioHocking,Ohio,Hocking,2022-04-28 09:13:11,2021-01-15,1.5926912900886665,2.760390741202254,5.0883378801169155,,,,,,,,,,,,
39073,0,USOhioHocking,Ohio,Hocking,2022-04-28 09:13:11,2021-01-16,1.5926912900886665,2.760390741202254,5.0883378801169155,,,,,,,,,,,,
39073,0,USOhioHocking,Ohio,Hocking,2022-04-28 09:13:11,2021-01-17,1.5926912900886665,2.760390741202254,5.0883378801169155,,,,,,,,,,,,
39073,0,USOhioHocking,Ohio,Hocking,2022-04-28 09:13:11,2021-01-18,1.5926912900886665,2.760390741202254,5.0883378801169155,,,,,,,,,,,,
39073,0,USOhioHocking,Ohio,Hocking,2022-04-28 09:13:11,2021-01-19,1.5926912900886665,2.760390741202254,5.0883378801169155,,,,,,,,,,,,
39073,0,USOhioHocking,Ohio,Hocking,2022-04-28 09:13:11,2021-01-20,1.5926912900886665,2.760390741202254,5.0883378801169155,,,,,,,,,,,,
39073,0,USOhioHocking,Ohio,Hocking,2022-04-28 09:13:11,2021-01-21,1.0658036115003422,2.0100680530695727,4.053674687946625,,,,,,,,,,,,
39073,0,USOhioHocking,Ohio,Hocking,2022-04-28 09:13:11,2021-01-22,1.0658036115003422,2.0100680530695727,4.053674687946625,,,,,,,,,,,,
39073,0,USOhioHocking,Ohio,Hocking,2022-04-28 09:13:11,2021-01-23,1.0658036115003422,2.0100680530695727,4.053674687946625,,,,,,,,,,,,
39073,0,USOhioHocking,Ohio,Hocking,2022-04-28 09:13:11,2021-01-24,1.0658036115003422,2.0100680530695727,4.053674687946625,,,,,,,,,,,,
39073,0,USOhioHocking,Ohio,Hocking,2022-04-28 09:13:11,2021-01-25,1.0658036115003422,2.0100680530695727,4.053674687946625,,,,,,,,,,,,
39073,0,USOhioHocking,Ohio,Hocking,2022-04-28 09:13:11,2021-01-26,1.0658036115003422,2.0100680530695727,4.053674687946625,,,,,,,,,,,,
39073,0,USOhioHocking,Ohio,Hocking,2022-04-28 09:13:11,2021-01-27,1.0658036115003422,2.0100680530695727,4.053674687946625,,,,,,,,,,,,
39073,0,USOhioHocking,Ohio,Hocking,2022-04-28 09:13:11,2021-01-28,0.9372753898141564,1.7258214730242725,3.393491217845402,,,,,,,,,,,,
39073,0,USOhioHocking,Ohio,Hocking,2022-04-28 09:13:11,2021-01-29,0.9372753898141564,1.7258214730242725,3.393491217845402,,,,,,,,,,,,
39073,0,USOhioHocking,Ohio,Hocking,2022-04-28 09:13:11,2021-01-30,0.9372753898141564,1.7258214730242725,3.393491217845402,,,,,,,,,,,,
39073,0,USOhioHocking,Ohio,Hocking,2022-04-28 09:13:11,2021-01-31,0.9372753898141564,1.7258214730242725,3.393491217845402,,,,,,,,,,,,
39073,0,USOhioHocking,Ohio,Hocking,2022-04-28 09:13:11,2021-02-01,0.9372753898141564,1.7258214730242725,3.393491217845402,,,,,,,,,,,,
39073,0,USOhioHocking,Ohio,Hocking,2022-04-28 09:13:11,2021-02-02,0.9372753898141564,1.7258214730242725,3.393491217845402,,,,,,,,,,,,
39073,0,USOhioHocking,Ohio,Hocking,2022-04-28 09:13:11,2021-02-03,0.9372753898141564,1.7258214730242725,3.393491217845402,,,,,,,,,,,,
39073,0,USOhioHocking,Ohio,Hocking,2022-04-28 09:13:11,2021-02-04,0.8516154916631614,1.5455954268471512,2.992875161304485,,,,,,,,,,,,
39073,0,USOhioHocking,Ohio,Hocking,2022-04-28 09:13:11,2021-02-05,0.8516154916631614,1.5455954268471512,2.992875161304485,,,,,,,,,,,,
39073,0,USOhioHocking,Ohio,Hocking,2022-04-28 09:13:11,2021-02-06,0.8516154916631614,1.5455954268471512,2.992875161304485,,,,,,,,,,,,
39073,0,USOhioHocking,Ohio,Hocking,2022-04-28 09:13:11,2021-02-07,0.8516154916631614,1.5455954268471512,2.992875161304485,,,,,,,,,,,,
39073,0,USOhioHocking,Ohio,Hocking,2022-04-28 09:13:11,2021-02-08,0.8516154916631614,1.5455954268471512,2.992875161304485,,,,,,,,,,,,
39073,0,USOhioHocking,Ohio,Hocking,2022-04-28 09:13:11,2021-02-09,0.8516154916631614,1.5455954268471512,2.992875161304485,,,,,,,,,,,,
39073,0,USOhioHocking,Ohio,Hocking,2022-04-28 09:13:11,2021-02-10,0.8516154916631614,1.5455954268471512,2.992875161304485,,,,,,,,,,,,
39073,0,USOhioHocking,Ohio,Hocking,2022-04-28 09:13:11,2021-02-11,0.4254289775017867,0.8787961885244934,1.9485931663081584,,,,,,,,,,,,
39073,0,USOhioHocking,Ohio,Hocking,2022-04-28 09:13:11,2021-02-12,0.4254289775017867,0.8787961885244934,1.9485931663081584,,,,,,,,,,,,
39073,0,USOhioHocking,Ohio,Hocking,2022-04-28 09:13:11,2021-02-13,0.4254289775017867,0.8787961885244934,1.9485931663081584,,,,,,,,,,,,
39073,0,USOhioHocking,Ohio,Hocking,2022-04-28 09:13:11,2021-02-14,0.4254289775017867,0.8787961885244934,1.9485931663081584,,,,,,,,,,,,
39073,0,USOhioHocking,Ohio,Hocking,2022-04-28 09:13:11,2021-02-15,0.4254289775017867,0.8787961885244934,1.9485931663081584,,,,,,,,,,,,
39073,0,USOhioHocking,Ohio,Hocking,2022-04-28 09:13:11,2021-02-16,0.4254289775017867,0.8787961885244934,1.9485931663081584,,,,,,,,,,,,
39073,0,USOhioHocking,Ohio,Hocking,2022-04-28 09:13:11,2021-02-17,0.4254289775017867,0.8787961885244934,1.9485931663081584,,,,,,,,,,,,
39073,0,USOhioHocking,Ohio,Hocking,2022-04-28 09:13:11,2021-02-18,0.3807936169443496,0.8626388280976564,2.102001936175288,,,,,,,,,,,,
39073,0,USOhioHocking,Ohio,Hocking,2022-04-28 09:13:11,2021-02-19,0.3807936169443496,0.8626388280976564,2.102001936175288,,,,,,,,,,,,
39073,0,USOhioHocking,Ohio,Hocking,2022-04-28 09:13:11,2021-02-20,0.3807936169443496,0.8626388280976564,2.102001936175288,,,,,,,,,,,,
39073,0,USOhioHocking,Ohio,Hocking,2022-04-28 09:13:11,2021-02-21,0.3807936169443496,0.8626388280976564,2.102001936175288,,,,,,,,,,,,
39073,0,USOhioHocking,Ohio,Hocking,2022-04-28 09:13:11,2021-02-22,0.3807936169443496,0.8626388280976564,2.102001936175288,,,,,,,,,,,,
39073,0,USOhioHocking,Ohio,Hocking,2022-04-28 09:13:11,2021-02-23,0.3807936169443496,0.8626388280976564,2.102001936175288,,,,,,,,,,,,
39073,0,USOhioHocking,Ohio,Hocking,2022-04-28 09:13:11,2021-02-24,0.3807936169443496,0.8626388280976564,2.102001936175288,,,,,,,,,,,,
39073,0,USOhioHocking,Ohio,Hocking,2022-04-28 09:13:11,2021-02-25,0.36148294843166423,0.7199497884872795,1.5371638796026368,,,,,,,,,,,,
39073,0,USOhioHocking,Ohio,Hocking,2022-04-28 09:13:11,2021-02-26,0.36148294843166423,0.7199497884872795,1.5371638796026368,,,,,,,,,,,,
39073,0,USOhioHocking,Ohio,Hocking,2022-04-28 09:13:11,2021-02-27,0.36148294843166423,0.7199497884872795,1.5371638796026368,,,,,,,,,,,,
39073,0,USOhioHocking,Ohio,Hocking,2022-04-28 09:13:11,2021-02-28,0.36148294843166423,0.7199497884872795,1.5371638796026368,,,,,,,,,,,,
39073,0,USOhioHocking,Ohio,Hocking,2022-04-28 09:13:11,2021-03-01,0.36148294843166423,0.7199497884872795,1.5371638796026368,,,,,,,,,,,,
39073,0,USOhioHocking,Ohio,Hocking,2022-04-28 09:13:11,2021-03-02,0.36148294843166423,0.7199497884872795,1.5371638796026368,,,,,,,,,,,,
39073,0,USOhioHocking,Ohio,Hocking,2022-04-28 09:13:11,2021-03-03,0.36148294843166423,0.7199497884872795,1.5371638796026368,,,,,,,,,,,,
39073,0,USOhioHocking,Ohio,Hocking,2022-04-28 09:13:11,2021-03-04,0.27149322438194634,0.5795062529630771,1.3290224975653075,,,,,,,,,,,,
39073,0,USOhioHocking,Ohio,Hocking,2022-04-28 09:13:11,2021-03-05,0.27149322438194634,0.5795062529630771,1.3290224975653075,,,,,,,,,,,,
39073,0,USOhioHocking,Ohio,Hocking,2022-04-28 09:13:11,2021-03-06,0.27149322438194634,0.5795062529630771,1.3290224975653075,,,,,,,,,,,,
39073,0,USOhioHocking,Ohio,Hocking,2022-04-28 09:13:11,2021-03-07,0.27149322438194634,0.5795062529630771,1.3290224975653075,,,,,,,,,,,,
39073,0,USOhioHocking,Ohio,Hocking,2022-04-28 09:13:11,2021-03-08,0.27149322438194634,0.5795062529630771,1.3290224975653075,,,,,,,,,,,,
39073,0,USOhioHocking,Ohio,Hocking,2022-04-28 09:13:11,2021-03-09,0.27149322438194634,0.5795062529630771,1.3290224975653075,,,,,,,,,,,,
39073,0,USOhioHocking,Ohio,Hocking,2022-04-28 09:13:11,2021-03-10,0.27149322438194634,0.5795062529630771,1.3290224975653075,,,,,,,,,,,,
39073,0,USOhioHocking,Ohio,Hocking,2022-04-28 09:13:11,2021-03-11,0.44652621902254114,0.8213857993702639,1.6134083554784542,,,,,,,,,,,,
39073,0,USOhioHocking,Ohio,Hocking,2022-04-28 09:13:11,2021-03-12,0.44652621902254114,0.8213857993702639,1.6134083554784542,,,,,,,,,,,,
39073,0,USOhioHocking,Ohio,Hocking,2022-04-28 09:13:11,2021-03-13,0.44652621902254114,0.8213857993702639,1.6134083554784542,,,,,,,,,,,,
39073,0,USOhioHocking,Ohio,Hocking,2022-04-28 09:13:11,2021-03-14,0.44652621902254114,0.8213857993702639,1.6134083554784542,,,,,,,,,,,,
39073,0,USOhioHocking,Ohio,Hocking,2022-04-28 09:13:11,2021-03-15,0.44652621902254114,0.8213857993702639,1.6134083554784542,,,,,,,,,,,,
39073,0,USOhioHocking,Ohio,Hocking,2022-04-28 09:13:11,2021-03-16,0.44652621902254114,0.8213857993702639,1.6134083554784542,,,,,,,,,,,,
39073,0,USOhioHocking,Ohio,Hocking,2022-04-28 09:13:11,2021-03-17,0.44652621902254114,0.8213857993702639,1.6134083554784542,,,,,,,,,,,,
39073,0,USOhioHocking,Ohio,Hocking,2022-04-28 09:13:11,2021-03-18,0.40897553520013563,0.7876588498803844,1.62383817843408,,,,,,,,,,,,
39073,0,USOhioHocking,Ohio,Hocking,2022-04-28 09:13:11,2021-03-19,0.40897553520013563,0.7876588498803844,1.62383817843408,,,,,,,,,,,,
39073,0,USOhioHocking,Ohio,Hocking,2022-04-28 09:13:11,2021-03-20,0.40897553520013563,0.7876588498803844,1.62383817843408,,,,,,,,,,,,
39073,0,USOhioHocking,Ohio,Hocking,2022-04-28 09:13:11,2021-03-21,0.40897553520013563,0.7876588498803844,1.62383817843408,,,,,,,,,,,,
39073,0,USOhioHocking,Ohio,Hocking,2022-04-28 09:13:11,2021-03-22,0.40897553520013563,0.7876588498803844,1.62383817843408,,,,,,,,,,,,
39073,0,USOhioHocking,Ohio,Hocking,2022-04-28 09:13:11,2021-03-23,0.40897553520013563,0.7876588498803844,1.62383817843408,,,,,,,,,,,,
39073,0,USOhioHocking,Ohio,Hocking,2022-04-28 09:13:11,2021-03-24,0.40897553520013563,0.7876588498803844,1.62383817843408,,,,,,,,,,,,
39073,0,USOhioHocking,Ohio,Hocking,2022-04-28 09:13:11,2021-03-25,0.42708553572568714,0.8555828572767182,1.8378600460676333,,,,,,,,,,,,
39073,0,USOhioHocking,Ohio,Hocking,2022-04-28 09:13:11,2021-03-26,0.42708553572568714,0.8555828572767182,1.8378600460676333,,,,,,,,,,,,
39073,0,USOhioHocking,Ohio,Hocking,2022-04-28 09:13:11,2021-03-27,0.42708553572568714,0.8555828572767182,1.8378600460676333,,,,,,,,,,,,
39073,0,USOhioHocking,Ohio,Hocking,2022-04-28 09:13:11,2021-03-28,0.42708553572568714,0.8555828572767182,1.8378600460676333,,,,,,,,,,,,
39073,0,USOhioHocking,Ohio,Hocking,2022-04-28 09:13:11,2021-03-29,0.42708553572568714,0.8555828572767182,1.8378600460676333,,,,,,,,,,,,
39073,0,USOhioHocking,Ohio,Hocking,2022-04-28 09:13:11,2021-03-30,0.42708553572568714,0.8555828572767182,1.8378600460676333,,,,,,,,,,,,
39073,0,USOhioHocking,Ohio,Hocking,2022-04-28 09:13:11,2021-03-31,0.42708553572568714,0.8555828572767182,1.8378600460676333,,,,,,,,,,,,
39073,0,USOhioHocking,Ohio,Hocking,2022-04-28 09:13:11,2021-04-01,0.3304563709454633,0.7211876165426969,1.6919026728789774,,,,,,,,,,,,
39073,0,USOhioHocking,Ohio,Hocking,2022-04-28 09:13:11,2021-04-02,0.3304563709454633,0.7211876165426969,1.6919026728789774,,,,,,,,,,,,
39073,0,USOhioHocking,Ohio,Hocking,2022-04-28 09:13:11,2021-04-03,0.3304563709454633,0.7211876165426969,1.6919026728789774,,,,,,,,,,,,
39073,0,USOhioHocking,Ohio,Hocking,2022-04-28 09:13:11,2021-04-04,0.3304563709454633,0.7211876165426969,1.6919026728789774,,,,,,,,,,,,
39073,0,USOhioHocking,Ohio,Hocking,2022-04-28 09:13:11,2021-04-05,0.3304563709454633,0.7211876165426969,1.6919026728789774,,,,,,,,,,,,
39073,0,USOhioHocking,Ohio,Hocking,2022-04-28 09:13:11,2021-04-06,0.3304563709454633,0.7211876165426969,1.6919026728789774,,,,,,,,,,,,
39073,0,USOhioHocking,Ohio,Hocking,2022-04-28 09:13:11,2021-04-07,0.3304563709454633,0.7211876165426969,1.6919026728789774,,,,,,,,,,,,
39073,0,USOhioHocking,Ohio,Hocking,2022-04-28 09:13:11,2021-04-08,0.3486498491458146,0.7624648241466959,1.7925084674910399,,,,,,,,,,,,
39073,0,USOhioHocking,Ohio,Hocking,2022-04-28 09:13:11,2021-04-09,0.3486498491458146,0.7624648241466959,1.7925084674910399,,,,,,,,,,,,
39073,0,USOhioHocking,Ohio,Hocking,2022-04-28 09:13:11,2021-04-10,0.3486498491458146,0.7624648241466959,1.7925084674910399,,,,,,,,,,,,
39073,0,USOhioHocking,Ohio,Hocking,2022-04-28 09:13:11,2021-04-11,0.3486498491458146,0.7624648241466959,1.7925084674910399,,,,,,,,,,,,
39073,0,USOhioHocking,Ohio,Hocking,2022-04-28 09:13:11,2021-04-12,0.3486498491458146,0.7624648241466959,1.7925084674910399,,,,,,,,,,,,
39073,0,USOhioHocking,Ohio,Hocking,2022-04-28 09:13:11,2021-04-13,0.3486498491458146,0.7624648241466959,1.7925084674910399,,,,,,,,,,,,
39073,0,USOhioHocking,Ohio,Hocking,2022-04-28 09:13:11,2021-04-14,0.3486498491458146,0.7624648241466959,1.7925084674910399,,,,,,,,,,,,
39073,0,USOhioHocking,Ohio,Hocking,2022-04-28 09:13:11,2021-04-15,0.3822908122131786,0.8009528566989628,1.802097611384733,,,,,,,,,,,,
39073,0,USOhioHocking,Ohio,Hocking,2022-04-28 09:13:11,2021-04-16,0.3822908122131786,0.8009528566989628,1.802097611384733,,,,,,,,,,,,
39073,0,USOhioHocking,Ohio,Hocking,2022-04-28 09:13:11,2021-04-17,0.3822908122131786,0.8009528566989628,1.802097611384733,,,,,,,,,,,,
39073,0,USOhioHocking,Ohio,Hocking,2022-04-28 09:13:11,2021-04-18,0.3822908122131786,0.8009528566989628,1.802097611384733,,,,,,,,,,,,
39073,0,USOhioHocking,Ohio,Hocking,2022-04-28 09:13:11,2021-04-19,0.3822908122131786,0.8009528566989628,1.802097611384733,,,,,,,,,,,,
39073,0,USOhioHocking,Ohio,Hocking,2022-04-28 09:13:11,2021-04-20,0.3822908122131786,0.8009528566989628,1.802097611384733,,,,,,,,,,,,
39073,0,USOhioHocking,Ohio,Hocking,2022-04-28 09:13:11,2021-04-21,0.3822908122131786,0.8009528566989628,1.802097611384733,,,,,,,,,,,,
39073,0,USOhioHocking,Ohio,Hocking,2022-04-28 09:13:11,2021-04-22,0.31346052352672693,0.4732018484453482,0.750031143630808,,,,,,,,,,,,
39073,0,USOhioHocking,Ohio,Hocking,2022-04-28 09:13:11,2021-04-23,0.31346052352672693,0.4732018484453482,0.750031143630808,,,,,,,,,,,,
39073,0,USOhioHocking,Ohio,Hocking,2022-04-28 09:13:11,2021-04-24,0.31346052352672693,0.4732018484453482,0.750031143630808,,,,,,,,,,,,
39073,0,USOhioHocking,Ohio,Hocking,2022-04-28 09:13:11,2021-04-25,0.31346052352672693,0.4732018484453482,0.750031143630808,,,,,,,,,,,,
39073,0,USOhioHocking,Ohio,Hocking,2022-04-28 09:13:11,2021-04-26,0.31346052352672693,0.4732018484453482,0.750031143630808,,,,,,,,,,,,
39073,0,USOhioHocking,Ohio,Hocking,2022-04-28 09:13:11,2021-04-27,0.31346052352672693,0.4732018484453482,0.750031143630808,,,,,,,,,,,,
39073,0,USOhioHocking,Ohio,Hocking,2022-04-28 09:13:11,2021-04-28,0.31346052352672693,0.4732018484453482,0.750031143630808,,,,,,,,,,,,
39073,0,USOhioHocking,Ohio,Hocking,2022-04-28 09:13:11,2021-04-29,0.24085631389755124,0.5205287145784088,1.209020301016682,,,,,,,,,,,,
39073,0,USOhioHocking,Ohio,Hocking,2022-04-28 09:13:11,2021-04-30,0.24085631389755124,0.5205287145784088,1.209020301016682,,,,,,,,,,,,
39073,0,USOhioHocking,Ohio,Hocking,2022-04-28 09:13:11,2021-05-01,0.24085631389755124,0.5205287145784088,1.209020301016682,,,,,,,,,,,,
39073,0,USOhioHocking,Ohio,Hocking,2022-04-28 09:13:11,2021-05-02,0.24085631389755124,0.5205287145784088,1.209020301016682,,,,,,,,,,,,
39073,0,USOhioHocking,Ohio,Hocking,2022-04-28 09:13:11,2021-05-03,0.24085631389755124,0.5205287145784088,1.209020301016682,,,,,,,,,,,,
39073,0,USOhioHocking,Ohio,Hocking,2022-04-28 09:13:11,2021-05-04,0.24085631389755124,0.5205287145784088,1.209020301016682,,,,,,,,,,,,
39073,0,USOhioHocking,Ohio,Hocking,2022-04-28 09:13:11,2021-05-05,0.24085631389755124,0.5205287145784088,1.209020301016682,,,,,,,,,,,,
39073,0,USOhioHocking,Ohio,Hocking,2022-04-28 09:13:11,2021-05-06,0.15440212467719303,0.3697124892227803,0.9526631972507544,,,,,,,,,,,,
39073,0,USOhioHocking,Ohio,Hocking,2022-04-28 09:13:11,2021-05-07,0.15440212467719303,0.3697124892227803,0.9526631972507544,,,,,,,,,,,,
39073,0,USOhioHocking,Ohio,Hocking,2022-04-28 09:13:11,2021-05-08,0.15440212467719303,0.3697124892227803,0.9526631972507544,,,,,,,,,,,,
39073,0,USOhioHocking,Ohio,Hocking,2022-04-28 09:13:11,2021-05-09,0.15440212467719303,0.3697124892227803,0.9526631972507544,,,,,,,,,,,,
39073,0,USOhioHocking,Ohio,Hocking,2022-04-28 09:13:11,2021-05-10,0.15440212467719303,0.3697124892227803,0.9526631972507544,,,,,,,,,,,,
39073,0,USOhioHocking,Ohio,Hocking,2022-04-28 09:13:11,2021-05-11,0.15440212467719303,0.3697124892227803,0.9526631972507544,,,,,,,,,,,,
39073,0,USOhioHocking,Ohio,Hocking,2022-04-28 09:13:11,2021-05-12,0.15440212467719303,0.3697124892227803,0.9526631972507544,,,,,,,,,,,,
39073,0,USOhioHocking,Ohio,Hocking,2022-04-28 09:13:11,2021-05-13,0.2194771368878146,0.4663521291893112,1.0645441481614142,,,,,,,,,,,,
39073,0,USOhioHocking,Ohio,Hocking,2022-04-28 09:13:11,2021-05-14,0.2194771368878146,0.4663521291893112,1.0645441481614142,,,,,,,,,,,,
39073,0,USOhioHocking,Ohio,Hocking,2022-04-28 09:13:11,2021-05-15,0.2194771368878146,0.4663521291893112,1.0645441481614142,,,,,,,,,,,,
39073,0,USOhioHocking,Ohio,Hocking,2022-04-28 09:13:11,2021-05-16,0.2194771368878146,0.4663521291893112,1.0645441481614142,,,,,,,,,,,,
39073,0,USOhioHocking,Ohio,Hocking,2022-04-28 09:13:11,2021-05-17,0.2194771368878146,0.4663521291893112,1.0645441481614142,,,,,,,,,,,,
39073,0,USOhioHocking,Ohio,Hocking,2022-04-28 09:13:11,2021-05-18,0.2194771368878146,0.4663521291893112,1.0645441481614142,,,,,,,,,,,,
39073,0,USOhioHocking,Ohio,Hocking,2022-04-28 09:13:11,2021-05-19,0.2194771368878146,0.4663521291893112,1.0645441481614142,,,,,,,,,,,,
39073,0,USOhioHocking,Ohio,Hocking,2022-04-28 09:13:11,2021-05-20,0.23322852133016045,0.4896499352711712,1.1040111184265278,,,,,,,,,,,,
39073,0,USOhioHocking,Ohio,Hocking,2022-04-28 09:13:11,2021-05-21,0.23322852133016045,0.4896499352711712,1.1040111184265278,,,,,,,,,,,,
39073,0,USOhioHocking,Ohio,Hocking,2022-04-28 09:13:11,2021-05-22,0.23322852133016045,0.4896499352711712,1.1040111184265278,,,,,,,,,,,,
39073,0,USOhioHocking,Ohio,Hocking,2022-04-28 09:13:11,2021-05-23,0.23322852133016045,0.4896499352711712,1.1040111184265278,,,,,,,,,,,,
39073,0,USOhioHocking,Ohio,Hocking,2022-04-28 09:13:11,2021-05-24,0.23322852133016045,0.4896499352711712,1.1040111184265278,,,,,,,,,,,,
39073,0,USOhioHocking,Ohio,Hocking,2022-04-28 09:13:11,2021-05-25,0.23322852133016045,0.4896499352711712,1.1040111184265278,,,,,,,,,,,,
39073,0,USOhioHocking,Ohio,Hocking,2022-04-28 09:13:11,2021-05-26,0.23322852133016045,0.4896499352711712,1.1040111184265278,,,,,,,,,,,,
39073,0,USOhioHocking,Ohio,Hocking,2022-04-28 09:13:11,2021-05-27,0.1509854366396029,0.31899151622308897,0.7239069215353391,,,,,,,,,,,,
39073,0,USOhioHocking,Ohio,Hocking,2022-04-28 09:13:11,2021-05-28,0.1509854366396029,0.31899151622308897,0.7239069215353391,,,,,,,,,,,,
39073,0,USOhioHocking,Ohio,Hocking,2022-04-28 09:13:11,2021-05-29,0.1509854366396029,0.31899151622308897,0.7239069215353391,,,,,,,,,,,,
39073,0,USOhioHocking,Ohio,Hocking,2022-04-28 09:13:11,2021-05-30,0.1509854366396029,0.31899151622308897,0.7239069215353391,,,,,,,,,,,,
39073,0,USOhioHocking,Ohio,Hocking,2022-04-28 09:13:11,2021-05-31,0.1509854366396029,0.31899151622308897,0.7239069215353391,,,,,,,,,,,,
39073,0,USOhioHocking,Ohio,Hocking,2022-04-28 09:13:11,2021-06-01,0.1509854366396029,0.31899151622308897,0.7239069215353391,,,,,,,,,,,,
39073,0,USOhioHocking,Ohio,Hocking,2022-04-28 09:13:11,2021-06-02,0.1509854366396029,0.31899151622308897,0.7239069215353391,,,,,,,,,,,,
39073,0,USOhioHocking,Ohio,Hocking,2022-04-28 09:13:11,2021-06-03,0.07891826374895959,0.19267522638402643,0.5062384067671489,,,,,,,,,,,,
39073,0,USOhioHocking,Ohio,Hocking,2022-04-28 09:13:11,2021-06-04,0.07891826374895959,0.19267522638402643,0.5062384067671489,,,,,,,,,,,,
39073,0,USOhioHocking,Ohio,Hocking,2022-04-28 09:13:11,2021-06-05,0.07891826374895959,0.19267522638402643,0.5062384067671489,,,,,,,,,,,,
39073,0,USOhioHocking,Ohio,Hocking,2022-04-28 09:13:11,2021-06-06,0.07891826374895959,0.19267522638402643,0.5062384067671489,,,,,,,,,,,,
39073,0,USOhioHocking,Ohio,Hocking,2022-04-28 09:13:11,2021-06-07,0.07891826374895959,0.19267522638402643,0.5062384067671489,,,,,,,,,,,,
39073,0,USOhioHocking,Ohio,Hocking,2022-04-28 09:13:11,2021-06-08,0.07891826374895959,0.19267522638402643,0.5062384067671489,,,,,,,,,,,,
39073,0,USOhioHocking,Ohio,Hocking,2022-04-28 09:13:11,2021-06-09,0.07891826374895959,0.19267522638402643,0.5062384067671489,,,,,,,,,,,,
39073,0,USOhioHocking,Ohio,Hocking,2022-04-28 09:13:11,2021-06-10,0.0888786931074107,0.1977945757431008,0.473348262597311,,,,,,,,,,,,
39073,0,USOhioHocking,Ohio,Hocking,2022-04-28 09:13:11,2021-06-11,0.0888786931074107,0.1977945757431008,0.473348262597311,,,,,,,,,,,,
39073,0,USOhioHocking,Ohio,Hocking,2022-04-28 09:13:11,2021-06-12,0.0888786931074107,0.1977945757431008,0.473348262597311,,,,,,,,,,,,
39073,0,USOhioHocking,Ohio,Hocking,2022-04-28 09:13:11,2021-06-13,0.0888786931074107,0.1977945757431008,0.473348262597311,,,,,,,,,,,,
39073,0,USOhioHocking,Ohio,Hocking,2022-04-28 09:13:11,2021-06-14,0.0888786931074107,0.1977945757431008,0.473348262597311,,,,,,,,,,,,
39073,0,USOhioHocking,Ohio,Hocking,2022-04-28 09:13:11,2021-06-15,0.0888786931074107,0.1977945757431008,0.473348262597311,,,,,,,,,,,,
39073,0,USOhioHocking,Ohio,Hocking,2022-04-28 09:13:11,2021-06-16,0.0888786931074107,0.1977945757431008,0.473348262597311,,,,,,,,,,,,
39073,0,USOhioHocking,Ohio,Hocking,2022-04-28 09:13:11,2021-06-17,0.08752839099976212,0.19213694987191102,0.4534359047253733,,,,,,,,,,,,
39073,0,USOhioHocking,Ohio,Hocking,2022-04-28 09:13:11,2021-06-18,0.08752839099976212,0.19213694987191102,0.4534359047253733,,,,,,,,,,,,
39073,0,USOhioHocking,Ohio,Hocking,2022-04-28 09:13:11,2021-06-19,0.08752839099976212,0.19213694987191102,0.4534359047253733,,,,,,,,,,,,
39073,0,USOhioHocking,Ohio,Hocking,2022-04-28 09:13:11,2021-06-20,0.08752839099976212,0.19213694987191102,0.4534359047253733,,,,,,,,,,,,
39073,0,USOhioHocking,Ohio,Hocking,2022-04-28 09:13:11,2021-06-21,0.08752839099976212,0.19213694987191102,0.4534359047253733,,,,,,,,,,,,
39073,0,USOhioHocking,Ohio,Hocking,2022-04-28 09:13:11,2021-06-22,0.08752839099976212,0.19213694987191102,0.4534359047253733,,,,,,,,,,,,
39073,0,USOhioHocking,Ohio,Hocking,2022-04-28 09:13:11,2021-06-23,0.08752839099976212,0.19213694987191102,0.4534359047253733,,,,,,,,,,,,
39073,0,USOhioHocking,Ohio,Hocking,2022-04-28 09:13:11,2021-06-24,0,0,0,,,,,,,,,,,,
39073,0,USOhioHocking,Ohio,Hocking,2022-04-28 09:13:11,2021-06-25,0,0,0,,,,,,,,,,,,
39073,0,USOhioHocking,Ohio,Hocking,2022-04-28 09:13:11,2021-06-26,0,0,0,,,,,,,,,,,,
39073,0,USOhioHocking,Ohio,Hocking,2022-04-28 09:13:11,2021-06-27,0,0,0,,,,,,,,,,,,
39073,0,USOhioHocking,Ohio,Hocking,2022-04-28 09:13:11,2021-06-28,0,0,0,,,,,,,,,,,,
39073,0,USOhioHocking,Ohio,Hocking,2022-04-28 09:13:11,2021-06-29,0,0,0,,,,,,,,,,,,
39073,0,USOhioHocking,Ohio,Hocking,2022-04-28 09:13:11,2021-06-30,0,0,0,,,,,,,,,,,,
39073,0,USOhioHocking,Ohio,Hocking,2022-04-28 09:13:11,2021-07-01,0.02680918339084098,0.0852309793614717,0.29031985278249606,,,,,,,,,,,,
39073,0,USOhioHocking,Ohio,Hocking,2022-04-28 09:13:11,2021-07-02,0.02680918339084098,0.0852309793614717,0.29031985278249606,,,,,,,,,,,,
39073,0,USOhioHocking,Ohio,Hocking,2022-04-28 09:13:11,2021-07-03,0.02680918339084098,0.0852309793614717,0.29031985278249606,,,,,,,,,,,,
39073,0,USOhioHocking,Ohio,Hocking,2022-04-28 09:13:11,2021-07-04,0.02680918339084098,0.0852309793614717,0.29031985278249606,,,,,,,,,,,,
39073,0,USOhioHocking,Ohio,Hocking,2022-04-28 09:13:11,2021-07-05,0.02680918339084098,0.0852309793614717,0.29031985278249606,,,,,,,,,,,,
39073,0,USOhioHocking,Ohio,Hocking,2022-04-28 09:13:11,2021-07-06,0.02680918339084098,0.0852309793614717,0.29031985278249606,,,,,,,,,,,,
39073,0,USOhioHocking,Ohio,Hocking,2022-04-28 09:13:11,2021-07-07,0.02680918339084098,0.0852309793614717,0.29031985278249606,,,,,,,,,,,,
39073,0,USOhioHocking,Ohio,Hocking,2022-04-28 09:13:11,2021-07-08,0.06433322775105596,0.16896553321649668,0.4773975278543558,,,,,,,,,,,,
39073,0,USOhioHocking,Ohio,Hocking,2022-04-28 09:13:11,2021-07-09,0.06433322775105596,0.16896553321649668,0.4773975278543558,,,,,,,,,,,,
39073,0,USOhioHocking,Ohio,Hocking,2022-04-28 09:13:11,2021-07-10,0.06433322775105596,0.16896553321649668,0.4773975278543558,,,,,,,,,,,,
39073,0,USOhioHocking,Ohio,Hocking,2022-04-28 09:13:11,2021-07-11,0.06433322775105596,0.16896553321649668,0.4773975278543558,,,,,,,,,,,,
39073,0,USOhioHocking,Ohio,Hocking,2022-04-28 09:13:11,2021-07-12,0.06433322775105596,0.16896553321649668,0.4773975278543558,,,,,,,,,,,,
39073,0,USOhioHocking,Ohio,Hocking,2022-04-28 09:13:11,2021-07-13,0.06433322775105596,0.16896553321649668,0.4773975278543558,,,,,,,,,,,,
39073,0,USOhioHocking,Ohio,Hocking,2022-04-28 09:13:11,2021-07-14,0.06433322775105596,0.16896553321649668,0.4773975278543558,,,,,,,,,,,,
39073,0,USOhioHocking,Ohio,Hocking,2022-04-28 09:13:11,2021-07-15,0.10888779500507764,0.289843611900609,0.8298556172763576,,,,,,,,,,,,
39073,0,USOhioHocking,Ohio,Hocking,2022-04-28 09:13:11,2021-07-16,0.10888779500507764,0.289843611900609,0.8298556172763576,,,,,,,,,,,,
39073,0,USOhioHocking,Ohio,Hocking,2022-04-28 09:13:11,2021-07-17,0.10888779500507764,0.289843611900609,0.8298556172763576,,,,,,,,,,,,
39073,0,USOhioHocking,Ohio,Hocking,2022-04-28 09:13:11,2021-07-18,0.10888779500507764,0.289843611900609,0.8298556172763576,,,,,,,,,,,,
39073,0,USOhioHocking,Ohio,Hocking,2022-04-28 09:13:11,2021-07-19,0.10888779500507764,0.289843611900609,0.8298556172763576,,,,,,,,,,,,
39073,0,USOhioHocking,Ohio,Hocking,2022-04-28 09:13:11,2021-07-20,0.10888779500507764,0.289843611900609,0.8298556172763576,,,,,,,,,,,,
39073,0,USOhioHocking,Ohio,Hocking,2022-04-28 09:13:11,2021-07-21,0.10888779500507764,0.289843611900609,0.8298556172763576,,,,,,,,,,,,
39073,0,USOhioHocking,Ohio,Hocking,2022-04-28 09:13:11,2021-07-22,0.25620957685816287,0.5851930119157611,1.4378453067726065,,,,,,,,,,,,
39073,0,USOhioHocking,Ohio,Hocking,2022-04-28 09:13:11,2021-07-23,0.25620957685816287,0.5851930119157611,1.4378453067726065,,,,,,,,,,,,
39073,0,USOhioHocking,Ohio,Hocking,2022-04-28 09:13:11,2021-07-24,0.25620957685816287,0.5851930119157611,1.4378453067726065,,,,,,,,,,,,
39073,0,USOhioHocking,Ohio,Hocking,2022-04-28 09:13:11,2021-07-25,0.25620957685816287,0.5851930119157611,1.4378453067726065,,,,,,,,,,,,
39073,0,USOhioHocking,Ohio,Hocking,2022-04-28 09:13:11,2021-07-26,0.25620957685816287,0.5851930119157611,1.4378453067726065,,,,,,,,,,,,
39073,0,USOhioHocking,Ohio,Hocking,2022-04-28 09:13:11,2021-07-27,0.25620957685816287,0.5851930119157611,1.4378453067726065,,,,,,,,,,,,
39073,0,USOhioHocking,Ohio,Hocking,2022-04-28 09:13:11,2021-07-28,0.25620957685816287,0.5851930119157611,1.4378453067726065,,,,,,,,,,,,
39073,0,USOhioHocking,Ohio,Hocking,2022-04-28 09:13:11,2021-07-29,0.30947400708115486,0.7035329890202044,1.7203989322757334,,,,,,,,,,,,
39073,0,USOhioHocking,Ohio,Hocking,2022-04-28 09:13:11,2021-07-30,0.30947400708115486,0.7035329890202044,1.7203989322757334,,,,,,,,,,,,
39073,0,USOhioHocking,Ohio,Hocking,2022-04-28 09:13:11,2021-07-31,0.30947400708115486,0.7035329890202044,1.7203989322757334,,,,,,,,,,,,
39073,0,USOhioHocking,Ohio,Hocking,2022-04-28 09:13:11,2021-08-01,0.30947400708115486,0.7035329890202044,1.7203989322757334,,,,,,,,,,,,
39073,0,USOhioHocking,Ohio,Hocking,2022-04-28 09:13:11,2021-08-02,0.30947400708115486,0.7035329890202044,1.7203989322757334,,,,,,,,,,,,
39073,0,USOhioHocking,Ohio,Hocking,2022-04-28 09:13:11,2021-08-03,0.30947400708115486,0.7035329890202044,1.7203989322757334,,,,,,,,,,,,
39073,0,USOhioHocking,Ohio,Hocking,2022-04-28 09:13:11,2021-08-04,0.30947400708115486,0.7035329890202044,1.7203989322757334,,,,,,,,,,,,
39073,0,USOhioHocking,Ohio,Hocking,2022-04-28 09:13:11,2021-08-05,0.5097729953828299,1.0895090252232627,2.501921291886302,,,,,,,,,,,,
39073,0,USOhioHocking,Ohio,Hocking,2022-04-28 09:13:11,2021-08-06,0.5097729953828299,1.0895090252232627,2.501921291886302,,,,,,,,,,,,
39073,0,USOhioHocking,Ohio,Hocking,2022-04-28 09:13:11,2021-08-07,0.5097729953828299,1.0895090252232627,2.501921291886302,,,,,,,,,,,,
39073,0,USOhioHocking,Ohio,Hocking,2022-04-28 09:13:11,2021-08-08,0.5097729953828299,1.0895090252232627,2.501921291886302,,,,,,,,,,,,
39073,0,USOhioHocking,Ohio,Hocking,2022-04-28 09:13:11,2021-08-09,0.5097729953828299,1.0895090252232627,2.501921291886302,,,,,,,,,,,,
39073,0,USOhioHocking,Ohio,Hocking,2022-04-28 09:13:11,2021-08-10,0.5097729953828299,1.0895090252232627,2.501921291886302,,,,,,,,,,,,
39073,0,USOhioHocking,Ohio,Hocking,2022-04-28 09:13:11,2021-08-11,0.5097729953828299,1.0895090252232627,2.501921291886302,,,,,,,,,,,,
39073,0,USOhioHocking,Ohio,Hocking,2022-04-28 09:13:11,2021-08-12,0.8979314352039294,1.6599940339514114,3.2778835148631975,,,,,,,,,,,,
39073,0,USOhioHocking,Ohio,Hocking,2022-04-28 09:13:11,2021-08-13,0.8979314352039294,1.6599940339514114,3.2778835148631975,,,,,,,,,,,,
39073,0,USOhioHocking,Ohio,Hocking,2022-04-28 09:13:11,2021-08-14,0.8979314352039294,1.6599940339514114,3.2778835148631975,,,,,,,,,,,,
39073,0,USOhioHocking,Ohio,Hocking,2022-04-28 09:13:11,2021-08-15,0.8979314352039294,1.6599940339514114,3.2778835148631975,,,,,,,,,,,,
39073,0,USOhioHocking,Ohio,Hocking,2022-04-28 09:13:11,2021-08-16,0.8979314352039294,1.6599940339514114,3.2778835148631975,,,,,,,,,,,,
39073,0,USOhioHocking,Ohio,Hocking,2022-04-28 09:13:11,2021-08-17,0.8979314352039294,1.6599940339514114,3.2778835148631975,,,,,,,,,,,,
39073,0,USOhioHocking,Ohio,Hocking,2022-04-28 09:13:11,2021-08-18,0.8979314352039294,1.6599940339514114,3.2778835148631975,,,,,,,,,,,,
39073,0,USOhioHocking,Ohio,Hocking,2022-04-28 09:13:11,2021-08-19,1.2101974302200382,2.2265900686212063,4.374477196702255,,,,,,,,,,,,
39073,0,USOhioHocking,Ohio,Hocking,2022-04-28 09:13:11,2021-08-20,1.2101974302200382,2.2265900686212063,4.374477196702255,,,,,,,,,,,,
39073,0,USOhioHocking,Ohio,Hocking,2022-04-28 09:13:11,2021-08-21,1.2101974302200382,2.2265900686212063,4.374477196702255,,,,,,,,,,,,
39073,0,USOhioHocking,Ohio,Hocking,2022-04-28 09:13:11,2021-08-22,1.2101974302200382,2.2265900686212063,4.374477196702255,,,,,,,,,,,,
39073,0,USOhioHocking,Ohio,Hocking,2022-04-28 09:13:11,2021-08-23,1.2101974302200382,2.2265900686212063,4.374477196702255,,,,,,,,,,,,
39073,0,USOhioHocking,Ohio,Hocking,2022-04-28 09:13:11,2021-08-24,1.2101974302200382,2.2265900686212063,4.374477196702255,,,,,,,,,,,,
39073,0,USOhioHocking,Ohio,Hocking,2022-04-28 09:13:11,2021-08-25,1.2101974302200382,2.2265900686212063,4.374477196702255,,,,,,,,,,,,
39073,0,USOhioHocking,Ohio,Hocking,2022-04-28 09:13:11,2021-08-26,1.2370509852388418,2.297130974382259,4.557415492195509,,,,,,,,,,,,
39073,0,USOhioHocking,Ohio,Hocking,2022-04-28 09:13:11,2021-08-27,1.2370509852388418,2.297130974382259,4.557415492195509,,,,,,,,,,,,
39073,0,USOhioHocking,Ohio,Hocking,2022-04-28 09:13:11,2021-08-28,1.2370509852388418,2.297130974382259,4.557415492195509,,,,,,,,,,,,
39073,0,USOhioHocking,Ohio,Hocking,2022-04-28 09:13:11,2021-08-29,1.2370509852388418,2.297130974382259,4.557415492195509,,,,,,,,,,,,
39073,0,USOhioHocking,Ohio,Hocking,2022-04-28 09:13:11,2021-08-30,1.2370509852388418,2.297130974382259,4.557415492195509,,,,,,,,,,,,
39073,0,USOhioHocking,Ohio,Hocking,2022-04-28 09:13:11,2021-08-31,1.2370509852388418,2.297130974382259,4.557415492195509,,,,,,,,,,,,
39073,0,USOhioHocking,Ohio,Hocking,2022-04-28 09:13:11,2021-09-01,1.2370509852388418,2.297130974382259,4.557415492195509,,,,,,,,,,,,
39073,0,USOhioHocking,Ohio,Hocking,2022-04-28 09:13:11,2021-09-02,1.4957862015721766,2.7237975301190516,5.293111646388019,,,,,,,,,,,,
39073,0,USOhioHocking,Ohio,Hocking,2022-04-28 09:13:11,2021-09-03,1.4957862015721766,2.7237975301190516,5.293111646388019,,,,,,,,,,,,
39073,0,USOhioHocking,Ohio,Hocking,2022-04-28 09:13:11,2021-09-04,1.4957862015721766,2.7237975301190516,5.293111646388019,,,,,,,,,,,,
39073,0,USOhioHocking,Ohio,Hocking,2022-04-28 09:13:11,2021-09-05,1.4957862015721766,2.7237975301190516,5.293111646388019,,,,,,,,,,,,
39073,0,USOhioHocking,Ohio,Hocking,2022-04-28 09:13:11,2021-09-06,1.4957862015721766,2.7237975301190516,5.293111646388019,,,,,,,,,,,,
39073,0,USOhioHocking,Ohio,Hocking,2022-04-28 09:13:11,2021-09-07,1.4957862015721766,2.7237975301190516,5.293111646388019,,,,,,,,,,,,
39073,0,USOhioHocking,Ohio,Hocking,2022-04-28 09:13:11,2021-09-08,1.4957862015721766,2.7237975301190516,5.293111646388019,,,,,,,,,,,,
39073,0,USOhioHocking,Ohio,Hocking,2022-04-28 09:13:11,2021-09-09,2.4460576825522615,4.020588356925515,6.998344847481253,,,,,,,,,,,,
39073,0,USOhioHocking,Ohio,Hocking,2022-04-28 09:13:11,2021-09-10,2.4460576825522615,4.020588356925515,6.998344847481253,,,,,,,,,,,,
39073,0,USOhioHocking,Ohio,Hocking,2022-04-28 09:13:11,2021-09-11,2.4460576825522615,4.020588356925515,6.998344847481253,,,,,,,,,,,,
39073,0,USOhioHocking,Ohio,Hocking,2022-04-28 09:13:11,2021-09-12,2.4460576825522615,4.020588356925515,6.998344847481253,,,,,,,,,,,,
39073,0,USOhioHocking,Ohio,Hocking,2022-04-28 09:13:11,2021-09-13,2.4460576825522615,4.020588356925515,6.998344847481253,,,,,,,,,,,,
39073,0,USOhioHocking,Ohio,Hocking,2022-04-28 09:13:11,2021-09-14,2.4460576825522615,4.020588356925515,6.998344847481253,,,,,,,,,,,,
39073,0,USOhioHocking,Ohio,Hocking,2022-04-28 09:13:11,2021-09-15,2.4460576825522615,4.020588356925515,6.998344847481253,,,,,,,,,,,,
39073,0,USOhioHocking,Ohio,Hocking,2022-04-28 09:13:11,2021-09-16,2.620268578967112,4.170868268992197,7.009522411014996,,,,,,,,,,,,
39073,0,USOhioHocking,Ohio,Hocking,2022-04-28 09:13:11,2021-09-17,2.620268578967112,4.170868268992197,7.009522411014996,,,,,,,,,,,,
39073,0,USOhioHocking,Ohio,Hocking,2022-04-28 09:13:11,2021-09-18,2.620268578967112,4.170868268992197,7.009522411014996,,,,,,,,,,,,
39073,0,USOhioHocking,Ohio,Hocking,2022-04-28 09:13:11,2021-09-19,2.620268578967112,4.170868268992197,7.009522411014996,,,,,,,,,,,,
39073,0,USOhioHocking,Ohio,Hocking,2022-04-28 09:13:11,2021-09-20,2.620268578967112,4.170868268992197,7.009522411014996,,,,,,,,,,,,
39073,0,USOhioHocking,Ohio,Hocking,2022-04-28 09:13:11,2021-09-21,2.620268578967112,4.170868268992197,7.009522411014996,,,,,,,,,,,,
39073,0,USOhioHocking,Ohio,Hocking,2022-04-28 09:13:11,2021-09-22,2.620268578967112,4.170868268992197,7.009522411014996,,,,,,,,,,,,
39073,0,USOhioHocking,Ohio,Hocking,2022-04-28 09:13:11,2021-09-23,2.3289698109294896,3.749351348396459,6.379726441960744,,,,,,,,,,,,
39073,0,USOhioHocking,Ohio,Hocking,2022-04-28 09:13:11,2021-09-24,2.3289698109294896,3.749351348396459,6.379726441960744,,,,,,,,,,,,
39073,0,USOhioHocking,Ohio,Hocking,2022-04-28 09:13:11,2021-09-25,2.3289698109294896,3.749351348396459,6.379726441960744,,,,,,,,,,,,
39073,0,USOhioHocking,Ohio,Hocking,2022-04-28 09:13:11,2021-09-26,2.3289698109294896,3.749351348396459,6.379726441960744,,,,,,,,,,,,
39073,0,USOhioHocking,Ohio,Hocking,2022-04-28 09:13:11,2021-09-27,2.3289698109294896,3.749351348396459,6.379726441960744,,,,,,,,,,,,
39073,0,USOhioHocking,Ohio,Hocking,2022-04-28 09:13:11,2021-09-28,2.3289698109294896,3.749351348396459,6.379726441960744,,,,,,,,,,,,
39073,0,USOhioHocking,Ohio,Hocking,2022-04-28 09:13:11,2021-09-29,2.3289698109294896,3.749351348396459,6.379726441960744,,,,,,,,,,,,
39073,0,USOhioHocking,Ohio,Hocking,2022-04-28 09:13:11,2021-09-30,2.01778626445667,3.363110010472358,5.94314343960651,,,,,,,,,,,,
39073,0,USOhioHocking,Ohio,Hocking,2022-04-28 09:13:11,2021-10-01,2.01778626445667,3.363110010472358,5.94314343960651,,,,,,,,,,,,
39073,0,USOhioHocking,Ohio,Hocking,2022-04-28 09:13:11,2021-10-02,2.01778626445667,3.363110010472358,5.94314343960651,,,,,,,,,,,,
39073,0,USOhioHocking,Ohio,Hocking,2022-04-28 09:13:11,2021-10-03,2.01778626445667,3.363110010472358,5.94314343960651,,,,,,,,,,,,
39073,0,USOhioHocking,Ohio,Hocking,2022-04-28 09:13:11,2021-10-04,2.01778626445667,3.363110010472358,5.94314343960651,,,,,,,,,,,,
39073,0,USOhioHocking,Ohio,Hocking,2022-04-28 09:13:11,2021-10-05,2.01778626445667,3.363110010472358,5.94314343960651,,,,,,,,,,,,
39073,0,USOhioHocking,Ohio,Hocking,2022-04-28 09:13:11,2021-10-06,2.01778626445667,3.363110010472358,5.94314343960651,,,,,,,,,,,,
39073,0,USOhioHocking,Ohio,Hocking,2022-04-28 09:13:11,2021-10-07,1.518030144605358,2.6850695190417864,5.058637633412856,,,,,,,,,,,,
39073,0,USOhioHocking,Ohio,Hocking,2022-04-28 09:13:11,2021-10-08,1.518030144605358,2.6850695190417864,5.058637633412856,,,,,,,,,,,,
39073,0,USOhioHocking,Ohio,Hocking,2022-04-28 09:13:11,2021-10-09,1.518030144605358,2.6850695190417864,5.058637633412856,,,,,,,,,,,,
39073,0,USOhioHocking,Ohio,Hocking,2022-04-28 09:13:11,2021-10-10,1.518030144605358,2.6850695190417864,5.058637633412856,,,,,,,,,,,,
39073,0,USOhioHocking,Ohio,Hocking,2022-04-28 09:13:11,2021-10-11,1.518030144605358,2.6850695190417864,5.058637633412856,,,,,,,,,,,,
39073,0,USOhioHocking,Ohio,Hocking,2022-04-28 09:13:11,2021-10-12,1.518030144605358,2.6850695190417864,5.058637633412856,,,,,,,,,,,,
39073,0,USOhioHocking,Ohio,Hocking,2022-04-28 09:13:11,2021-10-13,1.518030144605358,2.6850695190417864,5.058637633412856,,,,,,,,,,,,
39073,0,USOhioHocking,Ohio,Hocking,2022-04-28 09:13:11,2021-10-14,1.0741883985381209,2.0148957362545947,4.040197008992638,,,,,,,,,,,,
39073,0,USOhioHocking,Ohio,Hocking,2022-04-28 09:13:11,2021-10-15,1.0741883985381209,2.0148957362545947,4.040197008992638,,,,,,,,,,,,
39073,0,USOhioHocking,Ohio,Hocking,2022-04-28 09:13:11,2021-10-16,1.0741883985381209,2.0148957362545947,4.040197008992638,,,,,,,,,,,,
39073,0,USOhioHocking,Ohio,Hocking,2022-04-28 09:13:11,2021-10-17,1.0741883985381209,2.0148957362545947,4.040197008992638,,,,,,,,,,,,
39073,0,USOhioHocking,Ohio,Hocking,2022-04-28 09:13:11,2021-10-18,1.0741883985381209,2.0148957362545947,4.040197008992638,,,,,,,,,,,,
39073,0,USOhioHocking,Ohio,Hocking,2022-04-28 09:13:11,2021-10-19,1.0741883985381209,2.0148957362545947,4.040197008992638,,,,,,,,,,,,
39073,0,USOhioHocking,Ohio,Hocking,2022-04-28 09:13:11,2021-10-20,1.0741883985381209,2.0148957362545947,4.040197008992638,,,,,,,,,,,,
39073,0,USOhioHocking,Ohio,Hocking,2022-04-28 09:13:11,2021-10-21,0.7348183309784955,1.515095206184101,3.3530970714548345,,,,,,,,,,,,
39073,0,USOhioHocking,Ohio,Hocking,2022-04-28 09:13:11,2021-10-22,0.7348183309784955,1.515095206184101,3.3530970714548345,,,,,,,,,,,,
39073,0,USOhioHocking,Ohio,Hocking,2022-04-28 09:13:11,2021-10-23,0.7348183309784955,1.515095206184101,3.3530970714548345,,,,,,,,,,,,
39073,0,USOhioHocking,Ohio,Hocking,2022-04-28 09:13:11,2021-10-24,0.7348183309784955,1.515095206184101,3.3530970714548345,,,,,,,,,,,,
39073,0,USOhioHocking,Ohio,Hocking,2022-04-28 09:13:11,2021-10-25,0.7348183309784955,1.515095206184101,3.3530970714548345,,,,,,,,,,,,
39073,0,USOhioHocking,Ohio,Hocking,2022-04-28 09:13:11,2021-10-26,0.7348183309784955,1.515095206184101,3.3530970714548345,,,,,,,,,,,,
39073,0,USOhioHocking,Ohio,Hocking,2022-04-28 09:13:11,2021-10-27,0.7348183309784955,1.515095206184101,3.3530970714548345,,,,,,,,,,,,
39073,0,USOhioHocking,Ohio,Hocking,2022-04-28 09:13:11,2021-10-28,1.0301702512355064,1.9843141460743046,4.091461946263159,,,,,,,,,,,,
39073,0,USOhioHocking,Ohio,Hocking,2022-04-28 09:13:11,2021-10-29,1.0301702512355064,1.9843141460743046,4.091461946263159,,,,,,,,,,,,
39073,0,USOhioHocking,Ohio,Hocking,2022-04-28 09:13:11,2021-10-30,1.0301702512355064,1.9843141460743046,4.091461946263159,,,,,,,,,,,,
39073,0,USOhioHocking,Ohio,Hocking,2022-04-28 09:13:11,2021-10-31,1.0301702512355064,1.9843141460743046,4.091461946263159,,,,,,,,,,,,
39073,0,USOhioHocking,Ohio,Hocking,2022-04-28 09:13:11,2021-11-01,1.0301702512355064,1.9843141460743046,4.091461946263159,,,,,,,,,,,,
39073,0,USOhioHocking,Ohio,Hocking,2022-04-28 09:13:11,2021-11-02,1.0301702512355064,1.9843141460743046,4.091461946263159,,,,,,,,,,,,
39073,0,USOhioHocking,Ohio,Hocking,2022-04-28 09:13:11,2021-11-03,1.0301702512355064,1.9843141460743046,4.091461946263159,,,,,,,,,,,,
39073,0,USOhioHocking,Ohio,Hocking,2022-04-28 09:13:11,2021-11-04,1.1825083510652037,2.279226903810415,4.702740762766048,,,,,,,,,,,,
39073,0,USOhioHocking,Ohio,Hocking,2022-04-28 09:13:11,2021-11-05,1.1825083510652037,2.279226903810415,4.702740762766048,,,,,,,,,,,,
39073,0,USOhioHocking,Ohio,Hocking,2022-04-28 09:13:11,2021-11-06,1.1825083510652037,2.279226903810415,4.702740762766048,,,,,,,,,,,,
39073,0,USOhioHocking,Ohio,Hocking,2022-04-28 09:13:11,2021-11-07,1.1825083510652037,2.279226903810415,4.702740762766048,,,,,,,,,,,,
39073,0,USOhioHocking,Ohio,Hocking,2022-04-28 09:13:11,2021-11-08,1.1825083510652037,2.279226903810415,4.702740762766048,,,,,,,,,,,,
39073,0,USOhioHocking,Ohio,Hocking,2022-04-28 09:13:11,2021-11-09,1.1825083510652037,2.279226903810415,4.702740762766048,,,,,,,,,,,,
39073,0,USOhioHocking,Ohio,Hocking,2022-04-28 09:13:11,2021-11-10,1.1825083510652037,2.279226903810415,4.702740762766048,,,,,,,,,,,,
39073,0,USOhioHocking,Ohio,Hocking,2022-04-28 09:13:11,2021-11-11,1.5595176886501254,2.8998213565144417,5.761292462935444,,,,,,,,,,,,
39073,0,USOhioHocking,Ohio,Hocking,2022-04-28 09:13:11,2021-11-12,1.5595176886501254,2.8998213565144417,5.761292462935444,,,,,,,,,,,,
39073,0,USOhioHocking,Ohio,Hocking,2022-04-28 09:13:11,2021-11-13,1.5595176886501254,2.8998213565144417,5.761292462935444,,,,,,,,,,,,
39073,0,USOhioHocking,Ohio,Hocking,2022-04-28 09:13:11,2021-11-14,1.5595176886501254,2.8998213565144417,5.761292462935444,,,,,,,,,,,,
39073,0,USOhioHocking,Ohio,Hocking,2022-04-28 09:13:11,2021-11-15,1.5595176886501254,2.8998213565144417,5.761292462935444,,,,,,,,,,,,
39073,0,USOhioHocking,Ohio,Hocking,2022-04-28 09:13:11,2021-11-16,1.5595176886501254,2.8998213565144417,5.761292462935444,,,,,,,,,,,,
39073,0,USOhioHocking,Ohio,Hocking,2022-04-28 09:13:11,2021-11-17,1.5595176886501254,2.8998213565144417,5.761292462935444,,,,,,,,,,,,
39073,0,USOhioHocking,Ohio,Hocking,2022-04-28 09:13:11,2021-11-18,1.6174931832947583,3.0070723004699262,5.973220190655666,,,,,,,,,,,,
39073,0,USOhioHocking,Ohio,Hocking,2022-04-28 09:13:11,2021-11-19,1.6174931832947583,3.0070723004699262,5.973220190655666,,,,,,,,,,,,
39073,0,USOhioHocking,Ohio,Hocking,2022-04-28 09:13:11,2021-11-20,1.6174931832947583,3.0070723004699262,5.973220190655666,,,,,,,,,,,,
39073,0,USOhioHocking,Ohio,Hocking,2022-04-28 09:13:11,2021-11-21,1.6174931832947583,3.0070723004699262,5.973220190655666,,,,,,,,,,,,
39073,0,USOhioHocking,Ohio,Hocking,2022-04-28 09:13:11,2021-11-22,1.6174931832947583,3.0070723004699262,5.973220190655666,,,,,,,,,,,,
39073,0,USOhioHocking,Ohio,Hocking,2022-04-28 09:13:11,2021-11-23,1.6174931832947583,3.0070723004699262,5.973220190655666,,,,,,,,,,,,
39073,0,USOhioHocking,Ohio,Hocking,2022-04-28 09:13:11,2021-11-24,1.6174931832947583,3.0070723004699262,5.973220190655666,,,,,,,,,,,,
39073,0,USOhioHocking,Ohio,Hocking,2022-04-28 09:13:11,2021-11-25,1.491698825454862,2.997092636031843,6.457598925806561,,,,,,,,,,,,
39073,0,USOhioHocking,Ohio,Hocking,2022-04-28 09:13:11,2021-11-26,1.491698825454862,2.997092636031843,6.457598925806561,,,,,,,,,,,,
39073,0,USOhioHocking,Ohio,Hocking,2022-04-28 09:13:11,2021-11-27,1.491698825454862,2.997092636031843,6.457598925806561,,,,,,,,,,,,
39073,0,USOhioHocking,Ohio,Hocking,2022-04-28 09:13:11,2021-11-28,1.491698825454862,2.997092636031843,6.457598925806561,,,,,,,,,,,,
39073,0,USOhioHocking,Ohio,Hocking,2022-04-28 09:13:11,2021-11-29,1.491698825454862,2.997092636031843,6.457598925806561,,,,,,,,,,,,
39073,0,USOhioHocking,Ohio,Hocking,2022-04-28 09:13:11,2021-11-30,1.491698825454862,2.997092636031843,6.457598925806561,,,,,,,,,,,,
39073,0,USOhioHocking,Ohio,Hocking,2022-04-28 09:13:11,2021-12-01,1.491698825454862,2.997092636031843,6.457598925806561,,,,,,,,,,,,
39073,0,USOhioHocking,Ohio,Hocking,2022-04-28 09:13:11,2021-12-02,2.1120533573705416,4.0006341073656335,8.105064796976249,,,,,,,,,,,,
39073,0,USOhioHocking,Ohio,Hocking,2022-04-28 09:13:11,2021-12-03,2.1120533573705416,4.0006341073656335,8.105064796976249,,,,,,,,,,,,
39073,0,USOhioHocking,Ohio,Hocking,2022-04-28 09:13:11,2021-12-04,2.1120533573705416,4.0006341073656335,8.105064796976249,,,,,,,,,,,,
39073,0,USOhioHocking,Ohio,Hocking,2022-04-28 09:13:11,2021-12-05,2.1120533573705416,4.0006341073656335,8.105064796976249,,,,,,,,,,,,
39073,0,USOhioHocking,Ohio,Hocking,2022-04-28 09:13:11,2021-12-06,2.1120533573705416,4.0006341073656335,8.105064796976249,,,,,,,,,,,,
39073,0,USOhioHocking,Ohio,Hocking,2022-04-28 09:13:11,2021-12-07,2.1120533573705416,4.0006341073656335,8.105064796976249,,,,,,,,,,,,
39073,0,USOhioHocking,Ohio,Hocking,2022-04-28 09:13:11,2021-12-08,2.1120533573705416,4.0006341073656335,8.105064796976249,,,,,,,,,,,,
39073,0,USOhioHocking,Ohio,Hocking,2022-04-28 09:13:11,2021-12-09,2.1443063010091143,3.77903198702431,7.091968369462642,,,,,,,,,,,,
39073,0,USOhioHocking,Ohio,Hocking,2022-04-28 09:13:11,2021-12-10,2.1443063010091143,3.77903198702431,7.091968369462642,,,,,,,,,,,,
39073,0,USOhioHocking,Ohio,Hocking,2022-04-28 09:13:11,2021-12-11,2.1443063010091143,3.77903198702431,7.091968369462642,,,,,,,,,,,,
39073,0,USOhioHocking,Ohio,Hocking,2022-04-28 09:13:11,2021-12-12,2.1443063010091143,3.77903198702431,7.091968369462642,,,,,,,,,,,,
39073,0,USOhioHocking,Ohio,Hocking,2022-04-28 09:13:11,2021-12-13,2.1443063010091143,3.77903198702431,7.091968369462642,,,,,,,,,,,,
39073,0,USOhioHocking,Ohio,Hocking,2022-04-28 09:13:11,2021-12-14,2.1443063010091143,3.77903198702431,7.091968369462642,,,,,,,,,,,,
39073,0,USOhioHocking,Ohio,Hocking,2022-04-28 09:13:11,2021-12-15,2.1443063010091143,3.77903198702431,7.091968369462642,,,,,,,,,,,,
39073,0,USOhioHocking,Ohio,Hocking,2022-04-28 09:13:11,2021-12-16,1.9383781434494434,3.759112454594846,7.806157733715799,,,,,,,,,,,,
39073,0,USOhioHocking,Ohio,Hocking,2022-04-28 09:13:11,2021-12-17,1.9383781434494434,3.759112454594846,7.806157733715799,,,,,,,,,,,,
39073,0,USOhioHocking,Ohio,Hocking,2022-04-28 09:13:11,2021-12-18,1.9383781434494434,3.759112454594846,7.806157733715799,,,,,,,,,,,,
39073,0,USOhioHocking,Ohio,Hocking,2022-04-28 09:13:11,2021-12-19,1.9383781434494434,3.759112454594846,7.806157733715799,,,,,,,,,,,,
39073,0,USOhioHocking,Ohio,Hocking,2022-04-28 09:13:11,2021-12-20,1.9383781434494434,3.759112454594846,7.806157733715799,,,,,,,,,,,,
39073,0,USOhioHocking,Ohio,Hocking,2022-04-28 09:13:11,2021-12-21,1.9383781434494434,3.759112454594846,7.806157733715799,,,,,,,,,,,,
39073,0,USOhioHocking,Ohio,Hocking,2022-04-28 09:13:11,2021-12-22,1.9383781434494434,3.759112454594846,7.806157733715799,,,,,,,,,,,,
39073,0,USOhioHocking,Ohio,Hocking,2022-04-28 09:13:11,2021-12-23,2.5721420185357298,5.0295610920308835,10.534956787086664,,,,,,,,,,,,
39073,0,USOhioHocking,Ohio,Hocking,2022-04-28 09:13:11,2021-12-24,2.5721420185357298,5.0295610920308835,10.534956787086664,,,,,,,,,,,,
39073,0,USOhioHocking,Ohio,Hocking,2022-04-28 09:13:11,2021-12-25,2.5721420185357298,5.0295610920308835,10.534956787086664,,,,,,,,,,,,
39073,0,USOhioHocking,Ohio,Hocking,2022-04-28 09:13:11,2021-12-26,2.5721420185357298,5.0295610920308835,10.534956787086664,,,,,,,,,,,,
39073,0,USOhioHocking,Ohio,Hocking,2022-04-28 09:13:11,2021-12-27,2.5721420185357298,5.0295610920308835,10.534956787086664,,,,,,,,,,,,
39073,0,USOhioHocking,Ohio,Hocking,2022-04-28 09:13:11,2021-12-28,2.5721420185357298,5.0295610920308835,10.534956787086664,,,,,,,,,,,,
39073,0,USOhioHocking,Ohio,Hocking,2022-04-28 09:13:11,2021-12-29,2.5721420185357298,5.0295610920308835,10.534956787086664,,,,,,,,,,,,
39073,0,USOhioHocking,Ohio,Hocking,2022-04-28 09:13:11,2021-12-30,3.6695039529340368,6.602117513268965,12.666562836026046,,,,,,,,,,,,
39073,0,USOhioHocking,Ohio,Hocking,2022-04-28 09:13:11,2021-12-31,3.6695039529340368,6.602117513268965,12.666562836026046,,,,,,,,,,,,
39073,0,USOhioHocking,Ohio,Hocking,2022-04-28 09:13:11,2022-01-01,3.6695039529340368,6.602117513268965,12.666562836026046,,,,,,,,,,,,
39073,0,USOhioHocking,Ohio,Hocking,2022-04-28 09:13:11,2022-01-02,3.6695039529340368,6.602117513268965,12.666562836026046,,,,,,,,,,,,
39073,0,USOhioHocking,Ohio,Hocking,2022-04-28 09:13:11,2022-01-03,3.6695039529340368,6.602117513268965,12.666562836026046,,,,,,,,,,,,
39073,0,USOhioHocking,Ohio,Hocking,2022-04-28 09:13:11,2022-01-04,3.6695039529340368,6.602117513268965,12.666562836026046,,,,,,,,,,,,
39073,0,USOhioHocking,Ohio,Hocking,2022-04-28 09:13:11,2022-01-05,3.6695039529340368,6.602117513268965,12.666562836026046,,,,,,,,,,,,
39073,0,USOhioHocking,Ohio,Hocking,2022-04-28 09:13:11,2022-01-06,3.9329149756307475,6.739685106644433,12.273161941764123,,,,,,,,,,,,
39073,0,USOhioHocking,Ohio,Hocking,2022-04-28 09:13:11,2022-01-07,3.9329149756307475,6.739685106644433,12.273161941764123,,,,,,,,,,,,
39073,0,USOhioHocking,Ohio,Hocking,2022-04-28 09:13:11,2022-01-08,3.9329149756307475,6.739685106644433,12.273161941764123,,,,,,,,,,,,
39073,0,USOhioHocking,Ohio,Hocking,2022-04-28 09:13:11,2022-01-09,3.9329149756307475,6.739685106644433,12.273161941764123,,,,,,,,,,,,
39073,0,USOhioHocking,Ohio,Hocking,2022-04-28 09:13:11,2022-01-10,3.9329149756307475,6.739685106644433,12.273161941764123,,,,,,,,,,,,
39073,0,USOhioHocking,Ohio,Hocking,2022-04-28 09:13:11,2022-01-11,3.9329149756307475,6.739685106644433,12.273161941764123,,,,,,,,,,,,
39073,0,USOhioHocking,Ohio,Hocking,2022-04-28 09:13:11,2022-01-12,3.9329149756307475,6.739685106644433,12.273161941764123,,,,,,,,,,,,
39073,0,USOhioHocking,Ohio,Hocking,2022-04-28 09:13:11,2022-01-13,5.807049492408632,9.859458275462224,17.77559935195269,,,,,,,,,,,,
39073,0,USOhioHocking,Ohio,Hocking,2022-04-28 09:13:11,2022-01-14,5.807049492408632,9.859458275462224,17.77559935195269,,,,,,,,,,,,
39073,0,USOhioHocking,Ohio,Hocking,2022-04-28 09:13:11,2022-01-15,5.807049492408632,9.859458275462224,17.77559935195269,,,,,,,,,,,,
39073,0,USOhioHocking,Ohio,Hocking,2022-04-28 09:13:11,2022-01-16,5.807049492408632,9.859458275462224,17.77559935195269,,,,,,,,,,,,
39073,0,USOhioHocking,Ohio,Hocking,2022-04-28 09:13:11,2022-01-17,5.807049492408632,9.859458275462224,17.77559935195269,,,,,,,,,,,,
39073,0,USOhioHocking,Ohio,Hocking,2022-04-28 09:13:11,2022-01-18,5.807049492408632,9.859458275462224,17.77559935195269,,,,,,,,,,,,
39073,0,USOhioHocking,Ohio,Hocking,2022-04-28 09:13:11,2022-01-19,5.807049492408632,9.859458275462224,17.77559935195269,,,,,,,,,,,,
39073,0,USOhioHocking,Ohio,Hocking,2022-04-28 09:13:11,2022-01-20,4.753078055728224,7.814302532681033,13.604936666518439,,,,,,,,,,,,
39073,0,USOhioHocking,Ohio,Hocking,2022-04-28 09:13:11,2022-01-21,4.753078055728224,7.814302532681033,13.604936666518439,,,,,,,,,,,,
39073,0,USOhioHocking,Ohio,Hocking,2022-04-28 09:13:11,2022-01-22,4.753078055728224,7.814302532681033,13.604936666518439,,,,,,,,,,,,
39073,0,USOhioHocking,Ohio,Hocking,2022-04-28 09:13:11,2022-01-23,4.753078055728224,7.814302532681033,13.604936666518439,,,,,,,,,,,,
39073,0,USOhioHocking,Ohio,Hocking,2022-04-28 09:13:11,2022-01-24,4.753078055728224,7.814302532681033,13.604936666518439,,,,,,,,,,,,
39073,0,USOhioHocking,Ohio,Hocking,2022-04-28 09:13:11,2022-01-25,4.753078055728224,7.814302532681033,13.604936666518439,,,,,,,,,,,,
39073,0,USOhioHocking,Ohio,Hocking,2022-04-28 09:13:11,2022-01-26,4.753078055728224,7.814302532681033,13.604936666518439,,,,,,,,,,,,
39073,0,USOhioHocking,Ohio,Hocking,2022-04-28 09:13:11,2022-01-27,3.2348501581684856,5.373771339596403,9.462153143608532,,,,,,,,,,,,
39073,0,USOhioHocking,Ohio,Hocking,2022-04-28 09:13:11,2022-01-28,3.2348501581684856,5.373771339596403,9.462153143608532,,,,,,,,,,,,
39073,0,USOhioHocking,Ohio,Hocking,2022-04-28 09:13:11,2022-01-29,3.2348501581684856,5.373771339596403,9.462153143608532,,,,,,,,,,,,
39073,0,USOhioHocking,Ohio,Hocking,2022-04-28 09:13:11,2022-01-30,3.2348501581684856,5.373771339596403,9.462153143608532,,,,,,,,,,,,
39073,0,USOhioHocking,Ohio,Hocking,2022-04-28 09:13:11,2022-01-31,3.2348501581684856,5.373771339596403,9.462153143608532,,,,,,,,,,,,
39073,0,USOhioHocking,Ohio,Hocking,2022-04-28 09:13:11,2022-02-01,3.2348501581684856,5.373771339596403,9.462153143608532,,,,,,,,,,,,
39073,0,USOhioHocking,Ohio,Hocking,2022-04-28 09:13:11,2022-02-02,3.2348501581684856,5.373771339596403,9.462153143608532,,,,,,,,,,,,
39073,0,USOhioHocking,Ohio,Hocking,2022-04-28 09:13:11,2022-02-03,1.677088885919973,3.024030942751303,5.815374482441428,,,,,,,,,,,,
39073,0,USOhioHocking,Ohio,Hocking,2022-04-28 09:13:11,2022-02-04,1.677088885919973,3.024030942751303,5.815374482441428,,,,,,,,,,,,
39073,0,USOhioHocking,Ohio,Hocking,2022-04-28 09:13:11,2022-02-05,1.677088885919973,3.024030942751303,5.815374482441428,,,,,,,,,,,,
39073,0,USOhioHocking,Ohio,Hocking,2022-04-28 09:13:11,2022-02-06,1.677088885919973,3.024030942751303,5.815374482441428,,,,,,,,,,,,
39073,0,USOhioHocking,Ohio,Hocking,2022-04-28 09:13:11,2022-02-07,1.677088885919973,3.024030942751303,5.815374482441428,,,,,,,,,,,,
39073,0,USOhioHocking,Ohio,Hocking,2022-04-28 09:13:11,2022-02-08,1.677088885919973,3.024030942751303,5.815374482441428,,,,,,,,,,,,
39073,0,USOhioHocking,Ohio,Hocking,2022-04-28 09:13:11,2022-02-09,1.677088885919973,3.024030942751303,5.815374482441428,,,,,,,,,,,,
39073,0,USOhioHocking,Ohio,Hocking,2022-04-28 09:13:11,2022-02-10,0.9670808021308295,1.7823307091356932,3.5079983882432266,,,,,,,,,,,,
39073,0,USOhioHocking,Ohio,Hocking,2022-04-28 09:13:11,2022-02-11,0.9670808021308295,1.7823307091356932,3.5079983882432266,,,,,,,,,,,,
39073,0,USOhioHocking,Ohio,Hocking,2022-04-28 09:13:11,2022-02-12,0.9670808021308295,1.7823307091356932,3.5079983882432266,,,,,,,,,,,,
39073,0,USOhioHocking,Ohio,Hocking,2022-04-28 09:13:11,2022-02-13,0.9670808021308295,1.7823307091356932,3.5079983882432266,,,,,,,,,,,,
39073,0,USOhioHocking,Ohio,Hocking,2022-04-28 09:13:11,2022-02-14,0.9670808021308295,1.7823307091356932,3.5079983882432266,,,,,,,,,,,,
39073,0,USOhioHocking,Ohio,Hocking,2022-04-28 09:13:11,2022-02-15,0.9670808021308295,1.7823307091356932,3.5079983882432266,,,,,,,,,,,,
39073,0,USOhioHocking,Ohio,Hocking,2022-04-28 09:13:11,2022-02-16,0.9670808021308295,1.7823307091356932,3.5079983882432266,,,,,,,,,,,,
39073,0,USOhioHocking,Ohio,Hocking,2022-04-28 09:13:11,2022-02-17,0.7371168196963827,1.313112020111363,2.492766238863102,,,,,,,,,,,,
39073,0,USOhioHocking,Ohio,Hocking,2022-04-28 09:13:11,2022-02-18,0.7371168196963827,1.313112020111363,2.492766238863102,,,,,,,,,,,,
39073,0,USOhioHocking,Ohio,Hocking,2022-04-28 09:13:11,2022-02-19,0.7371168196963827,1.313112020111363,2.492766238863102,,,,,,,,,,,,
39073,0,USOhioHocking,Ohio,Hocking,2022-04-28 09:13:11,2022-02-20,0.7371168196963827,1.313112020111363,2.492766238863102,,,,,,,,,,,,
39073,0,USOhioHocking,Ohio,Hocking,2022-04-28 09:13:11,2022-02-21,0.7371168196963827,1.313112020111363,2.492766238863102,,,,,,,,,,,,
39073,0,USOhioHocking,Ohio,Hocking,2022-04-28 09:13:11,2022-02-22,0.7371168196963827,1.313112020111363,2.492766238863102,,,,,,,,,,,,
39073,0,USOhioHocking,Ohio,Hocking,2022-04-28 09:13:11,2022-02-23,0.7371168196963827,1.313112020111363,2.492766238863102,,,,,,,,,,,,
39073,0,USOhioHocking,Ohio,Hocking,2022-04-28 09:13:11,2022-02-24,0.5557439565151785,1.012275942744183,1.967711206284977,,,,,,,,,,,,
39073,0,USOhioHocking,Ohio,Hocking,2022-04-28 09:13:11,2022-02-25,0.5557439565151785,1.012275942744183,1.967711206284977,,,,,,,,,,,,
39073,0,USOhioHocking,Ohio,Hocking,2022-04-28 09:13:11,2022-02-26,0.5557439565151785,1.012275942744183,1.967711206284977,,,,,,,,,,,,
39073,0,USOhioHocking,Ohio,Hocking,2022-04-28 09:13:11,2022-02-27,0.5557439565151785,1.012275942744183,1.967711206284977,,,,,,,,,,,,
39073,0,USOhioHocking,Ohio,Hocking,2022-04-28 09:13:11,2022-02-28,0.5557439565151785,1.012275942744183,1.967711206284977,,,,,,,,,,,,
39073,0,USOhioHocking,Ohio,Hocking,2022-04-28 09:13:11,2022-03-01,0.5557439565151785,1.012275942744183,1.967711206284977,,,,,,,,,,,,
39073,0,USOhioHocking,Ohio,Hocking,2022-04-28 09:13:11,2022-03-02,0.5557439565151785,1.012275942744183,1.967711206284977,,,,,,,,,,,,
39073,0,USOhioHocking,Ohio,Hocking,2022-04-28 09:13:11,2022-03-03,0.548971579435865,0.9444817328708333,1.7272761843651194,,,,,,,,,,,,
39073,0,USOhioHocking,Ohio,Hocking,2022-04-28 09:13:11,2022-03-04,0.548971579435865,0.9444817328708333,1.7272761843651194,,,,,,,,,,,,
39073,0,USOhioHocking,Ohio,Hocking,2022-04-28 09:13:11,2022-03-05,0.548971579435865,0.9444817328708333,1.7272761843651194,,,,,,,,,,,,
39073,0,USOhioHocking,Ohio,Hocking,2022-04-28 09:13:11,2022-03-06,0.548971579435865,0.9444817328708333,1.7272761843651194,,,,,,,,,,,,
39073,0,USOhioHocking,Ohio,Hocking,2022-04-28 09:13:11,2022-03-07,0.548971579435865,0.9444817328708333,1.7272761843651194,,,,,,,,,,,,
39073,0,USOhioHocking,Ohio,Hocking,2022-04-28 09:13:11,2022-03-08,0.548971579435865,0.9444817328708333,1.7272761843651194,,,,,,,,,,,,
39073,0,USOhioHocking,Ohio,Hocking,2022-04-28 09:13:11,2022-03-09,0.548971579435865,0.9444817328708333,1.7272761843651194,,,,,,,,,,,,
39073,0,USOhioHocking,Ohio,Hocking,2022-04-28 09:13:11,2022-03-10,0.20911766614913088,0.42535454186511834,0.9282368013493688,,,,,,,,,,,,
39073,0,USOhioHocking,Ohio,Hocking,2022-04-28 09:13:11,2022-03-11,0.20911766614913088,0.42535454186511834,0.9282368013493688,,,,,,,,,,,,
39073,0,USOhioHocking,Ohio,Hocking,2022-04-28 09:13:11,2022-03-12,0.20911766614913088,0.42535454186511834,0.9282368013493688,,,,,,,,,,,,
39073,0,USOhioHocking,Ohio,Hocking,2022-04-28 09:13:11,2022-03-13,0.20911766614913088,0.42535454186511834,0.9282368013493688,,,,,,,,,,,,
39073,0,USOhioHocking,Ohio,Hocking,2022-04-28 09:13:11,2022-03-14,0.20911766614913088,0.42535454186511834,0.9282368013493688,,,,,,,,,,,,
39073,0,USOhioHocking,Ohio,Hocking,2022-04-28 09:13:11,2022-03-15,0.20911766614913088,0.42535454186511834,0.9282368013493688,,,,,,,,,,,,
39073,0,USOhioHocking,Ohio,Hocking,2022-04-28 09:13:11,2022-03-16,0.20911766614913088,0.42535454186511834,0.9282368013493688,,,,,,,,,,,,
39073,0,USOhioHocking,Ohio,Hocking,2022-04-28 09:13:11,2022-03-17,0.3007584346799258,0.6029052464617409,1.2959684185099514,,,,,,,,,,,,
39073,0,USOhioHocking,Ohio,Hocking,2022-04-28 09:13:11,2022-03-18,0.3007584346799258,0.6029052464617409,1.2959684185099514,,,,,,,,,,,,
39073,0,USOhioHocking,Ohio,Hocking,2022-04-28 09:13:11,2022-03-19,0.3007584346799258,0.6029052464617409,1.2959684185099514,,,,,,,,,,,,
39073,0,USOhioHocking,Ohio,Hocking,2022-04-28 09:13:11,2022-03-20,0.3007584346799258,0.6029052464617409,1.2959684185099514,,,,,,,,,,,,
39073,0,USOhioHocking,Ohio,Hocking,2022-04-28 09:13:11,2022-03-21,0.3007584346799258,0.6029052464617409,1.2959684185099514,,,,,,,,,,,,
39073,0,USOhioHocking,Ohio,Hocking,2022-04-28 09:13:11,2022-03-22,0.3007584346799258,0.6029052464617409,1.2959684185099514,,,,,,,,,,,,
39073,0,USOhioHocking,Ohio,Hocking,2022-04-28 09:13:11,2022-03-23,0.3007584346799258,0.6029052464617409,1.2959684185099514,,,,,,,,,,,,
39073,0,USOhioHocking,Ohio,Hocking,2022-04-28 09:13:11,2022-03-24,0.3897255175320666,0.6947620650764805,1.3199232725642733,,,,,,,,,,,,
39073,0,USOhioHocking,Ohio,Hocking,2022-04-28 09:13:11,2022-03-25,0.3897255175320666,0.6947620650764805,1.3199232725642733,,,,,,,,,,,,
39073,0,USOhioHocking,Ohio,Hocking,2022-04-28 09:13:11,2022-03-26,0.3897255175320666,0.6947620650764805,1.3199232725642733,,,,,,,,,,,,
39073,0,USOhioHocking,Ohio,Hocking,2022-04-28 09:13:11,2022-03-27,0.3897255175320666,0.6947620650764805,1.3199232725642733,,,,,,,,,,,,
39073,0,USOhioHocking,Ohio,Hocking,2022-04-28 09:13:11,2022-03-28,0.3897255175320666,0.6947620650764805,1.3199232725642733,,,,,,,,,,,,
39073,0,USOhioHocking,Ohio,Hocking,2022-04-28 09:13:11,2022-03-29,0.3897255175320666,0.6947620650764805,1.3199232725642733,,,,,,,,,,,,
39073,0,USOhioHocking,Ohio,Hocking,2022-04-28 09:13:11,2022-03-30,0.3897255175320666,0.6947620650764805,1.3199232725642733,,,,,,,,,,,,
39073,0,USOhioHocking,Ohio,Hocking,2022-04-28 09:13:11,2022-03-31,0.2808264634096502,0.5288944750967194,1.0650562774059347,,,,,,,,,,,,
39073,0,USOhioHocking,Ohio,Hocking,2022-04-28 09:13:11,2022-04-01,0.2808264634096502,0.5288944750967194,1.0650562774059347,,,,,,,,,,,,
39073,0,USOhioHocking,Ohio,Hocking,2022-04-28 09:13:11,2022-04-02,0.2808264634096502,0.5288944750967194,1.0650562774059347,,,,,,,,,,,,
39073,0,USOhioHocking,Ohio,Hocking,2022-04-28 09:13:11,2022-04-03,0.2808264634096502,0.5288944750967194,1.0650562774059347,,,,,,,,,,,,
39073,0,USOhioHocking,Ohio,Hocking,2022-04-28 09:13:11,2022-04-04,0.2808264634096502,0.5288944750967194,1.0650562774059347,,,,,,,,,,,,
39073,0,USOhioHocking,Ohio,Hocking,2022-04-28 09:13:11,2022-04-05,0.2808264634096502,0.5288944750967194,1.0650562774059347,,,,,,,,,,,,
39073,0,USOhioHocking,Ohio,Hocking,2022-04-28 09:13:11,2022-04-06,0.2808264634096502,0.5288944750967194,1.0650562774059347,,,,,,,,,,,,
