FIPS,HR_UID,nameid,province,region,analysisTime,dates,pointprevalence_025,pointprevalence_50,pointprevalence_975,pointinfections_025,pointinfections_50,pointinfections_975,pointinfectious_025,pointinfectious_50,pointinfectious_975,pointinfectiousprevalence_025,pointinfectiousprevalence_50,pointinfectiousprevalence_975,infectrate_025,infectrate_50,infectrate_975
39111,0,USOhioMonroe,Ohio,Monroe,2022-04-28 09:13:11,2020-03-19,0,0,0,,,,,,,,,,,,
39111,0,USOhioMonroe,Ohio,Monroe,2022-04-28 09:13:11,2020-03-20,0,0,0,,,,,,,,,,,,
39111,0,USOhioMonroe,Ohio,Monroe,2022-04-28 09:13:11,2020-03-21,0,0,0,,,,,,,,,,,,
39111,0,USOhioMonroe,Ohio,Monroe,2022-04-28 09:13:11,2020-03-22,0,0,0,,,,,,,,,,,,
39111,0,USOhioMonroe,Ohio,Monroe,2022-04-28 09:13:11,2020-03-23,0,0,0,,,,,,,,,,,,
39111,0,USOhioMonroe,Ohio,Monroe,2022-04-28 09:13:11,2020-03-24,0,0,0,,,,,,,,,,,,
39111,0,USOhioMonroe,Ohio,Monroe,2022-04-28 09:13:11,2020-03-25,0,0,0,,,,,,,,,,,,
39111,0,USOhioMonroe,Ohio,Monroe,2022-04-28 09:13:11,2020-03-26,0,0,0,,,,,,,,,,,,
39111,0,USOhioMonroe,Ohio,Monroe,2022-04-28 09:13:11,2020-03-27,0,0,0,,,,,,,,,,,,
39111,0,USOhioMonroe,Ohio,Monroe,2022-04-28 09:13:11,2020-03-28,0,0,0,,,,,,,,,,,,
39111,0,USOhioMonroe,Ohio,Monroe,2022-04-28 09:13:11,2020-03-29,0,0,0,,,,,,,,,,,,
39111,0,USOhioMonroe,Ohio,Monroe,2022-04-28 09:13:11,2020-03-30,0,0,0,,,,,,,,,,,,
39111,0,USOhioMonroe,Ohio,Monroe,2022-04-28 09:13:11,2020-03-31,0,0,0,,,,,,,,,,,,
39111,0,USOhioMonroe,Ohio,Monroe,2022-04-28 09:13:11,2020-04-01,0,0,0,,,,,,,,,,,,
39111,0,USOhioMonroe,Ohio,Monroe,2022-04-28 09:13:11,2020-04-02,0.12338299755659632,0.42842886918468637,1.5892502337237928,,,,,,,,,,,,
39111,0,USOhioMonroe,Ohio,Monroe,2022-04-28 09:13:11,2020-04-03,0.12338299755659632,0.42842886918468637,1.5892502337237928,,,,,,,,,,,,
39111,0,USOhioMonroe,Ohio,Monroe,2022-04-28 09:13:11,2020-04-04,0.12338299755659632,0.42842886918468637,1.5892502337237928,,,,,,,,,,,,
39111,0,USOhioMonroe,Ohio,Monroe,2022-04-28 09:13:11,2020-04-05,0.12338299755659632,0.42842886918468637,1.5892502337237928,,,,,,,,,,,,
39111,0,USOhioMonroe,Ohio,Monroe,2022-04-28 09:13:11,2020-04-06,0.12338299755659632,0.42842886918468637,1.5892502337237928,,,,,,,,,,,,
39111,0,USOhioMonroe,Ohio,Monroe,2022-04-28 09:13:11,2020-04-07,0.12338299755659632,0.42842886918468637,1.5892502337237928,,,,,,,,,,,,
39111,0,USOhioMonroe,Ohio,Monroe,2022-04-28 09:13:11,2020-04-08,0.12338299755659632,0.42842886918468637,1.5892502337237928,,,,,,,,,,,,
39111,0,USOhioMonroe,Ohio,Monroe,2022-04-28 09:13:11,2020-04-09,0,0,0,,,,,,,,,,,,
39111,0,USOhioMonroe,Ohio,Monroe,2022-04-28 09:13:11,2020-04-10,0,0,0,,,,,,,,,,,,
39111,0,USOhioMonroe,Ohio,Monroe,2022-04-28 09:13:11,2020-04-11,0,0,0,,,,,,,,,,,,
39111,0,USOhioMonroe,Ohio,Monroe,2022-04-28 09:13:11,2020-04-12,0,0,0,,,,,,,,,,,,
39111,0,USOhioMonroe,Ohio,Monroe,2022-04-28 09:13:11,2020-04-13,0,0,0,,,,,,,,,,,,
39111,0,USOhioMonroe,Ohio,Monroe,2022-04-28 09:13:11,2020-04-14,0,0,0,,,,,,,,,,,,
39111,0,USOhioMonroe,Ohio,Monroe,2022-04-28 09:13:11,2020-04-15,0,0,0,,,,,,,,,,,,
39111,0,USOhioMonroe,Ohio,Monroe,2022-04-28 09:13:11,2020-04-16,0,0,0,,,,,,,,,,,,
39111,0,USOhioMonroe,Ohio,Monroe,2022-04-28 09:13:11,2020-04-17,0,0,0,,,,,,,,,,,,
39111,0,USOhioMonroe,Ohio,Monroe,2022-04-28 09:13:11,2020-04-18,0,0,0,,,,,,,,,,,,
39111,0,USOhioMonroe,Ohio,Monroe,2022-04-28 09:13:11,2020-04-19,0,0,0,,,,,,,,,,,,
39111,0,USOhioMonroe,Ohio,Monroe,2022-04-28 09:13:11,2020-04-20,0,0,0,,,,,,,,,,,,
39111,0,USOhioMonroe,Ohio,Monroe,2022-04-28 09:13:11,2020-04-21,0,0,0,,,,,,,,,,,,
39111,0,USOhioMonroe,Ohio,Monroe,2022-04-28 09:13:11,2020-04-22,0,0,0,,,,,,,,,,,,
39111,0,USOhioMonroe,Ohio,Monroe,2022-04-28 09:13:11,2020-04-23,0.07087866857551917,0.2757062068182229,1.1406619417337451,,,,,,,,,,,,
39111,0,USOhioMonroe,Ohio,Monroe,2022-04-28 09:13:11,2020-04-24,0.07087866857551917,0.2757062068182229,1.1406619417337451,,,,,,,,,,,,
39111,0,USOhioMonroe,Ohio,Monroe,2022-04-28 09:13:11,2020-04-25,0.07087866857551917,0.2757062068182229,1.1406619417337451,,,,,,,,,,,,
39111,0,USOhioMonroe,Ohio,Monroe,2022-04-28 09:13:11,2020-04-26,0.07087866857551917,0.2757062068182229,1.1406619417337451,,,,,,,,,,,,
39111,0,USOhioMonroe,Ohio,Monroe,2022-04-28 09:13:11,2020-04-27,0.07087866857551917,0.2757062068182229,1.1406619417337451,,,,,,,,,,,,
39111,0,USOhioMonroe,Ohio,Monroe,2022-04-28 09:13:11,2020-04-28,0.07087866857551917,0.2757062068182229,1.1406619417337451,,,,,,,,,,,,
39111,0,USOhioMonroe,Ohio,Monroe,2022-04-28 09:13:11,2020-04-29,0.07087866857551917,0.2757062068182229,1.1406619417337451,,,,,,,,,,,,
39111,0,USOhioMonroe,Ohio,Monroe,2022-04-28 09:13:11,2020-04-30,0.1170011922587696,0.3887504599361512,1.3819961702639214,,,,,,,,,,,,
39111,0,USOhioMonroe,Ohio,Monroe,2022-04-28 09:13:11,2020-05-01,0.1170011922587696,0.3887504599361512,1.3819961702639214,,,,,,,,,,,,
39111,0,USOhioMonroe,Ohio,Monroe,2022-04-28 09:13:11,2020-05-02,0.1170011922587696,0.3887504599361512,1.3819961702639214,,,,,,,,,,,,
39111,0,USOhioMonroe,Ohio,Monroe,2022-04-28 09:13:11,2020-05-03,0.1170011922587696,0.3887504599361512,1.3819961702639214,,,,,,,,,,,,
39111,0,USOhioMonroe,Ohio,Monroe,2022-04-28 09:13:11,2020-05-04,0.1170011922587696,0.3887504599361512,1.3819961702639214,,,,,,,,,,,,
39111,0,USOhioMonroe,Ohio,Monroe,2022-04-28 09:13:11,2020-05-05,0.1170011922587696,0.3887504599361512,1.3819961702639214,,,,,,,,,,,,
39111,0,USOhioMonroe,Ohio,Monroe,2022-04-28 09:13:11,2020-05-06,0.1170011922587696,0.3887504599361512,1.3819961702639214,,,,,,,,,,,,
39111,0,USOhioMonroe,Ohio,Monroe,2022-04-28 09:13:11,2020-05-07,0.6355785964851632,1.1852267737018374,2.3619551089695365,,,,,,,,,,,,
39111,0,USOhioMonroe,Ohio,Monroe,2022-04-28 09:13:11,2020-05-08,0.6355785964851632,1.1852267737018374,2.3619551089695365,,,,,,,,,,,,
39111,0,USOhioMonroe,Ohio,Monroe,2022-04-28 09:13:11,2020-05-09,0.6355785964851632,1.1852267737018374,2.3619551089695365,,,,,,,,,,,,
39111,0,USOhioMonroe,Ohio,Monroe,2022-04-28 09:13:11,2020-05-10,0.6355785964851632,1.1852267737018374,2.3619551089695365,,,,,,,,,,,,
39111,0,USOhioMonroe,Ohio,Monroe,2022-04-28 09:13:11,2020-05-11,0.6355785964851632,1.1852267737018374,2.3619551089695365,,,,,,,,,,,,
39111,0,USOhioMonroe,Ohio,Monroe,2022-04-28 09:13:11,2020-05-12,0.6355785964851632,1.1852267737018374,2.3619551089695365,,,,,,,,,,,,
39111,0,USOhioMonroe,Ohio,Monroe,2022-04-28 09:13:11,2020-05-13,0.6355785964851632,1.1852267737018374,2.3619551089695365,,,,,,,,,,,,
39111,0,USOhioMonroe,Ohio,Monroe,2022-04-28 09:13:11,2020-05-14,0.8711456896670683,1.3945093435073237,2.3581468503170178,,,,,,,,,,,,
39111,0,USOhioMonroe,Ohio,Monroe,2022-04-28 09:13:11,2020-05-15,0.8711456896670683,1.3945093435073237,2.3581468503170178,,,,,,,,,,,,
39111,0,USOhioMonroe,Ohio,Monroe,2022-04-28 09:13:11,2020-05-16,0.8711456896670683,1.3945093435073237,2.3581468503170178,,,,,,,,,,,,
39111,0,USOhioMonroe,Ohio,Monroe,2022-04-28 09:13:11,2020-05-17,0.8711456896670683,1.3945093435073237,2.3581468503170178,,,,,,,,,,,,
39111,0,USOhioMonroe,Ohio,Monroe,2022-04-28 09:13:11,2020-05-18,0.8711456896670683,1.3945093435073237,2.3581468503170178,,,,,,,,,,,,
39111,0,USOhioMonroe,Ohio,Monroe,2022-04-28 09:13:11,2020-05-19,0.8711456896670683,1.3945093435073237,2.3581468503170178,,,,,,,,,,,,
39111,0,USOhioMonroe,Ohio,Monroe,2022-04-28 09:13:11,2020-05-20,0.8711456896670683,1.3945093435073237,2.3581468503170178,,,,,,,,,,,,
39111,0,USOhioMonroe,Ohio,Monroe,2022-04-28 09:13:11,2020-05-21,0.4699548502137382,0.9044510313940008,1.863214192091695,,,,,,,,,,,,
39111,0,USOhioMonroe,Ohio,Monroe,2022-04-28 09:13:11,2020-05-22,0.4699548502137382,0.9044510313940008,1.863214192091695,,,,,,,,,,,,
39111,0,USOhioMonroe,Ohio,Monroe,2022-04-28 09:13:11,2020-05-23,0.4699548502137382,0.9044510313940008,1.863214192091695,,,,,,,,,,,,
39111,0,USOhioMonroe,Ohio,Monroe,2022-04-28 09:13:11,2020-05-24,0.4699548502137382,0.9044510313940008,1.863214192091695,,,,,,,,,,,,
39111,0,USOhioMonroe,Ohio,Monroe,2022-04-28 09:13:11,2020-05-25,0.4699548502137382,0.9044510313940008,1.863214192091695,,,,,,,,,,,,
39111,0,USOhioMonroe,Ohio,Monroe,2022-04-28 09:13:11,2020-05-26,0.4699548502137382,0.9044510313940008,1.863214192091695,,,,,,,,,,,,
39111,0,USOhioMonroe,Ohio,Monroe,2022-04-28 09:13:11,2020-05-27,0.4699548502137382,0.9044510313940008,1.863214192091695,,,,,,,,,,,,
39111,0,USOhioMonroe,Ohio,Monroe,2022-04-28 09:13:11,2020-05-28,0.19123221713980768,0.4405152818654857,1.0917185082356253,,,,,,,,,,,,
39111,0,USOhioMonroe,Ohio,Monroe,2022-04-28 09:13:11,2020-05-29,0.19123221713980768,0.4405152818654857,1.0917185082356253,,,,,,,,,,,,
39111,0,USOhioMonroe,Ohio,Monroe,2022-04-28 09:13:11,2020-05-30,0.19123221713980768,0.4405152818654857,1.0917185082356253,,,,,,,,,,,,
39111,0,USOhioMonroe,Ohio,Monroe,2022-04-28 09:13:11,2020-05-31,0.19123221713980768,0.4405152818654857,1.0917185082356253,,,,,,,,,,,,
39111,0,USOhioMonroe,Ohio,Monroe,2022-04-28 09:13:11,2020-06-01,0.19123221713980768,0.4405152818654857,1.0917185082356253,,,,,,,,,,,,
39111,0,USOhioMonroe,Ohio,Monroe,2022-04-28 09:13:11,2020-06-02,0.19123221713980768,0.4405152818654857,1.0917185082356253,,,,,,,,,,,,
39111,0,USOhioMonroe,Ohio,Monroe,2022-04-28 09:13:11,2020-06-03,0.19123221713980768,0.4405152818654857,1.0917185082356253,,,,,,,,,,,,
39111,0,USOhioMonroe,Ohio,Monroe,2022-04-28 09:13:11,2020-06-04,0.15254106248009872,0.35047834508293246,0.8663106450086259,,,,,,,,,,,,
39111,0,USOhioMonroe,Ohio,Monroe,2022-04-28 09:13:11,2020-06-05,0.15254106248009872,0.35047834508293246,0.8663106450086259,,,,,,,,,,,,
39111,0,USOhioMonroe,Ohio,Monroe,2022-04-28 09:13:11,2020-06-06,0.15254106248009872,0.35047834508293246,0.8663106450086259,,,,,,,,,,,,
39111,0,USOhioMonroe,Ohio,Monroe,2022-04-28 09:13:11,2020-06-07,0.15254106248009872,0.35047834508293246,0.8663106450086259,,,,,,,,,,,,
39111,0,USOhioMonroe,Ohio,Monroe,2022-04-28 09:13:11,2020-06-08,0.15254106248009872,0.35047834508293246,0.8663106450086259,,,,,,,,,,,,
39111,0,USOhioMonroe,Ohio,Monroe,2022-04-28 09:13:11,2020-06-09,0.15254106248009872,0.35047834508293246,0.8663106450086259,,,,,,,,,,,,
39111,0,USOhioMonroe,Ohio,Monroe,2022-04-28 09:13:11,2020-06-10,0.15254106248009872,0.35047834508293246,0.8663106450086259,,,,,,,,,,,,
39111,0,USOhioMonroe,Ohio,Monroe,2022-04-28 09:13:11,2020-06-11,0,0,0,,,,,,,,,,,,
39111,0,USOhioMonroe,Ohio,Monroe,2022-04-28 09:13:11,2020-06-12,0,0,0,,,,,,,,,,,,
39111,0,USOhioMonroe,Ohio,Monroe,2022-04-28 09:13:11,2020-06-13,0,0,0,,,,,,,,,,,,
39111,0,USOhioMonroe,Ohio,Monroe,2022-04-28 09:13:11,2020-06-14,0,0,0,,,,,,,,,,,,
39111,0,USOhioMonroe,Ohio,Monroe,2022-04-28 09:13:11,2020-06-15,0,0,0,,,,,,,,,,,,
39111,0,USOhioMonroe,Ohio,Monroe,2022-04-28 09:13:11,2020-06-16,0,0,0,,,,,,,,,,,,
39111,0,USOhioMonroe,Ohio,Monroe,2022-04-28 09:13:11,2020-06-17,0,0,0,,,,,,,,,,,,
39111,0,USOhioMonroe,Ohio,Monroe,2022-04-28 09:13:11,2020-06-18,0.05711404013618167,0.1860052879025234,0.6485557850542241,,,,,,,,,,,,
39111,0,USOhioMonroe,Ohio,Monroe,2022-04-28 09:13:11,2020-06-19,0.05711404013618167,0.1860052879025234,0.6485557850542241,,,,,,,,,,,,
39111,0,USOhioMonroe,Ohio,Monroe,2022-04-28 09:13:11,2020-06-20,0.05711404013618167,0.1860052879025234,0.6485557850542241,,,,,,,,,,,,
39111,0,USOhioMonroe,Ohio,Monroe,2022-04-28 09:13:11,2020-06-21,0.05711404013618167,0.1860052879025234,0.6485557850542241,,,,,,,,,,,,
39111,0,USOhioMonroe,Ohio,Monroe,2022-04-28 09:13:11,2020-06-22,0.05711404013618167,0.1860052879025234,0.6485557850542241,,,,,,,,,,,,
39111,0,USOhioMonroe,Ohio,Monroe,2022-04-28 09:13:11,2020-06-23,0.05711404013618167,0.1860052879025234,0.6485557850542241,,,,,,,,,,,,
39111,0,USOhioMonroe,Ohio,Monroe,2022-04-28 09:13:11,2020-06-24,0.05711404013618167,0.1860052879025234,0.6485557850542241,,,,,,,,,,,,
39111,0,USOhioMonroe,Ohio,Monroe,2022-04-28 09:13:11,2020-06-25,0.1315390500837189,0.3417838591488189,0.9554593678940864,,,,,,,,,,,,
39111,0,USOhioMonroe,Ohio,Monroe,2022-04-28 09:13:11,2020-06-26,0.1315390500837189,0.3417838591488189,0.9554593678940864,,,,,,,,,,,,
39111,0,USOhioMonroe,Ohio,Monroe,2022-04-28 09:13:11,2020-06-27,0.1315390500837189,0.3417838591488189,0.9554593678940864,,,,,,,,,,,,
39111,0,USOhioMonroe,Ohio,Monroe,2022-04-28 09:13:11,2020-06-28,0.1315390500837189,0.3417838591488189,0.9554593678940864,,,,,,,,,,,,
39111,0,USOhioMonroe,Ohio,Monroe,2022-04-28 09:13:11,2020-06-29,0.1315390500837189,0.3417838591488189,0.9554593678940864,,,,,,,,,,,,
39111,0,USOhioMonroe,Ohio,Monroe,2022-04-28 09:13:11,2020-06-30,0.1315390500837189,0.3417838591488189,0.9554593678940864,,,,,,,,,,,,
39111,0,USOhioMonroe,Ohio,Monroe,2022-04-28 09:13:11,2020-07-01,0.1315390500837189,0.3417838591488189,0.9554593678940864,,,,,,,,,,,,
39111,0,USOhioMonroe,Ohio,Monroe,2022-04-28 09:13:11,2020-07-02,0.1361535244897512,0.36454589891139655,1.0497800138455258,,,,,,,,,,,,
39111,0,USOhioMonroe,Ohio,Monroe,2022-04-28 09:13:11,2020-07-03,0.1361535244897512,0.36454589891139655,1.0497800138455258,,,,,,,,,,,,
39111,0,USOhioMonroe,Ohio,Monroe,2022-04-28 09:13:11,2020-07-04,0.1361535244897512,0.36454589891139655,1.0497800138455258,,,,,,,,,,,,
39111,0,USOhioMonroe,Ohio,Monroe,2022-04-28 09:13:11,2020-07-05,0.1361535244897512,0.36454589891139655,1.0497800138455258,,,,,,,,,,,,
39111,0,USOhioMonroe,Ohio,Monroe,2022-04-28 09:13:11,2020-07-06,0.1361535244897512,0.36454589891139655,1.0497800138455258,,,,,,,,,,,,
39111,0,USOhioMonroe,Ohio,Monroe,2022-04-28 09:13:11,2020-07-07,0.1361535244897512,0.36454589891139655,1.0497800138455258,,,,,,,,,,,,
39111,0,USOhioMonroe,Ohio,Monroe,2022-04-28 09:13:11,2020-07-08,0.1361535244897512,0.36454589891139655,1.0497800138455258,,,,,,,,,,,,
39111,0,USOhioMonroe,Ohio,Monroe,2022-04-28 09:13:11,2020-07-09,0,0,0,,,,,,,,,,,,
39111,0,USOhioMonroe,Ohio,Monroe,2022-04-28 09:13:11,2020-07-10,0,0,0,,,,,,,,,,,,
39111,0,USOhioMonroe,Ohio,Monroe,2022-04-28 09:13:11,2020-07-11,0,0,0,,,,,,,,,,,,
39111,0,USOhioMonroe,Ohio,Monroe,2022-04-28 09:13:11,2020-07-12,0,0,0,,,,,,,,,,,,
39111,0,USOhioMonroe,Ohio,Monroe,2022-04-28 09:13:11,2020-07-13,0,0,0,,,,,,,,,,,,
39111,0,USOhioMonroe,Ohio,Monroe,2022-04-28 09:13:11,2020-07-14,0,0,0,,,,,,,,,,,,
39111,0,USOhioMonroe,Ohio,Monroe,2022-04-28 09:13:11,2020-07-15,0,0,0,,,,,,,,,,,,
39111,0,USOhioMonroe,Ohio,Monroe,2022-04-28 09:13:11,2020-07-16,0,0,0,,,,,,,,,,,,
39111,0,USOhioMonroe,Ohio,Monroe,2022-04-28 09:13:11,2020-07-17,0,0,0,,,,,,,,,,,,
39111,0,USOhioMonroe,Ohio,Monroe,2022-04-28 09:13:11,2020-07-18,0,0,0,,,,,,,,,,,,
39111,0,USOhioMonroe,Ohio,Monroe,2022-04-28 09:13:11,2020-07-19,0,0,0,,,,,,,,,,,,
39111,0,USOhioMonroe,Ohio,Monroe,2022-04-28 09:13:11,2020-07-20,0,0,0,,,,,,,,,,,,
39111,0,USOhioMonroe,Ohio,Monroe,2022-04-28 09:13:11,2020-07-21,0,0,0,,,,,,,,,,,,
39111,0,USOhioMonroe,Ohio,Monroe,2022-04-28 09:13:11,2020-07-22,0,0,0,,,,,,,,,,,,
39111,0,USOhioMonroe,Ohio,Monroe,2022-04-28 09:13:11,2020-07-23,0,0,0,,,,,,,,,,,,
39111,0,USOhioMonroe,Ohio,Monroe,2022-04-28 09:13:11,2020-07-24,0,0,0,,,,,,,,,,,,
39111,0,USOhioMonroe,Ohio,Monroe,2022-04-28 09:13:11,2020-07-25,0,0,0,,,,,,,,,,,,
39111,0,USOhioMonroe,Ohio,Monroe,2022-04-28 09:13:11,2020-07-26,0,0,0,,,,,,,,,,,,
39111,0,USOhioMonroe,Ohio,Monroe,2022-04-28 09:13:11,2020-07-27,0,0,0,,,,,,,,,,,,
39111,0,USOhioMonroe,Ohio,Monroe,2022-04-28 09:13:11,2020-07-28,0,0,0,,,,,,,,,,,,
39111,0,USOhioMonroe,Ohio,Monroe,2022-04-28 09:13:11,2020-07-29,0,0,0,,,,,,,,,,,,
39111,0,USOhioMonroe,Ohio,Monroe,2022-04-28 09:13:11,2020-07-30,0.09979207710656574,0.2899097893786096,0.9045388458593774,,,,,,,,,,,,
39111,0,USOhioMonroe,Ohio,Monroe,2022-04-28 09:13:11,2020-07-31,0.09979207710656574,0.2899097893786096,0.9045388458593774,,,,,,,,,,,,
39111,0,USOhioMonroe,Ohio,Monroe,2022-04-28 09:13:11,2020-08-01,0.09979207710656574,0.2899097893786096,0.9045388458593774,,,,,,,,,,,,
39111,0,USOhioMonroe,Ohio,Monroe,2022-04-28 09:13:11,2020-08-02,0.09979207710656574,0.2899097893786096,0.9045388458593774,,,,,,,,,,,,
39111,0,USOhioMonroe,Ohio,Monroe,2022-04-28 09:13:11,2020-08-03,0.09979207710656574,0.2899097893786096,0.9045388458593774,,,,,,,,,,,,
39111,0,USOhioMonroe,Ohio,Monroe,2022-04-28 09:13:11,2020-08-04,0.09979207710656574,0.2899097893786096,0.9045388458593774,,,,,,,,,,,,
39111,0,USOhioMonroe,Ohio,Monroe,2022-04-28 09:13:11,2020-08-05,0.09979207710656574,0.2899097893786096,0.9045388458593774,,,,,,,,,,,,
39111,0,USOhioMonroe,Ohio,Monroe,2022-04-28 09:13:11,2020-08-06,0.1337959106320757,0.3528381761482424,1.0009419462414701,,,,,,,,,,,,
39111,0,USOhioMonroe,Ohio,Monroe,2022-04-28 09:13:11,2020-08-07,0.1337959106320757,0.3528381761482424,1.0009419462414701,,,,,,,,,,,,
39111,0,USOhioMonroe,Ohio,Monroe,2022-04-28 09:13:11,2020-08-08,0.1337959106320757,0.3528381761482424,1.0009419462414701,,,,,,,,,,,,
39111,0,USOhioMonroe,Ohio,Monroe,2022-04-28 09:13:11,2020-08-09,0.1337959106320757,0.3528381761482424,1.0009419462414701,,,,,,,,,,,,
39111,0,USOhioMonroe,Ohio,Monroe,2022-04-28 09:13:11,2020-08-10,0.1337959106320757,0.3528381761482424,1.0009419462414701,,,,,,,,,,,,
39111,0,USOhioMonroe,Ohio,Monroe,2022-04-28 09:13:11,2020-08-11,0.1337959106320757,0.3528381761482424,1.0009419462414701,,,,,,,,,,,,
39111,0,USOhioMonroe,Ohio,Monroe,2022-04-28 09:13:11,2020-08-12,0.1337959106320757,0.3528381761482424,1.0009419462414701,,,,,,,,,,,,
39111,0,USOhioMonroe,Ohio,Monroe,2022-04-28 09:13:11,2020-08-13,0.2142789831993672,0.46426542875760024,1.0811343321431273,,,,,,,,,,,,
39111,0,USOhioMonroe,Ohio,Monroe,2022-04-28 09:13:11,2020-08-14,0.2142789831993672,0.46426542875760024,1.0811343321431273,,,,,,,,,,,,
39111,0,USOhioMonroe,Ohio,Monroe,2022-04-28 09:13:11,2020-08-15,0.2142789831993672,0.46426542875760024,1.0811343321431273,,,,,,,,,,,,
39111,0,USOhioMonroe,Ohio,Monroe,2022-04-28 09:13:11,2020-08-16,0.2142789831993672,0.46426542875760024,1.0811343321431273,,,,,,,,,,,,
39111,0,USOhioMonroe,Ohio,Monroe,2022-04-28 09:13:11,2020-08-17,0.2142789831993672,0.46426542875760024,1.0811343321431273,,,,,,,,,,,,
39111,0,USOhioMonroe,Ohio,Monroe,2022-04-28 09:13:11,2020-08-18,0.2142789831993672,0.46426542875760024,1.0811343321431273,,,,,,,,,,,,
39111,0,USOhioMonroe,Ohio,Monroe,2022-04-28 09:13:11,2020-08-19,0.2142789831993672,0.46426542875760024,1.0811343321431273,,,,,,,,,,,,
39111,0,USOhioMonroe,Ohio,Monroe,2022-04-28 09:13:11,2020-08-20,0.12362459721134564,0.30421654260801356,0.8056396126844082,,,,,,,,,,,,
39111,0,USOhioMonroe,Ohio,Monroe,2022-04-28 09:13:11,2020-08-21,0.12362459721134564,0.30421654260801356,0.8056396126844082,,,,,,,,,,,,
39111,0,USOhioMonroe,Ohio,Monroe,2022-04-28 09:13:11,2020-08-22,0.12362459721134564,0.30421654260801356,0.8056396126844082,,,,,,,,,,,,
39111,0,USOhioMonroe,Ohio,Monroe,2022-04-28 09:13:11,2020-08-23,0.12362459721134564,0.30421654260801356,0.8056396126844082,,,,,,,,,,,,
39111,0,USOhioMonroe,Ohio,Monroe,2022-04-28 09:13:11,2020-08-24,0.12362459721134564,0.30421654260801356,0.8056396126844082,,,,,,,,,,,,
39111,0,USOhioMonroe,Ohio,Monroe,2022-04-28 09:13:11,2020-08-25,0.12362459721134564,0.30421654260801356,0.8056396126844082,,,,,,,,,,,,
39111,0,USOhioMonroe,Ohio,Monroe,2022-04-28 09:13:11,2020-08-26,0.12362459721134564,0.30421654260801356,0.8056396126844082,,,,,,,,,,,,
39111,0,USOhioMonroe,Ohio,Monroe,2022-04-28 09:13:11,2020-08-27,0.0943311677304417,0.26111926070554753,0.7770171066630283,,,,,,,,,,,,
39111,0,USOhioMonroe,Ohio,Monroe,2022-04-28 09:13:11,2020-08-28,0.0943311677304417,0.26111926070554753,0.7770171066630283,,,,,,,,,,,,
39111,0,USOhioMonroe,Ohio,Monroe,2022-04-28 09:13:11,2020-08-29,0.0943311677304417,0.26111926070554753,0.7770171066630283,,,,,,,,,,,,
39111,0,USOhioMonroe,Ohio,Monroe,2022-04-28 09:13:11,2020-08-30,0.0943311677304417,0.26111926070554753,0.7770171066630283,,,,,,,,,,,,
39111,0,USOhioMonroe,Ohio,Monroe,2022-04-28 09:13:11,2020-08-31,0.0943311677304417,0.26111926070554753,0.7770171066630283,,,,,,,,,,,,
39111,0,USOhioMonroe,Ohio,Monroe,2022-04-28 09:13:11,2020-09-01,0.0943311677304417,0.26111926070554753,0.7770171066630283,,,,,,,,,,,,
39111,0,USOhioMonroe,Ohio,Monroe,2022-04-28 09:13:11,2020-09-02,0.0943311677304417,0.26111926070554753,0.7770171066630283,,,,,,,,,,,,
39111,0,USOhioMonroe,Ohio,Monroe,2022-04-28 09:13:11,2020-09-03,0,0,0,,,,,,,,,,,,
39111,0,USOhioMonroe,Ohio,Monroe,2022-04-28 09:13:11,2020-09-04,0,0,0,,,,,,,,,,,,
39111,0,USOhioMonroe,Ohio,Monroe,2022-04-28 09:13:11,2020-09-05,0,0,0,,,,,,,,,,,,
39111,0,USOhioMonroe,Ohio,Monroe,2022-04-28 09:13:11,2020-09-06,0,0,0,,,,,,,,,,,,
39111,0,USOhioMonroe,Ohio,Monroe,2022-04-28 09:13:11,2020-09-07,0,0,0,,,,,,,,,,,,
39111,0,USOhioMonroe,Ohio,Monroe,2022-04-28 09:13:11,2020-09-08,0,0,0,,,,,,,,,,,,
39111,0,USOhioMonroe,Ohio,Monroe,2022-04-28 09:13:11,2020-09-09,0,0,0,,,,,,,,,,,,
39111,0,USOhioMonroe,Ohio,Monroe,2022-04-28 09:13:11,2020-09-10,0.09082969882531373,0.24333411763009996,0.7011285644627518,,,,,,,,,,,,
39111,0,USOhioMonroe,Ohio,Monroe,2022-04-28 09:13:11,2020-09-11,0.09082969882531373,0.24333411763009996,0.7011285644627518,,,,,,,,,,,,
39111,0,USOhioMonroe,Ohio,Monroe,2022-04-28 09:13:11,2020-09-12,0.09082969882531373,0.24333411763009996,0.7011285644627518,,,,,,,,,,,,
39111,0,USOhioMonroe,Ohio,Monroe,2022-04-28 09:13:11,2020-09-13,0.09082969882531373,0.24333411763009996,0.7011285644627518,,,,,,,,,,,,
39111,0,USOhioMonroe,Ohio,Monroe,2022-04-28 09:13:11,2020-09-14,0.09082969882531373,0.24333411763009996,0.7011285644627518,,,,,,,,,,,,
39111,0,USOhioMonroe,Ohio,Monroe,2022-04-28 09:13:11,2020-09-15,0.09082969882531373,0.24333411763009996,0.7011285644627518,,,,,,,,,,,,
39111,0,USOhioMonroe,Ohio,Monroe,2022-04-28 09:13:11,2020-09-16,0.09082969882531373,0.24333411763009996,0.7011285644627518,,,,,,,,,,,,
39111,0,USOhioMonroe,Ohio,Monroe,2022-04-28 09:13:11,2020-09-17,0.1431794850303101,0.3108557211327742,0.7254086928777266,,,,,,,,,,,,
39111,0,USOhioMonroe,Ohio,Monroe,2022-04-28 09:13:11,2020-09-18,0.1431794850303101,0.3108557211327742,0.7254086928777266,,,,,,,,,,,,
39111,0,USOhioMonroe,Ohio,Monroe,2022-04-28 09:13:11,2020-09-19,0.1431794850303101,0.3108557211327742,0.7254086928777266,,,,,,,,,,,,
39111,0,USOhioMonroe,Ohio,Monroe,2022-04-28 09:13:11,2020-09-20,0.1431794850303101,0.3108557211327742,0.7254086928777266,,,,,,,,,,,,
39111,0,USOhioMonroe,Ohio,Monroe,2022-04-28 09:13:11,2020-09-21,0.1431794850303101,0.3108557211327742,0.7254086928777266,,,,,,,,,,,,
39111,0,USOhioMonroe,Ohio,Monroe,2022-04-28 09:13:11,2020-09-22,0.1431794850303101,0.3108557211327742,0.7254086928777266,,,,,,,,,,,,
39111,0,USOhioMonroe,Ohio,Monroe,2022-04-28 09:13:11,2020-09-23,0.1431794850303101,0.3108557211327742,0.7254086928777266,,,,,,,,,,,,
39111,0,USOhioMonroe,Ohio,Monroe,2022-04-28 09:13:11,2020-09-24,0,0,0,,,,,,,,,,,,
39111,0,USOhioMonroe,Ohio,Monroe,2022-04-28 09:13:11,2020-09-25,0,0,0,,,,,,,,,,,,
39111,0,USOhioMonroe,Ohio,Monroe,2022-04-28 09:13:11,2020-09-26,0,0,0,,,,,,,,,,,,
39111,0,USOhioMonroe,Ohio,Monroe,2022-04-28 09:13:11,2020-09-27,0,0,0,,,,,,,,,,,,
39111,0,USOhioMonroe,Ohio,Monroe,2022-04-28 09:13:11,2020-09-28,0,0,0,,,,,,,,,,,,
39111,0,USOhioMonroe,Ohio,Monroe,2022-04-28 09:13:11,2020-09-29,0,0,0,,,,,,,,,,,,
39111,0,USOhioMonroe,Ohio,Monroe,2022-04-28 09:13:11,2020-09-30,0,0,0,,,,,,,,,,,,
39111,0,USOhioMonroe,Ohio,Monroe,2022-04-28 09:13:11,2020-10-01,0.12216374063104257,0.2974887360468186,0.7796127352251295,,,,,,,,,,,,
39111,0,USOhioMonroe,Ohio,Monroe,2022-04-28 09:13:11,2020-10-02,0.12216374063104257,0.2974887360468186,0.7796127352251295,,,,,,,,,,,,
39111,0,USOhioMonroe,Ohio,Monroe,2022-04-28 09:13:11,2020-10-03,0.12216374063104257,0.2974887360468186,0.7796127352251295,,,,,,,,,,,,
39111,0,USOhioMonroe,Ohio,Monroe,2022-04-28 09:13:11,2020-10-04,0.12216374063104257,0.2974887360468186,0.7796127352251295,,,,,,,,,,,,
39111,0,USOhioMonroe,Ohio,Monroe,2022-04-28 09:13:11,2020-10-05,0.12216374063104257,0.2974887360468186,0.7796127352251295,,,,,,,,,,,,
39111,0,USOhioMonroe,Ohio,Monroe,2022-04-28 09:13:11,2020-10-06,0.12216374063104257,0.2974887360468186,0.7796127352251295,,,,,,,,,,,,
39111,0,USOhioMonroe,Ohio,Monroe,2022-04-28 09:13:11,2020-10-07,0.12216374063104257,0.2974887360468186,0.7796127352251295,,,,,,,,,,,,
39111,0,USOhioMonroe,Ohio,Monroe,2022-04-28 09:13:11,2020-10-08,0.34204171543057016,0.6537633416903362,1.3371028876066728,,,,,,,,,,,,
39111,0,USOhioMonroe,Ohio,Monroe,2022-04-28 09:13:11,2020-10-09,0.34204171543057016,0.6537633416903362,1.3371028876066728,,,,,,,,,,,,
39111,0,USOhioMonroe,Ohio,Monroe,2022-04-28 09:13:11,2020-10-10,0.34204171543057016,0.6537633416903362,1.3371028876066728,,,,,,,,,,,,
39111,0,USOhioMonroe,Ohio,Monroe,2022-04-28 09:13:11,2020-10-11,0.34204171543057016,0.6537633416903362,1.3371028876066728,,,,,,,,,,,,
39111,0,USOhioMonroe,Ohio,Monroe,2022-04-28 09:13:11,2020-10-12,0.34204171543057016,0.6537633416903362,1.3371028876066728,,,,,,,,,,,,
39111,0,USOhioMonroe,Ohio,Monroe,2022-04-28 09:13:11,2020-10-13,0.34204171543057016,0.6537633416903362,1.3371028876066728,,,,,,,,,,,,
39111,0,USOhioMonroe,Ohio,Monroe,2022-04-28 09:13:11,2020-10-14,0.34204171543057016,0.6537633416903362,1.3371028876066728,,,,,,,,,,,,
39111,0,USOhioMonroe,Ohio,Monroe,2022-04-28 09:13:11,2020-10-15,0.802909121184898,1.2980792390168352,2.2190289426091727,,,,,,,,,,,,
39111,0,USOhioMonroe,Ohio,Monroe,2022-04-28 09:13:11,2020-10-16,0.802909121184898,1.2980792390168352,2.2190289426091727,,,,,,,,,,,,
39111,0,USOhioMonroe,Ohio,Monroe,2022-04-28 09:13:11,2020-10-17,0.802909121184898,1.2980792390168352,2.2190289426091727,,,,,,,,,,,,
39111,0,USOhioMonroe,Ohio,Monroe,2022-04-28 09:13:11,2020-10-18,0.802909121184898,1.2980792390168352,2.2190289426091727,,,,,,,,,,,,
39111,0,USOhioMonroe,Ohio,Monroe,2022-04-28 09:13:11,2020-10-19,0.802909121184898,1.2980792390168352,2.2190289426091727,,,,,,,,,,,,
39111,0,USOhioMonroe,Ohio,Monroe,2022-04-28 09:13:11,2020-10-20,0.802909121184898,1.2980792390168352,2.2190289426091727,,,,,,,,,,,,
39111,0,USOhioMonroe,Ohio,Monroe,2022-04-28 09:13:11,2020-10-21,0.802909121184898,1.2980792390168352,2.2190289426091727,,,,,,,,,,,,
39111,0,USOhioMonroe,Ohio,Monroe,2022-04-28 09:13:11,2020-10-22,0.8249377567658015,1.3672300915550115,2.4013804793100264,,,,,,,,,,,,
39111,0,USOhioMonroe,Ohio,Monroe,2022-04-28 09:13:11,2020-10-23,0.8249377567658015,1.3672300915550115,2.4013804793100264,,,,,,,,,,,,
39111,0,USOhioMonroe,Ohio,Monroe,2022-04-28 09:13:11,2020-10-24,0.8249377567658015,1.3672300915550115,2.4013804793100264,,,,,,,,,,,,
39111,0,USOhioMonroe,Ohio,Monroe,2022-04-28 09:13:11,2020-10-25,0.8249377567658015,1.3672300915550115,2.4013804793100264,,,,,,,,,,,,
39111,0,USOhioMonroe,Ohio,Monroe,2022-04-28 09:13:11,2020-10-26,0.8249377567658015,1.3672300915550115,2.4013804793100264,,,,,,,,,,,,
39111,0,USOhioMonroe,Ohio,Monroe,2022-04-28 09:13:11,2020-10-27,0.8249377567658015,1.3672300915550115,2.4013804793100264,,,,,,,,,,,,
39111,0,USOhioMonroe,Ohio,Monroe,2022-04-28 09:13:11,2020-10-28,0.8249377567658015,1.3672300915550115,2.4013804793100264,,,,,,,,,,,,
39111,0,USOhioMonroe,Ohio,Monroe,2022-04-28 09:13:11,2020-10-29,0.7413167479659234,1.3567931789028864,2.650874977080796,,,,,,,,,,,,
39111,0,USOhioMonroe,Ohio,Monroe,2022-04-28 09:13:11,2020-10-30,0.7413167479659234,1.3567931789028864,2.650874977080796,,,,,,,,,,,,
39111,0,USOhioMonroe,Ohio,Monroe,2022-04-28 09:13:11,2020-10-31,0.7413167479659234,1.3567931789028864,2.650874977080796,,,,,,,,,,,,
39111,0,USOhioMonroe,Ohio,Monroe,2022-04-28 09:13:11,2020-11-01,0.7413167479659234,1.3567931789028864,2.650874977080796,,,,,,,,,,,,
39111,0,USOhioMonroe,Ohio,Monroe,2022-04-28 09:13:11,2020-11-02,0.7413167479659234,1.3567931789028864,2.650874977080796,,,,,,,,,,,,
39111,0,USOhioMonroe,Ohio,Monroe,2022-04-28 09:13:11,2020-11-03,0.7413167479659234,1.3567931789028864,2.650874977080796,,,,,,,,,,,,
39111,0,USOhioMonroe,Ohio,Monroe,2022-04-28 09:13:11,2020-11-04,0.7413167479659234,1.3567931789028864,2.650874977080796,,,,,,,,,,,,
39111,0,USOhioMonroe,Ohio,Monroe,2022-04-28 09:13:11,2020-11-05,0.617720149437153,1.291200672529305,2.898175215291247,,,,,,,,,,,,
39111,0,USOhioMonroe,Ohio,Monroe,2022-04-28 09:13:11,2020-11-06,0.617720149437153,1.291200672529305,2.898175215291247,,,,,,,,,,,,
39111,0,USOhioMonroe,Ohio,Monroe,2022-04-28 09:13:11,2020-11-07,0.617720149437153,1.291200672529305,2.898175215291247,,,,,,,,,,,,
39111,0,USOhioMonroe,Ohio,Monroe,2022-04-28 09:13:11,2020-11-08,0.617720149437153,1.291200672529305,2.898175215291247,,,,,,,,,,,,
39111,0,USOhioMonroe,Ohio,Monroe,2022-04-28 09:13:11,2020-11-09,0.617720149437153,1.291200672529305,2.898175215291247,,,,,,,,,,,,
39111,0,USOhioMonroe,Ohio,Monroe,2022-04-28 09:13:11,2020-11-10,0.617720149437153,1.291200672529305,2.898175215291247,,,,,,,,,,,,
39111,0,USOhioMonroe,Ohio,Monroe,2022-04-28 09:13:11,2020-11-11,0.617720149437153,1.291200672529305,2.898175215291247,,,,,,,,,,,,
39111,0,USOhioMonroe,Ohio,Monroe,2022-04-28 09:13:11,2020-11-12,1.1805208712962982,2.2017085859795964,4.388206019565177,,,,,,,,,,,,
39111,0,USOhioMonroe,Ohio,Monroe,2022-04-28 09:13:11,2020-11-13,1.1805208712962982,2.2017085859795964,4.388206019565177,,,,,,,,,,,,
39111,0,USOhioMonroe,Ohio,Monroe,2022-04-28 09:13:11,2020-11-14,1.1805208712962982,2.2017085859795964,4.388206019565177,,,,,,,,,,,,
39111,0,USOhioMonroe,Ohio,Monroe,2022-04-28 09:13:11,2020-11-15,1.1805208712962982,2.2017085859795964,4.388206019565177,,,,,,,,,,,,
39111,0,USOhioMonroe,Ohio,Monroe,2022-04-28 09:13:11,2020-11-16,1.1805208712962982,2.2017085859795964,4.388206019565177,,,,,,,,,,,,
39111,0,USOhioMonroe,Ohio,Monroe,2022-04-28 09:13:11,2020-11-17,1.1805208712962982,2.2017085859795964,4.388206019565177,,,,,,,,,,,,
39111,0,USOhioMonroe,Ohio,Monroe,2022-04-28 09:13:11,2020-11-18,1.1805208712962982,2.2017085859795964,4.388206019565177,,,,,,,,,,,,
39111,0,USOhioMonroe,Ohio,Monroe,2022-04-28 09:13:11,2020-11-19,1.5799360685428638,2.8088457486296883,5.320729337309233,,,,,,,,,,,,
39111,0,USOhioMonroe,Ohio,Monroe,2022-04-28 09:13:11,2020-11-20,1.5799360685428638,2.8088457486296883,5.320729337309233,,,,,,,,,,,,
39111,0,USOhioMonroe,Ohio,Monroe,2022-04-28 09:13:11,2020-11-21,1.5799360685428638,2.8088457486296883,5.320729337309233,,,,,,,,,,,,
39111,0,USOhioMonroe,Ohio,Monroe,2022-04-28 09:13:11,2020-11-22,1.5799360685428638,2.8088457486296883,5.320729337309233,,,,,,,,,,,,
39111,0,USOhioMonroe,Ohio,Monroe,2022-04-28 09:13:11,2020-11-23,1.5799360685428638,2.8088457486296883,5.320729337309233,,,,,,,,,,,,
39111,0,USOhioMonroe,Ohio,Monroe,2022-04-28 09:13:11,2020-11-24,1.5799360685428638,2.8088457486296883,5.320729337309233,,,,,,,,,,,,
39111,0,USOhioMonroe,Ohio,Monroe,2022-04-28 09:13:11,2020-11-25,1.5799360685428638,2.8088457486296883,5.320729337309233,,,,,,,,,,,,
39111,0,USOhioMonroe,Ohio,Monroe,2022-04-28 09:13:11,2020-11-26,2.028719440682058,3.413179946549066,6.093227996193262,,,,,,,,,,,,
39111,0,USOhioMonroe,Ohio,Monroe,2022-04-28 09:13:11,2020-11-27,2.028719440682058,3.413179946549066,6.093227996193262,,,,,,,,,,,,
39111,0,USOhioMonroe,Ohio,Monroe,2022-04-28 09:13:11,2020-11-28,2.028719440682058,3.413179946549066,6.093227996193262,,,,,,,,,,,,
39111,0,USOhioMonroe,Ohio,Monroe,2022-04-28 09:13:11,2020-11-29,2.028719440682058,3.413179946549066,6.093227996193262,,,,,,,,,,,,
39111,0,USOhioMonroe,Ohio,Monroe,2022-04-28 09:13:11,2020-11-30,2.028719440682058,3.413179946549066,6.093227996193262,,,,,,,,,,,,
39111,0,USOhioMonroe,Ohio,Monroe,2022-04-28 09:13:11,2020-12-01,2.028719440682058,3.413179946549066,6.093227996193262,,,,,,,,,,,,
39111,0,USOhioMonroe,Ohio,Monroe,2022-04-28 09:13:11,2020-12-02,2.028719440682058,3.413179946549066,6.093227996193262,,,,,,,,,,,,
39111,0,USOhioMonroe,Ohio,Monroe,2022-04-28 09:13:11,2020-12-03,2.562056607744237,4.427138041764466,8.134405513705719,,,,,,,,,,,,
39111,0,USOhioMonroe,Ohio,Monroe,2022-04-28 09:13:11,2020-12-04,2.562056607744237,4.427138041764466,8.134405513705719,,,,,,,,,,,,
39111,0,USOhioMonroe,Ohio,Monroe,2022-04-28 09:13:11,2020-12-05,2.562056607744237,4.427138041764466,8.134405513705719,,,,,,,,,,,,
39111,0,USOhioMonroe,Ohio,Monroe,2022-04-28 09:13:11,2020-12-06,2.562056607744237,4.427138041764466,8.134405513705719,,,,,,,,,,,,
39111,0,USOhioMonroe,Ohio,Monroe,2022-04-28 09:13:11,2020-12-07,2.562056607744237,4.427138041764466,8.134405513705719,,,,,,,,,,,,
39111,0,USOhioMonroe,Ohio,Monroe,2022-04-28 09:13:11,2020-12-08,2.562056607744237,4.427138041764466,8.134405513705719,,,,,,,,,,,,
39111,0,USOhioMonroe,Ohio,Monroe,2022-04-28 09:13:11,2020-12-09,2.562056607744237,4.427138041764466,8.134405513705719,,,,,,,,,,,,
39111,0,USOhioMonroe,Ohio,Monroe,2022-04-28 09:13:11,2020-12-10,2.1879788063589185,3.7185865945226895,6.711527692220934,,,,,,,,,,,,
39111,0,USOhioMonroe,Ohio,Monroe,2022-04-28 09:13:11,2020-12-11,2.1879788063589185,3.7185865945226895,6.711527692220934,,,,,,,,,,,,
39111,0,USOhioMonroe,Ohio,Monroe,2022-04-28 09:13:11,2020-12-12,2.1879788063589185,3.7185865945226895,6.711527692220934,,,,,,,,,,,,
39111,0,USOhioMonroe,Ohio,Monroe,2022-04-28 09:13:11,2020-12-13,2.1879788063589185,3.7185865945226895,6.711527692220934,,,,,,,,,,,,
39111,0,USOhioMonroe,Ohio,Monroe,2022-04-28 09:13:11,2020-12-14,2.1879788063589185,3.7185865945226895,6.711527692220934,,,,,,,,,,,,
39111,0,USOhioMonroe,Ohio,Monroe,2022-04-28 09:13:11,2020-12-15,2.1879788063589185,3.7185865945226895,6.711527692220934,,,,,,,,,,,,
39111,0,USOhioMonroe,Ohio,Monroe,2022-04-28 09:13:11,2020-12-16,2.1879788063589185,3.7185865945226895,6.711527692220934,,,,,,,,,,,,
39111,0,USOhioMonroe,Ohio,Monroe,2022-04-28 09:13:11,2020-12-17,2.021998843149538,3.520954380019228,6.5231523748978475,,,,,,,,,,,,
39111,0,USOhioMonroe,Ohio,Monroe,2022-04-28 09:13:11,2020-12-18,2.021998843149538,3.520954380019228,6.5231523748978475,,,,,,,,,,,,
39111,0,USOhioMonroe,Ohio,Monroe,2022-04-28 09:13:11,2020-12-19,2.021998843149538,3.520954380019228,6.5231523748978475,,,,,,,,,,,,
39111,0,USOhioMonroe,Ohio,Monroe,2022-04-28 09:13:11,2020-12-20,2.021998843149538,3.520954380019228,6.5231523748978475,,,,,,,,,,,,
39111,0,USOhioMonroe,Ohio,Monroe,2022-04-28 09:13:11,2020-12-21,2.021998843149538,3.520954380019228,6.5231523748978475,,,,,,,,,,,,
39111,0,USOhioMonroe,Ohio,Monroe,2022-04-28 09:13:11,2020-12-22,2.021998843149538,3.520954380019228,6.5231523748978475,,,,,,,,,,,,
39111,0,USOhioMonroe,Ohio,Monroe,2022-04-28 09:13:11,2020-12-23,2.021998843149538,3.520954380019228,6.5231523748978475,,,,,,,,,,,,
39111,0,USOhioMonroe,Ohio,Monroe,2022-04-28 09:13:11,2020-12-24,2.0171426861260744,3.504761604673302,6.477796941994024,,,,,,,,,,,,
39111,0,USOhioMonroe,Ohio,Monroe,2022-04-28 09:13:11,2020-12-25,2.0171426861260744,3.504761604673302,6.477796941994024,,,,,,,,,,,,
39111,0,USOhioMonroe,Ohio,Monroe,2022-04-28 09:13:11,2020-12-26,2.0171426861260744,3.504761604673302,6.477796941994024,,,,,,,,,,,,
39111,0,USOhioMonroe,Ohio,Monroe,2022-04-28 09:13:11,2020-12-27,2.0171426861260744,3.504761604673302,6.477796941994024,,,,,,,,,,,,
39111,0,USOhioMonroe,Ohio,Monroe,2022-04-28 09:13:11,2020-12-28,2.0171426861260744,3.504761604673302,6.477796941994024,,,,,,,,,,,,
39111,0,USOhioMonroe,Ohio,Monroe,2022-04-28 09:13:11,2020-12-29,2.0171426861260744,3.504761604673302,6.477796941994024,,,,,,,,,,,,
39111,0,USOhioMonroe,Ohio,Monroe,2022-04-28 09:13:11,2020-12-30,2.0171426861260744,3.504761604673302,6.477796941994024,,,,,,,,,,,,
39111,0,USOhioMonroe,Ohio,Monroe,2022-04-28 09:13:11,2020-12-31,3.1076555128663466,4.948067007829236,8.318240693747342,,,,,,,,,,,,
39111,0,USOhioMonroe,Ohio,Monroe,2022-04-28 09:13:11,2021-01-01,3.1076555128663466,4.948067007829236,8.318240693747342,,,,,,,,,,,,
39111,0,USOhioMonroe,Ohio,Monroe,2022-04-28 09:13:11,2021-01-02,3.1076555128663466,4.948067007829236,8.318240693747342,,,,,,,,,,,,
39111,0,USOhioMonroe,Ohio,Monroe,2022-04-28 09:13:11,2021-01-03,3.1076555128663466,4.948067007829236,8.318240693747342,,,,,,,,,,,,
39111,0,USOhioMonroe,Ohio,Monroe,2022-04-28 09:13:11,2021-01-04,3.1076555128663466,4.948067007829236,8.318240693747342,,,,,,,,,,,,
39111,0,USOhioMonroe,Ohio,Monroe,2022-04-28 09:13:11,2021-01-05,3.1076555128663466,4.948067007829236,8.318240693747342,,,,,,,,,,,,
39111,0,USOhioMonroe,Ohio,Monroe,2022-04-28 09:13:11,2021-01-06,3.1076555128663466,4.948067007829236,8.318240693747342,,,,,,,,,,,,
39111,0,USOhioMonroe,Ohio,Monroe,2022-04-28 09:13:11,2021-01-07,2.2684337933719876,3.8107299278005864,6.791832608575192,,,,,,,,,,,,
39111,0,USOhioMonroe,Ohio,Monroe,2022-04-28 09:13:11,2021-01-08,2.2684337933719876,3.8107299278005864,6.791832608575192,,,,,,,,,,,,
39111,0,USOhioMonroe,Ohio,Monroe,2022-04-28 09:13:11,2021-01-09,2.2684337933719876,3.8107299278005864,6.791832608575192,,,,,,,,,,,,
39111,0,USOhioMonroe,Ohio,Monroe,2022-04-28 09:13:11,2021-01-10,2.2684337933719876,3.8107299278005864,6.791832608575192,,,,,,,,,,,,
39111,0,USOhioMonroe,Ohio,Monroe,2022-04-28 09:13:11,2021-01-11,2.2684337933719876,3.8107299278005864,6.791832608575192,,,,,,,,,,,,
39111,0,USOhioMonroe,Ohio,Monroe,2022-04-28 09:13:11,2021-01-12,2.2684337933719876,3.8107299278005864,6.791832608575192,,,,,,,,,,,,
39111,0,USOhioMonroe,Ohio,Monroe,2022-04-28 09:13:11,2021-01-13,2.2684337933719876,3.8107299278005864,6.791832608575192,,,,,,,,,,,,
39111,0,USOhioMonroe,Ohio,Monroe,2022-04-28 09:13:11,2021-01-14,1.8904229748543881,3.134734152259754,5.508845190750054,,,,,,,,,,,,
39111,0,USOhioMonroe,Ohio,Monroe,2022-04-28 09:13:11,2021-01-15,1.8904229748543881,3.134734152259754,5.508845190750054,,,,,,,,,,,,
39111,0,USOhioMonroe,Ohio,Monroe,2022-04-28 09:13:11,2021-01-16,1.8904229748543881,3.134734152259754,5.508845190750054,,,,,,,,,,,,
39111,0,USOhioMonroe,Ohio,Monroe,2022-04-28 09:13:11,2021-01-17,1.8904229748543881,3.134734152259754,5.508845190750054,,,,,,,,,,,,
39111,0,USOhioMonroe,Ohio,Monroe,2022-04-28 09:13:11,2021-01-18,1.8904229748543881,3.134734152259754,5.508845190750054,,,,,,,,,,,,
39111,0,USOhioMonroe,Ohio,Monroe,2022-04-28 09:13:11,2021-01-19,1.8904229748543881,3.134734152259754,5.508845190750054,,,,,,,,,,,,
39111,0,USOhioMonroe,Ohio,Monroe,2022-04-28 09:13:11,2021-01-20,1.8904229748543881,3.134734152259754,5.508845190750054,,,,,,,,,,,,
39111,0,USOhioMonroe,Ohio,Monroe,2022-04-28 09:13:11,2021-01-21,1.4555861316539769,2.527090884609818,4.6668695622197935,,,,,,,,,,,,
39111,0,USOhioMonroe,Ohio,Monroe,2022-04-28 09:13:11,2021-01-22,1.4555861316539769,2.527090884609818,4.6668695622197935,,,,,,,,,,,,
39111,0,USOhioMonroe,Ohio,Monroe,2022-04-28 09:13:11,2021-01-23,1.4555861316539769,2.527090884609818,4.6668695622197935,,,,,,,,,,,,
39111,0,USOhioMonroe,Ohio,Monroe,2022-04-28 09:13:11,2021-01-24,1.4555861316539769,2.527090884609818,4.6668695622197935,,,,,,,,,,,,
39111,0,USOhioMonroe,Ohio,Monroe,2022-04-28 09:13:11,2021-01-25,1.4555861316539769,2.527090884609818,4.6668695622197935,,,,,,,,,,,,
39111,0,USOhioMonroe,Ohio,Monroe,2022-04-28 09:13:11,2021-01-26,1.4555861316539769,2.527090884609818,4.6668695622197935,,,,,,,,,,,,
39111,0,USOhioMonroe,Ohio,Monroe,2022-04-28 09:13:11,2021-01-27,1.4555861316539769,2.527090884609818,4.6668695622197935,,,,,,,,,,,,
39111,0,USOhioMonroe,Ohio,Monroe,2022-04-28 09:13:11,2021-01-28,1.1308472116426052,1.9812455793068284,3.6947345631217425,,,,,,,,,,,,
39111,0,USOhioMonroe,Ohio,Monroe,2022-04-28 09:13:11,2021-01-29,1.1308472116426052,1.9812455793068284,3.6947345631217425,,,,,,,,,,,,
39111,0,USOhioMonroe,Ohio,Monroe,2022-04-28 09:13:11,2021-01-30,1.1308472116426052,1.9812455793068284,3.6947345631217425,,,,,,,,,,,,
39111,0,USOhioMonroe,Ohio,Monroe,2022-04-28 09:13:11,2021-01-31,1.1308472116426052,1.9812455793068284,3.6947345631217425,,,,,,,,,,,,
39111,0,USOhioMonroe,Ohio,Monroe,2022-04-28 09:13:11,2021-02-01,1.1308472116426052,1.9812455793068284,3.6947345631217425,,,,,,,,,,,,
39111,0,USOhioMonroe,Ohio,Monroe,2022-04-28 09:13:11,2021-02-02,1.1308472116426052,1.9812455793068284,3.6947345631217425,,,,,,,,,,,,
39111,0,USOhioMonroe,Ohio,Monroe,2022-04-28 09:13:11,2021-02-03,1.1308472116426052,1.9812455793068284,3.6947345631217425,,,,,,,,,,,,
39111,0,USOhioMonroe,Ohio,Monroe,2022-04-28 09:13:11,2021-02-04,0.6640184254229728,1.2886875799406383,2.6781515010671884,,,,,,,,,,,,
39111,0,USOhioMonroe,Ohio,Monroe,2022-04-28 09:13:11,2021-02-05,0.6640184254229728,1.2886875799406383,2.6781515010671884,,,,,,,,,,,,
39111,0,USOhioMonroe,Ohio,Monroe,2022-04-28 09:13:11,2021-02-06,0.6640184254229728,1.2886875799406383,2.6781515010671884,,,,,,,,,,,,
39111,0,USOhioMonroe,Ohio,Monroe,2022-04-28 09:13:11,2021-02-07,0.6640184254229728,1.2886875799406383,2.6781515010671884,,,,,,,,,,,,
39111,0,USOhioMonroe,Ohio,Monroe,2022-04-28 09:13:11,2021-02-08,0.6640184254229728,1.2886875799406383,2.6781515010671884,,,,,,,,,,,,
39111,0,USOhioMonroe,Ohio,Monroe,2022-04-28 09:13:11,2021-02-09,0.6640184254229728,1.2886875799406383,2.6781515010671884,,,,,,,,,,,,
39111,0,USOhioMonroe,Ohio,Monroe,2022-04-28 09:13:11,2021-02-10,0.6640184254229728,1.2886875799406383,2.6781515010671884,,,,,,,,,,,,
39111,0,USOhioMonroe,Ohio,Monroe,2022-04-28 09:13:11,2021-02-11,0.8330564930367431,1.43570215155256,2.630484960097754,,,,,,,,,,,,
39111,0,USOhioMonroe,Ohio,Monroe,2022-04-28 09:13:11,2021-02-12,0.8330564930367431,1.43570215155256,2.630484960097754,,,,,,,,,,,,
39111,0,USOhioMonroe,Ohio,Monroe,2022-04-28 09:13:11,2021-02-13,0.8330564930367431,1.43570215155256,2.630484960097754,,,,,,,,,,,,
39111,0,USOhioMonroe,Ohio,Monroe,2022-04-28 09:13:11,2021-02-14,0.8330564930367431,1.43570215155256,2.630484960097754,,,,,,,,,,,,
39111,0,USOhioMonroe,Ohio,Monroe,2022-04-28 09:13:11,2021-02-15,0.8330564930367431,1.43570215155256,2.630484960097754,,,,,,,,,,,,
39111,0,USOhioMonroe,Ohio,Monroe,2022-04-28 09:13:11,2021-02-16,0.8330564930367431,1.43570215155256,2.630484960097754,,,,,,,,,,,,
39111,0,USOhioMonroe,Ohio,Monroe,2022-04-28 09:13:11,2021-02-17,0.8330564930367431,1.43570215155256,2.630484960097754,,,,,,,,,,,,
39111,0,USOhioMonroe,Ohio,Monroe,2022-04-28 09:13:11,2021-02-18,0.6393913836585255,1.2533696777080792,2.63212483453064,,,,,,,,,,,,
39111,0,USOhioMonroe,Ohio,Monroe,2022-04-28 09:13:11,2021-02-19,0.6393913836585255,1.2533696777080792,2.63212483453064,,,,,,,,,,,,
39111,0,USOhioMonroe,Ohio,Monroe,2022-04-28 09:13:11,2021-02-20,0.6393913836585255,1.2533696777080792,2.63212483453064,,,,,,,,,,,,
39111,0,USOhioMonroe,Ohio,Monroe,2022-04-28 09:13:11,2021-02-21,0.6393913836585255,1.2533696777080792,2.63212483453064,,,,,,,,,,,,
39111,0,USOhioMonroe,Ohio,Monroe,2022-04-28 09:13:11,2021-02-22,0.6393913836585255,1.2533696777080792,2.63212483453064,,,,,,,,,,,,
39111,0,USOhioMonroe,Ohio,Monroe,2022-04-28 09:13:11,2021-02-23,0.6393913836585255,1.2533696777080792,2.63212483453064,,,,,,,,,,,,
39111,0,USOhioMonroe,Ohio,Monroe,2022-04-28 09:13:11,2021-02-24,0.6393913836585255,1.2533696777080792,2.63212483453064,,,,,,,,,,,,
39111,0,USOhioMonroe,Ohio,Monroe,2022-04-28 09:13:11,2021-02-25,0.524463023299227,0.9446049120131753,1.8143243238060252,,,,,,,,,,,,
39111,0,USOhioMonroe,Ohio,Monroe,2022-04-28 09:13:11,2021-02-26,0.524463023299227,0.9446049120131753,1.8143243238060252,,,,,,,,,,,,
39111,0,USOhioMonroe,Ohio,Monroe,2022-04-28 09:13:11,2021-02-27,0.524463023299227,0.9446049120131753,1.8143243238060252,,,,,,,,,,,,
39111,0,USOhioMonroe,Ohio,Monroe,2022-04-28 09:13:11,2021-02-28,0.524463023299227,0.9446049120131753,1.8143243238060252,,,,,,,,,,,,
39111,0,USOhioMonroe,Ohio,Monroe,2022-04-28 09:13:11,2021-03-01,0.524463023299227,0.9446049120131753,1.8143243238060252,,,,,,,,,,,,
39111,0,USOhioMonroe,Ohio,Monroe,2022-04-28 09:13:11,2021-03-02,0.524463023299227,0.9446049120131753,1.8143243238060252,,,,,,,,,,,,
39111,0,USOhioMonroe,Ohio,Monroe,2022-04-28 09:13:11,2021-03-03,0.524463023299227,0.9446049120131753,1.8143243238060252,,,,,,,,,,,,
39111,0,USOhioMonroe,Ohio,Monroe,2022-04-28 09:13:11,2021-03-04,0.35565373885810936,0.7043540114983282,1.4950598838247877,,,,,,,,,,,,
39111,0,USOhioMonroe,Ohio,Monroe,2022-04-28 09:13:11,2021-03-05,0.35565373885810936,0.7043540114983282,1.4950598838247877,,,,,,,,,,,,
39111,0,USOhioMonroe,Ohio,Monroe,2022-04-28 09:13:11,2021-03-06,0.35565373885810936,0.7043540114983282,1.4950598838247877,,,,,,,,,,,,
39111,0,USOhioMonroe,Ohio,Monroe,2022-04-28 09:13:11,2021-03-07,0.35565373885810936,0.7043540114983282,1.4950598838247877,,,,,,,,,,,,
39111,0,USOhioMonroe,Ohio,Monroe,2022-04-28 09:13:11,2021-03-08,0.35565373885810936,0.7043540114983282,1.4950598838247877,,,,,,,,,,,,
39111,0,USOhioMonroe,Ohio,Monroe,2022-04-28 09:13:11,2021-03-09,0.35565373885810936,0.7043540114983282,1.4950598838247877,,,,,,,,,,,,
39111,0,USOhioMonroe,Ohio,Monroe,2022-04-28 09:13:11,2021-03-10,0.35565373885810936,0.7043540114983282,1.4950598838247877,,,,,,,,,,,,
39111,0,USOhioMonroe,Ohio,Monroe,2022-04-28 09:13:11,2021-03-11,0.8470029523453511,1.3213843075929388,2.172088076917097,,,,,,,,,,,,
39111,0,USOhioMonroe,Ohio,Monroe,2022-04-28 09:13:11,2021-03-12,0.8470029523453511,1.3213843075929388,2.172088076917097,,,,,,,,,,,,
39111,0,USOhioMonroe,Ohio,Monroe,2022-04-28 09:13:11,2021-03-13,0.8470029523453511,1.3213843075929388,2.172088076917097,,,,,,,,,,,,
39111,0,USOhioMonroe,Ohio,Monroe,2022-04-28 09:13:11,2021-03-14,0.8470029523453511,1.3213843075929388,2.172088076917097,,,,,,,,,,,,
39111,0,USOhioMonroe,Ohio,Monroe,2022-04-28 09:13:11,2021-03-15,0.8470029523453511,1.3213843075929388,2.172088076917097,,,,,,,,,,,,
39111,0,USOhioMonroe,Ohio,Monroe,2022-04-28 09:13:11,2021-03-16,0.8470029523453511,1.3213843075929388,2.172088076917097,,,,,,,,,,,,
39111,0,USOhioMonroe,Ohio,Monroe,2022-04-28 09:13:11,2021-03-17,0.8470029523453511,1.3213843075929388,2.172088076917097,,,,,,,,,,,,
39111,0,USOhioMonroe,Ohio,Monroe,2022-04-28 09:13:11,2021-03-18,0.5912682924607149,1.032020249820459,1.916833577104458,,,,,,,,,,,,
39111,0,USOhioMonroe,Ohio,Monroe,2022-04-28 09:13:11,2021-03-19,0.5912682924607149,1.032020249820459,1.916833577104458,,,,,,,,,,,,
39111,0,USOhioMonroe,Ohio,Monroe,2022-04-28 09:13:11,2021-03-20,0.5912682924607149,1.032020249820459,1.916833577104458,,,,,,,,,,,,
39111,0,USOhioMonroe,Ohio,Monroe,2022-04-28 09:13:11,2021-03-21,0.5912682924607149,1.032020249820459,1.916833577104458,,,,,,,,,,,,
39111,0,USOhioMonroe,Ohio,Monroe,2022-04-28 09:13:11,2021-03-22,0.5912682924607149,1.032020249820459,1.916833577104458,,,,,,,,,,,,
39111,0,USOhioMonroe,Ohio,Monroe,2022-04-28 09:13:11,2021-03-23,0.5912682924607149,1.032020249820459,1.916833577104458,,,,,,,,,,,,
39111,0,USOhioMonroe,Ohio,Monroe,2022-04-28 09:13:11,2021-03-24,0.5912682924607149,1.032020249820459,1.916833577104458,,,,,,,,,,,,
39111,0,USOhioMonroe,Ohio,Monroe,2022-04-28 09:13:11,2021-03-25,0.6616175214034491,1.1777340094249142,2.2339825475977477,,,,,,,,,,,,
39111,0,USOhioMonroe,Ohio,Monroe,2022-04-28 09:13:11,2021-03-26,0.6616175214034491,1.1777340094249142,2.2339825475977477,,,,,,,,,,,,
39111,0,USOhioMonroe,Ohio,Monroe,2022-04-28 09:13:11,2021-03-27,0.6616175214034491,1.1777340094249142,2.2339825475977477,,,,,,,,,,,,
39111,0,USOhioMonroe,Ohio,Monroe,2022-04-28 09:13:11,2021-03-28,0.6616175214034491,1.1777340094249142,2.2339825475977477,,,,,,,,,,,,
39111,0,USOhioMonroe,Ohio,Monroe,2022-04-28 09:13:11,2021-03-29,0.6616175214034491,1.1777340094249142,2.2339825475977477,,,,,,,,,,,,
39111,0,USOhioMonroe,Ohio,Monroe,2022-04-28 09:13:11,2021-03-30,0.6616175214034491,1.1777340094249142,2.2339825475977477,,,,,,,,,,,,
39111,0,USOhioMonroe,Ohio,Monroe,2022-04-28 09:13:11,2021-03-31,0.6616175214034491,1.1777340094249142,2.2339825475977477,,,,,,,,,,,,
39111,0,USOhioMonroe,Ohio,Monroe,2022-04-28 09:13:11,2021-04-01,0.646514444151231,1.1735792688361488,2.272962468653961,,,,,,,,,,,,
39111,0,USOhioMonroe,Ohio,Monroe,2022-04-28 09:13:11,2021-04-02,0.646514444151231,1.1735792688361488,2.272962468653961,,,,,,,,,,,,
39111,0,USOhioMonroe,Ohio,Monroe,2022-04-28 09:13:11,2021-04-03,0.646514444151231,1.1735792688361488,2.272962468653961,,,,,,,,,,,,
39111,0,USOhioMonroe,Ohio,Monroe,2022-04-28 09:13:11,2021-04-04,0.646514444151231,1.1735792688361488,2.272962468653961,,,,,,,,,,,,
39111,0,USOhioMonroe,Ohio,Monroe,2022-04-28 09:13:11,2021-04-05,0.646514444151231,1.1735792688361488,2.272962468653961,,,,,,,,,,,,
39111,0,USOhioMonroe,Ohio,Monroe,2022-04-28 09:13:11,2021-04-06,0.646514444151231,1.1735792688361488,2.272962468653961,,,,,,,,,,,,
39111,0,USOhioMonroe,Ohio,Monroe,2022-04-28 09:13:11,2021-04-07,0.646514444151231,1.1735792688361488,2.272962468653961,,,,,,,,,,,,
39111,0,USOhioMonroe,Ohio,Monroe,2022-04-28 09:13:11,2021-04-08,0.30208816599653404,0.688005454616691,1.6855606045072948,,,,,,,,,,,,
39111,0,USOhioMonroe,Ohio,Monroe,2022-04-28 09:13:11,2021-04-09,0.30208816599653404,0.688005454616691,1.6855606045072948,,,,,,,,,,,,
39111,0,USOhioMonroe,Ohio,Monroe,2022-04-28 09:13:11,2021-04-10,0.30208816599653404,0.688005454616691,1.6855606045072948,,,,,,,,,,,,
39111,0,USOhioMonroe,Ohio,Monroe,2022-04-28 09:13:11,2021-04-11,0.30208816599653404,0.688005454616691,1.6855606045072948,,,,,,,,,,,,
39111,0,USOhioMonroe,Ohio,Monroe,2022-04-28 09:13:11,2021-04-12,0.30208816599653404,0.688005454616691,1.6855606045072948,,,,,,,,,,,,
39111,0,USOhioMonroe,Ohio,Monroe,2022-04-28 09:13:11,2021-04-13,0.30208816599653404,0.688005454616691,1.6855606045072948,,,,,,,,,,,,
39111,0,USOhioMonroe,Ohio,Monroe,2022-04-28 09:13:11,2021-04-14,0.30208816599653404,0.688005454616691,1.6855606045072948,,,,,,,,,,,,
39111,0,USOhioMonroe,Ohio,Monroe,2022-04-28 09:13:11,2021-04-15,0.14230912706913848,0.3958763484201145,1.1837434548548964,,,,,,,,,,,,
39111,0,USOhioMonroe,Ohio,Monroe,2022-04-28 09:13:11,2021-04-16,0.14230912706913848,0.3958763484201145,1.1837434548548964,,,,,,,,,,,,
39111,0,USOhioMonroe,Ohio,Monroe,2022-04-28 09:13:11,2021-04-17,0.14230912706913848,0.3958763484201145,1.1837434548548964,,,,,,,,,,,,
39111,0,USOhioMonroe,Ohio,Monroe,2022-04-28 09:13:11,2021-04-18,0.14230912706913848,0.3958763484201145,1.1837434548548964,,,,,,,,,,,,
39111,0,USOhioMonroe,Ohio,Monroe,2022-04-28 09:13:11,2021-04-19,0.14230912706913848,0.3958763484201145,1.1837434548548964,,,,,,,,,,,,
39111,0,USOhioMonroe,Ohio,Monroe,2022-04-28 09:13:11,2021-04-20,0.14230912706913848,0.3958763484201145,1.1837434548548964,,,,,,,,,,,,
39111,0,USOhioMonroe,Ohio,Monroe,2022-04-28 09:13:11,2021-04-21,0.14230912706913848,0.3958763484201145,1.1837434548548964,,,,,,,,,,,,
39111,0,USOhioMonroe,Ohio,Monroe,2022-04-28 09:13:11,2021-04-22,0.1922341678018182,0.32794275038540777,0.5942975205113803,,,,,,,,,,,,
39111,0,USOhioMonroe,Ohio,Monroe,2022-04-28 09:13:11,2021-04-23,0.1922341678018182,0.32794275038540777,0.5942975205113803,,,,,,,,,,,,
39111,0,USOhioMonroe,Ohio,Monroe,2022-04-28 09:13:11,2021-04-24,0.1922341678018182,0.32794275038540777,0.5942975205113803,,,,,,,,,,,,
39111,0,USOhioMonroe,Ohio,Monroe,2022-04-28 09:13:11,2021-04-25,0.1922341678018182,0.32794275038540777,0.5942975205113803,,,,,,,,,,,,
39111,0,USOhioMonroe,Ohio,Monroe,2022-04-28 09:13:11,2021-04-26,0.1922341678018182,0.32794275038540777,0.5942975205113803,,,,,,,,,,,,
39111,0,USOhioMonroe,Ohio,Monroe,2022-04-28 09:13:11,2021-04-27,0.1922341678018182,0.32794275038540777,0.5942975205113803,,,,,,,,,,,,
39111,0,USOhioMonroe,Ohio,Monroe,2022-04-28 09:13:11,2021-04-28,0.1922341678018182,0.32794275038540777,0.5942975205113803,,,,,,,,,,,,
39111,0,USOhioMonroe,Ohio,Monroe,2022-04-28 09:13:11,2021-04-29,0.4439943379765953,0.8112897210218635,1.5823300716165642,,,,,,,,,,,,
39111,0,USOhioMonroe,Ohio,Monroe,2022-04-28 09:13:11,2021-04-30,0.4439943379765953,0.8112897210218635,1.5823300716165642,,,,,,,,,,,,
39111,0,USOhioMonroe,Ohio,Monroe,2022-04-28 09:13:11,2021-05-01,0.4439943379765953,0.8112897210218635,1.5823300716165642,,,,,,,,,,,,
39111,0,USOhioMonroe,Ohio,Monroe,2022-04-28 09:13:11,2021-05-02,0.4439943379765953,0.8112897210218635,1.5823300716165642,,,,,,,,,,,,
39111,0,USOhioMonroe,Ohio,Monroe,2022-04-28 09:13:11,2021-05-03,0.4439943379765953,0.8112897210218635,1.5823300716165642,,,,,,,,,,,,
39111,0,USOhioMonroe,Ohio,Monroe,2022-04-28 09:13:11,2021-05-04,0.4439943379765953,0.8112897210218635,1.5823300716165642,,,,,,,,,,,,
39111,0,USOhioMonroe,Ohio,Monroe,2022-04-28 09:13:11,2021-05-05,0.4439943379765953,0.8112897210218635,1.5823300716165642,,,,,,,,,,,,
39111,0,USOhioMonroe,Ohio,Monroe,2022-04-28 09:13:11,2021-05-06,0.3665961074673747,0.6894839401159478,1.3864402923357138,,,,,,,,,,,,
39111,0,USOhioMonroe,Ohio,Monroe,2022-04-28 09:13:11,2021-05-07,0.3665961074673747,0.6894839401159478,1.3864402923357138,,,,,,,,,,,,
39111,0,USOhioMonroe,Ohio,Monroe,2022-04-28 09:13:11,2021-05-08,0.3665961074673747,0.6894839401159478,1.3864402923357138,,,,,,,,,,,,
39111,0,USOhioMonroe,Ohio,Monroe,2022-04-28 09:13:11,2021-05-09,0.3665961074673747,0.6894839401159478,1.3864402923357138,,,,,,,,,,,,
39111,0,USOhioMonroe,Ohio,Monroe,2022-04-28 09:13:11,2021-05-10,0.3665961074673747,0.6894839401159478,1.3864402923357138,,,,,,,,,,,,
39111,0,USOhioMonroe,Ohio,Monroe,2022-04-28 09:13:11,2021-05-11,0.3665961074673747,0.6894839401159478,1.3864402923357138,,,,,,,,,,,,
39111,0,USOhioMonroe,Ohio,Monroe,2022-04-28 09:13:11,2021-05-12,0.3665961074673747,0.6894839401159478,1.3864402923357138,,,,,,,,,,,,
39111,0,USOhioMonroe,Ohio,Monroe,2022-04-28 09:13:11,2021-05-13,0.18451490954594071,0.41169481211654463,0.9878418698234179,,,,,,,,,,,,
39111,0,USOhioMonroe,Ohio,Monroe,2022-04-28 09:13:11,2021-05-14,0.18451490954594071,0.41169481211654463,0.9878418698234179,,,,,,,,,,,,
39111,0,USOhioMonroe,Ohio,Monroe,2022-04-28 09:13:11,2021-05-15,0.18451490954594071,0.41169481211654463,0.9878418698234179,,,,,,,,,,,,
39111,0,USOhioMonroe,Ohio,Monroe,2022-04-28 09:13:11,2021-05-16,0.18451490954594071,0.41169481211654463,0.9878418698234179,,,,,,,,,,,,
39111,0,USOhioMonroe,Ohio,Monroe,2022-04-28 09:13:11,2021-05-17,0.18451490954594071,0.41169481211654463,0.9878418698234179,,,,,,,,,,,,
39111,0,USOhioMonroe,Ohio,Monroe,2022-04-28 09:13:11,2021-05-18,0.18451490954594071,0.41169481211654463,0.9878418698234179,,,,,,,,,,,,
39111,0,USOhioMonroe,Ohio,Monroe,2022-04-28 09:13:11,2021-05-19,0.18451490954594071,0.41169481211654463,0.9878418698234179,,,,,,,,,,,,
39111,0,USOhioMonroe,Ohio,Monroe,2022-04-28 09:13:11,2021-05-20,0.3147794727222522,0.6084076130958004,1.2589835773108295,,,,,,,,,,,,
39111,0,USOhioMonroe,Ohio,Monroe,2022-04-28 09:13:11,2021-05-21,0.3147794727222522,0.6084076130958004,1.2589835773108295,,,,,,,,,,,,
39111,0,USOhioMonroe,Ohio,Monroe,2022-04-28 09:13:11,2021-05-22,0.3147794727222522,0.6084076130958004,1.2589835773108295,,,,,,,,,,,,
39111,0,USOhioMonroe,Ohio,Monroe,2022-04-28 09:13:11,2021-05-23,0.3147794727222522,0.6084076130958004,1.2589835773108295,,,,,,,,,,,,
39111,0,USOhioMonroe,Ohio,Monroe,2022-04-28 09:13:11,2021-05-24,0.3147794727222522,0.6084076130958004,1.2589835773108295,,,,,,,,,,,,
39111,0,USOhioMonroe,Ohio,Monroe,2022-04-28 09:13:11,2021-05-25,0.3147794727222522,0.6084076130958004,1.2589835773108295,,,,,,,,,,,,
39111,0,USOhioMonroe,Ohio,Monroe,2022-04-28 09:13:11,2021-05-26,0.3147794727222522,0.6084076130958004,1.2589835773108295,,,,,,,,,,,,
39111,0,USOhioMonroe,Ohio,Monroe,2022-04-28 09:13:11,2021-05-27,0.3726618768669074,0.6178063214673435,1.0854224778501016,,,,,,,,,,,,
39111,0,USOhioMonroe,Ohio,Monroe,2022-04-28 09:13:11,2021-05-28,0.3726618768669074,0.6178063214673435,1.0854224778501016,,,,,,,,,,,,
39111,0,USOhioMonroe,Ohio,Monroe,2022-04-28 09:13:11,2021-05-29,0.3726618768669074,0.6178063214673435,1.0854224778501016,,,,,,,,,,,,
39111,0,USOhioMonroe,Ohio,Monroe,2022-04-28 09:13:11,2021-05-30,0.3726618768669074,0.6178063214673435,1.0854224778501016,,,,,,,,,,,,
39111,0,USOhioMonroe,Ohio,Monroe,2022-04-28 09:13:11,2021-05-31,0.3726618768669074,0.6178063214673435,1.0854224778501016,,,,,,,,,,,,
39111,0,USOhioMonroe,Ohio,Monroe,2022-04-28 09:13:11,2021-06-01,0.3726618768669074,0.6178063214673435,1.0854224778501016,,,,,,,,,,,,
39111,0,USOhioMonroe,Ohio,Monroe,2022-04-28 09:13:11,2021-06-02,0.3726618768669074,0.6178063214673435,1.0854224778501016,,,,,,,,,,,,
39111,0,USOhioMonroe,Ohio,Monroe,2022-04-28 09:13:11,2021-06-03,0.1626178691793275,0.3237872233584749,0.6911141717896033,,,,,,,,,,,,
39111,0,USOhioMonroe,Ohio,Monroe,2022-04-28 09:13:11,2021-06-04,0.1626178691793275,0.3237872233584749,0.6911141717896033,,,,,,,,,,,,
39111,0,USOhioMonroe,Ohio,Monroe,2022-04-28 09:13:11,2021-06-05,0.1626178691793275,0.3237872233584749,0.6911141717896033,,,,,,,,,,,,
39111,0,USOhioMonroe,Ohio,Monroe,2022-04-28 09:13:11,2021-06-06,0.1626178691793275,0.3237872233584749,0.6911141717896033,,,,,,,,,,,,
39111,0,USOhioMonroe,Ohio,Monroe,2022-04-28 09:13:11,2021-06-07,0.1626178691793275,0.3237872233584749,0.6911141717896033,,,,,,,,,,,,
39111,0,USOhioMonroe,Ohio,Monroe,2022-04-28 09:13:11,2021-06-08,0.1626178691793275,0.3237872233584749,0.6911141717896033,,,,,,,,,,,,
39111,0,USOhioMonroe,Ohio,Monroe,2022-04-28 09:13:11,2021-06-09,0.1626178691793275,0.3237872233584749,0.6911141717896033,,,,,,,,,,,,
39111,0,USOhioMonroe,Ohio,Monroe,2022-04-28 09:13:11,2021-06-10,0.15508442725492744,0.2957451738433724,0.603420864330769,,,,,,,,,,,,
39111,0,USOhioMonroe,Ohio,Monroe,2022-04-28 09:13:11,2021-06-11,0.15508442725492744,0.2957451738433724,0.603420864330769,,,,,,,,,,,,
39111,0,USOhioMonroe,Ohio,Monroe,2022-04-28 09:13:11,2021-06-12,0.15508442725492744,0.2957451738433724,0.603420864330769,,,,,,,,,,,,
39111,0,USOhioMonroe,Ohio,Monroe,2022-04-28 09:13:11,2021-06-13,0.15508442725492744,0.2957451738433724,0.603420864330769,,,,,,,,,,,,
39111,0,USOhioMonroe,Ohio,Monroe,2022-04-28 09:13:11,2021-06-14,0.15508442725492744,0.2957451738433724,0.603420864330769,,,,,,,,,,,,
39111,0,USOhioMonroe,Ohio,Monroe,2022-04-28 09:13:11,2021-06-15,0.15508442725492744,0.2957451738433724,0.603420864330769,,,,,,,,,,,,
39111,0,USOhioMonroe,Ohio,Monroe,2022-04-28 09:13:11,2021-06-16,0.15508442725492744,0.2957451738433724,0.603420864330769,,,,,,,,,,,,
39111,0,USOhioMonroe,Ohio,Monroe,2022-04-28 09:13:11,2021-06-17,0,0,0,,,,,,,,,,,,
39111,0,USOhioMonroe,Ohio,Monroe,2022-04-28 09:13:11,2021-06-18,0,0,0,,,,,,,,,,,,
39111,0,USOhioMonroe,Ohio,Monroe,2022-04-28 09:13:11,2021-06-19,0,0,0,,,,,,,,,,,,
39111,0,USOhioMonroe,Ohio,Monroe,2022-04-28 09:13:11,2021-06-20,0,0,0,,,,,,,,,,,,
39111,0,USOhioMonroe,Ohio,Monroe,2022-04-28 09:13:11,2021-06-21,0,0,0,,,,,,,,,,,,
39111,0,USOhioMonroe,Ohio,Monroe,2022-04-28 09:13:11,2021-06-22,0,0,0,,,,,,,,,,,,
39111,0,USOhioMonroe,Ohio,Monroe,2022-04-28 09:13:11,2021-06-23,0,0,0,,,,,,,,,,,,
39111,0,USOhioMonroe,Ohio,Monroe,2022-04-28 09:13:11,2021-06-24,0.0447088662230071,0.11815683994963384,0.33590343908799164,,,,,,,,,,,,
39111,0,USOhioMonroe,Ohio,Monroe,2022-04-28 09:13:11,2021-06-25,0.0447088662230071,0.11815683994963384,0.33590343908799164,,,,,,,,,,,,
39111,0,USOhioMonroe,Ohio,Monroe,2022-04-28 09:13:11,2021-06-26,0.0447088662230071,0.11815683994963384,0.33590343908799164,,,,,,,,,,,,
39111,0,USOhioMonroe,Ohio,Monroe,2022-04-28 09:13:11,2021-06-27,0.0447088662230071,0.11815683994963384,0.33590343908799164,,,,,,,,,,,,
39111,0,USOhioMonroe,Ohio,Monroe,2022-04-28 09:13:11,2021-06-28,0.0447088662230071,0.11815683994963384,0.33590343908799164,,,,,,,,,,,,
39111,0,USOhioMonroe,Ohio,Monroe,2022-04-28 09:13:11,2021-06-29,0.0447088662230071,0.11815683994963384,0.33590343908799164,,,,,,,,,,,,
39111,0,USOhioMonroe,Ohio,Monroe,2022-04-28 09:13:11,2021-06-30,0.0447088662230071,0.11815683994963384,0.33590343908799164,,,,,,,,,,,,
39111,0,USOhioMonroe,Ohio,Monroe,2022-04-28 09:13:11,2021-07-01,0.10552874057583549,0.2255500577465835,0.517969731509633,,,,,,,,,,,,
39111,0,USOhioMonroe,Ohio,Monroe,2022-04-28 09:13:11,2021-07-02,0.10552874057583549,0.2255500577465835,0.517969731509633,,,,,,,,,,,,
39111,0,USOhioMonroe,Ohio,Monroe,2022-04-28 09:13:11,2021-07-03,0.10552874057583549,0.2255500577465835,0.517969731509633,,,,,,,,,,,,
39111,0,USOhioMonroe,Ohio,Monroe,2022-04-28 09:13:11,2021-07-04,0.10552874057583549,0.2255500577465835,0.517969731509633,,,,,,,,,,,,
39111,0,USOhioMonroe,Ohio,Monroe,2022-04-28 09:13:11,2021-07-05,0.10552874057583549,0.2255500577465835,0.517969731509633,,,,,,,,,,,,
39111,0,USOhioMonroe,Ohio,Monroe,2022-04-28 09:13:11,2021-07-06,0.10552874057583549,0.2255500577465835,0.517969731509633,,,,,,,,,,,,
39111,0,USOhioMonroe,Ohio,Monroe,2022-04-28 09:13:11,2021-07-07,0.10552874057583549,0.2255500577465835,0.517969731509633,,,,,,,,,,,,
39111,0,USOhioMonroe,Ohio,Monroe,2022-04-28 09:13:11,2021-07-08,0.1891645861918249,0.366141701255909,0.7587956730514277,,,,,,,,,,,,
39111,0,USOhioMonroe,Ohio,Monroe,2022-04-28 09:13:11,2021-07-09,0.1891645861918249,0.366141701255909,0.7587956730514277,,,,,,,,,,,,
39111,0,USOhioMonroe,Ohio,Monroe,2022-04-28 09:13:11,2021-07-10,0.1891645861918249,0.366141701255909,0.7587956730514277,,,,,,,,,,,,
39111,0,USOhioMonroe,Ohio,Monroe,2022-04-28 09:13:11,2021-07-11,0.1891645861918249,0.366141701255909,0.7587956730514277,,,,,,,,,,,,
39111,0,USOhioMonroe,Ohio,Monroe,2022-04-28 09:13:11,2021-07-12,0.1891645861918249,0.366141701255909,0.7587956730514277,,,,,,,,,,,,
39111,0,USOhioMonroe,Ohio,Monroe,2022-04-28 09:13:11,2021-07-13,0.1891645861918249,0.366141701255909,0.7587956730514277,,,,,,,,,,,,
39111,0,USOhioMonroe,Ohio,Monroe,2022-04-28 09:13:11,2021-07-14,0.1891645861918249,0.366141701255909,0.7587956730514277,,,,,,,,,,,,
39111,0,USOhioMonroe,Ohio,Monroe,2022-04-28 09:13:11,2021-07-15,0.056514819662960236,0.18243565930472647,0.6306933334392633,,,,,,,,,,,,
39111,0,USOhioMonroe,Ohio,Monroe,2022-04-28 09:13:11,2021-07-16,0.056514819662960236,0.18243565930472647,0.6306933334392633,,,,,,,,,,,,
39111,0,USOhioMonroe,Ohio,Monroe,2022-04-28 09:13:11,2021-07-17,0.056514819662960236,0.18243565930472647,0.6306933334392633,,,,,,,,,,,,
39111,0,USOhioMonroe,Ohio,Monroe,2022-04-28 09:13:11,2021-07-18,0.056514819662960236,0.18243565930472647,0.6306933334392633,,,,,,,,,,,,
39111,0,USOhioMonroe,Ohio,Monroe,2022-04-28 09:13:11,2021-07-19,0.056514819662960236,0.18243565930472647,0.6306933334392633,,,,,,,,,,,,
39111,0,USOhioMonroe,Ohio,Monroe,2022-04-28 09:13:11,2021-07-20,0.056514819662960236,0.18243565930472647,0.6306933334392633,,,,,,,,,,,,
39111,0,USOhioMonroe,Ohio,Monroe,2022-04-28 09:13:11,2021-07-21,0.056514819662960236,0.18243565930472647,0.6306933334392633,,,,,,,,,,,,
39111,0,USOhioMonroe,Ohio,Monroe,2022-04-28 09:13:11,2021-07-22,0.20390634653462544,0.49719084162073357,1.3046561998969495,,,,,,,,,,,,
39111,0,USOhioMonroe,Ohio,Monroe,2022-04-28 09:13:11,2021-07-23,0.20390634653462544,0.49719084162073357,1.3046561998969495,,,,,,,,,,,,
39111,0,USOhioMonroe,Ohio,Monroe,2022-04-28 09:13:11,2021-07-24,0.20390634653462544,0.49719084162073357,1.3046561998969495,,,,,,,,,,,,
39111,0,USOhioMonroe,Ohio,Monroe,2022-04-28 09:13:11,2021-07-25,0.20390634653462544,0.49719084162073357,1.3046561998969495,,,,,,,,,,,,
39111,0,USOhioMonroe,Ohio,Monroe,2022-04-28 09:13:11,2021-07-26,0.20390634653462544,0.49719084162073357,1.3046561998969495,,,,,,,,,,,,
39111,0,USOhioMonroe,Ohio,Monroe,2022-04-28 09:13:11,2021-07-27,0.20390634653462544,0.49719084162073357,1.3046561998969495,,,,,,,,,,,,
39111,0,USOhioMonroe,Ohio,Monroe,2022-04-28 09:13:11,2021-07-28,0.20390634653462544,0.49719084162073357,1.3046561998969495,,,,,,,,,,,,
39111,0,USOhioMonroe,Ohio,Monroe,2022-04-28 09:13:11,2021-07-29,0.5148495124721865,1.0152180302409486,2.1451791249720245,,,,,,,,,,,,
39111,0,USOhioMonroe,Ohio,Monroe,2022-04-28 09:13:11,2021-07-30,0.5148495124721865,1.0152180302409486,2.1451791249720245,,,,,,,,,,,,
39111,0,USOhioMonroe,Ohio,Monroe,2022-04-28 09:13:11,2021-07-31,0.5148495124721865,1.0152180302409486,2.1451791249720245,,,,,,,,,,,,
39111,0,USOhioMonroe,Ohio,Monroe,2022-04-28 09:13:11,2021-08-01,0.5148495124721865,1.0152180302409486,2.1451791249720245,,,,,,,,,,,,
39111,0,USOhioMonroe,Ohio,Monroe,2022-04-28 09:13:11,2021-08-02,0.5148495124721865,1.0152180302409486,2.1451791249720245,,,,,,,,,,,,
39111,0,USOhioMonroe,Ohio,Monroe,2022-04-28 09:13:11,2021-08-03,0.5148495124721865,1.0152180302409486,2.1451791249720245,,,,,,,,,,,,
39111,0,USOhioMonroe,Ohio,Monroe,2022-04-28 09:13:11,2021-08-04,0.5148495124721865,1.0152180302409486,2.1451791249720245,,,,,,,,,,,,
39111,0,USOhioMonroe,Ohio,Monroe,2022-04-28 09:13:11,2021-08-05,0.7503242328512484,1.4412298594061863,2.962958363258503,,,,,,,,,,,,
39111,0,USOhioMonroe,Ohio,Monroe,2022-04-28 09:13:11,2021-08-06,0.7503242328512484,1.4412298594061863,2.962958363258503,,,,,,,,,,,,
39111,0,USOhioMonroe,Ohio,Monroe,2022-04-28 09:13:11,2021-08-07,0.7503242328512484,1.4412298594061863,2.962958363258503,,,,,,,,,,,,
39111,0,USOhioMonroe,Ohio,Monroe,2022-04-28 09:13:11,2021-08-08,0.7503242328512484,1.4412298594061863,2.962958363258503,,,,,,,,,,,,
39111,0,USOhioMonroe,Ohio,Monroe,2022-04-28 09:13:11,2021-08-09,0.7503242328512484,1.4412298594061863,2.962958363258503,,,,,,,,,,,,
39111,0,USOhioMonroe,Ohio,Monroe,2022-04-28 09:13:11,2021-08-10,0.7503242328512484,1.4412298594061863,2.962958363258503,,,,,,,,,,,,
39111,0,USOhioMonroe,Ohio,Monroe,2022-04-28 09:13:11,2021-08-11,0.7503242328512484,1.4412298594061863,2.962958363258503,,,,,,,,,,,,
39111,0,USOhioMonroe,Ohio,Monroe,2022-04-28 09:13:11,2021-08-12,0.8287850389467228,1.565556457504684,3.162545049617258,,,,,,,,,,,,
39111,0,USOhioMonroe,Ohio,Monroe,2022-04-28 09:13:11,2021-08-13,0.8287850389467228,1.565556457504684,3.162545049617258,,,,,,,,,,,,
39111,0,USOhioMonroe,Ohio,Monroe,2022-04-28 09:13:11,2021-08-14,0.8287850389467228,1.565556457504684,3.162545049617258,,,,,,,,,,,,
39111,0,USOhioMonroe,Ohio,Monroe,2022-04-28 09:13:11,2021-08-15,0.8287850389467228,1.565556457504684,3.162545049617258,,,,,,,,,,,,
39111,0,USOhioMonroe,Ohio,Monroe,2022-04-28 09:13:11,2021-08-16,0.8287850389467228,1.565556457504684,3.162545049617258,,,,,,,,,,,,
39111,0,USOhioMonroe,Ohio,Monroe,2022-04-28 09:13:11,2021-08-17,0.8287850389467228,1.565556457504684,3.162545049617258,,,,,,,,,,,,
39111,0,USOhioMonroe,Ohio,Monroe,2022-04-28 09:13:11,2021-08-18,0.8287850389467228,1.565556457504684,3.162545049617258,,,,,,,,,,,,
39111,0,USOhioMonroe,Ohio,Monroe,2022-04-28 09:13:11,2021-08-19,1.1032512814380055,2.080927059561205,4.19707200829064,,,,,,,,,,,,
39111,0,USOhioMonroe,Ohio,Monroe,2022-04-28 09:13:11,2021-08-20,1.1032512814380055,2.080927059561205,4.19707200829064,,,,,,,,,,,,
39111,0,USOhioMonroe,Ohio,Monroe,2022-04-28 09:13:11,2021-08-21,1.1032512814380055,2.080927059561205,4.19707200829064,,,,,,,,,,,,
39111,0,USOhioMonroe,Ohio,Monroe,2022-04-28 09:13:11,2021-08-22,1.1032512814380055,2.080927059561205,4.19707200829064,,,,,,,,,,,,
39111,0,USOhioMonroe,Ohio,Monroe,2022-04-28 09:13:11,2021-08-23,1.1032512814380055,2.080927059561205,4.19707200829064,,,,,,,,,,,,
39111,0,USOhioMonroe,Ohio,Monroe,2022-04-28 09:13:11,2021-08-24,1.1032512814380055,2.080927059561205,4.19707200829064,,,,,,,,,,,,
39111,0,USOhioMonroe,Ohio,Monroe,2022-04-28 09:13:11,2021-08-25,1.1032512814380055,2.080927059561205,4.19707200829064,,,,,,,,,,,,
39111,0,USOhioMonroe,Ohio,Monroe,2022-04-28 09:13:11,2021-08-26,1.8936919834019719,3.145137710981469,5.536656867108535,,,,,,,,,,,,
39111,0,USOhioMonroe,Ohio,Monroe,2022-04-28 09:13:11,2021-08-27,1.8936919834019719,3.145137710981469,5.536656867108535,,,,,,,,,,,,
39111,0,USOhioMonroe,Ohio,Monroe,2022-04-28 09:13:11,2021-08-28,1.8936919834019719,3.145137710981469,5.536656867108535,,,,,,,,,,,,
39111,0,USOhioMonroe,Ohio,Monroe,2022-04-28 09:13:11,2021-08-29,1.8936919834019719,3.145137710981469,5.536656867108535,,,,,,,,,,,,
39111,0,USOhioMonroe,Ohio,Monroe,2022-04-28 09:13:11,2021-08-30,1.8936919834019719,3.145137710981469,5.536656867108535,,,,,,,,,,,,
39111,0,USOhioMonroe,Ohio,Monroe,2022-04-28 09:13:11,2021-08-31,1.8936919834019719,3.145137710981469,5.536656867108535,,,,,,,,,,,,
39111,0,USOhioMonroe,Ohio,Monroe,2022-04-28 09:13:11,2021-09-01,1.8936919834019719,3.145137710981469,5.536656867108535,,,,,,,,,,,,
39111,0,USOhioMonroe,Ohio,Monroe,2022-04-28 09:13:11,2021-09-02,2.4401164555493406,3.9149579580937988,6.636772773018238,,,,,,,,,,,,
39111,0,USOhioMonroe,Ohio,Monroe,2022-04-28 09:13:11,2021-09-03,2.4401164555493406,3.9149579580937988,6.636772773018238,,,,,,,,,,,,
39111,0,USOhioMonroe,Ohio,Monroe,2022-04-28 09:13:11,2021-09-04,2.4401164555493406,3.9149579580937988,6.636772773018238,,,,,,,,,,,,
39111,0,USOhioMonroe,Ohio,Monroe,2022-04-28 09:13:11,2021-09-05,2.4401164555493406,3.9149579580937988,6.636772773018238,,,,,,,,,,,,
39111,0,USOhioMonroe,Ohio,Monroe,2022-04-28 09:13:11,2021-09-06,2.4401164555493406,3.9149579580937988,6.636772773018238,,,,,,,,,,,,
39111,0,USOhioMonroe,Ohio,Monroe,2022-04-28 09:13:11,2021-09-07,2.4401164555493406,3.9149579580937988,6.636772773018238,,,,,,,,,,,,
39111,0,USOhioMonroe,Ohio,Monroe,2022-04-28 09:13:11,2021-09-08,2.4401164555493406,3.9149579580937988,6.636772773018238,,,,,,,,,,,,
39111,0,USOhioMonroe,Ohio,Monroe,2022-04-28 09:13:11,2021-09-09,3.343940255799907,5.086264476242256,8.129648183571197,,,,,,,,,,,,
39111,0,USOhioMonroe,Ohio,Monroe,2022-04-28 09:13:11,2021-09-10,3.343940255799907,5.086264476242256,8.129648183571197,,,,,,,,,,,,
39111,0,USOhioMonroe,Ohio,Monroe,2022-04-28 09:13:11,2021-09-11,3.343940255799907,5.086264476242256,8.129648183571197,,,,,,,,,,,,
39111,0,USOhioMonroe,Ohio,Monroe,2022-04-28 09:13:11,2021-09-12,3.343940255799907,5.086264476242256,8.129648183571197,,,,,,,,,,,,
39111,0,USOhioMonroe,Ohio,Monroe,2022-04-28 09:13:11,2021-09-13,3.343940255799907,5.086264476242256,8.129648183571197,,,,,,,,,,,,
39111,0,USOhioMonroe,Ohio,Monroe,2022-04-28 09:13:11,2021-09-14,3.343940255799907,5.086264476242256,8.129648183571197,,,,,,,,,,,,
39111,0,USOhioMonroe,Ohio,Monroe,2022-04-28 09:13:11,2021-09-15,3.343940255799907,5.086264476242256,8.129648183571197,,,,,,,,,,,,
39111,0,USOhioMonroe,Ohio,Monroe,2022-04-28 09:13:11,2021-09-16,2.7813203820112293,4.362197861306297,7.212740761653913,,,,,,,,,,,,
39111,0,USOhioMonroe,Ohio,Monroe,2022-04-28 09:13:11,2021-09-17,2.7813203820112293,4.362197861306297,7.212740761653913,,,,,,,,,,,,
39111,0,USOhioMonroe,Ohio,Monroe,2022-04-28 09:13:11,2021-09-18,2.7813203820112293,4.362197861306297,7.212740761653913,,,,,,,,,,,,
39111,0,USOhioMonroe,Ohio,Monroe,2022-04-28 09:13:11,2021-09-19,2.7813203820112293,4.362197861306297,7.212740761653913,,,,,,,,,,,,
39111,0,USOhioMonroe,Ohio,Monroe,2022-04-28 09:13:11,2021-09-20,2.7813203820112293,4.362197861306297,7.212740761653913,,,,,,,,,,,,
39111,0,USOhioMonroe,Ohio,Monroe,2022-04-28 09:13:11,2021-09-21,2.7813203820112293,4.362197861306297,7.212740761653913,,,,,,,,,,,,
39111,0,USOhioMonroe,Ohio,Monroe,2022-04-28 09:13:11,2021-09-22,2.7813203820112293,4.362197861306297,7.212740761653913,,,,,,,,,,,,
39111,0,USOhioMonroe,Ohio,Monroe,2022-04-28 09:13:11,2021-09-23,1.9286350842242963,3.257372810628495,5.8394774464291626,,,,,,,,,,,,
39111,0,USOhioMonroe,Ohio,Monroe,2022-04-28 09:13:11,2021-09-24,1.9286350842242963,3.257372810628495,5.8394774464291626,,,,,,,,,,,,
39111,0,USOhioMonroe,Ohio,Monroe,2022-04-28 09:13:11,2021-09-25,1.9286350842242963,3.257372810628495,5.8394774464291626,,,,,,,,,,,,
39111,0,USOhioMonroe,Ohio,Monroe,2022-04-28 09:13:11,2021-09-26,1.9286350842242963,3.257372810628495,5.8394774464291626,,,,,,,,,,,,
39111,0,USOhioMonroe,Ohio,Monroe,2022-04-28 09:13:11,2021-09-27,1.9286350842242963,3.257372810628495,5.8394774464291626,,,,,,,,,,,,
39111,0,USOhioMonroe,Ohio,Monroe,2022-04-28 09:13:11,2021-09-28,1.9286350842242963,3.257372810628495,5.8394774464291626,,,,,,,,,,,,
39111,0,USOhioMonroe,Ohio,Monroe,2022-04-28 09:13:11,2021-09-29,1.9286350842242963,3.257372810628495,5.8394774464291626,,,,,,,,,,,,
39111,0,USOhioMonroe,Ohio,Monroe,2022-04-28 09:13:11,2021-09-30,1.7544717621775354,3.0316932450365957,5.570483394348817,,,,,,,,,,,,
39111,0,USOhioMonroe,Ohio,Monroe,2022-04-28 09:13:11,2021-10-01,1.7544717621775354,3.0316932450365957,5.570483394348817,,,,,,,,,,,,
39111,0,USOhioMonroe,Ohio,Monroe,2022-04-28 09:13:11,2021-10-02,1.7544717621775354,3.0316932450365957,5.570483394348817,,,,,,,,,,,,
39111,0,USOhioMonroe,Ohio,Monroe,2022-04-28 09:13:11,2021-10-03,1.7544717621775354,3.0316932450365957,5.570483394348817,,,,,,,,,,,,
39111,0,USOhioMonroe,Ohio,Monroe,2022-04-28 09:13:11,2021-10-04,1.7544717621775354,3.0316932450365957,5.570483394348817,,,,,,,,,,,,
39111,0,USOhioMonroe,Ohio,Monroe,2022-04-28 09:13:11,2021-10-05,1.7544717621775354,3.0316932450365957,5.570483394348817,,,,,,,,,,,,
39111,0,USOhioMonroe,Ohio,Monroe,2022-04-28 09:13:11,2021-10-06,1.7544717621775354,3.0316932450365957,5.570483394348817,,,,,,,,,,,,
39111,0,USOhioMonroe,Ohio,Monroe,2022-04-28 09:13:11,2021-10-07,1.624945389098539,2.8233630938305847,5.218457298536348,,,,,,,,,,,,
39111,0,USOhioMonroe,Ohio,Monroe,2022-04-28 09:13:11,2021-10-08,1.624945389098539,2.8233630938305847,5.218457298536348,,,,,,,,,,,,
39111,0,USOhioMonroe,Ohio,Monroe,2022-04-28 09:13:11,2021-10-09,1.624945389098539,2.8233630938305847,5.218457298536348,,,,,,,,,,,,
39111,0,USOhioMonroe,Ohio,Monroe,2022-04-28 09:13:11,2021-10-10,1.624945389098539,2.8233630938305847,5.218457298536348,,,,,,,,,,,,
39111,0,USOhioMonroe,Ohio,Monroe,2022-04-28 09:13:11,2021-10-11,1.624945389098539,2.8233630938305847,5.218457298536348,,,,,,,,,,,,
39111,0,USOhioMonroe,Ohio,Monroe,2022-04-28 09:13:11,2021-10-12,1.624945389098539,2.8233630938305847,5.218457298536348,,,,,,,,,,,,
39111,0,USOhioMonroe,Ohio,Monroe,2022-04-28 09:13:11,2021-10-13,1.624945389098539,2.8233630938305847,5.218457298536348,,,,,,,,,,,,
39111,0,USOhioMonroe,Ohio,Monroe,2022-04-28 09:13:11,2021-10-14,1.451619762072297,2.513905831723312,4.630052419638885,,,,,,,,,,,,
39111,0,USOhioMonroe,Ohio,Monroe,2022-04-28 09:13:11,2021-10-15,1.451619762072297,2.513905831723312,4.630052419638885,,,,,,,,,,,,
39111,0,USOhioMonroe,Ohio,Monroe,2022-04-28 09:13:11,2021-10-16,1.451619762072297,2.513905831723312,4.630052419638885,,,,,,,,,,,,
39111,0,USOhioMonroe,Ohio,Monroe,2022-04-28 09:13:11,2021-10-17,1.451619762072297,2.513905831723312,4.630052419638885,,,,,,,,,,,,
39111,0,USOhioMonroe,Ohio,Monroe,2022-04-28 09:13:11,2021-10-18,1.451619762072297,2.513905831723312,4.630052419638885,,,,,,,,,,,,
39111,0,USOhioMonroe,Ohio,Monroe,2022-04-28 09:13:11,2021-10-19,1.451619762072297,2.513905831723312,4.630052419638885,,,,,,,,,,,,
39111,0,USOhioMonroe,Ohio,Monroe,2022-04-28 09:13:11,2021-10-20,1.451619762072297,2.513905831723312,4.630052419638885,,,,,,,,,,,,
39111,0,USOhioMonroe,Ohio,Monroe,2022-04-28 09:13:11,2021-10-21,0.9649621757520845,1.8461758541252937,3.7797189675702043,,,,,,,,,,,,
39111,0,USOhioMonroe,Ohio,Monroe,2022-04-28 09:13:11,2021-10-22,0.9649621757520845,1.8461758541252937,3.7797189675702043,,,,,,,,,,,,
39111,0,USOhioMonroe,Ohio,Monroe,2022-04-28 09:13:11,2021-10-23,0.9649621757520845,1.8461758541252937,3.7797189675702043,,,,,,,,,,,,
39111,0,USOhioMonroe,Ohio,Monroe,2022-04-28 09:13:11,2021-10-24,0.9649621757520845,1.8461758541252937,3.7797189675702043,,,,,,,,,,,,
39111,0,USOhioMonroe,Ohio,Monroe,2022-04-28 09:13:11,2021-10-25,0.9649621757520845,1.8461758541252937,3.7797189675702043,,,,,,,,,,,,
39111,0,USOhioMonroe,Ohio,Monroe,2022-04-28 09:13:11,2021-10-26,0.9649621757520845,1.8461758541252937,3.7797189675702043,,,,,,,,,,,,
39111,0,USOhioMonroe,Ohio,Monroe,2022-04-28 09:13:11,2021-10-27,0.9649621757520845,1.8461758541252937,3.7797189675702043,,,,,,,,,,,,
39111,0,USOhioMonroe,Ohio,Monroe,2022-04-28 09:13:11,2021-10-28,1.0578418994725232,2.022996353787989,4.139842023562674,,,,,,,,,,,,
39111,0,USOhioMonroe,Ohio,Monroe,2022-04-28 09:13:11,2021-10-29,1.0578418994725232,2.022996353787989,4.139842023562674,,,,,,,,,,,,
39111,0,USOhioMonroe,Ohio,Monroe,2022-04-28 09:13:11,2021-10-30,1.0578418994725232,2.022996353787989,4.139842023562674,,,,,,,,,,,,
39111,0,USOhioMonroe,Ohio,Monroe,2022-04-28 09:13:11,2021-10-31,1.0578418994725232,2.022996353787989,4.139842023562674,,,,,,,,,,,,
39111,0,USOhioMonroe,Ohio,Monroe,2022-04-28 09:13:11,2021-11-01,1.0578418994725232,2.022996353787989,4.139842023562674,,,,,,,,,,,,
39111,0,USOhioMonroe,Ohio,Monroe,2022-04-28 09:13:11,2021-11-02,1.0578418994725232,2.022996353787989,4.139842023562674,,,,,,,,,,,,
39111,0,USOhioMonroe,Ohio,Monroe,2022-04-28 09:13:11,2021-11-03,1.0578418994725232,2.022996353787989,4.139842023562674,,,,,,,,,,,,
39111,0,USOhioMonroe,Ohio,Monroe,2022-04-28 09:13:11,2021-11-04,0.8368461085782766,1.7745278080143916,4.04223869123387,,,,,,,,,,,,
39111,0,USOhioMonroe,Ohio,Monroe,2022-04-28 09:13:11,2021-11-05,0.8368461085782766,1.7745278080143916,4.04223869123387,,,,,,,,,,,,
39111,0,USOhioMonroe,Ohio,Monroe,2022-04-28 09:13:11,2021-11-06,0.8368461085782766,1.7745278080143916,4.04223869123387,,,,,,,,,,,,
39111,0,USOhioMonroe,Ohio,Monroe,2022-04-28 09:13:11,2021-11-07,0.8368461085782766,1.7745278080143916,4.04223869123387,,,,,,,,,,,,
39111,0,USOhioMonroe,Ohio,Monroe,2022-04-28 09:13:11,2021-11-08,0.8368461085782766,1.7745278080143916,4.04223869123387,,,,,,,,,,,,
39111,0,USOhioMonroe,Ohio,Monroe,2022-04-28 09:13:11,2021-11-09,0.8368461085782766,1.7745278080143916,4.04223869123387,,,,,,,,,,,,
39111,0,USOhioMonroe,Ohio,Monroe,2022-04-28 09:13:11,2021-11-10,0.8368461085782766,1.7745278080143916,4.04223869123387,,,,,,,,,,,,
39111,0,USOhioMonroe,Ohio,Monroe,2022-04-28 09:13:11,2021-11-11,0.9472880061461029,2.019928996876747,4.6275820355921935,,,,,,,,,,,,
39111,0,USOhioMonroe,Ohio,Monroe,2022-04-28 09:13:11,2021-11-12,0.9472880061461029,2.019928996876747,4.6275820355921935,,,,,,,,,,,,
39111,0,USOhioMonroe,Ohio,Monroe,2022-04-28 09:13:11,2021-11-13,0.9472880061461029,2.019928996876747,4.6275820355921935,,,,,,,,,,,,
39111,0,USOhioMonroe,Ohio,Monroe,2022-04-28 09:13:11,2021-11-14,0.9472880061461029,2.019928996876747,4.6275820355921935,,,,,,,,,,,,
39111,0,USOhioMonroe,Ohio,Monroe,2022-04-28 09:13:11,2021-11-15,0.9472880061461029,2.019928996876747,4.6275820355921935,,,,,,,,,,,,
39111,0,USOhioMonroe,Ohio,Monroe,2022-04-28 09:13:11,2021-11-16,0.9472880061461029,2.019928996876747,4.6275820355921935,,,,,,,,,,,,
39111,0,USOhioMonroe,Ohio,Monroe,2022-04-28 09:13:11,2021-11-17,0.9472880061461029,2.019928996876747,4.6275820355921935,,,,,,,,,,,,
39111,0,USOhioMonroe,Ohio,Monroe,2022-04-28 09:13:11,2021-11-18,1.265694468128275,2.5151991696888305,5.357724515325156,,,,,,,,,,,,
39111,0,USOhioMonroe,Ohio,Monroe,2022-04-28 09:13:11,2021-11-19,1.265694468128275,2.5151991696888305,5.357724515325156,,,,,,,,,,,,
39111,0,USOhioMonroe,Ohio,Monroe,2022-04-28 09:13:11,2021-11-20,1.265694468128275,2.5151991696888305,5.357724515325156,,,,,,,,,,,,
39111,0,USOhioMonroe,Ohio,Monroe,2022-04-28 09:13:11,2021-11-21,1.265694468128275,2.5151991696888305,5.357724515325156,,,,,,,,,,,,
39111,0,USOhioMonroe,Ohio,Monroe,2022-04-28 09:13:11,2021-11-22,1.265694468128275,2.5151991696888305,5.357724515325156,,,,,,,,,,,,
39111,0,USOhioMonroe,Ohio,Monroe,2022-04-28 09:13:11,2021-11-23,1.265694468128275,2.5151991696888305,5.357724515325156,,,,,,,,,,,,
39111,0,USOhioMonroe,Ohio,Monroe,2022-04-28 09:13:11,2021-11-24,1.265694468128275,2.5151991696888305,5.357724515325156,,,,,,,,,,,,
39111,0,USOhioMonroe,Ohio,Monroe,2022-04-28 09:13:11,2021-11-25,1.6061300525631261,3.162120903936734,6.6707170394353215,,,,,,,,,,,,
39111,0,USOhioMonroe,Ohio,Monroe,2022-04-28 09:13:11,2021-11-26,1.6061300525631261,3.162120903936734,6.6707170394353215,,,,,,,,,,,,
39111,0,USOhioMonroe,Ohio,Monroe,2022-04-28 09:13:11,2021-11-27,1.6061300525631261,3.162120903936734,6.6707170394353215,,,,,,,,,,,,
39111,0,USOhioMonroe,Ohio,Monroe,2022-04-28 09:13:11,2021-11-28,1.6061300525631261,3.162120903936734,6.6707170394353215,,,,,,,,,,,,
39111,0,USOhioMonroe,Ohio,Monroe,2022-04-28 09:13:11,2021-11-29,1.6061300525631261,3.162120903936734,6.6707170394353215,,,,,,,,,,,,
39111,0,USOhioMonroe,Ohio,Monroe,2022-04-28 09:13:11,2021-11-30,1.6061300525631261,3.162120903936734,6.6707170394353215,,,,,,,,,,,,
39111,0,USOhioMonroe,Ohio,Monroe,2022-04-28 09:13:11,2021-12-01,1.6061300525631261,3.162120903936734,6.6707170394353215,,,,,,,,,,,,
39111,0,USOhioMonroe,Ohio,Monroe,2022-04-28 09:13:11,2021-12-02,1.5537587475742198,3.201535591768783,7.080601158914071,,,,,,,,,,,,
39111,0,USOhioMonroe,Ohio,Monroe,2022-04-28 09:13:11,2021-12-03,1.5537587475742198,3.201535591768783,7.080601158914071,,,,,,,,,,,,
39111,0,USOhioMonroe,Ohio,Monroe,2022-04-28 09:13:11,2021-12-04,1.5537587475742198,3.201535591768783,7.080601158914071,,,,,,,,,,,,
39111,0,USOhioMonroe,Ohio,Monroe,2022-04-28 09:13:11,2021-12-05,1.5537587475742198,3.201535591768783,7.080601158914071,,,,,,,,,,,,
39111,0,USOhioMonroe,Ohio,Monroe,2022-04-28 09:13:11,2021-12-06,1.5537587475742198,3.201535591768783,7.080601158914071,,,,,,,,,,,,
39111,0,USOhioMonroe,Ohio,Monroe,2022-04-28 09:13:11,2021-12-07,1.5537587475742198,3.201535591768783,7.080601158914071,,,,,,,,,,,,
39111,0,USOhioMonroe,Ohio,Monroe,2022-04-28 09:13:11,2021-12-08,1.5537587475742198,3.201535591768783,7.080601158914071,,,,,,,,,,,,
39111,0,USOhioMonroe,Ohio,Monroe,2022-04-28 09:13:11,2021-12-09,1.9345453062028304,3.503382391917732,6.768264050422099,,,,,,,,,,,,
39111,0,USOhioMonroe,Ohio,Monroe,2022-04-28 09:13:11,2021-12-10,1.9345453062028304,3.503382391917732,6.768264050422099,,,,,,,,,,,,
39111,0,USOhioMonroe,Ohio,Monroe,2022-04-28 09:13:11,2021-12-11,1.9345453062028304,3.503382391917732,6.768264050422099,,,,,,,,,,,,
39111,0,USOhioMonroe,Ohio,Monroe,2022-04-28 09:13:11,2021-12-12,1.9345453062028304,3.503382391917732,6.768264050422099,,,,,,,,,,,,
39111,0,USOhioMonroe,Ohio,Monroe,2022-04-28 09:13:11,2021-12-13,1.9345453062028304,3.503382391917732,6.768264050422099,,,,,,,,,,,,
39111,0,USOhioMonroe,Ohio,Monroe,2022-04-28 09:13:11,2021-12-14,1.9345453062028304,3.503382391917732,6.768264050422099,,,,,,,,,,,,
39111,0,USOhioMonroe,Ohio,Monroe,2022-04-28 09:13:11,2021-12-15,1.9345453062028304,3.503382391917732,6.768264050422099,,,,,,,,,,,,
39111,0,USOhioMonroe,Ohio,Monroe,2022-04-28 09:13:11,2021-12-16,2.0505122715698305,3.9162324001434943,8.003143547073131,,,,,,,,,,,,
39111,0,USOhioMonroe,Ohio,Monroe,2022-04-28 09:13:11,2021-12-17,2.0505122715698305,3.9162324001434943,8.003143547073131,,,,,,,,,,,,
39111,0,USOhioMonroe,Ohio,Monroe,2022-04-28 09:13:11,2021-12-18,2.0505122715698305,3.9162324001434943,8.003143547073131,,,,,,,,,,,,
39111,0,USOhioMonroe,Ohio,Monroe,2022-04-28 09:13:11,2021-12-19,2.0505122715698305,3.9162324001434943,8.003143547073131,,,,,,,,,,,,
39111,0,USOhioMonroe,Ohio,Monroe,2022-04-28 09:13:11,2021-12-20,2.0505122715698305,3.9162324001434943,8.003143547073131,,,,,,,,,,,,
39111,0,USOhioMonroe,Ohio,Monroe,2022-04-28 09:13:11,2021-12-21,2.0505122715698305,3.9162324001434943,8.003143547073131,,,,,,,,,,,,
39111,0,USOhioMonroe,Ohio,Monroe,2022-04-28 09:13:11,2021-12-22,2.0505122715698305,3.9162324001434943,8.003143547073131,,,,,,,,,,,,
39111,0,USOhioMonroe,Ohio,Monroe,2022-04-28 09:13:11,2021-12-23,2.2048773092261738,4.4981083850200525,9.846176062197106,,,,,,,,,,,,
39111,0,USOhioMonroe,Ohio,Monroe,2022-04-28 09:13:11,2021-12-24,2.2048773092261738,4.4981083850200525,9.846176062197106,,,,,,,,,,,,
39111,0,USOhioMonroe,Ohio,Monroe,2022-04-28 09:13:11,2021-12-25,2.2048773092261738,4.4981083850200525,9.846176062197106,,,,,,,,,,,,
39111,0,USOhioMonroe,Ohio,Monroe,2022-04-28 09:13:11,2021-12-26,2.2048773092261738,4.4981083850200525,9.846176062197106,,,,,,,,,,,,
39111,0,USOhioMonroe,Ohio,Monroe,2022-04-28 09:13:11,2021-12-27,2.2048773092261738,4.4981083850200525,9.846176062197106,,,,,,,,,,,,
39111,0,USOhioMonroe,Ohio,Monroe,2022-04-28 09:13:11,2021-12-28,2.2048773092261738,4.4981083850200525,9.846176062197106,,,,,,,,,,,,
39111,0,USOhioMonroe,Ohio,Monroe,2022-04-28 09:13:11,2021-12-29,2.2048773092261738,4.4981083850200525,9.846176062197106,,,,,,,,,,,,
39111,0,USOhioMonroe,Ohio,Monroe,2022-04-28 09:13:11,2021-12-30,2.80370097067826,5.422820289981024,11.229754228401264,,,,,,,,,,,,
39111,0,USOhioMonroe,Ohio,Monroe,2022-04-28 09:13:11,2021-12-31,2.80370097067826,5.422820289981024,11.229754228401264,,,,,,,,,,,,
39111,0,USOhioMonroe,Ohio,Monroe,2022-04-28 09:13:11,2022-01-01,2.80370097067826,5.422820289981024,11.229754228401264,,,,,,,,,,,,
39111,0,USOhioMonroe,Ohio,Monroe,2022-04-28 09:13:11,2022-01-02,2.80370097067826,5.422820289981024,11.229754228401264,,,,,,,,,,,,
39111,0,USOhioMonroe,Ohio,Monroe,2022-04-28 09:13:11,2022-01-03,2.80370097067826,5.422820289981024,11.229754228401264,,,,,,,,,,,,
39111,0,USOhioMonroe,Ohio,Monroe,2022-04-28 09:13:11,2022-01-04,2.80370097067826,5.422820289981024,11.229754228401264,,,,,,,,,,,,
39111,0,USOhioMonroe,Ohio,Monroe,2022-04-28 09:13:11,2022-01-05,2.80370097067826,5.422820289981024,11.229754228401264,,,,,,,,,,,,
39111,0,USOhioMonroe,Ohio,Monroe,2022-04-28 09:13:11,2022-01-06,4.178198589230879,7.048979196827032,12.621565044757283,,,,,,,,,,,,
39111,0,USOhioMonroe,Ohio,Monroe,2022-04-28 09:13:11,2022-01-07,4.178198589230879,7.048979196827032,12.621565044757283,,,,,,,,,,,,
39111,0,USOhioMonroe,Ohio,Monroe,2022-04-28 09:13:11,2022-01-08,4.178198589230879,7.048979196827032,12.621565044757283,,,,,,,,,,,,
39111,0,USOhioMonroe,Ohio,Monroe,2022-04-28 09:13:11,2022-01-09,4.178198589230879,7.048979196827032,12.621565044757283,,,,,,,,,,,,
39111,0,USOhioMonroe,Ohio,Monroe,2022-04-28 09:13:11,2022-01-10,4.178198589230879,7.048979196827032,12.621565044757283,,,,,,,,,,,,
39111,0,USOhioMonroe,Ohio,Monroe,2022-04-28 09:13:11,2022-01-11,4.178198589230879,7.048979196827032,12.621565044757283,,,,,,,,,,,,
39111,0,USOhioMonroe,Ohio,Monroe,2022-04-28 09:13:11,2022-01-12,4.178198589230879,7.048979196827032,12.621565044757283,,,,,,,,,,,,
39111,0,USOhioMonroe,Ohio,Monroe,2022-04-28 09:13:11,2022-01-13,5.5592542401424545,9.545901885825756,17.421158404306368,,,,,,,,,,,,
39111,0,USOhioMonroe,Ohio,Monroe,2022-04-28 09:13:11,2022-01-14,5.5592542401424545,9.545901885825756,17.421158404306368,,,,,,,,,,,,
39111,0,USOhioMonroe,Ohio,Monroe,2022-04-28 09:13:11,2022-01-15,5.5592542401424545,9.545901885825756,17.421158404306368,,,,,,,,,,,,
39111,0,USOhioMonroe,Ohio,Monroe,2022-04-28 09:13:11,2022-01-16,5.5592542401424545,9.545901885825756,17.421158404306368,,,,,,,,,,,,
39111,0,USOhioMonroe,Ohio,Monroe,2022-04-28 09:13:11,2022-01-17,5.5592542401424545,9.545901885825756,17.421158404306368,,,,,,,,,,,,
39111,0,USOhioMonroe,Ohio,Monroe,2022-04-28 09:13:11,2022-01-18,5.5592542401424545,9.545901885825756,17.421158404306368,,,,,,,,,,,,
39111,0,USOhioMonroe,Ohio,Monroe,2022-04-28 09:13:11,2022-01-19,5.5592542401424545,9.545901885825756,17.421158404306368,,,,,,,,,,,,
39111,0,USOhioMonroe,Ohio,Monroe,2022-04-28 09:13:11,2022-01-20,5.359745778828408,8.54924826074302,14.400611453341385,,,,,,,,,,,,
39111,0,USOhioMonroe,Ohio,Monroe,2022-04-28 09:13:11,2022-01-21,5.359745778828408,8.54924826074302,14.400611453341385,,,,,,,,,,,,
39111,0,USOhioMonroe,Ohio,Monroe,2022-04-28 09:13:11,2022-01-22,5.359745778828408,8.54924826074302,14.400611453341385,,,,,,,,,,,,
39111,0,USOhioMonroe,Ohio,Monroe,2022-04-28 09:13:11,2022-01-23,5.359745778828408,8.54924826074302,14.400611453341385,,,,,,,,,,,,
39111,0,USOhioMonroe,Ohio,Monroe,2022-04-28 09:13:11,2022-01-24,5.359745778828408,8.54924826074302,14.400611453341385,,,,,,,,,,,,
39111,0,USOhioMonroe,Ohio,Monroe,2022-04-28 09:13:11,2022-01-25,5.359745778828408,8.54924826074302,14.400611453341385,,,,,,,,,,,,
39111,0,USOhioMonroe,Ohio,Monroe,2022-04-28 09:13:11,2022-01-26,5.359745778828408,8.54924826074302,14.400611453341385,,,,,,,,,,,,
39111,0,USOhioMonroe,Ohio,Monroe,2022-04-28 09:13:11,2022-01-27,2.7177747454358805,4.722476478404082,8.729224983219442,,,,,,,,,,,,
39111,0,USOhioMonroe,Ohio,Monroe,2022-04-28 09:13:11,2022-01-28,2.7177747454358805,4.722476478404082,8.729224983219442,,,,,,,,,,,,
39111,0,USOhioMonroe,Ohio,Monroe,2022-04-28 09:13:11,2022-01-29,2.7177747454358805,4.722476478404082,8.729224983219442,,,,,,,,,,,,
39111,0,USOhioMonroe,Ohio,Monroe,2022-04-28 09:13:11,2022-01-30,2.7177747454358805,4.722476478404082,8.729224983219442,,,,,,,,,,,,
39111,0,USOhioMonroe,Ohio,Monroe,2022-04-28 09:13:11,2022-01-31,2.7177747454358805,4.722476478404082,8.729224983219442,,,,,,,,,,,,
39111,0,USOhioMonroe,Ohio,Monroe,2022-04-28 09:13:11,2022-02-01,2.7177747454358805,4.722476478404082,8.729224983219442,,,,,,,,,,,,
39111,0,USOhioMonroe,Ohio,Monroe,2022-04-28 09:13:11,2022-02-02,2.7177747454358805,4.722476478404082,8.729224983219442,,,,,,,,,,,,
39111,0,USOhioMonroe,Ohio,Monroe,2022-04-28 09:13:11,2022-02-03,1.1186600316405433,2.2508409333216646,4.856988870389481,,,,,,,,,,,,
39111,0,USOhioMonroe,Ohio,Monroe,2022-04-28 09:13:11,2022-02-04,1.1186600316405433,2.2508409333216646,4.856988870389481,,,,,,,,,,,,
39111,0,USOhioMonroe,Ohio,Monroe,2022-04-28 09:13:11,2022-02-05,1.1186600316405433,2.2508409333216646,4.856988870389481,,,,,,,,,,,,
39111,0,USOhioMonroe,Ohio,Monroe,2022-04-28 09:13:11,2022-02-06,1.1186600316405433,2.2508409333216646,4.856988870389481,,,,,,,,,,,,
39111,0,USOhioMonroe,Ohio,Monroe,2022-04-28 09:13:11,2022-02-07,1.1186600316405433,2.2508409333216646,4.856988870389481,,,,,,,,,,,,
39111,0,USOhioMonroe,Ohio,Monroe,2022-04-28 09:13:11,2022-02-08,1.1186600316405433,2.2508409333216646,4.856988870389481,,,,,,,,,,,,
39111,0,USOhioMonroe,Ohio,Monroe,2022-04-28 09:13:11,2022-02-09,1.1186600316405433,2.2508409333216646,4.856988870389481,,,,,,,,,,,,
39111,0,USOhioMonroe,Ohio,Monroe,2022-04-28 09:13:11,2022-02-10,0.864668127357761,1.642329218393201,3.336844097096634,,,,,,,,,,,,
39111,0,USOhioMonroe,Ohio,Monroe,2022-04-28 09:13:11,2022-02-11,0.864668127357761,1.642329218393201,3.336844097096634,,,,,,,,,,,,
39111,0,USOhioMonroe,Ohio,Monroe,2022-04-28 09:13:11,2022-02-12,0.864668127357761,1.642329218393201,3.336844097096634,,,,,,,,,,,,
39111,0,USOhioMonroe,Ohio,Monroe,2022-04-28 09:13:11,2022-02-13,0.864668127357761,1.642329218393201,3.336844097096634,,,,,,,,,,,,
39111,0,USOhioMonroe,Ohio,Monroe,2022-04-28 09:13:11,2022-02-14,0.864668127357761,1.642329218393201,3.336844097096634,,,,,,,,,,,,
39111,0,USOhioMonroe,Ohio,Monroe,2022-04-28 09:13:11,2022-02-15,0.864668127357761,1.642329218393201,3.336844097096634,,,,,,,,,,,,
39111,0,USOhioMonroe,Ohio,Monroe,2022-04-28 09:13:11,2022-02-16,0.864668127357761,1.642329218393201,3.336844097096634,,,,,,,,,,,,
39111,0,USOhioMonroe,Ohio,Monroe,2022-04-28 09:13:11,2022-02-17,0.5126563125583131,1.006978530261166,2.1191773334484414,,,,,,,,,,,,
39111,0,USOhioMonroe,Ohio,Monroe,2022-04-28 09:13:11,2022-02-18,0.5126563125583131,1.006978530261166,2.1191773334484414,,,,,,,,,,,,
39111,0,USOhioMonroe,Ohio,Monroe,2022-04-28 09:13:11,2022-02-19,0.5126563125583131,1.006978530261166,2.1191773334484414,,,,,,,,,,,,
39111,0,USOhioMonroe,Ohio,Monroe,2022-04-28 09:13:11,2022-02-20,0.5126563125583131,1.006978530261166,2.1191773334484414,,,,,,,,,,,,
39111,0,USOhioMonroe,Ohio,Monroe,2022-04-28 09:13:11,2022-02-21,0.5126563125583131,1.006978530261166,2.1191773334484414,,,,,,,,,,,,
39111,0,USOhioMonroe,Ohio,Monroe,2022-04-28 09:13:11,2022-02-22,0.5126563125583131,1.006978530261166,2.1191773334484414,,,,,,,,,,,,
39111,0,USOhioMonroe,Ohio,Monroe,2022-04-28 09:13:11,2022-02-23,0.5126563125583131,1.006978530261166,2.1191773334484414,,,,,,,,,,,,
39111,0,USOhioMonroe,Ohio,Monroe,2022-04-28 09:13:11,2022-02-24,0.5364549568456504,0.986398103308917,1.9366776272310018,,,,,,,,,,,,
39111,0,USOhioMonroe,Ohio,Monroe,2022-04-28 09:13:11,2022-02-25,0.5364549568456504,0.986398103308917,1.9366776272310018,,,,,,,,,,,,
39111,0,USOhioMonroe,Ohio,Monroe,2022-04-28 09:13:11,2022-02-26,0.5364549568456504,0.986398103308917,1.9366776272310018,,,,,,,,,,,,
39111,0,USOhioMonroe,Ohio,Monroe,2022-04-28 09:13:11,2022-02-27,0.5364549568456504,0.986398103308917,1.9366776272310018,,,,,,,,,,,,
39111,0,USOhioMonroe,Ohio,Monroe,2022-04-28 09:13:11,2022-02-28,0.5364549568456504,0.986398103308917,1.9366776272310018,,,,,,,,,,,,
39111,0,USOhioMonroe,Ohio,Monroe,2022-04-28 09:13:11,2022-03-01,0.5364549568456504,0.986398103308917,1.9366776272310018,,,,,,,,,,,,
39111,0,USOhioMonroe,Ohio,Monroe,2022-04-28 09:13:11,2022-03-02,0.5364549568456504,0.986398103308917,1.9366776272310018,,,,,,,,,,,,
39111,0,USOhioMonroe,Ohio,Monroe,2022-04-28 09:13:11,2022-03-03,0.2984496002192827,0.6047942665298426,1.3147216843801484,,,,,,,,,,,,
39111,0,USOhioMonroe,Ohio,Monroe,2022-04-28 09:13:11,2022-03-04,0.2984496002192827,0.6047942665298426,1.3147216843801484,,,,,,,,,,,,
39111,0,USOhioMonroe,Ohio,Monroe,2022-04-28 09:13:11,2022-03-05,0.2984496002192827,0.6047942665298426,1.3147216843801484,,,,,,,,,,,,
39111,0,USOhioMonroe,Ohio,Monroe,2022-04-28 09:13:11,2022-03-06,0.2984496002192827,0.6047942665298426,1.3147216843801484,,,,,,,,,,,,
39111,0,USOhioMonroe,Ohio,Monroe,2022-04-28 09:13:11,2022-03-07,0.2984496002192827,0.6047942665298426,1.3147216843801484,,,,,,,,,,,,
39111,0,USOhioMonroe,Ohio,Monroe,2022-04-28 09:13:11,2022-03-08,0.2984496002192827,0.6047942665298426,1.3147216843801484,,,,,,,,,,,,
39111,0,USOhioMonroe,Ohio,Monroe,2022-04-28 09:13:11,2022-03-09,0.2984496002192827,0.6047942665298426,1.3147216843801484,,,,,,,,,,,,
39111,0,USOhioMonroe,Ohio,Monroe,2022-04-28 09:13:11,2022-03-10,0.20193756916684819,0.41474505137197987,0.914189425864602,,,,,,,,,,,,
39111,0,USOhioMonroe,Ohio,Monroe,2022-04-28 09:13:11,2022-03-11,0.20193756916684819,0.41474505137197987,0.914189425864602,,,,,,,,,,,,
39111,0,USOhioMonroe,Ohio,Monroe,2022-04-28 09:13:11,2022-03-12,0.20193756916684819,0.41474505137197987,0.914189425864602,,,,,,,,,,,,
39111,0,USOhioMonroe,Ohio,Monroe,2022-04-28 09:13:11,2022-03-13,0.20193756916684819,0.41474505137197987,0.914189425864602,,,,,,,,,,,,
39111,0,USOhioMonroe,Ohio,Monroe,2022-04-28 09:13:11,2022-03-14,0.20193756916684819,0.41474505137197987,0.914189425864602,,,,,,,,,,,,
39111,0,USOhioMonroe,Ohio,Monroe,2022-04-28 09:13:11,2022-03-15,0.20193756916684819,0.41474505137197987,0.914189425864602,,,,,,,,,,,,
39111,0,USOhioMonroe,Ohio,Monroe,2022-04-28 09:13:11,2022-03-16,0.20193756916684819,0.41474505137197987,0.914189425864602,,,,,,,,,,,,
39111,0,USOhioMonroe,Ohio,Monroe,2022-04-28 09:13:11,2022-03-17,0.1598669065467393,0.3829237741357905,0.9870314886784579,,,,,,,,,,,,
39111,0,USOhioMonroe,Ohio,Monroe,2022-04-28 09:13:11,2022-03-18,0.1598669065467393,0.3829237741357905,0.9870314886784579,,,,,,,,,,,,
39111,0,USOhioMonroe,Ohio,Monroe,2022-04-28 09:13:11,2022-03-19,0.1598669065467393,0.3829237741357905,0.9870314886784579,,,,,,,,,,,,
39111,0,USOhioMonroe,Ohio,Monroe,2022-04-28 09:13:11,2022-03-20,0.1598669065467393,0.3829237741357905,0.9870314886784579,,,,,,,,,,,,
39111,0,USOhioMonroe,Ohio,Monroe,2022-04-28 09:13:11,2022-03-21,0.1598669065467393,0.3829237741357905,0.9870314886784579,,,,,,,,,,,,
39111,0,USOhioMonroe,Ohio,Monroe,2022-04-28 09:13:11,2022-03-22,0.1598669065467393,0.3829237741357905,0.9870314886784579,,,,,,,,,,,,
39111,0,USOhioMonroe,Ohio,Monroe,2022-04-28 09:13:11,2022-03-23,0.1598669065467393,0.3829237741357905,0.9870314886784579,,,,,,,,,,,,
39111,0,USOhioMonroe,Ohio,Monroe,2022-04-28 09:13:11,2022-03-24,0.35517619276092716,0.6489643312567661,1.2656658440798367,,,,,,,,,,,,
39111,0,USOhioMonroe,Ohio,Monroe,2022-04-28 09:13:11,2022-03-25,0.35517619276092716,0.6489643312567661,1.2656658440798367,,,,,,,,,,,,
39111,0,USOhioMonroe,Ohio,Monroe,2022-04-28 09:13:11,2022-03-26,0.35517619276092716,0.6489643312567661,1.2656658440798367,,,,,,,,,,,,
39111,0,USOhioMonroe,Ohio,Monroe,2022-04-28 09:13:11,2022-03-27,0.35517619276092716,0.6489643312567661,1.2656658440798367,,,,,,,,,,,,
39111,0,USOhioMonroe,Ohio,Monroe,2022-04-28 09:13:11,2022-03-28,0.35517619276092716,0.6489643312567661,1.2656658440798367,,,,,,,,,,,,
39111,0,USOhioMonroe,Ohio,Monroe,2022-04-28 09:13:11,2022-03-29,0.35517619276092716,0.6489643312567661,1.2656658440798367,,,,,,,,,,,,
39111,0,USOhioMonroe,Ohio,Monroe,2022-04-28 09:13:11,2022-03-30,0.35517619276092716,0.6489643312567661,1.2656658440798367,,,,,,,,,,,,
39111,0,USOhioMonroe,Ohio,Monroe,2022-04-28 09:13:11,2022-03-31,0.11961581662927193,0.28591049900480486,0.7354161860360386,,,,,,,,,,,,
39111,0,USOhioMonroe,Ohio,Monroe,2022-04-28 09:13:11,2022-04-01,0.11961581662927193,0.28591049900480486,0.7354161860360386,,,,,,,,,,,,
39111,0,USOhioMonroe,Ohio,Monroe,2022-04-28 09:13:11,2022-04-02,0.11961581662927193,0.28591049900480486,0.7354161860360386,,,,,,,,,,,,
39111,0,USOhioMonroe,Ohio,Monroe,2022-04-28 09:13:11,2022-04-03,0.11961581662927193,0.28591049900480486,0.7354161860360386,,,,,,,,,,,,
39111,0,USOhioMonroe,Ohio,Monroe,2022-04-28 09:13:11,2022-04-04,0.11961581662927193,0.28591049900480486,0.7354161860360386,,,,,,,,,,,,
39111,0,USOhioMonroe,Ohio,Monroe,2022-04-28 09:13:11,2022-04-05,0.11961581662927193,0.28591049900480486,0.7354161860360386,,,,,,,,,,,,
39111,0,USOhioMonroe,Ohio,Monroe,2022-04-28 09:13:11,2022-04-06,0.11961581662927193,0.28591049900480486,0.7354161860360386,,,,,,,,,,,,
