FIPS,HR_UID,nameid,province,region,analysisTime,dates,pointprevalence_025,pointprevalence_50,pointprevalence_975,pointinfections_025,pointinfections_50,pointinfections_975,pointinfectious_025,pointinfectious_50,pointinfectious_975,pointinfectiousprevalence_05,pointinfectiousprevalence_50,pointinfectiousprevalence_95,infectrate_025,infectrate_50,infectrate_975
0,0,DominicanRepublic,,,2022-03-22 20:42:56.412323,2021-08-27,0.00229746,0.01006717,0.05512803,249,1092,5980,90,688,3326,0.00083293,0.00635113,0.03066600,0.34922929,0.71865347,1.50837878
0,0,DominicanRepublic,,,2022-03-22 20:42:56.412323,2021-08-28,0.00319606,0.01196801,0.05863654,346,1298,6360,146,781,3492,0.00135308,0.00720613,0.03219737,0.34922995,0.71865352,1.50837603
0,0,DominicanRepublic,,,2022-03-22 20:42:56.412323,2021-08-29,0.00439899,0.01426166,0.06241428,477,1547,6770,212,924,3803,0.00195936,0.00852666,0.03506459,0.34923203,0.71865366,1.50836741
0,0,DominicanRepublic,,,2022-03-22 20:42:56.412323,2021-08-30,0.00608254,0.01700196,0.06593475,659,1844,7152,296,1106,4148,0.00273036,0.01020274,0.03824535,0.34923853,0.71865411,1.50834038
0,0,DominicanRepublic,,,2022-03-22 20:42:56.412323,2021-08-31,0.00841327,0.02003643,0.07011899,912,2173,7606,412,1312,4497,0.00380157,0.01209954,0.04146165,0.34925892,0.71865551,1.50825563
0,0,DominicanRepublic,,,2022-03-22 20:42:56.412323,2021-09-01,0.01154280,0.02358095,0.07407614,1252,2558,8035,572,1561,4865,0.00528100,0.01438994,0.04485393,0.34932284,0.71865991,1.50798998
0,0,DominicanRepublic,,,2022-03-22 20:42:56.412323,2021-09-02,0.01580575,0.02757465,0.07816171,1714,2991,8478,783,1826,5210,0.00722167,0.01683997,0.04802948,0.34952318,0.71867367,1.50715807
0,0,DominicanRepublic,,,2022-03-22 20:42:56.412323,2021-09-03,0.02112504,0.03231048,0.08273035,2291,3505,8974,1072,2120,5557,0.00988611,0.01954380,0.05123264,0.35015027,0.71871672,1.50456010
0,0,DominicanRepublic,,,2022-03-22 20:42:56.412323,2021-09-04,0.02689735,0.03788406,0.08676681,2917,4109,9412,1466,2485,5899,0.01351666,0.02291024,0.05438604,0.35210574,0.71885047,1.49651707
0,0,DominicanRepublic,,,2022-03-22 20:42:56.412323,2021-09-05,0.03195911,0.04575903,0.09161861,3466,4963,9938,1916,2883,6230,0.01766652,0.02658380,0.05743102,0.35813206,0.71925816,1.47227224
0,0,DominicanRepublic,,,2022-03-22 20:42:56.412323,2021-09-06,0.03833774,0.05616122,0.09704723,4158,6092,10527,2416,3323,6593,0.02227567,0.03063773,0.06078471,0.37604265,0.72045286,1.40471780
0,0,DominicanRepublic,,,2022-03-22 20:42:56.412323,2021-09-07,0.04242564,0.06975364,0.10391557,4602,7566,11272,2883,3999,7026,0.02658432,0.03686733,0.06477622,0.42137494,0.72461008,1.25174344
0,0,DominicanRepublic,,,2022-03-22 20:42:56.412323,2021-09-08,0.04743293,0.08329097,0.11376476,5145,9035,12341,3270,4937,7536,0.03014607,0.04552029,0.06947158,0.51026320,0.73176321,1.02565211
0,0,DominicanRepublic,,,2022-03-22 20:42:56.412323,2021-09-09,0.05412275,0.09482474,0.12745182,5871,10286,13825,3731,5944,8247,0.03440154,0.05480145,0.07602757,0.59702982,0.72674347,0.83911877
0,0,DominicanRepublic,,,2022-03-22 20:42:56.412323,2021-09-10,0.06301051,0.10876912,0.14364714,6835,11799,15582,4218,6882,9149,0.03889068,0.06344777,0.08434700,0.63310976,0.71738828,0.75284486
0,0,DominicanRepublic,,,2022-03-22 20:42:56.412323,2021-09-11,0.07357621,0.12513139,0.16248153,7981,13574,17625,4867,7923,10324,0.04486890,0.07304265,0.09517252,0.65005547,0.70504936,0.74683256
0,0,DominicanRepublic,,,2022-03-22 20:42:56.412323,2021-09-12,0.08606122,0.14346773,0.18427699,9335,15563,19990,5668,9094,11564,0.05225624,0.08383653,0.10660879,0.65096464,0.69915503,0.74972447
0,0,DominicanRepublic,,,2022-03-22 20:42:56.412323,2021-09-13,0.09969235,0.16249003,0.20821081,10814,17626,22586,6605,10384,13072,0.06089479,0.09572708,0.12050508,0.63944107,0.68713524,0.74113881
0,0,DominicanRepublic,,,2022-03-22 20:42:56.412323,2021-09-14,0.11572749,0.18374123,0.23374401,12554,19932,25356,7688,11823,14747,0.07087638,0.10899030,0.13594982,0.61208202,0.66174162,0.71931344
0,0,DominicanRepublic,,,2022-03-22 20:42:56.412323,2021-09-15,0.13229007,0.20458313,0.25730840,14350,22192,27912,8958,13316,16531,0.08258214,0.12275677,0.15239199,0.56011829,0.62225992,0.68772325
0,0,DominicanRepublic,,,2022-03-22 20:42:56.412323,2021-09-16,0.15000753,0.22500469,0.27869921,16272,24408,30233,10218,14813,18362,0.09419412,0.13655288,0.16927651,0.50291451,0.58621867,0.65709583
0,0,DominicanRepublic,,,2022-03-22 20:42:56.412323,2021-09-17,0.16950188,0.24457826,0.30393479,18387,26531,32970,11468,16370,20389,0.10572243,0.15091019,0.18795810,0.46922102,0.56495119,0.63816958
0,0,DominicanRepublic,,,2022-03-22 20:42:56.412323,2021-09-18,0.18701313,0.26786929,0.33432021,20287,29058,36266,12720,17792,22622,0.11726575,0.16401809,0.20854026,0.45645202,0.55490216,0.62835164
0,0,DominicanRepublic,,,2022-03-22 20:42:56.412323,2021-09-19,0.20591049,0.28922075,0.36684606,22336,31374,39795,14164,19563,25254,0.13057181,0.18034599,0.23280307,0.45199096,0.54836723,0.62040302
0,0,DominicanRepublic,,,2022-03-22 20:42:56.412323,2021-09-20,0.22860888,0.31186940,0.40470819,24799,33831,43902,15763,21023,28134,0.14531645,0.19379964,0.25935318,0.45024253,0.53809616,0.60490769
0,0,DominicanRepublic,,,2022-03-22 20:42:56.412323,2021-09-21,0.25226039,0.33368763,0.43837987,27364,36198,47555,17365,22665,30998,0.16008547,0.20894226,0.28575840,0.44897328,0.49393004,0.57261220
0,0,DominicanRepublic,,,2022-03-22 20:42:56.412323,2021-09-22,0.27319005,0.35323470,0.45942157,29635,38318,49837,18995,24311,33407,0.17510567,0.22411231,0.30796085,0.39343400,0.44893930,0.53301248
0,0,DominicanRepublic,,,2022-03-22 20:42:56.412323,2021-09-23,0.29224841,0.37150446,0.47469836,31702,40300,51494,20422,25715,34940,0.18826404,0.23705291,0.32209546,0.33306856,0.43838458,0.50436603
0,0,DominicanRepublic,,,2022-03-22 20:42:56.412323,2021-09-24,0.31025989,0.38319023,0.48016240,33656,41568,52087,21592,26863,36240,0.19905044,0.24763553,0.33407377,0.29796695,0.43058012,0.48808241
0,0,DominicanRepublic,,,2022-03-22 20:42:56.412323,2021-09-25,0.32480619,0.39416528,0.49318586,35234,42758,53500,22805,27798,36833,0.21022898,0.25625594,0.33954827,0.28475076,0.42711194,0.48023484
0,0,DominicanRepublic,,,2022-03-22 20:42:56.412323,2021-09-26,0.33487762,0.40424711,0.51945285,36327,43852,56349,23741,28814,37451,0.21885674,0.26561905,0.34524420,0.28192731,0.42339259,0.47469416
0,0,DominicanRepublic,,,2022-03-22 20:42:56.412323,2021-09-27,0.34689691,0.41463308,0.54749579,37631,44978,59391,24738,29782,39128,0.22804653,0.27455035,0.36070183,0.28570558,0.41562576,0.46483670
0,0,DominicanRepublic,,,2022-03-22 20:42:56.412323,2021-09-28,0.35402178,0.42526375,0.57533850,38403,46132,62412,25490,30870,41382,0.23497894,0.28457423,0.38147894,0.29861961,0.39956538,0.44334144
0,0,DominicanRepublic,,,2022-03-22 20:42:56.412323,2021-09-29,0.36080323,0.43894909,0.59694805,39139,47616,64756,25913,31787,43403,0.23888117,0.29303023,0.40010718,0.31994285,0.37468211,0.44351421
0,0,DominicanRepublic,,,2022-03-22 20:42:56.412323,2021-09-30,0.37009154,0.45045101,0.61181366,40147,48864,66368,26178,32601,45014,0.24132180,0.30053643,0.41496295,0.33198979,0.36141662,0.45093088
0,0,DominicanRepublic,,,2022-03-22 20:42:56.412323,2021-10-01,0.37728785,0.45836370,0.62239593,40927,49722,67516,26588,33377,46215,0.24510620,0.30768923,0.42603253,0.31721834,0.35830408,0.45733567
0,0,DominicanRepublic,,,2022-03-22 20:42:56.412323,2021-10-02,0.38571546,0.46649919,0.63372820,41842,50605,68746,27122,34016,47101,0.25002621,0.31357419,0.43420129,0.31071469,0.35622495,0.45900380
0,0,DominicanRepublic,,,2022-03-22 20:42:56.412323,2021-10-03,0.39467770,0.47342251,0.64897156,42814,51356,70399,27742,34808,47991,0.25574242,0.32087947,0.44240052,0.30853207,0.35617111,0.45946420
0,0,DominicanRepublic,,,2022-03-22 20:42:56.412323,2021-10-04,0.40162102,0.48421460,0.66565726,43567,52527,72209,28416,35460,49632,0.26195206,0.32688992,0.45752937,0.30795923,0.35526803,0.45777249
0,0,DominicanRepublic,,,2022-03-22 20:42:56.412323,2021-10-05,0.40628842,0.49061818,0.68853744,44073,53221,74691,28993,35943,51013,0.26727549,0.33133710,0.47025777,0.30957573,0.35475516,0.45282651
0,0,DominicanRepublic,,,2022-03-22 20:42:56.412323,2021-10-06,0.41072641,0.49786566,0.72412596,44555,54007,78552,29401,36289,53500,0.27103158,0.33452700,0.49318410,0.31232727,0.35114816,0.44438145
0,0,DominicanRepublic,,,2022-03-22 20:42:56.412323,2021-10-07,0.41385944,0.50444728,0.74524779,44895,54721,80843,29661,36836,55790,0.27343171,0.33957710,0.51429966,0.31478925,0.34812932,0.43683203
0,0,DominicanRepublic,,,2022-03-22 20:42:56.412323,2021-10-08,0.41625885,0.51282986,0.77134045,45155,55631,83674,30142,37294,56722,0.27786877,0.34379536,0.52289103,0.31751728,0.34687474,0.43316449
0,0,DominicanRepublic,,,2022-03-22 20:42:56.412323,2021-10-09,0.41930867,0.51909882,0.81069311,45486,56311,87943,30422,37578,59681,0.28044765,0.34640820,0.55016362,0.31851313,0.34633187,0.43244447
0,0,DominicanRepublic,,,2022-03-22 20:42:56.412323,2021-10-10,0.42371450,0.52506631,0.85132234,45964,56958,92350,30684,38006,62732,0.28285914,0.35036143,0.57829012,0.31966483,0.34676933,0.43140961
0,0,DominicanRepublic,,,2022-03-22 20:42:56.412323,2021-10-11,0.42658436,0.53133424,0.89267286,46275,57638,96836,31058,38544,65865,0.28630819,0.35531800,0.60717655,0.32346842,0.34732391,0.42893100
0,0,DominicanRepublic,,,2022-03-22 20:42:56.412323,2021-10-12,0.43292808,0.53814347,0.92979180,46963,58377,100862,31378,39059,69027,0.28925775,0.36006687,0.63632451,0.33322289,0.34833404,0.42117546
0,0,DominicanRepublic,,,2022-03-22 20:42:56.412323,2021-10-13,0.43977855,0.54688794,0.96306170,47706,59325,104472,31680,39513,71986,0.29204336,0.36425179,0.66360120,0.34208119,0.35883241,0.40924756
0,0,DominicanRepublic,,,2022-03-22 20:42:56.412323,2021-10-14,0.44680868,0.55772876,0.99729423,48469,60501,108185,32143,40194,74929,0.29631170,0.37052624,0.69072993,0.33924463,0.36691974,0.41189745
0,0,DominicanRepublic,,,2022-03-22 20:42:56.412323,2021-10-15,0.45797636,0.56963497,1.02138399,49680,61793,110798,32780,41027,77588,0.30217829,0.37820513,0.71523601,0.33700332,0.37146080,0.42572240
0,0,DominicanRepublic,,,2022-03-22 20:42:56.412323,2021-10-16,0.47175491,0.58357793,1.03115879,51175,63305,111859,33555,42141,79253,0.30932563,0.38847332,0.73059264,0.33420315,0.36880935,0.43107809
0,0,DominicanRepublic,,,2022-03-22 20:42:56.412323,2021-10-17,0.48703907,0.59976349,1.05552221,52833,65061,114502,34422,43194,80312,0.31731844,0.39818420,0.74035438,0.33231708,0.36664989,0.43188411
0,0,DominicanRepublic,,,2022-03-22 20:42:56.412323,2021-10-18,0.49795838,0.61836366,1.08348835,54018,67079,117535,35340,44306,82239,0.32578238,0.40843752,0.75811814,0.33201540,0.36357856,0.42826842
0,0,DominicanRepublic,,,2022-03-22 20:42:56.412323,2021-10-19,0.51062301,0.63240749,1.10405400,55391,68602,119766,36257,45475,83750,0.33423406,0.41921342,0.77204173,0.32905058,0.35834832,0.41873632
0,0,DominicanRepublic,,,2022-03-22 20:42:56.412323,2021-10-20,0.52147253,0.64790589,1.11451422,56568,70284,120901,36903,46700,85480,0.34018901,0.43050539,0.78798688,0.32290955,0.36220437,0.40697050
0,0,DominicanRepublic,,,2022-03-22 20:42:56.412323,2021-10-21,0.53037415,0.66090663,1.12584051,57534,71694,122130,37687,47729,86115,0.34742052,0.43998755,0.79384134,0.31443567,0.36482634,0.39748799
0,0,DominicanRepublic,,,2022-03-22 20:42:56.412323,2021-10-22,0.54482711,0.67265654,1.13143276,59102,72969,122736,38626,48624,86931,0.35606982,0.44824320,0.80136976,0.30996292,0.35930304,0.39189709
0,0,DominicanRepublic,,,2022-03-22 20:42:56.412323,2021-10-23,0.55170630,0.68277827,1.13374329,59848,74067,122987,39305,49428,87465,0.36233164,0.45564632,0.80628874,0.30799219,0.35730803,0.38950868
0,0,DominicanRepublic,,,2022-03-22 20:42:56.412323,2021-10-24,0.55692291,0.69325433,1.13249458,60414,75203,122851,39915,50303,87743,0.36795352,0.46371935,0.80885264,0.30747876,0.35535003,0.38786659
0,0,DominicanRepublic,,,2022-03-22 20:42:56.412323,2021-10-25,0.56313457,0.70304650,1.12991475,61088,76265,122572,40763,51084,87684,0.37577381,0.47091190,0.80830441,0.30713299,0.35042743,0.38431258
0,0,DominicanRepublic,,,2022-03-22 20:42:56.412323,2021-10-26,0.56920687,0.71226159,1.12523326,61747,77265,122064,41085,51788,87480,0.37873970,0.47740953,0.80642888,0.30515705,0.33979594,0.37734780
0,0,DominicanRepublic,,,2022-03-22 20:42:56.412323,2021-10-27,0.57588938,0.71934345,1.11736977,62471,78033,121211,41283,52350,87101,0.38056766,0.48258229,0.80292978,0.30067376,0.32326949,0.36511259
0,0,DominicanRepublic,,,2022-03-22 20:42:56.412323,2021-10-28,0.58045612,0.72428480,1.10637829,62967,78569,120018,41413,52671,86500,0.38176126,0.48554306,0.79739218,0.29248024,0.31167279,0.35319382
0,0,DominicanRepublic,,,2022-03-22 20:42:56.412323,2021-10-29,0.57570143,0.72781614,1.09346652,62451,78952,118618,41614,53111,85797,0.38362066,0.48959991,0.79091516,0.28249388,0.30479618,0.34625958
0,0,DominicanRepublic,,,2022-03-22 20:42:56.412323,2021-10-30,0.57053895,0.73047047,1.08162878,61891,79240,117334,42095,53427,85045,0.38804844,0.49251228,0.78398493,0.27815445,0.30265675,0.34279088
0,0,DominicanRepublic,,,2022-03-22 20:42:56.412323,2021-10-31,0.56457540,0.73288595,1.07031412,61244,79502,116106,41842,53292,84218,0.38571775,0.49126910,0.77635647,0.27676694,0.30168533,0.33949290
0,0,DominicanRepublic,,,2022-03-22 20:42:56.412323,2021-11-01,0.55874193,0.73456086,1.05871180,60611,79684,114848,41435,53605,83348,0.38196800,0.49415362,0.76833379,0.27664096,0.30116366,0.33287374
0,0,DominicanRepublic,,,2022-03-22 20:42:56.412323,2021-11-02,0.55366136,0.73345461,1.04586594,60060,79564,113454,41037,53675,82447,0.37829741,0.49479707,0.76003443,0.27755568,0.30127997,0.32203347
0,0,DominicanRepublic,,,2022-03-22 20:42:56.412323,2021-11-03,0.55001613,0.72591312,1.03164055,59665,78746,111911,40695,53670,81516,0.37514187,0.49475400,0.75144518,0.27914599,0.29805519,0.31137774
0,0,DominicanRepublic,,,2022-03-22 20:42:56.412323,2021-11-04,0.54783877,0.71754130,1.02085751,59429,77838,110741,40447,53321,80417,0.37286100,0.49153491,0.74131504,0.26175917,0.29577151,0.31573023
0,0,DominicanRepublic,,,2022-03-22 20:42:56.412323,2021-11-05,0.54660855,0.70541704,1.00834637,59295,76522,109384,40300,52660,79441,0.37150223,0.48544823,0.73232351,0.24981949,0.29342748,0.32017074
0,0,DominicanRepublic,,,2022-03-22 20:42:56.412323,2021-11-06,0.54572008,0.68965080,0.99491586,59199,74812,107927,40225,51782,78530,0.37081810,0.47735173,0.72392605,0.24514523,0.29150989,0.32157925
0,0,DominicanRepublic,,,2022-03-22 20:42:56.412323,2021-11-07,0.54519822,0.67583976,0.98097050,59142,73314,106414,40039,50820,77481,0.36909925,0.46848297,0.71425164,0.24374277,0.28913803,0.32052383
0,0,DominicanRepublic,,,2022-03-22 20:42:56.412323,2021-11-08,0.54388070,0.66137240,0.96644272,58999,71745,104838,39981,49899,76375,0.36856569,0.45999514,0.70405321,0.24386253,0.28434601,0.31603125
0,0,DominicanRepublic,,,2022-03-22 20:42:56.412323,2021-11-09,0.53848996,0.64817515,0.95058288,58414,70313,103118,39665,48891,75134,0.36565058,0.45070396,0.69261962,0.24396198,0.27354904,0.30477105
0,0,DominicanRepublic,,,2022-03-22 20:42:56.412323,2021-11-10,0.52714201,0.63463515,0.92829559,57183,68844,100700,39311,47849,73761,0.36238864,0.44109394,0.67996234,0.24173108,0.25821201,0.28789769
0,0,DominicanRepublic,,,2022-03-22 20:42:56.412323,2021-11-11,0.51218664,0.61922015,0.90010111,55561,67172,97642,38530,46756,72025,0.35519238,0.43102296,0.66395706,0.22921702,0.25310480,0.27699777
0,0,DominicanRepublic,,,2022-03-22 20:42:56.412323,2021-11-12,0.49812357,0.60133584,0.86886497,54035,65232,94253,37809,45673,69903,0.34854400,0.42103400,0.64440033,0.21856924,0.25067100,0.27196967
0,0,DominicanRepublic,,,2022-03-22 20:42:56.412323,2021-11-13,0.48569509,0.58407188,0.83678185,52687,63359,90773,37126,44477,67550,0.34224437,0.41000709,0.62270543,0.21452838,0.24874104,0.27184468
0,0,DominicanRepublic,,,2022-03-22 20:42:56.412323,2021-11-14,0.47308366,0.56527578,0.80490931,51319,61320,87315,35988,43293,65105,0.33175538,0.39909605,0.60016224,0.21341373,0.24821783,0.27033183
0,0,DominicanRepublic,,,2022-03-22 20:42:56.412323,2021-11-15,0.45903792,0.54842831,0.77355689,49795,59492,83914,35121,42078,62650,0.32376139,0.38789854,0.57753366,0.21379843,0.24777679,0.26790256
0,0,DominicanRepublic,,,2022-03-22 20:42:56.412323,2021-11-16,0.44587573,0.53185743,0.74254512,48368,57695,80550,34092,40792,60216,0.31427449,0.37604265,0.55509951,0.21305392,0.24635770,0.26417868
0,0,DominicanRepublic,,,2022-03-22 20:42:56.412323,2021-11-17,0.42639522,0.51416183,0.71153433,46254,55775,77186,33056,39479,57799,0.30473096,0.36393224,0.53281986,0.20969404,0.24297325,0.25960275
0,0,DominicanRepublic,,,2022-03-22 20:42:56.412323,2021-11-18,0.40558401,0.49657459,0.68062962,43997,53867,73834,32000,38176,55390,0.29499530,0.35192305,0.51060891,0.20244383,0.24260520,0.25798644
0,0,DominicanRepublic,,,2022-03-22 20:42:56.412323,2021-11-19,0.38836070,0.47959997,0.65009253,42128,52026,70521,30807,36940,53000,0.28399388,0.34053029,0.48857642,0.19801471,0.24088887,0.25776704
0,0,DominicanRepublic,,,2022-03-22 20:42:56.412323,2021-11-20,0.37102709,0.46282721,0.61928271,40248,50207,67179,29275,35613,50482,0.26986808,0.32829832,0.46536198,0.19629810,0.23994961,0.25756118
0,0,DominicanRepublic,,,2022-03-22 20:42:56.412323,2021-11-21,0.35480294,0.44609385,0.59105310,38488,48391,64116,27902,34465,48246,0.25721729,0.31771878,0.44475620,0.19673850,0.23891306,0.25628155
0,0,DominicanRepublic,,,2022-03-22 20:42:56.412323,2021-11-22,0.33731349,0.42979318,0.56353983,36591,46623,61132,26693,33345,46044,0.24606668,0.30739220,0.42445482,0.19899547,0.23628343,0.25271463
0,0,DominicanRepublic,,,2022-03-22 20:42:56.412323,2021-11-23,0.32004626,0.41403880,0.53789919,34718,44914,58350,25578,32129,44000,0.23578993,0.29617833,0.40561382,0.20593538,0.23097970,0.24472975
0,0,DominicanRepublic,,,2022-03-22 20:42:56.412323,2021-11-24,0.30415772,0.39822806,0.51575650,32994,43199,55948,24517,30946,41970,0.22601142,0.28527350,0.38690114,0.20996795,0.22106442,0.24672893
0,0,DominicanRepublic,,,2022-03-22 20:42:56.412323,2021-11-25,0.29296382,0.38152098,0.49844877,31780,41387,54071,23338,29704,40306,0.21514214,0.27382400,0.37155804,0.19582425,0.21464700,0.25113863
0,0,DominicanRepublic,,,2022-03-22 20:42:56.412323,2021-11-26,0.28183074,0.36525124,0.48314769,30572,39622,52411,22343,28419,38885,0.20596795,0.26198298,0.35846355,0.18597488,0.21266681,0.25483860
0,0,DominicanRepublic,,,2022-03-22 20:42:56.412323,2021-11-27,0.26883683,0.34954961,0.46837493,29163,37918,50808,21345,27215,37639,0.19676673,0.25088346,0.34697785,0.18242001,0.21218359,0.25687943
0,0,DominicanRepublic,,,2022-03-22 20:42:56.412323,2021-11-28,0.25650208,0.33321771,0.45439952,27825,36147,49292,20361,25917,36504,0.18769709,0.23891591,0.33650895,0.18223998,0.21295397,0.25796092
0,0,DominicanRepublic,,,2022-03-22 20:42:56.412323,2021-11-29,0.24474552,0.31673445,0.44135037,26549,34359,47877,19409,24747,35436,0.17892547,0.22813587,0.32666252,0.18514081,0.21388621,0.25759800
0,0,DominicanRepublic,,,2022-03-22 20:42:56.412323,2021-11-30,0.23350387,0.30206037,0.42859654,25330,32767,46493,18505,23667,34409,0.17059234,0.21817492,0.31720254,0.19346219,0.21529627,0.25787420
0,0,DominicanRepublic,,,2022-03-22 20:42:56.412323,2021-12-01,0.22272603,0.28892492,0.41600552,24161,31342,45127,17664,22607,33409,0.16284189,0.20840178,0.30797889,0.20797355,0.22209167,0.25895683
0,0,DominicanRepublic,,,2022-03-22 20:42:56.412323,2021-12-02,0.21239600,0.27696701,0.40356813,23040,30045,43778,16898,21624,32424,0.15577471,0.19934422,0.29890167,0.21075073,0.23042672,0.26133329
0,0,DominicanRepublic,,,2022-03-22 20:42:56.412323,2021-12-03,0.20256066,0.26778444,0.39191344,21973,29048,42514,16129,20680,31455,0.14868491,0.19063604,0.28997162,0.21030352,0.23530688,0.26292584
0,0,DominicanRepublic,,,2022-03-22 20:42:56.412323,2021-12-04,0.19327726,0.25987651,0.37988623,20966,28191,41209,15384,19818,30513,0.14181639,0.18269487,0.28128340,0.21105112,0.23706246,0.26751812
0,0,DominicanRepublic,,,2022-03-22 20:42:56.412323,2021-12-05,0.18690979,0.25081801,0.36846827,20275,27208,39971,14683,19122,29597,0.13535765,0.17627646,0.27284314,0.21381273,0.23948064,0.27076268
0,0,DominicanRepublic,,,2022-03-22 20:42:56.412323,2021-12-06,0.18145016,0.24117440,0.35834914,19683,26162,38873,14216,18552,28743,0.13105218,0.17102616,0.26496617,0.22290126,0.24588630,0.27645357
0,0,DominicanRepublic,,,2022-03-22 20:42:56.412323,2021-12-07,0.17461872,0.23282844,0.35077441,18942,25257,38051,13772,17988,28002,0.12696083,0.16582716,0.25814132,0.23242139,0.26148717,0.29171548
0,0,DominicanRepublic,,,2022-03-22 20:42:56.412323,2021-12-08,0.17273885,0.22526811,0.34765946,18738,24436,37713,13300,17485,27471,0.12261338,0.16119207,0.25324146,0.24316024,0.28783702,0.32565333
0,0,DominicanRepublic,,,2022-03-22 20:42:56.412323,2021-12-09,0.17317580,0.22382921,0.34947055,18785,24280,37910,13099,17029,27254,0.12075203,0.15698643,0.25124243,0.25463256,0.31108418,0.37686361
0,0,DominicanRepublic,,,2022-03-22 20:42:56.412323,2021-12-10,0.17475992,0.22715153,0.35458947,18957,24641,38465,13082,16923,27363,0.12060232,0.15600950,0.25224416,0.26179016,0.32500824,0.41328245
0,0,DominicanRepublic,,,2022-03-22 20:42:56.412323,2021-12-11,0.17442751,0.23190823,0.36033760,18921,25157,39089,13070,17122,27605,0.12048782,0.15783937,0.25448053,0.26554949,0.33174945,0.43109971
0,0,DominicanRepublic,,,2022-03-22 20:42:56.412323,2021-12-12,0.17317687,0.23671895,0.36593961,18786,25679,39696,12968,17344,27964,0.11954780,0.15988914,0.25778317,0.26979318,0.33584026,0.43866219
0,0,DominicanRepublic,,,2022-03-22 20:42:56.412323,2021-12-13,0.17077595,0.24094323,0.37120719,18525,26137,40268,12795,17634,28399,0.11794974,0.16256505,0.26179564,0.27979665,0.34140743,0.44433641
0,0,DominicanRepublic,,,2022-03-22 20:42:56.412323,2021-12-14,0.16971593,0.24789771,0.37735779,18410,26891,40935,12625,17980,28878,0.11638648,0.16575282,0.26621081,0.30495337,0.35355428,0.45365831
0,0,DominicanRepublic,,,2022-03-22 20:42:56.412323,2021-12-15,0.17172160,0.25732048,0.38493700,18628,27913,41757,12565,18445,29424,0.11582910,0.17003329,0.27124594,0.35386441,0.37904485,0.47359167
0,0,DominicanRepublic,,,2022-03-22 20:42:56.412323,2021-12-16,0.17710905,0.26645689,0.39409872,19212,28904,42751,12705,18954,30015,0.11712592,0.17473024,0.27669450,0.38482708,0.41550025,0.49876745
0,0,DominicanRepublic,,,2022-03-22 20:42:56.412323,2021-12-17,0.18520208,0.27861843,0.40444357,20090,30224,43873,13035,19704,30674,0.12016671,0.18164702,0.28276981,0.38876514,0.44295399,0.51248498
0,0,DominicanRepublic,,,2022-03-22 20:42:56.412323,2021-12-18,0.19509669,0.29344566,0.41477699,21163,31832,44994,13521,20622,31382,0.12464295,0.19010981,0.28929420,0.39162487,0.45766229,0.51732378
0,0,DominicanRepublic,,,2022-03-22 20:42:56.412323,2021-12-19,0.20588012,0.30905979,0.42658404,22333,33526,46275,14227,21606,32148,0.13115350,0.19917742,0.29636061,0.39710006,0.46285862,0.52007703
0,0,DominicanRepublic,,,2022-03-22 20:42:56.412323,2021-12-20,0.21786870,0.32584992,0.44193305,23634,35347,47940,14989,22792,33182,0.13817837,0.21010680,0.30588700,0.41213134,0.47405039,0.52404946
0,0,DominicanRepublic,,,2022-03-22 20:42:56.412323,2021-12-21,0.23266535,0.34564421,0.46411467,25239,37495,50346,15862,24072,34544,0.14622322,0.22191140,0.31844500,0.45115040,0.49818407,0.53281047
0,0,DominicanRepublic,,,2022-03-22 20:42:56.412323,2021-12-22,0.25245549,0.37281635,0.49731148,27386,40442,53947,16953,25611,36497,0.15628334,0.23609905,0.33644526,0.51998069,0.54137331,0.56073222
0,0,DominicanRepublic,,,2022-03-22 20:42:56.412323,2021-12-23,0.27677482,0.40698864,0.54661097,30024,44149,59295,18373,27478,39253,0.16937283,0.25330461,0.36185312,0.54867613,0.59307835,0.62509280
0,0,DominicanRepublic,,,2022-03-22 20:42:56.412323,2021-12-24,0.30416173,0.45109170,0.61281485,32995,48933,66477,20067,29867,43098,0.18499319,0.27532834,0.39729637,0.56242843,0.62478119,0.67530365
0,0,DominicanRepublic,,,2022-03-22 20:42:56.412323,2021-12-25,0.33742839,0.49912895,0.69228582,36603,54145,75098,22005,32817,48024,0.20285643,0.30252003,0.44270610,0.56874293,0.63892208,0.69829931
0,0,DominicanRepublic,,,2022-03-22 20:42:56.412323,2021-12-26,0.37377297,0.55547233,0.78434810,40546,60257,85085,24342,36053,54119,0.22439752,0.33235383,0.49889688,0.57566986,0.64832903,0.70735998
0,0,DominicanRepublic,,,2022-03-22 20:42:56.412323,2021-12-27,0.41925618,0.62041082,0.89008864,45480,67301,96555,26950,39982,61296,0.24843861,0.36857032,0.56505360,0.59372642,0.66032030,0.71327473
0,0,DominicanRepublic,,,2022-03-22 20:42:56.412323,2021-12-28,0.47260362,0.69241499,1.01059182,51267,75112,109628,30255,44522,69445,0.27890538,0.41042230,0.64017678,0.62991513,0.69155234,0.73051201
0,0,DominicanRepublic,,,2022-03-22 20:42:56.412323,2021-12-29,0.54818844,0.78298361,1.15551534,59466,84937,125349,34424,49813,79092,0.31733411,0.45919652,0.72910381,0.68573764,0.72906405,0.79608304
0,0,DominicanRepublic,,,2022-03-22 20:42:56.412323,2021-12-30,0.64685238,0.89688035,1.32528062,70169,97292,143765,39863,56489,90346,0.36747730,0.52073892,0.83284415,0.71847857,0.78464987,0.88719463
0,0,DominicanRepublic,,,2022-03-22 20:42:56.412323,2021-12-31,0.77681886,1.03714089,1.52692079,84268,112508,165638,46784,64878,103762,0.43128015,0.59807715,0.95652321,0.73301237,0.82561513,0.94849769
0,0,DominicanRepublic,,,2022-03-22 20:42:56.412323,2022-01-01,0.93196236,1.21234841,1.75926440,101098,131514,190843,55770,75655,119383,0.51411192,0.69741896,1.10052061,0.73898307,0.84237248,0.97300030
0,0,DominicanRepublic,,,2022-03-22 20:42:56.412323,2022-01-02,1.11606841,1.41673639,2.02532283,121070,153686,219705,66779,88642,137428,0.61560108,0.81714049,1.26686671,0.74023492,0.84489682,0.97390971
0,0,DominicanRepublic,,,2022-03-22 20:42:56.412323,2022-01-03,1.33341644,1.64905150,2.33097914,144647,178887,252862,80088,103941,158184,0.73828604,0.95817108,1.45820609,0.73810140,0.83239275,0.95120586
0,0,DominicanRepublic,,,2022-03-22 20:42:56.412323,2022-01-04,1.55926503,1.90903775,2.68381028,169147,207090,291137,95114,120729,182083,0.87679657,1.11293136,1.67851093,0.71680410,0.80008783,0.89144699
0,0,DominicanRepublic,,,2022-03-22 20:42:56.412323,2022-01-05,1.78459432,2.17172312,3.08728586,193591,235586,334905,111757,138611,209565,1.03021888,1.27776930,1.93185428,0.67889609,0.76422935,0.80345141
0,0,DominicanRepublic,,,2022-03-22 20:42:56.412323,2022-01-06,2.00712543,2.43129268,3.55633442,217731,263744,385787,127913,157743,241041,1.17915792,1.45413496,2.22201380,0.63799982,0.70609091,0.80464097
0,0,DominicanRepublic,,,2022-03-22 20:42:56.412323,2022-01-07,2.23775493,2.70854442,4.09774989,242749,293820,444519,144351,177657,277430,1.33068367,1.63771166,2.55745784,0.60084454,0.66796793,0.80963586
0,0,DominicanRepublic,,,2022-03-22 20:42:56.412323,2022-01-08,2.47752982,2.98332722,4.69174250,268760,323628,508955,160818,198816,319057,1.48248558,1.83276113,2.94119239,0.58246986,0.65369524,0.80655670
0,0,DominicanRepublic,,,2022-03-22 20:42:56.412323,2022-01-09,2.71741290,3.31511173,5.38013161,294782,359620,583631,177489,219657,364727,1.63616431,2.02488885,3.36219715,0.57103527,0.64263665,0.78913771
0,0,DominicanRepublic,,,2022-03-22 20:42:56.412323,2022-01-10,2.96064685,3.63246666,6.06288677,321168,394046,657696,194725,241618,418090,1.79505431,2.22732456,3.85411509,0.55279547,0.62115204,0.73917169
0,0,DominicanRepublic,,,2022-03-22 20:42:56.412323,2022-01-11,3.18942143,3.90178366,6.62385668,345985,423261,718549,212209,264987,467913,1.95622730,2.44275036,4.31339777,0.51168259,0.57350375,0.62907475
0,0,DominicanRepublic,,,2022-03-22 20:42:56.412323,2022-01-12,3.37750563,4.11284761,6.90040262,366388,446157,748549,228639,284713,505146,2.10768273,2.62459382,4.65663201,0.43871321,0.49458810,0.53768537
0,0,DominicanRepublic,,,2022-03-22 20:42:56.412323,2022-01-13,3.51273315,4.24210151,6.89276786,381057,460179,747720,242402,299332,526679,2.23455967,2.75935627,4.85512353,0.33824743,0.42744270,0.47525121
0,0,DominicanRepublic,,,2022-03-22 20:42:56.412323,2022-01-14,3.61381366,4.32584754,6.75084709,392023,469263,732325,253080,308974,529654,2.33299247,2.84824174,4.88255530,0.28722740,0.39328261,0.44222836
0,0,DominicanRepublic,,,2022-03-22 20:42:56.412323,2022-01-15,3.69642993,4.35812725,6.58598554,400985,472765,714441,259794,315218,522812,2.39488505,2.90580225,4.81947767,0.26817830,0.37901375,0.42780166
0,0,DominicanRepublic,,,2022-03-22 20:42:56.412323,2022-01-16,3.76219464,4.37508608,6.33828700,408119,474605,687571,265166,318205,510987,2.44440386,2.93333453,4.71046997,0.26154691,0.37065584,0.41918136
0,0,DominicanRepublic,,,2022-03-22 20:42:56.412323,2022-01-17,3.80081167,4.35670545,6.09929090,412308,472611,661645,269358,320388,492645,2.48304534,2.95345801,4.54138583,0.25851867,0.35635860,0.40555115
0,0,DominicanRepublic,,,2022-03-22 20:42:56.412323,2022-01-18,3.78250433,4.29876985,5.84512004,410322,466326,634073,272708,321581,472997,2.51392857,2.96446061,4.36026557,0.25602572,0.32736394,0.37689073
0,0,DominicanRepublic,,,2022-03-22 20:42:56.412323,2022-01-19,3.71036842,4.19249530,5.59459869,402497,454797,606896,273040,318040,454374,2.51698456,2.93181846,4.18859234,0.25246234,0.28897501,0.33329141
0,0,DominicanRepublic,,,2022-03-22 20:42:56.412323,2022-01-20,3.60718739,4.05432829,5.33636646,391304,439809,578883,269367,311222,435384,2.48313121,2.86896001,4.01353170,0.22614645,0.26956505,0.29647128
0,0,DominicanRepublic,,,2022-03-22 20:42:56.412323,2022-01-21,3.46486314,3.87595704,5.07769191,375865,420460,550823,260375,301839,414816,2.40023807,2.78246917,3.82393187,0.20693833,0.25271375,0.27789134
0,0,DominicanRepublic,,,2022-03-22 20:42:56.412323,2022-01-22,3.29878406,3.70345926,4.82423296,357848,401747,523328,250580,290355,394963,2.30994119,2.67660031,3.64092222,0.19920518,0.24850447,0.26957081
0,0,DominicanRepublic,,,2022-03-22 20:42:56.412323,2022-01-23,3.12725491,3.54565714,4.57807550,339241,384629,496625,239971,278358,375402,2.21214256,2.56600797,3.46059630,0.19575081,0.24534606,0.26393371
0,0,DominicanRepublic,,,2022-03-22 20:42:56.412323,2022-01-24,2.94992403,3.37471211,4.33825284,320004,366085,470609,229030,265745,356303,2.11129183,2.44974264,3.28453901,0.19217264,0.24162613,0.25691767
0,0,DominicanRepublic,,,2022-03-22 20:42:56.412323,2022-01-25,2.78332800,3.19598980,4.10119350,301932,346697,444893,216811,252159,337604,1.99864802,2.32450396,3.11216327,0.18508945,0.23277227,0.24457696
0,0,DominicanRepublic,,,2022-03-22 20:42:56.412323,2022-01-26,2.60932036,3.01180726,3.86291746,283056,326717,419045,204337,239706,319080,1.88365944,2.20970088,2.94140032,0.17316584,0.21776101,0.22942098
0,0,DominicanRepublic,,,2022-03-22 20:42:56.412323,2022-01-27,2.43361616,2.82126970,3.62479482,263996,306048,393214,191560,225535,300581,1.76587593,2.07907008,2.77087410,0.16196823,0.20385548,0.21946816
0,0,DominicanRepublic,,,2022-03-22 20:42:56.412323,2022-01-28,2.26481140,2.64509369,3.40125143,245684,286937,368964,179059,211695,282315,1.65063477,1.95148371,2.60248595,0.15488130,0.19587719,0.21466839
0,0,DominicanRepublic,,,2022-03-22 20:42:56.412323,2022-01-29,2.10269817,2.47684726,3.18710115,228098,268686,345733,166902,197831,265549,1.53856746,1.82368808,2.44793042,0.15204056,0.19241641,0.21234266
0,0,DominicanRepublic,,,2022-03-22 20:42:56.412323,2022-01-30,1.95158801,2.32123780,2.97819693,211706,251805,323071,155270,185373,248909,1.43134202,1.70883998,2.29454268,0.15061723,0.19006698,0.21003960
0,0,DominicanRepublic,,,2022-03-22 20:42:56.412323,2022-01-31,1.80430309,2.15962718,2.78854229,195729,234274,302498,144104,173467,232476,1.32840452,1.59908849,2.14305714,0.14916902,0.18635364,0.20754742
0,0,DominicanRepublic,,,2022-03-22 20:42:56.412323,2022-02-01,1.66259324,2.01140376,2.59922873,180356,218195,281961,133755,162450,217523,1.23300671,1.49752943,2.00521415,0.14530846,0.17755618,0.20171463
0,0,DominicanRepublic,,,2022-03-22 20:42:56.412323,2022-02-02,1.52816953,1.86597017,2.41092507,165774,202418,261534,123805,151076,202611,1.14128760,1.39268237,1.86774464,0.13919137,0.16540569,0.19184239
0,0,DominicanRepublic,,,2022-03-22 20:42:56.412323,2022-02-03,1.40123798,1.72458374,2.22479615,152004,187081,241343,114119,140523,187731,1.05199219,1.29539534,1.73057924,0.13288864,0.15908608,0.18535569
0,0,DominicanRepublic,,,2022-03-22 20:42:56.412323,2022-02-04,1.28183599,1.58636749,2.04052914,139052,172087,221354,104657,130155,173166,0.96477009,1.19981882,1.59631240,0.12926988,0.15499896,0.18351574
0,0,DominicanRepublic,,,2022-03-22 20:42:56.412323,2022-02-05,1.17313092,1.45748862,1.86374443,127260,158106,202177,95925,120264,159292,0.88427280,1.10864722,1.46841886,0.12771143,0.15318304,0.18230557
0,0,DominicanRepublic,,,2022-03-22 20:42:56.412323,2022-02-06,1.07469077,1.33520145,1.70002598,116581,144841,184417,87837,110826,145784,0.80971595,1.02163886,1.34389512,0.12745824,0.15235510,0.18142072
0,0,DominicanRepublic,,,2022-03-22 20:42:56.412323,2022-02-07,0.98243339,1.22334206,1.54916589,106573,132706,168052,80329,101961,133049,0.74050942,0.93992064,1.22649710,0.12799971,0.15234428,0.17993733
0,0,DominicanRepublic,,,2022-03-22 20:42:56.412323,2022-02-08,0.90017771,1.11902423,1.41003918,97650,121390,152959,73462,93460,121268,0.67720580,0.86155477,1.11790095,0.12973045,0.15219847,0.17576869
0,0,DominicanRepublic,,,2022-03-22 20:42:56.412323,2022-02-09,0.82410427,1.02574453,1.28792345,89398,111271,139712,67201,85667,110376,0.61948885,0.78971284,1.01749349,0.13209186,0.15566275,0.17015081
0,0,DominicanRepublic,,,2022-03-22 20:42:56.412323,2022-02-10,0.75481026,0.94048257,1.17615715,81881,102022,127588,61473,78601,100780,0.56668127,0.72457607,0.92903492,0.13329125,0.15266426,0.17295781
0,0,DominicanRepublic,,,2022-03-22 20:42:56.412323,2022-02-11,0.69083741,0.86139995,1.07314512,74941,93443,116413,56280,71948,92057,0.51881545,0.66324402,0.84862142,0.13379460,0.14984288,0.17601001
0,0,DominicanRepublic,,,2022-03-22 20:42:56.412323,2022-02-12,0.63228941,0.78739773,0.98381542,68590,85416,106723,51577,65855,84016,0.47546127,0.60708445,0.77449663,0.13404781,0.14869300,0.17679571
0,0,DominicanRepublic,,,2022-03-22 20:42:56.412323,2022-02-13,0.57896044,0.72133726,0.90584397,62805,78249,98265,47293,60219,76684,0.43597131,0.55512815,0.70691050,0.13384683,0.14772009,0.17673842
0,0,DominicanRepublic,,,2022-03-22 20:42:56.412323,2022-02-14,0.52954289,0.66131333,0.83690810,57444,71738,90786,43362,55100,70667,0.39973256,0.50794001,0.65143815,0.13294486,0.14616817,0.17510340
0,0,DominicanRepublic,,,2022-03-22 20:42:56.412323,2022-02-15,0.48463243,0.60422148,0.77169251,52572,65545,83712,39682,50418,65262,0.36580909,0.46477841,0.60161219,0.13059192,0.14281855,0.17148640
0,0,DominicanRepublic,,,2022-03-22 20:42:56.412323,2022-02-16,0.44220165,0.55131400,0.70606865,47969,59806,76593,36316,46126,60152,0.33477573,0.42521075,0.55450972,0.12681115,0.13759660,0.16473162
0,0,DominicanRepublic,,,2022-03-22 20:42:56.412323,2022-02-17,0.40273020,0.50183718,0.64076027,43687,54438,69509,33146,42174,55080,0.30555915,0.38877731,0.50775553,0.12286754,0.13357822,0.15983520
0,0,DominicanRepublic,,,2022-03-22 20:42:56.412323,2022-02-18,0.36632930,0.45665615,0.58027760,39739,49537,62947,30230,38417,50014,0.27867386,0.35414922,0.46105676,0.12048590,0.13130125,0.15904919
0,0,DominicanRepublic,,,2022-03-22 20:42:56.412323,2022-02-19,0.33298164,0.41463429,0.52487059,36121,44979,56937,27522,35069,45325,0.25371486,0.32328308,0.41782713,0.11954977,0.13020007,0.15845649
0,0,DominicanRepublic,,,2022-03-22 20:42:56.412323,2022-02-20,0.30255822,0.37653059,0.47546051,32821,40845,51577,25035,31945,41016,0.23078587,0.29448470,0.37810906,0.11922776,0.12951741,0.15723227
0,0,DominicanRepublic,,,2022-03-22 20:42:56.412323,2022-02-21,0.27487315,0.34210447,0.43301591,29817,37111,46973,22759,28977,37091,0.20980836,0.26712397,0.34192403,0.11911920,0.12839133,0.15355077
0,0,DominicanRepublic,,,2022-03-22 20:42:56.412323,2022-02-22,0.24972685,0.31018375,0.39437404,27090,33648,42781,20684,26240,33787,0.19067635,0.24189843,0.31146600,0.11838014,0.12579862,0.14600131
0,0,DominicanRepublic,,,2022-03-22 20:42:56.412323,2022-02-23,0.22692573,0.28074999,0.35751441,24616,30455,38782,18796,23760,30777,0.17327044,0.21903153,0.28371790,0.11487983,0.12394053,0.14362336
0,0,DominicanRepublic,,,2022-03-22 20:42:56.412323,2022-02-24,0.20625972,0.25394447,0.32510826,22374,27547,35267,17081,21474,28010,0.15746314,0.19796434,0.25821245,0.11049179,0.11787059,0.14296399
0,0,DominicanRepublic,,,2022-03-22 20:42:56.412323,2022-02-25,0.18749908,0.22880610,0.29587019,20339,24820,32095,15525,19357,25395,0.14311700,0.17844907,0.23410107,0.10800592,0.11414888,0.14348246
0,0,DominicanRepublic,,,2022-03-22 20:42:56.412323,2022-02-26,0.17027774,0.20572942,0.26795522,18471,22317,29067,14112,17446,23119,0.13009493,0.16082748,0.21312410,0.10705653,0.11318525,0.14361037
0,0,DominicanRepublic,,,2022-03-22 20:42:56.412323,2022-02-27,0.15359440,0.18488251,0.24267283,16661,20055,26324,12830,15708,20968,0.11827545,0.14481113,0.19329544,0.10690143,0.11290390,0.14339415
0,0,DominicanRepublic,,,2022-03-22 20:42:56.412323,2022-02-28,0.13786187,0.16692962,0.21978451,14955,18108,23842,11634,14136,18991,0.10725227,0.13031821,0.17506722,0.10719695,0.11288790,0.14254651
0,0,DominicanRepublic,,,2022-03-22 20:42:56.412323,2022-03-01,0.12351829,0.15055634,0.19916421,13399,16332,21605,10489,12707,17200,0.09669505,0.11713808,0.15856036,0.10752264,0.11614303,0.13981860
0,0,DominicanRepublic,,,2022-03-22 20:42:56.412323,2022-03-02,0.11055234,0.13590329,0.18086985,11992,14742,19620,9438,11431,15579,0.08700822,0.10537542,0.14362010,0.10673905,0.12254588,0.13908421
0,0,DominicanRepublic,,,2022-03-22 20:42:56.412323,2022-03-03,0.09931380,0.12265749,0.16397245,10773,13305,17787,8448,10323,14117,0.07788313,0.09516936,0.13013883,0.10458821,0.12642924,0.14218129
0,0,DominicanRepublic,,,2022-03-22 20:42:56.412323,2022-03-04,0.08948834,0.11116719,0.14846368,9707,12059,16105,7591,9340,12800,0.06998438,0.08610636,0.11799749,0.10352866,0.12751734,0.14609731
0,0,DominicanRepublic,,,2022-03-22 20:42:56.412323,2022-03-05,0.08072578,0.10077908,0.13432601,8757,10932,14571,6837,8438,11593,0.06302710,0.07778595,0.10687322,0.10333577,0.12822499,0.14744240
0,0,DominicanRepublic,,,2022-03-22 20:42:56.412323,2022-03-06,0.07285896,0.09158551,0.12148289,7903,9935,13178,6164,7644,10494,0.05683077,0.07046669,0.09674679,0.10385643,0.12778500,0.14733326
0,0,DominicanRepublic,,,2022-03-22 20:42:56.412323,2022-03-07,0.06575831,0.08322510,0.10998675,7133,9028,11931,5562,6945,9506,0.05127509,0.06402269,0.08763076,0.10544838,0.12640279,0.14538038
0,0,DominicanRepublic,,,2022-03-22 20:42:56.412323,2022-03-08,0.05920404,0.07565095,0.09944142,6422,8206,10787,5018,6303,8604,0.04626345,0.05810806,0.07932082,0.10885724,0.12464076,0.14040354
0,0,DominicanRepublic,,,2022-03-22 20:42:56.412323,2022-03-09,0.05327139,0.06894182,0.08969415,5778,7478,9729,4518,5714,7777,0.04165328,0.05267428,0.07169830,0.10489456,0.12234825,0.13686935
0,0,DominicanRepublic,,,2022-03-22 20:42:56.412323,2022-03-10,0.04794008,0.06265870,0.08070385,5200,6797,8754,4065,5196,7015,0.03747730,0.04789895,0.06467520,0.09633199,0.12039178,0.13526594
0,0,DominicanRepublic,,,2022-03-22 20:42:56.412323,2022-03-11,0.04309946,0.05682761,0.07248927,4675,6164,7863,3657,4725,6315,0.03371528,0.04356534,0.05821669,0.09143256,0.11895622,0.13622551
0,0,DominicanRepublic,,,2022-03-22 20:42:56.412323,2022-03-12,0.03866247,0.05111282,0.06500295,4194,5544,7051,3288,4292,5675,0.03031712,0.03956871,0.05231666,0.08957368,0.11866326,0.13782193
0,0,DominicanRepublic,,,2022-03-22 20:42:56.412323,2022-03-13,0.03466363,0.04623180,0.05816039,3760,5015,6309,2952,3896,5091,0.02721796,0.03591499,0.04693193,0.08904242,0.11859016,0.13825392
0,0,DominicanRepublic,,,2022-03-22 20:42:56.412323,2022-03-14,0.03107355,0.04186795,0.05198345,3370,4541,5639,2647,3517,4552,0.02440791,0.03242920,0.04197073,0.08895893,0.11880018,0.13770255
0,0,DominicanRepublic,,,2022-03-22 20:42:56.412323,2022-03-15,0.02788717,0.03765672,0.04645861,3025,4084,5039,2373,3181,4070,0.02188191,0.02932869,0.03752073,0.08864861,0.11969726,0.13548416
0,0,DominicanRepublic,,,2022-03-22 20:42:56.412323,2022-03-16,0.02503556,0.03400950,0.04172158,2715,3689,4525,2127,2876,3638,0.01961305,0.02651254,0.03353771,0.08653641,0.12210924,0.14468407
0,0,DominicanRepublic,,,2022-03-22 20:42:56.412323,2022-03-17,0.02244411,0.03078496,0.03713644,2434,3339,4028,1910,2601,3251,0.01760816,0.02398082,0.02997626,0.08422280,0.12382264,0.15910155
0,0,DominicanRepublic,,,2022-03-22 20:42:56.412323,2022-03-18,0.02009281,0.02785367,0.03384850,2179,3021,3671,1712,2349,2906,0.01578796,0.02165711,0.02679130,0.08265874,0.12282641,0.16552165
0,0,DominicanRepublic,,,2022-03-22 20:42:56.412323,2022-03-19,0.01797698,0.02542051,0.03052678,1950,2757,3311,1533,2131,2597,0.01413981,0.01965174,0.02394502,0.08165997,0.12233737,0.16757622
0,0,DominicanRepublic,,,2022-03-22 20:42:56.412323,2022-03-20,0.01607869,0.02326011,0.02775809,1744,2523,3011,1372,1924,2361,0.01265463,0.01774395,0.02177216,0.08140256,0.12201092,0.16839198
0,0,DominicanRepublic,,,2022-03-22 20:42:56.412323,2022-03-21,0.01437873,0.02109693,0.02520170,1559,2288,2733,1228,1760,2112,0.01132077,0.01623174,0.01947014,0.08131826,0.12193185,0.16873251
0,0,DominicanRepublic,,,2022-03-22 20:42:56.412323,2022-03-22,0.01285745,0.01907485,0.02306191,1394,2069,2501,1098,1604,1918,0.01012518,0.01478889,0.01768190,0.08128787,0.12190641,0.16886082
0,0,DominicanRepublic,,,2022-03-22 20:42:56.412323,2022-03-23,0.01149668,0.01730893,0.02133916,1247,1877,2314,982,1459,1741,0.00905474,0.01345613,0.01605639,0.08127336,0.12189827,0.16890188
0,0,DominicanRepublic,,,2022-03-22 20:42:56.412323,2022-03-24,0.01027962,0.01556077,0.01965044,1115,1688,2131,878,1317,1586,0.00809694,0.01214129,0.01462694,0.08126873,0.12189568,0.16891499
0,0,DominicanRepublic,,,2022-03-22 20:42:56.412323,2022-03-25,0.00918458,0.01416993,0.01821523,996,1537,1975,785,1194,1470,0.00724012,0.01100900,0.01355370,0.08126726,0.12189485,0.16891917
0,0,DominicanRepublic,,,2022-03-22 20:42:56.412323,2022-03-26,0.00821269,0.01283977,0.01688547,890,1392,1831,701,1078,1350,0.00646920,0.00994080,0.01244730,0.08126679,0.12189458,0.16892051
0,0,DominicanRepublic,,,2022-03-22 20:42:56.412323,2022-03-27,0.00734743,0.01159786,0.01566240,797,1258,1699,627,975,1253,0.00578772,0.00899574,0.01155268,0.08126664,0.12189450,0.16892093
0,0,DominicanRepublic,,,2022-03-22 20:42:56.412323,2022-03-28,0.00657013,0.01052218,0.01451274,712,1141,1574,561,884,1160,0.00517585,0.00815015,0.01069759,0.08126659,0.12189447,0.16892107
0,0,DominicanRepublic,,,2022-03-22 20:42:56.412323,2022-03-29,0.00587457,0.00951846,0.01345409,637,1032,1459,502,800,1075,0.00462791,0.00737814,0.00991425,0.08126657,0.12189446,0.16892111
0,0,DominicanRepublic,,,2022-03-22 20:42:56.412323,2022-03-30,0.00525280,0.00861281,0.01247272,569,934,1353,448,724,996,0.00413804,0.00667893,0.00919055,0.08126657,0.12189446,0.16892113
0,0,DominicanRepublic,,,2022-03-22 20:42:56.412323,2022-03-31,0.00469685,0.00776227,0.01156297,509,842,1254,401,656,924,0.00370008,0.00604950,0.00851981,0.08126657,0.12189446,0.16892113
0,0,DominicanRepublic,,,2022-03-22 20:42:56.412323,2022-04-01,0.00419975,0.00702548,0.01071961,455,762,1162,358,593,856,0.00330850,0.00546812,0.00789811,0.08126657,0.12189446,0.16892113
0,0,DominicanRepublic,,,2022-03-22 20:42:56.412323,2022-04-02,0.00375681,0.00635862,0.00993776,407,689,1078,320,536,794,0.00295837,0.00494601,0.00732184,0.08126656,0.12189446,0.16892113
0,0,DominicanRepublic,,,2022-03-22 20:42:56.412323,2022-04-03,0.00336206,0.00572597,0.00921295,364,621,999,286,482,736,0.00264530,0.00445211,0.00678765,0.08126656,0.12189446,0.16892113
0,0,DominicanRepublic,,,2022-03-22 20:42:56.412323,2022-04-04,0.00300880,0.00518310,0.00854101,326,562,926,256,436,682,0.00236722,0.00402549,0.00629247,0.08126656,0.12189446,0.16892113
0,0,DominicanRepublic,,,2022-03-22 20:42:56.412323,2022-04-05,0.00269265,0.00466758,0.00791807,292,506,858,229,395,632,0.00211850,0.00364338,0.00583181,0.08126656,0.12189446,0.16892113
