FIPS,HR_UID,nameid,province,region,analysisTime,dates,pointprevalence_025,pointprevalence_50,pointprevalence_975,pointinfections_025,pointinfections_50,pointinfections_975,pointinfectious_025,pointinfectious_50,pointinfectious_975,pointinfectiousprevalence_025,pointinfectiousprevalence_50,pointinfectiousprevalence_975,infectrate_025,infectrate_50,infectrate_975
19047,0,USIowaCrawford,Iowa,Crawford,2022-04-28 09:13:11,2020-03-19,0,0,0,,,,,,,,,,,,
19047,0,USIowaCrawford,Iowa,Crawford,2022-04-28 09:13:11,2020-03-20,0,0,0,,,,,,,,,,,,
19047,0,USIowaCrawford,Iowa,Crawford,2022-04-28 09:13:11,2020-03-21,0,0,0,,,,,,,,,,,,
19047,0,USIowaCrawford,Iowa,Crawford,2022-04-28 09:13:11,2020-03-22,0,0,0,,,,,,,,,,,,
19047,0,USIowaCrawford,Iowa,Crawford,2022-04-28 09:13:11,2020-03-23,0,0,0,,,,,,,,,,,,
19047,0,USIowaCrawford,Iowa,Crawford,2022-04-28 09:13:11,2020-03-24,0,0,0,,,,,,,,,,,,
19047,0,USIowaCrawford,Iowa,Crawford,2022-04-28 09:13:11,2020-03-25,0,0,0,,,,,,,,,,,,
19047,0,USIowaCrawford,Iowa,Crawford,2022-04-28 09:13:11,2020-03-26,0.057326120249313384,0.22232624378293706,0.9171941727569827,,,,,,,,,,,,
19047,0,USIowaCrawford,Iowa,Crawford,2022-04-28 09:13:11,2020-03-27,0.057326120249313384,0.22232624378293706,0.9171941727569827,,,,,,,,,,,,
19047,0,USIowaCrawford,Iowa,Crawford,2022-04-28 09:13:11,2020-03-28,0.057326120249313384,0.22232624378293706,0.9171941727569827,,,,,,,,,,,,
19047,0,USIowaCrawford,Iowa,Crawford,2022-04-28 09:13:11,2020-03-29,0.057326120249313384,0.22232624378293706,0.9171941727569827,,,,,,,,,,,,
19047,0,USIowaCrawford,Iowa,Crawford,2022-04-28 09:13:11,2020-03-30,0.057326120249313384,0.22232624378293706,0.9171941727569827,,,,,,,,,,,,
19047,0,USIowaCrawford,Iowa,Crawford,2022-04-28 09:13:11,2020-03-31,0.057326120249313384,0.22232624378293706,0.9171941727569827,,,,,,,,,,,,
19047,0,USIowaCrawford,Iowa,Crawford,2022-04-28 09:13:11,2020-04-01,0.057326120249313384,0.22232624378293706,0.9171941727569827,,,,,,,,,,,,
19047,0,USIowaCrawford,Iowa,Crawford,2022-04-28 09:13:11,2020-04-02,0.19873105484370943,0.5680805088370161,1.7446214154429733,,,,,,,,,,,,
19047,0,USIowaCrawford,Iowa,Crawford,2022-04-28 09:13:11,2020-04-03,0.19873105484370943,0.5680805088370161,1.7446214154429733,,,,,,,,,,,,
19047,0,USIowaCrawford,Iowa,Crawford,2022-04-28 09:13:11,2020-04-04,0.19873105484370943,0.5680805088370161,1.7446214154429733,,,,,,,,,,,,
19047,0,USIowaCrawford,Iowa,Crawford,2022-04-28 09:13:11,2020-04-05,0.19873105484370943,0.5680805088370161,1.7446214154429733,,,,,,,,,,,,
19047,0,USIowaCrawford,Iowa,Crawford,2022-04-28 09:13:11,2020-04-06,0.19873105484370943,0.5680805088370161,1.7446214154429733,,,,,,,,,,,,
19047,0,USIowaCrawford,Iowa,Crawford,2022-04-28 09:13:11,2020-04-07,0.19873105484370943,0.5680805088370161,1.7446214154429733,,,,,,,,,,,,
19047,0,USIowaCrawford,Iowa,Crawford,2022-04-28 09:13:11,2020-04-08,0.19873105484370943,0.5680805088370161,1.7446214154429733,,,,,,,,,,,,
19047,0,USIowaCrawford,Iowa,Crawford,2022-04-28 09:13:11,2020-04-09,0,0,0,,,,,,,,,,,,
19047,0,USIowaCrawford,Iowa,Crawford,2022-04-28 09:13:11,2020-04-10,0,0,0,,,,,,,,,,,,
19047,0,USIowaCrawford,Iowa,Crawford,2022-04-28 09:13:11,2020-04-11,0,0,0,,,,,,,,,,,,
19047,0,USIowaCrawford,Iowa,Crawford,2022-04-28 09:13:11,2020-04-12,0,0,0,,,,,,,,,,,,
19047,0,USIowaCrawford,Iowa,Crawford,2022-04-28 09:13:11,2020-04-13,0,0,0,,,,,,,,,,,,
19047,0,USIowaCrawford,Iowa,Crawford,2022-04-28 09:13:11,2020-04-14,0,0,0,,,,,,,,,,,,
19047,0,USIowaCrawford,Iowa,Crawford,2022-04-28 09:13:11,2020-04-15,0,0,0,,,,,,,,,,,,
19047,0,USIowaCrawford,Iowa,Crawford,2022-04-28 09:13:11,2020-04-16,0,0,0,,,,,,,,,,,,
19047,0,USIowaCrawford,Iowa,Crawford,2022-04-28 09:13:11,2020-04-17,0,0,0,,,,,,,,,,,,
19047,0,USIowaCrawford,Iowa,Crawford,2022-04-28 09:13:11,2020-04-18,0,0,0,,,,,,,,,,,,
19047,0,USIowaCrawford,Iowa,Crawford,2022-04-28 09:13:11,2020-04-19,0,0,0,,,,,,,,,,,,
19047,0,USIowaCrawford,Iowa,Crawford,2022-04-28 09:13:11,2020-04-20,0,0,0,,,,,,,,,,,,
19047,0,USIowaCrawford,Iowa,Crawford,2022-04-28 09:13:11,2020-04-21,0,0,0,,,,,,,,,,,,
19047,0,USIowaCrawford,Iowa,Crawford,2022-04-28 09:13:11,2020-04-22,0,0,0,,,,,,,,,,,,
19047,0,USIowaCrawford,Iowa,Crawford,2022-04-28 09:13:11,2020-04-23,0.5648127169077629,1.5411018512744183,4.521331283551129,,,,,,,,,,,,
19047,0,USIowaCrawford,Iowa,Crawford,2022-04-28 09:13:11,2020-04-24,0.5648127169077629,1.5411018512744183,4.521331283551129,,,,,,,,,,,,
19047,0,USIowaCrawford,Iowa,Crawford,2022-04-28 09:13:11,2020-04-25,0.5648127169077629,1.5411018512744183,4.521331283551129,,,,,,,,,,,,
19047,0,USIowaCrawford,Iowa,Crawford,2022-04-28 09:13:11,2020-04-26,0.5648127169077629,1.5411018512744183,4.521331283551129,,,,,,,,,,,,
19047,0,USIowaCrawford,Iowa,Crawford,2022-04-28 09:13:11,2020-04-27,0.5648127169077629,1.5411018512744183,4.521331283551129,,,,,,,,,,,,
19047,0,USIowaCrawford,Iowa,Crawford,2022-04-28 09:13:11,2020-04-28,0.5648127169077629,1.5411018512744183,4.521331283551129,,,,,,,,,,,,
19047,0,USIowaCrawford,Iowa,Crawford,2022-04-28 09:13:11,2020-04-29,0.5648127169077629,1.5411018512744183,4.521331283551129,,,,,,,,,,,,
19047,0,USIowaCrawford,Iowa,Crawford,2022-04-28 09:13:11,2020-04-30,1.884922469884865,3.3072821273363884,6.177399035823019,,,,,,,,,,,,
19047,0,USIowaCrawford,Iowa,Crawford,2022-04-28 09:13:11,2020-05-01,1.884922469884865,3.3072821273363884,6.177399035823019,,,,,,,,,,,,
19047,0,USIowaCrawford,Iowa,Crawford,2022-04-28 09:13:11,2020-05-02,1.884922469884865,3.3072821273363884,6.177399035823019,,,,,,,,,,,,
19047,0,USIowaCrawford,Iowa,Crawford,2022-04-28 09:13:11,2020-05-03,1.884922469884865,3.3072821273363884,6.177399035823019,,,,,,,,,,,,
19047,0,USIowaCrawford,Iowa,Crawford,2022-04-28 09:13:11,2020-05-04,1.884922469884865,3.3072821273363884,6.177399035823019,,,,,,,,,,,,
19047,0,USIowaCrawford,Iowa,Crawford,2022-04-28 09:13:11,2020-05-05,1.884922469884865,3.3072821273363884,6.177399035823019,,,,,,,,,,,,
19047,0,USIowaCrawford,Iowa,Crawford,2022-04-28 09:13:11,2020-05-06,1.884922469884865,3.3072821273363884,6.177399035823019,,,,,,,,,,,,
19047,0,USIowaCrawford,Iowa,Crawford,2022-04-28 09:13:11,2020-05-07,2.1527747458621698,3.4310060703708913,5.774023638176703,,,,,,,,,,,,
19047,0,USIowaCrawford,Iowa,Crawford,2022-04-28 09:13:11,2020-05-08,2.1527747458621698,3.4310060703708913,5.774023638176703,,,,,,,,,,,,
19047,0,USIowaCrawford,Iowa,Crawford,2022-04-28 09:13:11,2020-05-09,2.1527747458621698,3.4310060703708913,5.774023638176703,,,,,,,,,,,,
19047,0,USIowaCrawford,Iowa,Crawford,2022-04-28 09:13:11,2020-05-10,2.1527747458621698,3.4310060703708913,5.774023638176703,,,,,,,,,,,,
19047,0,USIowaCrawford,Iowa,Crawford,2022-04-28 09:13:11,2020-05-11,2.1527747458621698,3.4310060703708913,5.774023638176703,,,,,,,,,,,,
19047,0,USIowaCrawford,Iowa,Crawford,2022-04-28 09:13:11,2020-05-12,2.1527747458621698,3.4310060703708913,5.774023638176703,,,,,,,,,,,,
19047,0,USIowaCrawford,Iowa,Crawford,2022-04-28 09:13:11,2020-05-13,2.1527747458621698,3.4310060703708913,5.774023638176703,,,,,,,,,,,,
19047,0,USIowaCrawford,Iowa,Crawford,2022-04-28 09:13:11,2020-05-14,3.433089845767291,4.555199557238285,6.242907147360112,,,,,,,,,,,,
19047,0,USIowaCrawford,Iowa,Crawford,2022-04-28 09:13:11,2020-05-15,3.433089845767291,4.555199557238285,6.242907147360112,,,,,,,,,,,,
19047,0,USIowaCrawford,Iowa,Crawford,2022-04-28 09:13:11,2020-05-16,3.433089845767291,4.555199557238285,6.242907147360112,,,,,,,,,,,,
19047,0,USIowaCrawford,Iowa,Crawford,2022-04-28 09:13:11,2020-05-17,3.433089845767291,4.555199557238285,6.242907147360112,,,,,,,,,,,,
19047,0,USIowaCrawford,Iowa,Crawford,2022-04-28 09:13:11,2020-05-18,3.433089845767291,4.555199557238285,6.242907147360112,,,,,,,,,,,,
19047,0,USIowaCrawford,Iowa,Crawford,2022-04-28 09:13:11,2020-05-19,3.433089845767291,4.555199557238285,6.242907147360112,,,,,,,,,,,,
19047,0,USIowaCrawford,Iowa,Crawford,2022-04-28 09:13:11,2020-05-20,3.433089845767291,4.555199557238285,6.242907147360112,,,,,,,,,,,,
19047,0,USIowaCrawford,Iowa,Crawford,2022-04-28 09:13:11,2020-05-21,1.6126277664848014,2.5672905698416786,4.3152214867405085,,,,,,,,,,,,
19047,0,USIowaCrawford,Iowa,Crawford,2022-04-28 09:13:11,2020-05-22,1.6126277664848014,2.5672905698416786,4.3152214867405085,,,,,,,,,,,,
19047,0,USIowaCrawford,Iowa,Crawford,2022-04-28 09:13:11,2020-05-23,1.6126277664848014,2.5672905698416786,4.3152214867405085,,,,,,,,,,,,
19047,0,USIowaCrawford,Iowa,Crawford,2022-04-28 09:13:11,2020-05-24,1.6126277664848014,2.5672905698416786,4.3152214867405085,,,,,,,,,,,,
19047,0,USIowaCrawford,Iowa,Crawford,2022-04-28 09:13:11,2020-05-25,1.6126277664848014,2.5672905698416786,4.3152214867405085,,,,,,,,,,,,
19047,0,USIowaCrawford,Iowa,Crawford,2022-04-28 09:13:11,2020-05-26,1.6126277664848014,2.5672905698416786,4.3152214867405085,,,,,,,,,,,,
19047,0,USIowaCrawford,Iowa,Crawford,2022-04-28 09:13:11,2020-05-27,1.6126277664848014,2.5672905698416786,4.3152214867405085,,,,,,,,,,,,
19047,0,USIowaCrawford,Iowa,Crawford,2022-04-28 09:13:11,2020-05-28,1.123443131906207,1.7988047520082109,3.042605006802686,,,,,,,,,,,,
19047,0,USIowaCrawford,Iowa,Crawford,2022-04-28 09:13:11,2020-05-29,1.123443131906207,1.7988047520082109,3.042605006802686,,,,,,,,,,,,
19047,0,USIowaCrawford,Iowa,Crawford,2022-04-28 09:13:11,2020-05-30,1.123443131906207,1.7988047520082109,3.042605006802686,,,,,,,,,,,,
19047,0,USIowaCrawford,Iowa,Crawford,2022-04-28 09:13:11,2020-05-31,1.123443131906207,1.7988047520082109,3.042605006802686,,,,,,,,,,,,
19047,0,USIowaCrawford,Iowa,Crawford,2022-04-28 09:13:11,2020-06-01,1.123443131906207,1.7988047520082109,3.042605006802686,,,,,,,,,,,,
19047,0,USIowaCrawford,Iowa,Crawford,2022-04-28 09:13:11,2020-06-02,1.123443131906207,1.7988047520082109,3.042605006802686,,,,,,,,,,,,
19047,0,USIowaCrawford,Iowa,Crawford,2022-04-28 09:13:11,2020-06-03,1.123443131906207,1.7988047520082109,3.042605006802686,,,,,,,,,,,,
19047,0,USIowaCrawford,Iowa,Crawford,2022-04-28 09:13:11,2020-06-04,0.9643237694305213,1.5865254051797062,2.7643285623468157,,,,,,,,,,,,
19047,0,USIowaCrawford,Iowa,Crawford,2022-04-28 09:13:11,2020-06-05,0.9643237694305213,1.5865254051797062,2.7643285623468157,,,,,,,,,,,,
19047,0,USIowaCrawford,Iowa,Crawford,2022-04-28 09:13:11,2020-06-06,0.9643237694305213,1.5865254051797062,2.7643285623468157,,,,,,,,,,,,
19047,0,USIowaCrawford,Iowa,Crawford,2022-04-28 09:13:11,2020-06-07,0.9643237694305213,1.5865254051797062,2.7643285623468157,,,,,,,,,,,,
19047,0,USIowaCrawford,Iowa,Crawford,2022-04-28 09:13:11,2020-06-08,0.9643237694305213,1.5865254051797062,2.7643285623468157,,,,,,,,,,,,
19047,0,USIowaCrawford,Iowa,Crawford,2022-04-28 09:13:11,2020-06-09,0.9643237694305213,1.5865254051797062,2.7643285623468157,,,,,,,,,,,,
19047,0,USIowaCrawford,Iowa,Crawford,2022-04-28 09:13:11,2020-06-10,0.9643237694305213,1.5865254051797062,2.7643285623468157,,,,,,,,,,,,
19047,0,USIowaCrawford,Iowa,Crawford,2022-04-28 09:13:11,2020-06-11,0.8782283083112592,1.4443092499512882,2.515452983698871,,,,,,,,,,,,
19047,0,USIowaCrawford,Iowa,Crawford,2022-04-28 09:13:11,2020-06-12,0.8782283083112592,1.4443092499512882,2.515452983698871,,,,,,,,,,,,
19047,0,USIowaCrawford,Iowa,Crawford,2022-04-28 09:13:11,2020-06-13,0.8782283083112592,1.4443092499512882,2.515452983698871,,,,,,,,,,,,
19047,0,USIowaCrawford,Iowa,Crawford,2022-04-28 09:13:11,2020-06-14,0.8782283083112592,1.4443092499512882,2.515452983698871,,,,,,,,,,,,
19047,0,USIowaCrawford,Iowa,Crawford,2022-04-28 09:13:11,2020-06-15,0.8782283083112592,1.4443092499512882,2.515452983698871,,,,,,,,,,,,
19047,0,USIowaCrawford,Iowa,Crawford,2022-04-28 09:13:11,2020-06-16,0.8782283083112592,1.4443092499512882,2.515452983698871,,,,,,,,,,,,
19047,0,USIowaCrawford,Iowa,Crawford,2022-04-28 09:13:11,2020-06-17,0.8782283083112592,1.4443092499512882,2.515452983698871,,,,,,,,,,,,
19047,0,USIowaCrawford,Iowa,Crawford,2022-04-28 09:13:11,2020-06-18,0.41122263616481,0.8471980257407637,1.8733880399860403,,,,,,,,,,,,
19047,0,USIowaCrawford,Iowa,Crawford,2022-04-28 09:13:11,2020-06-19,0.41122263616481,0.8471980257407637,1.8733880399860403,,,,,,,,,,,,
19047,0,USIowaCrawford,Iowa,Crawford,2022-04-28 09:13:11,2020-06-20,0.41122263616481,0.8471980257407637,1.8733880399860403,,,,,,,,,,,,
19047,0,USIowaCrawford,Iowa,Crawford,2022-04-28 09:13:11,2020-06-21,0.41122263616481,0.8471980257407637,1.8733880399860403,,,,,,,,,,,,
19047,0,USIowaCrawford,Iowa,Crawford,2022-04-28 09:13:11,2020-06-22,0.41122263616481,0.8471980257407637,1.8733880399860403,,,,,,,,,,,,
19047,0,USIowaCrawford,Iowa,Crawford,2022-04-28 09:13:11,2020-06-23,0.41122263616481,0.8471980257407637,1.8733880399860403,,,,,,,,,,,,
19047,0,USIowaCrawford,Iowa,Crawford,2022-04-28 09:13:11,2020-06-24,0.41122263616481,0.8471980257407637,1.8733880399860403,,,,,,,,,,,,
19047,0,USIowaCrawford,Iowa,Crawford,2022-04-28 09:13:11,2020-06-25,0.6185522337370615,1.1609032886896853,2.3292010658803903,,,,,,,,,,,,
19047,0,USIowaCrawford,Iowa,Crawford,2022-04-28 09:13:11,2020-06-26,0.6185522337370615,1.1609032886896853,2.3292010658803903,,,,,,,,,,,,
19047,0,USIowaCrawford,Iowa,Crawford,2022-04-28 09:13:11,2020-06-27,0.6185522337370615,1.1609032886896853,2.3292010658803903,,,,,,,,,,,,
19047,0,USIowaCrawford,Iowa,Crawford,2022-04-28 09:13:11,2020-06-28,0.6185522337370615,1.1609032886896853,2.3292010658803903,,,,,,,,,,,,
19047,0,USIowaCrawford,Iowa,Crawford,2022-04-28 09:13:11,2020-06-29,0.6185522337370615,1.1609032886896853,2.3292010658803903,,,,,,,,,,,,
19047,0,USIowaCrawford,Iowa,Crawford,2022-04-28 09:13:11,2020-06-30,0.6185522337370615,1.1609032886896853,2.3292010658803903,,,,,,,,,,,,
19047,0,USIowaCrawford,Iowa,Crawford,2022-04-28 09:13:11,2020-07-01,0.6185522337370615,1.1609032886896853,2.3292010658803903,,,,,,,,,,,,
19047,0,USIowaCrawford,Iowa,Crawford,2022-04-28 09:13:11,2020-07-02,0.3923596122257124,0.8813117855153846,2.1290595248700415,,,,,,,,,,,,
19047,0,USIowaCrawford,Iowa,Crawford,2022-04-28 09:13:11,2020-07-03,0.3923596122257124,0.8813117855153846,2.1290595248700415,,,,,,,,,,,,
19047,0,USIowaCrawford,Iowa,Crawford,2022-04-28 09:13:11,2020-07-04,0.3923596122257124,0.8813117855153846,2.1290595248700415,,,,,,,,,,,,
19047,0,USIowaCrawford,Iowa,Crawford,2022-04-28 09:13:11,2020-07-05,0.3923596122257124,0.8813117855153846,2.1290595248700415,,,,,,,,,,,,
19047,0,USIowaCrawford,Iowa,Crawford,2022-04-28 09:13:11,2020-07-06,0.3923596122257124,0.8813117855153846,2.1290595248700415,,,,,,,,,,,,
19047,0,USIowaCrawford,Iowa,Crawford,2022-04-28 09:13:11,2020-07-07,0.3923596122257124,0.8813117855153846,2.1290595248700415,,,,,,,,,,,,
19047,0,USIowaCrawford,Iowa,Crawford,2022-04-28 09:13:11,2020-07-08,0.3923596122257124,0.8813117855153846,2.1290595248700415,,,,,,,,,,,,
19047,0,USIowaCrawford,Iowa,Crawford,2022-04-28 09:13:11,2020-07-09,0.1660039694551271,0.4923706416090465,1.5676695326937025,,,,,,,,,,,,
19047,0,USIowaCrawford,Iowa,Crawford,2022-04-28 09:13:11,2020-07-10,0.1660039694551271,0.4923706416090465,1.5676695326937025,,,,,,,,,,,,
19047,0,USIowaCrawford,Iowa,Crawford,2022-04-28 09:13:11,2020-07-11,0.1660039694551271,0.4923706416090465,1.5676695326937025,,,,,,,,,,,,
19047,0,USIowaCrawford,Iowa,Crawford,2022-04-28 09:13:11,2020-07-12,0.1660039694551271,0.4923706416090465,1.5676695326937025,,,,,,,,,,,,
19047,0,USIowaCrawford,Iowa,Crawford,2022-04-28 09:13:11,2020-07-13,0.1660039694551271,0.4923706416090465,1.5676695326937025,,,,,,,,,,,,
19047,0,USIowaCrawford,Iowa,Crawford,2022-04-28 09:13:11,2020-07-14,0.1660039694551271,0.4923706416090465,1.5676695326937025,,,,,,,,,,,,
19047,0,USIowaCrawford,Iowa,Crawford,2022-04-28 09:13:11,2020-07-15,0.1660039694551271,0.4923706416090465,1.5676695326937025,,,,,,,,,,,,
19047,0,USIowaCrawford,Iowa,Crawford,2022-04-28 09:13:11,2020-07-16,0.2764628850977693,0.7000442877848758,1.9074651164026255,,,,,,,,,,,,
19047,0,USIowaCrawford,Iowa,Crawford,2022-04-28 09:13:11,2020-07-17,0.2764628850977693,0.7000442877848758,1.9074651164026255,,,,,,,,,,,,
19047,0,USIowaCrawford,Iowa,Crawford,2022-04-28 09:13:11,2020-07-18,0.2764628850977693,0.7000442877848758,1.9074651164026255,,,,,,,,,,,,
19047,0,USIowaCrawford,Iowa,Crawford,2022-04-28 09:13:11,2020-07-19,0.2764628850977693,0.7000442877848758,1.9074651164026255,,,,,,,,,,,,
19047,0,USIowaCrawford,Iowa,Crawford,2022-04-28 09:13:11,2020-07-20,0.2764628850977693,0.7000442877848758,1.9074651164026255,,,,,,,,,,,,
19047,0,USIowaCrawford,Iowa,Crawford,2022-04-28 09:13:11,2020-07-21,0.2764628850977693,0.7000442877848758,1.9074651164026255,,,,,,,,,,,,
19047,0,USIowaCrawford,Iowa,Crawford,2022-04-28 09:13:11,2020-07-22,0.2764628850977693,0.7000442877848758,1.9074651164026255,,,,,,,,,,,,
19047,0,USIowaCrawford,Iowa,Crawford,2022-04-28 09:13:11,2020-07-23,0.42913304616654036,0.977322517985967,2.3942970100301038,,,,,,,,,,,,
19047,0,USIowaCrawford,Iowa,Crawford,2022-04-28 09:13:11,2020-07-24,0.42913304616654036,0.977322517985967,2.3942970100301038,,,,,,,,,,,,
19047,0,USIowaCrawford,Iowa,Crawford,2022-04-28 09:13:11,2020-07-25,0.42913304616654036,0.977322517985967,2.3942970100301038,,,,,,,,,,,,
19047,0,USIowaCrawford,Iowa,Crawford,2022-04-28 09:13:11,2020-07-26,0.42913304616654036,0.977322517985967,2.3942970100301038,,,,,,,,,,,,
19047,0,USIowaCrawford,Iowa,Crawford,2022-04-28 09:13:11,2020-07-27,0.42913304616654036,0.977322517985967,2.3942970100301038,,,,,,,,,,,,
19047,0,USIowaCrawford,Iowa,Crawford,2022-04-28 09:13:11,2020-07-28,0.42913304616654036,0.977322517985967,2.3942970100301038,,,,,,,,,,,,
19047,0,USIowaCrawford,Iowa,Crawford,2022-04-28 09:13:11,2020-07-29,0.42913304616654036,0.977322517985967,2.3942970100301038,,,,,,,,,,,,
19047,0,USIowaCrawford,Iowa,Crawford,2022-04-28 09:13:11,2020-07-30,0.7155036668212683,1.4294531876102219,3.061856485561472,,,,,,,,,,,,
19047,0,USIowaCrawford,Iowa,Crawford,2022-04-28 09:13:11,2020-07-31,0.7155036668212683,1.4294531876102219,3.061856485561472,,,,,,,,,,,,
19047,0,USIowaCrawford,Iowa,Crawford,2022-04-28 09:13:11,2020-08-01,0.7155036668212683,1.4294531876102219,3.061856485561472,,,,,,,,,,,,
19047,0,USIowaCrawford,Iowa,Crawford,2022-04-28 09:13:11,2020-08-02,0.7155036668212683,1.4294531876102219,3.061856485561472,,,,,,,,,,,,
19047,0,USIowaCrawford,Iowa,Crawford,2022-04-28 09:13:11,2020-08-03,0.7155036668212683,1.4294531876102219,3.061856485561472,,,,,,,,,,,,
19047,0,USIowaCrawford,Iowa,Crawford,2022-04-28 09:13:11,2020-08-04,0.7155036668212683,1.4294531876102219,3.061856485561472,,,,,,,,,,,,
19047,0,USIowaCrawford,Iowa,Crawford,2022-04-28 09:13:11,2020-08-05,0.7155036668212683,1.4294531876102219,3.061856485561472,,,,,,,,,,,,
19047,0,USIowaCrawford,Iowa,Crawford,2022-04-28 09:13:11,2020-08-06,0.3354414616749992,0.8274664124814861,2.1966605714065572,,,,,,,,,,,,
19047,0,USIowaCrawford,Iowa,Crawford,2022-04-28 09:13:11,2020-08-07,0.3354414616749992,0.8274664124814861,2.1966605714065572,,,,,,,,,,,,
19047,0,USIowaCrawford,Iowa,Crawford,2022-04-28 09:13:11,2020-08-08,0.3354414616749992,0.8274664124814861,2.1966605714065572,,,,,,,,,,,,
19047,0,USIowaCrawford,Iowa,Crawford,2022-04-28 09:13:11,2020-08-09,0.3354414616749992,0.8274664124814861,2.1966605714065572,,,,,,,,,,,,
19047,0,USIowaCrawford,Iowa,Crawford,2022-04-28 09:13:11,2020-08-10,0.3354414616749992,0.8274664124814861,2.1966605714065572,,,,,,,,,,,,
19047,0,USIowaCrawford,Iowa,Crawford,2022-04-28 09:13:11,2020-08-11,0.3354414616749992,0.8274664124814861,2.1966605714065572,,,,,,,,,,,,
19047,0,USIowaCrawford,Iowa,Crawford,2022-04-28 09:13:11,2020-08-12,0.3354414616749992,0.8274664124814861,2.1966605714065572,,,,,,,,,,,,
19047,0,USIowaCrawford,Iowa,Crawford,2022-04-28 09:13:11,2020-08-13,0.7786290007295322,1.5264342598233962,3.2058416222625077,,,,,,,,,,,,
19047,0,USIowaCrawford,Iowa,Crawford,2022-04-28 09:13:11,2020-08-14,0.7786290007295322,1.5264342598233962,3.2058416222625077,,,,,,,,,,,,
19047,0,USIowaCrawford,Iowa,Crawford,2022-04-28 09:13:11,2020-08-15,0.7786290007295322,1.5264342598233962,3.2058416222625077,,,,,,,,,,,,
19047,0,USIowaCrawford,Iowa,Crawford,2022-04-28 09:13:11,2020-08-16,0.7786290007295322,1.5264342598233962,3.2058416222625077,,,,,,,,,,,,
19047,0,USIowaCrawford,Iowa,Crawford,2022-04-28 09:13:11,2020-08-17,0.7786290007295322,1.5264342598233962,3.2058416222625077,,,,,,,,,,,,
19047,0,USIowaCrawford,Iowa,Crawford,2022-04-28 09:13:11,2020-08-18,0.7786290007295322,1.5264342598233962,3.2058416222625077,,,,,,,,,,,,
19047,0,USIowaCrawford,Iowa,Crawford,2022-04-28 09:13:11,2020-08-19,0.7786290007295322,1.5264342598233962,3.2058416222625077,,,,,,,,,,,,
19047,0,USIowaCrawford,Iowa,Crawford,2022-04-28 09:13:11,2020-08-20,1.0532283526905253,2.1405397696962583,4.667224809636006,,,,,,,,,,,,
19047,0,USIowaCrawford,Iowa,Crawford,2022-04-28 09:13:11,2020-08-21,1.0532283526905253,2.1405397696962583,4.667224809636006,,,,,,,,,,,,
19047,0,USIowaCrawford,Iowa,Crawford,2022-04-28 09:13:11,2020-08-22,1.0532283526905253,2.1405397696962583,4.667224809636006,,,,,,,,,,,,
19047,0,USIowaCrawford,Iowa,Crawford,2022-04-28 09:13:11,2020-08-23,1.0532283526905253,2.1405397696962583,4.667224809636006,,,,,,,,,,,,
19047,0,USIowaCrawford,Iowa,Crawford,2022-04-28 09:13:11,2020-08-24,1.0532283526905253,2.1405397696962583,4.667224809636006,,,,,,,,,,,,
19047,0,USIowaCrawford,Iowa,Crawford,2022-04-28 09:13:11,2020-08-25,1.0532283526905253,2.1405397696962583,4.667224809636006,,,,,,,,,,,,
19047,0,USIowaCrawford,Iowa,Crawford,2022-04-28 09:13:11,2020-08-26,1.0532283526905253,2.1405397696962583,4.667224809636006,,,,,,,,,,,,
19047,0,USIowaCrawford,Iowa,Crawford,2022-04-28 09:13:11,2020-08-27,1.042954191908478,2.2033132960998274,4.999722567676724,,,,,,,,,,,,
19047,0,USIowaCrawford,Iowa,Crawford,2022-04-28 09:13:11,2020-08-28,1.042954191908478,2.2033132960998274,4.999722567676724,,,,,,,,,,,,
19047,0,USIowaCrawford,Iowa,Crawford,2022-04-28 09:13:11,2020-08-29,1.042954191908478,2.2033132960998274,4.999722567676724,,,,,,,,,,,,
19047,0,USIowaCrawford,Iowa,Crawford,2022-04-28 09:13:11,2020-08-30,1.042954191908478,2.2033132960998274,4.999722567676724,,,,,,,,,,,,
19047,0,USIowaCrawford,Iowa,Crawford,2022-04-28 09:13:11,2020-08-31,1.042954191908478,2.2033132960998274,4.999722567676724,,,,,,,,,,,,
19047,0,USIowaCrawford,Iowa,Crawford,2022-04-28 09:13:11,2020-09-01,1.042954191908478,2.2033132960998274,4.999722567676724,,,,,,,,,,,,
19047,0,USIowaCrawford,Iowa,Crawford,2022-04-28 09:13:11,2020-09-02,1.042954191908478,2.2033132960998274,4.999722567676724,,,,,,,,,,,,
19047,0,USIowaCrawford,Iowa,Crawford,2022-04-28 09:13:11,2020-09-03,0.983246125700583,2.0188296002664035,4.448604347546517,,,,,,,,,,,,
19047,0,USIowaCrawford,Iowa,Crawford,2022-04-28 09:13:11,2020-09-04,0.983246125700583,2.0188296002664035,4.448604347546517,,,,,,,,,,,,
19047,0,USIowaCrawford,Iowa,Crawford,2022-04-28 09:13:11,2020-09-05,0.983246125700583,2.0188296002664035,4.448604347546517,,,,,,,,,,,,
19047,0,USIowaCrawford,Iowa,Crawford,2022-04-28 09:13:11,2020-09-06,0.983246125700583,2.0188296002664035,4.448604347546517,,,,,,,,,,,,
19047,0,USIowaCrawford,Iowa,Crawford,2022-04-28 09:13:11,2020-09-07,0.983246125700583,2.0188296002664035,4.448604347546517,,,,,,,,,,,,
19047,0,USIowaCrawford,Iowa,Crawford,2022-04-28 09:13:11,2020-09-08,0.983246125700583,2.0188296002664035,4.448604347546517,,,,,,,,,,,,
19047,0,USIowaCrawford,Iowa,Crawford,2022-04-28 09:13:11,2020-09-09,0.983246125700583,2.0188296002664035,4.448604347546517,,,,,,,,,,,,
19047,0,USIowaCrawford,Iowa,Crawford,2022-04-28 09:13:11,2020-09-10,1.384370199800374,2.514208559264604,4.872024205878339,,,,,,,,,,,,
19047,0,USIowaCrawford,Iowa,Crawford,2022-04-28 09:13:11,2020-09-11,1.384370199800374,2.514208559264604,4.872024205878339,,,,,,,,,,,,
19047,0,USIowaCrawford,Iowa,Crawford,2022-04-28 09:13:11,2020-09-12,1.384370199800374,2.514208559264604,4.872024205878339,,,,,,,,,,,,
19047,0,USIowaCrawford,Iowa,Crawford,2022-04-28 09:13:11,2020-09-13,1.384370199800374,2.514208559264604,4.872024205878339,,,,,,,,,,,,
19047,0,USIowaCrawford,Iowa,Crawford,2022-04-28 09:13:11,2020-09-14,1.384370199800374,2.514208559264604,4.872024205878339,,,,,,,,,,,,
19047,0,USIowaCrawford,Iowa,Crawford,2022-04-28 09:13:11,2020-09-15,1.384370199800374,2.514208559264604,4.872024205878339,,,,,,,,,,,,
19047,0,USIowaCrawford,Iowa,Crawford,2022-04-28 09:13:11,2020-09-16,1.384370199800374,2.514208559264604,4.872024205878339,,,,,,,,,,,,
19047,0,USIowaCrawford,Iowa,Crawford,2022-04-28 09:13:11,2020-09-17,2.306977881775238,3.816794206821507,6.690929306043398,,,,,,,,,,,,
19047,0,USIowaCrawford,Iowa,Crawford,2022-04-28 09:13:11,2020-09-18,2.306977881775238,3.816794206821507,6.690929306043398,,,,,,,,,,,,
19047,0,USIowaCrawford,Iowa,Crawford,2022-04-28 09:13:11,2020-09-19,2.306977881775238,3.816794206821507,6.690929306043398,,,,,,,,,,,,
19047,0,USIowaCrawford,Iowa,Crawford,2022-04-28 09:13:11,2020-09-20,2.306977881775238,3.816794206821507,6.690929306043398,,,,,,,,,,,,
19047,0,USIowaCrawford,Iowa,Crawford,2022-04-28 09:13:11,2020-09-21,2.306977881775238,3.816794206821507,6.690929306043398,,,,,,,,,,,,
19047,0,USIowaCrawford,Iowa,Crawford,2022-04-28 09:13:11,2020-09-22,2.306977881775238,3.816794206821507,6.690929306043398,,,,,,,,,,,,
19047,0,USIowaCrawford,Iowa,Crawford,2022-04-28 09:13:11,2020-09-23,2.306977881775238,3.816794206821507,6.690929306043398,,,,,,,,,,,,
19047,0,USIowaCrawford,Iowa,Crawford,2022-04-28 09:13:11,2020-09-24,1.7794163521480277,3.2139542651589084,6.1917020039118045,,,,,,,,,,,,
19047,0,USIowaCrawford,Iowa,Crawford,2022-04-28 09:13:11,2020-09-25,1.7794163521480277,3.2139542651589084,6.1917020039118045,,,,,,,,,,,,
19047,0,USIowaCrawford,Iowa,Crawford,2022-04-28 09:13:11,2020-09-26,1.7794163521480277,3.2139542651589084,6.1917020039118045,,,,,,,,,,,,
19047,0,USIowaCrawford,Iowa,Crawford,2022-04-28 09:13:11,2020-09-27,1.7794163521480277,3.2139542651589084,6.1917020039118045,,,,,,,,,,,,
19047,0,USIowaCrawford,Iowa,Crawford,2022-04-28 09:13:11,2020-09-28,1.7794163521480277,3.2139542651589084,6.1917020039118045,,,,,,,,,,,,
19047,0,USIowaCrawford,Iowa,Crawford,2022-04-28 09:13:11,2020-09-29,1.7794163521480277,3.2139542651589084,6.1917020039118045,,,,,,,,,,,,
19047,0,USIowaCrawford,Iowa,Crawford,2022-04-28 09:13:11,2020-09-30,1.7794163521480277,3.2139542651589084,6.1917020039118045,,,,,,,,,,,,
19047,0,USIowaCrawford,Iowa,Crawford,2022-04-28 09:13:11,2020-10-01,1.5880005999521558,2.9461013887166745,5.839243340227455,,,,,,,,,,,,
19047,0,USIowaCrawford,Iowa,Crawford,2022-04-28 09:13:11,2020-10-02,1.5880005999521558,2.9461013887166745,5.839243340227455,,,,,,,,,,,,
19047,0,USIowaCrawford,Iowa,Crawford,2022-04-28 09:13:11,2020-10-03,1.5880005999521558,2.9461013887166745,5.839243340227455,,,,,,,,,,,,
19047,0,USIowaCrawford,Iowa,Crawford,2022-04-28 09:13:11,2020-10-04,1.5880005999521558,2.9461013887166745,5.839243340227455,,,,,,,,,,,,
19047,0,USIowaCrawford,Iowa,Crawford,2022-04-28 09:13:11,2020-10-05,1.5880005999521558,2.9461013887166745,5.839243340227455,,,,,,,,,,,,
19047,0,USIowaCrawford,Iowa,Crawford,2022-04-28 09:13:11,2020-10-06,1.5880005999521558,2.9461013887166745,5.839243340227455,,,,,,,,,,,,
19047,0,USIowaCrawford,Iowa,Crawford,2022-04-28 09:13:11,2020-10-07,1.5880005999521558,2.9461013887166745,5.839243340227455,,,,,,,,,,,,
19047,0,USIowaCrawford,Iowa,Crawford,2022-04-28 09:13:11,2020-10-08,2.055869136803825,3.699682892452125,7.099687286218445,,,,,,,,,,,,
19047,0,USIowaCrawford,Iowa,Crawford,2022-04-28 09:13:11,2020-10-09,2.055869136803825,3.699682892452125,7.099687286218445,,,,,,,,,,,,
19047,0,USIowaCrawford,Iowa,Crawford,2022-04-28 09:13:11,2020-10-10,2.055869136803825,3.699682892452125,7.099687286218445,,,,,,,,,,,,
19047,0,USIowaCrawford,Iowa,Crawford,2022-04-28 09:13:11,2020-10-11,2.055869136803825,3.699682892452125,7.099687286218445,,,,,,,,,,,,
19047,0,USIowaCrawford,Iowa,Crawford,2022-04-28 09:13:11,2020-10-12,2.055869136803825,3.699682892452125,7.099687286218445,,,,,,,,,,,,
19047,0,USIowaCrawford,Iowa,Crawford,2022-04-28 09:13:11,2020-10-13,2.055869136803825,3.699682892452125,7.099687286218445,,,,,,,,,,,,
19047,0,USIowaCrawford,Iowa,Crawford,2022-04-28 09:13:11,2020-10-14,2.055869136803825,3.699682892452125,7.099687286218445,,,,,,,,,,,,
19047,0,USIowaCrawford,Iowa,Crawford,2022-04-28 09:13:11,2020-10-15,1.8163376020697608,4.419298338929146,11.57150749528051,,,,,,,,,,,,
19047,0,USIowaCrawford,Iowa,Crawford,2022-04-28 09:13:11,2020-10-16,1.8163376020697608,4.419298338929146,11.57150749528051,,,,,,,,,,,,
19047,0,USIowaCrawford,Iowa,Crawford,2022-04-28 09:13:11,2020-10-17,1.8163376020697608,4.419298338929146,11.57150749528051,,,,,,,,,,,,
19047,0,USIowaCrawford,Iowa,Crawford,2022-04-28 09:13:11,2020-10-18,1.8163376020697608,4.419298338929146,11.57150749528051,,,,,,,,,,,,
19047,0,USIowaCrawford,Iowa,Crawford,2022-04-28 09:13:11,2020-10-19,1.8163376020697608,4.419298338929146,11.57150749528051,,,,,,,,,,,,
19047,0,USIowaCrawford,Iowa,Crawford,2022-04-28 09:13:11,2020-10-20,1.8163376020697608,4.419298338929146,11.57150749528051,,,,,,,,,,,,
19047,0,USIowaCrawford,Iowa,Crawford,2022-04-28 09:13:11,2020-10-21,1.8163376020697608,4.419298338929146,11.57150749528051,,,,,,,,,,,,
19047,0,USIowaCrawford,Iowa,Crawford,2022-04-28 09:13:11,2020-10-22,1.3783634570739667,3.0761432397318584,7.382765132228856,,,,,,,,,,,,
19047,0,USIowaCrawford,Iowa,Crawford,2022-04-28 09:13:11,2020-10-23,1.3783634570739667,3.0761432397318584,7.382765132228856,,,,,,,,,,,,
19047,0,USIowaCrawford,Iowa,Crawford,2022-04-28 09:13:11,2020-10-24,1.3783634570739667,3.0761432397318584,7.382765132228856,,,,,,,,,,,,
19047,0,USIowaCrawford,Iowa,Crawford,2022-04-28 09:13:11,2020-10-25,1.3783634570739667,3.0761432397318584,7.382765132228856,,,,,,,,,,,,
19047,0,USIowaCrawford,Iowa,Crawford,2022-04-28 09:13:11,2020-10-26,1.3783634570739667,3.0761432397318584,7.382765132228856,,,,,,,,,,,,
19047,0,USIowaCrawford,Iowa,Crawford,2022-04-28 09:13:11,2020-10-27,1.3783634570739667,3.0761432397318584,7.382765132228856,,,,,,,,,,,,
19047,0,USIowaCrawford,Iowa,Crawford,2022-04-28 09:13:11,2020-10-28,1.3783634570739667,3.0761432397318584,7.382765132228856,,,,,,,,,,,,
19047,0,USIowaCrawford,Iowa,Crawford,2022-04-28 09:13:11,2020-10-29,2.3736369526861067,4.9722934485881884,11.185500893226063,,,,,,,,,,,,
19047,0,USIowaCrawford,Iowa,Crawford,2022-04-28 09:13:11,2020-10-30,2.3736369526861067,4.9722934485881884,11.185500893226063,,,,,,,,,,,,
19047,0,USIowaCrawford,Iowa,Crawford,2022-04-28 09:13:11,2020-10-31,2.3736369526861067,4.9722934485881884,11.185500893226063,,,,,,,,,,,,
19047,0,USIowaCrawford,Iowa,Crawford,2022-04-28 09:13:11,2020-11-01,2.3736369526861067,4.9722934485881884,11.185500893226063,,,,,,,,,,,,
19047,0,USIowaCrawford,Iowa,Crawford,2022-04-28 09:13:11,2020-11-02,2.3736369526861067,4.9722934485881884,11.185500893226063,,,,,,,,,,,,
19047,0,USIowaCrawford,Iowa,Crawford,2022-04-28 09:13:11,2020-11-03,2.3736369526861067,4.9722934485881884,11.185500893226063,,,,,,,,,,,,
19047,0,USIowaCrawford,Iowa,Crawford,2022-04-28 09:13:11,2020-11-04,2.3736369526861067,4.9722934485881884,11.185500893226063,,,,,,,,,,,,
19047,0,USIowaCrawford,Iowa,Crawford,2022-04-28 09:13:11,2020-11-05,2.8432812608566205,6.053611980551464,13.847030648032149,,,,,,,,,,,,
19047,0,USIowaCrawford,Iowa,Crawford,2022-04-28 09:13:11,2020-11-06,2.8432812608566205,6.053611980551464,13.847030648032149,,,,,,,,,,,,
19047,0,USIowaCrawford,Iowa,Crawford,2022-04-28 09:13:11,2020-11-07,2.8432812608566205,6.053611980551464,13.847030648032149,,,,,,,,,,,,
19047,0,USIowaCrawford,Iowa,Crawford,2022-04-28 09:13:11,2020-11-08,2.8432812608566205,6.053611980551464,13.847030648032149,,,,,,,,,,,,
19047,0,USIowaCrawford,Iowa,Crawford,2022-04-28 09:13:11,2020-11-09,2.8432812608566205,6.053611980551464,13.847030648032149,,,,,,,,,,,,
19047,0,USIowaCrawford,Iowa,Crawford,2022-04-28 09:13:11,2020-11-10,2.8432812608566205,6.053611980551464,13.847030648032149,,,,,,,,,,,,
19047,0,USIowaCrawford,Iowa,Crawford,2022-04-28 09:13:11,2020-11-11,2.8432812608566205,6.053611980551464,13.847030648032149,,,,,,,,,,,,
19047,0,USIowaCrawford,Iowa,Crawford,2022-04-28 09:13:11,2020-11-12,2.5350513037692437,5.575155794904288,13.18213437765722,,,,,,,,,,,,
19047,0,USIowaCrawford,Iowa,Crawford,2022-04-28 09:13:11,2020-11-13,2.5350513037692437,5.575155794904288,13.18213437765722,,,,,,,,,,,,
19047,0,USIowaCrawford,Iowa,Crawford,2022-04-28 09:13:11,2020-11-14,2.5350513037692437,5.575155794904288,13.18213437765722,,,,,,,,,,,,
19047,0,USIowaCrawford,Iowa,Crawford,2022-04-28 09:13:11,2020-11-15,2.5350513037692437,5.575155794904288,13.18213437765722,,,,,,,,,,,,
19047,0,USIowaCrawford,Iowa,Crawford,2022-04-28 09:13:11,2020-11-16,2.5350513037692437,5.575155794904288,13.18213437765722,,,,,,,,,,,,
19047,0,USIowaCrawford,Iowa,Crawford,2022-04-28 09:13:11,2020-11-17,2.5350513037692437,5.575155794904288,13.18213437765722,,,,,,,,,,,,
19047,0,USIowaCrawford,Iowa,Crawford,2022-04-28 09:13:11,2020-11-18,2.5350513037692437,5.575155794904288,13.18213437765722,,,,,,,,,,,,
19047,0,USIowaCrawford,Iowa,Crawford,2022-04-28 09:13:11,2020-11-19,2.2767620061461624,4.906747333454387,11.364350219464612,,,,,,,,,,,,
19047,0,USIowaCrawford,Iowa,Crawford,2022-04-28 09:13:11,2020-11-20,2.2767620061461624,4.906747333454387,11.364350219464612,,,,,,,,,,,,
19047,0,USIowaCrawford,Iowa,Crawford,2022-04-28 09:13:11,2020-11-21,2.2767620061461624,4.906747333454387,11.364350219464612,,,,,,,,,,,,
19047,0,USIowaCrawford,Iowa,Crawford,2022-04-28 09:13:11,2020-11-22,2.2767620061461624,4.906747333454387,11.364350219464612,,,,,,,,,,,,
19047,0,USIowaCrawford,Iowa,Crawford,2022-04-28 09:13:11,2020-11-23,2.2767620061461624,4.906747333454387,11.364350219464612,,,,,,,,,,,,
19047,0,USIowaCrawford,Iowa,Crawford,2022-04-28 09:13:11,2020-11-24,2.2767620061461624,4.906747333454387,11.364350219464612,,,,,,,,,,,,
19047,0,USIowaCrawford,Iowa,Crawford,2022-04-28 09:13:11,2020-11-25,2.2767620061461624,4.906747333454387,11.364350219464612,,,,,,,,,,,,
19047,0,USIowaCrawford,Iowa,Crawford,2022-04-28 09:13:11,2020-11-26,2.509492501831313,5.249767217171492,11.793246783502994,,,,,,,,,,,,
19047,0,USIowaCrawford,Iowa,Crawford,2022-04-28 09:13:11,2020-11-27,2.509492501831313,5.249767217171492,11.793246783502994,,,,,,,,,,,,
19047,0,USIowaCrawford,Iowa,Crawford,2022-04-28 09:13:11,2020-11-28,2.509492501831313,5.249767217171492,11.793246783502994,,,,,,,,,,,,
19047,0,USIowaCrawford,Iowa,Crawford,2022-04-28 09:13:11,2020-11-29,2.509492501831313,5.249767217171492,11.793246783502994,,,,,,,,,,,,
19047,0,USIowaCrawford,Iowa,Crawford,2022-04-28 09:13:11,2020-11-30,2.509492501831313,5.249767217171492,11.793246783502994,,,,,,,,,,,,
19047,0,USIowaCrawford,Iowa,Crawford,2022-04-28 09:13:11,2020-12-01,2.509492501831313,5.249767217171492,11.793246783502994,,,,,,,,,,,,
19047,0,USIowaCrawford,Iowa,Crawford,2022-04-28 09:13:11,2020-12-02,2.509492501831313,5.249767217171492,11.793246783502994,,,,,,,,,,,,
19047,0,USIowaCrawford,Iowa,Crawford,2022-04-28 09:13:11,2020-12-03,2.232748786745832,4.674776034255909,10.51069880600148,,,,,,,,,,,,
19047,0,USIowaCrawford,Iowa,Crawford,2022-04-28 09:13:11,2020-12-04,2.232748786745832,4.674776034255909,10.51069880600148,,,,,,,,,,,,
19047,0,USIowaCrawford,Iowa,Crawford,2022-04-28 09:13:11,2020-12-05,2.232748786745832,4.674776034255909,10.51069880600148,,,,,,,,,,,,
19047,0,USIowaCrawford,Iowa,Crawford,2022-04-28 09:13:11,2020-12-06,2.232748786745832,4.674776034255909,10.51069880600148,,,,,,,,,,,,
19047,0,USIowaCrawford,Iowa,Crawford,2022-04-28 09:13:11,2020-12-07,2.232748786745832,4.674776034255909,10.51069880600148,,,,,,,,,,,,
19047,0,USIowaCrawford,Iowa,Crawford,2022-04-28 09:13:11,2020-12-08,2.232748786745832,4.674776034255909,10.51069880600148,,,,,,,,,,,,
19047,0,USIowaCrawford,Iowa,Crawford,2022-04-28 09:13:11,2020-12-09,2.232748786745832,4.674776034255909,10.51069880600148,,,,,,,,,,,,
19047,0,USIowaCrawford,Iowa,Crawford,2022-04-28 09:13:11,2020-12-10,2.269607491582111,4.665004943173957,10.290950260903909,,,,,,,,,,,,
19047,0,USIowaCrawford,Iowa,Crawford,2022-04-28 09:13:11,2020-12-11,2.269607491582111,4.665004943173957,10.290950260903909,,,,,,,,,,,,
19047,0,USIowaCrawford,Iowa,Crawford,2022-04-28 09:13:11,2020-12-12,2.269607491582111,4.665004943173957,10.290950260903909,,,,,,,,,,,,
19047,0,USIowaCrawford,Iowa,Crawford,2022-04-28 09:13:11,2020-12-13,2.269607491582111,4.665004943173957,10.290950260903909,,,,,,,,,,,,
19047,0,USIowaCrawford,Iowa,Crawford,2022-04-28 09:13:11,2020-12-14,2.269607491582111,4.665004943173957,10.290950260903909,,,,,,,,,,,,
19047,0,USIowaCrawford,Iowa,Crawford,2022-04-28 09:13:11,2020-12-15,2.269607491582111,4.665004943173957,10.290950260903909,,,,,,,,,,,,
19047,0,USIowaCrawford,Iowa,Crawford,2022-04-28 09:13:11,2020-12-16,2.269607491582111,4.665004943173957,10.290950260903909,,,,,,,,,,,,
19047,0,USIowaCrawford,Iowa,Crawford,2022-04-28 09:13:11,2020-12-17,2.0841711475875444,4.2949932836016185,9.50014879311658,,,,,,,,,,,,
19047,0,USIowaCrawford,Iowa,Crawford,2022-04-28 09:13:11,2020-12-18,2.0841711475875444,4.2949932836016185,9.50014879311658,,,,,,,,,,,,
19047,0,USIowaCrawford,Iowa,Crawford,2022-04-28 09:13:11,2020-12-19,2.0841711475875444,4.2949932836016185,9.50014879311658,,,,,,,,,,,,
19047,0,USIowaCrawford,Iowa,Crawford,2022-04-28 09:13:11,2020-12-20,2.0841711475875444,4.2949932836016185,9.50014879311658,,,,,,,,,,,,
19047,0,USIowaCrawford,Iowa,Crawford,2022-04-28 09:13:11,2020-12-21,2.0841711475875444,4.2949932836016185,9.50014879311658,,,,,,,,,,,,
19047,0,USIowaCrawford,Iowa,Crawford,2022-04-28 09:13:11,2020-12-22,2.0841711475875444,4.2949932836016185,9.50014879311658,,,,,,,,,,,,
19047,0,USIowaCrawford,Iowa,Crawford,2022-04-28 09:13:11,2020-12-23,2.0841711475875444,4.2949932836016185,9.50014879311658,,,,,,,,,,,,
19047,0,USIowaCrawford,Iowa,Crawford,2022-04-28 09:13:11,2020-12-24,1.7810172864716711,4.001110880443956,9.66733967770599,,,,,,,,,,,,
19047,0,USIowaCrawford,Iowa,Crawford,2022-04-28 09:13:11,2020-12-25,1.7810172864716711,4.001110880443956,9.66733967770599,,,,,,,,,,,,
19047,0,USIowaCrawford,Iowa,Crawford,2022-04-28 09:13:11,2020-12-26,1.7810172864716711,4.001110880443956,9.66733967770599,,,,,,,,,,,,
19047,0,USIowaCrawford,Iowa,Crawford,2022-04-28 09:13:11,2020-12-27,1.7810172864716711,4.001110880443956,9.66733967770599,,,,,,,,,,,,
19047,0,USIowaCrawford,Iowa,Crawford,2022-04-28 09:13:11,2020-12-28,1.7810172864716711,4.001110880443956,9.66733967770599,,,,,,,,,,,,
19047,0,USIowaCrawford,Iowa,Crawford,2022-04-28 09:13:11,2020-12-29,1.7810172864716711,4.001110880443956,9.66733967770599,,,,,,,,,,,,
19047,0,USIowaCrawford,Iowa,Crawford,2022-04-28 09:13:11,2020-12-30,1.7810172864716711,4.001110880443956,9.66733967770599,,,,,,,,,,,,
19047,0,USIowaCrawford,Iowa,Crawford,2022-04-28 09:13:11,2020-12-31,2.6163798114285277,5.571593247202145,12.746984591093577,,,,,,,,,,,,
19047,0,USIowaCrawford,Iowa,Crawford,2022-04-28 09:13:11,2021-01-01,2.6163798114285277,5.571593247202145,12.746984591093577,,,,,,,,,,,,
19047,0,USIowaCrawford,Iowa,Crawford,2022-04-28 09:13:11,2021-01-02,2.6163798114285277,5.571593247202145,12.746984591093577,,,,,,,,,,,,
19047,0,USIowaCrawford,Iowa,Crawford,2022-04-28 09:13:11,2021-01-03,2.6163798114285277,5.571593247202145,12.746984591093577,,,,,,,,,,,,
19047,0,USIowaCrawford,Iowa,Crawford,2022-04-28 09:13:11,2021-01-04,2.6163798114285277,5.571593247202145,12.746984591093577,,,,,,,,,,,,
19047,0,USIowaCrawford,Iowa,Crawford,2022-04-28 09:13:11,2021-01-05,2.6163798114285277,5.571593247202145,12.746984591093577,,,,,,,,,,,,
19047,0,USIowaCrawford,Iowa,Crawford,2022-04-28 09:13:11,2021-01-06,2.6163798114285277,5.571593247202145,12.746984591093577,,,,,,,,,,,,
19047,0,USIowaCrawford,Iowa,Crawford,2022-04-28 09:13:11,2021-01-07,1.9597020338647144,4.279919315686404,10.048018616619425,,,,,,,,,,,,
19047,0,USIowaCrawford,Iowa,Crawford,2022-04-28 09:13:11,2021-01-08,1.9597020338647144,4.279919315686404,10.048018616619425,,,,,,,,,,,,
19047,0,USIowaCrawford,Iowa,Crawford,2022-04-28 09:13:11,2021-01-09,1.9597020338647144,4.279919315686404,10.048018616619425,,,,,,,,,,,,
19047,0,USIowaCrawford,Iowa,Crawford,2022-04-28 09:13:11,2021-01-10,1.9597020338647144,4.279919315686404,10.048018616619425,,,,,,,,,,,,
19047,0,USIowaCrawford,Iowa,Crawford,2022-04-28 09:13:11,2021-01-11,1.9597020338647144,4.279919315686404,10.048018616619425,,,,,,,,,,,,
19047,0,USIowaCrawford,Iowa,Crawford,2022-04-28 09:13:11,2021-01-12,1.9597020338647144,4.279919315686404,10.048018616619425,,,,,,,,,,,,
19047,0,USIowaCrawford,Iowa,Crawford,2022-04-28 09:13:11,2021-01-13,1.9597020338647144,4.279919315686404,10.048018616619425,,,,,,,,,,,,
19047,0,USIowaCrawford,Iowa,Crawford,2022-04-28 09:13:11,2021-01-14,1.6679314026946157,3.6441183061058133,8.558732856270058,,,,,,,,,,,,
19047,0,USIowaCrawford,Iowa,Crawford,2022-04-28 09:13:11,2021-01-15,1.6679314026946157,3.6441183061058133,8.558732856270058,,,,,,,,,,,,
19047,0,USIowaCrawford,Iowa,Crawford,2022-04-28 09:13:11,2021-01-16,1.6679314026946157,3.6441183061058133,8.558732856270058,,,,,,,,,,,,
19047,0,USIowaCrawford,Iowa,Crawford,2022-04-28 09:13:11,2021-01-17,1.6679314026946157,3.6441183061058133,8.558732856270058,,,,,,,,,,,,
19047,0,USIowaCrawford,Iowa,Crawford,2022-04-28 09:13:11,2021-01-18,1.6679314026946157,3.6441183061058133,8.558732856270058,,,,,,,,,,,,
19047,0,USIowaCrawford,Iowa,Crawford,2022-04-28 09:13:11,2021-01-19,1.6679314026946157,3.6441183061058133,8.558732856270058,,,,,,,,,,,,
19047,0,USIowaCrawford,Iowa,Crawford,2022-04-28 09:13:11,2021-01-20,1.6679314026946157,3.6441183061058133,8.558732856270058,,,,,,,,,,,,
19047,0,USIowaCrawford,Iowa,Crawford,2022-04-28 09:13:11,2021-01-21,1.3544067464991145,3.096196278993602,7.614151221762009,,,,,,,,,,,,
19047,0,USIowaCrawford,Iowa,Crawford,2022-04-28 09:13:11,2021-01-22,1.3544067464991145,3.096196278993602,7.614151221762009,,,,,,,,,,,,
19047,0,USIowaCrawford,Iowa,Crawford,2022-04-28 09:13:11,2021-01-23,1.3544067464991145,3.096196278993602,7.614151221762009,,,,,,,,,,,,
19047,0,USIowaCrawford,Iowa,Crawford,2022-04-28 09:13:11,2021-01-24,1.3544067464991145,3.096196278993602,7.614151221762009,,,,,,,,,,,,
19047,0,USIowaCrawford,Iowa,Crawford,2022-04-28 09:13:11,2021-01-25,1.3544067464991145,3.096196278993602,7.614151221762009,,,,,,,,,,,,
19047,0,USIowaCrawford,Iowa,Crawford,2022-04-28 09:13:11,2021-01-26,1.3544067464991145,3.096196278993602,7.614151221762009,,,,,,,,,,,,
19047,0,USIowaCrawford,Iowa,Crawford,2022-04-28 09:13:11,2021-01-27,1.3544067464991145,3.096196278993602,7.614151221762009,,,,,,,,,,,,
19047,0,USIowaCrawford,Iowa,Crawford,2022-04-28 09:13:11,2021-01-28,1.1256444963213965,2.546449692979311,6.196202791341577,,,,,,,,,,,,
19047,0,USIowaCrawford,Iowa,Crawford,2022-04-28 09:13:11,2021-01-29,1.1256444963213965,2.546449692979311,6.196202791341577,,,,,,,,,,,,
19047,0,USIowaCrawford,Iowa,Crawford,2022-04-28 09:13:11,2021-01-30,1.1256444963213965,2.546449692979311,6.196202791341577,,,,,,,,,,,,
19047,0,USIowaCrawford,Iowa,Crawford,2022-04-28 09:13:11,2021-01-31,1.1256444963213965,2.546449692979311,6.196202791341577,,,,,,,,,,,,
19047,0,USIowaCrawford,Iowa,Crawford,2022-04-28 09:13:11,2021-02-01,1.1256444963213965,2.546449692979311,6.196202791341577,,,,,,,,,,,,
19047,0,USIowaCrawford,Iowa,Crawford,2022-04-28 09:13:11,2021-02-02,1.1256444963213965,2.546449692979311,6.196202791341577,,,,,,,,,,,,
19047,0,USIowaCrawford,Iowa,Crawford,2022-04-28 09:13:11,2021-02-03,1.1256444963213965,2.546449692979311,6.196202791341577,,,,,,,,,,,,
19047,0,USIowaCrawford,Iowa,Crawford,2022-04-28 09:13:11,2021-02-04,1.2666509747743402,2.8431806198791456,6.863734084773916,,,,,,,,,,,,
19047,0,USIowaCrawford,Iowa,Crawford,2022-04-28 09:13:11,2021-02-05,1.2666509747743402,2.8431806198791456,6.863734084773916,,,,,,,,,,,,
19047,0,USIowaCrawford,Iowa,Crawford,2022-04-28 09:13:11,2021-02-06,1.2666509747743402,2.8431806198791456,6.863734084773916,,,,,,,,,,,,
19047,0,USIowaCrawford,Iowa,Crawford,2022-04-28 09:13:11,2021-02-07,1.2666509747743402,2.8431806198791456,6.863734084773916,,,,,,,,,,,,
19047,0,USIowaCrawford,Iowa,Crawford,2022-04-28 09:13:11,2021-02-08,1.2666509747743402,2.8431806198791456,6.863734084773916,,,,,,,,,,,,
19047,0,USIowaCrawford,Iowa,Crawford,2022-04-28 09:13:11,2021-02-09,1.2666509747743402,2.8431806198791456,6.863734084773916,,,,,,,,,,,,
19047,0,USIowaCrawford,Iowa,Crawford,2022-04-28 09:13:11,2021-02-10,1.2666509747743402,2.8431806198791456,6.863734084773916,,,,,,,,,,,,
19047,0,USIowaCrawford,Iowa,Crawford,2022-04-28 09:13:11,2021-02-11,0.7127890229621733,1.5781671850825785,3.7571343141656346,,,,,,,,,,,,
19047,0,USIowaCrawford,Iowa,Crawford,2022-04-28 09:13:11,2021-02-12,0.7127890229621733,1.5781671850825785,3.7571343141656346,,,,,,,,,,,,
19047,0,USIowaCrawford,Iowa,Crawford,2022-04-28 09:13:11,2021-02-13,0.7127890229621733,1.5781671850825785,3.7571343141656346,,,,,,,,,,,,
19047,0,USIowaCrawford,Iowa,Crawford,2022-04-28 09:13:11,2021-02-14,0.7127890229621733,1.5781671850825785,3.7571343141656346,,,,,,,,,,,,
19047,0,USIowaCrawford,Iowa,Crawford,2022-04-28 09:13:11,2021-02-15,0.7127890229621733,1.5781671850825785,3.7571343141656346,,,,,,,,,,,,
19047,0,USIowaCrawford,Iowa,Crawford,2022-04-28 09:13:11,2021-02-16,0.7127890229621733,1.5781671850825785,3.7571343141656346,,,,,,,,,,,,
19047,0,USIowaCrawford,Iowa,Crawford,2022-04-28 09:13:11,2021-02-17,0.7127890229621733,1.5781671850825785,3.7571343141656346,,,,,,,,,,,,
19047,0,USIowaCrawford,Iowa,Crawford,2022-04-28 09:13:11,2021-02-18,0.9053465046458243,2.0957660774098206,5.219649305026235,,,,,,,,,,,,
19047,0,USIowaCrawford,Iowa,Crawford,2022-04-28 09:13:11,2021-02-19,0.9053465046458243,2.0957660774098206,5.219649305026235,,,,,,,,,,,,
19047,0,USIowaCrawford,Iowa,Crawford,2022-04-28 09:13:11,2021-02-20,0.9053465046458243,2.0957660774098206,5.219649305026235,,,,,,,,,,,,
19047,0,USIowaCrawford,Iowa,Crawford,2022-04-28 09:13:11,2021-02-21,0.9053465046458243,2.0957660774098206,5.219649305026235,,,,,,,,,,,,
19047,0,USIowaCrawford,Iowa,Crawford,2022-04-28 09:13:11,2021-02-22,0.9053465046458243,2.0957660774098206,5.219649305026235,,,,,,,,,,,,
19047,0,USIowaCrawford,Iowa,Crawford,2022-04-28 09:13:11,2021-02-23,0.9053465046458243,2.0957660774098206,5.219649305026235,,,,,,,,,,,,
19047,0,USIowaCrawford,Iowa,Crawford,2022-04-28 09:13:11,2021-02-24,0.9053465046458243,2.0957660774098206,5.219649305026235,,,,,,,,,,,,
19047,0,USIowaCrawford,Iowa,Crawford,2022-04-28 09:13:11,2021-02-25,0.9330074352347041,2.0904622195871205,5.037280094406061,,,,,,,,,,,,
19047,0,USIowaCrawford,Iowa,Crawford,2022-04-28 09:13:11,2021-02-26,0.9330074352347041,2.0904622195871205,5.037280094406061,,,,,,,,,,,,
19047,0,USIowaCrawford,Iowa,Crawford,2022-04-28 09:13:11,2021-02-27,0.9330074352347041,2.0904622195871205,5.037280094406061,,,,,,,,,,,,
19047,0,USIowaCrawford,Iowa,Crawford,2022-04-28 09:13:11,2021-02-28,0.9330074352347041,2.0904622195871205,5.037280094406061,,,,,,,,,,,,
19047,0,USIowaCrawford,Iowa,Crawford,2022-04-28 09:13:11,2021-03-01,0.9330074352347041,2.0904622195871205,5.037280094406061,,,,,,,,,,,,
19047,0,USIowaCrawford,Iowa,Crawford,2022-04-28 09:13:11,2021-03-02,0.9330074352347041,2.0904622195871205,5.037280094406061,,,,,,,,,,,,
19047,0,USIowaCrawford,Iowa,Crawford,2022-04-28 09:13:11,2021-03-03,0.9330074352347041,2.0904622195871205,5.037280094406061,,,,,,,,,,,,
19047,0,USIowaCrawford,Iowa,Crawford,2022-04-28 09:13:11,2021-03-04,0.8938676768513908,1.984817233254765,4.739158350556938,,,,,,,,,,,,
19047,0,USIowaCrawford,Iowa,Crawford,2022-04-28 09:13:11,2021-03-05,0.8938676768513908,1.984817233254765,4.739158350556938,,,,,,,,,,,,
19047,0,USIowaCrawford,Iowa,Crawford,2022-04-28 09:13:11,2021-03-06,0.8938676768513908,1.984817233254765,4.739158350556938,,,,,,,,,,,,
19047,0,USIowaCrawford,Iowa,Crawford,2022-04-28 09:13:11,2021-03-07,0.8938676768513908,1.984817233254765,4.739158350556938,,,,,,,,,,,,
19047,0,USIowaCrawford,Iowa,Crawford,2022-04-28 09:13:11,2021-03-08,0.8938676768513908,1.984817233254765,4.739158350556938,,,,,,,,,,,,
19047,0,USIowaCrawford,Iowa,Crawford,2022-04-28 09:13:11,2021-03-09,0.8938676768513908,1.984817233254765,4.739158350556938,,,,,,,,,,,,
19047,0,USIowaCrawford,Iowa,Crawford,2022-04-28 09:13:11,2021-03-10,0.8938676768513908,1.984817233254765,4.739158350556938,,,,,,,,,,,,
19047,0,USIowaCrawford,Iowa,Crawford,2022-04-28 09:13:11,2021-03-11,0.7034160525061536,1.663220676802322,4.2318163165236005,,,,,,,,,,,,
19047,0,USIowaCrawford,Iowa,Crawford,2022-04-28 09:13:11,2021-03-12,0.7034160525061536,1.663220676802322,4.2318163165236005,,,,,,,,,,,,
19047,0,USIowaCrawford,Iowa,Crawford,2022-04-28 09:13:11,2021-03-13,0.7034160525061536,1.663220676802322,4.2318163165236005,,,,,,,,,,,,
19047,0,USIowaCrawford,Iowa,Crawford,2022-04-28 09:13:11,2021-03-14,0.7034160525061536,1.663220676802322,4.2318163165236005,,,,,,,,,,,,
19047,0,USIowaCrawford,Iowa,Crawford,2022-04-28 09:13:11,2021-03-15,0.7034160525061536,1.663220676802322,4.2318163165236005,,,,,,,,,,,,
19047,0,USIowaCrawford,Iowa,Crawford,2022-04-28 09:13:11,2021-03-16,0.7034160525061536,1.663220676802322,4.2318163165236005,,,,,,,,,,,,
19047,0,USIowaCrawford,Iowa,Crawford,2022-04-28 09:13:11,2021-03-17,0.7034160525061536,1.663220676802322,4.2318163165236005,,,,,,,,,,,,
19047,0,USIowaCrawford,Iowa,Crawford,2022-04-28 09:13:11,2021-03-18,0.5649815531856393,1.4578649928776615,4.047522861435226,,,,,,,,,,,,
19047,0,USIowaCrawford,Iowa,Crawford,2022-04-28 09:13:11,2021-03-19,0.5649815531856393,1.4578649928776615,4.047522861435226,,,,,,,,,,,,
19047,0,USIowaCrawford,Iowa,Crawford,2022-04-28 09:13:11,2021-03-20,0.5649815531856393,1.4578649928776615,4.047522861435226,,,,,,,,,,,,
19047,0,USIowaCrawford,Iowa,Crawford,2022-04-28 09:13:11,2021-03-21,0.5649815531856393,1.4578649928776615,4.047522861435226,,,,,,,,,,,,
19047,0,USIowaCrawford,Iowa,Crawford,2022-04-28 09:13:11,2021-03-22,0.5649815531856393,1.4578649928776615,4.047522861435226,,,,,,,,,,,,
19047,0,USIowaCrawford,Iowa,Crawford,2022-04-28 09:13:11,2021-03-23,0.5649815531856393,1.4578649928776615,4.047522861435226,,,,,,,,,,,,
19047,0,USIowaCrawford,Iowa,Crawford,2022-04-28 09:13:11,2021-03-24,0.5649815531856393,1.4578649928776615,4.047522861435226,,,,,,,,,,,,
19047,0,USIowaCrawford,Iowa,Crawford,2022-04-28 09:13:11,2021-03-25,0.4268083926685156,1.1950796033573008,3.5965113782415354,,,,,,,,,,,,
19047,0,USIowaCrawford,Iowa,Crawford,2022-04-28 09:13:11,2021-03-26,0.4268083926685156,1.1950796033573008,3.5965113782415354,,,,,,,,,,,,
19047,0,USIowaCrawford,Iowa,Crawford,2022-04-28 09:13:11,2021-03-27,0.4268083926685156,1.1950796033573008,3.5965113782415354,,,,,,,,,,,,
19047,0,USIowaCrawford,Iowa,Crawford,2022-04-28 09:13:11,2021-03-28,0.4268083926685156,1.1950796033573008,3.5965113782415354,,,,,,,,,,,,
19047,0,USIowaCrawford,Iowa,Crawford,2022-04-28 09:13:11,2021-03-29,0.4268083926685156,1.1950796033573008,3.5965113782415354,,,,,,,,,,,,
19047,0,USIowaCrawford,Iowa,Crawford,2022-04-28 09:13:11,2021-03-30,0.4268083926685156,1.1950796033573008,3.5965113782415354,,,,,,,,,,,,
19047,0,USIowaCrawford,Iowa,Crawford,2022-04-28 09:13:11,2021-03-31,0.4268083926685156,1.1950796033573008,3.5965113782415354,,,,,,,,,,,,
19047,0,USIowaCrawford,Iowa,Crawford,2022-04-28 09:13:11,2021-04-01,0.608055168000018,1.509256163412844,4.031412978455138,,,,,,,,,,,,
19047,0,USIowaCrawford,Iowa,Crawford,2022-04-28 09:13:11,2021-04-02,0.608055168000018,1.509256163412844,4.031412978455138,,,,,,,,,,,,
19047,0,USIowaCrawford,Iowa,Crawford,2022-04-28 09:13:11,2021-04-03,0.608055168000018,1.509256163412844,4.031412978455138,,,,,,,,,,,,
19047,0,USIowaCrawford,Iowa,Crawford,2022-04-28 09:13:11,2021-04-04,0.608055168000018,1.509256163412844,4.031412978455138,,,,,,,,,,,,
19047,0,USIowaCrawford,Iowa,Crawford,2022-04-28 09:13:11,2021-04-05,0.608055168000018,1.509256163412844,4.031412978455138,,,,,,,,,,,,
19047,0,USIowaCrawford,Iowa,Crawford,2022-04-28 09:13:11,2021-04-06,0.608055168000018,1.509256163412844,4.031412978455138,,,,,,,,,,,,
19047,0,USIowaCrawford,Iowa,Crawford,2022-04-28 09:13:11,2021-04-07,0.608055168000018,1.509256163412844,4.031412978455138,,,,,,,,,,,,
19047,0,USIowaCrawford,Iowa,Crawford,2022-04-28 09:13:11,2021-04-08,0.5186833543937059,1.3955176847868151,4.037973820979331,,,,,,,,,,,,
19047,0,USIowaCrawford,Iowa,Crawford,2022-04-28 09:13:11,2021-04-09,0.5186833543937059,1.3955176847868151,4.037973820979331,,,,,,,,,,,,
19047,0,USIowaCrawford,Iowa,Crawford,2022-04-28 09:13:11,2021-04-10,0.5186833543937059,1.3955176847868151,4.037973820979331,,,,,,,,,,,,
19047,0,USIowaCrawford,Iowa,Crawford,2022-04-28 09:13:11,2021-04-11,0.5186833543937059,1.3955176847868151,4.037973820979331,,,,,,,,,,,,
19047,0,USIowaCrawford,Iowa,Crawford,2022-04-28 09:13:11,2021-04-12,0.5186833543937059,1.3955176847868151,4.037973820979331,,,,,,,,,,,,
19047,0,USIowaCrawford,Iowa,Crawford,2022-04-28 09:13:11,2021-04-13,0.5186833543937059,1.3955176847868151,4.037973820979331,,,,,,,,,,,,
19047,0,USIowaCrawford,Iowa,Crawford,2022-04-28 09:13:11,2021-04-14,0.5186833543937059,1.3955176847868151,4.037973820979331,,,,,,,,,,,,
19047,0,USIowaCrawford,Iowa,Crawford,2022-04-28 09:13:11,2021-04-15,0.5324965697268855,1.3804399495210384,3.8502655047175525,,,,,,,,,,,,
19047,0,USIowaCrawford,Iowa,Crawford,2022-04-28 09:13:11,2021-04-16,0.5324965697268855,1.3804399495210384,3.8502655047175525,,,,,,,,,,,,
19047,0,USIowaCrawford,Iowa,Crawford,2022-04-28 09:13:11,2021-04-17,0.5324965697268855,1.3804399495210384,3.8502655047175525,,,,,,,,,,,,
19047,0,USIowaCrawford,Iowa,Crawford,2022-04-28 09:13:11,2021-04-18,0.5324965697268855,1.3804399495210384,3.8502655047175525,,,,,,,,,,,,
19047,0,USIowaCrawford,Iowa,Crawford,2022-04-28 09:13:11,2021-04-19,0.5324965697268855,1.3804399495210384,3.8502655047175525,,,,,,,,,,,,
19047,0,USIowaCrawford,Iowa,Crawford,2022-04-28 09:13:11,2021-04-20,0.5324965697268855,1.3804399495210384,3.8502655047175525,,,,,,,,,,,,
19047,0,USIowaCrawford,Iowa,Crawford,2022-04-28 09:13:11,2021-04-21,0.5324965697268855,1.3804399495210384,3.8502655047175525,,,,,,,,,,,,
19047,0,USIowaCrawford,Iowa,Crawford,2022-04-28 09:13:11,2021-04-22,0.38505307678372663,1.0710901461921642,3.2026026333524222,,,,,,,,,,,,
19047,0,USIowaCrawford,Iowa,Crawford,2022-04-28 09:13:11,2021-04-23,0.38505307678372663,1.0710901461921642,3.2026026333524222,,,,,,,,,,,,
19047,0,USIowaCrawford,Iowa,Crawford,2022-04-28 09:13:11,2021-04-24,0.38505307678372663,1.0710901461921642,3.2026026333524222,,,,,,,,,,,,
19047,0,USIowaCrawford,Iowa,Crawford,2022-04-28 09:13:11,2021-04-25,0.38505307678372663,1.0710901461921642,3.2026026333524222,,,,,,,,,,,,
19047,0,USIowaCrawford,Iowa,Crawford,2022-04-28 09:13:11,2021-04-26,0.38505307678372663,1.0710901461921642,3.2026026333524222,,,,,,,,,,,,
19047,0,USIowaCrawford,Iowa,Crawford,2022-04-28 09:13:11,2021-04-27,0.38505307678372663,1.0710901461921642,3.2026026333524222,,,,,,,,,,,,
19047,0,USIowaCrawford,Iowa,Crawford,2022-04-28 09:13:11,2021-04-28,0.38505307678372663,1.0710901461921642,3.2026026333524222,,,,,,,,,,,,
19047,0,USIowaCrawford,Iowa,Crawford,2022-04-28 09:13:11,2021-04-29,0.40480992065285626,1.0828176421017341,3.115211867142846,,,,,,,,,,,,
19047,0,USIowaCrawford,Iowa,Crawford,2022-04-28 09:13:11,2021-04-30,0.40480992065285626,1.0828176421017341,3.115211867142846,,,,,,,,,,,,
19047,0,USIowaCrawford,Iowa,Crawford,2022-04-28 09:13:11,2021-05-01,0.40480992065285626,1.0828176421017341,3.115211867142846,,,,,,,,,,,,
19047,0,USIowaCrawford,Iowa,Crawford,2022-04-28 09:13:11,2021-05-02,0.40480992065285626,1.0828176421017341,3.115211867142846,,,,,,,,,,,,
19047,0,USIowaCrawford,Iowa,Crawford,2022-04-28 09:13:11,2021-05-03,0.40480992065285626,1.0828176421017341,3.115211867142846,,,,,,,,,,,,
19047,0,USIowaCrawford,Iowa,Crawford,2022-04-28 09:13:11,2021-05-04,0.40480992065285626,1.0828176421017341,3.115211867142846,,,,,,,,,,,,
19047,0,USIowaCrawford,Iowa,Crawford,2022-04-28 09:13:11,2021-05-05,0.40480992065285626,1.0828176421017341,3.115211867142846,,,,,,,,,,,,
19047,0,USIowaCrawford,Iowa,Crawford,2022-04-28 09:13:11,2021-05-06,0.7133217979721742,1.5804037040934293,3.765020747607639,,,,,,,,,,,,
19047,0,USIowaCrawford,Iowa,Crawford,2022-04-28 09:13:11,2021-05-07,0.7133217979721742,1.5804037040934293,3.765020747607639,,,,,,,,,,,,
19047,0,USIowaCrawford,Iowa,Crawford,2022-04-28 09:13:11,2021-05-08,0.7133217979721742,1.5804037040934293,3.765020747607639,,,,,,,,,,,,
19047,0,USIowaCrawford,Iowa,Crawford,2022-04-28 09:13:11,2021-05-09,0.7133217979721742,1.5804037040934293,3.765020747607639,,,,,,,,,,,,
19047,0,USIowaCrawford,Iowa,Crawford,2022-04-28 09:13:11,2021-05-10,0.7133217979721742,1.5804037040934293,3.765020747607639,,,,,,,,,,,,
19047,0,USIowaCrawford,Iowa,Crawford,2022-04-28 09:13:11,2021-05-11,0.7133217979721742,1.5804037040934293,3.765020747607639,,,,,,,,,,,,
19047,0,USIowaCrawford,Iowa,Crawford,2022-04-28 09:13:11,2021-05-12,0.7133217979721742,1.5804037040934293,3.765020747607639,,,,,,,,,,,,
19047,0,USIowaCrawford,Iowa,Crawford,2022-04-28 09:13:11,2021-05-13,0.34638270814350186,0.8788790971804756,2.399605104888923,,,,,,,,,,,,
19047,0,USIowaCrawford,Iowa,Crawford,2022-04-28 09:13:11,2021-05-14,0.34638270814350186,0.8788790971804756,2.399605104888923,,,,,,,,,,,,
19047,0,USIowaCrawford,Iowa,Crawford,2022-04-28 09:13:11,2021-05-15,0.34638270814350186,0.8788790971804756,2.399605104888923,,,,,,,,,,,,
19047,0,USIowaCrawford,Iowa,Crawford,2022-04-28 09:13:11,2021-05-16,0.34638270814350186,0.8788790971804756,2.399605104888923,,,,,,,,,,,,
19047,0,USIowaCrawford,Iowa,Crawford,2022-04-28 09:13:11,2021-05-17,0.34638270814350186,0.8788790971804756,2.399605104888923,,,,,,,,,,,,
19047,0,USIowaCrawford,Iowa,Crawford,2022-04-28 09:13:11,2021-05-18,0.34638270814350186,0.8788790971804756,2.399605104888923,,,,,,,,,,,,
19047,0,USIowaCrawford,Iowa,Crawford,2022-04-28 09:13:11,2021-05-19,0.34638270814350186,0.8788790971804756,2.399605104888923,,,,,,,,,,,,
19047,0,USIowaCrawford,Iowa,Crawford,2022-04-28 09:13:11,2021-05-20,0.3606336437491478,0.8718333257746236,2.268174816512067,,,,,,,,,,,,
19047,0,USIowaCrawford,Iowa,Crawford,2022-04-28 09:13:11,2021-05-21,0.3606336437491478,0.8718333257746236,2.268174816512067,,,,,,,,,,,,
19047,0,USIowaCrawford,Iowa,Crawford,2022-04-28 09:13:11,2021-05-22,0.3606336437491478,0.8718333257746236,2.268174816512067,,,,,,,,,,,,
19047,0,USIowaCrawford,Iowa,Crawford,2022-04-28 09:13:11,2021-05-23,0.3606336437491478,0.8718333257746236,2.268174816512067,,,,,,,,,,,,
19047,0,USIowaCrawford,Iowa,Crawford,2022-04-28 09:13:11,2021-05-24,0.3606336437491478,0.8718333257746236,2.268174816512067,,,,,,,,,,,,
19047,0,USIowaCrawford,Iowa,Crawford,2022-04-28 09:13:11,2021-05-25,0.3606336437491478,0.8718333257746236,2.268174816512067,,,,,,,,,,,,
19047,0,USIowaCrawford,Iowa,Crawford,2022-04-28 09:13:11,2021-05-26,0.3606336437491478,0.8718333257746236,2.268174816512067,,,,,,,,,,,,
19047,0,USIowaCrawford,Iowa,Crawford,2022-04-28 09:13:11,2021-05-27,0.12595935752053966,0.37731168974914225,1.2129775649710277,,,,,,,,,,,,
19047,0,USIowaCrawford,Iowa,Crawford,2022-04-28 09:13:11,2021-05-28,0.12595935752053966,0.37731168974914225,1.2129775649710277,,,,,,,,,,,,
19047,0,USIowaCrawford,Iowa,Crawford,2022-04-28 09:13:11,2021-05-29,0.12595935752053966,0.37731168974914225,1.2129775649710277,,,,,,,,,,,,
19047,0,USIowaCrawford,Iowa,Crawford,2022-04-28 09:13:11,2021-05-30,0.12595935752053966,0.37731168974914225,1.2129775649710277,,,,,,,,,,,,
19047,0,USIowaCrawford,Iowa,Crawford,2022-04-28 09:13:11,2021-05-31,0.12595935752053966,0.37731168974914225,1.2129775649710277,,,,,,,,,,,,
19047,0,USIowaCrawford,Iowa,Crawford,2022-04-28 09:13:11,2021-06-01,0.12595935752053966,0.37731168974914225,1.2129775649710277,,,,,,,,,,,,
19047,0,USIowaCrawford,Iowa,Crawford,2022-04-28 09:13:11,2021-06-02,0.12595935752053966,0.37731168974914225,1.2129775649710277,,,,,,,,,,,,
19047,0,USIowaCrawford,Iowa,Crawford,2022-04-28 09:13:11,2021-06-03,0.3068461701935265,0.6994777449942227,1.7152452512170937,,,,,,,,,,,,
19047,0,USIowaCrawford,Iowa,Crawford,2022-04-28 09:13:11,2021-06-04,0.3068461701935265,0.6994777449942227,1.7152452512170937,,,,,,,,,,,,
19047,0,USIowaCrawford,Iowa,Crawford,2022-04-28 09:13:11,2021-06-05,0.3068461701935265,0.6994777449942227,1.7152452512170937,,,,,,,,,,,,
19047,0,USIowaCrawford,Iowa,Crawford,2022-04-28 09:13:11,2021-06-06,0.3068461701935265,0.6994777449942227,1.7152452512170937,,,,,,,,,,,,
19047,0,USIowaCrawford,Iowa,Crawford,2022-04-28 09:13:11,2021-06-07,0.3068461701935265,0.6994777449942227,1.7152452512170937,,,,,,,,,,,,
19047,0,USIowaCrawford,Iowa,Crawford,2022-04-28 09:13:11,2021-06-08,0.3068461701935265,0.6994777449942227,1.7152452512170937,,,,,,,,,,,,
19047,0,USIowaCrawford,Iowa,Crawford,2022-04-28 09:13:11,2021-06-09,0.3068461701935265,0.6994777449942227,1.7152452512170937,,,,,,,,,,,,
19047,0,USIowaCrawford,Iowa,Crawford,2022-04-28 09:13:11,2021-06-10,0.3120393428630313,0.7220259449054418,1.7974841370336039,,,,,,,,,,,,
19047,0,USIowaCrawford,Iowa,Crawford,2022-04-28 09:13:11,2021-06-11,0.3120393428630313,0.7220259449054418,1.7974841370336039,,,,,,,,,,,,
19047,0,USIowaCrawford,Iowa,Crawford,2022-04-28 09:13:11,2021-06-12,0.3120393428630313,0.7220259449054418,1.7974841370336039,,,,,,,,,,,,
19047,0,USIowaCrawford,Iowa,Crawford,2022-04-28 09:13:11,2021-06-13,0.3120393428630313,0.7220259449054418,1.7974841370336039,,,,,,,,,,,,
19047,0,USIowaCrawford,Iowa,Crawford,2022-04-28 09:13:11,2021-06-14,0.3120393428630313,0.7220259449054418,1.7974841370336039,,,,,,,,,,,,
19047,0,USIowaCrawford,Iowa,Crawford,2022-04-28 09:13:11,2021-06-15,0.3120393428630313,0.7220259449054418,1.7974841370336039,,,,,,,,,,,,
19047,0,USIowaCrawford,Iowa,Crawford,2022-04-28 09:13:11,2021-06-16,0.3120393428630313,0.7220259449054418,1.7974841370336039,,,,,,,,,,,,
19047,0,USIowaCrawford,Iowa,Crawford,2022-04-28 09:13:11,2021-06-17,0.23518035595032327,0.580949817157065,1.5443805880843802,,,,,,,,,,,,
19047,0,USIowaCrawford,Iowa,Crawford,2022-04-28 09:13:11,2021-06-18,0.23518035595032327,0.580949817157065,1.5443805880843802,,,,,,,,,,,,
19047,0,USIowaCrawford,Iowa,Crawford,2022-04-28 09:13:11,2021-06-19,0.23518035595032327,0.580949817157065,1.5443805880843802,,,,,,,,,,,,
19047,0,USIowaCrawford,Iowa,Crawford,2022-04-28 09:13:11,2021-06-20,0.23518035595032327,0.580949817157065,1.5443805880843802,,,,,,,,,,,,
19047,0,USIowaCrawford,Iowa,Crawford,2022-04-28 09:13:11,2021-06-21,0.23518035595032327,0.580949817157065,1.5443805880843802,,,,,,,,,,,,
19047,0,USIowaCrawford,Iowa,Crawford,2022-04-28 09:13:11,2021-06-22,0.23518035595032327,0.580949817157065,1.5443805880843802,,,,,,,,,,,,
19047,0,USIowaCrawford,Iowa,Crawford,2022-04-28 09:13:11,2021-06-23,0.23518035595032327,0.580949817157065,1.5443805880843802,,,,,,,,,,,,
19047,0,USIowaCrawford,Iowa,Crawford,2022-04-28 09:13:11,2021-06-24,0.32052837138052653,0.7595535722718251,1.936845081854829,,,,,,,,,,,,
19047,0,USIowaCrawford,Iowa,Crawford,2022-04-28 09:13:11,2021-06-25,0.32052837138052653,0.7595535722718251,1.936845081854829,,,,,,,,,,,,
19047,0,USIowaCrawford,Iowa,Crawford,2022-04-28 09:13:11,2021-06-26,0.32052837138052653,0.7595535722718251,1.936845081854829,,,,,,,,,,,,
19047,0,USIowaCrawford,Iowa,Crawford,2022-04-28 09:13:11,2021-06-27,0.32052837138052653,0.7595535722718251,1.936845081854829,,,,,,,,,,,,
19047,0,USIowaCrawford,Iowa,Crawford,2022-04-28 09:13:11,2021-06-28,0.32052837138052653,0.7595535722718251,1.936845081854829,,,,,,,,,,,,
19047,0,USIowaCrawford,Iowa,Crawford,2022-04-28 09:13:11,2021-06-29,0.32052837138052653,0.7595535722718251,1.936845081854829,,,,,,,,,,,,
19047,0,USIowaCrawford,Iowa,Crawford,2022-04-28 09:13:11,2021-06-30,0.32052837138052653,0.7595535722718251,1.936845081854829,,,,,,,,,,,,
19047,0,USIowaCrawford,Iowa,Crawford,2022-04-28 09:13:11,2021-07-01,0.3488497303788409,1.079037466083998,3.5788786888942195,,,,,,,,,,,,
19047,0,USIowaCrawford,Iowa,Crawford,2022-04-28 09:13:11,2021-07-02,0.3488497303788409,1.079037466083998,3.5788786888942195,,,,,,,,,,,,
19047,0,USIowaCrawford,Iowa,Crawford,2022-04-28 09:13:11,2021-07-03,0.3488497303788409,1.079037466083998,3.5788786888942195,,,,,,,,,,,,
19047,0,USIowaCrawford,Iowa,Crawford,2022-04-28 09:13:11,2021-07-04,0.3488497303788409,1.079037466083998,3.5788786888942195,,,,,,,,,,,,
19047,0,USIowaCrawford,Iowa,Crawford,2022-04-28 09:13:11,2021-07-05,0.3488497303788409,1.079037466083998,3.5788786888942195,,,,,,,,,,,,
19047,0,USIowaCrawford,Iowa,Crawford,2022-04-28 09:13:11,2021-07-06,0.3488497303788409,1.079037466083998,3.5788786888942195,,,,,,,,,,,,
19047,0,USIowaCrawford,Iowa,Crawford,2022-04-28 09:13:11,2021-07-07,0.3488497303788409,1.079037466083998,3.5788786888942195,,,,,,,,,,,,
19047,0,USIowaCrawford,Iowa,Crawford,2022-04-28 09:13:11,2021-07-08,0.24133221159036333,0.6969247257699083,2.161775933990185,,,,,,,,,,,,
19047,0,USIowaCrawford,Iowa,Crawford,2022-04-28 09:13:11,2021-07-09,0.24133221159036333,0.6969247257699083,2.161775933990185,,,,,,,,,,,,
19047,0,USIowaCrawford,Iowa,Crawford,2022-04-28 09:13:11,2021-07-10,0.24133221159036333,0.6969247257699083,2.161775933990185,,,,,,,,,,,,
19047,0,USIowaCrawford,Iowa,Crawford,2022-04-28 09:13:11,2021-07-11,0.24133221159036333,0.6969247257699083,2.161775933990185,,,,,,,,,,,,
19047,0,USIowaCrawford,Iowa,Crawford,2022-04-28 09:13:11,2021-07-12,0.24133221159036333,0.6969247257699083,2.161775933990185,,,,,,,,,,,,
19047,0,USIowaCrawford,Iowa,Crawford,2022-04-28 09:13:11,2021-07-13,0.24133221159036333,0.6969247257699083,2.161775933990185,,,,,,,,,,,,
19047,0,USIowaCrawford,Iowa,Crawford,2022-04-28 09:13:11,2021-07-14,0.24133221159036333,0.6969247257699083,2.161775933990185,,,,,,,,,,,,
19047,0,USIowaCrawford,Iowa,Crawford,2022-04-28 09:13:11,2021-07-15,0.29366062337916826,0.8790393290887282,2.8239779038944732,,,,,,,,,,,,
19047,0,USIowaCrawford,Iowa,Crawford,2022-04-28 09:13:11,2021-07-16,0.29366062337916826,0.8790393290887282,2.8239779038944732,,,,,,,,,,,,
19047,0,USIowaCrawford,Iowa,Crawford,2022-04-28 09:13:11,2021-07-17,0.29366062337916826,0.8790393290887282,2.8239779038944732,,,,,,,,,,,,
19047,0,USIowaCrawford,Iowa,Crawford,2022-04-28 09:13:11,2021-07-18,0.29366062337916826,0.8790393290887282,2.8239779038944732,,,,,,,,,,,,
19047,0,USIowaCrawford,Iowa,Crawford,2022-04-28 09:13:11,2021-07-19,0.29366062337916826,0.8790393290887282,2.8239779038944732,,,,,,,,,,,,
19047,0,USIowaCrawford,Iowa,Crawford,2022-04-28 09:13:11,2021-07-20,0.29366062337916826,0.8790393290887282,2.8239779038944732,,,,,,,,,,,,
19047,0,USIowaCrawford,Iowa,Crawford,2022-04-28 09:13:11,2021-07-21,0.29366062337916826,0.8790393290887282,2.8239779038944732,,,,,,,,,,,,
19047,0,USIowaCrawford,Iowa,Crawford,2022-04-28 09:13:11,2021-07-22,0.850884097341615,1.986247250538273,4.988821408491835,,,,,,,,,,,,
19047,0,USIowaCrawford,Iowa,Crawford,2022-04-28 09:13:11,2021-07-23,0.850884097341615,1.986247250538273,4.988821408491835,,,,,,,,,,,,
19047,0,USIowaCrawford,Iowa,Crawford,2022-04-28 09:13:11,2021-07-24,0.850884097341615,1.986247250538273,4.988821408491835,,,,,,,,,,,,
19047,0,USIowaCrawford,Iowa,Crawford,2022-04-28 09:13:11,2021-07-25,0.850884097341615,1.986247250538273,4.988821408491835,,,,,,,,,,,,
19047,0,USIowaCrawford,Iowa,Crawford,2022-04-28 09:13:11,2021-07-26,0.850884097341615,1.986247250538273,4.988821408491835,,,,,,,,,,,,
19047,0,USIowaCrawford,Iowa,Crawford,2022-04-28 09:13:11,2021-07-27,0.850884097341615,1.986247250538273,4.988821408491835,,,,,,,,,,,,
19047,0,USIowaCrawford,Iowa,Crawford,2022-04-28 09:13:11,2021-07-28,0.850884097341615,1.986247250538273,4.988821408491835,,,,,,,,,,,,
19047,0,USIowaCrawford,Iowa,Crawford,2022-04-28 09:13:11,2021-07-29,1.2052651891493606,2.829596656095727,7.14803112590895,,,,,,,,,,,,
19047,0,USIowaCrawford,Iowa,Crawford,2022-04-28 09:13:11,2021-07-30,1.2052651891493606,2.829596656095727,7.14803112590895,,,,,,,,,,,,
19047,0,USIowaCrawford,Iowa,Crawford,2022-04-28 09:13:11,2021-07-31,1.2052651891493606,2.829596656095727,7.14803112590895,,,,,,,,,,,,
19047,0,USIowaCrawford,Iowa,Crawford,2022-04-28 09:13:11,2021-08-01,1.2052651891493606,2.829596656095727,7.14803112590895,,,,,,,,,,,,
19047,0,USIowaCrawford,Iowa,Crawford,2022-04-28 09:13:11,2021-08-02,1.2052651891493606,2.829596656095727,7.14803112590895,,,,,,,,,,,,
19047,0,USIowaCrawford,Iowa,Crawford,2022-04-28 09:13:11,2021-08-03,1.2052651891493606,2.829596656095727,7.14803112590895,,,,,,,,,,,,
19047,0,USIowaCrawford,Iowa,Crawford,2022-04-28 09:13:11,2021-08-04,1.2052651891493606,2.829596656095727,7.14803112590895,,,,,,,,,,,,
19047,0,USIowaCrawford,Iowa,Crawford,2022-04-28 09:13:11,2021-08-05,1.648158641166821,3.5625700179160362,8.27621541165181,,,,,,,,,,,,
19047,0,USIowaCrawford,Iowa,Crawford,2022-04-28 09:13:11,2021-08-06,1.648158641166821,3.5625700179160362,8.27621541165181,,,,,,,,,,,,
19047,0,USIowaCrawford,Iowa,Crawford,2022-04-28 09:13:11,2021-08-07,1.648158641166821,3.5625700179160362,8.27621541165181,,,,,,,,,,,,
19047,0,USIowaCrawford,Iowa,Crawford,2022-04-28 09:13:11,2021-08-08,1.648158641166821,3.5625700179160362,8.27621541165181,,,,,,,,,,,,
19047,0,USIowaCrawford,Iowa,Crawford,2022-04-28 09:13:11,2021-08-09,1.648158641166821,3.5625700179160362,8.27621541165181,,,,,,,,,,,,
19047,0,USIowaCrawford,Iowa,Crawford,2022-04-28 09:13:11,2021-08-10,1.648158641166821,3.5625700179160362,8.27621541165181,,,,,,,,,,,,
19047,0,USIowaCrawford,Iowa,Crawford,2022-04-28 09:13:11,2021-08-11,1.648158641166821,3.5625700179160362,8.27621541165181,,,,,,,,,,,,
19047,0,USIowaCrawford,Iowa,Crawford,2022-04-28 09:13:11,2021-08-12,1.7225184744369306,3.8734579167325074,9.36815239596893,,,,,,,,,,,,
19047,0,USIowaCrawford,Iowa,Crawford,2022-04-28 09:13:11,2021-08-13,1.7225184744369306,3.8734579167325074,9.36815239596893,,,,,,,,,,,,
19047,0,USIowaCrawford,Iowa,Crawford,2022-04-28 09:13:11,2021-08-14,1.7225184744369306,3.8734579167325074,9.36815239596893,,,,,,,,,,,,
19047,0,USIowaCrawford,Iowa,Crawford,2022-04-28 09:13:11,2021-08-15,1.7225184744369306,3.8734579167325074,9.36815239596893,,,,,,,,,,,,
19047,0,USIowaCrawford,Iowa,Crawford,2022-04-28 09:13:11,2021-08-16,1.7225184744369306,3.8734579167325074,9.36815239596893,,,,,,,,,,,,
19047,0,USIowaCrawford,Iowa,Crawford,2022-04-28 09:13:11,2021-08-17,1.7225184744369306,3.8734579167325074,9.36815239596893,,,,,,,,,,,,
19047,0,USIowaCrawford,Iowa,Crawford,2022-04-28 09:13:11,2021-08-18,1.7225184744369306,3.8734579167325074,9.36815239596893,,,,,,,,,,,,
19047,0,USIowaCrawford,Iowa,Crawford,2022-04-28 09:13:11,2021-08-19,0.8900523790369671,0.9366159922814776,0.9893915970518009,,,,,,,,,,,,
19047,0,USIowaCrawford,Iowa,Crawford,2022-04-28 09:13:11,2021-08-20,0.8900523790369671,0.9366159922814776,0.9893915970518009,,,,,,,,,,,,
19047,0,USIowaCrawford,Iowa,Crawford,2022-04-28 09:13:11,2021-08-21,0.8900523790369671,0.9366159922814776,0.9893915970518009,,,,,,,,,,,,
19047,0,USIowaCrawford,Iowa,Crawford,2022-04-28 09:13:11,2021-08-22,0.8900523790369671,0.9366159922814776,0.9893915970518009,,,,,,,,,,,,
19047,0,USIowaCrawford,Iowa,Crawford,2022-04-28 09:13:11,2021-08-23,0.8900523790369671,0.9366159922814776,0.9893915970518009,,,,,,,,,,,,
19047,0,USIowaCrawford,Iowa,Crawford,2022-04-28 09:13:11,2021-08-24,0.8900523790369671,0.9366159922814776,0.9893915970518009,,,,,,,,,,,,
19047,0,USIowaCrawford,Iowa,Crawford,2022-04-28 09:13:11,2021-08-25,0.8900523790369671,0.9366159922814776,0.9893915970518009,,,,,,,,,,,,
19047,0,USIowaCrawford,Iowa,Crawford,2022-04-28 09:13:11,2021-08-26,1.799672371259397,2.5478190371424616,3.758131732659744,,,,,,,,,,,,
19047,0,USIowaCrawford,Iowa,Crawford,2022-04-28 09:13:11,2021-08-27,1.799672371259397,2.5478190371424616,3.758131732659744,,,,,,,,,,,,
19047,0,USIowaCrawford,Iowa,Crawford,2022-04-28 09:13:11,2021-08-28,1.799672371259397,2.5478190371424616,3.758131732659744,,,,,,,,,,,,
19047,0,USIowaCrawford,Iowa,Crawford,2022-04-28 09:13:11,2021-08-29,1.799672371259397,2.5478190371424616,3.758131732659744,,,,,,,,,,,,
19047,0,USIowaCrawford,Iowa,Crawford,2022-04-28 09:13:11,2021-08-30,1.799672371259397,2.5478190371424616,3.758131732659744,,,,,,,,,,,,
19047,0,USIowaCrawford,Iowa,Crawford,2022-04-28 09:13:11,2021-08-31,1.799672371259397,2.5478190371424616,3.758131732659744,,,,,,,,,,,,
19047,0,USIowaCrawford,Iowa,Crawford,2022-04-28 09:13:11,2021-09-01,1.799672371259397,2.5478190371424616,3.758131732659744,,,,,,,,,,,,
19047,0,USIowaCrawford,Iowa,Crawford,2022-04-28 09:13:11,2021-09-02,1.642667948599765,2.7572231892863823,4.909766655640838,,,,,,,,,,,,
19047,0,USIowaCrawford,Iowa,Crawford,2022-04-28 09:13:11,2021-09-03,1.642667948599765,2.7572231892863823,4.909766655640838,,,,,,,,,,,,
19047,0,USIowaCrawford,Iowa,Crawford,2022-04-28 09:13:11,2021-09-04,1.642667948599765,2.7572231892863823,4.909766655640838,,,,,,,,,,,,
19047,0,USIowaCrawford,Iowa,Crawford,2022-04-28 09:13:11,2021-09-05,1.642667948599765,2.7572231892863823,4.909766655640838,,,,,,,,,,,,
19047,0,USIowaCrawford,Iowa,Crawford,2022-04-28 09:13:11,2021-09-06,1.642667948599765,2.7572231892863823,4.909766655640838,,,,,,,,,,,,
19047,0,USIowaCrawford,Iowa,Crawford,2022-04-28 09:13:11,2021-09-07,1.642667948599765,2.7572231892863823,4.909766655640838,,,,,,,,,,,,
19047,0,USIowaCrawford,Iowa,Crawford,2022-04-28 09:13:11,2021-09-08,1.642667948599765,2.7572231892863823,4.909766655640838,,,,,,,,,,,,
19047,0,USIowaCrawford,Iowa,Crawford,2022-04-28 09:13:11,2021-09-09,1.3413661677137323,2.1623418352588732,3.6847686021500854,,,,,,,,,,,,
19047,0,USIowaCrawford,Iowa,Crawford,2022-04-28 09:13:11,2021-09-10,1.3413661677137323,2.1623418352588732,3.6847686021500854,,,,,,,,,,,,
19047,0,USIowaCrawford,Iowa,Crawford,2022-04-28 09:13:11,2021-09-11,1.3413661677137323,2.1623418352588732,3.6847686021500854,,,,,,,,,,,,
19047,0,USIowaCrawford,Iowa,Crawford,2022-04-28 09:13:11,2021-09-12,1.3413661677137323,2.1623418352588732,3.6847686021500854,,,,,,,,,,,,
19047,0,USIowaCrawford,Iowa,Crawford,2022-04-28 09:13:11,2021-09-13,1.3413661677137323,2.1623418352588732,3.6847686021500854,,,,,,,,,,,,
19047,0,USIowaCrawford,Iowa,Crawford,2022-04-28 09:13:11,2021-09-14,1.3413661677137323,2.1623418352588732,3.6847686021500854,,,,,,,,,,,,
19047,0,USIowaCrawford,Iowa,Crawford,2022-04-28 09:13:11,2021-09-15,1.3413661677137323,2.1623418352588732,3.6847686021500854,,,,,,,,,,,,
19047,0,USIowaCrawford,Iowa,Crawford,2022-04-28 09:13:11,2021-09-16,1.6367907100089258,3.8167786063062725,9.576325215507232,,,,,,,,,,,,
19047,0,USIowaCrawford,Iowa,Crawford,2022-04-28 09:13:11,2021-09-17,1.6367907100089258,3.8167786063062725,9.576325215507232,,,,,,,,,,,,
19047,0,USIowaCrawford,Iowa,Crawford,2022-04-28 09:13:11,2021-09-18,1.6367907100089258,3.8167786063062725,9.576325215507232,,,,,,,,,,,,
19047,0,USIowaCrawford,Iowa,Crawford,2022-04-28 09:13:11,2021-09-19,1.6367907100089258,3.8167786063062725,9.576325215507232,,,,,,,,,,,,
19047,0,USIowaCrawford,Iowa,Crawford,2022-04-28 09:13:11,2021-09-20,1.6367907100089258,3.8167786063062725,9.576325215507232,,,,,,,,,,,,
19047,0,USIowaCrawford,Iowa,Crawford,2022-04-28 09:13:11,2021-09-21,1.6367907100089258,3.8167786063062725,9.576325215507232,,,,,,,,,,,,
19047,0,USIowaCrawford,Iowa,Crawford,2022-04-28 09:13:11,2021-09-22,1.6367907100089258,3.8167786063062725,9.576325215507232,,,,,,,,,,,,
19047,0,USIowaCrawford,Iowa,Crawford,2022-04-28 09:13:11,2021-09-23,0.6190169591610222,1.9372487768207853,6.49883854349188,,,,,,,,,,,,
19047,0,USIowaCrawford,Iowa,Crawford,2022-04-28 09:13:11,2021-09-24,0.6190169591610222,1.9372487768207853,6.49883854349188,,,,,,,,,,,,
19047,0,USIowaCrawford,Iowa,Crawford,2022-04-28 09:13:11,2021-09-25,0.6190169591610222,1.9372487768207853,6.49883854349188,,,,,,,,,,,,
19047,0,USIowaCrawford,Iowa,Crawford,2022-04-28 09:13:11,2021-09-26,0.6190169591610222,1.9372487768207853,6.49883854349188,,,,,,,,,,,,
19047,0,USIowaCrawford,Iowa,Crawford,2022-04-28 09:13:11,2021-09-27,0.6190169591610222,1.9372487768207853,6.49883854349188,,,,,,,,,,,,
19047,0,USIowaCrawford,Iowa,Crawford,2022-04-28 09:13:11,2021-09-28,0.6190169591610222,1.9372487768207853,6.49883854349188,,,,,,,,,,,,
19047,0,USIowaCrawford,Iowa,Crawford,2022-04-28 09:13:11,2021-09-29,0.6190169591610222,1.9372487768207853,6.49883854349188,,,,,,,,,,,,
19047,0,USIowaCrawford,Iowa,Crawford,2022-04-28 09:13:11,2021-09-30,1.9602463170442195,4.461279605178519,10.921913929735364,,,,,,,,,,,,
19047,0,USIowaCrawford,Iowa,Crawford,2022-04-28 09:13:11,2021-10-01,1.9602463170442195,4.461279605178519,10.921913929735364,,,,,,,,,,,,
19047,0,USIowaCrawford,Iowa,Crawford,2022-04-28 09:13:11,2021-10-02,1.9602463170442195,4.461279605178519,10.921913929735364,,,,,,,,,,,,
19047,0,USIowaCrawford,Iowa,Crawford,2022-04-28 09:13:11,2021-10-03,1.9602463170442195,4.461279605178519,10.921913929735364,,,,,,,,,,,,
19047,0,USIowaCrawford,Iowa,Crawford,2022-04-28 09:13:11,2021-10-04,1.9602463170442195,4.461279605178519,10.921913929735364,,,,,,,,,,,,
19047,0,USIowaCrawford,Iowa,Crawford,2022-04-28 09:13:11,2021-10-05,1.9602463170442195,4.461279605178519,10.921913929735364,,,,,,,,,,,,
19047,0,USIowaCrawford,Iowa,Crawford,2022-04-28 09:13:11,2021-10-06,1.9602463170442195,4.461279605178519,10.921913929735364,,,,,,,,,,,,
19047,0,USIowaCrawford,Iowa,Crawford,2022-04-28 09:13:11,2021-10-07,1.1294941947621362,3.3728973422417563,10.810323468898007,,,,,,,,,,,,
19047,0,USIowaCrawford,Iowa,Crawford,2022-04-28 09:13:11,2021-10-08,1.1294941947621362,3.3728973422417563,10.810323468898007,,,,,,,,,,,,
19047,0,USIowaCrawford,Iowa,Crawford,2022-04-28 09:13:11,2021-10-09,1.1294941947621362,3.3728973422417563,10.810323468898007,,,,,,,,,,,,
19047,0,USIowaCrawford,Iowa,Crawford,2022-04-28 09:13:11,2021-10-10,1.1294941947621362,3.3728973422417563,10.810323468898007,,,,,,,,,,,,
19047,0,USIowaCrawford,Iowa,Crawford,2022-04-28 09:13:11,2021-10-11,1.1294941947621362,3.3728973422417563,10.810323468898007,,,,,,,,,,,,
19047,0,USIowaCrawford,Iowa,Crawford,2022-04-28 09:13:11,2021-10-12,1.1294941947621362,3.3728973422417563,10.810323468898007,,,,,,,,,,,,
19047,0,USIowaCrawford,Iowa,Crawford,2022-04-28 09:13:11,2021-10-13,1.1294941947621362,3.3728973422417563,10.810323468898007,,,,,,,,,,,,
19047,0,USIowaCrawford,Iowa,Crawford,2022-04-28 09:13:11,2021-10-14,1.0155970479640477,3.56718192627824,13.379445800136086,,,,,,,,,,,,
19047,0,USIowaCrawford,Iowa,Crawford,2022-04-28 09:13:11,2021-10-15,1.0155970479640477,3.56718192627824,13.379445800136086,,,,,,,,,,,,
19047,0,USIowaCrawford,Iowa,Crawford,2022-04-28 09:13:11,2021-10-16,1.0155970479640477,3.56718192627824,13.379445800136086,,,,,,,,,,,,
19047,0,USIowaCrawford,Iowa,Crawford,2022-04-28 09:13:11,2021-10-17,1.0155970479640477,3.56718192627824,13.379445800136086,,,,,,,,,,,,
19047,0,USIowaCrawford,Iowa,Crawford,2022-04-28 09:13:11,2021-10-18,1.0155970479640477,3.56718192627824,13.379445800136086,,,,,,,,,,,,
19047,0,USIowaCrawford,Iowa,Crawford,2022-04-28 09:13:11,2021-10-19,1.0155970479640477,3.56718192627824,13.379445800136086,,,,,,,,,,,,
19047,0,USIowaCrawford,Iowa,Crawford,2022-04-28 09:13:11,2021-10-20,1.0155970479640477,3.56718192627824,13.379445800136086,,,,,,,,,,,,
19047,0,USIowaCrawford,Iowa,Crawford,2022-04-28 09:13:11,2021-10-21,0.8139046777010958,2.722667093715568,9.742537126721338,,,,,,,,,,,,
19047,0,USIowaCrawford,Iowa,Crawford,2022-04-28 09:13:11,2021-10-22,0.8139046777010958,2.722667093715568,9.742537126721338,,,,,,,,,,,,
19047,0,USIowaCrawford,Iowa,Crawford,2022-04-28 09:13:11,2021-10-23,0.8139046777010958,2.722667093715568,9.742537126721338,,,,,,,,,,,,
19047,0,USIowaCrawford,Iowa,Crawford,2022-04-28 09:13:11,2021-10-24,0.8139046777010958,2.722667093715568,9.742537126721338,,,,,,,,,,,,
19047,0,USIowaCrawford,Iowa,Crawford,2022-04-28 09:13:11,2021-10-25,0.8139046777010958,2.722667093715568,9.742537126721338,,,,,,,,,,,,
19047,0,USIowaCrawford,Iowa,Crawford,2022-04-28 09:13:11,2021-10-26,0.8139046777010958,2.722667093715568,9.742537126721338,,,,,,,,,,,,
19047,0,USIowaCrawford,Iowa,Crawford,2022-04-28 09:13:11,2021-10-27,0.8139046777010958,2.722667093715568,9.742537126721338,,,,,,,,,,,,
19047,0,USIowaCrawford,Iowa,Crawford,2022-04-28 09:13:11,2021-10-28,1.3593726348852881,4.224614283416115,14.076352083767556,,,,,,,,,,,,
19047,0,USIowaCrawford,Iowa,Crawford,2022-04-28 09:13:11,2021-10-29,1.3593726348852881,4.224614283416115,14.076352083767556,,,,,,,,,,,,
19047,0,USIowaCrawford,Iowa,Crawford,2022-04-28 09:13:11,2021-10-30,1.3593726348852881,4.224614283416115,14.076352083767556,,,,,,,,,,,,
19047,0,USIowaCrawford,Iowa,Crawford,2022-04-28 09:13:11,2021-10-31,1.3593726348852881,4.224614283416115,14.076352083767556,,,,,,,,,,,,
19047,0,USIowaCrawford,Iowa,Crawford,2022-04-28 09:13:11,2021-11-01,1.3593726348852881,4.224614283416115,14.076352083767556,,,,,,,,,,,,
19047,0,USIowaCrawford,Iowa,Crawford,2022-04-28 09:13:11,2021-11-02,1.3593726348852881,4.224614283416115,14.076352083767556,,,,,,,,,,,,
19047,0,USIowaCrawford,Iowa,Crawford,2022-04-28 09:13:11,2021-11-03,1.3593726348852881,4.224614283416115,14.076352083767556,,,,,,,,,,,,
19047,0,USIowaCrawford,Iowa,Crawford,2022-04-28 09:13:11,2021-11-04,1.36934517278301,4.401617273526288,15.154109009586717,,,,,,,,,,,,
19047,0,USIowaCrawford,Iowa,Crawford,2022-04-28 09:13:11,2021-11-05,1.36934517278301,4.401617273526288,15.154109009586717,,,,,,,,,,,,
19047,0,USIowaCrawford,Iowa,Crawford,2022-04-28 09:13:11,2021-11-06,1.36934517278301,4.401617273526288,15.154109009586717,,,,,,,,,,,,
19047,0,USIowaCrawford,Iowa,Crawford,2022-04-28 09:13:11,2021-11-07,1.36934517278301,4.401617273526288,15.154109009586717,,,,,,,,,,,,
19047,0,USIowaCrawford,Iowa,Crawford,2022-04-28 09:13:11,2021-11-08,1.36934517278301,4.401617273526288,15.154109009586717,,,,,,,,,,,,
19047,0,USIowaCrawford,Iowa,Crawford,2022-04-28 09:13:11,2021-11-09,1.36934517278301,4.401617273526288,15.154109009586717,,,,,,,,,,,,
19047,0,USIowaCrawford,Iowa,Crawford,2022-04-28 09:13:11,2021-11-10,1.36934517278301,4.401617273526288,15.154109009586717,,,,,,,,,,,,
19047,0,USIowaCrawford,Iowa,Crawford,2022-04-28 09:13:11,2021-11-11,1.355592743288191,4.091528495488205,13.250761233794496,,,,,,,,,,,,
19047,0,USIowaCrawford,Iowa,Crawford,2022-04-28 09:13:11,2021-11-12,1.355592743288191,4.091528495488205,13.250761233794496,,,,,,,,,,,,
19047,0,USIowaCrawford,Iowa,Crawford,2022-04-28 09:13:11,2021-11-13,1.355592743288191,4.091528495488205,13.250761233794496,,,,,,,,,,,,
19047,0,USIowaCrawford,Iowa,Crawford,2022-04-28 09:13:11,2021-11-14,1.355592743288191,4.091528495488205,13.250761233794496,,,,,,,,,,,,
19047,0,USIowaCrawford,Iowa,Crawford,2022-04-28 09:13:11,2021-11-15,1.355592743288191,4.091528495488205,13.250761233794496,,,,,,,,,,,,
19047,0,USIowaCrawford,Iowa,Crawford,2022-04-28 09:13:11,2021-11-16,1.355592743288191,4.091528495488205,13.250761233794496,,,,,,,,,,,,
19047,0,USIowaCrawford,Iowa,Crawford,2022-04-28 09:13:11,2021-11-17,1.355592743288191,4.091528495488205,13.250761233794496,,,,,,,,,,,,
19047,0,USIowaCrawford,Iowa,Crawford,2022-04-28 09:13:11,2021-11-18,1.502181305670155,4.698141967916214,15.750904517187408,,,,,,,,,,,,
19047,0,USIowaCrawford,Iowa,Crawford,2022-04-28 09:13:11,2021-11-19,1.502181305670155,4.698141967916214,15.750904517187408,,,,,,,,,,,,
19047,0,USIowaCrawford,Iowa,Crawford,2022-04-28 09:13:11,2021-11-20,1.502181305670155,4.698141967916214,15.750904517187408,,,,,,,,,,,,
19047,0,USIowaCrawford,Iowa,Crawford,2022-04-28 09:13:11,2021-11-21,1.502181305670155,4.698141967916214,15.750904517187408,,,,,,,,,,,,
19047,0,USIowaCrawford,Iowa,Crawford,2022-04-28 09:13:11,2021-11-22,1.502181305670155,4.698141967916214,15.750904517187408,,,,,,,,,,,,
19047,0,USIowaCrawford,Iowa,Crawford,2022-04-28 09:13:11,2021-11-23,1.502181305670155,4.698141967916214,15.750904517187408,,,,,,,,,,,,
19047,0,USIowaCrawford,Iowa,Crawford,2022-04-28 09:13:11,2021-11-24,1.502181305670155,4.698141967916214,15.750904517187408,,,,,,,,,,,,
19047,0,USIowaCrawford,Iowa,Crawford,2022-04-28 09:13:11,2021-11-25,0.9780269273672013,3.473924328174315,13.1710094271521,,,,,,,,,,,,
19047,0,USIowaCrawford,Iowa,Crawford,2022-04-28 09:13:11,2021-11-26,0.9780269273672013,3.473924328174315,13.1710094271521,,,,,,,,,,,,
19047,0,USIowaCrawford,Iowa,Crawford,2022-04-28 09:13:11,2021-11-27,0.9780269273672013,3.473924328174315,13.1710094271521,,,,,,,,,,,,
19047,0,USIowaCrawford,Iowa,Crawford,2022-04-28 09:13:11,2021-11-28,0.9780269273672013,3.473924328174315,13.1710094271521,,,,,,,,,,,,
19047,0,USIowaCrawford,Iowa,Crawford,2022-04-28 09:13:11,2021-11-29,0.9780269273672013,3.473924328174315,13.1710094271521,,,,,,,,,,,,
19047,0,USIowaCrawford,Iowa,Crawford,2022-04-28 09:13:11,2021-11-30,0.9780269273672013,3.473924328174315,13.1710094271521,,,,,,,,,,,,
19047,0,USIowaCrawford,Iowa,Crawford,2022-04-28 09:13:11,2021-12-01,0.9780269273672013,3.473924328174315,13.1710094271521,,,,,,,,,,,,
19047,0,USIowaCrawford,Iowa,Crawford,2022-04-28 09:13:11,2021-12-02,1.9403466366818107,5.62742054887111,17.52884090052275,,,,,,,,,,,,
19047,0,USIowaCrawford,Iowa,Crawford,2022-04-28 09:13:11,2021-12-03,1.9403466366818107,5.62742054887111,17.52884090052275,,,,,,,,,,,,
19047,0,USIowaCrawford,Iowa,Crawford,2022-04-28 09:13:11,2021-12-04,1.9403466366818107,5.62742054887111,17.52884090052275,,,,,,,,,,,,
19047,0,USIowaCrawford,Iowa,Crawford,2022-04-28 09:13:11,2021-12-05,1.9403466366818107,5.62742054887111,17.52884090052275,,,,,,,,,,,,
19047,0,USIowaCrawford,Iowa,Crawford,2022-04-28 09:13:11,2021-12-06,1.9403466366818107,5.62742054887111,17.52884090052275,,,,,,,,,,,,
19047,0,USIowaCrawford,Iowa,Crawford,2022-04-28 09:13:11,2021-12-07,1.9403466366818107,5.62742054887111,17.52884090052275,,,,,,,,,,,,
19047,0,USIowaCrawford,Iowa,Crawford,2022-04-28 09:13:11,2021-12-08,1.9403466366818107,5.62742054887111,17.52884090052275,,,,,,,,,,,,
19047,0,USIowaCrawford,Iowa,Crawford,2022-04-28 09:13:11,2021-12-09,1.9703522003712666,5.68872532024325,17.641781182080987,,,,,,,,,,,,
19047,0,USIowaCrawford,Iowa,Crawford,2022-04-28 09:13:11,2021-12-10,1.9703522003712666,5.68872532024325,17.641781182080987,,,,,,,,,,,,
19047,0,USIowaCrawford,Iowa,Crawford,2022-04-28 09:13:11,2021-12-11,1.9703522003712666,5.68872532024325,17.641781182080987,,,,,,,,,,,,
19047,0,USIowaCrawford,Iowa,Crawford,2022-04-28 09:13:11,2021-12-12,1.9703522003712666,5.68872532024325,17.641781182080987,,,,,,,,,,,,
19047,0,USIowaCrawford,Iowa,Crawford,2022-04-28 09:13:11,2021-12-13,1.9703522003712666,5.68872532024325,17.641781182080987,,,,,,,,,,,,
19047,0,USIowaCrawford,Iowa,Crawford,2022-04-28 09:13:11,2021-12-14,1.9703522003712666,5.68872532024325,17.641781182080987,,,,,,,,,,,,
19047,0,USIowaCrawford,Iowa,Crawford,2022-04-28 09:13:11,2021-12-15,1.9703522003712666,5.68872532024325,17.641781182080987,,,,,,,,,,,,
19047,0,USIowaCrawford,Iowa,Crawford,2022-04-28 09:13:11,2021-12-16,1.6944909291102386,5.114410619360256,16.56345154224311,,,,,,,,,,,,
19047,0,USIowaCrawford,Iowa,Crawford,2022-04-28 09:13:11,2021-12-17,1.6944909291102386,5.114410619360256,16.56345154224311,,,,,,,,,,,,
19047,0,USIowaCrawford,Iowa,Crawford,2022-04-28 09:13:11,2021-12-18,1.6944909291102386,5.114410619360256,16.56345154224311,,,,,,,,,,,,
19047,0,USIowaCrawford,Iowa,Crawford,2022-04-28 09:13:11,2021-12-19,1.6944909291102386,5.114410619360256,16.56345154224311,,,,,,,,,,,,
19047,0,USIowaCrawford,Iowa,Crawford,2022-04-28 09:13:11,2021-12-20,1.6944909291102386,5.114410619360256,16.56345154224311,,,,,,,,,,,,
19047,0,USIowaCrawford,Iowa,Crawford,2022-04-28 09:13:11,2021-12-21,1.6944909291102386,5.114410619360256,16.56345154224311,,,,,,,,,,,,
19047,0,USIowaCrawford,Iowa,Crawford,2022-04-28 09:13:11,2021-12-22,1.6944909291102386,5.114410619360256,16.56345154224311,,,,,,,,,,,,
19047,0,USIowaCrawford,Iowa,Crawford,2022-04-28 09:13:11,2021-12-23,1.196918643678082,4.003922196640541,14.327260480472551,,,,,,,,,,,,
19047,0,USIowaCrawford,Iowa,Crawford,2022-04-28 09:13:11,2021-12-24,1.196918643678082,4.003922196640541,14.327260480472551,,,,,,,,,,,,
19047,0,USIowaCrawford,Iowa,Crawford,2022-04-28 09:13:11,2021-12-25,1.196918643678082,4.003922196640541,14.327260480472551,,,,,,,,,,,,
19047,0,USIowaCrawford,Iowa,Crawford,2022-04-28 09:13:11,2021-12-26,1.196918643678082,4.003922196640541,14.327260480472551,,,,,,,,,,,,
19047,0,USIowaCrawford,Iowa,Crawford,2022-04-28 09:13:11,2021-12-27,1.196918643678082,4.003922196640541,14.327260480472551,,,,,,,,,,,,
19047,0,USIowaCrawford,Iowa,Crawford,2022-04-28 09:13:11,2021-12-28,1.196918643678082,4.003922196640541,14.327260480472551,,,,,,,,,,,,
19047,0,USIowaCrawford,Iowa,Crawford,2022-04-28 09:13:11,2021-12-29,1.196918643678082,4.003922196640541,14.327260480472551,,,,,,,,,,,,
19047,0,USIowaCrawford,Iowa,Crawford,2022-04-28 09:13:11,2021-12-30,2.921615526483646,7.518132162145512,20.8158898838738,,,,,,,,,,,,
19047,0,USIowaCrawford,Iowa,Crawford,2022-04-28 09:13:11,2021-12-31,2.921615526483646,7.518132162145512,20.8158898838738,,,,,,,,,,,,
19047,0,USIowaCrawford,Iowa,Crawford,2022-04-28 09:13:11,2022-01-01,2.921615526483646,7.518132162145512,20.8158898838738,,,,,,,,,,,,
19047,0,USIowaCrawford,Iowa,Crawford,2022-04-28 09:13:11,2022-01-02,2.921615526483646,7.518132162145512,20.8158898838738,,,,,,,,,,,,
19047,0,USIowaCrawford,Iowa,Crawford,2022-04-28 09:13:11,2022-01-03,2.921615526483646,7.518132162145512,20.8158898838738,,,,,,,,,,,,
19047,0,USIowaCrawford,Iowa,Crawford,2022-04-28 09:13:11,2022-01-04,2.921615526483646,7.518132162145512,20.8158898838738,,,,,,,,,,,,
19047,0,USIowaCrawford,Iowa,Crawford,2022-04-28 09:13:11,2022-01-05,2.921615526483646,7.518132162145512,20.8158898838738,,,,,,,,,,,,
19047,0,USIowaCrawford,Iowa,Crawford,2022-04-28 09:13:11,2022-01-06,5.2003184587966755,11.345459757791025,26.607516756489385,,,,,,,,,,,,
19047,0,USIowaCrawford,Iowa,Crawford,2022-04-28 09:13:11,2022-01-07,5.2003184587966755,11.345459757791025,26.607516756489385,,,,,,,,,,,,
19047,0,USIowaCrawford,Iowa,Crawford,2022-04-28 09:13:11,2022-01-08,5.2003184587966755,11.345459757791025,26.607516756489385,,,,,,,,,,,,
19047,0,USIowaCrawford,Iowa,Crawford,2022-04-28 09:13:11,2022-01-09,5.2003184587966755,11.345459757791025,26.607516756489385,,,,,,,,,,,,
19047,0,USIowaCrawford,Iowa,Crawford,2022-04-28 09:13:11,2022-01-10,5.2003184587966755,11.345459757791025,26.607516756489385,,,,,,,,,,,,
19047,0,USIowaCrawford,Iowa,Crawford,2022-04-28 09:13:11,2022-01-11,5.2003184587966755,11.345459757791025,26.607516756489385,,,,,,,,,,,,
19047,0,USIowaCrawford,Iowa,Crawford,2022-04-28 09:13:11,2022-01-12,5.2003184587966755,11.345459757791025,26.607516756489385,,,,,,,,,,,,
19047,0,USIowaCrawford,Iowa,Crawford,2022-04-28 09:13:11,2022-01-13,4.5430795069273415,10.297811601777152,25.107743277578404,,,,,,,,,,,,
19047,0,USIowaCrawford,Iowa,Crawford,2022-04-28 09:13:11,2022-01-14,4.5430795069273415,10.297811601777152,25.107743277578404,,,,,,,,,,,,
19047,0,USIowaCrawford,Iowa,Crawford,2022-04-28 09:13:11,2022-01-15,4.5430795069273415,10.297811601777152,25.107743277578404,,,,,,,,,,,,
19047,0,USIowaCrawford,Iowa,Crawford,2022-04-28 09:13:11,2022-01-16,4.5430795069273415,10.297811601777152,25.107743277578404,,,,,,,,,,,,
19047,0,USIowaCrawford,Iowa,Crawford,2022-04-28 09:13:11,2022-01-17,4.5430795069273415,10.297811601777152,25.107743277578404,,,,,,,,,,,,
19047,0,USIowaCrawford,Iowa,Crawford,2022-04-28 09:13:11,2022-01-18,4.5430795069273415,10.297811601777152,25.107743277578404,,,,,,,,,,,,
19047,0,USIowaCrawford,Iowa,Crawford,2022-04-28 09:13:11,2022-01-19,4.5430795069273415,10.297811601777152,25.107743277578404,,,,,,,,,,,,
19047,0,USIowaCrawford,Iowa,Crawford,2022-04-28 09:13:11,2022-01-20,4.120875254553773,9.603996025446424,24.083002119238976,,,,,,,,,,,,
19047,0,USIowaCrawford,Iowa,Crawford,2022-04-28 09:13:11,2022-01-21,4.120875254553773,9.603996025446424,24.083002119238976,,,,,,,,,,,,
19047,0,USIowaCrawford,Iowa,Crawford,2022-04-28 09:13:11,2022-01-22,4.120875254553773,9.603996025446424,24.083002119238976,,,,,,,,,,,,
19047,0,USIowaCrawford,Iowa,Crawford,2022-04-28 09:13:11,2022-01-23,4.120875254553773,9.603996025446424,24.083002119238976,,,,,,,,,,,,
19047,0,USIowaCrawford,Iowa,Crawford,2022-04-28 09:13:11,2022-01-24,4.120875254553773,9.603996025446424,24.083002119238976,,,,,,,,,,,,
19047,0,USIowaCrawford,Iowa,Crawford,2022-04-28 09:13:11,2022-01-25,4.120875254553773,9.603996025446424,24.083002119238976,,,,,,,,,,,,
19047,0,USIowaCrawford,Iowa,Crawford,2022-04-28 09:13:11,2022-01-26,4.120875254553773,9.603996025446424,24.083002119238976,,,,,,,,,,,,
19047,0,USIowaCrawford,Iowa,Crawford,2022-04-28 09:13:11,2022-01-27,4.144658408613588,9.643561112515785,24.14217377124466,,,,,,,,,,,,
19047,0,USIowaCrawford,Iowa,Crawford,2022-04-28 09:13:11,2022-01-28,4.144658408613588,9.643561112515785,24.14217377124466,,,,,,,,,,,,
19047,0,USIowaCrawford,Iowa,Crawford,2022-04-28 09:13:11,2022-01-29,4.144658408613588,9.643561112515785,24.14217377124466,,,,,,,,,,,,
19047,0,USIowaCrawford,Iowa,Crawford,2022-04-28 09:13:11,2022-01-30,4.144658408613588,9.643561112515785,24.14217377124466,,,,,,,,,,,,
19047,0,USIowaCrawford,Iowa,Crawford,2022-04-28 09:13:11,2022-01-31,4.144658408613588,9.643561112515785,24.14217377124466,,,,,,,,,,,,
19047,0,USIowaCrawford,Iowa,Crawford,2022-04-28 09:13:11,2022-02-01,4.144658408613588,9.643561112515785,24.14217377124466,,,,,,,,,,,,
19047,0,USIowaCrawford,Iowa,Crawford,2022-04-28 09:13:11,2022-02-02,4.144658408613588,9.643561112515785,24.14217377124466,,,,,,,,,,,,
19047,0,USIowaCrawford,Iowa,Crawford,2022-04-28 09:13:11,2022-02-03,2.653469616322104,7.021928918688956,19.988612715302725,,,,,,,,,,,,
19047,0,USIowaCrawford,Iowa,Crawford,2022-04-28 09:13:11,2022-02-04,2.653469616322104,7.021928918688956,19.988612715302725,,,,,,,,,,,,
19047,0,USIowaCrawford,Iowa,Crawford,2022-04-28 09:13:11,2022-02-05,2.653469616322104,7.021928918688956,19.988612715302725,,,,,,,,,,,,
19047,0,USIowaCrawford,Iowa,Crawford,2022-04-28 09:13:11,2022-02-06,2.653469616322104,7.021928918688956,19.988612715302725,,,,,,,,,,,,
19047,0,USIowaCrawford,Iowa,Crawford,2022-04-28 09:13:11,2022-02-07,2.653469616322104,7.021928918688956,19.988612715302725,,,,,,,,,,,,
19047,0,USIowaCrawford,Iowa,Crawford,2022-04-28 09:13:11,2022-02-08,2.653469616322104,7.021928918688956,19.988612715302725,,,,,,,,,,,,
19047,0,USIowaCrawford,Iowa,Crawford,2022-04-28 09:13:11,2022-02-09,2.653469616322104,7.021928918688956,19.988612715302725,,,,,,,,,,,,
19047,0,USIowaCrawford,Iowa,Crawford,2022-04-28 09:13:11,2022-02-10,1.36934517278301,4.401617273526288,15.154109009586717,,,,,,,,,,,,
19047,0,USIowaCrawford,Iowa,Crawford,2022-04-28 09:13:11,2022-02-11,1.36934517278301,4.401617273526288,15.154109009586717,,,,,,,,,,,,
19047,0,USIowaCrawford,Iowa,Crawford,2022-04-28 09:13:11,2022-02-12,1.36934517278301,4.401617273526288,15.154109009586717,,,,,,,,,,,,
19047,0,USIowaCrawford,Iowa,Crawford,2022-04-28 09:13:11,2022-02-13,1.36934517278301,4.401617273526288,15.154109009586717,,,,,,,,,,,,
19047,0,USIowaCrawford,Iowa,Crawford,2022-04-28 09:13:11,2022-02-14,1.36934517278301,4.401617273526288,15.154109009586717,,,,,,,,,,,,
19047,0,USIowaCrawford,Iowa,Crawford,2022-04-28 09:13:11,2022-02-15,1.36934517278301,4.401617273526288,15.154109009586717,,,,,,,,,,,,
19047,0,USIowaCrawford,Iowa,Crawford,2022-04-28 09:13:11,2022-02-16,1.36934517278301,4.401617273526288,15.154109009586717,,,,,,,,,,,,
19047,0,USIowaCrawford,Iowa,Crawford,2022-04-28 09:13:11,2022-02-17,0.566241074369997,2.366681498721542,10.489288698926021,,,,,,,,,,,,
19047,0,USIowaCrawford,Iowa,Crawford,2022-04-28 09:13:11,2022-02-18,0.566241074369997,2.366681498721542,10.489288698926021,,,,,,,,,,,,
19047,0,USIowaCrawford,Iowa,Crawford,2022-04-28 09:13:11,2022-02-19,0.566241074369997,2.366681498721542,10.489288698926021,,,,,,,,,,,,
19047,0,USIowaCrawford,Iowa,Crawford,2022-04-28 09:13:11,2022-02-20,0.566241074369997,2.366681498721542,10.489288698926021,,,,,,,,,,,,
19047,0,USIowaCrawford,Iowa,Crawford,2022-04-28 09:13:11,2022-02-21,0.566241074369997,2.366681498721542,10.489288698926021,,,,,,,,,,,,
19047,0,USIowaCrawford,Iowa,Crawford,2022-04-28 09:13:11,2022-02-22,0.566241074369997,2.366681498721542,10.489288698926021,,,,,,,,,,,,
19047,0,USIowaCrawford,Iowa,Crawford,2022-04-28 09:13:11,2022-02-23,0.566241074369997,2.366681498721542,10.489288698926021,,,,,,,,,,,,
