0 Divergences
Passed validation
2022-03-04 date of last case count
2022-04-20 date of last test positivity data
covid_prevalence version: WGM 0.1.7 2022-04-13

Data provenance: R = region/public health unit, P = province/state
week_start case_data_origin positivity_data_origin
2020-03-18         R                   P
2020-03-25         R                   P
2020-04-01         R                   P
2020-04-08         R                   P
2020-04-15         R                   P
2020-04-22         R                   P
2020-04-29         R                   P
2020-05-06         R                   P
2020-05-13         R                   P
2020-05-20         R                   P
2020-05-27         R                   P
2020-06-03         R                   P
2020-06-10         R                   P
2020-06-17         R                   P
2020-06-24         R                   P
2020-07-01         R                   P
2020-07-08         R                   P
2020-07-15         R                   P
2020-07-22         R                   P
2020-07-29         R                   P
2020-08-05         R                   P
2020-08-12         R                   P
2020-08-19         R                   P
2020-08-26         R                   P
2020-09-02         R                   P
2020-09-09         R                   P
2020-09-16         R                   P
2020-09-23         R                   P
2020-09-30         R                   P
2020-10-07         R                   P
2020-10-14         R                   P
2020-10-21         R                   P
2020-10-28         R                   P
2020-11-04         R                   P
2020-11-11         R                   P
2020-11-18         R                   P
2020-11-25         R                   P
2020-12-02         R                   P
2020-12-09         R                   P
2020-12-16         R                   P
2020-12-23         R                   P
2020-12-30         R                   P
2021-01-06         R                   P
2021-01-13         R                   P
2021-01-20         R                   P
2021-01-27         R                   P
2021-02-03         R                   P
2021-02-10         R                   P
2021-02-17         R                   P
2021-02-24         R                   P
2021-03-03         R                   P
2021-03-10         R                   P
2021-03-17         R                   P
2021-03-24         R                   P
2021-03-31         R                   P
2021-04-07         R                   P
2021-04-14         R                   P
2021-04-21         R                   P
2021-04-28         R                   P
2021-05-05         R                   P
2021-05-12         R                   P
2021-05-19         R                   P
2021-05-26         R                   P
2021-06-02         R                   P
2021-06-09         R                   P
2021-06-16         R                   P
2021-06-23         R                   P
2021-06-30         R                   P
2021-07-07         R                   P
2021-07-14         R                   P
2021-07-21         R                   P
2021-07-28         R                   P
2021-08-04         R                   P
2021-08-11         R                   P
2021-08-18         R                   P
2021-08-25         R                   P
2021-09-01         R                   P
2021-09-08         R                   P
2021-09-15         R                   P
2021-09-22         R                   P
2021-09-29         R                   P
2021-10-06         R                   P
2021-10-13         R                   P
2021-10-20         R                   P
2021-10-27         R                   P
2021-11-03         R                   P
2021-11-10         R                   P
2021-11-17         R                   P
2021-11-24         R                   P
2021-12-01         R                   P
2021-12-08         R                   P
2021-12-15         R                   P
2021-12-22         R                   P
2021-12-29         R                   P
2022-01-05         R                   P
2022-01-12         R                   P
2022-01-19         R                   P
2022-01-26         R                   P
2022-02-02         R                   P
2022-02-09         R                   P
2022-02-16         R                   P
2022-02-23         R                   P
2022-03-02         R                   P
