FIPS,HR_UID,nameid,province,region,analysisTime,dates,pointprevalence_025,pointprevalence_50,pointprevalence_975,pointinfections_025,pointinfections_50,pointinfections_975,pointinfectious_025,pointinfectious_50,pointinfectious_975,pointinfectiousprevalence_025,pointinfectiousprevalence_50,pointinfectiousprevalence_975,infectrate_025,infectrate_50,infectrate_975
29167,0,USMissouriPolk,Missouri,Polk,2022-04-28 09:13:11,2020-03-19,0,0,0,,,,,,,,,,,,
29167,0,USMissouriPolk,Missouri,Polk,2022-04-28 09:13:11,2020-03-20,0,0,0,,,,,,,,,,,,
29167,0,USMissouriPolk,Missouri,Polk,2022-04-28 09:13:11,2020-03-21,0,0,0,,,,,,,,,,,,
29167,0,USMissouriPolk,Missouri,Polk,2022-04-28 09:13:11,2020-03-22,0,0,0,,,,,,,,,,,,
29167,0,USMissouriPolk,Missouri,Polk,2022-04-28 09:13:11,2020-03-23,0,0,0,,,,,,,,,,,,
29167,0,USMissouriPolk,Missouri,Polk,2022-04-28 09:13:11,2020-03-24,0,0,0,,,,,,,,,,,,
29167,0,USMissouriPolk,Missouri,Polk,2022-04-28 09:13:11,2020-03-25,0,0,0,,,,,,,,,,,,
29167,0,USMissouriPolk,Missouri,Polk,2022-04-28 09:13:11,2020-03-26,0,0,0,,,,,,,,,,,,
29167,0,USMissouriPolk,Missouri,Polk,2022-04-28 09:13:11,2020-03-27,0,0,0,,,,,,,,,,,,
29167,0,USMissouriPolk,Missouri,Polk,2022-04-28 09:13:11,2020-03-28,0,0,0,,,,,,,,,,,,
29167,0,USMissouriPolk,Missouri,Polk,2022-04-28 09:13:11,2020-03-29,0,0,0,,,,,,,,,,,,
29167,0,USMissouriPolk,Missouri,Polk,2022-04-28 09:13:11,2020-03-30,0,0,0,,,,,,,,,,,,
29167,0,USMissouriPolk,Missouri,Polk,2022-04-28 09:13:11,2020-03-31,0,0,0,,,,,,,,,,,,
29167,0,USMissouriPolk,Missouri,Polk,2022-04-28 09:13:11,2020-04-01,0,0,0,,,,,,,,,,,,
29167,0,USMissouriPolk,Missouri,Polk,2022-04-28 09:13:11,2020-04-02,0.040878437744031215,0.20262914285967548,1.0571182845175715,,,,,,,,,,,,
29167,0,USMissouriPolk,Missouri,Polk,2022-04-28 09:13:11,2020-04-03,0.040878437744031215,0.20262914285967548,1.0571182845175715,,,,,,,,,,,,
29167,0,USMissouriPolk,Missouri,Polk,2022-04-28 09:13:11,2020-04-04,0.040878437744031215,0.20262914285967548,1.0571182845175715,,,,,,,,,,,,
29167,0,USMissouriPolk,Missouri,Polk,2022-04-28 09:13:11,2020-04-05,0.040878437744031215,0.20262914285967548,1.0571182845175715,,,,,,,,,,,,
29167,0,USMissouriPolk,Missouri,Polk,2022-04-28 09:13:11,2020-04-06,0.040878437744031215,0.20262914285967548,1.0571182845175715,,,,,,,,,,,,
29167,0,USMissouriPolk,Missouri,Polk,2022-04-28 09:13:11,2020-04-07,0.040878437744031215,0.20262914285967548,1.0571182845175715,,,,,,,,,,,,
29167,0,USMissouriPolk,Missouri,Polk,2022-04-28 09:13:11,2020-04-08,0.040878437744031215,0.20262914285967548,1.0571182845175715,,,,,,,,,,,,
29167,0,USMissouriPolk,Missouri,Polk,2022-04-28 09:13:11,2020-04-09,0,0,0,,,,,,,,,,,,
29167,0,USMissouriPolk,Missouri,Polk,2022-04-28 09:13:11,2020-04-10,0,0,0,,,,,,,,,,,,
29167,0,USMissouriPolk,Missouri,Polk,2022-04-28 09:13:11,2020-04-11,0,0,0,,,,,,,,,,,,
29167,0,USMissouriPolk,Missouri,Polk,2022-04-28 09:13:11,2020-04-12,0,0,0,,,,,,,,,,,,
29167,0,USMissouriPolk,Missouri,Polk,2022-04-28 09:13:11,2020-04-13,0,0,0,,,,,,,,,,,,
29167,0,USMissouriPolk,Missouri,Polk,2022-04-28 09:13:11,2020-04-14,0,0,0,,,,,,,,,,,,
29167,0,USMissouriPolk,Missouri,Polk,2022-04-28 09:13:11,2020-04-15,0,0,0,,,,,,,,,,,,
29167,0,USMissouriPolk,Missouri,Polk,2022-04-28 09:13:11,2020-04-16,0,0,0,,,,,,,,,,,,
29167,0,USMissouriPolk,Missouri,Polk,2022-04-28 09:13:11,2020-04-17,0,0,0,,,,,,,,,,,,
29167,0,USMissouriPolk,Missouri,Polk,2022-04-28 09:13:11,2020-04-18,0,0,0,,,,,,,,,,,,
29167,0,USMissouriPolk,Missouri,Polk,2022-04-28 09:13:11,2020-04-19,0,0,0,,,,,,,,,,,,
29167,0,USMissouriPolk,Missouri,Polk,2022-04-28 09:13:11,2020-04-20,0,0,0,,,,,,,,,,,,
29167,0,USMissouriPolk,Missouri,Polk,2022-04-28 09:13:11,2020-04-21,0,0,0,,,,,,,,,,,,
29167,0,USMissouriPolk,Missouri,Polk,2022-04-28 09:13:11,2020-04-22,0,0,0,,,,,,,,,,,,
29167,0,USMissouriPolk,Missouri,Polk,2022-04-28 09:13:11,2020-04-23,0,0,0,,,,,,,,,,,,
29167,0,USMissouriPolk,Missouri,Polk,2022-04-28 09:13:11,2020-04-24,0,0,0,,,,,,,,,,,,
29167,0,USMissouriPolk,Missouri,Polk,2022-04-28 09:13:11,2020-04-25,0,0,0,,,,,,,,,,,,
29167,0,USMissouriPolk,Missouri,Polk,2022-04-28 09:13:11,2020-04-26,0,0,0,,,,,,,,,,,,
29167,0,USMissouriPolk,Missouri,Polk,2022-04-28 09:13:11,2020-04-27,0,0,0,,,,,,,,,,,,
29167,0,USMissouriPolk,Missouri,Polk,2022-04-28 09:13:11,2020-04-28,0,0,0,,,,,,,,,,,,
29167,0,USMissouriPolk,Missouri,Polk,2022-04-28 09:13:11,2020-04-29,0,0,0,,,,,,,,,,,,
29167,0,USMissouriPolk,Missouri,Polk,2022-04-28 09:13:11,2020-04-30,0,0,0,,,,,,,,,,,,
29167,0,USMissouriPolk,Missouri,Polk,2022-04-28 09:13:11,2020-05-01,0,0,0,,,,,,,,,,,,
29167,0,USMissouriPolk,Missouri,Polk,2022-04-28 09:13:11,2020-05-02,0,0,0,,,,,,,,,,,,
29167,0,USMissouriPolk,Missouri,Polk,2022-04-28 09:13:11,2020-05-03,0,0,0,,,,,,,,,,,,
29167,0,USMissouriPolk,Missouri,Polk,2022-04-28 09:13:11,2020-05-04,0,0,0,,,,,,,,,,,,
29167,0,USMissouriPolk,Missouri,Polk,2022-04-28 09:13:11,2020-05-05,0,0,0,,,,,,,,,,,,
29167,0,USMissouriPolk,Missouri,Polk,2022-04-28 09:13:11,2020-05-06,0,0,0,,,,,,,,,,,,
29167,0,USMissouriPolk,Missouri,Polk,2022-04-28 09:13:11,2020-05-07,0,0,0,,,,,,,,,,,,
29167,0,USMissouriPolk,Missouri,Polk,2022-04-28 09:13:11,2020-05-08,0,0,0,,,,,,,,,,,,
29167,0,USMissouriPolk,Missouri,Polk,2022-04-28 09:13:11,2020-05-09,0,0,0,,,,,,,,,,,,
29167,0,USMissouriPolk,Missouri,Polk,2022-04-28 09:13:11,2020-05-10,0,0,0,,,,,,,,,,,,
29167,0,USMissouriPolk,Missouri,Polk,2022-04-28 09:13:11,2020-05-11,0,0,0,,,,,,,,,,,,
29167,0,USMissouriPolk,Missouri,Polk,2022-04-28 09:13:11,2020-05-12,0,0,0,,,,,,,,,,,,
29167,0,USMissouriPolk,Missouri,Polk,2022-04-28 09:13:11,2020-05-13,0,0,0,,,,,,,,,,,,
29167,0,USMissouriPolk,Missouri,Polk,2022-04-28 09:13:11,2020-05-14,0.029118676687786994,0.11025283195225499,0.4444902879746434,,,,,,,,,,,,
29167,0,USMissouriPolk,Missouri,Polk,2022-04-28 09:13:11,2020-05-15,0.029118676687786994,0.11025283195225499,0.4444902879746434,,,,,,,,,,,,
29167,0,USMissouriPolk,Missouri,Polk,2022-04-28 09:13:11,2020-05-16,0.029118676687786994,0.11025283195225499,0.4444902879746434,,,,,,,,,,,,
29167,0,USMissouriPolk,Missouri,Polk,2022-04-28 09:13:11,2020-05-17,0.029118676687786994,0.11025283195225499,0.4444902879746434,,,,,,,,,,,,
29167,0,USMissouriPolk,Missouri,Polk,2022-04-28 09:13:11,2020-05-18,0.029118676687786994,0.11025283195225499,0.4444902879746434,,,,,,,,,,,,
29167,0,USMissouriPolk,Missouri,Polk,2022-04-28 09:13:11,2020-05-19,0.029118676687786994,0.11025283195225499,0.4444902879746434,,,,,,,,,,,,
29167,0,USMissouriPolk,Missouri,Polk,2022-04-28 09:13:11,2020-05-20,0.029118676687786994,0.11025283195225499,0.4444902879746434,,,,,,,,,,,,
29167,0,USMissouriPolk,Missouri,Polk,2022-04-28 09:13:11,2020-05-21,0.03201429270496249,0.13086298060407284,0.567766567735028,,,,,,,,,,,,
29167,0,USMissouriPolk,Missouri,Polk,2022-04-28 09:13:11,2020-05-22,0.03201429270496249,0.13086298060407284,0.567766567735028,,,,,,,,,,,,
29167,0,USMissouriPolk,Missouri,Polk,2022-04-28 09:13:11,2020-05-23,0.03201429270496249,0.13086298060407284,0.567766567735028,,,,,,,,,,,,
29167,0,USMissouriPolk,Missouri,Polk,2022-04-28 09:13:11,2020-05-24,0.03201429270496249,0.13086298060407284,0.567766567735028,,,,,,,,,,,,
29167,0,USMissouriPolk,Missouri,Polk,2022-04-28 09:13:11,2020-05-25,0.03201429270496249,0.13086298060407284,0.567766567735028,,,,,,,,,,,,
29167,0,USMissouriPolk,Missouri,Polk,2022-04-28 09:13:11,2020-05-26,0.03201429270496249,0.13086298060407284,0.567766567735028,,,,,,,,,,,,
29167,0,USMissouriPolk,Missouri,Polk,2022-04-28 09:13:11,2020-05-27,0.03201429270496249,0.13086298060407284,0.567766567735028,,,,,,,,,,,,
29167,0,USMissouriPolk,Missouri,Polk,2022-04-28 09:13:11,2020-06-04,0.023501632465841155,0.0745349216378644,0.25329033392012584,,,,,,,,,,,,
29167,0,USMissouriPolk,Missouri,Polk,2022-04-28 09:13:11,2020-06-05,0.023501632465841155,0.0745349216378644,0.25329033392012584,,,,,,,,,,,,
29167,0,USMissouriPolk,Missouri,Polk,2022-04-28 09:13:11,2020-06-06,0.023501632465841155,0.0745349216378644,0.25329033392012584,,,,,,,,,,,,
29167,0,USMissouriPolk,Missouri,Polk,2022-04-28 09:13:11,2020-06-07,0.023501632465841155,0.0745349216378644,0.25329033392012584,,,,,,,,,,,,
29167,0,USMissouriPolk,Missouri,Polk,2022-04-28 09:13:11,2020-06-08,0.023501632465841155,0.0745349216378644,0.25329033392012584,,,,,,,,,,,,
29167,0,USMissouriPolk,Missouri,Polk,2022-04-28 09:13:11,2020-06-09,0.023501632465841155,0.0745349216378644,0.25329033392012584,,,,,,,,,,,,
29167,0,USMissouriPolk,Missouri,Polk,2022-04-28 09:13:11,2020-06-10,0.023501632465841155,0.0745349216378644,0.25329033392012584,,,,,,,,,,,,
29167,0,USMissouriPolk,Missouri,Polk,2022-04-28 09:13:11,2020-06-18,0.0666019587986361,0.20130799631491353,0.6528568312656357,,,,,,,,,,,,
29167,0,USMissouriPolk,Missouri,Polk,2022-04-28 09:13:11,2020-06-19,0.0666019587986361,0.20130799631491353,0.6528568312656357,,,,,,,,,,,,
29167,0,USMissouriPolk,Missouri,Polk,2022-04-28 09:13:11,2020-06-20,0.0666019587986361,0.20130799631491353,0.6528568312656357,,,,,,,,,,,,
29167,0,USMissouriPolk,Missouri,Polk,2022-04-28 09:13:11,2020-06-21,0.0666019587986361,0.20130799631491353,0.6528568312656357,,,,,,,,,,,,
29167,0,USMissouriPolk,Missouri,Polk,2022-04-28 09:13:11,2020-06-22,0.0666019587986361,0.20130799631491353,0.6528568312656357,,,,,,,,,,,,
29167,0,USMissouriPolk,Missouri,Polk,2022-04-28 09:13:11,2020-06-23,0.0666019587986361,0.20130799631491353,0.6528568312656357,,,,,,,,,,,,
29167,0,USMissouriPolk,Missouri,Polk,2022-04-28 09:13:11,2020-06-24,0.0666019587986361,0.20130799631491353,0.6528568312656357,,,,,,,,,,,,
29167,0,USMissouriPolk,Missouri,Polk,2022-04-28 09:13:11,2020-06-25,0.09205041815431438,0.23680102228996378,0.6554513705579696,,,,,,,,,,,,
29167,0,USMissouriPolk,Missouri,Polk,2022-04-28 09:13:11,2020-06-26,0.09205041815431438,0.23680102228996378,0.6554513705579696,,,,,,,,,,,,
29167,0,USMissouriPolk,Missouri,Polk,2022-04-28 09:13:11,2020-06-27,0.09205041815431438,0.23680102228996378,0.6554513705579696,,,,,,,,,,,,
29167,0,USMissouriPolk,Missouri,Polk,2022-04-28 09:13:11,2020-06-28,0.09205041815431438,0.23680102228996378,0.6554513705579696,,,,,,,,,,,,
29167,0,USMissouriPolk,Missouri,Polk,2022-04-28 09:13:11,2020-06-29,0.09205041815431438,0.23680102228996378,0.6554513705579696,,,,,,,,,,,,
29167,0,USMissouriPolk,Missouri,Polk,2022-04-28 09:13:11,2020-06-30,0.09205041815431438,0.23680102228996378,0.6554513705579696,,,,,,,,,,,,
29167,0,USMissouriPolk,Missouri,Polk,2022-04-28 09:13:11,2020-07-01,0.09205041815431438,0.23680102228996378,0.6554513705579696,,,,,,,,,,,,
29167,0,USMissouriPolk,Missouri,Polk,2022-04-28 09:13:11,2020-07-02,0.0445237054178331,0.13488988835936735,0.4384539128824939,,,,,,,,,,,,
29167,0,USMissouriPolk,Missouri,Polk,2022-04-28 09:13:11,2020-07-03,0.0445237054178331,0.13488988835936735,0.4384539128824939,,,,,,,,,,,,
29167,0,USMissouriPolk,Missouri,Polk,2022-04-28 09:13:11,2020-07-04,0.0445237054178331,0.13488988835936735,0.4384539128824939,,,,,,,,,,,,
29167,0,USMissouriPolk,Missouri,Polk,2022-04-28 09:13:11,2020-07-05,0.0445237054178331,0.13488988835936735,0.4384539128824939,,,,,,,,,,,,
29167,0,USMissouriPolk,Missouri,Polk,2022-04-28 09:13:11,2020-07-06,0.0445237054178331,0.13488988835936735,0.4384539128824939,,,,,,,,,,,,
29167,0,USMissouriPolk,Missouri,Polk,2022-04-28 09:13:11,2020-07-07,0.0445237054178331,0.13488988835936735,0.4384539128824939,,,,,,,,,,,,
29167,0,USMissouriPolk,Missouri,Polk,2022-04-28 09:13:11,2020-07-08,0.0445237054178331,0.13488988835936735,0.4384539128824939,,,,,,,,,,,,
29167,0,USMissouriPolk,Missouri,Polk,2022-04-28 09:13:11,2020-07-09,0.11561537992378211,0.3094718858350666,0.8909453192777836,,,,,,,,,,,,
29167,0,USMissouriPolk,Missouri,Polk,2022-04-28 09:13:11,2020-07-10,0.11561537992378211,0.3094718858350666,0.8909453192777836,,,,,,,,,,,,
29167,0,USMissouriPolk,Missouri,Polk,2022-04-28 09:13:11,2020-07-11,0.11561537992378211,0.3094718858350666,0.8909453192777836,,,,,,,,,,,,
29167,0,USMissouriPolk,Missouri,Polk,2022-04-28 09:13:11,2020-07-12,0.11561537992378211,0.3094718858350666,0.8909453192777836,,,,,,,,,,,,
29167,0,USMissouriPolk,Missouri,Polk,2022-04-28 09:13:11,2020-07-13,0.11561537992378211,0.3094718858350666,0.8909453192777836,,,,,,,,,,,,
29167,0,USMissouriPolk,Missouri,Polk,2022-04-28 09:13:11,2020-07-14,0.11561537992378211,0.3094718858350666,0.8909453192777836,,,,,,,,,,,,
29167,0,USMissouriPolk,Missouri,Polk,2022-04-28 09:13:11,2020-07-15,0.11561537992378211,0.3094718858350666,0.8909453192777836,,,,,,,,,,,,
29167,0,USMissouriPolk,Missouri,Polk,2022-04-28 09:13:11,2020-07-16,1.091763380988745,1.7213958275382413,2.8628963016378246,,,,,,,,,,,,
29167,0,USMissouriPolk,Missouri,Polk,2022-04-28 09:13:11,2020-07-17,1.091763380988745,1.7213958275382413,2.8628963016378246,,,,,,,,,,,,
29167,0,USMissouriPolk,Missouri,Polk,2022-04-28 09:13:11,2020-07-18,1.091763380988745,1.7213958275382413,2.8628963016378246,,,,,,,,,,,,
29167,0,USMissouriPolk,Missouri,Polk,2022-04-28 09:13:11,2020-07-19,1.091763380988745,1.7213958275382413,2.8628963016378246,,,,,,,,,,,,
29167,0,USMissouriPolk,Missouri,Polk,2022-04-28 09:13:11,2020-07-20,1.091763380988745,1.7213958275382413,2.8628963016378246,,,,,,,,,,,,
29167,0,USMissouriPolk,Missouri,Polk,2022-04-28 09:13:11,2020-07-21,1.091763380988745,1.7213958275382413,2.8628963016378246,,,,,,,,,,,,
29167,0,USMissouriPolk,Missouri,Polk,2022-04-28 09:13:11,2020-07-22,1.091763380988745,1.7213958275382413,2.8628963016378246,,,,,,,,,,,,
29167,0,USMissouriPolk,Missouri,Polk,2022-04-28 09:13:11,2020-07-23,0.7915894453285723,1.534965450425537,3.1871329232082144,,,,,,,,,,,,
29167,0,USMissouriPolk,Missouri,Polk,2022-04-28 09:13:11,2020-07-24,0.7915894453285723,1.534965450425537,3.1871329232082144,,,,,,,,,,,,
29167,0,USMissouriPolk,Missouri,Polk,2022-04-28 09:13:11,2020-07-25,0.7915894453285723,1.534965450425537,3.1871329232082144,,,,,,,,,,,,
29167,0,USMissouriPolk,Missouri,Polk,2022-04-28 09:13:11,2020-07-26,0.7915894453285723,1.534965450425537,3.1871329232082144,,,,,,,,,,,,
29167,0,USMissouriPolk,Missouri,Polk,2022-04-28 09:13:11,2020-07-27,0.7915894453285723,1.534965450425537,3.1871329232082144,,,,,,,,,,,,
29167,0,USMissouriPolk,Missouri,Polk,2022-04-28 09:13:11,2020-07-28,0.7915894453285723,1.534965450425537,3.1871329232082144,,,,,,,,,,,,
29167,0,USMissouriPolk,Missouri,Polk,2022-04-28 09:13:11,2020-07-29,0.7915894453285723,1.534965450425537,3.1871329232082144,,,,,,,,,,,,
29167,0,USMissouriPolk,Missouri,Polk,2022-04-28 09:13:11,2020-07-30,0.2272034872479611,0.5989504428060027,1.6985137732639817,,,,,,,,,,,,
29167,0,USMissouriPolk,Missouri,Polk,2022-04-28 09:13:11,2020-07-31,0.2272034872479611,0.5989504428060027,1.6985137732639817,,,,,,,,,,,,
29167,0,USMissouriPolk,Missouri,Polk,2022-04-28 09:13:11,2020-08-01,0.2272034872479611,0.5989504428060027,1.6985137732639817,,,,,,,,,,,,
29167,0,USMissouriPolk,Missouri,Polk,2022-04-28 09:13:11,2020-08-02,0.2272034872479611,0.5989504428060027,1.6985137732639817,,,,,,,,,,,,
29167,0,USMissouriPolk,Missouri,Polk,2022-04-28 09:13:11,2020-08-03,0.2272034872479611,0.5989504428060027,1.6985137732639817,,,,,,,,,,,,
29167,0,USMissouriPolk,Missouri,Polk,2022-04-28 09:13:11,2020-08-04,0.2272034872479611,0.5989504428060027,1.6985137732639817,,,,,,,,,,,,
29167,0,USMissouriPolk,Missouri,Polk,2022-04-28 09:13:11,2020-08-05,0.2272034872479611,0.5989504428060027,1.6985137732639817,,,,,,,,,,,,
29167,0,USMissouriPolk,Missouri,Polk,2022-04-28 09:13:11,2020-08-06,0.3688880234021588,0.808821731073963,1.9065332589583504,,,,,,,,,,,,
29167,0,USMissouriPolk,Missouri,Polk,2022-04-28 09:13:11,2020-08-07,0.3688880234021588,0.808821731073963,1.9065332589583504,,,,,,,,,,,,
29167,0,USMissouriPolk,Missouri,Polk,2022-04-28 09:13:11,2020-08-08,0.3688880234021588,0.808821731073963,1.9065332589583504,,,,,,,,,,,,
29167,0,USMissouriPolk,Missouri,Polk,2022-04-28 09:13:11,2020-08-09,0.3688880234021588,0.808821731073963,1.9065332589583504,,,,,,,,,,,,
29167,0,USMissouriPolk,Missouri,Polk,2022-04-28 09:13:11,2020-08-10,0.3688880234021588,0.808821731073963,1.9065332589583504,,,,,,,,,,,,
29167,0,USMissouriPolk,Missouri,Polk,2022-04-28 09:13:11,2020-08-11,0.3688880234021588,0.808821731073963,1.9065332589583504,,,,,,,,,,,,
29167,0,USMissouriPolk,Missouri,Polk,2022-04-28 09:13:11,2020-08-12,0.3688880234021588,0.808821731073963,1.9065332589583504,,,,,,,,,,,,
29167,0,USMissouriPolk,Missouri,Polk,2022-04-28 09:13:11,2020-08-13,0.4491758207532525,0.9619360228444171,2.2135339353993815,,,,,,,,,,,,
29167,0,USMissouriPolk,Missouri,Polk,2022-04-28 09:13:11,2020-08-14,0.4491758207532525,0.9619360228444171,2.2135339353993815,,,,,,,,,,,,
29167,0,USMissouriPolk,Missouri,Polk,2022-04-28 09:13:11,2020-08-15,0.4491758207532525,0.9619360228444171,2.2135339353993815,,,,,,,,,,,,
29167,0,USMissouriPolk,Missouri,Polk,2022-04-28 09:13:11,2020-08-16,0.4491758207532525,0.9619360228444171,2.2135339353993815,,,,,,,,,,,,
29167,0,USMissouriPolk,Missouri,Polk,2022-04-28 09:13:11,2020-08-17,0.4491758207532525,0.9619360228444171,2.2135339353993815,,,,,,,,,,,,
29167,0,USMissouriPolk,Missouri,Polk,2022-04-28 09:13:11,2020-08-18,0.4491758207532525,0.9619360228444171,2.2135339353993815,,,,,,,,,,,,
29167,0,USMissouriPolk,Missouri,Polk,2022-04-28 09:13:11,2020-08-19,0.4491758207532525,0.9619360228444171,2.2135339353993815,,,,,,,,,,,,
29167,0,USMissouriPolk,Missouri,Polk,2022-04-28 09:13:11,2020-08-20,0.3237514255597302,0.8160446510093778,2.2134420586002785,,,,,,,,,,,,
29167,0,USMissouriPolk,Missouri,Polk,2022-04-28 09:13:11,2020-08-21,0.3237514255597302,0.8160446510093778,2.2134420586002785,,,,,,,,,,,,
29167,0,USMissouriPolk,Missouri,Polk,2022-04-28 09:13:11,2020-08-22,0.3237514255597302,0.8160446510093778,2.2134420586002785,,,,,,,,,,,,
29167,0,USMissouriPolk,Missouri,Polk,2022-04-28 09:13:11,2020-08-23,0.3237514255597302,0.8160446510093778,2.2134420586002785,,,,,,,,,,,,
29167,0,USMissouriPolk,Missouri,Polk,2022-04-28 09:13:11,2020-08-24,0.3237514255597302,0.8160446510093778,2.2134420586002785,,,,,,,,,,,,
29167,0,USMissouriPolk,Missouri,Polk,2022-04-28 09:13:11,2020-08-25,0.3237514255597302,0.8160446510093778,2.2134420586002785,,,,,,,,,,,,
29167,0,USMissouriPolk,Missouri,Polk,2022-04-28 09:13:11,2020-08-26,0.3237514255597302,0.8160446510093778,2.2134420586002785,,,,,,,,,,,,
29167,0,USMissouriPolk,Missouri,Polk,2022-04-28 09:13:11,2020-08-27,0.6285829145778878,1.3456397375623672,3.0952893082616213,,,,,,,,,,,,
29167,0,USMissouriPolk,Missouri,Polk,2022-04-28 09:13:11,2020-08-28,0.6285829145778878,1.3456397375623672,3.0952893082616213,,,,,,,,,,,,
29167,0,USMissouriPolk,Missouri,Polk,2022-04-28 09:13:11,2020-08-29,0.6285829145778878,1.3456397375623672,3.0952893082616213,,,,,,,,,,,,
29167,0,USMissouriPolk,Missouri,Polk,2022-04-28 09:13:11,2020-08-30,0.6285829145778878,1.3456397375623672,3.0952893082616213,,,,,,,,,,,,
29167,0,USMissouriPolk,Missouri,Polk,2022-04-28 09:13:11,2020-08-31,0.6285829145778878,1.3456397375623672,3.0952893082616213,,,,,,,,,,,,
29167,0,USMissouriPolk,Missouri,Polk,2022-04-28 09:13:11,2020-09-01,0.6285829145778878,1.3456397375623672,3.0952893082616213,,,,,,,,,,,,
29167,0,USMissouriPolk,Missouri,Polk,2022-04-28 09:13:11,2020-09-02,0.6285829145778878,1.3456397375623672,3.0952893082616213,,,,,,,,,,,,
29167,0,USMissouriPolk,Missouri,Polk,2022-04-28 09:13:11,2020-09-03,0.6718995855238019,1.380104811364483,3.0423704953678077,,,,,,,,,,,,
29167,0,USMissouriPolk,Missouri,Polk,2022-04-28 09:13:11,2020-09-04,0.6718995855238019,1.380104811364483,3.0423704953678077,,,,,,,,,,,,
29167,0,USMissouriPolk,Missouri,Polk,2022-04-28 09:13:11,2020-09-05,0.6718995855238019,1.380104811364483,3.0423704953678077,,,,,,,,,,,,
29167,0,USMissouriPolk,Missouri,Polk,2022-04-28 09:13:11,2020-09-06,0.6718995855238019,1.380104811364483,3.0423704953678077,,,,,,,,,,,,
29167,0,USMissouriPolk,Missouri,Polk,2022-04-28 09:13:11,2020-09-07,0.6718995855238019,1.380104811364483,3.0423704953678077,,,,,,,,,,,,
29167,0,USMissouriPolk,Missouri,Polk,2022-04-28 09:13:11,2020-09-08,0.6718995855238019,1.380104811364483,3.0423704953678077,,,,,,,,,,,,
29167,0,USMissouriPolk,Missouri,Polk,2022-04-28 09:13:11,2020-09-09,0.6718995855238019,1.380104811364483,3.0423704953678077,,,,,,,,,,,,
29167,0,USMissouriPolk,Missouri,Polk,2022-04-28 09:13:11,2020-09-10,0.899385500376104,1.613357655739409,3.08553709111309,,,,,,,,,,,,
29167,0,USMissouriPolk,Missouri,Polk,2022-04-28 09:13:11,2020-09-11,0.899385500376104,1.613357655739409,3.08553709111309,,,,,,,,,,,,
29167,0,USMissouriPolk,Missouri,Polk,2022-04-28 09:13:11,2020-09-12,0.899385500376104,1.613357655739409,3.08553709111309,,,,,,,,,,,,
29167,0,USMissouriPolk,Missouri,Polk,2022-04-28 09:13:11,2020-09-13,0.899385500376104,1.613357655739409,3.08553709111309,,,,,,,,,,,,
29167,0,USMissouriPolk,Missouri,Polk,2022-04-28 09:13:11,2020-09-14,0.899385500376104,1.613357655739409,3.08553709111309,,,,,,,,,,,,
29167,0,USMissouriPolk,Missouri,Polk,2022-04-28 09:13:11,2020-09-15,0.899385500376104,1.613357655739409,3.08553709111309,,,,,,,,,,,,
29167,0,USMissouriPolk,Missouri,Polk,2022-04-28 09:13:11,2020-09-16,0.899385500376104,1.613357655739409,3.08553709111309,,,,,,,,,,,,
29167,0,USMissouriPolk,Missouri,Polk,2022-04-28 09:13:11,2020-09-17,0.9227734605253103,1.6736988486073783,3.238792333340881,,,,,,,,,,,,
29167,0,USMissouriPolk,Missouri,Polk,2022-04-28 09:13:11,2020-09-18,0.9227734605253103,1.6736988486073783,3.238792333340881,,,,,,,,,,,,
29167,0,USMissouriPolk,Missouri,Polk,2022-04-28 09:13:11,2020-09-19,0.9227734605253103,1.6736988486073783,3.238792333340881,,,,,,,,,,,,
29167,0,USMissouriPolk,Missouri,Polk,2022-04-28 09:13:11,2020-09-20,0.9227734605253103,1.6736988486073783,3.238792333340881,,,,,,,,,,,,
29167,0,USMissouriPolk,Missouri,Polk,2022-04-28 09:13:11,2020-09-21,0.9227734605253103,1.6736988486073783,3.238792333340881,,,,,,,,,,,,
29167,0,USMissouriPolk,Missouri,Polk,2022-04-28 09:13:11,2020-09-22,0.9227734605253103,1.6736988486073783,3.238792333340881,,,,,,,,,,,,
29167,0,USMissouriPolk,Missouri,Polk,2022-04-28 09:13:11,2020-09-23,0.9227734605253103,1.6736988486073783,3.238792333340881,,,,,,,,,,,,
29167,0,USMissouriPolk,Missouri,Polk,2022-04-28 09:13:11,2020-09-24,1.4694222477516443,1.9824443227681596,2.7689383977205755,,,,,,,,,,,,
29167,0,USMissouriPolk,Missouri,Polk,2022-04-28 09:13:11,2020-09-25,1.4694222477516443,1.9824443227681596,2.7689383977205755,,,,,,,,,,,,
29167,0,USMissouriPolk,Missouri,Polk,2022-04-28 09:13:11,2020-09-26,1.4694222477516443,1.9824443227681596,2.7689383977205755,,,,,,,,,,,,
29167,0,USMissouriPolk,Missouri,Polk,2022-04-28 09:13:11,2020-09-27,1.4694222477516443,1.9824443227681596,2.7689383977205755,,,,,,,,,,,,
29167,0,USMissouriPolk,Missouri,Polk,2022-04-28 09:13:11,2020-09-28,1.4694222477516443,1.9824443227681596,2.7689383977205755,,,,,,,,,,,,
29167,0,USMissouriPolk,Missouri,Polk,2022-04-28 09:13:11,2020-09-29,1.4694222477516443,1.9824443227681596,2.7689383977205755,,,,,,,,,,,,
29167,0,USMissouriPolk,Missouri,Polk,2022-04-28 09:13:11,2020-09-30,1.4694222477516443,1.9824443227681596,2.7689383977205755,,,,,,,,,,,,
29167,0,USMissouriPolk,Missouri,Polk,2022-04-28 09:13:11,2020-10-01,0.9022812423049029,1.6233234254788818,3.1143469695434245,,,,,,,,,,,,
29167,0,USMissouriPolk,Missouri,Polk,2022-04-28 09:13:11,2020-10-02,0.9022812423049029,1.6233234254788818,3.1143469695434245,,,,,,,,,,,,
29167,0,USMissouriPolk,Missouri,Polk,2022-04-28 09:13:11,2020-10-03,0.9022812423049029,1.6233234254788818,3.1143469695434245,,,,,,,,,,,,
29167,0,USMissouriPolk,Missouri,Polk,2022-04-28 09:13:11,2020-10-04,0.9022812423049029,1.6233234254788818,3.1143469695434245,,,,,,,,,,,,
29167,0,USMissouriPolk,Missouri,Polk,2022-04-28 09:13:11,2020-10-05,0.9022812423049029,1.6233234254788818,3.1143469695434245,,,,,,,,,,,,
29167,0,USMissouriPolk,Missouri,Polk,2022-04-28 09:13:11,2020-10-06,0.9022812423049029,1.6233234254788818,3.1143469695434245,,,,,,,,,,,,
29167,0,USMissouriPolk,Missouri,Polk,2022-04-28 09:13:11,2020-10-07,0.9022812423049029,1.6233234254788818,3.1143469695434245,,,,,,,,,,,,
29167,0,USMissouriPolk,Missouri,Polk,2022-04-28 09:13:11,2020-10-08,0.9041958061688224,1.433060841552488,2.396974606137315,,,,,,,,,,,,
29167,0,USMissouriPolk,Missouri,Polk,2022-04-28 09:13:11,2020-10-09,0.9041958061688224,1.433060841552488,2.396974606137315,,,,,,,,,,,,
29167,0,USMissouriPolk,Missouri,Polk,2022-04-28 09:13:11,2020-10-10,0.9041958061688224,1.433060841552488,2.396974606137315,,,,,,,,,,,,
29167,0,USMissouriPolk,Missouri,Polk,2022-04-28 09:13:11,2020-10-11,0.9041958061688224,1.433060841552488,2.396974606137315,,,,,,,,,,,,
29167,0,USMissouriPolk,Missouri,Polk,2022-04-28 09:13:11,2020-10-12,0.9041958061688224,1.433060841552488,2.396974606137315,,,,,,,,,,,,
29167,0,USMissouriPolk,Missouri,Polk,2022-04-28 09:13:11,2020-10-13,0.9041958061688224,1.433060841552488,2.396974606137315,,,,,,,,,,,,
29167,0,USMissouriPolk,Missouri,Polk,2022-04-28 09:13:11,2020-10-14,0.9041958061688224,1.433060841552488,2.396974606137315,,,,,,,,,,,,
29167,0,USMissouriPolk,Missouri,Polk,2022-04-28 09:13:11,2020-10-15,0.9264259421682541,1.7291830068195058,3.4493031732193513,,,,,,,,,,,,
29167,0,USMissouriPolk,Missouri,Polk,2022-04-28 09:13:11,2020-10-16,0.9264259421682541,1.7291830068195058,3.4493031732193513,,,,,,,,,,,,
29167,0,USMissouriPolk,Missouri,Polk,2022-04-28 09:13:11,2020-10-17,0.9264259421682541,1.7291830068195058,3.4493031732193513,,,,,,,,,,,,
29167,0,USMissouriPolk,Missouri,Polk,2022-04-28 09:13:11,2020-10-18,0.9264259421682541,1.7291830068195058,3.4493031732193513,,,,,,,,,,,,
29167,0,USMissouriPolk,Missouri,Polk,2022-04-28 09:13:11,2020-10-19,0.9264259421682541,1.7291830068195058,3.4493031732193513,,,,,,,,,,,,
29167,0,USMissouriPolk,Missouri,Polk,2022-04-28 09:13:11,2020-10-20,0.9264259421682541,1.7291830068195058,3.4493031732193513,,,,,,,,,,,,
29167,0,USMissouriPolk,Missouri,Polk,2022-04-28 09:13:11,2020-10-21,0.9264259421682541,1.7291830068195058,3.4493031732193513,,,,,,,,,,,,
29167,0,USMissouriPolk,Missouri,Polk,2022-04-28 09:13:11,2020-10-22,1.0000626689921637,1.8605683345535595,3.6986665273159804,,,,,,,,,,,,
29167,0,USMissouriPolk,Missouri,Polk,2022-04-28 09:13:11,2020-10-23,1.0000626689921637,1.8605683345535595,3.6986665273159804,,,,,,,,,,,,
29167,0,USMissouriPolk,Missouri,Polk,2022-04-28 09:13:11,2020-10-24,1.0000626689921637,1.8605683345535595,3.6986665273159804,,,,,,,,,,,,
29167,0,USMissouriPolk,Missouri,Polk,2022-04-28 09:13:11,2020-10-25,1.0000626689921637,1.8605683345535595,3.6986665273159804,,,,,,,,,,,,
29167,0,USMissouriPolk,Missouri,Polk,2022-04-28 09:13:11,2020-10-26,1.0000626689921637,1.8605683345535595,3.6986665273159804,,,,,,,,,,,,
29167,0,USMissouriPolk,Missouri,Polk,2022-04-28 09:13:11,2020-10-27,1.0000626689921637,1.8605683345535595,3.6986665273159804,,,,,,,,,,,,
29167,0,USMissouriPolk,Missouri,Polk,2022-04-28 09:13:11,2020-10-28,1.0000626689921637,1.8605683345535595,3.6986665273159804,,,,,,,,,,,,
29167,0,USMissouriPolk,Missouri,Polk,2022-04-28 09:13:11,2020-10-29,1.560752627360192,2.677562380498614,4.88173517006703,,,,,,,,,,,,
29167,0,USMissouriPolk,Missouri,Polk,2022-04-28 09:13:11,2020-10-30,1.560752627360192,2.677562380498614,4.88173517006703,,,,,,,,,,,,
29167,0,USMissouriPolk,Missouri,Polk,2022-04-28 09:13:11,2020-10-31,1.560752627360192,2.677562380498614,4.88173517006703,,,,,,,,,,,,
29167,0,USMissouriPolk,Missouri,Polk,2022-04-28 09:13:11,2020-11-01,1.560752627360192,2.677562380498614,4.88173517006703,,,,,,,,,,,,
29167,0,USMissouriPolk,Missouri,Polk,2022-04-28 09:13:11,2020-11-02,1.560752627360192,2.677562380498614,4.88173517006703,,,,,,,,,,,,
29167,0,USMissouriPolk,Missouri,Polk,2022-04-28 09:13:11,2020-11-03,1.560752627360192,2.677562380498614,4.88173517006703,,,,,,,,,,,,
29167,0,USMissouriPolk,Missouri,Polk,2022-04-28 09:13:11,2020-11-04,1.560752627360192,2.677562380498614,4.88173517006703,,,,,,,,,,,,
29167,0,USMissouriPolk,Missouri,Polk,2022-04-28 09:13:11,2020-11-05,1.2170473389377037,2.7681710165522726,6.77275861201046,,,,,,,,,,,,
29167,0,USMissouriPolk,Missouri,Polk,2022-04-28 09:13:11,2020-11-06,1.2170473389377037,2.7681710165522726,6.77275861201046,,,,,,,,,,,,
29167,0,USMissouriPolk,Missouri,Polk,2022-04-28 09:13:11,2020-11-07,1.2170473389377037,2.7681710165522726,6.77275861201046,,,,,,,,,,,,
29167,0,USMissouriPolk,Missouri,Polk,2022-04-28 09:13:11,2020-11-08,1.2170473389377037,2.7681710165522726,6.77275861201046,,,,,,,,,,,,
29167,0,USMissouriPolk,Missouri,Polk,2022-04-28 09:13:11,2020-11-09,1.2170473389377037,2.7681710165522726,6.77275861201046,,,,,,,,,,,,
29167,0,USMissouriPolk,Missouri,Polk,2022-04-28 09:13:11,2020-11-10,1.2170473389377037,2.7681710165522726,6.77275861201046,,,,,,,,,,,,
29167,0,USMissouriPolk,Missouri,Polk,2022-04-28 09:13:11,2020-11-11,1.2170473389377037,2.7681710165522726,6.77275861201046,,,,,,,,,,,,
29167,0,USMissouriPolk,Missouri,Polk,2022-04-28 09:13:11,2020-11-12,1.3246880804699315,2.821819379749561,6.457995045626795,,,,,,,,,,,,
29167,0,USMissouriPolk,Missouri,Polk,2022-04-28 09:13:11,2020-11-13,1.3246880804699315,2.821819379749561,6.457995045626795,,,,,,,,,,,,
29167,0,USMissouriPolk,Missouri,Polk,2022-04-28 09:13:11,2020-11-14,1.3246880804699315,2.821819379749561,6.457995045626795,,,,,,,,,,,,
29167,0,USMissouriPolk,Missouri,Polk,2022-04-28 09:13:11,2020-11-15,1.3246880804699315,2.821819379749561,6.457995045626795,,,,,,,,,,,,
29167,0,USMissouriPolk,Missouri,Polk,2022-04-28 09:13:11,2020-11-16,1.3246880804699315,2.821819379749561,6.457995045626795,,,,,,,,,,,,
29167,0,USMissouriPolk,Missouri,Polk,2022-04-28 09:13:11,2020-11-17,1.3246880804699315,2.821819379749561,6.457995045626795,,,,,,,,,,,,
29167,0,USMissouriPolk,Missouri,Polk,2022-04-28 09:13:11,2020-11-18,1.3246880804699315,2.821819379749561,6.457995045626795,,,,,,,,,,,,
29167,0,USMissouriPolk,Missouri,Polk,2022-04-28 09:13:11,2020-11-19,1.0184053178542123,2.2716084668998398,5.4489433379068375,,,,,,,,,,,,
29167,0,USMissouriPolk,Missouri,Polk,2022-04-28 09:13:11,2020-11-20,1.0184053178542123,2.2716084668998398,5.4489433379068375,,,,,,,,,,,,
29167,0,USMissouriPolk,Missouri,Polk,2022-04-28 09:13:11,2020-11-21,1.0184053178542123,2.2716084668998398,5.4489433379068375,,,,,,,,,,,,
29167,0,USMissouriPolk,Missouri,Polk,2022-04-28 09:13:11,2020-11-22,1.0184053178542123,2.2716084668998398,5.4489433379068375,,,,,,,,,,,,
29167,0,USMissouriPolk,Missouri,Polk,2022-04-28 09:13:11,2020-11-23,1.0184053178542123,2.2716084668998398,5.4489433379068375,,,,,,,,,,,,
29167,0,USMissouriPolk,Missouri,Polk,2022-04-28 09:13:11,2020-11-24,1.0184053178542123,2.2716084668998398,5.4489433379068375,,,,,,,,,,,,
29167,0,USMissouriPolk,Missouri,Polk,2022-04-28 09:13:11,2020-11-25,1.0184053178542123,2.2716084668998398,5.4489433379068375,,,,,,,,,,,,
29167,0,USMissouriPolk,Missouri,Polk,2022-04-28 09:13:11,2020-11-26,1.147961030423508,2.393013374477306,5.356202968271527,,,,,,,,,,,,
29167,0,USMissouriPolk,Missouri,Polk,2022-04-28 09:13:11,2020-11-27,1.147961030423508,2.393013374477306,5.356202968271527,,,,,,,,,,,,
29167,0,USMissouriPolk,Missouri,Polk,2022-04-28 09:13:11,2020-11-28,1.147961030423508,2.393013374477306,5.356202968271527,,,,,,,,,,,,
29167,0,USMissouriPolk,Missouri,Polk,2022-04-28 09:13:11,2020-11-29,1.147961030423508,2.393013374477306,5.356202968271527,,,,,,,,,,,,
29167,0,USMissouriPolk,Missouri,Polk,2022-04-28 09:13:11,2020-11-30,1.147961030423508,2.393013374477306,5.356202968271527,,,,,,,,,,,,
29167,0,USMissouriPolk,Missouri,Polk,2022-04-28 09:13:11,2020-12-01,1.147961030423508,2.393013374477306,5.356202968271527,,,,,,,,,,,,
29167,0,USMissouriPolk,Missouri,Polk,2022-04-28 09:13:11,2020-12-02,1.147961030423508,2.393013374477306,5.356202968271527,,,,,,,,,,,,
29167,0,USMissouriPolk,Missouri,Polk,2022-04-28 09:13:11,2020-12-03,1.8166437183077029,3.3091558737916547,6.432864472427053,,,,,,,,,,,,
29167,0,USMissouriPolk,Missouri,Polk,2022-04-28 09:13:11,2020-12-04,1.8166437183077029,3.3091558737916547,6.432864472427053,,,,,,,,,,,,
29167,0,USMissouriPolk,Missouri,Polk,2022-04-28 09:13:11,2020-12-05,1.8166437183077029,3.3091558737916547,6.432864472427053,,,,,,,,,,,,
29167,0,USMissouriPolk,Missouri,Polk,2022-04-28 09:13:11,2020-12-06,1.8166437183077029,3.3091558737916547,6.432864472427053,,,,,,,,,,,,
29167,0,USMissouriPolk,Missouri,Polk,2022-04-28 09:13:11,2020-12-07,1.8166437183077029,3.3091558737916547,6.432864472427053,,,,,,,,,,,,
29167,0,USMissouriPolk,Missouri,Polk,2022-04-28 09:13:11,2020-12-08,1.8166437183077029,3.3091558737916547,6.432864472427053,,,,,,,,,,,,
29167,0,USMissouriPolk,Missouri,Polk,2022-04-28 09:13:11,2020-12-09,1.8166437183077029,3.3091558737916547,6.432864472427053,,,,,,,,,,,,
29167,0,USMissouriPolk,Missouri,Polk,2022-04-28 09:13:11,2020-12-10,1.225228857648694,2.407526475360932,5.068564962641609,,,,,,,,,,,,
29167,0,USMissouriPolk,Missouri,Polk,2022-04-28 09:13:11,2020-12-11,1.225228857648694,2.407526475360932,5.068564962641609,,,,,,,,,,,,
29167,0,USMissouriPolk,Missouri,Polk,2022-04-28 09:13:11,2020-12-12,1.225228857648694,2.407526475360932,5.068564962641609,,,,,,,,,,,,
29167,0,USMissouriPolk,Missouri,Polk,2022-04-28 09:13:11,2020-12-13,1.225228857648694,2.407526475360932,5.068564962641609,,,,,,,,,,,,
29167,0,USMissouriPolk,Missouri,Polk,2022-04-28 09:13:11,2020-12-14,1.225228857648694,2.407526475360932,5.068564962641609,,,,,,,,,,,,
29167,0,USMissouriPolk,Missouri,Polk,2022-04-28 09:13:11,2020-12-15,1.225228857648694,2.407526475360932,5.068564962641609,,,,,,,,,,,,
29167,0,USMissouriPolk,Missouri,Polk,2022-04-28 09:13:11,2020-12-16,1.225228857648694,2.407526475360932,5.068564962641609,,,,,,,,,,,,
29167,0,USMissouriPolk,Missouri,Polk,2022-04-28 09:13:11,2020-12-17,1.1832507231382192,2.323011572639746,4.886182320232037,,,,,,,,,,,,
29167,0,USMissouriPolk,Missouri,Polk,2022-04-28 09:13:11,2020-12-18,1.1832507231382192,2.323011572639746,4.886182320232037,,,,,,,,,,,,
29167,0,USMissouriPolk,Missouri,Polk,2022-04-28 09:13:11,2020-12-19,1.1832507231382192,2.323011572639746,4.886182320232037,,,,,,,,,,,,
29167,0,USMissouriPolk,Missouri,Polk,2022-04-28 09:13:11,2020-12-20,1.1832507231382192,2.323011572639746,4.886182320232037,,,,,,,,,,,,
29167,0,USMissouriPolk,Missouri,Polk,2022-04-28 09:13:11,2020-12-21,1.1832507231382192,2.323011572639746,4.886182320232037,,,,,,,,,,,,
29167,0,USMissouriPolk,Missouri,Polk,2022-04-28 09:13:11,2020-12-22,1.1832507231382192,2.323011572639746,4.886182320232037,,,,,,,,,,,,
29167,0,USMissouriPolk,Missouri,Polk,2022-04-28 09:13:11,2020-12-23,1.1832507231382192,2.323011572639746,4.886182320232037,,,,,,,,,,,,
29167,0,USMissouriPolk,Missouri,Polk,2022-04-28 09:13:11,2020-12-24,0.6317146992751532,1.4515383056878657,3.5881815722705044,,,,,,,,,,,,
29167,0,USMissouriPolk,Missouri,Polk,2022-04-28 09:13:11,2020-12-25,0.6317146992751532,1.4515383056878657,3.5881815722705044,,,,,,,,,,,,
29167,0,USMissouriPolk,Missouri,Polk,2022-04-28 09:13:11,2020-12-26,0.6317146992751532,1.4515383056878657,3.5881815722705044,,,,,,,,,,,,
29167,0,USMissouriPolk,Missouri,Polk,2022-04-28 09:13:11,2020-12-27,0.6317146992751532,1.4515383056878657,3.5881815722705044,,,,,,,,,,,,
29167,0,USMissouriPolk,Missouri,Polk,2022-04-28 09:13:11,2020-12-28,0.6317146992751532,1.4515383056878657,3.5881815722705044,,,,,,,,,,,,
29167,0,USMissouriPolk,Missouri,Polk,2022-04-28 09:13:11,2020-12-29,0.6317146992751532,1.4515383056878657,3.5881815722705044,,,,,,,,,,,,
29167,0,USMissouriPolk,Missouri,Polk,2022-04-28 09:13:11,2020-12-30,0.6317146992751532,1.4515383056878657,3.5881815722705044,,,,,,,,,,,,
29167,0,USMissouriPolk,Missouri,Polk,2022-04-28 09:13:11,2020-12-31,1.5554739751185467,2.968087674120295,6.059784204433869,,,,,,,,,,,,
29167,0,USMissouriPolk,Missouri,Polk,2022-04-28 09:13:11,2021-01-01,1.5554739751185467,2.968087674120295,6.059784204433869,,,,,,,,,,,,
29167,0,USMissouriPolk,Missouri,Polk,2022-04-28 09:13:11,2021-01-02,1.5554739751185467,2.968087674120295,6.059784204433869,,,,,,,,,,,,
29167,0,USMissouriPolk,Missouri,Polk,2022-04-28 09:13:11,2021-01-03,1.5554739751185467,2.968087674120295,6.059784204433869,,,,,,,,,,,,
29167,0,USMissouriPolk,Missouri,Polk,2022-04-28 09:13:11,2021-01-04,1.5554739751185467,2.968087674120295,6.059784204433869,,,,,,,,,,,,
29167,0,USMissouriPolk,Missouri,Polk,2022-04-28 09:13:11,2021-01-05,1.5554739751185467,2.968087674120295,6.059784204433869,,,,,,,,,,,,
29167,0,USMissouriPolk,Missouri,Polk,2022-04-28 09:13:11,2021-01-06,1.5554739751185467,2.968087674120295,6.059784204433869,,,,,,,,,,,,
29167,0,USMissouriPolk,Missouri,Polk,2022-04-28 09:13:11,2021-01-07,1.273685439472917,2.4447665722517558,5.022334218902107,,,,,,,,,,,,
29167,0,USMissouriPolk,Missouri,Polk,2022-04-28 09:13:11,2021-01-08,1.273685439472917,2.4447665722517558,5.022334218902107,,,,,,,,,,,,
29167,0,USMissouriPolk,Missouri,Polk,2022-04-28 09:13:11,2021-01-09,1.273685439472917,2.4447665722517558,5.022334218902107,,,,,,,,,,,,
29167,0,USMissouriPolk,Missouri,Polk,2022-04-28 09:13:11,2021-01-10,1.273685439472917,2.4447665722517558,5.022334218902107,,,,,,,,,,,,
29167,0,USMissouriPolk,Missouri,Polk,2022-04-28 09:13:11,2021-01-11,1.273685439472917,2.4447665722517558,5.022334218902107,,,,,,,,,,,,
29167,0,USMissouriPolk,Missouri,Polk,2022-04-28 09:13:11,2021-01-12,1.273685439472917,2.4447665722517558,5.022334218902107,,,,,,,,,,,,
29167,0,USMissouriPolk,Missouri,Polk,2022-04-28 09:13:11,2021-01-13,1.273685439472917,2.4447665722517558,5.022334218902107,,,,,,,,,,,,
29167,0,USMissouriPolk,Missouri,Polk,2022-04-28 09:13:11,2021-01-14,0.4967092501245482,1.1303362864822375,2.766961168712503,,,,,,,,,,,,
29167,0,USMissouriPolk,Missouri,Polk,2022-04-28 09:13:11,2021-01-15,0.4967092501245482,1.1303362864822375,2.766961168712503,,,,,,,,,,,,
29167,0,USMissouriPolk,Missouri,Polk,2022-04-28 09:13:11,2021-01-16,0.4967092501245482,1.1303362864822375,2.766961168712503,,,,,,,,,,,,
29167,0,USMissouriPolk,Missouri,Polk,2022-04-28 09:13:11,2021-01-17,0.4967092501245482,1.1303362864822375,2.766961168712503,,,,,,,,,,,,
29167,0,USMissouriPolk,Missouri,Polk,2022-04-28 09:13:11,2021-01-18,0.4967092501245482,1.1303362864822375,2.766961168712503,,,,,,,,,,,,
29167,0,USMissouriPolk,Missouri,Polk,2022-04-28 09:13:11,2021-01-19,0.4967092501245482,1.1303362864822375,2.766961168712503,,,,,,,,,,,,
29167,0,USMissouriPolk,Missouri,Polk,2022-04-28 09:13:11,2021-01-20,0.4967092501245482,1.1303362864822375,2.766961168712503,,,,,,,,,,,,
29167,0,USMissouriPolk,Missouri,Polk,2022-04-28 09:13:11,2021-01-21,0.552156666393507,1.178966155197347,2.7046987856813898,,,,,,,,,,,,
29167,0,USMissouriPolk,Missouri,Polk,2022-04-28 09:13:11,2021-01-22,0.552156666393507,1.178966155197347,2.7046987856813898,,,,,,,,,,,,
29167,0,USMissouriPolk,Missouri,Polk,2022-04-28 09:13:11,2021-01-23,0.552156666393507,1.178966155197347,2.7046987856813898,,,,,,,,,,,,
29167,0,USMissouriPolk,Missouri,Polk,2022-04-28 09:13:11,2021-01-24,0.552156666393507,1.178966155197347,2.7046987856813898,,,,,,,,,,,,
29167,0,USMissouriPolk,Missouri,Polk,2022-04-28 09:13:11,2021-01-25,0.552156666393507,1.178966155197347,2.7046987856813898,,,,,,,,,,,,
29167,0,USMissouriPolk,Missouri,Polk,2022-04-28 09:13:11,2021-01-26,0.552156666393507,1.178966155197347,2.7046987856813898,,,,,,,,,,,,
29167,0,USMissouriPolk,Missouri,Polk,2022-04-28 09:13:11,2021-01-27,0.552156666393507,1.178966155197347,2.7046987856813898,,,,,,,,,,,,
29167,0,USMissouriPolk,Missouri,Polk,2022-04-28 09:13:11,2021-01-28,0.3372885856975942,0.8032681227224957,2.0586118748540976,,,,,,,,,,,,
29167,0,USMissouriPolk,Missouri,Polk,2022-04-28 09:13:11,2021-01-29,0.3372885856975942,0.8032681227224957,2.0586118748540976,,,,,,,,,,,,
29167,0,USMissouriPolk,Missouri,Polk,2022-04-28 09:13:11,2021-01-30,0.3372885856975942,0.8032681227224957,2.0586118748540976,,,,,,,,,,,,
29167,0,USMissouriPolk,Missouri,Polk,2022-04-28 09:13:11,2021-01-31,0.3372885856975942,0.8032681227224957,2.0586118748540976,,,,,,,,,,,,
29167,0,USMissouriPolk,Missouri,Polk,2022-04-28 09:13:11,2021-02-01,0.3372885856975942,0.8032681227224957,2.0586118748540976,,,,,,,,,,,,
29167,0,USMissouriPolk,Missouri,Polk,2022-04-28 09:13:11,2021-02-02,0.3372885856975942,0.8032681227224957,2.0586118748540976,,,,,,,,,,,,
29167,0,USMissouriPolk,Missouri,Polk,2022-04-28 09:13:11,2021-02-03,0.3372885856975942,0.8032681227224957,2.0586118748540976,,,,,,,,,,,,
29167,0,USMissouriPolk,Missouri,Polk,2022-04-28 09:13:11,2021-02-04,0.46874740141712307,0.9572595930159964,2.0976262835387085,,,,,,,,,,,,
29167,0,USMissouriPolk,Missouri,Polk,2022-04-28 09:13:11,2021-02-05,0.46874740141712307,0.9572595930159964,2.0976262835387085,,,,,,,,,,,,
29167,0,USMissouriPolk,Missouri,Polk,2022-04-28 09:13:11,2021-02-06,0.46874740141712307,0.9572595930159964,2.0976262835387085,,,,,,,,,,,,
29167,0,USMissouriPolk,Missouri,Polk,2022-04-28 09:13:11,2021-02-07,0.46874740141712307,0.9572595930159964,2.0976262835387085,,,,,,,,,,,,
29167,0,USMissouriPolk,Missouri,Polk,2022-04-28 09:13:11,2021-02-08,0.46874740141712307,0.9572595930159964,2.0976262835387085,,,,,,,,,,,,
29167,0,USMissouriPolk,Missouri,Polk,2022-04-28 09:13:11,2021-02-09,0.46874740141712307,0.9572595930159964,2.0976262835387085,,,,,,,,,,,,
29167,0,USMissouriPolk,Missouri,Polk,2022-04-28 09:13:11,2021-02-10,0.46874740141712307,0.9572595930159964,2.0976262835387085,,,,,,,,,,,,
29167,0,USMissouriPolk,Missouri,Polk,2022-04-28 09:13:11,2021-02-11,0.3208968299906291,0.6999190573949771,1.6410357694044582,,,,,,,,,,,,
29167,0,USMissouriPolk,Missouri,Polk,2022-04-28 09:13:11,2021-02-12,0.3208968299906291,0.6999190573949771,1.6410357694044582,,,,,,,,,,,,
29167,0,USMissouriPolk,Missouri,Polk,2022-04-28 09:13:11,2021-02-13,0.3208968299906291,0.6999190573949771,1.6410357694044582,,,,,,,,,,,,
29167,0,USMissouriPolk,Missouri,Polk,2022-04-28 09:13:11,2021-02-14,0.3208968299906291,0.6999190573949771,1.6410357694044582,,,,,,,,,,,,
29167,0,USMissouriPolk,Missouri,Polk,2022-04-28 09:13:11,2021-02-15,0.3208968299906291,0.6999190573949771,1.6410357694044582,,,,,,,,,,,,
29167,0,USMissouriPolk,Missouri,Polk,2022-04-28 09:13:11,2021-02-16,0.3208968299906291,0.6999190573949771,1.6410357694044582,,,,,,,,,,,,
29167,0,USMissouriPolk,Missouri,Polk,2022-04-28 09:13:11,2021-02-17,0.3208968299906291,0.6999190573949771,1.6410357694044582,,,,,,,,,,,,
29167,0,USMissouriPolk,Missouri,Polk,2022-04-28 09:13:11,2021-02-18,0.2938357726044365,0.6186294926212398,1.398860926235478,,,,,,,,,,,,
29167,0,USMissouriPolk,Missouri,Polk,2022-04-28 09:13:11,2021-02-19,0.2938357726044365,0.6186294926212398,1.398860926235478,,,,,,,,,,,,
29167,0,USMissouriPolk,Missouri,Polk,2022-04-28 09:13:11,2021-02-20,0.2938357726044365,0.6186294926212398,1.398860926235478,,,,,,,,,,,,
29167,0,USMissouriPolk,Missouri,Polk,2022-04-28 09:13:11,2021-02-21,0.2938357726044365,0.6186294926212398,1.398860926235478,,,,,,,,,,,,
29167,0,USMissouriPolk,Missouri,Polk,2022-04-28 09:13:11,2021-02-22,0.2938357726044365,0.6186294926212398,1.398860926235478,,,,,,,,,,,,
29167,0,USMissouriPolk,Missouri,Polk,2022-04-28 09:13:11,2021-02-23,0.2938357726044365,0.6186294926212398,1.398860926235478,,,,,,,,,,,,
29167,0,USMissouriPolk,Missouri,Polk,2022-04-28 09:13:11,2021-02-24,0.2938357726044365,0.6186294926212398,1.398860926235478,,,,,,,,,,,,
29167,0,USMissouriPolk,Missouri,Polk,2022-04-28 09:13:11,2021-02-25,0.44662472768109635,1.3015077947000038,4.073038188579885,,,,,,,,,,,,
29167,0,USMissouriPolk,Missouri,Polk,2022-04-28 09:13:11,2021-02-26,0.44662472768109635,1.3015077947000038,4.073038188579885,,,,,,,,,,,,
29167,0,USMissouriPolk,Missouri,Polk,2022-04-28 09:13:11,2021-02-27,0.44662472768109635,1.3015077947000038,4.073038188579885,,,,,,,,,,,,
29167,0,USMissouriPolk,Missouri,Polk,2022-04-28 09:13:11,2021-02-28,0.44662472768109635,1.3015077947000038,4.073038188579885,,,,,,,,,,,,
29167,0,USMissouriPolk,Missouri,Polk,2022-04-28 09:13:11,2021-03-01,0.44662472768109635,1.3015077947000038,4.073038188579885,,,,,,,,,,,,
29167,0,USMissouriPolk,Missouri,Polk,2022-04-28 09:13:11,2021-03-02,0.44662472768109635,1.3015077947000038,4.073038188579885,,,,,,,,,,,,
29167,0,USMissouriPolk,Missouri,Polk,2022-04-28 09:13:11,2021-03-03,0.44662472768109635,1.3015077947000038,4.073038188579885,,,,,,,,,,,,
29167,0,USMissouriPolk,Missouri,Polk,2022-04-28 09:13:11,2021-03-04,0.9496876661794277,3.102908087393348,10.85304306703954,,,,,,,,,,,,
29167,0,USMissouriPolk,Missouri,Polk,2022-04-28 09:13:11,2021-03-05,0.9496876661794277,3.102908087393348,10.85304306703954,,,,,,,,,,,,
29167,0,USMissouriPolk,Missouri,Polk,2022-04-28 09:13:11,2021-03-06,0.9496876661794277,3.102908087393348,10.85304306703954,,,,,,,,,,,,
29167,0,USMissouriPolk,Missouri,Polk,2022-04-28 09:13:11,2021-03-07,0.9496876661794277,3.102908087393348,10.85304306703954,,,,,,,,,,,,
29167,0,USMissouriPolk,Missouri,Polk,2022-04-28 09:13:11,2021-03-08,0.9496876661794277,3.102908087393348,10.85304306703954,,,,,,,,,,,,
29167,0,USMissouriPolk,Missouri,Polk,2022-04-28 09:13:11,2021-03-09,0.9496876661794277,3.102908087393348,10.85304306703954,,,,,,,,,,,,
29167,0,USMissouriPolk,Missouri,Polk,2022-04-28 09:13:11,2021-03-10,0.9496876661794277,3.102908087393348,10.85304306703954,,,,,,,,,,,,
29167,0,USMissouriPolk,Missouri,Polk,2022-04-28 09:13:11,2021-03-11,6.4990933253514,6.972447214589613,7.5088567005321085,,,,,,,,,,,,
29167,0,USMissouriPolk,Missouri,Polk,2022-04-28 09:13:11,2021-03-12,6.4990933253514,6.972447214589613,7.5088567005321085,,,,,,,,,,,,
29167,0,USMissouriPolk,Missouri,Polk,2022-04-28 09:13:11,2021-03-13,6.4990933253514,6.972447214589613,7.5088567005321085,,,,,,,,,,,,
29167,0,USMissouriPolk,Missouri,Polk,2022-04-28 09:13:11,2021-03-14,6.4990933253514,6.972447214589613,7.5088567005321085,,,,,,,,,,,,
29167,0,USMissouriPolk,Missouri,Polk,2022-04-28 09:13:11,2021-03-15,6.4990933253514,6.972447214589613,7.5088567005321085,,,,,,,,,,,,
29167,0,USMissouriPolk,Missouri,Polk,2022-04-28 09:13:11,2021-03-16,6.4990933253514,6.972447214589613,7.5088567005321085,,,,,,,,,,,,
29167,0,USMissouriPolk,Missouri,Polk,2022-04-28 09:13:11,2021-03-17,6.4990933253514,6.972447214589613,7.5088567005321085,,,,,,,,,,,,
29167,0,USMissouriPolk,Missouri,Polk,2022-04-28 09:13:11,2021-03-18,0.6742770225299364,1.4449928610426728,3.3274412640271227,,,,,,,,,,,,
29167,0,USMissouriPolk,Missouri,Polk,2022-04-28 09:13:11,2021-03-19,0.6742770225299364,1.4449928610426728,3.3274412640271227,,,,,,,,,,,,
29167,0,USMissouriPolk,Missouri,Polk,2022-04-28 09:13:11,2021-03-20,0.6742770225299364,1.4449928610426728,3.3274412640271227,,,,,,,,,,,,
29167,0,USMissouriPolk,Missouri,Polk,2022-04-28 09:13:11,2021-03-21,0.6742770225299364,1.4449928610426728,3.3274412640271227,,,,,,,,,,,,
29167,0,USMissouriPolk,Missouri,Polk,2022-04-28 09:13:11,2021-03-22,0.6742770225299364,1.4449928610426728,3.3274412640271227,,,,,,,,,,,,
29167,0,USMissouriPolk,Missouri,Polk,2022-04-28 09:13:11,2021-03-23,0.6742770225299364,1.4449928610426728,3.3274412640271227,,,,,,,,,,,,
29167,0,USMissouriPolk,Missouri,Polk,2022-04-28 09:13:11,2021-03-24,0.6742770225299364,1.4449928610426728,3.3274412640271227,,,,,,,,,,,,
29167,0,USMissouriPolk,Missouri,Polk,2022-04-28 09:13:11,2021-03-25,0.5294507400797074,0.9104754945187062,1.6642557150062438,,,,,,,,,,,,
29167,0,USMissouriPolk,Missouri,Polk,2022-04-28 09:13:11,2021-03-26,0.5294507400797074,0.9104754945187062,1.6642557150062438,,,,,,,,,,,,
29167,0,USMissouriPolk,Missouri,Polk,2022-04-28 09:13:11,2021-03-27,0.5294507400797074,0.9104754945187062,1.6642557150062438,,,,,,,,,,,,
29167,0,USMissouriPolk,Missouri,Polk,2022-04-28 09:13:11,2021-03-28,0.5294507400797074,0.9104754945187062,1.6642557150062438,,,,,,,,,,,,
29167,0,USMissouriPolk,Missouri,Polk,2022-04-28 09:13:11,2021-03-29,0.5294507400797074,0.9104754945187062,1.6642557150062438,,,,,,,,,,,,
29167,0,USMissouriPolk,Missouri,Polk,2022-04-28 09:13:11,2021-03-30,0.5294507400797074,0.9104754945187062,1.6642557150062438,,,,,,,,,,,,
29167,0,USMissouriPolk,Missouri,Polk,2022-04-28 09:13:11,2021-03-31,0.5294507400797074,0.9104754945187062,1.6642557150062438,,,,,,,,,,,,
29167,0,USMissouriPolk,Missouri,Polk,2022-04-28 09:13:11,2021-04-01,0.3886121659096466,0.6688308641216836,1.2236373157686684,,,,,,,,,,,,
29167,0,USMissouriPolk,Missouri,Polk,2022-04-28 09:13:11,2021-04-02,0.3886121659096466,0.6688308641216836,1.2236373157686684,,,,,,,,,,,,
29167,0,USMissouriPolk,Missouri,Polk,2022-04-28 09:13:11,2021-04-03,0.3886121659096466,0.6688308641216836,1.2236373157686684,,,,,,,,,,,,
29167,0,USMissouriPolk,Missouri,Polk,2022-04-28 09:13:11,2021-04-04,0.3886121659096466,0.6688308641216836,1.2236373157686684,,,,,,,,,,,,
29167,0,USMissouriPolk,Missouri,Polk,2022-04-28 09:13:11,2021-04-05,0.3886121659096466,0.6688308641216836,1.2236373157686684,,,,,,,,,,,,
29167,0,USMissouriPolk,Missouri,Polk,2022-04-28 09:13:11,2021-04-06,0.3886121659096466,0.6688308641216836,1.2236373157686684,,,,,,,,,,,,
29167,0,USMissouriPolk,Missouri,Polk,2022-04-28 09:13:11,2021-04-07,0.3886121659096466,0.6688308641216836,1.2236373157686684,,,,,,,,,,,,
29167,0,USMissouriPolk,Missouri,Polk,2022-04-28 09:13:11,2021-04-08,0.20303849220105727,0.5235079957364401,1.4523117837154031,,,,,,,,,,,,
29167,0,USMissouriPolk,Missouri,Polk,2022-04-28 09:13:11,2021-04-09,0.20303849220105727,0.5235079957364401,1.4523117837154031,,,,,,,,,,,,
29167,0,USMissouriPolk,Missouri,Polk,2022-04-28 09:13:11,2021-04-10,0.20303849220105727,0.5235079957364401,1.4523117837154031,,,,,,,,,,,,
29167,0,USMissouriPolk,Missouri,Polk,2022-04-28 09:13:11,2021-04-11,0.20303849220105727,0.5235079957364401,1.4523117837154031,,,,,,,,,,,,
29167,0,USMissouriPolk,Missouri,Polk,2022-04-28 09:13:11,2021-04-12,0.20303849220105727,0.5235079957364401,1.4523117837154031,,,,,,,,,,,,
29167,0,USMissouriPolk,Missouri,Polk,2022-04-28 09:13:11,2021-04-13,0.20303849220105727,0.5235079957364401,1.4523117837154031,,,,,,,,,,,,
29167,0,USMissouriPolk,Missouri,Polk,2022-04-28 09:13:11,2021-04-14,0.20303849220105727,0.5235079957364401,1.4523117837154031,,,,,,,,,,,,
29167,0,USMissouriPolk,Missouri,Polk,2022-04-28 09:13:11,2021-04-15,0.1214322860903394,0.29650277792633306,0.7791197909805904,,,,,,,,,,,,
29167,0,USMissouriPolk,Missouri,Polk,2022-04-28 09:13:11,2021-04-16,0.1214322860903394,0.29650277792633306,0.7791197909805904,,,,,,,,,,,,
29167,0,USMissouriPolk,Missouri,Polk,2022-04-28 09:13:11,2021-04-17,0.1214322860903394,0.29650277792633306,0.7791197909805904,,,,,,,,,,,,
29167,0,USMissouriPolk,Missouri,Polk,2022-04-28 09:13:11,2021-04-18,0.1214322860903394,0.29650277792633306,0.7791197909805904,,,,,,,,,,,,
29167,0,USMissouriPolk,Missouri,Polk,2022-04-28 09:13:11,2021-04-19,0.1214322860903394,0.29650277792633306,0.7791197909805904,,,,,,,,,,,,
29167,0,USMissouriPolk,Missouri,Polk,2022-04-28 09:13:11,2021-04-20,0.1214322860903394,0.29650277792633306,0.7791197909805904,,,,,,,,,,,,
29167,0,USMissouriPolk,Missouri,Polk,2022-04-28 09:13:11,2021-04-21,0.1214322860903394,0.29650277792633306,0.7791197909805904,,,,,,,,,,,,
29167,0,USMissouriPolk,Missouri,Polk,2022-04-28 09:13:11,2021-04-22,0.3968263820849669,0.783391992543592,1.657310969918007,,,,,,,,,,,,
29167,0,USMissouriPolk,Missouri,Polk,2022-04-28 09:13:11,2021-04-23,0.3968263820849669,0.783391992543592,1.657310969918007,,,,,,,,,,,,
29167,0,USMissouriPolk,Missouri,Polk,2022-04-28 09:13:11,2021-04-24,0.3968263820849669,0.783391992543592,1.657310969918007,,,,,,,,,,,,
29167,0,USMissouriPolk,Missouri,Polk,2022-04-28 09:13:11,2021-04-25,0.3968263820849669,0.783391992543592,1.657310969918007,,,,,,,,,,,,
29167,0,USMissouriPolk,Missouri,Polk,2022-04-28 09:13:11,2021-04-26,0.3968263820849669,0.783391992543592,1.657310969918007,,,,,,,,,,,,
29167,0,USMissouriPolk,Missouri,Polk,2022-04-28 09:13:11,2021-04-27,0.3968263820849669,0.783391992543592,1.657310969918007,,,,,,,,,,,,
29167,0,USMissouriPolk,Missouri,Polk,2022-04-28 09:13:11,2021-04-28,0.3968263820849669,0.783391992543592,1.657310969918007,,,,,,,,,,,,
29167,0,USMissouriPolk,Missouri,Polk,2022-04-28 09:13:11,2021-04-29,0.17898550370629898,0.4492201192515149,1.2132779762913581,,,,,,,,,,,,
29167,0,USMissouriPolk,Missouri,Polk,2022-04-28 09:13:11,2021-04-30,0.17898550370629898,0.4492201192515149,1.2132779762913581,,,,,,,,,,,,
29167,0,USMissouriPolk,Missouri,Polk,2022-04-28 09:13:11,2021-05-01,0.17898550370629898,0.4492201192515149,1.2132779762913581,,,,,,,,,,,,
29167,0,USMissouriPolk,Missouri,Polk,2022-04-28 09:13:11,2021-05-02,0.17898550370629898,0.4492201192515149,1.2132779762913581,,,,,,,,,,,,
29167,0,USMissouriPolk,Missouri,Polk,2022-04-28 09:13:11,2021-05-03,0.17898550370629898,0.4492201192515149,1.2132779762913581,,,,,,,,,,,,
29167,0,USMissouriPolk,Missouri,Polk,2022-04-28 09:13:11,2021-05-04,0.17898550370629898,0.4492201192515149,1.2132779762913581,,,,,,,,,,,,
29167,0,USMissouriPolk,Missouri,Polk,2022-04-28 09:13:11,2021-05-05,0.17898550370629898,0.4492201192515149,1.2132779762913581,,,,,,,,,,,,
29167,0,USMissouriPolk,Missouri,Polk,2022-04-28 09:13:11,2021-05-06,0.24481571419143808,0.6019993012190915,1.593063137208699,,,,,,,,,,,,
29167,0,USMissouriPolk,Missouri,Polk,2022-04-28 09:13:11,2021-05-07,0.24481571419143808,0.6019993012190915,1.593063137208699,,,,,,,,,,,,
29167,0,USMissouriPolk,Missouri,Polk,2022-04-28 09:13:11,2021-05-08,0.24481571419143808,0.6019993012190915,1.593063137208699,,,,,,,,,,,,
29167,0,USMissouriPolk,Missouri,Polk,2022-04-28 09:13:11,2021-05-09,0.24481571419143808,0.6019993012190915,1.593063137208699,,,,,,,,,,,,
29167,0,USMissouriPolk,Missouri,Polk,2022-04-28 09:13:11,2021-05-10,0.24481571419143808,0.6019993012190915,1.593063137208699,,,,,,,,,,,,
29167,0,USMissouriPolk,Missouri,Polk,2022-04-28 09:13:11,2021-05-11,0.24481571419143808,0.6019993012190915,1.593063137208699,,,,,,,,,,,,
29167,0,USMissouriPolk,Missouri,Polk,2022-04-28 09:13:11,2021-05-12,0.24481571419143808,0.6019993012190915,1.593063137208699,,,,,,,,,,,,
29167,0,USMissouriPolk,Missouri,Polk,2022-04-28 09:13:11,2021-05-13,0.3078410352356863,0.6468148909917402,1.4595772467708243,,,,,,,,,,,,
29167,0,USMissouriPolk,Missouri,Polk,2022-04-28 09:13:11,2021-05-14,0.3078410352356863,0.6468148909917402,1.4595772467708243,,,,,,,,,,,,
29167,0,USMissouriPolk,Missouri,Polk,2022-04-28 09:13:11,2021-05-15,0.3078410352356863,0.6468148909917402,1.4595772467708243,,,,,,,,,,,,
29167,0,USMissouriPolk,Missouri,Polk,2022-04-28 09:13:11,2021-05-16,0.3078410352356863,0.6468148909917402,1.4595772467708243,,,,,,,,,,,,
29167,0,USMissouriPolk,Missouri,Polk,2022-04-28 09:13:11,2021-05-17,0.3078410352356863,0.6468148909917402,1.4595772467708243,,,,,,,,,,,,
29167,0,USMissouriPolk,Missouri,Polk,2022-04-28 09:13:11,2021-05-18,0.3078410352356863,0.6468148909917402,1.4595772467708243,,,,,,,,,,,,
29167,0,USMissouriPolk,Missouri,Polk,2022-04-28 09:13:11,2021-05-19,0.3078410352356863,0.6468148909917402,1.4595772467708243,,,,,,,,,,,,
29167,0,USMissouriPolk,Missouri,Polk,2022-04-28 09:13:11,2021-05-20,0.6009414754865615,1.0939444224173291,2.1251054034938712,,,,,,,,,,,,
29167,0,USMissouriPolk,Missouri,Polk,2022-04-28 09:13:11,2021-05-21,0.6009414754865615,1.0939444224173291,2.1251054034938712,,,,,,,,,,,,
29167,0,USMissouriPolk,Missouri,Polk,2022-04-28 09:13:11,2021-05-22,0.6009414754865615,1.0939444224173291,2.1251054034938712,,,,,,,,,,,,
29167,0,USMissouriPolk,Missouri,Polk,2022-04-28 09:13:11,2021-05-23,0.6009414754865615,1.0939444224173291,2.1251054034938712,,,,,,,,,,,,
29167,0,USMissouriPolk,Missouri,Polk,2022-04-28 09:13:11,2021-05-24,0.6009414754865615,1.0939444224173291,2.1251054034938712,,,,,,,,,,,,
29167,0,USMissouriPolk,Missouri,Polk,2022-04-28 09:13:11,2021-05-25,0.6009414754865615,1.0939444224173291,2.1251054034938712,,,,,,,,,,,,
29167,0,USMissouriPolk,Missouri,Polk,2022-04-28 09:13:11,2021-05-26,0.6009414754865615,1.0939444224173291,2.1251054034938712,,,,,,,,,,,,
29167,0,USMissouriPolk,Missouri,Polk,2022-04-28 09:13:11,2021-05-27,0.8545128011877099,1.4626052466902497,2.6600344022504765,,,,,,,,,,,,
29167,0,USMissouriPolk,Missouri,Polk,2022-04-28 09:13:11,2021-05-28,0.8545128011877099,1.4626052466902497,2.6600344022504765,,,,,,,,,,,,
29167,0,USMissouriPolk,Missouri,Polk,2022-04-28 09:13:11,2021-05-29,0.8545128011877099,1.4626052466902497,2.6600344022504765,,,,,,,,,,,,
29167,0,USMissouriPolk,Missouri,Polk,2022-04-28 09:13:11,2021-05-30,0.8545128011877099,1.4626052466902497,2.6600344022504765,,,,,,,,,,,,
29167,0,USMissouriPolk,Missouri,Polk,2022-04-28 09:13:11,2021-05-31,0.8545128011877099,1.4626052466902497,2.6600344022504765,,,,,,,,,,,,
29167,0,USMissouriPolk,Missouri,Polk,2022-04-28 09:13:11,2021-06-01,0.8545128011877099,1.4626052466902497,2.6600344022504765,,,,,,,,,,,,
29167,0,USMissouriPolk,Missouri,Polk,2022-04-28 09:13:11,2021-06-02,0.8545128011877099,1.4626052466902497,2.6600344022504765,,,,,,,,,,,,
29167,0,USMissouriPolk,Missouri,Polk,2022-04-28 09:13:11,2021-06-03,0.9516322541393389,1.6160167590719767,2.9140875283998406,,,,,,,,,,,,
29167,0,USMissouriPolk,Missouri,Polk,2022-04-28 09:13:11,2021-06-04,0.9516322541393389,1.6160167590719767,2.9140875283998406,,,,,,,,,,,,
29167,0,USMissouriPolk,Missouri,Polk,2022-04-28 09:13:11,2021-06-05,0.9516322541393389,1.6160167590719767,2.9140875283998406,,,,,,,,,,,,
29167,0,USMissouriPolk,Missouri,Polk,2022-04-28 09:13:11,2021-06-06,0.9516322541393389,1.6160167590719767,2.9140875283998406,,,,,,,,,,,,
29167,0,USMissouriPolk,Missouri,Polk,2022-04-28 09:13:11,2021-06-07,0.9516322541393389,1.6160167590719767,2.9140875283998406,,,,,,,,,,,,
29167,0,USMissouriPolk,Missouri,Polk,2022-04-28 09:13:11,2021-06-08,0.9516322541393389,1.6160167590719767,2.9140875283998406,,,,,,,,,,,,
29167,0,USMissouriPolk,Missouri,Polk,2022-04-28 09:13:11,2021-06-09,0.9516322541393389,1.6160167590719767,2.9140875283998406,,,,,,,,,,,,
29167,0,USMissouriPolk,Missouri,Polk,2022-04-28 09:13:11,2021-06-10,1.019167079637381,1.7642602683358921,3.2479346037084147,,,,,,,,,,,,
29167,0,USMissouriPolk,Missouri,Polk,2022-04-28 09:13:11,2021-06-11,1.019167079637381,1.7642602683358921,3.2479346037084147,,,,,,,,,,,,
29167,0,USMissouriPolk,Missouri,Polk,2022-04-28 09:13:11,2021-06-12,1.019167079637381,1.7642602683358921,3.2479346037084147,,,,,,,,,,,,
29167,0,USMissouriPolk,Missouri,Polk,2022-04-28 09:13:11,2021-06-13,1.019167079637381,1.7642602683358921,3.2479346037084147,,,,,,,,,,,,
29167,0,USMissouriPolk,Missouri,Polk,2022-04-28 09:13:11,2021-06-14,1.019167079637381,1.7642602683358921,3.2479346037084147,,,,,,,,,,,,
29167,0,USMissouriPolk,Missouri,Polk,2022-04-28 09:13:11,2021-06-15,1.019167079637381,1.7642602683358921,3.2479346037084147,,,,,,,,,,,,
29167,0,USMissouriPolk,Missouri,Polk,2022-04-28 09:13:11,2021-06-16,1.019167079637381,1.7642602683358921,3.2479346037084147,,,,,,,,,,,,
29167,0,USMissouriPolk,Missouri,Polk,2022-04-28 09:13:11,2021-06-17,1.2554210608505563,2.1720264118011285,3.996225644010015,,,,,,,,,,,,
29167,0,USMissouriPolk,Missouri,Polk,2022-04-28 09:13:11,2021-06-18,1.2554210608505563,2.1720264118011285,3.996225644010015,,,,,,,,,,,,
29167,0,USMissouriPolk,Missouri,Polk,2022-04-28 09:13:11,2021-06-19,1.2554210608505563,2.1720264118011285,3.996225644010015,,,,,,,,,,,,
29167,0,USMissouriPolk,Missouri,Polk,2022-04-28 09:13:11,2021-06-20,1.2554210608505563,2.1720264118011285,3.996225644010015,,,,,,,,,,,,
29167,0,USMissouriPolk,Missouri,Polk,2022-04-28 09:13:11,2021-06-21,1.2554210608505563,2.1720264118011285,3.996225644010015,,,,,,,,,,,,
29167,0,USMissouriPolk,Missouri,Polk,2022-04-28 09:13:11,2021-06-22,1.2554210608505563,2.1720264118011285,3.996225644010015,,,,,,,,,,,,
29167,0,USMissouriPolk,Missouri,Polk,2022-04-28 09:13:11,2021-06-23,1.2554210608505563,2.1720264118011285,3.996225644010015,,,,,,,,,,,,
29167,0,USMissouriPolk,Missouri,Polk,2022-04-28 09:13:11,2021-06-24,1.1584514488397937,2.099091136921548,4.057712994088424,,,,,,,,,,,,
29167,0,USMissouriPolk,Missouri,Polk,2022-04-28 09:13:11,2021-06-25,1.1584514488397937,2.099091136921548,4.057712994088424,,,,,,,,,,,,
29167,0,USMissouriPolk,Missouri,Polk,2022-04-28 09:13:11,2021-06-26,1.1584514488397937,2.099091136921548,4.057712994088424,,,,,,,,,,,,
29167,0,USMissouriPolk,Missouri,Polk,2022-04-28 09:13:11,2021-06-27,1.1584514488397937,2.099091136921548,4.057712994088424,,,,,,,,,,,,
29167,0,USMissouriPolk,Missouri,Polk,2022-04-28 09:13:11,2021-06-28,1.1584514488397937,2.099091136921548,4.057712994088424,,,,,,,,,,,,
29167,0,USMissouriPolk,Missouri,Polk,2022-04-28 09:13:11,2021-06-29,1.1584514488397937,2.099091136921548,4.057712994088424,,,,,,,,,,,,
29167,0,USMissouriPolk,Missouri,Polk,2022-04-28 09:13:11,2021-06-30,1.1584514488397937,2.099091136921548,4.057712994088424,,,,,,,,,,,,
29167,0,USMissouriPolk,Missouri,Polk,2022-04-28 09:13:11,2021-07-01,1.3283899634360676,2.506953149721302,5.05925530072993,,,,,,,,,,,,
29167,0,USMissouriPolk,Missouri,Polk,2022-04-28 09:13:11,2021-07-02,1.3283899634360676,2.506953149721302,5.05925530072993,,,,,,,,,,,,
29167,0,USMissouriPolk,Missouri,Polk,2022-04-28 09:13:11,2021-07-03,1.3283899634360676,2.506953149721302,5.05925530072993,,,,,,,,,,,,
29167,0,USMissouriPolk,Missouri,Polk,2022-04-28 09:13:11,2021-07-04,1.3283899634360676,2.506953149721302,5.05925530072993,,,,,,,,,,,,
29167,0,USMissouriPolk,Missouri,Polk,2022-04-28 09:13:11,2021-07-05,1.3283899634360676,2.506953149721302,5.05925530072993,,,,,,,,,,,,
29167,0,USMissouriPolk,Missouri,Polk,2022-04-28 09:13:11,2021-07-06,1.3283899634360676,2.506953149721302,5.05925530072993,,,,,,,,,,,,
29167,0,USMissouriPolk,Missouri,Polk,2022-04-28 09:13:11,2021-07-07,1.3283899634360676,2.506953149721302,5.05925530072993,,,,,,,,,,,,
29167,0,USMissouriPolk,Missouri,Polk,2022-04-28 09:13:11,2021-07-08,2.084518642242502,3.606535849784405,6.6356671317511315,,,,,,,,,,,,
29167,0,USMissouriPolk,Missouri,Polk,2022-04-28 09:13:11,2021-07-09,2.084518642242502,3.606535849784405,6.6356671317511315,,,,,,,,,,,,
29167,0,USMissouriPolk,Missouri,Polk,2022-04-28 09:13:11,2021-07-10,2.084518642242502,3.606535849784405,6.6356671317511315,,,,,,,,,,,,
29167,0,USMissouriPolk,Missouri,Polk,2022-04-28 09:13:11,2021-07-11,2.084518642242502,3.606535849784405,6.6356671317511315,,,,,,,,,,,,
29167,0,USMissouriPolk,Missouri,Polk,2022-04-28 09:13:11,2021-07-12,2.084518642242502,3.606535849784405,6.6356671317511315,,,,,,,,,,,,
29167,0,USMissouriPolk,Missouri,Polk,2022-04-28 09:13:11,2021-07-13,2.084518642242502,3.606535849784405,6.6356671317511315,,,,,,,,,,,,
29167,0,USMissouriPolk,Missouri,Polk,2022-04-28 09:13:11,2021-07-14,2.084518642242502,3.606535849784405,6.6356671317511315,,,,,,,,,,,,
29167,0,USMissouriPolk,Missouri,Polk,2022-04-28 09:13:11,2021-07-15,1.7052709870607772,3.1726354368718206,6.307083081127956,,,,,,,,,,,,
29167,0,USMissouriPolk,Missouri,Polk,2022-04-28 09:13:11,2021-07-16,1.7052709870607772,3.1726354368718206,6.307083081127956,,,,,,,,,,,,
29167,0,USMissouriPolk,Missouri,Polk,2022-04-28 09:13:11,2021-07-17,1.7052709870607772,3.1726354368718206,6.307083081127956,,,,,,,,,,,,
29167,0,USMissouriPolk,Missouri,Polk,2022-04-28 09:13:11,2021-07-18,1.7052709870607772,3.1726354368718206,6.307083081127956,,,,,,,,,,,,
29167,0,USMissouriPolk,Missouri,Polk,2022-04-28 09:13:11,2021-07-19,1.7052709870607772,3.1726354368718206,6.307083081127956,,,,,,,,,,,,
29167,0,USMissouriPolk,Missouri,Polk,2022-04-28 09:13:11,2021-07-20,1.7052709870607772,3.1726354368718206,6.307083081127956,,,,,,,,,,,,
29167,0,USMissouriPolk,Missouri,Polk,2022-04-28 09:13:11,2021-07-21,1.7052709870607772,3.1726354368718206,6.307083081127956,,,,,,,,,,,,
29167,0,USMissouriPolk,Missouri,Polk,2022-04-28 09:13:11,2021-07-22,1.8349598846122332,3.3733315430069992,6.6217455167737596,,,,,,,,,,,,
29167,0,USMissouriPolk,Missouri,Polk,2022-04-28 09:13:11,2021-07-23,1.8349598846122332,3.3733315430069992,6.6217455167737596,,,,,,,,,,,,
29167,0,USMissouriPolk,Missouri,Polk,2022-04-28 09:13:11,2021-07-24,1.8349598846122332,3.3733315430069992,6.6217455167737596,,,,,,,,,,,,
29167,0,USMissouriPolk,Missouri,Polk,2022-04-28 09:13:11,2021-07-25,1.8349598846122332,3.3733315430069992,6.6217455167737596,,,,,,,,,,,,
29167,0,USMissouriPolk,Missouri,Polk,2022-04-28 09:13:11,2021-07-26,1.8349598846122332,3.3733315430069992,6.6217455167737596,,,,,,,,,,,,
29167,0,USMissouriPolk,Missouri,Polk,2022-04-28 09:13:11,2021-07-27,1.8349598846122332,3.3733315430069992,6.6217455167737596,,,,,,,,,,,,
29167,0,USMissouriPolk,Missouri,Polk,2022-04-28 09:13:11,2021-07-28,1.8349598846122332,3.3733315430069992,6.6217455167737596,,,,,,,,,,,,
29167,0,USMissouriPolk,Missouri,Polk,2022-04-28 09:13:11,2021-07-29,1.7243409640395266,3.175488307723821,6.244872260978405,,,,,,,,,,,,
29167,0,USMissouriPolk,Missouri,Polk,2022-04-28 09:13:11,2021-07-30,1.7243409640395266,3.175488307723821,6.244872260978405,,,,,,,,,,,,
29167,0,USMissouriPolk,Missouri,Polk,2022-04-28 09:13:11,2021-07-31,1.7243409640395266,3.175488307723821,6.244872260978405,,,,,,,,,,,,
29167,0,USMissouriPolk,Missouri,Polk,2022-04-28 09:13:11,2021-08-01,1.7243409640395266,3.175488307723821,6.244872260978405,,,,,,,,,,,,
29167,0,USMissouriPolk,Missouri,Polk,2022-04-28 09:13:11,2021-08-02,1.7243409640395266,3.175488307723821,6.244872260978405,,,,,,,,,,,,
29167,0,USMissouriPolk,Missouri,Polk,2022-04-28 09:13:11,2021-08-03,1.7243409640395266,3.175488307723821,6.244872260978405,,,,,,,,,,,,
29167,0,USMissouriPolk,Missouri,Polk,2022-04-28 09:13:11,2021-08-04,1.7243409640395266,3.175488307723821,6.244872260978405,,,,,,,,,,,,
29167,0,USMissouriPolk,Missouri,Polk,2022-04-28 09:13:11,2021-08-05,1.4773311812501113,2.79785912455484,5.667265872743609,,,,,,,,,,,,
29167,0,USMissouriPolk,Missouri,Polk,2022-04-28 09:13:11,2021-08-06,1.4773311812501113,2.79785912455484,5.667265872743609,,,,,,,,,,,,
29167,0,USMissouriPolk,Missouri,Polk,2022-04-28 09:13:11,2021-08-07,1.4773311812501113,2.79785912455484,5.667265872743609,,,,,,,,,,,,
29167,0,USMissouriPolk,Missouri,Polk,2022-04-28 09:13:11,2021-08-08,1.4773311812501113,2.79785912455484,5.667265872743609,,,,,,,,,,,,
29167,0,USMissouriPolk,Missouri,Polk,2022-04-28 09:13:11,2021-08-09,1.4773311812501113,2.79785912455484,5.667265872743609,,,,,,,,,,,,
29167,0,USMissouriPolk,Missouri,Polk,2022-04-28 09:13:11,2021-08-10,1.4773311812501113,2.79785912455484,5.667265872743609,,,,,,,,,,,,
29167,0,USMissouriPolk,Missouri,Polk,2022-04-28 09:13:11,2021-08-11,1.4773311812501113,2.79785912455484,5.667265872743609,,,,,,,,,,,,
29167,0,USMissouriPolk,Missouri,Polk,2022-04-28 09:13:11,2021-08-12,0.460090693203189,0.4830156478348226,0.508808488059801,,,,,,,,,,,,
29167,0,USMissouriPolk,Missouri,Polk,2022-04-28 09:13:11,2021-08-13,0.460090693203189,0.4830156478348226,0.508808488059801,,,,,,,,,,,,
29167,0,USMissouriPolk,Missouri,Polk,2022-04-28 09:13:11,2021-08-14,0.460090693203189,0.4830156478348226,0.508808488059801,,,,,,,,,,,,
29167,0,USMissouriPolk,Missouri,Polk,2022-04-28 09:13:11,2021-08-15,0.460090693203189,0.4830156478348226,0.508808488059801,,,,,,,,,,,,
29167,0,USMissouriPolk,Missouri,Polk,2022-04-28 09:13:11,2021-08-16,0.460090693203189,0.4830156478348226,0.508808488059801,,,,,,,,,,,,
29167,0,USMissouriPolk,Missouri,Polk,2022-04-28 09:13:11,2021-08-17,0.460090693203189,0.4830156478348226,0.508808488059801,,,,,,,,,,,,
29167,0,USMissouriPolk,Missouri,Polk,2022-04-28 09:13:11,2021-08-18,0.460090693203189,0.4830156478348226,0.508808488059801,,,,,,,,,,,,
29167,0,USMissouriPolk,Missouri,Polk,2022-04-28 09:13:11,2021-08-19,1.1488488262162972,1.8980895372964526,3.322387678194712,,,,,,,,,,,,
29167,0,USMissouriPolk,Missouri,Polk,2022-04-28 09:13:11,2021-08-20,1.1488488262162972,1.8980895372964526,3.322387678194712,,,,,,,,,,,,
29167,0,USMissouriPolk,Missouri,Polk,2022-04-28 09:13:11,2021-08-21,1.1488488262162972,1.8980895372964526,3.322387678194712,,,,,,,,,,,,
29167,0,USMissouriPolk,Missouri,Polk,2022-04-28 09:13:11,2021-08-22,1.1488488262162972,1.8980895372964526,3.322387678194712,,,,,,,,,,,,
29167,0,USMissouriPolk,Missouri,Polk,2022-04-28 09:13:11,2021-08-23,1.1488488262162972,1.8980895372964526,3.322387678194712,,,,,,,,,,,,
29167,0,USMissouriPolk,Missouri,Polk,2022-04-28 09:13:11,2021-08-24,1.1488488262162972,1.8980895372964526,3.322387678194712,,,,,,,,,,,,
29167,0,USMissouriPolk,Missouri,Polk,2022-04-28 09:13:11,2021-08-25,1.1488488262162972,1.8980895372964526,3.322387678194712,,,,,,,,,,,,
29167,0,USMissouriPolk,Missouri,Polk,2022-04-28 09:13:11,2021-08-26,0.7954654997582307,1.3078707330280488,2.2772034376193044,,,,,,,,,,,,
29167,0,USMissouriPolk,Missouri,Polk,2022-04-28 09:13:11,2021-08-27,0.7954654997582307,1.3078707330280488,2.2772034376193044,,,,,,,,,,,,
29167,0,USMissouriPolk,Missouri,Polk,2022-04-28 09:13:11,2021-08-28,0.7954654997582307,1.3078707330280488,2.2772034376193044,,,,,,,,,,,,
29167,0,USMissouriPolk,Missouri,Polk,2022-04-28 09:13:11,2021-08-29,0.7954654997582307,1.3078707330280488,2.2772034376193044,,,,,,,,,,,,
29167,0,USMissouriPolk,Missouri,Polk,2022-04-28 09:13:11,2021-08-30,0.7954654997582307,1.3078707330280488,2.2772034376193044,,,,,,,,,,,,
29167,0,USMissouriPolk,Missouri,Polk,2022-04-28 09:13:11,2021-08-31,0.7954654997582307,1.3078707330280488,2.2772034376193044,,,,,,,,,,,,
29167,0,USMissouriPolk,Missouri,Polk,2022-04-28 09:13:11,2021-09-01,0.7954654997582307,1.3078707330280488,2.2772034376193044,,,,,,,,,,,,
29167,0,USMissouriPolk,Missouri,Polk,2022-04-28 09:13:11,2021-09-02,0.6309373088116816,1.0780969269647573,1.9571462554775427,,,,,,,,,,,,
29167,0,USMissouriPolk,Missouri,Polk,2022-04-28 09:13:11,2021-09-03,0.6309373088116816,1.0780969269647573,1.9571462554775427,,,,,,,,,,,,
29167,0,USMissouriPolk,Missouri,Polk,2022-04-28 09:13:11,2021-09-04,0.6309373088116816,1.0780969269647573,1.9571462554775427,,,,,,,,,,,,
29167,0,USMissouriPolk,Missouri,Polk,2022-04-28 09:13:11,2021-09-05,0.6309373088116816,1.0780969269647573,1.9571462554775427,,,,,,,,,,,,
29167,0,USMissouriPolk,Missouri,Polk,2022-04-28 09:13:11,2021-09-06,0.6309373088116816,1.0780969269647573,1.9571462554775427,,,,,,,,,,,,
29167,0,USMissouriPolk,Missouri,Polk,2022-04-28 09:13:11,2021-09-07,0.6309373088116816,1.0780969269647573,1.9571462554775427,,,,,,,,,,,,
29167,0,USMissouriPolk,Missouri,Polk,2022-04-28 09:13:11,2021-09-08,0.6309373088116816,1.0780969269647573,1.9571462554775427,,,,,,,,,,,,
29167,0,USMissouriPolk,Missouri,Polk,2022-04-28 09:13:11,2021-09-09,0.4554100327128205,0.6963193414591307,1.1194222995464216,,,,,,,,,,,,
29167,0,USMissouriPolk,Missouri,Polk,2022-04-28 09:13:11,2021-09-10,0.4554100327128205,0.6963193414591307,1.1194222995464216,,,,,,,,,,,,
29167,0,USMissouriPolk,Missouri,Polk,2022-04-28 09:13:11,2021-09-11,0.4554100327128205,0.6963193414591307,1.1194222995464216,,,,,,,,,,,,
29167,0,USMissouriPolk,Missouri,Polk,2022-04-28 09:13:11,2021-09-12,0.4554100327128205,0.6963193414591307,1.1194222995464216,,,,,,,,,,,,
29167,0,USMissouriPolk,Missouri,Polk,2022-04-28 09:13:11,2021-09-13,0.4554100327128205,0.6963193414591307,1.1194222995464216,,,,,,,,,,,,
29167,0,USMissouriPolk,Missouri,Polk,2022-04-28 09:13:11,2021-09-14,0.4554100327128205,0.6963193414591307,1.1194222995464216,,,,,,,,,,,,
29167,0,USMissouriPolk,Missouri,Polk,2022-04-28 09:13:11,2021-09-15,0.4554100327128205,0.6963193414591307,1.1194222995464216,,,,,,,,,,,,
29167,0,USMissouriPolk,Missouri,Polk,2022-04-28 09:13:11,2021-09-16,0.5216788842131297,0.9227008630923027,1.7382821925459506,,,,,,,,,,,,
29167,0,USMissouriPolk,Missouri,Polk,2022-04-28 09:13:11,2021-09-17,0.5216788842131297,0.9227008630923027,1.7382821925459506,,,,,,,,,,,,
29167,0,USMissouriPolk,Missouri,Polk,2022-04-28 09:13:11,2021-09-18,0.5216788842131297,0.9227008630923027,1.7382821925459506,,,,,,,,,,,,
29167,0,USMissouriPolk,Missouri,Polk,2022-04-28 09:13:11,2021-09-19,0.5216788842131297,0.9227008630923027,1.7382821925459506,,,,,,,,,,,,
29167,0,USMissouriPolk,Missouri,Polk,2022-04-28 09:13:11,2021-09-20,0.5216788842131297,0.9227008630923027,1.7382821925459506,,,,,,,,,,,,
29167,0,USMissouriPolk,Missouri,Polk,2022-04-28 09:13:11,2021-09-21,0.5216788842131297,0.9227008630923027,1.7382821925459506,,,,,,,,,,,,
29167,0,USMissouriPolk,Missouri,Polk,2022-04-28 09:13:11,2021-09-22,0.5216788842131297,0.9227008630923027,1.7382821925459506,,,,,,,,,,,,
29167,0,USMissouriPolk,Missouri,Polk,2022-04-28 09:13:11,2021-09-23,0.5713114330152034,1.2280511208338865,2.836668507495805,,,,,,,,,,,,
29167,0,USMissouriPolk,Missouri,Polk,2022-04-28 09:13:11,2021-09-24,0.5713114330152034,1.2280511208338865,2.836668507495805,,,,,,,,,,,,
29167,0,USMissouriPolk,Missouri,Polk,2022-04-28 09:13:11,2021-09-25,0.5713114330152034,1.2280511208338865,2.836668507495805,,,,,,,,,,,,
29167,0,USMissouriPolk,Missouri,Polk,2022-04-28 09:13:11,2021-09-26,0.5713114330152034,1.2280511208338865,2.836668507495805,,,,,,,,,,,,
29167,0,USMissouriPolk,Missouri,Polk,2022-04-28 09:13:11,2021-09-27,0.5713114330152034,1.2280511208338865,2.836668507495805,,,,,,,,,,,,
29167,0,USMissouriPolk,Missouri,Polk,2022-04-28 09:13:11,2021-09-28,0.5713114330152034,1.2280511208338865,2.836668507495805,,,,,,,,,,,,
29167,0,USMissouriPolk,Missouri,Polk,2022-04-28 09:13:11,2021-09-29,0.5713114330152034,1.2280511208338865,2.836668507495805,,,,,,,,,,,,
29167,0,USMissouriPolk,Missouri,Polk,2022-04-28 09:13:11,2021-09-30,0.7983471665292311,1.8439935645971843,4.582351646116169,,,,,,,,,,,,
29167,0,USMissouriPolk,Missouri,Polk,2022-04-28 09:13:11,2021-10-01,0.7983471665292311,1.8439935645971843,4.582351646116169,,,,,,,,,,,,
29167,0,USMissouriPolk,Missouri,Polk,2022-04-28 09:13:11,2021-10-02,0.7983471665292311,1.8439935645971843,4.582351646116169,,,,,,,,,,,,
29167,0,USMissouriPolk,Missouri,Polk,2022-04-28 09:13:11,2021-10-03,0.7983471665292311,1.8439935645971843,4.582351646116169,,,,,,,,,,,,
29167,0,USMissouriPolk,Missouri,Polk,2022-04-28 09:13:11,2021-10-04,0.7983471665292311,1.8439935645971843,4.582351646116169,,,,,,,,,,,,
29167,0,USMissouriPolk,Missouri,Polk,2022-04-28 09:13:11,2021-10-05,0.7983471665292311,1.8439935645971843,4.582351646116169,,,,,,,,,,,,
29167,0,USMissouriPolk,Missouri,Polk,2022-04-28 09:13:11,2021-10-06,0.7983471665292311,1.8439935645971843,4.582351646116169,,,,,,,,,,,,
29167,0,USMissouriPolk,Missouri,Polk,2022-04-28 09:13:11,2021-10-07,0.5278850286651456,1.232824828874186,3.097895053186024,,,,,,,,,,,,
29167,0,USMissouriPolk,Missouri,Polk,2022-04-28 09:13:11,2021-10-08,0.5278850286651456,1.232824828874186,3.097895053186024,,,,,,,,,,,,
29167,0,USMissouriPolk,Missouri,Polk,2022-04-28 09:13:11,2021-10-09,0.5278850286651456,1.232824828874186,3.097895053186024,,,,,,,,,,,,
29167,0,USMissouriPolk,Missouri,Polk,2022-04-28 09:13:11,2021-10-10,0.5278850286651456,1.232824828874186,3.097895053186024,,,,,,,,,,,,
29167,0,USMissouriPolk,Missouri,Polk,2022-04-28 09:13:11,2021-10-11,0.5278850286651456,1.232824828874186,3.097895053186024,,,,,,,,,,,,
29167,0,USMissouriPolk,Missouri,Polk,2022-04-28 09:13:11,2021-10-12,0.5278850286651456,1.232824828874186,3.097895053186024,,,,,,,,,,,,
29167,0,USMissouriPolk,Missouri,Polk,2022-04-28 09:13:11,2021-10-13,0.5278850286651456,1.232824828874186,3.097895053186024,,,,,,,,,,,,
29167,0,USMissouriPolk,Missouri,Polk,2022-04-28 09:13:11,2021-10-14,0.26770879382989565,0.6331170810087944,1.6111843260255716,,,,,,,,,,,,
29167,0,USMissouriPolk,Missouri,Polk,2022-04-28 09:13:11,2021-10-15,0.26770879382989565,0.6331170810087944,1.6111843260255716,,,,,,,,,,,,
29167,0,USMissouriPolk,Missouri,Polk,2022-04-28 09:13:11,2021-10-16,0.26770879382989565,0.6331170810087944,1.6111843260255716,,,,,,,,,,,,
29167,0,USMissouriPolk,Missouri,Polk,2022-04-28 09:13:11,2021-10-17,0.26770879382989565,0.6331170810087944,1.6111843260255716,,,,,,,,,,,,
29167,0,USMissouriPolk,Missouri,Polk,2022-04-28 09:13:11,2021-10-18,0.26770879382989565,0.6331170810087944,1.6111843260255716,,,,,,,,,,,,
29167,0,USMissouriPolk,Missouri,Polk,2022-04-28 09:13:11,2021-10-19,0.26770879382989565,0.6331170810087944,1.6111843260255716,,,,,,,,,,,,
29167,0,USMissouriPolk,Missouri,Polk,2022-04-28 09:13:11,2021-10-20,0.26770879382989565,0.6331170810087944,1.6111843260255716,,,,,,,,,,,,
29167,0,USMissouriPolk,Missouri,Polk,2022-04-28 09:13:11,2021-10-21,0.3107281070257812,0.7554368615845993,1.9764932741725842,,,,,,,,,,,,
29167,0,USMissouriPolk,Missouri,Polk,2022-04-28 09:13:11,2021-10-22,0.3107281070257812,0.7554368615845993,1.9764932741725842,,,,,,,,,,,,
29167,0,USMissouriPolk,Missouri,Polk,2022-04-28 09:13:11,2021-10-23,0.3107281070257812,0.7554368615845993,1.9764932741725842,,,,,,,,,,,,
29167,0,USMissouriPolk,Missouri,Polk,2022-04-28 09:13:11,2021-10-24,0.3107281070257812,0.7554368615845993,1.9764932741725842,,,,,,,,,,,,
29167,0,USMissouriPolk,Missouri,Polk,2022-04-28 09:13:11,2021-10-25,0.3107281070257812,0.7554368615845993,1.9764932741725842,,,,,,,,,,,,
29167,0,USMissouriPolk,Missouri,Polk,2022-04-28 09:13:11,2021-10-26,0.3107281070257812,0.7554368615845993,1.9764932741725842,,,,,,,,,,,,
29167,0,USMissouriPolk,Missouri,Polk,2022-04-28 09:13:11,2021-10-27,0.3107281070257812,0.7554368615845993,1.9764932741725842,,,,,,,,,,,,
29167,0,USMissouriPolk,Missouri,Polk,2022-04-28 09:13:11,2021-10-28,0.4592210435402881,1.066939596959636,2.667121099408854,,,,,,,,,,,,
29167,0,USMissouriPolk,Missouri,Polk,2022-04-28 09:13:11,2021-10-29,0.4592210435402881,1.066939596959636,2.667121099408854,,,,,,,,,,,,
29167,0,USMissouriPolk,Missouri,Polk,2022-04-28 09:13:11,2021-10-30,0.4592210435402881,1.066939596959636,2.667121099408854,,,,,,,,,,,,
29167,0,USMissouriPolk,Missouri,Polk,2022-04-28 09:13:11,2021-10-31,0.4592210435402881,1.066939596959636,2.667121099408854,,,,,,,,,,,,
29167,0,USMissouriPolk,Missouri,Polk,2022-04-28 09:13:11,2021-11-01,0.4592210435402881,1.066939596959636,2.667121099408854,,,,,,,,,,,,
29167,0,USMissouriPolk,Missouri,Polk,2022-04-28 09:13:11,2021-11-02,0.4592210435402881,1.066939596959636,2.667121099408854,,,,,,,,,,,,
29167,0,USMissouriPolk,Missouri,Polk,2022-04-28 09:13:11,2021-11-03,0.4592210435402881,1.066939596959636,2.667121099408854,,,,,,,,,,,,
29167,0,USMissouriPolk,Missouri,Polk,2022-04-28 09:13:11,2021-11-04,0.45125427251357947,1.032227567264957,2.540074074104253,,,,,,,,,,,,
29167,0,USMissouriPolk,Missouri,Polk,2022-04-28 09:13:11,2021-11-05,0.45125427251357947,1.032227567264957,2.540074074104253,,,,,,,,,,,,
29167,0,USMissouriPolk,Missouri,Polk,2022-04-28 09:13:11,2021-11-06,0.45125427251357947,1.032227567264957,2.540074074104253,,,,,,,,,,,,
29167,0,USMissouriPolk,Missouri,Polk,2022-04-28 09:13:11,2021-11-07,0.45125427251357947,1.032227567264957,2.540074074104253,,,,,,,,,,,,
29167,0,USMissouriPolk,Missouri,Polk,2022-04-28 09:13:11,2021-11-08,0.45125427251357947,1.032227567264957,2.540074074104253,,,,,,,,,,,,
29167,0,USMissouriPolk,Missouri,Polk,2022-04-28 09:13:11,2021-11-09,0.45125427251357947,1.032227567264957,2.540074074104253,,,,,,,,,,,,
29167,0,USMissouriPolk,Missouri,Polk,2022-04-28 09:13:11,2021-11-10,0.45125427251357947,1.032227567264957,2.540074074104253,,,,,,,,,,,,
29167,0,USMissouriPolk,Missouri,Polk,2022-04-28 09:13:11,2021-11-11,0.6803999023886266,1.5974469195525944,4.035605915184139,,,,,,,,,,,,
29167,0,USMissouriPolk,Missouri,Polk,2022-04-28 09:13:11,2021-11-12,0.6803999023886266,1.5974469195525944,4.035605915184139,,,,,,,,,,,,
29167,0,USMissouriPolk,Missouri,Polk,2022-04-28 09:13:11,2021-11-13,0.6803999023886266,1.5974469195525944,4.035605915184139,,,,,,,,,,,,
29167,0,USMissouriPolk,Missouri,Polk,2022-04-28 09:13:11,2021-11-14,0.6803999023886266,1.5974469195525944,4.035605915184139,,,,,,,,,,,,
29167,0,USMissouriPolk,Missouri,Polk,2022-04-28 09:13:11,2021-11-15,0.6803999023886266,1.5974469195525944,4.035605915184139,,,,,,,,,,,,
29167,0,USMissouriPolk,Missouri,Polk,2022-04-28 09:13:11,2021-11-16,0.6803999023886266,1.5974469195525944,4.035605915184139,,,,,,,,,,,,
29167,0,USMissouriPolk,Missouri,Polk,2022-04-28 09:13:11,2021-11-17,0.6803999023886266,1.5974469195525944,4.035605915184139,,,,,,,,,,,,
29167,0,USMissouriPolk,Missouri,Polk,2022-04-28 09:13:11,2021-11-18,1.4201023646753617,3.1563529675710242,7.543831297626855,,,,,,,,,,,,
29167,0,USMissouriPolk,Missouri,Polk,2022-04-28 09:13:11,2021-11-19,1.4201023646753617,3.1563529675710242,7.543831297626855,,,,,,,,,,,,
29167,0,USMissouriPolk,Missouri,Polk,2022-04-28 09:13:11,2021-11-20,1.4201023646753617,3.1563529675710242,7.543831297626855,,,,,,,,,,,,
29167,0,USMissouriPolk,Missouri,Polk,2022-04-28 09:13:11,2021-11-21,1.4201023646753617,3.1563529675710242,7.543831297626855,,,,,,,,,,,,
29167,0,USMissouriPolk,Missouri,Polk,2022-04-28 09:13:11,2021-11-22,1.4201023646753617,3.1563529675710242,7.543831297626855,,,,,,,,,,,,
29167,0,USMissouriPolk,Missouri,Polk,2022-04-28 09:13:11,2021-11-23,1.4201023646753617,3.1563529675710242,7.543831297626855,,,,,,,,,,,,
29167,0,USMissouriPolk,Missouri,Polk,2022-04-28 09:13:11,2021-11-24,1.4201023646753617,3.1563529675710242,7.543831297626855,,,,,,,,,,,,
29167,0,USMissouriPolk,Missouri,Polk,2022-04-28 09:13:11,2021-11-25,0.9678330077306516,2.215635750778728,5.4565358860153115,,,,,,,,,,,,
29167,0,USMissouriPolk,Missouri,Polk,2022-04-28 09:13:11,2021-11-26,0.9678330077306516,2.215635750778728,5.4565358860153115,,,,,,,,,,,,
29167,0,USMissouriPolk,Missouri,Polk,2022-04-28 09:13:11,2021-11-27,0.9678330077306516,2.215635750778728,5.4565358860153115,,,,,,,,,,,,
29167,0,USMissouriPolk,Missouri,Polk,2022-04-28 09:13:11,2021-11-28,0.9678330077306516,2.215635750778728,5.4565358860153115,,,,,,,,,,,,
29167,0,USMissouriPolk,Missouri,Polk,2022-04-28 09:13:11,2021-11-29,0.9678330077306516,2.215635750778728,5.4565358860153115,,,,,,,,,,,,
29167,0,USMissouriPolk,Missouri,Polk,2022-04-28 09:13:11,2021-11-30,0.9678330077306516,2.215635750778728,5.4565358860153115,,,,,,,,,,,,
29167,0,USMissouriPolk,Missouri,Polk,2022-04-28 09:13:11,2021-12-01,0.9678330077306516,2.215635750778728,5.4565358860153115,,,,,,,,,,,,
29167,0,USMissouriPolk,Missouri,Polk,2022-04-28 09:13:11,2021-12-02,1.7052209613741809,3.677681685624868,8.524123112285215,,,,,,,,,,,,
29167,0,USMissouriPolk,Missouri,Polk,2022-04-28 09:13:11,2021-12-03,1.7052209613741809,3.677681685624868,8.524123112285215,,,,,,,,,,,,
29167,0,USMissouriPolk,Missouri,Polk,2022-04-28 09:13:11,2021-12-04,1.7052209613741809,3.677681685624868,8.524123112285215,,,,,,,,,,,,
29167,0,USMissouriPolk,Missouri,Polk,2022-04-28 09:13:11,2021-12-05,1.7052209613741809,3.677681685624868,8.524123112285215,,,,,,,,,,,,
29167,0,USMissouriPolk,Missouri,Polk,2022-04-28 09:13:11,2021-12-06,1.7052209613741809,3.677681685624868,8.524123112285215,,,,,,,,,,,,
29167,0,USMissouriPolk,Missouri,Polk,2022-04-28 09:13:11,2021-12-07,1.7052209613741809,3.677681685624868,8.524123112285215,,,,,,,,,,,,
29167,0,USMissouriPolk,Missouri,Polk,2022-04-28 09:13:11,2021-12-08,1.7052209613741809,3.677681685624868,8.524123112285215,,,,,,,,,,,,
29167,0,USMissouriPolk,Missouri,Polk,2022-04-28 09:13:11,2021-12-09,1.8749214283989044,3.9367262310356215,8.877126751484475,,,,,,,,,,,,
29167,0,USMissouriPolk,Missouri,Polk,2022-04-28 09:13:11,2021-12-10,1.8749214283989044,3.9367262310356215,8.877126751484475,,,,,,,,,,,,
29167,0,USMissouriPolk,Missouri,Polk,2022-04-28 09:13:11,2021-12-11,1.8749214283989044,3.9367262310356215,8.877126751484475,,,,,,,,,,,,
29167,0,USMissouriPolk,Missouri,Polk,2022-04-28 09:13:11,2021-12-12,1.8749214283989044,3.9367262310356215,8.877126751484475,,,,,,,,,,,,
29167,0,USMissouriPolk,Missouri,Polk,2022-04-28 09:13:11,2021-12-13,1.8749214283989044,3.9367262310356215,8.877126751484475,,,,,,,,,,,,
29167,0,USMissouriPolk,Missouri,Polk,2022-04-28 09:13:11,2021-12-14,1.8749214283989044,3.9367262310356215,8.877126751484475,,,,,,,,,,,,
29167,0,USMissouriPolk,Missouri,Polk,2022-04-28 09:13:11,2021-12-15,1.8749214283989044,3.9367262310356215,8.877126751484475,,,,,,,,,,,,
29167,0,USMissouriPolk,Missouri,Polk,2022-04-28 09:13:11,2021-12-16,1.9958508260529424,4.371588077627837,10.293781776110873,,,,,,,,,,,,
29167,0,USMissouriPolk,Missouri,Polk,2022-04-28 09:13:11,2021-12-17,1.9958508260529424,4.371588077627837,10.293781776110873,,,,,,,,,,,,
29167,0,USMissouriPolk,Missouri,Polk,2022-04-28 09:13:11,2021-12-18,1.9958508260529424,4.371588077627837,10.293781776110873,,,,,,,,,,,,
29167,0,USMissouriPolk,Missouri,Polk,2022-04-28 09:13:11,2021-12-19,1.9958508260529424,4.371588077627837,10.293781776110873,,,,,,,,,,,,
29167,0,USMissouriPolk,Missouri,Polk,2022-04-28 09:13:11,2021-12-20,1.9958508260529424,4.371588077627837,10.293781776110873,,,,,,,,,,,,
29167,0,USMissouriPolk,Missouri,Polk,2022-04-28 09:13:11,2021-12-21,1.9958508260529424,4.371588077627837,10.293781776110873,,,,,,,,,,,,
29167,0,USMissouriPolk,Missouri,Polk,2022-04-28 09:13:11,2021-12-22,1.9958508260529424,4.371588077627837,10.293781776110873,,,,,,,,,,,,
29167,0,USMissouriPolk,Missouri,Polk,2022-04-28 09:13:11,2021-12-23,1.7902900392410344,4.033294363935509,9.773006088186154,,,,,,,,,,,,
29167,0,USMissouriPolk,Missouri,Polk,2022-04-28 09:13:11,2021-12-24,1.7902900392410344,4.033294363935509,9.773006088186154,,,,,,,,,,,,
29167,0,USMissouriPolk,Missouri,Polk,2022-04-28 09:13:11,2021-12-25,1.7902900392410344,4.033294363935509,9.773006088186154,,,,,,,,,,,,
29167,0,USMissouriPolk,Missouri,Polk,2022-04-28 09:13:11,2021-12-26,1.7902900392410344,4.033294363935509,9.773006088186154,,,,,,,,,,,,
29167,0,USMissouriPolk,Missouri,Polk,2022-04-28 09:13:11,2021-12-27,1.7902900392410344,4.033294363935509,9.773006088186154,,,,,,,,,,,,
29167,0,USMissouriPolk,Missouri,Polk,2022-04-28 09:13:11,2021-12-28,1.7902900392410344,4.033294363935509,9.773006088186154,,,,,,,,,,,,
29167,0,USMissouriPolk,Missouri,Polk,2022-04-28 09:13:11,2021-12-29,1.7902900392410344,4.033294363935509,9.773006088186154,,,,,,,,,,,,
29167,0,USMissouriPolk,Missouri,Polk,2022-04-28 09:13:11,2021-12-30,2.6079621624890645,5.504998086601818,12.48136434609394,,,,,,,,,,,,
29167,0,USMissouriPolk,Missouri,Polk,2022-04-28 09:13:11,2021-12-31,2.6079621624890645,5.504998086601818,12.48136434609394,,,,,,,,,,,,
29167,0,USMissouriPolk,Missouri,Polk,2022-04-28 09:13:11,2022-01-01,2.6079621624890645,5.504998086601818,12.48136434609394,,,,,,,,,,,,
29167,0,USMissouriPolk,Missouri,Polk,2022-04-28 09:13:11,2022-01-02,2.6079621624890645,5.504998086601818,12.48136434609394,,,,,,,,,,,,
29167,0,USMissouriPolk,Missouri,Polk,2022-04-28 09:13:11,2022-01-03,2.6079621624890645,5.504998086601818,12.48136434609394,,,,,,,,,,,,
29167,0,USMissouriPolk,Missouri,Polk,2022-04-28 09:13:11,2022-01-04,2.6079621624890645,5.504998086601818,12.48136434609394,,,,,,,,,,,,
29167,0,USMissouriPolk,Missouri,Polk,2022-04-28 09:13:11,2022-01-05,2.6079621624890645,5.504998086601818,12.48136434609394,,,,,,,,,,,,
29167,0,USMissouriPolk,Missouri,Polk,2022-04-28 09:13:11,2022-01-06,3.619691912646661,7.183452012729958,15.280431716828385,,,,,,,,,,,,
29167,0,USMissouriPolk,Missouri,Polk,2022-04-28 09:13:11,2022-01-07,3.619691912646661,7.183452012729958,15.280431716828385,,,,,,,,,,,,
29167,0,USMissouriPolk,Missouri,Polk,2022-04-28 09:13:11,2022-01-08,3.619691912646661,7.183452012729958,15.280431716828385,,,,,,,,,,,,
29167,0,USMissouriPolk,Missouri,Polk,2022-04-28 09:13:11,2022-01-09,3.619691912646661,7.183452012729958,15.280431716828385,,,,,,,,,,,,
29167,0,USMissouriPolk,Missouri,Polk,2022-04-28 09:13:11,2022-01-10,3.619691912646661,7.183452012729958,15.280431716828385,,,,,,,,,,,,
29167,0,USMissouriPolk,Missouri,Polk,2022-04-28 09:13:11,2022-01-11,3.619691912646661,7.183452012729958,15.280431716828385,,,,,,,,,,,,
29167,0,USMissouriPolk,Missouri,Polk,2022-04-28 09:13:11,2022-01-12,3.619691912646661,7.183452012729958,15.280431716828385,,,,,,,,,,,,
29167,0,USMissouriPolk,Missouri,Polk,2022-04-28 09:13:11,2022-01-13,6.111398365842306,11.86252711923813,24.656816869146283,,,,,,,,,,,,
29167,0,USMissouriPolk,Missouri,Polk,2022-04-28 09:13:11,2022-01-14,6.111398365842306,11.86252711923813,24.656816869146283,,,,,,,,,,,,
29167,0,USMissouriPolk,Missouri,Polk,2022-04-28 09:13:11,2022-01-15,6.111398365842306,11.86252711923813,24.656816869146283,,,,,,,,,,,,
29167,0,USMissouriPolk,Missouri,Polk,2022-04-28 09:13:11,2022-01-16,6.111398365842306,11.86252711923813,24.656816869146283,,,,,,,,,,,,
29167,0,USMissouriPolk,Missouri,Polk,2022-04-28 09:13:11,2022-01-17,6.111398365842306,11.86252711923813,24.656816869146283,,,,,,,,,,,,
29167,0,USMissouriPolk,Missouri,Polk,2022-04-28 09:13:11,2022-01-18,6.111398365842306,11.86252711923813,24.656816869146283,,,,,,,,,,,,
29167,0,USMissouriPolk,Missouri,Polk,2022-04-28 09:13:11,2022-01-19,6.111398365842306,11.86252711923813,24.656816869146283,,,,,,,,,,,,
29167,0,USMissouriPolk,Missouri,Polk,2022-04-28 09:13:11,2022-01-20,6.6287562693561926,13.023292654609186,27.413647977920785,,,,,,,,,,,,
29167,0,USMissouriPolk,Missouri,Polk,2022-04-28 09:13:11,2022-01-21,6.6287562693561926,13.023292654609186,27.413647977920785,,,,,,,,,,,,
29167,0,USMissouriPolk,Missouri,Polk,2022-04-28 09:13:11,2022-01-22,6.6287562693561926,13.023292654609186,27.413647977920785,,,,,,,,,,,,
29167,0,USMissouriPolk,Missouri,Polk,2022-04-28 09:13:11,2022-01-23,6.6287562693561926,13.023292654609186,27.413647977920785,,,,,,,,,,,,
29167,0,USMissouriPolk,Missouri,Polk,2022-04-28 09:13:11,2022-01-24,6.6287562693561926,13.023292654609186,27.413647977920785,,,,,,,,,,,,
29167,0,USMissouriPolk,Missouri,Polk,2022-04-28 09:13:11,2022-01-25,6.6287562693561926,13.023292654609186,27.413647977920785,,,,,,,,,,,,
29167,0,USMissouriPolk,Missouri,Polk,2022-04-28 09:13:11,2022-01-26,6.6287562693561926,13.023292654609186,27.413647977920785,,,,,,,,,,,,
29167,0,USMissouriPolk,Missouri,Polk,2022-04-28 09:13:11,2022-01-27,5.474867184734318,11.772848642170064,27.204577879943137,,,,,,,,,,,,
29167,0,USMissouriPolk,Missouri,Polk,2022-04-28 09:13:11,2022-01-28,5.474867184734318,11.772848642170064,27.204577879943137,,,,,,,,,,,,
29167,0,USMissouriPolk,Missouri,Polk,2022-04-28 09:13:11,2022-01-29,5.474867184734318,11.772848642170064,27.204577879943137,,,,,,,,,,,,
29167,0,USMissouriPolk,Missouri,Polk,2022-04-28 09:13:11,2022-01-30,5.474867184734318,11.772848642170064,27.204577879943137,,,,,,,,,,,,
29167,0,USMissouriPolk,Missouri,Polk,2022-04-28 09:13:11,2022-01-31,5.474867184734318,11.772848642170064,27.204577879943137,,,,,,,,,,,,
29167,0,USMissouriPolk,Missouri,Polk,2022-04-28 09:13:11,2022-02-01,5.474867184734318,11.772848642170064,27.204577879943137,,,,,,,,,,,,
29167,0,USMissouriPolk,Missouri,Polk,2022-04-28 09:13:11,2022-02-02,5.474867184734318,11.772848642170064,27.204577879943137,,,,,,,,,,,,
29167,0,USMissouriPolk,Missouri,Polk,2022-04-28 09:13:11,2022-02-03,3.0174189500218134,6.748933816932494,16.233776768010316,,,,,,,,,,,,
29167,0,USMissouriPolk,Missouri,Polk,2022-04-28 09:13:11,2022-02-04,3.0174189500218134,6.748933816932494,16.233776768010316,,,,,,,,,,,,
29167,0,USMissouriPolk,Missouri,Polk,2022-04-28 09:13:11,2022-02-05,3.0174189500218134,6.748933816932494,16.233776768010316,,,,,,,,,,,,
29167,0,USMissouriPolk,Missouri,Polk,2022-04-28 09:13:11,2022-02-06,3.0174189500218134,6.748933816932494,16.233776768010316,,,,,,,,,,,,
29167,0,USMissouriPolk,Missouri,Polk,2022-04-28 09:13:11,2022-02-07,3.0174189500218134,6.748933816932494,16.233776768010316,,,,,,,,,,,,
29167,0,USMissouriPolk,Missouri,Polk,2022-04-28 09:13:11,2022-02-08,3.0174189500218134,6.748933816932494,16.233776768010316,,,,,,,,,,,,
29167,0,USMissouriPolk,Missouri,Polk,2022-04-28 09:13:11,2022-02-09,3.0174189500218134,6.748933816932494,16.233776768010316,,,,,,,,,,,,
29167,0,USMissouriPolk,Missouri,Polk,2022-04-28 09:13:11,2022-02-10,2.3146359450095253,5.249741465685958,12.807509269362175,,,,,,,,,,,,
29167,0,USMissouriPolk,Missouri,Polk,2022-04-28 09:13:11,2022-02-11,2.3146359450095253,5.249741465685958,12.807509269362175,,,,,,,,,,,,
29167,0,USMissouriPolk,Missouri,Polk,2022-04-28 09:13:11,2022-02-12,2.3146359450095253,5.249741465685958,12.807509269362175,,,,,,,,,,,,
29167,0,USMissouriPolk,Missouri,Polk,2022-04-28 09:13:11,2022-02-13,2.3146359450095253,5.249741465685958,12.807509269362175,,,,,,,,,,,,
29167,0,USMissouriPolk,Missouri,Polk,2022-04-28 09:13:11,2022-02-14,2.3146359450095253,5.249741465685958,12.807509269362175,,,,,,,,,,,,
29167,0,USMissouriPolk,Missouri,Polk,2022-04-28 09:13:11,2022-02-15,2.3146359450095253,5.249741465685958,12.807509269362175,,,,,,,,,,,,
29167,0,USMissouriPolk,Missouri,Polk,2022-04-28 09:13:11,2022-02-16,2.3146359450095253,5.249741465685958,12.807509269362175,,,,,,,,,,,,
29167,0,USMissouriPolk,Missouri,Polk,2022-04-28 09:13:11,2022-02-17,0.981108561382497,2.4165390709522163,6.405459017105013,,,,,,,,,,,,
29167,0,USMissouriPolk,Missouri,Polk,2022-04-28 09:13:11,2022-02-18,0.981108561382497,2.4165390709522163,6.405459017105013,,,,,,,,,,,,
29167,0,USMissouriPolk,Missouri,Polk,2022-04-28 09:13:11,2022-02-19,0.981108561382497,2.4165390709522163,6.405459017105013,,,,,,,,,,,,
29167,0,USMissouriPolk,Missouri,Polk,2022-04-28 09:13:11,2022-02-20,0.981108561382497,2.4165390709522163,6.405459017105013,,,,,,,,,,,,
29167,0,USMissouriPolk,Missouri,Polk,2022-04-28 09:13:11,2022-02-21,0.981108561382497,2.4165390709522163,6.405459017105013,,,,,,,,,,,,
29167,0,USMissouriPolk,Missouri,Polk,2022-04-28 09:13:11,2022-02-22,0.981108561382497,2.4165390709522163,6.405459017105013,,,,,,,,,,,,
29167,0,USMissouriPolk,Missouri,Polk,2022-04-28 09:13:11,2022-02-23,0.981108561382497,2.4165390709522163,6.405459017105013,,,,,,,,,,,,
29167,0,USMissouriPolk,Missouri,Polk,2022-04-28 09:13:11,2022-02-24,0.2881890853550995,0.8166624395458634,2.4867396674162703,,,,,,,,,,,,
29167,0,USMissouriPolk,Missouri,Polk,2022-04-28 09:13:11,2022-02-25,0.2881890853550995,0.8166624395458634,2.4867396674162703,,,,,,,,,,,,
29167,0,USMissouriPolk,Missouri,Polk,2022-04-28 09:13:11,2022-02-26,0.2881890853550995,0.8166624395458634,2.4867396674162703,,,,,,,,,,,,
29167,0,USMissouriPolk,Missouri,Polk,2022-04-28 09:13:11,2022-02-27,0.2881890853550995,0.8166624395458634,2.4867396674162703,,,,,,,,,,,,
29167,0,USMissouriPolk,Missouri,Polk,2022-04-28 09:13:11,2022-02-28,0.2881890853550995,0.8166624395458634,2.4867396674162703,,,,,,,,,,,,
29167,0,USMissouriPolk,Missouri,Polk,2022-04-28 09:13:11,2022-03-01,0.2881890853550995,0.8166624395458634,2.4867396674162703,,,,,,,,,,,,
29167,0,USMissouriPolk,Missouri,Polk,2022-04-28 09:13:11,2022-03-02,0.2881890853550995,0.8166624395458634,2.4867396674162703,,,,,,,,,,,,
29167,0,USMissouriPolk,Missouri,Polk,2022-04-28 09:13:11,2022-03-03,0.1509402752730159,0.39669750680019933,1.1215794829118264,,,,,,,,,,,,
29167,0,USMissouriPolk,Missouri,Polk,2022-04-28 09:13:11,2022-03-04,0.1509402752730159,0.39669750680019933,1.1215794829118264,,,,,,,,,,,,
29167,0,USMissouriPolk,Missouri,Polk,2022-04-28 09:13:11,2022-03-05,0.1509402752730159,0.39669750680019933,1.1215794829118264,,,,,,,,,,,,
29167,0,USMissouriPolk,Missouri,Polk,2022-04-28 09:13:11,2022-03-06,0.1509402752730159,0.39669750680019933,1.1215794829118264,,,,,,,,,,,,
29167,0,USMissouriPolk,Missouri,Polk,2022-04-28 09:13:11,2022-03-07,0.1509402752730159,0.39669750680019933,1.1215794829118264,,,,,,,,,,,,
29167,0,USMissouriPolk,Missouri,Polk,2022-04-28 09:13:11,2022-03-08,0.1509402752730159,0.39669750680019933,1.1215794829118264,,,,,,,,,,,,
29167,0,USMissouriPolk,Missouri,Polk,2022-04-28 09:13:11,2022-03-09,0.1509402752730159,0.39669750680019933,1.1215794829118264,,,,,,,,,,,,
29167,0,USMissouriPolk,Missouri,Polk,2022-04-28 09:13:11,2022-03-10,0.09024804948526399,0.22818136289504623,0.6208235618074472,,,,,,,,,,,,
29167,0,USMissouriPolk,Missouri,Polk,2022-04-28 09:13:11,2022-03-11,0.09024804948526399,0.22818136289504623,0.6208235618074472,,,,,,,,,,,,
29167,0,USMissouriPolk,Missouri,Polk,2022-04-28 09:13:11,2022-03-12,0.09024804948526399,0.22818136289504623,0.6208235618074472,,,,,,,,,,,,
29167,0,USMissouriPolk,Missouri,Polk,2022-04-28 09:13:11,2022-03-13,0.09024804948526399,0.22818136289504623,0.6208235618074472,,,,,,,,,,,,
29167,0,USMissouriPolk,Missouri,Polk,2022-04-28 09:13:11,2022-03-14,0.09024804948526399,0.22818136289504623,0.6208235618074472,,,,,,,,,,,,
29167,0,USMissouriPolk,Missouri,Polk,2022-04-28 09:13:11,2022-03-15,0.09024804948526399,0.22818136289504623,0.6208235618074472,,,,,,,,,,,,
29167,0,USMissouriPolk,Missouri,Polk,2022-04-28 09:13:11,2022-03-16,0.09024804948526399,0.22818136289504623,0.6208235618074472,,,,,,,,,,,,
29167,0,USMissouriPolk,Missouri,Polk,2022-04-28 09:13:11,2022-03-17,0.21506082318374448,0.5403758815728774,1.4611285944191066,,,,,,,,,,,,
29167,0,USMissouriPolk,Missouri,Polk,2022-04-28 09:13:11,2022-03-18,0.21506082318374448,0.5403758815728774,1.4611285944191066,,,,,,,,,,,,
29167,0,USMissouriPolk,Missouri,Polk,2022-04-28 09:13:11,2022-03-19,0.21506082318374448,0.5403758815728774,1.4611285944191066,,,,,,,,,,,,
29167,0,USMissouriPolk,Missouri,Polk,2022-04-28 09:13:11,2022-03-20,0.21506082318374448,0.5403758815728774,1.4611285944191066,,,,,,,,,,,,
29167,0,USMissouriPolk,Missouri,Polk,2022-04-28 09:13:11,2022-03-21,0.21506082318374448,0.5403758815728774,1.4611285944191066,,,,,,,,,,,,
29167,0,USMissouriPolk,Missouri,Polk,2022-04-28 09:13:11,2022-03-22,0.21506082318374448,0.5403758815728774,1.4611285944191066,,,,,,,,,,,,
29167,0,USMissouriPolk,Missouri,Polk,2022-04-28 09:13:11,2022-03-23,0.21506082318374448,0.5403758815728774,1.4611285944191066,,,,,,,,,,,,
29167,0,USMissouriPolk,Missouri,Polk,2022-04-28 09:13:11,2022-03-24,0.29756281504053694,0.816792146985148,2.4105278821756735,,,,,,,,,,,,
29167,0,USMissouriPolk,Missouri,Polk,2022-04-28 09:13:11,2022-03-25,0.29756281504053694,0.816792146985148,2.4105278821756735,,,,,,,,,,,,
29167,0,USMissouriPolk,Missouri,Polk,2022-04-28 09:13:11,2022-03-26,0.29756281504053694,0.816792146985148,2.4105278821756735,,,,,,,,,,,,
29167,0,USMissouriPolk,Missouri,Polk,2022-04-28 09:13:11,2022-03-27,0.29756281504053694,0.816792146985148,2.4105278821756735,,,,,,,,,,,,
29167,0,USMissouriPolk,Missouri,Polk,2022-04-28 09:13:11,2022-03-28,0.29756281504053694,0.816792146985148,2.4105278821756735,,,,,,,,,,,,
29167,0,USMissouriPolk,Missouri,Polk,2022-04-28 09:13:11,2022-03-29,0.29756281504053694,0.816792146985148,2.4105278821756735,,,,,,,,,,,,
29167,0,USMissouriPolk,Missouri,Polk,2022-04-28 09:13:11,2022-03-30,0.29756281504053694,0.816792146985148,2.4105278821756735,,,,,,,,,,,,
29167,0,USMissouriPolk,Missouri,Polk,2022-04-28 09:13:11,2022-03-31,0.224287467310172,0.9174219151238332,3.9829144068725175,,,,,,,,,,,,
29167,0,USMissouriPolk,Missouri,Polk,2022-04-28 09:13:11,2022-04-01,0.224287467310172,0.9174219151238332,3.9829144068725175,,,,,,,,,,,,
29167,0,USMissouriPolk,Missouri,Polk,2022-04-28 09:13:11,2022-04-02,0.224287467310172,0.9174219151238332,3.9829144068725175,,,,,,,,,,,,
29167,0,USMissouriPolk,Missouri,Polk,2022-04-28 09:13:11,2022-04-03,0.224287467310172,0.9174219151238332,3.9829144068725175,,,,,,,,,,,,
29167,0,USMissouriPolk,Missouri,Polk,2022-04-28 09:13:11,2022-04-04,0.224287467310172,0.9174219151238332,3.9829144068725175,,,,,,,,,,,,
29167,0,USMissouriPolk,Missouri,Polk,2022-04-28 09:13:11,2022-04-05,0.224287467310172,0.9174219151238332,3.9829144068725175,,,,,,,,,,,,
29167,0,USMissouriPolk,Missouri,Polk,2022-04-28 09:13:11,2022-04-06,0.224287467310172,0.9174219151238332,3.9829144068725175,,,,,,,,,,,,
