FIPS,HR_UID,nameid,province,region,analysisTime,dates,pointprevalence_025,pointprevalence_50,pointprevalence_975,pointinfections_025,pointinfections_50,pointinfections_975,pointinfectious_025,pointinfectious_50,pointinfectious_975,pointinfectiousprevalence_025,pointinfectiousprevalence_50,pointinfectiousprevalence_975,infectrate_025,infectrate_50,infectrate_975
38023,0,USNorthDakotaDivide,North Dakota,Divide,2022-04-28 09:13:11,2020-03-19,0,0,0,,,,,,,,,,,,
38023,0,USNorthDakotaDivide,North Dakota,Divide,2022-04-28 09:13:11,2020-03-20,0,0,0,,,,,,,,,,,,
38023,0,USNorthDakotaDivide,North Dakota,Divide,2022-04-28 09:13:11,2020-03-21,0,0,0,,,,,,,,,,,,
38023,0,USNorthDakotaDivide,North Dakota,Divide,2022-04-28 09:13:11,2020-03-22,0,0,0,,,,,,,,,,,,
38023,0,USNorthDakotaDivide,North Dakota,Divide,2022-04-28 09:13:11,2020-03-23,0,0,0,,,,,,,,,,,,
38023,0,USNorthDakotaDivide,North Dakota,Divide,2022-04-28 09:13:11,2020-03-24,0,0,0,,,,,,,,,,,,
38023,0,USNorthDakotaDivide,North Dakota,Divide,2022-04-28 09:13:11,2020-03-25,0,0,0,,,,,,,,,,,,
38023,0,USNorthDakotaDivide,North Dakota,Divide,2022-04-28 09:13:11,2020-03-26,0.20747554148039843,0.4346394932579504,0.9777960175803837,,,,,,,,,,,,
38023,0,USNorthDakotaDivide,North Dakota,Divide,2022-04-28 09:13:11,2020-03-27,0.20747554148039843,0.4346394932579504,0.9777960175803837,,,,,,,,,,,,
38023,0,USNorthDakotaDivide,North Dakota,Divide,2022-04-28 09:13:11,2020-03-28,0.20747554148039843,0.4346394932579504,0.9777960175803837,,,,,,,,,,,,
38023,0,USNorthDakotaDivide,North Dakota,Divide,2022-04-28 09:13:11,2020-03-29,0.20747554148039843,0.4346394932579504,0.9777960175803837,,,,,,,,,,,,
38023,0,USNorthDakotaDivide,North Dakota,Divide,2022-04-28 09:13:11,2020-03-30,0.20747554148039843,0.4346394932579504,0.9777960175803837,,,,,,,,,,,,
38023,0,USNorthDakotaDivide,North Dakota,Divide,2022-04-28 09:13:11,2020-03-31,0.20747554148039843,0.4346394932579504,0.9777960175803837,,,,,,,,,,,,
38023,0,USNorthDakotaDivide,North Dakota,Divide,2022-04-28 09:13:11,2020-04-01,0.20747554148039843,0.4346394932579504,0.9777960175803837,,,,,,,,,,,,
38023,0,USNorthDakotaDivide,North Dakota,Divide,2022-04-28 09:13:11,2020-04-02,0,0,0,,,,,,,,,,,,
38023,0,USNorthDakotaDivide,North Dakota,Divide,2022-04-28 09:13:11,2020-04-03,0,0,0,,,,,,,,,,,,
38023,0,USNorthDakotaDivide,North Dakota,Divide,2022-04-28 09:13:11,2020-04-04,0,0,0,,,,,,,,,,,,
38023,0,USNorthDakotaDivide,North Dakota,Divide,2022-04-28 09:13:11,2020-04-05,0,0,0,,,,,,,,,,,,
38023,0,USNorthDakotaDivide,North Dakota,Divide,2022-04-28 09:13:11,2020-04-06,0,0,0,,,,,,,,,,,,
38023,0,USNorthDakotaDivide,North Dakota,Divide,2022-04-28 09:13:11,2020-04-07,0,0,0,,,,,,,,,,,,
38023,0,USNorthDakotaDivide,North Dakota,Divide,2022-04-28 09:13:11,2020-04-08,0,0,0,,,,,,,,,,,,
38023,0,USNorthDakotaDivide,North Dakota,Divide,2022-04-28 09:13:11,2020-04-09,0,0,0,,,,,,,,,,,,
38023,0,USNorthDakotaDivide,North Dakota,Divide,2022-04-28 09:13:11,2020-04-10,0,0,0,,,,,,,,,,,,
38023,0,USNorthDakotaDivide,North Dakota,Divide,2022-04-28 09:13:11,2020-04-11,0,0,0,,,,,,,,,,,,
38023,0,USNorthDakotaDivide,North Dakota,Divide,2022-04-28 09:13:11,2020-04-12,0,0,0,,,,,,,,,,,,
38023,0,USNorthDakotaDivide,North Dakota,Divide,2022-04-28 09:13:11,2020-04-13,0,0,0,,,,,,,,,,,,
38023,0,USNorthDakotaDivide,North Dakota,Divide,2022-04-28 09:13:11,2020-04-14,0,0,0,,,,,,,,,,,,
38023,0,USNorthDakotaDivide,North Dakota,Divide,2022-04-28 09:13:11,2020-04-15,0,0,0,,,,,,,,,,,,
38023,0,USNorthDakotaDivide,North Dakota,Divide,2022-04-28 09:13:11,2020-04-16,0,0,0,,,,,,,,,,,,
38023,0,USNorthDakotaDivide,North Dakota,Divide,2022-04-28 09:13:11,2020-04-17,0,0,0,,,,,,,,,,,,
38023,0,USNorthDakotaDivide,North Dakota,Divide,2022-04-28 09:13:11,2020-04-18,0,0,0,,,,,,,,,,,,
38023,0,USNorthDakotaDivide,North Dakota,Divide,2022-04-28 09:13:11,2020-04-19,0,0,0,,,,,,,,,,,,
38023,0,USNorthDakotaDivide,North Dakota,Divide,2022-04-28 09:13:11,2020-04-20,0,0,0,,,,,,,,,,,,
38023,0,USNorthDakotaDivide,North Dakota,Divide,2022-04-28 09:13:11,2020-04-21,0,0,0,,,,,,,,,,,,
38023,0,USNorthDakotaDivide,North Dakota,Divide,2022-04-28 09:13:11,2020-04-22,0,0,0,,,,,,,,,,,,
38023,0,USNorthDakotaDivide,North Dakota,Divide,2022-04-28 09:13:11,2020-04-23,0,0,0,,,,,,,,,,,,
38023,0,USNorthDakotaDivide,North Dakota,Divide,2022-04-28 09:13:11,2020-04-24,0,0,0,,,,,,,,,,,,
38023,0,USNorthDakotaDivide,North Dakota,Divide,2022-04-28 09:13:11,2020-04-25,0,0,0,,,,,,,,,,,,
38023,0,USNorthDakotaDivide,North Dakota,Divide,2022-04-28 09:13:11,2020-04-26,0,0,0,,,,,,,,,,,,
38023,0,USNorthDakotaDivide,North Dakota,Divide,2022-04-28 09:13:11,2020-04-27,0,0,0,,,,,,,,,,,,
38023,0,USNorthDakotaDivide,North Dakota,Divide,2022-04-28 09:13:11,2020-04-28,0,0,0,,,,,,,,,,,,
38023,0,USNorthDakotaDivide,North Dakota,Divide,2022-04-28 09:13:11,2020-04-29,0,0,0,,,,,,,,,,,,
38023,0,USNorthDakotaDivide,North Dakota,Divide,2022-04-28 09:13:11,2020-04-30,0,0,0,,,,,,,,,,,,
38023,0,USNorthDakotaDivide,North Dakota,Divide,2022-04-28 09:13:11,2020-05-01,0,0,0,,,,,,,,,,,,
38023,0,USNorthDakotaDivide,North Dakota,Divide,2022-04-28 09:13:11,2020-05-02,0,0,0,,,,,,,,,,,,
38023,0,USNorthDakotaDivide,North Dakota,Divide,2022-04-28 09:13:11,2020-05-03,0,0,0,,,,,,,,,,,,
38023,0,USNorthDakotaDivide,North Dakota,Divide,2022-04-28 09:13:11,2020-05-04,0,0,0,,,,,,,,,,,,
38023,0,USNorthDakotaDivide,North Dakota,Divide,2022-04-28 09:13:11,2020-05-05,0,0,0,,,,,,,,,,,,
38023,0,USNorthDakotaDivide,North Dakota,Divide,2022-04-28 09:13:11,2020-05-06,0,0,0,,,,,,,,,,,,
38023,0,USNorthDakotaDivide,North Dakota,Divide,2022-04-28 09:13:11,2020-05-07,0,0,0,,,,,,,,,,,,
38023,0,USNorthDakotaDivide,North Dakota,Divide,2022-04-28 09:13:11,2020-05-08,0,0,0,,,,,,,,,,,,
38023,0,USNorthDakotaDivide,North Dakota,Divide,2022-04-28 09:13:11,2020-05-09,0,0,0,,,,,,,,,,,,
38023,0,USNorthDakotaDivide,North Dakota,Divide,2022-04-28 09:13:11,2020-05-10,0,0,0,,,,,,,,,,,,
38023,0,USNorthDakotaDivide,North Dakota,Divide,2022-04-28 09:13:11,2020-05-11,0,0,0,,,,,,,,,,,,
38023,0,USNorthDakotaDivide,North Dakota,Divide,2022-04-28 09:13:11,2020-05-12,0,0,0,,,,,,,,,,,,
38023,0,USNorthDakotaDivide,North Dakota,Divide,2022-04-28 09:13:11,2020-05-13,0,0,0,,,,,,,,,,,,
38023,0,USNorthDakotaDivide,North Dakota,Divide,2022-04-28 09:13:11,2020-05-14,0,0,0,,,,,,,,,,,,
38023,0,USNorthDakotaDivide,North Dakota,Divide,2022-04-28 09:13:11,2020-05-15,0,0,0,,,,,,,,,,,,
38023,0,USNorthDakotaDivide,North Dakota,Divide,2022-04-28 09:13:11,2020-05-16,0,0,0,,,,,,,,,,,,
38023,0,USNorthDakotaDivide,North Dakota,Divide,2022-04-28 09:13:11,2020-05-17,0,0,0,,,,,,,,,,,,
38023,0,USNorthDakotaDivide,North Dakota,Divide,2022-04-28 09:13:11,2020-05-18,0,0,0,,,,,,,,,,,,
38023,0,USNorthDakotaDivide,North Dakota,Divide,2022-04-28 09:13:11,2020-05-19,0,0,0,,,,,,,,,,,,
38023,0,USNorthDakotaDivide,North Dakota,Divide,2022-04-28 09:13:11,2020-05-20,0,0,0,,,,,,,,,,,,
38023,0,USNorthDakotaDivide,North Dakota,Divide,2022-04-28 09:13:11,2020-05-21,0,0,0,,,,,,,,,,,,
38023,0,USNorthDakotaDivide,North Dakota,Divide,2022-04-28 09:13:11,2020-05-22,0,0,0,,,,,,,,,,,,
38023,0,USNorthDakotaDivide,North Dakota,Divide,2022-04-28 09:13:11,2020-05-23,0,0,0,,,,,,,,,,,,
38023,0,USNorthDakotaDivide,North Dakota,Divide,2022-04-28 09:13:11,2020-05-24,0,0,0,,,,,,,,,,,,
38023,0,USNorthDakotaDivide,North Dakota,Divide,2022-04-28 09:13:11,2020-05-25,0,0,0,,,,,,,,,,,,
38023,0,USNorthDakotaDivide,North Dakota,Divide,2022-04-28 09:13:11,2020-05-26,0,0,0,,,,,,,,,,,,
38023,0,USNorthDakotaDivide,North Dakota,Divide,2022-04-28 09:13:11,2020-05-27,0,0,0,,,,,,,,,,,,
38023,0,USNorthDakotaDivide,North Dakota,Divide,2022-04-28 09:13:11,2020-05-28,0,0,0,,,,,,,,,,,,
38023,0,USNorthDakotaDivide,North Dakota,Divide,2022-04-28 09:13:11,2020-05-29,0,0,0,,,,,,,,,,,,
38023,0,USNorthDakotaDivide,North Dakota,Divide,2022-04-28 09:13:11,2020-05-30,0,0,0,,,,,,,,,,,,
38023,0,USNorthDakotaDivide,North Dakota,Divide,2022-04-28 09:13:11,2020-05-31,0,0,0,,,,,,,,,,,,
38023,0,USNorthDakotaDivide,North Dakota,Divide,2022-04-28 09:13:11,2020-06-01,0,0,0,,,,,,,,,,,,
38023,0,USNorthDakotaDivide,North Dakota,Divide,2022-04-28 09:13:11,2020-06-02,0,0,0,,,,,,,,,,,,
38023,0,USNorthDakotaDivide,North Dakota,Divide,2022-04-28 09:13:11,2020-06-03,0,0,0,,,,,,,,,,,,
38023,0,USNorthDakotaDivide,North Dakota,Divide,2022-04-28 09:13:11,2020-06-04,0,0,0,,,,,,,,,,,,
38023,0,USNorthDakotaDivide,North Dakota,Divide,2022-04-28 09:13:11,2020-06-05,0,0,0,,,,,,,,,,,,
38023,0,USNorthDakotaDivide,North Dakota,Divide,2022-04-28 09:13:11,2020-06-06,0,0,0,,,,,,,,,,,,
38023,0,USNorthDakotaDivide,North Dakota,Divide,2022-04-28 09:13:11,2020-06-07,0,0,0,,,,,,,,,,,,
38023,0,USNorthDakotaDivide,North Dakota,Divide,2022-04-28 09:13:11,2020-06-08,0,0,0,,,,,,,,,,,,
38023,0,USNorthDakotaDivide,North Dakota,Divide,2022-04-28 09:13:11,2020-06-09,0,0,0,,,,,,,,,,,,
38023,0,USNorthDakotaDivide,North Dakota,Divide,2022-04-28 09:13:11,2020-06-10,0,0,0,,,,,,,,,,,,
38023,0,USNorthDakotaDivide,North Dakota,Divide,2022-04-28 09:13:11,2020-06-11,0,0,0,,,,,,,,,,,,
38023,0,USNorthDakotaDivide,North Dakota,Divide,2022-04-28 09:13:11,2020-06-12,0,0,0,,,,,,,,,,,,
38023,0,USNorthDakotaDivide,North Dakota,Divide,2022-04-28 09:13:11,2020-06-13,0,0,0,,,,,,,,,,,,
38023,0,USNorthDakotaDivide,North Dakota,Divide,2022-04-28 09:13:11,2020-06-14,0,0,0,,,,,,,,,,,,
38023,0,USNorthDakotaDivide,North Dakota,Divide,2022-04-28 09:13:11,2020-06-15,0,0,0,,,,,,,,,,,,
38023,0,USNorthDakotaDivide,North Dakota,Divide,2022-04-28 09:13:11,2020-06-16,0,0,0,,,,,,,,,,,,
38023,0,USNorthDakotaDivide,North Dakota,Divide,2022-04-28 09:13:11,2020-06-17,0,0,0,,,,,,,,,,,,
38023,0,USNorthDakotaDivide,North Dakota,Divide,2022-04-28 09:13:11,2020-06-18,0,0,0,,,,,,,,,,,,
38023,0,USNorthDakotaDivide,North Dakota,Divide,2022-04-28 09:13:11,2020-06-19,0,0,0,,,,,,,,,,,,
38023,0,USNorthDakotaDivide,North Dakota,Divide,2022-04-28 09:13:11,2020-06-20,0,0,0,,,,,,,,,,,,
38023,0,USNorthDakotaDivide,North Dakota,Divide,2022-04-28 09:13:11,2020-06-21,0,0,0,,,,,,,,,,,,
38023,0,USNorthDakotaDivide,North Dakota,Divide,2022-04-28 09:13:11,2020-06-22,0,0,0,,,,,,,,,,,,
38023,0,USNorthDakotaDivide,North Dakota,Divide,2022-04-28 09:13:11,2020-06-23,0,0,0,,,,,,,,,,,,
38023,0,USNorthDakotaDivide,North Dakota,Divide,2022-04-28 09:13:11,2020-06-24,0,0,0,,,,,,,,,,,,
38023,0,USNorthDakotaDivide,North Dakota,Divide,2022-04-28 09:13:11,2020-06-25,0,0,0,,,,,,,,,,,,
38023,0,USNorthDakotaDivide,North Dakota,Divide,2022-04-28 09:13:11,2020-06-26,0,0,0,,,,,,,,,,,,
38023,0,USNorthDakotaDivide,North Dakota,Divide,2022-04-28 09:13:11,2020-06-27,0,0,0,,,,,,,,,,,,
38023,0,USNorthDakotaDivide,North Dakota,Divide,2022-04-28 09:13:11,2020-06-28,0,0,0,,,,,,,,,,,,
38023,0,USNorthDakotaDivide,North Dakota,Divide,2022-04-28 09:13:11,2020-06-29,0,0,0,,,,,,,,,,,,
38023,0,USNorthDakotaDivide,North Dakota,Divide,2022-04-28 09:13:11,2020-06-30,0,0,0,,,,,,,,,,,,
38023,0,USNorthDakotaDivide,North Dakota,Divide,2022-04-28 09:13:11,2020-07-01,0,0,0,,,,,,,,,,,,
38023,0,USNorthDakotaDivide,North Dakota,Divide,2022-04-28 09:13:11,2020-07-02,0,0,0,,,,,,,,,,,,
38023,0,USNorthDakotaDivide,North Dakota,Divide,2022-04-28 09:13:11,2020-07-03,0,0,0,,,,,,,,,,,,
38023,0,USNorthDakotaDivide,North Dakota,Divide,2022-04-28 09:13:11,2020-07-04,0,0,0,,,,,,,,,,,,
38023,0,USNorthDakotaDivide,North Dakota,Divide,2022-04-28 09:13:11,2020-07-05,0,0,0,,,,,,,,,,,,
38023,0,USNorthDakotaDivide,North Dakota,Divide,2022-04-28 09:13:11,2020-07-06,0,0,0,,,,,,,,,,,,
38023,0,USNorthDakotaDivide,North Dakota,Divide,2022-04-28 09:13:11,2020-07-07,0,0,0,,,,,,,,,,,,
38023,0,USNorthDakotaDivide,North Dakota,Divide,2022-04-28 09:13:11,2020-07-08,0,0,0,,,,,,,,,,,,
38023,0,USNorthDakotaDivide,North Dakota,Divide,2022-04-28 09:13:11,2020-07-09,0,0,0,,,,,,,,,,,,
38023,0,USNorthDakotaDivide,North Dakota,Divide,2022-04-28 09:13:11,2020-07-10,0,0,0,,,,,,,,,,,,
38023,0,USNorthDakotaDivide,North Dakota,Divide,2022-04-28 09:13:11,2020-07-11,0,0,0,,,,,,,,,,,,
38023,0,USNorthDakotaDivide,North Dakota,Divide,2022-04-28 09:13:11,2020-07-12,0,0,0,,,,,,,,,,,,
38023,0,USNorthDakotaDivide,North Dakota,Divide,2022-04-28 09:13:11,2020-07-13,0,0,0,,,,,,,,,,,,
38023,0,USNorthDakotaDivide,North Dakota,Divide,2022-04-28 09:13:11,2020-07-14,0,0,0,,,,,,,,,,,,
38023,0,USNorthDakotaDivide,North Dakota,Divide,2022-04-28 09:13:11,2020-07-15,0,0,0,,,,,,,,,,,,
38023,0,USNorthDakotaDivide,North Dakota,Divide,2022-04-28 09:13:11,2020-07-16,0,0,0,,,,,,,,,,,,
38023,0,USNorthDakotaDivide,North Dakota,Divide,2022-04-28 09:13:11,2020-07-17,0,0,0,,,,,,,,,,,,
38023,0,USNorthDakotaDivide,North Dakota,Divide,2022-04-28 09:13:11,2020-07-18,0,0,0,,,,,,,,,,,,
38023,0,USNorthDakotaDivide,North Dakota,Divide,2022-04-28 09:13:11,2020-07-19,0,0,0,,,,,,,,,,,,
38023,0,USNorthDakotaDivide,North Dakota,Divide,2022-04-28 09:13:11,2020-07-20,0,0,0,,,,,,,,,,,,
38023,0,USNorthDakotaDivide,North Dakota,Divide,2022-04-28 09:13:11,2020-07-21,0,0,0,,,,,,,,,,,,
38023,0,USNorthDakotaDivide,North Dakota,Divide,2022-04-28 09:13:11,2020-07-22,0,0,0,,,,,,,,,,,,
38023,0,USNorthDakotaDivide,North Dakota,Divide,2022-04-28 09:13:11,2020-07-23,0,0,0,,,,,,,,,,,,
38023,0,USNorthDakotaDivide,North Dakota,Divide,2022-04-28 09:13:11,2020-07-24,0,0,0,,,,,,,,,,,,
38023,0,USNorthDakotaDivide,North Dakota,Divide,2022-04-28 09:13:11,2020-07-25,0,0,0,,,,,,,,,,,,
38023,0,USNorthDakotaDivide,North Dakota,Divide,2022-04-28 09:13:11,2020-07-26,0,0,0,,,,,,,,,,,,
38023,0,USNorthDakotaDivide,North Dakota,Divide,2022-04-28 09:13:11,2020-07-27,0,0,0,,,,,,,,,,,,
38023,0,USNorthDakotaDivide,North Dakota,Divide,2022-04-28 09:13:11,2020-07-28,0,0,0,,,,,,,,,,,,
38023,0,USNorthDakotaDivide,North Dakota,Divide,2022-04-28 09:13:11,2020-07-29,0,0,0,,,,,,,,,,,,
38023,0,USNorthDakotaDivide,North Dakota,Divide,2022-04-28 09:13:11,2020-07-30,0,0,0,,,,,,,,,,,,
38023,0,USNorthDakotaDivide,North Dakota,Divide,2022-04-28 09:13:11,2020-07-31,0,0,0,,,,,,,,,,,,
38023,0,USNorthDakotaDivide,North Dakota,Divide,2022-04-28 09:13:11,2020-08-01,0,0,0,,,,,,,,,,,,
38023,0,USNorthDakotaDivide,North Dakota,Divide,2022-04-28 09:13:11,2020-08-02,0,0,0,,,,,,,,,,,,
38023,0,USNorthDakotaDivide,North Dakota,Divide,2022-04-28 09:13:11,2020-08-03,0,0,0,,,,,,,,,,,,
38023,0,USNorthDakotaDivide,North Dakota,Divide,2022-04-28 09:13:11,2020-08-04,0,0,0,,,,,,,,,,,,
38023,0,USNorthDakotaDivide,North Dakota,Divide,2022-04-28 09:13:11,2020-08-05,0,0,0,,,,,,,,,,,,
38023,0,USNorthDakotaDivide,North Dakota,Divide,2022-04-28 09:13:11,2020-08-06,0.45458869485365416,0.7147586972136674,1.185089092503147,,,,,,,,,,,,
38023,0,USNorthDakotaDivide,North Dakota,Divide,2022-04-28 09:13:11,2020-08-07,0.45458869485365416,0.7147586972136674,1.185089092503147,,,,,,,,,,,,
38023,0,USNorthDakotaDivide,North Dakota,Divide,2022-04-28 09:13:11,2020-08-08,0.45458869485365416,0.7147586972136674,1.185089092503147,,,,,,,,,,,,
38023,0,USNorthDakotaDivide,North Dakota,Divide,2022-04-28 09:13:11,2020-08-09,0.45458869485365416,0.7147586972136674,1.185089092503147,,,,,,,,,,,,
38023,0,USNorthDakotaDivide,North Dakota,Divide,2022-04-28 09:13:11,2020-08-10,0.45458869485365416,0.7147586972136674,1.185089092503147,,,,,,,,,,,,
38023,0,USNorthDakotaDivide,North Dakota,Divide,2022-04-28 09:13:11,2020-08-11,0.45458869485365416,0.7147586972136674,1.185089092503147,,,,,,,,,,,,
38023,0,USNorthDakotaDivide,North Dakota,Divide,2022-04-28 09:13:11,2020-08-12,0.45458869485365416,0.7147586972136674,1.185089092503147,,,,,,,,,,,,
38023,0,USNorthDakotaDivide,North Dakota,Divide,2022-04-28 09:13:11,2020-08-13,0.20147888251276658,0.411036187562134,0.8997522717671785,,,,,,,,,,,,
38023,0,USNorthDakotaDivide,North Dakota,Divide,2022-04-28 09:13:11,2020-08-14,0.20147888251276658,0.411036187562134,0.8997522717671785,,,,,,,,,,,,
38023,0,USNorthDakotaDivide,North Dakota,Divide,2022-04-28 09:13:11,2020-08-15,0.20147888251276658,0.411036187562134,0.8997522717671785,,,,,,,,,,,,
38023,0,USNorthDakotaDivide,North Dakota,Divide,2022-04-28 09:13:11,2020-08-16,0.20147888251276658,0.411036187562134,0.8997522717671785,,,,,,,,,,,,
38023,0,USNorthDakotaDivide,North Dakota,Divide,2022-04-28 09:13:11,2020-08-17,0.20147888251276658,0.411036187562134,0.8997522717671785,,,,,,,,,,,,
38023,0,USNorthDakotaDivide,North Dakota,Divide,2022-04-28 09:13:11,2020-08-18,0.20147888251276658,0.411036187562134,0.8997522717671785,,,,,,,,,,,,
38023,0,USNorthDakotaDivide,North Dakota,Divide,2022-04-28 09:13:11,2020-08-19,0.20147888251276658,0.411036187562134,0.8997522717671785,,,,,,,,,,,,
38023,0,USNorthDakotaDivide,North Dakota,Divide,2022-04-28 09:13:11,2020-08-20,0,0,0,,,,,,,,,,,,
38023,0,USNorthDakotaDivide,North Dakota,Divide,2022-04-28 09:13:11,2020-08-21,0,0,0,,,,,,,,,,,,
38023,0,USNorthDakotaDivide,North Dakota,Divide,2022-04-28 09:13:11,2020-08-22,0,0,0,,,,,,,,,,,,
38023,0,USNorthDakotaDivide,North Dakota,Divide,2022-04-28 09:13:11,2020-08-23,0,0,0,,,,,,,,,,,,
38023,0,USNorthDakotaDivide,North Dakota,Divide,2022-04-28 09:13:11,2020-08-24,0,0,0,,,,,,,,,,,,
38023,0,USNorthDakotaDivide,North Dakota,Divide,2022-04-28 09:13:11,2020-08-25,0,0,0,,,,,,,,,,,,
38023,0,USNorthDakotaDivide,North Dakota,Divide,2022-04-28 09:13:11,2020-08-26,0,0,0,,,,,,,,,,,,
38023,0,USNorthDakotaDivide,North Dakota,Divide,2022-04-28 09:13:11,2020-08-27,0,0,0,,,,,,,,,,,,
38023,0,USNorthDakotaDivide,North Dakota,Divide,2022-04-28 09:13:11,2020-08-28,0,0,0,,,,,,,,,,,,
38023,0,USNorthDakotaDivide,North Dakota,Divide,2022-04-28 09:13:11,2020-08-29,0,0,0,,,,,,,,,,,,
38023,0,USNorthDakotaDivide,North Dakota,Divide,2022-04-28 09:13:11,2020-08-30,0,0,0,,,,,,,,,,,,
38023,0,USNorthDakotaDivide,North Dakota,Divide,2022-04-28 09:13:11,2020-08-31,0,0,0,,,,,,,,,,,,
38023,0,USNorthDakotaDivide,North Dakota,Divide,2022-04-28 09:13:11,2020-09-01,0,0,0,,,,,,,,,,,,
38023,0,USNorthDakotaDivide,North Dakota,Divide,2022-04-28 09:13:11,2020-09-02,0,0,0,,,,,,,,,,,,
38023,0,USNorthDakotaDivide,North Dakota,Divide,2022-04-28 09:13:11,2020-09-03,0.2366692246717081,0.5577802973325084,1.4145408665470471,,,,,,,,,,,,
38023,0,USNorthDakotaDivide,North Dakota,Divide,2022-04-28 09:13:11,2020-09-04,0.2366692246717081,0.5577802973325084,1.4145408665470471,,,,,,,,,,,,
38023,0,USNorthDakotaDivide,North Dakota,Divide,2022-04-28 09:13:11,2020-09-05,0.2366692246717081,0.5577802973325084,1.4145408665470471,,,,,,,,,,,,
38023,0,USNorthDakotaDivide,North Dakota,Divide,2022-04-28 09:13:11,2020-09-06,0.2366692246717081,0.5577802973325084,1.4145408665470471,,,,,,,,,,,,
38023,0,USNorthDakotaDivide,North Dakota,Divide,2022-04-28 09:13:11,2020-09-07,0.2366692246717081,0.5577802973325084,1.4145408665470471,,,,,,,,,,,,
38023,0,USNorthDakotaDivide,North Dakota,Divide,2022-04-28 09:13:11,2020-09-08,0.2366692246717081,0.5577802973325084,1.4145408665470471,,,,,,,,,,,,
38023,0,USNorthDakotaDivide,North Dakota,Divide,2022-04-28 09:13:11,2020-09-09,0.2366692246717081,0.5577802973325084,1.4145408665470471,,,,,,,,,,,,
38023,0,USNorthDakotaDivide,North Dakota,Divide,2022-04-28 09:13:11,2020-09-10,0,0,0,,,,,,,,,,,,
38023,0,USNorthDakotaDivide,North Dakota,Divide,2022-04-28 09:13:11,2020-09-11,0,0,0,,,,,,,,,,,,
38023,0,USNorthDakotaDivide,North Dakota,Divide,2022-04-28 09:13:11,2020-09-12,0,0,0,,,,,,,,,,,,
38023,0,USNorthDakotaDivide,North Dakota,Divide,2022-04-28 09:13:11,2020-09-13,0,0,0,,,,,,,,,,,,
38023,0,USNorthDakotaDivide,North Dakota,Divide,2022-04-28 09:13:11,2020-09-14,0,0,0,,,,,,,,,,,,
38023,0,USNorthDakotaDivide,North Dakota,Divide,2022-04-28 09:13:11,2020-09-15,0,0,0,,,,,,,,,,,,
38023,0,USNorthDakotaDivide,North Dakota,Divide,2022-04-28 09:13:11,2020-09-16,0,0,0,,,,,,,,,,,,
38023,0,USNorthDakotaDivide,North Dakota,Divide,2022-04-28 09:13:11,2020-09-17,0.2408524877438008,0.5765170883982716,1.485036460011771,,,,,,,,,,,,
38023,0,USNorthDakotaDivide,North Dakota,Divide,2022-04-28 09:13:11,2020-09-18,0.2408524877438008,0.5765170883982716,1.485036460011771,,,,,,,,,,,,
38023,0,USNorthDakotaDivide,North Dakota,Divide,2022-04-28 09:13:11,2020-09-19,0.2408524877438008,0.5765170883982716,1.485036460011771,,,,,,,,,,,,
38023,0,USNorthDakotaDivide,North Dakota,Divide,2022-04-28 09:13:11,2020-09-20,0.2408524877438008,0.5765170883982716,1.485036460011771,,,,,,,,,,,,
38023,0,USNorthDakotaDivide,North Dakota,Divide,2022-04-28 09:13:11,2020-09-21,0.2408524877438008,0.5765170883982716,1.485036460011771,,,,,,,,,,,,
38023,0,USNorthDakotaDivide,North Dakota,Divide,2022-04-28 09:13:11,2020-09-22,0.2408524877438008,0.5765170883982716,1.485036460011771,,,,,,,,,,,,
38023,0,USNorthDakotaDivide,North Dakota,Divide,2022-04-28 09:13:11,2020-09-23,0.2408524877438008,0.5765170883982716,1.485036460011771,,,,,,,,,,,,
38023,0,USNorthDakotaDivide,North Dakota,Divide,2022-04-28 09:13:11,2020-09-24,0.25044274496866326,0.6204785985901973,1.6543262173943392,,,,,,,,,,,,
38023,0,USNorthDakotaDivide,North Dakota,Divide,2022-04-28 09:13:11,2020-09-25,0.25044274496866326,0.6204785985901973,1.6543262173943392,,,,,,,,,,,,
38023,0,USNorthDakotaDivide,North Dakota,Divide,2022-04-28 09:13:11,2020-09-26,0.25044274496866326,0.6204785985901973,1.6543262173943392,,,,,,,,,,,,
38023,0,USNorthDakotaDivide,North Dakota,Divide,2022-04-28 09:13:11,2020-09-27,0.25044274496866326,0.6204785985901973,1.6543262173943392,,,,,,,,,,,,
38023,0,USNorthDakotaDivide,North Dakota,Divide,2022-04-28 09:13:11,2020-09-28,0.25044274496866326,0.6204785985901973,1.6543262173943392,,,,,,,,,,,,
38023,0,USNorthDakotaDivide,North Dakota,Divide,2022-04-28 09:13:11,2020-09-29,0.25044274496866326,0.6204785985901973,1.6543262173943392,,,,,,,,,,,,
38023,0,USNorthDakotaDivide,North Dakota,Divide,2022-04-28 09:13:11,2020-09-30,0.25044274496866326,0.6204785985901973,1.6543262173943392,,,,,,,,,,,,
38023,0,USNorthDakotaDivide,North Dakota,Divide,2022-04-28 09:13:11,2020-10-01,1.804247465067473,2.618242731601373,3.9709090474732194,,,,,,,,,,,,
38023,0,USNorthDakotaDivide,North Dakota,Divide,2022-04-28 09:13:11,2020-10-02,1.804247465067473,2.618242731601373,3.9709090474732194,,,,,,,,,,,,
38023,0,USNorthDakotaDivide,North Dakota,Divide,2022-04-28 09:13:11,2020-10-03,1.804247465067473,2.618242731601373,3.9709090474732194,,,,,,,,,,,,
38023,0,USNorthDakotaDivide,North Dakota,Divide,2022-04-28 09:13:11,2020-10-04,1.804247465067473,2.618242731601373,3.9709090474732194,,,,,,,,,,,,
38023,0,USNorthDakotaDivide,North Dakota,Divide,2022-04-28 09:13:11,2020-10-05,1.804247465067473,2.618242731601373,3.9709090474732194,,,,,,,,,,,,
38023,0,USNorthDakotaDivide,North Dakota,Divide,2022-04-28 09:13:11,2020-10-06,1.804247465067473,2.618242731601373,3.9709090474732194,,,,,,,,,,,,
38023,0,USNorthDakotaDivide,North Dakota,Divide,2022-04-28 09:13:11,2020-10-07,1.804247465067473,2.618242731601373,3.9709090474732194,,,,,,,,,,,,
38023,0,USNorthDakotaDivide,North Dakota,Divide,2022-04-28 09:13:11,2020-10-08,1.8509916126165666,2.749338581980017,4.279762388527967,,,,,,,,,,,,
38023,0,USNorthDakotaDivide,North Dakota,Divide,2022-04-28 09:13:11,2020-10-09,1.8509916126165666,2.749338581980017,4.279762388527967,,,,,,,,,,,,
38023,0,USNorthDakotaDivide,North Dakota,Divide,2022-04-28 09:13:11,2020-10-10,1.8509916126165666,2.749338581980017,4.279762388527967,,,,,,,,,,,,
38023,0,USNorthDakotaDivide,North Dakota,Divide,2022-04-28 09:13:11,2020-10-11,1.8509916126165666,2.749338581980017,4.279762388527967,,,,,,,,,,,,
38023,0,USNorthDakotaDivide,North Dakota,Divide,2022-04-28 09:13:11,2020-10-12,1.8509916126165666,2.749338581980017,4.279762388527967,,,,,,,,,,,,
38023,0,USNorthDakotaDivide,North Dakota,Divide,2022-04-28 09:13:11,2020-10-13,1.8509916126165666,2.749338581980017,4.279762388527967,,,,,,,,,,,,
38023,0,USNorthDakotaDivide,North Dakota,Divide,2022-04-28 09:13:11,2020-10-14,1.8509916126165666,2.749338581980017,4.279762388527967,,,,,,,,,,,,
38023,0,USNorthDakotaDivide,North Dakota,Divide,2022-04-28 09:13:11,2020-10-15,1.8393551088570463,2.9226512951607595,4.9022377928990295,,,,,,,,,,,,
38023,0,USNorthDakotaDivide,North Dakota,Divide,2022-04-28 09:13:11,2020-10-16,1.8393551088570463,2.9226512951607595,4.9022377928990295,,,,,,,,,,,,
38023,0,USNorthDakotaDivide,North Dakota,Divide,2022-04-28 09:13:11,2020-10-17,1.8393551088570463,2.9226512951607595,4.9022377928990295,,,,,,,,,,,,
38023,0,USNorthDakotaDivide,North Dakota,Divide,2022-04-28 09:13:11,2020-10-18,1.8393551088570463,2.9226512951607595,4.9022377928990295,,,,,,,,,,,,
38023,0,USNorthDakotaDivide,North Dakota,Divide,2022-04-28 09:13:11,2020-10-19,1.8393551088570463,2.9226512951607595,4.9022377928990295,,,,,,,,,,,,
38023,0,USNorthDakotaDivide,North Dakota,Divide,2022-04-28 09:13:11,2020-10-20,1.8393551088570463,2.9226512951607595,4.9022377928990295,,,,,,,,,,,,
38023,0,USNorthDakotaDivide,North Dakota,Divide,2022-04-28 09:13:11,2020-10-21,1.8393551088570463,2.9226512951607595,4.9022377928990295,,,,,,,,,,,,
38023,0,USNorthDakotaDivide,North Dakota,Divide,2022-04-28 09:13:11,2020-10-22,2.3443644681465163,3.574453597358212,5.728500001223025,,,,,,,,,,,,
38023,0,USNorthDakotaDivide,North Dakota,Divide,2022-04-28 09:13:11,2020-10-23,2.3443644681465163,3.574453597358212,5.728500001223025,,,,,,,,,,,,
38023,0,USNorthDakotaDivide,North Dakota,Divide,2022-04-28 09:13:11,2020-10-24,2.3443644681465163,3.574453597358212,5.728500001223025,,,,,,,,,,,,
38023,0,USNorthDakotaDivide,North Dakota,Divide,2022-04-28 09:13:11,2020-10-25,2.3443644681465163,3.574453597358212,5.728500001223025,,,,,,,,,,,,
38023,0,USNorthDakotaDivide,North Dakota,Divide,2022-04-28 09:13:11,2020-10-26,2.3443644681465163,3.574453597358212,5.728500001223025,,,,,,,,,,,,
38023,0,USNorthDakotaDivide,North Dakota,Divide,2022-04-28 09:13:11,2020-10-27,2.3443644681465163,3.574453597358212,5.728500001223025,,,,,,,,,,,,
38023,0,USNorthDakotaDivide,North Dakota,Divide,2022-04-28 09:13:11,2020-10-28,2.3443644681465163,3.574453597358212,5.728500001223025,,,,,,,,,,,,
38023,0,USNorthDakotaDivide,North Dakota,Divide,2022-04-28 09:13:11,2020-10-29,3.259793826363676,4.821612787418997,7.47050618614529,,,,,,,,,,,,
38023,0,USNorthDakotaDivide,North Dakota,Divide,2022-04-28 09:13:11,2020-10-30,3.259793826363676,4.821612787418997,7.47050618614529,,,,,,,,,,,,
38023,0,USNorthDakotaDivide,North Dakota,Divide,2022-04-28 09:13:11,2020-10-31,3.259793826363676,4.821612787418997,7.47050618614529,,,,,,,,,,,,
38023,0,USNorthDakotaDivide,North Dakota,Divide,2022-04-28 09:13:11,2020-11-01,3.259793826363676,4.821612787418997,7.47050618614529,,,,,,,,,,,,
38023,0,USNorthDakotaDivide,North Dakota,Divide,2022-04-28 09:13:11,2020-11-02,3.259793826363676,4.821612787418997,7.47050618614529,,,,,,,,,,,,
38023,0,USNorthDakotaDivide,North Dakota,Divide,2022-04-28 09:13:11,2020-11-03,3.259793826363676,4.821612787418997,7.47050618614529,,,,,,,,,,,,
38023,0,USNorthDakotaDivide,North Dakota,Divide,2022-04-28 09:13:11,2020-11-04,3.259793826363676,4.821612787418997,7.47050618614529,,,,,,,,,,,,
38023,0,USNorthDakotaDivide,North Dakota,Divide,2022-04-28 09:13:11,2020-11-05,2.172252768951209,3.7360336139396586,6.8300631145418995,,,,,,,,,,,,
38023,0,USNorthDakotaDivide,North Dakota,Divide,2022-04-28 09:13:11,2020-11-06,2.172252768951209,3.7360336139396586,6.8300631145418995,,,,,,,,,,,,
38023,0,USNorthDakotaDivide,North Dakota,Divide,2022-04-28 09:13:11,2020-11-07,2.172252768951209,3.7360336139396586,6.8300631145418995,,,,,,,,,,,,
38023,0,USNorthDakotaDivide,North Dakota,Divide,2022-04-28 09:13:11,2020-11-08,2.172252768951209,3.7360336139396586,6.8300631145418995,,,,,,,,,,,,
38023,0,USNorthDakotaDivide,North Dakota,Divide,2022-04-28 09:13:11,2020-11-09,2.172252768951209,3.7360336139396586,6.8300631145418995,,,,,,,,,,,,
38023,0,USNorthDakotaDivide,North Dakota,Divide,2022-04-28 09:13:11,2020-11-10,2.172252768951209,3.7360336139396586,6.8300631145418995,,,,,,,,,,,,
38023,0,USNorthDakotaDivide,North Dakota,Divide,2022-04-28 09:13:11,2020-11-11,2.172252768951209,3.7360336139396586,6.8300631145418995,,,,,,,,,,,,
38023,0,USNorthDakotaDivide,North Dakota,Divide,2022-04-28 09:13:11,2020-11-12,2.589857160826296,4.092148161706712,6.821687908524518,,,,,,,,,,,,
38023,0,USNorthDakotaDivide,North Dakota,Divide,2022-04-28 09:13:11,2020-11-13,2.589857160826296,4.092148161706712,6.821687908524518,,,,,,,,,,,,
38023,0,USNorthDakotaDivide,North Dakota,Divide,2022-04-28 09:13:11,2020-11-14,2.589857160826296,4.092148161706712,6.821687908524518,,,,,,,,,,,,
38023,0,USNorthDakotaDivide,North Dakota,Divide,2022-04-28 09:13:11,2020-11-15,2.589857160826296,4.092148161706712,6.821687908524518,,,,,,,,,,,,
38023,0,USNorthDakotaDivide,North Dakota,Divide,2022-04-28 09:13:11,2020-11-16,2.589857160826296,4.092148161706712,6.821687908524518,,,,,,,,,,,,
38023,0,USNorthDakotaDivide,North Dakota,Divide,2022-04-28 09:13:11,2020-11-17,2.589857160826296,4.092148161706712,6.821687908524518,,,,,,,,,,,,
38023,0,USNorthDakotaDivide,North Dakota,Divide,2022-04-28 09:13:11,2020-11-18,2.589857160826296,4.092148161706712,6.821687908524518,,,,,,,,,,,,
38023,0,USNorthDakotaDivide,North Dakota,Divide,2022-04-28 09:13:11,2020-11-19,1.1280150870627146,2.160992681771324,4.430408170044717,,,,,,,,,,,,
38023,0,USNorthDakotaDivide,North Dakota,Divide,2022-04-28 09:13:11,2020-11-20,1.1280150870627146,2.160992681771324,4.430408170044717,,,,,,,,,,,,
38023,0,USNorthDakotaDivide,North Dakota,Divide,2022-04-28 09:13:11,2020-11-21,1.1280150870627146,2.160992681771324,4.430408170044717,,,,,,,,,,,,
38023,0,USNorthDakotaDivide,North Dakota,Divide,2022-04-28 09:13:11,2020-11-22,1.1280150870627146,2.160992681771324,4.430408170044717,,,,,,,,,,,,
38023,0,USNorthDakotaDivide,North Dakota,Divide,2022-04-28 09:13:11,2020-11-23,1.1280150870627146,2.160992681771324,4.430408170044717,,,,,,,,,,,,
38023,0,USNorthDakotaDivide,North Dakota,Divide,2022-04-28 09:13:11,2020-11-24,1.1280150870627146,2.160992681771324,4.430408170044717,,,,,,,,,,,,
38023,0,USNorthDakotaDivide,North Dakota,Divide,2022-04-28 09:13:11,2020-11-25,1.1280150870627146,2.160992681771324,4.430408170044717,,,,,,,,,,,,
38023,0,USNorthDakotaDivide,North Dakota,Divide,2022-04-28 09:13:11,2020-11-26,1.0640024564276391,1.932447753515381,3.7448374720873865,,,,,,,,,,,,
38023,0,USNorthDakotaDivide,North Dakota,Divide,2022-04-28 09:13:11,2020-11-27,1.0640024564276391,1.932447753515381,3.7448374720873865,,,,,,,,,,,,
38023,0,USNorthDakotaDivide,North Dakota,Divide,2022-04-28 09:13:11,2020-11-28,1.0640024564276391,1.932447753515381,3.7448374720873865,,,,,,,,,,,,
38023,0,USNorthDakotaDivide,North Dakota,Divide,2022-04-28 09:13:11,2020-11-29,1.0640024564276391,1.932447753515381,3.7448374720873865,,,,,,,,,,,,
38023,0,USNorthDakotaDivide,North Dakota,Divide,2022-04-28 09:13:11,2020-11-30,1.0640024564276391,1.932447753515381,3.7448374720873865,,,,,,,,,,,,
38023,0,USNorthDakotaDivide,North Dakota,Divide,2022-04-28 09:13:11,2020-12-01,1.0640024564276391,1.932447753515381,3.7448374720873865,,,,,,,,,,,,
38023,0,USNorthDakotaDivide,North Dakota,Divide,2022-04-28 09:13:11,2020-12-02,1.0640024564276391,1.932447753515381,3.7448374720873865,,,,,,,,,,,,
38023,0,USNorthDakotaDivide,North Dakota,Divide,2022-04-28 09:13:11,2020-12-03,0.4537804974848461,1.0300703959405113,2.5151521301847857,,,,,,,,,,,,
38023,0,USNorthDakotaDivide,North Dakota,Divide,2022-04-28 09:13:11,2020-12-04,0.4537804974848461,1.0300703959405113,2.5151521301847857,,,,,,,,,,,,
38023,0,USNorthDakotaDivide,North Dakota,Divide,2022-04-28 09:13:11,2020-12-05,0.4537804974848461,1.0300703959405113,2.5151521301847857,,,,,,,,,,,,
38023,0,USNorthDakotaDivide,North Dakota,Divide,2022-04-28 09:13:11,2020-12-06,0.4537804974848461,1.0300703959405113,2.5151521301847857,,,,,,,,,,,,
38023,0,USNorthDakotaDivide,North Dakota,Divide,2022-04-28 09:13:11,2020-12-07,0.4537804974848461,1.0300703959405113,2.5151521301847857,,,,,,,,,,,,
38023,0,USNorthDakotaDivide,North Dakota,Divide,2022-04-28 09:13:11,2020-12-08,0.4537804974848461,1.0300703959405113,2.5151521301847857,,,,,,,,,,,,
38023,0,USNorthDakotaDivide,North Dakota,Divide,2022-04-28 09:13:11,2020-12-09,0.4537804974848461,1.0300703959405113,2.5151521301847857,,,,,,,,,,,,
38023,0,USNorthDakotaDivide,North Dakota,Divide,2022-04-28 09:13:11,2020-12-10,0.8302902188330133,1.4198644079702691,2.5797925141837106,,,,,,,,,,,,
38023,0,USNorthDakotaDivide,North Dakota,Divide,2022-04-28 09:13:11,2020-12-11,0.8302902188330133,1.4198644079702691,2.5797925141837106,,,,,,,,,,,,
38023,0,USNorthDakotaDivide,North Dakota,Divide,2022-04-28 09:13:11,2020-12-12,0.8302902188330133,1.4198644079702691,2.5797925141837106,,,,,,,,,,,,
38023,0,USNorthDakotaDivide,North Dakota,Divide,2022-04-28 09:13:11,2020-12-13,0.8302902188330133,1.4198644079702691,2.5797925141837106,,,,,,,,,,,,
38023,0,USNorthDakotaDivide,North Dakota,Divide,2022-04-28 09:13:11,2020-12-14,0.8302902188330133,1.4198644079702691,2.5797925141837106,,,,,,,,,,,,
38023,0,USNorthDakotaDivide,North Dakota,Divide,2022-04-28 09:13:11,2020-12-15,0.8302902188330133,1.4198644079702691,2.5797925141837106,,,,,,,,,,,,
38023,0,USNorthDakotaDivide,North Dakota,Divide,2022-04-28 09:13:11,2020-12-16,0.8302902188330133,1.4198644079702691,2.5797925141837106,,,,,,,,,,,,
38023,0,USNorthDakotaDivide,North Dakota,Divide,2022-04-28 09:13:11,2020-12-17,0.24029204451661446,0.573991304484132,1.475474648509449,,,,,,,,,,,,
38023,0,USNorthDakotaDivide,North Dakota,Divide,2022-04-28 09:13:11,2020-12-18,0.24029204451661446,0.573991304484132,1.475474648509449,,,,,,,,,,,,
38023,0,USNorthDakotaDivide,North Dakota,Divide,2022-04-28 09:13:11,2020-12-19,0.24029204451661446,0.573991304484132,1.475474648509449,,,,,,,,,,,,
38023,0,USNorthDakotaDivide,North Dakota,Divide,2022-04-28 09:13:11,2020-12-20,0.24029204451661446,0.573991304484132,1.475474648509449,,,,,,,,,,,,
38023,0,USNorthDakotaDivide,North Dakota,Divide,2022-04-28 09:13:11,2020-12-21,0.24029204451661446,0.573991304484132,1.475474648509449,,,,,,,,,,,,
38023,0,USNorthDakotaDivide,North Dakota,Divide,2022-04-28 09:13:11,2020-12-22,0.24029204451661446,0.573991304484132,1.475474648509449,,,,,,,,,,,,
38023,0,USNorthDakotaDivide,North Dakota,Divide,2022-04-28 09:13:11,2020-12-23,0.24029204451661446,0.573991304484132,1.475474648509449,,,,,,,,,,,,
38023,0,USNorthDakotaDivide,North Dakota,Divide,2022-04-28 09:13:11,2020-12-24,0.24511681638075877,0.595892369222474,1.5589854132505179,,,,,,,,,,,,
38023,0,USNorthDakotaDivide,North Dakota,Divide,2022-04-28 09:13:11,2020-12-25,0.24511681638075877,0.595892369222474,1.5589854132505179,,,,,,,,,,,,
38023,0,USNorthDakotaDivide,North Dakota,Divide,2022-04-28 09:13:11,2020-12-26,0.24511681638075877,0.595892369222474,1.5589854132505179,,,,,,,,,,,,
38023,0,USNorthDakotaDivide,North Dakota,Divide,2022-04-28 09:13:11,2020-12-27,0.24511681638075877,0.595892369222474,1.5589854132505179,,,,,,,,,,,,
38023,0,USNorthDakotaDivide,North Dakota,Divide,2022-04-28 09:13:11,2020-12-28,0.24511681638075877,0.595892369222474,1.5589854132505179,,,,,,,,,,,,
38023,0,USNorthDakotaDivide,North Dakota,Divide,2022-04-28 09:13:11,2020-12-29,0.24511681638075877,0.595892369222474,1.5589854132505179,,,,,,,,,,,,
38023,0,USNorthDakotaDivide,North Dakota,Divide,2022-04-28 09:13:11,2020-12-30,0.24511681638075877,0.595892369222474,1.5589854132505179,,,,,,,,,,,,
38023,0,USNorthDakotaDivide,North Dakota,Divide,2022-04-28 09:13:11,2020-12-31,0.6730118572911574,1.1648525614510228,2.144081928936479,,,,,,,,,,,,
38023,0,USNorthDakotaDivide,North Dakota,Divide,2022-04-28 09:13:11,2021-01-01,0.6730118572911574,1.1648525614510228,2.144081928936479,,,,,,,,,,,,
38023,0,USNorthDakotaDivide,North Dakota,Divide,2022-04-28 09:13:11,2021-01-02,0.6730118572911574,1.1648525614510228,2.144081928936479,,,,,,,,,,,,
38023,0,USNorthDakotaDivide,North Dakota,Divide,2022-04-28 09:13:11,2021-01-03,0.6730118572911574,1.1648525614510228,2.144081928936479,,,,,,,,,,,,
38023,0,USNorthDakotaDivide,North Dakota,Divide,2022-04-28 09:13:11,2021-01-04,0.6730118572911574,1.1648525614510228,2.144081928936479,,,,,,,,,,,,
38023,0,USNorthDakotaDivide,North Dakota,Divide,2022-04-28 09:13:11,2021-01-05,0.6730118572911574,1.1648525614510228,2.144081928936479,,,,,,,,,,,,
38023,0,USNorthDakotaDivide,North Dakota,Divide,2022-04-28 09:13:11,2021-01-06,0.6730118572911574,1.1648525614510228,2.144081928936479,,,,,,,,,,,,
38023,0,USNorthDakotaDivide,North Dakota,Divide,2022-04-28 09:13:11,2021-01-07,0.6652457398924153,1.1392173075050478,2.0730007564272057,,,,,,,,,,,,
38023,0,USNorthDakotaDivide,North Dakota,Divide,2022-04-28 09:13:11,2021-01-08,0.6652457398924153,1.1392173075050478,2.0730007564272057,,,,,,,,,,,,
38023,0,USNorthDakotaDivide,North Dakota,Divide,2022-04-28 09:13:11,2021-01-09,0.6652457398924153,1.1392173075050478,2.0730007564272057,,,,,,,,,,,,
38023,0,USNorthDakotaDivide,North Dakota,Divide,2022-04-28 09:13:11,2021-01-10,0.6652457398924153,1.1392173075050478,2.0730007564272057,,,,,,,,,,,,
38023,0,USNorthDakotaDivide,North Dakota,Divide,2022-04-28 09:13:11,2021-01-11,0.6652457398924153,1.1392173075050478,2.0730007564272057,,,,,,,,,,,,
38023,0,USNorthDakotaDivide,North Dakota,Divide,2022-04-28 09:13:11,2021-01-12,0.6652457398924153,1.1392173075050478,2.0730007564272057,,,,,,,,,,,,
38023,0,USNorthDakotaDivide,North Dakota,Divide,2022-04-28 09:13:11,2021-01-13,0.6652457398924153,1.1392173075050478,2.0730007564272057,,,,,,,,,,,,
38023,0,USNorthDakotaDivide,North Dakota,Divide,2022-04-28 09:13:11,2021-01-14,0.37754999304786135,0.7259980681418559,1.494264744233733,,,,,,,,,,,,
38023,0,USNorthDakotaDivide,North Dakota,Divide,2022-04-28 09:13:11,2021-01-15,0.37754999304786135,0.7259980681418559,1.494264744233733,,,,,,,,,,,,
38023,0,USNorthDakotaDivide,North Dakota,Divide,2022-04-28 09:13:11,2021-01-16,0.37754999304786135,0.7259980681418559,1.494264744233733,,,,,,,,,,,,
38023,0,USNorthDakotaDivide,North Dakota,Divide,2022-04-28 09:13:11,2021-01-17,0.37754999304786135,0.7259980681418559,1.494264744233733,,,,,,,,,,,,
38023,0,USNorthDakotaDivide,North Dakota,Divide,2022-04-28 09:13:11,2021-01-18,0.37754999304786135,0.7259980681418559,1.494264744233733,,,,,,,,,,,,
38023,0,USNorthDakotaDivide,North Dakota,Divide,2022-04-28 09:13:11,2021-01-19,0.37754999304786135,0.7259980681418559,1.494264744233733,,,,,,,,,,,,
38023,0,USNorthDakotaDivide,North Dakota,Divide,2022-04-28 09:13:11,2021-01-20,0.37754999304786135,0.7259980681418559,1.494264744233733,,,,,,,,,,,,
38023,0,USNorthDakotaDivide,North Dakota,Divide,2022-04-28 09:13:11,2021-01-21,0,0,0,,,,,,,,,,,,
38023,0,USNorthDakotaDivide,North Dakota,Divide,2022-04-28 09:13:11,2021-01-22,0,0,0,,,,,,,,,,,,
38023,0,USNorthDakotaDivide,North Dakota,Divide,2022-04-28 09:13:11,2021-01-23,0,0,0,,,,,,,,,,,,
38023,0,USNorthDakotaDivide,North Dakota,Divide,2022-04-28 09:13:11,2021-01-24,0,0,0,,,,,,,,,,,,
38023,0,USNorthDakotaDivide,North Dakota,Divide,2022-04-28 09:13:11,2021-01-25,0,0,0,,,,,,,,,,,,
38023,0,USNorthDakotaDivide,North Dakota,Divide,2022-04-28 09:13:11,2021-01-26,0,0,0,,,,,,,,,,,,
38023,0,USNorthDakotaDivide,North Dakota,Divide,2022-04-28 09:13:11,2021-01-27,0,0,0,,,,,,,,,,,,
38023,0,USNorthDakotaDivide,North Dakota,Divide,2022-04-28 09:13:11,2021-01-28,0.2160478958961736,0.46939511020566843,1.0961740884634357,,,,,,,,,,,,
38023,0,USNorthDakotaDivide,North Dakota,Divide,2022-04-28 09:13:11,2021-01-29,0.2160478958961736,0.46939511020566843,1.0961740884634357,,,,,,,,,,,,
38023,0,USNorthDakotaDivide,North Dakota,Divide,2022-04-28 09:13:11,2021-01-30,0.2160478958961736,0.46939511020566843,1.0961740884634357,,,,,,,,,,,,
38023,0,USNorthDakotaDivide,North Dakota,Divide,2022-04-28 09:13:11,2021-01-31,0.2160478958961736,0.46939511020566843,1.0961740884634357,,,,,,,,,,,,
38023,0,USNorthDakotaDivide,North Dakota,Divide,2022-04-28 09:13:11,2021-02-01,0.2160478958961736,0.46939511020566843,1.0961740884634357,,,,,,,,,,,,
38023,0,USNorthDakotaDivide,North Dakota,Divide,2022-04-28 09:13:11,2021-02-02,0.2160478958961736,0.46939511020566843,1.0961740884634357,,,,,,,,,,,,
38023,0,USNorthDakotaDivide,North Dakota,Divide,2022-04-28 09:13:11,2021-02-03,0.2160478958961736,0.46939511020566843,1.0961740884634357,,,,,,,,,,,,
38023,0,USNorthDakotaDivide,North Dakota,Divide,2022-04-28 09:13:11,2021-02-04,0,0,0,,,,,,,,,,,,
38023,0,USNorthDakotaDivide,North Dakota,Divide,2022-04-28 09:13:11,2021-02-05,0,0,0,,,,,,,,,,,,
38023,0,USNorthDakotaDivide,North Dakota,Divide,2022-04-28 09:13:11,2021-02-06,0,0,0,,,,,,,,,,,,
38023,0,USNorthDakotaDivide,North Dakota,Divide,2022-04-28 09:13:11,2021-02-07,0,0,0,,,,,,,,,,,,
38023,0,USNorthDakotaDivide,North Dakota,Divide,2022-04-28 09:13:11,2021-02-08,0,0,0,,,,,,,,,,,,
38023,0,USNorthDakotaDivide,North Dakota,Divide,2022-04-28 09:13:11,2021-02-09,0,0,0,,,,,,,,,,,,
38023,0,USNorthDakotaDivide,North Dakota,Divide,2022-04-28 09:13:11,2021-02-10,0,0,0,,,,,,,,,,,,
38023,0,USNorthDakotaDivide,North Dakota,Divide,2022-04-28 09:13:11,2021-02-11,0.6346045306764546,1.040723906669109,1.8070170154940994,,,,,,,,,,,,
38023,0,USNorthDakotaDivide,North Dakota,Divide,2022-04-28 09:13:11,2021-02-12,0.6346045306764546,1.040723906669109,1.8070170154940994,,,,,,,,,,,,
38023,0,USNorthDakotaDivide,North Dakota,Divide,2022-04-28 09:13:11,2021-02-13,0.6346045306764546,1.040723906669109,1.8070170154940994,,,,,,,,,,,,
38023,0,USNorthDakotaDivide,North Dakota,Divide,2022-04-28 09:13:11,2021-02-14,0.6346045306764546,1.040723906669109,1.8070170154940994,,,,,,,,,,,,
38023,0,USNorthDakotaDivide,North Dakota,Divide,2022-04-28 09:13:11,2021-02-15,0.6346045306764546,1.040723906669109,1.8070170154940994,,,,,,,,,,,,
38023,0,USNorthDakotaDivide,North Dakota,Divide,2022-04-28 09:13:11,2021-02-16,0.6346045306764546,1.040723906669109,1.8070170154940994,,,,,,,,,,,,
38023,0,USNorthDakotaDivide,North Dakota,Divide,2022-04-28 09:13:11,2021-02-17,0.6346045306764546,1.040723906669109,1.8070170154940994,,,,,,,,,,,,
38023,0,USNorthDakotaDivide,North Dakota,Divide,2022-04-28 09:13:11,2021-02-18,0.8698033248928607,1.3133184739194963,2.0820822215589745,,,,,,,,,,,,
38023,0,USNorthDakotaDivide,North Dakota,Divide,2022-04-28 09:13:11,2021-02-19,0.8698033248928607,1.3133184739194963,2.0820822215589745,,,,,,,,,,,,
38023,0,USNorthDakotaDivide,North Dakota,Divide,2022-04-28 09:13:11,2021-02-20,0.8698033248928607,1.3133184739194963,2.0820822215589745,,,,,,,,,,,,
38023,0,USNorthDakotaDivide,North Dakota,Divide,2022-04-28 09:13:11,2021-02-21,0.8698033248928607,1.3133184739194963,2.0820822215589745,,,,,,,,,,,,
38023,0,USNorthDakotaDivide,North Dakota,Divide,2022-04-28 09:13:11,2021-02-22,0.8698033248928607,1.3133184739194963,2.0820822215589745,,,,,,,,,,,,
38023,0,USNorthDakotaDivide,North Dakota,Divide,2022-04-28 09:13:11,2021-02-23,0.8698033248928607,1.3133184739194963,2.0820822215589745,,,,,,,,,,,,
38023,0,USNorthDakotaDivide,North Dakota,Divide,2022-04-28 09:13:11,2021-02-24,0.8698033248928607,1.3133184739194963,2.0820822215589745,,,,,,,,,,,,
38023,0,USNorthDakotaDivide,North Dakota,Divide,2022-04-28 09:13:11,2021-02-25,0.9330172341441462,1.3052712766607113,1.8996580831796994,,,,,,,,,,,,
38023,0,USNorthDakotaDivide,North Dakota,Divide,2022-04-28 09:13:11,2021-02-26,0.9330172341441462,1.3052712766607113,1.8996580831796994,,,,,,,,,,,,
38023,0,USNorthDakotaDivide,North Dakota,Divide,2022-04-28 09:13:11,2021-02-27,0.9330172341441462,1.3052712766607113,1.8996580831796994,,,,,,,,,,,,
38023,0,USNorthDakotaDivide,North Dakota,Divide,2022-04-28 09:13:11,2021-02-28,0.9330172341441462,1.3052712766607113,1.8996580831796994,,,,,,,,,,,,
38023,0,USNorthDakotaDivide,North Dakota,Divide,2022-04-28 09:13:11,2021-03-01,0.9330172341441462,1.3052712766607113,1.8996580831796994,,,,,,,,,,,,
38023,0,USNorthDakotaDivide,North Dakota,Divide,2022-04-28 09:13:11,2021-03-02,0.9330172341441462,1.3052712766607113,1.8996580831796994,,,,,,,,,,,,
38023,0,USNorthDakotaDivide,North Dakota,Divide,2022-04-28 09:13:11,2021-03-03,0.9330172341441462,1.3052712766607113,1.8996580831796994,,,,,,,,,,,,
38023,0,USNorthDakotaDivide,North Dakota,Divide,2022-04-28 09:13:11,2021-03-04,1.1141396469242844,1.6218615239090646,2.4684206079393425,,,,,,,,,,,,
38023,0,USNorthDakotaDivide,North Dakota,Divide,2022-04-28 09:13:11,2021-03-05,1.1141396469242844,1.6218615239090646,2.4684206079393425,,,,,,,,,,,,
38023,0,USNorthDakotaDivide,North Dakota,Divide,2022-04-28 09:13:11,2021-03-06,1.1141396469242844,1.6218615239090646,2.4684206079393425,,,,,,,,,,,,
38023,0,USNorthDakotaDivide,North Dakota,Divide,2022-04-28 09:13:11,2021-03-07,1.1141396469242844,1.6218615239090646,2.4684206079393425,,,,,,,,,,,,
38023,0,USNorthDakotaDivide,North Dakota,Divide,2022-04-28 09:13:11,2021-03-08,1.1141396469242844,1.6218615239090646,2.4684206079393425,,,,,,,,,,,,
38023,0,USNorthDakotaDivide,North Dakota,Divide,2022-04-28 09:13:11,2021-03-09,1.1141396469242844,1.6218615239090646,2.4684206079393425,,,,,,,,,,,,
38023,0,USNorthDakotaDivide,North Dakota,Divide,2022-04-28 09:13:11,2021-03-10,1.1141396469242844,1.6218615239090646,2.4684206079393425,,,,,,,,,,,,
38023,0,USNorthDakotaDivide,North Dakota,Divide,2022-04-28 09:13:11,2021-03-11,0,0,0,,,,,,,,,,,,
38023,0,USNorthDakotaDivide,North Dakota,Divide,2022-04-28 09:13:11,2021-03-12,0,0,0,,,,,,,,,,,,
38023,0,USNorthDakotaDivide,North Dakota,Divide,2022-04-28 09:13:11,2021-03-13,0,0,0,,,,,,,,,,,,
38023,0,USNorthDakotaDivide,North Dakota,Divide,2022-04-28 09:13:11,2021-03-14,0,0,0,,,,,,,,,,,,
38023,0,USNorthDakotaDivide,North Dakota,Divide,2022-04-28 09:13:11,2021-03-15,0,0,0,,,,,,,,,,,,
38023,0,USNorthDakotaDivide,North Dakota,Divide,2022-04-28 09:13:11,2021-03-16,0,0,0,,,,,,,,,,,,
38023,0,USNorthDakotaDivide,North Dakota,Divide,2022-04-28 09:13:11,2021-03-17,0,0,0,,,,,,,,,,,,
38023,0,USNorthDakotaDivide,North Dakota,Divide,2022-04-28 09:13:11,2021-03-18,0.24703319408775878,0.6046895947686083,1.5929081653313286,,,,,,,,,,,,
38023,0,USNorthDakotaDivide,North Dakota,Divide,2022-04-28 09:13:11,2021-03-19,0.24703319408775878,0.6046895947686083,1.5929081653313286,,,,,,,,,,,,
38023,0,USNorthDakotaDivide,North Dakota,Divide,2022-04-28 09:13:11,2021-03-20,0.24703319408775878,0.6046895947686083,1.5929081653313286,,,,,,,,,,,,
38023,0,USNorthDakotaDivide,North Dakota,Divide,2022-04-28 09:13:11,2021-03-21,0.24703319408775878,0.6046895947686083,1.5929081653313286,,,,,,,,,,,,
38023,0,USNorthDakotaDivide,North Dakota,Divide,2022-04-28 09:13:11,2021-03-22,0.24703319408775878,0.6046895947686083,1.5929081653313286,,,,,,,,,,,,
38023,0,USNorthDakotaDivide,North Dakota,Divide,2022-04-28 09:13:11,2021-03-23,0.24703319408775878,0.6046895947686083,1.5929081653313286,,,,,,,,,,,,
38023,0,USNorthDakotaDivide,North Dakota,Divide,2022-04-28 09:13:11,2021-03-24,0.24703319408775878,0.6046895947686083,1.5929081653313286,,,,,,,,,,,,
38023,0,USNorthDakotaDivide,North Dakota,Divide,2022-04-28 09:13:11,2021-03-25,0,0,0,,,,,,,,,,,,
38023,0,USNorthDakotaDivide,North Dakota,Divide,2022-04-28 09:13:11,2021-03-26,0,0,0,,,,,,,,,,,,
38023,0,USNorthDakotaDivide,North Dakota,Divide,2022-04-28 09:13:11,2021-03-27,0,0,0,,,,,,,,,,,,
38023,0,USNorthDakotaDivide,North Dakota,Divide,2022-04-28 09:13:11,2021-03-28,0,0,0,,,,,,,,,,,,
38023,0,USNorthDakotaDivide,North Dakota,Divide,2022-04-28 09:13:11,2021-03-29,0,0,0,,,,,,,,,,,,
38023,0,USNorthDakotaDivide,North Dakota,Divide,2022-04-28 09:13:11,2021-03-30,0,0,0,,,,,,,,,,,,
38023,0,USNorthDakotaDivide,North Dakota,Divide,2022-04-28 09:13:11,2021-03-31,0,0,0,,,,,,,,,,,,
38023,0,USNorthDakotaDivide,North Dakota,Divide,2022-04-28 09:13:11,2021-04-01,0,0,0,,,,,,,,,,,,
38023,0,USNorthDakotaDivide,North Dakota,Divide,2022-04-28 09:13:11,2021-04-02,0,0,0,,,,,,,,,,,,
38023,0,USNorthDakotaDivide,North Dakota,Divide,2022-04-28 09:13:11,2021-04-03,0,0,0,,,,,,,,,,,,
38023,0,USNorthDakotaDivide,North Dakota,Divide,2022-04-28 09:13:11,2021-04-04,0,0,0,,,,,,,,,,,,
38023,0,USNorthDakotaDivide,North Dakota,Divide,2022-04-28 09:13:11,2021-04-05,0,0,0,,,,,,,,,,,,
38023,0,USNorthDakotaDivide,North Dakota,Divide,2022-04-28 09:13:11,2021-04-06,0,0,0,,,,,,,,,,,,
38023,0,USNorthDakotaDivide,North Dakota,Divide,2022-04-28 09:13:11,2021-04-07,0,0,0,,,,,,,,,,,,
38023,0,USNorthDakotaDivide,North Dakota,Divide,2022-04-28 09:13:11,2021-04-08,0,0,0,,,,,,,,,,,,
38023,0,USNorthDakotaDivide,North Dakota,Divide,2022-04-28 09:13:11,2021-04-09,0,0,0,,,,,,,,,,,,
38023,0,USNorthDakotaDivide,North Dakota,Divide,2022-04-28 09:13:11,2021-04-10,0,0,0,,,,,,,,,,,,
38023,0,USNorthDakotaDivide,North Dakota,Divide,2022-04-28 09:13:11,2021-04-11,0,0,0,,,,,,,,,,,,
38023,0,USNorthDakotaDivide,North Dakota,Divide,2022-04-28 09:13:11,2021-04-12,0,0,0,,,,,,,,,,,,
38023,0,USNorthDakotaDivide,North Dakota,Divide,2022-04-28 09:13:11,2021-04-13,0,0,0,,,,,,,,,,,,
38023,0,USNorthDakotaDivide,North Dakota,Divide,2022-04-28 09:13:11,2021-04-14,0,0,0,,,,,,,,,,,,
38023,0,USNorthDakotaDivide,North Dakota,Divide,2022-04-28 09:13:11,2021-04-15,0.2575417133890681,0.6539128707273553,1.7866037851329217,,,,,,,,,,,,
38023,0,USNorthDakotaDivide,North Dakota,Divide,2022-04-28 09:13:11,2021-04-16,0.2575417133890681,0.6539128707273553,1.7866037851329217,,,,,,,,,,,,
38023,0,USNorthDakotaDivide,North Dakota,Divide,2022-04-28 09:13:11,2021-04-17,0.2575417133890681,0.6539128707273553,1.7866037851329217,,,,,,,,,,,,
38023,0,USNorthDakotaDivide,North Dakota,Divide,2022-04-28 09:13:11,2021-04-18,0.2575417133890681,0.6539128707273553,1.7866037851329217,,,,,,,,,,,,
38023,0,USNorthDakotaDivide,North Dakota,Divide,2022-04-28 09:13:11,2021-04-19,0.2575417133890681,0.6539128707273553,1.7866037851329217,,,,,,,,,,,,
38023,0,USNorthDakotaDivide,North Dakota,Divide,2022-04-28 09:13:11,2021-04-20,0.2575417133890681,0.6539128707273553,1.7866037851329217,,,,,,,,,,,,
38023,0,USNorthDakotaDivide,North Dakota,Divide,2022-04-28 09:13:11,2021-04-21,0.2575417133890681,0.6539128707273553,1.7866037851329217,,,,,,,,,,,,
38023,0,USNorthDakotaDivide,North Dakota,Divide,2022-04-28 09:13:11,2021-04-22,0.2456965933880196,0.5985479897086589,1.5692030498366119,,,,,,,,,,,,
38023,0,USNorthDakotaDivide,North Dakota,Divide,2022-04-28 09:13:11,2021-04-23,0.2456965933880196,0.5985479897086589,1.5692030498366119,,,,,,,,,,,,
38023,0,USNorthDakotaDivide,North Dakota,Divide,2022-04-28 09:13:11,2021-04-24,0.2456965933880196,0.5985479897086589,1.5692030498366119,,,,,,,,,,,,
38023,0,USNorthDakotaDivide,North Dakota,Divide,2022-04-28 09:13:11,2021-04-25,0.2456965933880196,0.5985479897086589,1.5692030498366119,,,,,,,,,,,,
38023,0,USNorthDakotaDivide,North Dakota,Divide,2022-04-28 09:13:11,2021-04-26,0.2456965933880196,0.5985479897086589,1.5692030498366119,,,,,,,,,,,,
38023,0,USNorthDakotaDivide,North Dakota,Divide,2022-04-28 09:13:11,2021-04-27,0.2456965933880196,0.5985479897086589,1.5692030498366119,,,,,,,,,,,,
38023,0,USNorthDakotaDivide,North Dakota,Divide,2022-04-28 09:13:11,2021-04-28,0.2456965933880196,0.5985479897086589,1.5692030498366119,,,,,,,,,,,,
38023,0,USNorthDakotaDivide,North Dakota,Divide,2022-04-28 09:13:11,2021-04-29,0.42502090390273894,0.9098187854391957,2.092691433155944,,,,,,,,,,,,
38023,0,USNorthDakotaDivide,North Dakota,Divide,2022-04-28 09:13:11,2021-04-30,0.42502090390273894,0.9098187854391957,2.092691433155944,,,,,,,,,,,,
38023,0,USNorthDakotaDivide,North Dakota,Divide,2022-04-28 09:13:11,2021-05-01,0.42502090390273894,0.9098187854391957,2.092691433155944,,,,,,,,,,,,
38023,0,USNorthDakotaDivide,North Dakota,Divide,2022-04-28 09:13:11,2021-05-02,0.42502090390273894,0.9098187854391957,2.092691433155944,,,,,,,,,,,,
38023,0,USNorthDakotaDivide,North Dakota,Divide,2022-04-28 09:13:11,2021-05-03,0.42502090390273894,0.9098187854391957,2.092691433155944,,,,,,,,,,,,
38023,0,USNorthDakotaDivide,North Dakota,Divide,2022-04-28 09:13:11,2021-05-04,0.42502090390273894,0.9098187854391957,2.092691433155944,,,,,,,,,,,,
38023,0,USNorthDakotaDivide,North Dakota,Divide,2022-04-28 09:13:11,2021-05-05,0.42502090390273894,0.9098187854391957,2.092691433155944,,,,,,,,,,,,
38023,0,USNorthDakotaDivide,North Dakota,Divide,2022-04-28 09:13:11,2021-05-06,0.40804667535487726,0.8419588805539214,1.8647838564971426,,,,,,,,,,,,
38023,0,USNorthDakotaDivide,North Dakota,Divide,2022-04-28 09:13:11,2021-05-07,0.40804667535487726,0.8419588805539214,1.8647838564971426,,,,,,,,,,,,
38023,0,USNorthDakotaDivide,North Dakota,Divide,2022-04-28 09:13:11,2021-05-08,0.40804667535487726,0.8419588805539214,1.8647838564971426,,,,,,,,,,,,
38023,0,USNorthDakotaDivide,North Dakota,Divide,2022-04-28 09:13:11,2021-05-09,0.40804667535487726,0.8419588805539214,1.8647838564971426,,,,,,,,,,,,
38023,0,USNorthDakotaDivide,North Dakota,Divide,2022-04-28 09:13:11,2021-05-10,0.40804667535487726,0.8419588805539214,1.8647838564971426,,,,,,,,,,,,
38023,0,USNorthDakotaDivide,North Dakota,Divide,2022-04-28 09:13:11,2021-05-11,0.40804667535487726,0.8419588805539214,1.8647838564971426,,,,,,,,,,,,
38023,0,USNorthDakotaDivide,North Dakota,Divide,2022-04-28 09:13:11,2021-05-12,0.40804667535487726,0.8419588805539214,1.8647838564971426,,,,,,,,,,,,
38023,0,USNorthDakotaDivide,North Dakota,Divide,2022-04-28 09:13:11,2021-05-13,0.5553025578506768,1.048836920337376,2.11848240550572,,,,,,,,,,,,
38023,0,USNorthDakotaDivide,North Dakota,Divide,2022-04-28 09:13:11,2021-05-14,0.5553025578506768,1.048836920337376,2.11848240550572,,,,,,,,,,,,
38023,0,USNorthDakotaDivide,North Dakota,Divide,2022-04-28 09:13:11,2021-05-15,0.5553025578506768,1.048836920337376,2.11848240550572,,,,,,,,,,,,
38023,0,USNorthDakotaDivide,North Dakota,Divide,2022-04-28 09:13:11,2021-05-16,0.5553025578506768,1.048836920337376,2.11848240550572,,,,,,,,,,,,
38023,0,USNorthDakotaDivide,North Dakota,Divide,2022-04-28 09:13:11,2021-05-17,0.5553025578506768,1.048836920337376,2.11848240550572,,,,,,,,,,,,
38023,0,USNorthDakotaDivide,North Dakota,Divide,2022-04-28 09:13:11,2021-05-18,0.5553025578506768,1.048836920337376,2.11848240550572,,,,,,,,,,,,
38023,0,USNorthDakotaDivide,North Dakota,Divide,2022-04-28 09:13:11,2021-05-19,0.5553025578506768,1.048836920337376,2.11848240550572,,,,,,,,,,,,
38023,0,USNorthDakotaDivide,North Dakota,Divide,2022-04-28 09:13:11,2021-05-20,0.22921285395475963,0.5250528783424678,1.2938705633979617,,,,,,,,,,,,
38023,0,USNorthDakotaDivide,North Dakota,Divide,2022-04-28 09:13:11,2021-05-21,0.22921285395475963,0.5250528783424678,1.2938705633979617,,,,,,,,,,,,
38023,0,USNorthDakotaDivide,North Dakota,Divide,2022-04-28 09:13:11,2021-05-22,0.22921285395475963,0.5250528783424678,1.2938705633979617,,,,,,,,,,,,
38023,0,USNorthDakotaDivide,North Dakota,Divide,2022-04-28 09:13:11,2021-05-23,0.22921285395475963,0.5250528783424678,1.2938705633979617,,,,,,,,,,,,
38023,0,USNorthDakotaDivide,North Dakota,Divide,2022-04-28 09:13:11,2021-05-24,0.22921285395475963,0.5250528783424678,1.2938705633979617,,,,,,,,,,,,
38023,0,USNorthDakotaDivide,North Dakota,Divide,2022-04-28 09:13:11,2021-05-25,0.22921285395475963,0.5250528783424678,1.2938705633979617,,,,,,,,,,,,
38023,0,USNorthDakotaDivide,North Dakota,Divide,2022-04-28 09:13:11,2021-05-26,0.22921285395475963,0.5250528783424678,1.2938705633979617,,,,,,,,,,,,
38023,0,USNorthDakotaDivide,North Dakota,Divide,2022-04-28 09:13:11,2021-05-27,0.37752513981289726,0.7259067424100737,1.4939828522783423,,,,,,,,,,,,
38023,0,USNorthDakotaDivide,North Dakota,Divide,2022-04-28 09:13:11,2021-05-28,0.37752513981289726,0.7259067424100737,1.4939828522783423,,,,,,,,,,,,
38023,0,USNorthDakotaDivide,North Dakota,Divide,2022-04-28 09:13:11,2021-05-29,0.37752513981289726,0.7259067424100737,1.4939828522783423,,,,,,,,,,,,
38023,0,USNorthDakotaDivide,North Dakota,Divide,2022-04-28 09:13:11,2021-05-30,0.37752513981289726,0.7259067424100737,1.4939828522783423,,,,,,,,,,,,
38023,0,USNorthDakotaDivide,North Dakota,Divide,2022-04-28 09:13:11,2021-05-31,0.37752513981289726,0.7259067424100737,1.4939828522783423,,,,,,,,,,,,
38023,0,USNorthDakotaDivide,North Dakota,Divide,2022-04-28 09:13:11,2021-06-01,0.37752513981289726,0.7259067424100737,1.4939828522783423,,,,,,,,,,,,
38023,0,USNorthDakotaDivide,North Dakota,Divide,2022-04-28 09:13:11,2021-06-02,0.37752513981289726,0.7259067424100737,1.4939828522783423,,,,,,,,,,,,
38023,0,USNorthDakotaDivide,North Dakota,Divide,2022-04-28 09:13:11,2021-06-03,0,0,0,,,,,,,,,,,,
38023,0,USNorthDakotaDivide,North Dakota,Divide,2022-04-28 09:13:11,2021-06-04,0,0,0,,,,,,,,,,,,
38023,0,USNorthDakotaDivide,North Dakota,Divide,2022-04-28 09:13:11,2021-06-05,0,0,0,,,,,,,,,,,,
38023,0,USNorthDakotaDivide,North Dakota,Divide,2022-04-28 09:13:11,2021-06-06,0,0,0,,,,,,,,,,,,
38023,0,USNorthDakotaDivide,North Dakota,Divide,2022-04-28 09:13:11,2021-06-07,0,0,0,,,,,,,,,,,,
38023,0,USNorthDakotaDivide,North Dakota,Divide,2022-04-28 09:13:11,2021-06-08,0,0,0,,,,,,,,,,,,
38023,0,USNorthDakotaDivide,North Dakota,Divide,2022-04-28 09:13:11,2021-06-09,0,0,0,,,,,,,,,,,,
38023,0,USNorthDakotaDivide,North Dakota,Divide,2022-04-28 09:13:11,2021-06-10,0,0,0,,,,,,,,,,,,
38023,0,USNorthDakotaDivide,North Dakota,Divide,2022-04-28 09:13:11,2021-06-11,0,0,0,,,,,,,,,,,,
38023,0,USNorthDakotaDivide,North Dakota,Divide,2022-04-28 09:13:11,2021-06-12,0,0,0,,,,,,,,,,,,
38023,0,USNorthDakotaDivide,North Dakota,Divide,2022-04-28 09:13:11,2021-06-13,0,0,0,,,,,,,,,,,,
38023,0,USNorthDakotaDivide,North Dakota,Divide,2022-04-28 09:13:11,2021-06-14,0,0,0,,,,,,,,,,,,
38023,0,USNorthDakotaDivide,North Dakota,Divide,2022-04-28 09:13:11,2021-06-15,0,0,0,,,,,,,,,,,,
38023,0,USNorthDakotaDivide,North Dakota,Divide,2022-04-28 09:13:11,2021-06-16,0,0,0,,,,,,,,,,,,
38023,0,USNorthDakotaDivide,North Dakota,Divide,2022-04-28 09:13:11,2021-06-17,0,0,0,,,,,,,,,,,,
38023,0,USNorthDakotaDivide,North Dakota,Divide,2022-04-28 09:13:11,2021-06-18,0,0,0,,,,,,,,,,,,
38023,0,USNorthDakotaDivide,North Dakota,Divide,2022-04-28 09:13:11,2021-06-19,0,0,0,,,,,,,,,,,,
38023,0,USNorthDakotaDivide,North Dakota,Divide,2022-04-28 09:13:11,2021-06-20,0,0,0,,,,,,,,,,,,
38023,0,USNorthDakotaDivide,North Dakota,Divide,2022-04-28 09:13:11,2021-06-21,0,0,0,,,,,,,,,,,,
38023,0,USNorthDakotaDivide,North Dakota,Divide,2022-04-28 09:13:11,2021-06-22,0,0,0,,,,,,,,,,,,
38023,0,USNorthDakotaDivide,North Dakota,Divide,2022-04-28 09:13:11,2021-06-23,0,0,0,,,,,,,,,,,,
38023,0,USNorthDakotaDivide,North Dakota,Divide,2022-04-28 09:13:11,2021-06-24,0,0,0,,,,,,,,,,,,
38023,0,USNorthDakotaDivide,North Dakota,Divide,2022-04-28 09:13:11,2021-06-25,0,0,0,,,,,,,,,,,,
38023,0,USNorthDakotaDivide,North Dakota,Divide,2022-04-28 09:13:11,2021-06-26,0,0,0,,,,,,,,,,,,
38023,0,USNorthDakotaDivide,North Dakota,Divide,2022-04-28 09:13:11,2021-06-27,0,0,0,,,,,,,,,,,,
38023,0,USNorthDakotaDivide,North Dakota,Divide,2022-04-28 09:13:11,2021-06-28,0,0,0,,,,,,,,,,,,
38023,0,USNorthDakotaDivide,North Dakota,Divide,2022-04-28 09:13:11,2021-06-29,0,0,0,,,,,,,,,,,,
38023,0,USNorthDakotaDivide,North Dakota,Divide,2022-04-28 09:13:11,2021-06-30,0,0,0,,,,,,,,,,,,
38023,0,USNorthDakotaDivide,North Dakota,Divide,2022-04-28 09:13:11,2021-07-01,0,0,0,,,,,,,,,,,,
38023,0,USNorthDakotaDivide,North Dakota,Divide,2022-04-28 09:13:11,2021-07-02,0,0,0,,,,,,,,,,,,
38023,0,USNorthDakotaDivide,North Dakota,Divide,2022-04-28 09:13:11,2021-07-03,0,0,0,,,,,,,,,,,,
38023,0,USNorthDakotaDivide,North Dakota,Divide,2022-04-28 09:13:11,2021-07-04,0,0,0,,,,,,,,,,,,
38023,0,USNorthDakotaDivide,North Dakota,Divide,2022-04-28 09:13:11,2021-07-05,0,0,0,,,,,,,,,,,,
38023,0,USNorthDakotaDivide,North Dakota,Divide,2022-04-28 09:13:11,2021-07-06,0,0,0,,,,,,,,,,,,
38023,0,USNorthDakotaDivide,North Dakota,Divide,2022-04-28 09:13:11,2021-07-07,0,0,0,,,,,,,,,,,,
38023,0,USNorthDakotaDivide,North Dakota,Divide,2022-04-28 09:13:11,2021-07-08,0.19790732281080126,0.3972592457922385,0.8551111087543941,,,,,,,,,,,,
38023,0,USNorthDakotaDivide,North Dakota,Divide,2022-04-28 09:13:11,2021-07-09,0.19790732281080126,0.3972592457922385,0.8551111087543941,,,,,,,,,,,,
38023,0,USNorthDakotaDivide,North Dakota,Divide,2022-04-28 09:13:11,2021-07-10,0.19790732281080126,0.3972592457922385,0.8551111087543941,,,,,,,,,,,,
38023,0,USNorthDakotaDivide,North Dakota,Divide,2022-04-28 09:13:11,2021-07-11,0.19790732281080126,0.3972592457922385,0.8551111087543941,,,,,,,,,,,,
38023,0,USNorthDakotaDivide,North Dakota,Divide,2022-04-28 09:13:11,2021-07-12,0.19790732281080126,0.3972592457922385,0.8551111087543941,,,,,,,,,,,,
38023,0,USNorthDakotaDivide,North Dakota,Divide,2022-04-28 09:13:11,2021-07-13,0.19790732281080126,0.3972592457922385,0.8551111087543941,,,,,,,,,,,,
38023,0,USNorthDakotaDivide,North Dakota,Divide,2022-04-28 09:13:11,2021-07-14,0.19790732281080126,0.3972592457922385,0.8551111087543941,,,,,,,,,,,,
38023,0,USNorthDakotaDivide,North Dakota,Divide,2022-04-28 09:13:11,2021-07-15,0.4838267395844076,0.8054915651640715,1.421671012252093,,,,,,,,,,,,
38023,0,USNorthDakotaDivide,North Dakota,Divide,2022-04-28 09:13:11,2021-07-16,0.4838267395844076,0.8054915651640715,1.421671012252093,,,,,,,,,,,,
38023,0,USNorthDakotaDivide,North Dakota,Divide,2022-04-28 09:13:11,2021-07-17,0.4838267395844076,0.8054915651640715,1.421671012252093,,,,,,,,,,,,
38023,0,USNorthDakotaDivide,North Dakota,Divide,2022-04-28 09:13:11,2021-07-18,0.4838267395844076,0.8054915651640715,1.421671012252093,,,,,,,,,,,,
38023,0,USNorthDakotaDivide,North Dakota,Divide,2022-04-28 09:13:11,2021-07-19,0.4838267395844076,0.8054915651640715,1.421671012252093,,,,,,,,,,,,
38023,0,USNorthDakotaDivide,North Dakota,Divide,2022-04-28 09:13:11,2021-07-20,0.4838267395844076,0.8054915651640715,1.421671012252093,,,,,,,,,,,,
38023,0,USNorthDakotaDivide,North Dakota,Divide,2022-04-28 09:13:11,2021-07-21,0.4838267395844076,0.8054915651640715,1.421671012252093,,,,,,,,,,,,
38023,0,USNorthDakotaDivide,North Dakota,Divide,2022-04-28 09:13:11,2021-07-22,0.2336565770719079,0.5444535007028225,1.3650201984642591,,,,,,,,,,,,
38023,0,USNorthDakotaDivide,North Dakota,Divide,2022-04-28 09:13:11,2021-07-23,0.2336565770719079,0.5444535007028225,1.3650201984642591,,,,,,,,,,,,
38023,0,USNorthDakotaDivide,North Dakota,Divide,2022-04-28 09:13:11,2021-07-24,0.2336565770719079,0.5444535007028225,1.3650201984642591,,,,,,,,,,,,
38023,0,USNorthDakotaDivide,North Dakota,Divide,2022-04-28 09:13:11,2021-07-25,0.2336565770719079,0.5444535007028225,1.3650201984642591,,,,,,,,,,,,
38023,0,USNorthDakotaDivide,North Dakota,Divide,2022-04-28 09:13:11,2021-07-26,0.2336565770719079,0.5444535007028225,1.3650201984642591,,,,,,,,,,,,
38023,0,USNorthDakotaDivide,North Dakota,Divide,2022-04-28 09:13:11,2021-07-27,0.2336565770719079,0.5444535007028225,1.3650201984642591,,,,,,,,,,,,
38023,0,USNorthDakotaDivide,North Dakota,Divide,2022-04-28 09:13:11,2021-07-28,0.2336565770719079,0.5444535007028225,1.3650201984642591,,,,,,,,,,,,
38023,0,USNorthDakotaDivide,North Dakota,Divide,2022-04-28 09:13:11,2021-07-29,0.24868380773606902,0.6123113750718476,1.622471114919511,,,,,,,,,,,,
38023,0,USNorthDakotaDivide,North Dakota,Divide,2022-04-28 09:13:11,2021-07-30,0.24868380773606902,0.6123113750718476,1.622471114919511,,,,,,,,,,,,
38023,0,USNorthDakotaDivide,North Dakota,Divide,2022-04-28 09:13:11,2021-07-31,0.24868380773606902,0.6123113750718476,1.622471114919511,,,,,,,,,,,,
38023,0,USNorthDakotaDivide,North Dakota,Divide,2022-04-28 09:13:11,2021-08-01,0.24868380773606902,0.6123113750718476,1.622471114919511,,,,,,,,,,,,
38023,0,USNorthDakotaDivide,North Dakota,Divide,2022-04-28 09:13:11,2021-08-02,0.24868380773606902,0.6123113750718476,1.622471114919511,,,,,,,,,,,,
38023,0,USNorthDakotaDivide,North Dakota,Divide,2022-04-28 09:13:11,2021-08-03,0.24868380773606902,0.6123113750718476,1.622471114919511,,,,,,,,,,,,
38023,0,USNorthDakotaDivide,North Dakota,Divide,2022-04-28 09:13:11,2021-08-04,0.24868380773606902,0.6123113750718476,1.622471114919511,,,,,,,,,,,,
38023,0,USNorthDakotaDivide,North Dakota,Divide,2022-04-28 09:13:11,2021-08-05,0.26181288233306876,0.6743908317341102,1.8690768772403092,,,,,,,,,,,,
38023,0,USNorthDakotaDivide,North Dakota,Divide,2022-04-28 09:13:11,2021-08-06,0.26181288233306876,0.6743908317341102,1.8690768772403092,,,,,,,,,,,,
38023,0,USNorthDakotaDivide,North Dakota,Divide,2022-04-28 09:13:11,2021-08-07,0.26181288233306876,0.6743908317341102,1.8690768772403092,,,,,,,,,,,,
38023,0,USNorthDakotaDivide,North Dakota,Divide,2022-04-28 09:13:11,2021-08-08,0.26181288233306876,0.6743908317341102,1.8690768772403092,,,,,,,,,,,,
38023,0,USNorthDakotaDivide,North Dakota,Divide,2022-04-28 09:13:11,2021-08-09,0.26181288233306876,0.6743908317341102,1.8690768772403092,,,,,,,,,,,,
38023,0,USNorthDakotaDivide,North Dakota,Divide,2022-04-28 09:13:11,2021-08-10,0.26181288233306876,0.6743908317341102,1.8690768772403092,,,,,,,,,,,,
38023,0,USNorthDakotaDivide,North Dakota,Divide,2022-04-28 09:13:11,2021-08-11,0.26181288233306876,0.6743908317341102,1.8690768772403092,,,,,,,,,,,,
38023,0,USNorthDakotaDivide,North Dakota,Divide,2022-04-28 09:13:11,2021-08-12,0.26752570235159595,0.7022020182426236,1.9828078035888972,,,,,,,,,,,,
38023,0,USNorthDakotaDivide,North Dakota,Divide,2022-04-28 09:13:11,2021-08-13,0.26752570235159595,0.7022020182426236,1.9828078035888972,,,,,,,,,,,,
38023,0,USNorthDakotaDivide,North Dakota,Divide,2022-04-28 09:13:11,2021-08-14,0.26752570235159595,0.7022020182426236,1.9828078035888972,,,,,,,,,,,,
38023,0,USNorthDakotaDivide,North Dakota,Divide,2022-04-28 09:13:11,2021-08-15,0.26752570235159595,0.7022020182426236,1.9828078035888972,,,,,,,,,,,,
38023,0,USNorthDakotaDivide,North Dakota,Divide,2022-04-28 09:13:11,2021-08-16,0.26752570235159595,0.7022020182426236,1.9828078035888972,,,,,,,,,,,,
38023,0,USNorthDakotaDivide,North Dakota,Divide,2022-04-28 09:13:11,2021-08-17,0.26752570235159595,0.7022020182426236,1.9828078035888972,,,,,,,,,,,,
38023,0,USNorthDakotaDivide,North Dakota,Divide,2022-04-28 09:13:11,2021-08-18,0.26752570235159595,0.7022020182426236,1.9828078035888972,,,,,,,,,,,,
38023,0,USNorthDakotaDivide,North Dakota,Divide,2022-04-28 09:13:11,2021-08-19,0,0,0,,,,,,,,,,,,
38023,0,USNorthDakotaDivide,North Dakota,Divide,2022-04-28 09:13:11,2021-08-20,0,0,0,,,,,,,,,,,,
38023,0,USNorthDakotaDivide,North Dakota,Divide,2022-04-28 09:13:11,2021-08-21,0,0,0,,,,,,,,,,,,
38023,0,USNorthDakotaDivide,North Dakota,Divide,2022-04-28 09:13:11,2021-08-22,0,0,0,,,,,,,,,,,,
38023,0,USNorthDakotaDivide,North Dakota,Divide,2022-04-28 09:13:11,2021-08-23,0,0,0,,,,,,,,,,,,
38023,0,USNorthDakotaDivide,North Dakota,Divide,2022-04-28 09:13:11,2021-08-24,0,0,0,,,,,,,,,,,,
38023,0,USNorthDakotaDivide,North Dakota,Divide,2022-04-28 09:13:11,2021-08-25,0,0,0,,,,,,,,,,,,
38023,0,USNorthDakotaDivide,North Dakota,Divide,2022-04-28 09:13:11,2021-08-26,0,0,0,,,,,,,,,,,,
38023,0,USNorthDakotaDivide,North Dakota,Divide,2022-04-28 09:13:11,2021-08-27,0,0,0,,,,,,,,,,,,
38023,0,USNorthDakotaDivide,North Dakota,Divide,2022-04-28 09:13:11,2021-08-28,0,0,0,,,,,,,,,,,,
38023,0,USNorthDakotaDivide,North Dakota,Divide,2022-04-28 09:13:11,2021-08-29,0,0,0,,,,,,,,,,,,
38023,0,USNorthDakotaDivide,North Dakota,Divide,2022-04-28 09:13:11,2021-08-30,0,0,0,,,,,,,,,,,,
38023,0,USNorthDakotaDivide,North Dakota,Divide,2022-04-28 09:13:11,2021-08-31,0,0,0,,,,,,,,,,,,
38023,0,USNorthDakotaDivide,North Dakota,Divide,2022-04-28 09:13:11,2021-09-01,0,0,0,,,,,,,,,,,,
38023,0,USNorthDakotaDivide,North Dakota,Divide,2022-04-28 09:13:11,2021-09-02,2.859530941669054,4.263469759953346,6.6648305658769,,,,,,,,,,,,
38023,0,USNorthDakotaDivide,North Dakota,Divide,2022-04-28 09:13:11,2021-09-03,2.859530941669054,4.263469759953346,6.6648305658769,,,,,,,,,,,,
38023,0,USNorthDakotaDivide,North Dakota,Divide,2022-04-28 09:13:11,2021-09-04,2.859530941669054,4.263469759953346,6.6648305658769,,,,,,,,,,,,
38023,0,USNorthDakotaDivide,North Dakota,Divide,2022-04-28 09:13:11,2021-09-05,2.859530941669054,4.263469759953346,6.6648305658769,,,,,,,,,,,,
38023,0,USNorthDakotaDivide,North Dakota,Divide,2022-04-28 09:13:11,2021-09-06,2.859530941669054,4.263469759953346,6.6648305658769,,,,,,,,,,,,
38023,0,USNorthDakotaDivide,North Dakota,Divide,2022-04-28 09:13:11,2021-09-07,2.859530941669054,4.263469759953346,6.6648305658769,,,,,,,,,,,,
38023,0,USNorthDakotaDivide,North Dakota,Divide,2022-04-28 09:13:11,2021-09-08,2.859530941669054,4.263469759953346,6.6648305658769,,,,,,,,,,,,
38023,0,USNorthDakotaDivide,North Dakota,Divide,2022-04-28 09:13:11,2021-09-09,2.1849985810757078,3.5298081879287646,6.02901913958214,,,,,,,,,,,,
38023,0,USNorthDakotaDivide,North Dakota,Divide,2022-04-28 09:13:11,2021-09-10,2.1849985810757078,3.5298081879287646,6.02901913958214,,,,,,,,,,,,
38023,0,USNorthDakotaDivide,North Dakota,Divide,2022-04-28 09:13:11,2021-09-11,2.1849985810757078,3.5298081879287646,6.02901913958214,,,,,,,,,,,,
38023,0,USNorthDakotaDivide,North Dakota,Divide,2022-04-28 09:13:11,2021-09-12,2.1849985810757078,3.5298081879287646,6.02901913958214,,,,,,,,,,,,
38023,0,USNorthDakotaDivide,North Dakota,Divide,2022-04-28 09:13:11,2021-09-13,2.1849985810757078,3.5298081879287646,6.02901913958214,,,,,,,,,,,,
38023,0,USNorthDakotaDivide,North Dakota,Divide,2022-04-28 09:13:11,2021-09-14,2.1849985810757078,3.5298081879287646,6.02901913958214,,,,,,,,,,,,
38023,0,USNorthDakotaDivide,North Dakota,Divide,2022-04-28 09:13:11,2021-09-15,2.1849985810757078,3.5298081879287646,6.02901913958214,,,,,,,,,,,,
38023,0,USNorthDakotaDivide,North Dakota,Divide,2022-04-28 09:13:11,2021-09-16,1.6756032207440583,2.8891906148431654,5.296380310089183,,,,,,,,,,,,
38023,0,USNorthDakotaDivide,North Dakota,Divide,2022-04-28 09:13:11,2021-09-17,1.6756032207440583,2.8891906148431654,5.296380310089183,,,,,,,,,,,,
38023,0,USNorthDakotaDivide,North Dakota,Divide,2022-04-28 09:13:11,2021-09-18,1.6756032207440583,2.8891906148431654,5.296380310089183,,,,,,,,,,,,
38023,0,USNorthDakotaDivide,North Dakota,Divide,2022-04-28 09:13:11,2021-09-19,1.6756032207440583,2.8891906148431654,5.296380310089183,,,,,,,,,,,,
38023,0,USNorthDakotaDivide,North Dakota,Divide,2022-04-28 09:13:11,2021-09-20,1.6756032207440583,2.8891906148431654,5.296380310089183,,,,,,,,,,,,
38023,0,USNorthDakotaDivide,North Dakota,Divide,2022-04-28 09:13:11,2021-09-21,1.6756032207440583,2.8891906148431654,5.296380310089183,,,,,,,,,,,,
38023,0,USNorthDakotaDivide,North Dakota,Divide,2022-04-28 09:13:11,2021-09-22,1.6756032207440583,2.8891906148431654,5.296380310089183,,,,,,,,,,,,
38023,0,USNorthDakotaDivide,North Dakota,Divide,2022-04-28 09:13:11,2021-09-23,1.4820238295638444,2.801296108577722,5.662634772166863,,,,,,,,,,,,
38023,0,USNorthDakotaDivide,North Dakota,Divide,2022-04-28 09:13:11,2021-09-24,1.4820238295638444,2.801296108577722,5.662634772166863,,,,,,,,,,,,
38023,0,USNorthDakotaDivide,North Dakota,Divide,2022-04-28 09:13:11,2021-09-25,1.4820238295638444,2.801296108577722,5.662634772166863,,,,,,,,,,,,
38023,0,USNorthDakotaDivide,North Dakota,Divide,2022-04-28 09:13:11,2021-09-26,1.4820238295638444,2.801296108577722,5.662634772166863,,,,,,,,,,,,
38023,0,USNorthDakotaDivide,North Dakota,Divide,2022-04-28 09:13:11,2021-09-27,1.4820238295638444,2.801296108577722,5.662634772166863,,,,,,,,,,,,
38023,0,USNorthDakotaDivide,North Dakota,Divide,2022-04-28 09:13:11,2021-09-28,1.4820238295638444,2.801296108577722,5.662634772166863,,,,,,,,,,,,
38023,0,USNorthDakotaDivide,North Dakota,Divide,2022-04-28 09:13:11,2021-09-29,1.4820238295638444,2.801296108577722,5.662634772166863,,,,,,,,,,,,
38023,0,USNorthDakotaDivide,North Dakota,Divide,2022-04-28 09:13:11,2021-09-30,1.3453335557665431,2.629540169553883,5.505401035367813,,,,,,,,,,,,
38023,0,USNorthDakotaDivide,North Dakota,Divide,2022-04-28 09:13:11,2021-10-01,1.3453335557665431,2.629540169553883,5.505401035367813,,,,,,,,,,,,
38023,0,USNorthDakotaDivide,North Dakota,Divide,2022-04-28 09:13:11,2021-10-02,1.3453335557665431,2.629540169553883,5.505401035367813,,,,,,,,,,,,
38023,0,USNorthDakotaDivide,North Dakota,Divide,2022-04-28 09:13:11,2021-10-03,1.3453335557665431,2.629540169553883,5.505401035367813,,,,,,,,,,,,
38023,0,USNorthDakotaDivide,North Dakota,Divide,2022-04-28 09:13:11,2021-10-04,1.3453335557665431,2.629540169553883,5.505401035367813,,,,,,,,,,,,
38023,0,USNorthDakotaDivide,North Dakota,Divide,2022-04-28 09:13:11,2021-10-05,1.3453335557665431,2.629540169553883,5.505401035367813,,,,,,,,,,,,
38023,0,USNorthDakotaDivide,North Dakota,Divide,2022-04-28 09:13:11,2021-10-06,1.3453335557665431,2.629540169553883,5.505401035367813,,,,,,,,,,,,
38023,0,USNorthDakotaDivide,North Dakota,Divide,2022-04-28 09:13:11,2021-10-07,0,0,0,,,,,,,,,,,,
38023,0,USNorthDakotaDivide,North Dakota,Divide,2022-04-28 09:13:11,2021-10-08,0,0,0,,,,,,,,,,,,
38023,0,USNorthDakotaDivide,North Dakota,Divide,2022-04-28 09:13:11,2021-10-09,0,0,0,,,,,,,,,,,,
38023,0,USNorthDakotaDivide,North Dakota,Divide,2022-04-28 09:13:11,2021-10-10,0,0,0,,,,,,,,,,,,
38023,0,USNorthDakotaDivide,North Dakota,Divide,2022-04-28 09:13:11,2021-10-11,0,0,0,,,,,,,,,,,,
38023,0,USNorthDakotaDivide,North Dakota,Divide,2022-04-28 09:13:11,2021-10-12,0,0,0,,,,,,,,,,,,
38023,0,USNorthDakotaDivide,North Dakota,Divide,2022-04-28 09:13:11,2021-10-13,0,0,0,,,,,,,,,,,,
38023,0,USNorthDakotaDivide,North Dakota,Divide,2022-04-28 09:13:11,2021-10-14,0.8362965447368035,1.7641229823036473,3.9970408036442735,,,,,,,,,,,,
38023,0,USNorthDakotaDivide,North Dakota,Divide,2022-04-28 09:13:11,2021-10-15,0.8362965447368035,1.7641229823036473,3.9970408036442735,,,,,,,,,,,,
38023,0,USNorthDakotaDivide,North Dakota,Divide,2022-04-28 09:13:11,2021-10-16,0.8362965447368035,1.7641229823036473,3.9970408036442735,,,,,,,,,,,,
38023,0,USNorthDakotaDivide,North Dakota,Divide,2022-04-28 09:13:11,2021-10-17,0.8362965447368035,1.7641229823036473,3.9970408036442735,,,,,,,,,,,,
38023,0,USNorthDakotaDivide,North Dakota,Divide,2022-04-28 09:13:11,2021-10-18,0.8362965447368035,1.7641229823036473,3.9970408036442735,,,,,,,,,,,,
38023,0,USNorthDakotaDivide,North Dakota,Divide,2022-04-28 09:13:11,2021-10-19,0.8362965447368035,1.7641229823036473,3.9970408036442735,,,,,,,,,,,,
38023,0,USNorthDakotaDivide,North Dakota,Divide,2022-04-28 09:13:11,2021-10-20,0.8362965447368035,1.7641229823036473,3.9970408036442735,,,,,,,,,,,,
38023,0,USNorthDakotaDivide,North Dakota,Divide,2022-04-28 09:13:11,2021-10-21,1.748873652900091,3.1361778452424494,5.995824442081019,,,,,,,,,,,,
38023,0,USNorthDakotaDivide,North Dakota,Divide,2022-04-28 09:13:11,2021-10-22,1.748873652900091,3.1361778452424494,5.995824442081019,,,,,,,,,,,,
38023,0,USNorthDakotaDivide,North Dakota,Divide,2022-04-28 09:13:11,2021-10-23,1.748873652900091,3.1361778452424494,5.995824442081019,,,,,,,,,,,,
38023,0,USNorthDakotaDivide,North Dakota,Divide,2022-04-28 09:13:11,2021-10-24,1.748873652900091,3.1361778452424494,5.995824442081019,,,,,,,,,,,,
38023,0,USNorthDakotaDivide,North Dakota,Divide,2022-04-28 09:13:11,2021-10-25,1.748873652900091,3.1361778452424494,5.995824442081019,,,,,,,,,,,,
38023,0,USNorthDakotaDivide,North Dakota,Divide,2022-04-28 09:13:11,2021-10-26,1.748873652900091,3.1361778452424494,5.995824442081019,,,,,,,,,,,,
38023,0,USNorthDakotaDivide,North Dakota,Divide,2022-04-28 09:13:11,2021-10-27,1.748873652900091,3.1361778452424494,5.995824442081019,,,,,,,,,,,,
38023,0,USNorthDakotaDivide,North Dakota,Divide,2022-04-28 09:13:11,2021-10-28,1.4282164426104238,2.6099009843051575,5.0907118660745505,,,,,,,,,,,,
38023,0,USNorthDakotaDivide,North Dakota,Divide,2022-04-28 09:13:11,2021-10-29,1.4282164426104238,2.6099009843051575,5.0907118660745505,,,,,,,,,,,,
38023,0,USNorthDakotaDivide,North Dakota,Divide,2022-04-28 09:13:11,2021-10-30,1.4282164426104238,2.6099009843051575,5.0907118660745505,,,,,,,,,,,,
38023,0,USNorthDakotaDivide,North Dakota,Divide,2022-04-28 09:13:11,2021-10-31,1.4282164426104238,2.6099009843051575,5.0907118660745505,,,,,,,,,,,,
38023,0,USNorthDakotaDivide,North Dakota,Divide,2022-04-28 09:13:11,2021-11-01,1.4282164426104238,2.6099009843051575,5.0907118660745505,,,,,,,,,,,,
38023,0,USNorthDakotaDivide,North Dakota,Divide,2022-04-28 09:13:11,2021-11-02,1.4282164426104238,2.6099009843051575,5.0907118660745505,,,,,,,,,,,,
38023,0,USNorthDakotaDivide,North Dakota,Divide,2022-04-28 09:13:11,2021-11-03,1.4282164426104238,2.6099009843051575,5.0907118660745505,,,,,,,,,,,,
38023,0,USNorthDakotaDivide,North Dakota,Divide,2022-04-28 09:13:11,2021-11-04,2.9716570605015673,4.589120546454385,7.459388794213676,,,,,,,,,,,,
38023,0,USNorthDakotaDivide,North Dakota,Divide,2022-04-28 09:13:11,2021-11-05,2.9716570605015673,4.589120546454385,7.459388794213676,,,,,,,,,,,,
38023,0,USNorthDakotaDivide,North Dakota,Divide,2022-04-28 09:13:11,2021-11-06,2.9716570605015673,4.589120546454385,7.459388794213676,,,,,,,,,,,,
38023,0,USNorthDakotaDivide,North Dakota,Divide,2022-04-28 09:13:11,2021-11-07,2.9716570605015673,4.589120546454385,7.459388794213676,,,,,,,,,,,,
38023,0,USNorthDakotaDivide,North Dakota,Divide,2022-04-28 09:13:11,2021-11-08,2.9716570605015673,4.589120546454385,7.459388794213676,,,,,,,,,,,,
38023,0,USNorthDakotaDivide,North Dakota,Divide,2022-04-28 09:13:11,2021-11-09,2.9716570605015673,4.589120546454385,7.459388794213676,,,,,,,,,,,,
38023,0,USNorthDakotaDivide,North Dakota,Divide,2022-04-28 09:13:11,2021-11-10,2.9716570605015673,4.589120546454385,7.459388794213676,,,,,,,,,,,,
38023,0,USNorthDakotaDivide,North Dakota,Divide,2022-04-28 09:13:11,2021-11-11,1.0350091592287547,2.1637678006872276,4.857445309498811,,,,,,,,,,,,
38023,0,USNorthDakotaDivide,North Dakota,Divide,2022-04-28 09:13:11,2021-11-12,1.0350091592287547,2.1637678006872276,4.857445309498811,,,,,,,,,,,,
38023,0,USNorthDakotaDivide,North Dakota,Divide,2022-04-28 09:13:11,2021-11-13,1.0350091592287547,2.1637678006872276,4.857445309498811,,,,,,,,,,,,
38023,0,USNorthDakotaDivide,North Dakota,Divide,2022-04-28 09:13:11,2021-11-14,1.0350091592287547,2.1637678006872276,4.857445309498811,,,,,,,,,,,,
38023,0,USNorthDakotaDivide,North Dakota,Divide,2022-04-28 09:13:11,2021-11-15,1.0350091592287547,2.1637678006872276,4.857445309498811,,,,,,,,,,,,
38023,0,USNorthDakotaDivide,North Dakota,Divide,2022-04-28 09:13:11,2021-11-16,1.0350091592287547,2.1637678006872276,4.857445309498811,,,,,,,,,,,,
38023,0,USNorthDakotaDivide,North Dakota,Divide,2022-04-28 09:13:11,2021-11-17,1.0350091592287547,2.1637678006872276,4.857445309498811,,,,,,,,,,,,
38023,0,USNorthDakotaDivide,North Dakota,Divide,2022-04-28 09:13:11,2021-11-18,1.9779773092735449,3.359572357711555,6.0594556474545875,,,,,,,,,,,,
38023,0,USNorthDakotaDivide,North Dakota,Divide,2022-04-28 09:13:11,2021-11-19,1.9779773092735449,3.359572357711555,6.0594556474545875,,,,,,,,,,,,
38023,0,USNorthDakotaDivide,North Dakota,Divide,2022-04-28 09:13:11,2021-11-20,1.9779773092735449,3.359572357711555,6.0594556474545875,,,,,,,,,,,,
38023,0,USNorthDakotaDivide,North Dakota,Divide,2022-04-28 09:13:11,2021-11-21,1.9779773092735449,3.359572357711555,6.0594556474545875,,,,,,,,,,,,
38023,0,USNorthDakotaDivide,North Dakota,Divide,2022-04-28 09:13:11,2021-11-22,1.9779773092735449,3.359572357711555,6.0594556474545875,,,,,,,,,,,,
38023,0,USNorthDakotaDivide,North Dakota,Divide,2022-04-28 09:13:11,2021-11-23,1.9779773092735449,3.359572357711555,6.0594556474545875,,,,,,,,,,,,
38023,0,USNorthDakotaDivide,North Dakota,Divide,2022-04-28 09:13:11,2021-11-24,1.9779773092735449,3.359572357711555,6.0594556474545875,,,,,,,,,,,,
38023,0,USNorthDakotaDivide,North Dakota,Divide,2022-04-28 09:13:11,2021-11-25,1.347912467366218,2.6391735394616607,5.5356283386636065,,,,,,,,,,,,
38023,0,USNorthDakotaDivide,North Dakota,Divide,2022-04-28 09:13:11,2021-11-26,1.347912467366218,2.6391735394616607,5.5356283386636065,,,,,,,,,,,,
38023,0,USNorthDakotaDivide,North Dakota,Divide,2022-04-28 09:13:11,2021-11-27,1.347912467366218,2.6391735394616607,5.5356283386636065,,,,,,,,,,,,
38023,0,USNorthDakotaDivide,North Dakota,Divide,2022-04-28 09:13:11,2021-11-28,1.347912467366218,2.6391735394616607,5.5356283386636065,,,,,,,,,,,,
38023,0,USNorthDakotaDivide,North Dakota,Divide,2022-04-28 09:13:11,2021-11-29,1.347912467366218,2.6391735394616607,5.5356283386636065,,,,,,,,,,,,
38023,0,USNorthDakotaDivide,North Dakota,Divide,2022-04-28 09:13:11,2021-11-30,1.347912467366218,2.6391735394616607,5.5356283386636065,,,,,,,,,,,,
38023,0,USNorthDakotaDivide,North Dakota,Divide,2022-04-28 09:13:11,2021-12-01,1.347912467366218,2.6391735394616607,5.5356283386636065,,,,,,,,,,,,
38023,0,USNorthDakotaDivide,North Dakota,Divide,2022-04-28 09:13:11,2021-12-02,0.8471798438600183,1.8080157502210081,4.145740117722304,,,,,,,,,,,,
38023,0,USNorthDakotaDivide,North Dakota,Divide,2022-04-28 09:13:11,2021-12-03,0.8471798438600183,1.8080157502210081,4.145740117722304,,,,,,,,,,,,
38023,0,USNorthDakotaDivide,North Dakota,Divide,2022-04-28 09:13:11,2021-12-04,0.8471798438600183,1.8080157502210081,4.145740117722304,,,,,,,,,,,,
38023,0,USNorthDakotaDivide,North Dakota,Divide,2022-04-28 09:13:11,2021-12-05,0.8471798438600183,1.8080157502210081,4.145740117722304,,,,,,,,,,,,
38023,0,USNorthDakotaDivide,North Dakota,Divide,2022-04-28 09:13:11,2021-12-06,0.8471798438600183,1.8080157502210081,4.145740117722304,,,,,,,,,,,,
38023,0,USNorthDakotaDivide,North Dakota,Divide,2022-04-28 09:13:11,2021-12-07,0.8471798438600183,1.8080157502210081,4.145740117722304,,,,,,,,,,,,
38023,0,USNorthDakotaDivide,North Dakota,Divide,2022-04-28 09:13:11,2021-12-08,0.8471798438600183,1.8080157502210081,4.145740117722304,,,,,,,,,,,,
38023,0,USNorthDakotaDivide,North Dakota,Divide,2022-04-28 09:13:11,2021-12-09,1.1069243825364077,2.084397614436139,4.196739950486174,,,,,,,,,,,,
38023,0,USNorthDakotaDivide,North Dakota,Divide,2022-04-28 09:13:11,2021-12-10,1.1069243825364077,2.084397614436139,4.196739950486174,,,,,,,,,,,,
38023,0,USNorthDakotaDivide,North Dakota,Divide,2022-04-28 09:13:11,2021-12-11,1.1069243825364077,2.084397614436139,4.196739950486174,,,,,,,,,,,,
38023,0,USNorthDakotaDivide,North Dakota,Divide,2022-04-28 09:13:11,2021-12-12,1.1069243825364077,2.084397614436139,4.196739950486174,,,,,,,,,,,,
38023,0,USNorthDakotaDivide,North Dakota,Divide,2022-04-28 09:13:11,2021-12-13,1.1069243825364077,2.084397614436139,4.196739950486174,,,,,,,,,,,,
38023,0,USNorthDakotaDivide,North Dakota,Divide,2022-04-28 09:13:11,2021-12-14,1.1069243825364077,2.084397614436139,4.196739950486174,,,,,,,,,,,,
38023,0,USNorthDakotaDivide,North Dakota,Divide,2022-04-28 09:13:11,2021-12-15,1.1069243825364077,2.084397614436139,4.196739950486174,,,,,,,,,,,,
38023,0,USNorthDakotaDivide,North Dakota,Divide,2022-04-28 09:13:11,2021-12-16,0.6200785220438063,1.2945761196234364,2.902164965950426,,,,,,,,,,,,
38023,0,USNorthDakotaDivide,North Dakota,Divide,2022-04-28 09:13:11,2021-12-17,0.6200785220438063,1.2945761196234364,2.902164965950426,,,,,,,,,,,,
38023,0,USNorthDakotaDivide,North Dakota,Divide,2022-04-28 09:13:11,2021-12-18,0.6200785220438063,1.2945761196234364,2.902164965950426,,,,,,,,,,,,
38023,0,USNorthDakotaDivide,North Dakota,Divide,2022-04-28 09:13:11,2021-12-19,0.6200785220438063,1.2945761196234364,2.902164965950426,,,,,,,,,,,,
38023,0,USNorthDakotaDivide,North Dakota,Divide,2022-04-28 09:13:11,2021-12-20,0.6200785220438063,1.2945761196234364,2.902164965950426,,,,,,,,,,,,
38023,0,USNorthDakotaDivide,North Dakota,Divide,2022-04-28 09:13:11,2021-12-21,0.6200785220438063,1.2945761196234364,2.902164965950426,,,,,,,,,,,,
38023,0,USNorthDakotaDivide,North Dakota,Divide,2022-04-28 09:13:11,2021-12-22,0.6200785220438063,1.2945761196234364,2.902164965950426,,,,,,,,,,,,
38023,0,USNorthDakotaDivide,North Dakota,Divide,2022-04-28 09:13:11,2021-12-23,0.9681907810891528,1.905346563648868,4.017680657219149,,,,,,,,,,,,
38023,0,USNorthDakotaDivide,North Dakota,Divide,2022-04-28 09:13:11,2021-12-24,0.9681907810891528,1.905346563648868,4.017680657219149,,,,,,,,,,,,
38023,0,USNorthDakotaDivide,North Dakota,Divide,2022-04-28 09:13:11,2021-12-25,0.9681907810891528,1.905346563648868,4.017680657219149,,,,,,,,,,,,
38023,0,USNorthDakotaDivide,North Dakota,Divide,2022-04-28 09:13:11,2021-12-26,0.9681907810891528,1.905346563648868,4.017680657219149,,,,,,,,,,,,
38023,0,USNorthDakotaDivide,North Dakota,Divide,2022-04-28 09:13:11,2021-12-27,0.9681907810891528,1.905346563648868,4.017680657219149,,,,,,,,,,,,
38023,0,USNorthDakotaDivide,North Dakota,Divide,2022-04-28 09:13:11,2021-12-28,0.9681907810891528,1.905346563648868,4.017680657219149,,,,,,,,,,,,
38023,0,USNorthDakotaDivide,North Dakota,Divide,2022-04-28 09:13:11,2021-12-29,0.9681907810891528,1.905346563648868,4.017680657219149,,,,,,,,,,,,
38023,0,USNorthDakotaDivide,North Dakota,Divide,2022-04-28 09:13:11,2021-12-30,1.8791462833072017,3.5984370776120684,7.374119736201405,,,,,,,,,,,,
38023,0,USNorthDakotaDivide,North Dakota,Divide,2022-04-28 09:13:11,2021-12-31,1.8791462833072017,3.5984370776120684,7.374119736201405,,,,,,,,,,,,
38023,0,USNorthDakotaDivide,North Dakota,Divide,2022-04-28 09:13:11,2022-01-01,1.8791462833072017,3.5984370776120684,7.374119736201405,,,,,,,,,,,,
38023,0,USNorthDakotaDivide,North Dakota,Divide,2022-04-28 09:13:11,2022-01-02,1.8791462833072017,3.5984370776120684,7.374119736201405,,,,,,,,,,,,
38023,0,USNorthDakotaDivide,North Dakota,Divide,2022-04-28 09:13:11,2022-01-03,1.8791462833072017,3.5984370776120684,7.374119736201405,,,,,,,,,,,,
38023,0,USNorthDakotaDivide,North Dakota,Divide,2022-04-28 09:13:11,2022-01-04,1.8791462833072017,3.5984370776120684,7.374119736201405,,,,,,,,,,,,
38023,0,USNorthDakotaDivide,North Dakota,Divide,2022-04-28 09:13:11,2022-01-05,1.8791462833072017,3.5984370776120684,7.374119736201405,,,,,,,,,,,,
38023,0,USNorthDakotaDivide,North Dakota,Divide,2022-04-28 09:13:11,2022-01-06,2.3678716036473175,4.740287881057629,10.175196226694553,,,,,,,,,,,,
38023,0,USNorthDakotaDivide,North Dakota,Divide,2022-04-28 09:13:11,2022-01-07,2.3678716036473175,4.740287881057629,10.175196226694553,,,,,,,,,,,,
38023,0,USNorthDakotaDivide,North Dakota,Divide,2022-04-28 09:13:11,2022-01-08,2.3678716036473175,4.740287881057629,10.175196226694553,,,,,,,,,,,,
38023,0,USNorthDakotaDivide,North Dakota,Divide,2022-04-28 09:13:11,2022-01-09,2.3678716036473175,4.740287881057629,10.175196226694553,,,,,,,,,,,,
38023,0,USNorthDakotaDivide,North Dakota,Divide,2022-04-28 09:13:11,2022-01-10,2.3678716036473175,4.740287881057629,10.175196226694553,,,,,,,,,,,,
38023,0,USNorthDakotaDivide,North Dakota,Divide,2022-04-28 09:13:11,2022-01-11,2.3678716036473175,4.740287881057629,10.175196226694553,,,,,,,,,,,,
38023,0,USNorthDakotaDivide,North Dakota,Divide,2022-04-28 09:13:11,2022-01-12,2.3678716036473175,4.740287881057629,10.175196226694553,,,,,,,,,,,,
38023,0,USNorthDakotaDivide,North Dakota,Divide,2022-04-28 09:13:11,2022-01-13,5.765313669433744,9.786422873137012,17.63968980518385,,,,,,,,,,,,
38023,0,USNorthDakotaDivide,North Dakota,Divide,2022-04-28 09:13:11,2022-01-14,5.765313669433744,9.786422873137012,17.63968980518385,,,,,,,,,,,,
38023,0,USNorthDakotaDivide,North Dakota,Divide,2022-04-28 09:13:11,2022-01-15,5.765313669433744,9.786422873137012,17.63968980518385,,,,,,,,,,,,
38023,0,USNorthDakotaDivide,North Dakota,Divide,2022-04-28 09:13:11,2022-01-16,5.765313669433744,9.786422873137012,17.63968980518385,,,,,,,,,,,,
38023,0,USNorthDakotaDivide,North Dakota,Divide,2022-04-28 09:13:11,2022-01-17,5.765313669433744,9.786422873137012,17.63968980518385,,,,,,,,,,,,
38023,0,USNorthDakotaDivide,North Dakota,Divide,2022-04-28 09:13:11,2022-01-18,5.765313669433744,9.786422873137012,17.63968980518385,,,,,,,,,,,,
38023,0,USNorthDakotaDivide,North Dakota,Divide,2022-04-28 09:13:11,2022-01-19,5.765313669433744,9.786422873137012,17.63968980518385,,,,,,,,,,,,
38023,0,USNorthDakotaDivide,North Dakota,Divide,2022-04-28 09:13:11,2022-01-20,5.5229721458231555,9.51279116292984,17.418277466879417,,,,,,,,,,,,
38023,0,USNorthDakotaDivide,North Dakota,Divide,2022-04-28 09:13:11,2022-01-21,5.5229721458231555,9.51279116292984,17.418277466879417,,,,,,,,,,,,
38023,0,USNorthDakotaDivide,North Dakota,Divide,2022-04-28 09:13:11,2022-01-22,5.5229721458231555,9.51279116292984,17.418277466879417,,,,,,,,,,,,
38023,0,USNorthDakotaDivide,North Dakota,Divide,2022-04-28 09:13:11,2022-01-23,5.5229721458231555,9.51279116292984,17.418277466879417,,,,,,,,,,,,
38023,0,USNorthDakotaDivide,North Dakota,Divide,2022-04-28 09:13:11,2022-01-24,5.5229721458231555,9.51279116292984,17.418277466879417,,,,,,,,,,,,
38023,0,USNorthDakotaDivide,North Dakota,Divide,2022-04-28 09:13:11,2022-01-25,5.5229721458231555,9.51279116292984,17.418277466879417,,,,,,,,,,,,
38023,0,USNorthDakotaDivide,North Dakota,Divide,2022-04-28 09:13:11,2022-01-26,5.5229721458231555,9.51279116292984,17.418277466879417,,,,,,,,,,,,
38023,0,USNorthDakotaDivide,North Dakota,Divide,2022-04-28 09:13:11,2022-01-27,3.794627109620589,6.718987392195305,12.67281956807521,,,,,,,,,,,,
38023,0,USNorthDakotaDivide,North Dakota,Divide,2022-04-28 09:13:11,2022-01-28,3.794627109620589,6.718987392195305,12.67281956807521,,,,,,,,,,,,
38023,0,USNorthDakotaDivide,North Dakota,Divide,2022-04-28 09:13:11,2022-01-29,3.794627109620589,6.718987392195305,12.67281956807521,,,,,,,,,,,,
38023,0,USNorthDakotaDivide,North Dakota,Divide,2022-04-28 09:13:11,2022-01-30,3.794627109620589,6.718987392195305,12.67281956807521,,,,,,,,,,,,
38023,0,USNorthDakotaDivide,North Dakota,Divide,2022-04-28 09:13:11,2022-01-31,3.794627109620589,6.718987392195305,12.67281956807521,,,,,,,,,,,,
38023,0,USNorthDakotaDivide,North Dakota,Divide,2022-04-28 09:13:11,2022-02-01,3.794627109620589,6.718987392195305,12.67281956807521,,,,,,,,,,,,
38023,0,USNorthDakotaDivide,North Dakota,Divide,2022-04-28 09:13:11,2022-02-02,3.794627109620589,6.718987392195305,12.67281956807521,,,,,,,,,,,,
38023,0,USNorthDakotaDivide,North Dakota,Divide,2022-04-28 09:13:11,2022-02-03,0.7640390950781539,1.9210285050970655,5.197670095275675,,,,,,,,,,,,
38023,0,USNorthDakotaDivide,North Dakota,Divide,2022-04-28 09:13:11,2022-02-04,0.7640390950781539,1.9210285050970655,5.197670095275675,,,,,,,,,,,,
38023,0,USNorthDakotaDivide,North Dakota,Divide,2022-04-28 09:13:11,2022-02-05,0.7640390950781539,1.9210285050970655,5.197670095275675,,,,,,,,,,,,
38023,0,USNorthDakotaDivide,North Dakota,Divide,2022-04-28 09:13:11,2022-02-06,0.7640390950781539,1.9210285050970655,5.197670095275675,,,,,,,,,,,,
38023,0,USNorthDakotaDivide,North Dakota,Divide,2022-04-28 09:13:11,2022-02-07,0.7640390950781539,1.9210285050970655,5.197670095275675,,,,,,,,,,,,
38023,0,USNorthDakotaDivide,North Dakota,Divide,2022-04-28 09:13:11,2022-02-08,0.7640390950781539,1.9210285050970655,5.197670095275675,,,,,,,,,,,,
38023,0,USNorthDakotaDivide,North Dakota,Divide,2022-04-28 09:13:11,2022-02-09,0.7640390950781539,1.9210285050970655,5.197670095275675,,,,,,,,,,,,
38023,0,USNorthDakotaDivide,North Dakota,Divide,2022-04-28 09:13:11,2022-02-10,0.7059419857406252,1.655303827885525,4.176405818751794,,,,,,,,,,,,
38023,0,USNorthDakotaDivide,North Dakota,Divide,2022-04-28 09:13:11,2022-02-11,0.7059419857406252,1.655303827885525,4.176405818751794,,,,,,,,,,,,
38023,0,USNorthDakotaDivide,North Dakota,Divide,2022-04-28 09:13:11,2022-02-12,0.7059419857406252,1.655303827885525,4.176405818751794,,,,,,,,,,,,
38023,0,USNorthDakotaDivide,North Dakota,Divide,2022-04-28 09:13:11,2022-02-13,0.7059419857406252,1.655303827885525,4.176405818751794,,,,,,,,,,,,
38023,0,USNorthDakotaDivide,North Dakota,Divide,2022-04-28 09:13:11,2022-02-14,0.7059419857406252,1.655303827885525,4.176405818751794,,,,,,,,,,,,
38023,0,USNorthDakotaDivide,North Dakota,Divide,2022-04-28 09:13:11,2022-02-15,0.7059419857406252,1.655303827885525,4.176405818751794,,,,,,,,,,,,
38023,0,USNorthDakotaDivide,North Dakota,Divide,2022-04-28 09:13:11,2022-02-16,0.7059419857406252,1.655303827885525,4.176405818751794,,,,,,,,,,,,
