FIPS,HR_UID,nameid,province,region,analysisTime,dates,pointprevalence_025,pointprevalence_50,pointprevalence_975,pointinfections_025,pointinfections_50,pointinfections_975,pointinfectious_025,pointinfectious_50,pointinfectious_975,pointinfectiousprevalence_025,pointinfectiousprevalence_50,pointinfectiousprevalence_975,infectrate_025,infectrate_50,infectrate_975
53015,0,USWashingtonCowlitz,Washington,Cowlitz,2022-04-28 09:13:11,2020-03-19,0.02335924728418756,0.11424422355128627,0.5884130375198292,,,,,,,,,,,,
53015,0,USWashingtonCowlitz,Washington,Cowlitz,2022-04-28 09:13:11,2020-03-20,0.02335924728418756,0.11424422355128627,0.5884130375198292,,,,,,,,,,,,
53015,0,USWashingtonCowlitz,Washington,Cowlitz,2022-04-28 09:13:11,2020-03-21,0.02335924728418756,0.11424422355128627,0.5884130375198292,,,,,,,,,,,,
53015,0,USWashingtonCowlitz,Washington,Cowlitz,2022-04-28 09:13:11,2020-03-22,0.02335924728418756,0.11424422355128627,0.5884130375198292,,,,,,,,,,,,
53015,0,USWashingtonCowlitz,Washington,Cowlitz,2022-04-28 09:13:11,2020-03-23,0.02335924728418756,0.11424422355128627,0.5884130375198292,,,,,,,,,,,,
53015,0,USWashingtonCowlitz,Washington,Cowlitz,2022-04-28 09:13:11,2020-03-24,0.02335924728418756,0.11424422355128627,0.5884130375198292,,,,,,,,,,,,
53015,0,USWashingtonCowlitz,Washington,Cowlitz,2022-04-28 09:13:11,2020-03-25,0.02335924728418756,0.11424422355128627,0.5884130375198292,,,,,,,,,,,,
53015,0,USWashingtonCowlitz,Washington,Cowlitz,2022-04-28 09:13:11,2020-03-26,0.08854246086102951,0.3217573958749114,1.2469814654002054,,,,,,,,,,,,
53015,0,USWashingtonCowlitz,Washington,Cowlitz,2022-04-28 09:13:11,2020-03-27,0.08854246086102951,0.3217573958749114,1.2469814654002054,,,,,,,,,,,,
53015,0,USWashingtonCowlitz,Washington,Cowlitz,2022-04-28 09:13:11,2020-03-28,0.08854246086102951,0.3217573958749114,1.2469814654002054,,,,,,,,,,,,
53015,0,USWashingtonCowlitz,Washington,Cowlitz,2022-04-28 09:13:11,2020-03-29,0.08854246086102951,0.3217573958749114,1.2469814654002054,,,,,,,,,,,,
53015,0,USWashingtonCowlitz,Washington,Cowlitz,2022-04-28 09:13:11,2020-03-30,0.08854246086102951,0.3217573958749114,1.2469814654002054,,,,,,,,,,,,
53015,0,USWashingtonCowlitz,Washington,Cowlitz,2022-04-28 09:13:11,2020-03-31,0.08854246086102951,0.3217573958749114,1.2469814654002054,,,,,,,,,,,,
53015,0,USWashingtonCowlitz,Washington,Cowlitz,2022-04-28 09:13:11,2020-04-01,0.08854246086102951,0.3217573958749114,1.2469814654002054,,,,,,,,,,,,
53015,0,USWashingtonCowlitz,Washington,Cowlitz,2022-04-28 09:13:11,2020-04-02,0.06043941648583222,0.23255818565974581,0.9521713990864645,,,,,,,,,,,,
53015,0,USWashingtonCowlitz,Washington,Cowlitz,2022-04-28 09:13:11,2020-04-03,0.06043941648583222,0.23255818565974581,0.9521713990864645,,,,,,,,,,,,
53015,0,USWashingtonCowlitz,Washington,Cowlitz,2022-04-28 09:13:11,2020-04-04,0.06043941648583222,0.23255818565974581,0.9521713990864645,,,,,,,,,,,,
53015,0,USWashingtonCowlitz,Washington,Cowlitz,2022-04-28 09:13:11,2020-04-05,0.06043941648583222,0.23255818565974581,0.9521713990864645,,,,,,,,,,,,
53015,0,USWashingtonCowlitz,Washington,Cowlitz,2022-04-28 09:13:11,2020-04-06,0.06043941648583222,0.23255818565974581,0.9521713990864645,,,,,,,,,,,,
53015,0,USWashingtonCowlitz,Washington,Cowlitz,2022-04-28 09:13:11,2020-04-07,0.06043941648583222,0.23255818565974581,0.9521713990864645,,,,,,,,,,,,
53015,0,USWashingtonCowlitz,Washington,Cowlitz,2022-04-28 09:13:11,2020-04-08,0.06043941648583222,0.23255818565974581,0.9521713990864645,,,,,,,,,,,,
53015,0,USWashingtonCowlitz,Washington,Cowlitz,2022-04-28 09:13:11,2020-04-09,0.0467502662012937,0.19181610866202958,0.8352126423121979,,,,,,,,,,,,
53015,0,USWashingtonCowlitz,Washington,Cowlitz,2022-04-28 09:13:11,2020-04-10,0.0467502662012937,0.19181610866202958,0.8352126423121979,,,,,,,,,,,,
53015,0,USWashingtonCowlitz,Washington,Cowlitz,2022-04-28 09:13:11,2020-04-11,0.0467502662012937,0.19181610866202958,0.8352126423121979,,,,,,,,,,,,
53015,0,USWashingtonCowlitz,Washington,Cowlitz,2022-04-28 09:13:11,2020-04-12,0.0467502662012937,0.19181610866202958,0.8352126423121979,,,,,,,,,,,,
53015,0,USWashingtonCowlitz,Washington,Cowlitz,2022-04-28 09:13:11,2020-04-13,0.0467502662012937,0.19181610866202958,0.8352126423121979,,,,,,,,,,,,
53015,0,USWashingtonCowlitz,Washington,Cowlitz,2022-04-28 09:13:11,2020-04-14,0.0467502662012937,0.19181610866202958,0.8352126423121979,,,,,,,,,,,,
53015,0,USWashingtonCowlitz,Washington,Cowlitz,2022-04-28 09:13:11,2020-04-15,0.0467502662012937,0.19181610866202958,0.8352126423121979,,,,,,,,,,,,
53015,0,USWashingtonCowlitz,Washington,Cowlitz,2022-04-28 09:13:11,2020-04-16,0.06280865585300176,0.2236167834041214,0.8497292528392051,,,,,,,,,,,,
53015,0,USWashingtonCowlitz,Washington,Cowlitz,2022-04-28 09:13:11,2020-04-17,0.06280865585300176,0.2236167834041214,0.8497292528392051,,,,,,,,,,,,
53015,0,USWashingtonCowlitz,Washington,Cowlitz,2022-04-28 09:13:11,2020-04-18,0.06280865585300176,0.2236167834041214,0.8497292528392051,,,,,,,,,,,,
53015,0,USWashingtonCowlitz,Washington,Cowlitz,2022-04-28 09:13:11,2020-04-19,0.06280865585300176,0.2236167834041214,0.8497292528392051,,,,,,,,,,,,
53015,0,USWashingtonCowlitz,Washington,Cowlitz,2022-04-28 09:13:11,2020-04-20,0.06280865585300176,0.2236167834041214,0.8497292528392051,,,,,,,,,,,,
53015,0,USWashingtonCowlitz,Washington,Cowlitz,2022-04-28 09:13:11,2020-04-21,0.06280865585300176,0.2236167834041214,0.8497292528392051,,,,,,,,,,,,
53015,0,USWashingtonCowlitz,Washington,Cowlitz,2022-04-28 09:13:11,2020-04-22,0.06280865585300176,0.2236167834041214,0.8497292528392051,,,,,,,,,,,,
53015,0,USWashingtonCowlitz,Washington,Cowlitz,2022-04-28 09:13:11,2020-04-23,0.05414843855291874,0.1904431975636508,0.7152088749795734,,,,,,,,,,,,
53015,0,USWashingtonCowlitz,Washington,Cowlitz,2022-04-28 09:13:11,2020-04-24,0.05414843855291874,0.1904431975636508,0.7152088749795734,,,,,,,,,,,,
53015,0,USWashingtonCowlitz,Washington,Cowlitz,2022-04-28 09:13:11,2020-04-25,0.05414843855291874,0.1904431975636508,0.7152088749795734,,,,,,,,,,,,
53015,0,USWashingtonCowlitz,Washington,Cowlitz,2022-04-28 09:13:11,2020-04-26,0.05414843855291874,0.1904431975636508,0.7152088749795734,,,,,,,,,,,,
53015,0,USWashingtonCowlitz,Washington,Cowlitz,2022-04-28 09:13:11,2020-04-27,0.05414843855291874,0.1904431975636508,0.7152088749795734,,,,,,,,,,,,
53015,0,USWashingtonCowlitz,Washington,Cowlitz,2022-04-28 09:13:11,2020-04-28,0.05414843855291874,0.1904431975636508,0.7152088749795734,,,,,,,,,,,,
53015,0,USWashingtonCowlitz,Washington,Cowlitz,2022-04-28 09:13:11,2020-04-29,0.05414843855291874,0.1904431975636508,0.7152088749795734,,,,,,,,,,,,
53015,0,USWashingtonCowlitz,Washington,Cowlitz,2022-04-28 09:13:11,2020-04-30,0.12080478757454563,0.3309019315764895,0.97453313837079,,,,,,,,,,,,
53015,0,USWashingtonCowlitz,Washington,Cowlitz,2022-04-28 09:13:11,2020-05-01,0.12080478757454563,0.3309019315764895,0.97453313837079,,,,,,,,,,,,
53015,0,USWashingtonCowlitz,Washington,Cowlitz,2022-04-28 09:13:11,2020-05-02,0.12080478757454563,0.3309019315764895,0.97453313837079,,,,,,,,,,,,
53015,0,USWashingtonCowlitz,Washington,Cowlitz,2022-04-28 09:13:11,2020-05-03,0.12080478757454563,0.3309019315764895,0.97453313837079,,,,,,,,,,,,
53015,0,USWashingtonCowlitz,Washington,Cowlitz,2022-04-28 09:13:11,2020-05-04,0.12080478757454563,0.3309019315764895,0.97453313837079,,,,,,,,,,,,
53015,0,USWashingtonCowlitz,Washington,Cowlitz,2022-04-28 09:13:11,2020-05-05,0.12080478757454563,0.3309019315764895,0.97453313837079,,,,,,,,,,,,
53015,0,USWashingtonCowlitz,Washington,Cowlitz,2022-04-28 09:13:11,2020-05-06,0.12080478757454563,0.3309019315764895,0.97453313837079,,,,,,,,,,,,
53015,0,USWashingtonCowlitz,Washington,Cowlitz,2022-04-28 09:13:11,2020-05-07,0.03431418086664592,0.13134280117576905,0.5350612094789523,,,,,,,,,,,,
53015,0,USWashingtonCowlitz,Washington,Cowlitz,2022-04-28 09:13:11,2020-05-08,0.03431418086664592,0.13134280117576905,0.5350612094789523,,,,,,,,,,,,
53015,0,USWashingtonCowlitz,Washington,Cowlitz,2022-04-28 09:13:11,2020-05-09,0.03431418086664592,0.13134280117576905,0.5350612094789523,,,,,,,,,,,,
53015,0,USWashingtonCowlitz,Washington,Cowlitz,2022-04-28 09:13:11,2020-05-10,0.03431418086664592,0.13134280117576905,0.5350612094789523,,,,,,,,,,,,
53015,0,USWashingtonCowlitz,Washington,Cowlitz,2022-04-28 09:13:11,2020-05-11,0.03431418086664592,0.13134280117576905,0.5350612094789523,,,,,,,,,,,,
53015,0,USWashingtonCowlitz,Washington,Cowlitz,2022-04-28 09:13:11,2020-05-12,0.03431418086664592,0.13134280117576905,0.5350612094789523,,,,,,,,,,,,
53015,0,USWashingtonCowlitz,Washington,Cowlitz,2022-04-28 09:13:11,2020-05-13,0.03431418086664592,0.13134280117576905,0.5350612094789523,,,,,,,,,,,,
53015,0,USWashingtonCowlitz,Washington,Cowlitz,2022-04-28 09:13:11,2020-05-14,0.032677099665502335,0.1201931695309061,0.4712674208683655,,,,,,,,,,,,
53015,0,USWashingtonCowlitz,Washington,Cowlitz,2022-04-28 09:13:11,2020-05-15,0.032677099665502335,0.1201931695309061,0.4712674208683655,,,,,,,,,,,,
53015,0,USWashingtonCowlitz,Washington,Cowlitz,2022-04-28 09:13:11,2020-05-16,0.032677099665502335,0.1201931695309061,0.4712674208683655,,,,,,,,,,,,
53015,0,USWashingtonCowlitz,Washington,Cowlitz,2022-04-28 09:13:11,2020-05-17,0.032677099665502335,0.1201931695309061,0.4712674208683655,,,,,,,,,,,,
53015,0,USWashingtonCowlitz,Washington,Cowlitz,2022-04-28 09:13:11,2020-05-18,0.032677099665502335,0.1201931695309061,0.4712674208683655,,,,,,,,,,,,
53015,0,USWashingtonCowlitz,Washington,Cowlitz,2022-04-28 09:13:11,2020-05-19,0.032677099665502335,0.1201931695309061,0.4712674208683655,,,,,,,,,,,,
53015,0,USWashingtonCowlitz,Washington,Cowlitz,2022-04-28 09:13:11,2020-05-20,0.032677099665502335,0.1201931695309061,0.4712674208683655,,,,,,,,,,,,
53015,0,USWashingtonCowlitz,Washington,Cowlitz,2022-04-28 09:13:11,2020-05-21,0.027371093035775625,0.11011497878936148,0.47051428524279554,,,,,,,,,,,,
53015,0,USWashingtonCowlitz,Washington,Cowlitz,2022-04-28 09:13:11,2020-05-22,0.027371093035775625,0.11011497878936148,0.47051428524279554,,,,,,,,,,,,
53015,0,USWashingtonCowlitz,Washington,Cowlitz,2022-04-28 09:13:11,2020-05-23,0.027371093035775625,0.11011497878936148,0.47051428524279554,,,,,,,,,,,,
53015,0,USWashingtonCowlitz,Washington,Cowlitz,2022-04-28 09:13:11,2020-05-24,0.027371093035775625,0.11011497878936148,0.47051428524279554,,,,,,,,,,,,
53015,0,USWashingtonCowlitz,Washington,Cowlitz,2022-04-28 09:13:11,2020-05-25,0.027371093035775625,0.11011497878936148,0.47051428524279554,,,,,,,,,,,,
53015,0,USWashingtonCowlitz,Washington,Cowlitz,2022-04-28 09:13:11,2020-05-26,0.027371093035775625,0.11011497878936148,0.47051428524279554,,,,,,,,,,,,
53015,0,USWashingtonCowlitz,Washington,Cowlitz,2022-04-28 09:13:11,2020-05-27,0.027371093035775625,0.11011497878936148,0.47051428524279554,,,,,,,,,,,,
53015,0,USWashingtonCowlitz,Washington,Cowlitz,2022-04-28 09:13:11,2020-05-28,0.027993690325607768,0.11467255327579189,0.49853954270143763,,,,,,,,,,,,
53015,0,USWashingtonCowlitz,Washington,Cowlitz,2022-04-28 09:13:11,2020-05-29,0.027993690325607768,0.11467255327579189,0.49853954270143763,,,,,,,,,,,,
53015,0,USWashingtonCowlitz,Washington,Cowlitz,2022-04-28 09:13:11,2020-05-30,0.027993690325607768,0.11467255327579189,0.49853954270143763,,,,,,,,,,,,
53015,0,USWashingtonCowlitz,Washington,Cowlitz,2022-04-28 09:13:11,2020-05-31,0.027993690325607768,0.11467255327579189,0.49853954270143763,,,,,,,,,,,,
53015,0,USWashingtonCowlitz,Washington,Cowlitz,2022-04-28 09:13:11,2020-06-01,0.027993690325607768,0.11467255327579189,0.49853954270143763,,,,,,,,,,,,
53015,0,USWashingtonCowlitz,Washington,Cowlitz,2022-04-28 09:13:11,2020-06-02,0.027993690325607768,0.11467255327579189,0.49853954270143763,,,,,,,,,,,,
53015,0,USWashingtonCowlitz,Washington,Cowlitz,2022-04-28 09:13:11,2020-06-03,0.027993690325607768,0.11467255327579189,0.49853954270143763,,,,,,,,,,,,
53015,0,USWashingtonCowlitz,Washington,Cowlitz,2022-04-28 09:13:11,2020-06-04,0.12574981674340854,0.3175511431063118,0.8629155186602041,,,,,,,,,,,,
53015,0,USWashingtonCowlitz,Washington,Cowlitz,2022-04-28 09:13:11,2020-06-05,0.12574981674340854,0.3175511431063118,0.8629155186602041,,,,,,,,,,,,
53015,0,USWashingtonCowlitz,Washington,Cowlitz,2022-04-28 09:13:11,2020-06-06,0.12574981674340854,0.3175511431063118,0.8629155186602041,,,,,,,,,,,,
53015,0,USWashingtonCowlitz,Washington,Cowlitz,2022-04-28 09:13:11,2020-06-07,0.12574981674340854,0.3175511431063118,0.8629155186602041,,,,,,,,,,,,
53015,0,USWashingtonCowlitz,Washington,Cowlitz,2022-04-28 09:13:11,2020-06-08,0.12574981674340854,0.3175511431063118,0.8629155186602041,,,,,,,,,,,,
53015,0,USWashingtonCowlitz,Washington,Cowlitz,2022-04-28 09:13:11,2020-06-09,0.12574981674340854,0.3175511431063118,0.8629155186602041,,,,,,,,,,,,
53015,0,USWashingtonCowlitz,Washington,Cowlitz,2022-04-28 09:13:11,2020-06-10,0.12574981674340854,0.3175511431063118,0.8629155186602041,,,,,,,,,,,,
53015,0,USWashingtonCowlitz,Washington,Cowlitz,2022-04-28 09:13:11,2020-06-11,0.11833373980614514,0.2940807019438373,0.7864979491155042,,,,,,,,,,,,
53015,0,USWashingtonCowlitz,Washington,Cowlitz,2022-04-28 09:13:11,2020-06-12,0.11833373980614514,0.2940807019438373,0.7864979491155042,,,,,,,,,,,,
53015,0,USWashingtonCowlitz,Washington,Cowlitz,2022-04-28 09:13:11,2020-06-13,0.11833373980614514,0.2940807019438373,0.7864979491155042,,,,,,,,,,,,
53015,0,USWashingtonCowlitz,Washington,Cowlitz,2022-04-28 09:13:11,2020-06-14,0.11833373980614514,0.2940807019438373,0.7864979491155042,,,,,,,,,,,,
53015,0,USWashingtonCowlitz,Washington,Cowlitz,2022-04-28 09:13:11,2020-06-15,0.11833373980614514,0.2940807019438373,0.7864979491155042,,,,,,,,,,,,
53015,0,USWashingtonCowlitz,Washington,Cowlitz,2022-04-28 09:13:11,2020-06-16,0.11833373980614514,0.2940807019438373,0.7864979491155042,,,,,,,,,,,,
53015,0,USWashingtonCowlitz,Washington,Cowlitz,2022-04-28 09:13:11,2020-06-17,0.11833373980614514,0.2940807019438373,0.7864979491155042,,,,,,,,,,,,
53015,0,USWashingtonCowlitz,Washington,Cowlitz,2022-04-28 09:13:11,2020-06-18,0.1754883348217433,0.41583714816495365,1.0603341920406595,,,,,,,,,,,,
53015,0,USWashingtonCowlitz,Washington,Cowlitz,2022-04-28 09:13:11,2020-06-19,0.1754883348217433,0.41583714816495365,1.0603341920406595,,,,,,,,,,,,
53015,0,USWashingtonCowlitz,Washington,Cowlitz,2022-04-28 09:13:11,2020-06-20,0.1754883348217433,0.41583714816495365,1.0603341920406595,,,,,,,,,,,,
53015,0,USWashingtonCowlitz,Washington,Cowlitz,2022-04-28 09:13:11,2020-06-21,0.1754883348217433,0.41583714816495365,1.0603341920406595,,,,,,,,,,,,
53015,0,USWashingtonCowlitz,Washington,Cowlitz,2022-04-28 09:13:11,2020-06-22,0.1754883348217433,0.41583714816495365,1.0603341920406595,,,,,,,,,,,,
53015,0,USWashingtonCowlitz,Washington,Cowlitz,2022-04-28 09:13:11,2020-06-23,0.1754883348217433,0.41583714816495365,1.0603341920406595,,,,,,,,,,,,
53015,0,USWashingtonCowlitz,Washington,Cowlitz,2022-04-28 09:13:11,2020-06-24,0.1754883348217433,0.41583714816495365,1.0603341920406595,,,,,,,,,,,,
53015,0,USWashingtonCowlitz,Washington,Cowlitz,2022-04-28 09:13:11,2020-06-25,0.19570792155833577,0.4551866126368689,1.1390935167773615,,,,,,,,,,,,
53015,0,USWashingtonCowlitz,Washington,Cowlitz,2022-04-28 09:13:11,2020-06-26,0.19570792155833577,0.4551866126368689,1.1390935167773615,,,,,,,,,,,,
53015,0,USWashingtonCowlitz,Washington,Cowlitz,2022-04-28 09:13:11,2020-06-27,0.19570792155833577,0.4551866126368689,1.1390935167773615,,,,,,,,,,,,
53015,0,USWashingtonCowlitz,Washington,Cowlitz,2022-04-28 09:13:11,2020-06-28,0.19570792155833577,0.4551866126368689,1.1390935167773615,,,,,,,,,,,,
53015,0,USWashingtonCowlitz,Washington,Cowlitz,2022-04-28 09:13:11,2020-06-29,0.19570792155833577,0.4551866126368689,1.1390935167773615,,,,,,,,,,,,
53015,0,USWashingtonCowlitz,Washington,Cowlitz,2022-04-28 09:13:11,2020-06-30,0.19570792155833577,0.4551866126368689,1.1390935167773615,,,,,,,,,,,,
53015,0,USWashingtonCowlitz,Washington,Cowlitz,2022-04-28 09:13:11,2020-07-01,0.19570792155833577,0.4551866126368689,1.1390935167773615,,,,,,,,,,,,
53015,0,USWashingtonCowlitz,Washington,Cowlitz,2022-04-28 09:13:11,2020-07-02,0.191788253810065,0.4686365321155853,1.2323419995771567,,,,,,,,,,,,
53015,0,USWashingtonCowlitz,Washington,Cowlitz,2022-04-28 09:13:11,2020-07-03,0.191788253810065,0.4686365321155853,1.2323419995771567,,,,,,,,,,,,
53015,0,USWashingtonCowlitz,Washington,Cowlitz,2022-04-28 09:13:11,2020-07-04,0.191788253810065,0.4686365321155853,1.2323419995771567,,,,,,,,,,,,
53015,0,USWashingtonCowlitz,Washington,Cowlitz,2022-04-28 09:13:11,2020-07-05,0.191788253810065,0.4686365321155853,1.2323419995771567,,,,,,,,,,,,
53015,0,USWashingtonCowlitz,Washington,Cowlitz,2022-04-28 09:13:11,2020-07-06,0.191788253810065,0.4686365321155853,1.2323419995771567,,,,,,,,,,,,
53015,0,USWashingtonCowlitz,Washington,Cowlitz,2022-04-28 09:13:11,2020-07-07,0.191788253810065,0.4686365321155853,1.2323419995771567,,,,,,,,,,,,
53015,0,USWashingtonCowlitz,Washington,Cowlitz,2022-04-28 09:13:11,2020-07-08,0.191788253810065,0.4686365321155853,1.2323419995771567,,,,,,,,,,,,
53015,0,USWashingtonCowlitz,Washington,Cowlitz,2022-04-28 09:13:11,2020-07-09,0.3476386299842091,0.7351444314651407,1.6698890469891963,,,,,,,,,,,,
53015,0,USWashingtonCowlitz,Washington,Cowlitz,2022-04-28 09:13:11,2020-07-10,0.3476386299842091,0.7351444314651407,1.6698890469891963,,,,,,,,,,,,
53015,0,USWashingtonCowlitz,Washington,Cowlitz,2022-04-28 09:13:11,2020-07-11,0.3476386299842091,0.7351444314651407,1.6698890469891963,,,,,,,,,,,,
53015,0,USWashingtonCowlitz,Washington,Cowlitz,2022-04-28 09:13:11,2020-07-12,0.3476386299842091,0.7351444314651407,1.6698890469891963,,,,,,,,,,,,
53015,0,USWashingtonCowlitz,Washington,Cowlitz,2022-04-28 09:13:11,2020-07-13,0.3476386299842091,0.7351444314651407,1.6698890469891963,,,,,,,,,,,,
53015,0,USWashingtonCowlitz,Washington,Cowlitz,2022-04-28 09:13:11,2020-07-14,0.3476386299842091,0.7351444314651407,1.6698890469891963,,,,,,,,,,,,
53015,0,USWashingtonCowlitz,Washington,Cowlitz,2022-04-28 09:13:11,2020-07-15,0.3476386299842091,0.7351444314651407,1.6698890469891963,,,,,,,,,,,,
53015,0,USWashingtonCowlitz,Washington,Cowlitz,2022-04-28 09:13:11,2020-07-16,0.2743166746980166,0.6139653715394477,1.4778315604626822,,,,,,,,,,,,
53015,0,USWashingtonCowlitz,Washington,Cowlitz,2022-04-28 09:13:11,2020-07-17,0.2743166746980166,0.6139653715394477,1.4778315604626822,,,,,,,,,,,,
53015,0,USWashingtonCowlitz,Washington,Cowlitz,2022-04-28 09:13:11,2020-07-18,0.2743166746980166,0.6139653715394477,1.4778315604626822,,,,,,,,,,,,
53015,0,USWashingtonCowlitz,Washington,Cowlitz,2022-04-28 09:13:11,2020-07-19,0.2743166746980166,0.6139653715394477,1.4778315604626822,,,,,,,,,,,,
53015,0,USWashingtonCowlitz,Washington,Cowlitz,2022-04-28 09:13:11,2020-07-20,0.2743166746980166,0.6139653715394477,1.4778315604626822,,,,,,,,,,,,
53015,0,USWashingtonCowlitz,Washington,Cowlitz,2022-04-28 09:13:11,2020-07-21,0.2743166746980166,0.6139653715394477,1.4778315604626822,,,,,,,,,,,,
53015,0,USWashingtonCowlitz,Washington,Cowlitz,2022-04-28 09:13:11,2020-07-22,0.2743166746980166,0.6139653715394477,1.4778315604626822,,,,,,,,,,,,
53015,0,USWashingtonCowlitz,Washington,Cowlitz,2022-04-28 09:13:11,2020-07-23,0.22725379437823862,0.5449127670379784,1.406077658615293,,,,,,,,,,,,
53015,0,USWashingtonCowlitz,Washington,Cowlitz,2022-04-28 09:13:11,2020-07-24,0.22725379437823862,0.5449127670379784,1.406077658615293,,,,,,,,,,,,
53015,0,USWashingtonCowlitz,Washington,Cowlitz,2022-04-28 09:13:11,2020-07-25,0.22725379437823862,0.5449127670379784,1.406077658615293,,,,,,,,,,,,
53015,0,USWashingtonCowlitz,Washington,Cowlitz,2022-04-28 09:13:11,2020-07-26,0.22725379437823862,0.5449127670379784,1.406077658615293,,,,,,,,,,,,
53015,0,USWashingtonCowlitz,Washington,Cowlitz,2022-04-28 09:13:11,2020-07-27,0.22725379437823862,0.5449127670379784,1.406077658615293,,,,,,,,,,,,
53015,0,USWashingtonCowlitz,Washington,Cowlitz,2022-04-28 09:13:11,2020-07-28,0.22725379437823862,0.5449127670379784,1.406077658615293,,,,,,,,,,,,
53015,0,USWashingtonCowlitz,Washington,Cowlitz,2022-04-28 09:13:11,2020-07-29,0.22725379437823862,0.5449127670379784,1.406077658615293,,,,,,,,,,,,
53015,0,USWashingtonCowlitz,Washington,Cowlitz,2022-04-28 09:13:11,2020-07-30,0.19350948919099903,0.465783365551628,1.206527271309767,,,,,,,,,,,,
53015,0,USWashingtonCowlitz,Washington,Cowlitz,2022-04-28 09:13:11,2020-07-31,0.19350948919099903,0.465783365551628,1.206527271309767,,,,,,,,,,,,
53015,0,USWashingtonCowlitz,Washington,Cowlitz,2022-04-28 09:13:11,2020-08-01,0.19350948919099903,0.465783365551628,1.206527271309767,,,,,,,,,,,,
53015,0,USWashingtonCowlitz,Washington,Cowlitz,2022-04-28 09:13:11,2020-08-02,0.19350948919099903,0.465783365551628,1.206527271309767,,,,,,,,,,,,
53015,0,USWashingtonCowlitz,Washington,Cowlitz,2022-04-28 09:13:11,2020-08-03,0.19350948919099903,0.465783365551628,1.206527271309767,,,,,,,,,,,,
53015,0,USWashingtonCowlitz,Washington,Cowlitz,2022-04-28 09:13:11,2020-08-04,0.19350948919099903,0.465783365551628,1.206527271309767,,,,,,,,,,,,
53015,0,USWashingtonCowlitz,Washington,Cowlitz,2022-04-28 09:13:11,2020-08-05,0.19350948919099903,0.465783365551628,1.206527271309767,,,,,,,,,,,,
53015,0,USWashingtonCowlitz,Washington,Cowlitz,2022-04-28 09:13:11,2020-08-06,0.18423288825561646,0.43445856426200846,1.1024581437934158,,,,,,,,,,,,
53015,0,USWashingtonCowlitz,Washington,Cowlitz,2022-04-28 09:13:11,2020-08-07,0.18423288825561646,0.43445856426200846,1.1024581437934158,,,,,,,,,,,,
53015,0,USWashingtonCowlitz,Washington,Cowlitz,2022-04-28 09:13:11,2020-08-08,0.18423288825561646,0.43445856426200846,1.1024581437934158,,,,,,,,,,,,
53015,0,USWashingtonCowlitz,Washington,Cowlitz,2022-04-28 09:13:11,2020-08-09,0.18423288825561646,0.43445856426200846,1.1024581437934158,,,,,,,,,,,,
53015,0,USWashingtonCowlitz,Washington,Cowlitz,2022-04-28 09:13:11,2020-08-10,0.18423288825561646,0.43445856426200846,1.1024581437934158,,,,,,,,,,,,
53015,0,USWashingtonCowlitz,Washington,Cowlitz,2022-04-28 09:13:11,2020-08-11,0.18423288825561646,0.43445856426200846,1.1024581437934158,,,,,,,,,,,,
53015,0,USWashingtonCowlitz,Washington,Cowlitz,2022-04-28 09:13:11,2020-08-12,0.18423288825561646,0.43445856426200846,1.1024581437934158,,,,,,,,,,,,
53015,0,USWashingtonCowlitz,Washington,Cowlitz,2022-04-28 09:13:11,2020-08-13,0.08539734016560435,0.24600757056415581,0.761254109036383,,,,,,,,,,,,
53015,0,USWashingtonCowlitz,Washington,Cowlitz,2022-04-28 09:13:11,2020-08-14,0.08539734016560435,0.24600757056415581,0.761254109036383,,,,,,,,,,,,
53015,0,USWashingtonCowlitz,Washington,Cowlitz,2022-04-28 09:13:11,2020-08-15,0.08539734016560435,0.24600757056415581,0.761254109036383,,,,,,,,,,,,
53015,0,USWashingtonCowlitz,Washington,Cowlitz,2022-04-28 09:13:11,2020-08-16,0.08539734016560435,0.24600757056415581,0.761254109036383,,,,,,,,,,,,
53015,0,USWashingtonCowlitz,Washington,Cowlitz,2022-04-28 09:13:11,2020-08-17,0.08539734016560435,0.24600757056415581,0.761254109036383,,,,,,,,,,,,
53015,0,USWashingtonCowlitz,Washington,Cowlitz,2022-04-28 09:13:11,2020-08-18,0.08539734016560435,0.24600757056415581,0.761254109036383,,,,,,,,,,,,
53015,0,USWashingtonCowlitz,Washington,Cowlitz,2022-04-28 09:13:11,2020-08-19,0.08539734016560435,0.24600757056415581,0.761254109036383,,,,,,,,,,,,
53015,0,USWashingtonCowlitz,Washington,Cowlitz,2022-04-28 09:13:11,2020-08-20,0.11046267636134187,0.37300315614929563,1.346873959066731,,,,,,,,,,,,
53015,0,USWashingtonCowlitz,Washington,Cowlitz,2022-04-28 09:13:11,2020-08-21,0.11046267636134187,0.37300315614929563,1.346873959066731,,,,,,,,,,,,
53015,0,USWashingtonCowlitz,Washington,Cowlitz,2022-04-28 09:13:11,2020-08-22,0.11046267636134187,0.37300315614929563,1.346873959066731,,,,,,,,,,,,
53015,0,USWashingtonCowlitz,Washington,Cowlitz,2022-04-28 09:13:11,2020-08-23,0.11046267636134187,0.37300315614929563,1.346873959066731,,,,,,,,,,,,
53015,0,USWashingtonCowlitz,Washington,Cowlitz,2022-04-28 09:13:11,2020-08-24,0.11046267636134187,0.37300315614929563,1.346873959066731,,,,,,,,,,,,
53015,0,USWashingtonCowlitz,Washington,Cowlitz,2022-04-28 09:13:11,2020-08-25,0.11046267636134187,0.37300315614929563,1.346873959066731,,,,,,,,,,,,
53015,0,USWashingtonCowlitz,Washington,Cowlitz,2022-04-28 09:13:11,2020-08-26,0.11046267636134187,0.37300315614929563,1.346873959066731,,,,,,,,,,,,
53015,0,USWashingtonCowlitz,Washington,Cowlitz,2022-04-28 09:13:11,2020-08-27,0.10450472340844084,0.26326835994430686,0.7136980081760002,,,,,,,,,,,,
53015,0,USWashingtonCowlitz,Washington,Cowlitz,2022-04-28 09:13:11,2020-08-28,0.10450472340844084,0.26326835994430686,0.7136980081760002,,,,,,,,,,,,
53015,0,USWashingtonCowlitz,Washington,Cowlitz,2022-04-28 09:13:11,2020-08-29,0.10450472340844084,0.26326835994430686,0.7136980081760002,,,,,,,,,,,,
53015,0,USWashingtonCowlitz,Washington,Cowlitz,2022-04-28 09:13:11,2020-08-30,0.10450472340844084,0.26326835994430686,0.7136980081760002,,,,,,,,,,,,
53015,0,USWashingtonCowlitz,Washington,Cowlitz,2022-04-28 09:13:11,2020-08-31,0.10450472340844084,0.26326835994430686,0.7136980081760002,,,,,,,,,,,,
53015,0,USWashingtonCowlitz,Washington,Cowlitz,2022-04-28 09:13:11,2020-09-01,0.10450472340844084,0.26326835994430686,0.7136980081760002,,,,,,,,,,,,
53015,0,USWashingtonCowlitz,Washington,Cowlitz,2022-04-28 09:13:11,2020-09-02,0.10450472340844084,0.26326835994430686,0.7136980081760002,,,,,,,,,,,,
53015,0,USWashingtonCowlitz,Washington,Cowlitz,2022-04-28 09:13:11,2020-09-03,0.10661984621817713,0.2513449166676268,0.6375786889004962,,,,,,,,,,,,
53015,0,USWashingtonCowlitz,Washington,Cowlitz,2022-04-28 09:13:11,2020-09-04,0.10661984621817713,0.2513449166676268,0.6375786889004962,,,,,,,,,,,,
53015,0,USWashingtonCowlitz,Washington,Cowlitz,2022-04-28 09:13:11,2020-09-05,0.10661984621817713,0.2513449166676268,0.6375786889004962,,,,,,,,,,,,
53015,0,USWashingtonCowlitz,Washington,Cowlitz,2022-04-28 09:13:11,2020-09-06,0.10661984621817713,0.2513449166676268,0.6375786889004962,,,,,,,,,,,,
53015,0,USWashingtonCowlitz,Washington,Cowlitz,2022-04-28 09:13:11,2020-09-07,0.10661984621817713,0.2513449166676268,0.6375786889004962,,,,,,,,,,,,
53015,0,USWashingtonCowlitz,Washington,Cowlitz,2022-04-28 09:13:11,2020-09-08,0.10661984621817713,0.2513449166676268,0.6375786889004962,,,,,,,,,,,,
53015,0,USWashingtonCowlitz,Washington,Cowlitz,2022-04-28 09:13:11,2020-09-09,0.10661984621817713,0.2513449166676268,0.6375786889004962,,,,,,,,,,,,
53015,0,USWashingtonCowlitz,Washington,Cowlitz,2022-04-28 09:13:11,2020-09-10,0.10327600434118944,0.2574859237839396,0.6908393001643998,,,,,,,,,,,,
53015,0,USWashingtonCowlitz,Washington,Cowlitz,2022-04-28 09:13:11,2020-09-11,0.10327600434118944,0.2574859237839396,0.6908393001643998,,,,,,,,,,,,
53015,0,USWashingtonCowlitz,Washington,Cowlitz,2022-04-28 09:13:11,2020-09-12,0.10327600434118944,0.2574859237839396,0.6908393001643998,,,,,,,,,,,,
53015,0,USWashingtonCowlitz,Washington,Cowlitz,2022-04-28 09:13:11,2020-09-13,0.10327600434118944,0.2574859237839396,0.6908393001643998,,,,,,,,,,,,
53015,0,USWashingtonCowlitz,Washington,Cowlitz,2022-04-28 09:13:11,2020-09-14,0.10327600434118944,0.2574859237839396,0.6908393001643998,,,,,,,,,,,,
53015,0,USWashingtonCowlitz,Washington,Cowlitz,2022-04-28 09:13:11,2020-09-15,0.10327600434118944,0.2574859237839396,0.6908393001643998,,,,,,,,,,,,
53015,0,USWashingtonCowlitz,Washington,Cowlitz,2022-04-28 09:13:11,2020-09-16,0.10327600434118944,0.2574859237839396,0.6908393001643998,,,,,,,,,,,,
53015,0,USWashingtonCowlitz,Washington,Cowlitz,2022-04-28 09:13:11,2020-09-17,0.2705819743396578,0.5808755245230633,1.3399935943766956,,,,,,,,,,,,
53015,0,USWashingtonCowlitz,Washington,Cowlitz,2022-04-28 09:13:11,2020-09-18,0.2705819743396578,0.5808755245230633,1.3399935943766956,,,,,,,,,,,,
53015,0,USWashingtonCowlitz,Washington,Cowlitz,2022-04-28 09:13:11,2020-09-19,0.2705819743396578,0.5808755245230633,1.3399935943766956,,,,,,,,,,,,
53015,0,USWashingtonCowlitz,Washington,Cowlitz,2022-04-28 09:13:11,2020-09-20,0.2705819743396578,0.5808755245230633,1.3399935943766956,,,,,,,,,,,,
53015,0,USWashingtonCowlitz,Washington,Cowlitz,2022-04-28 09:13:11,2020-09-21,0.2705819743396578,0.5808755245230633,1.3399935943766956,,,,,,,,,,,,
53015,0,USWashingtonCowlitz,Washington,Cowlitz,2022-04-28 09:13:11,2020-09-22,0.2705819743396578,0.5808755245230633,1.3399935943766956,,,,,,,,,,,,
53015,0,USWashingtonCowlitz,Washington,Cowlitz,2022-04-28 09:13:11,2020-09-23,0.2705819743396578,0.5808755245230633,1.3399935943766956,,,,,,,,,,,,
53015,0,USWashingtonCowlitz,Washington,Cowlitz,2022-04-28 09:13:11,2020-09-24,0.1612343540849583,0.35427540484532416,0.8369038387276145,,,,,,,,,,,,
53015,0,USWashingtonCowlitz,Washington,Cowlitz,2022-04-28 09:13:11,2020-09-25,0.1612343540849583,0.35427540484532416,0.8369038387276145,,,,,,,,,,,,
53015,0,USWashingtonCowlitz,Washington,Cowlitz,2022-04-28 09:13:11,2020-09-26,0.1612343540849583,0.35427540484532416,0.8369038387276145,,,,,,,,,,,,
53015,0,USWashingtonCowlitz,Washington,Cowlitz,2022-04-28 09:13:11,2020-09-27,0.1612343540849583,0.35427540484532416,0.8369038387276145,,,,,,,,,,,,
53015,0,USWashingtonCowlitz,Washington,Cowlitz,2022-04-28 09:13:11,2020-09-28,0.1612343540849583,0.35427540484532416,0.8369038387276145,,,,,,,,,,,,
53015,0,USWashingtonCowlitz,Washington,Cowlitz,2022-04-28 09:13:11,2020-09-29,0.1612343540849583,0.35427540484532416,0.8369038387276145,,,,,,,,,,,,
53015,0,USWashingtonCowlitz,Washington,Cowlitz,2022-04-28 09:13:11,2020-09-30,0.1612343540849583,0.35427540484532416,0.8369038387276145,,,,,,,,,,,,
53015,0,USWashingtonCowlitz,Washington,Cowlitz,2022-04-28 09:13:11,2020-10-01,0.13888680786678345,0.33421324871175817,0.8654808579958783,,,,,,,,,,,,
53015,0,USWashingtonCowlitz,Washington,Cowlitz,2022-04-28 09:13:11,2020-10-02,0.13888680786678345,0.33421324871175817,0.8654808579958783,,,,,,,,,,,,
53015,0,USWashingtonCowlitz,Washington,Cowlitz,2022-04-28 09:13:11,2020-10-03,0.13888680786678345,0.33421324871175817,0.8654808579958783,,,,,,,,,,,,
53015,0,USWashingtonCowlitz,Washington,Cowlitz,2022-04-28 09:13:11,2020-10-04,0.13888680786678345,0.33421324871175817,0.8654808579958783,,,,,,,,,,,,
53015,0,USWashingtonCowlitz,Washington,Cowlitz,2022-04-28 09:13:11,2020-10-05,0.13888680786678345,0.33421324871175817,0.8654808579958783,,,,,,,,,,,,
53015,0,USWashingtonCowlitz,Washington,Cowlitz,2022-04-28 09:13:11,2020-10-06,0.13888680786678345,0.33421324871175817,0.8654808579958783,,,,,,,,,,,,
53015,0,USWashingtonCowlitz,Washington,Cowlitz,2022-04-28 09:13:11,2020-10-07,0.13888680786678345,0.33421324871175817,0.8654808579958783,,,,,,,,,,,,
53015,0,USWashingtonCowlitz,Washington,Cowlitz,2022-04-28 09:13:11,2020-10-08,0.1279293936772867,0.286156725299933,0.6883716079351287,,,,,,,,,,,,
53015,0,USWashingtonCowlitz,Washington,Cowlitz,2022-04-28 09:13:11,2020-10-09,0.1279293936772867,0.286156725299933,0.6883716079351287,,,,,,,,,,,,
53015,0,USWashingtonCowlitz,Washington,Cowlitz,2022-04-28 09:13:11,2020-10-10,0.1279293936772867,0.286156725299933,0.6883716079351287,,,,,,,,,,,,
53015,0,USWashingtonCowlitz,Washington,Cowlitz,2022-04-28 09:13:11,2020-10-11,0.1279293936772867,0.286156725299933,0.6883716079351287,,,,,,,,,,,,
53015,0,USWashingtonCowlitz,Washington,Cowlitz,2022-04-28 09:13:11,2020-10-12,0.1279293936772867,0.286156725299933,0.6883716079351287,,,,,,,,,,,,
53015,0,USWashingtonCowlitz,Washington,Cowlitz,2022-04-28 09:13:11,2020-10-13,0.1279293936772867,0.286156725299933,0.6883716079351287,,,,,,,,,,,,
53015,0,USWashingtonCowlitz,Washington,Cowlitz,2022-04-28 09:13:11,2020-10-14,0.1279293936772867,0.286156725299933,0.6883716079351287,,,,,,,,,,,,
53015,0,USWashingtonCowlitz,Washington,Cowlitz,2022-04-28 09:13:11,2020-10-15,0.15513123919001062,0.35593749593960555,0.8785769168017569,,,,,,,,,,,,
53015,0,USWashingtonCowlitz,Washington,Cowlitz,2022-04-28 09:13:11,2020-10-16,0.15513123919001062,0.35593749593960555,0.8785769168017569,,,,,,,,,,,,
53015,0,USWashingtonCowlitz,Washington,Cowlitz,2022-04-28 09:13:11,2020-10-17,0.15513123919001062,0.35593749593960555,0.8785769168017569,,,,,,,,,,,,
53015,0,USWashingtonCowlitz,Washington,Cowlitz,2022-04-28 09:13:11,2020-10-18,0.15513123919001062,0.35593749593960555,0.8785769168017569,,,,,,,,,,,,
53015,0,USWashingtonCowlitz,Washington,Cowlitz,2022-04-28 09:13:11,2020-10-19,0.15513123919001062,0.35593749593960555,0.8785769168017569,,,,,,,,,,,,
53015,0,USWashingtonCowlitz,Washington,Cowlitz,2022-04-28 09:13:11,2020-10-20,0.15513123919001062,0.35593749593960555,0.8785769168017569,,,,,,,,,,,,
53015,0,USWashingtonCowlitz,Washington,Cowlitz,2022-04-28 09:13:11,2020-10-21,0.15513123919001062,0.35593749593960555,0.8785769168017569,,,,,,,,,,,,
53015,0,USWashingtonCowlitz,Washington,Cowlitz,2022-04-28 09:13:11,2020-10-22,0.17210222884475335,0.4216180937892797,1.1115602703275047,,,,,,,,,,,,
53015,0,USWashingtonCowlitz,Washington,Cowlitz,2022-04-28 09:13:11,2020-10-23,0.17210222884475335,0.4216180937892797,1.1115602703275047,,,,,,,,,,,,
53015,0,USWashingtonCowlitz,Washington,Cowlitz,2022-04-28 09:13:11,2020-10-24,0.17210222884475335,0.4216180937892797,1.1115602703275047,,,,,,,,,,,,
53015,0,USWashingtonCowlitz,Washington,Cowlitz,2022-04-28 09:13:11,2020-10-25,0.17210222884475335,0.4216180937892797,1.1115602703275047,,,,,,,,,,,,
53015,0,USWashingtonCowlitz,Washington,Cowlitz,2022-04-28 09:13:11,2020-10-26,0.17210222884475335,0.4216180937892797,1.1115602703275047,,,,,,,,,,,,
53015,0,USWashingtonCowlitz,Washington,Cowlitz,2022-04-28 09:13:11,2020-10-27,0.17210222884475335,0.4216180937892797,1.1115602703275047,,,,,,,,,,,,
53015,0,USWashingtonCowlitz,Washington,Cowlitz,2022-04-28 09:13:11,2020-10-28,0.17210222884475335,0.4216180937892797,1.1115602703275047,,,,,,,,,,,,
53015,0,USWashingtonCowlitz,Washington,Cowlitz,2022-04-28 09:13:11,2020-10-29,0.2807985201901958,0.6231905238210971,1.4872243975173076,,,,,,,,,,,,
53015,0,USWashingtonCowlitz,Washington,Cowlitz,2022-04-28 09:13:11,2020-10-30,0.2807985201901958,0.6231905238210971,1.4872243975173076,,,,,,,,,,,,
53015,0,USWashingtonCowlitz,Washington,Cowlitz,2022-04-28 09:13:11,2020-10-31,0.2807985201901958,0.6231905238210971,1.4872243975173076,,,,,,,,,,,,
53015,0,USWashingtonCowlitz,Washington,Cowlitz,2022-04-28 09:13:11,2020-11-01,0.2807985201901958,0.6231905238210971,1.4872243975173076,,,,,,,,,,,,
53015,0,USWashingtonCowlitz,Washington,Cowlitz,2022-04-28 09:13:11,2020-11-02,0.2807985201901958,0.6231905238210971,1.4872243975173076,,,,,,,,,,,,
53015,0,USWashingtonCowlitz,Washington,Cowlitz,2022-04-28 09:13:11,2020-11-03,0.2807985201901958,0.6231905238210971,1.4872243975173076,,,,,,,,,,,,
53015,0,USWashingtonCowlitz,Washington,Cowlitz,2022-04-28 09:13:11,2020-11-04,0.2807985201901958,0.6231905238210971,1.4872243975173076,,,,,,,,,,,,
53015,0,USWashingtonCowlitz,Washington,Cowlitz,2022-04-28 09:13:11,2020-11-05,0.4313947986749442,0.941935950810891,2.2108798626036297,,,,,,,,,,,,
53015,0,USWashingtonCowlitz,Washington,Cowlitz,2022-04-28 09:13:11,2020-11-06,0.4313947986749442,0.941935950810891,2.2108798626036297,,,,,,,,,,,,
53015,0,USWashingtonCowlitz,Washington,Cowlitz,2022-04-28 09:13:11,2020-11-07,0.4313947986749442,0.941935950810891,2.2108798626036297,,,,,,,,,,,,
53015,0,USWashingtonCowlitz,Washington,Cowlitz,2022-04-28 09:13:11,2020-11-08,0.4313947986749442,0.941935950810891,2.2108798626036297,,,,,,,,,,,,
53015,0,USWashingtonCowlitz,Washington,Cowlitz,2022-04-28 09:13:11,2020-11-09,0.4313947986749442,0.941935950810891,2.2108798626036297,,,,,,,,,,,,
53015,0,USWashingtonCowlitz,Washington,Cowlitz,2022-04-28 09:13:11,2020-11-10,0.4313947986749442,0.941935950810891,2.2108798626036297,,,,,,,,,,,,
53015,0,USWashingtonCowlitz,Washington,Cowlitz,2022-04-28 09:13:11,2020-11-11,0.4313947986749442,0.941935950810891,2.2108798626036297,,,,,,,,,,,,
53015,0,USWashingtonCowlitz,Washington,Cowlitz,2022-04-28 09:13:11,2020-11-12,0.6130118803151057,1.2709168370930446,2.828701771512055,,,,,,,,,,,,
53015,0,USWashingtonCowlitz,Washington,Cowlitz,2022-04-28 09:13:11,2020-11-13,0.6130118803151057,1.2709168370930446,2.828701771512055,,,,,,,,,,,,
53015,0,USWashingtonCowlitz,Washington,Cowlitz,2022-04-28 09:13:11,2020-11-14,0.6130118803151057,1.2709168370930446,2.828701771512055,,,,,,,,,,,,
53015,0,USWashingtonCowlitz,Washington,Cowlitz,2022-04-28 09:13:11,2020-11-15,0.6130118803151057,1.2709168370930446,2.828701771512055,,,,,,,,,,,,
53015,0,USWashingtonCowlitz,Washington,Cowlitz,2022-04-28 09:13:11,2020-11-16,0.6130118803151057,1.2709168370930446,2.828701771512055,,,,,,,,,,,,
53015,0,USWashingtonCowlitz,Washington,Cowlitz,2022-04-28 09:13:11,2020-11-17,0.6130118803151057,1.2709168370930446,2.828701771512055,,,,,,,,,,,,
53015,0,USWashingtonCowlitz,Washington,Cowlitz,2022-04-28 09:13:11,2020-11-18,0.6130118803151057,1.2709168370930446,2.828701771512055,,,,,,,,,,,,
53015,0,USWashingtonCowlitz,Washington,Cowlitz,2022-04-28 09:13:11,2020-11-19,1.058434150413517,2.4203955510658037,5.954209864625626,,,,,,,,,,,,
53015,0,USWashingtonCowlitz,Washington,Cowlitz,2022-04-28 09:13:11,2020-11-20,1.058434150413517,2.4203955510658037,5.954209864625626,,,,,,,,,,,,
53015,0,USWashingtonCowlitz,Washington,Cowlitz,2022-04-28 09:13:11,2020-11-21,1.058434150413517,2.4203955510658037,5.954209864625626,,,,,,,,,,,,
53015,0,USWashingtonCowlitz,Washington,Cowlitz,2022-04-28 09:13:11,2020-11-22,1.058434150413517,2.4203955510658037,5.954209864625626,,,,,,,,,,,,
53015,0,USWashingtonCowlitz,Washington,Cowlitz,2022-04-28 09:13:11,2020-11-23,1.058434150413517,2.4203955510658037,5.954209864625626,,,,,,,,,,,,
53015,0,USWashingtonCowlitz,Washington,Cowlitz,2022-04-28 09:13:11,2020-11-24,1.058434150413517,2.4203955510658037,5.954209864625626,,,,,,,,,,,,
53015,0,USWashingtonCowlitz,Washington,Cowlitz,2022-04-28 09:13:11,2020-11-25,1.058434150413517,2.4203955510658037,5.954209864625626,,,,,,,,,,,,
53015,0,USWashingtonCowlitz,Washington,Cowlitz,2022-04-28 09:13:11,2020-12-03,0.7854557307535599,1.3596873955668836,2.5031322352469,,,,,,,,,,,,
53015,0,USWashingtonCowlitz,Washington,Cowlitz,2022-04-28 09:13:11,2020-12-04,0.7854557307535599,1.3596873955668836,2.5031322352469,,,,,,,,,,,,
53015,0,USWashingtonCowlitz,Washington,Cowlitz,2022-04-28 09:13:11,2020-12-05,0.7854557307535599,1.3596873955668836,2.5031322352469,,,,,,,,,,,,
53015,0,USWashingtonCowlitz,Washington,Cowlitz,2022-04-28 09:13:11,2020-12-06,0.7854557307535599,1.3596873955668836,2.5031322352469,,,,,,,,,,,,
53015,0,USWashingtonCowlitz,Washington,Cowlitz,2022-04-28 09:13:11,2020-12-07,0.7854557307535599,1.3596873955668836,2.5031322352469,,,,,,,,,,,,
53015,0,USWashingtonCowlitz,Washington,Cowlitz,2022-04-28 09:13:11,2020-12-08,0.7854557307535599,1.3596873955668836,2.5031322352469,,,,,,,,,,,,
53015,0,USWashingtonCowlitz,Washington,Cowlitz,2022-04-28 09:13:11,2020-12-09,0.7854557307535599,1.3596873955668836,2.5031322352469,,,,,,,,,,,,
53015,0,USWashingtonCowlitz,Washington,Cowlitz,2022-04-28 09:13:11,2020-12-10,0.6737856672112845,1.1920204227818385,2.246231626078594,,,,,,,,,,,,
53015,0,USWashingtonCowlitz,Washington,Cowlitz,2022-04-28 09:13:11,2020-12-11,0.6737856672112845,1.1920204227818385,2.246231626078594,,,,,,,,,,,,
53015,0,USWashingtonCowlitz,Washington,Cowlitz,2022-04-28 09:13:11,2020-12-12,0.6737856672112845,1.1920204227818385,2.246231626078594,,,,,,,,,,,,
53015,0,USWashingtonCowlitz,Washington,Cowlitz,2022-04-28 09:13:11,2020-12-13,0.6737856672112845,1.1920204227818385,2.246231626078594,,,,,,,,,,,,
53015,0,USWashingtonCowlitz,Washington,Cowlitz,2022-04-28 09:13:11,2020-12-14,0.6737856672112845,1.1920204227818385,2.246231626078594,,,,,,,,,,,,
53015,0,USWashingtonCowlitz,Washington,Cowlitz,2022-04-28 09:13:11,2020-12-15,0.6737856672112845,1.1920204227818385,2.246231626078594,,,,,,,,,,,,
53015,0,USWashingtonCowlitz,Washington,Cowlitz,2022-04-28 09:13:11,2020-12-16,0.6737856672112845,1.1920204227818385,2.246231626078594,,,,,,,,,,,,
53015,0,USWashingtonCowlitz,Washington,Cowlitz,2022-04-28 09:13:11,2020-12-17,0.8158408092350997,1.4622814073547048,2.794140264287217,,,,,,,,,,,,
53015,0,USWashingtonCowlitz,Washington,Cowlitz,2022-04-28 09:13:11,2020-12-18,0.8158408092350997,1.4622814073547048,2.794140264287217,,,,,,,,,,,,
53015,0,USWashingtonCowlitz,Washington,Cowlitz,2022-04-28 09:13:11,2020-12-19,0.8158408092350997,1.4622814073547048,2.794140264287217,,,,,,,,,,,,
53015,0,USWashingtonCowlitz,Washington,Cowlitz,2022-04-28 09:13:11,2020-12-20,0.8158408092350997,1.4622814073547048,2.794140264287217,,,,,,,,,,,,
53015,0,USWashingtonCowlitz,Washington,Cowlitz,2022-04-28 09:13:11,2020-12-21,0.8158408092350997,1.4622814073547048,2.794140264287217,,,,,,,,,,,,
53015,0,USWashingtonCowlitz,Washington,Cowlitz,2022-04-28 09:13:11,2020-12-22,0.8158408092350997,1.4622814073547048,2.794140264287217,,,,,,,,,,,,
53015,0,USWashingtonCowlitz,Washington,Cowlitz,2022-04-28 09:13:11,2020-12-23,0.8158408092350997,1.4622814073547048,2.794140264287217,,,,,,,,,,,,
53015,0,USWashingtonCowlitz,Washington,Cowlitz,2022-04-28 09:13:11,2020-12-24,0.6458339212749236,1.166380053278533,2.2468020635115176,,,,,,,,,,,,
53015,0,USWashingtonCowlitz,Washington,Cowlitz,2022-04-28 09:13:11,2020-12-25,0.6458339212749236,1.166380053278533,2.2468020635115176,,,,,,,,,,,,
53015,0,USWashingtonCowlitz,Washington,Cowlitz,2022-04-28 09:13:11,2020-12-26,0.6458339212749236,1.166380053278533,2.2468020635115176,,,,,,,,,,,,
53015,0,USWashingtonCowlitz,Washington,Cowlitz,2022-04-28 09:13:11,2020-12-27,0.6458339212749236,1.166380053278533,2.2468020635115176,,,,,,,,,,,,
53015,0,USWashingtonCowlitz,Washington,Cowlitz,2022-04-28 09:13:11,2020-12-28,0.6458339212749236,1.166380053278533,2.2468020635115176,,,,,,,,,,,,
53015,0,USWashingtonCowlitz,Washington,Cowlitz,2022-04-28 09:13:11,2020-12-29,0.6458339212749236,1.166380053278533,2.2468020635115176,,,,,,,,,,,,
53015,0,USWashingtonCowlitz,Washington,Cowlitz,2022-04-28 09:13:11,2020-12-30,0.6458339212749236,1.166380053278533,2.2468020635115176,,,,,,,,,,,,
53015,0,USWashingtonCowlitz,Washington,Cowlitz,2022-04-28 09:13:11,2020-12-31,0.9822262773359889,1.8831157784915329,3.8637640767273105,,,,,,,,,,,,
53015,0,USWashingtonCowlitz,Washington,Cowlitz,2022-04-28 09:13:11,2021-01-01,0.9822262773359889,1.8831157784915329,3.8637640767273105,,,,,,,,,,,,
53015,0,USWashingtonCowlitz,Washington,Cowlitz,2022-04-28 09:13:11,2021-01-02,0.9822262773359889,1.8831157784915329,3.8637640767273105,,,,,,,,,,,,
53015,0,USWashingtonCowlitz,Washington,Cowlitz,2022-04-28 09:13:11,2021-01-03,0.9822262773359889,1.8831157784915329,3.8637640767273105,,,,,,,,,,,,
53015,0,USWashingtonCowlitz,Washington,Cowlitz,2022-04-28 09:13:11,2021-01-04,0.9822262773359889,1.8831157784915329,3.8637640767273105,,,,,,,,,,,,
53015,0,USWashingtonCowlitz,Washington,Cowlitz,2022-04-28 09:13:11,2021-01-05,0.9822262773359889,1.8831157784915329,3.8637640767273105,,,,,,,,,,,,
53015,0,USWashingtonCowlitz,Washington,Cowlitz,2022-04-28 09:13:11,2021-01-06,0.9822262773359889,1.8831157784915329,3.8637640767273105,,,,,,,,,,,,
53015,0,USWashingtonCowlitz,Washington,Cowlitz,2022-04-28 09:13:11,2021-01-07,1.2705511715874342,2.295502137536082,4.423635791480708,,,,,,,,,,,,
53015,0,USWashingtonCowlitz,Washington,Cowlitz,2022-04-28 09:13:11,2021-01-08,1.2705511715874342,2.295502137536082,4.423635791480708,,,,,,,,,,,,
53015,0,USWashingtonCowlitz,Washington,Cowlitz,2022-04-28 09:13:11,2021-01-09,1.2705511715874342,2.295502137536082,4.423635791480708,,,,,,,,,,,,
53015,0,USWashingtonCowlitz,Washington,Cowlitz,2022-04-28 09:13:11,2021-01-10,1.2705511715874342,2.295502137536082,4.423635791480708,,,,,,,,,,,,
53015,0,USWashingtonCowlitz,Washington,Cowlitz,2022-04-28 09:13:11,2021-01-11,1.2705511715874342,2.295502137536082,4.423635791480708,,,,,,,,,,,,
53015,0,USWashingtonCowlitz,Washington,Cowlitz,2022-04-28 09:13:11,2021-01-12,1.2705511715874342,2.295502137536082,4.423635791480708,,,,,,,,,,,,
53015,0,USWashingtonCowlitz,Washington,Cowlitz,2022-04-28 09:13:11,2021-01-13,1.2705511715874342,2.295502137536082,4.423635791480708,,,,,,,,,,,,
53015,0,USWashingtonCowlitz,Washington,Cowlitz,2022-04-28 09:13:11,2021-01-14,1.2617423327022084,2.0864037167439524,3.6554305016808586,,,,,,,,,,,,
53015,0,USWashingtonCowlitz,Washington,Cowlitz,2022-04-28 09:13:11,2021-01-15,1.2617423327022084,2.0864037167439524,3.6554305016808586,,,,,,,,,,,,
53015,0,USWashingtonCowlitz,Washington,Cowlitz,2022-04-28 09:13:11,2021-01-16,1.2617423327022084,2.0864037167439524,3.6554305016808586,,,,,,,,,,,,
53015,0,USWashingtonCowlitz,Washington,Cowlitz,2022-04-28 09:13:11,2021-01-17,1.2617423327022084,2.0864037167439524,3.6554305016808586,,,,,,,,,,,,
53015,0,USWashingtonCowlitz,Washington,Cowlitz,2022-04-28 09:13:11,2021-01-18,1.2617423327022084,2.0864037167439524,3.6554305016808586,,,,,,,,,,,,
53015,0,USWashingtonCowlitz,Washington,Cowlitz,2022-04-28 09:13:11,2021-01-19,1.2617423327022084,2.0864037167439524,3.6554305016808586,,,,,,,,,,,,
53015,0,USWashingtonCowlitz,Washington,Cowlitz,2022-04-28 09:13:11,2021-01-20,1.2617423327022084,2.0864037167439524,3.6554305016808586,,,,,,,,,,,,
53015,0,USWashingtonCowlitz,Washington,Cowlitz,2022-04-28 09:13:11,2021-01-21,0.8195443330893525,1.3966065437616308,2.528001209163725,,,,,,,,,,,,
53015,0,USWashingtonCowlitz,Washington,Cowlitz,2022-04-28 09:13:11,2021-01-22,0.8195443330893525,1.3966065437616308,2.528001209163725,,,,,,,,,,,,
53015,0,USWashingtonCowlitz,Washington,Cowlitz,2022-04-28 09:13:11,2021-01-23,0.8195443330893525,1.3966065437616308,2.528001209163725,,,,,,,,,,,,
53015,0,USWashingtonCowlitz,Washington,Cowlitz,2022-04-28 09:13:11,2021-01-24,0.8195443330893525,1.3966065437616308,2.528001209163725,,,,,,,,,,,,
53015,0,USWashingtonCowlitz,Washington,Cowlitz,2022-04-28 09:13:11,2021-01-25,0.8195443330893525,1.3966065437616308,2.528001209163725,,,,,,,,,,,,
53015,0,USWashingtonCowlitz,Washington,Cowlitz,2022-04-28 09:13:11,2021-01-26,0.8195443330893525,1.3966065437616308,2.528001209163725,,,,,,,,,,,,
53015,0,USWashingtonCowlitz,Washington,Cowlitz,2022-04-28 09:13:11,2021-01-27,0.8195443330893525,1.3966065437616308,2.528001209163725,,,,,,,,,,,,
53015,0,USWashingtonCowlitz,Washington,Cowlitz,2022-04-28 09:13:11,2021-01-28,0.9210630362256458,1.5434699742879647,2.743558428495917,,,,,,,,,,,,
53015,0,USWashingtonCowlitz,Washington,Cowlitz,2022-04-28 09:13:11,2021-01-29,0.9210630362256458,1.5434699742879647,2.743558428495917,,,,,,,,,,,,
53015,0,USWashingtonCowlitz,Washington,Cowlitz,2022-04-28 09:13:11,2021-01-30,0.9210630362256458,1.5434699742879647,2.743558428495917,,,,,,,,,,,,
53015,0,USWashingtonCowlitz,Washington,Cowlitz,2022-04-28 09:13:11,2021-01-31,0.9210630362256458,1.5434699742879647,2.743558428495917,,,,,,,,,,,,
53015,0,USWashingtonCowlitz,Washington,Cowlitz,2022-04-28 09:13:11,2021-02-01,0.9210630362256458,1.5434699742879647,2.743558428495917,,,,,,,,,,,,
53015,0,USWashingtonCowlitz,Washington,Cowlitz,2022-04-28 09:13:11,2021-02-02,0.9210630362256458,1.5434699742879647,2.743558428495917,,,,,,,,,,,,
53015,0,USWashingtonCowlitz,Washington,Cowlitz,2022-04-28 09:13:11,2021-02-03,0.9210630362256458,1.5434699742879647,2.743558428495917,,,,,,,,,,,,
53015,0,USWashingtonCowlitz,Washington,Cowlitz,2022-04-28 09:13:11,2021-02-04,0.5240234973345389,0.9538387293039026,1.8527587551270712,,,,,,,,,,,,
53015,0,USWashingtonCowlitz,Washington,Cowlitz,2022-04-28 09:13:11,2021-02-05,0.5240234973345389,0.9538387293039026,1.8527587551270712,,,,,,,,,,,,
53015,0,USWashingtonCowlitz,Washington,Cowlitz,2022-04-28 09:13:11,2021-02-06,0.5240234973345389,0.9538387293039026,1.8527587551270712,,,,,,,,,,,,
53015,0,USWashingtonCowlitz,Washington,Cowlitz,2022-04-28 09:13:11,2021-02-07,0.5240234973345389,0.9538387293039026,1.8527587551270712,,,,,,,,,,,,
53015,0,USWashingtonCowlitz,Washington,Cowlitz,2022-04-28 09:13:11,2021-02-08,0.5240234973345389,0.9538387293039026,1.8527587551270712,,,,,,,,,,,,
53015,0,USWashingtonCowlitz,Washington,Cowlitz,2022-04-28 09:13:11,2021-02-09,0.5240234973345389,0.9538387293039026,1.8527587551270712,,,,,,,,,,,,
53015,0,USWashingtonCowlitz,Washington,Cowlitz,2022-04-28 09:13:11,2021-02-10,0.5240234973345389,0.9538387293039026,1.8527587551270712,,,,,,,,,,,,
53015,0,USWashingtonCowlitz,Washington,Cowlitz,2022-04-28 09:13:11,2021-02-11,0.45280242968860707,0.7596817975119169,1.3520877414703876,,,,,,,,,,,,
53015,0,USWashingtonCowlitz,Washington,Cowlitz,2022-04-28 09:13:11,2021-02-12,0.45280242968860707,0.7596817975119169,1.3520877414703876,,,,,,,,,,,,
53015,0,USWashingtonCowlitz,Washington,Cowlitz,2022-04-28 09:13:11,2021-02-13,0.45280242968860707,0.7596817975119169,1.3520877414703876,,,,,,,,,,,,
53015,0,USWashingtonCowlitz,Washington,Cowlitz,2022-04-28 09:13:11,2021-02-14,0.45280242968860707,0.7596817975119169,1.3520877414703876,,,,,,,,,,,,
53015,0,USWashingtonCowlitz,Washington,Cowlitz,2022-04-28 09:13:11,2021-02-15,0.45280242968860707,0.7596817975119169,1.3520877414703876,,,,,,,,,,,,
53015,0,USWashingtonCowlitz,Washington,Cowlitz,2022-04-28 09:13:11,2021-02-16,0.45280242968860707,0.7596817975119169,1.3520877414703876,,,,,,,,,,,,
53015,0,USWashingtonCowlitz,Washington,Cowlitz,2022-04-28 09:13:11,2021-02-17,0.45280242968860707,0.7596817975119169,1.3520877414703876,,,,,,,,,,,,
53015,0,USWashingtonCowlitz,Washington,Cowlitz,2022-04-28 09:13:11,2021-02-18,0.39573172747597635,0.6898472406410333,1.2795500460384153,,,,,,,,,,,,
53015,0,USWashingtonCowlitz,Washington,Cowlitz,2022-04-28 09:13:11,2021-02-19,0.39573172747597635,0.6898472406410333,1.2795500460384153,,,,,,,,,,,,
53015,0,USWashingtonCowlitz,Washington,Cowlitz,2022-04-28 09:13:11,2021-02-20,0.39573172747597635,0.6898472406410333,1.2795500460384153,,,,,,,,,,,,
53015,0,USWashingtonCowlitz,Washington,Cowlitz,2022-04-28 09:13:11,2021-02-21,0.39573172747597635,0.6898472406410333,1.2795500460384153,,,,,,,,,,,,
53015,0,USWashingtonCowlitz,Washington,Cowlitz,2022-04-28 09:13:11,2021-02-22,0.39573172747597635,0.6898472406410333,1.2795500460384153,,,,,,,,,,,,
53015,0,USWashingtonCowlitz,Washington,Cowlitz,2022-04-28 09:13:11,2021-02-23,0.39573172747597635,0.6898472406410333,1.2795500460384153,,,,,,,,,,,,
53015,0,USWashingtonCowlitz,Washington,Cowlitz,2022-04-28 09:13:11,2021-02-24,0.39573172747597635,0.6898472406410333,1.2795500460384153,,,,,,,,,,,,
53015,0,USWashingtonCowlitz,Washington,Cowlitz,2022-04-28 09:13:11,2021-02-25,0.5655886800755588,0.9534174244185046,1.7056353120326162,,,,,,,,,,,,
53015,0,USWashingtonCowlitz,Washington,Cowlitz,2022-04-28 09:13:11,2021-02-26,0.5655886800755588,0.9534174244185046,1.7056353120326162,,,,,,,,,,,,
53015,0,USWashingtonCowlitz,Washington,Cowlitz,2022-04-28 09:13:11,2021-02-27,0.5655886800755588,0.9534174244185046,1.7056353120326162,,,,,,,,,,,,
53015,0,USWashingtonCowlitz,Washington,Cowlitz,2022-04-28 09:13:11,2021-02-28,0.5655886800755588,0.9534174244185046,1.7056353120326162,,,,,,,,,,,,
53015,0,USWashingtonCowlitz,Washington,Cowlitz,2022-04-28 09:13:11,2021-03-01,0.5655886800755588,0.9534174244185046,1.7056353120326162,,,,,,,,,,,,
53015,0,USWashingtonCowlitz,Washington,Cowlitz,2022-04-28 09:13:11,2021-03-02,0.5655886800755588,0.9534174244185046,1.7056353120326162,,,,,,,,,,,,
53015,0,USWashingtonCowlitz,Washington,Cowlitz,2022-04-28 09:13:11,2021-03-03,0.5655886800755588,0.9534174244185046,1.7056353120326162,,,,,,,,,,,,
53015,0,USWashingtonCowlitz,Washington,Cowlitz,2022-04-28 09:13:11,2021-03-04,0.3547651106684959,0.6308847796967375,1.1954249279729419,,,,,,,,,,,,
53015,0,USWashingtonCowlitz,Washington,Cowlitz,2022-04-28 09:13:11,2021-03-05,0.3547651106684959,0.6308847796967375,1.1954249279729419,,,,,,,,,,,,
53015,0,USWashingtonCowlitz,Washington,Cowlitz,2022-04-28 09:13:11,2021-03-06,0.3547651106684959,0.6308847796967375,1.1954249279729419,,,,,,,,,,,,
53015,0,USWashingtonCowlitz,Washington,Cowlitz,2022-04-28 09:13:11,2021-03-07,0.3547651106684959,0.6308847796967375,1.1954249279729419,,,,,,,,,,,,
53015,0,USWashingtonCowlitz,Washington,Cowlitz,2022-04-28 09:13:11,2021-03-08,0.3547651106684959,0.6308847796967375,1.1954249279729419,,,,,,,,,,,,
53015,0,USWashingtonCowlitz,Washington,Cowlitz,2022-04-28 09:13:11,2021-03-09,0.3547651106684959,0.6308847796967375,1.1954249279729419,,,,,,,,,,,,
53015,0,USWashingtonCowlitz,Washington,Cowlitz,2022-04-28 09:13:11,2021-03-10,0.3547651106684959,0.6308847796967375,1.1954249279729419,,,,,,,,,,,,
53015,0,USWashingtonCowlitz,Washington,Cowlitz,2022-04-28 09:13:11,2021-03-11,0.25890863037783585,0.5117547627705432,1.0840417976012975,,,,,,,,,,,,
53015,0,USWashingtonCowlitz,Washington,Cowlitz,2022-04-28 09:13:11,2021-03-12,0.25890863037783585,0.5117547627705432,1.0840417976012975,,,,,,,,,,,,
53015,0,USWashingtonCowlitz,Washington,Cowlitz,2022-04-28 09:13:11,2021-03-13,0.25890863037783585,0.5117547627705432,1.0840417976012975,,,,,,,,,,,,
53015,0,USWashingtonCowlitz,Washington,Cowlitz,2022-04-28 09:13:11,2021-03-14,0.25890863037783585,0.5117547627705432,1.0840417976012975,,,,,,,,,,,,
53015,0,USWashingtonCowlitz,Washington,Cowlitz,2022-04-28 09:13:11,2021-03-15,0.25890863037783585,0.5117547627705432,1.0840417976012975,,,,,,,,,,,,
53015,0,USWashingtonCowlitz,Washington,Cowlitz,2022-04-28 09:13:11,2021-03-16,0.25890863037783585,0.5117547627705432,1.0840417976012975,,,,,,,,,,,,
53015,0,USWashingtonCowlitz,Washington,Cowlitz,2022-04-28 09:13:11,2021-03-17,0.25890863037783585,0.5117547627705432,1.0840417976012975,,,,,,,,,,,,
53015,0,USWashingtonCowlitz,Washington,Cowlitz,2022-04-28 09:13:11,2021-03-18,0.3382130382585905,0.6152583839536134,1.1943415334204999,,,,,,,,,,,,
53015,0,USWashingtonCowlitz,Washington,Cowlitz,2022-04-28 09:13:11,2021-03-19,0.3382130382585905,0.6152583839536134,1.1943415334204999,,,,,,,,,,,,
53015,0,USWashingtonCowlitz,Washington,Cowlitz,2022-04-28 09:13:11,2021-03-20,0.3382130382585905,0.6152583839536134,1.1943415334204999,,,,,,,,,,,,
53015,0,USWashingtonCowlitz,Washington,Cowlitz,2022-04-28 09:13:11,2021-03-21,0.3382130382585905,0.6152583839536134,1.1943415334204999,,,,,,,,,,,,
53015,0,USWashingtonCowlitz,Washington,Cowlitz,2022-04-28 09:13:11,2021-03-22,0.3382130382585905,0.6152583839536134,1.1943415334204999,,,,,,,,,,,,
53015,0,USWashingtonCowlitz,Washington,Cowlitz,2022-04-28 09:13:11,2021-03-23,0.3382130382585905,0.6152583839536134,1.1943415334204999,,,,,,,,,,,,
53015,0,USWashingtonCowlitz,Washington,Cowlitz,2022-04-28 09:13:11,2021-03-24,0.3382130382585905,0.6152583839536134,1.1943415334204999,,,,,,,,,,,,
53015,0,USWashingtonCowlitz,Washington,Cowlitz,2022-04-28 09:13:11,2021-03-25,0.639004426462112,1.061556937077973,1.8692600992808717,,,,,,,,,,,,
53015,0,USWashingtonCowlitz,Washington,Cowlitz,2022-04-28 09:13:11,2021-03-26,0.639004426462112,1.061556937077973,1.8692600992808717,,,,,,,,,,,,
53015,0,USWashingtonCowlitz,Washington,Cowlitz,2022-04-28 09:13:11,2021-03-27,0.639004426462112,1.061556937077973,1.8692600992808717,,,,,,,,,,,,
53015,0,USWashingtonCowlitz,Washington,Cowlitz,2022-04-28 09:13:11,2021-03-28,0.639004426462112,1.061556937077973,1.8692600992808717,,,,,,,,,,,,
53015,0,USWashingtonCowlitz,Washington,Cowlitz,2022-04-28 09:13:11,2021-03-29,0.639004426462112,1.061556937077973,1.8692600992808717,,,,,,,,,,,,
53015,0,USWashingtonCowlitz,Washington,Cowlitz,2022-04-28 09:13:11,2021-03-30,0.639004426462112,1.061556937077973,1.8692600992808717,,,,,,,,,,,,
53015,0,USWashingtonCowlitz,Washington,Cowlitz,2022-04-28 09:13:11,2021-03-31,0.639004426462112,1.061556937077973,1.8692600992808717,,,,,,,,,,,,
53015,0,USWashingtonCowlitz,Washington,Cowlitz,2022-04-28 09:13:11,2021-04-01,0.664639010559279,1.1339995378296386,2.055337102277217,,,,,,,,,,,,
53015,0,USWashingtonCowlitz,Washington,Cowlitz,2022-04-28 09:13:11,2021-04-02,0.664639010559279,1.1339995378296386,2.055337102277217,,,,,,,,,,,,
53015,0,USWashingtonCowlitz,Washington,Cowlitz,2022-04-28 09:13:11,2021-04-03,0.664639010559279,1.1339995378296386,2.055337102277217,,,,,,,,,,,,
53015,0,USWashingtonCowlitz,Washington,Cowlitz,2022-04-28 09:13:11,2021-04-04,0.664639010559279,1.1339995378296386,2.055337102277217,,,,,,,,,,,,
53015,0,USWashingtonCowlitz,Washington,Cowlitz,2022-04-28 09:13:11,2021-04-05,0.664639010559279,1.1339995378296386,2.055337102277217,,,,,,,,,,,,
53015,0,USWashingtonCowlitz,Washington,Cowlitz,2022-04-28 09:13:11,2021-04-06,0.664639010559279,1.1339995378296386,2.055337102277217,,,,,,,,,,,,
53015,0,USWashingtonCowlitz,Washington,Cowlitz,2022-04-28 09:13:11,2021-04-07,0.664639010559279,1.1339995378296386,2.055337102277217,,,,,,,,,,,,
53015,0,USWashingtonCowlitz,Washington,Cowlitz,2022-04-28 09:13:11,2021-04-08,0.6687805547548079,1.1922800845923887,2.265215094579405,,,,,,,,,,,,
53015,0,USWashingtonCowlitz,Washington,Cowlitz,2022-04-28 09:13:11,2021-04-09,0.6687805547548079,1.1922800845923887,2.265215094579405,,,,,,,,,,,,
53015,0,USWashingtonCowlitz,Washington,Cowlitz,2022-04-28 09:13:11,2021-04-10,0.6687805547548079,1.1922800845923887,2.265215094579405,,,,,,,,,,,,
53015,0,USWashingtonCowlitz,Washington,Cowlitz,2022-04-28 09:13:11,2021-04-11,0.6687805547548079,1.1922800845923887,2.265215094579405,,,,,,,,,,,,
53015,0,USWashingtonCowlitz,Washington,Cowlitz,2022-04-28 09:13:11,2021-04-12,0.6687805547548079,1.1922800845923887,2.265215094579405,,,,,,,,,,,,
53015,0,USWashingtonCowlitz,Washington,Cowlitz,2022-04-28 09:13:11,2021-04-13,0.6687805547548079,1.1922800845923887,2.265215094579405,,,,,,,,,,,,
53015,0,USWashingtonCowlitz,Washington,Cowlitz,2022-04-28 09:13:11,2021-04-14,0.6687805547548079,1.1922800845923887,2.265215094579405,,,,,,,,,,,,
53015,0,USWashingtonCowlitz,Washington,Cowlitz,2022-04-28 09:13:11,2021-04-15,0.7456616278507318,1.3099511109917021,2.4499838786515236,,,,,,,,,,,,
53015,0,USWashingtonCowlitz,Washington,Cowlitz,2022-04-28 09:13:11,2021-04-16,0.7456616278507318,1.3099511109917021,2.4499838786515236,,,,,,,,,,,,
53015,0,USWashingtonCowlitz,Washington,Cowlitz,2022-04-28 09:13:11,2021-04-17,0.7456616278507318,1.3099511109917021,2.4499838786515236,,,,,,,,,,,,
53015,0,USWashingtonCowlitz,Washington,Cowlitz,2022-04-28 09:13:11,2021-04-18,0.7456616278507318,1.3099511109917021,2.4499838786515236,,,,,,,,,,,,
53015,0,USWashingtonCowlitz,Washington,Cowlitz,2022-04-28 09:13:11,2021-04-19,0.7456616278507318,1.3099511109917021,2.4499838786515236,,,,,,,,,,,,
53015,0,USWashingtonCowlitz,Washington,Cowlitz,2022-04-28 09:13:11,2021-04-20,0.7456616278507318,1.3099511109917021,2.4499838786515236,,,,,,,,,,,,
53015,0,USWashingtonCowlitz,Washington,Cowlitz,2022-04-28 09:13:11,2021-04-21,0.7456616278507318,1.3099511109917021,2.4499838786515236,,,,,,,,,,,,
53015,0,USWashingtonCowlitz,Washington,Cowlitz,2022-04-28 09:13:11,2021-04-22,0.6206344847822477,1.170842541410825,2.361959650478007,,,,,,,,,,,,
53015,0,USWashingtonCowlitz,Washington,Cowlitz,2022-04-28 09:13:11,2021-04-23,0.6206344847822477,1.170842541410825,2.361959650478007,,,,,,,,,,,,
53015,0,USWashingtonCowlitz,Washington,Cowlitz,2022-04-28 09:13:11,2021-04-24,0.6206344847822477,1.170842541410825,2.361959650478007,,,,,,,,,,,,
53015,0,USWashingtonCowlitz,Washington,Cowlitz,2022-04-28 09:13:11,2021-04-25,0.6206344847822477,1.170842541410825,2.361959650478007,,,,,,,,,,,,
53015,0,USWashingtonCowlitz,Washington,Cowlitz,2022-04-28 09:13:11,2021-04-26,0.6206344847822477,1.170842541410825,2.361959650478007,,,,,,,,,,,,
53015,0,USWashingtonCowlitz,Washington,Cowlitz,2022-04-28 09:13:11,2021-04-27,0.6206344847822477,1.170842541410825,2.361959650478007,,,,,,,,,,,,
53015,0,USWashingtonCowlitz,Washington,Cowlitz,2022-04-28 09:13:11,2021-04-28,0.6206344847822477,1.170842541410825,2.361959650478007,,,,,,,,,,,,
53015,0,USWashingtonCowlitz,Washington,Cowlitz,2022-04-28 09:13:11,2021-04-29,0.605714200545834,1.1496258655789429,2.333961538671822,,,,,,,,,,,,
53015,0,USWashingtonCowlitz,Washington,Cowlitz,2022-04-28 09:13:11,2021-04-30,0.605714200545834,1.1496258655789429,2.333961538671822,,,,,,,,,,,,
53015,0,USWashingtonCowlitz,Washington,Cowlitz,2022-04-28 09:13:11,2021-05-01,0.605714200545834,1.1496258655789429,2.333961538671822,,,,,,,,,,,,
53015,0,USWashingtonCowlitz,Washington,Cowlitz,2022-04-28 09:13:11,2021-05-02,0.605714200545834,1.1496258655789429,2.333961538671822,,,,,,,,,,,,
53015,0,USWashingtonCowlitz,Washington,Cowlitz,2022-04-28 09:13:11,2021-05-03,0.605714200545834,1.1496258655789429,2.333961538671822,,,,,,,,,,,,
53015,0,USWashingtonCowlitz,Washington,Cowlitz,2022-04-28 09:13:11,2021-05-04,0.605714200545834,1.1496258655789429,2.333961538671822,,,,,,,,,,,,
53015,0,USWashingtonCowlitz,Washington,Cowlitz,2022-04-28 09:13:11,2021-05-05,0.605714200545834,1.1496258655789429,2.333961538671822,,,,,,,,,,,,
53015,0,USWashingtonCowlitz,Washington,Cowlitz,2022-04-28 09:13:11,2021-05-06,0.44872229740339986,0.9138592418279162,1.9968585924354403,,,,,,,,,,,,
53015,0,USWashingtonCowlitz,Washington,Cowlitz,2022-04-28 09:13:11,2021-05-07,0.44872229740339986,0.9138592418279162,1.9968585924354403,,,,,,,,,,,,
53015,0,USWashingtonCowlitz,Washington,Cowlitz,2022-04-28 09:13:11,2021-05-08,0.44872229740339986,0.9138592418279162,1.9968585924354403,,,,,,,,,,,,
53015,0,USWashingtonCowlitz,Washington,Cowlitz,2022-04-28 09:13:11,2021-05-09,0.44872229740339986,0.9138592418279162,1.9968585924354403,,,,,,,,,,,,
53015,0,USWashingtonCowlitz,Washington,Cowlitz,2022-04-28 09:13:11,2021-05-10,0.44872229740339986,0.9138592418279162,1.9968585924354403,,,,,,,,,,,,
53015,0,USWashingtonCowlitz,Washington,Cowlitz,2022-04-28 09:13:11,2021-05-11,0.44872229740339986,0.9138592418279162,1.9968585924354403,,,,,,,,,,,,
53015,0,USWashingtonCowlitz,Washington,Cowlitz,2022-04-28 09:13:11,2021-05-12,0.44872229740339986,0.9138592418279162,1.9968585924354403,,,,,,,,,,,,
53015,0,USWashingtonCowlitz,Washington,Cowlitz,2022-04-28 09:13:11,2021-05-13,0.3702082118904357,0.7768552100644931,1.7507005123242165,,,,,,,,,,,,
53015,0,USWashingtonCowlitz,Washington,Cowlitz,2022-04-28 09:13:11,2021-05-14,0.3702082118904357,0.7768552100644931,1.7507005123242165,,,,,,,,,,,,
53015,0,USWashingtonCowlitz,Washington,Cowlitz,2022-04-28 09:13:11,2021-05-15,0.3702082118904357,0.7768552100644931,1.7507005123242165,,,,,,,,,,,,
53015,0,USWashingtonCowlitz,Washington,Cowlitz,2022-04-28 09:13:11,2021-05-16,0.3702082118904357,0.7768552100644931,1.7507005123242165,,,,,,,,,,,,
53015,0,USWashingtonCowlitz,Washington,Cowlitz,2022-04-28 09:13:11,2021-05-17,0.3702082118904357,0.7768552100644931,1.7507005123242165,,,,,,,,,,,,
53015,0,USWashingtonCowlitz,Washington,Cowlitz,2022-04-28 09:13:11,2021-05-18,0.3702082118904357,0.7768552100644931,1.7507005123242165,,,,,,,,,,,,
53015,0,USWashingtonCowlitz,Washington,Cowlitz,2022-04-28 09:13:11,2021-05-19,0.3702082118904357,0.7768552100644931,1.7507005123242165,,,,,,,,,,,,
53015,0,USWashingtonCowlitz,Washington,Cowlitz,2022-04-28 09:13:11,2021-05-20,0.5080045808281791,0.8113110586653153,1.368448342755394,,,,,,,,,,,,
53015,0,USWashingtonCowlitz,Washington,Cowlitz,2022-04-28 09:13:11,2021-05-21,0.5080045808281791,0.8113110586653153,1.368448342755394,,,,,,,,,,,,
53015,0,USWashingtonCowlitz,Washington,Cowlitz,2022-04-28 09:13:11,2021-05-22,0.5080045808281791,0.8113110586653153,1.368448342755394,,,,,,,,,,,,
53015,0,USWashingtonCowlitz,Washington,Cowlitz,2022-04-28 09:13:11,2021-05-23,0.5080045808281791,0.8113110586653153,1.368448342755394,,,,,,,,,,,,
53015,0,USWashingtonCowlitz,Washington,Cowlitz,2022-04-28 09:13:11,2021-05-24,0.5080045808281791,0.8113110586653153,1.368448342755394,,,,,,,,,,,,
53015,0,USWashingtonCowlitz,Washington,Cowlitz,2022-04-28 09:13:11,2021-05-25,0.5080045808281791,0.8113110586653153,1.368448342755394,,,,,,,,,,,,
53015,0,USWashingtonCowlitz,Washington,Cowlitz,2022-04-28 09:13:11,2021-05-26,0.5080045808281791,0.8113110586653153,1.368448342755394,,,,,,,,,,,,
53015,0,USWashingtonCowlitz,Washington,Cowlitz,2022-04-28 09:13:11,2021-05-27,0.4225009505993129,0.821531404426609,1.7107187546652067,,,,,,,,,,,,
53015,0,USWashingtonCowlitz,Washington,Cowlitz,2022-04-28 09:13:11,2021-05-28,0.4225009505993129,0.821531404426609,1.7107187546652067,,,,,,,,,,,,
53015,0,USWashingtonCowlitz,Washington,Cowlitz,2022-04-28 09:13:11,2021-05-29,0.4225009505993129,0.821531404426609,1.7107187546652067,,,,,,,,,,,,
53015,0,USWashingtonCowlitz,Washington,Cowlitz,2022-04-28 09:13:11,2021-05-30,0.4225009505993129,0.821531404426609,1.7107187546652067,,,,,,,,,,,,
53015,0,USWashingtonCowlitz,Washington,Cowlitz,2022-04-28 09:13:11,2021-05-31,0.4225009505993129,0.821531404426609,1.7107187546652067,,,,,,,,,,,,
53015,0,USWashingtonCowlitz,Washington,Cowlitz,2022-04-28 09:13:11,2021-06-01,0.4225009505993129,0.821531404426609,1.7107187546652067,,,,,,,,,,,,
53015,0,USWashingtonCowlitz,Washington,Cowlitz,2022-04-28 09:13:11,2021-06-02,0.4225009505993129,0.821531404426609,1.7107187546652067,,,,,,,,,,,,
53015,0,USWashingtonCowlitz,Washington,Cowlitz,2022-04-28 09:13:11,2021-06-03,0.4094062385135029,0.7422133341578298,1.4355341775332202,,,,,,,,,,,,
53015,0,USWashingtonCowlitz,Washington,Cowlitz,2022-04-28 09:13:11,2021-06-04,0.4094062385135029,0.7422133341578298,1.4355341775332202,,,,,,,,,,,,
53015,0,USWashingtonCowlitz,Washington,Cowlitz,2022-04-28 09:13:11,2021-06-05,0.4094062385135029,0.7422133341578298,1.4355341775332202,,,,,,,,,,,,
53015,0,USWashingtonCowlitz,Washington,Cowlitz,2022-04-28 09:13:11,2021-06-06,0.4094062385135029,0.7422133341578298,1.4355341775332202,,,,,,,,,,,,
53015,0,USWashingtonCowlitz,Washington,Cowlitz,2022-04-28 09:13:11,2021-06-07,0.4094062385135029,0.7422133341578298,1.4355341775332202,,,,,,,,,,,,
53015,0,USWashingtonCowlitz,Washington,Cowlitz,2022-04-28 09:13:11,2021-06-08,0.4094062385135029,0.7422133341578298,1.4355341775332202,,,,,,,,,,,,
53015,0,USWashingtonCowlitz,Washington,Cowlitz,2022-04-28 09:13:11,2021-06-09,0.4094062385135029,0.7422133341578298,1.4355341775332202,,,,,,,,,,,,
53015,0,USWashingtonCowlitz,Washington,Cowlitz,2022-04-28 09:13:11,2021-06-10,0.43329700595045567,0.8620699745898637,1.8385886257903024,,,,,,,,,,,,
53015,0,USWashingtonCowlitz,Washington,Cowlitz,2022-04-28 09:13:11,2021-06-11,0.43329700595045567,0.8620699745898637,1.8385886257903024,,,,,,,,,,,,
53015,0,USWashingtonCowlitz,Washington,Cowlitz,2022-04-28 09:13:11,2021-06-12,0.43329700595045567,0.8620699745898637,1.8385886257903024,,,,,,,,,,,,
53015,0,USWashingtonCowlitz,Washington,Cowlitz,2022-04-28 09:13:11,2021-06-13,0.43329700595045567,0.8620699745898637,1.8385886257903024,,,,,,,,,,,,
53015,0,USWashingtonCowlitz,Washington,Cowlitz,2022-04-28 09:13:11,2021-06-14,0.43329700595045567,0.8620699745898637,1.8385886257903024,,,,,,,,,,,,
53015,0,USWashingtonCowlitz,Washington,Cowlitz,2022-04-28 09:13:11,2021-06-15,0.43329700595045567,0.8620699745898637,1.8385886257903024,,,,,,,,,,,,
53015,0,USWashingtonCowlitz,Washington,Cowlitz,2022-04-28 09:13:11,2021-06-16,0.43329700595045567,0.8620699745898637,1.8385886257903024,,,,,,,,,,,,
53015,0,USWashingtonCowlitz,Washington,Cowlitz,2022-04-28 09:13:11,2021-06-17,0.4136270364345943,0.7109535856945752,1.298872437545511,,,,,,,,,,,,
53015,0,USWashingtonCowlitz,Washington,Cowlitz,2022-04-28 09:13:11,2021-06-18,0.4136270364345943,0.7109535856945752,1.298872437545511,,,,,,,,,,,,
53015,0,USWashingtonCowlitz,Washington,Cowlitz,2022-04-28 09:13:11,2021-06-19,0.4136270364345943,0.7109535856945752,1.298872437545511,,,,,,,,,,,,
53015,0,USWashingtonCowlitz,Washington,Cowlitz,2022-04-28 09:13:11,2021-06-20,0.4136270364345943,0.7109535856945752,1.298872437545511,,,,,,,,,,,,
53015,0,USWashingtonCowlitz,Washington,Cowlitz,2022-04-28 09:13:11,2021-06-21,0.4136270364345943,0.7109535856945752,1.298872437545511,,,,,,,,,,,,
53015,0,USWashingtonCowlitz,Washington,Cowlitz,2022-04-28 09:13:11,2021-06-22,0.4136270364345943,0.7109535856945752,1.298872437545511,,,,,,,,,,,,
53015,0,USWashingtonCowlitz,Washington,Cowlitz,2022-04-28 09:13:11,2021-06-23,0.4136270364345943,0.7109535856945752,1.298872437545511,,,,,,,,,,,,
53015,0,USWashingtonCowlitz,Washington,Cowlitz,2022-04-28 09:13:11,2021-06-24,0.3140529751484823,0.5337887661324534,0.9634899363820355,,,,,,,,,,,,
53015,0,USWashingtonCowlitz,Washington,Cowlitz,2022-04-28 09:13:11,2021-06-25,0.3140529751484823,0.5337887661324534,0.9634899363820355,,,,,,,,,,,,
53015,0,USWashingtonCowlitz,Washington,Cowlitz,2022-04-28 09:13:11,2021-06-26,0.3140529751484823,0.5337887661324534,0.9634899363820355,,,,,,,,,,,,
53015,0,USWashingtonCowlitz,Washington,Cowlitz,2022-04-28 09:13:11,2021-06-27,0.3140529751484823,0.5337887661324534,0.9634899363820355,,,,,,,,,,,,
53015,0,USWashingtonCowlitz,Washington,Cowlitz,2022-04-28 09:13:11,2021-06-28,0.3140529751484823,0.5337887661324534,0.9634899363820355,,,,,,,,,,,,
53015,0,USWashingtonCowlitz,Washington,Cowlitz,2022-04-28 09:13:11,2021-06-29,0.3140529751484823,0.5337887661324534,0.9634899363820355,,,,,,,,,,,,
53015,0,USWashingtonCowlitz,Washington,Cowlitz,2022-04-28 09:13:11,2021-06-30,0.3140529751484823,0.5337887661324534,0.9634899363820355,,,,,,,,,,,,
53015,0,USWashingtonCowlitz,Washington,Cowlitz,2022-04-28 09:13:11,2021-07-01,0.20938671771206235,0.40387031036143467,0.8339299825047086,,,,,,,,,,,,
53015,0,USWashingtonCowlitz,Washington,Cowlitz,2022-04-28 09:13:11,2021-07-02,0.20938671771206235,0.40387031036143467,0.8339299825047086,,,,,,,,,,,,
53015,0,USWashingtonCowlitz,Washington,Cowlitz,2022-04-28 09:13:11,2021-07-03,0.20938671771206235,0.40387031036143467,0.8339299825047086,,,,,,,,,,,,
53015,0,USWashingtonCowlitz,Washington,Cowlitz,2022-04-28 09:13:11,2021-07-04,0.20938671771206235,0.40387031036143467,0.8339299825047086,,,,,,,,,,,,
53015,0,USWashingtonCowlitz,Washington,Cowlitz,2022-04-28 09:13:11,2021-07-05,0.20938671771206235,0.40387031036143467,0.8339299825047086,,,,,,,,,,,,
53015,0,USWashingtonCowlitz,Washington,Cowlitz,2022-04-28 09:13:11,2021-07-06,0.20938671771206235,0.40387031036143467,0.8339299825047086,,,,,,,,,,,,
53015,0,USWashingtonCowlitz,Washington,Cowlitz,2022-04-28 09:13:11,2021-07-07,0.20938671771206235,0.40387031036143467,0.8339299825047086,,,,,,,,,,,,
53015,0,USWashingtonCowlitz,Washington,Cowlitz,2022-04-28 09:13:11,2021-07-08,0.22180799522813235,0.4224708272284961,0.8608801920664297,,,,,,,,,,,,
53015,0,USWashingtonCowlitz,Washington,Cowlitz,2022-04-28 09:13:11,2021-07-09,0.22180799522813235,0.4224708272284961,0.8608801920664297,,,,,,,,,,,,
53015,0,USWashingtonCowlitz,Washington,Cowlitz,2022-04-28 09:13:11,2021-07-10,0.22180799522813235,0.4224708272284961,0.8608801920664297,,,,,,,,,,,,
53015,0,USWashingtonCowlitz,Washington,Cowlitz,2022-04-28 09:13:11,2021-07-11,0.22180799522813235,0.4224708272284961,0.8608801920664297,,,,,,,,,,,,
53015,0,USWashingtonCowlitz,Washington,Cowlitz,2022-04-28 09:13:11,2021-07-12,0.22180799522813235,0.4224708272284961,0.8608801920664297,,,,,,,,,,,,
53015,0,USWashingtonCowlitz,Washington,Cowlitz,2022-04-28 09:13:11,2021-07-13,0.22180799522813235,0.4224708272284961,0.8608801920664297,,,,,,,,,,,,
53015,0,USWashingtonCowlitz,Washington,Cowlitz,2022-04-28 09:13:11,2021-07-14,0.22180799522813235,0.4224708272284961,0.8608801920664297,,,,,,,,,,,,
53015,0,USWashingtonCowlitz,Washington,Cowlitz,2022-04-28 09:13:11,2021-07-15,0.3407022616695715,0.6772724121633513,1.4431853621570896,,,,,,,,,,,,
53015,0,USWashingtonCowlitz,Washington,Cowlitz,2022-04-28 09:13:11,2021-07-16,0.3407022616695715,0.6772724121633513,1.4431853621570896,,,,,,,,,,,,
53015,0,USWashingtonCowlitz,Washington,Cowlitz,2022-04-28 09:13:11,2021-07-17,0.3407022616695715,0.6772724121633513,1.4431853621570896,,,,,,,,,,,,
53015,0,USWashingtonCowlitz,Washington,Cowlitz,2022-04-28 09:13:11,2021-07-18,0.3407022616695715,0.6772724121633513,1.4431853621570896,,,,,,,,,,,,
53015,0,USWashingtonCowlitz,Washington,Cowlitz,2022-04-28 09:13:11,2021-07-19,0.3407022616695715,0.6772724121633513,1.4431853621570896,,,,,,,,,,,,
53015,0,USWashingtonCowlitz,Washington,Cowlitz,2022-04-28 09:13:11,2021-07-20,0.3407022616695715,0.6772724121633513,1.4431853621570896,,,,,,,,,,,,
53015,0,USWashingtonCowlitz,Washington,Cowlitz,2022-04-28 09:13:11,2021-07-21,0.3407022616695715,0.6772724121633513,1.4431853621570896,,,,,,,,,,,,
53015,0,USWashingtonCowlitz,Washington,Cowlitz,2022-04-28 09:13:11,2021-07-22,0.4293352409568981,0.5436753328698793,0.7064017590223627,,,,,,,,,,,,
53015,0,USWashingtonCowlitz,Washington,Cowlitz,2022-04-28 09:13:11,2021-07-23,0.4293352409568981,0.5436753328698793,0.7064017590223627,,,,,,,,,,,,
53015,0,USWashingtonCowlitz,Washington,Cowlitz,2022-04-28 09:13:11,2021-07-24,0.4293352409568981,0.5436753328698793,0.7064017590223627,,,,,,,,,,,,
53015,0,USWashingtonCowlitz,Washington,Cowlitz,2022-04-28 09:13:11,2021-07-25,0.4293352409568981,0.5436753328698793,0.7064017590223627,,,,,,,,,,,,
53015,0,USWashingtonCowlitz,Washington,Cowlitz,2022-04-28 09:13:11,2021-07-26,0.4293352409568981,0.5436753328698793,0.7064017590223627,,,,,,,,,,,,
53015,0,USWashingtonCowlitz,Washington,Cowlitz,2022-04-28 09:13:11,2021-07-27,0.4293352409568981,0.5436753328698793,0.7064017590223627,,,,,,,,,,,,
53015,0,USWashingtonCowlitz,Washington,Cowlitz,2022-04-28 09:13:11,2021-07-28,0.4293352409568981,0.5436753328698793,0.7064017590223627,,,,,,,,,,,,
53015,0,USWashingtonCowlitz,Washington,Cowlitz,2022-04-28 09:13:11,2021-07-29,1.2340535487771636,2.395750177382782,4.980529077242664,,,,,,,,,,,,
53015,0,USWashingtonCowlitz,Washington,Cowlitz,2022-04-28 09:13:11,2021-07-30,1.2340535487771636,2.395750177382782,4.980529077242664,,,,,,,,,,,,
53015,0,USWashingtonCowlitz,Washington,Cowlitz,2022-04-28 09:13:11,2021-07-31,1.2340535487771636,2.395750177382782,4.980529077242664,,,,,,,,,,,,
53015,0,USWashingtonCowlitz,Washington,Cowlitz,2022-04-28 09:13:11,2021-08-01,1.2340535487771636,2.395750177382782,4.980529077242664,,,,,,,,,,,,
53015,0,USWashingtonCowlitz,Washington,Cowlitz,2022-04-28 09:13:11,2021-08-02,1.2340535487771636,2.395750177382782,4.980529077242664,,,,,,,,,,,,
53015,0,USWashingtonCowlitz,Washington,Cowlitz,2022-04-28 09:13:11,2021-08-03,1.2340535487771636,2.395750177382782,4.980529077242664,,,,,,,,,,,,
53015,0,USWashingtonCowlitz,Washington,Cowlitz,2022-04-28 09:13:11,2021-08-04,1.2340535487771636,2.395750177382782,4.980529077242664,,,,,,,,,,,,
53015,0,USWashingtonCowlitz,Washington,Cowlitz,2022-04-28 09:13:11,2021-08-05,1.7367717649029224,2.856810371489773,4.976579646135761,,,,,,,,,,,,
53015,0,USWashingtonCowlitz,Washington,Cowlitz,2022-04-28 09:13:11,2021-08-06,1.7367717649029224,2.856810371489773,4.976579646135761,,,,,,,,,,,,
53015,0,USWashingtonCowlitz,Washington,Cowlitz,2022-04-28 09:13:11,2021-08-07,1.7367717649029224,2.856810371489773,4.976579646135761,,,,,,,,,,,,
53015,0,USWashingtonCowlitz,Washington,Cowlitz,2022-04-28 09:13:11,2021-08-08,1.7367717649029224,2.856810371489773,4.976579646135761,,,,,,,,,,,,
53015,0,USWashingtonCowlitz,Washington,Cowlitz,2022-04-28 09:13:11,2021-08-09,1.7367717649029224,2.856810371489773,4.976579646135761,,,,,,,,,,,,
53015,0,USWashingtonCowlitz,Washington,Cowlitz,2022-04-28 09:13:11,2021-08-10,1.7367717649029224,2.856810371489773,4.976579646135761,,,,,,,,,,,,
53015,0,USWashingtonCowlitz,Washington,Cowlitz,2022-04-28 09:13:11,2021-08-11,1.7367717649029224,2.856810371489773,4.976579646135761,,,,,,,,,,,,
53015,0,USWashingtonCowlitz,Washington,Cowlitz,2022-04-28 09:13:11,2021-08-12,1.8057893378856174,3.0162239085278366,5.3425468438226,,,,,,,,,,,,
53015,0,USWashingtonCowlitz,Washington,Cowlitz,2022-04-28 09:13:11,2021-08-13,1.8057893378856174,3.0162239085278366,5.3425468438226,,,,,,,,,,,,
53015,0,USWashingtonCowlitz,Washington,Cowlitz,2022-04-28 09:13:11,2021-08-14,1.8057893378856174,3.0162239085278366,5.3425468438226,,,,,,,,,,,,
53015,0,USWashingtonCowlitz,Washington,Cowlitz,2022-04-28 09:13:11,2021-08-15,1.8057893378856174,3.0162239085278366,5.3425468438226,,,,,,,,,,,,
53015,0,USWashingtonCowlitz,Washington,Cowlitz,2022-04-28 09:13:11,2021-08-16,1.8057893378856174,3.0162239085278366,5.3425468438226,,,,,,,,,,,,
53015,0,USWashingtonCowlitz,Washington,Cowlitz,2022-04-28 09:13:11,2021-08-17,1.8057893378856174,3.0162239085278366,5.3425468438226,,,,,,,,,,,,
53015,0,USWashingtonCowlitz,Washington,Cowlitz,2022-04-28 09:13:11,2021-08-18,1.8057893378856174,3.0162239085278366,5.3425468438226,,,,,,,,,,,,
53015,0,USWashingtonCowlitz,Washington,Cowlitz,2022-04-28 09:13:11,2021-08-19,2.1538403999141953,3.4060055908797904,5.682999713223905,,,,,,,,,,,,
53015,0,USWashingtonCowlitz,Washington,Cowlitz,2022-04-28 09:13:11,2021-08-20,2.1538403999141953,3.4060055908797904,5.682999713223905,,,,,,,,,,,,
53015,0,USWashingtonCowlitz,Washington,Cowlitz,2022-04-28 09:13:11,2021-08-21,2.1538403999141953,3.4060055908797904,5.682999713223905,,,,,,,,,,,,
53015,0,USWashingtonCowlitz,Washington,Cowlitz,2022-04-28 09:13:11,2021-08-22,2.1538403999141953,3.4060055908797904,5.682999713223905,,,,,,,,,,,,
53015,0,USWashingtonCowlitz,Washington,Cowlitz,2022-04-28 09:13:11,2021-08-23,2.1538403999141953,3.4060055908797904,5.682999713223905,,,,,,,,,,,,
53015,0,USWashingtonCowlitz,Washington,Cowlitz,2022-04-28 09:13:11,2021-08-24,2.1538403999141953,3.4060055908797904,5.682999713223905,,,,,,,,,,,,
53015,0,USWashingtonCowlitz,Washington,Cowlitz,2022-04-28 09:13:11,2021-08-25,2.1538403999141953,3.4060055908797904,5.682999713223905,,,,,,,,,,,,
53015,0,USWashingtonCowlitz,Washington,Cowlitz,2022-04-28 09:13:11,2021-08-26,2.051459029538815,3.3921172498808145,5.942780022976154,,,,,,,,,,,,
53015,0,USWashingtonCowlitz,Washington,Cowlitz,2022-04-28 09:13:11,2021-08-27,2.051459029538815,3.3921172498808145,5.942780022976154,,,,,,,,,,,,
53015,0,USWashingtonCowlitz,Washington,Cowlitz,2022-04-28 09:13:11,2021-08-28,2.051459029538815,3.3921172498808145,5.942780022976154,,,,,,,,,,,,
53015,0,USWashingtonCowlitz,Washington,Cowlitz,2022-04-28 09:13:11,2021-08-29,2.051459029538815,3.3921172498808145,5.942780022976154,,,,,,,,,,,,
53015,0,USWashingtonCowlitz,Washington,Cowlitz,2022-04-28 09:13:11,2021-08-30,2.051459029538815,3.3921172498808145,5.942780022976154,,,,,,,,,,,,
53015,0,USWashingtonCowlitz,Washington,Cowlitz,2022-04-28 09:13:11,2021-08-31,2.051459029538815,3.3921172498808145,5.942780022976154,,,,,,,,,,,,
53015,0,USWashingtonCowlitz,Washington,Cowlitz,2022-04-28 09:13:11,2021-09-01,2.051459029538815,3.3921172498808145,5.942780022976154,,,,,,,,,,,,
53015,0,USWashingtonCowlitz,Washington,Cowlitz,2022-04-28 09:13:11,2021-09-02,1.9369952761211242,3.2282783842555443,5.704539849895442,,,,,,,,,,,,
53015,0,USWashingtonCowlitz,Washington,Cowlitz,2022-04-28 09:13:11,2021-09-03,1.9369952761211242,3.2282783842555443,5.704539849895442,,,,,,,,,,,,
53015,0,USWashingtonCowlitz,Washington,Cowlitz,2022-04-28 09:13:11,2021-09-04,1.9369952761211242,3.2282783842555443,5.704539849895442,,,,,,,,,,,,
53015,0,USWashingtonCowlitz,Washington,Cowlitz,2022-04-28 09:13:11,2021-09-05,1.9369952761211242,3.2282783842555443,5.704539849895442,,,,,,,,,,,,
53015,0,USWashingtonCowlitz,Washington,Cowlitz,2022-04-28 09:13:11,2021-09-06,1.9369952761211242,3.2282783842555443,5.704539849895442,,,,,,,,,,,,
53015,0,USWashingtonCowlitz,Washington,Cowlitz,2022-04-28 09:13:11,2021-09-07,1.9369952761211242,3.2282783842555443,5.704539849895442,,,,,,,,,,,,
53015,0,USWashingtonCowlitz,Washington,Cowlitz,2022-04-28 09:13:11,2021-09-08,1.9369952761211242,3.2282783842555443,5.704539849895442,,,,,,,,,,,,
53015,0,USWashingtonCowlitz,Washington,Cowlitz,2022-04-28 09:13:11,2021-09-09,2.104421664823166,3.625864833848714,6.641460003679245,,,,,,,,,,,,
53015,0,USWashingtonCowlitz,Washington,Cowlitz,2022-04-28 09:13:11,2021-09-10,2.104421664823166,3.625864833848714,6.641460003679245,,,,,,,,,,,,
53015,0,USWashingtonCowlitz,Washington,Cowlitz,2022-04-28 09:13:11,2021-09-11,2.104421664823166,3.625864833848714,6.641460003679245,,,,,,,,,,,,
53015,0,USWashingtonCowlitz,Washington,Cowlitz,2022-04-28 09:13:11,2021-09-12,2.104421664823166,3.625864833848714,6.641460003679245,,,,,,,,,,,,
53015,0,USWashingtonCowlitz,Washington,Cowlitz,2022-04-28 09:13:11,2021-09-13,2.104421664823166,3.625864833848714,6.641460003679245,,,,,,,,,,,,
53015,0,USWashingtonCowlitz,Washington,Cowlitz,2022-04-28 09:13:11,2021-09-14,2.104421664823166,3.625864833848714,6.641460003679245,,,,,,,,,,,,
53015,0,USWashingtonCowlitz,Washington,Cowlitz,2022-04-28 09:13:11,2021-09-15,2.104421664823166,3.625864833848714,6.641460003679245,,,,,,,,,,,,
53015,0,USWashingtonCowlitz,Washington,Cowlitz,2022-04-28 09:13:11,2021-11-11,0.6728221979435359,1.4127970390383882,3.1859949252562956,,,,,,,,,,,,
53015,0,USWashingtonCowlitz,Washington,Cowlitz,2022-04-28 09:13:11,2021-11-12,0.6728221979435359,1.4127970390383882,3.1859949252562956,,,,,,,,,,,,
53015,0,USWashingtonCowlitz,Washington,Cowlitz,2022-04-28 09:13:11,2021-11-13,0.6728221979435359,1.4127970390383882,3.1859949252562956,,,,,,,,,,,,
53015,0,USWashingtonCowlitz,Washington,Cowlitz,2022-04-28 09:13:11,2021-11-14,0.6728221979435359,1.4127970390383882,3.1859949252562956,,,,,,,,,,,,
53015,0,USWashingtonCowlitz,Washington,Cowlitz,2022-04-28 09:13:11,2021-11-15,0.6728221979435359,1.4127970390383882,3.1859949252562956,,,,,,,,,,,,
53015,0,USWashingtonCowlitz,Washington,Cowlitz,2022-04-28 09:13:11,2021-11-16,0.6728221979435359,1.4127970390383882,3.1859949252562956,,,,,,,,,,,,
53015,0,USWashingtonCowlitz,Washington,Cowlitz,2022-04-28 09:13:11,2021-11-17,0.6728221979435359,1.4127970390383882,3.1859949252562956,,,,,,,,,,,,
53015,0,USWashingtonCowlitz,Washington,Cowlitz,2022-04-28 09:13:11,2021-11-18,1.1787416465859912,3.9610582810854713,14.236178335416849,,,,,,,,,,,,
53015,0,USWashingtonCowlitz,Washington,Cowlitz,2022-04-28 09:13:11,2021-11-19,1.1787416465859912,3.9610582810854713,14.236178335416849,,,,,,,,,,,,
53015,0,USWashingtonCowlitz,Washington,Cowlitz,2022-04-28 09:13:11,2021-11-20,1.1787416465859912,3.9610582810854713,14.236178335416849,,,,,,,,,,,,
53015,0,USWashingtonCowlitz,Washington,Cowlitz,2022-04-28 09:13:11,2021-11-21,1.1787416465859912,3.9610582810854713,14.236178335416849,,,,,,,,,,,,
53015,0,USWashingtonCowlitz,Washington,Cowlitz,2022-04-28 09:13:11,2021-11-22,1.1787416465859912,3.9610582810854713,14.236178335416849,,,,,,,,,,,,
53015,0,USWashingtonCowlitz,Washington,Cowlitz,2022-04-28 09:13:11,2021-11-23,1.1787416465859912,3.9610582810854713,14.236178335416849,,,,,,,,,,,,
53015,0,USWashingtonCowlitz,Washington,Cowlitz,2022-04-28 09:13:11,2021-11-24,1.1787416465859912,3.9610582810854713,14.236178335416849,,,,,,,,,,,,
