FIPS,HR_UID,nameid,province,region,analysisTime,dates,pointprevalence_025,pointprevalence_50,pointprevalence_975,pointinfections_025,pointinfections_50,pointinfections_975,pointinfectious_025,pointinfectious_50,pointinfectious_975,pointinfectiousprevalence_025,pointinfectiousprevalence_50,pointinfectiousprevalence_975,infectrate_025,infectrate_50,infectrate_975
38037,0,USNorthDakotaGrant,North Dakota,Grant,2022-04-28 09:13:11,2020-03-19,0,0,0,,,,,,,,,,,,
38037,0,USNorthDakotaGrant,North Dakota,Grant,2022-04-28 09:13:11,2020-03-20,0,0,0,,,,,,,,,,,,
38037,0,USNorthDakotaGrant,North Dakota,Grant,2022-04-28 09:13:11,2020-03-21,0,0,0,,,,,,,,,,,,
38037,0,USNorthDakotaGrant,North Dakota,Grant,2022-04-28 09:13:11,2020-03-22,0,0,0,,,,,,,,,,,,
38037,0,USNorthDakotaGrant,North Dakota,Grant,2022-04-28 09:13:11,2020-03-23,0,0,0,,,,,,,,,,,,
38037,0,USNorthDakotaGrant,North Dakota,Grant,2022-04-28 09:13:11,2020-03-24,0,0,0,,,,,,,,,,,,
38037,0,USNorthDakotaGrant,North Dakota,Grant,2022-04-28 09:13:11,2020-03-25,0,0,0,,,,,,,,,,,,
38037,0,USNorthDakotaGrant,North Dakota,Grant,2022-04-28 09:13:11,2020-03-26,0.20677827098084822,0.43358575682980055,0.976368182467653,,,,,,,,,,,,
38037,0,USNorthDakotaGrant,North Dakota,Grant,2022-04-28 09:13:11,2020-03-27,0.20677827098084822,0.43358575682980055,0.976368182467653,,,,,,,,,,,,
38037,0,USNorthDakotaGrant,North Dakota,Grant,2022-04-28 09:13:11,2020-03-28,0.20677827098084822,0.43358575682980055,0.976368182467653,,,,,,,,,,,,
38037,0,USNorthDakotaGrant,North Dakota,Grant,2022-04-28 09:13:11,2020-03-29,0.20677827098084822,0.43358575682980055,0.976368182467653,,,,,,,,,,,,
38037,0,USNorthDakotaGrant,North Dakota,Grant,2022-04-28 09:13:11,2020-03-30,0.20677827098084822,0.43358575682980055,0.976368182467653,,,,,,,,,,,,
38037,0,USNorthDakotaGrant,North Dakota,Grant,2022-04-28 09:13:11,2020-03-31,0.20677827098084822,0.43358575682980055,0.976368182467653,,,,,,,,,,,,
38037,0,USNorthDakotaGrant,North Dakota,Grant,2022-04-28 09:13:11,2020-04-01,0.20677827098084822,0.43358575682980055,0.976368182467653,,,,,,,,,,,,
38037,0,USNorthDakotaGrant,North Dakota,Grant,2022-04-28 09:13:11,2020-04-02,0,0,0,,,,,,,,,,,,
38037,0,USNorthDakotaGrant,North Dakota,Grant,2022-04-28 09:13:11,2020-04-03,0,0,0,,,,,,,,,,,,
38037,0,USNorthDakotaGrant,North Dakota,Grant,2022-04-28 09:13:11,2020-04-04,0,0,0,,,,,,,,,,,,
38037,0,USNorthDakotaGrant,North Dakota,Grant,2022-04-28 09:13:11,2020-04-05,0,0,0,,,,,,,,,,,,
38037,0,USNorthDakotaGrant,North Dakota,Grant,2022-04-28 09:13:11,2020-04-06,0,0,0,,,,,,,,,,,,
38037,0,USNorthDakotaGrant,North Dakota,Grant,2022-04-28 09:13:11,2020-04-07,0,0,0,,,,,,,,,,,,
38037,0,USNorthDakotaGrant,North Dakota,Grant,2022-04-28 09:13:11,2020-04-08,0,0,0,,,,,,,,,,,,
38037,0,USNorthDakotaGrant,North Dakota,Grant,2022-04-28 09:13:11,2020-04-09,0,0,0,,,,,,,,,,,,
38037,0,USNorthDakotaGrant,North Dakota,Grant,2022-04-28 09:13:11,2020-04-10,0,0,0,,,,,,,,,,,,
38037,0,USNorthDakotaGrant,North Dakota,Grant,2022-04-28 09:13:11,2020-04-11,0,0,0,,,,,,,,,,,,
38037,0,USNorthDakotaGrant,North Dakota,Grant,2022-04-28 09:13:11,2020-04-12,0,0,0,,,,,,,,,,,,
38037,0,USNorthDakotaGrant,North Dakota,Grant,2022-04-28 09:13:11,2020-04-13,0,0,0,,,,,,,,,,,,
38037,0,USNorthDakotaGrant,North Dakota,Grant,2022-04-28 09:13:11,2020-04-14,0,0,0,,,,,,,,,,,,
38037,0,USNorthDakotaGrant,North Dakota,Grant,2022-04-28 09:13:11,2020-04-15,0,0,0,,,,,,,,,,,,
38037,0,USNorthDakotaGrant,North Dakota,Grant,2022-04-28 09:13:11,2020-04-16,0,0,0,,,,,,,,,,,,
38037,0,USNorthDakotaGrant,North Dakota,Grant,2022-04-28 09:13:11,2020-04-17,0,0,0,,,,,,,,,,,,
38037,0,USNorthDakotaGrant,North Dakota,Grant,2022-04-28 09:13:11,2020-04-18,0,0,0,,,,,,,,,,,,
38037,0,USNorthDakotaGrant,North Dakota,Grant,2022-04-28 09:13:11,2020-04-19,0,0,0,,,,,,,,,,,,
38037,0,USNorthDakotaGrant,North Dakota,Grant,2022-04-28 09:13:11,2020-04-20,0,0,0,,,,,,,,,,,,
38037,0,USNorthDakotaGrant,North Dakota,Grant,2022-04-28 09:13:11,2020-04-21,0,0,0,,,,,,,,,,,,
38037,0,USNorthDakotaGrant,North Dakota,Grant,2022-04-28 09:13:11,2020-04-22,0,0,0,,,,,,,,,,,,
38037,0,USNorthDakotaGrant,North Dakota,Grant,2022-04-28 09:13:11,2020-04-23,0,0,0,,,,,,,,,,,,
38037,0,USNorthDakotaGrant,North Dakota,Grant,2022-04-28 09:13:11,2020-04-24,0,0,0,,,,,,,,,,,,
38037,0,USNorthDakotaGrant,North Dakota,Grant,2022-04-28 09:13:11,2020-04-25,0,0,0,,,,,,,,,,,,
38037,0,USNorthDakotaGrant,North Dakota,Grant,2022-04-28 09:13:11,2020-04-26,0,0,0,,,,,,,,,,,,
38037,0,USNorthDakotaGrant,North Dakota,Grant,2022-04-28 09:13:11,2020-04-27,0,0,0,,,,,,,,,,,,
38037,0,USNorthDakotaGrant,North Dakota,Grant,2022-04-28 09:13:11,2020-04-28,0,0,0,,,,,,,,,,,,
38037,0,USNorthDakotaGrant,North Dakota,Grant,2022-04-28 09:13:11,2020-04-29,0,0,0,,,,,,,,,,,,
38037,0,USNorthDakotaGrant,North Dakota,Grant,2022-04-28 09:13:11,2020-04-30,0,0,0,,,,,,,,,,,,
38037,0,USNorthDakotaGrant,North Dakota,Grant,2022-04-28 09:13:11,2020-05-01,0,0,0,,,,,,,,,,,,
38037,0,USNorthDakotaGrant,North Dakota,Grant,2022-04-28 09:13:11,2020-05-02,0,0,0,,,,,,,,,,,,
38037,0,USNorthDakotaGrant,North Dakota,Grant,2022-04-28 09:13:11,2020-05-03,0,0,0,,,,,,,,,,,,
38037,0,USNorthDakotaGrant,North Dakota,Grant,2022-04-28 09:13:11,2020-05-04,0,0,0,,,,,,,,,,,,
38037,0,USNorthDakotaGrant,North Dakota,Grant,2022-04-28 09:13:11,2020-05-05,0,0,0,,,,,,,,,,,,
38037,0,USNorthDakotaGrant,North Dakota,Grant,2022-04-28 09:13:11,2020-05-06,0,0,0,,,,,,,,,,,,
38037,0,USNorthDakotaGrant,North Dakota,Grant,2022-04-28 09:13:11,2020-05-07,0.19071944495444992,0.37166390846571296,0.7757240223451504,,,,,,,,,,,,
38037,0,USNorthDakotaGrant,North Dakota,Grant,2022-04-28 09:13:11,2020-05-08,0.19071944495444992,0.37166390846571296,0.7757240223451504,,,,,,,,,,,,
38037,0,USNorthDakotaGrant,North Dakota,Grant,2022-04-28 09:13:11,2020-05-09,0.19071944495444992,0.37166390846571296,0.7757240223451504,,,,,,,,,,,,
38037,0,USNorthDakotaGrant,North Dakota,Grant,2022-04-28 09:13:11,2020-05-10,0.19071944495444992,0.37166390846571296,0.7757240223451504,,,,,,,,,,,,
38037,0,USNorthDakotaGrant,North Dakota,Grant,2022-04-28 09:13:11,2020-05-11,0.19071944495444992,0.37166390846571296,0.7757240223451504,,,,,,,,,,,,
38037,0,USNorthDakotaGrant,North Dakota,Grant,2022-04-28 09:13:11,2020-05-12,0.19071944495444992,0.37166390846571296,0.7757240223451504,,,,,,,,,,,,
38037,0,USNorthDakotaGrant,North Dakota,Grant,2022-04-28 09:13:11,2020-05-13,0.19071944495444992,0.37166390846571296,0.7757240223451504,,,,,,,,,,,,
38037,0,USNorthDakotaGrant,North Dakota,Grant,2022-04-28 09:13:11,2020-05-14,0,0,0,,,,,,,,,,,,
38037,0,USNorthDakotaGrant,North Dakota,Grant,2022-04-28 09:13:11,2020-05-15,0,0,0,,,,,,,,,,,,
38037,0,USNorthDakotaGrant,North Dakota,Grant,2022-04-28 09:13:11,2020-05-16,0,0,0,,,,,,,,,,,,
38037,0,USNorthDakotaGrant,North Dakota,Grant,2022-04-28 09:13:11,2020-05-17,0,0,0,,,,,,,,,,,,
38037,0,USNorthDakotaGrant,North Dakota,Grant,2022-04-28 09:13:11,2020-05-18,0,0,0,,,,,,,,,,,,
38037,0,USNorthDakotaGrant,North Dakota,Grant,2022-04-28 09:13:11,2020-05-19,0,0,0,,,,,,,,,,,,
38037,0,USNorthDakotaGrant,North Dakota,Grant,2022-04-28 09:13:11,2020-05-20,0,0,0,,,,,,,,,,,,
38037,0,USNorthDakotaGrant,North Dakota,Grant,2022-04-28 09:13:11,2020-05-21,0,0,0,,,,,,,,,,,,
38037,0,USNorthDakotaGrant,North Dakota,Grant,2022-04-28 09:13:11,2020-05-22,0,0,0,,,,,,,,,,,,
38037,0,USNorthDakotaGrant,North Dakota,Grant,2022-04-28 09:13:11,2020-05-23,0,0,0,,,,,,,,,,,,
38037,0,USNorthDakotaGrant,North Dakota,Grant,2022-04-28 09:13:11,2020-05-24,0,0,0,,,,,,,,,,,,
38037,0,USNorthDakotaGrant,North Dakota,Grant,2022-04-28 09:13:11,2020-05-25,0,0,0,,,,,,,,,,,,
38037,0,USNorthDakotaGrant,North Dakota,Grant,2022-04-28 09:13:11,2020-05-26,0,0,0,,,,,,,,,,,,
38037,0,USNorthDakotaGrant,North Dakota,Grant,2022-04-28 09:13:11,2020-05-27,0,0,0,,,,,,,,,,,,
38037,0,USNorthDakotaGrant,North Dakota,Grant,2022-04-28 09:13:11,2020-05-28,0,0,0,,,,,,,,,,,,
38037,0,USNorthDakotaGrant,North Dakota,Grant,2022-04-28 09:13:11,2020-05-29,0,0,0,,,,,,,,,,,,
38037,0,USNorthDakotaGrant,North Dakota,Grant,2022-04-28 09:13:11,2020-05-30,0,0,0,,,,,,,,,,,,
38037,0,USNorthDakotaGrant,North Dakota,Grant,2022-04-28 09:13:11,2020-05-31,0,0,0,,,,,,,,,,,,
38037,0,USNorthDakotaGrant,North Dakota,Grant,2022-04-28 09:13:11,2020-06-01,0,0,0,,,,,,,,,,,,
38037,0,USNorthDakotaGrant,North Dakota,Grant,2022-04-28 09:13:11,2020-06-02,0,0,0,,,,,,,,,,,,
38037,0,USNorthDakotaGrant,North Dakota,Grant,2022-04-28 09:13:11,2020-06-03,0,0,0,,,,,,,,,,,,
38037,0,USNorthDakotaGrant,North Dakota,Grant,2022-04-28 09:13:11,2020-06-04,0,0,0,,,,,,,,,,,,
38037,0,USNorthDakotaGrant,North Dakota,Grant,2022-04-28 09:13:11,2020-06-05,0,0,0,,,,,,,,,,,,
38037,0,USNorthDakotaGrant,North Dakota,Grant,2022-04-28 09:13:11,2020-06-06,0,0,0,,,,,,,,,,,,
38037,0,USNorthDakotaGrant,North Dakota,Grant,2022-04-28 09:13:11,2020-06-07,0,0,0,,,,,,,,,,,,
38037,0,USNorthDakotaGrant,North Dakota,Grant,2022-04-28 09:13:11,2020-06-08,0,0,0,,,,,,,,,,,,
38037,0,USNorthDakotaGrant,North Dakota,Grant,2022-04-28 09:13:11,2020-06-09,0,0,0,,,,,,,,,,,,
38037,0,USNorthDakotaGrant,North Dakota,Grant,2022-04-28 09:13:11,2020-06-10,0,0,0,,,,,,,,,,,,
38037,0,USNorthDakotaGrant,North Dakota,Grant,2022-04-28 09:13:11,2020-06-11,0,0,0,,,,,,,,,,,,
38037,0,USNorthDakotaGrant,North Dakota,Grant,2022-04-28 09:13:11,2020-06-12,0,0,0,,,,,,,,,,,,
38037,0,USNorthDakotaGrant,North Dakota,Grant,2022-04-28 09:13:11,2020-06-13,0,0,0,,,,,,,,,,,,
38037,0,USNorthDakotaGrant,North Dakota,Grant,2022-04-28 09:13:11,2020-06-14,0,0,0,,,,,,,,,,,,
38037,0,USNorthDakotaGrant,North Dakota,Grant,2022-04-28 09:13:11,2020-06-15,0,0,0,,,,,,,,,,,,
38037,0,USNorthDakotaGrant,North Dakota,Grant,2022-04-28 09:13:11,2020-06-16,0,0,0,,,,,,,,,,,,
38037,0,USNorthDakotaGrant,North Dakota,Grant,2022-04-28 09:13:11,2020-06-17,0,0,0,,,,,,,,,,,,
38037,0,USNorthDakotaGrant,North Dakota,Grant,2022-04-28 09:13:11,2020-06-18,0,0,0,,,,,,,,,,,,
38037,0,USNorthDakotaGrant,North Dakota,Grant,2022-04-28 09:13:11,2020-06-19,0,0,0,,,,,,,,,,,,
38037,0,USNorthDakotaGrant,North Dakota,Grant,2022-04-28 09:13:11,2020-06-20,0,0,0,,,,,,,,,,,,
38037,0,USNorthDakotaGrant,North Dakota,Grant,2022-04-28 09:13:11,2020-06-21,0,0,0,,,,,,,,,,,,
38037,0,USNorthDakotaGrant,North Dakota,Grant,2022-04-28 09:13:11,2020-06-22,0,0,0,,,,,,,,,,,,
38037,0,USNorthDakotaGrant,North Dakota,Grant,2022-04-28 09:13:11,2020-06-23,0,0,0,,,,,,,,,,,,
38037,0,USNorthDakotaGrant,North Dakota,Grant,2022-04-28 09:13:11,2020-06-24,0,0,0,,,,,,,,,,,,
38037,0,USNorthDakotaGrant,North Dakota,Grant,2022-04-28 09:13:11,2020-06-25,0.16152582849218908,0.2703880974777926,0.4800665958755779,,,,,,,,,,,,
38037,0,USNorthDakotaGrant,North Dakota,Grant,2022-04-28 09:13:11,2020-06-26,0.16152582849218908,0.2703880974777926,0.4800665958755779,,,,,,,,,,,,
38037,0,USNorthDakotaGrant,North Dakota,Grant,2022-04-28 09:13:11,2020-06-27,0.16152582849218908,0.2703880974777926,0.4800665958755779,,,,,,,,,,,,
38037,0,USNorthDakotaGrant,North Dakota,Grant,2022-04-28 09:13:11,2020-06-28,0.16152582849218908,0.2703880974777926,0.4800665958755779,,,,,,,,,,,,
38037,0,USNorthDakotaGrant,North Dakota,Grant,2022-04-28 09:13:11,2020-06-29,0.16152582849218908,0.2703880974777926,0.4800665958755779,,,,,,,,,,,,
38037,0,USNorthDakotaGrant,North Dakota,Grant,2022-04-28 09:13:11,2020-06-30,0.16152582849218908,0.2703880974777926,0.4800665958755779,,,,,,,,,,,,
38037,0,USNorthDakotaGrant,North Dakota,Grant,2022-04-28 09:13:11,2020-07-01,0.16152582849218908,0.2703880974777926,0.4800665958755779,,,,,,,,,,,,
38037,0,USNorthDakotaGrant,North Dakota,Grant,2022-04-28 09:13:11,2020-07-02,0,0,0,,,,,,,,,,,,
38037,0,USNorthDakotaGrant,North Dakota,Grant,2022-04-28 09:13:11,2020-07-03,0,0,0,,,,,,,,,,,,
38037,0,USNorthDakotaGrant,North Dakota,Grant,2022-04-28 09:13:11,2020-07-04,0,0,0,,,,,,,,,,,,
38037,0,USNorthDakotaGrant,North Dakota,Grant,2022-04-28 09:13:11,2020-07-05,0,0,0,,,,,,,,,,,,
38037,0,USNorthDakotaGrant,North Dakota,Grant,2022-04-28 09:13:11,2020-07-06,0,0,0,,,,,,,,,,,,
38037,0,USNorthDakotaGrant,North Dakota,Grant,2022-04-28 09:13:11,2020-07-07,0,0,0,,,,,,,,,,,,
38037,0,USNorthDakotaGrant,North Dakota,Grant,2022-04-28 09:13:11,2020-07-08,0,0,0,,,,,,,,,,,,
38037,0,USNorthDakotaGrant,North Dakota,Grant,2022-04-28 09:13:11,2020-07-09,0.18264000582687545,0.3421494022023859,0.6851464490224436,,,,,,,,,,,,
38037,0,USNorthDakotaGrant,North Dakota,Grant,2022-04-28 09:13:11,2020-07-10,0.18264000582687545,0.3421494022023859,0.6851464490224436,,,,,,,,,,,,
38037,0,USNorthDakotaGrant,North Dakota,Grant,2022-04-28 09:13:11,2020-07-11,0.18264000582687545,0.3421494022023859,0.6851464490224436,,,,,,,,,,,,
38037,0,USNorthDakotaGrant,North Dakota,Grant,2022-04-28 09:13:11,2020-07-12,0.18264000582687545,0.3421494022023859,0.6851464490224436,,,,,,,,,,,,
38037,0,USNorthDakotaGrant,North Dakota,Grant,2022-04-28 09:13:11,2020-07-13,0.18264000582687545,0.3421494022023859,0.6851464490224436,,,,,,,,,,,,
38037,0,USNorthDakotaGrant,North Dakota,Grant,2022-04-28 09:13:11,2020-07-14,0.18264000582687545,0.3421494022023859,0.6851464490224436,,,,,,,,,,,,
38037,0,USNorthDakotaGrant,North Dakota,Grant,2022-04-28 09:13:11,2020-07-15,0.18264000582687545,0.3421494022023859,0.6851464490224436,,,,,,,,,,,,
38037,0,USNorthDakotaGrant,North Dakota,Grant,2022-04-28 09:13:11,2020-07-16,0,0,0,,,,,,,,,,,,
38037,0,USNorthDakotaGrant,North Dakota,Grant,2022-04-28 09:13:11,2020-07-17,0,0,0,,,,,,,,,,,,
38037,0,USNorthDakotaGrant,North Dakota,Grant,2022-04-28 09:13:11,2020-07-18,0,0,0,,,,,,,,,,,,
38037,0,USNorthDakotaGrant,North Dakota,Grant,2022-04-28 09:13:11,2020-07-19,0,0,0,,,,,,,,,,,,
38037,0,USNorthDakotaGrant,North Dakota,Grant,2022-04-28 09:13:11,2020-07-20,0,0,0,,,,,,,,,,,,
38037,0,USNorthDakotaGrant,North Dakota,Grant,2022-04-28 09:13:11,2020-07-21,0,0,0,,,,,,,,,,,,
38037,0,USNorthDakotaGrant,North Dakota,Grant,2022-04-28 09:13:11,2020-07-22,0,0,0,,,,,,,,,,,,
38037,0,USNorthDakotaGrant,North Dakota,Grant,2022-04-28 09:13:11,2020-07-23,0,0,0,,,,,,,,,,,,
38037,0,USNorthDakotaGrant,North Dakota,Grant,2022-04-28 09:13:11,2020-07-24,0,0,0,,,,,,,,,,,,
38037,0,USNorthDakotaGrant,North Dakota,Grant,2022-04-28 09:13:11,2020-07-25,0,0,0,,,,,,,,,,,,
38037,0,USNorthDakotaGrant,North Dakota,Grant,2022-04-28 09:13:11,2020-07-26,0,0,0,,,,,,,,,,,,
38037,0,USNorthDakotaGrant,North Dakota,Grant,2022-04-28 09:13:11,2020-07-27,0,0,0,,,,,,,,,,,,
38037,0,USNorthDakotaGrant,North Dakota,Grant,2022-04-28 09:13:11,2020-07-28,0,0,0,,,,,,,,,,,,
38037,0,USNorthDakotaGrant,North Dakota,Grant,2022-04-28 09:13:11,2020-07-29,0,0,0,,,,,,,,,,,,
38037,0,USNorthDakotaGrant,North Dakota,Grant,2022-04-28 09:13:11,2020-07-30,0,0,0,,,,,,,,,,,,
38037,0,USNorthDakotaGrant,North Dakota,Grant,2022-04-28 09:13:11,2020-07-31,0,0,0,,,,,,,,,,,,
38037,0,USNorthDakotaGrant,North Dakota,Grant,2022-04-28 09:13:11,2020-08-01,0,0,0,,,,,,,,,,,,
38037,0,USNorthDakotaGrant,North Dakota,Grant,2022-04-28 09:13:11,2020-08-02,0,0,0,,,,,,,,,,,,
38037,0,USNorthDakotaGrant,North Dakota,Grant,2022-04-28 09:13:11,2020-08-03,0,0,0,,,,,,,,,,,,
38037,0,USNorthDakotaGrant,North Dakota,Grant,2022-04-28 09:13:11,2020-08-04,0,0,0,,,,,,,,,,,,
38037,0,USNorthDakotaGrant,North Dakota,Grant,2022-04-28 09:13:11,2020-08-05,0,0,0,,,,,,,,,,,,
38037,0,USNorthDakotaGrant,North Dakota,Grant,2022-04-28 09:13:11,2020-08-06,0,0,0,,,,,,,,,,,,
38037,0,USNorthDakotaGrant,North Dakota,Grant,2022-04-28 09:13:11,2020-08-07,0,0,0,,,,,,,,,,,,
38037,0,USNorthDakotaGrant,North Dakota,Grant,2022-04-28 09:13:11,2020-08-08,0,0,0,,,,,,,,,,,,
38037,0,USNorthDakotaGrant,North Dakota,Grant,2022-04-28 09:13:11,2020-08-09,0,0,0,,,,,,,,,,,,
38037,0,USNorthDakotaGrant,North Dakota,Grant,2022-04-28 09:13:11,2020-08-10,0,0,0,,,,,,,,,,,,
38037,0,USNorthDakotaGrant,North Dakota,Grant,2022-04-28 09:13:11,2020-08-11,0,0,0,,,,,,,,,,,,
38037,0,USNorthDakotaGrant,North Dakota,Grant,2022-04-28 09:13:11,2020-08-12,0,0,0,,,,,,,,,,,,
38037,0,USNorthDakotaGrant,North Dakota,Grant,2022-04-28 09:13:11,2020-08-13,0,0,0,,,,,,,,,,,,
38037,0,USNorthDakotaGrant,North Dakota,Grant,2022-04-28 09:13:11,2020-08-14,0,0,0,,,,,,,,,,,,
38037,0,USNorthDakotaGrant,North Dakota,Grant,2022-04-28 09:13:11,2020-08-15,0,0,0,,,,,,,,,,,,
38037,0,USNorthDakotaGrant,North Dakota,Grant,2022-04-28 09:13:11,2020-08-16,0,0,0,,,,,,,,,,,,
38037,0,USNorthDakotaGrant,North Dakota,Grant,2022-04-28 09:13:11,2020-08-17,0,0,0,,,,,,,,,,,,
38037,0,USNorthDakotaGrant,North Dakota,Grant,2022-04-28 09:13:11,2020-08-18,0,0,0,,,,,,,,,,,,
38037,0,USNorthDakotaGrant,North Dakota,Grant,2022-04-28 09:13:11,2020-08-19,0,0,0,,,,,,,,,,,,
38037,0,USNorthDakotaGrant,North Dakota,Grant,2022-04-28 09:13:11,2020-08-20,0.7560268321412705,1.1911859255967943,1.9795361961832478,,,,,,,,,,,,
38037,0,USNorthDakotaGrant,North Dakota,Grant,2022-04-28 09:13:11,2020-08-21,0.7560268321412705,1.1911859255967943,1.9795361961832478,,,,,,,,,,,,
38037,0,USNorthDakotaGrant,North Dakota,Grant,2022-04-28 09:13:11,2020-08-22,0.7560268321412705,1.1911859255967943,1.9795361961832478,,,,,,,,,,,,
38037,0,USNorthDakotaGrant,North Dakota,Grant,2022-04-28 09:13:11,2020-08-23,0.7560268321412705,1.1911859255967943,1.9795361961832478,,,,,,,,,,,,
38037,0,USNorthDakotaGrant,North Dakota,Grant,2022-04-28 09:13:11,2020-08-24,0.7560268321412705,1.1911859255967943,1.9795361961832478,,,,,,,,,,,,
38037,0,USNorthDakotaGrant,North Dakota,Grant,2022-04-28 09:13:11,2020-08-25,0.7560268321412705,1.1911859255967943,1.9795361961832478,,,,,,,,,,,,
38037,0,USNorthDakotaGrant,North Dakota,Grant,2022-04-28 09:13:11,2020-08-26,0.7560268321412705,1.1911859255967943,1.9795361961832478,,,,,,,,,,,,
38037,0,USNorthDakotaGrant,North Dakota,Grant,2022-04-28 09:13:11,2020-08-27,0,0,0,,,,,,,,,,,,
38037,0,USNorthDakotaGrant,North Dakota,Grant,2022-04-28 09:13:11,2020-08-28,0,0,0,,,,,,,,,,,,
38037,0,USNorthDakotaGrant,North Dakota,Grant,2022-04-28 09:13:11,2020-08-29,0,0,0,,,,,,,,,,,,
38037,0,USNorthDakotaGrant,North Dakota,Grant,2022-04-28 09:13:11,2020-08-30,0,0,0,,,,,,,,,,,,
38037,0,USNorthDakotaGrant,North Dakota,Grant,2022-04-28 09:13:11,2020-08-31,0,0,0,,,,,,,,,,,,
38037,0,USNorthDakotaGrant,North Dakota,Grant,2022-04-28 09:13:11,2020-09-01,0,0,0,,,,,,,,,,,,
38037,0,USNorthDakotaGrant,North Dakota,Grant,2022-04-28 09:13:11,2020-09-02,0,0,0,,,,,,,,,,,,
38037,0,USNorthDakotaGrant,North Dakota,Grant,2022-04-28 09:13:11,2020-09-03,0,0,0,,,,,,,,,,,,
38037,0,USNorthDakotaGrant,North Dakota,Grant,2022-04-28 09:13:11,2020-09-04,0,0,0,,,,,,,,,,,,
38037,0,USNorthDakotaGrant,North Dakota,Grant,2022-04-28 09:13:11,2020-09-05,0,0,0,,,,,,,,,,,,
38037,0,USNorthDakotaGrant,North Dakota,Grant,2022-04-28 09:13:11,2020-09-06,0,0,0,,,,,,,,,,,,
38037,0,USNorthDakotaGrant,North Dakota,Grant,2022-04-28 09:13:11,2020-09-07,0,0,0,,,,,,,,,,,,
38037,0,USNorthDakotaGrant,North Dakota,Grant,2022-04-28 09:13:11,2020-09-08,0,0,0,,,,,,,,,,,,
38037,0,USNorthDakotaGrant,North Dakota,Grant,2022-04-28 09:13:11,2020-09-09,0,0,0,,,,,,,,,,,,
38037,0,USNorthDakotaGrant,North Dakota,Grant,2022-04-28 09:13:11,2020-09-10,0.3941797044442163,0.79142909511444,1.7040023140878597,,,,,,,,,,,,
38037,0,USNorthDakotaGrant,North Dakota,Grant,2022-04-28 09:13:11,2020-09-11,0.3941797044442163,0.79142909511444,1.7040023140878597,,,,,,,,,,,,
38037,0,USNorthDakotaGrant,North Dakota,Grant,2022-04-28 09:13:11,2020-09-12,0.3941797044442163,0.79142909511444,1.7040023140878597,,,,,,,,,,,,
38037,0,USNorthDakotaGrant,North Dakota,Grant,2022-04-28 09:13:11,2020-09-13,0.3941797044442163,0.79142909511444,1.7040023140878597,,,,,,,,,,,,
38037,0,USNorthDakotaGrant,North Dakota,Grant,2022-04-28 09:13:11,2020-09-14,0.3941797044442163,0.79142909511444,1.7040023140878597,,,,,,,,,,,,
38037,0,USNorthDakotaGrant,North Dakota,Grant,2022-04-28 09:13:11,2020-09-15,0.3941797044442163,0.79142909511444,1.7040023140878597,,,,,,,,,,,,
38037,0,USNorthDakotaGrant,North Dakota,Grant,2022-04-28 09:13:11,2020-09-16,0.3941797044442163,0.79142909511444,1.7040023140878597,,,,,,,,,,,,
38037,0,USNorthDakotaGrant,North Dakota,Grant,2022-04-28 09:13:11,2020-09-17,0.8248077114691412,1.4076217939616595,2.5519418055269716,,,,,,,,,,,,
38037,0,USNorthDakotaGrant,North Dakota,Grant,2022-04-28 09:13:11,2020-09-18,0.8248077114691412,1.4076217939616595,2.5519418055269716,,,,,,,,,,,,
38037,0,USNorthDakotaGrant,North Dakota,Grant,2022-04-28 09:13:11,2020-09-19,0.8248077114691412,1.4076217939616595,2.5519418055269716,,,,,,,,,,,,
38037,0,USNorthDakotaGrant,North Dakota,Grant,2022-04-28 09:13:11,2020-09-20,0.8248077114691412,1.4076217939616595,2.5519418055269716,,,,,,,,,,,,
38037,0,USNorthDakotaGrant,North Dakota,Grant,2022-04-28 09:13:11,2020-09-21,0.8248077114691412,1.4076217939616595,2.5519418055269716,,,,,,,,,,,,
38037,0,USNorthDakotaGrant,North Dakota,Grant,2022-04-28 09:13:11,2020-09-22,0.8248077114691412,1.4076217939616595,2.5519418055269716,,,,,,,,,,,,
38037,0,USNorthDakotaGrant,North Dakota,Grant,2022-04-28 09:13:11,2020-09-23,0.8248077114691412,1.4076217939616595,2.5519418055269716,,,,,,,,,,,,
38037,0,USNorthDakotaGrant,North Dakota,Grant,2022-04-28 09:13:11,2020-09-24,1.810086255665281,2.6450175824692135,4.04285808231413,,,,,,,,,,,,
38037,0,USNorthDakotaGrant,North Dakota,Grant,2022-04-28 09:13:11,2020-09-25,1.810086255665281,2.6450175824692135,4.04285808231413,,,,,,,,,,,,
38037,0,USNorthDakotaGrant,North Dakota,Grant,2022-04-28 09:13:11,2020-09-26,1.810086255665281,2.6450175824692135,4.04285808231413,,,,,,,,,,,,
38037,0,USNorthDakotaGrant,North Dakota,Grant,2022-04-28 09:13:11,2020-09-27,1.810086255665281,2.6450175824692135,4.04285808231413,,,,,,,,,,,,
38037,0,USNorthDakotaGrant,North Dakota,Grant,2022-04-28 09:13:11,2020-09-28,1.810086255665281,2.6450175824692135,4.04285808231413,,,,,,,,,,,,
38037,0,USNorthDakotaGrant,North Dakota,Grant,2022-04-28 09:13:11,2020-09-29,1.810086255665281,2.6450175824692135,4.04285808231413,,,,,,,,,,,,
38037,0,USNorthDakotaGrant,North Dakota,Grant,2022-04-28 09:13:11,2020-09-30,1.810086255665281,2.6450175824692135,4.04285808231413,,,,,,,,,,,,
38037,0,USNorthDakotaGrant,North Dakota,Grant,2022-04-28 09:13:11,2020-10-01,1.7979334643802123,2.6112183256726214,3.9638959054498137,,,,,,,,,,,,
38037,0,USNorthDakotaGrant,North Dakota,Grant,2022-04-28 09:13:11,2020-10-02,1.7979334643802123,2.6112183256726214,3.9638959054498137,,,,,,,,,,,,
38037,0,USNorthDakotaGrant,North Dakota,Grant,2022-04-28 09:13:11,2020-10-03,1.7979334643802123,2.6112183256726214,3.9638959054498137,,,,,,,,,,,,
38037,0,USNorthDakotaGrant,North Dakota,Grant,2022-04-28 09:13:11,2020-10-04,1.7979334643802123,2.6112183256726214,3.9638959054498137,,,,,,,,,,,,
38037,0,USNorthDakotaGrant,North Dakota,Grant,2022-04-28 09:13:11,2020-10-05,1.7979334643802123,2.6112183256726214,3.9638959054498137,,,,,,,,,,,,
38037,0,USNorthDakotaGrant,North Dakota,Grant,2022-04-28 09:13:11,2020-10-06,1.7979334643802123,2.6112183256726214,3.9638959054498137,,,,,,,,,,,,
38037,0,USNorthDakotaGrant,North Dakota,Grant,2022-04-28 09:13:11,2020-10-07,1.7979334643802123,2.6112183256726214,3.9638959054498137,,,,,,,,,,,,
38037,0,USNorthDakotaGrant,North Dakota,Grant,2022-04-28 09:13:11,2020-10-08,1.4990517695457832,2.3432728823726086,3.8603068071328392,,,,,,,,,,,,
38037,0,USNorthDakotaGrant,North Dakota,Grant,2022-04-28 09:13:11,2020-10-09,1.4990517695457832,2.3432728823726086,3.8603068071328392,,,,,,,,,,,,
38037,0,USNorthDakotaGrant,North Dakota,Grant,2022-04-28 09:13:11,2020-10-10,1.4990517695457832,2.3432728823726086,3.8603068071328392,,,,,,,,,,,,
38037,0,USNorthDakotaGrant,North Dakota,Grant,2022-04-28 09:13:11,2020-10-11,1.4990517695457832,2.3432728823726086,3.8603068071328392,,,,,,,,,,,,
38037,0,USNorthDakotaGrant,North Dakota,Grant,2022-04-28 09:13:11,2020-10-12,1.4990517695457832,2.3432728823726086,3.8603068071328392,,,,,,,,,,,,
38037,0,USNorthDakotaGrant,North Dakota,Grant,2022-04-28 09:13:11,2020-10-13,1.4990517695457832,2.3432728823726086,3.8603068071328392,,,,,,,,,,,,
38037,0,USNorthDakotaGrant,North Dakota,Grant,2022-04-28 09:13:11,2020-10-14,1.4990517695457832,2.3432728823726086,3.8603068071328392,,,,,,,,,,,,
38037,0,USNorthDakotaGrant,North Dakota,Grant,2022-04-28 09:13:11,2020-10-15,1.2028783563570613,2.1311958040445216,4.022333844285242,,,,,,,,,,,,
38037,0,USNorthDakotaGrant,North Dakota,Grant,2022-04-28 09:13:11,2020-10-16,1.2028783563570613,2.1311958040445216,4.022333844285242,,,,,,,,,,,,
38037,0,USNorthDakotaGrant,North Dakota,Grant,2022-04-28 09:13:11,2020-10-17,1.2028783563570613,2.1311958040445216,4.022333844285242,,,,,,,,,,,,
38037,0,USNorthDakotaGrant,North Dakota,Grant,2022-04-28 09:13:11,2020-10-18,1.2028783563570613,2.1311958040445216,4.022333844285242,,,,,,,,,,,,
38037,0,USNorthDakotaGrant,North Dakota,Grant,2022-04-28 09:13:11,2020-10-19,1.2028783563570613,2.1311958040445216,4.022333844285242,,,,,,,,,,,,
38037,0,USNorthDakotaGrant,North Dakota,Grant,2022-04-28 09:13:11,2020-10-20,1.2028783563570613,2.1311958040445216,4.022333844285242,,,,,,,,,,,,
38037,0,USNorthDakotaGrant,North Dakota,Grant,2022-04-28 09:13:11,2020-10-21,1.2028783563570613,2.1311958040445216,4.022333844285242,,,,,,,,,,,,
38037,0,USNorthDakotaGrant,North Dakota,Grant,2022-04-28 09:13:11,2020-10-22,2.450961976815464,3.69707317862642,5.8547793034292,,,,,,,,,,,,
38037,0,USNorthDakotaGrant,North Dakota,Grant,2022-04-28 09:13:11,2020-10-23,2.450961976815464,3.69707317862642,5.8547793034292,,,,,,,,,,,,
38037,0,USNorthDakotaGrant,North Dakota,Grant,2022-04-28 09:13:11,2020-10-24,2.450961976815464,3.69707317862642,5.8547793034292,,,,,,,,,,,,
38037,0,USNorthDakotaGrant,North Dakota,Grant,2022-04-28 09:13:11,2020-10-25,2.450961976815464,3.69707317862642,5.8547793034292,,,,,,,,,,,,
38037,0,USNorthDakotaGrant,North Dakota,Grant,2022-04-28 09:13:11,2020-10-26,2.450961976815464,3.69707317862642,5.8547793034292,,,,,,,,,,,,
38037,0,USNorthDakotaGrant,North Dakota,Grant,2022-04-28 09:13:11,2020-10-27,2.450961976815464,3.69707317862642,5.8547793034292,,,,,,,,,,,,
38037,0,USNorthDakotaGrant,North Dakota,Grant,2022-04-28 09:13:11,2020-10-28,2.450961976815464,3.69707317862642,5.8547793034292,,,,,,,,,,,,
38037,0,USNorthDakotaGrant,North Dakota,Grant,2022-04-28 09:13:11,2020-10-29,2.438754982236687,3.870802000196094,6.484740982345391,,,,,,,,,,,,
38037,0,USNorthDakotaGrant,North Dakota,Grant,2022-04-28 09:13:11,2020-10-30,2.438754982236687,3.870802000196094,6.484740982345391,,,,,,,,,,,,
38037,0,USNorthDakotaGrant,North Dakota,Grant,2022-04-28 09:13:11,2020-10-31,2.438754982236687,3.870802000196094,6.484740982345391,,,,,,,,,,,,
38037,0,USNorthDakotaGrant,North Dakota,Grant,2022-04-28 09:13:11,2020-11-01,2.438754982236687,3.870802000196094,6.484740982345391,,,,,,,,,,,,
38037,0,USNorthDakotaGrant,North Dakota,Grant,2022-04-28 09:13:11,2020-11-02,2.438754982236687,3.870802000196094,6.484740982345391,,,,,,,,,,,,
38037,0,USNorthDakotaGrant,North Dakota,Grant,2022-04-28 09:13:11,2020-11-03,2.438754982236687,3.870802000196094,6.484740982345391,,,,,,,,,,,,
38037,0,USNorthDakotaGrant,North Dakota,Grant,2022-04-28 09:13:11,2020-11-04,2.438754982236687,3.870802000196094,6.484740982345391,,,,,,,,,,,,
38037,0,USNorthDakotaGrant,North Dakota,Grant,2022-04-28 09:13:11,2020-11-05,2.9133961035571487,4.649582593890382,7.836462453467158,,,,,,,,,,,,
38037,0,USNorthDakotaGrant,North Dakota,Grant,2022-04-28 09:13:11,2020-11-06,2.9133961035571487,4.649582593890382,7.836462453467158,,,,,,,,,,,,
38037,0,USNorthDakotaGrant,North Dakota,Grant,2022-04-28 09:13:11,2020-11-07,2.9133961035571487,4.649582593890382,7.836462453467158,,,,,,,,,,,,
38037,0,USNorthDakotaGrant,North Dakota,Grant,2022-04-28 09:13:11,2020-11-08,2.9133961035571487,4.649582593890382,7.836462453467158,,,,,,,,,,,,
38037,0,USNorthDakotaGrant,North Dakota,Grant,2022-04-28 09:13:11,2020-11-09,2.9133961035571487,4.649582593890382,7.836462453467158,,,,,,,,,,,,
38037,0,USNorthDakotaGrant,North Dakota,Grant,2022-04-28 09:13:11,2020-11-10,2.9133961035571487,4.649582593890382,7.836462453467158,,,,,,,,,,,,
38037,0,USNorthDakotaGrant,North Dakota,Grant,2022-04-28 09:13:11,2020-11-11,2.9133961035571487,4.649582593890382,7.836462453467158,,,,,,,,,,,,
38037,0,USNorthDakotaGrant,North Dakota,Grant,2022-04-28 09:13:11,2020-11-12,2.580890512704835,4.081491360943318,6.810364536074647,,,,,,,,,,,,
38037,0,USNorthDakotaGrant,North Dakota,Grant,2022-04-28 09:13:11,2020-11-13,2.580890512704835,4.081491360943318,6.810364536074647,,,,,,,,,,,,
38037,0,USNorthDakotaGrant,North Dakota,Grant,2022-04-28 09:13:11,2020-11-14,2.580890512704835,4.081491360943318,6.810364536074647,,,,,,,,,,,,
38037,0,USNorthDakotaGrant,North Dakota,Grant,2022-04-28 09:13:11,2020-11-15,2.580890512704835,4.081491360943318,6.810364536074647,,,,,,,,,,,,
38037,0,USNorthDakotaGrant,North Dakota,Grant,2022-04-28 09:13:11,2020-11-16,2.580890512704835,4.081491360943318,6.810364536074647,,,,,,,,,,,,
38037,0,USNorthDakotaGrant,North Dakota,Grant,2022-04-28 09:13:11,2020-11-17,2.580890512704835,4.081491360943318,6.810364536074647,,,,,,,,,,,,
38037,0,USNorthDakotaGrant,North Dakota,Grant,2022-04-28 09:13:11,2020-11-18,2.580890512704835,4.081491360943318,6.810364536074647,,,,,,,,,,,,
38037,0,USNorthDakotaGrant,North Dakota,Grant,2022-04-28 09:13:11,2020-11-19,3.2152391876772004,4.715373091025767,7.236650482568223,,,,,,,,,,,,
38037,0,USNorthDakotaGrant,North Dakota,Grant,2022-04-28 09:13:11,2020-11-20,3.2152391876772004,4.715373091025767,7.236650482568223,,,,,,,,,,,,
38037,0,USNorthDakotaGrant,North Dakota,Grant,2022-04-28 09:13:11,2020-11-21,3.2152391876772004,4.715373091025767,7.236650482568223,,,,,,,,,,,,
38037,0,USNorthDakotaGrant,North Dakota,Grant,2022-04-28 09:13:11,2020-11-22,3.2152391876772004,4.715373091025767,7.236650482568223,,,,,,,,,,,,
38037,0,USNorthDakotaGrant,North Dakota,Grant,2022-04-28 09:13:11,2020-11-23,3.2152391876772004,4.715373091025767,7.236650482568223,,,,,,,,,,,,
38037,0,USNorthDakotaGrant,North Dakota,Grant,2022-04-28 09:13:11,2020-11-24,3.2152391876772004,4.715373091025767,7.236650482568223,,,,,,,,,,,,
38037,0,USNorthDakotaGrant,North Dakota,Grant,2022-04-28 09:13:11,2020-11-25,3.2152391876772004,4.715373091025767,7.236650482568223,,,,,,,,,,,,
38037,0,USNorthDakotaGrant,North Dakota,Grant,2022-04-28 09:13:11,2020-11-26,0.7756025369474572,1.5343556450167566,3.25309754565424,,,,,,,,,,,,
38037,0,USNorthDakotaGrant,North Dakota,Grant,2022-04-28 09:13:11,2020-11-27,0.7756025369474572,1.5343556450167566,3.25309754565424,,,,,,,,,,,,
38037,0,USNorthDakotaGrant,North Dakota,Grant,2022-04-28 09:13:11,2020-11-28,0.7756025369474572,1.5343556450167566,3.25309754565424,,,,,,,,,,,,
38037,0,USNorthDakotaGrant,North Dakota,Grant,2022-04-28 09:13:11,2020-11-29,0.7756025369474572,1.5343556450167566,3.25309754565424,,,,,,,,,,,,
38037,0,USNorthDakotaGrant,North Dakota,Grant,2022-04-28 09:13:11,2020-11-30,0.7756025369474572,1.5343556450167566,3.25309754565424,,,,,,,,,,,,
38037,0,USNorthDakotaGrant,North Dakota,Grant,2022-04-28 09:13:11,2020-12-01,0.7756025369474572,1.5343556450167566,3.25309754565424,,,,,,,,,,,,
38037,0,USNorthDakotaGrant,North Dakota,Grant,2022-04-28 09:13:11,2020-12-02,0.7756025369474572,1.5343556450167566,3.25309754565424,,,,,,,,,,,,
38037,0,USNorthDakotaGrant,North Dakota,Grant,2022-04-28 09:13:11,2020-12-03,1.0499248259309164,1.8913880611103397,3.6336082890957506,,,,,,,,,,,,
38037,0,USNorthDakotaGrant,North Dakota,Grant,2022-04-28 09:13:11,2020-12-04,1.0499248259309164,1.8913880611103397,3.6336082890957506,,,,,,,,,,,,
38037,0,USNorthDakotaGrant,North Dakota,Grant,2022-04-28 09:13:11,2020-12-05,1.0499248259309164,1.8913880611103397,3.6336082890957506,,,,,,,,,,,,
38037,0,USNorthDakotaGrant,North Dakota,Grant,2022-04-28 09:13:11,2020-12-06,1.0499248259309164,1.8913880611103397,3.6336082890957506,,,,,,,,,,,,
38037,0,USNorthDakotaGrant,North Dakota,Grant,2022-04-28 09:13:11,2020-12-07,1.0499248259309164,1.8913880611103397,3.6336082890957506,,,,,,,,,,,,
38037,0,USNorthDakotaGrant,North Dakota,Grant,2022-04-28 09:13:11,2020-12-08,1.0499248259309164,1.8913880611103397,3.6336082890957506,,,,,,,,,,,,
38037,0,USNorthDakotaGrant,North Dakota,Grant,2022-04-28 09:13:11,2020-12-09,1.0499248259309164,1.8913880611103397,3.6336082890957506,,,,,,,,,,,,
38037,0,USNorthDakotaGrant,North Dakota,Grant,2022-04-28 09:13:11,2020-12-10,0.8274417601151545,1.4162539560118779,2.5757044608039226,,,,,,,,,,,,
38037,0,USNorthDakotaGrant,North Dakota,Grant,2022-04-28 09:13:11,2020-12-11,0.8274417601151545,1.4162539560118779,2.5757044608039226,,,,,,,,,,,,
38037,0,USNorthDakotaGrant,North Dakota,Grant,2022-04-28 09:13:11,2020-12-12,0.8274417601151545,1.4162539560118779,2.5757044608039226,,,,,,,,,,,,
38037,0,USNorthDakotaGrant,North Dakota,Grant,2022-04-28 09:13:11,2020-12-13,0.8274417601151545,1.4162539560118779,2.5757044608039226,,,,,,,,,,,,
38037,0,USNorthDakotaGrant,North Dakota,Grant,2022-04-28 09:13:11,2020-12-14,0.8274417601151545,1.4162539560118779,2.5757044608039226,,,,,,,,,,,,
38037,0,USNorthDakotaGrant,North Dakota,Grant,2022-04-28 09:13:11,2020-12-15,0.8274417601151545,1.4162539560118779,2.5757044608039226,,,,,,,,,,,,
38037,0,USNorthDakotaGrant,North Dakota,Grant,2022-04-28 09:13:11,2020-12-16,0.8274417601151545,1.4162539560118779,2.5757044608039226,,,,,,,,,,,,
38037,0,USNorthDakotaGrant,North Dakota,Grant,2022-04-28 09:13:11,2020-12-17,0.5537899837627324,1.0475842278647671,2.1193676700140136,,,,,,,,,,,,
38037,0,USNorthDakotaGrant,North Dakota,Grant,2022-04-28 09:13:11,2020-12-18,0.5537899837627324,1.0475842278647671,2.1193676700140136,,,,,,,,,,,,
38037,0,USNorthDakotaGrant,North Dakota,Grant,2022-04-28 09:13:11,2020-12-19,0.5537899837627324,1.0475842278647671,2.1193676700140136,,,,,,,,,,,,
38037,0,USNorthDakotaGrant,North Dakota,Grant,2022-04-28 09:13:11,2020-12-20,0.5537899837627324,1.0475842278647671,2.1193676700140136,,,,,,,,,,,,
38037,0,USNorthDakotaGrant,North Dakota,Grant,2022-04-28 09:13:11,2020-12-21,0.5537899837627324,1.0475842278647671,2.1193676700140136,,,,,,,,,,,,
38037,0,USNorthDakotaGrant,North Dakota,Grant,2022-04-28 09:13:11,2020-12-22,0.5537899837627324,1.0475842278647671,2.1193676700140136,,,,,,,,,,,,
38037,0,USNorthDakotaGrant,North Dakota,Grant,2022-04-28 09:13:11,2020-12-23,0.5537899837627324,1.0475842278647671,2.1193676700140136,,,,,,,,,,,,
38037,0,USNorthDakotaGrant,North Dakota,Grant,2022-04-28 09:13:11,2020-12-24,0.2443035990642759,0.5944836843648567,1.5567896544410118,,,,,,,,,,,,
38037,0,USNorthDakotaGrant,North Dakota,Grant,2022-04-28 09:13:11,2020-12-25,0.2443035990642759,0.5944836843648567,1.5567896544410118,,,,,,,,,,,,
38037,0,USNorthDakotaGrant,North Dakota,Grant,2022-04-28 09:13:11,2020-12-26,0.2443035990642759,0.5944836843648567,1.5567896544410118,,,,,,,,,,,,
38037,0,USNorthDakotaGrant,North Dakota,Grant,2022-04-28 09:13:11,2020-12-27,0.2443035990642759,0.5944836843648567,1.5567896544410118,,,,,,,,,,,,
38037,0,USNorthDakotaGrant,North Dakota,Grant,2022-04-28 09:13:11,2020-12-28,0.2443035990642759,0.5944836843648567,1.5567896544410118,,,,,,,,,,,,
38037,0,USNorthDakotaGrant,North Dakota,Grant,2022-04-28 09:13:11,2020-12-29,0.2443035990642759,0.5944836843648567,1.5567896544410118,,,,,,,,,,,,
38037,0,USNorthDakotaGrant,North Dakota,Grant,2022-04-28 09:13:11,2020-12-30,0.2443035990642759,0.5944836843648567,1.5567896544410118,,,,,,,,,,,,
38037,0,USNorthDakotaGrant,North Dakota,Grant,2022-04-28 09:13:11,2020-12-31,0.5364801867858408,0.9858262653234582,1.934269783632455,,,,,,,,,,,,
38037,0,USNorthDakotaGrant,North Dakota,Grant,2022-04-28 09:13:11,2021-01-01,0.5364801867858408,0.9858262653234582,1.934269783632455,,,,,,,,,,,,
38037,0,USNorthDakotaGrant,North Dakota,Grant,2022-04-28 09:13:11,2021-01-02,0.5364801867858408,0.9858262653234582,1.934269783632455,,,,,,,,,,,,
38037,0,USNorthDakotaGrant,North Dakota,Grant,2022-04-28 09:13:11,2021-01-03,0.5364801867858408,0.9858262653234582,1.934269783632455,,,,,,,,,,,,
38037,0,USNorthDakotaGrant,North Dakota,Grant,2022-04-28 09:13:11,2021-01-04,0.5364801867858408,0.9858262653234582,1.934269783632455,,,,,,,,,,,,
38037,0,USNorthDakotaGrant,North Dakota,Grant,2022-04-28 09:13:11,2021-01-05,0.5364801867858408,0.9858262653234582,1.934269783632455,,,,,,,,,,,,
38037,0,USNorthDakotaGrant,North Dakota,Grant,2022-04-28 09:13:11,2021-01-06,0.5364801867858408,0.9858262653234582,1.934269783632455,,,,,,,,,,,,
38037,0,USNorthDakotaGrant,North Dakota,Grant,2022-04-28 09:13:11,2021-01-07,0.5301501386976154,0.9636743523403457,1.8691521288966044,,,,,,,,,,,,
38037,0,USNorthDakotaGrant,North Dakota,Grant,2022-04-28 09:13:11,2021-01-08,0.5301501386976154,0.9636743523403457,1.8691521288966044,,,,,,,,,,,,
38037,0,USNorthDakotaGrant,North Dakota,Grant,2022-04-28 09:13:11,2021-01-09,0.5301501386976154,0.9636743523403457,1.8691521288966044,,,,,,,,,,,,
38037,0,USNorthDakotaGrant,North Dakota,Grant,2022-04-28 09:13:11,2021-01-10,0.5301501386976154,0.9636743523403457,1.8691521288966044,,,,,,,,,,,,
38037,0,USNorthDakotaGrant,North Dakota,Grant,2022-04-28 09:13:11,2021-01-11,0.5301501386976154,0.9636743523403457,1.8691521288966044,,,,,,,,,,,,
38037,0,USNorthDakotaGrant,North Dakota,Grant,2022-04-28 09:13:11,2021-01-12,0.5301501386976154,0.9636743523403457,1.8691521288966044,,,,,,,,,,,,
38037,0,USNorthDakotaGrant,North Dakota,Grant,2022-04-28 09:13:11,2021-01-13,0.5301501386976154,0.9636743523403457,1.8691521288966044,,,,,,,,,,,,
38037,0,USNorthDakotaGrant,North Dakota,Grant,2022-04-28 09:13:11,2021-01-14,0.3762706590213381,0.7242059839981315,1.4920186242879414,,,,,,,,,,,,
38037,0,USNorthDakotaGrant,North Dakota,Grant,2022-04-28 09:13:11,2021-01-15,0.3762706590213381,0.7242059839981315,1.4920186242879414,,,,,,,,,,,,
38037,0,USNorthDakotaGrant,North Dakota,Grant,2022-04-28 09:13:11,2021-01-16,0.3762706590213381,0.7242059839981315,1.4920186242879414,,,,,,,,,,,,
38037,0,USNorthDakotaGrant,North Dakota,Grant,2022-04-28 09:13:11,2021-01-17,0.3762706590213381,0.7242059839981315,1.4920186242879414,,,,,,,,,,,,
38037,0,USNorthDakotaGrant,North Dakota,Grant,2022-04-28 09:13:11,2021-01-18,0.3762706590213381,0.7242059839981315,1.4920186242879414,,,,,,,,,,,,
38037,0,USNorthDakotaGrant,North Dakota,Grant,2022-04-28 09:13:11,2021-01-19,0.3762706590213381,0.7242059839981315,1.4920186242879414,,,,,,,,,,,,
38037,0,USNorthDakotaGrant,North Dakota,Grant,2022-04-28 09:13:11,2021-01-20,0.3762706590213381,0.7242059839981315,1.4920186242879414,,,,,,,,,,,,
38037,0,USNorthDakotaGrant,North Dakota,Grant,2022-04-28 09:13:11,2021-01-21,0.5067323294903451,0.8837638171105765,1.6400652836641667,,,,,,,,,,,,
38037,0,USNorthDakotaGrant,North Dakota,Grant,2022-04-28 09:13:11,2021-01-22,0.5067323294903451,0.8837638171105765,1.6400652836641667,,,,,,,,,,,,
38037,0,USNorthDakotaGrant,North Dakota,Grant,2022-04-28 09:13:11,2021-01-23,0.5067323294903451,0.8837638171105765,1.6400652836641667,,,,,,,,,,,,
38037,0,USNorthDakotaGrant,North Dakota,Grant,2022-04-28 09:13:11,2021-01-24,0.5067323294903451,0.8837638171105765,1.6400652836641667,,,,,,,,,,,,
38037,0,USNorthDakotaGrant,North Dakota,Grant,2022-04-28 09:13:11,2021-01-25,0.5067323294903451,0.8837638171105765,1.6400652836641667,,,,,,,,,,,,
38037,0,USNorthDakotaGrant,North Dakota,Grant,2022-04-28 09:13:11,2021-01-26,0.5067323294903451,0.8837638171105765,1.6400652836641667,,,,,,,,,,,,
38037,0,USNorthDakotaGrant,North Dakota,Grant,2022-04-28 09:13:11,2021-01-27,0.5067323294903451,0.8837638171105765,1.6400652836641667,,,,,,,,,,,,
38037,0,USNorthDakotaGrant,North Dakota,Grant,2022-04-28 09:13:11,2021-01-28,0.2153242198827092,0.4682648700154804,1.0945898407828107,,,,,,,,,,,,
38037,0,USNorthDakotaGrant,North Dakota,Grant,2022-04-28 09:13:11,2021-01-29,0.2153242198827092,0.4682648700154804,1.0945898407828107,,,,,,,,,,,,
38037,0,USNorthDakotaGrant,North Dakota,Grant,2022-04-28 09:13:11,2021-01-30,0.2153242198827092,0.4682648700154804,1.0945898407828107,,,,,,,,,,,,
38037,0,USNorthDakotaGrant,North Dakota,Grant,2022-04-28 09:13:11,2021-01-31,0.2153242198827092,0.4682648700154804,1.0945898407828107,,,,,,,,,,,,
38037,0,USNorthDakotaGrant,North Dakota,Grant,2022-04-28 09:13:11,2021-02-01,0.2153242198827092,0.4682648700154804,1.0945898407828107,,,,,,,,,,,,
38037,0,USNorthDakotaGrant,North Dakota,Grant,2022-04-28 09:13:11,2021-02-02,0.2153242198827092,0.4682648700154804,1.0945898407828107,,,,,,,,,,,,
38037,0,USNorthDakotaGrant,North Dakota,Grant,2022-04-28 09:13:11,2021-02-03,0.2153242198827092,0.4682648700154804,1.0945898407828107,,,,,,,,,,,,
38037,0,USNorthDakotaGrant,North Dakota,Grant,2022-04-28 09:13:11,2021-02-04,0.17948358090807212,0.33092322197076907,0.6516069654613738,,,,,,,,,,,,
38037,0,USNorthDakotaGrant,North Dakota,Grant,2022-04-28 09:13:11,2021-02-05,0.17948358090807212,0.33092322197076907,0.6516069654613738,,,,,,,,,,,,
38037,0,USNorthDakotaGrant,North Dakota,Grant,2022-04-28 09:13:11,2021-02-06,0.17948358090807212,0.33092322197076907,0.6516069654613738,,,,,,,,,,,,
38037,0,USNorthDakotaGrant,North Dakota,Grant,2022-04-28 09:13:11,2021-02-07,0.17948358090807212,0.33092322197076907,0.6516069654613738,,,,,,,,,,,,
38037,0,USNorthDakotaGrant,North Dakota,Grant,2022-04-28 09:13:11,2021-02-08,0.17948358090807212,0.33092322197076907,0.6516069654613738,,,,,,,,,,,,
38037,0,USNorthDakotaGrant,North Dakota,Grant,2022-04-28 09:13:11,2021-02-09,0.17948358090807212,0.33092322197076907,0.6516069654613738,,,,,,,,,,,,
38037,0,USNorthDakotaGrant,North Dakota,Grant,2022-04-28 09:13:11,2021-02-10,0.17948358090807212,0.33092322197076907,0.6516069654613738,,,,,,,,,,,,
38037,0,USNorthDakotaGrant,North Dakota,Grant,2022-04-28 09:13:11,2021-02-11,0.2169624120488363,0.47504713982932084,1.1181764777968652,,,,,,,,,,,,
38037,0,USNorthDakotaGrant,North Dakota,Grant,2022-04-28 09:13:11,2021-02-12,0.2169624120488363,0.47504713982932084,1.1181764777968652,,,,,,,,,,,,
38037,0,USNorthDakotaGrant,North Dakota,Grant,2022-04-28 09:13:11,2021-02-13,0.2169624120488363,0.47504713982932084,1.1181764777968652,,,,,,,,,,,,
38037,0,USNorthDakotaGrant,North Dakota,Grant,2022-04-28 09:13:11,2021-02-14,0.2169624120488363,0.47504713982932084,1.1181764777968652,,,,,,,,,,,,
38037,0,USNorthDakotaGrant,North Dakota,Grant,2022-04-28 09:13:11,2021-02-15,0.2169624120488363,0.47504713982932084,1.1181764777968652,,,,,,,,,,,,
38037,0,USNorthDakotaGrant,North Dakota,Grant,2022-04-28 09:13:11,2021-02-16,0.2169624120488363,0.47504713982932084,1.1181764777968652,,,,,,,,,,,,
38037,0,USNorthDakotaGrant,North Dakota,Grant,2022-04-28 09:13:11,2021-02-17,0.2169624120488363,0.47504713982932084,1.1181764777968652,,,,,,,,,,,,
38037,0,USNorthDakotaGrant,North Dakota,Grant,2022-04-28 09:13:11,2021-02-18,0,0,0,,,,,,,,,,,,
38037,0,USNorthDakotaGrant,North Dakota,Grant,2022-04-28 09:13:11,2021-02-19,0,0,0,,,,,,,,,,,,
38037,0,USNorthDakotaGrant,North Dakota,Grant,2022-04-28 09:13:11,2021-02-20,0,0,0,,,,,,,,,,,,
38037,0,USNorthDakotaGrant,North Dakota,Grant,2022-04-28 09:13:11,2021-02-21,0,0,0,,,,,,,,,,,,
38037,0,USNorthDakotaGrant,North Dakota,Grant,2022-04-28 09:13:11,2021-02-22,0,0,0,,,,,,,,,,,,
38037,0,USNorthDakotaGrant,North Dakota,Grant,2022-04-28 09:13:11,2021-02-23,0,0,0,,,,,,,,,,,,
38037,0,USNorthDakotaGrant,North Dakota,Grant,2022-04-28 09:13:11,2021-02-24,0,0,0,,,,,,,,,,,,
38037,0,USNorthDakotaGrant,North Dakota,Grant,2022-04-28 09:13:11,2021-02-25,0,0,0,,,,,,,,,,,,
38037,0,USNorthDakotaGrant,North Dakota,Grant,2022-04-28 09:13:11,2021-02-26,0,0,0,,,,,,,,,,,,
38037,0,USNorthDakotaGrant,North Dakota,Grant,2022-04-28 09:13:11,2021-02-27,0,0,0,,,,,,,,,,,,
38037,0,USNorthDakotaGrant,North Dakota,Grant,2022-04-28 09:13:11,2021-02-28,0,0,0,,,,,,,,,,,,
38037,0,USNorthDakotaGrant,North Dakota,Grant,2022-04-28 09:13:11,2021-03-01,0,0,0,,,,,,,,,,,,
38037,0,USNorthDakotaGrant,North Dakota,Grant,2022-04-28 09:13:11,2021-03-02,0,0,0,,,,,,,,,,,,
38037,0,USNorthDakotaGrant,North Dakota,Grant,2022-04-28 09:13:11,2021-03-03,0,0,0,,,,,,,,,,,,
38037,0,USNorthDakotaGrant,North Dakota,Grant,2022-04-28 09:13:11,2021-03-04,0.22088759820425083,0.49147228859487424,1.1759123522729305,,,,,,,,,,,,
38037,0,USNorthDakotaGrant,North Dakota,Grant,2022-04-28 09:13:11,2021-03-05,0.22088759820425083,0.49147228859487424,1.1759123522729305,,,,,,,,,,,,
38037,0,USNorthDakotaGrant,North Dakota,Grant,2022-04-28 09:13:11,2021-03-06,0.22088759820425083,0.49147228859487424,1.1759123522729305,,,,,,,,,,,,
38037,0,USNorthDakotaGrant,North Dakota,Grant,2022-04-28 09:13:11,2021-03-07,0.22088759820425083,0.49147228859487424,1.1759123522729305,,,,,,,,,,,,
38037,0,USNorthDakotaGrant,North Dakota,Grant,2022-04-28 09:13:11,2021-03-08,0.22088759820425083,0.49147228859487424,1.1759123522729305,,,,,,,,,,,,
38037,0,USNorthDakotaGrant,North Dakota,Grant,2022-04-28 09:13:11,2021-03-09,0.22088759820425083,0.49147228859487424,1.1759123522729305,,,,,,,,,,,,
38037,0,USNorthDakotaGrant,North Dakota,Grant,2022-04-28 09:13:11,2021-03-10,0.22088759820425083,0.49147228859487424,1.1759123522729305,,,,,,,,,,,,
38037,0,USNorthDakotaGrant,North Dakota,Grant,2022-04-28 09:13:11,2021-03-11,0.22241176252183614,0.497916309937201,1.198797968973581,,,,,,,,,,,,
38037,0,USNorthDakotaGrant,North Dakota,Grant,2022-04-28 09:13:11,2021-03-12,0.22241176252183614,0.497916309937201,1.198797968973581,,,,,,,,,,,,
38037,0,USNorthDakotaGrant,North Dakota,Grant,2022-04-28 09:13:11,2021-03-13,0.22241176252183614,0.497916309937201,1.198797968973581,,,,,,,,,,,,
38037,0,USNorthDakotaGrant,North Dakota,Grant,2022-04-28 09:13:11,2021-03-14,0.22241176252183614,0.497916309937201,1.198797968973581,,,,,,,,,,,,
38037,0,USNorthDakotaGrant,North Dakota,Grant,2022-04-28 09:13:11,2021-03-15,0.22241176252183614,0.497916309937201,1.198797968973581,,,,,,,,,,,,
38037,0,USNorthDakotaGrant,North Dakota,Grant,2022-04-28 09:13:11,2021-03-16,0.22241176252183614,0.497916309937201,1.198797968973581,,,,,,,,,,,,
38037,0,USNorthDakotaGrant,North Dakota,Grant,2022-04-28 09:13:11,2021-03-17,0.22241176252183614,0.497916309937201,1.198797968973581,,,,,,,,,,,,
38037,0,USNorthDakotaGrant,North Dakota,Grant,2022-04-28 09:13:11,2021-03-18,0.2462140737327695,0.6032615455345568,1.5906675844975793,,,,,,,,,,,,
38037,0,USNorthDakotaGrant,North Dakota,Grant,2022-04-28 09:13:11,2021-03-19,0.2462140737327695,0.6032615455345568,1.5906675844975793,,,,,,,,,,,,
38037,0,USNorthDakotaGrant,North Dakota,Grant,2022-04-28 09:13:11,2021-03-20,0.2462140737327695,0.6032615455345568,1.5906675844975793,,,,,,,,,,,,
38037,0,USNorthDakotaGrant,North Dakota,Grant,2022-04-28 09:13:11,2021-03-21,0.2462140737327695,0.6032615455345568,1.5906675844975793,,,,,,,,,,,,
38037,0,USNorthDakotaGrant,North Dakota,Grant,2022-04-28 09:13:11,2021-03-22,0.2462140737327695,0.6032615455345568,1.5906675844975793,,,,,,,,,,,,
38037,0,USNorthDakotaGrant,North Dakota,Grant,2022-04-28 09:13:11,2021-03-23,0.2462140737327695,0.6032615455345568,1.5906675844975793,,,,,,,,,,,,
38037,0,USNorthDakotaGrant,North Dakota,Grant,2022-04-28 09:13:11,2021-03-24,0.2462140737327695,0.6032615455345568,1.5906675844975793,,,,,,,,,,,,
38037,0,USNorthDakotaGrant,North Dakota,Grant,2022-04-28 09:13:11,2021-03-25,0.575759478540577,1.1284308626739954,2.3693012158721842,,,,,,,,,,,,
38037,0,USNorthDakotaGrant,North Dakota,Grant,2022-04-28 09:13:11,2021-03-26,0.575759478540577,1.1284308626739954,2.3693012158721842,,,,,,,,,,,,
38037,0,USNorthDakotaGrant,North Dakota,Grant,2022-04-28 09:13:11,2021-03-27,0.575759478540577,1.1284308626739954,2.3693012158721842,,,,,,,,,,,,
38037,0,USNorthDakotaGrant,North Dakota,Grant,2022-04-28 09:13:11,2021-03-28,0.575759478540577,1.1284308626739954,2.3693012158721842,,,,,,,,,,,,
38037,0,USNorthDakotaGrant,North Dakota,Grant,2022-04-28 09:13:11,2021-03-29,0.575759478540577,1.1284308626739954,2.3693012158721842,,,,,,,,,,,,
38037,0,USNorthDakotaGrant,North Dakota,Grant,2022-04-28 09:13:11,2021-03-30,0.575759478540577,1.1284308626739954,2.3693012158721842,,,,,,,,,,,,
38037,0,USNorthDakotaGrant,North Dakota,Grant,2022-04-28 09:13:11,2021-03-31,0.575759478540577,1.1284308626739954,2.3693012158721842,,,,,,,,,,,,
38037,0,USNorthDakotaGrant,North Dakota,Grant,2022-04-28 09:13:11,2021-04-01,0.6166392107362954,1.2860543140400955,2.879968033873883,,,,,,,,,,,,
38037,0,USNorthDakotaGrant,North Dakota,Grant,2022-04-28 09:13:11,2021-04-02,0.6166392107362954,1.2860543140400955,2.879968033873883,,,,,,,,,,,,
38037,0,USNorthDakotaGrant,North Dakota,Grant,2022-04-28 09:13:11,2021-04-03,0.6166392107362954,1.2860543140400955,2.879968033873883,,,,,,,,,,,,
38037,0,USNorthDakotaGrant,North Dakota,Grant,2022-04-28 09:13:11,2021-04-04,0.6166392107362954,1.2860543140400955,2.879968033873883,,,,,,,,,,,,
38037,0,USNorthDakotaGrant,North Dakota,Grant,2022-04-28 09:13:11,2021-04-05,0.6166392107362954,1.2860543140400955,2.879968033873883,,,,,,,,,,,,
38037,0,USNorthDakotaGrant,North Dakota,Grant,2022-04-28 09:13:11,2021-04-06,0.6166392107362954,1.2860543140400955,2.879968033873883,,,,,,,,,,,,
38037,0,USNorthDakotaGrant,North Dakota,Grant,2022-04-28 09:13:11,2021-04-07,0.6166392107362954,1.2860543140400955,2.879968033873883,,,,,,,,,,,,
38037,0,USNorthDakotaGrant,North Dakota,Grant,2022-04-28 09:13:11,2021-04-08,0.2476075089002016,0.6096988028116628,1.6156477327291412,,,,,,,,,,,,
38037,0,USNorthDakotaGrant,North Dakota,Grant,2022-04-28 09:13:11,2021-04-09,0.2476075089002016,0.6096988028116628,1.6156477327291412,,,,,,,,,,,,
38037,0,USNorthDakotaGrant,North Dakota,Grant,2022-04-28 09:13:11,2021-04-10,0.2476075089002016,0.6096988028116628,1.6156477327291412,,,,,,,,,,,,
38037,0,USNorthDakotaGrant,North Dakota,Grant,2022-04-28 09:13:11,2021-04-11,0.2476075089002016,0.6096988028116628,1.6156477327291412,,,,,,,,,,,,
38037,0,USNorthDakotaGrant,North Dakota,Grant,2022-04-28 09:13:11,2021-04-12,0.2476075089002016,0.6096988028116628,1.6156477327291412,,,,,,,,,,,,
38037,0,USNorthDakotaGrant,North Dakota,Grant,2022-04-28 09:13:11,2021-04-13,0.2476075089002016,0.6096988028116628,1.6156477327291412,,,,,,,,,,,,
38037,0,USNorthDakotaGrant,North Dakota,Grant,2022-04-28 09:13:11,2021-04-14,0.2476075089002016,0.6096988028116628,1.6156477327291412,,,,,,,,,,,,
38037,0,USNorthDakotaGrant,North Dakota,Grant,2022-04-28 09:13:11,2021-04-15,0.256690223531003,0.6523764716459581,1.784107274893861,,,,,,,,,,,,
38037,0,USNorthDakotaGrant,North Dakota,Grant,2022-04-28 09:13:11,2021-04-16,0.256690223531003,0.6523764716459581,1.784107274893861,,,,,,,,,,,,
38037,0,USNorthDakotaGrant,North Dakota,Grant,2022-04-28 09:13:11,2021-04-17,0.256690223531003,0.6523764716459581,1.784107274893861,,,,,,,,,,,,
38037,0,USNorthDakotaGrant,North Dakota,Grant,2022-04-28 09:13:11,2021-04-18,0.256690223531003,0.6523764716459581,1.784107274893861,,,,,,,,,,,,
38037,0,USNorthDakotaGrant,North Dakota,Grant,2022-04-28 09:13:11,2021-04-19,0.256690223531003,0.6523764716459581,1.784107274893861,,,,,,,,,,,,
38037,0,USNorthDakotaGrant,North Dakota,Grant,2022-04-28 09:13:11,2021-04-20,0.256690223531003,0.6523764716459581,1.784107274893861,,,,,,,,,,,,
38037,0,USNorthDakotaGrant,North Dakota,Grant,2022-04-28 09:13:11,2021-04-21,0.256690223531003,0.6523764716459581,1.784107274893861,,,,,,,,,,,,
38037,0,USNorthDakotaGrant,North Dakota,Grant,2022-04-28 09:13:11,2021-04-22,0.5654152926275186,1.0900240301303357,2.249514434151406,,,,,,,,,,,,
38037,0,USNorthDakotaGrant,North Dakota,Grant,2022-04-28 09:13:11,2021-04-23,0.5654152926275186,1.0900240301303357,2.249514434151406,,,,,,,,,,,,
38037,0,USNorthDakotaGrant,North Dakota,Grant,2022-04-28 09:13:11,2021-04-24,0.5654152926275186,1.0900240301303357,2.249514434151406,,,,,,,,,,,,
38037,0,USNorthDakotaGrant,North Dakota,Grant,2022-04-28 09:13:11,2021-04-25,0.5654152926275186,1.0900240301303357,2.249514434151406,,,,,,,,,,,,
38037,0,USNorthDakotaGrant,North Dakota,Grant,2022-04-28 09:13:11,2021-04-26,0.5654152926275186,1.0900240301303357,2.249514434151406,,,,,,,,,,,,
38037,0,USNorthDakotaGrant,North Dakota,Grant,2022-04-28 09:13:11,2021-04-27,0.5654152926275186,1.0900240301303357,2.249514434151406,,,,,,,,,,,,
38037,0,USNorthDakotaGrant,North Dakota,Grant,2022-04-28 09:13:11,2021-04-28,0.5654152926275186,1.0900240301303357,2.249514434151406,,,,,,,,,,,,
38037,0,USNorthDakotaGrant,North Dakota,Grant,2022-04-28 09:13:11,2021-04-29,1.1145559157204024,1.8412922582521973,3.222704669653298,,,,,,,,,,,,
38037,0,USNorthDakotaGrant,North Dakota,Grant,2022-04-28 09:13:11,2021-04-30,1.1145559157204024,1.8412922582521973,3.222704669653298,,,,,,,,,,,,
38037,0,USNorthDakotaGrant,North Dakota,Grant,2022-04-28 09:13:11,2021-05-01,1.1145559157204024,1.8412922582521973,3.222704669653298,,,,,,,,,,,,
38037,0,USNorthDakotaGrant,North Dakota,Grant,2022-04-28 09:13:11,2021-05-02,1.1145559157204024,1.8412922582521973,3.222704669653298,,,,,,,,,,,,
38037,0,USNorthDakotaGrant,North Dakota,Grant,2022-04-28 09:13:11,2021-05-03,1.1145559157204024,1.8412922582521973,3.222704669653298,,,,,,,,,,,,
38037,0,USNorthDakotaGrant,North Dakota,Grant,2022-04-28 09:13:11,2021-05-04,1.1145559157204024,1.8412922582521973,3.222704669653298,,,,,,,,,,,,
38037,0,USNorthDakotaGrant,North Dakota,Grant,2022-04-28 09:13:11,2021-05-05,1.1145559157204024,1.8412922582521973,3.222704669653298,,,,,,,,,,,,
38037,0,USNorthDakotaGrant,North Dakota,Grant,2022-04-28 09:13:11,2021-05-06,0.5552539462691902,1.052886250858099,2.1354976095184677,,,,,,,,,,,,
38037,0,USNorthDakotaGrant,North Dakota,Grant,2022-04-28 09:13:11,2021-05-07,0.5552539462691902,1.052886250858099,2.1354976095184677,,,,,,,,,,,,
38037,0,USNorthDakotaGrant,North Dakota,Grant,2022-04-28 09:13:11,2021-05-08,0.5552539462691902,1.052886250858099,2.1354976095184677,,,,,,,,,,,,
38037,0,USNorthDakotaGrant,North Dakota,Grant,2022-04-28 09:13:11,2021-05-09,0.5552539462691902,1.052886250858099,2.1354976095184677,,,,,,,,,,,,
38037,0,USNorthDakotaGrant,North Dakota,Grant,2022-04-28 09:13:11,2021-05-10,0.5552539462691902,1.052886250858099,2.1354976095184677,,,,,,,,,,,,
38037,0,USNorthDakotaGrant,North Dakota,Grant,2022-04-28 09:13:11,2021-05-11,0.5552539462691902,1.052886250858099,2.1354976095184677,,,,,,,,,,,,
38037,0,USNorthDakotaGrant,North Dakota,Grant,2022-04-28 09:13:11,2021-05-12,0.5552539462691902,1.052886250858099,2.1354976095184677,,,,,,,,,,,,
38037,0,USNorthDakotaGrant,North Dakota,Grant,2022-04-28 09:13:11,2021-05-13,0.4052907524512317,0.834482612584626,1.8441422674427839,,,,,,,,,,,,
38037,0,USNorthDakotaGrant,North Dakota,Grant,2022-04-28 09:13:11,2021-05-14,0.4052907524512317,0.834482612584626,1.8441422674427839,,,,,,,,,,,,
38037,0,USNorthDakotaGrant,North Dakota,Grant,2022-04-28 09:13:11,2021-05-15,0.4052907524512317,0.834482612584626,1.8441422674427839,,,,,,,,,,,,
38037,0,USNorthDakotaGrant,North Dakota,Grant,2022-04-28 09:13:11,2021-05-16,0.4052907524512317,0.834482612584626,1.8441422674427839,,,,,,,,,,,,
38037,0,USNorthDakotaGrant,North Dakota,Grant,2022-04-28 09:13:11,2021-05-17,0.4052907524512317,0.834482612584626,1.8441422674427839,,,,,,,,,,,,
38037,0,USNorthDakotaGrant,North Dakota,Grant,2022-04-28 09:13:11,2021-05-18,0.4052907524512317,0.834482612584626,1.8441422674427839,,,,,,,,,,,,
38037,0,USNorthDakotaGrant,North Dakota,Grant,2022-04-28 09:13:11,2021-05-19,0.4052907524512317,0.834482612584626,1.8441422674427839,,,,,,,,,,,,
38037,0,USNorthDakotaGrant,North Dakota,Grant,2022-04-28 09:13:11,2021-05-20,0,0,0,,,,,,,,,,,,
38037,0,USNorthDakotaGrant,North Dakota,Grant,2022-04-28 09:13:11,2021-05-21,0,0,0,,,,,,,,,,,,
38037,0,USNorthDakotaGrant,North Dakota,Grant,2022-04-28 09:13:11,2021-05-22,0,0,0,,,,,,,,,,,,
38037,0,USNorthDakotaGrant,North Dakota,Grant,2022-04-28 09:13:11,2021-05-23,0,0,0,,,,,,,,,,,,
38037,0,USNorthDakotaGrant,North Dakota,Grant,2022-04-28 09:13:11,2021-05-24,0,0,0,,,,,,,,,,,,
38037,0,USNorthDakotaGrant,North Dakota,Grant,2022-04-28 09:13:11,2021-05-25,0,0,0,,,,,,,,,,,,
38037,0,USNorthDakotaGrant,North Dakota,Grant,2022-04-28 09:13:11,2021-05-26,0,0,0,,,,,,,,,,,,
38037,0,USNorthDakotaGrant,North Dakota,Grant,2022-04-28 09:13:11,2021-05-27,0,0,0,,,,,,,,,,,,
38037,0,USNorthDakotaGrant,North Dakota,Grant,2022-04-28 09:13:11,2021-05-28,0,0,0,,,,,,,,,,,,
38037,0,USNorthDakotaGrant,North Dakota,Grant,2022-04-28 09:13:11,2021-05-29,0,0,0,,,,,,,,,,,,
38037,0,USNorthDakotaGrant,North Dakota,Grant,2022-04-28 09:13:11,2021-05-30,0,0,0,,,,,,,,,,,,
38037,0,USNorthDakotaGrant,North Dakota,Grant,2022-04-28 09:13:11,2021-05-31,0,0,0,,,,,,,,,,,,
38037,0,USNorthDakotaGrant,North Dakota,Grant,2022-04-28 09:13:11,2021-06-01,0,0,0,,,,,,,,,,,,
38037,0,USNorthDakotaGrant,North Dakota,Grant,2022-04-28 09:13:11,2021-06-02,0,0,0,,,,,,,,,,,,
38037,0,USNorthDakotaGrant,North Dakota,Grant,2022-04-28 09:13:11,2021-06-03,0,0,0,,,,,,,,,,,,
38037,0,USNorthDakotaGrant,North Dakota,Grant,2022-04-28 09:13:11,2021-06-04,0,0,0,,,,,,,,,,,,
38037,0,USNorthDakotaGrant,North Dakota,Grant,2022-04-28 09:13:11,2021-06-05,0,0,0,,,,,,,,,,,,
38037,0,USNorthDakotaGrant,North Dakota,Grant,2022-04-28 09:13:11,2021-06-06,0,0,0,,,,,,,,,,,,
38037,0,USNorthDakotaGrant,North Dakota,Grant,2022-04-28 09:13:11,2021-06-07,0,0,0,,,,,,,,,,,,
38037,0,USNorthDakotaGrant,North Dakota,Grant,2022-04-28 09:13:11,2021-06-08,0,0,0,,,,,,,,,,,,
38037,0,USNorthDakotaGrant,North Dakota,Grant,2022-04-28 09:13:11,2021-06-09,0,0,0,,,,,,,,,,,,
38037,0,USNorthDakotaGrant,North Dakota,Grant,2022-04-28 09:13:11,2021-06-10,0,0,0,,,,,,,,,,,,
38037,0,USNorthDakotaGrant,North Dakota,Grant,2022-04-28 09:13:11,2021-06-11,0,0,0,,,,,,,,,,,,
38037,0,USNorthDakotaGrant,North Dakota,Grant,2022-04-28 09:13:11,2021-06-12,0,0,0,,,,,,,,,,,,
38037,0,USNorthDakotaGrant,North Dakota,Grant,2022-04-28 09:13:11,2021-06-13,0,0,0,,,,,,,,,,,,
38037,0,USNorthDakotaGrant,North Dakota,Grant,2022-04-28 09:13:11,2021-06-14,0,0,0,,,,,,,,,,,,
38037,0,USNorthDakotaGrant,North Dakota,Grant,2022-04-28 09:13:11,2021-06-15,0,0,0,,,,,,,,,,,,
38037,0,USNorthDakotaGrant,North Dakota,Grant,2022-04-28 09:13:11,2021-06-16,0,0,0,,,,,,,,,,,,
38037,0,USNorthDakotaGrant,North Dakota,Grant,2022-04-28 09:13:11,2021-06-17,0,0,0,,,,,,,,,,,,
38037,0,USNorthDakotaGrant,North Dakota,Grant,2022-04-28 09:13:11,2021-06-18,0,0,0,,,,,,,,,,,,
38037,0,USNorthDakotaGrant,North Dakota,Grant,2022-04-28 09:13:11,2021-06-19,0,0,0,,,,,,,,,,,,
38037,0,USNorthDakotaGrant,North Dakota,Grant,2022-04-28 09:13:11,2021-06-20,0,0,0,,,,,,,,,,,,
38037,0,USNorthDakotaGrant,North Dakota,Grant,2022-04-28 09:13:11,2021-06-21,0,0,0,,,,,,,,,,,,
38037,0,USNorthDakotaGrant,North Dakota,Grant,2022-04-28 09:13:11,2021-06-22,0,0,0,,,,,,,,,,,,
38037,0,USNorthDakotaGrant,North Dakota,Grant,2022-04-28 09:13:11,2021-06-23,0,0,0,,,,,,,,,,,,
38037,0,USNorthDakotaGrant,North Dakota,Grant,2022-04-28 09:13:11,2021-06-24,0,0,0,,,,,,,,,,,,
38037,0,USNorthDakotaGrant,North Dakota,Grant,2022-04-28 09:13:11,2021-06-25,0,0,0,,,,,,,,,,,,
38037,0,USNorthDakotaGrant,North Dakota,Grant,2022-04-28 09:13:11,2021-06-26,0,0,0,,,,,,,,,,,,
38037,0,USNorthDakotaGrant,North Dakota,Grant,2022-04-28 09:13:11,2021-06-27,0,0,0,,,,,,,,,,,,
38037,0,USNorthDakotaGrant,North Dakota,Grant,2022-04-28 09:13:11,2021-06-28,0,0,0,,,,,,,,,,,,
38037,0,USNorthDakotaGrant,North Dakota,Grant,2022-04-28 09:13:11,2021-06-29,0,0,0,,,,,,,,,,,,
38037,0,USNorthDakotaGrant,North Dakota,Grant,2022-04-28 09:13:11,2021-06-30,0,0,0,,,,,,,,,,,,
38037,0,USNorthDakotaGrant,North Dakota,Grant,2022-04-28 09:13:11,2021-07-01,0,0,0,,,,,,,,,,,,
38037,0,USNorthDakotaGrant,North Dakota,Grant,2022-04-28 09:13:11,2021-07-02,0,0,0,,,,,,,,,,,,
38037,0,USNorthDakotaGrant,North Dakota,Grant,2022-04-28 09:13:11,2021-07-03,0,0,0,,,,,,,,,,,,
38037,0,USNorthDakotaGrant,North Dakota,Grant,2022-04-28 09:13:11,2021-07-04,0,0,0,,,,,,,,,,,,
38037,0,USNorthDakotaGrant,North Dakota,Grant,2022-04-28 09:13:11,2021-07-05,0,0,0,,,,,,,,,,,,
38037,0,USNorthDakotaGrant,North Dakota,Grant,2022-04-28 09:13:11,2021-07-06,0,0,0,,,,,,,,,,,,
38037,0,USNorthDakotaGrant,North Dakota,Grant,2022-04-28 09:13:11,2021-07-07,0,0,0,,,,,,,,,,,,
38037,0,USNorthDakotaGrant,North Dakota,Grant,2022-04-28 09:13:11,2021-07-08,0,0,0,,,,,,,,,,,,
38037,0,USNorthDakotaGrant,North Dakota,Grant,2022-04-28 09:13:11,2021-07-09,0,0,0,,,,,,,,,,,,
38037,0,USNorthDakotaGrant,North Dakota,Grant,2022-04-28 09:13:11,2021-07-10,0,0,0,,,,,,,,,,,,
38037,0,USNorthDakotaGrant,North Dakota,Grant,2022-04-28 09:13:11,2021-07-11,0,0,0,,,,,,,,,,,,
38037,0,USNorthDakotaGrant,North Dakota,Grant,2022-04-28 09:13:11,2021-07-12,0,0,0,,,,,,,,,,,,
38037,0,USNorthDakotaGrant,North Dakota,Grant,2022-04-28 09:13:11,2021-07-13,0,0,0,,,,,,,,,,,,
38037,0,USNorthDakotaGrant,North Dakota,Grant,2022-04-28 09:13:11,2021-07-14,0,0,0,,,,,,,,,,,,
38037,0,USNorthDakotaGrant,North Dakota,Grant,2022-04-28 09:13:11,2021-07-15,0,0,0,,,,,,,,,,,,
38037,0,USNorthDakotaGrant,North Dakota,Grant,2022-04-28 09:13:11,2021-07-16,0,0,0,,,,,,,,,,,,
38037,0,USNorthDakotaGrant,North Dakota,Grant,2022-04-28 09:13:11,2021-07-17,0,0,0,,,,,,,,,,,,
38037,0,USNorthDakotaGrant,North Dakota,Grant,2022-04-28 09:13:11,2021-07-18,0,0,0,,,,,,,,,,,,
38037,0,USNorthDakotaGrant,North Dakota,Grant,2022-04-28 09:13:11,2021-07-19,0,0,0,,,,,,,,,,,,
38037,0,USNorthDakotaGrant,North Dakota,Grant,2022-04-28 09:13:11,2021-07-20,0,0,0,,,,,,,,,,,,
38037,0,USNorthDakotaGrant,North Dakota,Grant,2022-04-28 09:13:11,2021-07-21,0,0,0,,,,,,,,,,,,
38037,0,USNorthDakotaGrant,North Dakota,Grant,2022-04-28 09:13:11,2021-07-22,0,0,0,,,,,,,,,,,,
38037,0,USNorthDakotaGrant,North Dakota,Grant,2022-04-28 09:13:11,2021-07-23,0,0,0,,,,,,,,,,,,
38037,0,USNorthDakotaGrant,North Dakota,Grant,2022-04-28 09:13:11,2021-07-24,0,0,0,,,,,,,,,,,,
38037,0,USNorthDakotaGrant,North Dakota,Grant,2022-04-28 09:13:11,2021-07-25,0,0,0,,,,,,,,,,,,
38037,0,USNorthDakotaGrant,North Dakota,Grant,2022-04-28 09:13:11,2021-07-26,0,0,0,,,,,,,,,,,,
38037,0,USNorthDakotaGrant,North Dakota,Grant,2022-04-28 09:13:11,2021-07-27,0,0,0,,,,,,,,,,,,
38037,0,USNorthDakotaGrant,North Dakota,Grant,2022-04-28 09:13:11,2021-07-28,0,0,0,,,,,,,,,,,,
38037,0,USNorthDakotaGrant,North Dakota,Grant,2022-04-28 09:13:11,2021-07-29,0,0,0,,,,,,,,,,,,
38037,0,USNorthDakotaGrant,North Dakota,Grant,2022-04-28 09:13:11,2021-07-30,0,0,0,,,,,,,,,,,,
38037,0,USNorthDakotaGrant,North Dakota,Grant,2022-04-28 09:13:11,2021-07-31,0,0,0,,,,,,,,,,,,
38037,0,USNorthDakotaGrant,North Dakota,Grant,2022-04-28 09:13:11,2021-08-01,0,0,0,,,,,,,,,,,,
38037,0,USNorthDakotaGrant,North Dakota,Grant,2022-04-28 09:13:11,2021-08-02,0,0,0,,,,,,,,,,,,
38037,0,USNorthDakotaGrant,North Dakota,Grant,2022-04-28 09:13:11,2021-08-03,0,0,0,,,,,,,,,,,,
38037,0,USNorthDakotaGrant,North Dakota,Grant,2022-04-28 09:13:11,2021-08-04,0,0,0,,,,,,,,,,,,
38037,0,USNorthDakotaGrant,North Dakota,Grant,2022-04-28 09:13:11,2021-08-05,0,0,0,,,,,,,,,,,,
38037,0,USNorthDakotaGrant,North Dakota,Grant,2022-04-28 09:13:11,2021-08-06,0,0,0,,,,,,,,,,,,
38037,0,USNorthDakotaGrant,North Dakota,Grant,2022-04-28 09:13:11,2021-08-07,0,0,0,,,,,,,,,,,,
38037,0,USNorthDakotaGrant,North Dakota,Grant,2022-04-28 09:13:11,2021-08-08,0,0,0,,,,,,,,,,,,
38037,0,USNorthDakotaGrant,North Dakota,Grant,2022-04-28 09:13:11,2021-08-09,0,0,0,,,,,,,,,,,,
38037,0,USNorthDakotaGrant,North Dakota,Grant,2022-04-28 09:13:11,2021-08-10,0,0,0,,,,,,,,,,,,
38037,0,USNorthDakotaGrant,North Dakota,Grant,2022-04-28 09:13:11,2021-08-11,0,0,0,,,,,,,,,,,,
38037,0,USNorthDakotaGrant,North Dakota,Grant,2022-04-28 09:13:11,2021-08-12,0.7635260942096628,1.4890693985999428,3.1104449867294277,,,,,,,,,,,,
38037,0,USNorthDakotaGrant,North Dakota,Grant,2022-04-28 09:13:11,2021-08-13,0.7635260942096628,1.4890693985999428,3.1104449867294277,,,,,,,,,,,,
38037,0,USNorthDakotaGrant,North Dakota,Grant,2022-04-28 09:13:11,2021-08-14,0.7635260942096628,1.4890693985999428,3.1104449867294277,,,,,,,,,,,,
38037,0,USNorthDakotaGrant,North Dakota,Grant,2022-04-28 09:13:11,2021-08-15,0.7635260942096628,1.4890693985999428,3.1104449867294277,,,,,,,,,,,,
38037,0,USNorthDakotaGrant,North Dakota,Grant,2022-04-28 09:13:11,2021-08-16,0.7635260942096628,1.4890693985999428,3.1104449867294277,,,,,,,,,,,,
38037,0,USNorthDakotaGrant,North Dakota,Grant,2022-04-28 09:13:11,2021-08-17,0.7635260942096628,1.4890693985999428,3.1104449867294277,,,,,,,,,,,,
38037,0,USNorthDakotaGrant,North Dakota,Grant,2022-04-28 09:13:11,2021-08-18,0.7635260942096628,1.4890693985999428,3.1104449867294277,,,,,,,,,,,,
38037,0,USNorthDakotaGrant,North Dakota,Grant,2022-04-28 09:13:11,2021-08-19,1.4721657518689215,2.493009522109501,4.482019600406365,,,,,,,,,,,,
38037,0,USNorthDakotaGrant,North Dakota,Grant,2022-04-28 09:13:11,2021-08-20,1.4721657518689215,2.493009522109501,4.482019600406365,,,,,,,,,,,,
38037,0,USNorthDakotaGrant,North Dakota,Grant,2022-04-28 09:13:11,2021-08-21,1.4721657518689215,2.493009522109501,4.482019600406365,,,,,,,,,,,,
38037,0,USNorthDakotaGrant,North Dakota,Grant,2022-04-28 09:13:11,2021-08-22,1.4721657518689215,2.493009522109501,4.482019600406365,,,,,,,,,,,,
38037,0,USNorthDakotaGrant,North Dakota,Grant,2022-04-28 09:13:11,2021-08-23,1.4721657518689215,2.493009522109501,4.482019600406365,,,,,,,,,,,,
38037,0,USNorthDakotaGrant,North Dakota,Grant,2022-04-28 09:13:11,2021-08-24,1.4721657518689215,2.493009522109501,4.482019600406365,,,,,,,,,,,,
38037,0,USNorthDakotaGrant,North Dakota,Grant,2022-04-28 09:13:11,2021-08-25,1.4721657518689215,2.493009522109501,4.482019600406365,,,,,,,,,,,,
38037,0,USNorthDakotaGrant,North Dakota,Grant,2022-04-28 09:13:11,2021-08-26,0.8007487785502058,1.63061271802109,3.5626246164310196,,,,,,,,,,,,
38037,0,USNorthDakotaGrant,North Dakota,Grant,2022-04-28 09:13:11,2021-08-27,0.8007487785502058,1.63061271802109,3.5626246164310196,,,,,,,,,,,,
38037,0,USNorthDakotaGrant,North Dakota,Grant,2022-04-28 09:13:11,2021-08-28,0.8007487785502058,1.63061271802109,3.5626246164310196,,,,,,,,,,,,
38037,0,USNorthDakotaGrant,North Dakota,Grant,2022-04-28 09:13:11,2021-08-29,0.8007487785502058,1.63061271802109,3.5626246164310196,,,,,,,,,,,,
38037,0,USNorthDakotaGrant,North Dakota,Grant,2022-04-28 09:13:11,2021-08-30,0.8007487785502058,1.63061271802109,3.5626246164310196,,,,,,,,,,,,
38037,0,USNorthDakotaGrant,North Dakota,Grant,2022-04-28 09:13:11,2021-08-31,0.8007487785502058,1.63061271802109,3.5626246164310196,,,,,,,,,,,,
38037,0,USNorthDakotaGrant,North Dakota,Grant,2022-04-28 09:13:11,2021-09-01,0.8007487785502058,1.63061271802109,3.5626246164310196,,,,,,,,,,,,
38037,0,USNorthDakotaGrant,North Dakota,Grant,2022-04-28 09:13:11,2021-09-02,1.1119823466889012,2.111121790232862,4.287297189701655,,,,,,,,,,,,
38037,0,USNorthDakotaGrant,North Dakota,Grant,2022-04-28 09:13:11,2021-09-03,1.1119823466889012,2.111121790232862,4.287297189701655,,,,,,,,,,,,
38037,0,USNorthDakotaGrant,North Dakota,Grant,2022-04-28 09:13:11,2021-09-04,1.1119823466889012,2.111121790232862,4.287297189701655,,,,,,,,,,,,
38037,0,USNorthDakotaGrant,North Dakota,Grant,2022-04-28 09:13:11,2021-09-05,1.1119823466889012,2.111121790232862,4.287297189701655,,,,,,,,,,,,
38037,0,USNorthDakotaGrant,North Dakota,Grant,2022-04-28 09:13:11,2021-09-06,1.1119823466889012,2.111121790232862,4.287297189701655,,,,,,,,,,,,
38037,0,USNorthDakotaGrant,North Dakota,Grant,2022-04-28 09:13:11,2021-09-07,1.1119823466889012,2.111121790232862,4.287297189701655,,,,,,,,,,,,
38037,0,USNorthDakotaGrant,North Dakota,Grant,2022-04-28 09:13:11,2021-09-08,1.1119823466889012,2.111121790232862,4.287297189701655,,,,,,,,,,,,
38037,0,USNorthDakotaGrant,North Dakota,Grant,2022-04-28 09:13:11,2021-09-09,2.7695605191388912,4.219783818835638,6.75745112937039,,,,,,,,,,,,
38037,0,USNorthDakotaGrant,North Dakota,Grant,2022-04-28 09:13:11,2021-09-10,2.7695605191388912,4.219783818835638,6.75745112937039,,,,,,,,,,,,
38037,0,USNorthDakotaGrant,North Dakota,Grant,2022-04-28 09:13:11,2021-09-11,2.7695605191388912,4.219783818835638,6.75745112937039,,,,,,,,,,,,
38037,0,USNorthDakotaGrant,North Dakota,Grant,2022-04-28 09:13:11,2021-09-12,2.7695605191388912,4.219783818835638,6.75745112937039,,,,,,,,,,,,
38037,0,USNorthDakotaGrant,North Dakota,Grant,2022-04-28 09:13:11,2021-09-13,2.7695605191388912,4.219783818835638,6.75745112937039,,,,,,,,,,,,
38037,0,USNorthDakotaGrant,North Dakota,Grant,2022-04-28 09:13:11,2021-09-14,2.7695605191388912,4.219783818835638,6.75745112937039,,,,,,,,,,,,
38037,0,USNorthDakotaGrant,North Dakota,Grant,2022-04-28 09:13:11,2021-09-15,2.7695605191388912,4.219783818835638,6.75745112937039,,,,,,,,,,,,
38037,0,USNorthDakotaGrant,North Dakota,Grant,2022-04-28 09:13:11,2021-09-16,0.9770961126775805,1.9467073584303083,4.157895565785708,,,,,,,,,,,,
38037,0,USNorthDakotaGrant,North Dakota,Grant,2022-04-28 09:13:11,2021-09-17,0.9770961126775805,1.9467073584303083,4.157895565785708,,,,,,,,,,,,
38037,0,USNorthDakotaGrant,North Dakota,Grant,2022-04-28 09:13:11,2021-09-18,0.9770961126775805,1.9467073584303083,4.157895565785708,,,,,,,,,,,,
38037,0,USNorthDakotaGrant,North Dakota,Grant,2022-04-28 09:13:11,2021-09-19,0.9770961126775805,1.9467073584303083,4.157895565785708,,,,,,,,,,,,
38037,0,USNorthDakotaGrant,North Dakota,Grant,2022-04-28 09:13:11,2021-09-20,0.9770961126775805,1.9467073584303083,4.157895565785708,,,,,,,,,,,,
38037,0,USNorthDakotaGrant,North Dakota,Grant,2022-04-28 09:13:11,2021-09-21,0.9770961126775805,1.9467073584303083,4.157895565785708,,,,,,,,,,,,
38037,0,USNorthDakotaGrant,North Dakota,Grant,2022-04-28 09:13:11,2021-09-22,0.9770961126775805,1.9467073584303083,4.157895565785708,,,,,,,,,,,,
38037,0,USNorthDakotaGrant,North Dakota,Grant,2022-04-28 09:13:11,2021-09-23,2.7765257806245196,4.455382981604091,7.554192548029345,,,,,,,,,,,,
38037,0,USNorthDakotaGrant,North Dakota,Grant,2022-04-28 09:13:11,2021-09-24,2.7765257806245196,4.455382981604091,7.554192548029345,,,,,,,,,,,,
38037,0,USNorthDakotaGrant,North Dakota,Grant,2022-04-28 09:13:11,2021-09-25,2.7765257806245196,4.455382981604091,7.554192548029345,,,,,,,,,,,,
38037,0,USNorthDakotaGrant,North Dakota,Grant,2022-04-28 09:13:11,2021-09-26,2.7765257806245196,4.455382981604091,7.554192548029345,,,,,,,,,,,,
38037,0,USNorthDakotaGrant,North Dakota,Grant,2022-04-28 09:13:11,2021-09-27,2.7765257806245196,4.455382981604091,7.554192548029345,,,,,,,,,,,,
38037,0,USNorthDakotaGrant,North Dakota,Grant,2022-04-28 09:13:11,2021-09-28,2.7765257806245196,4.455382981604091,7.554192548029345,,,,,,,,,,,,
38037,0,USNorthDakotaGrant,North Dakota,Grant,2022-04-28 09:13:11,2021-09-29,2.7765257806245196,4.455382981604091,7.554192548029345,,,,,,,,,,,,
38037,0,USNorthDakotaGrant,North Dakota,Grant,2022-04-28 09:13:11,2021-09-30,2.293694970878199,3.8899066069507797,7.004492051298422,,,,,,,,,,,,
38037,0,USNorthDakotaGrant,North Dakota,Grant,2022-04-28 09:13:11,2021-10-01,2.293694970878199,3.8899066069507797,7.004492051298422,,,,,,,,,,,,
38037,0,USNorthDakotaGrant,North Dakota,Grant,2022-04-28 09:13:11,2021-10-02,2.293694970878199,3.8899066069507797,7.004492051298422,,,,,,,,,,,,
38037,0,USNorthDakotaGrant,North Dakota,Grant,2022-04-28 09:13:11,2021-10-03,2.293694970878199,3.8899066069507797,7.004492051298422,,,,,,,,,,,,
38037,0,USNorthDakotaGrant,North Dakota,Grant,2022-04-28 09:13:11,2021-10-04,2.293694970878199,3.8899066069507797,7.004492051298422,,,,,,,,,,,,
38037,0,USNorthDakotaGrant,North Dakota,Grant,2022-04-28 09:13:11,2021-10-05,2.293694970878199,3.8899066069507797,7.004492051298422,,,,,,,,,,,,
38037,0,USNorthDakotaGrant,North Dakota,Grant,2022-04-28 09:13:11,2021-10-06,2.293694970878199,3.8899066069507797,7.004492051298422,,,,,,,,,,,,
38037,0,USNorthDakotaGrant,North Dakota,Grant,2022-04-28 09:13:11,2021-10-07,2.5844416152903618,4.092261229183556,6.837801554063437,,,,,,,,,,,,
38037,0,USNorthDakotaGrant,North Dakota,Grant,2022-04-28 09:13:11,2021-10-08,2.5844416152903618,4.092261229183556,6.837801554063437,,,,,,,,,,,,
38037,0,USNorthDakotaGrant,North Dakota,Grant,2022-04-28 09:13:11,2021-10-09,2.5844416152903618,4.092261229183556,6.837801554063437,,,,,,,,,,,,
38037,0,USNorthDakotaGrant,North Dakota,Grant,2022-04-28 09:13:11,2021-10-10,2.5844416152903618,4.092261229183556,6.837801554063437,,,,,,,,,,,,
38037,0,USNorthDakotaGrant,North Dakota,Grant,2022-04-28 09:13:11,2021-10-11,2.5844416152903618,4.092261229183556,6.837801554063437,,,,,,,,,,,,
38037,0,USNorthDakotaGrant,North Dakota,Grant,2022-04-28 09:13:11,2021-10-12,2.5844416152903618,4.092261229183556,6.837801554063437,,,,,,,,,,,,
38037,0,USNorthDakotaGrant,North Dakota,Grant,2022-04-28 09:13:11,2021-10-13,2.5844416152903618,4.092261229183556,6.837801554063437,,,,,,,,,,,,
38037,0,USNorthDakotaGrant,North Dakota,Grant,2022-04-28 09:13:11,2021-10-14,1.6886050759492406,2.9441990114880325,5.462165883611037,,,,,,,,,,,,
38037,0,USNorthDakotaGrant,North Dakota,Grant,2022-04-28 09:13:11,2021-10-15,1.6886050759492406,2.9441990114880325,5.462165883611037,,,,,,,,,,,,
38037,0,USNorthDakotaGrant,North Dakota,Grant,2022-04-28 09:13:11,2021-10-16,1.6886050759492406,2.9441990114880325,5.462165883611037,,,,,,,,,,,,
38037,0,USNorthDakotaGrant,North Dakota,Grant,2022-04-28 09:13:11,2021-10-17,1.6886050759492406,2.9441990114880325,5.462165883611037,,,,,,,,,,,,
38037,0,USNorthDakotaGrant,North Dakota,Grant,2022-04-28 09:13:11,2021-10-18,1.6886050759492406,2.9441990114880325,5.462165883611037,,,,,,,,,,,,
38037,0,USNorthDakotaGrant,North Dakota,Grant,2022-04-28 09:13:11,2021-10-19,1.6886050759492406,2.9441990114880325,5.462165883611037,,,,,,,,,,,,
38037,0,USNorthDakotaGrant,North Dakota,Grant,2022-04-28 09:13:11,2021-10-20,1.6886050759492406,2.9441990114880325,5.462165883611037,,,,,,,,,,,,
38037,0,USNorthDakotaGrant,North Dakota,Grant,2022-04-28 09:13:11,2021-10-21,1.175234618357175,2.3463946309194275,5.022538513838066,,,,,,,,,,,,
38037,0,USNorthDakotaGrant,North Dakota,Grant,2022-04-28 09:13:11,2021-10-22,1.175234618357175,2.3463946309194275,5.022538513838066,,,,,,,,,,,,
38037,0,USNorthDakotaGrant,North Dakota,Grant,2022-04-28 09:13:11,2021-10-23,1.175234618357175,2.3463946309194275,5.022538513838066,,,,,,,,,,,,
38037,0,USNorthDakotaGrant,North Dakota,Grant,2022-04-28 09:13:11,2021-10-24,1.175234618357175,2.3463946309194275,5.022538513838066,,,,,,,,,,,,
38037,0,USNorthDakotaGrant,North Dakota,Grant,2022-04-28 09:13:11,2021-10-25,1.175234618357175,2.3463946309194275,5.022538513838066,,,,,,,,,,,,
38037,0,USNorthDakotaGrant,North Dakota,Grant,2022-04-28 09:13:11,2021-10-26,1.175234618357175,2.3463946309194275,5.022538513838066,,,,,,,,,,,,
38037,0,USNorthDakotaGrant,North Dakota,Grant,2022-04-28 09:13:11,2021-10-27,1.175234618357175,2.3463946309194275,5.022538513838066,,,,,,,,,,,,
38037,0,USNorthDakotaGrant,North Dakota,Grant,2022-04-28 09:13:11,2021-10-28,1.6924590035711715,2.957093361801832,5.498404767581466,,,,,,,,,,,,
38037,0,USNorthDakotaGrant,North Dakota,Grant,2022-04-28 09:13:11,2021-10-29,1.6924590035711715,2.957093361801832,5.498404767581466,,,,,,,,,,,,
38037,0,USNorthDakotaGrant,North Dakota,Grant,2022-04-28 09:13:11,2021-10-30,1.6924590035711715,2.957093361801832,5.498404767581466,,,,,,,,,,,,
38037,0,USNorthDakotaGrant,North Dakota,Grant,2022-04-28 09:13:11,2021-10-31,1.6924590035711715,2.957093361801832,5.498404767581466,,,,,,,,,,,,
38037,0,USNorthDakotaGrant,North Dakota,Grant,2022-04-28 09:13:11,2021-11-01,1.6924590035711715,2.957093361801832,5.498404767581466,,,,,,,,,,,,
38037,0,USNorthDakotaGrant,North Dakota,Grant,2022-04-28 09:13:11,2021-11-02,1.6924590035711715,2.957093361801832,5.498404767581466,,,,,,,,,,,,
38037,0,USNorthDakotaGrant,North Dakota,Grant,2022-04-28 09:13:11,2021-11-03,1.6924590035711715,2.957093361801832,5.498404767581466,,,,,,,,,,,,
38037,0,USNorthDakotaGrant,North Dakota,Grant,2022-04-28 09:13:11,2021-11-04,1.3062018861814608,2.4953402999523164,5.100831488525587,,,,,,,,,,,,
38037,0,USNorthDakotaGrant,North Dakota,Grant,2022-04-28 09:13:11,2021-11-05,1.3062018861814608,2.4953402999523164,5.100831488525587,,,,,,,,,,,,
38037,0,USNorthDakotaGrant,North Dakota,Grant,2022-04-28 09:13:11,2021-11-06,1.3062018861814608,2.4953402999523164,5.100831488525587,,,,,,,,,,,,
38037,0,USNorthDakotaGrant,North Dakota,Grant,2022-04-28 09:13:11,2021-11-07,1.3062018861814608,2.4953402999523164,5.100831488525587,,,,,,,,,,,,
38037,0,USNorthDakotaGrant,North Dakota,Grant,2022-04-28 09:13:11,2021-11-08,1.3062018861814608,2.4953402999523164,5.100831488525587,,,,,,,,,,,,
38037,0,USNorthDakotaGrant,North Dakota,Grant,2022-04-28 09:13:11,2021-11-09,1.3062018861814608,2.4953402999523164,5.100831488525587,,,,,,,,,,,,
38037,0,USNorthDakotaGrant,North Dakota,Grant,2022-04-28 09:13:11,2021-11-10,1.3062018861814608,2.4953402999523164,5.100831488525587,,,,,,,,,,,,
38037,0,USNorthDakotaGrant,North Dakota,Grant,2022-04-28 09:13:11,2021-11-11,1.1859933776149867,2.3875292535154857,5.154648104171864,,,,,,,,,,,,
38037,0,USNorthDakotaGrant,North Dakota,Grant,2022-04-28 09:13:11,2021-11-12,1.1859933776149867,2.3875292535154857,5.154648104171864,,,,,,,,,,,,
38037,0,USNorthDakotaGrant,North Dakota,Grant,2022-04-28 09:13:11,2021-11-13,1.1859933776149867,2.3875292535154857,5.154648104171864,,,,,,,,,,,,
38037,0,USNorthDakotaGrant,North Dakota,Grant,2022-04-28 09:13:11,2021-11-14,1.1859933776149867,2.3875292535154857,5.154648104171864,,,,,,,,,,,,
38037,0,USNorthDakotaGrant,North Dakota,Grant,2022-04-28 09:13:11,2021-11-15,1.1859933776149867,2.3875292535154857,5.154648104171864,,,,,,,,,,,,
38037,0,USNorthDakotaGrant,North Dakota,Grant,2022-04-28 09:13:11,2021-11-16,1.1859933776149867,2.3875292535154857,5.154648104171864,,,,,,,,,,,,
38037,0,USNorthDakotaGrant,North Dakota,Grant,2022-04-28 09:13:11,2021-11-17,1.1859933776149867,2.3875292535154857,5.154648104171864,,,,,,,,,,,,
38037,0,USNorthDakotaGrant,North Dakota,Grant,2022-04-28 09:13:11,2021-11-18,1.2976404653400933,2.4641652314005085,5.005475171723605,,,,,,,,,,,,
38037,0,USNorthDakotaGrant,North Dakota,Grant,2022-04-28 09:13:11,2021-11-19,1.2976404653400933,2.4641652314005085,5.005475171723605,,,,,,,,,,,,
38037,0,USNorthDakotaGrant,North Dakota,Grant,2022-04-28 09:13:11,2021-11-20,1.2976404653400933,2.4641652314005085,5.005475171723605,,,,,,,,,,,,
38037,0,USNorthDakotaGrant,North Dakota,Grant,2022-04-28 09:13:11,2021-11-21,1.2976404653400933,2.4641652314005085,5.005475171723605,,,,,,,,,,,,
38037,0,USNorthDakotaGrant,North Dakota,Grant,2022-04-28 09:13:11,2021-11-22,1.2976404653400933,2.4641652314005085,5.005475171723605,,,,,,,,,,,,
38037,0,USNorthDakotaGrant,North Dakota,Grant,2022-04-28 09:13:11,2021-11-23,1.2976404653400933,2.4641652314005085,5.005475171723605,,,,,,,,,,,,
38037,0,USNorthDakotaGrant,North Dakota,Grant,2022-04-28 09:13:11,2021-11-24,1.2976404653400933,2.4641652314005085,5.005475171723605,,,,,,,,,,,,
38037,0,USNorthDakotaGrant,North Dakota,Grant,2022-04-28 09:13:11,2021-11-25,0.5187879582323645,1.330639360930301,3.6723091817418467,,,,,,,,,,,,
38037,0,USNorthDakotaGrant,North Dakota,Grant,2022-04-28 09:13:11,2021-11-26,0.5187879582323645,1.330639360930301,3.6723091817418467,,,,,,,,,,,,
38037,0,USNorthDakotaGrant,North Dakota,Grant,2022-04-28 09:13:11,2021-11-27,0.5187879582323645,1.330639360930301,3.6723091817418467,,,,,,,,,,,,
38037,0,USNorthDakotaGrant,North Dakota,Grant,2022-04-28 09:13:11,2021-11-28,0.5187879582323645,1.330639360930301,3.6723091817418467,,,,,,,,,,,,
38037,0,USNorthDakotaGrant,North Dakota,Grant,2022-04-28 09:13:11,2021-11-29,0.5187879582323645,1.330639360930301,3.6723091817418467,,,,,,,,,,,,
38037,0,USNorthDakotaGrant,North Dakota,Grant,2022-04-28 09:13:11,2021-11-30,0.5187879582323645,1.330639360930301,3.6723091817418467,,,,,,,,,,,,
38037,0,USNorthDakotaGrant,North Dakota,Grant,2022-04-28 09:13:11,2021-12-01,0.5187879582323645,1.330639360930301,3.6723091817418467,,,,,,,,,,,,
38037,0,USNorthDakotaGrant,North Dakota,Grant,2022-04-28 09:13:11,2021-12-02,0.8443375412478437,1.8036479146527697,4.139718859113268,,,,,,,,,,,,
38037,0,USNorthDakotaGrant,North Dakota,Grant,2022-04-28 09:13:11,2021-12-03,0.8443375412478437,1.8036479146527697,4.139718859113268,,,,,,,,,,,,
38037,0,USNorthDakotaGrant,North Dakota,Grant,2022-04-28 09:13:11,2021-12-04,0.8443375412478437,1.8036479146527697,4.139718859113268,,,,,,,,,,,,
38037,0,USNorthDakotaGrant,North Dakota,Grant,2022-04-28 09:13:11,2021-12-05,0.8443375412478437,1.8036479146527697,4.139718859113268,,,,,,,,,,,,
38037,0,USNorthDakotaGrant,North Dakota,Grant,2022-04-28 09:13:11,2021-12-06,0.8443375412478437,1.8036479146527697,4.139718859113268,,,,,,,,,,,,
38037,0,USNorthDakotaGrant,North Dakota,Grant,2022-04-28 09:13:11,2021-12-07,0.8443375412478437,1.8036479146527697,4.139718859113268,,,,,,,,,,,,
38037,0,USNorthDakotaGrant,North Dakota,Grant,2022-04-28 09:13:11,2021-12-08,0.8443375412478437,1.8036479146527697,4.139718859113268,,,,,,,,,,,,
38037,0,USNorthDakotaGrant,North Dakota,Grant,2022-04-28 09:13:11,2021-12-09,1.5105554368502423,2.6191497604774345,4.830189949235477,,,,,,,,,,,,
38037,0,USNorthDakotaGrant,North Dakota,Grant,2022-04-28 09:13:11,2021-12-10,1.5105554368502423,2.6191497604774345,4.830189949235477,,,,,,,,,,,,
38037,0,USNorthDakotaGrant,North Dakota,Grant,2022-04-28 09:13:11,2021-12-11,1.5105554368502423,2.6191497604774345,4.830189949235477,,,,,,,,,,,,
38037,0,USNorthDakotaGrant,North Dakota,Grant,2022-04-28 09:13:11,2021-12-12,1.5105554368502423,2.6191497604774345,4.830189949235477,,,,,,,,,,,,
38037,0,USNorthDakotaGrant,North Dakota,Grant,2022-04-28 09:13:11,2021-12-13,1.5105554368502423,2.6191497604774345,4.830189949235477,,,,,,,,,,,,
38037,0,USNorthDakotaGrant,North Dakota,Grant,2022-04-28 09:13:11,2021-12-14,1.5105554368502423,2.6191497604774345,4.830189949235477,,,,,,,,,,,,
38037,0,USNorthDakotaGrant,North Dakota,Grant,2022-04-28 09:13:11,2021-12-15,1.5105554368502423,2.6191497604774345,4.830189949235477,,,,,,,,,,,,
38037,0,USNorthDakotaGrant,North Dakota,Grant,2022-04-28 09:13:11,2021-12-16,0.7704044084033465,1.5147875696612296,3.191220479412092,,,,,,,,,,,,
38037,0,USNorthDakotaGrant,North Dakota,Grant,2022-04-28 09:13:11,2021-12-17,0.7704044084033465,1.5147875696612296,3.191220479412092,,,,,,,,,,,,
38037,0,USNorthDakotaGrant,North Dakota,Grant,2022-04-28 09:13:11,2021-12-18,0.7704044084033465,1.5147875696612296,3.191220479412092,,,,,,,,,,,,
38037,0,USNorthDakotaGrant,North Dakota,Grant,2022-04-28 09:13:11,2021-12-19,0.7704044084033465,1.5147875696612296,3.191220479412092,,,,,,,,,,,,
38037,0,USNorthDakotaGrant,North Dakota,Grant,2022-04-28 09:13:11,2021-12-20,0.7704044084033465,1.5147875696612296,3.191220479412092,,,,,,,,,,,,
38037,0,USNorthDakotaGrant,North Dakota,Grant,2022-04-28 09:13:11,2021-12-21,0.7704044084033465,1.5147875696612296,3.191220479412092,,,,,,,,,,,,
38037,0,USNorthDakotaGrant,North Dakota,Grant,2022-04-28 09:13:11,2021-12-22,0.7704044084033465,1.5147875696612296,3.191220479412092,,,,,,,,,,,,
38037,0,USNorthDakotaGrant,North Dakota,Grant,2022-04-28 09:13:11,2021-12-23,1.2507362439793015,2.2965658784916805,4.502380258703723,,,,,,,,,,,,
38037,0,USNorthDakotaGrant,North Dakota,Grant,2022-04-28 09:13:11,2021-12-24,1.2507362439793015,2.2965658784916805,4.502380258703723,,,,,,,,,,,,
38037,0,USNorthDakotaGrant,North Dakota,Grant,2022-04-28 09:13:11,2021-12-25,1.2507362439793015,2.2965658784916805,4.502380258703723,,,,,,,,,,,,
38037,0,USNorthDakotaGrant,North Dakota,Grant,2022-04-28 09:13:11,2021-12-26,1.2507362439793015,2.2965658784916805,4.502380258703723,,,,,,,,,,,,
38037,0,USNorthDakotaGrant,North Dakota,Grant,2022-04-28 09:13:11,2021-12-27,1.2507362439793015,2.2965658784916805,4.502380258703723,,,,,,,,,,,,
38037,0,USNorthDakotaGrant,North Dakota,Grant,2022-04-28 09:13:11,2021-12-28,1.2507362439793015,2.2965658784916805,4.502380258703723,,,,,,,,,,,,
38037,0,USNorthDakotaGrant,North Dakota,Grant,2022-04-28 09:13:11,2021-12-29,1.2507362439793015,2.2965658784916805,4.502380258703723,,,,,,,,,,,,
38037,0,USNorthDakotaGrant,North Dakota,Grant,2022-04-28 09:13:11,2021-12-30,3.4560224209287864,5.639355310776713,9.73822749537767,,,,,,,,,,,,
38037,0,USNorthDakotaGrant,North Dakota,Grant,2022-04-28 09:13:11,2021-12-31,3.4560224209287864,5.639355310776713,9.73822749537767,,,,,,,,,,,,
38037,0,USNorthDakotaGrant,North Dakota,Grant,2022-04-28 09:13:11,2022-01-01,3.4560224209287864,5.639355310776713,9.73822749537767,,,,,,,,,,,,
38037,0,USNorthDakotaGrant,North Dakota,Grant,2022-04-28 09:13:11,2022-01-02,3.4560224209287864,5.639355310776713,9.73822749537767,,,,,,,,,,,,
38037,0,USNorthDakotaGrant,North Dakota,Grant,2022-04-28 09:13:11,2022-01-03,3.4560224209287864,5.639355310776713,9.73822749537767,,,,,,,,,,,,
38037,0,USNorthDakotaGrant,North Dakota,Grant,2022-04-28 09:13:11,2022-01-04,3.4560224209287864,5.639355310776713,9.73822749537767,,,,,,,,,,,,
38037,0,USNorthDakotaGrant,North Dakota,Grant,2022-04-28 09:13:11,2022-01-05,3.4560224209287864,5.639355310776713,9.73822749537767,,,,,,,,,,,,
38037,0,USNorthDakotaGrant,North Dakota,Grant,2022-04-28 09:13:11,2022-01-06,3.362895197358304,6.121655605210044,11.891759734103264,,,,,,,,,,,,
38037,0,USNorthDakotaGrant,North Dakota,Grant,2022-04-28 09:13:11,2022-01-07,3.362895197358304,6.121655605210044,11.891759734103264,,,,,,,,,,,,
38037,0,USNorthDakotaGrant,North Dakota,Grant,2022-04-28 09:13:11,2022-01-08,3.362895197358304,6.121655605210044,11.891759734103264,,,,,,,,,,,,
38037,0,USNorthDakotaGrant,North Dakota,Grant,2022-04-28 09:13:11,2022-01-09,3.362895197358304,6.121655605210044,11.891759734103264,,,,,,,,,,,,
38037,0,USNorthDakotaGrant,North Dakota,Grant,2022-04-28 09:13:11,2022-01-10,3.362895197358304,6.121655605210044,11.891759734103264,,,,,,,,,,,,
38037,0,USNorthDakotaGrant,North Dakota,Grant,2022-04-28 09:13:11,2022-01-11,3.362895197358304,6.121655605210044,11.891759734103264,,,,,,,,,,,,
38037,0,USNorthDakotaGrant,North Dakota,Grant,2022-04-28 09:13:11,2022-01-12,3.362895197358304,6.121655605210044,11.891759734103264,,,,,,,,,,,,
38037,0,USNorthDakotaGrant,North Dakota,Grant,2022-04-28 09:13:11,2022-01-13,1.671247206739334,3.9849732457733746,10.225097454648028,,,,,,,,,,,,
38037,0,USNorthDakotaGrant,North Dakota,Grant,2022-04-28 09:13:11,2022-01-14,1.671247206739334,3.9849732457733746,10.225097454648028,,,,,,,,,,,,
38037,0,USNorthDakotaGrant,North Dakota,Grant,2022-04-28 09:13:11,2022-01-15,1.671247206739334,3.9849732457733746,10.225097454648028,,,,,,,,,,,,
38037,0,USNorthDakotaGrant,North Dakota,Grant,2022-04-28 09:13:11,2022-01-16,1.671247206739334,3.9849732457733746,10.225097454648028,,,,,,,,,,,,
38037,0,USNorthDakotaGrant,North Dakota,Grant,2022-04-28 09:13:11,2022-01-17,1.671247206739334,3.9849732457733746,10.225097454648028,,,,,,,,,,,,
38037,0,USNorthDakotaGrant,North Dakota,Grant,2022-04-28 09:13:11,2022-01-18,1.671247206739334,3.9849732457733746,10.225097454648028,,,,,,,,,,,,
38037,0,USNorthDakotaGrant,North Dakota,Grant,2022-04-28 09:13:11,2022-01-19,1.671247206739334,3.9849732457733746,10.225097454648028,,,,,,,,,,,,
38037,0,USNorthDakotaGrant,North Dakota,Grant,2022-04-28 09:13:11,2022-01-20,1.301510115497407,3.3484550856354116,9.269156455330194,,,,,,,,,,,,
38037,0,USNorthDakotaGrant,North Dakota,Grant,2022-04-28 09:13:11,2022-01-21,1.301510115497407,3.3484550856354116,9.269156455330194,,,,,,,,,,,,
38037,0,USNorthDakotaGrant,North Dakota,Grant,2022-04-28 09:13:11,2022-01-22,1.301510115497407,3.3484550856354116,9.269156455330194,,,,,,,,,,,,
38037,0,USNorthDakotaGrant,North Dakota,Grant,2022-04-28 09:13:11,2022-01-23,1.301510115497407,3.3484550856354116,9.269156455330194,,,,,,,,,,,,
38037,0,USNorthDakotaGrant,North Dakota,Grant,2022-04-28 09:13:11,2022-01-24,1.301510115497407,3.3484550856354116,9.269156455330194,,,,,,,,,,,,
38037,0,USNorthDakotaGrant,North Dakota,Grant,2022-04-28 09:13:11,2022-01-25,1.301510115497407,3.3484550856354116,9.269156455330194,,,,,,,,,,,,
38037,0,USNorthDakotaGrant,North Dakota,Grant,2022-04-28 09:13:11,2022-01-26,1.301510115497407,3.3484550856354116,9.269156455330194,,,,,,,,,,,,
38037,0,USNorthDakotaGrant,North Dakota,Grant,2022-04-28 09:13:11,2022-01-27,2.3688410172153245,4.762991061913546,10.270410729886947,,,,,,,,,,,,
38037,0,USNorthDakotaGrant,North Dakota,Grant,2022-04-28 09:13:11,2022-01-28,2.3688410172153245,4.762991061913546,10.270410729886947,,,,,,,,,,,,
38037,0,USNorthDakotaGrant,North Dakota,Grant,2022-04-28 09:13:11,2022-01-29,2.3688410172153245,4.762991061913546,10.270410729886947,,,,,,,,,,,,
38037,0,USNorthDakotaGrant,North Dakota,Grant,2022-04-28 09:13:11,2022-01-30,2.3688410172153245,4.762991061913546,10.270410729886947,,,,,,,,,,,,
38037,0,USNorthDakotaGrant,North Dakota,Grant,2022-04-28 09:13:11,2022-01-31,2.3688410172153245,4.762991061913546,10.270410729886947,,,,,,,,,,,,
38037,0,USNorthDakotaGrant,North Dakota,Grant,2022-04-28 09:13:11,2022-02-01,2.3688410172153245,4.762991061913546,10.270410729886947,,,,,,,,,,,,
38037,0,USNorthDakotaGrant,North Dakota,Grant,2022-04-28 09:13:11,2022-02-02,2.3688410172153245,4.762991061913546,10.270410729886947,,,,,,,,,,,,
38037,0,USNorthDakotaGrant,North Dakota,Grant,2022-04-28 09:13:11,2022-02-03,0.7615110731893984,1.9165089185868647,5.190394801288895,,,,,,,,,,,,
38037,0,USNorthDakotaGrant,North Dakota,Grant,2022-04-28 09:13:11,2022-02-04,0.7615110731893984,1.9165089185868647,5.190394801288895,,,,,,,,,,,,
38037,0,USNorthDakotaGrant,North Dakota,Grant,2022-04-28 09:13:11,2022-02-05,0.7615110731893984,1.9165089185868647,5.190394801288895,,,,,,,,,,,,
38037,0,USNorthDakotaGrant,North Dakota,Grant,2022-04-28 09:13:11,2022-02-06,0.7615110731893984,1.9165089185868647,5.190394801288895,,,,,,,,,,,,
38037,0,USNorthDakotaGrant,North Dakota,Grant,2022-04-28 09:13:11,2022-02-07,0.7615110731893984,1.9165089185868647,5.190394801288895,,,,,,,,,,,,
38037,0,USNorthDakotaGrant,North Dakota,Grant,2022-04-28 09:13:11,2022-02-08,0.7615110731893984,1.9165089185868647,5.190394801288895,,,,,,,,,,,,
38037,0,USNorthDakotaGrant,North Dakota,Grant,2022-04-28 09:13:11,2022-02-09,0.7615110731893984,1.9165089185868647,5.190394801288895,,,,,,,,,,,,
38037,0,USNorthDakotaGrant,North Dakota,Grant,2022-04-28 09:13:11,2022-02-10,0.30892181619751874,0.9212262166724902,2.9485965279601354,,,,,,,,,,,,
38037,0,USNorthDakotaGrant,North Dakota,Grant,2022-04-28 09:13:11,2022-02-11,0.30892181619751874,0.9212262166724902,2.9485965279601354,,,,,,,,,,,,
38037,0,USNorthDakotaGrant,North Dakota,Grant,2022-04-28 09:13:11,2022-02-12,0.30892181619751874,0.9212262166724902,2.9485965279601354,,,,,,,,,,,,
38037,0,USNorthDakotaGrant,North Dakota,Grant,2022-04-28 09:13:11,2022-02-13,0.30892181619751874,0.9212262166724902,2.9485965279601354,,,,,,,,,,,,
38037,0,USNorthDakotaGrant,North Dakota,Grant,2022-04-28 09:13:11,2022-02-14,0.30892181619751874,0.9212262166724902,2.9485965279601354,,,,,,,,,,,,
38037,0,USNorthDakotaGrant,North Dakota,Grant,2022-04-28 09:13:11,2022-02-15,0.30892181619751874,0.9212262166724902,2.9485965279601354,,,,,,,,,,,,
38037,0,USNorthDakotaGrant,North Dakota,Grant,2022-04-28 09:13:11,2022-02-16,0.30892181619751874,0.9212262166724902,2.9485965279601354,,,,,,,,,,,,
38037,0,USNorthDakotaGrant,North Dakota,Grant,2022-04-28 09:13:11,2022-02-17,0.28371939219552705,0.7866067156878258,2.34435105630991,,,,,,,,,,,,
38037,0,USNorthDakotaGrant,North Dakota,Grant,2022-04-28 09:13:11,2022-02-18,0.28371939219552705,0.7866067156878258,2.34435105630991,,,,,,,,,,,,
38037,0,USNorthDakotaGrant,North Dakota,Grant,2022-04-28 09:13:11,2022-02-19,0.28371939219552705,0.7866067156878258,2.34435105630991,,,,,,,,,,,,
38037,0,USNorthDakotaGrant,North Dakota,Grant,2022-04-28 09:13:11,2022-02-20,0.28371939219552705,0.7866067156878258,2.34435105630991,,,,,,,,,,,,
38037,0,USNorthDakotaGrant,North Dakota,Grant,2022-04-28 09:13:11,2022-02-21,0.28371939219552705,0.7866067156878258,2.34435105630991,,,,,,,,,,,,
38037,0,USNorthDakotaGrant,North Dakota,Grant,2022-04-28 09:13:11,2022-02-22,0.28371939219552705,0.7866067156878258,2.34435105630991,,,,,,,,,,,,
38037,0,USNorthDakotaGrant,North Dakota,Grant,2022-04-28 09:13:11,2022-02-23,0.28371939219552705,0.7866067156878258,2.34435105630991,,,,,,,,,,,,
38037,0,USNorthDakotaGrant,North Dakota,Grant,2022-04-28 09:13:11,2022-02-24,0.43764491409508144,0.9655999364852779,2.290641477206318,,,,,,,,,,,,
38037,0,USNorthDakotaGrant,North Dakota,Grant,2022-04-28 09:13:11,2022-02-25,0.43764491409508144,0.9655999364852779,2.290641477206318,,,,,,,,,,,,
38037,0,USNorthDakotaGrant,North Dakota,Grant,2022-04-28 09:13:11,2022-02-26,0.43764491409508144,0.9655999364852779,2.290641477206318,,,,,,,,,,,,
38037,0,USNorthDakotaGrant,North Dakota,Grant,2022-04-28 09:13:11,2022-02-27,0.43764491409508144,0.9655999364852779,2.290641477206318,,,,,,,,,,,,
38037,0,USNorthDakotaGrant,North Dakota,Grant,2022-04-28 09:13:11,2022-02-28,0.43764491409508144,0.9655999364852779,2.290641477206318,,,,,,,,,,,,
38037,0,USNorthDakotaGrant,North Dakota,Grant,2022-04-28 09:13:11,2022-03-01,0.43764491409508144,0.9655999364852779,2.290641477206318,,,,,,,,,,,,
38037,0,USNorthDakotaGrant,North Dakota,Grant,2022-04-28 09:13:11,2022-03-02,0.43764491409508144,0.9655999364852779,2.290641477206318,,,,,,,,,,,,
38037,0,USNorthDakotaGrant,North Dakota,Grant,2022-04-28 09:13:11,2022-03-03,0.2389430387404763,0.5701516835862833,1.46401345580499,,,,,,,,,,,,
38037,0,USNorthDakotaGrant,North Dakota,Grant,2022-04-28 09:13:11,2022-03-04,0.2389430387404763,0.5701516835862833,1.46401345580499,,,,,,,,,,,,
38037,0,USNorthDakotaGrant,North Dakota,Grant,2022-04-28 09:13:11,2022-03-05,0.2389430387404763,0.5701516835862833,1.46401345580499,,,,,,,,,,,,
38037,0,USNorthDakotaGrant,North Dakota,Grant,2022-04-28 09:13:11,2022-03-06,0.2389430387404763,0.5701516835862833,1.46401345580499,,,,,,,,,,,,
38037,0,USNorthDakotaGrant,North Dakota,Grant,2022-04-28 09:13:11,2022-03-07,0.2389430387404763,0.5701516835862833,1.46401345580499,,,,,,,,,,,,
38037,0,USNorthDakotaGrant,North Dakota,Grant,2022-04-28 09:13:11,2022-03-08,0.2389430387404763,0.5701516835862833,1.46401345580499,,,,,,,,,,,,
38037,0,USNorthDakotaGrant,North Dakota,Grant,2022-04-28 09:13:11,2022-03-09,0.2389430387404763,0.5701516835862833,1.46401345580499,,,,,,,,,,,,
