FIPS,HR_UID,nameid,province,region,analysisTime,dates,pointprevalence_025,pointprevalence_50,pointprevalence_975,pointinfections_025,pointinfections_50,pointinfections_975,pointinfectious_025,pointinfectious_50,pointinfectious_975,pointinfectiousprevalence_025,pointinfectiousprevalence_50,pointinfectiousprevalence_975,infectrate_025,infectrate_50,infectrate_975
39017,0,USOhioButler,Ohio,Butler,2022-04-28 09:13:11,2020-03-19,0.029565307580439286,0.13044203674111543,0.6088375316905825,,,,,,,,,,,,
39017,0,USOhioButler,Ohio,Butler,2022-04-28 09:13:11,2020-03-20,0.029565307580439286,0.13044203674111543,0.6088375316905825,,,,,,,,,,,,
39017,0,USOhioButler,Ohio,Butler,2022-04-28 09:13:11,2020-03-21,0.029565307580439286,0.13044203674111543,0.6088375316905825,,,,,,,,,,,,
39017,0,USOhioButler,Ohio,Butler,2022-04-28 09:13:11,2020-03-22,0.029565307580439286,0.13044203674111543,0.6088375316905825,,,,,,,,,,,,
39017,0,USOhioButler,Ohio,Butler,2022-04-28 09:13:11,2020-03-23,0.029565307580439286,0.13044203674111543,0.6088375316905825,,,,,,,,,,,,
39017,0,USOhioButler,Ohio,Butler,2022-04-28 09:13:11,2020-03-24,0.029565307580439286,0.13044203674111543,0.6088375316905825,,,,,,,,,,,,
39017,0,USOhioButler,Ohio,Butler,2022-04-28 09:13:11,2020-03-25,0.029565307580439286,0.13044203674111543,0.6088375316905825,,,,,,,,,,,,
39017,0,USOhioButler,Ohio,Butler,2022-04-28 09:13:11,2020-03-26,0.06382632073910728,0.2677724535769424,1.1910496807764706,,,,,,,,,,,,
39017,0,USOhioButler,Ohio,Butler,2022-04-28 09:13:11,2020-03-27,0.06382632073910728,0.2677724535769424,1.1910496807764706,,,,,,,,,,,,
39017,0,USOhioButler,Ohio,Butler,2022-04-28 09:13:11,2020-03-28,0.06382632073910728,0.2677724535769424,1.1910496807764706,,,,,,,,,,,,
39017,0,USOhioButler,Ohio,Butler,2022-04-28 09:13:11,2020-03-29,0.06382632073910728,0.2677724535769424,1.1910496807764706,,,,,,,,,,,,
39017,0,USOhioButler,Ohio,Butler,2022-04-28 09:13:11,2020-03-30,0.06382632073910728,0.2677724535769424,1.1910496807764706,,,,,,,,,,,,
39017,0,USOhioButler,Ohio,Butler,2022-04-28 09:13:11,2020-03-31,0.06382632073910728,0.2677724535769424,1.1910496807764706,,,,,,,,,,,,
39017,0,USOhioButler,Ohio,Butler,2022-04-28 09:13:11,2020-04-01,0.06382632073910728,0.2677724535769424,1.1910496807764706,,,,,,,,,,,,
39017,0,USOhioButler,Ohio,Butler,2022-04-28 09:13:11,2020-04-02,0.1311914542110454,0.44731643570152524,1.6304049791846718,,,,,,,,,,,,
39017,0,USOhioButler,Ohio,Butler,2022-04-28 09:13:11,2020-04-03,0.1311914542110454,0.44731643570152524,1.6304049791846718,,,,,,,,,,,,
39017,0,USOhioButler,Ohio,Butler,2022-04-28 09:13:11,2020-04-04,0.1311914542110454,0.44731643570152524,1.6304049791846718,,,,,,,,,,,,
39017,0,USOhioButler,Ohio,Butler,2022-04-28 09:13:11,2020-04-05,0.1311914542110454,0.44731643570152524,1.6304049791846718,,,,,,,,,,,,
39017,0,USOhioButler,Ohio,Butler,2022-04-28 09:13:11,2020-04-06,0.1311914542110454,0.44731643570152524,1.6304049791846718,,,,,,,,,,,,
39017,0,USOhioButler,Ohio,Butler,2022-04-28 09:13:11,2020-04-07,0.1311914542110454,0.44731643570152524,1.6304049791846718,,,,,,,,,,,,
39017,0,USOhioButler,Ohio,Butler,2022-04-28 09:13:11,2020-04-08,0.1311914542110454,0.44731643570152524,1.6304049791846718,,,,,,,,,,,,
39017,0,USOhioButler,Ohio,Butler,2022-04-28 09:13:11,2020-04-09,0.08263933072563859,0.33572414523345945,1.4480108165414889,,,,,,,,,,,,
39017,0,USOhioButler,Ohio,Butler,2022-04-28 09:13:11,2020-04-10,0.08263933072563859,0.33572414523345945,1.4480108165414889,,,,,,,,,,,,
39017,0,USOhioButler,Ohio,Butler,2022-04-28 09:13:11,2020-04-11,0.08263933072563859,0.33572414523345945,1.4480108165414889,,,,,,,,,,,,
39017,0,USOhioButler,Ohio,Butler,2022-04-28 09:13:11,2020-04-12,0.08263933072563859,0.33572414523345945,1.4480108165414889,,,,,,,,,,,,
39017,0,USOhioButler,Ohio,Butler,2022-04-28 09:13:11,2020-04-13,0.08263933072563859,0.33572414523345945,1.4480108165414889,,,,,,,,,,,,
39017,0,USOhioButler,Ohio,Butler,2022-04-28 09:13:11,2020-04-14,0.08263933072563859,0.33572414523345945,1.4480108165414889,,,,,,,,,,,,
39017,0,USOhioButler,Ohio,Butler,2022-04-28 09:13:11,2020-04-15,0.08263933072563859,0.33572414523345945,1.4480108165414889,,,,,,,,,,,,
39017,0,USOhioButler,Ohio,Butler,2022-04-28 09:13:11,2020-04-16,0.15296566477889623,0.6076689825602706,2.565320535937883,,,,,,,,,,,,
39017,0,USOhioButler,Ohio,Butler,2022-04-28 09:13:11,2020-04-17,0.15296566477889623,0.6076689825602706,2.565320535937883,,,,,,,,,,,,
39017,0,USOhioButler,Ohio,Butler,2022-04-28 09:13:11,2020-04-18,0.15296566477889623,0.6076689825602706,2.565320535937883,,,,,,,,,,,,
39017,0,USOhioButler,Ohio,Butler,2022-04-28 09:13:11,2020-04-19,0.15296566477889623,0.6076689825602706,2.565320535937883,,,,,,,,,,,,
39017,0,USOhioButler,Ohio,Butler,2022-04-28 09:13:11,2020-04-20,0.15296566477889623,0.6076689825602706,2.565320535937883,,,,,,,,,,,,
39017,0,USOhioButler,Ohio,Butler,2022-04-28 09:13:11,2020-04-21,0.15296566477889623,0.6076689825602706,2.565320535937883,,,,,,,,,,,,
39017,0,USOhioButler,Ohio,Butler,2022-04-28 09:13:11,2020-04-22,0.15296566477889623,0.6076689825602706,2.565320535937883,,,,,,,,,,,,
39017,0,USOhioButler,Ohio,Butler,2022-04-28 09:13:11,2020-04-23,0.13732001550225686,0.4388649471419673,1.502532499985539,,,,,,,,,,,,
39017,0,USOhioButler,Ohio,Butler,2022-04-28 09:13:11,2020-04-24,0.13732001550225686,0.4388649471419673,1.502532499985539,,,,,,,,,,,,
39017,0,USOhioButler,Ohio,Butler,2022-04-28 09:13:11,2020-04-25,0.13732001550225686,0.4388649471419673,1.502532499985539,,,,,,,,,,,,
39017,0,USOhioButler,Ohio,Butler,2022-04-28 09:13:11,2020-04-26,0.13732001550225686,0.4388649471419673,1.502532499985539,,,,,,,,,,,,
39017,0,USOhioButler,Ohio,Butler,2022-04-28 09:13:11,2020-04-27,0.13732001550225686,0.4388649471419673,1.502532499985539,,,,,,,,,,,,
39017,0,USOhioButler,Ohio,Butler,2022-04-28 09:13:11,2020-04-28,0.13732001550225686,0.4388649471419673,1.502532499985539,,,,,,,,,,,,
39017,0,USOhioButler,Ohio,Butler,2022-04-28 09:13:11,2020-04-29,0.13732001550225686,0.4388649471419673,1.502532499985539,,,,,,,,,,,,
39017,0,USOhioButler,Ohio,Butler,2022-04-28 09:13:11,2020-04-30,0.1794626183035555,0.5254797766380975,1.6521844845940215,,,,,,,,,,,,
39017,0,USOhioButler,Ohio,Butler,2022-04-28 09:13:11,2020-05-01,0.1794626183035555,0.5254797766380975,1.6521844845940215,,,,,,,,,,,,
39017,0,USOhioButler,Ohio,Butler,2022-04-28 09:13:11,2020-05-02,0.1794626183035555,0.5254797766380975,1.6521844845940215,,,,,,,,,,,,
39017,0,USOhioButler,Ohio,Butler,2022-04-28 09:13:11,2020-05-03,0.1794626183035555,0.5254797766380975,1.6521844845940215,,,,,,,,,,,,
39017,0,USOhioButler,Ohio,Butler,2022-04-28 09:13:11,2020-05-04,0.1794626183035555,0.5254797766380975,1.6521844845940215,,,,,,,,,,,,
39017,0,USOhioButler,Ohio,Butler,2022-04-28 09:13:11,2020-05-05,0.1794626183035555,0.5254797766380975,1.6521844845940215,,,,,,,,,,,,
39017,0,USOhioButler,Ohio,Butler,2022-04-28 09:13:11,2020-05-06,0.1794626183035555,0.5254797766380975,1.6521844845940215,,,,,,,,,,,,
39017,0,USOhioButler,Ohio,Butler,2022-04-28 09:13:11,2020-05-07,0.22178120321205602,0.555537381617558,1.4974929289597734,,,,,,,,,,,,
39017,0,USOhioButler,Ohio,Butler,2022-04-28 09:13:11,2020-05-08,0.22178120321205602,0.555537381617558,1.4974929289597734,,,,,,,,,,,,
39017,0,USOhioButler,Ohio,Butler,2022-04-28 09:13:11,2020-05-09,0.22178120321205602,0.555537381617558,1.4974929289597734,,,,,,,,,,,,
39017,0,USOhioButler,Ohio,Butler,2022-04-28 09:13:11,2020-05-10,0.22178120321205602,0.555537381617558,1.4974929289597734,,,,,,,,,,,,
39017,0,USOhioButler,Ohio,Butler,2022-04-28 09:13:11,2020-05-11,0.22178120321205602,0.555537381617558,1.4974929289597734,,,,,,,,,,,,
39017,0,USOhioButler,Ohio,Butler,2022-04-28 09:13:11,2020-05-12,0.22178120321205602,0.555537381617558,1.4974929289597734,,,,,,,,,,,,
39017,0,USOhioButler,Ohio,Butler,2022-04-28 09:13:11,2020-05-13,0.22178120321205602,0.555537381617558,1.4974929289597734,,,,,,,,,,,,
39017,0,USOhioButler,Ohio,Butler,2022-04-28 09:13:11,2020-05-14,0.22210614488447572,0.5143100413126863,1.2813307310853517,,,,,,,,,,,,
39017,0,USOhioButler,Ohio,Butler,2022-04-28 09:13:11,2020-05-15,0.22210614488447572,0.5143100413126863,1.2813307310853517,,,,,,,,,,,,
39017,0,USOhioButler,Ohio,Butler,2022-04-28 09:13:11,2020-05-16,0.22210614488447572,0.5143100413126863,1.2813307310853517,,,,,,,,,,,,
39017,0,USOhioButler,Ohio,Butler,2022-04-28 09:13:11,2020-05-17,0.22210614488447572,0.5143100413126863,1.2813307310853517,,,,,,,,,,,,
39017,0,USOhioButler,Ohio,Butler,2022-04-28 09:13:11,2020-05-18,0.22210614488447572,0.5143100413126863,1.2813307310853517,,,,,,,,,,,,
39017,0,USOhioButler,Ohio,Butler,2022-04-28 09:13:11,2020-05-19,0.22210614488447572,0.5143100413126863,1.2813307310853517,,,,,,,,,,,,
39017,0,USOhioButler,Ohio,Butler,2022-04-28 09:13:11,2020-05-20,0.22210614488447572,0.5143100413126863,1.2813307310853517,,,,,,,,,,,,
39017,0,USOhioButler,Ohio,Butler,2022-04-28 09:13:11,2020-05-21,0.21940271717349794,0.5226473959944287,1.3397726533449636,,,,,,,,,,,,
39017,0,USOhioButler,Ohio,Butler,2022-04-28 09:13:11,2020-05-22,0.21940271717349794,0.5226473959944287,1.3397726533449636,,,,,,,,,,,,
39017,0,USOhioButler,Ohio,Butler,2022-04-28 09:13:11,2020-05-23,0.21940271717349794,0.5226473959944287,1.3397726533449636,,,,,,,,,,,,
39017,0,USOhioButler,Ohio,Butler,2022-04-28 09:13:11,2020-05-24,0.21940271717349794,0.5226473959944287,1.3397726533449636,,,,,,,,,,,,
39017,0,USOhioButler,Ohio,Butler,2022-04-28 09:13:11,2020-05-25,0.21940271717349794,0.5226473959944287,1.3397726533449636,,,,,,,,,,,,
39017,0,USOhioButler,Ohio,Butler,2022-04-28 09:13:11,2020-05-26,0.21940271717349794,0.5226473959944287,1.3397726533449636,,,,,,,,,,,,
39017,0,USOhioButler,Ohio,Butler,2022-04-28 09:13:11,2020-05-27,0.21940271717349794,0.5226473959944287,1.3397726533449636,,,,,,,,,,,,
39017,0,USOhioButler,Ohio,Butler,2022-04-28 09:13:11,2020-05-28,0.15582794820031573,0.38064832092103756,1.0006528130841792,,,,,,,,,,,,
39017,0,USOhioButler,Ohio,Butler,2022-04-28 09:13:11,2020-05-29,0.15582794820031573,0.38064832092103756,1.0006528130841792,,,,,,,,,,,,
39017,0,USOhioButler,Ohio,Butler,2022-04-28 09:13:11,2020-05-30,0.15582794820031573,0.38064832092103756,1.0006528130841792,,,,,,,,,,,,
39017,0,USOhioButler,Ohio,Butler,2022-04-28 09:13:11,2020-05-31,0.15582794820031573,0.38064832092103756,1.0006528130841792,,,,,,,,,,,,
39017,0,USOhioButler,Ohio,Butler,2022-04-28 09:13:11,2020-06-01,0.15582794820031573,0.38064832092103756,1.0006528130841792,,,,,,,,,,,,
39017,0,USOhioButler,Ohio,Butler,2022-04-28 09:13:11,2020-06-02,0.15582794820031573,0.38064832092103756,1.0006528130841792,,,,,,,,,,,,
39017,0,USOhioButler,Ohio,Butler,2022-04-28 09:13:11,2020-06-03,0.15582794820031573,0.38064832092103756,1.0006528130841792,,,,,,,,,,,,
39017,0,USOhioButler,Ohio,Butler,2022-04-28 09:13:11,2020-06-04,0.15229305727245765,0.3500707646875544,0.8657086520066554,,,,,,,,,,,,
39017,0,USOhioButler,Ohio,Butler,2022-04-28 09:13:11,2020-06-05,0.15229305727245765,0.3500707646875544,0.8657086520066554,,,,,,,,,,,,
39017,0,USOhioButler,Ohio,Butler,2022-04-28 09:13:11,2020-06-06,0.15229305727245765,0.3500707646875544,0.8657086520066554,,,,,,,,,,,,
39017,0,USOhioButler,Ohio,Butler,2022-04-28 09:13:11,2020-06-07,0.15229305727245765,0.3500707646875544,0.8657086520066554,,,,,,,,,,,,
39017,0,USOhioButler,Ohio,Butler,2022-04-28 09:13:11,2020-06-08,0.15229305727245765,0.3500707646875544,0.8657086520066554,,,,,,,,,,,,
39017,0,USOhioButler,Ohio,Butler,2022-04-28 09:13:11,2020-06-09,0.15229305727245765,0.3500707646875544,0.8657086520066554,,,,,,,,,,,,
39017,0,USOhioButler,Ohio,Butler,2022-04-28 09:13:11,2020-06-10,0.15229305727245765,0.3500707646875544,0.8657086520066554,,,,,,,,,,,,
39017,0,USOhioButler,Ohio,Butler,2022-04-28 09:13:11,2020-06-11,0.12224330445729614,0.29841815311283154,0.7839822553530563,,,,,,,,,,,,
39017,0,USOhioButler,Ohio,Butler,2022-04-28 09:13:11,2020-06-12,0.12224330445729614,0.29841815311283154,0.7839822553530563,,,,,,,,,,,,
39017,0,USOhioButler,Ohio,Butler,2022-04-28 09:13:11,2020-06-13,0.12224330445729614,0.29841815311283154,0.7839822553530563,,,,,,,,,,,,
39017,0,USOhioButler,Ohio,Butler,2022-04-28 09:13:11,2020-06-14,0.12224330445729614,0.29841815311283154,0.7839822553530563,,,,,,,,,,,,
39017,0,USOhioButler,Ohio,Butler,2022-04-28 09:13:11,2020-06-15,0.12224330445729614,0.29841815311283154,0.7839822553530563,,,,,,,,,,,,
39017,0,USOhioButler,Ohio,Butler,2022-04-28 09:13:11,2020-06-16,0.12224330445729614,0.29841815311283154,0.7839822553530563,,,,,,,,,,,,
39017,0,USOhioButler,Ohio,Butler,2022-04-28 09:13:11,2020-06-17,0.12224330445729614,0.29841815311283154,0.7839822553530563,,,,,,,,,,,,
39017,0,USOhioButler,Ohio,Butler,2022-04-28 09:13:11,2020-06-18,0.18992110141160748,0.43565572340786113,1.0750881044657496,,,,,,,,,,,,
39017,0,USOhioButler,Ohio,Butler,2022-04-28 09:13:11,2020-06-19,0.18992110141160748,0.43565572340786113,1.0750881044657496,,,,,,,,,,,,
39017,0,USOhioButler,Ohio,Butler,2022-04-28 09:13:11,2020-06-20,0.18992110141160748,0.43565572340786113,1.0750881044657496,,,,,,,,,,,,
39017,0,USOhioButler,Ohio,Butler,2022-04-28 09:13:11,2020-06-21,0.18992110141160748,0.43565572340786113,1.0750881044657496,,,,,,,,,,,,
39017,0,USOhioButler,Ohio,Butler,2022-04-28 09:13:11,2020-06-22,0.18992110141160748,0.43565572340786113,1.0750881044657496,,,,,,,,,,,,
39017,0,USOhioButler,Ohio,Butler,2022-04-28 09:13:11,2020-06-23,0.18992110141160748,0.43565572340786113,1.0750881044657496,,,,,,,,,,,,
39017,0,USOhioButler,Ohio,Butler,2022-04-28 09:13:11,2020-06-24,0.18992110141160748,0.43565572340786113,1.0750881044657496,,,,,,,,,,,,
39017,0,USOhioButler,Ohio,Butler,2022-04-28 09:13:11,2020-06-25,0.2325133571134521,0.5130738543427321,1.217299498603766,,,,,,,,,,,,
39017,0,USOhioButler,Ohio,Butler,2022-04-28 09:13:11,2020-06-26,0.2325133571134521,0.5130738543427321,1.217299498603766,,,,,,,,,,,,
39017,0,USOhioButler,Ohio,Butler,2022-04-28 09:13:11,2020-06-27,0.2325133571134521,0.5130738543427321,1.217299498603766,,,,,,,,,,,,
39017,0,USOhioButler,Ohio,Butler,2022-04-28 09:13:11,2020-06-28,0.2325133571134521,0.5130738543427321,1.217299498603766,,,,,,,,,,,,
39017,0,USOhioButler,Ohio,Butler,2022-04-28 09:13:11,2020-06-29,0.2325133571134521,0.5130738543427321,1.217299498603766,,,,,,,,,,,,
39017,0,USOhioButler,Ohio,Butler,2022-04-28 09:13:11,2020-06-30,0.2325133571134521,0.5130738543427321,1.217299498603766,,,,,,,,,,,,
39017,0,USOhioButler,Ohio,Butler,2022-04-28 09:13:11,2020-07-01,0.2325133571134521,0.5130738543427321,1.217299498603766,,,,,,,,,,,,
39017,0,USOhioButler,Ohio,Butler,2022-04-28 09:13:11,2020-07-02,0.28692947826913284,0.6202974713635173,1.441219670133047,,,,,,,,,,,,
39017,0,USOhioButler,Ohio,Butler,2022-04-28 09:13:11,2020-07-03,0.28692947826913284,0.6202974713635173,1.441219670133047,,,,,,,,,,,,
39017,0,USOhioButler,Ohio,Butler,2022-04-28 09:13:11,2020-07-04,0.28692947826913284,0.6202974713635173,1.441219670133047,,,,,,,,,,,,
39017,0,USOhioButler,Ohio,Butler,2022-04-28 09:13:11,2020-07-05,0.28692947826913284,0.6202974713635173,1.441219670133047,,,,,,,,,,,,
39017,0,USOhioButler,Ohio,Butler,2022-04-28 09:13:11,2020-07-06,0.28692947826913284,0.6202974713635173,1.441219670133047,,,,,,,,,,,,
39017,0,USOhioButler,Ohio,Butler,2022-04-28 09:13:11,2020-07-07,0.28692947826913284,0.6202974713635173,1.441219670133047,,,,,,,,,,,,
39017,0,USOhioButler,Ohio,Butler,2022-04-28 09:13:11,2020-07-08,0.28692947826913284,0.6202974713635173,1.441219670133047,,,,,,,,,,,,
39017,0,USOhioButler,Ohio,Butler,2022-04-28 09:13:11,2020-07-09,0.36496957076950354,0.7569776196720154,1.6855309402430505,,,,,,,,,,,,
39017,0,USOhioButler,Ohio,Butler,2022-04-28 09:13:11,2020-07-10,0.36496957076950354,0.7569776196720154,1.6855309402430505,,,,,,,,,,,,
39017,0,USOhioButler,Ohio,Butler,2022-04-28 09:13:11,2020-07-11,0.36496957076950354,0.7569776196720154,1.6855309402430505,,,,,,,,,,,,
39017,0,USOhioButler,Ohio,Butler,2022-04-28 09:13:11,2020-07-12,0.36496957076950354,0.7569776196720154,1.6855309402430505,,,,,,,,,,,,
39017,0,USOhioButler,Ohio,Butler,2022-04-28 09:13:11,2020-07-13,0.36496957076950354,0.7569776196720154,1.6855309402430505,,,,,,,,,,,,
39017,0,USOhioButler,Ohio,Butler,2022-04-28 09:13:11,2020-07-14,0.36496957076950354,0.7569776196720154,1.6855309402430505,,,,,,,,,,,,
39017,0,USOhioButler,Ohio,Butler,2022-04-28 09:13:11,2020-07-15,0.36496957076950354,0.7569776196720154,1.6855309402430505,,,,,,,,,,,,
39017,0,USOhioButler,Ohio,Butler,2022-04-28 09:13:11,2020-07-16,0.3165785369508882,0.6707431902546149,1.526593723490083,,,,,,,,,,,,
39017,0,USOhioButler,Ohio,Butler,2022-04-28 09:13:11,2020-07-17,0.3165785369508882,0.6707431902546149,1.526593723490083,,,,,,,,,,,,
39017,0,USOhioButler,Ohio,Butler,2022-04-28 09:13:11,2020-07-18,0.3165785369508882,0.6707431902546149,1.526593723490083,,,,,,,,,,,,
39017,0,USOhioButler,Ohio,Butler,2022-04-28 09:13:11,2020-07-19,0.3165785369508882,0.6707431902546149,1.526593723490083,,,,,,,,,,,,
39017,0,USOhioButler,Ohio,Butler,2022-04-28 09:13:11,2020-07-20,0.3165785369508882,0.6707431902546149,1.526593723490083,,,,,,,,,,,,
39017,0,USOhioButler,Ohio,Butler,2022-04-28 09:13:11,2020-07-21,0.3165785369508882,0.6707431902546149,1.526593723490083,,,,,,,,,,,,
39017,0,USOhioButler,Ohio,Butler,2022-04-28 09:13:11,2020-07-22,0.3165785369508882,0.6707431902546149,1.526593723490083,,,,,,,,,,,,
39017,0,USOhioButler,Ohio,Butler,2022-04-28 09:13:11,2020-07-23,0.3469405315960859,0.7176148210277804,1.5933746217228266,,,,,,,,,,,,
39017,0,USOhioButler,Ohio,Butler,2022-04-28 09:13:11,2020-07-24,0.3469405315960859,0.7176148210277804,1.5933746217228266,,,,,,,,,,,,
39017,0,USOhioButler,Ohio,Butler,2022-04-28 09:13:11,2020-07-25,0.3469405315960859,0.7176148210277804,1.5933746217228266,,,,,,,,,,,,
39017,0,USOhioButler,Ohio,Butler,2022-04-28 09:13:11,2020-07-26,0.3469405315960859,0.7176148210277804,1.5933746217228266,,,,,,,,,,,,
39017,0,USOhioButler,Ohio,Butler,2022-04-28 09:13:11,2020-07-27,0.3469405315960859,0.7176148210277804,1.5933746217228266,,,,,,,,,,,,
39017,0,USOhioButler,Ohio,Butler,2022-04-28 09:13:11,2020-07-28,0.3469405315960859,0.7176148210277804,1.5933746217228266,,,,,,,,,,,,
39017,0,USOhioButler,Ohio,Butler,2022-04-28 09:13:11,2020-07-29,0.3469405315960859,0.7176148210277804,1.5933746217228266,,,,,,,,,,,,
39017,0,USOhioButler,Ohio,Butler,2022-04-28 09:13:11,2020-07-30,0.3178230230492668,0.6617392371271403,1.4793360991072149,,,,,,,,,,,,
39017,0,USOhioButler,Ohio,Butler,2022-04-28 09:13:11,2020-07-31,0.3178230230492668,0.6617392371271403,1.4793360991072149,,,,,,,,,,,,
39017,0,USOhioButler,Ohio,Butler,2022-04-28 09:13:11,2020-08-01,0.3178230230492668,0.6617392371271403,1.4793360991072149,,,,,,,,,,,,
39017,0,USOhioButler,Ohio,Butler,2022-04-28 09:13:11,2020-08-02,0.3178230230492668,0.6617392371271403,1.4793360991072149,,,,,,,,,,,,
39017,0,USOhioButler,Ohio,Butler,2022-04-28 09:13:11,2020-08-03,0.3178230230492668,0.6617392371271403,1.4793360991072149,,,,,,,,,,,,
39017,0,USOhioButler,Ohio,Butler,2022-04-28 09:13:11,2020-08-04,0.3178230230492668,0.6617392371271403,1.4793360991072149,,,,,,,,,,,,
39017,0,USOhioButler,Ohio,Butler,2022-04-28 09:13:11,2020-08-05,0.3178230230492668,0.6617392371271403,1.4793360991072149,,,,,,,,,,,,
39017,0,USOhioButler,Ohio,Butler,2022-04-28 09:13:11,2020-08-06,0.30947786583067716,0.6424164431286146,1.4316674024667138,,,,,,,,,,,,
39017,0,USOhioButler,Ohio,Butler,2022-04-28 09:13:11,2020-08-07,0.30947786583067716,0.6424164431286146,1.4316674024667138,,,,,,,,,,,,
39017,0,USOhioButler,Ohio,Butler,2022-04-28 09:13:11,2020-08-08,0.30947786583067716,0.6424164431286146,1.4316674024667138,,,,,,,,,,,,
39017,0,USOhioButler,Ohio,Butler,2022-04-28 09:13:11,2020-08-09,0.30947786583067716,0.6424164431286146,1.4316674024667138,,,,,,,,,,,,
39017,0,USOhioButler,Ohio,Butler,2022-04-28 09:13:11,2020-08-10,0.30947786583067716,0.6424164431286146,1.4316674024667138,,,,,,,,,,,,
39017,0,USOhioButler,Ohio,Butler,2022-04-28 09:13:11,2020-08-11,0.30947786583067716,0.6424164431286146,1.4316674024667138,,,,,,,,,,,,
39017,0,USOhioButler,Ohio,Butler,2022-04-28 09:13:11,2020-08-12,0.30947786583067716,0.6424164431286146,1.4316674024667138,,,,,,,,,,,,
39017,0,USOhioButler,Ohio,Butler,2022-04-28 09:13:11,2020-08-13,0.3057967124985811,0.600258135178262,1.2623622282038136,,,,,,,,,,,,
39017,0,USOhioButler,Ohio,Butler,2022-04-28 09:13:11,2020-08-14,0.3057967124985811,0.600258135178262,1.2623622282038136,,,,,,,,,,,,
39017,0,USOhioButler,Ohio,Butler,2022-04-28 09:13:11,2020-08-15,0.3057967124985811,0.600258135178262,1.2623622282038136,,,,,,,,,,,,
39017,0,USOhioButler,Ohio,Butler,2022-04-28 09:13:11,2020-08-16,0.3057967124985811,0.600258135178262,1.2623622282038136,,,,,,,,,,,,
39017,0,USOhioButler,Ohio,Butler,2022-04-28 09:13:11,2020-08-17,0.3057967124985811,0.600258135178262,1.2623622282038136,,,,,,,,,,,,
39017,0,USOhioButler,Ohio,Butler,2022-04-28 09:13:11,2020-08-18,0.3057967124985811,0.600258135178262,1.2623622282038136,,,,,,,,,,,,
39017,0,USOhioButler,Ohio,Butler,2022-04-28 09:13:11,2020-08-19,0.3057967124985811,0.600258135178262,1.2623622282038136,,,,,,,,,,,,
39017,0,USOhioButler,Ohio,Butler,2022-04-28 09:13:11,2020-08-20,0.3357533716810255,0.6248059137020718,1.2423873305028108,,,,,,,,,,,,
39017,0,USOhioButler,Ohio,Butler,2022-04-28 09:13:11,2020-08-21,0.3357533716810255,0.6248059137020718,1.2423873305028108,,,,,,,,,,,,
39017,0,USOhioButler,Ohio,Butler,2022-04-28 09:13:11,2020-08-22,0.3357533716810255,0.6248059137020718,1.2423873305028108,,,,,,,,,,,,
39017,0,USOhioButler,Ohio,Butler,2022-04-28 09:13:11,2020-08-23,0.3357533716810255,0.6248059137020718,1.2423873305028108,,,,,,,,,,,,
39017,0,USOhioButler,Ohio,Butler,2022-04-28 09:13:11,2020-08-24,0.3357533716810255,0.6248059137020718,1.2423873305028108,,,,,,,,,,,,
39017,0,USOhioButler,Ohio,Butler,2022-04-28 09:13:11,2020-08-25,0.3357533716810255,0.6248059137020718,1.2423873305028108,,,,,,,,,,,,
39017,0,USOhioButler,Ohio,Butler,2022-04-28 09:13:11,2020-08-26,0.3357533716810255,0.6248059137020718,1.2423873305028108,,,,,,,,,,,,
39017,0,USOhioButler,Ohio,Butler,2022-04-28 09:13:11,2020-08-27,0.6452437119401201,1.0487574624042022,1.8033008324495239,,,,,,,,,,,,
39017,0,USOhioButler,Ohio,Butler,2022-04-28 09:13:11,2020-08-28,0.6452437119401201,1.0487574624042022,1.8033008324495239,,,,,,,,,,,,
39017,0,USOhioButler,Ohio,Butler,2022-04-28 09:13:11,2020-08-29,0.6452437119401201,1.0487574624042022,1.8033008324495239,,,,,,,,,,,,
39017,0,USOhioButler,Ohio,Butler,2022-04-28 09:13:11,2020-08-30,0.6452437119401201,1.0487574624042022,1.8033008324495239,,,,,,,,,,,,
39017,0,USOhioButler,Ohio,Butler,2022-04-28 09:13:11,2020-08-31,0.6452437119401201,1.0487574624042022,1.8033008324495239,,,,,,,,,,,,
39017,0,USOhioButler,Ohio,Butler,2022-04-28 09:13:11,2020-09-01,0.6452437119401201,1.0487574624042022,1.8033008324495239,,,,,,,,,,,,
39017,0,USOhioButler,Ohio,Butler,2022-04-28 09:13:11,2020-09-02,0.6452437119401201,1.0487574624042022,1.8033008324495239,,,,,,,,,,,,
39017,0,USOhioButler,Ohio,Butler,2022-04-28 09:13:11,2020-09-03,0.5681571785217199,0.9432391445757993,1.6597301606305939,,,,,,,,,,,,
39017,0,USOhioButler,Ohio,Butler,2022-04-28 09:13:11,2020-09-04,0.5681571785217199,0.9432391445757993,1.6597301606305939,,,,,,,,,,,,
39017,0,USOhioButler,Ohio,Butler,2022-04-28 09:13:11,2020-09-05,0.5681571785217199,0.9432391445757993,1.6597301606305939,,,,,,,,,,,,
39017,0,USOhioButler,Ohio,Butler,2022-04-28 09:13:11,2020-09-06,0.5681571785217199,0.9432391445757993,1.6597301606305939,,,,,,,,,,,,
39017,0,USOhioButler,Ohio,Butler,2022-04-28 09:13:11,2020-09-07,0.5681571785217199,0.9432391445757993,1.6597301606305939,,,,,,,,,,,,
39017,0,USOhioButler,Ohio,Butler,2022-04-28 09:13:11,2020-09-08,0.5681571785217199,0.9432391445757993,1.6597301606305939,,,,,,,,,,,,
39017,0,USOhioButler,Ohio,Butler,2022-04-28 09:13:11,2020-09-09,0.5681571785217199,0.9432391445757993,1.6597301606305939,,,,,,,,,,,,
39017,0,USOhioButler,Ohio,Butler,2022-04-28 09:13:11,2020-09-10,0.4969422101598319,0.8309080630358993,1.473419470841882,,,,,,,,,,,,
39017,0,USOhioButler,Ohio,Butler,2022-04-28 09:13:11,2020-09-11,0.4969422101598319,0.8309080630358993,1.473419470841882,,,,,,,,,,,,
39017,0,USOhioButler,Ohio,Butler,2022-04-28 09:13:11,2020-09-12,0.4969422101598319,0.8309080630358993,1.473419470841882,,,,,,,,,,,,
39017,0,USOhioButler,Ohio,Butler,2022-04-28 09:13:11,2020-09-13,0.4969422101598319,0.8309080630358993,1.473419470841882,,,,,,,,,,,,
39017,0,USOhioButler,Ohio,Butler,2022-04-28 09:13:11,2020-09-14,0.4969422101598319,0.8309080630358993,1.473419470841882,,,,,,,,,,,,
39017,0,USOhioButler,Ohio,Butler,2022-04-28 09:13:11,2020-09-15,0.4969422101598319,0.8309080630358993,1.473419470841882,,,,,,,,,,,,
39017,0,USOhioButler,Ohio,Butler,2022-04-28 09:13:11,2020-09-16,0.4969422101598319,0.8309080630358993,1.473419470841882,,,,,,,,,,,,
39017,0,USOhioButler,Ohio,Butler,2022-04-28 09:13:11,2020-09-17,0.34075180310692116,0.5846572613495312,1.0661003681776209,,,,,,,,,,,,
39017,0,USOhioButler,Ohio,Butler,2022-04-28 09:13:11,2020-09-18,0.34075180310692116,0.5846572613495312,1.0661003681776209,,,,,,,,,,,,
39017,0,USOhioButler,Ohio,Butler,2022-04-28 09:13:11,2020-09-19,0.34075180310692116,0.5846572613495312,1.0661003681776209,,,,,,,,,,,,
39017,0,USOhioButler,Ohio,Butler,2022-04-28 09:13:11,2020-09-20,0.34075180310692116,0.5846572613495312,1.0661003681776209,,,,,,,,,,,,
39017,0,USOhioButler,Ohio,Butler,2022-04-28 09:13:11,2020-09-21,0.34075180310692116,0.5846572613495312,1.0661003681776209,,,,,,,,,,,,
39017,0,USOhioButler,Ohio,Butler,2022-04-28 09:13:11,2020-09-22,0.34075180310692116,0.5846572613495312,1.0661003681776209,,,,,,,,,,,,
39017,0,USOhioButler,Ohio,Butler,2022-04-28 09:13:11,2020-09-23,0.34075180310692116,0.5846572613495312,1.0661003681776209,,,,,,,,,,,,
39017,0,USOhioButler,Ohio,Butler,2022-04-28 09:13:11,2020-09-24,0.43758832587222507,0.7273025921649655,1.2813554772482822,,,,,,,,,,,,
39017,0,USOhioButler,Ohio,Butler,2022-04-28 09:13:11,2020-09-25,0.43758832587222507,0.7273025921649655,1.2813554772482822,,,,,,,,,,,,
39017,0,USOhioButler,Ohio,Butler,2022-04-28 09:13:11,2020-09-26,0.43758832587222507,0.7273025921649655,1.2813554772482822,,,,,,,,,,,,
39017,0,USOhioButler,Ohio,Butler,2022-04-28 09:13:11,2020-09-27,0.43758832587222507,0.7273025921649655,1.2813554772482822,,,,,,,,,,,,
39017,0,USOhioButler,Ohio,Butler,2022-04-28 09:13:11,2020-09-28,0.43758832587222507,0.7273025921649655,1.2813554772482822,,,,,,,,,,,,
39017,0,USOhioButler,Ohio,Butler,2022-04-28 09:13:11,2020-09-29,0.43758832587222507,0.7273025921649655,1.2813554772482822,,,,,,,,,,,,
39017,0,USOhioButler,Ohio,Butler,2022-04-28 09:13:11,2020-09-30,0.43758832587222507,0.7273025921649655,1.2813554772482822,,,,,,,,,,,,
39017,0,USOhioButler,Ohio,Butler,2022-04-28 09:13:11,2020-10-01,0.5506112302293156,0.8895391849880557,1.5194366329346207,,,,,,,,,,,,
39017,0,USOhioButler,Ohio,Butler,2022-04-28 09:13:11,2020-10-02,0.5506112302293156,0.8895391849880557,1.5194366329346207,,,,,,,,,,,,
39017,0,USOhioButler,Ohio,Butler,2022-04-28 09:13:11,2020-10-03,0.5506112302293156,0.8895391849880557,1.5194366329346207,,,,,,,,,,,,
39017,0,USOhioButler,Ohio,Butler,2022-04-28 09:13:11,2020-10-04,0.5506112302293156,0.8895391849880557,1.5194366329346207,,,,,,,,,,,,
39017,0,USOhioButler,Ohio,Butler,2022-04-28 09:13:11,2020-10-05,0.5506112302293156,0.8895391849880557,1.5194366329346207,,,,,,,,,,,,
39017,0,USOhioButler,Ohio,Butler,2022-04-28 09:13:11,2020-10-06,0.5506112302293156,0.8895391849880557,1.5194366329346207,,,,,,,,,,,,
39017,0,USOhioButler,Ohio,Butler,2022-04-28 09:13:11,2020-10-07,0.5506112302293156,0.8895391849880557,1.5194366329346207,,,,,,,,,,,,
39017,0,USOhioButler,Ohio,Butler,2022-04-28 09:13:11,2020-10-08,0.5692603198393359,0.9511341502855821,1.6852808010891194,,,,,,,,,,,,
39017,0,USOhioButler,Ohio,Butler,2022-04-28 09:13:11,2020-10-09,0.5692603198393359,0.9511341502855821,1.6852808010891194,,,,,,,,,,,,
39017,0,USOhioButler,Ohio,Butler,2022-04-28 09:13:11,2020-10-10,0.5692603198393359,0.9511341502855821,1.6852808010891194,,,,,,,,,,,,
39017,0,USOhioButler,Ohio,Butler,2022-04-28 09:13:11,2020-10-11,0.5692603198393359,0.9511341502855821,1.6852808010891194,,,,,,,,,,,,
39017,0,USOhioButler,Ohio,Butler,2022-04-28 09:13:11,2020-10-12,0.5692603198393359,0.9511341502855821,1.6852808010891194,,,,,,,,,,,,
39017,0,USOhioButler,Ohio,Butler,2022-04-28 09:13:11,2020-10-13,0.5692603198393359,0.9511341502855821,1.6852808010891194,,,,,,,,,,,,
39017,0,USOhioButler,Ohio,Butler,2022-04-28 09:13:11,2020-10-14,0.5692603198393359,0.9511341502855821,1.6852808010891194,,,,,,,,,,,,
39017,0,USOhioButler,Ohio,Butler,2022-04-28 09:13:11,2020-10-15,0.693901772831179,1.1642167127474816,2.0721487003132926,,,,,,,,,,,,
39017,0,USOhioButler,Ohio,Butler,2022-04-28 09:13:11,2020-10-16,0.693901772831179,1.1642167127474816,2.0721487003132926,,,,,,,,,,,,
39017,0,USOhioButler,Ohio,Butler,2022-04-28 09:13:11,2020-10-17,0.693901772831179,1.1642167127474816,2.0721487003132926,,,,,,,,,,,,
39017,0,USOhioButler,Ohio,Butler,2022-04-28 09:13:11,2020-10-18,0.693901772831179,1.1642167127474816,2.0721487003132926,,,,,,,,,,,,
39017,0,USOhioButler,Ohio,Butler,2022-04-28 09:13:11,2020-10-19,0.693901772831179,1.1642167127474816,2.0721487003132926,,,,,,,,,,,,
39017,0,USOhioButler,Ohio,Butler,2022-04-28 09:13:11,2020-10-20,0.693901772831179,1.1642167127474816,2.0721487003132926,,,,,,,,,,,,
39017,0,USOhioButler,Ohio,Butler,2022-04-28 09:13:11,2020-10-21,0.693901772831179,1.1642167127474816,2.0721487003132926,,,,,,,,,,,,
39017,0,USOhioButler,Ohio,Butler,2022-04-28 09:13:11,2020-10-22,0.7997072201122335,1.3359751139445233,2.3667914021653926,,,,,,,,,,,,
39017,0,USOhioButler,Ohio,Butler,2022-04-28 09:13:11,2020-10-23,0.7997072201122335,1.3359751139445233,2.3667914021653926,,,,,,,,,,,,
39017,0,USOhioButler,Ohio,Butler,2022-04-28 09:13:11,2020-10-24,0.7997072201122335,1.3359751139445233,2.3667914021653926,,,,,,,,,,,,
39017,0,USOhioButler,Ohio,Butler,2022-04-28 09:13:11,2020-10-25,0.7997072201122335,1.3359751139445233,2.3667914021653926,,,,,,,,,,,,
39017,0,USOhioButler,Ohio,Butler,2022-04-28 09:13:11,2020-10-26,0.7997072201122335,1.3359751139445233,2.3667914021653926,,,,,,,,,,,,
39017,0,USOhioButler,Ohio,Butler,2022-04-28 09:13:11,2020-10-27,0.7997072201122335,1.3359751139445233,2.3667914021653926,,,,,,,,,,,,
39017,0,USOhioButler,Ohio,Butler,2022-04-28 09:13:11,2020-10-28,0.7997072201122335,1.3359751139445233,2.3667914021653926,,,,,,,,,,,,
39017,0,USOhioButler,Ohio,Butler,2022-04-28 09:13:11,2020-10-29,0.9619610172394405,1.6439998489051608,2.9850090666567595,,,,,,,,,,,,
39017,0,USOhioButler,Ohio,Butler,2022-04-28 09:13:11,2020-10-30,0.9619610172394405,1.6439998489051608,2.9850090666567595,,,,,,,,,,,,
39017,0,USOhioButler,Ohio,Butler,2022-04-28 09:13:11,2020-10-31,0.9619610172394405,1.6439998489051608,2.9850090666567595,,,,,,,,,,,,
39017,0,USOhioButler,Ohio,Butler,2022-04-28 09:13:11,2020-11-01,0.9619610172394405,1.6439998489051608,2.9850090666567595,,,,,,,,,,,,
39017,0,USOhioButler,Ohio,Butler,2022-04-28 09:13:11,2020-11-02,0.9619610172394405,1.6439998489051608,2.9850090666567595,,,,,,,,,,,,
39017,0,USOhioButler,Ohio,Butler,2022-04-28 09:13:11,2020-11-03,0.9619610172394405,1.6439998489051608,2.9850090666567595,,,,,,,,,,,,
39017,0,USOhioButler,Ohio,Butler,2022-04-28 09:13:11,2020-11-04,0.9619610172394405,1.6439998489051608,2.9850090666567595,,,,,,,,,,,,
39017,0,USOhioButler,Ohio,Butler,2022-04-28 09:13:11,2020-11-05,1.2910518877065256,2.2119749970618496,4.0271856946577564,,,,,,,,,,,,
39017,0,USOhioButler,Ohio,Butler,2022-04-28 09:13:11,2020-11-06,1.2910518877065256,2.2119749970618496,4.0271856946577564,,,,,,,,,,,,
39017,0,USOhioButler,Ohio,Butler,2022-04-28 09:13:11,2020-11-07,1.2910518877065256,2.2119749970618496,4.0271856946577564,,,,,,,,,,,,
39017,0,USOhioButler,Ohio,Butler,2022-04-28 09:13:11,2020-11-08,1.2910518877065256,2.2119749970618496,4.0271856946577564,,,,,,,,,,,,
39017,0,USOhioButler,Ohio,Butler,2022-04-28 09:13:11,2020-11-09,1.2910518877065256,2.2119749970618496,4.0271856946577564,,,,,,,,,,,,
39017,0,USOhioButler,Ohio,Butler,2022-04-28 09:13:11,2020-11-10,1.2910518877065256,2.2119749970618496,4.0271856946577564,,,,,,,,,,,,
39017,0,USOhioButler,Ohio,Butler,2022-04-28 09:13:11,2020-11-11,1.2910518877065256,2.2119749970618496,4.0271856946577564,,,,,,,,,,,,
39017,0,USOhioButler,Ohio,Butler,2022-04-28 09:13:11,2020-11-12,1.7187356633593192,2.903536301561534,5.206462810323527,,,,,,,,,,,,
39017,0,USOhioButler,Ohio,Butler,2022-04-28 09:13:11,2020-11-13,1.7187356633593192,2.903536301561534,5.206462810323527,,,,,,,,,,,,
39017,0,USOhioButler,Ohio,Butler,2022-04-28 09:13:11,2020-11-14,1.7187356633593192,2.903536301561534,5.206462810323527,,,,,,,,,,,,
39017,0,USOhioButler,Ohio,Butler,2022-04-28 09:13:11,2020-11-15,1.7187356633593192,2.903536301561534,5.206462810323527,,,,,,,,,,,,
39017,0,USOhioButler,Ohio,Butler,2022-04-28 09:13:11,2020-11-16,1.7187356633593192,2.903536301561534,5.206462810323527,,,,,,,,,,,,
39017,0,USOhioButler,Ohio,Butler,2022-04-28 09:13:11,2020-11-17,1.7187356633593192,2.903536301561534,5.206462810323527,,,,,,,,,,,,
39017,0,USOhioButler,Ohio,Butler,2022-04-28 09:13:11,2020-11-18,1.7187356633593192,2.903536301561534,5.206462810323527,,,,,,,,,,,,
39017,0,USOhioButler,Ohio,Butler,2022-04-28 09:13:11,2020-11-19,2.045024258933519,3.4000815902926265,5.992353939442457,,,,,,,,,,,,
39017,0,USOhioButler,Ohio,Butler,2022-04-28 09:13:11,2020-11-20,2.045024258933519,3.4000815902926265,5.992353939442457,,,,,,,,,,,,
39017,0,USOhioButler,Ohio,Butler,2022-04-28 09:13:11,2020-11-21,2.045024258933519,3.4000815902926265,5.992353939442457,,,,,,,,,,,,
39017,0,USOhioButler,Ohio,Butler,2022-04-28 09:13:11,2020-11-22,2.045024258933519,3.4000815902926265,5.992353939442457,,,,,,,,,,,,
39017,0,USOhioButler,Ohio,Butler,2022-04-28 09:13:11,2020-11-23,2.045024258933519,3.4000815902926265,5.992353939442457,,,,,,,,,,,,
39017,0,USOhioButler,Ohio,Butler,2022-04-28 09:13:11,2020-11-24,2.045024258933519,3.4000815902926265,5.992353939442457,,,,,,,,,,,,
39017,0,USOhioButler,Ohio,Butler,2022-04-28 09:13:11,2020-11-25,2.045024258933519,3.4000815902926265,5.992353939442457,,,,,,,,,,,,
39017,0,USOhioButler,Ohio,Butler,2022-04-28 09:13:11,2020-11-26,1.9397234138247996,3.301400189426546,5.967809872377025,,,,,,,,,,,,
39017,0,USOhioButler,Ohio,Butler,2022-04-28 09:13:11,2020-11-27,1.9397234138247996,3.301400189426546,5.967809872377025,,,,,,,,,,,,
39017,0,USOhioButler,Ohio,Butler,2022-04-28 09:13:11,2020-11-28,1.9397234138247996,3.301400189426546,5.967809872377025,,,,,,,,,,,,
39017,0,USOhioButler,Ohio,Butler,2022-04-28 09:13:11,2020-11-29,1.9397234138247996,3.301400189426546,5.967809872377025,,,,,,,,,,,,
39017,0,USOhioButler,Ohio,Butler,2022-04-28 09:13:11,2020-11-30,1.9397234138247996,3.301400189426546,5.967809872377025,,,,,,,,,,,,
39017,0,USOhioButler,Ohio,Butler,2022-04-28 09:13:11,2020-12-01,1.9397234138247996,3.301400189426546,5.967809872377025,,,,,,,,,,,,
39017,0,USOhioButler,Ohio,Butler,2022-04-28 09:13:11,2020-12-02,1.9397234138247996,3.301400189426546,5.967809872377025,,,,,,,,,,,,
39017,0,USOhioButler,Ohio,Butler,2022-04-28 09:13:11,2020-12-03,2.6784734342526506,4.575207121543445,8.302643826838915,,,,,,,,,,,,
39017,0,USOhioButler,Ohio,Butler,2022-04-28 09:13:11,2020-12-04,2.6784734342526506,4.575207121543445,8.302643826838915,,,,,,,,,,,,
39017,0,USOhioButler,Ohio,Butler,2022-04-28 09:13:11,2020-12-05,2.6784734342526506,4.575207121543445,8.302643826838915,,,,,,,,,,,,
39017,0,USOhioButler,Ohio,Butler,2022-04-28 09:13:11,2020-12-06,2.6784734342526506,4.575207121543445,8.302643826838915,,,,,,,,,,,,
39017,0,USOhioButler,Ohio,Butler,2022-04-28 09:13:11,2020-12-07,2.6784734342526506,4.575207121543445,8.302643826838915,,,,,,,,,,,,
39017,0,USOhioButler,Ohio,Butler,2022-04-28 09:13:11,2020-12-08,2.6784734342526506,4.575207121543445,8.302643826838915,,,,,,,,,,,,
39017,0,USOhioButler,Ohio,Butler,2022-04-28 09:13:11,2020-12-09,2.6784734342526506,4.575207121543445,8.302643826838915,,,,,,,,,,,,
39017,0,USOhioButler,Ohio,Butler,2022-04-28 09:13:11,2020-12-10,2.135478516790732,3.6522344147054313,6.636615794302498,,,,,,,,,,,,
39017,0,USOhioButler,Ohio,Butler,2022-04-28 09:13:11,2020-12-11,2.135478516790732,3.6522344147054313,6.636615794302498,,,,,,,,,,,,
39017,0,USOhioButler,Ohio,Butler,2022-04-28 09:13:11,2020-12-12,2.135478516790732,3.6522344147054313,6.636615794302498,,,,,,,,,,,,
39017,0,USOhioButler,Ohio,Butler,2022-04-28 09:13:11,2020-12-13,2.135478516790732,3.6522344147054313,6.636615794302498,,,,,,,,,,,,
39017,0,USOhioButler,Ohio,Butler,2022-04-28 09:13:11,2020-12-14,2.135478516790732,3.6522344147054313,6.636615794302498,,,,,,,,,,,,
39017,0,USOhioButler,Ohio,Butler,2022-04-28 09:13:11,2020-12-15,2.135478516790732,3.6522344147054313,6.636615794302498,,,,,,,,,,,,
39017,0,USOhioButler,Ohio,Butler,2022-04-28 09:13:11,2020-12-16,2.135478516790732,3.6522344147054313,6.636615794302498,,,,,,,,,,,,
39017,0,USOhioButler,Ohio,Butler,2022-04-28 09:13:11,2020-12-17,1.8380539505018736,3.281878501174265,6.245513739254595,,,,,,,,,,,,
39017,0,USOhioButler,Ohio,Butler,2022-04-28 09:13:11,2020-12-18,1.8380539505018736,3.281878501174265,6.245513739254595,,,,,,,,,,,,
39017,0,USOhioButler,Ohio,Butler,2022-04-28 09:13:11,2020-12-19,1.8380539505018736,3.281878501174265,6.245513739254595,,,,,,,,,,,,
39017,0,USOhioButler,Ohio,Butler,2022-04-28 09:13:11,2020-12-20,1.8380539505018736,3.281878501174265,6.245513739254595,,,,,,,,,,,,
39017,0,USOhioButler,Ohio,Butler,2022-04-28 09:13:11,2020-12-21,1.8380539505018736,3.281878501174265,6.245513739254595,,,,,,,,,,,,
39017,0,USOhioButler,Ohio,Butler,2022-04-28 09:13:11,2020-12-22,1.8380539505018736,3.281878501174265,6.245513739254595,,,,,,,,,,,,
39017,0,USOhioButler,Ohio,Butler,2022-04-28 09:13:11,2020-12-23,1.8380539505018736,3.281878501174265,6.245513739254595,,,,,,,,,,,,
39017,0,USOhioButler,Ohio,Butler,2022-04-28 09:13:11,2020-12-24,1.628999374575102,2.9948277660718388,5.879019321957344,,,,,,,,,,,,
39017,0,USOhioButler,Ohio,Butler,2022-04-28 09:13:11,2020-12-25,1.628999374575102,2.9948277660718388,5.879019321957344,,,,,,,,,,,,
39017,0,USOhioButler,Ohio,Butler,2022-04-28 09:13:11,2020-12-26,1.628999374575102,2.9948277660718388,5.879019321957344,,,,,,,,,,,,
39017,0,USOhioButler,Ohio,Butler,2022-04-28 09:13:11,2020-12-27,1.628999374575102,2.9948277660718388,5.879019321957344,,,,,,,,,,,,
39017,0,USOhioButler,Ohio,Butler,2022-04-28 09:13:11,2020-12-28,1.628999374575102,2.9948277660718388,5.879019321957344,,,,,,,,,,,,
39017,0,USOhioButler,Ohio,Butler,2022-04-28 09:13:11,2020-12-29,1.628999374575102,2.9948277660718388,5.879019321957344,,,,,,,,,,,,
39017,0,USOhioButler,Ohio,Butler,2022-04-28 09:13:11,2020-12-30,1.628999374575102,2.9948277660718388,5.879019321957344,,,,,,,,,,,,
39017,0,USOhioButler,Ohio,Butler,2022-04-28 09:13:11,2020-12-31,1.7574106270712895,3.243310672015586,6.392694736927047,,,,,,,,,,,,
39017,0,USOhioButler,Ohio,Butler,2022-04-28 09:13:11,2021-01-01,1.7574106270712895,3.243310672015586,6.392694736927047,,,,,,,,,,,,
39017,0,USOhioButler,Ohio,Butler,2022-04-28 09:13:11,2021-01-02,1.7574106270712895,3.243310672015586,6.392694736927047,,,,,,,,,,,,
39017,0,USOhioButler,Ohio,Butler,2022-04-28 09:13:11,2021-01-03,1.7574106270712895,3.243310672015586,6.392694736927047,,,,,,,,,,,,
39017,0,USOhioButler,Ohio,Butler,2022-04-28 09:13:11,2021-01-04,1.7574106270712895,3.243310672015586,6.392694736927047,,,,,,,,,,,,
39017,0,USOhioButler,Ohio,Butler,2022-04-28 09:13:11,2021-01-05,1.7574106270712895,3.243310672015586,6.392694736927047,,,,,,,,,,,,
39017,0,USOhioButler,Ohio,Butler,2022-04-28 09:13:11,2021-01-06,1.7574106270712895,3.243310672015586,6.392694736927047,,,,,,,,,,,,
39017,0,USOhioButler,Ohio,Butler,2022-04-28 09:13:11,2021-01-07,1.839481098003978,3.2633482338111626,6.1677046095651145,,,,,,,,,,,,
39017,0,USOhioButler,Ohio,Butler,2022-04-28 09:13:11,2021-01-08,1.839481098003978,3.2633482338111626,6.1677046095651145,,,,,,,,,,,,
39017,0,USOhioButler,Ohio,Butler,2022-04-28 09:13:11,2021-01-09,1.839481098003978,3.2633482338111626,6.1677046095651145,,,,,,,,,,,,
39017,0,USOhioButler,Ohio,Butler,2022-04-28 09:13:11,2021-01-10,1.839481098003978,3.2633482338111626,6.1677046095651145,,,,,,,,,,,,
39017,0,USOhioButler,Ohio,Butler,2022-04-28 09:13:11,2021-01-11,1.839481098003978,3.2633482338111626,6.1677046095651145,,,,,,,,,,,,
39017,0,USOhioButler,Ohio,Butler,2022-04-28 09:13:11,2021-01-12,1.839481098003978,3.2633482338111626,6.1677046095651145,,,,,,,,,,,,
39017,0,USOhioButler,Ohio,Butler,2022-04-28 09:13:11,2021-01-13,1.839481098003978,3.2633482338111626,6.1677046095651145,,,,,,,,,,,,
39017,0,USOhioButler,Ohio,Butler,2022-04-28 09:13:11,2021-01-14,1.396787229992979,2.5058044800077814,4.792714542001522,,,,,,,,,,,,
39017,0,USOhioButler,Ohio,Butler,2022-04-28 09:13:11,2021-01-15,1.396787229992979,2.5058044800077814,4.792714542001522,,,,,,,,,,,,
39017,0,USOhioButler,Ohio,Butler,2022-04-28 09:13:11,2021-01-16,1.396787229992979,2.5058044800077814,4.792714542001522,,,,,,,,,,,,
39017,0,USOhioButler,Ohio,Butler,2022-04-28 09:13:11,2021-01-17,1.396787229992979,2.5058044800077814,4.792714542001522,,,,,,,,,,,,
39017,0,USOhioButler,Ohio,Butler,2022-04-28 09:13:11,2021-01-18,1.396787229992979,2.5058044800077814,4.792714542001522,,,,,,,,,,,,
39017,0,USOhioButler,Ohio,Butler,2022-04-28 09:13:11,2021-01-19,1.396787229992979,2.5058044800077814,4.792714542001522,,,,,,,,,,,,
39017,0,USOhioButler,Ohio,Butler,2022-04-28 09:13:11,2021-01-20,1.396787229992979,2.5058044800077814,4.792714542001522,,,,,,,,,,,,
39017,0,USOhioButler,Ohio,Butler,2022-04-28 09:13:11,2021-01-21,1.4282376272089559,2.4919273046335033,4.626478268368656,,,,,,,,,,,,
39017,0,USOhioButler,Ohio,Butler,2022-04-28 09:13:11,2021-01-22,1.4282376272089559,2.4919273046335033,4.626478268368656,,,,,,,,,,,,
39017,0,USOhioButler,Ohio,Butler,2022-04-28 09:13:11,2021-01-23,1.4282376272089559,2.4919273046335033,4.626478268368656,,,,,,,,,,,,
39017,0,USOhioButler,Ohio,Butler,2022-04-28 09:13:11,2021-01-24,1.4282376272089559,2.4919273046335033,4.626478268368656,,,,,,,,,,,,
39017,0,USOhioButler,Ohio,Butler,2022-04-28 09:13:11,2021-01-25,1.4282376272089559,2.4919273046335033,4.626478268368656,,,,,,,,,,,,
39017,0,USOhioButler,Ohio,Butler,2022-04-28 09:13:11,2021-01-26,1.4282376272089559,2.4919273046335033,4.626478268368656,,,,,,,,,,,,
39017,0,USOhioButler,Ohio,Butler,2022-04-28 09:13:11,2021-01-27,1.4282376272089559,2.4919273046335033,4.626478268368656,,,,,,,,,,,,
39017,0,USOhioButler,Ohio,Butler,2022-04-28 09:13:11,2021-01-28,1.1320944027872326,1.982857907147873,3.6965967694921957,,,,,,,,,,,,
39017,0,USOhioButler,Ohio,Butler,2022-04-28 09:13:11,2021-01-29,1.1320944027872326,1.982857907147873,3.6965967694921957,,,,,,,,,,,,
39017,0,USOhioButler,Ohio,Butler,2022-04-28 09:13:11,2021-01-30,1.1320944027872326,1.982857907147873,3.6965967694921957,,,,,,,,,,,,
39017,0,USOhioButler,Ohio,Butler,2022-04-28 09:13:11,2021-01-31,1.1320944027872326,1.982857907147873,3.6965967694921957,,,,,,,,,,,,
39017,0,USOhioButler,Ohio,Butler,2022-04-28 09:13:11,2021-02-01,1.1320944027872326,1.982857907147873,3.6965967694921957,,,,,,,,,,,,
39017,0,USOhioButler,Ohio,Butler,2022-04-28 09:13:11,2021-02-02,1.1320944027872326,1.982857907147873,3.6965967694921957,,,,,,,,,,,,
39017,0,USOhioButler,Ohio,Butler,2022-04-28 09:13:11,2021-02-03,1.1320944027872326,1.982857907147873,3.6965967694921957,,,,,,,,,,,,
39017,0,USOhioButler,Ohio,Butler,2022-04-28 09:13:11,2021-02-04,0.9889146532209341,1.7253842904632097,3.2032626661050223,,,,,,,,,,,,
39017,0,USOhioButler,Ohio,Butler,2022-04-28 09:13:11,2021-02-05,0.9889146532209341,1.7253842904632097,3.2032626661050223,,,,,,,,,,,,
39017,0,USOhioButler,Ohio,Butler,2022-04-28 09:13:11,2021-02-06,0.9889146532209341,1.7253842904632097,3.2032626661050223,,,,,,,,,,,,
39017,0,USOhioButler,Ohio,Butler,2022-04-28 09:13:11,2021-02-07,0.9889146532209341,1.7253842904632097,3.2032626661050223,,,,,,,,,,,,
39017,0,USOhioButler,Ohio,Butler,2022-04-28 09:13:11,2021-02-08,0.9889146532209341,1.7253842904632097,3.2032626661050223,,,,,,,,,,,,
39017,0,USOhioButler,Ohio,Butler,2022-04-28 09:13:11,2021-02-09,0.9889146532209341,1.7253842904632097,3.2032626661050223,,,,,,,,,,,,
39017,0,USOhioButler,Ohio,Butler,2022-04-28 09:13:11,2021-02-10,0.9889146532209341,1.7253842904632097,3.2032626661050223,,,,,,,,,,,,
39017,0,USOhioButler,Ohio,Butler,2022-04-28 09:13:11,2021-02-11,0.7129303028091233,1.2799329206378225,2.4499994667279528,,,,,,,,,,,,
39017,0,USOhioButler,Ohio,Butler,2022-04-28 09:13:11,2021-02-12,0.7129303028091233,1.2799329206378225,2.4499994667279528,,,,,,,,,,,,
39017,0,USOhioButler,Ohio,Butler,2022-04-28 09:13:11,2021-02-13,0.7129303028091233,1.2799329206378225,2.4499994667279528,,,,,,,,,,,,
39017,0,USOhioButler,Ohio,Butler,2022-04-28 09:13:11,2021-02-14,0.7129303028091233,1.2799329206378225,2.4499994667279528,,,,,,,,,,,,
39017,0,USOhioButler,Ohio,Butler,2022-04-28 09:13:11,2021-02-15,0.7129303028091233,1.2799329206378225,2.4499994667279528,,,,,,,,,,,,
39017,0,USOhioButler,Ohio,Butler,2022-04-28 09:13:11,2021-02-16,0.7129303028091233,1.2799329206378225,2.4499994667279528,,,,,,,,,,,,
39017,0,USOhioButler,Ohio,Butler,2022-04-28 09:13:11,2021-02-17,0.7129303028091233,1.2799329206378225,2.4499994667279528,,,,,,,,,,,,
39017,0,USOhioButler,Ohio,Butler,2022-04-28 09:13:11,2021-02-18,0.7201902344636866,1.3667781027971309,2.774567150065673,,,,,,,,,,,,
39017,0,USOhioButler,Ohio,Butler,2022-04-28 09:13:11,2021-02-19,0.7201902344636866,1.3667781027971309,2.774567150065673,,,,,,,,,,,,
39017,0,USOhioButler,Ohio,Butler,2022-04-28 09:13:11,2021-02-20,0.7201902344636866,1.3667781027971309,2.774567150065673,,,,,,,,,,,,
39017,0,USOhioButler,Ohio,Butler,2022-04-28 09:13:11,2021-02-21,0.7201902344636866,1.3667781027971309,2.774567150065673,,,,,,,,,,,,
39017,0,USOhioButler,Ohio,Butler,2022-04-28 09:13:11,2021-02-22,0.7201902344636866,1.3667781027971309,2.774567150065673,,,,,,,,,,,,
39017,0,USOhioButler,Ohio,Butler,2022-04-28 09:13:11,2021-02-23,0.7201902344636866,1.3667781027971309,2.774567150065673,,,,,,,,,,,,
39017,0,USOhioButler,Ohio,Butler,2022-04-28 09:13:11,2021-02-24,0.7201902344636866,1.3667781027971309,2.774567150065673,,,,,,,,,,,,
39017,0,USOhioButler,Ohio,Butler,2022-04-28 09:13:11,2021-02-25,0.5066018249364964,0.9208739970909162,1.7861450510048265,,,,,,,,,,,,
39017,0,USOhioButler,Ohio,Butler,2022-04-28 09:13:11,2021-02-26,0.5066018249364964,0.9208739970909162,1.7861450510048265,,,,,,,,,,,,
39017,0,USOhioButler,Ohio,Butler,2022-04-28 09:13:11,2021-02-27,0.5066018249364964,0.9208739970909162,1.7861450510048265,,,,,,,,,,,,
39017,0,USOhioButler,Ohio,Butler,2022-04-28 09:13:11,2021-02-28,0.5066018249364964,0.9208739970909162,1.7861450510048265,,,,,,,,,,,,
39017,0,USOhioButler,Ohio,Butler,2022-04-28 09:13:11,2021-03-01,0.5066018249364964,0.9208739970909162,1.7861450510048265,,,,,,,,,,,,
39017,0,USOhioButler,Ohio,Butler,2022-04-28 09:13:11,2021-03-02,0.5066018249364964,0.9208739970909162,1.7861450510048265,,,,,,,,,,,,
39017,0,USOhioButler,Ohio,Butler,2022-04-28 09:13:11,2021-03-03,0.5066018249364964,0.9208739970909162,1.7861450510048265,,,,,,,,,,,,
39017,0,USOhioButler,Ohio,Butler,2022-04-28 09:13:11,2021-03-04,0.47070500285901795,0.8640372855475285,1.6933959226120572,,,,,,,,,,,,
39017,0,USOhioButler,Ohio,Butler,2022-04-28 09:13:11,2021-03-05,0.47070500285901795,0.8640372855475285,1.6933959226120572,,,,,,,,,,,,
39017,0,USOhioButler,Ohio,Butler,2022-04-28 09:13:11,2021-03-06,0.47070500285901795,0.8640372855475285,1.6933959226120572,,,,,,,,,,,,
39017,0,USOhioButler,Ohio,Butler,2022-04-28 09:13:11,2021-03-07,0.47070500285901795,0.8640372855475285,1.6933959226120572,,,,,,,,,,,,
39017,0,USOhioButler,Ohio,Butler,2022-04-28 09:13:11,2021-03-08,0.47070500285901795,0.8640372855475285,1.6933959226120572,,,,,,,,,,,,
39017,0,USOhioButler,Ohio,Butler,2022-04-28 09:13:11,2021-03-09,0.47070500285901795,0.8640372855475285,1.6933959226120572,,,,,,,,,,,,
39017,0,USOhioButler,Ohio,Butler,2022-04-28 09:13:11,2021-03-10,0.47070500285901795,0.8640372855475285,1.6933959226120572,,,,,,,,,,,,
39017,0,USOhioButler,Ohio,Butler,2022-04-28 09:13:11,2021-03-11,0.3679536796090437,0.7131683766505381,1.4800784009193386,,,,,,,,,,,,
39017,0,USOhioButler,Ohio,Butler,2022-04-28 09:13:11,2021-03-12,0.3679536796090437,0.7131683766505381,1.4800784009193386,,,,,,,,,,,,
39017,0,USOhioButler,Ohio,Butler,2022-04-28 09:13:11,2021-03-13,0.3679536796090437,0.7131683766505381,1.4800784009193386,,,,,,,,,,,,
39017,0,USOhioButler,Ohio,Butler,2022-04-28 09:13:11,2021-03-14,0.3679536796090437,0.7131683766505381,1.4800784009193386,,,,,,,,,,,,
39017,0,USOhioButler,Ohio,Butler,2022-04-28 09:13:11,2021-03-15,0.3679536796090437,0.7131683766505381,1.4800784009193386,,,,,,,,,,,,
39017,0,USOhioButler,Ohio,Butler,2022-04-28 09:13:11,2021-03-16,0.3679536796090437,0.7131683766505381,1.4800784009193386,,,,,,,,,,,,
39017,0,USOhioButler,Ohio,Butler,2022-04-28 09:13:11,2021-03-17,0.3679536796090437,0.7131683766505381,1.4800784009193386,,,,,,,,,,,,
39017,0,USOhioButler,Ohio,Butler,2022-04-28 09:13:11,2021-03-18,0.3977471007674618,0.7718629578596305,1.6039535257256887,,,,,,,,,,,,
39017,0,USOhioButler,Ohio,Butler,2022-04-28 09:13:11,2021-03-19,0.3977471007674618,0.7718629578596305,1.6039535257256887,,,,,,,,,,,,
39017,0,USOhioButler,Ohio,Butler,2022-04-28 09:13:11,2021-03-20,0.3977471007674618,0.7718629578596305,1.6039535257256887,,,,,,,,,,,,
39017,0,USOhioButler,Ohio,Butler,2022-04-28 09:13:11,2021-03-21,0.3977471007674618,0.7718629578596305,1.6039535257256887,,,,,,,,,,,,
39017,0,USOhioButler,Ohio,Butler,2022-04-28 09:13:11,2021-03-22,0.3977471007674618,0.7718629578596305,1.6039535257256887,,,,,,,,,,,,
39017,0,USOhioButler,Ohio,Butler,2022-04-28 09:13:11,2021-03-23,0.3977471007674618,0.7718629578596305,1.6039535257256887,,,,,,,,,,,,
39017,0,USOhioButler,Ohio,Butler,2022-04-28 09:13:11,2021-03-24,0.3977471007674618,0.7718629578596305,1.6039535257256887,,,,,,,,,,,,
39017,0,USOhioButler,Ohio,Butler,2022-04-28 09:13:11,2021-03-25,0.3564594174254327,0.7508187956881571,1.6985708150592558,,,,,,,,,,,,
39017,0,USOhioButler,Ohio,Butler,2022-04-28 09:13:11,2021-03-26,0.3564594174254327,0.7508187956881571,1.6985708150592558,,,,,,,,,,,,
39017,0,USOhioButler,Ohio,Butler,2022-04-28 09:13:11,2021-03-27,0.3564594174254327,0.7508187956881571,1.6985708150592558,,,,,,,,,,,,
39017,0,USOhioButler,Ohio,Butler,2022-04-28 09:13:11,2021-03-28,0.3564594174254327,0.7508187956881571,1.6985708150592558,,,,,,,,,,,,
39017,0,USOhioButler,Ohio,Butler,2022-04-28 09:13:11,2021-03-29,0.3564594174254327,0.7508187956881571,1.6985708150592558,,,,,,,,,,,,
39017,0,USOhioButler,Ohio,Butler,2022-04-28 09:13:11,2021-03-30,0.3564594174254327,0.7508187956881571,1.6985708150592558,,,,,,,,,,,,
39017,0,USOhioButler,Ohio,Butler,2022-04-28 09:13:11,2021-03-31,0.3564594174254327,0.7508187956881571,1.6985708150592558,,,,,,,,,,,,
39017,0,USOhioButler,Ohio,Butler,2022-04-28 09:13:11,2021-04-01,0.3740294290722086,0.7884010257726592,1.7849283497133654,,,,,,,,,,,,
39017,0,USOhioButler,Ohio,Butler,2022-04-28 09:13:11,2021-04-02,0.3740294290722086,0.7884010257726592,1.7849283497133654,,,,,,,,,,,,
39017,0,USOhioButler,Ohio,Butler,2022-04-28 09:13:11,2021-04-03,0.3740294290722086,0.7884010257726592,1.7849283497133654,,,,,,,,,,,,
39017,0,USOhioButler,Ohio,Butler,2022-04-28 09:13:11,2021-04-04,0.3740294290722086,0.7884010257726592,1.7849283497133654,,,,,,,,,,,,
39017,0,USOhioButler,Ohio,Butler,2022-04-28 09:13:11,2021-04-05,0.3740294290722086,0.7884010257726592,1.7849283497133654,,,,,,,,,,,,
39017,0,USOhioButler,Ohio,Butler,2022-04-28 09:13:11,2021-04-06,0.3740294290722086,0.7884010257726592,1.7849283497133654,,,,,,,,,,,,
39017,0,USOhioButler,Ohio,Butler,2022-04-28 09:13:11,2021-04-07,0.3740294290722086,0.7884010257726592,1.7849283497133654,,,,,,,,,,,,
39017,0,USOhioButler,Ohio,Butler,2022-04-28 09:13:11,2021-04-08,0.3660308233761186,0.7895901949710271,1.8305011118251664,,,,,,,,,,,,
39017,0,USOhioButler,Ohio,Butler,2022-04-28 09:13:11,2021-04-09,0.3660308233761186,0.7895901949710271,1.8305011118251664,,,,,,,,,,,,
39017,0,USOhioButler,Ohio,Butler,2022-04-28 09:13:11,2021-04-10,0.3660308233761186,0.7895901949710271,1.8305011118251664,,,,,,,,,,,,
39017,0,USOhioButler,Ohio,Butler,2022-04-28 09:13:11,2021-04-11,0.3660308233761186,0.7895901949710271,1.8305011118251664,,,,,,,,,,,,
39017,0,USOhioButler,Ohio,Butler,2022-04-28 09:13:11,2021-04-12,0.3660308233761186,0.7895901949710271,1.8305011118251664,,,,,,,,,,,,
39017,0,USOhioButler,Ohio,Butler,2022-04-28 09:13:11,2021-04-13,0.3660308233761186,0.7895901949710271,1.8305011118251664,,,,,,,,,,,,
39017,0,USOhioButler,Ohio,Butler,2022-04-28 09:13:11,2021-04-14,0.3660308233761186,0.7895901949710271,1.8305011118251664,,,,,,,,,,,,
39017,0,USOhioButler,Ohio,Butler,2022-04-28 09:13:11,2021-04-15,0.3483426636189441,0.749069957845666,1.7309747396194421,,,,,,,,,,,,
39017,0,USOhioButler,Ohio,Butler,2022-04-28 09:13:11,2021-04-16,0.3483426636189441,0.749069957845666,1.7309747396194421,,,,,,,,,,,,
39017,0,USOhioButler,Ohio,Butler,2022-04-28 09:13:11,2021-04-17,0.3483426636189441,0.749069957845666,1.7309747396194421,,,,,,,,,,,,
39017,0,USOhioButler,Ohio,Butler,2022-04-28 09:13:11,2021-04-18,0.3483426636189441,0.749069957845666,1.7309747396194421,,,,,,,,,,,,
39017,0,USOhioButler,Ohio,Butler,2022-04-28 09:13:11,2021-04-19,0.3483426636189441,0.749069957845666,1.7309747396194421,,,,,,,,,,,,
39017,0,USOhioButler,Ohio,Butler,2022-04-28 09:13:11,2021-04-20,0.3483426636189441,0.749069957845666,1.7309747396194421,,,,,,,,,,,,
39017,0,USOhioButler,Ohio,Butler,2022-04-28 09:13:11,2021-04-21,0.3483426636189441,0.749069957845666,1.7309747396194421,,,,,,,,,,,,
39017,0,USOhioButler,Ohio,Butler,2022-04-28 09:13:11,2021-04-22,0.19875516935949264,0.33615906201546725,0.6035453891536312,,,,,,,,,,,,
39017,0,USOhioButler,Ohio,Butler,2022-04-28 09:13:11,2021-04-23,0.19875516935949264,0.33615906201546725,0.6035453891536312,,,,,,,,,,,,
39017,0,USOhioButler,Ohio,Butler,2022-04-28 09:13:11,2021-04-24,0.19875516935949264,0.33615906201546725,0.6035453891536312,,,,,,,,,,,,
39017,0,USOhioButler,Ohio,Butler,2022-04-28 09:13:11,2021-04-25,0.19875516935949264,0.33615906201546725,0.6035453891536312,,,,,,,,,,,,
39017,0,USOhioButler,Ohio,Butler,2022-04-28 09:13:11,2021-04-26,0.19875516935949264,0.33615906201546725,0.6035453891536312,,,,,,,,,,,,
39017,0,USOhioButler,Ohio,Butler,2022-04-28 09:13:11,2021-04-27,0.19875516935949264,0.33615906201546725,0.6035453891536312,,,,,,,,,,,,
39017,0,USOhioButler,Ohio,Butler,2022-04-28 09:13:11,2021-04-28,0.19875516935949264,0.33615906201546725,0.6035453891536312,,,,,,,,,,,,
39017,0,USOhioButler,Ohio,Butler,2022-04-28 09:13:11,2021-04-29,0.23816679328204654,0.5163441747961701,1.203177788684027,,,,,,,,,,,,
39017,0,USOhioButler,Ohio,Butler,2022-04-28 09:13:11,2021-04-30,0.23816679328204654,0.5163441747961701,1.203177788684027,,,,,,,,,,,,
39017,0,USOhioButler,Ohio,Butler,2022-04-28 09:13:11,2021-05-01,0.23816679328204654,0.5163441747961701,1.203177788684027,,,,,,,,,,,,
39017,0,USOhioButler,Ohio,Butler,2022-04-28 09:13:11,2021-05-02,0.23816679328204654,0.5163441747961701,1.203177788684027,,,,,,,,,,,,
39017,0,USOhioButler,Ohio,Butler,2022-04-28 09:13:11,2021-05-03,0.23816679328204654,0.5163441747961701,1.203177788684027,,,,,,,,,,,,
39017,0,USOhioButler,Ohio,Butler,2022-04-28 09:13:11,2021-05-04,0.23816679328204654,0.5163441747961701,1.203177788684027,,,,,,,,,,,,
39017,0,USOhioButler,Ohio,Butler,2022-04-28 09:13:11,2021-05-05,0.23816679328204654,0.5163441747961701,1.203177788684027,,,,,,,,,,,,
39017,0,USOhioButler,Ohio,Butler,2022-04-28 09:13:11,2021-05-06,0.23631033911517754,0.5014957268756529,1.14330676032576,,,,,,,,,,,,
39017,0,USOhioButler,Ohio,Butler,2022-04-28 09:13:11,2021-05-07,0.23631033911517754,0.5014957268756529,1.14330676032576,,,,,,,,,,,,
39017,0,USOhioButler,Ohio,Butler,2022-04-28 09:13:11,2021-05-08,0.23631033911517754,0.5014957268756529,1.14330676032576,,,,,,,,,,,,
39017,0,USOhioButler,Ohio,Butler,2022-04-28 09:13:11,2021-05-09,0.23631033911517754,0.5014957268756529,1.14330676032576,,,,,,,,,,,,
39017,0,USOhioButler,Ohio,Butler,2022-04-28 09:13:11,2021-05-10,0.23631033911517754,0.5014957268756529,1.14330676032576,,,,,,,,,,,,
39017,0,USOhioButler,Ohio,Butler,2022-04-28 09:13:11,2021-05-11,0.23631033911517754,0.5014957268756529,1.14330676032576,,,,,,,,,,,,
39017,0,USOhioButler,Ohio,Butler,2022-04-28 09:13:11,2021-05-12,0.23631033911517754,0.5014957268756529,1.14330676032576,,,,,,,,,,,,
39017,0,USOhioButler,Ohio,Butler,2022-04-28 09:13:11,2021-05-13,0.19018243004795093,0.4207241863099793,1.0007597542556683,,,,,,,,,,,,
39017,0,USOhioButler,Ohio,Butler,2022-04-28 09:13:11,2021-05-14,0.19018243004795093,0.4207241863099793,1.0007597542556683,,,,,,,,,,,,
39017,0,USOhioButler,Ohio,Butler,2022-04-28 09:13:11,2021-05-15,0.19018243004795093,0.4207241863099793,1.0007597542556683,,,,,,,,,,,,
39017,0,USOhioButler,Ohio,Butler,2022-04-28 09:13:11,2021-05-16,0.19018243004795093,0.4207241863099793,1.0007597542556683,,,,,,,,,,,,
39017,0,USOhioButler,Ohio,Butler,2022-04-28 09:13:11,2021-05-17,0.19018243004795093,0.4207241863099793,1.0007597542556683,,,,,,,,,,,,
39017,0,USOhioButler,Ohio,Butler,2022-04-28 09:13:11,2021-05-18,0.19018243004795093,0.4207241863099793,1.0007597542556683,,,,,,,,,,,,
39017,0,USOhioButler,Ohio,Butler,2022-04-28 09:13:11,2021-05-19,0.19018243004795093,0.4207241863099793,1.0007597542556683,,,,,,,,,,,,
39017,0,USOhioButler,Ohio,Butler,2022-04-28 09:13:11,2021-05-20,0.1748879316864503,0.3981955063279826,0.9752718649533001,,,,,,,,,,,,
39017,0,USOhioButler,Ohio,Butler,2022-04-28 09:13:11,2021-05-21,0.1748879316864503,0.3981955063279826,0.9752718649533001,,,,,,,,,,,,
39017,0,USOhioButler,Ohio,Butler,2022-04-28 09:13:11,2021-05-22,0.1748879316864503,0.3981955063279826,0.9752718649533001,,,,,,,,,,,,
39017,0,USOhioButler,Ohio,Butler,2022-04-28 09:13:11,2021-05-23,0.1748879316864503,0.3981955063279826,0.9752718649533001,,,,,,,,,,,,
39017,0,USOhioButler,Ohio,Butler,2022-04-28 09:13:11,2021-05-24,0.1748879316864503,0.3981955063279826,0.9752718649533001,,,,,,,,,,,,
39017,0,USOhioButler,Ohio,Butler,2022-04-28 09:13:11,2021-05-25,0.1748879316864503,0.3981955063279826,0.9752718649533001,,,,,,,,,,,,
39017,0,USOhioButler,Ohio,Butler,2022-04-28 09:13:11,2021-05-26,0.1748879316864503,0.3981955063279826,0.9752718649533001,,,,,,,,,,,,
39017,0,USOhioButler,Ohio,Butler,2022-04-28 09:13:11,2021-05-27,0.11469985906027579,0.2618682191756557,0.6431463392371642,,,,,,,,,,,,
39017,0,USOhioButler,Ohio,Butler,2022-04-28 09:13:11,2021-05-28,0.11469985906027579,0.2618682191756557,0.6431463392371642,,,,,,,,,,,,
39017,0,USOhioButler,Ohio,Butler,2022-04-28 09:13:11,2021-05-29,0.11469985906027579,0.2618682191756557,0.6431463392371642,,,,,,,,,,,,
39017,0,USOhioButler,Ohio,Butler,2022-04-28 09:13:11,2021-05-30,0.11469985906027579,0.2618682191756557,0.6431463392371642,,,,,,,,,,,,
39017,0,USOhioButler,Ohio,Butler,2022-04-28 09:13:11,2021-05-31,0.11469985906027579,0.2618682191756557,0.6431463392371642,,,,,,,,,,,,
39017,0,USOhioButler,Ohio,Butler,2022-04-28 09:13:11,2021-06-01,0.11469985906027579,0.2618682191756557,0.6431463392371642,,,,,,,,,,,,
39017,0,USOhioButler,Ohio,Butler,2022-04-28 09:13:11,2021-06-02,0.11469985906027579,0.2618682191756557,0.6431463392371642,,,,,,,,,,,,
39017,0,USOhioButler,Ohio,Butler,2022-04-28 09:13:11,2021-06-03,0.06743936247519756,0.17230119609969982,0.4736777047769306,,,,,,,,,,,,
39017,0,USOhioButler,Ohio,Butler,2022-04-28 09:13:11,2021-06-04,0.06743936247519756,0.17230119609969982,0.4736777047769306,,,,,,,,,,,,
39017,0,USOhioButler,Ohio,Butler,2022-04-28 09:13:11,2021-06-05,0.06743936247519756,0.17230119609969982,0.4736777047769306,,,,,,,,,,,,
39017,0,USOhioButler,Ohio,Butler,2022-04-28 09:13:11,2021-06-06,0.06743936247519756,0.17230119609969982,0.4736777047769306,,,,,,,,,,,,
39017,0,USOhioButler,Ohio,Butler,2022-04-28 09:13:11,2021-06-07,0.06743936247519756,0.17230119609969982,0.4736777047769306,,,,,,,,,,,,
39017,0,USOhioButler,Ohio,Butler,2022-04-28 09:13:11,2021-06-08,0.06743936247519756,0.17230119609969982,0.4736777047769306,,,,,,,,,,,,
39017,0,USOhioButler,Ohio,Butler,2022-04-28 09:13:11,2021-06-09,0.06743936247519756,0.17230119609969982,0.4736777047769306,,,,,,,,,,,,
39017,0,USOhioButler,Ohio,Butler,2022-04-28 09:13:11,2021-06-10,0.1277260845186632,0.25684827198574806,0.55391088776052,,,,,,,,,,,,
39017,0,USOhioButler,Ohio,Butler,2022-04-28 09:13:11,2021-06-11,0.1277260845186632,0.25684827198574806,0.55391088776052,,,,,,,,,,,,
39017,0,USOhioButler,Ohio,Butler,2022-04-28 09:13:11,2021-06-12,0.1277260845186632,0.25684827198574806,0.55391088776052,,,,,,,,,,,,
39017,0,USOhioButler,Ohio,Butler,2022-04-28 09:13:11,2021-06-13,0.1277260845186632,0.25684827198574806,0.55391088776052,,,,,,,,,,,,
39017,0,USOhioButler,Ohio,Butler,2022-04-28 09:13:11,2021-06-14,0.1277260845186632,0.25684827198574806,0.55391088776052,,,,,,,,,,,,
39017,0,USOhioButler,Ohio,Butler,2022-04-28 09:13:11,2021-06-15,0.1277260845186632,0.25684827198574806,0.55391088776052,,,,,,,,,,,,
39017,0,USOhioButler,Ohio,Butler,2022-04-28 09:13:11,2021-06-16,0.1277260845186632,0.25684827198574806,0.55391088776052,,,,,,,,,,,,
39017,0,USOhioButler,Ohio,Butler,2022-04-28 09:13:11,2021-06-17,0.16999216130881542,0.3108853928280676,0.6068997824995317,,,,,,,,,,,,
39017,0,USOhioButler,Ohio,Butler,2022-04-28 09:13:11,2021-06-18,0.16999216130881542,0.3108853928280676,0.6068997824995317,,,,,,,,,,,,
39017,0,USOhioButler,Ohio,Butler,2022-04-28 09:13:11,2021-06-19,0.16999216130881542,0.3108853928280676,0.6068997824995317,,,,,,,,,,,,
39017,0,USOhioButler,Ohio,Butler,2022-04-28 09:13:11,2021-06-20,0.16999216130881542,0.3108853928280676,0.6068997824995317,,,,,,,,,,,,
39017,0,USOhioButler,Ohio,Butler,2022-04-28 09:13:11,2021-06-21,0.16999216130881542,0.3108853928280676,0.6068997824995317,,,,,,,,,,,,
39017,0,USOhioButler,Ohio,Butler,2022-04-28 09:13:11,2021-06-22,0.16999216130881542,0.3108853928280676,0.6068997824995317,,,,,,,,,,,,
39017,0,USOhioButler,Ohio,Butler,2022-04-28 09:13:11,2021-06-23,0.16999216130881542,0.3108853928280676,0.6068997824995317,,,,,,,,,,,,
39017,0,USOhioButler,Ohio,Butler,2022-04-28 09:13:11,2021-06-24,0.08328680338158355,0.18408820471290957,0.43749618974058796,,,,,,,,,,,,
39017,0,USOhioButler,Ohio,Butler,2022-04-28 09:13:11,2021-06-25,0.08328680338158355,0.18408820471290957,0.43749618974058796,,,,,,,,,,,,
39017,0,USOhioButler,Ohio,Butler,2022-04-28 09:13:11,2021-06-26,0.08328680338158355,0.18408820471290957,0.43749618974058796,,,,,,,,,,,,
39017,0,USOhioButler,Ohio,Butler,2022-04-28 09:13:11,2021-06-27,0.08328680338158355,0.18408820471290957,0.43749618974058796,,,,,,,,,,,,
39017,0,USOhioButler,Ohio,Butler,2022-04-28 09:13:11,2021-06-28,0.08328680338158355,0.18408820471290957,0.43749618974058796,,,,,,,,,,,,
39017,0,USOhioButler,Ohio,Butler,2022-04-28 09:13:11,2021-06-29,0.08328680338158355,0.18408820471290957,0.43749618974058796,,,,,,,,,,,,
39017,0,USOhioButler,Ohio,Butler,2022-04-28 09:13:11,2021-06-30,0.08328680338158355,0.18408820471290957,0.43749618974058796,,,,,,,,,,,,
39017,0,USOhioButler,Ohio,Butler,2022-04-28 09:13:11,2021-07-01,0.3426778858296499,0.5358547254087118,0.883113733474168,,,,,,,,,,,,
39017,0,USOhioButler,Ohio,Butler,2022-04-28 09:13:11,2021-07-02,0.3426778858296499,0.5358547254087118,0.883113733474168,,,,,,,,,,,,
39017,0,USOhioButler,Ohio,Butler,2022-04-28 09:13:11,2021-07-03,0.3426778858296499,0.5358547254087118,0.883113733474168,,,,,,,,,,,,
39017,0,USOhioButler,Ohio,Butler,2022-04-28 09:13:11,2021-07-04,0.3426778858296499,0.5358547254087118,0.883113733474168,,,,,,,,,,,,
39017,0,USOhioButler,Ohio,Butler,2022-04-28 09:13:11,2021-07-05,0.3426778858296499,0.5358547254087118,0.883113733474168,,,,,,,,,,,,
39017,0,USOhioButler,Ohio,Butler,2022-04-28 09:13:11,2021-07-06,0.3426778858296499,0.5358547254087118,0.883113733474168,,,,,,,,,,,,
39017,0,USOhioButler,Ohio,Butler,2022-04-28 09:13:11,2021-07-07,0.3426778858296499,0.5358547254087118,0.883113733474168,,,,,,,,,,,,
39017,0,USOhioButler,Ohio,Butler,2022-04-28 09:13:11,2021-07-08,0.13840524445698021,0.2920242346256576,0.6618035329290554,,,,,,,,,,,,
39017,0,USOhioButler,Ohio,Butler,2022-04-28 09:13:11,2021-07-09,0.13840524445698021,0.2920242346256576,0.6618035329290554,,,,,,,,,,,,
39017,0,USOhioButler,Ohio,Butler,2022-04-28 09:13:11,2021-07-10,0.13840524445698021,0.2920242346256576,0.6618035329290554,,,,,,,,,,,,
39017,0,USOhioButler,Ohio,Butler,2022-04-28 09:13:11,2021-07-11,0.13840524445698021,0.2920242346256576,0.6618035329290554,,,,,,,,,,,,
39017,0,USOhioButler,Ohio,Butler,2022-04-28 09:13:11,2021-07-12,0.13840524445698021,0.2920242346256576,0.6618035329290554,,,,,,,,,,,,
39017,0,USOhioButler,Ohio,Butler,2022-04-28 09:13:11,2021-07-13,0.13840524445698021,0.2920242346256576,0.6618035329290554,,,,,,,,,,,,
39017,0,USOhioButler,Ohio,Butler,2022-04-28 09:13:11,2021-07-14,0.13840524445698021,0.2920242346256576,0.6618035329290554,,,,,,,,,,,,
39017,0,USOhioButler,Ohio,Butler,2022-04-28 09:13:11,2021-07-15,0.2031806836347668,0.45201837886068036,1.081376893359779,,,,,,,,,,,,
39017,0,USOhioButler,Ohio,Butler,2022-04-28 09:13:11,2021-07-16,0.2031806836347668,0.45201837886068036,1.081376893359779,,,,,,,,,,,,
39017,0,USOhioButler,Ohio,Butler,2022-04-28 09:13:11,2021-07-17,0.2031806836347668,0.45201837886068036,1.081376893359779,,,,,,,,,,,,
39017,0,USOhioButler,Ohio,Butler,2022-04-28 09:13:11,2021-07-18,0.2031806836347668,0.45201837886068036,1.081376893359779,,,,,,,,,,,,
39017,0,USOhioButler,Ohio,Butler,2022-04-28 09:13:11,2021-07-19,0.2031806836347668,0.45201837886068036,1.081376893359779,,,,,,,,,,,,
39017,0,USOhioButler,Ohio,Butler,2022-04-28 09:13:11,2021-07-20,0.2031806836347668,0.45201837886068036,1.081376893359779,,,,,,,,,,,,
39017,0,USOhioButler,Ohio,Butler,2022-04-28 09:13:11,2021-07-21,0.2031806836347668,0.45201837886068036,1.081376893359779,,,,,,,,,,,,
39017,0,USOhioButler,Ohio,Butler,2022-04-28 09:13:11,2021-07-22,0.3159071144651038,0.6800553424776282,1.573231568032942,,,,,,,,,,,,
39017,0,USOhioButler,Ohio,Butler,2022-04-28 09:13:11,2021-07-23,0.3159071144651038,0.6800553424776282,1.573231568032942,,,,,,,,,,,,
39017,0,USOhioButler,Ohio,Butler,2022-04-28 09:13:11,2021-07-24,0.3159071144651038,0.6800553424776282,1.573231568032942,,,,,,,,,,,,
39017,0,USOhioButler,Ohio,Butler,2022-04-28 09:13:11,2021-07-25,0.3159071144651038,0.6800553424776282,1.573231568032942,,,,,,,,,,,,
39017,0,USOhioButler,Ohio,Butler,2022-04-28 09:13:11,2021-07-26,0.3159071144651038,0.6800553424776282,1.573231568032942,,,,,,,,,,,,
39017,0,USOhioButler,Ohio,Butler,2022-04-28 09:13:11,2021-07-27,0.3159071144651038,0.6800553424776282,1.573231568032942,,,,,,,,,,,,
39017,0,USOhioButler,Ohio,Butler,2022-04-28 09:13:11,2021-07-28,0.3159071144651038,0.6800553424776282,1.573231568032942,,,,,,,,,,,,
39017,0,USOhioButler,Ohio,Butler,2022-04-28 09:13:11,2021-07-29,0.4001064897527022,0.8460148547595879,1.9215405350583938,,,,,,,,,,,,
39017,0,USOhioButler,Ohio,Butler,2022-04-28 09:13:11,2021-07-30,0.4001064897527022,0.8460148547595879,1.9215405350583938,,,,,,,,,,,,
39017,0,USOhioButler,Ohio,Butler,2022-04-28 09:13:11,2021-07-31,0.4001064897527022,0.8460148547595879,1.9215405350583938,,,,,,,,,,,,
39017,0,USOhioButler,Ohio,Butler,2022-04-28 09:13:11,2021-08-01,0.4001064897527022,0.8460148547595879,1.9215405350583938,,,,,,,,,,,,
39017,0,USOhioButler,Ohio,Butler,2022-04-28 09:13:11,2021-08-02,0.4001064897527022,0.8460148547595879,1.9215405350583938,,,,,,,,,,,,
39017,0,USOhioButler,Ohio,Butler,2022-04-28 09:13:11,2021-08-03,0.4001064897527022,0.8460148547595879,1.9215405350583938,,,,,,,,,,,,
39017,0,USOhioButler,Ohio,Butler,2022-04-28 09:13:11,2021-08-04,0.4001064897527022,0.8460148547595879,1.9215405350583938,,,,,,,,,,,,
39017,0,USOhioButler,Ohio,Butler,2022-04-28 09:13:11,2021-08-05,0.543235655386276,1.14056192259307,2.571780657926948,,,,,,,,,,,,
39017,0,USOhioButler,Ohio,Butler,2022-04-28 09:13:11,2021-08-06,0.543235655386276,1.14056192259307,2.571780657926948,,,,,,,,,,,,
39017,0,USOhioButler,Ohio,Butler,2022-04-28 09:13:11,2021-08-07,0.543235655386276,1.14056192259307,2.571780657926948,,,,,,,,,,,,
39017,0,USOhioButler,Ohio,Butler,2022-04-28 09:13:11,2021-08-08,0.543235655386276,1.14056192259307,2.571780657926948,,,,,,,,,,,,
39017,0,USOhioButler,Ohio,Butler,2022-04-28 09:13:11,2021-08-09,0.543235655386276,1.14056192259307,2.571780657926948,,,,,,,,,,,,
39017,0,USOhioButler,Ohio,Butler,2022-04-28 09:13:11,2021-08-10,0.543235655386276,1.14056192259307,2.571780657926948,,,,,,,,,,,,
39017,0,USOhioButler,Ohio,Butler,2022-04-28 09:13:11,2021-08-11,0.543235655386276,1.14056192259307,2.571780657926948,,,,,,,,,,,,
39017,0,USOhioButler,Ohio,Butler,2022-04-28 09:13:11,2021-08-12,0.6442435315151264,1.3036781117481508,2.829813786992733,,,,,,,,,,,,
39017,0,USOhioButler,Ohio,Butler,2022-04-28 09:13:11,2021-08-13,0.6442435315151264,1.3036781117481508,2.829813786992733,,,,,,,,,,,,
39017,0,USOhioButler,Ohio,Butler,2022-04-28 09:13:11,2021-08-14,0.6442435315151264,1.3036781117481508,2.829813786992733,,,,,,,,,,,,
39017,0,USOhioButler,Ohio,Butler,2022-04-28 09:13:11,2021-08-15,0.6442435315151264,1.3036781117481508,2.829813786992733,,,,,,,,,,,,
39017,0,USOhioButler,Ohio,Butler,2022-04-28 09:13:11,2021-08-16,0.6442435315151264,1.3036781117481508,2.829813786992733,,,,,,,,,,,,
39017,0,USOhioButler,Ohio,Butler,2022-04-28 09:13:11,2021-08-17,0.6442435315151264,1.3036781117481508,2.829813786992733,,,,,,,,,,,,
39017,0,USOhioButler,Ohio,Butler,2022-04-28 09:13:11,2021-08-18,0.6442435315151264,1.3036781117481508,2.829813786992733,,,,,,,,,,,,
39017,0,USOhioButler,Ohio,Butler,2022-04-28 09:13:11,2021-08-19,0.7936854403654664,1.6384212165190561,3.6304927277131567,,,,,,,,,,,,
39017,0,USOhioButler,Ohio,Butler,2022-04-28 09:13:11,2021-08-20,0.7936854403654664,1.6384212165190561,3.6304927277131567,,,,,,,,,,,,
39017,0,USOhioButler,Ohio,Butler,2022-04-28 09:13:11,2021-08-21,0.7936854403654664,1.6384212165190561,3.6304927277131567,,,,,,,,,,,,
39017,0,USOhioButler,Ohio,Butler,2022-04-28 09:13:11,2021-08-22,0.7936854403654664,1.6384212165190561,3.6304927277131567,,,,,,,,,,,,
39017,0,USOhioButler,Ohio,Butler,2022-04-28 09:13:11,2021-08-23,0.7936854403654664,1.6384212165190561,3.6304927277131567,,,,,,,,,,,,
39017,0,USOhioButler,Ohio,Butler,2022-04-28 09:13:11,2021-08-24,0.7936854403654664,1.6384212165190561,3.6304927277131567,,,,,,,,,,,,
39017,0,USOhioButler,Ohio,Butler,2022-04-28 09:13:11,2021-08-25,0.7936854403654664,1.6384212165190561,3.6304927277131567,,,,,,,,,,,,
39017,0,USOhioButler,Ohio,Butler,2022-04-28 09:13:11,2021-08-26,1.3060694296021593,2.3903034679404125,4.66986340636943,,,,,,,,,,,,
39017,0,USOhioButler,Ohio,Butler,2022-04-28 09:13:11,2021-08-27,1.3060694296021593,2.3903034679404125,4.66986340636943,,,,,,,,,,,,
39017,0,USOhioButler,Ohio,Butler,2022-04-28 09:13:11,2021-08-28,1.3060694296021593,2.3903034679404125,4.66986340636943,,,,,,,,,,,,
39017,0,USOhioButler,Ohio,Butler,2022-04-28 09:13:11,2021-08-29,1.3060694296021593,2.3903034679404125,4.66986340636943,,,,,,,,,,,,
39017,0,USOhioButler,Ohio,Butler,2022-04-28 09:13:11,2021-08-30,1.3060694296021593,2.3903034679404125,4.66986340636943,,,,,,,,,,,,
39017,0,USOhioButler,Ohio,Butler,2022-04-28 09:13:11,2021-08-31,1.3060694296021593,2.3903034679404125,4.66986340636943,,,,,,,,,,,,
39017,0,USOhioButler,Ohio,Butler,2022-04-28 09:13:11,2021-09-01,1.3060694296021593,2.3903034679404125,4.66986340636943,,,,,,,,,,,,
39017,0,USOhioButler,Ohio,Butler,2022-04-28 09:13:11,2021-09-02,1.3361089509407502,2.507751184403262,5.0317555351118255,,,,,,,,,,,,
39017,0,USOhioButler,Ohio,Butler,2022-04-28 09:13:11,2021-09-03,1.3361089509407502,2.507751184403262,5.0317555351118255,,,,,,,,,,,,
39017,0,USOhioButler,Ohio,Butler,2022-04-28 09:13:11,2021-09-04,1.3361089509407502,2.507751184403262,5.0317555351118255,,,,,,,,,,,,
39017,0,USOhioButler,Ohio,Butler,2022-04-28 09:13:11,2021-09-05,1.3361089509407502,2.507751184403262,5.0317555351118255,,,,,,,,,,,,
39017,0,USOhioButler,Ohio,Butler,2022-04-28 09:13:11,2021-09-06,1.3361089509407502,2.507751184403262,5.0317555351118255,,,,,,,,,,,,
39017,0,USOhioButler,Ohio,Butler,2022-04-28 09:13:11,2021-09-07,1.3361089509407502,2.507751184403262,5.0317555351118255,,,,,,,,,,,,
39017,0,USOhioButler,Ohio,Butler,2022-04-28 09:13:11,2021-09-08,1.3361089509407502,2.507751184403262,5.0317555351118255,,,,,,,,,,,,
39017,0,USOhioButler,Ohio,Butler,2022-04-28 09:13:11,2021-09-09,1.5878604639706615,2.9214474821241203,5.7396548983649325,,,,,,,,,,,,
39017,0,USOhioButler,Ohio,Butler,2022-04-28 09:13:11,2021-09-10,1.5878604639706615,2.9214474821241203,5.7396548983649325,,,,,,,,,,,,
39017,0,USOhioButler,Ohio,Butler,2022-04-28 09:13:11,2021-09-11,1.5878604639706615,2.9214474821241203,5.7396548983649325,,,,,,,,,,,,
39017,0,USOhioButler,Ohio,Butler,2022-04-28 09:13:11,2021-09-12,1.5878604639706615,2.9214474821241203,5.7396548983649325,,,,,,,,,,,,
39017,0,USOhioButler,Ohio,Butler,2022-04-28 09:13:11,2021-09-13,1.5878604639706615,2.9214474821241203,5.7396548983649325,,,,,,,,,,,,
39017,0,USOhioButler,Ohio,Butler,2022-04-28 09:13:11,2021-09-14,1.5878604639706615,2.9214474821241203,5.7396548983649325,,,,,,,,,,,,
39017,0,USOhioButler,Ohio,Butler,2022-04-28 09:13:11,2021-09-15,1.5878604639706615,2.9214474821241203,5.7396548983649325,,,,,,,,,,,,
39017,0,USOhioButler,Ohio,Butler,2022-04-28 09:13:11,2021-09-16,1.5097559661038291,2.771524361760043,5.432186753206582,,,,,,,,,,,,
39017,0,USOhioButler,Ohio,Butler,2022-04-28 09:13:11,2021-09-17,1.5097559661038291,2.771524361760043,5.432186753206582,,,,,,,,,,,,
39017,0,USOhioButler,Ohio,Butler,2022-04-28 09:13:11,2021-09-18,1.5097559661038291,2.771524361760043,5.432186753206582,,,,,,,,,,,,
39017,0,USOhioButler,Ohio,Butler,2022-04-28 09:13:11,2021-09-19,1.5097559661038291,2.771524361760043,5.432186753206582,,,,,,,,,,,,
39017,0,USOhioButler,Ohio,Butler,2022-04-28 09:13:11,2021-09-20,1.5097559661038291,2.771524361760043,5.432186753206582,,,,,,,,,,,,
39017,0,USOhioButler,Ohio,Butler,2022-04-28 09:13:11,2021-09-21,1.5097559661038291,2.771524361760043,5.432186753206582,,,,,,,,,,,,
39017,0,USOhioButler,Ohio,Butler,2022-04-28 09:13:11,2021-09-22,1.5097559661038291,2.771524361760043,5.432186753206582,,,,,,,,,,,,
39017,0,USOhioButler,Ohio,Butler,2022-04-28 09:13:11,2021-09-23,1.2758548910506804,2.403123810130332,4.8397828379432966,,,,,,,,,,,,
39017,0,USOhioButler,Ohio,Butler,2022-04-28 09:13:11,2021-09-24,1.2758548910506804,2.403123810130332,4.8397828379432966,,,,,,,,,,,,
39017,0,USOhioButler,Ohio,Butler,2022-04-28 09:13:11,2021-09-25,1.2758548910506804,2.403123810130332,4.8397828379432966,,,,,,,,,,,,
39017,0,USOhioButler,Ohio,Butler,2022-04-28 09:13:11,2021-09-26,1.2758548910506804,2.403123810130332,4.8397828379432966,,,,,,,,,,,,
39017,0,USOhioButler,Ohio,Butler,2022-04-28 09:13:11,2021-09-27,1.2758548910506804,2.403123810130332,4.8397828379432966,,,,,,,,,,,,
39017,0,USOhioButler,Ohio,Butler,2022-04-28 09:13:11,2021-09-28,1.2758548910506804,2.403123810130332,4.8397828379432966,,,,,,,,,,,,
39017,0,USOhioButler,Ohio,Butler,2022-04-28 09:13:11,2021-09-29,1.2758548910506804,2.403123810130332,4.8397828379432966,,,,,,,,,,,,
39017,0,USOhioButler,Ohio,Butler,2022-04-28 09:13:11,2021-09-30,1.1279366287642958,2.1929314667926683,4.56584145207459,,,,,,,,,,,,
39017,0,USOhioButler,Ohio,Butler,2022-04-28 09:13:11,2021-10-01,1.1279366287642958,2.1929314667926683,4.56584145207459,,,,,,,,,,,,
39017,0,USOhioButler,Ohio,Butler,2022-04-28 09:13:11,2021-10-02,1.1279366287642958,2.1929314667926683,4.56584145207459,,,,,,,,,,,,
39017,0,USOhioButler,Ohio,Butler,2022-04-28 09:13:11,2021-10-03,1.1279366287642958,2.1929314667926683,4.56584145207459,,,,,,,,,,,,
39017,0,USOhioButler,Ohio,Butler,2022-04-28 09:13:11,2021-10-04,1.1279366287642958,2.1929314667926683,4.56584145207459,,,,,,,,,,,,
39017,0,USOhioButler,Ohio,Butler,2022-04-28 09:13:11,2021-10-05,1.1279366287642958,2.1929314667926683,4.56584145207459,,,,,,,,,,,,
39017,0,USOhioButler,Ohio,Butler,2022-04-28 09:13:11,2021-10-06,1.1279366287642958,2.1929314667926683,4.56584145207459,,,,,,,,,,,,
39017,0,USOhioButler,Ohio,Butler,2022-04-28 09:13:11,2021-10-07,1.0626158331803464,2.0682270951301795,4.311193139407366,,,,,,,,,,,,
39017,0,USOhioButler,Ohio,Butler,2022-04-28 09:13:11,2021-10-08,1.0626158331803464,2.0682270951301795,4.311193139407366,,,,,,,,,,,,
39017,0,USOhioButler,Ohio,Butler,2022-04-28 09:13:11,2021-10-09,1.0626158331803464,2.0682270951301795,4.311193139407366,,,,,,,,,,,,
39017,0,USOhioButler,Ohio,Butler,2022-04-28 09:13:11,2021-10-10,1.0626158331803464,2.0682270951301795,4.311193139407366,,,,,,,,,,,,
39017,0,USOhioButler,Ohio,Butler,2022-04-28 09:13:11,2021-10-11,1.0626158331803464,2.0682270951301795,4.311193139407366,,,,,,,,,,,,
39017,0,USOhioButler,Ohio,Butler,2022-04-28 09:13:11,2021-10-12,1.0626158331803464,2.0682270951301795,4.311193139407366,,,,,,,,,,,,
39017,0,USOhioButler,Ohio,Butler,2022-04-28 09:13:11,2021-10-13,1.0626158331803464,2.0682270951301795,4.311193139407366,,,,,,,,,,,,
39017,0,USOhioButler,Ohio,Butler,2022-04-28 09:13:11,2021-10-14,0.8969427206665803,1.7669314917805297,3.7297691641776582,,,,,,,,,,,,
39017,0,USOhioButler,Ohio,Butler,2022-04-28 09:13:11,2021-10-15,0.8969427206665803,1.7669314917805297,3.7297691641776582,,,,,,,,,,,,
39017,0,USOhioButler,Ohio,Butler,2022-04-28 09:13:11,2021-10-16,0.8969427206665803,1.7669314917805297,3.7297691641776582,,,,,,,,,,,,
39017,0,USOhioButler,Ohio,Butler,2022-04-28 09:13:11,2021-10-17,0.8969427206665803,1.7669314917805297,3.7297691641776582,,,,,,,,,,,,
39017,0,USOhioButler,Ohio,Butler,2022-04-28 09:13:11,2021-10-18,0.8969427206665803,1.7669314917805297,3.7297691641776582,,,,,,,,,,,,
39017,0,USOhioButler,Ohio,Butler,2022-04-28 09:13:11,2021-10-19,0.8969427206665803,1.7669314917805297,3.7297691641776582,,,,,,,,,,,,
39017,0,USOhioButler,Ohio,Butler,2022-04-28 09:13:11,2021-10-20,0.8969427206665803,1.7669314917805297,3.7297691641776582,,,,,,,,,,,,
39017,0,USOhioButler,Ohio,Butler,2022-04-28 09:13:11,2021-10-21,0.7107468392890868,1.4790990496218859,3.304847345160247,,,,,,,,,,,,
39017,0,USOhioButler,Ohio,Butler,2022-04-28 09:13:11,2021-10-22,0.7107468392890868,1.4790990496218859,3.304847345160247,,,,,,,,,,,,
39017,0,USOhioButler,Ohio,Butler,2022-04-28 09:13:11,2021-10-23,0.7107468392890868,1.4790990496218859,3.304847345160247,,,,,,,,,,,,
39017,0,USOhioButler,Ohio,Butler,2022-04-28 09:13:11,2021-10-24,0.7107468392890868,1.4790990496218859,3.304847345160247,,,,,,,,,,,,
39017,0,USOhioButler,Ohio,Butler,2022-04-28 09:13:11,2021-10-25,0.7107468392890868,1.4790990496218859,3.304847345160247,,,,,,,,,,,,
39017,0,USOhioButler,Ohio,Butler,2022-04-28 09:13:11,2021-10-26,0.7107468392890868,1.4790990496218859,3.304847345160247,,,,,,,,,,,,
39017,0,USOhioButler,Ohio,Butler,2022-04-28 09:13:11,2021-10-27,0.7107468392890868,1.4790990496218859,3.304847345160247,,,,,,,,,,,,
39017,0,USOhioButler,Ohio,Butler,2022-04-28 09:13:11,2021-10-28,0.8266164534982412,1.6914545403725094,3.714100672058341,,,,,,,,,,,,
39017,0,USOhioButler,Ohio,Butler,2022-04-28 09:13:11,2021-10-29,0.8266164534982412,1.6914545403725094,3.714100672058341,,,,,,,,,,,,
39017,0,USOhioButler,Ohio,Butler,2022-04-28 09:13:11,2021-10-30,0.8266164534982412,1.6914545403725094,3.714100672058341,,,,,,,,,,,,
39017,0,USOhioButler,Ohio,Butler,2022-04-28 09:13:11,2021-10-31,0.8266164534982412,1.6914545403725094,3.714100672058341,,,,,,,,,,,,
39017,0,USOhioButler,Ohio,Butler,2022-04-28 09:13:11,2021-11-01,0.8266164534982412,1.6914545403725094,3.714100672058341,,,,,,,,,,,,
39017,0,USOhioButler,Ohio,Butler,2022-04-28 09:13:11,2021-11-02,0.8266164534982412,1.6914545403725094,3.714100672058341,,,,,,,,,,,,
39017,0,USOhioButler,Ohio,Butler,2022-04-28 09:13:11,2021-11-03,0.8266164534982412,1.6914545403725094,3.714100672058341,,,,,,,,,,,,
39017,0,USOhioButler,Ohio,Butler,2022-04-28 09:13:11,2021-11-04,0.8684925808526551,1.8226316137571963,4.10781170460147,,,,,,,,,,,,
39017,0,USOhioButler,Ohio,Butler,2022-04-28 09:13:11,2021-11-05,0.8684925808526551,1.8226316137571963,4.10781170460147,,,,,,,,,,,,
39017,0,USOhioButler,Ohio,Butler,2022-04-28 09:13:11,2021-11-06,0.8684925808526551,1.8226316137571963,4.10781170460147,,,,,,,,,,,,
39017,0,USOhioButler,Ohio,Butler,2022-04-28 09:13:11,2021-11-07,0.8684925808526551,1.8226316137571963,4.10781170460147,,,,,,,,,,,,
39017,0,USOhioButler,Ohio,Butler,2022-04-28 09:13:11,2021-11-08,0.8684925808526551,1.8226316137571963,4.10781170460147,,,,,,,,,,,,
39017,0,USOhioButler,Ohio,Butler,2022-04-28 09:13:11,2021-11-09,0.8684925808526551,1.8226316137571963,4.10781170460147,,,,,,,,,,,,
39017,0,USOhioButler,Ohio,Butler,2022-04-28 09:13:11,2021-11-10,0.8684925808526551,1.8226316137571963,4.10781170460147,,,,,,,,,,,,
39017,0,USOhioButler,Ohio,Butler,2022-04-28 09:13:11,2021-11-11,1.0914811292692828,2.237265838016569,4.921314483355877,,,,,,,,,,,,
39017,0,USOhioButler,Ohio,Butler,2022-04-28 09:13:11,2021-11-12,1.0914811292692828,2.237265838016569,4.921314483355877,,,,,,,,,,,,
39017,0,USOhioButler,Ohio,Butler,2022-04-28 09:13:11,2021-11-13,1.0914811292692828,2.237265838016569,4.921314483355877,,,,,,,,,,,,
39017,0,USOhioButler,Ohio,Butler,2022-04-28 09:13:11,2021-11-14,1.0914811292692828,2.237265838016569,4.921314483355877,,,,,,,,,,,,
39017,0,USOhioButler,Ohio,Butler,2022-04-28 09:13:11,2021-11-15,1.0914811292692828,2.237265838016569,4.921314483355877,,,,,,,,,,,,
39017,0,USOhioButler,Ohio,Butler,2022-04-28 09:13:11,2021-11-16,1.0914811292692828,2.237265838016569,4.921314483355877,,,,,,,,,,,,
39017,0,USOhioButler,Ohio,Butler,2022-04-28 09:13:11,2021-11-17,1.0914811292692828,2.237265838016569,4.921314483355877,,,,,,,,,,,,
39017,0,USOhioButler,Ohio,Butler,2022-04-28 09:13:11,2021-11-18,1.2054955251648307,2.4279261353576067,5.244412540112201,,,,,,,,,,,,
39017,0,USOhioButler,Ohio,Butler,2022-04-28 09:13:11,2021-11-19,1.2054955251648307,2.4279261353576067,5.244412540112201,,,,,,,,,,,,
39017,0,USOhioButler,Ohio,Butler,2022-04-28 09:13:11,2021-11-20,1.2054955251648307,2.4279261353576067,5.244412540112201,,,,,,,,,,,,
39017,0,USOhioButler,Ohio,Butler,2022-04-28 09:13:11,2021-11-21,1.2054955251648307,2.4279261353576067,5.244412540112201,,,,,,,,,,,,
39017,0,USOhioButler,Ohio,Butler,2022-04-28 09:13:11,2021-11-22,1.2054955251648307,2.4279261353576067,5.244412540112201,,,,,,,,,,,,
39017,0,USOhioButler,Ohio,Butler,2022-04-28 09:13:11,2021-11-23,1.2054955251648307,2.4279261353576067,5.244412540112201,,,,,,,,,,,,
39017,0,USOhioButler,Ohio,Butler,2022-04-28 09:13:11,2021-11-24,1.2054955251648307,2.4279261353576067,5.244412540112201,,,,,,,,,,,,
39017,0,USOhioButler,Ohio,Butler,2022-04-28 09:13:11,2021-11-25,1.343970463597871,2.7793700255135145,6.170077731874854,,,,,,,,,,,,
39017,0,USOhioButler,Ohio,Butler,2022-04-28 09:13:11,2021-11-26,1.343970463597871,2.7793700255135145,6.170077731874854,,,,,,,,,,,,
39017,0,USOhioButler,Ohio,Butler,2022-04-28 09:13:11,2021-11-27,1.343970463597871,2.7793700255135145,6.170077731874854,,,,,,,,,,,,
39017,0,USOhioButler,Ohio,Butler,2022-04-28 09:13:11,2021-11-28,1.343970463597871,2.7793700255135145,6.170077731874854,,,,,,,,,,,,
39017,0,USOhioButler,Ohio,Butler,2022-04-28 09:13:11,2021-11-29,1.343970463597871,2.7793700255135145,6.170077731874854,,,,,,,,,,,,
39017,0,USOhioButler,Ohio,Butler,2022-04-28 09:13:11,2021-11-30,1.343970463597871,2.7793700255135145,6.170077731874854,,,,,,,,,,,,
39017,0,USOhioButler,Ohio,Butler,2022-04-28 09:13:11,2021-12-01,1.343970463597871,2.7793700255135145,6.170077731874854,,,,,,,,,,,,
39017,0,USOhioButler,Ohio,Butler,2022-04-28 09:13:11,2021-12-02,1.7012451172539738,3.4185733591531084,7.366768771340708,,,,,,,,,,,,
39017,0,USOhioButler,Ohio,Butler,2022-04-28 09:13:11,2021-12-03,1.7012451172539738,3.4185733591531084,7.366768771340708,,,,,,,,,,,,
39017,0,USOhioButler,Ohio,Butler,2022-04-28 09:13:11,2021-12-04,1.7012451172539738,3.4185733591531084,7.366768771340708,,,,,,,,,,,,
39017,0,USOhioButler,Ohio,Butler,2022-04-28 09:13:11,2021-12-05,1.7012451172539738,3.4185733591531084,7.366768771340708,,,,,,,,,,,,
39017,0,USOhioButler,Ohio,Butler,2022-04-28 09:13:11,2021-12-06,1.7012451172539738,3.4185733591531084,7.366768771340708,,,,,,,,,,,,
39017,0,USOhioButler,Ohio,Butler,2022-04-28 09:13:11,2021-12-07,1.7012451172539738,3.4185733591531084,7.366768771340708,,,,,,,,,,,,
39017,0,USOhioButler,Ohio,Butler,2022-04-28 09:13:11,2021-12-08,1.7012451172539738,3.4185733591531084,7.366768771340708,,,,,,,,,,,,
39017,0,USOhioButler,Ohio,Butler,2022-04-28 09:13:11,2021-12-09,1.8523421998396274,3.3935454942393943,6.63708537888276,,,,,,,,,,,,
39017,0,USOhioButler,Ohio,Butler,2022-04-28 09:13:11,2021-12-10,1.8523421998396274,3.3935454942393943,6.63708537888276,,,,,,,,,,,,
39017,0,USOhioButler,Ohio,Butler,2022-04-28 09:13:11,2021-12-11,1.8523421998396274,3.3935454942393943,6.63708537888276,,,,,,,,,,,,
39017,0,USOhioButler,Ohio,Butler,2022-04-28 09:13:11,2021-12-12,1.8523421998396274,3.3935454942393943,6.63708537888276,,,,,,,,,,,,
39017,0,USOhioButler,Ohio,Butler,2022-04-28 09:13:11,2021-12-13,1.8523421998396274,3.3935454942393943,6.63708537888276,,,,,,,,,,,,
39017,0,USOhioButler,Ohio,Butler,2022-04-28 09:13:11,2021-12-14,1.8523421998396274,3.3935454942393943,6.63708537888276,,,,,,,,,,,,
39017,0,USOhioButler,Ohio,Butler,2022-04-28 09:13:11,2021-12-15,1.8523421998396274,3.3935454942393943,6.63708537888276,,,,,,,,,,,,
39017,0,USOhioButler,Ohio,Butler,2022-04-28 09:13:11,2021-12-16,1.9309620583243612,3.748646139936993,7.7929388102752,,,,,,,,,,,,
39017,0,USOhioButler,Ohio,Butler,2022-04-28 09:13:11,2021-12-17,1.9309620583243612,3.748646139936993,7.7929388102752,,,,,,,,,,,,
39017,0,USOhioButler,Ohio,Butler,2022-04-28 09:13:11,2021-12-18,1.9309620583243612,3.748646139936993,7.7929388102752,,,,,,,,,,,,
39017,0,USOhioButler,Ohio,Butler,2022-04-28 09:13:11,2021-12-19,1.9309620583243612,3.748646139936993,7.7929388102752,,,,,,,,,,,,
39017,0,USOhioButler,Ohio,Butler,2022-04-28 09:13:11,2021-12-20,1.9309620583243612,3.748646139936993,7.7929388102752,,,,,,,,,,,,
39017,0,USOhioButler,Ohio,Butler,2022-04-28 09:13:11,2021-12-21,1.9309620583243612,3.748646139936993,7.7929388102752,,,,,,,,,,,,
39017,0,USOhioButler,Ohio,Butler,2022-04-28 09:13:11,2021-12-22,1.9309620583243612,3.748646139936993,7.7929388102752,,,,,,,,,,,,
39017,0,USOhioButler,Ohio,Butler,2022-04-28 09:13:11,2021-12-23,2.3189613282994417,4.665355116585937,10.065826449251016,,,,,,,,,,,,
39017,0,USOhioButler,Ohio,Butler,2022-04-28 09:13:11,2021-12-24,2.3189613282994417,4.665355116585937,10.065826449251016,,,,,,,,,,,,
39017,0,USOhioButler,Ohio,Butler,2022-04-28 09:13:11,2021-12-25,2.3189613282994417,4.665355116585937,10.065826449251016,,,,,,,,,,,,
39017,0,USOhioButler,Ohio,Butler,2022-04-28 09:13:11,2021-12-26,2.3189613282994417,4.665355116585937,10.065826449251016,,,,,,,,,,,,
39017,0,USOhioButler,Ohio,Butler,2022-04-28 09:13:11,2021-12-27,2.3189613282994417,4.665355116585937,10.065826449251016,,,,,,,,,,,,
39017,0,USOhioButler,Ohio,Butler,2022-04-28 09:13:11,2021-12-28,2.3189613282994417,4.665355116585937,10.065826449251016,,,,,,,,,,,,
39017,0,USOhioButler,Ohio,Butler,2022-04-28 09:13:11,2021-12-29,2.3189613282994417,4.665355116585937,10.065826449251016,,,,,,,,,,,,
39017,0,USOhioButler,Ohio,Butler,2022-04-28 09:13:11,2021-12-30,3.75930441210171,6.720535042572943,12.806107277838336,,,,,,,,,,,,
39017,0,USOhioButler,Ohio,Butler,2022-04-28 09:13:11,2021-12-31,3.75930441210171,6.720535042572943,12.806107277838336,,,,,,,,,,,,
39017,0,USOhioButler,Ohio,Butler,2022-04-28 09:13:11,2022-01-01,3.75930441210171,6.720535042572943,12.806107277838336,,,,,,,,,,,,
39017,0,USOhioButler,Ohio,Butler,2022-04-28 09:13:11,2022-01-02,3.75930441210171,6.720535042572943,12.806107277838336,,,,,,,,,,,,
39017,0,USOhioButler,Ohio,Butler,2022-04-28 09:13:11,2022-01-03,3.75930441210171,6.720535042572943,12.806107277838336,,,,,,,,,,,,
39017,0,USOhioButler,Ohio,Butler,2022-04-28 09:13:11,2022-01-04,3.75930441210171,6.720535042572943,12.806107277838336,,,,,,,,,,,,
39017,0,USOhioButler,Ohio,Butler,2022-04-28 09:13:11,2022-01-05,3.75930441210171,6.720535042572943,12.806107277838336,,,,,,,,,,,,
39017,0,USOhioButler,Ohio,Butler,2022-04-28 09:13:11,2022-01-06,4.468499353015496,7.41011055565004,13.022898050420212,,,,,,,,,,,,
39017,0,USOhioButler,Ohio,Butler,2022-04-28 09:13:11,2022-01-07,4.468499353015496,7.41011055565004,13.022898050420212,,,,,,,,,,,,
39017,0,USOhioButler,Ohio,Butler,2022-04-28 09:13:11,2022-01-08,4.468499353015496,7.41011055565004,13.022898050420212,,,,,,,,,,,,
39017,0,USOhioButler,Ohio,Butler,2022-04-28 09:13:11,2022-01-09,4.468499353015496,7.41011055565004,13.022898050420212,,,,,,,,,,,,
39017,0,USOhioButler,Ohio,Butler,2022-04-28 09:13:11,2022-01-10,4.468499353015496,7.41011055565004,13.022898050420212,,,,,,,,,,,,
39017,0,USOhioButler,Ohio,Butler,2022-04-28 09:13:11,2022-01-11,4.468499353015496,7.41011055565004,13.022898050420212,,,,,,,,,,,,
39017,0,USOhioButler,Ohio,Butler,2022-04-28 09:13:11,2022-01-12,4.468499353015496,7.41011055565004,13.022898050420212,,,,,,,,,,,,
39017,0,USOhioButler,Ohio,Butler,2022-04-28 09:13:11,2022-01-13,7.877158985713338,12.38185364203354,20.522952912373555,,,,,,,,,,,,
39017,0,USOhioButler,Ohio,Butler,2022-04-28 09:13:11,2022-01-14,7.877158985713338,12.38185364203354,20.522952912373555,,,,,,,,,,,,
39017,0,USOhioButler,Ohio,Butler,2022-04-28 09:13:11,2022-01-15,7.877158985713338,12.38185364203354,20.522952912373555,,,,,,,,,,,,
39017,0,USOhioButler,Ohio,Butler,2022-04-28 09:13:11,2022-01-16,7.877158985713338,12.38185364203354,20.522952912373555,,,,,,,,,,,,
39017,0,USOhioButler,Ohio,Butler,2022-04-28 09:13:11,2022-01-17,7.877158985713338,12.38185364203354,20.522952912373555,,,,,,,,,,,,
39017,0,USOhioButler,Ohio,Butler,2022-04-28 09:13:11,2022-01-18,7.877158985713338,12.38185364203354,20.522952912373555,,,,,,,,,,,,
39017,0,USOhioButler,Ohio,Butler,2022-04-28 09:13:11,2022-01-19,7.877158985713338,12.38185364203354,20.522952912373555,,,,,,,,,,,,
39017,0,USOhioButler,Ohio,Butler,2022-04-28 09:13:11,2022-01-20,4.381812253483009,7.355055005511623,13.097418660177008,,,,,,,,,,,,
39017,0,USOhioButler,Ohio,Butler,2022-04-28 09:13:11,2022-01-21,4.381812253483009,7.355055005511623,13.097418660177008,,,,,,,,,,,,
39017,0,USOhioButler,Ohio,Butler,2022-04-28 09:13:11,2022-01-22,4.381812253483009,7.355055005511623,13.097418660177008,,,,,,,,,,,,
39017,0,USOhioButler,Ohio,Butler,2022-04-28 09:13:11,2022-01-23,4.381812253483009,7.355055005511623,13.097418660177008,,,,,,,,,,,,
39017,0,USOhioButler,Ohio,Butler,2022-04-28 09:13:11,2022-01-24,4.381812253483009,7.355055005511623,13.097418660177008,,,,,,,,,,,,
39017,0,USOhioButler,Ohio,Butler,2022-04-28 09:13:11,2022-01-25,4.381812253483009,7.355055005511623,13.097418660177008,,,,,,,,,,,,
39017,0,USOhioButler,Ohio,Butler,2022-04-28 09:13:11,2022-01-26,4.381812253483009,7.355055005511623,13.097418660177008,,,,,,,,,,,,
39017,0,USOhioButler,Ohio,Butler,2022-04-28 09:13:11,2022-01-27,2.496345355936364,4.43552037965987,8.396967537893268,,,,,,,,,,,,
39017,0,USOhioButler,Ohio,Butler,2022-04-28 09:13:11,2022-01-28,2.496345355936364,4.43552037965987,8.396967537893268,,,,,,,,,,,,
39017,0,USOhioButler,Ohio,Butler,2022-04-28 09:13:11,2022-01-29,2.496345355936364,4.43552037965987,8.396967537893268,,,,,,,,,,,,
39017,0,USOhioButler,Ohio,Butler,2022-04-28 09:13:11,2022-01-30,2.496345355936364,4.43552037965987,8.396967537893268,,,,,,,,,,,,
39017,0,USOhioButler,Ohio,Butler,2022-04-28 09:13:11,2022-01-31,2.496345355936364,4.43552037965987,8.396967537893268,,,,,,,,,,,,
39017,0,USOhioButler,Ohio,Butler,2022-04-28 09:13:11,2022-02-01,2.496345355936364,4.43552037965987,8.396967537893268,,,,,,,,,,,,
39017,0,USOhioButler,Ohio,Butler,2022-04-28 09:13:11,2022-02-02,2.496345355936364,4.43552037965987,8.396967537893268,,,,,,,,,,,,
39017,0,USOhioButler,Ohio,Butler,2022-04-28 09:13:11,2022-02-03,1.4360850173630357,2.69919251954275,5.423917734773584,,,,,,,,,,,,
39017,0,USOhioButler,Ohio,Butler,2022-04-28 09:13:11,2022-02-04,1.4360850173630357,2.69919251954275,5.423917734773584,,,,,,,,,,,,
39017,0,USOhioButler,Ohio,Butler,2022-04-28 09:13:11,2022-02-05,1.4360850173630357,2.69919251954275,5.423917734773584,,,,,,,,,,,,
39017,0,USOhioButler,Ohio,Butler,2022-04-28 09:13:11,2022-02-06,1.4360850173630357,2.69919251954275,5.423917734773584,,,,,,,,,,,,
39017,0,USOhioButler,Ohio,Butler,2022-04-28 09:13:11,2022-02-07,1.4360850173630357,2.69919251954275,5.423917734773584,,,,,,,,,,,,
39017,0,USOhioButler,Ohio,Butler,2022-04-28 09:13:11,2022-02-08,1.4360850173630357,2.69919251954275,5.423917734773584,,,,,,,,,,,,
39017,0,USOhioButler,Ohio,Butler,2022-04-28 09:13:11,2022-02-09,1.4360850173630357,2.69919251954275,5.423917734773584,,,,,,,,,,,,
39017,0,USOhioButler,Ohio,Butler,2022-04-28 09:13:11,2022-02-10,0.87679347425976,1.6590989092685664,3.3575894464265863,,,,,,,,,,,,
39017,0,USOhioButler,Ohio,Butler,2022-04-28 09:13:11,2022-02-11,0.87679347425976,1.6590989092685664,3.3575894464265863,,,,,,,,,,,,
39017,0,USOhioButler,Ohio,Butler,2022-04-28 09:13:11,2022-02-12,0.87679347425976,1.6590989092685664,3.3575894464265863,,,,,,,,,,,,
39017,0,USOhioButler,Ohio,Butler,2022-04-28 09:13:11,2022-02-13,0.87679347425976,1.6590989092685664,3.3575894464265863,,,,,,,,,,,,
39017,0,USOhioButler,Ohio,Butler,2022-04-28 09:13:11,2022-02-14,0.87679347425976,1.6590989092685664,3.3575894464265863,,,,,,,,,,,,
39017,0,USOhioButler,Ohio,Butler,2022-04-28 09:13:11,2022-02-15,0.87679347425976,1.6590989092685664,3.3575894464265863,,,,,,,,,,,,
39017,0,USOhioButler,Ohio,Butler,2022-04-28 09:13:11,2022-02-16,0.87679347425976,1.6590989092685664,3.3575894464265863,,,,,,,,,,,,
39017,0,USOhioButler,Ohio,Butler,2022-04-28 09:13:11,2022-02-17,0.510053938901903,1.0032638437535495,2.114430668010261,,,,,,,,,,,,
39017,0,USOhioButler,Ohio,Butler,2022-04-28 09:13:11,2022-02-18,0.510053938901903,1.0032638437535495,2.114430668010261,,,,,,,,,,,,
39017,0,USOhioButler,Ohio,Butler,2022-04-28 09:13:11,2022-02-19,0.510053938901903,1.0032638437535495,2.114430668010261,,,,,,,,,,,,
39017,0,USOhioButler,Ohio,Butler,2022-04-28 09:13:11,2022-02-20,0.510053938901903,1.0032638437535495,2.114430668010261,,,,,,,,,,,,
39017,0,USOhioButler,Ohio,Butler,2022-04-28 09:13:11,2022-02-21,0.510053938901903,1.0032638437535495,2.114430668010261,,,,,,,,,,,,
39017,0,USOhioButler,Ohio,Butler,2022-04-28 09:13:11,2022-02-22,0.510053938901903,1.0032638437535495,2.114430668010261,,,,,,,,,,,,
39017,0,USOhioButler,Ohio,Butler,2022-04-28 09:13:11,2022-02-23,0.510053938901903,1.0032638437535495,2.114430668010261,,,,,,,,,,,,
39017,0,USOhioButler,Ohio,Butler,2022-04-28 09:13:11,2022-02-24,0.5746572914426461,1.0374520299149288,1.9976637172549823,,,,,,,,,,,,
39017,0,USOhioButler,Ohio,Butler,2022-04-28 09:13:11,2022-02-25,0.5746572914426461,1.0374520299149288,1.9976637172549823,,,,,,,,,,,,
39017,0,USOhioButler,Ohio,Butler,2022-04-28 09:13:11,2022-02-26,0.5746572914426461,1.0374520299149288,1.9976637172549823,,,,,,,,,,,,
39017,0,USOhioButler,Ohio,Butler,2022-04-28 09:13:11,2022-02-27,0.5746572914426461,1.0374520299149288,1.9976637172549823,,,,,,,,,,,,
39017,0,USOhioButler,Ohio,Butler,2022-04-28 09:13:11,2022-02-28,0.5746572914426461,1.0374520299149288,1.9976637172549823,,,,,,,,,,,,
39017,0,USOhioButler,Ohio,Butler,2022-04-28 09:13:11,2022-03-01,0.5746572914426461,1.0374520299149288,1.9976637172549823,,,,,,,,,,,,
39017,0,USOhioButler,Ohio,Butler,2022-04-28 09:13:11,2022-03-02,0.5746572914426461,1.0374520299149288,1.9976637172549823,,,,,,,,,,,,
39017,0,USOhioButler,Ohio,Butler,2022-04-28 09:13:11,2022-03-03,0.44730613778799344,0.8121602991950339,1.5733694769560338,,,,,,,,,,,,
39017,0,USOhioButler,Ohio,Butler,2022-04-28 09:13:11,2022-03-04,0.44730613778799344,0.8121602991950339,1.5733694769560338,,,,,,,,,,,,
39017,0,USOhioButler,Ohio,Butler,2022-04-28 09:13:11,2022-03-05,0.44730613778799344,0.8121602991950339,1.5733694769560338,,,,,,,,,,,,
39017,0,USOhioButler,Ohio,Butler,2022-04-28 09:13:11,2022-03-06,0.44730613778799344,0.8121602991950339,1.5733694769560338,,,,,,,,,,,,
39017,0,USOhioButler,Ohio,Butler,2022-04-28 09:13:11,2022-03-07,0.44730613778799344,0.8121602991950339,1.5733694769560338,,,,,,,,,,,,
39017,0,USOhioButler,Ohio,Butler,2022-04-28 09:13:11,2022-03-08,0.44730613778799344,0.8121602991950339,1.5733694769560338,,,,,,,,,,,,
39017,0,USOhioButler,Ohio,Butler,2022-04-28 09:13:11,2022-03-09,0.44730613778799344,0.8121602991950339,1.5733694769560338,,,,,,,,,,,,
39017,0,USOhioButler,Ohio,Butler,2022-04-28 09:13:11,2022-03-10,0.29534769308073244,0.5467989131294959,1.0813885950579625,,,,,,,,,,,,
39017,0,USOhioButler,Ohio,Butler,2022-04-28 09:13:11,2022-03-11,0.29534769308073244,0.5467989131294959,1.0813885950579625,,,,,,,,,,,,
39017,0,USOhioButler,Ohio,Butler,2022-04-28 09:13:11,2022-03-12,0.29534769308073244,0.5467989131294959,1.0813885950579625,,,,,,,,,,,,
39017,0,USOhioButler,Ohio,Butler,2022-04-28 09:13:11,2022-03-13,0.29534769308073244,0.5467989131294959,1.0813885950579625,,,,,,,,,,,,
39017,0,USOhioButler,Ohio,Butler,2022-04-28 09:13:11,2022-03-14,0.29534769308073244,0.5467989131294959,1.0813885950579625,,,,,,,,,,,,
39017,0,USOhioButler,Ohio,Butler,2022-04-28 09:13:11,2022-03-15,0.29534769308073244,0.5467989131294959,1.0813885950579625,,,,,,,,,,,,
39017,0,USOhioButler,Ohio,Butler,2022-04-28 09:13:11,2022-03-16,0.29534769308073244,0.5467989131294959,1.0813885950579625,,,,,,,,,,,,
39017,0,USOhioButler,Ohio,Butler,2022-04-28 09:13:11,2022-03-17,0.3424836212639716,0.6625435515611271,1.3722851797445426,,,,,,,,,,,,
39017,0,USOhioButler,Ohio,Butler,2022-04-28 09:13:11,2022-03-18,0.3424836212639716,0.6625435515611271,1.3722851797445426,,,,,,,,,,,,
39017,0,USOhioButler,Ohio,Butler,2022-04-28 09:13:11,2022-03-19,0.3424836212639716,0.6625435515611271,1.3722851797445426,,,,,,,,,,,,
39017,0,USOhioButler,Ohio,Butler,2022-04-28 09:13:11,2022-03-20,0.3424836212639716,0.6625435515611271,1.3722851797445426,,,,,,,,,,,,
39017,0,USOhioButler,Ohio,Butler,2022-04-28 09:13:11,2022-03-21,0.3424836212639716,0.6625435515611271,1.3722851797445426,,,,,,,,,,,,
39017,0,USOhioButler,Ohio,Butler,2022-04-28 09:13:11,2022-03-22,0.3424836212639716,0.6625435515611271,1.3722851797445426,,,,,,,,,,,,
39017,0,USOhioButler,Ohio,Butler,2022-04-28 09:13:11,2022-03-23,0.3424836212639716,0.6625435515611271,1.3722851797445426,,,,,,,,,,,,
39017,0,USOhioButler,Ohio,Butler,2022-04-28 09:13:11,2022-03-24,0.43097663243738366,0.7482740922009199,1.3819468115711009,,,,,,,,,,,,
39017,0,USOhioButler,Ohio,Butler,2022-04-28 09:13:11,2022-03-25,0.43097663243738366,0.7482740922009199,1.3819468115711009,,,,,,,,,,,,
39017,0,USOhioButler,Ohio,Butler,2022-04-28 09:13:11,2022-03-26,0.43097663243738366,0.7482740922009199,1.3819468115711009,,,,,,,,,,,,
39017,0,USOhioButler,Ohio,Butler,2022-04-28 09:13:11,2022-03-27,0.43097663243738366,0.7482740922009199,1.3819468115711009,,,,,,,,,,,,
39017,0,USOhioButler,Ohio,Butler,2022-04-28 09:13:11,2022-03-28,0.43097663243738366,0.7482740922009199,1.3819468115711009,,,,,,,,,,,,
39017,0,USOhioButler,Ohio,Butler,2022-04-28 09:13:11,2022-03-29,0.43097663243738366,0.7482740922009199,1.3819468115711009,,,,,,,,,,,,
39017,0,USOhioButler,Ohio,Butler,2022-04-28 09:13:11,2022-03-30,0.43097663243738366,0.7482740922009199,1.3819468115711009,,,,,,,,,,,,
39017,0,USOhioButler,Ohio,Butler,2022-04-28 09:13:11,2022-03-31,0.4346357472750719,0.7295731842839709,1.299214464357883,,,,,,,,,,,,
39017,0,USOhioButler,Ohio,Butler,2022-04-28 09:13:11,2022-04-01,0.4346357472750719,0.7295731842839709,1.299214464357883,,,,,,,,,,,,
39017,0,USOhioButler,Ohio,Butler,2022-04-28 09:13:11,2022-04-02,0.4346357472750719,0.7295731842839709,1.299214464357883,,,,,,,,,,,,
39017,0,USOhioButler,Ohio,Butler,2022-04-28 09:13:11,2022-04-03,0.4346357472750719,0.7295731842839709,1.299214464357883,,,,,,,,,,,,
39017,0,USOhioButler,Ohio,Butler,2022-04-28 09:13:11,2022-04-04,0.4346357472750719,0.7295731842839709,1.299214464357883,,,,,,,,,,,,
39017,0,USOhioButler,Ohio,Butler,2022-04-28 09:13:11,2022-04-05,0.4346357472750719,0.7295731842839709,1.299214464357883,,,,,,,,,,,,
39017,0,USOhioButler,Ohio,Butler,2022-04-28 09:13:11,2022-04-06,0.4346357472750719,0.7295731842839709,1.299214464357883,,,,,,,,,,,,
