FIPS,HR_UID,nameid,province,region,analysisTime,dates,pointprevalence_025,pointprevalence_50,pointprevalence_975,pointinfections_025,pointinfections_50,pointinfections_975,pointinfectious_025,pointinfectious_50,pointinfectious_975,pointinfectiousprevalence_05,pointinfectiousprevalence_50,pointinfectiousprevalence_95,infectrate_025,infectrate_50,infectrate_975
0,0,FranceMayotte,Mayotte,,2022-03-22 20:16:38.186772,2021-08-27,0.27224148,0.64318050,1.41918831,742,1754,3871,495,1140,2222,0.18144986,0.41794142,0.81476897,0.10338386,0.14819299,0.18639359
0,0,FranceMayotte,Mayotte,,2022-03-22 20:16:38.186772,2021-08-28,0.26796119,0.62678997,1.35171426,731,1709,3687,526,1163,2302,0.19316108,0.42665255,0.84384836,0.10338395,0.14819301,0.18639350
0,0,FranceMayotte,Mayotte,,2022-03-22 20:16:38.186772,2021-08-29,0.26242156,0.60536253,1.30226250,715,1651,3552,507,1125,2418,0.18604372,0.41258028,0.88650922,0.10338422,0.14819306,0.18639320
0,0,FranceMayotte,Mayotte,,2022-03-22 20:16:38.186772,2021-08-30,0.25214115,0.58470363,1.24159704,687,1595,3387,497,1133,2452,0.18233046,0.41538028,0.89880195,0.10338508,0.14819325,0.18639227
0,0,FranceMayotte,Mayotte,,2022-03-22 20:16:38.186772,2021-08-31,0.24519187,0.56180006,1.18408863,668,1532,3230,488,1095,2348,0.17922143,0.40158470,0.86094738,0.10338776,0.14819382,0.18638936
0,0,FranceMayotte,Mayotte,,2022-03-22 20:16:38.186772,2021-09-01,0.23866152,0.53879845,1.12892809,651,1469,3079,473,1062,2247,0.17366482,0.38949685,0.82389470,0.10339618,0.14819561,0.18638022
0,0,FranceMayotte,Mayotte,,2022-03-22 20:16:38.186772,2021-09-02,0.22829166,0.51785241,1.07635669,622,1412,2936,453,1017,2156,0.16622222,0.37310960,0.79038530,0.10342257,0.14820124,0.18635162
0,0,FranceMayotte,Mayotte,,2022-03-22 20:16:38.186772,2021-09-03,0.21810886,0.49897543,1.02230661,595,1361,2788,437,975,2053,0.16054268,0.35752692,0.75268896,0.10350566,0.14821882,0.18626222
0,0,FranceMayotte,Mayotte,,2022-03-22 20:16:38.186772,2021-09-04,0.20857476,0.47965802,0.96422586,569,1308,2630,435,940,1950,0.15967562,0.34476385,0.71498333,0.10376477,0.14827346,0.18598473
0,0,FranceMayotte,Mayotte,,2022-03-22 20:16:38.186772,2021-09-05,0.19956638,0.45656479,0.90335870,544,1245,2464,422,904,1853,0.15469644,0.33154064,0.67947489,0.10455836,0.14844008,0.18586046
0,0,FranceMayotte,Mayotte,,2022-03-22 20:16:38.186772,2021-09-06,0.19121107,0.43681298,0.85871184,521,1191,2342,404,871,1749,0.14813433,0.31959294,0.64121720,0.10767800,0.14905805,0.18549903
0,0,FranceMayotte,Mayotte,,2022-03-22 20:16:38.186772,2021-09-07,0.18383149,0.41656558,0.81658061,501,1136,2227,387,838,1649,0.14200094,0.30727104,0.60479050,0.11404400,0.15106868,0.18226947
0,0,FranceMayotte,Mayotte,,2022-03-22 20:16:38.186772,2021-09-08,0.17785100,0.39778854,0.77701876,485,1085,2119,372,797,1568,0.13650022,0.29227432,0.57504704,0.12037949,0.15325196,0.18251707
0,0,FranceMayotte,Mayotte,,2022-03-22 20:16:38.186772,2021-09-09,0.17328898,0.38141825,0.73982641,472,1040,2018,357,762,1492,0.13104902,0.27964302,0.54702358,0.12128484,0.15622571,0.18454071
0,0,FranceMayotte,Mayotte,,2022-03-22 20:16:38.186772,2021-09-10,0.16856624,0.36715007,0.70503762,459,1001,1923,342,726,1417,0.12552171,0.26647560,0.51975006,0.12167477,0.15752574,0.18555750
0,0,FranceMayotte,Mayotte,,2022-03-22 20:16:38.186772,2021-09-11,0.16545897,0.35574194,0.67021821,451,970,1828,329,697,1349,0.12062473,0.25571643,0.49467731,0.12140090,0.15884964,0.18530859
0,0,FranceMayotte,Mayotte,,2022-03-22 20:16:38.186772,2021-09-12,0.16266252,0.34318715,0.64099900,443,936,1748,317,672,1281,0.11626331,0.24668117,0.46961306,0.12221271,0.15889923,0.18502702
0,0,FranceMayotte,Mayotte,,2022-03-22 20:16:38.186772,2021-09-13,0.15923408,0.33379714,0.61155676,434,910,1668,309,649,1218,0.11330628,0.23804774,0.44664171,0.12475059,0.15820855,0.18427804
0,0,FranceMayotte,Mayotte,,2022-03-22 20:16:38.186772,2021-09-14,0.15398634,0.32380390,0.58667503,420,883,1600,298,626,1162,0.10954719,0.22957484,0.42622810,0.12796878,0.15645741,0.18405263
0,0,FranceMayotte,Mayotte,,2022-03-22 20:16:38.186772,2021-09-15,0.14865850,0.31292234,0.56866183,405,853,1551,292,604,1117,0.10716753,0.22169833,0.40963571,0.13149814,0.15397689,0.18484822
0,0,FranceMayotte,Mayotte,,2022-03-22 20:16:38.186772,2021-09-16,0.14674496,0.30144447,0.54591978,400,822,1489,284,589,1076,0.10415383,0.21610958,0.39457421,0.12165473,0.15300277,0.18686059
0,0,FranceMayotte,Mayotte,,2022-03-22 20:16:38.186772,2021-09-17,0.14196072,0.29022101,0.52313632,387,791,1427,280,571,1036,0.10294695,0.20961210,0.37975931,0.11587970,0.15414926,0.18806877
0,0,FranceMayotte,Mayotte,,2022-03-22 20:16:38.186772,2021-09-18,0.13869431,0.28264927,0.50318879,378,771,1372,278,550,997,0.10223415,0.20181263,0.36551927,0.11385464,0.15468635,0.18869620
0,0,FranceMayotte,Mayotte,,2022-03-22 20:16:38.186772,2021-09-19,0.13414270,0.26957502,0.48346862,365,735,1318,267,534,954,0.09821421,0.19605720,0.34993955,0.11392901,0.15540936,0.18846588
0,0,FranceMayotte,Mayotte,,2022-03-22 20:16:38.186772,2021-09-20,0.12847910,0.25983213,0.46364807,350,708,1264,257,515,912,0.09451080,0.18903342,0.33449101,0.11619818,0.15723231,0.18696782
0,0,FranceMayotte,Mayotte,,2022-03-22 20:16:38.186772,2021-09-21,0.12571945,0.25028793,0.44605369,342,682,1216,254,493,875,0.09328153,0.18086037,0.32101435,0.12225601,0.15916810,0.18312746
0,0,FranceMayotte,Mayotte,,2022-03-22 20:16:38.186772,2021-09-22,0.12311953,0.24126954,0.43086931,335,658,1175,244,472,843,0.08974720,0.17324415,0.30919823,0.13394695,0.16120371,0.18299492
0,0,FranceMayotte,Mayotte,,2022-03-22 20:16:38.186772,2021-09-23,0.11786845,0.23268600,0.41578976,321,634,1134,233,454,812,0.08545624,0.16672161,0.29764857,0.14449548,0.16240293,0.19192802
0,0,FranceMayotte,Mayotte,,2022-03-22 20:16:38.186772,2021-09-24,0.11444067,0.22597430,0.40069683,312,616,1093,222,443,781,0.08147483,0.16242293,0.28650886,0.14366278,0.16171431,0.20151122
0,0,FranceMayotte,Mayotte,,2022-03-22 20:16:38.186772,2021-09-25,0.11219879,0.22007925,0.38468773,306,600,1049,215,429,752,0.07890254,0.15743609,0.27584579,0.14237025,0.16136214,0.20669379
0,0,FranceMayotte,Mayotte,,2022-03-22 20:16:38.186772,2021-09-26,0.11014220,0.21382307,0.36803211,300,583,1004,210,415,725,0.07711251,0.15243634,0.26593935,0.14287182,0.16172727,0.20764534
0,0,FranceMayotte,Mayotte,,2022-03-22 20:16:38.186772,2021-09-27,0.10589207,0.20796046,0.35525583,288,567,969,206,404,698,0.07554330,0.14829569,0.25601001,0.14518045,0.16208116,0.20886361
0,0,FranceMayotte,Mayotte,,2022-03-22 20:16:38.186772,2021-09-28,0.10052038,0.20185639,0.34350278,274,550,937,200,392,668,0.07333097,0.14392781,0.24519887,0.14558998,0.16409512,0.21019804
0,0,FranceMayotte,Mayotte,,2022-03-22 20:16:38.186772,2021-09-29,0.09650346,0.19630942,0.33254317,263,535,907,189,381,644,0.06962055,0.13980186,0.23622230,0.14223324,0.16819406,0.21398727
0,0,FranceMayotte,Mayotte,,2022-03-22 20:16:38.186772,2021-09-30,0.09461073,0.18998430,0.32228168,258,518,879,185,371,620,0.06803470,0.13602452,0.22734519,0.13328212,0.17193584,0.22001682
0,0,FranceMayotte,Mayotte,,2022-03-22 20:16:38.186772,2021-10-01,0.09296377,0.18352388,0.31229080,253,500,851,182,360,599,0.06689024,0.13218111,0.21966571,0.12866371,0.17242055,0.22835460
0,0,FranceMayotte,Mayotte,,2022-03-22 20:16:38.186772,2021-10-02,0.09030940,0.17832411,0.30287866,246,486,826,177,349,585,0.06491208,0.12820394,0.21459026,0.12703748,0.17306768,0.23273101
0,0,FranceMayotte,Mayotte,,2022-03-22 20:16:38.186772,2021-10-03,0.08810369,0.17402977,0.29549486,240,474,806,170,341,565,0.06254426,0.12526517,0.20740280,0.12730498,0.17363538,0.23325814
0,0,FranceMayotte,Mayotte,,2022-03-22 20:16:38.186772,2021-10-04,0.08562423,0.16953856,0.28829680,233,462,786,163,330,547,0.05979552,0.12110964,0.20066155,0.12981417,0.17415839,0.23118271
0,0,FranceMayotte,Mayotte,,2022-03-22 20:16:38.186772,2021-10-05,0.08327194,0.16537412,0.28417183,227,451,775,160,320,532,0.05883885,0.11759182,0.19502716,0.13648051,0.17590889,0.22463985
0,0,FranceMayotte,Mayotte,,2022-03-22 20:16:38.186772,2021-10-06,0.08088089,0.16108233,0.27908060,220,439,761,157,312,521,0.05785852,0.11471118,0.19120135,0.14860469,0.17871547,0.23031067
0,0,FranceMayotte,Mayotte,,2022-03-22 20:16:38.186772,2021-10-07,0.07849280,0.15759555,0.27520251,214,429,750,153,306,510,0.05620840,0.11218375,0.18716723,0.15507416,0.18053177,0.25137910
0,0,FranceMayotte,Mayotte,,2022-03-22 20:16:38.186772,2021-10-08,0.07768040,0.15630209,0.27089174,211,426,739,147,300,499,0.05422562,0.11005043,0.18293798,0.15448368,0.18045232,0.26459987
0,0,FranceMayotte,Mayotte,,2022-03-22 20:16:38.186772,2021-10-09,0.07595640,0.15394339,0.26647933,207,419,726,143,294,487,0.05275594,0.10808540,0.17879185,0.15382328,0.18087559,0.27023243
0,0,FranceMayotte,Mayotte,,2022-03-22 20:16:38.186772,2021-10-10,0.07444729,0.15134657,0.26208296,203,412,714,142,290,481,0.05213557,0.10648313,0.17641613,0.15464761,0.18172805,0.27237236
0,0,FranceMayotte,Mayotte,,2022-03-22 20:16:38.186772,2021-10-11,0.07313404,0.14995308,0.25818525,199,409,704,138,286,472,0.05093840,0.10504209,0.17329062,0.15927807,0.18375422,0.27352012
0,0,FranceMayotte,Mayotte,,2022-03-22 20:16:38.186772,2021-10-12,0.07208112,0.14755968,0.25514157,196,402,696,136,281,463,0.04994029,0.10301532,0.16989673,0.16785019,0.18584375,0.27491873
0,0,FranceMayotte,Mayotte,,2022-03-22 20:16:38.186772,2021-10-13,0.07105901,0.14639637,0.25354542,193,399,691,134,277,455,0.04914418,0.10158704,0.16698074,0.16149367,0.19550319,0.27705402
0,0,FranceMayotte,Mayotte,,2022-03-22 20:16:38.186772,2021-10-14,0.07040237,0.14594611,0.25351709,192,398,691,132,273,454,0.04857415,0.10011583,0.16654278,0.14578386,0.20510879,0.28003214
0,0,FranceMayotte,Mayotte,,2022-03-22 20:16:38.186772,2021-10-15,0.06912288,0.14265876,0.25381908,188,389,692,131,268,455,0.04810912,0.09841095,0.16696227,0.13770553,0.21118213,0.28288034
0,0,FranceMayotte,Mayotte,,2022-03-22 20:16:38.186772,2021-10-16,0.06807264,0.13901611,0.25457959,185,379,694,129,264,457,0.04759915,0.09693036,0.16754457,0.13486079,0.21441177,0.28346489
0,0,FranceMayotte,Mayotte,,2022-03-22 20:16:38.186772,2021-10-17,0.06755968,0.13634573,0.25664763,184,371,700,128,261,458,0.04704513,0.09568048,0.16798852,0.13514607,0.21632384,0.28493504
0,0,FranceMayotte,Mayotte,,2022-03-22 20:16:38.186772,2021-10-18,0.06770712,0.13534629,0.25913419,184,369,706,126,259,460,0.04647582,0.09506416,0.16868547,0.13802435,0.21801235,0.28567151
0,0,FranceMayotte,Mayotte,,2022-03-22 20:16:38.186772,2021-10-19,0.06761585,0.13490972,0.26256256,184,368,716,126,256,462,0.04618884,0.09401015,0.16967973,0.14694110,0.22264844,0.28578444
0,0,FranceMayotte,Mayotte,,2022-03-22 20:16:38.186772,2021-10-20,0.06742476,0.13474089,0.26552225,183,367,724,125,254,466,0.04598104,0.09332786,0.17085252,0.16301543,0.22764538,0.29179805
0,0,FranceMayotte,Mayotte,,2022-03-22 20:16:38.186772,2021-10-21,0.06703844,0.13475663,0.26711020,182,367,728,124,255,469,0.04567244,0.09364919,0.17214768,0.17841137,0.23156671,0.30073878
0,0,FranceMayotte,Mayotte,,2022-03-22 20:16:38.186772,2021-10-22,0.06748891,0.13435368,0.26712336,184,366,728,125,252,470,0.04587158,0.09244943,0.17238409,0.18353234,0.23557999,0.30524500
0,0,FranceMayotte,Mayotte,,2022-03-22 20:16:38.186772,2021-10-23,0.06813785,0.13380238,0.26558002,185,365,724,125,250,473,0.04612987,0.09180999,0.17344730,0.18698978,0.23689323,0.30799483
0,0,FranceMayotte,Mayotte,,2022-03-22 20:16:38.186772,2021-10-24,0.06856054,0.13214562,0.26410588,187,360,720,126,249,477,0.04623441,0.09138931,0.17514095,0.18799300,0.23827548,0.30804103
0,0,FranceMayotte,Mayotte,,2022-03-22 20:16:38.186772,2021-10-25,0.06899979,0.13079737,0.26411907,188,356,720,126,246,481,0.04642856,0.09047198,0.17638071,0.18987813,0.23920505,0.30426220
0,0,FranceMayotte,Mayotte,,2022-03-22 20:16:38.186772,2021-10-26,0.06942958,0.13031004,0.26484587,189,355,722,127,244,484,0.04667582,0.08945406,0.17752976,0.19377159,0.24133437,0.30169190
0,0,FranceMayotte,Mayotte,,2022-03-22 20:16:38.186772,2021-10-27,0.06982811,0.13004348,0.26537648,190,354,723,128,242,489,0.04695845,0.08894358,0.17957049,0.20209762,0.24367697,0.30664828
0,0,FranceMayotte,Mayotte,,2022-03-22 20:16:38.186772,2021-10-28,0.07019145,0.12914120,0.26877661,191,352,733,129,241,491,0.04736870,0.08857194,0.18000854,0.20722972,0.24576941,0.31299285
0,0,FranceMayotte,Mayotte,,2022-03-22 20:16:38.186772,2021-10-29,0.07068929,0.12952486,0.27453848,192,353,748,130,241,491,0.04780997,0.08842696,0.18026893,0.20891412,0.24515227,0.31711379
0,0,FranceMayotte,Mayotte,,2022-03-22 20:16:38.186772,2021-10-30,0.07148979,0.12991255,0.27832195,195,354,759,130,241,492,0.04792883,0.08844542,0.18035206,0.20832325,0.24521948,0.31979596
0,0,FranceMayotte,Mayotte,,2022-03-22 20:16:38.186772,2021-10-31,0.07204207,0.13109413,0.28351976,196,357,773,131,242,491,0.04836286,0.08871635,0.18004105,0.20859084,0.24548112,0.32099195
0,0,FranceMayotte,Mayotte,,2022-03-22 20:16:38.186772,2021-11-01,0.07295129,0.13219721,0.28181723,199,360,768,132,242,491,0.04869997,0.08894272,0.18012672,0.20927614,0.24496937,0.31708087
0,0,FranceMayotte,Mayotte,,2022-03-22 20:16:38.186772,2021-11-02,0.07394149,0.13273855,0.27913590,201,362,761,134,246,490,0.04912404,0.09027135,0.17969929,0.21076698,0.24557176,0.31191212
0,0,FranceMayotte,Mayotte,,2022-03-22 20:16:38.186772,2021-11-03,0.07480452,0.13428867,0.27864501,204,366,760,136,247,487,0.04986923,0.09082906,0.17881398,0.20665708,0.24824017,0.30806369
0,0,FranceMayotte,Mayotte,,2022-03-22 20:16:38.186772,2021-11-04,0.07609445,0.13680756,0.27451062,207,373,748,138,249,494,0.05075213,0.09132769,0.18128596,0.19299794,0.24602011,0.31310335
0,0,FranceMayotte,Mayotte,,2022-03-22 20:16:38.186772,2021-11-05,0.07747478,0.13849973,0.27950850,211,377,762,140,252,498,0.05153486,0.09264742,0.18267058,0.18585376,0.24254092,0.31569043
0,0,FranceMayotte,Mayotte,,2022-03-22 20:16:38.186772,2021-11-06,0.07738116,0.13964248,0.28065172,211,380,765,142,253,495,0.05228360,0.09281037,0.18164795,0.18352541,0.24149408,0.32124014
0,0,FranceMayotte,Mayotte,,2022-03-22 20:16:38.186772,2021-11-07,0.07741757,0.14022290,0.28422987,211,382,775,144,255,491,0.05294348,0.09382086,0.18013254,0.18373461,0.24156318,0.32446023
0,0,FranceMayotte,Mayotte,,2022-03-22 20:16:38.186772,2021-11-08,0.07720552,0.14227376,0.28581426,210,388,779,144,261,498,0.05279159,0.09573136,0.18264731,0.18700919,0.24492540,0.32787974
0,0,FranceMayotte,Mayotte,,2022-03-22 20:16:38.186772,2021-11-09,0.07732363,0.14486360,0.29234974,210,395,797,144,265,503,0.05293105,0.09727943,0.18458664,0.19160074,0.25110530,0.33222000
0,0,FranceMayotte,Mayotte,,2022-03-22 20:16:38.186772,2021-11-10,0.07855790,0.14706731,0.30005787,214,401,818,144,271,515,0.05298057,0.09970128,0.18882825,0.18636572,0.26346070,0.34685201
0,0,FranceMayotte,Mayotte,,2022-03-22 20:16:38.186772,2021-11-11,0.08019842,0.14676076,0.30902923,218,400,843,145,275,527,0.05322285,0.10101984,0.19322311,0.17931186,0.27731343,0.37077397
0,0,FranceMayotte,Mayotte,,2022-03-22 20:16:38.186772,2021-11-12,0.08217728,0.14896658,0.31909620,224,406,870,148,276,537,0.05437560,0.10131454,0.19694470,0.17432900,0.28818591,0.38712537
0,0,FranceMayotte,Mayotte,,2022-03-22 20:16:38.186772,2021-11-13,0.08365620,0.15193563,0.32983763,228,414,899,150,278,557,0.05508644,0.10217005,0.20417528,0.17350035,0.29289101,0.39555577
0,0,FranceMayotte,Mayotte,,2022-03-22 20:16:38.186772,2021-11-14,0.08574930,0.15531995,0.34129369,233,423,931,154,285,581,0.05668612,0.10459215,0.21303511,0.17507592,0.29431497,0.39774643
0,0,FranceMayotte,Mayotte,,2022-03-22 20:16:38.186772,2021-11-15,0.08907069,0.15889108,0.35398488,242,433,965,155,289,600,0.05702331,0.10614836,0.22016755,0.18034933,0.29543951,0.40030478
0,0,FranceMayotte,Mayotte,,2022-03-22 20:16:38.186772,2021-11-16,0.09080528,0.16163048,0.36932443,247,440,1007,161,295,622,0.05928885,0.10844740,0.22813276,0.19515916,0.29947525,0.40612792
0,0,FranceMayotte,Mayotte,,2022-03-22 20:16:38.186772,2021-11-17,0.09314523,0.16397542,0.39191719,254,447,1069,167,300,647,0.06126110,0.11002165,0.23747159,0.22425708,0.31638392,0.44183322
0,0,FranceMayotte,Mayotte,,2022-03-22 20:16:38.186772,2021-11-18,0.09595492,0.16726067,0.42656251,261,456,1163,170,306,679,0.06259077,0.11218228,0.24905226,0.24693680,0.32577987,0.49494292
0,0,FranceMayotte,Mayotte,,2022-03-22 20:16:38.186772,2021-11-19,0.09752388,0.17129417,0.46750932,266,467,1275,174,310,718,0.06392688,0.11390061,0.26342256,0.26084539,0.33210203,0.52823984
0,0,FranceMayotte,Mayotte,,2022-03-22 20:16:38.186772,2021-11-20,0.10042914,0.17906416,0.51338362,273,488,1400,178,317,765,0.06531551,0.11624261,0.28059370,0.26729130,0.33824045,0.54138628
0,0,FranceMayotte,Mayotte,,2022-03-22 20:16:38.186772,2021-11-21,0.10394291,0.18609749,0.55873154,283,507,1524,183,325,825,0.06715060,0.11947054,0.30259428,0.27177512,0.34212189,0.54262833
0,0,FranceMayotte,Mayotte,,2022-03-22 20:16:38.186772,2021-11-22,0.10785014,0.19328649,0.60359756,294,527,1646,187,338,906,0.06857034,0.12393876,0.33234344,0.27976559,0.34771980,0.53333910
0,0,FranceMayotte,Mayotte,,2022-03-22 20:16:38.186772,2021-11-23,0.11119476,0.20136385,0.64990309,303,549,1773,194,350,994,0.07140362,0.12850468,0.36447820,0.30264747,0.36592198,0.50781230
0,0,FranceMayotte,Mayotte,,2022-03-22 20:16:38.186772,2021-11-24,0.11606273,0.21129556,0.69595051,316,576,1898,202,363,1072,0.07430701,0.13334732,0.39296352,0.33677049,0.39450899,0.47067108
0,0,FranceMayotte,Mayotte,,2022-03-22 20:16:38.186772,2021-11-25,0.12326204,0.22391881,0.74138873,336,610,2022,212,382,1150,0.07772456,0.14028095,0.42157435,0.36561632,0.42543898,0.49147777
0,0,FranceMayotte,Mayotte,,2022-03-22 20:16:38.186772,2021-11-26,0.13179834,0.23869249,0.78676167,359,651,2146,224,401,1229,0.08211248,0.14710899,0.45055331,0.37512295,0.43107537,0.51315704
0,0,FranceMayotte,Mayotte,,2022-03-22 20:16:38.186772,2021-11-27,0.14183579,0.25494157,0.83402154,386,695,2275,238,424,1309,0.08730081,0.15546969,0.47994862,0.37730494,0.43740023,0.52592585
0,0,FranceMayotte,Mayotte,,2022-03-22 20:16:38.186772,2021-11-28,0.15543135,0.27178312,0.87639928,424,741,2390,253,451,1391,0.09292788,0.16541428,0.51017675,0.38042523,0.44252301,0.53287722
0,0,FranceMayotte,Mayotte,,2022-03-22 20:16:38.186772,2021-11-29,0.17043269,0.29059771,0.92084597,464,792,2512,273,480,1479,0.10025649,0.17627830,0.54218151,0.38815756,0.45340727,0.54275499
0,0,FranceMayotte,Mayotte,,2022-03-22 20:16:38.186772,2021-11-30,0.18636579,0.31415140,0.97690184,508,857,2665,298,514,1572,0.10933016,0.18875610,0.57624238,0.40558195,0.47820235,0.56616325
0,0,FranceMayotte,Mayotte,,2022-03-22 20:16:38.186772,2021-12-01,0.20840231,0.34440173,1.04833025,568,939,2859,329,559,1671,0.12083677,0.20499341,0.61272688,0.43361266,0.52166355,0.61312340
0,0,FranceMayotte,Mayotte,,2022-03-22 20:16:38.186772,2021-12-02,0.23299456,0.38222812,1.13392329,635,1042,3093,358,610,1786,0.13128956,0.22377420,0.65485719,0.46582618,0.57418075,0.67254716
0,0,FranceMayotte,Mayotte,,2022-03-22 20:16:38.186772,2021-12-03,0.26038793,0.42917515,1.23192638,710,1170,3360,394,669,1917,0.14458587,0.24531046,0.70285055,0.48480347,0.59815485,0.70681447
0,0,FranceMayotte,Mayotte,,2022-03-22 20:16:38.186772,2021-12-04,0.29041126,0.48333755,1.34031389,792,1318,3656,435,745,2059,0.15969478,0.27330680,0.75502441,0.49198495,0.60947230,0.72284710
0,0,FranceMayotte,Mayotte,,2022-03-22 20:16:38.186772,2021-12-05,0.32071409,0.54606906,1.45853479,874,1489,3979,483,837,2220,0.17726496,0.30689339,0.81377799,0.49541657,0.61732543,0.72925152
0,0,FranceMayotte,Mayotte,,2022-03-22 20:16:38.186772,2021-12-06,0.36308941,0.61763879,1.58069248,990,1684,4312,552,941,2408,0.20244398,0.34494579,0.88283581,0.49687186,0.62667593,0.73454564
0,0,FranceMayotte,Mayotte,,2022-03-22 20:16:38.186772,2021-12-07,0.40766261,0.69834555,1.71755948,1112,1905,4685,627,1056,2601,0.22995624,0.38714466,0.95368549,0.49508833,0.64497191,0.74888769
0,0,FranceMayotte,Mayotte,,2022-03-22 20:16:38.186772,2021-12-08,0.46284682,0.80077665,1.87520048,1262,2184,5115,706,1196,2818,0.25880885,0.43870439,1.03312028,0.49171496,0.67050990,0.78795548
0,0,FranceMayotte,Mayotte,,2022-03-22 20:16:38.186772,2021-12-09,0.53094545,0.91847035,2.05709189,1448,2505,5612,798,1355,3118,0.29270761,0.49687323,1.14305588,0.48127848,0.70823553,0.84723139
0,0,FranceMayotte,Mayotte,,2022-03-22 20:16:38.186772,2021-12-10,0.61339751,1.05593873,2.24764324,1673,2880,6131,917,1560,3408,0.33647283,0.57194501,1.24953534,0.47664472,0.72032602,0.89315752
0,0,FranceMayotte,Mayotte,,2022-03-22 20:16:38.186772,2021-12-11,0.71259721,1.22412582,2.45565326,1944,3339,6699,1046,1793,3728,0.38356454,0.65745656,1.36672239,0.47744699,0.72825924,0.91301961
0,0,FranceMayotte,Mayotte,,2022-03-22 20:16:38.186772,2021-12-12,0.82881205,1.41319725,2.71215458,2261,3855,7399,1198,2078,4087,0.43936681,0.76180664,1.49841830,0.48352781,0.73573959,0.91920003
0,0,FranceMayotte,Mayotte,,2022-03-22 20:16:38.186772,2021-12-13,0.94867150,1.61492895,3.00900254,2588,4405,8208,1347,2405,4507,0.49403715,0.88166072,1.65210993,0.50174298,0.75398922,0.92700998
0,0,FranceMayotte,Mayotte,,2022-03-22 20:16:38.186772,2021-12-14,1.11217599,1.87701059,3.37117905,3034,5120,9197,1550,2788,4970,0.56852082,1.02229541,1.82177648,0.54275245,0.78974756,0.96562992
0,0,FranceMayotte,Mayotte,,2022-03-22 20:16:38.186772,2021-12-15,1.29648026,2.20153762,3.84187652,3536,6006,10481,1815,3257,5575,0.66539112,1.19400301,2.04360103,0.61404987,0.84782235,1.06241576
0,0,FranceMayotte,Mayotte,,2022-03-22 20:16:38.186772,2021-12-16,1.59208805,2.62375821,4.43374590,4343,7157,12095,2160,3838,6313,0.79179259,1.40686493,2.31419331,0.69229799,0.89616139,1.21587162
0,0,FranceMayotte,Mayotte,,2022-03-22 20:16:38.186772,2021-12-17,1.89194613,3.14017633,5.19770494,5161,8566,14180,2585,4518,7201,0.94762583,1.65608631,2.63965775,0.74320725,0.92805714,1.34162929
0,0,FranceMayotte,Mayotte,,2022-03-22 20:16:38.186772,2021-12-18,2.31111312,3.82458178,6.03811726,6305,10433,16472,3182,5372,8371,1.16671321,1.96919295,3.06865687,0.76783549,0.94902684,1.39961274
0,0,FranceMayotte,Mayotte,,2022-03-22 20:16:38.186772,2021-12-19,2.76724447,4.61836379,7.09236242,7549,12599,19348,3949,6453,9942,1.44785103,2.36557880,3.64430918,0.78397602,0.96159001,1.42116611
0,0,FranceMayotte,Mayotte,,2022-03-22 20:16:38.186772,2021-12-20,3.38069810,5.58638413,8.46623915,9222,15240,23097,4872,7739,11823,1.78603721,2.83687625,4.33378065,0.81112941,0.97466531,1.43059790
0,0,FranceMayotte,Mayotte,,2022-03-22 20:16:38.186772,2021-12-21,4.25203560,6.78047796,10.16471142,11600,18498,27730,6046,9348,13961,2.21631977,3.42682541,5.11758025,0.87433946,1.01677031,1.43337181
0,0,FranceMayotte,Mayotte,,2022-03-22 20:16:38.186772,2021-12-22,5.36294467,8.34263196,12.09041936,14630,22759,32984,7551,11456,16643,2.76799898,4.19922045,6.10072543,0.97810103,1.08521986,1.43332854
0,0,FranceMayotte,Mayotte,,2022-03-22 20:16:38.186772,2021-12-23,6.83899598,10.42512602,14.39091516,18657,28441,39260,9407,14079,20122,3.44831669,5.16090023,7.37592655,1.01795038,1.17226887,1.42334082
0,0,FranceMayotte,Mayotte,,2022-03-22 20:16:38.186772,2021-12-24,8.65750859,12.97510832,17.76071257,23618,35397,48453,11795,17391,24309,4.32377434,6.37484956,8.91069012,1.01443778,1.23707588,1.47630080
0,0,FranceMayotte,Mayotte,,2022-03-22 20:16:38.186772,2021-12-25,10.71637153,16.14478980,21.45909035,29235,44045,58543,14803,21560,29733,5.42639571,7.90288641,10.89888204,1.00514345,1.27096291,1.50319500
0,0,FranceMayotte,Mayotte,,2022-03-22 20:16:38.186772,2021-12-26,13.32412727,19.71234555,25.53819103,36349,53777,69671,18292,26597,36314,6.70514442,9.74939791,13.31127198,1.00335943,1.28268292,1.51299387
0,0,FranceMayotte,Mayotte,,2022-03-22 20:16:38.186772,2021-12-27,16.75242108,23.69428268,30.25751876,45702,64641,82546,22450,32191,43570,8.22937766,11.79997482,15.97071060,1.01373138,1.28880665,1.51824957
0,0,FranceMayotte,Mayotte,,2022-03-22 20:16:38.186772,2021-12-28,19.92414662,28.03184636,35.55730245,54355,76474,97004,27457,38688,52044,10.06462459,14.18129840,19.07687337,1.03384940,1.29672098,1.52461475
0,0,FranceMayotte,Mayotte,,2022-03-22 20:16:38.186772,2021-12-29,23.63112285,32.87324982,40.43168627,64468,89682,110302,32580,46196,60936,11.94250298,16.93332073,22.33624433,1.06794960,1.34033370,1.55735970
0,0,FranceMayotte,Mayotte,,2022-03-22 20:16:38.186772,2021-12-30,28.06991540,37.84693380,45.71356576,76578,103251,124712,39503,54943,70175,14.47997130,20.13950874,25.72285348,1.09242155,1.40587903,1.59774951
0,0,FranceMayotte,Mayotte,,2022-03-22 20:16:38.186772,2021-12-31,32.18000056,42.67704526,50.19739041,87791,116428,136945,46832,63752,80064,17.16658743,23.36851675,29.34782351,1.11541375,1.44155100,1.62581189
0,0,FranceMayotte,Mayotte,,2022-03-22 20:16:38.186772,2022-01-01,36.29484671,46.89745652,54.03541668,99017,127942,147415,52746,72348,88279,19.33443447,26.51959168,32.35905680,1.12666347,1.46047238,1.63664983
0,0,FranceMayotte,Mayotte,,2022-03-22 20:16:38.186772,2022-01-02,39.45084053,50.13464564,56.30980164,107627,136773,153620,59007,80626,95097,21.62921653,29.55369686,34.85829130,1.12751834,1.46594969,1.63527605
0,0,FranceMayotte,Mayotte,,2022-03-22 20:16:38.186772,2022-01-03,41.32125832,52.11634893,57.00349017,112729,142180,155512,64189,87204,100621,23.52886909,31.96508937,36.88285123,1.11848424,1.45333900,1.61480798
0,0,FranceMayotte,Mayotte,,2022-03-22 20:16:38.186772,2022-01-04,42.83226915,53.16022206,57.09136570,116851,145027,155752,69124,91898,103429,25.33784486,33.68535825,37.91214793,1.09633824,1.42198356,1.57607320
0,0,FranceMayotte,Mayotte,,2022-03-22 20:16:38.186772,2022-01-05,43.46892421,52.68208634,57.57633241,118588,143723,157075,72701,94445,105298,26.64868386,34.61927324,38.59716672,1.05724771,1.36984830,1.58452440
0,0,FranceMayotte,Mayotte,,2022-03-22 20:16:38.186772,2022-01-06,42.32322185,50.93804653,56.80825955,115463,138965,154980,75340,95058,106324,27.61625149,34.84382940,38.97352662,1.01881318,1.31129015,1.61453854
0,0,FranceMayotte,Mayotte,,2022-03-22 20:16:38.186772,2022-01-07,40.97049955,48.49523252,54.95841882,111772,132301,149933,76819,93858,106436,28.15824132,34.40405782,39.01456087,0.99785105,1.28254928,1.62704675
0,0,FranceMayotte,Mayotte,,2022-03-22 20:16:38.186772,2022-01-08,38.79721437,45.35701255,52.62184497,105843,123739,143559,75517,90604,105453,27.68106642,33.21119766,38.65428140,0.98967146,1.26677883,1.63645280
0,0,FranceMayotte,Mayotte,,2022-03-22 20:16:38.186772,2022-01-09,35.52896703,42.14570827,49.62958554,96927,114978,135395,72483,86376,101831,26.56882675,31.66138614,37.32661267,0.98757752,1.25618038,1.63098908
0,0,FranceMayotte,Mayotte,,2022-03-22 20:16:38.186772,2022-01-10,32.33495567,38.98607726,46.37913751,88213,106359,126528,68365,81160,97201,25.05958147,29.74962631,35.62927512,0.98900613,1.23590233,1.60137511
0,0,FranceMayotte,Mayotte,,2022-03-22 20:16:38.186772,2022-01-11,29.28122839,35.77562974,42.80314973,79882,97600,116772,63173,75057,91531,23.15620687,27.51255775,33.55096094,0.99457909,1.17502315,1.53095359
0,0,FranceMayotte,Mayotte,,2022-03-22 20:16:38.186772,2022-01-12,26.20352704,32.49288779,39.40891705,71486,88644,107512,57004,69353,85514,20.89497443,25.42165578,31.34528340,0.98983832,1.08289037,1.40785111
0,0,FranceMayotte,Mayotte,,2022-03-22 20:16:38.186772,2022-01-13,23.29337839,29.26718531,36.00820203,63547,79844,98235,50989,63656,79212,18.69040315,23.33329084,29.03561098,0.93627855,1.01634594,1.30524988
0,0,FranceMayotte,Mayotte,,2022-03-22 20:16:38.186772,2022-01-14,20.52033425,26.33887222,32.83059510,55982,71855,89566,45314,58351,72536,16.61000833,21.38889688,26.58853233,0.89083498,0.98264091,1.28542732
0,0,FranceMayotte,Mayotte,,2022-03-22 20:16:38.186772,2022-01-15,17.99364094,23.60464584,29.91057308,49088,64396,81599,40061,53021,66290,14.68449523,19.43526844,24.29904063,0.87149992,0.96696297,1.27891648
0,0,FranceMayotte,Mayotte,,2022-03-22 20:16:38.186772,2022-01-16,15.74102445,21.06525757,27.04552895,42943,57468,73783,35272,47825,60263,12.92918813,17.53036892,22.08954005,0.86141307,0.95848408,1.26331955
0,0,FranceMayotte,Mayotte,,2022-03-22 20:16:38.186772,2022-01-17,13.75797384,18.75252115,24.45625807,37533,51159,66719,30956,42814,54565,11.34720755,15.69362903,20.00111078,0.85037380,0.94471057,1.23626512
0,0,FranceMayotte,Mayotte,,2022-03-22 20:16:38.186772,2022-01-18,11.99363723,16.72181814,22.21188174,32720,45619,60596,27099,38290,49608,9.93352052,14.03548886,18.18420518,0.82389138,0.91406046,1.17655227
0,0,FranceMayotte,Mayotte,,2022-03-22 20:16:38.186772,2022-01-19,10.44227446,14.87109663,20.11913629,28487,40570,54887,23675,34167,45014,8.67824254,12.52417990,16.50011332,0.77810148,0.86941266,1.09703485
0,0,FranceMayotte,Mayotte,,2022-03-22 20:16:38.186772,2022-01-20,9.08205360,13.21444049,18.17596370,24777,36050,49586,20649,30487,40686,7.56903667,11.17527768,14.91375009,0.71764398,0.82838494,1.07915418
0,0,FranceMayotte,Mayotte,,2022-03-22 20:16:38.186772,2022-01-21,7.89271702,11.71767438,16.35852380,21532,31967,44628,17985,27094,36688,6.59274029,9.93151472,13.44806881,0.68661103,0.81345382,1.07217263
0,0,FranceMayotte,Mayotte,,2022-03-22 20:16:38.186772,2022-01-22,6.85462569,10.38850043,14.68662487,18700,28341,40067,15649,24088,33183,5.73618455,8.82960438,12.16337091,0.67420228,0.80630003,1.06527035
0,0,FranceMayotte,Mayotte,,2022-03-22 20:16:38.186772,2022-01-23,5.94987468,9.20079483,13.15880697,16232,25100,35898,13604,21404,29900,4.98656744,7.84593050,10.96024907,0.67023520,0.80112361,1.05624308
0,0,FranceMayotte,Mayotte,,2022-03-22 20:16:38.186772,2022-01-24,5.16212870,8.15369037,11.77057298,14082,22244,32111,11817,19013,26874,4.33182444,6.96928594,9.85098347,0.66985472,0.79141669,1.05184602
0,0,FranceMayotte,Mayotte,,2022-03-22 20:16:38.186772,2022-01-25,4.47662887,7.22460085,10.49609265,12212,19709,28634,10260,16838,24102,3.76082439,6.17227496,8.83469579,0.67184672,0.79947414,1.02673789
0,0,FranceMayotte,Mayotte,,2022-03-22 20:16:38.186772,2022-01-26,3.88032529,6.38676208,9.33493047,10586,17423,25466,8902,14929,21591,3.26332149,5.47227535,7.91424427,0.67102990,0.79659308,1.07299733
0,0,FranceMayotte,Mayotte,,2022-03-22 20:16:38.186772,2022-01-27,3.36224202,5.63740912,8.29947435,9172,15379,22642,7723,13210,19369,2.83119567,4.84228170,7.09985268,0.65213463,0.77808209,1.12739985
0,0,FranceMayotte,Mayotte,,2022-03-22 20:16:38.186772,2022-01-28,2.91469324,4.98687400,7.40912620,7951,13604,20213,6700,11629,17371,2.45589799,4.26281183,6.36740313,0.63801602,0.76429363,1.15802519
0,0,FranceMayotte,Mayotte,,2022-03-22 20:16:38.186772,2022-01-29,2.52625915,4.40683442,6.60027379,6891,12022,18006,5810,10266,15569,2.12969460,3.76309213,5.70710502,0.63135462,0.76094146,1.17478387
0,0,FranceMayotte,Mayotte,,2022-03-22 20:16:38.186772,2022-01-30,2.18923496,3.88167044,5.87617413,5972,10589,16030,5037,9082,13948,1.84635830,3.32937757,5.11275992,0.62931236,0.76154641,1.18343020
0,0,FranceMayotte,Mayotte,,2022-03-22 20:16:38.186772,2022-01-31,1.89683226,3.42711445,5.25545979,5174,9349,14337,4366,8046,12490,1.60037458,2.94929491,4.57846637,0.62901365,0.76110805,1.19265175
0,0,FranceMayotte,Mayotte,,2022-03-22 20:16:38.186772,2022-02-01,1.64305781,3.03680171,4.69954286,4482,8284,12820,3783,7126,11181,1.38686801,2.61215370,4.09863560,0.61230109,0.74896542,1.20064517
0,0,FranceMayotte,Mayotte,,2022-03-22 20:16:38.186772,2022-02-02,1.42271588,2.68484874,4.20166083,3881,7324,11462,3278,6281,10006,1.20167410,2.30267221,3.66802753,0.57483435,0.72837913,1.24695381
0,0,FranceMayotte,Mayotte,,2022-03-22 20:16:38.186772,2022-02-03,1.23150231,2.37133548,3.75595625,3359,6469,10246,2854,5547,8953,1.04636935,2.03328621,3.28181191,0.52148097,0.70287410,1.30427333
0,0,FranceMayotte,Mayotte,,2022-03-22 20:16:38.186772,2022-02-04,1.07124511,2.08722126,3.35573488,2922,5694,9154,2470,4899,8008,0.90560694,1.79596921,2.93545394,0.49254379,0.69120734,1.33845380
0,0,FranceMayotte,Mayotte,,2022-03-22 20:16:38.186772,2022-02-05,0.92797697,1.83863595,2.99778204,2531,5016,8178,2147,4323,7160,0.78716429,1.58492997,2.62483114,0.48097140,0.68392295,1.35294597
0,0,FranceMayotte,Mayotte,,2022-03-22 20:16:38.186772,2022-02-06,0.80350568,1.62136680,2.67776871,2192,4423,7305,1875,3807,6400,0.68732856,1.39567168,2.34628519,0.47877076,0.68202225,1.35054680
0,0,FranceMayotte,Mayotte,,2022-03-22 20:16:38.186772,2022-02-07,0.70084477,1.43185468,2.39177091,1911,3906,6525,1637,3365,5714,0.60017639,1.23345147,2.09467810,0.48468266,0.67935501,1.33293415
0,0,FranceMayotte,Mayotte,,2022-03-22 20:16:38.186772,2022-02-08,0.61194924,1.26384472,2.13624441,1669,3447,5827,1429,2968,5083,0.52408115,1.08804735,1.86335884,0.49795972,0.67822163,1.28782836
0,0,FranceMayotte,Mayotte,,2022-03-22 20:16:38.186772,2022-02-09,0.53423359,1.11646652,1.90799591,1457,3045,5205,1248,2621,4541,0.45761243,0.96082022,1.66462154,0.51521900,0.67779849,1.21268536
0,0,FranceMayotte,Mayotte,,2022-03-22 20:16:38.186772,2022-02-10,0.46631304,0.98284814,1.70414043,1272,2681,4649,1089,2310,4056,0.39953175,0.84708197,1.48694689,0.52322218,0.68133133,1.14236992
0,0,FranceMayotte,Mayotte,,2022-03-22 20:16:38.186772,2022-02-11,0.40729497,0.86600129,1.52313705,1111,2362,4155,951,2042,3623,0.34882959,0.74885672,1.32831688,0.51474424,0.68115443,1.11605574
0,0,FranceMayotte,Mayotte,,2022-03-22 20:16:38.186772,2022-02-12,0.35584776,0.76472246,1.36162197,970,2086,3714,831,1801,3237,0.30463725,0.66017330,1.18687509,0.50956176,0.68054719,1.10386855
0,0,FranceMayotte,Mayotte,,2022-03-22 20:16:38.186772,2022-02-13,0.31101711,0.67535306,1.20945707,848,1842,3299,726,1588,2885,0.26611746,0.58228088,1.05752408,0.50830795,0.68176077,1.10172603
0,0,FranceMayotte,Mayotte,,2022-03-22 20:16:38.186772,2022-02-14,0.27195512,0.59662557,1.08198110,741,1627,2951,634,1402,2570,0.23254648,0.51417803,0.94233707,0.51052041,0.68449223,1.10506728
0,0,FranceMayotte,Mayotte,,2022-03-22 20:16:38.186772,2022-02-15,0.23791668,0.52728269,0.96764088,649,1438,2639,554,1238,2297,0.20329078,0.45406839,0.84209857,0.51492567,0.68684605,1.11816761
0,0,FranceMayotte,Mayotte,,2022-03-22 20:16:38.186772,2022-02-16,0.20825157,0.46621478,0.86181875,568,1271,2351,485,1093,2053,0.17779550,0.40067910,0.75271312,0.52025801,0.68339582,1.14202455
0,0,FranceMayotte,Mayotte,,2022-03-22 20:16:38.186772,2022-02-17,0.18239975,0.41243445,0.77197470,497,1125,2106,424,966,1836,0.15557662,0.35435589,0.67329668,0.50981533,0.66859594,1.16087669
0,0,FranceMayotte,Mayotte,,2022-03-22 20:16:38.186772,2022-02-18,0.15968351,0.36417448,0.69027159,435,993,1883,371,854,1643,0.13618468,0.31329399,0.60259814,0.50156304,0.65750523,1.17243806
0,0,FranceMayotte,Mayotte,,2022-03-22 20:16:38.186772,2022-02-19,0.13987326,0.32184325,0.61456848,381,878,1676,325,755,1470,0.11923008,0.27680263,0.53919292,0.50021616,0.65791680,1.17908164
0,0,FranceMayotte,Mayotte,,2022-03-22 20:16:38.186772,2022-02-20,0.12260345,0.28511403,0.54749365,334,777,1493,284,668,1315,0.10442408,0.24492637,0.48237383,0.49880101,0.65740662,1.17706562
0,0,FranceMayotte,Mayotte,,2022-03-22 20:16:38.186772,2022-02-21,0.10755445,0.25197031,0.48946085,293,687,1335,249,592,1177,0.09150568,0.21723663,0.43148848,0.49564042,0.65913563,1.16677577
0,0,FranceMayotte,Mayotte,,2022-03-22 20:16:38.186772,2022-02-22,0.09444475,0.22293924,0.43772080,257,608,1194,218,525,1052,0.08024142,0.19266456,0.38594053,0.48826582,0.66632407,1.14809283
0,0,FranceMayotte,Mayotte,,2022-03-22 20:16:38.186772,2022-02-23,0.08302720,0.19740154,0.39148176,226,538,1068,192,464,941,0.07042412,0.17041248,0.34518810,0.47681595,0.67216236,1.11772364
0,0,FranceMayotte,Mayotte,,2022-03-22 20:16:38.186772,2022-02-24,0.07308469,0.17487163,0.35016452,199,477,955,168,411,842,0.06187086,0.15067727,0.30873979,0.44334404,0.66041263,1.09633867
0,0,FranceMayotte,Mayotte,,2022-03-22 20:16:38.186772,2022-02-25,0.06465256,0.15526048,0.31354863,176,423,855,148,363,753,0.05445504,0.13327174,0.27618182,0.42399068,0.64843906,1.08443851
0,0,FranceMayotte,Mayotte,,2022-03-22 20:16:38.186772,2022-02-26,0.05733833,0.13765652,0.28085959,156,375,766,130,321,674,0.04792339,0.11780248,0.24714463,0.41501961,0.64441149,1.08782431
0,0,FranceMayotte,Mayotte,,2022-03-22 20:16:38.186772,2022-02-27,0.05085179,0.12210233,0.25167168,138,333,686,114,284,603,0.04206332,0.10417617,0.22123857,0.41311669,0.64209409,1.08927193
0,0,FranceMayotte,Mayotte,,2022-03-22 20:16:38.186772,2022-02-28,0.04492204,0.10806203,0.22560188,122,294,615,100,251,540,0.03700166,0.09223646,0.19811863,0.41512954,0.64150675,1.08462144
0,0,FranceMayotte,Mayotte,,2022-03-22 20:16:38.186772,2022-03-01,0.03979234,0.09587619,0.20230686,108,261,551,89,223,484,0.03263153,0.08191289,0.17747846,0.41544138,0.63424658,1.09417294
0,0,FranceMayotte,Mayotte,,2022-03-22 20:16:38.186772,2022-03-02,0.03563695,0.08547469,0.18148224,97,233,495,78,198,433,0.02885455,0.07283976,0.15904556,0.41590237,0.61851979,1.10770186
0,0,FranceMayotte,Mayotte,,2022-03-22 20:16:38.186772,2022-03-03,0.03258240,0.07613942,0.16286621,88,207,444,69,176,388,0.02558729,0.06477319,0.14257857,0.40175209,0.59963314,1.12976234
0,0,FranceMayotte,Mayotte,,2022-03-22 20:16:38.186772,2022-03-04,0.02959169,0.06791751,0.14683504,80,185,400,62,156,349,0.02301513,0.05754129,0.12792853,0.39314788,0.58880460,1.14007167
0,0,FranceMayotte,Mayotte,,2022-03-22 20:16:38.186772,2022-03-05,0.02703968,0.06089954,0.13257671,73,166,361,57,139,313,0.02121867,0.05118780,0.11497551,0.39105089,0.58448114,1.14651647
0,0,FranceMayotte,Mayotte,,2022-03-22 20:16:38.186772,2022-03-06,0.02555226,0.05443430,0.11989120,69,148,327,52,124,282,0.01929747,0.04557668,0.10349362,0.39222941,0.58116075,1.14567089
0,0,FranceMayotte,Mayotte,,2022-03-22 20:16:38.186772,2022-03-07,0.02372670,0.04892507,0.10859644,64,133,296,48,110,253,0.01773727,0.04067768,0.09294720,0.39986991,0.57848308,1.12398697
0,0,FranceMayotte,Mayotte,,2022-03-22 20:16:38.186772,2022-03-08,0.02134321,0.04421865,0.09853290,58,120,268,45,99,228,0.01678469,0.03641094,0.08391010,0.41678097,0.57931056,1.06614081
0,0,FranceMayotte,Mayotte,,2022-03-22 20:16:38.186772,2022-03-09,0.01976323,0.03990364,0.08956089,53,108,244,42,89,206,0.01550825,0.03285047,0.07586313,0.42128337,0.57699360,0.98821860
0,0,FranceMayotte,Mayotte,,2022-03-22 20:16:38.186772,2022-03-10,0.01837445,0.03586586,0.08155181,50,97,222,38,81,187,0.01402778,0.02980455,0.06869190,0.42011708,0.56183128,0.93813857
0,0,FranceMayotte,Mayotte,,2022-03-22 20:16:38.186772,2022-03-11,0.01738458,0.03361740,0.07380634,47,91,201,34,73,169,0.01280742,0.02706240,0.06224651,0.41222105,0.56266728,0.91488469
0,0,FranceMayotte,Mayotte,,2022-03-22 20:16:38.186772,2022-03-12,0.01652395,0.03132872,0.06682479,45,85,182,32,67,153,0.01206972,0.02484501,0.05638731,0.40892875,0.56384421,0.90337812
0,0,FranceMayotte,Mayotte,,2022-03-22 20:16:38.186772,2022-03-13,0.01587831,0.02961375,0.06054188,43,80,165,31,63,139,0.01157460,0.02318434,0.05108045,0.40829743,0.56102402,0.89457129
0,0,FranceMayotte,Mayotte,,2022-03-22 20:16:38.186772,2022-03-14,0.01482118,0.02808851,0.05507226,40,76,150,30,59,127,0.01107291,0.02169046,0.04660495,0.40880562,0.55670367,0.88996051
0,0,FranceMayotte,Mayotte,,2022-03-22 20:16:38.186772,2022-03-15,0.01391956,0.02672945,0.05099371,37,72,139,28,55,115,0.01050845,0.02037481,0.04224149,0.40862037,0.54853732,0.88406811
0,0,FranceMayotte,Mayotte,,2022-03-22 20:16:38.186772,2022-03-16,0.01283789,0.02553416,0.04845268,35,69,132,27,52,104,0.00991012,0.01914336,0.03831063,0.41324766,0.53915925,0.86848516
0,0,FranceMayotte,Mayotte,,2022-03-22 20:16:38.186772,2022-03-17,0.01182228,0.02450900,0.04496128,32,66,122,25,49,95,0.00935539,0.01827471,0.03502299,0.38874266,0.53308281,0.87296810
0,0,FranceMayotte,Mayotte,,2022-03-22 20:16:38.186772,2022-03-18,0.01050445,0.02208413,0.04107096,28,60,112,23,47,89,0.00852918,0.01732606,0.03269820,0.36134087,0.53940928,0.88572227
0,0,FranceMayotte,Mayotte,,2022-03-22 20:16:38.186772,2022-03-19,0.00929383,0.01974858,0.03730177,25,53,101,20,43,82,0.00763778,0.01585740,0.03011017,0.34748693,0.53768255,0.89011848
0,0,FranceMayotte,Mayotte,,2022-03-22 20:16:38.186772,2022-03-20,0.00816774,0.01756025,0.03336157,22,47,91,18,39,74,0.00684593,0.01440168,0.02718354,0.34280613,0.53755844,0.89466973
0,0,FranceMayotte,Mayotte,,2022-03-22 20:16:38.186772,2022-03-21,0.00718831,0.01561058,0.02969665,19,42,81,16,35,66,0.00608616,0.01296818,0.02448888,0.34128936,0.53730016,0.89616839
0,0,FranceMayotte,Mayotte,,2022-03-22 20:16:38.186772,2022-03-22,0.00630861,0.01382895,0.02634694,17,37,71,14,31,60,0.00535433,0.01162377,0.02221947,0.34080260,0.53721706,0.89665130
0,0,FranceMayotte,Mayotte,,2022-03-22 20:16:38.186772,2022-03-23,0.00554112,0.01224383,0.02331611,15,33,63,12,28,54,0.00472858,0.01037069,0.01996791,0.34064705,0.53719048,0.89680581
0,0,FranceMayotte,Mayotte,,2022-03-22 20:16:38.186772,2022-03-24,0.00484189,0.01082610,0.02082644,13,29,56,11,25,48,0.00416740,0.00922359,0.01776031,0.34059742,0.53718347,0.89685513
0,0,FranceMayotte,Mayotte,,2022-03-22 20:16:38.186772,2022-03-25,0.00424993,0.00956365,0.01860475,11,26,50,9,22,43,0.00366239,0.00818565,0.01597343,0.34058158,0.53718262,0.89687087
0,0,FranceMayotte,Mayotte,,2022-03-22 20:16:38.186772,2022-03-26,0.00372854,0.00844290,0.01660569,10,23,45,8,19,39,0.00320279,0.00725374,0.01431547,0.34057653,0.53718235,0.89687589
0,0,FranceMayotte,Mayotte,,2022-03-22 20:16:38.186772,2022-03-27,0.00326993,0.00745010,0.01475960,8,20,40,7,17,34,0.00279816,0.00642400,0.01268243,0.34057492,0.53718227,0.89687749
0,0,FranceMayotte,Mayotte,,2022-03-22 20:16:38.186772,2022-03-28,0.00286695,0.00657196,0.01318368,7,17,35,6,15,30,0.00244292,0.00568055,0.01120215,0.34057441,0.53718224,0.89687800
0,0,FranceMayotte,Mayotte,,2022-03-22 20:16:38.186772,2022-03-29,0.00250084,0.00577922,0.01165985,6,15,31,5,13,27,0.00213168,0.00502274,0.00997265,0.34057425,0.53718223,0.89687816
0,0,FranceMayotte,Mayotte,,2022-03-22 20:16:38.186772,2022-03-30,0.00218004,0.00509191,0.01027804,5,13,28,5,12,24,0.00185940,0.00443650,0.00884338,0.34057419,0.53718223,0.89687821
0,0,FranceMayotte,Mayotte,,2022-03-22 20:16:38.186772,2022-03-31,0.00190017,0.00449805,0.00904913,5,12,24,4,10,21,0.00162146,0.00391649,0.00784717,0.34057418,0.53718223,0.89687823
0,0,FranceMayotte,Mayotte,,2022-03-22 20:16:38.186772,2022-04-01,0.00165609,0.00397329,0.00804674,4,10,21,3,9,19,0.00140675,0.00345592,0.00701027,0.34057417,0.53718223,0.89687824
0,0,FranceMayotte,Mayotte,,2022-03-22 20:16:38.186772,2022-04-02,0.00144329,0.00350302,0.00709955,3,9,19,3,8,17,0.00122220,0.00304849,0.00626130,0.34057417,0.53718223,0.89687824
0,0,FranceMayotte,Mayotte,,2022-03-22 20:16:38.186772,2022-04-03,0.00125251,0.00309078,0.00632649,3,8,17,2,7,15,0.00106862,0.00269102,0.00559099,0.34057417,0.53718223,0.89687824
0,0,FranceMayotte,Mayotte,,2022-03-22 20:16:38.186772,2022-04-04,0.00108600,0.00272794,0.00564792,2,7,15,2,6,13,0.00092562,0.00237563,0.00498742,0.34057417,0.53718223,0.89687824
0,0,FranceMayotte,Mayotte,,2022-03-22 20:16:38.186772,2022-04-05,0.00094655,0.00240765,0.00504184,2,6,13,2,5,12,0.00080250,0.00209678,0.00445400,0.34057417,0.53718223,0.89687824
