0 Divergences
Passed validation
2022-04-20 date of last case count
2022-04-26 date of last test positivity data
covid_prevalence version: WGM 0.1.7 2022-04-13

Data provenance: R = region/public health unit, P = province/state
week_start case_data_origin positivity_data_origin
2020-03-19         R                   P
2020-03-26         R                   P
2020-04-02         R                   P
2020-04-09         R                   P
2020-04-16         R                   P
2020-04-23         R                   P
2020-04-30         R                   P
2020-05-07         R                   P
2020-05-14         R                   P
2020-05-21         R                   P
2020-05-28         R                   P
2020-06-04         R                   P
2020-06-11         R                   P
2020-06-18         R                   P
2020-06-25         R                   P
2020-07-02         R                   P
2020-07-09         R                   P
2020-07-16         R                   P
2020-07-23         R                   P
2020-07-30         R                   P
2020-08-06         R                   P
2020-08-13         R                   P
2020-08-20         R                   P
2020-08-27         R                   P
2020-09-03         R                   P
2020-09-10         R                   P
2020-09-17         R                   P
2020-09-24         R                   P
2020-10-01         R                   P
2020-10-08         R                   P
2020-10-15         R                   P
2020-10-22         R                   P
2020-10-29         R                   P
2020-11-05         R                   P
2020-11-12         R                   P
2020-11-19         R                   P
2020-11-26         R                   P
2020-12-03         R                   P
2020-12-10         R                   P
2020-12-17         R                   P
2020-12-24         R                   P
2020-12-31         R                   P
2021-01-07         R                   P
2021-01-14         R                   P
2021-01-21         R                   P
2021-01-28         R                   P
2021-02-04         R                   P
2021-02-11         R                   P
2021-02-18         R                   P
2021-02-25         R                   P
2021-03-04         R                   P
2021-03-11         R                   P
2021-03-18         R                   P
2021-03-25         R                   P
2021-04-01         R                   P
2021-04-08         R                   P
2021-04-15         R                   P
2021-04-22         R                   P
2021-04-29         R                   P
2021-05-06         R                   P
2021-05-13         R                   P
2021-05-20         R                   P
2021-05-27         R                   P
2021-06-03         R                   P
2021-06-10         R                   P
2021-06-17         R                   P
2021-06-24         R                   P
2021-07-01         R                   P
2021-07-08         R                   P
2021-07-15         R                   P
2021-07-22         R                   P
2021-07-29         R                   R
2021-08-05         R                   R
2021-08-12         R                   P
2021-08-19         R                   P
2021-08-26         R                   P
2021-09-02         R                   P
2021-09-09         R                   P
2021-09-16         R                   P
2021-09-23         R                   P
2021-09-30         R                   P
2021-10-07         R                   P
2021-10-14         R                   P
2021-10-21         R                   P
2021-10-28         R                   P
2021-11-04         R                   P
2021-11-11         R                   P
2021-11-18         R                   P
2021-11-25         R                   P
2021-12-02         R                   P
2021-12-09         R                   P
2021-12-16         R                   P
2021-12-23         R                   P
2021-12-30         R                   P
2022-01-06         R                   R
2022-01-13         R                   R
2022-01-20         R                   R
2022-01-27         R                   R
2022-02-03         R                   R
2022-02-10         R                   R
2022-02-17         R                   R
2022-02-24         R                   R
2022-03-03         R                   R
2022-03-10         R                   R
2022-03-17         R                   R
2022-03-24         R                   R
2022-03-31         R                   R
2022-04-07         R                   P
2022-04-14         R                   P
