FIPS,HR_UID,nameid,province,region,analysisTime,dates,pointprevalence_025,pointprevalence_50,pointprevalence_975,pointinfections_025,pointinfections_50,pointinfections_975,pointinfectious_025,pointinfectious_50,pointinfectious_975,pointinfectiousprevalence_025,pointinfectiousprevalence_50,pointinfectiousprevalence_975,infectrate_025,infectrate_50,infectrate_975
40019,0,USOklahomaCarter,Oklahoma,Carter,2022-04-28 09:13:11,2020-03-19,0.03648246559477949,0.22552655899786253,1.4533374459852473,,,,,,,,,,,,
40019,0,USOklahomaCarter,Oklahoma,Carter,2022-04-28 09:13:11,2020-03-20,0.03648246559477949,0.22552655899786253,1.4533374459852473,,,,,,,,,,,,
40019,0,USOklahomaCarter,Oklahoma,Carter,2022-04-28 09:13:11,2020-03-21,0.03648246559477949,0.22552655899786253,1.4533374459852473,,,,,,,,,,,,
40019,0,USOklahomaCarter,Oklahoma,Carter,2022-04-28 09:13:11,2020-03-22,0.03648246559477949,0.22552655899786253,1.4533374459852473,,,,,,,,,,,,
40019,0,USOklahomaCarter,Oklahoma,Carter,2022-04-28 09:13:11,2020-03-23,0.03648246559477949,0.22552655899786253,1.4533374459852473,,,,,,,,,,,,
40019,0,USOklahomaCarter,Oklahoma,Carter,2022-04-28 09:13:11,2020-03-24,0.03648246559477949,0.22552655899786253,1.4533374459852473,,,,,,,,,,,,
40019,0,USOklahomaCarter,Oklahoma,Carter,2022-04-28 09:13:11,2020-03-25,0.03648246559477949,0.22552655899786253,1.4533374459852473,,,,,,,,,,,,
40019,0,USOklahomaCarter,Oklahoma,Carter,2022-04-28 09:13:11,2020-03-26,0,0,0,,,,,,,,,,,,
40019,0,USOklahomaCarter,Oklahoma,Carter,2022-04-28 09:13:11,2020-03-27,0,0,0,,,,,,,,,,,,
40019,0,USOklahomaCarter,Oklahoma,Carter,2022-04-28 09:13:11,2020-03-28,0,0,0,,,,,,,,,,,,
40019,0,USOklahomaCarter,Oklahoma,Carter,2022-04-28 09:13:11,2020-03-29,0,0,0,,,,,,,,,,,,
40019,0,USOklahomaCarter,Oklahoma,Carter,2022-04-28 09:13:11,2020-03-30,0,0,0,,,,,,,,,,,,
40019,0,USOklahomaCarter,Oklahoma,Carter,2022-04-28 09:13:11,2020-03-31,0,0,0,,,,,,,,,,,,
40019,0,USOklahomaCarter,Oklahoma,Carter,2022-04-28 09:13:11,2020-04-01,0,0,0,,,,,,,,,,,,
40019,0,USOklahomaCarter,Oklahoma,Carter,2022-04-28 09:13:11,2020-04-02,0,0,0,,,,,,,,,,,,
40019,0,USOklahomaCarter,Oklahoma,Carter,2022-04-28 09:13:11,2020-04-03,0,0,0,,,,,,,,,,,,
40019,0,USOklahomaCarter,Oklahoma,Carter,2022-04-28 09:13:11,2020-04-04,0,0,0,,,,,,,,,,,,
40019,0,USOklahomaCarter,Oklahoma,Carter,2022-04-28 09:13:11,2020-04-05,0,0,0,,,,,,,,,,,,
40019,0,USOklahomaCarter,Oklahoma,Carter,2022-04-28 09:13:11,2020-04-06,0,0,0,,,,,,,,,,,,
40019,0,USOklahomaCarter,Oklahoma,Carter,2022-04-28 09:13:11,2020-04-07,0,0,0,,,,,,,,,,,,
40019,0,USOklahomaCarter,Oklahoma,Carter,2022-04-28 09:13:11,2020-04-08,0,0,0,,,,,,,,,,,,
40019,0,USOklahomaCarter,Oklahoma,Carter,2022-04-28 09:13:11,2020-04-09,0,0,0,,,,,,,,,,,,
40019,0,USOklahomaCarter,Oklahoma,Carter,2022-04-28 09:13:11,2020-04-10,0,0,0,,,,,,,,,,,,
40019,0,USOklahomaCarter,Oklahoma,Carter,2022-04-28 09:13:11,2020-04-11,0,0,0,,,,,,,,,,,,
40019,0,USOklahomaCarter,Oklahoma,Carter,2022-04-28 09:13:11,2020-04-12,0,0,0,,,,,,,,,,,,
40019,0,USOklahomaCarter,Oklahoma,Carter,2022-04-28 09:13:11,2020-04-13,0,0,0,,,,,,,,,,,,
40019,0,USOklahomaCarter,Oklahoma,Carter,2022-04-28 09:13:11,2020-04-14,0,0,0,,,,,,,,,,,,
40019,0,USOklahomaCarter,Oklahoma,Carter,2022-04-28 09:13:11,2020-04-15,0,0,0,,,,,,,,,,,,
40019,0,USOklahomaCarter,Oklahoma,Carter,2022-04-28 09:13:11,2020-04-16,0,0,0,,,,,,,,,,,,
40019,0,USOklahomaCarter,Oklahoma,Carter,2022-04-28 09:13:11,2020-04-17,0,0,0,,,,,,,,,,,,
40019,0,USOklahomaCarter,Oklahoma,Carter,2022-04-28 09:13:11,2020-04-18,0,0,0,,,,,,,,,,,,
40019,0,USOklahomaCarter,Oklahoma,Carter,2022-04-28 09:13:11,2020-04-19,0,0,0,,,,,,,,,,,,
40019,0,USOklahomaCarter,Oklahoma,Carter,2022-04-28 09:13:11,2020-04-20,0,0,0,,,,,,,,,,,,
40019,0,USOklahomaCarter,Oklahoma,Carter,2022-04-28 09:13:11,2020-04-21,0,0,0,,,,,,,,,,,,
40019,0,USOklahomaCarter,Oklahoma,Carter,2022-04-28 09:13:11,2020-04-22,0,0,0,,,,,,,,,,,,
40019,0,USOklahomaCarter,Oklahoma,Carter,2022-04-28 09:13:11,2020-04-23,0.0218193854192448,0.09061175932626074,0.3991298100498248,,,,,,,,,,,,
40019,0,USOklahomaCarter,Oklahoma,Carter,2022-04-28 09:13:11,2020-04-24,0.0218193854192448,0.09061175932626074,0.3991298100498248,,,,,,,,,,,,
40019,0,USOklahomaCarter,Oklahoma,Carter,2022-04-28 09:13:11,2020-04-25,0.0218193854192448,0.09061175932626074,0.3991298100498248,,,,,,,,,,,,
40019,0,USOklahomaCarter,Oklahoma,Carter,2022-04-28 09:13:11,2020-04-26,0.0218193854192448,0.09061175932626074,0.3991298100498248,,,,,,,,,,,,
40019,0,USOklahomaCarter,Oklahoma,Carter,2022-04-28 09:13:11,2020-04-27,0.0218193854192448,0.09061175932626074,0.3991298100498248,,,,,,,,,,,,
40019,0,USOklahomaCarter,Oklahoma,Carter,2022-04-28 09:13:11,2020-04-28,0.0218193854192448,0.09061175932626074,0.3991298100498248,,,,,,,,,,,,
40019,0,USOklahomaCarter,Oklahoma,Carter,2022-04-28 09:13:11,2020-04-29,0.0218193854192448,0.09061175932626074,0.3991298100498248,,,,,,,,,,,,
40019,0,USOklahomaCarter,Oklahoma,Carter,2022-04-28 09:13:11,2020-04-30,0.047405350039875394,0.1511281619654218,0.516169454927064,,,,,,,,,,,,
40019,0,USOklahomaCarter,Oklahoma,Carter,2022-04-28 09:13:11,2020-05-01,0.047405350039875394,0.1511281619654218,0.516169454927064,,,,,,,,,,,,
40019,0,USOklahomaCarter,Oklahoma,Carter,2022-04-28 09:13:11,2020-05-02,0.047405350039875394,0.1511281619654218,0.516169454927064,,,,,,,,,,,,
40019,0,USOklahomaCarter,Oklahoma,Carter,2022-04-28 09:13:11,2020-05-03,0.047405350039875394,0.1511281619654218,0.516169454927064,,,,,,,,,,,,
40019,0,USOklahomaCarter,Oklahoma,Carter,2022-04-28 09:13:11,2020-05-04,0.047405350039875394,0.1511281619654218,0.516169454927064,,,,,,,,,,,,
40019,0,USOklahomaCarter,Oklahoma,Carter,2022-04-28 09:13:11,2020-05-05,0.047405350039875394,0.1511281619654218,0.516169454927064,,,,,,,,,,,,
40019,0,USOklahomaCarter,Oklahoma,Carter,2022-04-28 09:13:11,2020-05-06,0.047405350039875394,0.1511281619654218,0.516169454927064,,,,,,,,,,,,
40019,0,USOklahomaCarter,Oklahoma,Carter,2022-04-28 09:13:11,2020-05-07,0.019489737605246027,0.07389287354812123,0.298284255763324,,,,,,,,,,,,
40019,0,USOklahomaCarter,Oklahoma,Carter,2022-04-28 09:13:11,2020-05-08,0.019489737605246027,0.07389287354812123,0.298284255763324,,,,,,,,,,,,
40019,0,USOklahomaCarter,Oklahoma,Carter,2022-04-28 09:13:11,2020-05-09,0.019489737605246027,0.07389287354812123,0.298284255763324,,,,,,,,,,,,
40019,0,USOklahomaCarter,Oklahoma,Carter,2022-04-28 09:13:11,2020-05-10,0.019489737605246027,0.07389287354812123,0.298284255763324,,,,,,,,,,,,
40019,0,USOklahomaCarter,Oklahoma,Carter,2022-04-28 09:13:11,2020-05-11,0.019489737605246027,0.07389287354812123,0.298284255763324,,,,,,,,,,,,
40019,0,USOklahomaCarter,Oklahoma,Carter,2022-04-28 09:13:11,2020-05-12,0.019489737605246027,0.07389287354812123,0.298284255763324,,,,,,,,,,,,
40019,0,USOklahomaCarter,Oklahoma,Carter,2022-04-28 09:13:11,2020-05-13,0.019489737605246027,0.07389287354812123,0.298284255763324,,,,,,,,,,,,
40019,0,USOklahomaCarter,Oklahoma,Carter,2022-04-28 09:13:11,2020-05-14,0.09387349601524446,0.20868807027602337,0.49887786727685485,,,,,,,,,,,,
40019,0,USOklahomaCarter,Oklahoma,Carter,2022-04-28 09:13:11,2020-05-15,0.09387349601524446,0.20868807027602337,0.49887786727685485,,,,,,,,,,,,
40019,0,USOklahomaCarter,Oklahoma,Carter,2022-04-28 09:13:11,2020-05-16,0.09387349601524446,0.20868807027602337,0.49887786727685485,,,,,,,,,,,,
40019,0,USOklahomaCarter,Oklahoma,Carter,2022-04-28 09:13:11,2020-05-17,0.09387349601524446,0.20868807027602337,0.49887786727685485,,,,,,,,,,,,
40019,0,USOklahomaCarter,Oklahoma,Carter,2022-04-28 09:13:11,2020-05-18,0.09387349601524446,0.20868807027602337,0.49887786727685485,,,,,,,,,,,,
40019,0,USOklahomaCarter,Oklahoma,Carter,2022-04-28 09:13:11,2020-05-19,0.09387349601524446,0.20868807027602337,0.49887786727685485,,,,,,,,,,,,
40019,0,USOklahomaCarter,Oklahoma,Carter,2022-04-28 09:13:11,2020-05-20,0.09387349601524446,0.20868807027602337,0.49887786727685485,,,,,,,,,,,,
40019,0,USOklahomaCarter,Oklahoma,Carter,2022-04-28 09:13:11,2020-05-21,0.18184314365394816,0.34161443809075764,0.686103240951132,,,,,,,,,,,,
40019,0,USOklahomaCarter,Oklahoma,Carter,2022-04-28 09:13:11,2020-05-22,0.18184314365394816,0.34161443809075764,0.686103240951132,,,,,,,,,,,,
40019,0,USOklahomaCarter,Oklahoma,Carter,2022-04-28 09:13:11,2020-05-23,0.18184314365394816,0.34161443809075764,0.686103240951132,,,,,,,,,,,,
40019,0,USOklahomaCarter,Oklahoma,Carter,2022-04-28 09:13:11,2020-05-24,0.18184314365394816,0.34161443809075764,0.686103240951132,,,,,,,,,,,,
40019,0,USOklahomaCarter,Oklahoma,Carter,2022-04-28 09:13:11,2020-05-25,0.18184314365394816,0.34161443809075764,0.686103240951132,,,,,,,,,,,,
40019,0,USOklahomaCarter,Oklahoma,Carter,2022-04-28 09:13:11,2020-05-26,0.18184314365394816,0.34161443809075764,0.686103240951132,,,,,,,,,,,,
40019,0,USOklahomaCarter,Oklahoma,Carter,2022-04-28 09:13:11,2020-05-27,0.18184314365394816,0.34161443809075764,0.686103240951132,,,,,,,,,,,,
40019,0,USOklahomaCarter,Oklahoma,Carter,2022-04-28 09:13:11,2020-05-28,0.09420887113598458,0.2101029183751731,0.5038916833024429,,,,,,,,,,,,
40019,0,USOklahomaCarter,Oklahoma,Carter,2022-04-28 09:13:11,2020-05-29,0.09420887113598458,0.2101029183751731,0.5038916833024429,,,,,,,,,,,,
40019,0,USOklahomaCarter,Oklahoma,Carter,2022-04-28 09:13:11,2020-05-30,0.09420887113598458,0.2101029183751731,0.5038916833024429,,,,,,,,,,,,
40019,0,USOklahomaCarter,Oklahoma,Carter,2022-04-28 09:13:11,2020-05-31,0.09420887113598458,0.2101029183751731,0.5038916833024429,,,,,,,,,,,,
40019,0,USOklahomaCarter,Oklahoma,Carter,2022-04-28 09:13:11,2020-06-01,0.09420887113598458,0.2101029183751731,0.5038916833024429,,,,,,,,,,,,
40019,0,USOklahomaCarter,Oklahoma,Carter,2022-04-28 09:13:11,2020-06-02,0.09420887113598458,0.2101029183751731,0.5038916833024429,,,,,,,,,,,,
40019,0,USOklahomaCarter,Oklahoma,Carter,2022-04-28 09:13:11,2020-06-03,0.09420887113598458,0.2101029183751731,0.5038916833024429,,,,,,,,,,,,
40019,0,USOklahomaCarter,Oklahoma,Carter,2022-04-28 09:13:11,2020-06-04,0.10617478801763264,0.23981540783148972,0.5826130194584561,,,,,,,,,,,,
40019,0,USOklahomaCarter,Oklahoma,Carter,2022-04-28 09:13:11,2020-06-05,0.10617478801763264,0.23981540783148972,0.5826130194584561,,,,,,,,,,,,
40019,0,USOklahomaCarter,Oklahoma,Carter,2022-04-28 09:13:11,2020-06-06,0.10617478801763264,0.23981540783148972,0.5826130194584561,,,,,,,,,,,,
40019,0,USOklahomaCarter,Oklahoma,Carter,2022-04-28 09:13:11,2020-06-07,0.10617478801763264,0.23981540783148972,0.5826130194584561,,,,,,,,,,,,
40019,0,USOklahomaCarter,Oklahoma,Carter,2022-04-28 09:13:11,2020-06-08,0.10617478801763264,0.23981540783148972,0.5826130194584561,,,,,,,,,,,,
40019,0,USOklahomaCarter,Oklahoma,Carter,2022-04-28 09:13:11,2020-06-09,0.10617478801763264,0.23981540783148972,0.5826130194584561,,,,,,,,,,,,
40019,0,USOklahomaCarter,Oklahoma,Carter,2022-04-28 09:13:11,2020-06-10,0.10617478801763264,0.23981540783148972,0.5826130194584561,,,,,,,,,,,,
40019,0,USOklahomaCarter,Oklahoma,Carter,2022-04-28 09:13:11,2020-06-11,0.07691793577317439,0.23974031042224886,0.8010746025022868,,,,,,,,,,,,
40019,0,USOklahomaCarter,Oklahoma,Carter,2022-04-28 09:13:11,2020-06-12,0.07691793577317439,0.23974031042224886,0.8010746025022868,,,,,,,,,,,,
40019,0,USOklahomaCarter,Oklahoma,Carter,2022-04-28 09:13:11,2020-06-13,0.07691793577317439,0.23974031042224886,0.8010746025022868,,,,,,,,,,,,
40019,0,USOklahomaCarter,Oklahoma,Carter,2022-04-28 09:13:11,2020-06-14,0.07691793577317439,0.23974031042224886,0.8010746025022868,,,,,,,,,,,,
40019,0,USOklahomaCarter,Oklahoma,Carter,2022-04-28 09:13:11,2020-06-15,0.07691793577317439,0.23974031042224886,0.8010746025022868,,,,,,,,,,,,
40019,0,USOklahomaCarter,Oklahoma,Carter,2022-04-28 09:13:11,2020-06-16,0.07691793577317439,0.23974031042224886,0.8010746025022868,,,,,,,,,,,,
40019,0,USOklahomaCarter,Oklahoma,Carter,2022-04-28 09:13:11,2020-06-17,0.07691793577317439,0.23974031042224886,0.8010746025022868,,,,,,,,,,,,
40019,0,USOklahomaCarter,Oklahoma,Carter,2022-04-28 09:13:11,2020-06-18,0.1954411428629749,0.5285362343862028,1.5370857903931212,,,,,,,,,,,,
40019,0,USOklahomaCarter,Oklahoma,Carter,2022-04-28 09:13:11,2020-06-19,0.1954411428629749,0.5285362343862028,1.5370857903931212,,,,,,,,,,,,
40019,0,USOklahomaCarter,Oklahoma,Carter,2022-04-28 09:13:11,2020-06-20,0.1954411428629749,0.5285362343862028,1.5370857903931212,,,,,,,,,,,,
40019,0,USOklahomaCarter,Oklahoma,Carter,2022-04-28 09:13:11,2020-06-21,0.1954411428629749,0.5285362343862028,1.5370857903931212,,,,,,,,,,,,
40019,0,USOklahomaCarter,Oklahoma,Carter,2022-04-28 09:13:11,2020-06-22,0.1954411428629749,0.5285362343862028,1.5370857903931212,,,,,,,,,,,,
40019,0,USOklahomaCarter,Oklahoma,Carter,2022-04-28 09:13:11,2020-06-23,0.1954411428629749,0.5285362343862028,1.5370857903931212,,,,,,,,,,,,
40019,0,USOklahomaCarter,Oklahoma,Carter,2022-04-28 09:13:11,2020-06-24,0.1954411428629749,0.5285362343862028,1.5370857903931212,,,,,,,,,,,,
40019,0,USOklahomaCarter,Oklahoma,Carter,2022-04-28 09:13:11,2020-06-25,0.2207444473813192,0.5161047748798635,1.2983536332232908,,,,,,,,,,,,
40019,0,USOklahomaCarter,Oklahoma,Carter,2022-04-28 09:13:11,2020-06-26,0.2207444473813192,0.5161047748798635,1.2983536332232908,,,,,,,,,,,,
40019,0,USOklahomaCarter,Oklahoma,Carter,2022-04-28 09:13:11,2020-06-27,0.2207444473813192,0.5161047748798635,1.2983536332232908,,,,,,,,,,,,
40019,0,USOklahomaCarter,Oklahoma,Carter,2022-04-28 09:13:11,2020-06-28,0.2207444473813192,0.5161047748798635,1.2983536332232908,,,,,,,,,,,,
40019,0,USOklahomaCarter,Oklahoma,Carter,2022-04-28 09:13:11,2020-06-29,0.2207444473813192,0.5161047748798635,1.2983536332232908,,,,,,,,,,,,
40019,0,USOklahomaCarter,Oklahoma,Carter,2022-04-28 09:13:11,2020-06-30,0.2207444473813192,0.5161047748798635,1.2983536332232908,,,,,,,,,,,,
40019,0,USOklahomaCarter,Oklahoma,Carter,2022-04-28 09:13:11,2020-07-01,0.2207444473813192,0.5161047748798635,1.2983536332232908,,,,,,,,,,,,
40019,0,USOklahomaCarter,Oklahoma,Carter,2022-04-28 09:13:11,2020-07-02,0.5272568438960875,1.068885519436162,2.3245337851536907,,,,,,,,,,,,
40019,0,USOklahomaCarter,Oklahoma,Carter,2022-04-28 09:13:11,2020-07-03,0.5272568438960875,1.068885519436162,2.3245337851536907,,,,,,,,,,,,
40019,0,USOklahomaCarter,Oklahoma,Carter,2022-04-28 09:13:11,2020-07-04,0.5272568438960875,1.068885519436162,2.3245337851536907,,,,,,,,,,,,
40019,0,USOklahomaCarter,Oklahoma,Carter,2022-04-28 09:13:11,2020-07-05,0.5272568438960875,1.068885519436162,2.3245337851536907,,,,,,,,,,,,
40019,0,USOklahomaCarter,Oklahoma,Carter,2022-04-28 09:13:11,2020-07-06,0.5272568438960875,1.068885519436162,2.3245337851536907,,,,,,,,,,,,
40019,0,USOklahomaCarter,Oklahoma,Carter,2022-04-28 09:13:11,2020-07-07,0.5272568438960875,1.068885519436162,2.3245337851536907,,,,,,,,,,,,
40019,0,USOklahomaCarter,Oklahoma,Carter,2022-04-28 09:13:11,2020-07-08,0.5272568438960875,1.068885519436162,2.3245337851536907,,,,,,,,,,,,
40019,0,USOklahomaCarter,Oklahoma,Carter,2022-04-28 09:13:11,2020-07-09,0.5203403997637399,1.1144914532216061,2.5649420149629156,,,,,,,,,,,,
40019,0,USOklahomaCarter,Oklahoma,Carter,2022-04-28 09:13:11,2020-07-10,0.5203403997637399,1.1144914532216061,2.5649420149629156,,,,,,,,,,,,
40019,0,USOklahomaCarter,Oklahoma,Carter,2022-04-28 09:13:11,2020-07-11,0.5203403997637399,1.1144914532216061,2.5649420149629156,,,,,,,,,,,,
40019,0,USOklahomaCarter,Oklahoma,Carter,2022-04-28 09:13:11,2020-07-12,0.5203403997637399,1.1144914532216061,2.5649420149629156,,,,,,,,,,,,
40019,0,USOklahomaCarter,Oklahoma,Carter,2022-04-28 09:13:11,2020-07-13,0.5203403997637399,1.1144914532216061,2.5649420149629156,,,,,,,,,,,,
40019,0,USOklahomaCarter,Oklahoma,Carter,2022-04-28 09:13:11,2020-07-14,0.5203403997637399,1.1144914532216061,2.5649420149629156,,,,,,,,,,,,
40019,0,USOklahomaCarter,Oklahoma,Carter,2022-04-28 09:13:11,2020-07-15,0.5203403997637399,1.1144914532216061,2.5649420149629156,,,,,,,,,,,,
40019,0,USOklahomaCarter,Oklahoma,Carter,2022-04-28 09:13:11,2020-07-16,0.3102072517621623,0.7276971732607295,1.8368218311018747,,,,,,,,,,,,
40019,0,USOklahomaCarter,Oklahoma,Carter,2022-04-28 09:13:11,2020-07-17,0.3102072517621623,0.7276971732607295,1.8368218311018747,,,,,,,,,,,,
40019,0,USOklahomaCarter,Oklahoma,Carter,2022-04-28 09:13:11,2020-07-18,0.3102072517621623,0.7276971732607295,1.8368218311018747,,,,,,,,,,,,
40019,0,USOklahomaCarter,Oklahoma,Carter,2022-04-28 09:13:11,2020-07-19,0.3102072517621623,0.7276971732607295,1.8368218311018747,,,,,,,,,,,,
40019,0,USOklahomaCarter,Oklahoma,Carter,2022-04-28 09:13:11,2020-07-20,0.3102072517621623,0.7276971732607295,1.8368218311018747,,,,,,,,,,,,
40019,0,USOklahomaCarter,Oklahoma,Carter,2022-04-28 09:13:11,2020-07-21,0.3102072517621623,0.7276971732607295,1.8368218311018747,,,,,,,,,,,,
40019,0,USOklahomaCarter,Oklahoma,Carter,2022-04-28 09:13:11,2020-07-22,0.3102072517621623,0.7276971732607295,1.8368218311018747,,,,,,,,,,,,
40019,0,USOklahomaCarter,Oklahoma,Carter,2022-04-28 09:13:11,2020-07-23,0.4460102258497701,0.9285138828247601,2.0754328098236257,,,,,,,,,,,,
40019,0,USOklahomaCarter,Oklahoma,Carter,2022-04-28 09:13:11,2020-07-24,0.4460102258497701,0.9285138828247601,2.0754328098236257,,,,,,,,,,,,
40019,0,USOklahomaCarter,Oklahoma,Carter,2022-04-28 09:13:11,2020-07-25,0.4460102258497701,0.9285138828247601,2.0754328098236257,,,,,,,,,,,,
40019,0,USOklahomaCarter,Oklahoma,Carter,2022-04-28 09:13:11,2020-07-26,0.4460102258497701,0.9285138828247601,2.0754328098236257,,,,,,,,,,,,
40019,0,USOklahomaCarter,Oklahoma,Carter,2022-04-28 09:13:11,2020-07-27,0.4460102258497701,0.9285138828247601,2.0754328098236257,,,,,,,,,,,,
40019,0,USOklahomaCarter,Oklahoma,Carter,2022-04-28 09:13:11,2020-07-28,0.4460102258497701,0.9285138828247601,2.0754328098236257,,,,,,,,,,,,
40019,0,USOklahomaCarter,Oklahoma,Carter,2022-04-28 09:13:11,2020-07-29,0.4460102258497701,0.9285138828247601,2.0754328098236257,,,,,,,,,,,,
40019,0,USOklahomaCarter,Oklahoma,Carter,2022-04-28 09:13:11,2020-07-30,0.41854702094493,0.9767734122143925,2.452699021274043,,,,,,,,,,,,
40019,0,USOklahomaCarter,Oklahoma,Carter,2022-04-28 09:13:11,2020-07-31,0.41854702094493,0.9767734122143925,2.452699021274043,,,,,,,,,,,,
40019,0,USOklahomaCarter,Oklahoma,Carter,2022-04-28 09:13:11,2020-08-01,0.41854702094493,0.9767734122143925,2.452699021274043,,,,,,,,,,,,
40019,0,USOklahomaCarter,Oklahoma,Carter,2022-04-28 09:13:11,2020-08-02,0.41854702094493,0.9767734122143925,2.452699021274043,,,,,,,,,,,,
40019,0,USOklahomaCarter,Oklahoma,Carter,2022-04-28 09:13:11,2020-08-03,0.41854702094493,0.9767734122143925,2.452699021274043,,,,,,,,,,,,
40019,0,USOklahomaCarter,Oklahoma,Carter,2022-04-28 09:13:11,2020-08-04,0.41854702094493,0.9767734122143925,2.452699021274043,,,,,,,,,,,,
40019,0,USOklahomaCarter,Oklahoma,Carter,2022-04-28 09:13:11,2020-08-05,0.41854702094493,0.9767734122143925,2.452699021274043,,,,,,,,,,,,
40019,0,USOklahomaCarter,Oklahoma,Carter,2022-04-28 09:13:11,2020-08-06,0.39156494053482055,0.8818446834713438,2.136043086593291,,,,,,,,,,,,
40019,0,USOklahomaCarter,Oklahoma,Carter,2022-04-28 09:13:11,2020-08-07,0.39156494053482055,0.8818446834713438,2.136043086593291,,,,,,,,,,,,
40019,0,USOklahomaCarter,Oklahoma,Carter,2022-04-28 09:13:11,2020-08-08,0.39156494053482055,0.8818446834713438,2.136043086593291,,,,,,,,,,,,
40019,0,USOklahomaCarter,Oklahoma,Carter,2022-04-28 09:13:11,2020-08-09,0.39156494053482055,0.8818446834713438,2.136043086593291,,,,,,,,,,,,
40019,0,USOklahomaCarter,Oklahoma,Carter,2022-04-28 09:13:11,2020-08-10,0.39156494053482055,0.8818446834713438,2.136043086593291,,,,,,,,,,,,
40019,0,USOklahomaCarter,Oklahoma,Carter,2022-04-28 09:13:11,2020-08-11,0.39156494053482055,0.8818446834713438,2.136043086593291,,,,,,,,,,,,
40019,0,USOklahomaCarter,Oklahoma,Carter,2022-04-28 09:13:11,2020-08-12,0.39156494053482055,0.8818446834713438,2.136043086593291,,,,,,,,,,,,
40019,0,USOklahomaCarter,Oklahoma,Carter,2022-04-28 09:13:11,2020-08-13,0.26533216543377497,0.6451115815562071,1.6879490757327305,,,,,,,,,,,,
40019,0,USOklahomaCarter,Oklahoma,Carter,2022-04-28 09:13:11,2020-08-14,0.26533216543377497,0.6451115815562071,1.6879490757327305,,,,,,,,,,,,
40019,0,USOklahomaCarter,Oklahoma,Carter,2022-04-28 09:13:11,2020-08-15,0.26533216543377497,0.6451115815562071,1.6879490757327305,,,,,,,,,,,,
40019,0,USOklahomaCarter,Oklahoma,Carter,2022-04-28 09:13:11,2020-08-16,0.26533216543377497,0.6451115815562071,1.6879490757327305,,,,,,,,,,,,
40019,0,USOklahomaCarter,Oklahoma,Carter,2022-04-28 09:13:11,2020-08-17,0.26533216543377497,0.6451115815562071,1.6879490757327305,,,,,,,,,,,,
40019,0,USOklahomaCarter,Oklahoma,Carter,2022-04-28 09:13:11,2020-08-18,0.26533216543377497,0.6451115815562071,1.6879490757327305,,,,,,,,,,,,
40019,0,USOklahomaCarter,Oklahoma,Carter,2022-04-28 09:13:11,2020-08-19,0.26533216543377497,0.6451115815562071,1.6879490757327305,,,,,,,,,,,,
40019,0,USOklahomaCarter,Oklahoma,Carter,2022-04-28 09:13:11,2020-08-20,0.28689706594605446,0.7197290690521976,1.9429987193024774,,,,,,,,,,,,
40019,0,USOklahomaCarter,Oklahoma,Carter,2022-04-28 09:13:11,2020-08-21,0.28689706594605446,0.7197290690521976,1.9429987193024774,,,,,,,,,,,,
40019,0,USOklahomaCarter,Oklahoma,Carter,2022-04-28 09:13:11,2020-08-22,0.28689706594605446,0.7197290690521976,1.9429987193024774,,,,,,,,,,,,
40019,0,USOklahomaCarter,Oklahoma,Carter,2022-04-28 09:13:11,2020-08-23,0.28689706594605446,0.7197290690521976,1.9429987193024774,,,,,,,,,,,,
40019,0,USOklahomaCarter,Oklahoma,Carter,2022-04-28 09:13:11,2020-08-24,0.28689706594605446,0.7197290690521976,1.9429987193024774,,,,,,,,,,,,
40019,0,USOklahomaCarter,Oklahoma,Carter,2022-04-28 09:13:11,2020-08-25,0.28689706594605446,0.7197290690521976,1.9429987193024774,,,,,,,,,,,,
40019,0,USOklahomaCarter,Oklahoma,Carter,2022-04-28 09:13:11,2020-08-26,0.28689706594605446,0.7197290690521976,1.9429987193024774,,,,,,,,,,,,
40019,0,USOklahomaCarter,Oklahoma,Carter,2022-04-28 09:13:11,2020-08-27,0.2437697338229238,0.6504746596454423,1.86690514939978,,,,,,,,,,,,
40019,0,USOklahomaCarter,Oklahoma,Carter,2022-04-28 09:13:11,2020-08-28,0.2437697338229238,0.6504746596454423,1.86690514939978,,,,,,,,,,,,
40019,0,USOklahomaCarter,Oklahoma,Carter,2022-04-28 09:13:11,2020-08-29,0.2437697338229238,0.6504746596454423,1.86690514939978,,,,,,,,,,,,
40019,0,USOklahomaCarter,Oklahoma,Carter,2022-04-28 09:13:11,2020-08-30,0.2437697338229238,0.6504746596454423,1.86690514939978,,,,,,,,,,,,
40019,0,USOklahomaCarter,Oklahoma,Carter,2022-04-28 09:13:11,2020-08-31,0.2437697338229238,0.6504746596454423,1.86690514939978,,,,,,,,,,,,
40019,0,USOklahomaCarter,Oklahoma,Carter,2022-04-28 09:13:11,2020-09-01,0.2437697338229238,0.6504746596454423,1.86690514939978,,,,,,,,,,,,
40019,0,USOklahomaCarter,Oklahoma,Carter,2022-04-28 09:13:11,2020-09-02,0.2437697338229238,0.6504746596454423,1.86690514939978,,,,,,,,,,,,
40019,0,USOklahomaCarter,Oklahoma,Carter,2022-04-28 09:13:11,2020-09-03,0.33652617932158424,0.8224706975832305,2.16323154826723,,,,,,,,,,,,
40019,0,USOklahomaCarter,Oklahoma,Carter,2022-04-28 09:13:11,2020-09-04,0.33652617932158424,0.8224706975832305,2.16323154826723,,,,,,,,,,,,
40019,0,USOklahomaCarter,Oklahoma,Carter,2022-04-28 09:13:11,2020-09-05,0.33652617932158424,0.8224706975832305,2.16323154826723,,,,,,,,,,,,
40019,0,USOklahomaCarter,Oklahoma,Carter,2022-04-28 09:13:11,2020-09-06,0.33652617932158424,0.8224706975832305,2.16323154826723,,,,,,,,,,,,
40019,0,USOklahomaCarter,Oklahoma,Carter,2022-04-28 09:13:11,2020-09-07,0.33652617932158424,0.8224706975832305,2.16323154826723,,,,,,,,,,,,
40019,0,USOklahomaCarter,Oklahoma,Carter,2022-04-28 09:13:11,2020-09-08,0.33652617932158424,0.8224706975832305,2.16323154826723,,,,,,,,,,,,
40019,0,USOklahomaCarter,Oklahoma,Carter,2022-04-28 09:13:11,2020-09-09,0.33652617932158424,0.8224706975832305,2.16323154826723,,,,,,,,,,,,
40019,0,USOklahomaCarter,Oklahoma,Carter,2022-04-28 09:13:11,2020-09-10,0.37707237483270384,0.8628405985314006,2.12400220071242,,,,,,,,,,,,
40019,0,USOklahomaCarter,Oklahoma,Carter,2022-04-28 09:13:11,2020-09-11,0.37707237483270384,0.8628405985314006,2.12400220071242,,,,,,,,,,,,
40019,0,USOklahomaCarter,Oklahoma,Carter,2022-04-28 09:13:11,2020-09-12,0.37707237483270384,0.8628405985314006,2.12400220071242,,,,,,,,,,,,
40019,0,USOklahomaCarter,Oklahoma,Carter,2022-04-28 09:13:11,2020-09-13,0.37707237483270384,0.8628405985314006,2.12400220071242,,,,,,,,,,,,
40019,0,USOklahomaCarter,Oklahoma,Carter,2022-04-28 09:13:11,2020-09-14,0.37707237483270384,0.8628405985314006,2.12400220071242,,,,,,,,,,,,
40019,0,USOklahomaCarter,Oklahoma,Carter,2022-04-28 09:13:11,2020-09-15,0.37707237483270384,0.8628405985314006,2.12400220071242,,,,,,,,,,,,
40019,0,USOklahomaCarter,Oklahoma,Carter,2022-04-28 09:13:11,2020-09-16,0.37707237483270384,0.8628405985314006,2.12400220071242,,,,,,,,,,,,
40019,0,USOklahomaCarter,Oklahoma,Carter,2022-04-28 09:13:11,2020-09-17,0.49361100898093885,1.0636186326899448,2.4629759558020474,,,,,,,,,,,,
40019,0,USOklahomaCarter,Oklahoma,Carter,2022-04-28 09:13:11,2020-09-18,0.49361100898093885,1.0636186326899448,2.4629759558020474,,,,,,,,,,,,
40019,0,USOklahomaCarter,Oklahoma,Carter,2022-04-28 09:13:11,2020-09-19,0.49361100898093885,1.0636186326899448,2.4629759558020474,,,,,,,,,,,,
40019,0,USOklahomaCarter,Oklahoma,Carter,2022-04-28 09:13:11,2020-09-20,0.49361100898093885,1.0636186326899448,2.4629759558020474,,,,,,,,,,,,
40019,0,USOklahomaCarter,Oklahoma,Carter,2022-04-28 09:13:11,2020-09-21,0.49361100898093885,1.0636186326899448,2.4629759558020474,,,,,,,,,,,,
40019,0,USOklahomaCarter,Oklahoma,Carter,2022-04-28 09:13:11,2020-09-22,0.49361100898093885,1.0636186326899448,2.4629759558020474,,,,,,,,,,,,
40019,0,USOklahomaCarter,Oklahoma,Carter,2022-04-28 09:13:11,2020-09-23,0.49361100898093885,1.0636186326899448,2.4629759558020474,,,,,,,,,,,,
40019,0,USOklahomaCarter,Oklahoma,Carter,2022-04-28 09:13:11,2020-09-24,0.3769854673906121,0.8410454502150875,2.0178163588601654,,,,,,,,,,,,
40019,0,USOklahomaCarter,Oklahoma,Carter,2022-04-28 09:13:11,2020-09-25,0.3769854673906121,0.8410454502150875,2.0178163588601654,,,,,,,,,,,,
40019,0,USOklahomaCarter,Oklahoma,Carter,2022-04-28 09:13:11,2020-09-26,0.3769854673906121,0.8410454502150875,2.0178163588601654,,,,,,,,,,,,
40019,0,USOklahomaCarter,Oklahoma,Carter,2022-04-28 09:13:11,2020-09-27,0.3769854673906121,0.8410454502150875,2.0178163588601654,,,,,,,,,,,,
40019,0,USOklahomaCarter,Oklahoma,Carter,2022-04-28 09:13:11,2020-09-28,0.3769854673906121,0.8410454502150875,2.0178163588601654,,,,,,,,,,,,
40019,0,USOklahomaCarter,Oklahoma,Carter,2022-04-28 09:13:11,2020-09-29,0.3769854673906121,0.8410454502150875,2.0178163588601654,,,,,,,,,,,,
40019,0,USOklahomaCarter,Oklahoma,Carter,2022-04-28 09:13:11,2020-09-30,0.3769854673906121,0.8410454502150875,2.0178163588601654,,,,,,,,,,,,
40019,0,USOklahomaCarter,Oklahoma,Carter,2022-04-28 09:13:11,2020-10-01,0.5344772859773966,1.0969470047227643,2.4161435330150147,,,,,,,,,,,,
40019,0,USOklahomaCarter,Oklahoma,Carter,2022-04-28 09:13:11,2020-10-02,0.5344772859773966,1.0969470047227643,2.4161435330150147,,,,,,,,,,,,
40019,0,USOklahomaCarter,Oklahoma,Carter,2022-04-28 09:13:11,2020-10-03,0.5344772859773966,1.0969470047227643,2.4161435330150147,,,,,,,,,,,,
40019,0,USOklahomaCarter,Oklahoma,Carter,2022-04-28 09:13:11,2020-10-04,0.5344772859773966,1.0969470047227643,2.4161435330150147,,,,,,,,,,,,
40019,0,USOklahomaCarter,Oklahoma,Carter,2022-04-28 09:13:11,2020-10-05,0.5344772859773966,1.0969470047227643,2.4161435330150147,,,,,,,,,,,,
40019,0,USOklahomaCarter,Oklahoma,Carter,2022-04-28 09:13:11,2020-10-06,0.5344772859773966,1.0969470047227643,2.4161435330150147,,,,,,,,,,,,
40019,0,USOklahomaCarter,Oklahoma,Carter,2022-04-28 09:13:11,2020-10-07,0.5344772859773966,1.0969470047227643,2.4161435330150147,,,,,,,,,,,,
40019,0,USOklahomaCarter,Oklahoma,Carter,2022-04-28 09:13:11,2020-10-08,0.676763875476006,1.3200433962002114,2.757772722194954,,,,,,,,,,,,
40019,0,USOklahomaCarter,Oklahoma,Carter,2022-04-28 09:13:11,2020-10-09,0.676763875476006,1.3200433962002114,2.757772722194954,,,,,,,,,,,,
40019,0,USOklahomaCarter,Oklahoma,Carter,2022-04-28 09:13:11,2020-10-10,0.676763875476006,1.3200433962002114,2.757772722194954,,,,,,,,,,,,
40019,0,USOklahomaCarter,Oklahoma,Carter,2022-04-28 09:13:11,2020-10-11,0.676763875476006,1.3200433962002114,2.757772722194954,,,,,,,,,,,,
40019,0,USOklahomaCarter,Oklahoma,Carter,2022-04-28 09:13:11,2020-10-12,0.676763875476006,1.3200433962002114,2.757772722194954,,,,,,,,,,,,
40019,0,USOklahomaCarter,Oklahoma,Carter,2022-04-28 09:13:11,2020-10-13,0.676763875476006,1.3200433962002114,2.757772722194954,,,,,,,,,,,,
40019,0,USOklahomaCarter,Oklahoma,Carter,2022-04-28 09:13:11,2020-10-14,0.676763875476006,1.3200433962002114,2.757772722194954,,,,,,,,,,,,
40019,0,USOklahomaCarter,Oklahoma,Carter,2022-04-28 09:13:11,2020-10-15,0.7425084767815923,1.421344498821852,2.911605808061634,,,,,,,,,,,,
40019,0,USOklahomaCarter,Oklahoma,Carter,2022-04-28 09:13:11,2020-10-16,0.7425084767815923,1.421344498821852,2.911605808061634,,,,,,,,,,,,
40019,0,USOklahomaCarter,Oklahoma,Carter,2022-04-28 09:13:11,2020-10-17,0.7425084767815923,1.421344498821852,2.911605808061634,,,,,,,,,,,,
40019,0,USOklahomaCarter,Oklahoma,Carter,2022-04-28 09:13:11,2020-10-18,0.7425084767815923,1.421344498821852,2.911605808061634,,,,,,,,,,,,
40019,0,USOklahomaCarter,Oklahoma,Carter,2022-04-28 09:13:11,2020-10-19,0.7425084767815923,1.421344498821852,2.911605808061634,,,,,,,,,,,,
40019,0,USOklahomaCarter,Oklahoma,Carter,2022-04-28 09:13:11,2020-10-20,0.7425084767815923,1.421344498821852,2.911605808061634,,,,,,,,,,,,
40019,0,USOklahomaCarter,Oklahoma,Carter,2022-04-28 09:13:11,2020-10-21,0.7425084767815923,1.421344498821852,2.911605808061634,,,,,,,,,,,,
40019,0,USOklahomaCarter,Oklahoma,Carter,2022-04-28 09:13:11,2020-10-22,0.748083876001764,1.4112094300290452,2.846707870175387,,,,,,,,,,,,
40019,0,USOklahomaCarter,Oklahoma,Carter,2022-04-28 09:13:11,2020-10-23,0.748083876001764,1.4112094300290452,2.846707870175387,,,,,,,,,,,,
40019,0,USOklahomaCarter,Oklahoma,Carter,2022-04-28 09:13:11,2020-10-24,0.748083876001764,1.4112094300290452,2.846707870175387,,,,,,,,,,,,
40019,0,USOklahomaCarter,Oklahoma,Carter,2022-04-28 09:13:11,2020-10-25,0.748083876001764,1.4112094300290452,2.846707870175387,,,,,,,,,,,,
40019,0,USOklahomaCarter,Oklahoma,Carter,2022-04-28 09:13:11,2020-10-26,0.748083876001764,1.4112094300290452,2.846707870175387,,,,,,,,,,,,
40019,0,USOklahomaCarter,Oklahoma,Carter,2022-04-28 09:13:11,2020-10-27,0.748083876001764,1.4112094300290452,2.846707870175387,,,,,,,,,,,,
40019,0,USOklahomaCarter,Oklahoma,Carter,2022-04-28 09:13:11,2020-10-28,0.748083876001764,1.4112094300290452,2.846707870175387,,,,,,,,,,,,
40019,0,USOklahomaCarter,Oklahoma,Carter,2022-04-28 09:13:11,2020-10-29,0.918030914931813,1.7398846660835328,3.526953450706766,,,,,,,,,,,,
40019,0,USOklahomaCarter,Oklahoma,Carter,2022-04-28 09:13:11,2020-10-30,0.918030914931813,1.7398846660835328,3.526953450706766,,,,,,,,,,,,
40019,0,USOklahomaCarter,Oklahoma,Carter,2022-04-28 09:13:11,2020-10-31,0.918030914931813,1.7398846660835328,3.526953450706766,,,,,,,,,,,,
40019,0,USOklahomaCarter,Oklahoma,Carter,2022-04-28 09:13:11,2020-11-01,0.918030914931813,1.7398846660835328,3.526953450706766,,,,,,,,,,,,
40019,0,USOklahomaCarter,Oklahoma,Carter,2022-04-28 09:13:11,2020-11-02,0.918030914931813,1.7398846660835328,3.526953450706766,,,,,,,,,,,,
40019,0,USOklahomaCarter,Oklahoma,Carter,2022-04-28 09:13:11,2020-11-03,0.918030914931813,1.7398846660835328,3.526953450706766,,,,,,,,,,,,
40019,0,USOklahomaCarter,Oklahoma,Carter,2022-04-28 09:13:11,2020-11-04,0.918030914931813,1.7398846660835328,3.526953450706766,,,,,,,,,,,,
40019,0,USOklahomaCarter,Oklahoma,Carter,2022-04-28 09:13:11,2020-11-05,1.2660604601143526,2.4584290405139724,5.112010456297253,,,,,,,,,,,,
40019,0,USOklahomaCarter,Oklahoma,Carter,2022-04-28 09:13:11,2020-11-06,1.2660604601143526,2.4584290405139724,5.112010456297253,,,,,,,,,,,,
40019,0,USOklahomaCarter,Oklahoma,Carter,2022-04-28 09:13:11,2020-11-07,1.2660604601143526,2.4584290405139724,5.112010456297253,,,,,,,,,,,,
40019,0,USOklahomaCarter,Oklahoma,Carter,2022-04-28 09:13:11,2020-11-08,1.2660604601143526,2.4584290405139724,5.112010456297253,,,,,,,,,,,,
40019,0,USOklahomaCarter,Oklahoma,Carter,2022-04-28 09:13:11,2020-11-09,1.2660604601143526,2.4584290405139724,5.112010456297253,,,,,,,,,,,,
40019,0,USOklahomaCarter,Oklahoma,Carter,2022-04-28 09:13:11,2020-11-10,1.2660604601143526,2.4584290405139724,5.112010456297253,,,,,,,,,,,,
40019,0,USOklahomaCarter,Oklahoma,Carter,2022-04-28 09:13:11,2020-11-11,1.2660604601143526,2.4584290405139724,5.112010456297253,,,,,,,,,,,,
40019,0,USOklahomaCarter,Oklahoma,Carter,2022-04-28 09:13:11,2020-11-12,1.5504025917824285,2.840893378334102,5.557268179553961,,,,,,,,,,,,
40019,0,USOklahomaCarter,Oklahoma,Carter,2022-04-28 09:13:11,2020-11-13,1.5504025917824285,2.840893378334102,5.557268179553961,,,,,,,,,,,,
40019,0,USOklahomaCarter,Oklahoma,Carter,2022-04-28 09:13:11,2020-11-14,1.5504025917824285,2.840893378334102,5.557268179553961,,,,,,,,,,,,
40019,0,USOklahomaCarter,Oklahoma,Carter,2022-04-28 09:13:11,2020-11-15,1.5504025917824285,2.840893378334102,5.557268179553961,,,,,,,,,,,,
40019,0,USOklahomaCarter,Oklahoma,Carter,2022-04-28 09:13:11,2020-11-16,1.5504025917824285,2.840893378334102,5.557268179553961,,,,,,,,,,,,
40019,0,USOklahomaCarter,Oklahoma,Carter,2022-04-28 09:13:11,2020-11-17,1.5504025917824285,2.840893378334102,5.557268179553961,,,,,,,,,,,,
40019,0,USOklahomaCarter,Oklahoma,Carter,2022-04-28 09:13:11,2020-11-18,1.5504025917824285,2.840893378334102,5.557268179553961,,,,,,,,,,,,
40019,0,USOklahomaCarter,Oklahoma,Carter,2022-04-28 09:13:11,2020-11-19,1.9565261927590487,3.2666110881265107,5.7833811756597475,,,,,,,,,,,,
40019,0,USOklahomaCarter,Oklahoma,Carter,2022-04-28 09:13:11,2020-11-20,1.9565261927590487,3.2666110881265107,5.7833811756597475,,,,,,,,,,,,
40019,0,USOklahomaCarter,Oklahoma,Carter,2022-04-28 09:13:11,2020-11-21,1.9565261927590487,3.2666110881265107,5.7833811756597475,,,,,,,,,,,,
40019,0,USOklahomaCarter,Oklahoma,Carter,2022-04-28 09:13:11,2020-11-22,1.9565261927590487,3.2666110881265107,5.7833811756597475,,,,,,,,,,,,
40019,0,USOklahomaCarter,Oklahoma,Carter,2022-04-28 09:13:11,2020-11-23,1.9565261927590487,3.2666110881265107,5.7833811756597475,,,,,,,,,,,,
40019,0,USOklahomaCarter,Oklahoma,Carter,2022-04-28 09:13:11,2020-11-24,1.9565261927590487,3.2666110881265107,5.7833811756597475,,,,,,,,,,,,
40019,0,USOklahomaCarter,Oklahoma,Carter,2022-04-28 09:13:11,2020-11-25,1.9565261927590487,3.2666110881265107,5.7833811756597475,,,,,,,,,,,,
40019,0,USOklahomaCarter,Oklahoma,Carter,2022-04-28 09:13:11,2020-11-26,1.8319932791966902,3.2399823332832915,6.1032392561164865,,,,,,,,,,,,
40019,0,USOklahomaCarter,Oklahoma,Carter,2022-04-28 09:13:11,2020-11-27,1.8319932791966902,3.2399823332832915,6.1032392561164865,,,,,,,,,,,,
40019,0,USOklahomaCarter,Oklahoma,Carter,2022-04-28 09:13:11,2020-11-28,1.8319932791966902,3.2399823332832915,6.1032392561164865,,,,,,,,,,,,
40019,0,USOklahomaCarter,Oklahoma,Carter,2022-04-28 09:13:11,2020-11-29,1.8319932791966902,3.2399823332832915,6.1032392561164865,,,,,,,,,,,,
40019,0,USOklahomaCarter,Oklahoma,Carter,2022-04-28 09:13:11,2020-11-30,1.8319932791966902,3.2399823332832915,6.1032392561164865,,,,,,,,,,,,
40019,0,USOklahomaCarter,Oklahoma,Carter,2022-04-28 09:13:11,2020-12-01,1.8319932791966902,3.2399823332832915,6.1032392561164865,,,,,,,,,,,,
40019,0,USOklahomaCarter,Oklahoma,Carter,2022-04-28 09:13:11,2020-12-02,1.8319932791966902,3.2399823332832915,6.1032392561164865,,,,,,,,,,,,
40019,0,USOklahomaCarter,Oklahoma,Carter,2022-04-28 09:13:11,2020-12-03,1.3056729344459763,2.479656609123684,5.0374513201440605,,,,,,,,,,,,
40019,0,USOklahomaCarter,Oklahoma,Carter,2022-04-28 09:13:11,2020-12-04,1.3056729344459763,2.479656609123684,5.0374513201440605,,,,,,,,,,,,
40019,0,USOklahomaCarter,Oklahoma,Carter,2022-04-28 09:13:11,2020-12-05,1.3056729344459763,2.479656609123684,5.0374513201440605,,,,,,,,,,,,
40019,0,USOklahomaCarter,Oklahoma,Carter,2022-04-28 09:13:11,2020-12-06,1.3056729344459763,2.479656609123684,5.0374513201440605,,,,,,,,,,,,
40019,0,USOklahomaCarter,Oklahoma,Carter,2022-04-28 09:13:11,2020-12-07,1.3056729344459763,2.479656609123684,5.0374513201440605,,,,,,,,,,,,
40019,0,USOklahomaCarter,Oklahoma,Carter,2022-04-28 09:13:11,2020-12-08,1.3056729344459763,2.479656609123684,5.0374513201440605,,,,,,,,,,,,
40019,0,USOklahomaCarter,Oklahoma,Carter,2022-04-28 09:13:11,2020-12-09,1.3056729344459763,2.479656609123684,5.0374513201440605,,,,,,,,,,,,
40019,0,USOklahomaCarter,Oklahoma,Carter,2022-04-28 09:13:11,2020-12-10,2.032132105372037,3.576808333384386,6.703368833809565,,,,,,,,,,,,
40019,0,USOklahomaCarter,Oklahoma,Carter,2022-04-28 09:13:11,2020-12-11,2.032132105372037,3.576808333384386,6.703368833809565,,,,,,,,,,,,
40019,0,USOklahomaCarter,Oklahoma,Carter,2022-04-28 09:13:11,2020-12-12,2.032132105372037,3.576808333384386,6.703368833809565,,,,,,,,,,,,
40019,0,USOklahomaCarter,Oklahoma,Carter,2022-04-28 09:13:11,2020-12-13,2.032132105372037,3.576808333384386,6.703368833809565,,,,,,,,,,,,
40019,0,USOklahomaCarter,Oklahoma,Carter,2022-04-28 09:13:11,2020-12-14,2.032132105372037,3.576808333384386,6.703368833809565,,,,,,,,,,,,
40019,0,USOklahomaCarter,Oklahoma,Carter,2022-04-28 09:13:11,2020-12-15,2.032132105372037,3.576808333384386,6.703368833809565,,,,,,,,,,,,
40019,0,USOklahomaCarter,Oklahoma,Carter,2022-04-28 09:13:11,2020-12-16,2.032132105372037,3.576808333384386,6.703368833809565,,,,,,,,,,,,
40019,0,USOklahomaCarter,Oklahoma,Carter,2022-04-28 09:13:11,2020-12-17,2.341953301532222,3.9410247721859646,7.037183834952524,,,,,,,,,,,,
40019,0,USOklahomaCarter,Oklahoma,Carter,2022-04-28 09:13:11,2020-12-18,2.341953301532222,3.9410247721859646,7.037183834952524,,,,,,,,,,,,
40019,0,USOklahomaCarter,Oklahoma,Carter,2022-04-28 09:13:11,2020-12-19,2.341953301532222,3.9410247721859646,7.037183834952524,,,,,,,,,,,,
40019,0,USOklahomaCarter,Oklahoma,Carter,2022-04-28 09:13:11,2020-12-20,2.341953301532222,3.9410247721859646,7.037183834952524,,,,,,,,,,,,
40019,0,USOklahomaCarter,Oklahoma,Carter,2022-04-28 09:13:11,2020-12-21,2.341953301532222,3.9410247721859646,7.037183834952524,,,,,,,,,,,,
40019,0,USOklahomaCarter,Oklahoma,Carter,2022-04-28 09:13:11,2020-12-22,2.341953301532222,3.9410247721859646,7.037183834952524,,,,,,,,,,,,
40019,0,USOklahomaCarter,Oklahoma,Carter,2022-04-28 09:13:11,2020-12-23,2.341953301532222,3.9410247721859646,7.037183834952524,,,,,,,,,,,,
40019,0,USOklahomaCarter,Oklahoma,Carter,2022-04-28 09:13:11,2020-12-24,1.6816966147752497,3.0615763984607423,5.947943265618045,,,,,,,,,,,,
40019,0,USOklahomaCarter,Oklahoma,Carter,2022-04-28 09:13:11,2020-12-25,1.6816966147752497,3.0615763984607423,5.947943265618045,,,,,,,,,,,,
40019,0,USOklahomaCarter,Oklahoma,Carter,2022-04-28 09:13:11,2020-12-26,1.6816966147752497,3.0615763984607423,5.947943265618045,,,,,,,,,,,,
40019,0,USOklahomaCarter,Oklahoma,Carter,2022-04-28 09:13:11,2020-12-27,1.6816966147752497,3.0615763984607423,5.947943265618045,,,,,,,,,,,,
40019,0,USOklahomaCarter,Oklahoma,Carter,2022-04-28 09:13:11,2020-12-28,1.6816966147752497,3.0615763984607423,5.947943265618045,,,,,,,,,,,,
40019,0,USOklahomaCarter,Oklahoma,Carter,2022-04-28 09:13:11,2020-12-29,1.6816966147752497,3.0615763984607423,5.947943265618045,,,,,,,,,,,,
40019,0,USOklahomaCarter,Oklahoma,Carter,2022-04-28 09:13:11,2020-12-30,1.6816966147752497,3.0615763984607423,5.947943265618045,,,,,,,,,,,,
40019,0,USOklahomaCarter,Oklahoma,Carter,2022-04-28 09:13:11,2020-12-31,3.7246017513665173,5.953889275196529,10.052676134998062,,,,,,,,,,,,
40019,0,USOklahomaCarter,Oklahoma,Carter,2022-04-28 09:13:11,2021-01-01,3.7246017513665173,5.953889275196529,10.052676134998062,,,,,,,,,,,,
40019,0,USOklahomaCarter,Oklahoma,Carter,2022-04-28 09:13:11,2021-01-02,3.7246017513665173,5.953889275196529,10.052676134998062,,,,,,,,,,,,
40019,0,USOklahomaCarter,Oklahoma,Carter,2022-04-28 09:13:11,2021-01-03,3.7246017513665173,5.953889275196529,10.052676134998062,,,,,,,,,,,,
40019,0,USOklahomaCarter,Oklahoma,Carter,2022-04-28 09:13:11,2021-01-04,3.7246017513665173,5.953889275196529,10.052676134998062,,,,,,,,,,,,
40019,0,USOklahomaCarter,Oklahoma,Carter,2022-04-28 09:13:11,2021-01-05,3.7246017513665173,5.953889275196529,10.052676134998062,,,,,,,,,,,,
40019,0,USOklahomaCarter,Oklahoma,Carter,2022-04-28 09:13:11,2021-01-06,3.7246017513665173,5.953889275196529,10.052676134998062,,,,,,,,,,,,
40019,0,USOklahomaCarter,Oklahoma,Carter,2022-04-28 09:13:11,2021-01-07,6.054188344087779,8.650046700060484,12.891790274480758,,,,,,,,,,,,
40019,0,USOklahomaCarter,Oklahoma,Carter,2022-04-28 09:13:11,2021-01-08,6.054188344087779,8.650046700060484,12.891790274480758,,,,,,,,,,,,
40019,0,USOklahomaCarter,Oklahoma,Carter,2022-04-28 09:13:11,2021-01-09,6.054188344087779,8.650046700060484,12.891790274480758,,,,,,,,,,,,
40019,0,USOklahomaCarter,Oklahoma,Carter,2022-04-28 09:13:11,2021-01-10,6.054188344087779,8.650046700060484,12.891790274480758,,,,,,,,,,,,
40019,0,USOklahomaCarter,Oklahoma,Carter,2022-04-28 09:13:11,2021-01-11,6.054188344087779,8.650046700060484,12.891790274480758,,,,,,,,,,,,
40019,0,USOklahomaCarter,Oklahoma,Carter,2022-04-28 09:13:11,2021-01-12,6.054188344087779,8.650046700060484,12.891790274480758,,,,,,,,,,,,
40019,0,USOklahomaCarter,Oklahoma,Carter,2022-04-28 09:13:11,2021-01-13,6.054188344087779,8.650046700060484,12.891790274480758,,,,,,,,,,,,
40019,0,USOklahomaCarter,Oklahoma,Carter,2022-04-28 09:13:11,2021-01-14,2.6983780448837384,4.247025567862737,7.0495631409206005,,,,,,,,,,,,
40019,0,USOklahomaCarter,Oklahoma,Carter,2022-04-28 09:13:11,2021-01-15,2.6983780448837384,4.247025567862737,7.0495631409206005,,,,,,,,,,,,
40019,0,USOklahomaCarter,Oklahoma,Carter,2022-04-28 09:13:11,2021-01-16,2.6983780448837384,4.247025567862737,7.0495631409206005,,,,,,,,,,,,
40019,0,USOklahomaCarter,Oklahoma,Carter,2022-04-28 09:13:11,2021-01-17,2.6983780448837384,4.247025567862737,7.0495631409206005,,,,,,,,,,,,
40019,0,USOklahomaCarter,Oklahoma,Carter,2022-04-28 09:13:11,2021-01-18,2.6983780448837384,4.247025567862737,7.0495631409206005,,,,,,,,,,,,
40019,0,USOklahomaCarter,Oklahoma,Carter,2022-04-28 09:13:11,2021-01-19,2.6983780448837384,4.247025567862737,7.0495631409206005,,,,,,,,,,,,
40019,0,USOklahomaCarter,Oklahoma,Carter,2022-04-28 09:13:11,2021-01-20,2.6983780448837384,4.247025567862737,7.0495631409206005,,,,,,,,,,,,
40019,0,USOklahomaCarter,Oklahoma,Carter,2022-04-28 09:13:11,2021-01-21,2.3908859353066263,4.075921015484972,7.380866235595142,,,,,,,,,,,,
40019,0,USOklahomaCarter,Oklahoma,Carter,2022-04-28 09:13:11,2021-01-22,2.3908859353066263,4.075921015484972,7.380866235595142,,,,,,,,,,,,
40019,0,USOklahomaCarter,Oklahoma,Carter,2022-04-28 09:13:11,2021-01-23,2.3908859353066263,4.075921015484972,7.380866235595142,,,,,,,,,,,,
40019,0,USOklahomaCarter,Oklahoma,Carter,2022-04-28 09:13:11,2021-01-24,2.3908859353066263,4.075921015484972,7.380866235595142,,,,,,,,,,,,
40019,0,USOklahomaCarter,Oklahoma,Carter,2022-04-28 09:13:11,2021-01-25,2.3908859353066263,4.075921015484972,7.380866235595142,,,,,,,,,,,,
40019,0,USOklahomaCarter,Oklahoma,Carter,2022-04-28 09:13:11,2021-01-26,2.3908859353066263,4.075921015484972,7.380866235595142,,,,,,,,,,,,
40019,0,USOklahomaCarter,Oklahoma,Carter,2022-04-28 09:13:11,2021-01-27,2.3908859353066263,4.075921015484972,7.380866235595142,,,,,,,,,,,,
40019,0,USOklahomaCarter,Oklahoma,Carter,2022-04-28 09:13:11,2021-01-28,2.1861634996632557,3.4746206869033895,5.8297407067758025,,,,,,,,,,,,
40019,0,USOklahomaCarter,Oklahoma,Carter,2022-04-28 09:13:11,2021-01-29,2.1861634996632557,3.4746206869033895,5.8297407067758025,,,,,,,,,,,,
40019,0,USOklahomaCarter,Oklahoma,Carter,2022-04-28 09:13:11,2021-01-30,2.1861634996632557,3.4746206869033895,5.8297407067758025,,,,,,,,,,,,
40019,0,USOklahomaCarter,Oklahoma,Carter,2022-04-28 09:13:11,2021-01-31,2.1861634996632557,3.4746206869033895,5.8297407067758025,,,,,,,,,,,,
40019,0,USOklahomaCarter,Oklahoma,Carter,2022-04-28 09:13:11,2021-02-01,2.1861634996632557,3.4746206869033895,5.8297407067758025,,,,,,,,,,,,
40019,0,USOklahomaCarter,Oklahoma,Carter,2022-04-28 09:13:11,2021-02-02,2.1861634996632557,3.4746206869033895,5.8297407067758025,,,,,,,,,,,,
40019,0,USOklahomaCarter,Oklahoma,Carter,2022-04-28 09:13:11,2021-02-03,2.1861634996632557,3.4746206869033895,5.8297407067758025,,,,,,,,,,,,
40019,0,USOklahomaCarter,Oklahoma,Carter,2022-04-28 09:13:11,2021-02-04,2.1680404416547305,3.548731631005268,6.148922167481441,,,,,,,,,,,,
40019,0,USOklahomaCarter,Oklahoma,Carter,2022-04-28 09:13:11,2021-02-05,2.1680404416547305,3.548731631005268,6.148922167481441,,,,,,,,,,,,
40019,0,USOklahomaCarter,Oklahoma,Carter,2022-04-28 09:13:11,2021-02-06,2.1680404416547305,3.548731631005268,6.148922167481441,,,,,,,,,,,,
40019,0,USOklahomaCarter,Oklahoma,Carter,2022-04-28 09:13:11,2021-02-07,2.1680404416547305,3.548731631005268,6.148922167481441,,,,,,,,,,,,
40019,0,USOklahomaCarter,Oklahoma,Carter,2022-04-28 09:13:11,2021-02-08,2.1680404416547305,3.548731631005268,6.148922167481441,,,,,,,,,,,,
40019,0,USOklahomaCarter,Oklahoma,Carter,2022-04-28 09:13:11,2021-02-09,2.1680404416547305,3.548731631005268,6.148922167481441,,,,,,,,,,,,
40019,0,USOklahomaCarter,Oklahoma,Carter,2022-04-28 09:13:11,2021-02-10,2.1680404416547305,3.548731631005268,6.148922167481441,,,,,,,,,,,,
40019,0,USOklahomaCarter,Oklahoma,Carter,2022-04-28 09:13:11,2021-02-11,1.1258950023171563,2.043740421216677,3.958209878909392,,,,,,,,,,,,
40019,0,USOklahomaCarter,Oklahoma,Carter,2022-04-28 09:13:11,2021-02-12,1.1258950023171563,2.043740421216677,3.958209878909392,,,,,,,,,,,,
40019,0,USOklahomaCarter,Oklahoma,Carter,2022-04-28 09:13:11,2021-02-13,1.1258950023171563,2.043740421216677,3.958209878909392,,,,,,,,,,,,
40019,0,USOklahomaCarter,Oklahoma,Carter,2022-04-28 09:13:11,2021-02-14,1.1258950023171563,2.043740421216677,3.958209878909392,,,,,,,,,,,,
40019,0,USOklahomaCarter,Oklahoma,Carter,2022-04-28 09:13:11,2021-02-15,1.1258950023171563,2.043740421216677,3.958209878909392,,,,,,,,,,,,
40019,0,USOklahomaCarter,Oklahoma,Carter,2022-04-28 09:13:11,2021-02-16,1.1258950023171563,2.043740421216677,3.958209878909392,,,,,,,,,,,,
40019,0,USOklahomaCarter,Oklahoma,Carter,2022-04-28 09:13:11,2021-02-17,1.1258950023171563,2.043740421216677,3.958209878909392,,,,,,,,,,,,
40019,0,USOklahomaCarter,Oklahoma,Carter,2022-04-28 09:13:11,2021-02-18,0.6546853480875567,1.3912510040314816,3.176176577579205,,,,,,,,,,,,
40019,0,USOklahomaCarter,Oklahoma,Carter,2022-04-28 09:13:11,2021-02-19,0.6546853480875567,1.3912510040314816,3.176176577579205,,,,,,,,,,,,
40019,0,USOklahomaCarter,Oklahoma,Carter,2022-04-28 09:13:11,2021-02-20,0.6546853480875567,1.3912510040314816,3.176176577579205,,,,,,,,,,,,
40019,0,USOklahomaCarter,Oklahoma,Carter,2022-04-28 09:13:11,2021-02-21,0.6546853480875567,1.3912510040314816,3.176176577579205,,,,,,,,,,,,
40019,0,USOklahomaCarter,Oklahoma,Carter,2022-04-28 09:13:11,2021-02-22,0.6546853480875567,1.3912510040314816,3.176176577579205,,,,,,,,,,,,
40019,0,USOklahomaCarter,Oklahoma,Carter,2022-04-28 09:13:11,2021-02-23,0.6546853480875567,1.3912510040314816,3.176176577579205,,,,,,,,,,,,
40019,0,USOklahomaCarter,Oklahoma,Carter,2022-04-28 09:13:11,2021-02-24,0.6546853480875567,1.3912510040314816,3.176176577579205,,,,,,,,,,,,
40019,0,USOklahomaCarter,Oklahoma,Carter,2022-04-28 09:13:11,2021-02-25,0.8135609206380857,1.3010775108320958,2.1978337192345174,,,,,,,,,,,,
40019,0,USOklahomaCarter,Oklahoma,Carter,2022-04-28 09:13:11,2021-02-26,0.8135609206380857,1.3010775108320958,2.1978337192345174,,,,,,,,,,,,
40019,0,USOklahomaCarter,Oklahoma,Carter,2022-04-28 09:13:11,2021-02-27,0.8135609206380857,1.3010775108320958,2.1978337192345174,,,,,,,,,,,,
40019,0,USOklahomaCarter,Oklahoma,Carter,2022-04-28 09:13:11,2021-02-28,0.8135609206380857,1.3010775108320958,2.1978337192345174,,,,,,,,,,,,
40019,0,USOklahomaCarter,Oklahoma,Carter,2022-04-28 09:13:11,2021-03-01,0.8135609206380857,1.3010775108320958,2.1978337192345174,,,,,,,,,,,,
40019,0,USOklahomaCarter,Oklahoma,Carter,2022-04-28 09:13:11,2021-03-02,0.8135609206380857,1.3010775108320958,2.1978337192345174,,,,,,,,,,,,
40019,0,USOklahomaCarter,Oklahoma,Carter,2022-04-28 09:13:11,2021-03-03,0.8135609206380857,1.3010775108320958,2.1978337192345174,,,,,,,,,,,,
40019,0,USOklahomaCarter,Oklahoma,Carter,2022-04-28 09:13:11,2021-03-04,0.4647459844687035,1.0890458001279335,2.7459392524523,,,,,,,,,,,,
40019,0,USOklahomaCarter,Oklahoma,Carter,2022-04-28 09:13:11,2021-03-05,0.4647459844687035,1.0890458001279335,2.7459392524523,,,,,,,,,,,,
40019,0,USOklahomaCarter,Oklahoma,Carter,2022-04-28 09:13:11,2021-03-06,0.4647459844687035,1.0890458001279335,2.7459392524523,,,,,,,,,,,,
40019,0,USOklahomaCarter,Oklahoma,Carter,2022-04-28 09:13:11,2021-03-07,0.4647459844687035,1.0890458001279335,2.7459392524523,,,,,,,,,,,,
40019,0,USOklahomaCarter,Oklahoma,Carter,2022-04-28 09:13:11,2021-03-08,0.4647459844687035,1.0890458001279335,2.7459392524523,,,,,,,,,,,,
40019,0,USOklahomaCarter,Oklahoma,Carter,2022-04-28 09:13:11,2021-03-09,0.4647459844687035,1.0890458001279335,2.7459392524523,,,,,,,,,,,,
40019,0,USOklahomaCarter,Oklahoma,Carter,2022-04-28 09:13:11,2021-03-10,0.4647459844687035,1.0890458001279335,2.7459392524523,,,,,,,,,,,,
40019,0,USOklahomaCarter,Oklahoma,Carter,2022-04-28 09:13:11,2021-03-11,0.4322272882215019,0.7962009468311361,1.566268160711677,,,,,,,,,,,,
40019,0,USOklahomaCarter,Oklahoma,Carter,2022-04-28 09:13:11,2021-03-12,0.4322272882215019,0.7962009468311361,1.566268160711677,,,,,,,,,,,,
40019,0,USOklahomaCarter,Oklahoma,Carter,2022-04-28 09:13:11,2021-03-13,0.4322272882215019,0.7962009468311361,1.566268160711677,,,,,,,,,,,,
40019,0,USOklahomaCarter,Oklahoma,Carter,2022-04-28 09:13:11,2021-03-14,0.4322272882215019,0.7962009468311361,1.566268160711677,,,,,,,,,,,,
40019,0,USOklahomaCarter,Oklahoma,Carter,2022-04-28 09:13:11,2021-03-15,0.4322272882215019,0.7962009468311361,1.566268160711677,,,,,,,,,,,,
40019,0,USOklahomaCarter,Oklahoma,Carter,2022-04-28 09:13:11,2021-03-16,0.4322272882215019,0.7962009468311361,1.566268160711677,,,,,,,,,,,,
40019,0,USOklahomaCarter,Oklahoma,Carter,2022-04-28 09:13:11,2021-03-17,0.4322272882215019,0.7962009468311361,1.566268160711677,,,,,,,,,,,,
40019,0,USOklahomaCarter,Oklahoma,Carter,2022-04-28 09:13:11,2021-03-18,0.4884202429299577,0.8805862115980062,1.6931992642252771,,,,,,,,,,,,
40019,0,USOklahomaCarter,Oklahoma,Carter,2022-04-28 09:13:11,2021-03-19,0.4884202429299577,0.8805862115980062,1.6931992642252771,,,,,,,,,,,,
40019,0,USOklahomaCarter,Oklahoma,Carter,2022-04-28 09:13:11,2021-03-20,0.4884202429299577,0.8805862115980062,1.6931992642252771,,,,,,,,,,,,
40019,0,USOklahomaCarter,Oklahoma,Carter,2022-04-28 09:13:11,2021-03-21,0.4884202429299577,0.8805862115980062,1.6931992642252771,,,,,,,,,,,,
40019,0,USOklahomaCarter,Oklahoma,Carter,2022-04-28 09:13:11,2021-03-22,0.4884202429299577,0.8805862115980062,1.6931992642252771,,,,,,,,,,,,
40019,0,USOklahomaCarter,Oklahoma,Carter,2022-04-28 09:13:11,2021-03-23,0.4884202429299577,0.8805862115980062,1.6931992642252771,,,,,,,,,,,,
40019,0,USOklahomaCarter,Oklahoma,Carter,2022-04-28 09:13:11,2021-03-24,0.4884202429299577,0.8805862115980062,1.6931992642252771,,,,,,,,,,,,
40019,0,USOklahomaCarter,Oklahoma,Carter,2022-04-28 09:13:11,2021-03-25,0.42309852778488477,0.7378438578303307,1.3691536915007454,,,,,,,,,,,,
40019,0,USOklahomaCarter,Oklahoma,Carter,2022-04-28 09:13:11,2021-03-26,0.42309852778488477,0.7378438578303307,1.3691536915007454,,,,,,,,,,,,
40019,0,USOklahomaCarter,Oklahoma,Carter,2022-04-28 09:13:11,2021-03-27,0.42309852778488477,0.7378438578303307,1.3691536915007454,,,,,,,,,,,,
40019,0,USOklahomaCarter,Oklahoma,Carter,2022-04-28 09:13:11,2021-03-28,0.42309852778488477,0.7378438578303307,1.3691536915007454,,,,,,,,,,,,
40019,0,USOklahomaCarter,Oklahoma,Carter,2022-04-28 09:13:11,2021-03-29,0.42309852778488477,0.7378438578303307,1.3691536915007454,,,,,,,,,,,,
40019,0,USOklahomaCarter,Oklahoma,Carter,2022-04-28 09:13:11,2021-03-30,0.42309852778488477,0.7378438578303307,1.3691536915007454,,,,,,,,,,,,
40019,0,USOklahomaCarter,Oklahoma,Carter,2022-04-28 09:13:11,2021-03-31,0.42309852778488477,0.7378438578303307,1.3691536915007454,,,,,,,,,,,,
40019,0,USOklahomaCarter,Oklahoma,Carter,2022-04-28 09:13:11,2021-04-01,0.6055872281403393,1.151737533621711,2.34327996113507,,,,,,,,,,,,
40019,0,USOklahomaCarter,Oklahoma,Carter,2022-04-28 09:13:11,2021-04-02,0.6055872281403393,1.151737533621711,2.34327996113507,,,,,,,,,,,,
40019,0,USOklahomaCarter,Oklahoma,Carter,2022-04-28 09:13:11,2021-04-03,0.6055872281403393,1.151737533621711,2.34327996113507,,,,,,,,,,,,
40019,0,USOklahomaCarter,Oklahoma,Carter,2022-04-28 09:13:11,2021-04-04,0.6055872281403393,1.151737533621711,2.34327996113507,,,,,,,,,,,,
40019,0,USOklahomaCarter,Oklahoma,Carter,2022-04-28 09:13:11,2021-04-05,0.6055872281403393,1.151737533621711,2.34327996113507,,,,,,,,,,,,
40019,0,USOklahomaCarter,Oklahoma,Carter,2022-04-28 09:13:11,2021-04-06,0.6055872281403393,1.151737533621711,2.34327996113507,,,,,,,,,,,,
40019,0,USOklahomaCarter,Oklahoma,Carter,2022-04-28 09:13:11,2021-04-07,0.6055872281403393,1.151737533621711,2.34327996113507,,,,,,,,,,,,
40019,0,USOklahomaCarter,Oklahoma,Carter,2022-04-28 09:13:11,2021-04-08,0.3512320736587456,0.6255269770694474,1.187147202740667,,,,,,,,,,,,
40019,0,USOklahomaCarter,Oklahoma,Carter,2022-04-28 09:13:11,2021-04-09,0.3512320736587456,0.6255269770694474,1.187147202740667,,,,,,,,,,,,
40019,0,USOklahomaCarter,Oklahoma,Carter,2022-04-28 09:13:11,2021-04-10,0.3512320736587456,0.6255269770694474,1.187147202740667,,,,,,,,,,,,
40019,0,USOklahomaCarter,Oklahoma,Carter,2022-04-28 09:13:11,2021-04-11,0.3512320736587456,0.6255269770694474,1.187147202740667,,,,,,,,,,,,
40019,0,USOklahomaCarter,Oklahoma,Carter,2022-04-28 09:13:11,2021-04-12,0.3512320736587456,0.6255269770694474,1.187147202740667,,,,,,,,,,,,
40019,0,USOklahomaCarter,Oklahoma,Carter,2022-04-28 09:13:11,2021-04-13,0.3512320736587456,0.6255269770694474,1.187147202740667,,,,,,,,,,,,
40019,0,USOklahomaCarter,Oklahoma,Carter,2022-04-28 09:13:11,2021-04-14,0.3512320736587456,0.6255269770694474,1.187147202740667,,,,,,,,,,,,
40019,0,USOklahomaCarter,Oklahoma,Carter,2022-04-28 09:13:11,2021-04-15,0.1848816817887714,0.38613555926823784,0.8659726549574426,,,,,,,,,,,,
40019,0,USOklahomaCarter,Oklahoma,Carter,2022-04-28 09:13:11,2021-04-16,0.1848816817887714,0.38613555926823784,0.8659726549574426,,,,,,,,,,,,
40019,0,USOklahomaCarter,Oklahoma,Carter,2022-04-28 09:13:11,2021-04-17,0.1848816817887714,0.38613555926823784,0.8659726549574426,,,,,,,,,,,,
40019,0,USOklahomaCarter,Oklahoma,Carter,2022-04-28 09:13:11,2021-04-18,0.1848816817887714,0.38613555926823784,0.8659726549574426,,,,,,,,,,,,
40019,0,USOklahomaCarter,Oklahoma,Carter,2022-04-28 09:13:11,2021-04-19,0.1848816817887714,0.38613555926823784,0.8659726549574426,,,,,,,,,,,,
40019,0,USOklahomaCarter,Oklahoma,Carter,2022-04-28 09:13:11,2021-04-20,0.1848816817887714,0.38613555926823784,0.8659726549574426,,,,,,,,,,,,
40019,0,USOklahomaCarter,Oklahoma,Carter,2022-04-28 09:13:11,2021-04-21,0.1848816817887714,0.38613555926823784,0.8659726549574426,,,,,,,,,,,,
40019,0,USOklahomaCarter,Oklahoma,Carter,2022-04-28 09:13:11,2021-04-22,0.2254694084333342,0.4740654268580377,1.0705103407482215,,,,,,,,,,,,
40019,0,USOklahomaCarter,Oklahoma,Carter,2022-04-28 09:13:11,2021-04-23,0.2254694084333342,0.4740654268580377,1.0705103407482215,,,,,,,,,,,,
40019,0,USOklahomaCarter,Oklahoma,Carter,2022-04-28 09:13:11,2021-04-24,0.2254694084333342,0.4740654268580377,1.0705103407482215,,,,,,,,,,,,
40019,0,USOklahomaCarter,Oklahoma,Carter,2022-04-28 09:13:11,2021-04-25,0.2254694084333342,0.4740654268580377,1.0705103407482215,,,,,,,,,,,,
40019,0,USOklahomaCarter,Oklahoma,Carter,2022-04-28 09:13:11,2021-04-26,0.2254694084333342,0.4740654268580377,1.0705103407482215,,,,,,,,,,,,
40019,0,USOklahomaCarter,Oklahoma,Carter,2022-04-28 09:13:11,2021-04-27,0.2254694084333342,0.4740654268580377,1.0705103407482215,,,,,,,,,,,,
40019,0,USOklahomaCarter,Oklahoma,Carter,2022-04-28 09:13:11,2021-04-28,0.2254694084333342,0.4740654268580377,1.0705103407482215,,,,,,,,,,,,
40019,0,USOklahomaCarter,Oklahoma,Carter,2022-04-28 09:13:11,2021-04-29,0.20887469649022594,0.4648762828437514,1.1126004154588482,,,,,,,,,,,,
40019,0,USOklahomaCarter,Oklahoma,Carter,2022-04-28 09:13:11,2021-04-30,0.20887469649022594,0.4648762828437514,1.1126004154588482,,,,,,,,,,,,
40019,0,USOklahomaCarter,Oklahoma,Carter,2022-04-28 09:13:11,2021-05-01,0.20887469649022594,0.4648762828437514,1.1126004154588482,,,,,,,,,,,,
40019,0,USOklahomaCarter,Oklahoma,Carter,2022-04-28 09:13:11,2021-05-02,0.20887469649022594,0.4648762828437514,1.1126004154588482,,,,,,,,,,,,
40019,0,USOklahomaCarter,Oklahoma,Carter,2022-04-28 09:13:11,2021-05-03,0.20887469649022594,0.4648762828437514,1.1126004154588482,,,,,,,,,,,,
40019,0,USOklahomaCarter,Oklahoma,Carter,2022-04-28 09:13:11,2021-05-04,0.20887469649022594,0.4648762828437514,1.1126004154588482,,,,,,,,,,,,
40019,0,USOklahomaCarter,Oklahoma,Carter,2022-04-28 09:13:11,2021-05-05,0.20887469649022594,0.4648762828437514,1.1126004154588482,,,,,,,,,,,,
40019,0,USOklahomaCarter,Oklahoma,Carter,2022-04-28 09:13:11,2021-05-20,0.08572135212714206,0.219638878140372,0.6055373545396598,,,,,,,,,,,,
40019,0,USOklahomaCarter,Oklahoma,Carter,2022-04-28 09:13:11,2021-05-21,0.08572135212714206,0.219638878140372,0.6055373545396598,,,,,,,,,,,,
40019,0,USOklahomaCarter,Oklahoma,Carter,2022-04-28 09:13:11,2021-05-22,0.08572135212714206,0.219638878140372,0.6055373545396598,,,,,,,,,,,,
40019,0,USOklahomaCarter,Oklahoma,Carter,2022-04-28 09:13:11,2021-05-23,0.08572135212714206,0.219638878140372,0.6055373545396598,,,,,,,,,,,,
40019,0,USOklahomaCarter,Oklahoma,Carter,2022-04-28 09:13:11,2021-05-24,0.08572135212714206,0.219638878140372,0.6055373545396598,,,,,,,,,,,,
40019,0,USOklahomaCarter,Oklahoma,Carter,2022-04-28 09:13:11,2021-05-25,0.08572135212714206,0.219638878140372,0.6055373545396598,,,,,,,,,,,,
40019,0,USOklahomaCarter,Oklahoma,Carter,2022-04-28 09:13:11,2021-05-26,0.08572135212714206,0.219638878140372,0.6055373545396598,,,,,,,,,,,,
40019,0,USOklahomaCarter,Oklahoma,Carter,2022-04-28 09:13:11,2021-05-27,0.2188726081276975,0.4862416836098763,1.1615823126784846,,,,,,,,,,,,
40019,0,USOklahomaCarter,Oklahoma,Carter,2022-04-28 09:13:11,2021-05-28,0.2188726081276975,0.4862416836098763,1.1615823126784846,,,,,,,,,,,,
40019,0,USOklahomaCarter,Oklahoma,Carter,2022-04-28 09:13:11,2021-05-29,0.2188726081276975,0.4862416836098763,1.1615823126784846,,,,,,,,,,,,
40019,0,USOklahomaCarter,Oklahoma,Carter,2022-04-28 09:13:11,2021-05-30,0.2188726081276975,0.4862416836098763,1.1615823126784846,,,,,,,,,,,,
40019,0,USOklahomaCarter,Oklahoma,Carter,2022-04-28 09:13:11,2021-05-31,0.2188726081276975,0.4862416836098763,1.1615823126784846,,,,,,,,,,,,
40019,0,USOklahomaCarter,Oklahoma,Carter,2022-04-28 09:13:11,2021-06-01,0.2188726081276975,0.4862416836098763,1.1615823126784846,,,,,,,,,,,,
40019,0,USOklahomaCarter,Oklahoma,Carter,2022-04-28 09:13:11,2021-06-02,0.2188726081276975,0.4862416836098763,1.1615823126784846,,,,,,,,,,,,
40019,0,USOklahomaCarter,Oklahoma,Carter,2022-04-28 09:13:11,2021-06-03,0.19280283081259114,0.46176741747955596,1.1901396662909085,,,,,,,,,,,,
40019,0,USOklahomaCarter,Oklahoma,Carter,2022-04-28 09:13:11,2021-06-04,0.19280283081259114,0.46176741747955596,1.1901396662909085,,,,,,,,,,,,
40019,0,USOklahomaCarter,Oklahoma,Carter,2022-04-28 09:13:11,2021-06-05,0.19280283081259114,0.46176741747955596,1.1901396662909085,,,,,,,,,,,,
40019,0,USOklahomaCarter,Oklahoma,Carter,2022-04-28 09:13:11,2021-06-06,0.19280283081259114,0.46176741747955596,1.1901396662909085,,,,,,,,,,,,
40019,0,USOklahomaCarter,Oklahoma,Carter,2022-04-28 09:13:11,2021-06-07,0.19280283081259114,0.46176741747955596,1.1901396662909085,,,,,,,,,,,,
40019,0,USOklahomaCarter,Oklahoma,Carter,2022-04-28 09:13:11,2021-06-08,0.19280283081259114,0.46176741747955596,1.1901396662909085,,,,,,,,,,,,
40019,0,USOklahomaCarter,Oklahoma,Carter,2022-04-28 09:13:11,2021-06-09,0.19280283081259114,0.46176741747955596,1.1901396662909085,,,,,,,,,,,,
40019,0,USOklahomaCarter,Oklahoma,Carter,2022-04-28 09:13:11,2021-06-10,0.42194237186187616,0.9267978516897569,2.1885936814089137,,,,,,,,,,,,
40019,0,USOklahomaCarter,Oklahoma,Carter,2022-04-28 09:13:11,2021-06-11,0.42194237186187616,0.9267978516897569,2.1885936814089137,,,,,,,,,,,,
40019,0,USOklahomaCarter,Oklahoma,Carter,2022-04-28 09:13:11,2021-06-12,0.42194237186187616,0.9267978516897569,2.1885936814089137,,,,,,,,,,,,
40019,0,USOklahomaCarter,Oklahoma,Carter,2022-04-28 09:13:11,2021-06-13,0.42194237186187616,0.9267978516897569,2.1885936814089137,,,,,,,,,,,,
40019,0,USOklahomaCarter,Oklahoma,Carter,2022-04-28 09:13:11,2021-06-14,0.42194237186187616,0.9267978516897569,2.1885936814089137,,,,,,,,,,,,
40019,0,USOklahomaCarter,Oklahoma,Carter,2022-04-28 09:13:11,2021-06-15,0.42194237186187616,0.9267978516897569,2.1885936814089137,,,,,,,,,,,,
40019,0,USOklahomaCarter,Oklahoma,Carter,2022-04-28 09:13:11,2021-06-16,0.42194237186187616,0.9267978516897569,2.1885936814089137,,,,,,,,,,,,
40019,0,USOklahomaCarter,Oklahoma,Carter,2022-04-28 09:13:11,2021-06-17,0.5054721430233842,1.073357511339975,2.4485525349974244,,,,,,,,,,,,
40019,0,USOklahomaCarter,Oklahoma,Carter,2022-04-28 09:13:11,2021-06-18,0.5054721430233842,1.073357511339975,2.4485525349974244,,,,,,,,,,,,
40019,0,USOklahomaCarter,Oklahoma,Carter,2022-04-28 09:13:11,2021-06-19,0.5054721430233842,1.073357511339975,2.4485525349974244,,,,,,,,,,,,
40019,0,USOklahomaCarter,Oklahoma,Carter,2022-04-28 09:13:11,2021-06-20,0.5054721430233842,1.073357511339975,2.4485525349974244,,,,,,,,,,,,
40019,0,USOklahomaCarter,Oklahoma,Carter,2022-04-28 09:13:11,2021-06-21,0.5054721430233842,1.073357511339975,2.4485525349974244,,,,,,,,,,,,
40019,0,USOklahomaCarter,Oklahoma,Carter,2022-04-28 09:13:11,2021-06-22,0.5054721430233842,1.073357511339975,2.4485525349974244,,,,,,,,,,,,
40019,0,USOklahomaCarter,Oklahoma,Carter,2022-04-28 09:13:11,2021-06-23,0.5054721430233842,1.073357511339975,2.4485525349974244,,,,,,,,,,,,
40019,0,USOklahomaCarter,Oklahoma,Carter,2022-04-28 09:13:11,2021-06-24,0.5890733560685691,1.2786809784024549,2.9833143960076884,,,,,,,,,,,,
40019,0,USOklahomaCarter,Oklahoma,Carter,2022-04-28 09:13:11,2021-06-25,0.5890733560685691,1.2786809784024549,2.9833143960076884,,,,,,,,,,,,
40019,0,USOklahomaCarter,Oklahoma,Carter,2022-04-28 09:13:11,2021-06-26,0.5890733560685691,1.2786809784024549,2.9833143960076884,,,,,,,,,,,,
40019,0,USOklahomaCarter,Oklahoma,Carter,2022-04-28 09:13:11,2021-06-27,0.5890733560685691,1.2786809784024549,2.9833143960076884,,,,,,,,,,,,
40019,0,USOklahomaCarter,Oklahoma,Carter,2022-04-28 09:13:11,2021-06-28,0.5890733560685691,1.2786809784024549,2.9833143960076884,,,,,,,,,,,,
40019,0,USOklahomaCarter,Oklahoma,Carter,2022-04-28 09:13:11,2021-06-29,0.5890733560685691,1.2786809784024549,2.9833143960076884,,,,,,,,,,,,
40019,0,USOklahomaCarter,Oklahoma,Carter,2022-04-28 09:13:11,2021-06-30,0.5890733560685691,1.2786809784024549,2.9833143960076884,,,,,,,,,,,,
40019,0,USOklahomaCarter,Oklahoma,Carter,2022-04-28 09:13:11,2021-07-01,0.43715123510155707,1.0854456757779127,2.900403947502976,,,,,,,,,,,,
40019,0,USOklahomaCarter,Oklahoma,Carter,2022-04-28 09:13:11,2021-07-02,0.43715123510155707,1.0854456757779127,2.900403947502976,,,,,,,,,,,,
40019,0,USOklahomaCarter,Oklahoma,Carter,2022-04-28 09:13:11,2021-07-03,0.43715123510155707,1.0854456757779127,2.900403947502976,,,,,,,,,,,,
40019,0,USOklahomaCarter,Oklahoma,Carter,2022-04-28 09:13:11,2021-07-04,0.43715123510155707,1.0854456757779127,2.900403947502976,,,,,,,,,,,,
40019,0,USOklahomaCarter,Oklahoma,Carter,2022-04-28 09:13:11,2021-07-05,0.43715123510155707,1.0854456757779127,2.900403947502976,,,,,,,,,,,,
40019,0,USOklahomaCarter,Oklahoma,Carter,2022-04-28 09:13:11,2021-07-06,0.43715123510155707,1.0854456757779127,2.900403947502976,,,,,,,,,,,,
40019,0,USOklahomaCarter,Oklahoma,Carter,2022-04-28 09:13:11,2021-07-07,0.43715123510155707,1.0854456757779127,2.900403947502976,,,,,,,,,,,,
40019,0,USOklahomaCarter,Oklahoma,Carter,2022-04-28 09:13:11,2021-07-08,0.6534121828658738,1.7715975661515873,5.165252938025625,,,,,,,,,,,,
40019,0,USOklahomaCarter,Oklahoma,Carter,2022-04-28 09:13:11,2021-07-09,0.6534121828658738,1.7715975661515873,5.165252938025625,,,,,,,,,,,,
40019,0,USOklahomaCarter,Oklahoma,Carter,2022-04-28 09:13:11,2021-07-10,0.6534121828658738,1.7715975661515873,5.165252938025625,,,,,,,,,,,,
40019,0,USOklahomaCarter,Oklahoma,Carter,2022-04-28 09:13:11,2021-07-11,0.6534121828658738,1.7715975661515873,5.165252938025625,,,,,,,,,,,,
40019,0,USOklahomaCarter,Oklahoma,Carter,2022-04-28 09:13:11,2021-07-12,0.6534121828658738,1.7715975661515873,5.165252938025625,,,,,,,,,,,,
40019,0,USOklahomaCarter,Oklahoma,Carter,2022-04-28 09:13:11,2021-07-13,0.6534121828658738,1.7715975661515873,5.165252938025625,,,,,,,,,,,,
40019,0,USOklahomaCarter,Oklahoma,Carter,2022-04-28 09:13:11,2021-07-14,0.6534121828658738,1.7715975661515873,5.165252938025625,,,,,,,,,,,,
40019,0,USOklahomaCarter,Oklahoma,Carter,2022-04-28 09:13:11,2021-07-15,0.8480615357884028,2.391657835225477,7.248259044577591,,,,,,,,,,,,
40019,0,USOklahomaCarter,Oklahoma,Carter,2022-04-28 09:13:11,2021-07-16,0.8480615357884028,2.391657835225477,7.248259044577591,,,,,,,,,,,,
40019,0,USOklahomaCarter,Oklahoma,Carter,2022-04-28 09:13:11,2021-07-17,0.8480615357884028,2.391657835225477,7.248259044577591,,,,,,,,,,,,
40019,0,USOklahomaCarter,Oklahoma,Carter,2022-04-28 09:13:11,2021-07-18,0.8480615357884028,2.391657835225477,7.248259044577591,,,,,,,,,,,,
40019,0,USOklahomaCarter,Oklahoma,Carter,2022-04-28 09:13:11,2021-07-19,0.8480615357884028,2.391657835225477,7.248259044577591,,,,,,,,,,,,
40019,0,USOklahomaCarter,Oklahoma,Carter,2022-04-28 09:13:11,2021-07-20,0.8480615357884028,2.391657835225477,7.248259044577591,,,,,,,,,,,,
40019,0,USOklahomaCarter,Oklahoma,Carter,2022-04-28 09:13:11,2021-07-21,0.8480615357884028,2.391657835225477,7.248259044577591,,,,,,,,,,,,
40019,0,USOklahomaCarter,Oklahoma,Carter,2022-04-28 09:13:11,2021-07-22,1.8919720089955925,4.277528326881744,10.402178237716251,,,,,,,,,,,,
40019,0,USOklahomaCarter,Oklahoma,Carter,2022-04-28 09:13:11,2021-07-23,1.8919720089955925,4.277528326881744,10.402178237716251,,,,,,,,,,,,
40019,0,USOklahomaCarter,Oklahoma,Carter,2022-04-28 09:13:11,2021-07-24,1.8919720089955925,4.277528326881744,10.402178237716251,,,,,,,,,,,,
40019,0,USOklahomaCarter,Oklahoma,Carter,2022-04-28 09:13:11,2021-07-25,1.8919720089955925,4.277528326881744,10.402178237716251,,,,,,,,,,,,
40019,0,USOklahomaCarter,Oklahoma,Carter,2022-04-28 09:13:11,2021-07-26,1.8919720089955925,4.277528326881744,10.402178237716251,,,,,,,,,,,,
40019,0,USOklahomaCarter,Oklahoma,Carter,2022-04-28 09:13:11,2021-07-27,1.8919720089955925,4.277528326881744,10.402178237716251,,,,,,,,,,,,
40019,0,USOklahomaCarter,Oklahoma,Carter,2022-04-28 09:13:11,2021-07-28,1.8919720089955925,4.277528326881744,10.402178237716251,,,,,,,,,,,,
40019,0,USOklahomaCarter,Oklahoma,Carter,2022-04-28 09:13:11,2021-07-29,2.390333743740981,5.719214652005766,14.725751611935431,,,,,,,,,,,,
40019,0,USOklahomaCarter,Oklahoma,Carter,2022-04-28 09:13:11,2021-07-30,2.390333743740981,5.719214652005766,14.725751611935431,,,,,,,,,,,,
40019,0,USOklahomaCarter,Oklahoma,Carter,2022-04-28 09:13:11,2021-07-31,2.390333743740981,5.719214652005766,14.725751611935431,,,,,,,,,,,,
40019,0,USOklahomaCarter,Oklahoma,Carter,2022-04-28 09:13:11,2021-08-01,2.390333743740981,5.719214652005766,14.725751611935431,,,,,,,,,,,,
40019,0,USOklahomaCarter,Oklahoma,Carter,2022-04-28 09:13:11,2021-08-02,2.390333743740981,5.719214652005766,14.725751611935431,,,,,,,,,,,,
40019,0,USOklahomaCarter,Oklahoma,Carter,2022-04-28 09:13:11,2021-08-03,2.390333743740981,5.719214652005766,14.725751611935431,,,,,,,,,,,,
40019,0,USOklahomaCarter,Oklahoma,Carter,2022-04-28 09:13:11,2021-08-04,2.390333743740981,5.719214652005766,14.725751611935431,,,,,,,,,,,,
40019,0,USOklahomaCarter,Oklahoma,Carter,2022-04-28 09:13:11,2021-08-05,2.2203083123434597,4.851646187072764,11.396432433097699,,,,,,,,,,,,
40019,0,USOklahomaCarter,Oklahoma,Carter,2022-04-28 09:13:11,2021-08-06,2.2203083123434597,4.851646187072764,11.396432433097699,,,,,,,,,,,,
40019,0,USOklahomaCarter,Oklahoma,Carter,2022-04-28 09:13:11,2021-08-07,2.2203083123434597,4.851646187072764,11.396432433097699,,,,,,,,,,,,
40019,0,USOklahomaCarter,Oklahoma,Carter,2022-04-28 09:13:11,2021-08-08,2.2203083123434597,4.851646187072764,11.396432433097699,,,,,,,,,,,,
40019,0,USOklahomaCarter,Oklahoma,Carter,2022-04-28 09:13:11,2021-08-09,2.2203083123434597,4.851646187072764,11.396432433097699,,,,,,,,,,,,
40019,0,USOklahomaCarter,Oklahoma,Carter,2022-04-28 09:13:11,2021-08-10,2.2203083123434597,4.851646187072764,11.396432433097699,,,,,,,,,,,,
40019,0,USOklahomaCarter,Oklahoma,Carter,2022-04-28 09:13:11,2021-08-11,2.2203083123434597,4.851646187072764,11.396432433097699,,,,,,,,,,,,
40019,0,USOklahomaCarter,Oklahoma,Carter,2022-04-28 09:13:11,2021-08-12,1.8810595119608433,4.650399410462348,12.372446496826392,,,,,,,,,,,,
40019,0,USOklahomaCarter,Oklahoma,Carter,2022-04-28 09:13:11,2021-08-13,1.8810595119608433,4.650399410462348,12.372446496826392,,,,,,,,,,,,
40019,0,USOklahomaCarter,Oklahoma,Carter,2022-04-28 09:13:11,2021-08-14,1.8810595119608433,4.650399410462348,12.372446496826392,,,,,,,,,,,,
40019,0,USOklahomaCarter,Oklahoma,Carter,2022-04-28 09:13:11,2021-08-15,1.8810595119608433,4.650399410462348,12.372446496826392,,,,,,,,,,,,
40019,0,USOklahomaCarter,Oklahoma,Carter,2022-04-28 09:13:11,2021-08-16,1.8810595119608433,4.650399410462348,12.372446496826392,,,,,,,,,,,,
40019,0,USOklahomaCarter,Oklahoma,Carter,2022-04-28 09:13:11,2021-08-17,1.8810595119608433,4.650399410462348,12.372446496826392,,,,,,,,,,,,
40019,0,USOklahomaCarter,Oklahoma,Carter,2022-04-28 09:13:11,2021-08-18,1.8810595119608433,4.650399410462348,12.372446496826392,,,,,,,,,,,,
40019,0,USOklahomaCarter,Oklahoma,Carter,2022-04-28 09:13:11,2021-08-19,2.349440266254689,6.099186120273328,17.035175060824503,,,,,,,,,,,,
40019,0,USOklahomaCarter,Oklahoma,Carter,2022-04-28 09:13:11,2021-08-20,2.349440266254689,6.099186120273328,17.035175060824503,,,,,,,,,,,,
40019,0,USOklahomaCarter,Oklahoma,Carter,2022-04-28 09:13:11,2021-08-21,2.349440266254689,6.099186120273328,17.035175060824503,,,,,,,,,,,,
40019,0,USOklahomaCarter,Oklahoma,Carter,2022-04-28 09:13:11,2021-08-22,2.349440266254689,6.099186120273328,17.035175060824503,,,,,,,,,,,,
40019,0,USOklahomaCarter,Oklahoma,Carter,2022-04-28 09:13:11,2021-08-23,2.349440266254689,6.099186120273328,17.035175060824503,,,,,,,,,,,,
40019,0,USOklahomaCarter,Oklahoma,Carter,2022-04-28 09:13:11,2021-08-24,2.349440266254689,6.099186120273328,17.035175060824503,,,,,,,,,,,,
40019,0,USOklahomaCarter,Oklahoma,Carter,2022-04-28 09:13:11,2021-08-25,2.349440266254689,6.099186120273328,17.035175060824503,,,,,,,,,,,,
40019,0,USOklahomaCarter,Oklahoma,Carter,2022-04-28 09:13:11,2021-08-26,3.7092650061523478,8.909244251193066,23.028342717099985,,,,,,,,,,,,
40019,0,USOklahomaCarter,Oklahoma,Carter,2022-04-28 09:13:11,2021-08-27,3.7092650061523478,8.909244251193066,23.028342717099985,,,,,,,,,,,,
40019,0,USOklahomaCarter,Oklahoma,Carter,2022-04-28 09:13:11,2021-08-28,3.7092650061523478,8.909244251193066,23.028342717099985,,,,,,,,,,,,
40019,0,USOklahomaCarter,Oklahoma,Carter,2022-04-28 09:13:11,2021-08-29,3.7092650061523478,8.909244251193066,23.028342717099985,,,,,,,,,,,,
40019,0,USOklahomaCarter,Oklahoma,Carter,2022-04-28 09:13:11,2021-08-30,3.7092650061523478,8.909244251193066,23.028342717099985,,,,,,,,,,,,
40019,0,USOklahomaCarter,Oklahoma,Carter,2022-04-28 09:13:11,2021-08-31,3.7092650061523478,8.909244251193066,23.028342717099985,,,,,,,,,,,,
40019,0,USOklahomaCarter,Oklahoma,Carter,2022-04-28 09:13:11,2021-09-01,3.7092650061523478,8.909244251193066,23.028342717099985,,,,,,,,,,,,
40019,0,USOklahomaCarter,Oklahoma,Carter,2022-04-28 09:13:11,2021-09-02,1.9590220854403115,3.9553902954804925,8.565860497905817,,,,,,,,,,,,
40019,0,USOklahomaCarter,Oklahoma,Carter,2022-04-28 09:13:11,2021-09-03,1.9590220854403115,3.9553902954804925,8.565860497905817,,,,,,,,,,,,
40019,0,USOklahomaCarter,Oklahoma,Carter,2022-04-28 09:13:11,2021-09-04,1.9590220854403115,3.9553902954804925,8.565860497905817,,,,,,,,,,,,
40019,0,USOklahomaCarter,Oklahoma,Carter,2022-04-28 09:13:11,2021-09-05,1.9590220854403115,3.9553902954804925,8.565860497905817,,,,,,,,,,,,
40019,0,USOklahomaCarter,Oklahoma,Carter,2022-04-28 09:13:11,2021-09-06,1.9590220854403115,3.9553902954804925,8.565860497905817,,,,,,,,,,,,
40019,0,USOklahomaCarter,Oklahoma,Carter,2022-04-28 09:13:11,2021-09-07,1.9590220854403115,3.9553902954804925,8.565860497905817,,,,,,,,,,,,
40019,0,USOklahomaCarter,Oklahoma,Carter,2022-04-28 09:13:11,2021-09-08,1.9590220854403115,3.9553902954804925,8.565860497905817,,,,,,,,,,,,
40019,0,USOklahomaCarter,Oklahoma,Carter,2022-04-28 09:13:11,2021-09-09,2.2448792450183817,4.176805753512998,8.303832264320913,,,,,,,,,,,,
40019,0,USOklahomaCarter,Oklahoma,Carter,2022-04-28 09:13:11,2021-09-10,2.2448792450183817,4.176805753512998,8.303832264320913,,,,,,,,,,,,
40019,0,USOklahomaCarter,Oklahoma,Carter,2022-04-28 09:13:11,2021-09-11,2.2448792450183817,4.176805753512998,8.303832264320913,,,,,,,,,,,,
40019,0,USOklahomaCarter,Oklahoma,Carter,2022-04-28 09:13:11,2021-09-12,2.2448792450183817,4.176805753512998,8.303832264320913,,,,,,,,,,,,
40019,0,USOklahomaCarter,Oklahoma,Carter,2022-04-28 09:13:11,2021-09-13,2.2448792450183817,4.176805753512998,8.303832264320913,,,,,,,,,,,,
40019,0,USOklahomaCarter,Oklahoma,Carter,2022-04-28 09:13:11,2021-09-14,2.2448792450183817,4.176805753512998,8.303832264320913,,,,,,,,,,,,
40019,0,USOklahomaCarter,Oklahoma,Carter,2022-04-28 09:13:11,2021-09-15,2.2448792450183817,4.176805753512998,8.303832264320913,,,,,,,,,,,,
40019,0,USOklahomaCarter,Oklahoma,Carter,2022-04-28 09:13:11,2021-09-16,1.8393299415873567,3.7349515586731408,8.136387783077666,,,,,,,,,,,,
40019,0,USOklahomaCarter,Oklahoma,Carter,2022-04-28 09:13:11,2021-09-17,1.8393299415873567,3.7349515586731408,8.136387783077666,,,,,,,,,,,,
40019,0,USOklahomaCarter,Oklahoma,Carter,2022-04-28 09:13:11,2021-09-18,1.8393299415873567,3.7349515586731408,8.136387783077666,,,,,,,,,,,,
40019,0,USOklahomaCarter,Oklahoma,Carter,2022-04-28 09:13:11,2021-09-19,1.8393299415873567,3.7349515586731408,8.136387783077666,,,,,,,,,,,,
40019,0,USOklahomaCarter,Oklahoma,Carter,2022-04-28 09:13:11,2021-09-20,1.8393299415873567,3.7349515586731408,8.136387783077666,,,,,,,,,,,,
40019,0,USOklahomaCarter,Oklahoma,Carter,2022-04-28 09:13:11,2021-09-21,1.8393299415873567,3.7349515586731408,8.136387783077666,,,,,,,,,,,,
40019,0,USOklahomaCarter,Oklahoma,Carter,2022-04-28 09:13:11,2021-09-22,1.8393299415873567,3.7349515586731408,8.136387783077666,,,,,,,,,,,,
40019,0,USOklahomaCarter,Oklahoma,Carter,2022-04-28 09:13:11,2021-09-23,1.412323129700237,2.9708158047840105,6.71157808917942,,,,,,,,,,,,
40019,0,USOklahomaCarter,Oklahoma,Carter,2022-04-28 09:13:11,2021-09-24,1.412323129700237,2.9708158047840105,6.71157808917942,,,,,,,,,,,,
40019,0,USOklahomaCarter,Oklahoma,Carter,2022-04-28 09:13:11,2021-09-25,1.412323129700237,2.9708158047840105,6.71157808917942,,,,,,,,,,,,
40019,0,USOklahomaCarter,Oklahoma,Carter,2022-04-28 09:13:11,2021-09-26,1.412323129700237,2.9708158047840105,6.71157808917942,,,,,,,,,,,,
40019,0,USOklahomaCarter,Oklahoma,Carter,2022-04-28 09:13:11,2021-09-27,1.412323129700237,2.9708158047840105,6.71157808917942,,,,,,,,,,,,
40019,0,USOklahomaCarter,Oklahoma,Carter,2022-04-28 09:13:11,2021-09-28,1.412323129700237,2.9708158047840105,6.71157808917942,,,,,,,,,,,,
40019,0,USOklahomaCarter,Oklahoma,Carter,2022-04-28 09:13:11,2021-09-29,1.412323129700237,2.9708158047840105,6.71157808917942,,,,,,,,,,,,
40019,0,USOklahomaCarter,Oklahoma,Carter,2022-04-28 09:13:11,2021-09-30,1.1161092782304423,2.502236475092791,6.033239567468124,,,,,,,,,,,,
40019,0,USOklahomaCarter,Oklahoma,Carter,2022-04-28 09:13:11,2021-10-01,1.1161092782304423,2.502236475092791,6.033239567468124,,,,,,,,,,,,
40019,0,USOklahomaCarter,Oklahoma,Carter,2022-04-28 09:13:11,2021-10-02,1.1161092782304423,2.502236475092791,6.033239567468124,,,,,,,,,,,,
40019,0,USOklahomaCarter,Oklahoma,Carter,2022-04-28 09:13:11,2021-10-03,1.1161092782304423,2.502236475092791,6.033239567468124,,,,,,,,,,,,
40019,0,USOklahomaCarter,Oklahoma,Carter,2022-04-28 09:13:11,2021-10-04,1.1161092782304423,2.502236475092791,6.033239567468124,,,,,,,,,,,,
40019,0,USOklahomaCarter,Oklahoma,Carter,2022-04-28 09:13:11,2021-10-05,1.1161092782304423,2.502236475092791,6.033239567468124,,,,,,,,,,,,
40019,0,USOklahomaCarter,Oklahoma,Carter,2022-04-28 09:13:11,2021-10-06,1.1161092782304423,2.502236475092791,6.033239567468124,,,,,,,,,,,,
40019,0,USOklahomaCarter,Oklahoma,Carter,2022-04-28 09:13:11,2021-10-07,1.5612300348898585,4.1566721275089415,11.903585047709972,,,,,,,,,,,,
40019,0,USOklahomaCarter,Oklahoma,Carter,2022-04-28 09:13:11,2021-10-08,1.5612300348898585,4.1566721275089415,11.903585047709972,,,,,,,,,,,,
40019,0,USOklahomaCarter,Oklahoma,Carter,2022-04-28 09:13:11,2021-10-09,1.5612300348898585,4.1566721275089415,11.903585047709972,,,,,,,,,,,,
40019,0,USOklahomaCarter,Oklahoma,Carter,2022-04-28 09:13:11,2021-10-10,1.5612300348898585,4.1566721275089415,11.903585047709972,,,,,,,,,,,,
40019,0,USOklahomaCarter,Oklahoma,Carter,2022-04-28 09:13:11,2021-10-11,1.5612300348898585,4.1566721275089415,11.903585047709972,,,,,,,,,,,,
40019,0,USOklahomaCarter,Oklahoma,Carter,2022-04-28 09:13:11,2021-10-12,1.5612300348898585,4.1566721275089415,11.903585047709972,,,,,,,,,,,,
40019,0,USOklahomaCarter,Oklahoma,Carter,2022-04-28 09:13:11,2021-10-13,1.5612300348898585,4.1566721275089415,11.903585047709972,,,,,,,,,,,,
40019,0,USOklahomaCarter,Oklahoma,Carter,2022-04-28 09:13:11,2021-10-14,1.4545008752090547,3.804466143760963,10.705588659899357,,,,,,,,,,,,
40019,0,USOklahomaCarter,Oklahoma,Carter,2022-04-28 09:13:11,2021-10-15,1.4545008752090547,3.804466143760963,10.705588659899357,,,,,,,,,,,,
40019,0,USOklahomaCarter,Oklahoma,Carter,2022-04-28 09:13:11,2021-10-16,1.4545008752090547,3.804466143760963,10.705588659899357,,,,,,,,,,,,
40019,0,USOklahomaCarter,Oklahoma,Carter,2022-04-28 09:13:11,2021-10-17,1.4545008752090547,3.804466143760963,10.705588659899357,,,,,,,,,,,,
40019,0,USOklahomaCarter,Oklahoma,Carter,2022-04-28 09:13:11,2021-10-18,1.4545008752090547,3.804466143760963,10.705588659899357,,,,,,,,,,,,
40019,0,USOklahomaCarter,Oklahoma,Carter,2022-04-28 09:13:11,2021-10-19,1.4545008752090547,3.804466143760963,10.705588659899357,,,,,,,,,,,,
40019,0,USOklahomaCarter,Oklahoma,Carter,2022-04-28 09:13:11,2021-10-20,1.4545008752090547,3.804466143760963,10.705588659899357,,,,,,,,,,,,
40019,0,USOklahomaCarter,Oklahoma,Carter,2022-04-28 09:13:11,2021-10-21,1.3737068049551477,3.4973261355086582,9.580927253742038,,,,,,,,,,,,
40019,0,USOklahomaCarter,Oklahoma,Carter,2022-04-28 09:13:11,2021-10-22,1.3737068049551477,3.4973261355086582,9.580927253742038,,,,,,,,,,,,
40019,0,USOklahomaCarter,Oklahoma,Carter,2022-04-28 09:13:11,2021-10-23,1.3737068049551477,3.4973261355086582,9.580927253742038,,,,,,,,,,,,
40019,0,USOklahomaCarter,Oklahoma,Carter,2022-04-28 09:13:11,2021-10-24,1.3737068049551477,3.4973261355086582,9.580927253742038,,,,,,,,,,,,
40019,0,USOklahomaCarter,Oklahoma,Carter,2022-04-28 09:13:11,2021-10-25,1.3737068049551477,3.4973261355086582,9.580927253742038,,,,,,,,,,,,
40019,0,USOklahomaCarter,Oklahoma,Carter,2022-04-28 09:13:11,2021-10-26,1.3737068049551477,3.4973261355086582,9.580927253742038,,,,,,,,,,,,
40019,0,USOklahomaCarter,Oklahoma,Carter,2022-04-28 09:13:11,2021-10-27,1.3737068049551477,3.4973261355086582,9.580927253742038,,,,,,,,,,,,
40019,0,USOklahomaCarter,Oklahoma,Carter,2022-04-28 09:13:11,2021-10-28,0.7004735519978169,2.0878619696993637,6.679566924867634,,,,,,,,,,,,
40019,0,USOklahomaCarter,Oklahoma,Carter,2022-04-28 09:13:11,2021-10-29,0.7004735519978169,2.0878619696993637,6.679566924867634,,,,,,,,,,,,
40019,0,USOklahomaCarter,Oklahoma,Carter,2022-04-28 09:13:11,2021-10-30,0.7004735519978169,2.0878619696993637,6.679566924867634,,,,,,,,,,,,
40019,0,USOklahomaCarter,Oklahoma,Carter,2022-04-28 09:13:11,2021-10-31,0.7004735519978169,2.0878619696993637,6.679566924867634,,,,,,,,,,,,
40019,0,USOklahomaCarter,Oklahoma,Carter,2022-04-28 09:13:11,2021-11-01,0.7004735519978169,2.0878619696993637,6.679566924867634,,,,,,,,,,,,
40019,0,USOklahomaCarter,Oklahoma,Carter,2022-04-28 09:13:11,2021-11-02,0.7004735519978169,2.0878619696993637,6.679566924867634,,,,,,,,,,,,
40019,0,USOklahomaCarter,Oklahoma,Carter,2022-04-28 09:13:11,2021-11-03,0.7004735519978169,2.0878619696993637,6.679566924867634,,,,,,,,,,,,
40019,0,USOklahomaCarter,Oklahoma,Carter,2022-04-28 09:13:11,2021-11-04,0,0,0,,,,,,,,,,,,
40019,0,USOklahomaCarter,Oklahoma,Carter,2022-04-28 09:13:11,2021-11-05,0,0,0,,,,,,,,,,,,
40019,0,USOklahomaCarter,Oklahoma,Carter,2022-04-28 09:13:11,2021-11-06,0,0,0,,,,,,,,,,,,
40019,0,USOklahomaCarter,Oklahoma,Carter,2022-04-28 09:13:11,2021-11-07,0,0,0,,,,,,,,,,,,
40019,0,USOklahomaCarter,Oklahoma,Carter,2022-04-28 09:13:11,2021-11-08,0,0,0,,,,,,,,,,,,
40019,0,USOklahomaCarter,Oklahoma,Carter,2022-04-28 09:13:11,2021-11-09,0,0,0,,,,,,,,,,,,
40019,0,USOklahomaCarter,Oklahoma,Carter,2022-04-28 09:13:11,2021-11-10,0,0,0,,,,,,,,,,,,
40019,0,USOklahomaCarter,Oklahoma,Carter,2022-04-28 09:13:11,2021-11-11,1.8365140592149074,4.545675966283028,12.108196006298954,,,,,,,,,,,,
40019,0,USOklahomaCarter,Oklahoma,Carter,2022-04-28 09:13:11,2021-11-12,1.8365140592149074,4.545675966283028,12.108196006298954,,,,,,,,,,,,
40019,0,USOklahomaCarter,Oklahoma,Carter,2022-04-28 09:13:11,2021-11-13,1.8365140592149074,4.545675966283028,12.108196006298954,,,,,,,,,,,,
40019,0,USOklahomaCarter,Oklahoma,Carter,2022-04-28 09:13:11,2021-11-14,1.8365140592149074,4.545675966283028,12.108196006298954,,,,,,,,,,,,
40019,0,USOklahomaCarter,Oklahoma,Carter,2022-04-28 09:13:11,2021-11-15,1.8365140592149074,4.545675966283028,12.108196006298954,,,,,,,,,,,,
40019,0,USOklahomaCarter,Oklahoma,Carter,2022-04-28 09:13:11,2021-11-16,1.8365140592149074,4.545675966283028,12.108196006298954,,,,,,,,,,,,
40019,0,USOklahomaCarter,Oklahoma,Carter,2022-04-28 09:13:11,2021-11-17,1.8365140592149074,4.545675966283028,12.108196006298954,,,,,,,,,,,,
40019,0,USOklahomaCarter,Oklahoma,Carter,2022-04-28 09:13:11,2021-11-18,0.7145508553110463,2.1285142089181743,6.805546648817776,,,,,,,,,,,,
40019,0,USOklahomaCarter,Oklahoma,Carter,2022-04-28 09:13:11,2021-11-19,0.7145508553110463,2.1285142089181743,6.805546648817776,,,,,,,,,,,,
40019,0,USOklahomaCarter,Oklahoma,Carter,2022-04-28 09:13:11,2021-11-20,0.7145508553110463,2.1285142089181743,6.805546648817776,,,,,,,,,,,,
40019,0,USOklahomaCarter,Oklahoma,Carter,2022-04-28 09:13:11,2021-11-21,0.7145508553110463,2.1285142089181743,6.805546648817776,,,,,,,,,,,,
40019,0,USOklahomaCarter,Oklahoma,Carter,2022-04-28 09:13:11,2021-11-22,0.7145508553110463,2.1285142089181743,6.805546648817776,,,,,,,,,,,,
40019,0,USOklahomaCarter,Oklahoma,Carter,2022-04-28 09:13:11,2021-11-23,0.7145508553110463,2.1285142089181743,6.805546648817776,,,,,,,,,,,,
40019,0,USOklahomaCarter,Oklahoma,Carter,2022-04-28 09:13:11,2021-11-24,0.7145508553110463,2.1285142089181743,6.805546648817776,,,,,,,,,,,,
40019,0,USOklahomaCarter,Oklahoma,Carter,2022-04-28 09:13:11,2021-11-25,0.5434077505363599,1.4026963522404197,3.8957335894260017,,,,,,,,,,,,
40019,0,USOklahomaCarter,Oklahoma,Carter,2022-04-28 09:13:11,2021-11-26,0.5434077505363599,1.4026963522404197,3.8957335894260017,,,,,,,,,,,,
40019,0,USOklahomaCarter,Oklahoma,Carter,2022-04-28 09:13:11,2021-11-27,0.5434077505363599,1.4026963522404197,3.8957335894260017,,,,,,,,,,,,
40019,0,USOklahomaCarter,Oklahoma,Carter,2022-04-28 09:13:11,2021-11-28,0.5434077505363599,1.4026963522404197,3.8957335894260017,,,,,,,,,,,,
40019,0,USOklahomaCarter,Oklahoma,Carter,2022-04-28 09:13:11,2021-11-29,0.5434077505363599,1.4026963522404197,3.8957335894260017,,,,,,,,,,,,
40019,0,USOklahomaCarter,Oklahoma,Carter,2022-04-28 09:13:11,2021-11-30,0.5434077505363599,1.4026963522404197,3.8957335894260017,,,,,,,,,,,,
40019,0,USOklahomaCarter,Oklahoma,Carter,2022-04-28 09:13:11,2021-12-01,0.5434077505363599,1.4026963522404197,3.8957335894260017,,,,,,,,,,,,
40019,0,USOklahomaCarter,Oklahoma,Carter,2022-04-28 09:13:11,2021-12-02,0.9326240147830555,2.1690510644933747,5.427772422601502,,,,,,,,,,,,
40019,0,USOklahomaCarter,Oklahoma,Carter,2022-04-28 09:13:11,2021-12-03,0.9326240147830555,2.1690510644933747,5.427772422601502,,,,,,,,,,,,
40019,0,USOklahomaCarter,Oklahoma,Carter,2022-04-28 09:13:11,2021-12-04,0.9326240147830555,2.1690510644933747,5.427772422601502,,,,,,,,,,,,
40019,0,USOklahomaCarter,Oklahoma,Carter,2022-04-28 09:13:11,2021-12-05,0.9326240147830555,2.1690510644933747,5.427772422601502,,,,,,,,,,,,
40019,0,USOklahomaCarter,Oklahoma,Carter,2022-04-28 09:13:11,2021-12-06,0.9326240147830555,2.1690510644933747,5.427772422601502,,,,,,,,,,,,
40019,0,USOklahomaCarter,Oklahoma,Carter,2022-04-28 09:13:11,2021-12-07,0.9326240147830555,2.1690510644933747,5.427772422601502,,,,,,,,,,,,
40019,0,USOklahomaCarter,Oklahoma,Carter,2022-04-28 09:13:11,2021-12-08,0.9326240147830555,2.1690510644933747,5.427772422601502,,,,,,,,,,,,
40019,0,USOklahomaCarter,Oklahoma,Carter,2022-04-28 09:13:11,2021-12-09,0.8934834747598955,2.1588440052097084,5.613469465216496,,,,,,,,,,,,
40019,0,USOklahomaCarter,Oklahoma,Carter,2022-04-28 09:13:11,2021-12-10,0.8934834747598955,2.1588440052097084,5.613469465216496,,,,,,,,,,,,
40019,0,USOklahomaCarter,Oklahoma,Carter,2022-04-28 09:13:11,2021-12-11,0.8934834747598955,2.1588440052097084,5.613469465216496,,,,,,,,,,,,
40019,0,USOklahomaCarter,Oklahoma,Carter,2022-04-28 09:13:11,2021-12-12,0.8934834747598955,2.1588440052097084,5.613469465216496,,,,,,,,,,,,
40019,0,USOklahomaCarter,Oklahoma,Carter,2022-04-28 09:13:11,2021-12-13,0.8934834747598955,2.1588440052097084,5.613469465216496,,,,,,,,,,,,
40019,0,USOklahomaCarter,Oklahoma,Carter,2022-04-28 09:13:11,2021-12-14,0.8934834747598955,2.1588440052097084,5.613469465216496,,,,,,,,,,,,
40019,0,USOklahomaCarter,Oklahoma,Carter,2022-04-28 09:13:11,2021-12-15,0.8934834747598955,2.1588440052097084,5.613469465216496,,,,,,,,,,,,
40019,0,USOklahomaCarter,Oklahoma,Carter,2022-04-28 09:13:11,2021-12-16,0.6799375998365107,1.580685024541487,3.9537453693949907,,,,,,,,,,,,
40019,0,USOklahomaCarter,Oklahoma,Carter,2022-04-28 09:13:11,2021-12-17,0.6799375998365107,1.580685024541487,3.9537453693949907,,,,,,,,,,,,
40019,0,USOklahomaCarter,Oklahoma,Carter,2022-04-28 09:13:11,2021-12-18,0.6799375998365107,1.580685024541487,3.9537453693949907,,,,,,,,,,,,
40019,0,USOklahomaCarter,Oklahoma,Carter,2022-04-28 09:13:11,2021-12-19,0.6799375998365107,1.580685024541487,3.9537453693949907,,,,,,,,,,,,
40019,0,USOklahomaCarter,Oklahoma,Carter,2022-04-28 09:13:11,2021-12-20,0.6799375998365107,1.580685024541487,3.9537453693949907,,,,,,,,,,,,
40019,0,USOklahomaCarter,Oklahoma,Carter,2022-04-28 09:13:11,2021-12-21,0.6799375998365107,1.580685024541487,3.9537453693949907,,,,,,,,,,,,
40019,0,USOklahomaCarter,Oklahoma,Carter,2022-04-28 09:13:11,2021-12-22,0.6799375998365107,1.580685024541487,3.9537453693949907,,,,,,,,,,,,
40019,0,USOklahomaCarter,Oklahoma,Carter,2022-04-28 09:13:11,2021-12-23,0.8474330917098223,2.1768665860288197,6.016749505264516,,,,,,,,,,,,
40019,0,USOklahomaCarter,Oklahoma,Carter,2022-04-28 09:13:11,2021-12-24,0.8474330917098223,2.1768665860288197,6.016749505264516,,,,,,,,,,,,
40019,0,USOklahomaCarter,Oklahoma,Carter,2022-04-28 09:13:11,2021-12-25,0.8474330917098223,2.1768665860288197,6.016749505264516,,,,,,,,,,,,
40019,0,USOklahomaCarter,Oklahoma,Carter,2022-04-28 09:13:11,2021-12-26,0.8474330917098223,2.1768665860288197,6.016749505264516,,,,,,,,,,,,
40019,0,USOklahomaCarter,Oklahoma,Carter,2022-04-28 09:13:11,2021-12-27,0.8474330917098223,2.1768665860288197,6.016749505264516,,,,,,,,,,,,
40019,0,USOklahomaCarter,Oklahoma,Carter,2022-04-28 09:13:11,2021-12-28,0.8474330917098223,2.1768665860288197,6.016749505264516,,,,,,,,,,,,
40019,0,USOklahomaCarter,Oklahoma,Carter,2022-04-28 09:13:11,2021-12-29,0.8474330917098223,2.1768665860288197,6.016749505264516,,,,,,,,,,,,
40019,0,USOklahomaCarter,Oklahoma,Carter,2022-04-28 09:13:11,2021-12-30,2.0108527005644916,4.637841457377863,11.508181851920313,,,,,,,,,,,,
40019,0,USOklahomaCarter,Oklahoma,Carter,2022-04-28 09:13:11,2021-12-31,2.0108527005644916,4.637841457377863,11.508181851920313,,,,,,,,,,,,
40019,0,USOklahomaCarter,Oklahoma,Carter,2022-04-28 09:13:11,2022-01-01,2.0108527005644916,4.637841457377863,11.508181851920313,,,,,,,,,,,,
40019,0,USOklahomaCarter,Oklahoma,Carter,2022-04-28 09:13:11,2022-01-02,2.0108527005644916,4.637841457377863,11.508181851920313,,,,,,,,,,,,
40019,0,USOklahomaCarter,Oklahoma,Carter,2022-04-28 09:13:11,2022-01-03,2.0108527005644916,4.637841457377863,11.508181851920313,,,,,,,,,,,,
40019,0,USOklahomaCarter,Oklahoma,Carter,2022-04-28 09:13:11,2022-01-04,2.0108527005644916,4.637841457377863,11.508181851920313,,,,,,,,,,,,
40019,0,USOklahomaCarter,Oklahoma,Carter,2022-04-28 09:13:11,2022-01-05,2.0108527005644916,4.637841457377863,11.508181851920313,,,,,,,,,,,,
40019,0,USOklahomaCarter,Oklahoma,Carter,2022-04-28 09:13:11,2022-01-06,5.438634282171906,11.716763503560985,27.12668319007251,,,,,,,,,,,,
40019,0,USOklahomaCarter,Oklahoma,Carter,2022-04-28 09:13:11,2022-01-07,5.438634282171906,11.716763503560985,27.12668319007251,,,,,,,,,,,,
40019,0,USOklahomaCarter,Oklahoma,Carter,2022-04-28 09:13:11,2022-01-08,5.438634282171906,11.716763503560985,27.12668319007251,,,,,,,,,,,,
40019,0,USOklahomaCarter,Oklahoma,Carter,2022-04-28 09:13:11,2022-01-09,5.438634282171906,11.716763503560985,27.12668319007251,,,,,,,,,,,,
40019,0,USOklahomaCarter,Oklahoma,Carter,2022-04-28 09:13:11,2022-01-10,5.438634282171906,11.716763503560985,27.12668319007251,,,,,,,,,,,,
40019,0,USOklahomaCarter,Oklahoma,Carter,2022-04-28 09:13:11,2022-01-11,5.438634282171906,11.716763503560985,27.12668319007251,,,,,,,,,,,,
40019,0,USOklahomaCarter,Oklahoma,Carter,2022-04-28 09:13:11,2022-01-12,5.438634282171906,11.716763503560985,27.12668319007251,,,,,,,,,,,,
40019,0,USOklahomaCarter,Oklahoma,Carter,2022-04-28 09:13:11,2022-01-13,7.430490456702349,14.679159762312786,31.077351419905746,,,,,,,,,,,,
40019,0,USOklahomaCarter,Oklahoma,Carter,2022-04-28 09:13:11,2022-01-14,7.430490456702349,14.679159762312786,31.077351419905746,,,,,,,,,,,,
40019,0,USOklahomaCarter,Oklahoma,Carter,2022-04-28 09:13:11,2022-01-15,7.430490456702349,14.679159762312786,31.077351419905746,,,,,,,,,,,,
40019,0,USOklahomaCarter,Oklahoma,Carter,2022-04-28 09:13:11,2022-01-16,7.430490456702349,14.679159762312786,31.077351419905746,,,,,,,,,,,,
40019,0,USOklahomaCarter,Oklahoma,Carter,2022-04-28 09:13:11,2022-01-17,7.430490456702349,14.679159762312786,31.077351419905746,,,,,,,,,,,,
40019,0,USOklahomaCarter,Oklahoma,Carter,2022-04-28 09:13:11,2022-01-18,7.430490456702349,14.679159762312786,31.077351419905746,,,,,,,,,,,,
40019,0,USOklahomaCarter,Oklahoma,Carter,2022-04-28 09:13:11,2022-01-19,7.430490456702349,14.679159762312786,31.077351419905746,,,,,,,,,,,,
40019,0,USOklahomaCarter,Oklahoma,Carter,2022-04-28 09:13:11,2022-01-20,9.135992871028781,15.491229758856335,27.88971573631351,,,,,,,,,,,,
40019,0,USOklahomaCarter,Oklahoma,Carter,2022-04-28 09:13:11,2022-01-21,9.135992871028781,15.491229758856335,27.88971573631351,,,,,,,,,,,,
40019,0,USOklahomaCarter,Oklahoma,Carter,2022-04-28 09:13:11,2022-01-22,9.135992871028781,15.491229758856335,27.88971573631351,,,,,,,,,,,,
40019,0,USOklahomaCarter,Oklahoma,Carter,2022-04-28 09:13:11,2022-01-23,9.135992871028781,15.491229758856335,27.88971573631351,,,,,,,,,,,,
40019,0,USOklahomaCarter,Oklahoma,Carter,2022-04-28 09:13:11,2022-01-24,9.135992871028781,15.491229758856335,27.88971573631351,,,,,,,,,,,,
40019,0,USOklahomaCarter,Oklahoma,Carter,2022-04-28 09:13:11,2022-01-25,9.135992871028781,15.491229758856335,27.88971573631351,,,,,,,,,,,,
40019,0,USOklahomaCarter,Oklahoma,Carter,2022-04-28 09:13:11,2022-01-26,9.135992871028781,15.491229758856335,27.88971573631351,,,,,,,,,,,,
40019,0,USOklahomaCarter,Oklahoma,Carter,2022-04-28 09:13:11,2022-01-27,5.38383429515179,9.330719126169342,17.199024338686826,,,,,,,,,,,,
40019,0,USOklahomaCarter,Oklahoma,Carter,2022-04-28 09:13:11,2022-01-28,5.38383429515179,9.330719126169342,17.199024338686826,,,,,,,,,,,,
40019,0,USOklahomaCarter,Oklahoma,Carter,2022-04-28 09:13:11,2022-01-29,5.38383429515179,9.330719126169342,17.199024338686826,,,,,,,,,,,,
40019,0,USOklahomaCarter,Oklahoma,Carter,2022-04-28 09:13:11,2022-01-30,5.38383429515179,9.330719126169342,17.199024338686826,,,,,,,,,,,,
40019,0,USOklahomaCarter,Oklahoma,Carter,2022-04-28 09:13:11,2022-01-31,5.38383429515179,9.330719126169342,17.199024338686826,,,,,,,,,,,,
40019,0,USOklahomaCarter,Oklahoma,Carter,2022-04-28 09:13:11,2022-02-01,5.38383429515179,9.330719126169342,17.199024338686826,,,,,,,,,,,,
40019,0,USOklahomaCarter,Oklahoma,Carter,2022-04-28 09:13:11,2022-02-02,5.38383429515179,9.330719126169342,17.199024338686826,,,,,,,,,,,,
40019,0,USOklahomaCarter,Oklahoma,Carter,2022-04-28 09:13:11,2022-02-03,1.842924571919594,3.009449403034682,5.201082707363553,,,,,,,,,,,,
40019,0,USOklahomaCarter,Oklahoma,Carter,2022-04-28 09:13:11,2022-02-04,1.842924571919594,3.009449403034682,5.201082707363553,,,,,,,,,,,,
40019,0,USOklahomaCarter,Oklahoma,Carter,2022-04-28 09:13:11,2022-02-05,1.842924571919594,3.009449403034682,5.201082707363553,,,,,,,,,,,,
40019,0,USOklahomaCarter,Oklahoma,Carter,2022-04-28 09:13:11,2022-02-06,1.842924571919594,3.009449403034682,5.201082707363553,,,,,,,,,,,,
40019,0,USOklahomaCarter,Oklahoma,Carter,2022-04-28 09:13:11,2022-02-07,1.842924571919594,3.009449403034682,5.201082707363553,,,,,,,,,,,,
40019,0,USOklahomaCarter,Oklahoma,Carter,2022-04-28 09:13:11,2022-02-08,1.842924571919594,3.009449403034682,5.201082707363553,,,,,,,,,,,,
40019,0,USOklahomaCarter,Oklahoma,Carter,2022-04-28 09:13:11,2022-02-09,1.842924571919594,3.009449403034682,5.201082707363553,,,,,,,,,,,,
40019,0,USOklahomaCarter,Oklahoma,Carter,2022-04-28 09:13:11,2022-02-10,1.0500890185115932,2.120705687293208,4.593779756189669,,,,,,,,,,,,
40019,0,USOklahomaCarter,Oklahoma,Carter,2022-04-28 09:13:11,2022-02-11,1.0500890185115932,2.120705687293208,4.593779756189669,,,,,,,,,,,,
40019,0,USOklahomaCarter,Oklahoma,Carter,2022-04-28 09:13:11,2022-02-12,1.0500890185115932,2.120705687293208,4.593779756189669,,,,,,,,,,,,
40019,0,USOklahomaCarter,Oklahoma,Carter,2022-04-28 09:13:11,2022-02-13,1.0500890185115932,2.120705687293208,4.593779756189669,,,,,,,,,,,,
40019,0,USOklahomaCarter,Oklahoma,Carter,2022-04-28 09:13:11,2022-02-14,1.0500890185115932,2.120705687293208,4.593779756189669,,,,,,,,,,,,
40019,0,USOklahomaCarter,Oklahoma,Carter,2022-04-28 09:13:11,2022-02-15,1.0500890185115932,2.120705687293208,4.593779756189669,,,,,,,,,,,,
40019,0,USOklahomaCarter,Oklahoma,Carter,2022-04-28 09:13:11,2022-02-16,1.0500890185115932,2.120705687293208,4.593779756189669,,,,,,,,,,,,
40019,0,USOklahomaCarter,Oklahoma,Carter,2022-04-28 09:13:11,2022-02-17,1.4420281290011085,2.9790002732870993,6.606027906018111,,,,,,,,,,,,
40019,0,USOklahomaCarter,Oklahoma,Carter,2022-04-28 09:13:11,2022-02-18,1.4420281290011085,2.9790002732870993,6.606027906018111,,,,,,,,,,,,
40019,0,USOklahomaCarter,Oklahoma,Carter,2022-04-28 09:13:11,2022-02-19,1.4420281290011085,2.9790002732870993,6.606027906018111,,,,,,,,,,,,
40019,0,USOklahomaCarter,Oklahoma,Carter,2022-04-28 09:13:11,2022-02-20,1.4420281290011085,2.9790002732870993,6.606027906018111,,,,,,,,,,,,
40019,0,USOklahomaCarter,Oklahoma,Carter,2022-04-28 09:13:11,2022-02-21,1.4420281290011085,2.9790002732870993,6.606027906018111,,,,,,,,,,,,
40019,0,USOklahomaCarter,Oklahoma,Carter,2022-04-28 09:13:11,2022-02-22,1.4420281290011085,2.9790002732870993,6.606027906018111,,,,,,,,,,,,
40019,0,USOklahomaCarter,Oklahoma,Carter,2022-04-28 09:13:11,2022-02-23,1.4420281290011085,2.9790002732870993,6.606027906018111,,,,,,,,,,,,
40019,0,USOklahomaCarter,Oklahoma,Carter,2022-04-28 09:13:11,2022-02-24,2.224440128808424,4.006505217568361,7.695568827769167,,,,,,,,,,,,
40019,0,USOklahomaCarter,Oklahoma,Carter,2022-04-28 09:13:11,2022-02-25,2.224440128808424,4.006505217568361,7.695568827769167,,,,,,,,,,,,
40019,0,USOklahomaCarter,Oklahoma,Carter,2022-04-28 09:13:11,2022-02-26,2.224440128808424,4.006505217568361,7.695568827769167,,,,,,,,,,,,
40019,0,USOklahomaCarter,Oklahoma,Carter,2022-04-28 09:13:11,2022-02-27,2.224440128808424,4.006505217568361,7.695568827769167,,,,,,,,,,,,
40019,0,USOklahomaCarter,Oklahoma,Carter,2022-04-28 09:13:11,2022-02-28,2.224440128808424,4.006505217568361,7.695568827769167,,,,,,,,,,,,
40019,0,USOklahomaCarter,Oklahoma,Carter,2022-04-28 09:13:11,2022-03-01,2.224440128808424,4.006505217568361,7.695568827769167,,,,,,,,,,,,
40019,0,USOklahomaCarter,Oklahoma,Carter,2022-04-28 09:13:11,2022-03-02,2.224440128808424,4.006505217568361,7.695568827769167,,,,,,,,,,,,
