FIPS,HR_UID,nameid,province,region,analysisTime,dates,pointprevalence_025,pointprevalence_50,pointprevalence_975,pointinfections_025,pointinfections_50,pointinfections_975,pointinfectious_025,pointinfectious_50,pointinfectious_975,pointinfectiousprevalence_025,pointinfectiousprevalence_50,pointinfectiousprevalence_975,infectrate_025,infectrate_50,infectrate_975
46105,0,USSouthDakotaPerkins,South Dakota,Perkins,2022-04-28 09:13:11,2020-03-19,0,0,0,,,,,,,,,,,,
46105,0,USSouthDakotaPerkins,South Dakota,Perkins,2022-04-28 09:13:11,2020-03-20,0,0,0,,,,,,,,,,,,
46105,0,USSouthDakotaPerkins,South Dakota,Perkins,2022-04-28 09:13:11,2020-03-21,0,0,0,,,,,,,,,,,,
46105,0,USSouthDakotaPerkins,South Dakota,Perkins,2022-04-28 09:13:11,2020-03-22,0,0,0,,,,,,,,,,,,
46105,0,USSouthDakotaPerkins,South Dakota,Perkins,2022-04-28 09:13:11,2020-03-23,0,0,0,,,,,,,,,,,,
46105,0,USSouthDakotaPerkins,South Dakota,Perkins,2022-04-28 09:13:11,2020-03-24,0,0,0,,,,,,,,,,,,
46105,0,USSouthDakotaPerkins,South Dakota,Perkins,2022-04-28 09:13:11,2020-03-25,0,0,0,,,,,,,,,,,,
46105,0,USSouthDakotaPerkins,South Dakota,Perkins,2022-04-28 09:13:11,2020-03-26,0,0,0,,,,,,,,,,,,
46105,0,USSouthDakotaPerkins,South Dakota,Perkins,2022-04-28 09:13:11,2020-03-27,0,0,0,,,,,,,,,,,,
46105,0,USSouthDakotaPerkins,South Dakota,Perkins,2022-04-28 09:13:11,2020-03-28,0,0,0,,,,,,,,,,,,
46105,0,USSouthDakotaPerkins,South Dakota,Perkins,2022-04-28 09:13:11,2020-03-29,0,0,0,,,,,,,,,,,,
46105,0,USSouthDakotaPerkins,South Dakota,Perkins,2022-04-28 09:13:11,2020-03-30,0,0,0,,,,,,,,,,,,
46105,0,USSouthDakotaPerkins,South Dakota,Perkins,2022-04-28 09:13:11,2020-03-31,0,0,0,,,,,,,,,,,,
46105,0,USSouthDakotaPerkins,South Dakota,Perkins,2022-04-28 09:13:11,2020-04-01,0,0,0,,,,,,,,,,,,
46105,0,USSouthDakotaPerkins,South Dakota,Perkins,2022-04-28 09:13:11,2020-04-02,0,0,0,,,,,,,,,,,,
46105,0,USSouthDakotaPerkins,South Dakota,Perkins,2022-04-28 09:13:11,2020-04-03,0,0,0,,,,,,,,,,,,
46105,0,USSouthDakotaPerkins,South Dakota,Perkins,2022-04-28 09:13:11,2020-04-04,0,0,0,,,,,,,,,,,,
46105,0,USSouthDakotaPerkins,South Dakota,Perkins,2022-04-28 09:13:11,2020-04-05,0,0,0,,,,,,,,,,,,
46105,0,USSouthDakotaPerkins,South Dakota,Perkins,2022-04-28 09:13:11,2020-04-06,0,0,0,,,,,,,,,,,,
46105,0,USSouthDakotaPerkins,South Dakota,Perkins,2022-04-28 09:13:11,2020-04-07,0,0,0,,,,,,,,,,,,
46105,0,USSouthDakotaPerkins,South Dakota,Perkins,2022-04-28 09:13:11,2020-04-08,0,0,0,,,,,,,,,,,,
46105,0,USSouthDakotaPerkins,South Dakota,Perkins,2022-04-28 09:13:11,2020-04-09,0,0,0,,,,,,,,,,,,
46105,0,USSouthDakotaPerkins,South Dakota,Perkins,2022-04-28 09:13:11,2020-04-10,0,0,0,,,,,,,,,,,,
46105,0,USSouthDakotaPerkins,South Dakota,Perkins,2022-04-28 09:13:11,2020-04-11,0,0,0,,,,,,,,,,,,
46105,0,USSouthDakotaPerkins,South Dakota,Perkins,2022-04-28 09:13:11,2020-04-12,0,0,0,,,,,,,,,,,,
46105,0,USSouthDakotaPerkins,South Dakota,Perkins,2022-04-28 09:13:11,2020-04-13,0,0,0,,,,,,,,,,,,
46105,0,USSouthDakotaPerkins,South Dakota,Perkins,2022-04-28 09:13:11,2020-04-14,0,0,0,,,,,,,,,,,,
46105,0,USSouthDakotaPerkins,South Dakota,Perkins,2022-04-28 09:13:11,2020-04-15,0,0,0,,,,,,,,,,,,
46105,0,USSouthDakotaPerkins,South Dakota,Perkins,2022-04-28 09:13:11,2020-04-16,0,0,0,,,,,,,,,,,,
46105,0,USSouthDakotaPerkins,South Dakota,Perkins,2022-04-28 09:13:11,2020-04-17,0,0,0,,,,,,,,,,,,
46105,0,USSouthDakotaPerkins,South Dakota,Perkins,2022-04-28 09:13:11,2020-04-18,0,0,0,,,,,,,,,,,,
46105,0,USSouthDakotaPerkins,South Dakota,Perkins,2022-04-28 09:13:11,2020-04-19,0,0,0,,,,,,,,,,,,
46105,0,USSouthDakotaPerkins,South Dakota,Perkins,2022-04-28 09:13:11,2020-04-20,0,0,0,,,,,,,,,,,,
46105,0,USSouthDakotaPerkins,South Dakota,Perkins,2022-04-28 09:13:11,2020-04-21,0,0,0,,,,,,,,,,,,
46105,0,USSouthDakotaPerkins,South Dakota,Perkins,2022-04-28 09:13:11,2020-04-22,0,0,0,,,,,,,,,,,,
46105,0,USSouthDakotaPerkins,South Dakota,Perkins,2022-04-28 09:13:11,2020-04-23,0,0,0,,,,,,,,,,,,
46105,0,USSouthDakotaPerkins,South Dakota,Perkins,2022-04-28 09:13:11,2020-04-24,0,0,0,,,,,,,,,,,,
46105,0,USSouthDakotaPerkins,South Dakota,Perkins,2022-04-28 09:13:11,2020-04-25,0,0,0,,,,,,,,,,,,
46105,0,USSouthDakotaPerkins,South Dakota,Perkins,2022-04-28 09:13:11,2020-04-26,0,0,0,,,,,,,,,,,,
46105,0,USSouthDakotaPerkins,South Dakota,Perkins,2022-04-28 09:13:11,2020-04-27,0,0,0,,,,,,,,,,,,
46105,0,USSouthDakotaPerkins,South Dakota,Perkins,2022-04-28 09:13:11,2020-04-28,0,0,0,,,,,,,,,,,,
46105,0,USSouthDakotaPerkins,South Dakota,Perkins,2022-04-28 09:13:11,2020-04-29,0,0,0,,,,,,,,,,,,
46105,0,USSouthDakotaPerkins,South Dakota,Perkins,2022-04-28 09:13:11,2020-04-30,0,0,0,,,,,,,,,,,,
46105,0,USSouthDakotaPerkins,South Dakota,Perkins,2022-04-28 09:13:11,2020-05-01,0,0,0,,,,,,,,,,,,
46105,0,USSouthDakotaPerkins,South Dakota,Perkins,2022-04-28 09:13:11,2020-05-02,0,0,0,,,,,,,,,,,,
46105,0,USSouthDakotaPerkins,South Dakota,Perkins,2022-04-28 09:13:11,2020-05-03,0,0,0,,,,,,,,,,,,
46105,0,USSouthDakotaPerkins,South Dakota,Perkins,2022-04-28 09:13:11,2020-05-04,0,0,0,,,,,,,,,,,,
46105,0,USSouthDakotaPerkins,South Dakota,Perkins,2022-04-28 09:13:11,2020-05-05,0,0,0,,,,,,,,,,,,
46105,0,USSouthDakotaPerkins,South Dakota,Perkins,2022-04-28 09:13:11,2020-05-06,0,0,0,,,,,,,,,,,,
46105,0,USSouthDakotaPerkins,South Dakota,Perkins,2022-04-28 09:13:11,2020-05-07,0,0,0,,,,,,,,,,,,
46105,0,USSouthDakotaPerkins,South Dakota,Perkins,2022-04-28 09:13:11,2020-05-08,0,0,0,,,,,,,,,,,,
46105,0,USSouthDakotaPerkins,South Dakota,Perkins,2022-04-28 09:13:11,2020-05-09,0,0,0,,,,,,,,,,,,
46105,0,USSouthDakotaPerkins,South Dakota,Perkins,2022-04-28 09:13:11,2020-05-10,0,0,0,,,,,,,,,,,,
46105,0,USSouthDakotaPerkins,South Dakota,Perkins,2022-04-28 09:13:11,2020-05-11,0,0,0,,,,,,,,,,,,
46105,0,USSouthDakotaPerkins,South Dakota,Perkins,2022-04-28 09:13:11,2020-05-12,0,0,0,,,,,,,,,,,,
46105,0,USSouthDakotaPerkins,South Dakota,Perkins,2022-04-28 09:13:11,2020-05-13,0,0,0,,,,,,,,,,,,
46105,0,USSouthDakotaPerkins,South Dakota,Perkins,2022-04-28 09:13:11,2020-05-14,0,0,0,,,,,,,,,,,,
46105,0,USSouthDakotaPerkins,South Dakota,Perkins,2022-04-28 09:13:11,2020-05-15,0,0,0,,,,,,,,,,,,
46105,0,USSouthDakotaPerkins,South Dakota,Perkins,2022-04-28 09:13:11,2020-05-16,0,0,0,,,,,,,,,,,,
46105,0,USSouthDakotaPerkins,South Dakota,Perkins,2022-04-28 09:13:11,2020-05-17,0,0,0,,,,,,,,,,,,
46105,0,USSouthDakotaPerkins,South Dakota,Perkins,2022-04-28 09:13:11,2020-05-18,0,0,0,,,,,,,,,,,,
46105,0,USSouthDakotaPerkins,South Dakota,Perkins,2022-04-28 09:13:11,2020-05-19,0,0,0,,,,,,,,,,,,
46105,0,USSouthDakotaPerkins,South Dakota,Perkins,2022-04-28 09:13:11,2020-05-20,0,0,0,,,,,,,,,,,,
46105,0,USSouthDakotaPerkins,South Dakota,Perkins,2022-04-28 09:13:11,2020-05-21,0,0,0,,,,,,,,,,,,
46105,0,USSouthDakotaPerkins,South Dakota,Perkins,2022-04-28 09:13:11,2020-05-22,0,0,0,,,,,,,,,,,,
46105,0,USSouthDakotaPerkins,South Dakota,Perkins,2022-04-28 09:13:11,2020-05-23,0,0,0,,,,,,,,,,,,
46105,0,USSouthDakotaPerkins,South Dakota,Perkins,2022-04-28 09:13:11,2020-05-24,0,0,0,,,,,,,,,,,,
46105,0,USSouthDakotaPerkins,South Dakota,Perkins,2022-04-28 09:13:11,2020-05-25,0,0,0,,,,,,,,,,,,
46105,0,USSouthDakotaPerkins,South Dakota,Perkins,2022-04-28 09:13:11,2020-05-26,0,0,0,,,,,,,,,,,,
46105,0,USSouthDakotaPerkins,South Dakota,Perkins,2022-04-28 09:13:11,2020-05-27,0,0,0,,,,,,,,,,,,
46105,0,USSouthDakotaPerkins,South Dakota,Perkins,2022-04-28 09:13:11,2020-05-28,0,0,0,,,,,,,,,,,,
46105,0,USSouthDakotaPerkins,South Dakota,Perkins,2022-04-28 09:13:11,2020-05-29,0,0,0,,,,,,,,,,,,
46105,0,USSouthDakotaPerkins,South Dakota,Perkins,2022-04-28 09:13:11,2020-05-30,0,0,0,,,,,,,,,,,,
46105,0,USSouthDakotaPerkins,South Dakota,Perkins,2022-04-28 09:13:11,2020-05-31,0,0,0,,,,,,,,,,,,
46105,0,USSouthDakotaPerkins,South Dakota,Perkins,2022-04-28 09:13:11,2020-06-01,0,0,0,,,,,,,,,,,,
46105,0,USSouthDakotaPerkins,South Dakota,Perkins,2022-04-28 09:13:11,2020-06-02,0,0,0,,,,,,,,,,,,
46105,0,USSouthDakotaPerkins,South Dakota,Perkins,2022-04-28 09:13:11,2020-06-03,0,0,0,,,,,,,,,,,,
46105,0,USSouthDakotaPerkins,South Dakota,Perkins,2022-04-28 09:13:11,2020-06-04,0,0,0,,,,,,,,,,,,
46105,0,USSouthDakotaPerkins,South Dakota,Perkins,2022-04-28 09:13:11,2020-06-05,0,0,0,,,,,,,,,,,,
46105,0,USSouthDakotaPerkins,South Dakota,Perkins,2022-04-28 09:13:11,2020-06-06,0,0,0,,,,,,,,,,,,
46105,0,USSouthDakotaPerkins,South Dakota,Perkins,2022-04-28 09:13:11,2020-06-07,0,0,0,,,,,,,,,,,,
46105,0,USSouthDakotaPerkins,South Dakota,Perkins,2022-04-28 09:13:11,2020-06-08,0,0,0,,,,,,,,,,,,
46105,0,USSouthDakotaPerkins,South Dakota,Perkins,2022-04-28 09:13:11,2020-06-09,0,0,0,,,,,,,,,,,,
46105,0,USSouthDakotaPerkins,South Dakota,Perkins,2022-04-28 09:13:11,2020-06-10,0,0,0,,,,,,,,,,,,
46105,0,USSouthDakotaPerkins,South Dakota,Perkins,2022-04-28 09:13:11,2020-06-11,0,0,0,,,,,,,,,,,,
46105,0,USSouthDakotaPerkins,South Dakota,Perkins,2022-04-28 09:13:11,2020-06-12,0,0,0,,,,,,,,,,,,
46105,0,USSouthDakotaPerkins,South Dakota,Perkins,2022-04-28 09:13:11,2020-06-13,0,0,0,,,,,,,,,,,,
46105,0,USSouthDakotaPerkins,South Dakota,Perkins,2022-04-28 09:13:11,2020-06-14,0,0,0,,,,,,,,,,,,
46105,0,USSouthDakotaPerkins,South Dakota,Perkins,2022-04-28 09:13:11,2020-06-15,0,0,0,,,,,,,,,,,,
46105,0,USSouthDakotaPerkins,South Dakota,Perkins,2022-04-28 09:13:11,2020-06-16,0,0,0,,,,,,,,,,,,
46105,0,USSouthDakotaPerkins,South Dakota,Perkins,2022-04-28 09:13:11,2020-06-17,0,0,0,,,,,,,,,,,,
46105,0,USSouthDakotaPerkins,South Dakota,Perkins,2022-04-28 09:13:11,2020-06-18,0,0,0,,,,,,,,,,,,
46105,0,USSouthDakotaPerkins,South Dakota,Perkins,2022-04-28 09:13:11,2020-06-19,0,0,0,,,,,,,,,,,,
46105,0,USSouthDakotaPerkins,South Dakota,Perkins,2022-04-28 09:13:11,2020-06-20,0,0,0,,,,,,,,,,,,
46105,0,USSouthDakotaPerkins,South Dakota,Perkins,2022-04-28 09:13:11,2020-06-21,0,0,0,,,,,,,,,,,,
46105,0,USSouthDakotaPerkins,South Dakota,Perkins,2022-04-28 09:13:11,2020-06-22,0,0,0,,,,,,,,,,,,
46105,0,USSouthDakotaPerkins,South Dakota,Perkins,2022-04-28 09:13:11,2020-06-23,0,0,0,,,,,,,,,,,,
46105,0,USSouthDakotaPerkins,South Dakota,Perkins,2022-04-28 09:13:11,2020-06-24,0,0,0,,,,,,,,,,,,
46105,0,USSouthDakotaPerkins,South Dakota,Perkins,2022-04-28 09:13:11,2020-06-25,0,0,0,,,,,,,,,,,,
46105,0,USSouthDakotaPerkins,South Dakota,Perkins,2022-04-28 09:13:11,2020-06-26,0,0,0,,,,,,,,,,,,
46105,0,USSouthDakotaPerkins,South Dakota,Perkins,2022-04-28 09:13:11,2020-06-27,0,0,0,,,,,,,,,,,,
46105,0,USSouthDakotaPerkins,South Dakota,Perkins,2022-04-28 09:13:11,2020-06-28,0,0,0,,,,,,,,,,,,
46105,0,USSouthDakotaPerkins,South Dakota,Perkins,2022-04-28 09:13:11,2020-06-29,0,0,0,,,,,,,,,,,,
46105,0,USSouthDakotaPerkins,South Dakota,Perkins,2022-04-28 09:13:11,2020-06-30,0,0,0,,,,,,,,,,,,
46105,0,USSouthDakotaPerkins,South Dakota,Perkins,2022-04-28 09:13:11,2020-07-01,0,0,0,,,,,,,,,,,,
46105,0,USSouthDakotaPerkins,South Dakota,Perkins,2022-04-28 09:13:11,2020-07-02,0,0,0,,,,,,,,,,,,
46105,0,USSouthDakotaPerkins,South Dakota,Perkins,2022-04-28 09:13:11,2020-07-03,0,0,0,,,,,,,,,,,,
46105,0,USSouthDakotaPerkins,South Dakota,Perkins,2022-04-28 09:13:11,2020-07-04,0,0,0,,,,,,,,,,,,
46105,0,USSouthDakotaPerkins,South Dakota,Perkins,2022-04-28 09:13:11,2020-07-05,0,0,0,,,,,,,,,,,,
46105,0,USSouthDakotaPerkins,South Dakota,Perkins,2022-04-28 09:13:11,2020-07-06,0,0,0,,,,,,,,,,,,
46105,0,USSouthDakotaPerkins,South Dakota,Perkins,2022-04-28 09:13:11,2020-07-07,0,0,0,,,,,,,,,,,,
46105,0,USSouthDakotaPerkins,South Dakota,Perkins,2022-04-28 09:13:11,2020-07-08,0,0,0,,,,,,,,,,,,
46105,0,USSouthDakotaPerkins,South Dakota,Perkins,2022-04-28 09:13:11,2020-07-09,0.17892063011556333,0.40538912121493564,0.98798302916203,,,,,,,,,,,,
46105,0,USSouthDakotaPerkins,South Dakota,Perkins,2022-04-28 09:13:11,2020-07-10,0.17892063011556333,0.40538912121493564,0.98798302916203,,,,,,,,,,,,
46105,0,USSouthDakotaPerkins,South Dakota,Perkins,2022-04-28 09:13:11,2020-07-11,0.17892063011556333,0.40538912121493564,0.98798302916203,,,,,,,,,,,,
46105,0,USSouthDakotaPerkins,South Dakota,Perkins,2022-04-28 09:13:11,2020-07-12,0.17892063011556333,0.40538912121493564,0.98798302916203,,,,,,,,,,,,
46105,0,USSouthDakotaPerkins,South Dakota,Perkins,2022-04-28 09:13:11,2020-07-13,0.17892063011556333,0.40538912121493564,0.98798302916203,,,,,,,,,,,,
46105,0,USSouthDakotaPerkins,South Dakota,Perkins,2022-04-28 09:13:11,2020-07-14,0.17892063011556333,0.40538912121493564,0.98798302916203,,,,,,,,,,,,
46105,0,USSouthDakotaPerkins,South Dakota,Perkins,2022-04-28 09:13:11,2020-07-15,0.17892063011556333,0.40538912121493564,0.98798302916203,,,,,,,,,,,,
46105,0,USSouthDakotaPerkins,South Dakota,Perkins,2022-04-28 09:13:11,2020-07-16,0.41340677466691345,0.7393863912153292,1.4095983483915386,,,,,,,,,,,,
46105,0,USSouthDakotaPerkins,South Dakota,Perkins,2022-04-28 09:13:11,2020-07-17,0.41340677466691345,0.7393863912153292,1.4095983483915386,,,,,,,,,,,,
46105,0,USSouthDakotaPerkins,South Dakota,Perkins,2022-04-28 09:13:11,2020-07-18,0.41340677466691345,0.7393863912153292,1.4095983483915386,,,,,,,,,,,,
46105,0,USSouthDakotaPerkins,South Dakota,Perkins,2022-04-28 09:13:11,2020-07-19,0.41340677466691345,0.7393863912153292,1.4095983483915386,,,,,,,,,,,,
46105,0,USSouthDakotaPerkins,South Dakota,Perkins,2022-04-28 09:13:11,2020-07-20,0.41340677466691345,0.7393863912153292,1.4095983483915386,,,,,,,,,,,,
46105,0,USSouthDakotaPerkins,South Dakota,Perkins,2022-04-28 09:13:11,2020-07-21,0.41340677466691345,0.7393863912153292,1.4095983483915386,,,,,,,,,,,,
46105,0,USSouthDakotaPerkins,South Dakota,Perkins,2022-04-28 09:13:11,2020-07-22,0.41340677466691345,0.7393863912153292,1.4095983483915386,,,,,,,,,,,,
46105,0,USSouthDakotaPerkins,South Dakota,Perkins,2022-04-28 09:13:11,2020-07-23,0.31881970436587137,0.6511467799636699,1.4269923553889907,,,,,,,,,,,,
46105,0,USSouthDakotaPerkins,South Dakota,Perkins,2022-04-28 09:13:11,2020-07-24,0.31881970436587137,0.6511467799636699,1.4269923553889907,,,,,,,,,,,,
46105,0,USSouthDakotaPerkins,South Dakota,Perkins,2022-04-28 09:13:11,2020-07-25,0.31881970436587137,0.6511467799636699,1.4269923553889907,,,,,,,,,,,,
46105,0,USSouthDakotaPerkins,South Dakota,Perkins,2022-04-28 09:13:11,2020-07-26,0.31881970436587137,0.6511467799636699,1.4269923553889907,,,,,,,,,,,,
46105,0,USSouthDakotaPerkins,South Dakota,Perkins,2022-04-28 09:13:11,2020-07-27,0.31881970436587137,0.6511467799636699,1.4269923553889907,,,,,,,,,,,,
46105,0,USSouthDakotaPerkins,South Dakota,Perkins,2022-04-28 09:13:11,2020-07-28,0.31881970436587137,0.6511467799636699,1.4269923553889907,,,,,,,,,,,,
46105,0,USSouthDakotaPerkins,South Dakota,Perkins,2022-04-28 09:13:11,2020-07-29,0.31881970436587137,0.6511467799636699,1.4269923553889907,,,,,,,,,,,,
46105,0,USSouthDakotaPerkins,South Dakota,Perkins,2022-04-28 09:13:11,2020-07-30,0,0,0,,,,,,,,,,,,
46105,0,USSouthDakotaPerkins,South Dakota,Perkins,2022-04-28 09:13:11,2020-07-31,0,0,0,,,,,,,,,,,,
46105,0,USSouthDakotaPerkins,South Dakota,Perkins,2022-04-28 09:13:11,2020-08-01,0,0,0,,,,,,,,,,,,
46105,0,USSouthDakotaPerkins,South Dakota,Perkins,2022-04-28 09:13:11,2020-08-02,0,0,0,,,,,,,,,,,,
46105,0,USSouthDakotaPerkins,South Dakota,Perkins,2022-04-28 09:13:11,2020-08-03,0,0,0,,,,,,,,,,,,
46105,0,USSouthDakotaPerkins,South Dakota,Perkins,2022-04-28 09:13:11,2020-08-04,0,0,0,,,,,,,,,,,,
46105,0,USSouthDakotaPerkins,South Dakota,Perkins,2022-04-28 09:13:11,2020-08-05,0,0,0,,,,,,,,,,,,
46105,0,USSouthDakotaPerkins,South Dakota,Perkins,2022-04-28 09:13:11,2020-08-06,0,0,0,,,,,,,,,,,,
46105,0,USSouthDakotaPerkins,South Dakota,Perkins,2022-04-28 09:13:11,2020-08-07,0,0,0,,,,,,,,,,,,
46105,0,USSouthDakotaPerkins,South Dakota,Perkins,2022-04-28 09:13:11,2020-08-08,0,0,0,,,,,,,,,,,,
46105,0,USSouthDakotaPerkins,South Dakota,Perkins,2022-04-28 09:13:11,2020-08-09,0,0,0,,,,,,,,,,,,
46105,0,USSouthDakotaPerkins,South Dakota,Perkins,2022-04-28 09:13:11,2020-08-10,0,0,0,,,,,,,,,,,,
46105,0,USSouthDakotaPerkins,South Dakota,Perkins,2022-04-28 09:13:11,2020-08-11,0,0,0,,,,,,,,,,,,
46105,0,USSouthDakotaPerkins,South Dakota,Perkins,2022-04-28 09:13:11,2020-08-12,0,0,0,,,,,,,,,,,,
46105,0,USSouthDakotaPerkins,South Dakota,Perkins,2022-04-28 09:13:11,2020-08-13,0,0,0,,,,,,,,,,,,
46105,0,USSouthDakotaPerkins,South Dakota,Perkins,2022-04-28 09:13:11,2020-08-14,0,0,0,,,,,,,,,,,,
46105,0,USSouthDakotaPerkins,South Dakota,Perkins,2022-04-28 09:13:11,2020-08-15,0,0,0,,,,,,,,,,,,
46105,0,USSouthDakotaPerkins,South Dakota,Perkins,2022-04-28 09:13:11,2020-08-16,0,0,0,,,,,,,,,,,,
46105,0,USSouthDakotaPerkins,South Dakota,Perkins,2022-04-28 09:13:11,2020-08-17,0,0,0,,,,,,,,,,,,
46105,0,USSouthDakotaPerkins,South Dakota,Perkins,2022-04-28 09:13:11,2020-08-18,0,0,0,,,,,,,,,,,,
46105,0,USSouthDakotaPerkins,South Dakota,Perkins,2022-04-28 09:13:11,2020-08-19,0,0,0,,,,,,,,,,,,
46105,0,USSouthDakotaPerkins,South Dakota,Perkins,2022-04-28 09:13:11,2020-08-20,0.5133120383809422,1.117455652739887,2.6148677690581814,,,,,,,,,,,,
46105,0,USSouthDakotaPerkins,South Dakota,Perkins,2022-04-28 09:13:11,2020-08-21,0.5133120383809422,1.117455652739887,2.6148677690581814,,,,,,,,,,,,
46105,0,USSouthDakotaPerkins,South Dakota,Perkins,2022-04-28 09:13:11,2020-08-22,0.5133120383809422,1.117455652739887,2.6148677690581814,,,,,,,,,,,,
46105,0,USSouthDakotaPerkins,South Dakota,Perkins,2022-04-28 09:13:11,2020-08-23,0.5133120383809422,1.117455652739887,2.6148677690581814,,,,,,,,,,,,
46105,0,USSouthDakotaPerkins,South Dakota,Perkins,2022-04-28 09:13:11,2020-08-24,0.5133120383809422,1.117455652739887,2.6148677690581814,,,,,,,,,,,,
46105,0,USSouthDakotaPerkins,South Dakota,Perkins,2022-04-28 09:13:11,2020-08-25,0.5133120383809422,1.117455652739887,2.6148677690581814,,,,,,,,,,,,
46105,0,USSouthDakotaPerkins,South Dakota,Perkins,2022-04-28 09:13:11,2020-08-26,0.5133120383809422,1.117455652739887,2.6148677690581814,,,,,,,,,,,,
46105,0,USSouthDakotaPerkins,South Dakota,Perkins,2022-04-28 09:13:11,2020-08-27,1.5214688615433287,2.7304556799624775,5.224380853457229,,,,,,,,,,,,
46105,0,USSouthDakotaPerkins,South Dakota,Perkins,2022-04-28 09:13:11,2020-08-28,1.5214688615433287,2.7304556799624775,5.224380853457229,,,,,,,,,,,,
46105,0,USSouthDakotaPerkins,South Dakota,Perkins,2022-04-28 09:13:11,2020-08-29,1.5214688615433287,2.7304556799624775,5.224380853457229,,,,,,,,,,,,
46105,0,USSouthDakotaPerkins,South Dakota,Perkins,2022-04-28 09:13:11,2020-08-30,1.5214688615433287,2.7304556799624775,5.224380853457229,,,,,,,,,,,,
46105,0,USSouthDakotaPerkins,South Dakota,Perkins,2022-04-28 09:13:11,2020-08-31,1.5214688615433287,2.7304556799624775,5.224380853457229,,,,,,,,,,,,
46105,0,USSouthDakotaPerkins,South Dakota,Perkins,2022-04-28 09:13:11,2020-09-01,1.5214688615433287,2.7304556799624775,5.224380853457229,,,,,,,,,,,,
46105,0,USSouthDakotaPerkins,South Dakota,Perkins,2022-04-28 09:13:11,2020-09-02,1.5214688615433287,2.7304556799624775,5.224380853457229,,,,,,,,,,,,
46105,0,USSouthDakotaPerkins,South Dakota,Perkins,2022-04-28 09:13:11,2020-09-03,0.8855219612615435,1.686257593928936,3.435343420804595,,,,,,,,,,,,
46105,0,USSouthDakotaPerkins,South Dakota,Perkins,2022-04-28 09:13:11,2020-09-04,0.8855219612615435,1.686257593928936,3.435343420804595,,,,,,,,,,,,
46105,0,USSouthDakotaPerkins,South Dakota,Perkins,2022-04-28 09:13:11,2020-09-05,0.8855219612615435,1.686257593928936,3.435343420804595,,,,,,,,,,,,
46105,0,USSouthDakotaPerkins,South Dakota,Perkins,2022-04-28 09:13:11,2020-09-06,0.8855219612615435,1.686257593928936,3.435343420804595,,,,,,,,,,,,
46105,0,USSouthDakotaPerkins,South Dakota,Perkins,2022-04-28 09:13:11,2020-09-07,0.8855219612615435,1.686257593928936,3.435343420804595,,,,,,,,,,,,
46105,0,USSouthDakotaPerkins,South Dakota,Perkins,2022-04-28 09:13:11,2020-09-08,0.8855219612615435,1.686257593928936,3.435343420804595,,,,,,,,,,,,
46105,0,USSouthDakotaPerkins,South Dakota,Perkins,2022-04-28 09:13:11,2020-09-09,0.8855219612615435,1.686257593928936,3.435343420804595,,,,,,,,,,,,
46105,0,USSouthDakotaPerkins,South Dakota,Perkins,2022-04-28 09:13:11,2020-09-10,0.5151451089699238,1.1250392931449575,2.641222335896288,,,,,,,,,,,,
46105,0,USSouthDakotaPerkins,South Dakota,Perkins,2022-04-28 09:13:11,2020-09-11,0.5151451089699238,1.1250392931449575,2.641222335896288,,,,,,,,,,,,
46105,0,USSouthDakotaPerkins,South Dakota,Perkins,2022-04-28 09:13:11,2020-09-12,0.5151451089699238,1.1250392931449575,2.641222335896288,,,,,,,,,,,,
46105,0,USSouthDakotaPerkins,South Dakota,Perkins,2022-04-28 09:13:11,2020-09-13,0.5151451089699238,1.1250392931449575,2.641222335896288,,,,,,,,,,,,
46105,0,USSouthDakotaPerkins,South Dakota,Perkins,2022-04-28 09:13:11,2020-09-14,0.5151451089699238,1.1250392931449575,2.641222335896288,,,,,,,,,,,,
46105,0,USSouthDakotaPerkins,South Dakota,Perkins,2022-04-28 09:13:11,2020-09-15,0.5151451089699238,1.1250392931449575,2.641222335896288,,,,,,,,,,,,
46105,0,USSouthDakotaPerkins,South Dakota,Perkins,2022-04-28 09:13:11,2020-09-16,0.5151451089699238,1.1250392931449575,2.641222335896288,,,,,,,,,,,,
46105,0,USSouthDakotaPerkins,South Dakota,Perkins,2022-04-28 09:13:11,2020-09-17,1.2221331029148317,2.156584873809564,4.052713978436101,,,,,,,,,,,,
46105,0,USSouthDakotaPerkins,South Dakota,Perkins,2022-04-28 09:13:11,2020-09-18,1.2221331029148317,2.156584873809564,4.052713978436101,,,,,,,,,,,,
46105,0,USSouthDakotaPerkins,South Dakota,Perkins,2022-04-28 09:13:11,2020-09-19,1.2221331029148317,2.156584873809564,4.052713978436101,,,,,,,,,,,,
46105,0,USSouthDakotaPerkins,South Dakota,Perkins,2022-04-28 09:13:11,2020-09-20,1.2221331029148317,2.156584873809564,4.052713978436101,,,,,,,,,,,,
46105,0,USSouthDakotaPerkins,South Dakota,Perkins,2022-04-28 09:13:11,2020-09-21,1.2221331029148317,2.156584873809564,4.052713978436101,,,,,,,,,,,,
46105,0,USSouthDakotaPerkins,South Dakota,Perkins,2022-04-28 09:13:11,2020-09-22,1.2221331029148317,2.156584873809564,4.052713978436101,,,,,,,,,,,,
46105,0,USSouthDakotaPerkins,South Dakota,Perkins,2022-04-28 09:13:11,2020-09-23,1.2221331029148317,2.156584873809564,4.052713978436101,,,,,,,,,,,,
46105,0,USSouthDakotaPerkins,South Dakota,Perkins,2022-04-28 09:13:11,2020-09-24,0.8208009305736843,1.7214545006718516,3.8772540956260917,,,,,,,,,,,,
46105,0,USSouthDakotaPerkins,South Dakota,Perkins,2022-04-28 09:13:11,2020-09-25,0.8208009305736843,1.7214545006718516,3.8772540956260917,,,,,,,,,,,,
46105,0,USSouthDakotaPerkins,South Dakota,Perkins,2022-04-28 09:13:11,2020-09-26,0.8208009305736843,1.7214545006718516,3.8772540956260917,,,,,,,,,,,,
46105,0,USSouthDakotaPerkins,South Dakota,Perkins,2022-04-28 09:13:11,2020-09-27,0.8208009305736843,1.7214545006718516,3.8772540956260917,,,,,,,,,,,,
46105,0,USSouthDakotaPerkins,South Dakota,Perkins,2022-04-28 09:13:11,2020-09-28,0.8208009305736843,1.7214545006718516,3.8772540956260917,,,,,,,,,,,,
46105,0,USSouthDakotaPerkins,South Dakota,Perkins,2022-04-28 09:13:11,2020-09-29,0.8208009305736843,1.7214545006718516,3.8772540956260917,,,,,,,,,,,,
46105,0,USSouthDakotaPerkins,South Dakota,Perkins,2022-04-28 09:13:11,2020-09-30,0.8208009305736843,1.7214545006718516,3.8772540956260917,,,,,,,,,,,,
46105,0,USSouthDakotaPerkins,South Dakota,Perkins,2022-04-28 09:13:11,2020-10-01,1.1544716018943195,2.1538004049991977,4.294140403205822,,,,,,,,,,,,
46105,0,USSouthDakotaPerkins,South Dakota,Perkins,2022-04-28 09:13:11,2020-10-02,1.1544716018943195,2.1538004049991977,4.294140403205822,,,,,,,,,,,,
46105,0,USSouthDakotaPerkins,South Dakota,Perkins,2022-04-28 09:13:11,2020-10-03,1.1544716018943195,2.1538004049991977,4.294140403205822,,,,,,,,,,,,
46105,0,USSouthDakotaPerkins,South Dakota,Perkins,2022-04-28 09:13:11,2020-10-04,1.1544716018943195,2.1538004049991977,4.294140403205822,,,,,,,,,,,,
46105,0,USSouthDakotaPerkins,South Dakota,Perkins,2022-04-28 09:13:11,2020-10-05,1.1544716018943195,2.1538004049991977,4.294140403205822,,,,,,,,,,,,
46105,0,USSouthDakotaPerkins,South Dakota,Perkins,2022-04-28 09:13:11,2020-10-06,1.1544716018943195,2.1538004049991977,4.294140403205822,,,,,,,,,,,,
46105,0,USSouthDakotaPerkins,South Dakota,Perkins,2022-04-28 09:13:11,2020-10-07,1.1544716018943195,2.1538004049991977,4.294140403205822,,,,,,,,,,,,
46105,0,USSouthDakotaPerkins,South Dakota,Perkins,2022-04-28 09:13:11,2020-10-08,1.0942448184589368,2.195572543250727,4.724008039679909,,,,,,,,,,,,
46105,0,USSouthDakotaPerkins,South Dakota,Perkins,2022-04-28 09:13:11,2020-10-09,1.0942448184589368,2.195572543250727,4.724008039679909,,,,,,,,,,,,
46105,0,USSouthDakotaPerkins,South Dakota,Perkins,2022-04-28 09:13:11,2020-10-10,1.0942448184589368,2.195572543250727,4.724008039679909,,,,,,,,,,,,
46105,0,USSouthDakotaPerkins,South Dakota,Perkins,2022-04-28 09:13:11,2020-10-11,1.0942448184589368,2.195572543250727,4.724008039679909,,,,,,,,,,,,
46105,0,USSouthDakotaPerkins,South Dakota,Perkins,2022-04-28 09:13:11,2020-10-12,1.0942448184589368,2.195572543250727,4.724008039679909,,,,,,,,,,,,
46105,0,USSouthDakotaPerkins,South Dakota,Perkins,2022-04-28 09:13:11,2020-10-13,1.0942448184589368,2.195572543250727,4.724008039679909,,,,,,,,,,,,
46105,0,USSouthDakotaPerkins,South Dakota,Perkins,2022-04-28 09:13:11,2020-10-14,1.0942448184589368,2.195572543250727,4.724008039679909,,,,,,,,,,,,
46105,0,USSouthDakotaPerkins,South Dakota,Perkins,2022-04-28 09:13:11,2020-10-15,1.8282325674815816,3.3312726880888337,6.477937284678075,,,,,,,,,,,,
46105,0,USSouthDakotaPerkins,South Dakota,Perkins,2022-04-28 09:13:11,2020-10-16,1.8282325674815816,3.3312726880888337,6.477937284678075,,,,,,,,,,,,
46105,0,USSouthDakotaPerkins,South Dakota,Perkins,2022-04-28 09:13:11,2020-10-17,1.8282325674815816,3.3312726880888337,6.477937284678075,,,,,,,,,,,,
46105,0,USSouthDakotaPerkins,South Dakota,Perkins,2022-04-28 09:13:11,2020-10-18,1.8282325674815816,3.3312726880888337,6.477937284678075,,,,,,,,,,,,
46105,0,USSouthDakotaPerkins,South Dakota,Perkins,2022-04-28 09:13:11,2020-10-19,1.8282325674815816,3.3312726880888337,6.477937284678075,,,,,,,,,,,,
46105,0,USSouthDakotaPerkins,South Dakota,Perkins,2022-04-28 09:13:11,2020-10-20,1.8282325674815816,3.3312726880888337,6.477937284678075,,,,,,,,,,,,
46105,0,USSouthDakotaPerkins,South Dakota,Perkins,2022-04-28 09:13:11,2020-10-21,1.8282325674815816,3.3312726880888337,6.477937284678075,,,,,,,,,,,,
46105,0,USSouthDakotaPerkins,South Dakota,Perkins,2022-04-28 09:13:11,2020-10-22,1.7501020275890904,3.568064276345522,7.805210135411329,,,,,,,,,,,,
46105,0,USSouthDakotaPerkins,South Dakota,Perkins,2022-04-28 09:13:11,2020-10-23,1.7501020275890904,3.568064276345522,7.805210135411329,,,,,,,,,,,,
46105,0,USSouthDakotaPerkins,South Dakota,Perkins,2022-04-28 09:13:11,2020-10-24,1.7501020275890904,3.568064276345522,7.805210135411329,,,,,,,,,,,,
46105,0,USSouthDakotaPerkins,South Dakota,Perkins,2022-04-28 09:13:11,2020-10-25,1.7501020275890904,3.568064276345522,7.805210135411329,,,,,,,,,,,,
46105,0,USSouthDakotaPerkins,South Dakota,Perkins,2022-04-28 09:13:11,2020-10-26,1.7501020275890904,3.568064276345522,7.805210135411329,,,,,,,,,,,,
46105,0,USSouthDakotaPerkins,South Dakota,Perkins,2022-04-28 09:13:11,2020-10-27,1.7501020275890904,3.568064276345522,7.805210135411329,,,,,,,,,,,,
46105,0,USSouthDakotaPerkins,South Dakota,Perkins,2022-04-28 09:13:11,2020-10-28,1.7501020275890904,3.568064276345522,7.805210135411329,,,,,,,,,,,,
46105,0,USSouthDakotaPerkins,South Dakota,Perkins,2022-04-28 09:13:11,2020-10-29,1.5209988102424878,3.274541451877602,7.575939649327071,,,,,,,,,,,,
46105,0,USSouthDakotaPerkins,South Dakota,Perkins,2022-04-28 09:13:11,2020-10-30,1.5209988102424878,3.274541451877602,7.575939649327071,,,,,,,,,,,,
46105,0,USSouthDakotaPerkins,South Dakota,Perkins,2022-04-28 09:13:11,2020-10-31,1.5209988102424878,3.274541451877602,7.575939649327071,,,,,,,,,,,,
46105,0,USSouthDakotaPerkins,South Dakota,Perkins,2022-04-28 09:13:11,2020-11-01,1.5209988102424878,3.274541451877602,7.575939649327071,,,,,,,,,,,,
46105,0,USSouthDakotaPerkins,South Dakota,Perkins,2022-04-28 09:13:11,2020-11-02,1.5209988102424878,3.274541451877602,7.575939649327071,,,,,,,,,,,,
46105,0,USSouthDakotaPerkins,South Dakota,Perkins,2022-04-28 09:13:11,2020-11-03,1.5209988102424878,3.274541451877602,7.575939649327071,,,,,,,,,,,,
46105,0,USSouthDakotaPerkins,South Dakota,Perkins,2022-04-28 09:13:11,2020-11-04,1.5209988102424878,3.274541451877602,7.575939649327071,,,,,,,,,,,,
46105,0,USSouthDakotaPerkins,South Dakota,Perkins,2022-04-28 09:13:11,2020-11-05,2.28213481369405,4.4677418463660334,9.369684080096066,,,,,,,,,,,,
46105,0,USSouthDakotaPerkins,South Dakota,Perkins,2022-04-28 09:13:11,2020-11-06,2.28213481369405,4.4677418463660334,9.369684080096066,,,,,,,,,,,,
46105,0,USSouthDakotaPerkins,South Dakota,Perkins,2022-04-28 09:13:11,2020-11-07,2.28213481369405,4.4677418463660334,9.369684080096066,,,,,,,,,,,,
46105,0,USSouthDakotaPerkins,South Dakota,Perkins,2022-04-28 09:13:11,2020-11-08,2.28213481369405,4.4677418463660334,9.369684080096066,,,,,,,,,,,,
46105,0,USSouthDakotaPerkins,South Dakota,Perkins,2022-04-28 09:13:11,2020-11-09,2.28213481369405,4.4677418463660334,9.369684080096066,,,,,,,,,,,,
46105,0,USSouthDakotaPerkins,South Dakota,Perkins,2022-04-28 09:13:11,2020-11-10,2.28213481369405,4.4677418463660334,9.369684080096066,,,,,,,,,,,,
46105,0,USSouthDakotaPerkins,South Dakota,Perkins,2022-04-28 09:13:11,2020-11-11,2.28213481369405,4.4677418463660334,9.369684080096066,,,,,,,,,,,,
46105,0,USSouthDakotaPerkins,South Dakota,Perkins,2022-04-28 09:13:11,2020-11-12,3.762647907911534,6.576266721774049,12.232074845126233,,,,,,,,,,,,
46105,0,USSouthDakotaPerkins,South Dakota,Perkins,2022-04-28 09:13:11,2020-11-13,3.762647907911534,6.576266721774049,12.232074845126233,,,,,,,,,,,,
46105,0,USSouthDakotaPerkins,South Dakota,Perkins,2022-04-28 09:13:11,2020-11-14,3.762647907911534,6.576266721774049,12.232074845126233,,,,,,,,,,,,
46105,0,USSouthDakotaPerkins,South Dakota,Perkins,2022-04-28 09:13:11,2020-11-15,3.762647907911534,6.576266721774049,12.232074845126233,,,,,,,,,,,,
46105,0,USSouthDakotaPerkins,South Dakota,Perkins,2022-04-28 09:13:11,2020-11-16,3.762647907911534,6.576266721774049,12.232074845126233,,,,,,,,,,,,
46105,0,USSouthDakotaPerkins,South Dakota,Perkins,2022-04-28 09:13:11,2020-11-17,3.762647907911534,6.576266721774049,12.232074845126233,,,,,,,,,,,,
46105,0,USSouthDakotaPerkins,South Dakota,Perkins,2022-04-28 09:13:11,2020-11-18,3.762647907911534,6.576266721774049,12.232074845126233,,,,,,,,,,,,
46105,0,USSouthDakotaPerkins,South Dakota,Perkins,2022-04-28 09:13:11,2020-11-19,5.774739563208043,8.475766362450978,13.01922793066396,,,,,,,,,,,,
46105,0,USSouthDakotaPerkins,South Dakota,Perkins,2022-04-28 09:13:11,2020-11-20,5.774739563208043,8.475766362450978,13.01922793066396,,,,,,,,,,,,
46105,0,USSouthDakotaPerkins,South Dakota,Perkins,2022-04-28 09:13:11,2020-11-21,5.774739563208043,8.475766362450978,13.01922793066396,,,,,,,,,,,,
46105,0,USSouthDakotaPerkins,South Dakota,Perkins,2022-04-28 09:13:11,2020-11-22,5.774739563208043,8.475766362450978,13.01922793066396,,,,,,,,,,,,
46105,0,USSouthDakotaPerkins,South Dakota,Perkins,2022-04-28 09:13:11,2020-11-23,5.774739563208043,8.475766362450978,13.01922793066396,,,,,,,,,,,,
46105,0,USSouthDakotaPerkins,South Dakota,Perkins,2022-04-28 09:13:11,2020-11-24,5.774739563208043,8.475766362450978,13.01922793066396,,,,,,,,,,,,
46105,0,USSouthDakotaPerkins,South Dakota,Perkins,2022-04-28 09:13:11,2020-11-25,5.774739563208043,8.475766362450978,13.01922793066396,,,,,,,,,,,,
46105,0,USSouthDakotaPerkins,South Dakota,Perkins,2022-04-28 09:13:11,2020-11-26,3.5392368732273547,5.847977499002342,10.237295953641972,,,,,,,,,,,,
46105,0,USSouthDakotaPerkins,South Dakota,Perkins,2022-04-28 09:13:11,2020-11-27,3.5392368732273547,5.847977499002342,10.237295953641972,,,,,,,,,,,,
46105,0,USSouthDakotaPerkins,South Dakota,Perkins,2022-04-28 09:13:11,2020-11-28,3.5392368732273547,5.847977499002342,10.237295953641972,,,,,,,,,,,,
46105,0,USSouthDakotaPerkins,South Dakota,Perkins,2022-04-28 09:13:11,2020-11-29,3.5392368732273547,5.847977499002342,10.237295953641972,,,,,,,,,,,,
46105,0,USSouthDakotaPerkins,South Dakota,Perkins,2022-04-28 09:13:11,2020-11-30,3.5392368732273547,5.847977499002342,10.237295953641972,,,,,,,,,,,,
46105,0,USSouthDakotaPerkins,South Dakota,Perkins,2022-04-28 09:13:11,2020-12-01,3.5392368732273547,5.847977499002342,10.237295953641972,,,,,,,,,,,,
46105,0,USSouthDakotaPerkins,South Dakota,Perkins,2022-04-28 09:13:11,2020-12-02,3.5392368732273547,5.847977499002342,10.237295953641972,,,,,,,,,,,,
46105,0,USSouthDakotaPerkins,South Dakota,Perkins,2022-04-28 09:13:11,2020-12-03,2.981959790077672,5.253145597725258,9.854104862393939,,,,,,,,,,,,
46105,0,USSouthDakotaPerkins,South Dakota,Perkins,2022-04-28 09:13:11,2020-12-04,2.981959790077672,5.253145597725258,9.854104862393939,,,,,,,,,,,,
46105,0,USSouthDakotaPerkins,South Dakota,Perkins,2022-04-28 09:13:11,2020-12-05,2.981959790077672,5.253145597725258,9.854104862393939,,,,,,,,,,,,
46105,0,USSouthDakotaPerkins,South Dakota,Perkins,2022-04-28 09:13:11,2020-12-06,2.981959790077672,5.253145597725258,9.854104862393939,,,,,,,,,,,,
46105,0,USSouthDakotaPerkins,South Dakota,Perkins,2022-04-28 09:13:11,2020-12-07,2.981959790077672,5.253145597725258,9.854104862393939,,,,,,,,,,,,
46105,0,USSouthDakotaPerkins,South Dakota,Perkins,2022-04-28 09:13:11,2020-12-08,2.981959790077672,5.253145597725258,9.854104862393939,,,,,,,,,,,,
46105,0,USSouthDakotaPerkins,South Dakota,Perkins,2022-04-28 09:13:11,2020-12-09,2.981959790077672,5.253145597725258,9.854104862393939,,,,,,,,,,,,
46105,0,USSouthDakotaPerkins,South Dakota,Perkins,2022-04-28 09:13:11,2020-12-10,2.6644663839300664,4.842417452396022,9.39057502535875,,,,,,,,,,,,
46105,0,USSouthDakotaPerkins,South Dakota,Perkins,2022-04-28 09:13:11,2020-12-11,2.6644663839300664,4.842417452396022,9.39057502535875,,,,,,,,,,,,
46105,0,USSouthDakotaPerkins,South Dakota,Perkins,2022-04-28 09:13:11,2020-12-12,2.6644663839300664,4.842417452396022,9.39057502535875,,,,,,,,,,,,
46105,0,USSouthDakotaPerkins,South Dakota,Perkins,2022-04-28 09:13:11,2020-12-13,2.6644663839300664,4.842417452396022,9.39057502535875,,,,,,,,,,,,
46105,0,USSouthDakotaPerkins,South Dakota,Perkins,2022-04-28 09:13:11,2020-12-14,2.6644663839300664,4.842417452396022,9.39057502535875,,,,,,,,,,,,
46105,0,USSouthDakotaPerkins,South Dakota,Perkins,2022-04-28 09:13:11,2020-12-15,2.6644663839300664,4.842417452396022,9.39057502535875,,,,,,,,,,,,
46105,0,USSouthDakotaPerkins,South Dakota,Perkins,2022-04-28 09:13:11,2020-12-16,2.6644663839300664,4.842417452396022,9.39057502535875,,,,,,,,,,,,
46105,0,USSouthDakotaPerkins,South Dakota,Perkins,2022-04-28 09:13:11,2020-12-17,3.2472151913626797,5.126149368887479,8.536836065284827,,,,,,,,,,,,
46105,0,USSouthDakotaPerkins,South Dakota,Perkins,2022-04-28 09:13:11,2020-12-18,3.2472151913626797,5.126149368887479,8.536836065284827,,,,,,,,,,,,
46105,0,USSouthDakotaPerkins,South Dakota,Perkins,2022-04-28 09:13:11,2020-12-19,3.2472151913626797,5.126149368887479,8.536836065284827,,,,,,,,,,,,
46105,0,USSouthDakotaPerkins,South Dakota,Perkins,2022-04-28 09:13:11,2020-12-20,3.2472151913626797,5.126149368887479,8.536836065284827,,,,,,,,,,,,
46105,0,USSouthDakotaPerkins,South Dakota,Perkins,2022-04-28 09:13:11,2020-12-21,3.2472151913626797,5.126149368887479,8.536836065284827,,,,,,,,,,,,
46105,0,USSouthDakotaPerkins,South Dakota,Perkins,2022-04-28 09:13:11,2020-12-22,3.2472151913626797,5.126149368887479,8.536836065284827,,,,,,,,,,,,
46105,0,USSouthDakotaPerkins,South Dakota,Perkins,2022-04-28 09:13:11,2020-12-23,3.2472151913626797,5.126149368887479,8.536836065284827,,,,,,,,,,,,
46105,0,USSouthDakotaPerkins,South Dakota,Perkins,2022-04-28 09:13:11,2020-12-24,1.5683301293639536,3.1561630671720424,6.811767789860903,,,,,,,,,,,,
46105,0,USSouthDakotaPerkins,South Dakota,Perkins,2022-04-28 09:13:11,2020-12-25,1.5683301293639536,3.1561630671720424,6.811767789860903,,,,,,,,,,,,
46105,0,USSouthDakotaPerkins,South Dakota,Perkins,2022-04-28 09:13:11,2020-12-26,1.5683301293639536,3.1561630671720424,6.811767789860903,,,,,,,,,,,,
46105,0,USSouthDakotaPerkins,South Dakota,Perkins,2022-04-28 09:13:11,2020-12-27,1.5683301293639536,3.1561630671720424,6.811767789860903,,,,,,,,,,,,
46105,0,USSouthDakotaPerkins,South Dakota,Perkins,2022-04-28 09:13:11,2020-12-28,1.5683301293639536,3.1561630671720424,6.811767789860903,,,,,,,,,,,,
46105,0,USSouthDakotaPerkins,South Dakota,Perkins,2022-04-28 09:13:11,2020-12-29,1.5683301293639536,3.1561630671720424,6.811767789860903,,,,,,,,,,,,
46105,0,USSouthDakotaPerkins,South Dakota,Perkins,2022-04-28 09:13:11,2020-12-30,1.5683301293639536,3.1561630671720424,6.811767789860903,,,,,,,,,,,,
46105,0,USSouthDakotaPerkins,South Dakota,Perkins,2022-04-28 09:13:11,2020-12-31,1.5702583403660548,3.163565706035285,6.835640289501263,,,,,,,,,,,,
46105,0,USSouthDakotaPerkins,South Dakota,Perkins,2022-04-28 09:13:11,2021-01-01,1.5702583403660548,3.163565706035285,6.835640289501263,,,,,,,,,,,,
46105,0,USSouthDakotaPerkins,South Dakota,Perkins,2022-04-28 09:13:11,2021-01-02,1.5702583403660548,3.163565706035285,6.835640289501263,,,,,,,,,,,,
46105,0,USSouthDakotaPerkins,South Dakota,Perkins,2022-04-28 09:13:11,2021-01-03,1.5702583403660548,3.163565706035285,6.835640289501263,,,,,,,,,,,,
46105,0,USSouthDakotaPerkins,South Dakota,Perkins,2022-04-28 09:13:11,2021-01-04,1.5702583403660548,3.163565706035285,6.835640289501263,,,,,,,,,,,,
46105,0,USSouthDakotaPerkins,South Dakota,Perkins,2022-04-28 09:13:11,2021-01-05,1.5702583403660548,3.163565706035285,6.835640289501263,,,,,,,,,,,,
46105,0,USSouthDakotaPerkins,South Dakota,Perkins,2022-04-28 09:13:11,2021-01-06,1.5702583403660548,3.163565706035285,6.835640289501263,,,,,,,,,,,,
46105,0,USSouthDakotaPerkins,South Dakota,Perkins,2022-04-28 09:13:11,2021-01-07,1.9106477317817678,3.3870634823719317,6.396402188490348,,,,,,,,,,,,
46105,0,USSouthDakotaPerkins,South Dakota,Perkins,2022-04-28 09:13:11,2021-01-08,1.9106477317817678,3.3870634823719317,6.396402188490348,,,,,,,,,,,,
46105,0,USSouthDakotaPerkins,South Dakota,Perkins,2022-04-28 09:13:11,2021-01-09,1.9106477317817678,3.3870634823719317,6.396402188490348,,,,,,,,,,,,
46105,0,USSouthDakotaPerkins,South Dakota,Perkins,2022-04-28 09:13:11,2021-01-10,1.9106477317817678,3.3870634823719317,6.396402188490348,,,,,,,,,,,,
46105,0,USSouthDakotaPerkins,South Dakota,Perkins,2022-04-28 09:13:11,2021-01-11,1.9106477317817678,3.3870634823719317,6.396402188490348,,,,,,,,,,,,
46105,0,USSouthDakotaPerkins,South Dakota,Perkins,2022-04-28 09:13:11,2021-01-12,1.9106477317817678,3.3870634823719317,6.396402188490348,,,,,,,,,,,,
46105,0,USSouthDakotaPerkins,South Dakota,Perkins,2022-04-28 09:13:11,2021-01-13,1.9106477317817678,3.3870634823719317,6.396402188490348,,,,,,,,,,,,
46105,0,USSouthDakotaPerkins,South Dakota,Perkins,2022-04-28 09:13:11,2021-01-14,1.7548184105110636,3.079702608427561,5.7537249968143716,,,,,,,,,,,,
46105,0,USSouthDakotaPerkins,South Dakota,Perkins,2022-04-28 09:13:11,2021-01-15,1.7548184105110636,3.079702608427561,5.7537249968143716,,,,,,,,,,,,
46105,0,USSouthDakotaPerkins,South Dakota,Perkins,2022-04-28 09:13:11,2021-01-16,1.7548184105110636,3.079702608427561,5.7537249968143716,,,,,,,,,,,,
46105,0,USSouthDakotaPerkins,South Dakota,Perkins,2022-04-28 09:13:11,2021-01-17,1.7548184105110636,3.079702608427561,5.7537249968143716,,,,,,,,,,,,
46105,0,USSouthDakotaPerkins,South Dakota,Perkins,2022-04-28 09:13:11,2021-01-18,1.7548184105110636,3.079702608427561,5.7537249968143716,,,,,,,,,,,,
46105,0,USSouthDakotaPerkins,South Dakota,Perkins,2022-04-28 09:13:11,2021-01-19,1.7548184105110636,3.079702608427561,5.7537249968143716,,,,,,,,,,,,
46105,0,USSouthDakotaPerkins,South Dakota,Perkins,2022-04-28 09:13:11,2021-01-20,1.7548184105110636,3.079702608427561,5.7537249968143716,,,,,,,,,,,,
46105,0,USSouthDakotaPerkins,South Dakota,Perkins,2022-04-28 09:13:11,2021-01-21,1.6035650966174597,2.7883292413515632,5.1579047483574145,,,,,,,,,,,,
46105,0,USSouthDakotaPerkins,South Dakota,Perkins,2022-04-28 09:13:11,2021-01-22,1.6035650966174597,2.7883292413515632,5.1579047483574145,,,,,,,,,,,,
46105,0,USSouthDakotaPerkins,South Dakota,Perkins,2022-04-28 09:13:11,2021-01-23,1.6035650966174597,2.7883292413515632,5.1579047483574145,,,,,,,,,,,,
46105,0,USSouthDakotaPerkins,South Dakota,Perkins,2022-04-28 09:13:11,2021-01-24,1.6035650966174597,2.7883292413515632,5.1579047483574145,,,,,,,,,,,,
46105,0,USSouthDakotaPerkins,South Dakota,Perkins,2022-04-28 09:13:11,2021-01-25,1.6035650966174597,2.7883292413515632,5.1579047483574145,,,,,,,,,,,,
46105,0,USSouthDakotaPerkins,South Dakota,Perkins,2022-04-28 09:13:11,2021-01-26,1.6035650966174597,2.7883292413515632,5.1579047483574145,,,,,,,,,,,,
46105,0,USSouthDakotaPerkins,South Dakota,Perkins,2022-04-28 09:13:11,2021-01-27,1.6035650966174597,2.7883292413515632,5.1579047483574145,,,,,,,,,,,,
46105,0,USSouthDakotaPerkins,South Dakota,Perkins,2022-04-28 09:13:11,2021-01-28,0.8806550775440141,1.6685818578937774,3.381419163756346,,,,,,,,,,,,
46105,0,USSouthDakotaPerkins,South Dakota,Perkins,2022-04-28 09:13:11,2021-01-29,0.8806550775440141,1.6685818578937774,3.381419163756346,,,,,,,,,,,,
46105,0,USSouthDakotaPerkins,South Dakota,Perkins,2022-04-28 09:13:11,2021-01-30,0.8806550775440141,1.6685818578937774,3.381419163756346,,,,,,,,,,,,
46105,0,USSouthDakotaPerkins,South Dakota,Perkins,2022-04-28 09:13:11,2021-01-31,0.8806550775440141,1.6685818578937774,3.381419163756346,,,,,,,,,,,,
46105,0,USSouthDakotaPerkins,South Dakota,Perkins,2022-04-28 09:13:11,2021-02-01,0.8806550775440141,1.6685818578937774,3.381419163756346,,,,,,,,,,,,
46105,0,USSouthDakotaPerkins,South Dakota,Perkins,2022-04-28 09:13:11,2021-02-02,0.8806550775440141,1.6685818578937774,3.381419163756346,,,,,,,,,,,,
46105,0,USSouthDakotaPerkins,South Dakota,Perkins,2022-04-28 09:13:11,2021-02-03,0.8806550775440141,1.6685818578937774,3.381419163756346,,,,,,,,,,,,
46105,0,USSouthDakotaPerkins,South Dakota,Perkins,2022-04-28 09:13:11,2021-02-04,0.2228725836006606,0.6124126441054731,1.809223085129079,,,,,,,,,,,,
46105,0,USSouthDakotaPerkins,South Dakota,Perkins,2022-04-28 09:13:11,2021-02-05,0.2228725836006606,0.6124126441054731,1.809223085129079,,,,,,,,,,,,
46105,0,USSouthDakotaPerkins,South Dakota,Perkins,2022-04-28 09:13:11,2021-02-06,0.2228725836006606,0.6124126441054731,1.809223085129079,,,,,,,,,,,,
46105,0,USSouthDakotaPerkins,South Dakota,Perkins,2022-04-28 09:13:11,2021-02-07,0.2228725836006606,0.6124126441054731,1.809223085129079,,,,,,,,,,,,
46105,0,USSouthDakotaPerkins,South Dakota,Perkins,2022-04-28 09:13:11,2021-02-08,0.2228725836006606,0.6124126441054731,1.809223085129079,,,,,,,,,,,,
46105,0,USSouthDakotaPerkins,South Dakota,Perkins,2022-04-28 09:13:11,2021-02-09,0.2228725836006606,0.6124126441054731,1.809223085129079,,,,,,,,,,,,
46105,0,USSouthDakotaPerkins,South Dakota,Perkins,2022-04-28 09:13:11,2021-02-10,0.2228725836006606,0.6124126441054731,1.809223085129079,,,,,,,,,,,,
46105,0,USSouthDakotaPerkins,South Dakota,Perkins,2022-04-28 09:13:11,2021-02-11,0.636719565634375,1.2987166784558637,2.8423011644401885,,,,,,,,,,,,
46105,0,USSouthDakotaPerkins,South Dakota,Perkins,2022-04-28 09:13:11,2021-02-12,0.636719565634375,1.2987166784558637,2.8423011644401885,,,,,,,,,,,,
46105,0,USSouthDakotaPerkins,South Dakota,Perkins,2022-04-28 09:13:11,2021-02-13,0.636719565634375,1.2987166784558637,2.8423011644401885,,,,,,,,,,,,
46105,0,USSouthDakotaPerkins,South Dakota,Perkins,2022-04-28 09:13:11,2021-02-14,0.636719565634375,1.2987166784558637,2.8423011644401885,,,,,,,,,,,,
46105,0,USSouthDakotaPerkins,South Dakota,Perkins,2022-04-28 09:13:11,2021-02-15,0.636719565634375,1.2987166784558637,2.8423011644401885,,,,,,,,,,,,
46105,0,USSouthDakotaPerkins,South Dakota,Perkins,2022-04-28 09:13:11,2021-02-16,0.636719565634375,1.2987166784558637,2.8423011644401885,,,,,,,,,,,,
46105,0,USSouthDakotaPerkins,South Dakota,Perkins,2022-04-28 09:13:11,2021-02-17,0.636719565634375,1.2987166784558637,2.8423011644401885,,,,,,,,,,,,
46105,0,USSouthDakotaPerkins,South Dakota,Perkins,2022-04-28 09:13:11,2021-02-18,0.3957773941271896,0.9804711164143103,2.613934399053439,,,,,,,,,,,,
46105,0,USSouthDakotaPerkins,South Dakota,Perkins,2022-04-28 09:13:11,2021-02-19,0.3957773941271896,0.9804711164143103,2.613934399053439,,,,,,,,,,,,
46105,0,USSouthDakotaPerkins,South Dakota,Perkins,2022-04-28 09:13:11,2021-02-20,0.3957773941271896,0.9804711164143103,2.613934399053439,,,,,,,,,,,,
46105,0,USSouthDakotaPerkins,South Dakota,Perkins,2022-04-28 09:13:11,2021-02-21,0.3957773941271896,0.9804711164143103,2.613934399053439,,,,,,,,,,,,
46105,0,USSouthDakotaPerkins,South Dakota,Perkins,2022-04-28 09:13:11,2021-02-22,0.3957773941271896,0.9804711164143103,2.613934399053439,,,,,,,,,,,,
46105,0,USSouthDakotaPerkins,South Dakota,Perkins,2022-04-28 09:13:11,2021-02-23,0.3957773941271896,0.9804711164143103,2.613934399053439,,,,,,,,,,,,
46105,0,USSouthDakotaPerkins,South Dakota,Perkins,2022-04-28 09:13:11,2021-02-24,0.3957773941271896,0.9804711164143103,2.613934399053439,,,,,,,,,,,,
46105,0,USSouthDakotaPerkins,South Dakota,Perkins,2022-04-28 09:13:11,2021-02-25,0.5211797694223547,1.1501650173698361,2.729097682551216,,,,,,,,,,,,
46105,0,USSouthDakotaPerkins,South Dakota,Perkins,2022-04-28 09:13:11,2021-02-26,0.5211797694223547,1.1501650173698361,2.729097682551216,,,,,,,,,,,,
46105,0,USSouthDakotaPerkins,South Dakota,Perkins,2022-04-28 09:13:11,2021-02-27,0.5211797694223547,1.1501650173698361,2.729097682551216,,,,,,,,,,,,
46105,0,USSouthDakotaPerkins,South Dakota,Perkins,2022-04-28 09:13:11,2021-02-28,0.5211797694223547,1.1501650173698361,2.729097682551216,,,,,,,,,,,,
46105,0,USSouthDakotaPerkins,South Dakota,Perkins,2022-04-28 09:13:11,2021-03-01,0.5211797694223547,1.1501650173698361,2.729097682551216,,,,,,,,,,,,
46105,0,USSouthDakotaPerkins,South Dakota,Perkins,2022-04-28 09:13:11,2021-03-02,0.5211797694223547,1.1501650173698361,2.729097682551216,,,,,,,,,,,,
46105,0,USSouthDakotaPerkins,South Dakota,Perkins,2022-04-28 09:13:11,2021-03-03,0.5211797694223547,1.1501650173698361,2.729097682551216,,,,,,,,,,,,
46105,0,USSouthDakotaPerkins,South Dakota,Perkins,2022-04-28 09:13:11,2021-03-04,0,0,0,,,,,,,,,,,,
46105,0,USSouthDakotaPerkins,South Dakota,Perkins,2022-04-28 09:13:11,2021-03-05,0,0,0,,,,,,,,,,,,
46105,0,USSouthDakotaPerkins,South Dakota,Perkins,2022-04-28 09:13:11,2021-03-06,0,0,0,,,,,,,,,,,,
46105,0,USSouthDakotaPerkins,South Dakota,Perkins,2022-04-28 09:13:11,2021-03-07,0,0,0,,,,,,,,,,,,
46105,0,USSouthDakotaPerkins,South Dakota,Perkins,2022-04-28 09:13:11,2021-03-08,0,0,0,,,,,,,,,,,,
46105,0,USSouthDakotaPerkins,South Dakota,Perkins,2022-04-28 09:13:11,2021-03-09,0,0,0,,,,,,,,,,,,
46105,0,USSouthDakotaPerkins,South Dakota,Perkins,2022-04-28 09:13:11,2021-03-10,0,0,0,,,,,,,,,,,,
46105,0,USSouthDakotaPerkins,South Dakota,Perkins,2022-04-28 09:13:11,2021-03-11,0,0,0,,,,,,,,,,,,
46105,0,USSouthDakotaPerkins,South Dakota,Perkins,2022-04-28 09:13:11,2021-03-12,0,0,0,,,,,,,,,,,,
46105,0,USSouthDakotaPerkins,South Dakota,Perkins,2022-04-28 09:13:11,2021-03-13,0,0,0,,,,,,,,,,,,
46105,0,USSouthDakotaPerkins,South Dakota,Perkins,2022-04-28 09:13:11,2021-03-14,0,0,0,,,,,,,,,,,,
46105,0,USSouthDakotaPerkins,South Dakota,Perkins,2022-04-28 09:13:11,2021-03-15,0,0,0,,,,,,,,,,,,
46105,0,USSouthDakotaPerkins,South Dakota,Perkins,2022-04-28 09:13:11,2021-03-16,0,0,0,,,,,,,,,,,,
46105,0,USSouthDakotaPerkins,South Dakota,Perkins,2022-04-28 09:13:11,2021-03-17,0,0,0,,,,,,,,,,,,
46105,0,USSouthDakotaPerkins,South Dakota,Perkins,2022-04-28 09:13:11,2021-03-18,0.8307573119706144,2.1471109680543323,5.970603262630218,,,,,,,,,,,,
46105,0,USSouthDakotaPerkins,South Dakota,Perkins,2022-04-28 09:13:11,2021-03-19,0.8307573119706144,2.1471109680543323,5.970603262630218,,,,,,,,,,,,
46105,0,USSouthDakotaPerkins,South Dakota,Perkins,2022-04-28 09:13:11,2021-03-20,0.8307573119706144,2.1471109680543323,5.970603262630218,,,,,,,,,,,,
46105,0,USSouthDakotaPerkins,South Dakota,Perkins,2022-04-28 09:13:11,2021-03-21,0.8307573119706144,2.1471109680543323,5.970603262630218,,,,,,,,,,,,
46105,0,USSouthDakotaPerkins,South Dakota,Perkins,2022-04-28 09:13:11,2021-03-22,0.8307573119706144,2.1471109680543323,5.970603262630218,,,,,,,,,,,,
46105,0,USSouthDakotaPerkins,South Dakota,Perkins,2022-04-28 09:13:11,2021-03-23,0.8307573119706144,2.1471109680543323,5.970603262630218,,,,,,,,,,,,
46105,0,USSouthDakotaPerkins,South Dakota,Perkins,2022-04-28 09:13:11,2021-03-24,0.8307573119706144,2.1471109680543323,5.970603262630218,,,,,,,,,,,,
46105,0,USSouthDakotaPerkins,South Dakota,Perkins,2022-04-28 09:13:11,2021-03-25,0,0,0,,,,,,,,,,,,
46105,0,USSouthDakotaPerkins,South Dakota,Perkins,2022-04-28 09:13:11,2021-03-26,0,0,0,,,,,,,,,,,,
46105,0,USSouthDakotaPerkins,South Dakota,Perkins,2022-04-28 09:13:11,2021-03-27,0,0,0,,,,,,,,,,,,
46105,0,USSouthDakotaPerkins,South Dakota,Perkins,2022-04-28 09:13:11,2021-03-28,0,0,0,,,,,,,,,,,,
46105,0,USSouthDakotaPerkins,South Dakota,Perkins,2022-04-28 09:13:11,2021-03-29,0,0,0,,,,,,,,,,,,
46105,0,USSouthDakotaPerkins,South Dakota,Perkins,2022-04-28 09:13:11,2021-03-30,0,0,0,,,,,,,,,,,,
46105,0,USSouthDakotaPerkins,South Dakota,Perkins,2022-04-28 09:13:11,2021-03-31,0,0,0,,,,,,,,,,,,
46105,0,USSouthDakotaPerkins,South Dakota,Perkins,2022-04-28 09:13:11,2021-04-01,0.24519273949183532,0.7311719552027212,2.3402536934452627,,,,,,,,,,,,
46105,0,USSouthDakotaPerkins,South Dakota,Perkins,2022-04-28 09:13:11,2021-04-02,0.24519273949183532,0.7311719552027212,2.3402536934452627,,,,,,,,,,,,
46105,0,USSouthDakotaPerkins,South Dakota,Perkins,2022-04-28 09:13:11,2021-04-03,0.24519273949183532,0.7311719552027212,2.3402536934452627,,,,,,,,,,,,
46105,0,USSouthDakotaPerkins,South Dakota,Perkins,2022-04-28 09:13:11,2021-04-04,0.24519273949183532,0.7311719552027212,2.3402536934452627,,,,,,,,,,,,
46105,0,USSouthDakotaPerkins,South Dakota,Perkins,2022-04-28 09:13:11,2021-04-05,0.24519273949183532,0.7311719552027212,2.3402536934452627,,,,,,,,,,,,
46105,0,USSouthDakotaPerkins,South Dakota,Perkins,2022-04-28 09:13:11,2021-04-06,0.24519273949183532,0.7311719552027212,2.3402536934452627,,,,,,,,,,,,
46105,0,USSouthDakotaPerkins,South Dakota,Perkins,2022-04-28 09:13:11,2021-04-07,0.24519273949183532,0.7311719552027212,2.3402536934452627,,,,,,,,,,,,
46105,0,USSouthDakotaPerkins,South Dakota,Perkins,2022-04-28 09:13:11,2021-04-08,0.24431189577314055,0.7263179422231582,2.3177847539726937,,,,,,,,,,,,
46105,0,USSouthDakotaPerkins,South Dakota,Perkins,2022-04-28 09:13:11,2021-04-09,0.24431189577314055,0.7263179422231582,2.3177847539726937,,,,,,,,,,,,
46105,0,USSouthDakotaPerkins,South Dakota,Perkins,2022-04-28 09:13:11,2021-04-10,0.24431189577314055,0.7263179422231582,2.3177847539726937,,,,,,,,,,,,
46105,0,USSouthDakotaPerkins,South Dakota,Perkins,2022-04-28 09:13:11,2021-04-11,0.24431189577314055,0.7263179422231582,2.3177847539726937,,,,,,,,,,,,
46105,0,USSouthDakotaPerkins,South Dakota,Perkins,2022-04-28 09:13:11,2021-04-12,0.24431189577314055,0.7263179422231582,2.3177847539726937,,,,,,,,,,,,
46105,0,USSouthDakotaPerkins,South Dakota,Perkins,2022-04-28 09:13:11,2021-04-13,0.24431189577314055,0.7263179422231582,2.3177847539726937,,,,,,,,,,,,
46105,0,USSouthDakotaPerkins,South Dakota,Perkins,2022-04-28 09:13:11,2021-04-14,0.24431189577314055,0.7263179422231582,2.3177847539726937,,,,,,,,,,,,
46105,0,USSouthDakotaPerkins,South Dakota,Perkins,2022-04-28 09:13:11,2021-04-15,0,0,0,,,,,,,,,,,,
46105,0,USSouthDakotaPerkins,South Dakota,Perkins,2022-04-28 09:13:11,2021-04-16,0,0,0,,,,,,,,,,,,
46105,0,USSouthDakotaPerkins,South Dakota,Perkins,2022-04-28 09:13:11,2021-04-17,0,0,0,,,,,,,,,,,,
46105,0,USSouthDakotaPerkins,South Dakota,Perkins,2022-04-28 09:13:11,2021-04-18,0,0,0,,,,,,,,,,,,
46105,0,USSouthDakotaPerkins,South Dakota,Perkins,2022-04-28 09:13:11,2021-04-19,0,0,0,,,,,,,,,,,,
46105,0,USSouthDakotaPerkins,South Dakota,Perkins,2022-04-28 09:13:11,2021-04-20,0,0,0,,,,,,,,,,,,
46105,0,USSouthDakotaPerkins,South Dakota,Perkins,2022-04-28 09:13:11,2021-04-21,0,0,0,,,,,,,,,,,,
46105,0,USSouthDakotaPerkins,South Dakota,Perkins,2022-04-28 09:13:11,2021-04-22,0.21458235231693268,0.5705887709125099,1.63196997893101,,,,,,,,,,,,
46105,0,USSouthDakotaPerkins,South Dakota,Perkins,2022-04-28 09:13:11,2021-04-23,0.21458235231693268,0.5705887709125099,1.63196997893101,,,,,,,,,,,,
46105,0,USSouthDakotaPerkins,South Dakota,Perkins,2022-04-28 09:13:11,2021-04-24,0.21458235231693268,0.5705887709125099,1.63196997893101,,,,,,,,,,,,
46105,0,USSouthDakotaPerkins,South Dakota,Perkins,2022-04-28 09:13:11,2021-04-25,0.21458235231693268,0.5705887709125099,1.63196997893101,,,,,,,,,,,,
46105,0,USSouthDakotaPerkins,South Dakota,Perkins,2022-04-28 09:13:11,2021-04-26,0.21458235231693268,0.5705887709125099,1.63196997893101,,,,,,,,,,,,
46105,0,USSouthDakotaPerkins,South Dakota,Perkins,2022-04-28 09:13:11,2021-04-27,0.21458235231693268,0.5705887709125099,1.63196997893101,,,,,,,,,,,,
46105,0,USSouthDakotaPerkins,South Dakota,Perkins,2022-04-28 09:13:11,2021-04-28,0.21458235231693268,0.5705887709125099,1.63196997893101,,,,,,,,,,,,
46105,0,USSouthDakotaPerkins,South Dakota,Perkins,2022-04-28 09:13:11,2021-04-29,0.47552648072694614,0.9662279643620726,2.106278342807164,,,,,,,,,,,,
46105,0,USSouthDakotaPerkins,South Dakota,Perkins,2022-04-28 09:13:11,2021-04-30,0.47552648072694614,0.9662279643620726,2.106278342807164,,,,,,,,,,,,
46105,0,USSouthDakotaPerkins,South Dakota,Perkins,2022-04-28 09:13:11,2021-05-01,0.47552648072694614,0.9662279643620726,2.106278342807164,,,,,,,,,,,,
46105,0,USSouthDakotaPerkins,South Dakota,Perkins,2022-04-28 09:13:11,2021-05-02,0.47552648072694614,0.9662279643620726,2.106278342807164,,,,,,,,,,,,
46105,0,USSouthDakotaPerkins,South Dakota,Perkins,2022-04-28 09:13:11,2021-05-03,0.47552648072694614,0.9662279643620726,2.106278342807164,,,,,,,,,,,,
46105,0,USSouthDakotaPerkins,South Dakota,Perkins,2022-04-28 09:13:11,2021-05-04,0.47552648072694614,0.9662279643620726,2.106278342807164,,,,,,,,,,,,
46105,0,USSouthDakotaPerkins,South Dakota,Perkins,2022-04-28 09:13:11,2021-05-05,0.47552648072694614,0.9662279643620726,2.106278342807164,,,,,,,,,,,,
46105,0,USSouthDakotaPerkins,South Dakota,Perkins,2022-04-28 09:13:11,2021-05-06,0.19541204978209673,0.47876235390524696,1.2623206036073567,,,,,,,,,,,,
46105,0,USSouthDakotaPerkins,South Dakota,Perkins,2022-04-28 09:13:11,2021-05-07,0.19541204978209673,0.47876235390524696,1.2623206036073567,,,,,,,,,,,,
46105,0,USSouthDakotaPerkins,South Dakota,Perkins,2022-04-28 09:13:11,2021-05-08,0.19541204978209673,0.47876235390524696,1.2623206036073567,,,,,,,,,,,,
46105,0,USSouthDakotaPerkins,South Dakota,Perkins,2022-04-28 09:13:11,2021-05-09,0.19541204978209673,0.47876235390524696,1.2623206036073567,,,,,,,,,,,,
46105,0,USSouthDakotaPerkins,South Dakota,Perkins,2022-04-28 09:13:11,2021-05-10,0.19541204978209673,0.47876235390524696,1.2623206036073567,,,,,,,,,,,,
46105,0,USSouthDakotaPerkins,South Dakota,Perkins,2022-04-28 09:13:11,2021-05-11,0.19541204978209673,0.47876235390524696,1.2623206036073567,,,,,,,,,,,,
46105,0,USSouthDakotaPerkins,South Dakota,Perkins,2022-04-28 09:13:11,2021-05-12,0.19541204978209673,0.47876235390524696,1.2623206036073567,,,,,,,,,,,,
46105,0,USSouthDakotaPerkins,South Dakota,Perkins,2022-04-28 09:13:11,2021-05-13,0.19585204786360502,0.48079210916953574,1.2701859160022022,,,,,,,,,,,,
46105,0,USSouthDakotaPerkins,South Dakota,Perkins,2022-04-28 09:13:11,2021-05-14,0.19585204786360502,0.48079210916953574,1.2701859160022022,,,,,,,,,,,,
46105,0,USSouthDakotaPerkins,South Dakota,Perkins,2022-04-28 09:13:11,2021-05-15,0.19585204786360502,0.48079210916953574,1.2701859160022022,,,,,,,,,,,,
46105,0,USSouthDakotaPerkins,South Dakota,Perkins,2022-04-28 09:13:11,2021-05-16,0.19585204786360502,0.48079210916953574,1.2701859160022022,,,,,,,,,,,,
46105,0,USSouthDakotaPerkins,South Dakota,Perkins,2022-04-28 09:13:11,2021-05-17,0.19585204786360502,0.48079210916953574,1.2701859160022022,,,,,,,,,,,,
46105,0,USSouthDakotaPerkins,South Dakota,Perkins,2022-04-28 09:13:11,2021-05-18,0.19585204786360502,0.48079210916953574,1.2701859160022022,,,,,,,,,,,,
46105,0,USSouthDakotaPerkins,South Dakota,Perkins,2022-04-28 09:13:11,2021-05-19,0.19585204786360502,0.48079210916953574,1.2701859160022022,,,,,,,,,,,,
46105,0,USSouthDakotaPerkins,South Dakota,Perkins,2022-04-28 09:13:11,2021-05-20,0,0,0,,,,,,,,,,,,
46105,0,USSouthDakotaPerkins,South Dakota,Perkins,2022-04-28 09:13:11,2021-05-21,0,0,0,,,,,,,,,,,,
46105,0,USSouthDakotaPerkins,South Dakota,Perkins,2022-04-28 09:13:11,2021-05-22,0,0,0,,,,,,,,,,,,
46105,0,USSouthDakotaPerkins,South Dakota,Perkins,2022-04-28 09:13:11,2021-05-23,0,0,0,,,,,,,,,,,,
46105,0,USSouthDakotaPerkins,South Dakota,Perkins,2022-04-28 09:13:11,2021-05-24,0,0,0,,,,,,,,,,,,
46105,0,USSouthDakotaPerkins,South Dakota,Perkins,2022-04-28 09:13:11,2021-05-25,0,0,0,,,,,,,,,,,,
46105,0,USSouthDakotaPerkins,South Dakota,Perkins,2022-04-28 09:13:11,2021-05-26,0,0,0,,,,,,,,,,,,
46105,0,USSouthDakotaPerkins,South Dakota,Perkins,2022-04-28 09:13:11,2021-05-27,0,0,0,,,,,,,,,,,,
46105,0,USSouthDakotaPerkins,South Dakota,Perkins,2022-04-28 09:13:11,2021-05-28,0,0,0,,,,,,,,,,,,
46105,0,USSouthDakotaPerkins,South Dakota,Perkins,2022-04-28 09:13:11,2021-05-29,0,0,0,,,,,,,,,,,,
46105,0,USSouthDakotaPerkins,South Dakota,Perkins,2022-04-28 09:13:11,2021-05-30,0,0,0,,,,,,,,,,,,
46105,0,USSouthDakotaPerkins,South Dakota,Perkins,2022-04-28 09:13:11,2021-05-31,0,0,0,,,,,,,,,,,,
46105,0,USSouthDakotaPerkins,South Dakota,Perkins,2022-04-28 09:13:11,2021-06-01,0,0,0,,,,,,,,,,,,
46105,0,USSouthDakotaPerkins,South Dakota,Perkins,2022-04-28 09:13:11,2021-06-02,0,0,0,,,,,,,,,,,,
46105,0,USSouthDakotaPerkins,South Dakota,Perkins,2022-04-28 09:13:11,2021-06-03,0,0,0,,,,,,,,,,,,
46105,0,USSouthDakotaPerkins,South Dakota,Perkins,2022-04-28 09:13:11,2021-06-04,0,0,0,,,,,,,,,,,,
46105,0,USSouthDakotaPerkins,South Dakota,Perkins,2022-04-28 09:13:11,2021-06-05,0,0,0,,,,,,,,,,,,
46105,0,USSouthDakotaPerkins,South Dakota,Perkins,2022-04-28 09:13:11,2021-06-06,0,0,0,,,,,,,,,,,,
46105,0,USSouthDakotaPerkins,South Dakota,Perkins,2022-04-28 09:13:11,2021-06-07,0,0,0,,,,,,,,,,,,
46105,0,USSouthDakotaPerkins,South Dakota,Perkins,2022-04-28 09:13:11,2021-06-08,0,0,0,,,,,,,,,,,,
46105,0,USSouthDakotaPerkins,South Dakota,Perkins,2022-04-28 09:13:11,2021-06-09,0,0,0,,,,,,,,,,,,
46105,0,USSouthDakotaPerkins,South Dakota,Perkins,2022-04-28 09:13:11,2021-06-10,0,0,0,,,,,,,,,,,,
46105,0,USSouthDakotaPerkins,South Dakota,Perkins,2022-04-28 09:13:11,2021-06-11,0,0,0,,,,,,,,,,,,
46105,0,USSouthDakotaPerkins,South Dakota,Perkins,2022-04-28 09:13:11,2021-06-12,0,0,0,,,,,,,,,,,,
46105,0,USSouthDakotaPerkins,South Dakota,Perkins,2022-04-28 09:13:11,2021-06-13,0,0,0,,,,,,,,,,,,
46105,0,USSouthDakotaPerkins,South Dakota,Perkins,2022-04-28 09:13:11,2021-06-14,0,0,0,,,,,,,,,,,,
46105,0,USSouthDakotaPerkins,South Dakota,Perkins,2022-04-28 09:13:11,2021-06-15,0,0,0,,,,,,,,,,,,
46105,0,USSouthDakotaPerkins,South Dakota,Perkins,2022-04-28 09:13:11,2021-06-16,0,0,0,,,,,,,,,,,,
46105,0,USSouthDakotaPerkins,South Dakota,Perkins,2022-04-28 09:13:11,2021-06-17,0,0,0,,,,,,,,,,,,
46105,0,USSouthDakotaPerkins,South Dakota,Perkins,2022-04-28 09:13:11,2021-06-18,0,0,0,,,,,,,,,,,,
46105,0,USSouthDakotaPerkins,South Dakota,Perkins,2022-04-28 09:13:11,2021-06-19,0,0,0,,,,,,,,,,,,
46105,0,USSouthDakotaPerkins,South Dakota,Perkins,2022-04-28 09:13:11,2021-06-20,0,0,0,,,,,,,,,,,,
46105,0,USSouthDakotaPerkins,South Dakota,Perkins,2022-04-28 09:13:11,2021-06-21,0,0,0,,,,,,,,,,,,
46105,0,USSouthDakotaPerkins,South Dakota,Perkins,2022-04-28 09:13:11,2021-06-22,0,0,0,,,,,,,,,,,,
46105,0,USSouthDakotaPerkins,South Dakota,Perkins,2022-04-28 09:13:11,2021-06-23,0,0,0,,,,,,,,,,,,
46105,0,USSouthDakotaPerkins,South Dakota,Perkins,2022-04-28 09:13:11,2021-06-24,0,0,0,,,,,,,,,,,,
46105,0,USSouthDakotaPerkins,South Dakota,Perkins,2022-04-28 09:13:11,2021-06-25,0,0,0,,,,,,,,,,,,
46105,0,USSouthDakotaPerkins,South Dakota,Perkins,2022-04-28 09:13:11,2021-06-26,0,0,0,,,,,,,,,,,,
46105,0,USSouthDakotaPerkins,South Dakota,Perkins,2022-04-28 09:13:11,2021-06-27,0,0,0,,,,,,,,,,,,
46105,0,USSouthDakotaPerkins,South Dakota,Perkins,2022-04-28 09:13:11,2021-06-28,0,0,0,,,,,,,,,,,,
46105,0,USSouthDakotaPerkins,South Dakota,Perkins,2022-04-28 09:13:11,2021-06-29,0,0,0,,,,,,,,,,,,
46105,0,USSouthDakotaPerkins,South Dakota,Perkins,2022-04-28 09:13:11,2021-06-30,0,0,0,,,,,,,,,,,,
46105,0,USSouthDakotaPerkins,South Dakota,Perkins,2022-04-28 09:13:11,2021-07-01,0,0,0,,,,,,,,,,,,
46105,0,USSouthDakotaPerkins,South Dakota,Perkins,2022-04-28 09:13:11,2021-07-02,0,0,0,,,,,,,,,,,,
46105,0,USSouthDakotaPerkins,South Dakota,Perkins,2022-04-28 09:13:11,2021-07-03,0,0,0,,,,,,,,,,,,
46105,0,USSouthDakotaPerkins,South Dakota,Perkins,2022-04-28 09:13:11,2021-07-04,0,0,0,,,,,,,,,,,,
46105,0,USSouthDakotaPerkins,South Dakota,Perkins,2022-04-28 09:13:11,2021-07-05,0,0,0,,,,,,,,,,,,
46105,0,USSouthDakotaPerkins,South Dakota,Perkins,2022-04-28 09:13:11,2021-07-06,0,0,0,,,,,,,,,,,,
46105,0,USSouthDakotaPerkins,South Dakota,Perkins,2022-04-28 09:13:11,2021-07-07,0,0,0,,,,,,,,,,,,
46105,0,USSouthDakotaPerkins,South Dakota,Perkins,2022-04-28 09:13:11,2021-07-15,0,0,0,,,,,,,,,,,,
46105,0,USSouthDakotaPerkins,South Dakota,Perkins,2022-04-28 09:13:11,2021-07-16,0,0,0,,,,,,,,,,,,
46105,0,USSouthDakotaPerkins,South Dakota,Perkins,2022-04-28 09:13:11,2021-07-17,0,0,0,,,,,,,,,,,,
46105,0,USSouthDakotaPerkins,South Dakota,Perkins,2022-04-28 09:13:11,2021-07-18,0,0,0,,,,,,,,,,,,
46105,0,USSouthDakotaPerkins,South Dakota,Perkins,2022-04-28 09:13:11,2021-07-19,0,0,0,,,,,,,,,,,,
46105,0,USSouthDakotaPerkins,South Dakota,Perkins,2022-04-28 09:13:11,2021-07-20,0,0,0,,,,,,,,,,,,
46105,0,USSouthDakotaPerkins,South Dakota,Perkins,2022-04-28 09:13:11,2021-07-21,0,0,0,,,,,,,,,,,,
46105,0,USSouthDakotaPerkins,South Dakota,Perkins,2022-04-28 09:13:11,2021-07-22,0,0,0,,,,,,,,,,,,
46105,0,USSouthDakotaPerkins,South Dakota,Perkins,2022-04-28 09:13:11,2021-07-23,0,0,0,,,,,,,,,,,,
46105,0,USSouthDakotaPerkins,South Dakota,Perkins,2022-04-28 09:13:11,2021-07-24,0,0,0,,,,,,,,,,,,
46105,0,USSouthDakotaPerkins,South Dakota,Perkins,2022-04-28 09:13:11,2021-07-25,0,0,0,,,,,,,,,,,,
46105,0,USSouthDakotaPerkins,South Dakota,Perkins,2022-04-28 09:13:11,2021-07-26,0,0,0,,,,,,,,,,,,
46105,0,USSouthDakotaPerkins,South Dakota,Perkins,2022-04-28 09:13:11,2021-07-27,0,0,0,,,,,,,,,,,,
46105,0,USSouthDakotaPerkins,South Dakota,Perkins,2022-04-28 09:13:11,2021-07-28,0,0,0,,,,,,,,,,,,
46105,0,USSouthDakotaPerkins,South Dakota,Perkins,2022-04-28 09:13:11,2021-07-29,0.06560719272969133,0.06675298093886131,0.06794152793304797,,,,,,,,,,,,
46105,0,USSouthDakotaPerkins,South Dakota,Perkins,2022-04-28 09:13:11,2021-07-30,0.06560719272969133,0.06675298093886131,0.06794152793304797,,,,,,,,,,,,
46105,0,USSouthDakotaPerkins,South Dakota,Perkins,2022-04-28 09:13:11,2021-07-31,0.06560719272969133,0.06675298093886131,0.06794152793304797,,,,,,,,,,,,
46105,0,USSouthDakotaPerkins,South Dakota,Perkins,2022-04-28 09:13:11,2021-08-01,0.06560719272969133,0.06675298093886131,0.06794152793304797,,,,,,,,,,,,
46105,0,USSouthDakotaPerkins,South Dakota,Perkins,2022-04-28 09:13:11,2021-08-02,0.06560719272969133,0.06675298093886131,0.06794152793304797,,,,,,,,,,,,
46105,0,USSouthDakotaPerkins,South Dakota,Perkins,2022-04-28 09:13:11,2021-08-03,0.06560719272969133,0.06675298093886131,0.06794152793304797,,,,,,,,,,,,
46105,0,USSouthDakotaPerkins,South Dakota,Perkins,2022-04-28 09:13:11,2021-08-04,0.06560719272969133,0.06675298093886131,0.06794152793304797,,,,,,,,,,,,
46105,0,USSouthDakotaPerkins,South Dakota,Perkins,2022-04-28 09:13:11,2021-08-05,0,0,0,,,,,,,,,,,,
46105,0,USSouthDakotaPerkins,South Dakota,Perkins,2022-04-28 09:13:11,2021-08-06,0,0,0,,,,,,,,,,,,
46105,0,USSouthDakotaPerkins,South Dakota,Perkins,2022-04-28 09:13:11,2021-08-07,0,0,0,,,,,,,,,,,,
46105,0,USSouthDakotaPerkins,South Dakota,Perkins,2022-04-28 09:13:11,2021-08-08,0,0,0,,,,,,,,,,,,
46105,0,USSouthDakotaPerkins,South Dakota,Perkins,2022-04-28 09:13:11,2021-08-09,0,0,0,,,,,,,,,,,,
46105,0,USSouthDakotaPerkins,South Dakota,Perkins,2022-04-28 09:13:11,2021-08-10,0,0,0,,,,,,,,,,,,
46105,0,USSouthDakotaPerkins,South Dakota,Perkins,2022-04-28 09:13:11,2021-08-11,0,0,0,,,,,,,,,,,,
46105,0,USSouthDakotaPerkins,South Dakota,Perkins,2022-04-28 09:13:11,2021-08-12,0.37936013073277064,0.905320014211925,2.324938175307738,,,,,,,,,,,,
46105,0,USSouthDakotaPerkins,South Dakota,Perkins,2022-04-28 09:13:11,2021-08-13,0.37936013073277064,0.905320014211925,2.324938175307738,,,,,,,,,,,,
46105,0,USSouthDakotaPerkins,South Dakota,Perkins,2022-04-28 09:13:11,2021-08-14,0.37936013073277064,0.905320014211925,2.324938175307738,,,,,,,,,,,,
46105,0,USSouthDakotaPerkins,South Dakota,Perkins,2022-04-28 09:13:11,2021-08-15,0.37936013073277064,0.905320014211925,2.324938175307738,,,,,,,,,,,,
46105,0,USSouthDakotaPerkins,South Dakota,Perkins,2022-04-28 09:13:11,2021-08-16,0.37936013073277064,0.905320014211925,2.324938175307738,,,,,,,,,,,,
46105,0,USSouthDakotaPerkins,South Dakota,Perkins,2022-04-28 09:13:11,2021-08-17,0.37936013073277064,0.905320014211925,2.324938175307738,,,,,,,,,,,,
46105,0,USSouthDakotaPerkins,South Dakota,Perkins,2022-04-28 09:13:11,2021-08-18,0.37936013073277064,0.905320014211925,2.324938175307738,,,,,,,,,,,,
46105,0,USSouthDakotaPerkins,South Dakota,Perkins,2022-04-28 09:13:11,2021-08-19,0.6502829145930323,1.3519042613158294,3.0175053645972447,,,,,,,,,,,,
46105,0,USSouthDakotaPerkins,South Dakota,Perkins,2022-04-28 09:13:11,2021-08-20,0.6502829145930323,1.3519042613158294,3.0175053645972447,,,,,,,,,,,,
46105,0,USSouthDakotaPerkins,South Dakota,Perkins,2022-04-28 09:13:11,2021-08-21,0.6502829145930323,1.3519042613158294,3.0175053645972447,,,,,,,,,,,,
46105,0,USSouthDakotaPerkins,South Dakota,Perkins,2022-04-28 09:13:11,2021-08-22,0.6502829145930323,1.3519042613158294,3.0175053645972447,,,,,,,,,,,,
46105,0,USSouthDakotaPerkins,South Dakota,Perkins,2022-04-28 09:13:11,2021-08-23,0.6502829145930323,1.3519042613158294,3.0175053645972447,,,,,,,,,,,,
46105,0,USSouthDakotaPerkins,South Dakota,Perkins,2022-04-28 09:13:11,2021-08-24,0.6502829145930323,1.3519042613158294,3.0175053645972447,,,,,,,,,,,,
46105,0,USSouthDakotaPerkins,South Dakota,Perkins,2022-04-28 09:13:11,2021-08-25,0.6502829145930323,1.3519042613158294,3.0175053645972447,,,,,,,,,,,,
46105,0,USSouthDakotaPerkins,South Dakota,Perkins,2022-04-28 09:13:11,2021-08-26,0.3231594667944637,0.6681305887427897,1.4828250148431896,,,,,,,,,,,,
46105,0,USSouthDakotaPerkins,South Dakota,Perkins,2022-04-28 09:13:11,2021-08-27,0.3231594667944637,0.6681305887427897,1.4828250148431896,,,,,,,,,,,,
46105,0,USSouthDakotaPerkins,South Dakota,Perkins,2022-04-28 09:13:11,2021-08-28,0.3231594667944637,0.6681305887427897,1.4828250148431896,,,,,,,,,,,,
46105,0,USSouthDakotaPerkins,South Dakota,Perkins,2022-04-28 09:13:11,2021-08-29,0.3231594667944637,0.6681305887427897,1.4828250148431896,,,,,,,,,,,,
46105,0,USSouthDakotaPerkins,South Dakota,Perkins,2022-04-28 09:13:11,2021-08-30,0.3231594667944637,0.6681305887427897,1.4828250148431896,,,,,,,,,,,,
46105,0,USSouthDakotaPerkins,South Dakota,Perkins,2022-04-28 09:13:11,2021-08-31,0.3231594667944637,0.6681305887427897,1.4828250148431896,,,,,,,,,,,,
46105,0,USSouthDakotaPerkins,South Dakota,Perkins,2022-04-28 09:13:11,2021-09-01,0.3231594667944637,0.6681305887427897,1.4828250148431896,,,,,,,,,,,,
46105,0,USSouthDakotaPerkins,South Dakota,Perkins,2022-04-28 09:13:11,2021-09-02,1.0677890970181354,2.407801547174617,5.839736826033962,,,,,,,,,,,,
46105,0,USSouthDakotaPerkins,South Dakota,Perkins,2022-04-28 09:13:11,2021-09-03,1.0677890970181354,2.407801547174617,5.839736826033962,,,,,,,,,,,,
46105,0,USSouthDakotaPerkins,South Dakota,Perkins,2022-04-28 09:13:11,2021-09-04,1.0677890970181354,2.407801547174617,5.839736826033962,,,,,,,,,,,,
46105,0,USSouthDakotaPerkins,South Dakota,Perkins,2022-04-28 09:13:11,2021-09-05,1.0677890970181354,2.407801547174617,5.839736826033962,,,,,,,,,,,,
46105,0,USSouthDakotaPerkins,South Dakota,Perkins,2022-04-28 09:13:11,2021-09-06,1.0677890970181354,2.407801547174617,5.839736826033962,,,,,,,,,,,,
46105,0,USSouthDakotaPerkins,South Dakota,Perkins,2022-04-28 09:13:11,2021-09-07,1.0677890970181354,2.407801547174617,5.839736826033962,,,,,,,,,,,,
46105,0,USSouthDakotaPerkins,South Dakota,Perkins,2022-04-28 09:13:11,2021-09-08,1.0677890970181354,2.407801547174617,5.839736826033962,,,,,,,,,,,,
46105,0,USSouthDakotaPerkins,South Dakota,Perkins,2022-04-28 09:13:11,2021-09-09,0.4493918863973952,0.867426645145276,1.792462501588679,,,,,,,,,,,,
46105,0,USSouthDakotaPerkins,South Dakota,Perkins,2022-04-28 09:13:11,2021-09-10,0.4493918863973952,0.867426645145276,1.792462501588679,,,,,,,,,,,,
46105,0,USSouthDakotaPerkins,South Dakota,Perkins,2022-04-28 09:13:11,2021-09-11,0.4493918863973952,0.867426645145276,1.792462501588679,,,,,,,,,,,,
46105,0,USSouthDakotaPerkins,South Dakota,Perkins,2022-04-28 09:13:11,2021-09-12,0.4493918863973952,0.867426645145276,1.792462501588679,,,,,,,,,,,,
46105,0,USSouthDakotaPerkins,South Dakota,Perkins,2022-04-28 09:13:11,2021-09-13,0.4493918863973952,0.867426645145276,1.792462501588679,,,,,,,,,,,,
46105,0,USSouthDakotaPerkins,South Dakota,Perkins,2022-04-28 09:13:11,2021-09-14,0.4493918863973952,0.867426645145276,1.792462501588679,,,,,,,,,,,,
46105,0,USSouthDakotaPerkins,South Dakota,Perkins,2022-04-28 09:13:11,2021-09-15,0.4493918863973952,0.867426645145276,1.792462501588679,,,,,,,,,,,,
46105,0,USSouthDakotaPerkins,South Dakota,Perkins,2022-04-28 09:13:11,2021-09-16,0.6502829145930323,1.3519042613158294,3.0175053645972447,,,,,,,,,,,,
46105,0,USSouthDakotaPerkins,South Dakota,Perkins,2022-04-28 09:13:11,2021-09-17,0.6502829145930323,1.3519042613158294,3.0175053645972447,,,,,,,,,,,,
46105,0,USSouthDakotaPerkins,South Dakota,Perkins,2022-04-28 09:13:11,2021-09-18,0.6502829145930323,1.3519042613158294,3.0175053645972447,,,,,,,,,,,,
46105,0,USSouthDakotaPerkins,South Dakota,Perkins,2022-04-28 09:13:11,2021-09-19,0.6502829145930323,1.3519042613158294,3.0175053645972447,,,,,,,,,,,,
46105,0,USSouthDakotaPerkins,South Dakota,Perkins,2022-04-28 09:13:11,2021-09-20,0.6502829145930323,1.3519042613158294,3.0175053645972447,,,,,,,,,,,,
46105,0,USSouthDakotaPerkins,South Dakota,Perkins,2022-04-28 09:13:11,2021-09-21,0.6502829145930323,1.3519042613158294,3.0175053645972447,,,,,,,,,,,,
46105,0,USSouthDakotaPerkins,South Dakota,Perkins,2022-04-28 09:13:11,2021-09-22,0.6502829145930323,1.3519042613158294,3.0175053645972447,,,,,,,,,,,,
46105,0,USSouthDakotaPerkins,South Dakota,Perkins,2022-04-28 09:13:11,2021-09-23,1.0235576709789165,1.932668843413556,3.9024213880703327,,,,,,,,,,,,
46105,0,USSouthDakotaPerkins,South Dakota,Perkins,2022-04-28 09:13:11,2021-09-24,1.0235576709789165,1.932668843413556,3.9024213880703327,,,,,,,,,,,,
46105,0,USSouthDakotaPerkins,South Dakota,Perkins,2022-04-28 09:13:11,2021-09-25,1.0235576709789165,1.932668843413556,3.9024213880703327,,,,,,,,,,,,
46105,0,USSouthDakotaPerkins,South Dakota,Perkins,2022-04-28 09:13:11,2021-09-26,1.0235576709789165,1.932668843413556,3.9024213880703327,,,,,,,,,,,,
46105,0,USSouthDakotaPerkins,South Dakota,Perkins,2022-04-28 09:13:11,2021-09-27,1.0235576709789165,1.932668843413556,3.9024213880703327,,,,,,,,,,,,
46105,0,USSouthDakotaPerkins,South Dakota,Perkins,2022-04-28 09:13:11,2021-09-28,1.0235576709789165,1.932668843413556,3.9024213880703327,,,,,,,,,,,,
46105,0,USSouthDakotaPerkins,South Dakota,Perkins,2022-04-28 09:13:11,2021-09-29,1.0235576709789165,1.932668843413556,3.9024213880703327,,,,,,,,,,,,
46105,0,USSouthDakotaPerkins,South Dakota,Perkins,2022-04-28 09:13:11,2021-09-30,1.2833794761705228,2.368336457006881,4.667778581990769,,,,,,,,,,,,
46105,0,USSouthDakotaPerkins,South Dakota,Perkins,2022-04-28 09:13:11,2021-10-01,1.2833794761705228,2.368336457006881,4.667778581990769,,,,,,,,,,,,
46105,0,USSouthDakotaPerkins,South Dakota,Perkins,2022-04-28 09:13:11,2021-10-02,1.2833794761705228,2.368336457006881,4.667778581990769,,,,,,,,,,,,
46105,0,USSouthDakotaPerkins,South Dakota,Perkins,2022-04-28 09:13:11,2021-10-03,1.2833794761705228,2.368336457006881,4.667778581990769,,,,,,,,,,,,
46105,0,USSouthDakotaPerkins,South Dakota,Perkins,2022-04-28 09:13:11,2021-10-04,1.2833794761705228,2.368336457006881,4.667778581990769,,,,,,,,,,,,
46105,0,USSouthDakotaPerkins,South Dakota,Perkins,2022-04-28 09:13:11,2021-10-05,1.2833794761705228,2.368336457006881,4.667778581990769,,,,,,,,,,,,
46105,0,USSouthDakotaPerkins,South Dakota,Perkins,2022-04-28 09:13:11,2021-10-06,1.2833794761705228,2.368336457006881,4.667778581990769,,,,,,,,,,,,
46105,0,USSouthDakotaPerkins,South Dakota,Perkins,2022-04-28 09:13:11,2021-10-07,1.5392961696914622,3.045643479993446,6.45837241065174,,,,,,,,,,,,
46105,0,USSouthDakotaPerkins,South Dakota,Perkins,2022-04-28 09:13:11,2021-10-08,1.5392961696914622,3.045643479993446,6.45837241065174,,,,,,,,,,,,
46105,0,USSouthDakotaPerkins,South Dakota,Perkins,2022-04-28 09:13:11,2021-10-09,1.5392961696914622,3.045643479993446,6.45837241065174,,,,,,,,,,,,
46105,0,USSouthDakotaPerkins,South Dakota,Perkins,2022-04-28 09:13:11,2021-10-10,1.5392961696914622,3.045643479993446,6.45837241065174,,,,,,,,,,,,
46105,0,USSouthDakotaPerkins,South Dakota,Perkins,2022-04-28 09:13:11,2021-10-11,1.5392961696914622,3.045643479993446,6.45837241065174,,,,,,,,,,,,
46105,0,USSouthDakotaPerkins,South Dakota,Perkins,2022-04-28 09:13:11,2021-10-12,1.5392961696914622,3.045643479993446,6.45837241065174,,,,,,,,,,,,
46105,0,USSouthDakotaPerkins,South Dakota,Perkins,2022-04-28 09:13:11,2021-10-13,1.5392961696914622,3.045643479993446,6.45837241065174,,,,,,,,,,,,
46105,0,USSouthDakotaPerkins,South Dakota,Perkins,2022-04-28 09:13:11,2021-10-14,1.0398541258216094,1.9919267992758722,4.083424637377772,,,,,,,,,,,,
46105,0,USSouthDakotaPerkins,South Dakota,Perkins,2022-04-28 09:13:11,2021-10-15,1.0398541258216094,1.9919267992758722,4.083424637377772,,,,,,,,,,,,
46105,0,USSouthDakotaPerkins,South Dakota,Perkins,2022-04-28 09:13:11,2021-10-16,1.0398541258216094,1.9919267992758722,4.083424637377772,,,,,,,,,,,,
46105,0,USSouthDakotaPerkins,South Dakota,Perkins,2022-04-28 09:13:11,2021-10-17,1.0398541258216094,1.9919267992758722,4.083424637377772,,,,,,,,,,,,
46105,0,USSouthDakotaPerkins,South Dakota,Perkins,2022-04-28 09:13:11,2021-10-18,1.0398541258216094,1.9919267992758722,4.083424637377772,,,,,,,,,,,,
46105,0,USSouthDakotaPerkins,South Dakota,Perkins,2022-04-28 09:13:11,2021-10-19,1.0398541258216094,1.9919267992758722,4.083424637377772,,,,,,,,,,,,
46105,0,USSouthDakotaPerkins,South Dakota,Perkins,2022-04-28 09:13:11,2021-10-20,1.0398541258216094,1.9919267992758722,4.083424637377772,,,,,,,,,,,,
46105,0,USSouthDakotaPerkins,South Dakota,Perkins,2022-04-28 09:13:11,2021-10-21,1.0085400906810613,2.1607596812498153,4.974327528402267,,,,,,,,,,,,
46105,0,USSouthDakotaPerkins,South Dakota,Perkins,2022-04-28 09:13:11,2021-10-22,1.0085400906810613,2.1607596812498153,4.974327528402267,,,,,,,,,,,,
46105,0,USSouthDakotaPerkins,South Dakota,Perkins,2022-04-28 09:13:11,2021-10-23,1.0085400906810613,2.1607596812498153,4.974327528402267,,,,,,,,,,,,
46105,0,USSouthDakotaPerkins,South Dakota,Perkins,2022-04-28 09:13:11,2021-10-24,1.0085400906810613,2.1607596812498153,4.974327528402267,,,,,,,,,,,,
46105,0,USSouthDakotaPerkins,South Dakota,Perkins,2022-04-28 09:13:11,2021-10-25,1.0085400906810613,2.1607596812498153,4.974327528402267,,,,,,,,,,,,
46105,0,USSouthDakotaPerkins,South Dakota,Perkins,2022-04-28 09:13:11,2021-10-26,1.0085400906810613,2.1607596812498153,4.974327528402267,,,,,,,,,,,,
46105,0,USSouthDakotaPerkins,South Dakota,Perkins,2022-04-28 09:13:11,2021-10-27,1.0085400906810613,2.1607596812498153,4.974327528402267,,,,,,,,,,,,
46105,0,USSouthDakotaPerkins,South Dakota,Perkins,2022-04-28 09:13:11,2021-10-28,0.6586335573317902,1.3851237874180462,3.1285123935712247,,,,,,,,,,,,
46105,0,USSouthDakotaPerkins,South Dakota,Perkins,2022-04-28 09:13:11,2021-10-29,0.6586335573317902,1.3851237874180462,3.1285123935712247,,,,,,,,,,,,
46105,0,USSouthDakotaPerkins,South Dakota,Perkins,2022-04-28 09:13:11,2021-10-30,0.6586335573317902,1.3851237874180462,3.1285123935712247,,,,,,,,,,,,
46105,0,USSouthDakotaPerkins,South Dakota,Perkins,2022-04-28 09:13:11,2021-10-31,0.6586335573317902,1.3851237874180462,3.1285123935712247,,,,,,,,,,,,
46105,0,USSouthDakotaPerkins,South Dakota,Perkins,2022-04-28 09:13:11,2021-11-01,0.6586335573317902,1.3851237874180462,3.1285123935712247,,,,,,,,,,,,
46105,0,USSouthDakotaPerkins,South Dakota,Perkins,2022-04-28 09:13:11,2021-11-02,0.6586335573317902,1.3851237874180462,3.1285123935712247,,,,,,,,,,,,
46105,0,USSouthDakotaPerkins,South Dakota,Perkins,2022-04-28 09:13:11,2021-11-03,0.6586335573317902,1.3851237874180462,3.1285123935712247,,,,,,,,,,,,
46105,0,USSouthDakotaPerkins,South Dakota,Perkins,2022-04-28 09:13:11,2021-11-04,1.8732544993530693,3.261150860957127,6.040249497720115,,,,,,,,,,,,
46105,0,USSouthDakotaPerkins,South Dakota,Perkins,2022-04-28 09:13:11,2021-11-05,1.8732544993530693,3.261150860957127,6.040249497720115,,,,,,,,,,,,
46105,0,USSouthDakotaPerkins,South Dakota,Perkins,2022-04-28 09:13:11,2021-11-06,1.8732544993530693,3.261150860957127,6.040249497720115,,,,,,,,,,,,
46105,0,USSouthDakotaPerkins,South Dakota,Perkins,2022-04-28 09:13:11,2021-11-07,1.8732544993530693,3.261150860957127,6.040249497720115,,,,,,,,,,,,
46105,0,USSouthDakotaPerkins,South Dakota,Perkins,2022-04-28 09:13:11,2021-11-08,1.8732544993530693,3.261150860957127,6.040249497720115,,,,,,,,,,,,
46105,0,USSouthDakotaPerkins,South Dakota,Perkins,2022-04-28 09:13:11,2021-11-09,1.8732544993530693,3.261150860957127,6.040249497720115,,,,,,,,,,,,
46105,0,USSouthDakotaPerkins,South Dakota,Perkins,2022-04-28 09:13:11,2021-11-10,1.8732544993530693,3.261150860957127,6.040249497720115,,,,,,,,,,,,
46105,0,USSouthDakotaPerkins,South Dakota,Perkins,2022-04-28 09:13:11,2021-11-11,0.4877121859447743,1.013928195986872,2.2631290234479335,,,,,,,,,,,,
46105,0,USSouthDakotaPerkins,South Dakota,Perkins,2022-04-28 09:13:11,2021-11-12,0.4877121859447743,1.013928195986872,2.2631290234479335,,,,,,,,,,,,
46105,0,USSouthDakotaPerkins,South Dakota,Perkins,2022-04-28 09:13:11,2021-11-13,0.4877121859447743,1.013928195986872,2.2631290234479335,,,,,,,,,,,,
46105,0,USSouthDakotaPerkins,South Dakota,Perkins,2022-04-28 09:13:11,2021-11-14,0.4877121859447743,1.013928195986872,2.2631290234479335,,,,,,,,,,,,
46105,0,USSouthDakotaPerkins,South Dakota,Perkins,2022-04-28 09:13:11,2021-11-15,0.4877121859447743,1.013928195986872,2.2631290234479335,,,,,,,,,,,,
46105,0,USSouthDakotaPerkins,South Dakota,Perkins,2022-04-28 09:13:11,2021-11-16,0.4877121859447743,1.013928195986872,2.2631290234479335,,,,,,,,,,,,
46105,0,USSouthDakotaPerkins,South Dakota,Perkins,2022-04-28 09:13:11,2021-11-17,0.4877121859447743,1.013928195986872,2.2631290234479335,,,,,,,,,,,,
46105,0,USSouthDakotaPerkins,South Dakota,Perkins,2022-04-28 09:13:11,2021-11-18,2.984522818928578,5.4907442327815845,10.786678415686735,,,,,,,,,,,,
46105,0,USSouthDakotaPerkins,South Dakota,Perkins,2022-04-28 09:13:11,2021-11-19,2.984522818928578,5.4907442327815845,10.786678415686735,,,,,,,,,,,,
46105,0,USSouthDakotaPerkins,South Dakota,Perkins,2022-04-28 09:13:11,2021-11-20,2.984522818928578,5.4907442327815845,10.786678415686735,,,,,,,,,,,,
46105,0,USSouthDakotaPerkins,South Dakota,Perkins,2022-04-28 09:13:11,2021-11-21,2.984522818928578,5.4907442327815845,10.786678415686735,,,,,,,,,,,,
46105,0,USSouthDakotaPerkins,South Dakota,Perkins,2022-04-28 09:13:11,2021-11-22,2.984522818928578,5.4907442327815845,10.786678415686735,,,,,,,,,,,,
46105,0,USSouthDakotaPerkins,South Dakota,Perkins,2022-04-28 09:13:11,2021-11-23,2.984522818928578,5.4907442327815845,10.786678415686735,,,,,,,,,,,,
46105,0,USSouthDakotaPerkins,South Dakota,Perkins,2022-04-28 09:13:11,2021-11-24,2.984522818928578,5.4907442327815845,10.786678415686735,,,,,,,,,,,,
46105,0,USSouthDakotaPerkins,South Dakota,Perkins,2022-04-28 09:13:11,2021-11-25,1.7845065087207026,2.7891601806564013,4.594267449305069,,,,,,,,,,,,
46105,0,USSouthDakotaPerkins,South Dakota,Perkins,2022-04-28 09:13:11,2021-11-26,1.7845065087207026,2.7891601806564013,4.594267449305069,,,,,,,,,,,,
46105,0,USSouthDakotaPerkins,South Dakota,Perkins,2022-04-28 09:13:11,2021-11-27,1.7845065087207026,2.7891601806564013,4.594267449305069,,,,,,,,,,,,
46105,0,USSouthDakotaPerkins,South Dakota,Perkins,2022-04-28 09:13:11,2021-11-28,1.7845065087207026,2.7891601806564013,4.594267449305069,,,,,,,,,,,,
46105,0,USSouthDakotaPerkins,South Dakota,Perkins,2022-04-28 09:13:11,2021-11-29,1.7845065087207026,2.7891601806564013,4.594267449305069,,,,,,,,,,,,
46105,0,USSouthDakotaPerkins,South Dakota,Perkins,2022-04-28 09:13:11,2021-11-30,1.7845065087207026,2.7891601806564013,4.594267449305069,,,,,,,,,,,,
46105,0,USSouthDakotaPerkins,South Dakota,Perkins,2022-04-28 09:13:11,2021-12-01,1.7845065087207026,2.7891601806564013,4.594267449305069,,,,,,,,,,,,
46105,0,USSouthDakotaPerkins,South Dakota,Perkins,2022-04-28 09:13:11,2021-12-02,1.534177868973417,2.2246684795288614,3.371177645552581,,,,,,,,,,,,
46105,0,USSouthDakotaPerkins,South Dakota,Perkins,2022-04-28 09:13:11,2021-12-03,1.534177868973417,2.2246684795288614,3.371177645552581,,,,,,,,,,,,
46105,0,USSouthDakotaPerkins,South Dakota,Perkins,2022-04-28 09:13:11,2021-12-04,1.534177868973417,2.2246684795288614,3.371177645552581,,,,,,,,,,,,
46105,0,USSouthDakotaPerkins,South Dakota,Perkins,2022-04-28 09:13:11,2021-12-05,1.534177868973417,2.2246684795288614,3.371177645552581,,,,,,,,,,,,
46105,0,USSouthDakotaPerkins,South Dakota,Perkins,2022-04-28 09:13:11,2021-12-06,1.534177868973417,2.2246684795288614,3.371177645552581,,,,,,,,,,,,
46105,0,USSouthDakotaPerkins,South Dakota,Perkins,2022-04-28 09:13:11,2021-12-07,1.534177868973417,2.2246684795288614,3.371177645552581,,,,,,,,,,,,
46105,0,USSouthDakotaPerkins,South Dakota,Perkins,2022-04-28 09:13:11,2021-12-08,1.534177868973417,2.2246684795288614,3.371177645552581,,,,,,,,,,,,
46105,0,USSouthDakotaPerkins,South Dakota,Perkins,2022-04-28 09:13:11,2021-12-09,2.846352808694247,3.738287242757657,5.063966426130034,,,,,,,,,,,,
46105,0,USSouthDakotaPerkins,South Dakota,Perkins,2022-04-28 09:13:11,2021-12-10,2.846352808694247,3.738287242757657,5.063966426130034,,,,,,,,,,,,
46105,0,USSouthDakotaPerkins,South Dakota,Perkins,2022-04-28 09:13:11,2021-12-11,2.846352808694247,3.738287242757657,5.063966426130034,,,,,,,,,,,,
46105,0,USSouthDakotaPerkins,South Dakota,Perkins,2022-04-28 09:13:11,2021-12-12,2.846352808694247,3.738287242757657,5.063966426130034,,,,,,,,,,,,
46105,0,USSouthDakotaPerkins,South Dakota,Perkins,2022-04-28 09:13:11,2021-12-13,2.846352808694247,3.738287242757657,5.063966426130034,,,,,,,,,,,,
46105,0,USSouthDakotaPerkins,South Dakota,Perkins,2022-04-28 09:13:11,2021-12-14,2.846352808694247,3.738287242757657,5.063966426130034,,,,,,,,,,,,
46105,0,USSouthDakotaPerkins,South Dakota,Perkins,2022-04-28 09:13:11,2021-12-15,2.846352808694247,3.738287242757657,5.063966426130034,,,,,,,,,,,,
46105,0,USSouthDakotaPerkins,South Dakota,Perkins,2022-04-28 09:13:11,2021-12-16,1.9572939948467987,2.564010919228509,3.4630574313256077,,,,,,,,,,,,
46105,0,USSouthDakotaPerkins,South Dakota,Perkins,2022-04-28 09:13:11,2021-12-17,1.9572939948467987,2.564010919228509,3.4630574313256077,,,,,,,,,,,,
46105,0,USSouthDakotaPerkins,South Dakota,Perkins,2022-04-28 09:13:11,2021-12-18,1.9572939948467987,2.564010919228509,3.4630574313256077,,,,,,,,,,,,
46105,0,USSouthDakotaPerkins,South Dakota,Perkins,2022-04-28 09:13:11,2021-12-19,1.9572939948467987,2.564010919228509,3.4630574313256077,,,,,,,,,,,,
46105,0,USSouthDakotaPerkins,South Dakota,Perkins,2022-04-28 09:13:11,2021-12-20,1.9572939948467987,2.564010919228509,3.4630574313256077,,,,,,,,,,,,
46105,0,USSouthDakotaPerkins,South Dakota,Perkins,2022-04-28 09:13:11,2021-12-21,1.9572939948467987,2.564010919228509,3.4630574313256077,,,,,,,,,,,,
46105,0,USSouthDakotaPerkins,South Dakota,Perkins,2022-04-28 09:13:11,2021-12-22,1.9572939948467987,2.564010919228509,3.4630574313256077,,,,,,,,,,,,
46105,0,USSouthDakotaPerkins,South Dakota,Perkins,2022-04-28 09:13:11,2021-12-23,1.6307587560050505,2.8796683879524165,5.415616258211988,,,,,,,,,,,,
46105,0,USSouthDakotaPerkins,South Dakota,Perkins,2022-04-28 09:13:11,2021-12-24,1.6307587560050505,2.8796683879524165,5.415616258211988,,,,,,,,,,,,
46105,0,USSouthDakotaPerkins,South Dakota,Perkins,2022-04-28 09:13:11,2021-12-25,1.6307587560050505,2.8796683879524165,5.415616258211988,,,,,,,,,,,,
46105,0,USSouthDakotaPerkins,South Dakota,Perkins,2022-04-28 09:13:11,2021-12-26,1.6307587560050505,2.8796683879524165,5.415616258211988,,,,,,,,,,,,
46105,0,USSouthDakotaPerkins,South Dakota,Perkins,2022-04-28 09:13:11,2021-12-27,1.6307587560050505,2.8796683879524165,5.415616258211988,,,,,,,,,,,,
46105,0,USSouthDakotaPerkins,South Dakota,Perkins,2022-04-28 09:13:11,2021-12-28,1.6307587560050505,2.8796683879524165,5.415616258211988,,,,,,,,,,,,
46105,0,USSouthDakotaPerkins,South Dakota,Perkins,2022-04-28 09:13:11,2021-12-29,1.6307587560050505,2.8796683879524165,5.415616258211988,,,,,,,,,,,,
46105,0,USSouthDakotaPerkins,South Dakota,Perkins,2022-04-28 09:13:11,2021-12-30,0.9581603251304628,1.960064734877596,4.302644793563962,,,,,,,,,,,,
46105,0,USSouthDakotaPerkins,South Dakota,Perkins,2022-04-28 09:13:11,2021-12-31,0.9581603251304628,1.960064734877596,4.302644793563962,,,,,,,,,,,,
46105,0,USSouthDakotaPerkins,South Dakota,Perkins,2022-04-28 09:13:11,2022-01-01,0.9581603251304628,1.960064734877596,4.302644793563962,,,,,,,,,,,,
46105,0,USSouthDakotaPerkins,South Dakota,Perkins,2022-04-28 09:13:11,2022-01-02,0.9581603251304628,1.960064734877596,4.302644793563962,,,,,,,,,,,,
46105,0,USSouthDakotaPerkins,South Dakota,Perkins,2022-04-28 09:13:11,2022-01-03,0.9581603251304628,1.960064734877596,4.302644793563962,,,,,,,,,,,,
46105,0,USSouthDakotaPerkins,South Dakota,Perkins,2022-04-28 09:13:11,2022-01-04,0.9581603251304628,1.960064734877596,4.302644793563962,,,,,,,,,,,,
46105,0,USSouthDakotaPerkins,South Dakota,Perkins,2022-04-28 09:13:11,2022-01-05,0.9581603251304628,1.960064734877596,4.302644793563962,,,,,,,,,,,,
46105,0,USSouthDakotaPerkins,South Dakota,Perkins,2022-04-28 09:13:11,2022-01-06,1.183589918339798,2.2588904614224035,4.612746073588564,,,,,,,,,,,,
46105,0,USSouthDakotaPerkins,South Dakota,Perkins,2022-04-28 09:13:11,2022-01-07,1.183589918339798,2.2588904614224035,4.612746073588564,,,,,,,,,,,,
46105,0,USSouthDakotaPerkins,South Dakota,Perkins,2022-04-28 09:13:11,2022-01-08,1.183589918339798,2.2588904614224035,4.612746073588564,,,,,,,,,,,,
46105,0,USSouthDakotaPerkins,South Dakota,Perkins,2022-04-28 09:13:11,2022-01-09,1.183589918339798,2.2588904614224035,4.612746073588564,,,,,,,,,,,,
46105,0,USSouthDakotaPerkins,South Dakota,Perkins,2022-04-28 09:13:11,2022-01-10,1.183589918339798,2.2588904614224035,4.612746073588564,,,,,,,,,,,,
46105,0,USSouthDakotaPerkins,South Dakota,Perkins,2022-04-28 09:13:11,2022-01-11,1.183589918339798,2.2588904614224035,4.612746073588564,,,,,,,,,,,,
46105,0,USSouthDakotaPerkins,South Dakota,Perkins,2022-04-28 09:13:11,2022-01-12,1.183589918339798,2.2588904614224035,4.612746073588564,,,,,,,,,,,,
46105,0,USSouthDakotaPerkins,South Dakota,Perkins,2022-04-28 09:13:11,2022-01-13,1.7290554693675797,3.2212405635754213,6.412863870552314,,,,,,,,,,,,
46105,0,USSouthDakotaPerkins,South Dakota,Perkins,2022-04-28 09:13:11,2022-01-14,1.7290554693675797,3.2212405635754213,6.412863870552314,,,,,,,,,,,,
46105,0,USSouthDakotaPerkins,South Dakota,Perkins,2022-04-28 09:13:11,2022-01-15,1.7290554693675797,3.2212405635754213,6.412863870552314,,,,,,,,,,,,
46105,0,USSouthDakotaPerkins,South Dakota,Perkins,2022-04-28 09:13:11,2022-01-16,1.7290554693675797,3.2212405635754213,6.412863870552314,,,,,,,,,,,,
46105,0,USSouthDakotaPerkins,South Dakota,Perkins,2022-04-28 09:13:11,2022-01-17,1.7290554693675797,3.2212405635754213,6.412863870552314,,,,,,,,,,,,
46105,0,USSouthDakotaPerkins,South Dakota,Perkins,2022-04-28 09:13:11,2022-01-18,1.7290554693675797,3.2212405635754213,6.412863870552314,,,,,,,,,,,,
46105,0,USSouthDakotaPerkins,South Dakota,Perkins,2022-04-28 09:13:11,2022-01-19,1.7290554693675797,3.2212405635754213,6.412863870552314,,,,,,,,,,,,
46105,0,USSouthDakotaPerkins,South Dakota,Perkins,2022-04-28 09:13:11,2022-01-20,6.783044586706602,10.275204688907081,16.349061795100123,,,,,,,,,,,,
46105,0,USSouthDakotaPerkins,South Dakota,Perkins,2022-04-28 09:13:11,2022-01-21,6.783044586706602,10.275204688907081,16.349061795100123,,,,,,,,,,,,
46105,0,USSouthDakotaPerkins,South Dakota,Perkins,2022-04-28 09:13:11,2022-01-22,6.783044586706602,10.275204688907081,16.349061795100123,,,,,,,,,,,,
46105,0,USSouthDakotaPerkins,South Dakota,Perkins,2022-04-28 09:13:11,2022-01-23,6.783044586706602,10.275204688907081,16.349061795100123,,,,,,,,,,,,
46105,0,USSouthDakotaPerkins,South Dakota,Perkins,2022-04-28 09:13:11,2022-01-24,6.783044586706602,10.275204688907081,16.349061795100123,,,,,,,,,,,,
46105,0,USSouthDakotaPerkins,South Dakota,Perkins,2022-04-28 09:13:11,2022-01-25,6.783044586706602,10.275204688907081,16.349061795100123,,,,,,,,,,,,
46105,0,USSouthDakotaPerkins,South Dakota,Perkins,2022-04-28 09:13:11,2022-01-26,6.783044586706602,10.275204688907081,16.349061795100123,,,,,,,,,,,,
46105,0,USSouthDakotaPerkins,South Dakota,Perkins,2022-04-28 09:13:11,2022-01-27,3.7394390688020933,5.440410177850722,8.274808549635262,,,,,,,,,,,,
46105,0,USSouthDakotaPerkins,South Dakota,Perkins,2022-04-28 09:13:11,2022-01-28,3.7394390688020933,5.440410177850722,8.274808549635262,,,,,,,,,,,,
46105,0,USSouthDakotaPerkins,South Dakota,Perkins,2022-04-28 09:13:11,2022-01-29,3.7394390688020933,5.440410177850722,8.274808549635262,,,,,,,,,,,,
46105,0,USSouthDakotaPerkins,South Dakota,Perkins,2022-04-28 09:13:11,2022-01-30,3.7394390688020933,5.440410177850722,8.274808549635262,,,,,,,,,,,,
46105,0,USSouthDakotaPerkins,South Dakota,Perkins,2022-04-28 09:13:11,2022-01-31,3.7394390688020933,5.440410177850722,8.274808549635262,,,,,,,,,,,,
46105,0,USSouthDakotaPerkins,South Dakota,Perkins,2022-04-28 09:13:11,2022-02-01,3.7394390688020933,5.440410177850722,8.274808549635262,,,,,,,,,,,,
46105,0,USSouthDakotaPerkins,South Dakota,Perkins,2022-04-28 09:13:11,2022-02-02,3.7394390688020933,5.440410177850722,8.274808549635262,,,,,,,,,,,,
46105,0,USSouthDakotaPerkins,South Dakota,Perkins,2022-04-28 09:13:11,2022-02-03,1.2626758466521615,2.295726792437232,4.453869532443543,,,,,,,,,,,,
46105,0,USSouthDakotaPerkins,South Dakota,Perkins,2022-04-28 09:13:11,2022-02-04,1.2626758466521615,2.295726792437232,4.453869532443543,,,,,,,,,,,,
46105,0,USSouthDakotaPerkins,South Dakota,Perkins,2022-04-28 09:13:11,2022-02-05,1.2626758466521615,2.295726792437232,4.453869532443543,,,,,,,,,,,,
46105,0,USSouthDakotaPerkins,South Dakota,Perkins,2022-04-28 09:13:11,2022-02-06,1.2626758466521615,2.295726792437232,4.453869532443543,,,,,,,,,,,,
46105,0,USSouthDakotaPerkins,South Dakota,Perkins,2022-04-28 09:13:11,2022-02-07,1.2626758466521615,2.295726792437232,4.453869532443543,,,,,,,,,,,,
46105,0,USSouthDakotaPerkins,South Dakota,Perkins,2022-04-28 09:13:11,2022-02-08,1.2626758466521615,2.295726792437232,4.453869532443543,,,,,,,,,,,,
46105,0,USSouthDakotaPerkins,South Dakota,Perkins,2022-04-28 09:13:11,2022-02-09,1.2626758466521615,2.295726792437232,4.453869532443543,,,,,,,,,,,,
46105,0,USSouthDakotaPerkins,South Dakota,Perkins,2022-04-28 09:13:11,2022-02-10,0.41580482670230073,0.7476249500147331,1.4333735461449315,,,,,,,,,,,,
46105,0,USSouthDakotaPerkins,South Dakota,Perkins,2022-04-28 09:13:11,2022-02-11,0.41580482670230073,0.7476249500147331,1.4333735461449315,,,,,,,,,,,,
46105,0,USSouthDakotaPerkins,South Dakota,Perkins,2022-04-28 09:13:11,2022-02-12,0.41580482670230073,0.7476249500147331,1.4333735461449315,,,,,,,,,,,,
46105,0,USSouthDakotaPerkins,South Dakota,Perkins,2022-04-28 09:13:11,2022-02-13,0.41580482670230073,0.7476249500147331,1.4333735461449315,,,,,,,,,,,,
46105,0,USSouthDakotaPerkins,South Dakota,Perkins,2022-04-28 09:13:11,2022-02-14,0.41580482670230073,0.7476249500147331,1.4333735461449315,,,,,,,,,,,,
46105,0,USSouthDakotaPerkins,South Dakota,Perkins,2022-04-28 09:13:11,2022-02-15,0.41580482670230073,0.7476249500147331,1.4333735461449315,,,,,,,,,,,,
46105,0,USSouthDakotaPerkins,South Dakota,Perkins,2022-04-28 09:13:11,2022-02-16,0.41580482670230073,0.7476249500147331,1.4333735461449315,,,,,,,,,,,,
46105,0,USSouthDakotaPerkins,South Dakota,Perkins,2022-04-28 09:13:11,2022-02-17,0,0,0,,,,,,,,,,,,
46105,0,USSouthDakotaPerkins,South Dakota,Perkins,2022-04-28 09:13:11,2022-02-18,0,0,0,,,,,,,,,,,,
46105,0,USSouthDakotaPerkins,South Dakota,Perkins,2022-04-28 09:13:11,2022-02-19,0,0,0,,,,,,,,,,,,
46105,0,USSouthDakotaPerkins,South Dakota,Perkins,2022-04-28 09:13:11,2022-02-20,0,0,0,,,,,,,,,,,,
46105,0,USSouthDakotaPerkins,South Dakota,Perkins,2022-04-28 09:13:11,2022-02-21,0,0,0,,,,,,,,,,,,
46105,0,USSouthDakotaPerkins,South Dakota,Perkins,2022-04-28 09:13:11,2022-02-22,0,0,0,,,,,,,,,,,,
46105,0,USSouthDakotaPerkins,South Dakota,Perkins,2022-04-28 09:13:11,2022-02-23,0,0,0,,,,,,,,,,,,
46105,0,USSouthDakotaPerkins,South Dakota,Perkins,2022-04-28 09:13:11,2022-02-24,0.4277931587235076,0.7894454856689606,1.5559261939969233,,,,,,,,,,,,
46105,0,USSouthDakotaPerkins,South Dakota,Perkins,2022-04-28 09:13:11,2022-02-25,0.4277931587235076,0.7894454856689606,1.5559261939969233,,,,,,,,,,,,
46105,0,USSouthDakotaPerkins,South Dakota,Perkins,2022-04-28 09:13:11,2022-02-26,0.4277931587235076,0.7894454856689606,1.5559261939969233,,,,,,,,,,,,
46105,0,USSouthDakotaPerkins,South Dakota,Perkins,2022-04-28 09:13:11,2022-02-27,0.4277931587235076,0.7894454856689606,1.5559261939969233,,,,,,,,,,,,
46105,0,USSouthDakotaPerkins,South Dakota,Perkins,2022-04-28 09:13:11,2022-02-28,0.4277931587235076,0.7894454856689606,1.5559261939969233,,,,,,,,,,,,
46105,0,USSouthDakotaPerkins,South Dakota,Perkins,2022-04-28 09:13:11,2022-03-01,0.4277931587235076,0.7894454856689606,1.5559261939969233,,,,,,,,,,,,
46105,0,USSouthDakotaPerkins,South Dakota,Perkins,2022-04-28 09:13:11,2022-03-02,0.4277931587235076,0.7894454856689606,1.5559261939969233,,,,,,,,,,,,
46105,0,USSouthDakotaPerkins,South Dakota,Perkins,2022-04-28 09:13:11,2022-03-03,0,0,0,,,,,,,,,,,,
46105,0,USSouthDakotaPerkins,South Dakota,Perkins,2022-04-28 09:13:11,2022-03-04,0,0,0,,,,,,,,,,,,
46105,0,USSouthDakotaPerkins,South Dakota,Perkins,2022-04-28 09:13:11,2022-03-05,0,0,0,,,,,,,,,,,,
46105,0,USSouthDakotaPerkins,South Dakota,Perkins,2022-04-28 09:13:11,2022-03-06,0,0,0,,,,,,,,,,,,
46105,0,USSouthDakotaPerkins,South Dakota,Perkins,2022-04-28 09:13:11,2022-03-07,0,0,0,,,,,,,,,,,,
46105,0,USSouthDakotaPerkins,South Dakota,Perkins,2022-04-28 09:13:11,2022-03-08,0,0,0,,,,,,,,,,,,
46105,0,USSouthDakotaPerkins,South Dakota,Perkins,2022-04-28 09:13:11,2022-03-09,0,0,0,,,,,,,,,,,,
46105,0,USSouthDakotaPerkins,South Dakota,Perkins,2022-04-28 09:13:11,2022-03-10,0.15044338544273236,0.2915294805783016,0.6048969892738746,,,,,,,,,,,,
46105,0,USSouthDakotaPerkins,South Dakota,Perkins,2022-04-28 09:13:11,2022-03-11,0.15044338544273236,0.2915294805783016,0.6048969892738746,,,,,,,,,,,,
46105,0,USSouthDakotaPerkins,South Dakota,Perkins,2022-04-28 09:13:11,2022-03-12,0.15044338544273236,0.2915294805783016,0.6048969892738746,,,,,,,,,,,,
46105,0,USSouthDakotaPerkins,South Dakota,Perkins,2022-04-28 09:13:11,2022-03-13,0.15044338544273236,0.2915294805783016,0.6048969892738746,,,,,,,,,,,,
46105,0,USSouthDakotaPerkins,South Dakota,Perkins,2022-04-28 09:13:11,2022-03-14,0.15044338544273236,0.2915294805783016,0.6048969892738746,,,,,,,,,,,,
46105,0,USSouthDakotaPerkins,South Dakota,Perkins,2022-04-28 09:13:11,2022-03-15,0.15044338544273236,0.2915294805783016,0.6048969892738746,,,,,,,,,,,,
46105,0,USSouthDakotaPerkins,South Dakota,Perkins,2022-04-28 09:13:11,2022-03-16,0.15044338544273236,0.2915294805783016,0.6048969892738746,,,,,,,,,,,,
46105,0,USSouthDakotaPerkins,South Dakota,Perkins,2022-04-28 09:13:11,2022-03-17,0.17195317622118006,0.3760003540260395,0.8838454542966331,,,,,,,,,,,,
46105,0,USSouthDakotaPerkins,South Dakota,Perkins,2022-04-28 09:13:11,2022-03-18,0.17195317622118006,0.3760003540260395,0.8838454542966331,,,,,,,,,,,,
46105,0,USSouthDakotaPerkins,South Dakota,Perkins,2022-04-28 09:13:11,2022-03-19,0.17195317622118006,0.3760003540260395,0.8838454542966331,,,,,,,,,,,,
46105,0,USSouthDakotaPerkins,South Dakota,Perkins,2022-04-28 09:13:11,2022-03-20,0.17195317622118006,0.3760003540260395,0.8838454542966331,,,,,,,,,,,,
46105,0,USSouthDakotaPerkins,South Dakota,Perkins,2022-04-28 09:13:11,2022-03-21,0.17195317622118006,0.3760003540260395,0.8838454542966331,,,,,,,,,,,,
46105,0,USSouthDakotaPerkins,South Dakota,Perkins,2022-04-28 09:13:11,2022-03-22,0.17195317622118006,0.3760003540260395,0.8838454542966331,,,,,,,,,,,,
46105,0,USSouthDakotaPerkins,South Dakota,Perkins,2022-04-28 09:13:11,2022-03-23,0.17195317622118006,0.3760003540260395,0.8838454542966331,,,,,,,,,,,,
