FIPS,HR_UID,nameid,province,region,analysisTime,dates,pointprevalence_025,pointprevalence_50,pointprevalence_975,pointinfections_025,pointinfections_50,pointinfections_975,pointinfectious_025,pointinfectious_50,pointinfectious_975,pointinfectiousprevalence_025,pointinfectiousprevalence_50,pointinfectiousprevalence_975,infectrate_025,infectrate_50,infectrate_975
49049,0,USUtahUtah,Utah,Utah,2022-04-28 09:13:11,2020-03-19,0.02787036542423918,0.11514988759163654,0.5047389205726501,,,,,,,,,,,,
49049,0,USUtahUtah,Utah,Utah,2022-04-28 09:13:11,2020-03-20,0.02787036542423918,0.11514988759163654,0.5047389205726501,,,,,,,,,,,,
49049,0,USUtahUtah,Utah,Utah,2022-04-28 09:13:11,2020-03-21,0.02787036542423918,0.11514988759163654,0.5047389205726501,,,,,,,,,,,,
49049,0,USUtahUtah,Utah,Utah,2022-04-28 09:13:11,2020-03-22,0.02787036542423918,0.11514988759163654,0.5047389205726501,,,,,,,,,,,,
49049,0,USUtahUtah,Utah,Utah,2022-04-28 09:13:11,2020-03-23,0.02787036542423918,0.11514988759163654,0.5047389205726501,,,,,,,,,,,,
49049,0,USUtahUtah,Utah,Utah,2022-04-28 09:13:11,2020-03-24,0.02787036542423918,0.11514988759163654,0.5047389205726501,,,,,,,,,,,,
49049,0,USUtahUtah,Utah,Utah,2022-04-28 09:13:11,2020-03-25,0.02787036542423918,0.11514988759163654,0.5047389205726501,,,,,,,,,,,,
49049,0,USUtahUtah,Utah,Utah,2022-04-28 09:13:11,2020-03-26,0.06041682020621258,0.18811536695437708,0.6279454532157862,,,,,,,,,,,,
49049,0,USUtahUtah,Utah,Utah,2022-04-28 09:13:11,2020-03-27,0.06041682020621258,0.18811536695437708,0.6279454532157862,,,,,,,,,,,,
49049,0,USUtahUtah,Utah,Utah,2022-04-28 09:13:11,2020-03-28,0.06041682020621258,0.18811536695437708,0.6279454532157862,,,,,,,,,,,,
49049,0,USUtahUtah,Utah,Utah,2022-04-28 09:13:11,2020-03-29,0.06041682020621258,0.18811536695437708,0.6279454532157862,,,,,,,,,,,,
49049,0,USUtahUtah,Utah,Utah,2022-04-28 09:13:11,2020-03-30,0.06041682020621258,0.18811536695437708,0.6279454532157862,,,,,,,,,,,,
49049,0,USUtahUtah,Utah,Utah,2022-04-28 09:13:11,2020-03-31,0.06041682020621258,0.18811536695437708,0.6279454532157862,,,,,,,,,,,,
49049,0,USUtahUtah,Utah,Utah,2022-04-28 09:13:11,2020-04-01,0.06041682020621258,0.18811536695437708,0.6279454532157862,,,,,,,,,,,,
49049,0,USUtahUtah,Utah,Utah,2022-04-28 09:13:11,2020-04-02,0.17518623343768724,0.4332086447781655,1.152847043257719,,,,,,,,,,,,
49049,0,USUtahUtah,Utah,Utah,2022-04-28 09:13:11,2020-04-03,0.17518623343768724,0.4332086447781655,1.152847043257719,,,,,,,,,,,,
49049,0,USUtahUtah,Utah,Utah,2022-04-28 09:13:11,2020-04-04,0.17518623343768724,0.4332086447781655,1.152847043257719,,,,,,,,,,,,
49049,0,USUtahUtah,Utah,Utah,2022-04-28 09:13:11,2020-04-05,0.17518623343768724,0.4332086447781655,1.152847043257719,,,,,,,,,,,,
49049,0,USUtahUtah,Utah,Utah,2022-04-28 09:13:11,2020-04-06,0.17518623343768724,0.4332086447781655,1.152847043257719,,,,,,,,,,,,
49049,0,USUtahUtah,Utah,Utah,2022-04-28 09:13:11,2020-04-07,0.17518623343768724,0.4332086447781655,1.152847043257719,,,,,,,,,,,,
49049,0,USUtahUtah,Utah,Utah,2022-04-28 09:13:11,2020-04-08,0.17518623343768724,0.4332086447781655,1.152847043257719,,,,,,,,,,,,
49049,0,USUtahUtah,Utah,Utah,2022-04-28 09:13:11,2020-04-09,0.09238596729549961,0.27183385808261706,0.8587615029388997,,,,,,,,,,,,
49049,0,USUtahUtah,Utah,Utah,2022-04-28 09:13:11,2020-04-10,0.09238596729549961,0.27183385808261706,0.8587615029388997,,,,,,,,,,,,
49049,0,USUtahUtah,Utah,Utah,2022-04-28 09:13:11,2020-04-11,0.09238596729549961,0.27183385808261706,0.8587615029388997,,,,,,,,,,,,
49049,0,USUtahUtah,Utah,Utah,2022-04-28 09:13:11,2020-04-12,0.09238596729549961,0.27183385808261706,0.8587615029388997,,,,,,,,,,,,
49049,0,USUtahUtah,Utah,Utah,2022-04-28 09:13:11,2020-04-13,0.09238596729549961,0.27183385808261706,0.8587615029388997,,,,,,,,,,,,
49049,0,USUtahUtah,Utah,Utah,2022-04-28 09:13:11,2020-04-14,0.09238596729549961,0.27183385808261706,0.8587615029388997,,,,,,,,,,,,
49049,0,USUtahUtah,Utah,Utah,2022-04-28 09:13:11,2020-04-15,0.09238596729549961,0.27183385808261706,0.8587615029388997,,,,,,,,,,,,
49049,0,USUtahUtah,Utah,Utah,2022-04-28 09:13:11,2020-04-16,0.16499339273558458,0.35346371360059314,0.8136486036034105,,,,,,,,,,,,
49049,0,USUtahUtah,Utah,Utah,2022-04-28 09:13:11,2020-04-17,0.16499339273558458,0.35346371360059314,0.8136486036034105,,,,,,,,,,,,
49049,0,USUtahUtah,Utah,Utah,2022-04-28 09:13:11,2020-04-18,0.16499339273558458,0.35346371360059314,0.8136486036034105,,,,,,,,,,,,
49049,0,USUtahUtah,Utah,Utah,2022-04-28 09:13:11,2020-04-19,0.16499339273558458,0.35346371360059314,0.8136486036034105,,,,,,,,,,,,
49049,0,USUtahUtah,Utah,Utah,2022-04-28 09:13:11,2020-04-20,0.16499339273558458,0.35346371360059314,0.8136486036034105,,,,,,,,,,,,
49049,0,USUtahUtah,Utah,Utah,2022-04-28 09:13:11,2020-04-21,0.16499339273558458,0.35346371360059314,0.8136486036034105,,,,,,,,,,,,
49049,0,USUtahUtah,Utah,Utah,2022-04-28 09:13:11,2020-04-22,0.16499339273558458,0.35346371360059314,0.8136486036034105,,,,,,,,,,,,
49049,0,USUtahUtah,Utah,Utah,2022-04-28 09:13:11,2020-04-23,0.23463964795051984,0.47641425070542676,1.0377384940780157,,,,,,,,,,,,
49049,0,USUtahUtah,Utah,Utah,2022-04-28 09:13:11,2020-04-24,0.23463964795051984,0.47641425070542676,1.0377384940780157,,,,,,,,,,,,
49049,0,USUtahUtah,Utah,Utah,2022-04-28 09:13:11,2020-04-25,0.23463964795051984,0.47641425070542676,1.0377384940780157,,,,,,,,,,,,
49049,0,USUtahUtah,Utah,Utah,2022-04-28 09:13:11,2020-04-26,0.23463964795051984,0.47641425070542676,1.0377384940780157,,,,,,,,,,,,
49049,0,USUtahUtah,Utah,Utah,2022-04-28 09:13:11,2020-04-27,0.23463964795051984,0.47641425070542676,1.0377384940780157,,,,,,,,,,,,
49049,0,USUtahUtah,Utah,Utah,2022-04-28 09:13:11,2020-04-28,0.23463964795051984,0.47641425070542676,1.0377384940780157,,,,,,,,,,,,
49049,0,USUtahUtah,Utah,Utah,2022-04-28 09:13:11,2020-04-29,0.23463964795051984,0.47641425070542676,1.0377384940780157,,,,,,,,,,,,
49049,0,USUtahUtah,Utah,Utah,2022-04-28 09:13:11,2020-04-30,0.2301539804245908,0.4831834812495815,1.0894042711370184,,,,,,,,,,,,
49049,0,USUtahUtah,Utah,Utah,2022-04-28 09:13:11,2020-05-01,0.2301539804245908,0.4831834812495815,1.0894042711370184,,,,,,,,,,,,
49049,0,USUtahUtah,Utah,Utah,2022-04-28 09:13:11,2020-05-02,0.2301539804245908,0.4831834812495815,1.0894042711370184,,,,,,,,,,,,
49049,0,USUtahUtah,Utah,Utah,2022-04-28 09:13:11,2020-05-03,0.2301539804245908,0.4831834812495815,1.0894042711370184,,,,,,,,,,,,
49049,0,USUtahUtah,Utah,Utah,2022-04-28 09:13:11,2020-05-04,0.2301539804245908,0.4831834812495815,1.0894042711370184,,,,,,,,,,,,
49049,0,USUtahUtah,Utah,Utah,2022-04-28 09:13:11,2020-05-05,0.2301539804245908,0.4831834812495815,1.0894042711370184,,,,,,,,,,,,
49049,0,USUtahUtah,Utah,Utah,2022-04-28 09:13:11,2020-05-06,0.2301539804245908,0.4831834812495815,1.0894042711370184,,,,,,,,,,,,
49049,0,USUtahUtah,Utah,Utah,2022-04-28 09:13:11,2020-05-07,0.15557134953838006,0.35759238433135954,0.8842740874140775,,,,,,,,,,,,
49049,0,USUtahUtah,Utah,Utah,2022-04-28 09:13:11,2020-05-08,0.15557134953838006,0.35759238433135954,0.8842740874140775,,,,,,,,,,,,
49049,0,USUtahUtah,Utah,Utah,2022-04-28 09:13:11,2020-05-09,0.15557134953838006,0.35759238433135954,0.8842740874140775,,,,,,,,,,,,
49049,0,USUtahUtah,Utah,Utah,2022-04-28 09:13:11,2020-05-10,0.15557134953838006,0.35759238433135954,0.8842740874140775,,,,,,,,,,,,
49049,0,USUtahUtah,Utah,Utah,2022-04-28 09:13:11,2020-05-11,0.15557134953838006,0.35759238433135954,0.8842740874140775,,,,,,,,,,,,
49049,0,USUtahUtah,Utah,Utah,2022-04-28 09:13:11,2020-05-12,0.15557134953838006,0.35759238433135954,0.8842740874140775,,,,,,,,,,,,
49049,0,USUtahUtah,Utah,Utah,2022-04-28 09:13:11,2020-05-13,0.15557134953838006,0.35759238433135954,0.8842740874140775,,,,,,,,,,,,
49049,0,USUtahUtah,Utah,Utah,2022-04-28 09:13:11,2020-05-14,0.1448788268742411,0.34686596757995497,0.8936813354843824,,,,,,,,,,,,
49049,0,USUtahUtah,Utah,Utah,2022-04-28 09:13:11,2020-05-15,0.1448788268742411,0.34686596757995497,0.8936813354843824,,,,,,,,,,,,
49049,0,USUtahUtah,Utah,Utah,2022-04-28 09:13:11,2020-05-16,0.1448788268742411,0.34686596757995497,0.8936813354843824,,,,,,,,,,,,
49049,0,USUtahUtah,Utah,Utah,2022-04-28 09:13:11,2020-05-17,0.1448788268742411,0.34686596757995497,0.8936813354843824,,,,,,,,,,,,
49049,0,USUtahUtah,Utah,Utah,2022-04-28 09:13:11,2020-05-18,0.1448788268742411,0.34686596757995497,0.8936813354843824,,,,,,,,,,,,
49049,0,USUtahUtah,Utah,Utah,2022-04-28 09:13:11,2020-05-19,0.1448788268742411,0.34686596757995497,0.8936813354843824,,,,,,,,,,,,
49049,0,USUtahUtah,Utah,Utah,2022-04-28 09:13:11,2020-05-20,0.1448788268742411,0.34686596757995497,0.8936813354843824,,,,,,,,,,,,
49049,0,USUtahUtah,Utah,Utah,2022-04-28 09:13:11,2020-05-21,0.15569250235965781,0.3684730821665337,0.9383943773498471,,,,,,,,,,,,
49049,0,USUtahUtah,Utah,Utah,2022-04-28 09:13:11,2020-05-22,0.15569250235965781,0.3684730821665337,0.9383943773498471,,,,,,,,,,,,
49049,0,USUtahUtah,Utah,Utah,2022-04-28 09:13:11,2020-05-23,0.15569250235965781,0.3684730821665337,0.9383943773498471,,,,,,,,,,,,
49049,0,USUtahUtah,Utah,Utah,2022-04-28 09:13:11,2020-05-24,0.15569250235965781,0.3684730821665337,0.9383943773498471,,,,,,,,,,,,
49049,0,USUtahUtah,Utah,Utah,2022-04-28 09:13:11,2020-05-25,0.15569250235965781,0.3684730821665337,0.9383943773498471,,,,,,,,,,,,
49049,0,USUtahUtah,Utah,Utah,2022-04-28 09:13:11,2020-05-26,0.15569250235965781,0.3684730821665337,0.9383943773498471,,,,,,,,,,,,
49049,0,USUtahUtah,Utah,Utah,2022-04-28 09:13:11,2020-05-27,0.15569250235965781,0.3684730821665337,0.9383943773498471,,,,,,,,,,,,
49049,0,USUtahUtah,Utah,Utah,2022-04-28 09:13:11,2020-05-28,0.2307173328273613,0.5419199920752623,1.3696561673587138,,,,,,,,,,,,
49049,0,USUtahUtah,Utah,Utah,2022-04-28 09:13:11,2020-05-29,0.2307173328273613,0.5419199920752623,1.3696561673587138,,,,,,,,,,,,
49049,0,USUtahUtah,Utah,Utah,2022-04-28 09:13:11,2020-05-30,0.2307173328273613,0.5419199920752623,1.3696561673587138,,,,,,,,,,,,
49049,0,USUtahUtah,Utah,Utah,2022-04-28 09:13:11,2020-05-31,0.2307173328273613,0.5419199920752623,1.3696561673587138,,,,,,,,,,,,
49049,0,USUtahUtah,Utah,Utah,2022-04-28 09:13:11,2020-06-01,0.2307173328273613,0.5419199920752623,1.3696561673587138,,,,,,,,,,,,
49049,0,USUtahUtah,Utah,Utah,2022-04-28 09:13:11,2020-06-02,0.2307173328273613,0.5419199920752623,1.3696561673587138,,,,,,,,,,,,
49049,0,USUtahUtah,Utah,Utah,2022-04-28 09:13:11,2020-06-03,0.2307173328273613,0.5419199920752623,1.3696561673587138,,,,,,,,,,,,
49049,0,USUtahUtah,Utah,Utah,2022-04-28 09:13:11,2020-06-04,0.2846569826421586,0.6537241990535548,1.615113927113778,,,,,,,,,,,,
49049,0,USUtahUtah,Utah,Utah,2022-04-28 09:13:11,2020-06-05,0.2846569826421586,0.6537241990535548,1.615113927113778,,,,,,,,,,,,
49049,0,USUtahUtah,Utah,Utah,2022-04-28 09:13:11,2020-06-06,0.2846569826421586,0.6537241990535548,1.615113927113778,,,,,,,,,,,,
49049,0,USUtahUtah,Utah,Utah,2022-04-28 09:13:11,2020-06-07,0.2846569826421586,0.6537241990535548,1.615113927113778,,,,,,,,,,,,
49049,0,USUtahUtah,Utah,Utah,2022-04-28 09:13:11,2020-06-08,0.2846569826421586,0.6537241990535548,1.615113927113778,,,,,,,,,,,,
49049,0,USUtahUtah,Utah,Utah,2022-04-28 09:13:11,2020-06-09,0.2846569826421586,0.6537241990535548,1.615113927113778,,,,,,,,,,,,
49049,0,USUtahUtah,Utah,Utah,2022-04-28 09:13:11,2020-06-10,0.2846569826421586,0.6537241990535548,1.615113927113778,,,,,,,,,,,,
49049,0,USUtahUtah,Utah,Utah,2022-04-28 09:13:11,2020-06-11,0.31827261967844317,0.7131208734098837,1.718397685204116,,,,,,,,,,,,
49049,0,USUtahUtah,Utah,Utah,2022-04-28 09:13:11,2020-06-12,0.31827261967844317,0.7131208734098837,1.718397685204116,,,,,,,,,,,,
49049,0,USUtahUtah,Utah,Utah,2022-04-28 09:13:11,2020-06-13,0.31827261967844317,0.7131208734098837,1.718397685204116,,,,,,,,,,,,
49049,0,USUtahUtah,Utah,Utah,2022-04-28 09:13:11,2020-06-14,0.31827261967844317,0.7131208734098837,1.718397685204116,,,,,,,,,,,,
49049,0,USUtahUtah,Utah,Utah,2022-04-28 09:13:11,2020-06-15,0.31827261967844317,0.7131208734098837,1.718397685204116,,,,,,,,,,,,
49049,0,USUtahUtah,Utah,Utah,2022-04-28 09:13:11,2020-06-16,0.31827261967844317,0.7131208734098837,1.718397685204116,,,,,,,,,,,,
49049,0,USUtahUtah,Utah,Utah,2022-04-28 09:13:11,2020-06-17,0.31827261967844317,0.7131208734098837,1.718397685204116,,,,,,,,,,,,
49049,0,USUtahUtah,Utah,Utah,2022-04-28 09:13:11,2020-06-18,0.497841298212148,1.0475767936215066,2.36751293984394,,,,,,,,,,,,
49049,0,USUtahUtah,Utah,Utah,2022-04-28 09:13:11,2020-06-19,0.497841298212148,1.0475767936215066,2.36751293984394,,,,,,,,,,,,
49049,0,USUtahUtah,Utah,Utah,2022-04-28 09:13:11,2020-06-20,0.497841298212148,1.0475767936215066,2.36751293984394,,,,,,,,,,,,
49049,0,USUtahUtah,Utah,Utah,2022-04-28 09:13:11,2020-06-21,0.497841298212148,1.0475767936215066,2.36751293984394,,,,,,,,,,,,
49049,0,USUtahUtah,Utah,Utah,2022-04-28 09:13:11,2020-06-22,0.497841298212148,1.0475767936215066,2.36751293984394,,,,,,,,,,,,
49049,0,USUtahUtah,Utah,Utah,2022-04-28 09:13:11,2020-06-23,0.497841298212148,1.0475767936215066,2.36751293984394,,,,,,,,,,,,
49049,0,USUtahUtah,Utah,Utah,2022-04-28 09:13:11,2020-06-24,0.497841298212148,1.0475767936215066,2.36751293984394,,,,,,,,,,,,
49049,0,USUtahUtah,Utah,Utah,2022-04-28 09:13:11,2020-06-25,0.512243002348619,1.0550172696185063,2.3322438424319256,,,,,,,,,,,,
49049,0,USUtahUtah,Utah,Utah,2022-04-28 09:13:11,2020-06-26,0.512243002348619,1.0550172696185063,2.3322438424319256,,,,,,,,,,,,
49049,0,USUtahUtah,Utah,Utah,2022-04-28 09:13:11,2020-06-27,0.512243002348619,1.0550172696185063,2.3322438424319256,,,,,,,,,,,,
49049,0,USUtahUtah,Utah,Utah,2022-04-28 09:13:11,2020-06-28,0.512243002348619,1.0550172696185063,2.3322438424319256,,,,,,,,,,,,
49049,0,USUtahUtah,Utah,Utah,2022-04-28 09:13:11,2020-06-29,0.512243002348619,1.0550172696185063,2.3322438424319256,,,,,,,,,,,,
49049,0,USUtahUtah,Utah,Utah,2022-04-28 09:13:11,2020-06-30,0.512243002348619,1.0550172696185063,2.3322438424319256,,,,,,,,,,,,
49049,0,USUtahUtah,Utah,Utah,2022-04-28 09:13:11,2020-07-01,0.512243002348619,1.0550172696185063,2.3322438424319256,,,,,,,,,,,,
49049,0,USUtahUtah,Utah,Utah,2022-04-28 09:13:11,2020-07-02,0.5405064072053558,1.1213959174700345,2.497747155395137,,,,,,,,,,,,
49049,0,USUtahUtah,Utah,Utah,2022-04-28 09:13:11,2020-07-03,0.5405064072053558,1.1213959174700345,2.497747155395137,,,,,,,,,,,,
49049,0,USUtahUtah,Utah,Utah,2022-04-28 09:13:11,2020-07-04,0.5405064072053558,1.1213959174700345,2.497747155395137,,,,,,,,,,,,
49049,0,USUtahUtah,Utah,Utah,2022-04-28 09:13:11,2020-07-05,0.5405064072053558,1.1213959174700345,2.497747155395137,,,,,,,,,,,,
49049,0,USUtahUtah,Utah,Utah,2022-04-28 09:13:11,2020-07-06,0.5405064072053558,1.1213959174700345,2.497747155395137,,,,,,,,,,,,
49049,0,USUtahUtah,Utah,Utah,2022-04-28 09:13:11,2020-07-07,0.5405064072053558,1.1213959174700345,2.497747155395137,,,,,,,,,,,,
49049,0,USUtahUtah,Utah,Utah,2022-04-28 09:13:11,2020-07-08,0.5405064072053558,1.1213959174700345,2.497747155395137,,,,,,,,,,,,
49049,0,USUtahUtah,Utah,Utah,2022-04-28 09:13:11,2020-07-09,0.5205537467651917,1.0400207550603557,2.2277988549062835,,,,,,,,,,,,
49049,0,USUtahUtah,Utah,Utah,2022-04-28 09:13:11,2020-07-10,0.5205537467651917,1.0400207550603557,2.2277988549062835,,,,,,,,,,,,
49049,0,USUtahUtah,Utah,Utah,2022-04-28 09:13:11,2020-07-11,0.5205537467651917,1.0400207550603557,2.2277988549062835,,,,,,,,,,,,
49049,0,USUtahUtah,Utah,Utah,2022-04-28 09:13:11,2020-07-12,0.5205537467651917,1.0400207550603557,2.2277988549062835,,,,,,,,,,,,
49049,0,USUtahUtah,Utah,Utah,2022-04-28 09:13:11,2020-07-13,0.5205537467651917,1.0400207550603557,2.2277988549062835,,,,,,,,,,,,
49049,0,USUtahUtah,Utah,Utah,2022-04-28 09:13:11,2020-07-14,0.5205537467651917,1.0400207550603557,2.2277988549062835,,,,,,,,,,,,
49049,0,USUtahUtah,Utah,Utah,2022-04-28 09:13:11,2020-07-15,0.5205537467651917,1.0400207550603557,2.2277988549062835,,,,,,,,,,,,
49049,0,USUtahUtah,Utah,Utah,2022-04-28 09:13:11,2020-07-16,0.6871812847757226,1.322550539404941,2.724599119752056,,,,,,,,,,,,
49049,0,USUtahUtah,Utah,Utah,2022-04-28 09:13:11,2020-07-17,0.6871812847757226,1.322550539404941,2.724599119752056,,,,,,,,,,,,
49049,0,USUtahUtah,Utah,Utah,2022-04-28 09:13:11,2020-07-18,0.6871812847757226,1.322550539404941,2.724599119752056,,,,,,,,,,,,
49049,0,USUtahUtah,Utah,Utah,2022-04-28 09:13:11,2020-07-19,0.6871812847757226,1.322550539404941,2.724599119752056,,,,,,,,,,,,
49049,0,USUtahUtah,Utah,Utah,2022-04-28 09:13:11,2020-07-20,0.6871812847757226,1.322550539404941,2.724599119752056,,,,,,,,,,,,
49049,0,USUtahUtah,Utah,Utah,2022-04-28 09:13:11,2020-07-21,0.6871812847757226,1.322550539404941,2.724599119752056,,,,,,,,,,,,
49049,0,USUtahUtah,Utah,Utah,2022-04-28 09:13:11,2020-07-22,0.6871812847757226,1.322550539404941,2.724599119752056,,,,,,,,,,,,
49049,0,USUtahUtah,Utah,Utah,2022-04-28 09:13:11,2020-07-23,0.5667281477610394,1.113418917654918,2.3436862825315075,,,,,,,,,,,,
49049,0,USUtahUtah,Utah,Utah,2022-04-28 09:13:11,2020-07-24,0.5667281477610394,1.113418917654918,2.3436862825315075,,,,,,,,,,,,
49049,0,USUtahUtah,Utah,Utah,2022-04-28 09:13:11,2020-07-25,0.5667281477610394,1.113418917654918,2.3436862825315075,,,,,,,,,,,,
49049,0,USUtahUtah,Utah,Utah,2022-04-28 09:13:11,2020-07-26,0.5667281477610394,1.113418917654918,2.3436862825315075,,,,,,,,,,,,
49049,0,USUtahUtah,Utah,Utah,2022-04-28 09:13:11,2020-07-27,0.5667281477610394,1.113418917654918,2.3436862825315075,,,,,,,,,,,,
49049,0,USUtahUtah,Utah,Utah,2022-04-28 09:13:11,2020-07-28,0.5667281477610394,1.113418917654918,2.3436862825315075,,,,,,,,,,,,
49049,0,USUtahUtah,Utah,Utah,2022-04-28 09:13:11,2020-07-29,0.5667281477610394,1.113418917654918,2.3436862825315075,,,,,,,,,,,,
49049,0,USUtahUtah,Utah,Utah,2022-04-28 09:13:11,2020-07-30,0.5425453222068718,1.0669400554298192,2.2481183518473893,,,,,,,,,,,,
49049,0,USUtahUtah,Utah,Utah,2022-04-28 09:13:11,2020-07-31,0.5425453222068718,1.0669400554298192,2.2481183518473893,,,,,,,,,,,,
49049,0,USUtahUtah,Utah,Utah,2022-04-28 09:13:11,2020-08-01,0.5425453222068718,1.0669400554298192,2.2481183518473893,,,,,,,,,,,,
49049,0,USUtahUtah,Utah,Utah,2022-04-28 09:13:11,2020-08-02,0.5425453222068718,1.0669400554298192,2.2481183518473893,,,,,,,,,,,,
49049,0,USUtahUtah,Utah,Utah,2022-04-28 09:13:11,2020-08-03,0.5425453222068718,1.0669400554298192,2.2481183518473893,,,,,,,,,,,,
49049,0,USUtahUtah,Utah,Utah,2022-04-28 09:13:11,2020-08-04,0.5425453222068718,1.0669400554298192,2.2481183518473893,,,,,,,,,,,,
49049,0,USUtahUtah,Utah,Utah,2022-04-28 09:13:11,2020-08-05,0.5425453222068718,1.0669400554298192,2.2481183518473893,,,,,,,,,,,,
49049,0,USUtahUtah,Utah,Utah,2022-04-28 09:13:11,2020-08-06,0.49261950754835315,0.9730694489735221,2.0598376792184823,,,,,,,,,,,,
49049,0,USUtahUtah,Utah,Utah,2022-04-28 09:13:11,2020-08-07,0.49261950754835315,0.9730694489735221,2.0598376792184823,,,,,,,,,,,,
49049,0,USUtahUtah,Utah,Utah,2022-04-28 09:13:11,2020-08-08,0.49261950754835315,0.9730694489735221,2.0598376792184823,,,,,,,,,,,,
49049,0,USUtahUtah,Utah,Utah,2022-04-28 09:13:11,2020-08-09,0.49261950754835315,0.9730694489735221,2.0598376792184823,,,,,,,,,,,,
49049,0,USUtahUtah,Utah,Utah,2022-04-28 09:13:11,2020-08-10,0.49261950754835315,0.9730694489735221,2.0598376792184823,,,,,,,,,,,,
49049,0,USUtahUtah,Utah,Utah,2022-04-28 09:13:11,2020-08-11,0.49261950754835315,0.9730694489735221,2.0598376792184823,,,,,,,,,,,,
49049,0,USUtahUtah,Utah,Utah,2022-04-28 09:13:11,2020-08-12,0.49261950754835315,0.9730694489735221,2.0598376792184823,,,,,,,,,,,,
49049,0,USUtahUtah,Utah,Utah,2022-04-28 09:13:11,2020-08-13,0.47245084689895034,0.9124090732165673,1.8864400447097842,,,,,,,,,,,,
49049,0,USUtahUtah,Utah,Utah,2022-04-28 09:13:11,2020-08-14,0.47245084689895034,0.9124090732165673,1.8864400447097842,,,,,,,,,,,,
49049,0,USUtahUtah,Utah,Utah,2022-04-28 09:13:11,2020-08-15,0.47245084689895034,0.9124090732165673,1.8864400447097842,,,,,,,,,,,,
49049,0,USUtahUtah,Utah,Utah,2022-04-28 09:13:11,2020-08-16,0.47245084689895034,0.9124090732165673,1.8864400447097842,,,,,,,,,,,,
49049,0,USUtahUtah,Utah,Utah,2022-04-28 09:13:11,2020-08-17,0.47245084689895034,0.9124090732165673,1.8864400447097842,,,,,,,,,,,,
49049,0,USUtahUtah,Utah,Utah,2022-04-28 09:13:11,2020-08-18,0.47245084689895034,0.9124090732165673,1.8864400447097842,,,,,,,,,,,,
49049,0,USUtahUtah,Utah,Utah,2022-04-28 09:13:11,2020-08-19,0.47245084689895034,0.9124090732165673,1.8864400447097842,,,,,,,,,,,,
49049,0,USUtahUtah,Utah,Utah,2022-04-28 09:13:11,2020-08-20,0.5146701702747293,1.0066307762368074,2.1090342342667148,,,,,,,,,,,,
49049,0,USUtahUtah,Utah,Utah,2022-04-28 09:13:11,2020-08-21,0.5146701702747293,1.0066307762368074,2.1090342342667148,,,,,,,,,,,,
49049,0,USUtahUtah,Utah,Utah,2022-04-28 09:13:11,2020-08-22,0.5146701702747293,1.0066307762368074,2.1090342342667148,,,,,,,,,,,,
49049,0,USUtahUtah,Utah,Utah,2022-04-28 09:13:11,2020-08-23,0.5146701702747293,1.0066307762368074,2.1090342342667148,,,,,,,,,,,,
49049,0,USUtahUtah,Utah,Utah,2022-04-28 09:13:11,2020-08-24,0.5146701702747293,1.0066307762368074,2.1090342342667148,,,,,,,,,,,,
49049,0,USUtahUtah,Utah,Utah,2022-04-28 09:13:11,2020-08-25,0.5146701702747293,1.0066307762368074,2.1090342342667148,,,,,,,,,,,,
49049,0,USUtahUtah,Utah,Utah,2022-04-28 09:13:11,2020-08-26,0.5146701702747293,1.0066307762368074,2.1090342342667148,,,,,,,,,,,,
49049,0,USUtahUtah,Utah,Utah,2022-04-28 09:13:11,2020-08-27,0.49921249323752764,0.9720515183663946,2.0271163548409605,,,,,,,,,,,,
49049,0,USUtahUtah,Utah,Utah,2022-04-28 09:13:11,2020-08-28,0.49921249323752764,0.9720515183663946,2.0271163548409605,,,,,,,,,,,,
49049,0,USUtahUtah,Utah,Utah,2022-04-28 09:13:11,2020-08-29,0.49921249323752764,0.9720515183663946,2.0271163548409605,,,,,,,,,,,,
49049,0,USUtahUtah,Utah,Utah,2022-04-28 09:13:11,2020-08-30,0.49921249323752764,0.9720515183663946,2.0271163548409605,,,,,,,,,,,,
49049,0,USUtahUtah,Utah,Utah,2022-04-28 09:13:11,2020-08-31,0.49921249323752764,0.9720515183663946,2.0271163548409605,,,,,,,,,,,,
49049,0,USUtahUtah,Utah,Utah,2022-04-28 09:13:11,2020-09-01,0.49921249323752764,0.9720515183663946,2.0271163548409605,,,,,,,,,,,,
49049,0,USUtahUtah,Utah,Utah,2022-04-28 09:13:11,2020-09-02,0.49921249323752764,0.9720515183663946,2.0271163548409605,,,,,,,,,,,,
49049,0,USUtahUtah,Utah,Utah,2022-04-28 09:13:11,2020-09-03,0.6962849843572316,1.2874627279270476,2.5427919144944253,,,,,,,,,,,,
49049,0,USUtahUtah,Utah,Utah,2022-04-28 09:13:11,2020-09-04,0.6962849843572316,1.2874627279270476,2.5427919144944253,,,,,,,,,,,,
49049,0,USUtahUtah,Utah,Utah,2022-04-28 09:13:11,2020-09-05,0.6962849843572316,1.2874627279270476,2.5427919144944253,,,,,,,,,,,,
49049,0,USUtahUtah,Utah,Utah,2022-04-28 09:13:11,2020-09-06,0.6962849843572316,1.2874627279270476,2.5427919144944253,,,,,,,,,,,,
49049,0,USUtahUtah,Utah,Utah,2022-04-28 09:13:11,2020-09-07,0.6962849843572316,1.2874627279270476,2.5427919144944253,,,,,,,,,,,,
49049,0,USUtahUtah,Utah,Utah,2022-04-28 09:13:11,2020-09-08,0.6962849843572316,1.2874627279270476,2.5427919144944253,,,,,,,,,,,,
49049,0,USUtahUtah,Utah,Utah,2022-04-28 09:13:11,2020-09-09,0.6962849843572316,1.2874627279270476,2.5427919144944253,,,,,,,,,,,,
49049,0,USUtahUtah,Utah,Utah,2022-04-28 09:13:11,2020-09-10,0.9602804371303036,1.6782793058243928,3.1215036207097104,,,,,,,,,,,,
49049,0,USUtahUtah,Utah,Utah,2022-04-28 09:13:11,2020-09-11,0.9602804371303036,1.6782793058243928,3.1215036207097104,,,,,,,,,,,,
49049,0,USUtahUtah,Utah,Utah,2022-04-28 09:13:11,2020-09-12,0.9602804371303036,1.6782793058243928,3.1215036207097104,,,,,,,,,,,,
49049,0,USUtahUtah,Utah,Utah,2022-04-28 09:13:11,2020-09-13,0.9602804371303036,1.6782793058243928,3.1215036207097104,,,,,,,,,,,,
49049,0,USUtahUtah,Utah,Utah,2022-04-28 09:13:11,2020-09-14,0.9602804371303036,1.6782793058243928,3.1215036207097104,,,,,,,,,,,,
49049,0,USUtahUtah,Utah,Utah,2022-04-28 09:13:11,2020-09-15,0.9602804371303036,1.6782793058243928,3.1215036207097104,,,,,,,,,,,,
49049,0,USUtahUtah,Utah,Utah,2022-04-28 09:13:11,2020-09-16,0.9602804371303036,1.6782793058243928,3.1215036207097104,,,,,,,,,,,,
49049,0,USUtahUtah,Utah,Utah,2022-04-28 09:13:11,2020-09-17,1.4922321021705152,2.442301169311947,4.231343133162089,,,,,,,,,,,,
49049,0,USUtahUtah,Utah,Utah,2022-04-28 09:13:11,2020-09-18,1.4922321021705152,2.442301169311947,4.231343133162089,,,,,,,,,,,,
49049,0,USUtahUtah,Utah,Utah,2022-04-28 09:13:11,2020-09-19,1.4922321021705152,2.442301169311947,4.231343133162089,,,,,,,,,,,,
49049,0,USUtahUtah,Utah,Utah,2022-04-28 09:13:11,2020-09-20,1.4922321021705152,2.442301169311947,4.231343133162089,,,,,,,,,,,,
49049,0,USUtahUtah,Utah,Utah,2022-04-28 09:13:11,2020-09-21,1.4922321021705152,2.442301169311947,4.231343133162089,,,,,,,,,,,,
49049,0,USUtahUtah,Utah,Utah,2022-04-28 09:13:11,2020-09-22,1.4922321021705152,2.442301169311947,4.231343133162089,,,,,,,,,,,,
49049,0,USUtahUtah,Utah,Utah,2022-04-28 09:13:11,2020-09-23,1.4922321021705152,2.442301169311947,4.231343133162089,,,,,,,,,,,,
49049,0,USUtahUtah,Utah,Utah,2022-04-28 09:13:11,2020-09-24,1.601437231464618,2.5949674331766945,4.44705844842737,,,,,,,,,,,,
49049,0,USUtahUtah,Utah,Utah,2022-04-28 09:13:11,2020-09-25,1.601437231464618,2.5949674331766945,4.44705844842737,,,,,,,,,,,,
49049,0,USUtahUtah,Utah,Utah,2022-04-28 09:13:11,2020-09-26,1.601437231464618,2.5949674331766945,4.44705844842737,,,,,,,,,,,,
49049,0,USUtahUtah,Utah,Utah,2022-04-28 09:13:11,2020-09-27,1.601437231464618,2.5949674331766945,4.44705844842737,,,,,,,,,,,,
49049,0,USUtahUtah,Utah,Utah,2022-04-28 09:13:11,2020-09-28,1.601437231464618,2.5949674331766945,4.44705844842737,,,,,,,,,,,,
49049,0,USUtahUtah,Utah,Utah,2022-04-28 09:13:11,2020-09-29,1.601437231464618,2.5949674331766945,4.44705844842737,,,,,,,,,,,,
49049,0,USUtahUtah,Utah,Utah,2022-04-28 09:13:11,2020-09-30,1.601437231464618,2.5949674331766945,4.44705844842737,,,,,,,,,,,,
49049,0,USUtahUtah,Utah,Utah,2022-04-28 09:13:11,2020-10-01,1.2986231724517885,2.2130660558965864,4.005972383636076,,,,,,,,,,,,
49049,0,USUtahUtah,Utah,Utah,2022-04-28 09:13:11,2020-10-02,1.2986231724517885,2.2130660558965864,4.005972383636076,,,,,,,,,,,,
49049,0,USUtahUtah,Utah,Utah,2022-04-28 09:13:11,2020-10-03,1.2986231724517885,2.2130660558965864,4.005972383636076,,,,,,,,,,,,
49049,0,USUtahUtah,Utah,Utah,2022-04-28 09:13:11,2020-10-04,1.2986231724517885,2.2130660558965864,4.005972383636076,,,,,,,,,,,,
49049,0,USUtahUtah,Utah,Utah,2022-04-28 09:13:11,2020-10-05,1.2986231724517885,2.2130660558965864,4.005972383636076,,,,,,,,,,,,
49049,0,USUtahUtah,Utah,Utah,2022-04-28 09:13:11,2020-10-06,1.2986231724517885,2.2130660558965864,4.005972383636076,,,,,,,,,,,,
49049,0,USUtahUtah,Utah,Utah,2022-04-28 09:13:11,2020-10-07,1.2986231724517885,2.2130660558965864,4.005972383636076,,,,,,,,,,,,
49049,0,USUtahUtah,Utah,Utah,2022-04-28 09:13:11,2020-10-08,1.37616178722548,2.3738347215328255,4.353542625614713,,,,,,,,,,,,
49049,0,USUtahUtah,Utah,Utah,2022-04-28 09:13:11,2020-10-09,1.37616178722548,2.3738347215328255,4.353542625614713,,,,,,,,,,,,
49049,0,USUtahUtah,Utah,Utah,2022-04-28 09:13:11,2020-10-10,1.37616178722548,2.3738347215328255,4.353542625614713,,,,,,,,,,,,
49049,0,USUtahUtah,Utah,Utah,2022-04-28 09:13:11,2020-10-11,1.37616178722548,2.3738347215328255,4.353542625614713,,,,,,,,,,,,
49049,0,USUtahUtah,Utah,Utah,2022-04-28 09:13:11,2020-10-12,1.37616178722548,2.3738347215328255,4.353542625614713,,,,,,,,,,,,
49049,0,USUtahUtah,Utah,Utah,2022-04-28 09:13:11,2020-10-13,1.37616178722548,2.3738347215328255,4.353542625614713,,,,,,,,,,,,
49049,0,USUtahUtah,Utah,Utah,2022-04-28 09:13:11,2020-10-14,1.37616178722548,2.3738347215328255,4.353542625614713,,,,,,,,,,,,
49049,0,USUtahUtah,Utah,Utah,2022-04-28 09:13:11,2020-10-15,1.3499255654304236,2.3956484800382962,4.529375926242598,,,,,,,,,,,,
49049,0,USUtahUtah,Utah,Utah,2022-04-28 09:13:11,2020-10-16,1.3499255654304236,2.3956484800382962,4.529375926242598,,,,,,,,,,,,
49049,0,USUtahUtah,Utah,Utah,2022-04-28 09:13:11,2020-10-17,1.3499255654304236,2.3956484800382962,4.529375926242598,,,,,,,,,,,,
49049,0,USUtahUtah,Utah,Utah,2022-04-28 09:13:11,2020-10-18,1.3499255654304236,2.3956484800382962,4.529375926242598,,,,,,,,,,,,
49049,0,USUtahUtah,Utah,Utah,2022-04-28 09:13:11,2020-10-19,1.3499255654304236,2.3956484800382962,4.529375926242598,,,,,,,,,,,,
49049,0,USUtahUtah,Utah,Utah,2022-04-28 09:13:11,2020-10-20,1.3499255654304236,2.3956484800382962,4.529375926242598,,,,,,,,,,,,
49049,0,USUtahUtah,Utah,Utah,2022-04-28 09:13:11,2020-10-21,1.3499255654304236,2.3956484800382962,4.529375926242598,,,,,,,,,,,,
49049,0,USUtahUtah,Utah,Utah,2022-04-28 09:13:11,2020-10-22,1.6479888295166136,2.9905557921120653,5.790107640437552,,,,,,,,,,,,
49049,0,USUtahUtah,Utah,Utah,2022-04-28 09:13:11,2020-10-23,1.6479888295166136,2.9905557921120653,5.790107640437552,,,,,,,,,,,,
49049,0,USUtahUtah,Utah,Utah,2022-04-28 09:13:11,2020-10-24,1.6479888295166136,2.9905557921120653,5.790107640437552,,,,,,,,,,,,
49049,0,USUtahUtah,Utah,Utah,2022-04-28 09:13:11,2020-10-25,1.6479888295166136,2.9905557921120653,5.790107640437552,,,,,,,,,,,,
49049,0,USUtahUtah,Utah,Utah,2022-04-28 09:13:11,2020-10-26,1.6479888295166136,2.9905557921120653,5.790107640437552,,,,,,,,,,,,
49049,0,USUtahUtah,Utah,Utah,2022-04-28 09:13:11,2020-10-27,1.6479888295166136,2.9905557921120653,5.790107640437552,,,,,,,,,,,,
49049,0,USUtahUtah,Utah,Utah,2022-04-28 09:13:11,2020-10-28,1.6479888295166136,2.9905557921120653,5.790107640437552,,,,,,,,,,,,
49049,0,USUtahUtah,Utah,Utah,2022-04-28 09:13:11,2020-10-29,1.7283837907922415,3.0554200948286767,5.752910369229785,,,,,,,,,,,,
49049,0,USUtahUtah,Utah,Utah,2022-04-28 09:13:11,2020-10-30,1.7283837907922415,3.0554200948286767,5.752910369229785,,,,,,,,,,,,
49049,0,USUtahUtah,Utah,Utah,2022-04-28 09:13:11,2020-10-31,1.7283837907922415,3.0554200948286767,5.752910369229785,,,,,,,,,,,,
49049,0,USUtahUtah,Utah,Utah,2022-04-28 09:13:11,2020-11-01,1.7283837907922415,3.0554200948286767,5.752910369229785,,,,,,,,,,,,
49049,0,USUtahUtah,Utah,Utah,2022-04-28 09:13:11,2020-11-02,1.7283837907922415,3.0554200948286767,5.752910369229785,,,,,,,,,,,,
49049,0,USUtahUtah,Utah,Utah,2022-04-28 09:13:11,2020-11-03,1.7283837907922415,3.0554200948286767,5.752910369229785,,,,,,,,,,,,
49049,0,USUtahUtah,Utah,Utah,2022-04-28 09:13:11,2020-11-04,1.7283837907922415,3.0554200948286767,5.752910369229785,,,,,,,,,,,,
49049,0,USUtahUtah,Utah,Utah,2022-04-28 09:13:11,2020-11-05,2.446057688018053,4.0716268917169725,7.185057659789014,,,,,,,,,,,,
49049,0,USUtahUtah,Utah,Utah,2022-04-28 09:13:11,2020-11-06,2.446057688018053,4.0716268917169725,7.185057659789014,,,,,,,,,,,,
49049,0,USUtahUtah,Utah,Utah,2022-04-28 09:13:11,2020-11-07,2.446057688018053,4.0716268917169725,7.185057659789014,,,,,,,,,,,,
49049,0,USUtahUtah,Utah,Utah,2022-04-28 09:13:11,2020-11-08,2.446057688018053,4.0716268917169725,7.185057659789014,,,,,,,,,,,,
49049,0,USUtahUtah,Utah,Utah,2022-04-28 09:13:11,2020-11-09,2.446057688018053,4.0716268917169725,7.185057659789014,,,,,,,,,,,,
49049,0,USUtahUtah,Utah,Utah,2022-04-28 09:13:11,2020-11-10,2.446057688018053,4.0716268917169725,7.185057659789014,,,,,,,,,,,,
49049,0,USUtahUtah,Utah,Utah,2022-04-28 09:13:11,2020-11-11,2.446057688018053,4.0716268917169725,7.185057659789014,,,,,,,,,,,,
49049,0,USUtahUtah,Utah,Utah,2022-04-28 09:13:11,2020-11-12,3.03147498436925,4.9738026017421975,8.640433999185687,,,,,,,,,,,,
49049,0,USUtahUtah,Utah,Utah,2022-04-28 09:13:11,2020-11-13,3.03147498436925,4.9738026017421975,8.640433999185687,,,,,,,,,,,,
49049,0,USUtahUtah,Utah,Utah,2022-04-28 09:13:11,2020-11-14,3.03147498436925,4.9738026017421975,8.640433999185687,,,,,,,,,,,,
49049,0,USUtahUtah,Utah,Utah,2022-04-28 09:13:11,2020-11-15,3.03147498436925,4.9738026017421975,8.640433999185687,,,,,,,,,,,,
49049,0,USUtahUtah,Utah,Utah,2022-04-28 09:13:11,2020-11-16,3.03147498436925,4.9738026017421975,8.640433999185687,,,,,,,,,,,,
49049,0,USUtahUtah,Utah,Utah,2022-04-28 09:13:11,2020-11-17,3.03147498436925,4.9738026017421975,8.640433999185687,,,,,,,,,,,,
49049,0,USUtahUtah,Utah,Utah,2022-04-28 09:13:11,2020-11-18,3.03147498436925,4.9738026017421975,8.640433999185687,,,,,,,,,,,,
49049,0,USUtahUtah,Utah,Utah,2022-04-28 09:13:11,2020-11-19,2.809624669091685,4.572901483608885,7.874656546081875,,,,,,,,,,,,
49049,0,USUtahUtah,Utah,Utah,2022-04-28 09:13:11,2020-11-20,2.809624669091685,4.572901483608885,7.874656546081875,,,,,,,,,,,,
49049,0,USUtahUtah,Utah,Utah,2022-04-28 09:13:11,2020-11-21,2.809624669091685,4.572901483608885,7.874656546081875,,,,,,,,,,,,
49049,0,USUtahUtah,Utah,Utah,2022-04-28 09:13:11,2020-11-22,2.809624669091685,4.572901483608885,7.874656546081875,,,,,,,,,,,,
49049,0,USUtahUtah,Utah,Utah,2022-04-28 09:13:11,2020-11-23,2.809624669091685,4.572901483608885,7.874656546081875,,,,,,,,,,,,
49049,0,USUtahUtah,Utah,Utah,2022-04-28 09:13:11,2020-11-24,2.809624669091685,4.572901483608885,7.874656546081875,,,,,,,,,,,,
49049,0,USUtahUtah,Utah,Utah,2022-04-28 09:13:11,2020-11-25,2.809624669091685,4.572901483608885,7.874656546081875,,,,,,,,,,,,
49049,0,USUtahUtah,Utah,Utah,2022-04-28 09:13:11,2020-11-26,2.537535523274917,4.46475612199381,8.36422854545464,,,,,,,,,,,,
49049,0,USUtahUtah,Utah,Utah,2022-04-28 09:13:11,2020-11-27,2.537535523274917,4.46475612199381,8.36422854545464,,,,,,,,,,,,
49049,0,USUtahUtah,Utah,Utah,2022-04-28 09:13:11,2020-11-28,2.537535523274917,4.46475612199381,8.36422854545464,,,,,,,,,,,,
49049,0,USUtahUtah,Utah,Utah,2022-04-28 09:13:11,2020-11-29,2.537535523274917,4.46475612199381,8.36422854545464,,,,,,,,,,,,
49049,0,USUtahUtah,Utah,Utah,2022-04-28 09:13:11,2020-11-30,2.537535523274917,4.46475612199381,8.36422854545464,,,,,,,,,,,,
49049,0,USUtahUtah,Utah,Utah,2022-04-28 09:13:11,2020-12-01,2.537535523274917,4.46475612199381,8.36422854545464,,,,,,,,,,,,
49049,0,USUtahUtah,Utah,Utah,2022-04-28 09:13:11,2020-12-02,2.537535523274917,4.46475612199381,8.36422854545464,,,,,,,,,,,,
49049,0,USUtahUtah,Utah,Utah,2022-04-28 09:13:11,2020-12-03,2.6228597365896245,4.347714094624874,7.637505013830117,,,,,,,,,,,,
49049,0,USUtahUtah,Utah,Utah,2022-04-28 09:13:11,2020-12-04,2.6228597365896245,4.347714094624874,7.637505013830117,,,,,,,,,,,,
49049,0,USUtahUtah,Utah,Utah,2022-04-28 09:13:11,2020-12-05,2.6228597365896245,4.347714094624874,7.637505013830117,,,,,,,,,,,,
49049,0,USUtahUtah,Utah,Utah,2022-04-28 09:13:11,2020-12-06,2.6228597365896245,4.347714094624874,7.637505013830117,,,,,,,,,,,,
49049,0,USUtahUtah,Utah,Utah,2022-04-28 09:13:11,2020-12-07,2.6228597365896245,4.347714094624874,7.637505013830117,,,,,,,,,,,,
49049,0,USUtahUtah,Utah,Utah,2022-04-28 09:13:11,2020-12-08,2.6228597365896245,4.347714094624874,7.637505013830117,,,,,,,,,,,,
49049,0,USUtahUtah,Utah,Utah,2022-04-28 09:13:11,2020-12-09,2.6228597365896245,4.347714094624874,7.637505013830117,,,,,,,,,,,,
49049,0,USUtahUtah,Utah,Utah,2022-04-28 09:13:11,2020-12-10,2.3815049174891745,4.054349815416862,7.33091618862791,,,,,,,,,,,,
49049,0,USUtahUtah,Utah,Utah,2022-04-28 09:13:11,2020-12-11,2.3815049174891745,4.054349815416862,7.33091618862791,,,,,,,,,,,,
49049,0,USUtahUtah,Utah,Utah,2022-04-28 09:13:11,2020-12-12,2.3815049174891745,4.054349815416862,7.33091618862791,,,,,,,,,,,,
49049,0,USUtahUtah,Utah,Utah,2022-04-28 09:13:11,2020-12-13,2.3815049174891745,4.054349815416862,7.33091618862791,,,,,,,,,,,,
49049,0,USUtahUtah,Utah,Utah,2022-04-28 09:13:11,2020-12-14,2.3815049174891745,4.054349815416862,7.33091618862791,,,,,,,,,,,,
49049,0,USUtahUtah,Utah,Utah,2022-04-28 09:13:11,2020-12-15,2.3815049174891745,4.054349815416862,7.33091618862791,,,,,,,,,,,,
49049,0,USUtahUtah,Utah,Utah,2022-04-28 09:13:11,2020-12-16,2.3815049174891745,4.054349815416862,7.33091618862791,,,,,,,,,,,,
49049,0,USUtahUtah,Utah,Utah,2022-04-28 09:13:11,2020-12-17,2.2717541947059905,3.8696731955249253,7.001222207113791,,,,,,,,,,,,
49049,0,USUtahUtah,Utah,Utah,2022-04-28 09:13:11,2020-12-18,2.2717541947059905,3.8696731955249253,7.001222207113791,,,,,,,,,,,,
49049,0,USUtahUtah,Utah,Utah,2022-04-28 09:13:11,2020-12-19,2.2717541947059905,3.8696731955249253,7.001222207113791,,,,,,,,,,,,
49049,0,USUtahUtah,Utah,Utah,2022-04-28 09:13:11,2020-12-20,2.2717541947059905,3.8696731955249253,7.001222207113791,,,,,,,,,,,,
49049,0,USUtahUtah,Utah,Utah,2022-04-28 09:13:11,2020-12-21,2.2717541947059905,3.8696731955249253,7.001222207113791,,,,,,,,,,,,
49049,0,USUtahUtah,Utah,Utah,2022-04-28 09:13:11,2020-12-22,2.2717541947059905,3.8696731955249253,7.001222207113791,,,,,,,,,,,,
49049,0,USUtahUtah,Utah,Utah,2022-04-28 09:13:11,2020-12-23,2.2717541947059905,3.8696731955249253,7.001222207113791,,,,,,,,,,,,
49049,0,USUtahUtah,Utah,Utah,2022-04-28 09:13:11,2020-12-24,2.0638889528490205,3.717936122887021,7.142530532420345,,,,,,,,,,,,
49049,0,USUtahUtah,Utah,Utah,2022-04-28 09:13:11,2020-12-25,2.0638889528490205,3.717936122887021,7.142530532420345,,,,,,,,,,,,
49049,0,USUtahUtah,Utah,Utah,2022-04-28 09:13:11,2020-12-26,2.0638889528490205,3.717936122887021,7.142530532420345,,,,,,,,,,,,
49049,0,USUtahUtah,Utah,Utah,2022-04-28 09:13:11,2020-12-27,2.0638889528490205,3.717936122887021,7.142530532420345,,,,,,,,,,,,
49049,0,USUtahUtah,Utah,Utah,2022-04-28 09:13:11,2020-12-28,2.0638889528490205,3.717936122887021,7.142530532420345,,,,,,,,,,,,
49049,0,USUtahUtah,Utah,Utah,2022-04-28 09:13:11,2020-12-29,2.0638889528490205,3.717936122887021,7.142530532420345,,,,,,,,,,,,
49049,0,USUtahUtah,Utah,Utah,2022-04-28 09:13:11,2020-12-30,2.0638889528490205,3.717936122887021,7.142530532420345,,,,,,,,,,,,
49049,0,USUtahUtah,Utah,Utah,2022-04-28 09:13:11,2020-12-31,2.962993496305253,5.142571608032174,9.493840710112316,,,,,,,,,,,,
49049,0,USUtahUtah,Utah,Utah,2022-04-28 09:13:11,2021-01-01,2.962993496305253,5.142571608032174,9.493840710112316,,,,,,,,,,,,
49049,0,USUtahUtah,Utah,Utah,2022-04-28 09:13:11,2021-01-02,2.962993496305253,5.142571608032174,9.493840710112316,,,,,,,,,,,,
49049,0,USUtahUtah,Utah,Utah,2022-04-28 09:13:11,2021-01-03,2.962993496305253,5.142571608032174,9.493840710112316,,,,,,,,,,,,
49049,0,USUtahUtah,Utah,Utah,2022-04-28 09:13:11,2021-01-04,2.962993496305253,5.142571608032174,9.493840710112316,,,,,,,,,,,,
49049,0,USUtahUtah,Utah,Utah,2022-04-28 09:13:11,2021-01-05,2.962993496305253,5.142571608032174,9.493840710112316,,,,,,,,,,,,
49049,0,USUtahUtah,Utah,Utah,2022-04-28 09:13:11,2021-01-06,2.962993496305253,5.142571608032174,9.493840710112316,,,,,,,,,,,,
49049,0,USUtahUtah,Utah,Utah,2022-04-28 09:13:11,2021-01-07,3.39520496510508,5.614271421265416,9.836334725132053,,,,,,,,,,,,
49049,0,USUtahUtah,Utah,Utah,2022-04-28 09:13:11,2021-01-08,3.39520496510508,5.614271421265416,9.836334725132053,,,,,,,,,,,,
49049,0,USUtahUtah,Utah,Utah,2022-04-28 09:13:11,2021-01-09,3.39520496510508,5.614271421265416,9.836334725132053,,,,,,,,,,,,
49049,0,USUtahUtah,Utah,Utah,2022-04-28 09:13:11,2021-01-10,3.39520496510508,5.614271421265416,9.836334725132053,,,,,,,,,,,,
49049,0,USUtahUtah,Utah,Utah,2022-04-28 09:13:11,2021-01-11,3.39520496510508,5.614271421265416,9.836334725132053,,,,,,,,,,,,
49049,0,USUtahUtah,Utah,Utah,2022-04-28 09:13:11,2021-01-12,3.39520496510508,5.614271421265416,9.836334725132053,,,,,,,,,,,,
49049,0,USUtahUtah,Utah,Utah,2022-04-28 09:13:11,2021-01-13,3.39520496510508,5.614271421265416,9.836334725132053,,,,,,,,,,,,
49049,0,USUtahUtah,Utah,Utah,2022-04-28 09:13:11,2021-01-14,1.9329099495629072,3.4207750206291037,6.4484712894210015,,,,,,,,,,,,
49049,0,USUtahUtah,Utah,Utah,2022-04-28 09:13:11,2021-01-15,1.9329099495629072,3.4207750206291037,6.4484712894210015,,,,,,,,,,,,
49049,0,USUtahUtah,Utah,Utah,2022-04-28 09:13:11,2021-01-16,1.9329099495629072,3.4207750206291037,6.4484712894210015,,,,,,,,,,,,
49049,0,USUtahUtah,Utah,Utah,2022-04-28 09:13:11,2021-01-17,1.9329099495629072,3.4207750206291037,6.4484712894210015,,,,,,,,,,,,
49049,0,USUtahUtah,Utah,Utah,2022-04-28 09:13:11,2021-01-18,1.9329099495629072,3.4207750206291037,6.4484712894210015,,,,,,,,,,,,
49049,0,USUtahUtah,Utah,Utah,2022-04-28 09:13:11,2021-01-19,1.9329099495629072,3.4207750206291037,6.4484712894210015,,,,,,,,,,,,
49049,0,USUtahUtah,Utah,Utah,2022-04-28 09:13:11,2021-01-20,1.9329099495629072,3.4207750206291037,6.4484712894210015,,,,,,,,,,,,
49049,0,USUtahUtah,Utah,Utah,2022-04-28 09:13:11,2021-01-21,1.777915461643683,3.202519519659494,6.151836616134116,,,,,,,,,,,,
49049,0,USUtahUtah,Utah,Utah,2022-04-28 09:13:11,2021-01-22,1.777915461643683,3.202519519659494,6.151836616134116,,,,,,,,,,,,
49049,0,USUtahUtah,Utah,Utah,2022-04-28 09:13:11,2021-01-23,1.777915461643683,3.202519519659494,6.151836616134116,,,,,,,,,,,,
49049,0,USUtahUtah,Utah,Utah,2022-04-28 09:13:11,2021-01-24,1.777915461643683,3.202519519659494,6.151836616134116,,,,,,,,,,,,
49049,0,USUtahUtah,Utah,Utah,2022-04-28 09:13:11,2021-01-25,1.777915461643683,3.202519519659494,6.151836616134116,,,,,,,,,,,,
49049,0,USUtahUtah,Utah,Utah,2022-04-28 09:13:11,2021-01-26,1.777915461643683,3.202519519659494,6.151836616134116,,,,,,,,,,,,
49049,0,USUtahUtah,Utah,Utah,2022-04-28 09:13:11,2021-01-27,1.777915461643683,3.202519519659494,6.151836616134116,,,,,,,,,,,,
49049,0,USUtahUtah,Utah,Utah,2022-04-28 09:13:11,2021-01-28,1.339412528085329,2.3679358820357543,4.458750566495004,,,,,,,,,,,,
49049,0,USUtahUtah,Utah,Utah,2022-04-28 09:13:11,2021-01-29,1.339412528085329,2.3679358820357543,4.458750566495004,,,,,,,,,,,,
49049,0,USUtahUtah,Utah,Utah,2022-04-28 09:13:11,2021-01-30,1.339412528085329,2.3679358820357543,4.458750566495004,,,,,,,,,,,,
49049,0,USUtahUtah,Utah,Utah,2022-04-28 09:13:11,2021-01-31,1.339412528085329,2.3679358820357543,4.458750566495004,,,,,,,,,,,,
49049,0,USUtahUtah,Utah,Utah,2022-04-28 09:13:11,2021-02-01,1.339412528085329,2.3679358820357543,4.458750566495004,,,,,,,,,,,,
49049,0,USUtahUtah,Utah,Utah,2022-04-28 09:13:11,2021-02-02,1.339412528085329,2.3679358820357543,4.458750566495004,,,,,,,,,,,,
49049,0,USUtahUtah,Utah,Utah,2022-04-28 09:13:11,2021-02-03,1.339412528085329,2.3679358820357543,4.458750566495004,,,,,,,,,,,,
49049,0,USUtahUtah,Utah,Utah,2022-04-28 09:13:11,2021-02-04,1.0493953224610235,1.9565229942539564,3.8981986317971353,,,,,,,,,,,,
49049,0,USUtahUtah,Utah,Utah,2022-04-28 09:13:11,2021-02-05,1.0493953224610235,1.9565229942539564,3.8981986317971353,,,,,,,,,,,,
49049,0,USUtahUtah,Utah,Utah,2022-04-28 09:13:11,2021-02-06,1.0493953224610235,1.9565229942539564,3.8981986317971353,,,,,,,,,,,,
49049,0,USUtahUtah,Utah,Utah,2022-04-28 09:13:11,2021-02-07,1.0493953224610235,1.9565229942539564,3.8981986317971353,,,,,,,,,,,,
49049,0,USUtahUtah,Utah,Utah,2022-04-28 09:13:11,2021-02-08,1.0493953224610235,1.9565229942539564,3.8981986317971353,,,,,,,,,,,,
49049,0,USUtahUtah,Utah,Utah,2022-04-28 09:13:11,2021-02-09,1.0493953224610235,1.9565229942539564,3.8981986317971353,,,,,,,,,,,,
49049,0,USUtahUtah,Utah,Utah,2022-04-28 09:13:11,2021-02-10,1.0493953224610235,1.9565229942539564,3.8981986317971353,,,,,,,,,,,,
49049,0,USUtahUtah,Utah,Utah,2022-04-28 09:13:11,2021-02-11,0.9144115473183019,1.7016915806527817,3.3838253763504604,,,,,,,,,,,,
49049,0,USUtahUtah,Utah,Utah,2022-04-28 09:13:11,2021-02-12,0.9144115473183019,1.7016915806527817,3.3838253763504604,,,,,,,,,,,,
49049,0,USUtahUtah,Utah,Utah,2022-04-28 09:13:11,2021-02-13,0.9144115473183019,1.7016915806527817,3.3838253763504604,,,,,,,,,,,,
49049,0,USUtahUtah,Utah,Utah,2022-04-28 09:13:11,2021-02-14,0.9144115473183019,1.7016915806527817,3.3838253763504604,,,,,,,,,,,,
49049,0,USUtahUtah,Utah,Utah,2022-04-28 09:13:11,2021-02-15,0.9144115473183019,1.7016915806527817,3.3838253763504604,,,,,,,,,,,,
49049,0,USUtahUtah,Utah,Utah,2022-04-28 09:13:11,2021-02-16,0.9144115473183019,1.7016915806527817,3.3838253763504604,,,,,,,,,,,,
49049,0,USUtahUtah,Utah,Utah,2022-04-28 09:13:11,2021-02-17,0.9144115473183019,1.7016915806527817,3.3838253763504604,,,,,,,,,,,,
49049,0,USUtahUtah,Utah,Utah,2022-04-28 09:13:11,2021-02-18,0.8112178559427962,1.5227268003224446,3.055633552425164,,,,,,,,,,,,
49049,0,USUtahUtah,Utah,Utah,2022-04-28 09:13:11,2021-02-19,0.8112178559427962,1.5227268003224446,3.055633552425164,,,,,,,,,,,,
49049,0,USUtahUtah,Utah,Utah,2022-04-28 09:13:11,2021-02-20,0.8112178559427962,1.5227268003224446,3.055633552425164,,,,,,,,,,,,
49049,0,USUtahUtah,Utah,Utah,2022-04-28 09:13:11,2021-02-21,0.8112178559427962,1.5227268003224446,3.055633552425164,,,,,,,,,,,,
49049,0,USUtahUtah,Utah,Utah,2022-04-28 09:13:11,2021-02-22,0.8112178559427962,1.5227268003224446,3.055633552425164,,,,,,,,,,,,
49049,0,USUtahUtah,Utah,Utah,2022-04-28 09:13:11,2021-02-23,0.8112178559427962,1.5227268003224446,3.055633552425164,,,,,,,,,,,,
49049,0,USUtahUtah,Utah,Utah,2022-04-28 09:13:11,2021-02-24,0.8112178559427962,1.5227268003224446,3.055633552425164,,,,,,,,,,,,
49049,0,USUtahUtah,Utah,Utah,2022-04-28 09:13:11,2021-02-25,0.6349721056449722,1.1982059860825875,2.4178299562801224,,,,,,,,,,,,
49049,0,USUtahUtah,Utah,Utah,2022-04-28 09:13:11,2021-02-26,0.6349721056449722,1.1982059860825875,2.4178299562801224,,,,,,,,,,,,
49049,0,USUtahUtah,Utah,Utah,2022-04-28 09:13:11,2021-02-27,0.6349721056449722,1.1982059860825875,2.4178299562801224,,,,,,,,,,,,
49049,0,USUtahUtah,Utah,Utah,2022-04-28 09:13:11,2021-02-28,0.6349721056449722,1.1982059860825875,2.4178299562801224,,,,,,,,,,,,
49049,0,USUtahUtah,Utah,Utah,2022-04-28 09:13:11,2021-03-01,0.6349721056449722,1.1982059860825875,2.4178299562801224,,,,,,,,,,,,
49049,0,USUtahUtah,Utah,Utah,2022-04-28 09:13:11,2021-03-02,0.6349721056449722,1.1982059860825875,2.4178299562801224,,,,,,,,,,,,
49049,0,USUtahUtah,Utah,Utah,2022-04-28 09:13:11,2021-03-03,0.6349721056449722,1.1982059860825875,2.4178299562801224,,,,,,,,,,,,
49049,0,USUtahUtah,Utah,Utah,2022-04-28 09:13:11,2021-03-04,0.5292649135489259,1.1255836973639375,2.57168217591748,,,,,,,,,,,,
49049,0,USUtahUtah,Utah,Utah,2022-04-28 09:13:11,2021-03-05,0.5292649135489259,1.1255836973639375,2.57168217591748,,,,,,,,,,,,
49049,0,USUtahUtah,Utah,Utah,2022-04-28 09:13:11,2021-03-06,0.5292649135489259,1.1255836973639375,2.57168217591748,,,,,,,,,,,,
49049,0,USUtahUtah,Utah,Utah,2022-04-28 09:13:11,2021-03-07,0.5292649135489259,1.1255836973639375,2.57168217591748,,,,,,,,,,,,
49049,0,USUtahUtah,Utah,Utah,2022-04-28 09:13:11,2021-03-08,0.5292649135489259,1.1255836973639375,2.57168217591748,,,,,,,,,,,,
49049,0,USUtahUtah,Utah,Utah,2022-04-28 09:13:11,2021-03-09,0.5292649135489259,1.1255836973639375,2.57168217591748,,,,,,,,,,,,
49049,0,USUtahUtah,Utah,Utah,2022-04-28 09:13:11,2021-03-10,0.5292649135489259,1.1255836973639375,2.57168217591748,,,,,,,,,,,,
49049,0,USUtahUtah,Utah,Utah,2022-04-28 09:13:11,2021-03-11,0.4661861567269873,0.8929154510940269,1.8302442822454807,,,,,,,,,,,,
49049,0,USUtahUtah,Utah,Utah,2022-04-28 09:13:11,2021-03-12,0.4661861567269873,0.8929154510940269,1.8302442822454807,,,,,,,,,,,,
49049,0,USUtahUtah,Utah,Utah,2022-04-28 09:13:11,2021-03-13,0.4661861567269873,0.8929154510940269,1.8302442822454807,,,,,,,,,,,,
49049,0,USUtahUtah,Utah,Utah,2022-04-28 09:13:11,2021-03-14,0.4661861567269873,0.8929154510940269,1.8302442822454807,,,,,,,,,,,,
49049,0,USUtahUtah,Utah,Utah,2022-04-28 09:13:11,2021-03-15,0.4661861567269873,0.8929154510940269,1.8302442822454807,,,,,,,,,,,,
49049,0,USUtahUtah,Utah,Utah,2022-04-28 09:13:11,2021-03-16,0.4661861567269873,0.8929154510940269,1.8302442822454807,,,,,,,,,,,,
49049,0,USUtahUtah,Utah,Utah,2022-04-28 09:13:11,2021-03-17,0.4661861567269873,0.8929154510940269,1.8302442822454807,,,,,,,,,,,,
49049,0,USUtahUtah,Utah,Utah,2022-04-28 09:13:11,2021-03-18,0.42255565012969526,0.8533764885316264,1.8485576915955184,,,,,,,,,,,,
49049,0,USUtahUtah,Utah,Utah,2022-04-28 09:13:11,2021-03-19,0.42255565012969526,0.8533764885316264,1.8485576915955184,,,,,,,,,,,,
49049,0,USUtahUtah,Utah,Utah,2022-04-28 09:13:11,2021-03-20,0.42255565012969526,0.8533764885316264,1.8485576915955184,,,,,,,,,,,,
49049,0,USUtahUtah,Utah,Utah,2022-04-28 09:13:11,2021-03-21,0.42255565012969526,0.8533764885316264,1.8485576915955184,,,,,,,,,,,,
49049,0,USUtahUtah,Utah,Utah,2022-04-28 09:13:11,2021-03-22,0.42255565012969526,0.8533764885316264,1.8485576915955184,,,,,,,,,,,,
49049,0,USUtahUtah,Utah,Utah,2022-04-28 09:13:11,2021-03-23,0.42255565012969526,0.8533764885316264,1.8485576915955184,,,,,,,,,,,,
49049,0,USUtahUtah,Utah,Utah,2022-04-28 09:13:11,2021-03-24,0.42255565012969526,0.8533764885316264,1.8485576915955184,,,,,,,,,,,,
49049,0,USUtahUtah,Utah,Utah,2022-04-28 09:13:11,2021-03-25,0.37973068598213383,0.7715850349105579,1.6819894796817292,,,,,,,,,,,,
49049,0,USUtahUtah,Utah,Utah,2022-04-28 09:13:11,2021-03-26,0.37973068598213383,0.7715850349105579,1.6819894796817292,,,,,,,,,,,,
49049,0,USUtahUtah,Utah,Utah,2022-04-28 09:13:11,2021-03-27,0.37973068598213383,0.7715850349105579,1.6819894796817292,,,,,,,,,,,,
49049,0,USUtahUtah,Utah,Utah,2022-04-28 09:13:11,2021-03-28,0.37973068598213383,0.7715850349105579,1.6819894796817292,,,,,,,,,,,,
49049,0,USUtahUtah,Utah,Utah,2022-04-28 09:13:11,2021-03-29,0.37973068598213383,0.7715850349105579,1.6819894796817292,,,,,,,,,,,,
49049,0,USUtahUtah,Utah,Utah,2022-04-28 09:13:11,2021-03-30,0.37973068598213383,0.7715850349105579,1.6819894796817292,,,,,,,,,,,,
49049,0,USUtahUtah,Utah,Utah,2022-04-28 09:13:11,2021-03-31,0.37973068598213383,0.7715850349105579,1.6819894796817292,,,,,,,,,,,,
49049,0,USUtahUtah,Utah,Utah,2022-04-28 09:13:11,2021-04-01,0.36887472734985943,0.7653386480735597,1.7047483526455787,,,,,,,,,,,,
49049,0,USUtahUtah,Utah,Utah,2022-04-28 09:13:11,2021-04-02,0.36887472734985943,0.7653386480735597,1.7047483526455787,,,,,,,,,,,,
49049,0,USUtahUtah,Utah,Utah,2022-04-28 09:13:11,2021-04-03,0.36887472734985943,0.7653386480735597,1.7047483526455787,,,,,,,,,,,,
49049,0,USUtahUtah,Utah,Utah,2022-04-28 09:13:11,2021-04-04,0.36887472734985943,0.7653386480735597,1.7047483526455787,,,,,,,,,,,,
49049,0,USUtahUtah,Utah,Utah,2022-04-28 09:13:11,2021-04-05,0.36887472734985943,0.7653386480735597,1.7047483526455787,,,,,,,,,,,,
49049,0,USUtahUtah,Utah,Utah,2022-04-28 09:13:11,2021-04-06,0.36887472734985943,0.7653386480735597,1.7047483526455787,,,,,,,,,,,,
49049,0,USUtahUtah,Utah,Utah,2022-04-28 09:13:11,2021-04-07,0.36887472734985943,0.7653386480735597,1.7047483526455787,,,,,,,,,,,,
49049,0,USUtahUtah,Utah,Utah,2022-04-28 09:13:11,2021-04-08,0.36609673869989123,0.7598445036265169,1.6931297267824552,,,,,,,,,,,,
49049,0,USUtahUtah,Utah,Utah,2022-04-28 09:13:11,2021-04-09,0.36609673869989123,0.7598445036265169,1.6931297267824552,,,,,,,,,,,,
49049,0,USUtahUtah,Utah,Utah,2022-04-28 09:13:11,2021-04-10,0.36609673869989123,0.7598445036265169,1.6931297267824552,,,,,,,,,,,,
49049,0,USUtahUtah,Utah,Utah,2022-04-28 09:13:11,2021-04-11,0.36609673869989123,0.7598445036265169,1.6931297267824552,,,,,,,,,,,,
49049,0,USUtahUtah,Utah,Utah,2022-04-28 09:13:11,2021-04-12,0.36609673869989123,0.7598445036265169,1.6931297267824552,,,,,,,,,,,,
49049,0,USUtahUtah,Utah,Utah,2022-04-28 09:13:11,2021-04-13,0.36609673869989123,0.7598445036265169,1.6931297267824552,,,,,,,,,,,,
49049,0,USUtahUtah,Utah,Utah,2022-04-28 09:13:11,2021-04-14,0.36609673869989123,0.7598445036265169,1.6931297267824552,,,,,,,,,,,,
49049,0,USUtahUtah,Utah,Utah,2022-04-28 09:13:11,2021-04-15,0.3821758108394242,0.7541313342710738,1.5946628097516138,,,,,,,,,,,,
49049,0,USUtahUtah,Utah,Utah,2022-04-28 09:13:11,2021-04-16,0.3821758108394242,0.7541313342710738,1.5946628097516138,,,,,,,,,,,,
49049,0,USUtahUtah,Utah,Utah,2022-04-28 09:13:11,2021-04-17,0.3821758108394242,0.7541313342710738,1.5946628097516138,,,,,,,,,,,,
49049,0,USUtahUtah,Utah,Utah,2022-04-28 09:13:11,2021-04-18,0.3821758108394242,0.7541313342710738,1.5946628097516138,,,,,,,,,,,,
49049,0,USUtahUtah,Utah,Utah,2022-04-28 09:13:11,2021-04-19,0.3821758108394242,0.7541313342710738,1.5946628097516138,,,,,,,,,,,,
49049,0,USUtahUtah,Utah,Utah,2022-04-28 09:13:11,2021-04-20,0.3821758108394242,0.7541313342710738,1.5946628097516138,,,,,,,,,,,,
49049,0,USUtahUtah,Utah,Utah,2022-04-28 09:13:11,2021-04-21,0.3821758108394242,0.7541313342710738,1.5946628097516138,,,,,,,,,,,,
49049,0,USUtahUtah,Utah,Utah,2022-04-28 09:13:11,2021-04-22,0.40917588753007306,0.8317473633119774,1.813887489782529,,,,,,,,,,,,
49049,0,USUtahUtah,Utah,Utah,2022-04-28 09:13:11,2021-04-23,0.40917588753007306,0.8317473633119774,1.813887489782529,,,,,,,,,,,,
49049,0,USUtahUtah,Utah,Utah,2022-04-28 09:13:11,2021-04-24,0.40917588753007306,0.8317473633119774,1.813887489782529,,,,,,,,,,,,
49049,0,USUtahUtah,Utah,Utah,2022-04-28 09:13:11,2021-04-25,0.40917588753007306,0.8317473633119774,1.813887489782529,,,,,,,,,,,,
49049,0,USUtahUtah,Utah,Utah,2022-04-28 09:13:11,2021-04-26,0.40917588753007306,0.8317473633119774,1.813887489782529,,,,,,,,,,,,
49049,0,USUtahUtah,Utah,Utah,2022-04-28 09:13:11,2021-04-27,0.40917588753007306,0.8317473633119774,1.813887489782529,,,,,,,,,,,,
49049,0,USUtahUtah,Utah,Utah,2022-04-28 09:13:11,2021-04-28,0.40917588753007306,0.8317473633119774,1.813887489782529,,,,,,,,,,,,
49049,0,USUtahUtah,Utah,Utah,2022-04-28 09:13:11,2021-04-29,0.35276384131534755,0.7373509704867812,1.6549810418414694,,,,,,,,,,,,
49049,0,USUtahUtah,Utah,Utah,2022-04-28 09:13:11,2021-04-30,0.35276384131534755,0.7373509704867812,1.6549810418414694,,,,,,,,,,,,
49049,0,USUtahUtah,Utah,Utah,2022-04-28 09:13:11,2021-05-01,0.35276384131534755,0.7373509704867812,1.6549810418414694,,,,,,,,,,,,
49049,0,USUtahUtah,Utah,Utah,2022-04-28 09:13:11,2021-05-02,0.35276384131534755,0.7373509704867812,1.6549810418414694,,,,,,,,,,,,
49049,0,USUtahUtah,Utah,Utah,2022-04-28 09:13:11,2021-05-03,0.35276384131534755,0.7373509704867812,1.6549810418414694,,,,,,,,,,,,
49049,0,USUtahUtah,Utah,Utah,2022-04-28 09:13:11,2021-05-04,0.35276384131534755,0.7373509704867812,1.6549810418414694,,,,,,,,,,,,
49049,0,USUtahUtah,Utah,Utah,2022-04-28 09:13:11,2021-05-05,0.35276384131534755,0.7373509704867812,1.6549810418414694,,,,,,,,,,,,
49049,0,USUtahUtah,Utah,Utah,2022-04-28 09:13:11,2021-05-06,0.34574590621636325,0.7289464873081205,1.6507036769023697,,,,,,,,,,,,
49049,0,USUtahUtah,Utah,Utah,2022-04-28 09:13:11,2021-05-07,0.34574590621636325,0.7289464873081205,1.6507036769023697,,,,,,,,,,,,
49049,0,USUtahUtah,Utah,Utah,2022-04-28 09:13:11,2021-05-08,0.34574590621636325,0.7289464873081205,1.6507036769023697,,,,,,,,,,,,
49049,0,USUtahUtah,Utah,Utah,2022-04-28 09:13:11,2021-05-09,0.34574590621636325,0.7289464873081205,1.6507036769023697,,,,,,,,,,,,
49049,0,USUtahUtah,Utah,Utah,2022-04-28 09:13:11,2021-05-10,0.34574590621636325,0.7289464873081205,1.6507036769023697,,,,,,,,,,,,
49049,0,USUtahUtah,Utah,Utah,2022-04-28 09:13:11,2021-05-11,0.34574590621636325,0.7289464873081205,1.6507036769023697,,,,,,,,,,,,
49049,0,USUtahUtah,Utah,Utah,2022-04-28 09:13:11,2021-05-12,0.34574590621636325,0.7289464873081205,1.6507036769023697,,,,,,,,,,,,
49049,0,USUtahUtah,Utah,Utah,2022-04-28 09:13:11,2021-05-13,0.32878583391882865,0.7108503271547111,1.6517695733797915,,,,,,,,,,,,
49049,0,USUtahUtah,Utah,Utah,2022-04-28 09:13:11,2021-05-14,0.32878583391882865,0.7108503271547111,1.6517695733797915,,,,,,,,,,,,
49049,0,USUtahUtah,Utah,Utah,2022-04-28 09:13:11,2021-05-15,0.32878583391882865,0.7108503271547111,1.6517695733797915,,,,,,,,,,,,
49049,0,USUtahUtah,Utah,Utah,2022-04-28 09:13:11,2021-05-16,0.32878583391882865,0.7108503271547111,1.6517695733797915,,,,,,,,,,,,
49049,0,USUtahUtah,Utah,Utah,2022-04-28 09:13:11,2021-05-17,0.32878583391882865,0.7108503271547111,1.6517695733797915,,,,,,,,,,,,
49049,0,USUtahUtah,Utah,Utah,2022-04-28 09:13:11,2021-05-18,0.32878583391882865,0.7108503271547111,1.6517695733797915,,,,,,,,,,,,
49049,0,USUtahUtah,Utah,Utah,2022-04-28 09:13:11,2021-05-19,0.32878583391882865,0.7108503271547111,1.6517695733797915,,,,,,,,,,,,
49049,0,USUtahUtah,Utah,Utah,2022-04-28 09:13:11,2021-05-20,0.22378050466437122,0.5082556303475115,1.2417137271142182,,,,,,,,,,,,
49049,0,USUtahUtah,Utah,Utah,2022-04-28 09:13:11,2021-05-21,0.22378050466437122,0.5082556303475115,1.2417137271142182,,,,,,,,,,,,
49049,0,USUtahUtah,Utah,Utah,2022-04-28 09:13:11,2021-05-22,0.22378050466437122,0.5082556303475115,1.2417137271142182,,,,,,,,,,,,
49049,0,USUtahUtah,Utah,Utah,2022-04-28 09:13:11,2021-05-23,0.22378050466437122,0.5082556303475115,1.2417137271142182,,,,,,,,,,,,
49049,0,USUtahUtah,Utah,Utah,2022-04-28 09:13:11,2021-05-24,0.22378050466437122,0.5082556303475115,1.2417137271142182,,,,,,,,,,,,
49049,0,USUtahUtah,Utah,Utah,2022-04-28 09:13:11,2021-05-25,0.22378050466437122,0.5082556303475115,1.2417137271142182,,,,,,,,,,,,
49049,0,USUtahUtah,Utah,Utah,2022-04-28 09:13:11,2021-05-26,0.22378050466437122,0.5082556303475115,1.2417137271142182,,,,,,,,,,,,
49049,0,USUtahUtah,Utah,Utah,2022-04-28 09:13:11,2021-05-27,0.20204535285295525,0.47252781248193715,1.1890877412174676,,,,,,,,,,,,
49049,0,USUtahUtah,Utah,Utah,2022-04-28 09:13:11,2021-05-28,0.20204535285295525,0.47252781248193715,1.1890877412174676,,,,,,,,,,,,
49049,0,USUtahUtah,Utah,Utah,2022-04-28 09:13:11,2021-05-29,0.20204535285295525,0.47252781248193715,1.1890877412174676,,,,,,,,,,,,
49049,0,USUtahUtah,Utah,Utah,2022-04-28 09:13:11,2021-05-30,0.20204535285295525,0.47252781248193715,1.1890877412174676,,,,,,,,,,,,
49049,0,USUtahUtah,Utah,Utah,2022-04-28 09:13:11,2021-05-31,0.20204535285295525,0.47252781248193715,1.1890877412174676,,,,,,,,,,,,
49049,0,USUtahUtah,Utah,Utah,2022-04-28 09:13:11,2021-06-01,0.20204535285295525,0.47252781248193715,1.1890877412174676,,,,,,,,,,,,
49049,0,USUtahUtah,Utah,Utah,2022-04-28 09:13:11,2021-06-02,0.20204535285295525,0.47252781248193715,1.1890877412174676,,,,,,,,,,,,
49049,0,USUtahUtah,Utah,Utah,2022-04-28 09:13:11,2021-06-03,0.31168881006465554,0.6763300027323584,1.5773815266486482,,,,,,,,,,,,
49049,0,USUtahUtah,Utah,Utah,2022-04-28 09:13:11,2021-06-04,0.31168881006465554,0.6763300027323584,1.5773815266486482,,,,,,,,,,,,
49049,0,USUtahUtah,Utah,Utah,2022-04-28 09:13:11,2021-06-05,0.31168881006465554,0.6763300027323584,1.5773815266486482,,,,,,,,,,,,
49049,0,USUtahUtah,Utah,Utah,2022-04-28 09:13:11,2021-06-06,0.31168881006465554,0.6763300027323584,1.5773815266486482,,,,,,,,,,,,
49049,0,USUtahUtah,Utah,Utah,2022-04-28 09:13:11,2021-06-07,0.31168881006465554,0.6763300027323584,1.5773815266486482,,,,,,,,,,,,
49049,0,USUtahUtah,Utah,Utah,2022-04-28 09:13:11,2021-06-08,0.31168881006465554,0.6763300027323584,1.5773815266486482,,,,,,,,,,,,
49049,0,USUtahUtah,Utah,Utah,2022-04-28 09:13:11,2021-06-09,0.31168881006465554,0.6763300027323584,1.5773815266486482,,,,,,,,,,,,
49049,0,USUtahUtah,Utah,Utah,2022-04-28 09:13:11,2021-06-10,0.30679570426892916,0.6819918328563288,1.6302366053688986,,,,,,,,,,,,
49049,0,USUtahUtah,Utah,Utah,2022-04-28 09:13:11,2021-06-11,0.30679570426892916,0.6819918328563288,1.6302366053688986,,,,,,,,,,,,
49049,0,USUtahUtah,Utah,Utah,2022-04-28 09:13:11,2021-06-12,0.30679570426892916,0.6819918328563288,1.6302366053688986,,,,,,,,,,,,
49049,0,USUtahUtah,Utah,Utah,2022-04-28 09:13:11,2021-06-13,0.30679570426892916,0.6819918328563288,1.6302366053688986,,,,,,,,,,,,
49049,0,USUtahUtah,Utah,Utah,2022-04-28 09:13:11,2021-06-14,0.30679570426892916,0.6819918328563288,1.6302366053688986,,,,,,,,,,,,
49049,0,USUtahUtah,Utah,Utah,2022-04-28 09:13:11,2021-06-15,0.30679570426892916,0.6819918328563288,1.6302366053688986,,,,,,,,,,,,
49049,0,USUtahUtah,Utah,Utah,2022-04-28 09:13:11,2021-06-16,0.30679570426892916,0.6819918328563288,1.6302366053688986,,,,,,,,,,,,
49049,0,USUtahUtah,Utah,Utah,2022-04-28 09:13:11,2021-06-17,0.3750508622216128,0.8314411904439803,1.981956846196984,,,,,,,,,,,,
49049,0,USUtahUtah,Utah,Utah,2022-04-28 09:13:11,2021-06-18,0.3750508622216128,0.8314411904439803,1.981956846196984,,,,,,,,,,,,
49049,0,USUtahUtah,Utah,Utah,2022-04-28 09:13:11,2021-06-19,0.3750508622216128,0.8314411904439803,1.981956846196984,,,,,,,,,,,,
49049,0,USUtahUtah,Utah,Utah,2022-04-28 09:13:11,2021-06-20,0.3750508622216128,0.8314411904439803,1.981956846196984,,,,,,,,,,,,
49049,0,USUtahUtah,Utah,Utah,2022-04-28 09:13:11,2021-06-21,0.3750508622216128,0.8314411904439803,1.981956846196984,,,,,,,,,,,,
49049,0,USUtahUtah,Utah,Utah,2022-04-28 09:13:11,2021-06-22,0.3750508622216128,0.8314411904439803,1.981956846196984,,,,,,,,,,,,
49049,0,USUtahUtah,Utah,Utah,2022-04-28 09:13:11,2021-06-23,0.3750508622216128,0.8314411904439803,1.981956846196984,,,,,,,,,,,,
49049,0,USUtahUtah,Utah,Utah,2022-04-28 09:13:11,2021-06-24,0.4130454131108888,0.9288412736390509,2.246495155629773,,,,,,,,,,,,
49049,0,USUtahUtah,Utah,Utah,2022-04-28 09:13:11,2021-06-25,0.4130454131108888,0.9288412736390509,2.246495155629773,,,,,,,,,,,,
49049,0,USUtahUtah,Utah,Utah,2022-04-28 09:13:11,2021-06-26,0.4130454131108888,0.9288412736390509,2.246495155629773,,,,,,,,,,,,
49049,0,USUtahUtah,Utah,Utah,2022-04-28 09:13:11,2021-06-27,0.4130454131108888,0.9288412736390509,2.246495155629773,,,,,,,,,,,,
49049,0,USUtahUtah,Utah,Utah,2022-04-28 09:13:11,2021-06-28,0.4130454131108888,0.9288412736390509,2.246495155629773,,,,,,,,,,,,
49049,0,USUtahUtah,Utah,Utah,2022-04-28 09:13:11,2021-06-29,0.4130454131108888,0.9288412736390509,2.246495155629773,,,,,,,,,,,,
49049,0,USUtahUtah,Utah,Utah,2022-04-28 09:13:11,2021-06-30,0.4130454131108888,0.9288412736390509,2.246495155629773,,,,,,,,,,,,
49049,0,USUtahUtah,Utah,Utah,2022-04-28 09:13:11,2021-07-01,0.4453358279008577,1.0037344513443993,2.4332376074732416,,,,,,,,,,,,
49049,0,USUtahUtah,Utah,Utah,2022-04-28 09:13:11,2021-07-02,0.4453358279008577,1.0037344513443993,2.4332376074732416,,,,,,,,,,,,
49049,0,USUtahUtah,Utah,Utah,2022-04-28 09:13:11,2021-07-03,0.4453358279008577,1.0037344513443993,2.4332376074732416,,,,,,,,,,,,
49049,0,USUtahUtah,Utah,Utah,2022-04-28 09:13:11,2021-07-04,0.4453358279008577,1.0037344513443993,2.4332376074732416,,,,,,,,,,,,
49049,0,USUtahUtah,Utah,Utah,2022-04-28 09:13:11,2021-07-05,0.4453358279008577,1.0037344513443993,2.4332376074732416,,,,,,,,,,,,
49049,0,USUtahUtah,Utah,Utah,2022-04-28 09:13:11,2021-07-06,0.4453358279008577,1.0037344513443993,2.4332376074732416,,,,,,,,,,,,
49049,0,USUtahUtah,Utah,Utah,2022-04-28 09:13:11,2021-07-07,0.4453358279008577,1.0037344513443993,2.4332376074732416,,,,,,,,,,,,
49049,0,USUtahUtah,Utah,Utah,2022-04-28 09:13:11,2021-07-08,0.6306879886557988,1.3844438262064482,3.267225894786388,,,,,,,,,,,,
49049,0,USUtahUtah,Utah,Utah,2022-04-28 09:13:11,2021-07-09,0.6306879886557988,1.3844438262064482,3.267225894786388,,,,,,,,,,,,
49049,0,USUtahUtah,Utah,Utah,2022-04-28 09:13:11,2021-07-10,0.6306879886557988,1.3844438262064482,3.267225894786388,,,,,,,,,,,,
49049,0,USUtahUtah,Utah,Utah,2022-04-28 09:13:11,2021-07-11,0.6306879886557988,1.3844438262064482,3.267225894786388,,,,,,,,,,,,
49049,0,USUtahUtah,Utah,Utah,2022-04-28 09:13:11,2021-07-12,0.6306879886557988,1.3844438262064482,3.267225894786388,,,,,,,,,,,,
49049,0,USUtahUtah,Utah,Utah,2022-04-28 09:13:11,2021-07-13,0.6306879886557988,1.3844438262064482,3.267225894786388,,,,,,,,,,,,
49049,0,USUtahUtah,Utah,Utah,2022-04-28 09:13:11,2021-07-14,0.6306879886557988,1.3844438262064482,3.267225894786388,,,,,,,,,,,,
49049,0,USUtahUtah,Utah,Utah,2022-04-28 09:13:11,2021-07-15,0.7777914235956588,1.6273104494210235,3.6561029567399093,,,,,,,,,,,,
49049,0,USUtahUtah,Utah,Utah,2022-04-28 09:13:11,2021-07-16,0.7777914235956588,1.6273104494210235,3.6561029567399093,,,,,,,,,,,,
49049,0,USUtahUtah,Utah,Utah,2022-04-28 09:13:11,2021-07-17,0.7777914235956588,1.6273104494210235,3.6561029567399093,,,,,,,,,,,,
49049,0,USUtahUtah,Utah,Utah,2022-04-28 09:13:11,2021-07-18,0.7777914235956588,1.6273104494210235,3.6561029567399093,,,,,,,,,,,,
49049,0,USUtahUtah,Utah,Utah,2022-04-28 09:13:11,2021-07-19,0.7777914235956588,1.6273104494210235,3.6561029567399093,,,,,,,,,,,,
49049,0,USUtahUtah,Utah,Utah,2022-04-28 09:13:11,2021-07-20,0.7777914235956588,1.6273104494210235,3.6561029567399093,,,,,,,,,,,,
49049,0,USUtahUtah,Utah,Utah,2022-04-28 09:13:11,2021-07-21,0.7777914235956588,1.6273104494210235,3.6561029567399093,,,,,,,,,,,,
49049,0,USUtahUtah,Utah,Utah,2022-04-28 09:13:11,2021-07-22,0.8193621176805653,1.7176140203476027,3.8666986619887633,,,,,,,,,,,,
49049,0,USUtahUtah,Utah,Utah,2022-04-28 09:13:11,2021-07-23,0.8193621176805653,1.7176140203476027,3.8666986619887633,,,,,,,,,,,,
49049,0,USUtahUtah,Utah,Utah,2022-04-28 09:13:11,2021-07-24,0.8193621176805653,1.7176140203476027,3.8666986619887633,,,,,,,,,,,,
49049,0,USUtahUtah,Utah,Utah,2022-04-28 09:13:11,2021-07-25,0.8193621176805653,1.7176140203476027,3.8666986619887633,,,,,,,,,,,,
49049,0,USUtahUtah,Utah,Utah,2022-04-28 09:13:11,2021-07-26,0.8193621176805653,1.7176140203476027,3.8666986619887633,,,,,,,,,,,,
49049,0,USUtahUtah,Utah,Utah,2022-04-28 09:13:11,2021-07-27,0.8193621176805653,1.7176140203476027,3.8666986619887633,,,,,,,,,,,,
49049,0,USUtahUtah,Utah,Utah,2022-04-28 09:13:11,2021-07-28,0.8193621176805653,1.7176140203476027,3.8666986619887633,,,,,,,,,,,,
49049,0,USUtahUtah,Utah,Utah,2022-04-28 09:13:11,2021-07-29,1.002211237471739,2.044452054251036,4.474925649306645,,,,,,,,,,,,
49049,0,USUtahUtah,Utah,Utah,2022-04-28 09:13:11,2021-07-30,1.002211237471739,2.044452054251036,4.474925649306645,,,,,,,,,,,,
49049,0,USUtahUtah,Utah,Utah,2022-04-28 09:13:11,2021-07-31,1.002211237471739,2.044452054251036,4.474925649306645,,,,,,,,,,,,
49049,0,USUtahUtah,Utah,Utah,2022-04-28 09:13:11,2021-08-01,1.002211237471739,2.044452054251036,4.474925649306645,,,,,,,,,,,,
49049,0,USUtahUtah,Utah,Utah,2022-04-28 09:13:11,2021-08-02,1.002211237471739,2.044452054251036,4.474925649306645,,,,,,,,,,,,
49049,0,USUtahUtah,Utah,Utah,2022-04-28 09:13:11,2021-08-03,1.002211237471739,2.044452054251036,4.474925649306645,,,,,,,,,,,,
49049,0,USUtahUtah,Utah,Utah,2022-04-28 09:13:11,2021-08-04,1.002211237471739,2.044452054251036,4.474925649306645,,,,,,,,,,,,
49049,0,USUtahUtah,Utah,Utah,2022-04-28 09:13:11,2021-08-05,0.8942075141487346,1.8245862327035494,3.9947117720098966,,,,,,,,,,,,
49049,0,USUtahUtah,Utah,Utah,2022-04-28 09:13:11,2021-08-06,0.8942075141487346,1.8245862327035494,3.9947117720098966,,,,,,,,,,,,
49049,0,USUtahUtah,Utah,Utah,2022-04-28 09:13:11,2021-08-07,0.8942075141487346,1.8245862327035494,3.9947117720098966,,,,,,,,,,,,
49049,0,USUtahUtah,Utah,Utah,2022-04-28 09:13:11,2021-08-08,0.8942075141487346,1.8245862327035494,3.9947117720098966,,,,,,,,,,,,
49049,0,USUtahUtah,Utah,Utah,2022-04-28 09:13:11,2021-08-09,0.8942075141487346,1.8245862327035494,3.9947117720098966,,,,,,,,,,,,
49049,0,USUtahUtah,Utah,Utah,2022-04-28 09:13:11,2021-08-10,0.8942075141487346,1.8245862327035494,3.9947117720098966,,,,,,,,,,,,
49049,0,USUtahUtah,Utah,Utah,2022-04-28 09:13:11,2021-08-11,0.8942075141487346,1.8245862327035494,3.9947117720098966,,,,,,,,,,,,
49049,0,USUtahUtah,Utah,Utah,2022-04-28 09:13:11,2021-08-12,1.0634120256648656,2.137170935922762,4.6060997428046955,,,,,,,,,,,,
49049,0,USUtahUtah,Utah,Utah,2022-04-28 09:13:11,2021-08-13,1.0634120256648656,2.137170935922762,4.6060997428046955,,,,,,,,,,,,
49049,0,USUtahUtah,Utah,Utah,2022-04-28 09:13:11,2021-08-14,1.0634120256648656,2.137170935922762,4.6060997428046955,,,,,,,,,,,,
49049,0,USUtahUtah,Utah,Utah,2022-04-28 09:13:11,2021-08-15,1.0634120256648656,2.137170935922762,4.6060997428046955,,,,,,,,,,,,
49049,0,USUtahUtah,Utah,Utah,2022-04-28 09:13:11,2021-08-16,1.0634120256648656,2.137170935922762,4.6060997428046955,,,,,,,,,,,,
49049,0,USUtahUtah,Utah,Utah,2022-04-28 09:13:11,2021-08-17,1.0634120256648656,2.137170935922762,4.6060997428046955,,,,,,,,,,,,
49049,0,USUtahUtah,Utah,Utah,2022-04-28 09:13:11,2021-08-18,1.0634120256648656,2.137170935922762,4.6060997428046955,,,,,,,,,,,,
49049,0,USUtahUtah,Utah,Utah,2022-04-28 09:13:11,2021-08-19,1.0748069438226502,2.18892803425479,4.782982882066903,,,,,,,,,,,,
49049,0,USUtahUtah,Utah,Utah,2022-04-28 09:13:11,2021-08-20,1.0748069438226502,2.18892803425479,4.782982882066903,,,,,,,,,,,,
49049,0,USUtahUtah,Utah,Utah,2022-04-28 09:13:11,2021-08-21,1.0748069438226502,2.18892803425479,4.782982882066903,,,,,,,,,,,,
49049,0,USUtahUtah,Utah,Utah,2022-04-28 09:13:11,2021-08-22,1.0748069438226502,2.18892803425479,4.782982882066903,,,,,,,,,,,,
49049,0,USUtahUtah,Utah,Utah,2022-04-28 09:13:11,2021-08-23,1.0748069438226502,2.18892803425479,4.782982882066903,,,,,,,,,,,,
49049,0,USUtahUtah,Utah,Utah,2022-04-28 09:13:11,2021-08-24,1.0748069438226502,2.18892803425479,4.782982882066903,,,,,,,,,,,,
49049,0,USUtahUtah,Utah,Utah,2022-04-28 09:13:11,2021-08-25,1.0748069438226502,2.18892803425479,4.782982882066903,,,,,,,,,,,,
49049,0,USUtahUtah,Utah,Utah,2022-04-28 09:13:11,2021-08-26,1.2042787866514388,2.3237204712773107,4.800023688832746,,,,,,,,,,,,
49049,0,USUtahUtah,Utah,Utah,2022-04-28 09:13:11,2021-08-27,1.2042787866514388,2.3237204712773107,4.800023688832746,,,,,,,,,,,,
49049,0,USUtahUtah,Utah,Utah,2022-04-28 09:13:11,2021-08-28,1.2042787866514388,2.3237204712773107,4.800023688832746,,,,,,,,,,,,
49049,0,USUtahUtah,Utah,Utah,2022-04-28 09:13:11,2021-08-29,1.2042787866514388,2.3237204712773107,4.800023688832746,,,,,,,,,,,,
49049,0,USUtahUtah,Utah,Utah,2022-04-28 09:13:11,2021-08-30,1.2042787866514388,2.3237204712773107,4.800023688832746,,,,,,,,,,,,
49049,0,USUtahUtah,Utah,Utah,2022-04-28 09:13:11,2021-08-31,1.2042787866514388,2.3237204712773107,4.800023688832746,,,,,,,,,,,,
49049,0,USUtahUtah,Utah,Utah,2022-04-28 09:13:11,2021-09-01,1.2042787866514388,2.3237204712773107,4.800023688832746,,,,,,,,,,,,
49049,0,USUtahUtah,Utah,Utah,2022-04-28 09:13:11,2021-09-02,1.28699006147346,2.4004754449621486,4.7847841498740715,,,,,,,,,,,,
49049,0,USUtahUtah,Utah,Utah,2022-04-28 09:13:11,2021-09-03,1.28699006147346,2.4004754449621486,4.7847841498740715,,,,,,,,,,,,
49049,0,USUtahUtah,Utah,Utah,2022-04-28 09:13:11,2021-09-04,1.28699006147346,2.4004754449621486,4.7847841498740715,,,,,,,,,,,,
49049,0,USUtahUtah,Utah,Utah,2022-04-28 09:13:11,2021-09-05,1.28699006147346,2.4004754449621486,4.7847841498740715,,,,,,,,,,,,
49049,0,USUtahUtah,Utah,Utah,2022-04-28 09:13:11,2021-09-06,1.28699006147346,2.4004754449621486,4.7847841498740715,,,,,,,,,,,,
49049,0,USUtahUtah,Utah,Utah,2022-04-28 09:13:11,2021-09-07,1.28699006147346,2.4004754449621486,4.7847841498740715,,,,,,,,,,,,
49049,0,USUtahUtah,Utah,Utah,2022-04-28 09:13:11,2021-09-08,1.28699006147346,2.4004754449621486,4.7847841498740715,,,,,,,,,,,,
49049,0,USUtahUtah,Utah,Utah,2022-04-28 09:13:11,2021-09-09,1.4693221807473744,2.691281668446688,5.2624392990440265,,,,,,,,,,,,
49049,0,USUtahUtah,Utah,Utah,2022-04-28 09:13:11,2021-09-10,1.4693221807473744,2.691281668446688,5.2624392990440265,,,,,,,,,,,,
49049,0,USUtahUtah,Utah,Utah,2022-04-28 09:13:11,2021-09-11,1.4693221807473744,2.691281668446688,5.2624392990440265,,,,,,,,,,,,
49049,0,USUtahUtah,Utah,Utah,2022-04-28 09:13:11,2021-09-12,1.4693221807473744,2.691281668446688,5.2624392990440265,,,,,,,,,,,,
49049,0,USUtahUtah,Utah,Utah,2022-04-28 09:13:11,2021-09-13,1.4693221807473744,2.691281668446688,5.2624392990440265,,,,,,,,,,,,
49049,0,USUtahUtah,Utah,Utah,2022-04-28 09:13:11,2021-09-14,1.4693221807473744,2.691281668446688,5.2624392990440265,,,,,,,,,,,,
49049,0,USUtahUtah,Utah,Utah,2022-04-28 09:13:11,2021-09-15,1.4693221807473744,2.691281668446688,5.2624392990440265,,,,,,,,,,,,
49049,0,USUtahUtah,Utah,Utah,2022-04-28 09:13:11,2021-09-16,1.285547001574909,2.450709552572058,4.998521716248456,,,,,,,,,,,,
49049,0,USUtahUtah,Utah,Utah,2022-04-28 09:13:11,2021-09-17,1.285547001574909,2.450709552572058,4.998521716248456,,,,,,,,,,,,
49049,0,USUtahUtah,Utah,Utah,2022-04-28 09:13:11,2021-09-18,1.285547001574909,2.450709552572058,4.998521716248456,,,,,,,,,,,,
49049,0,USUtahUtah,Utah,Utah,2022-04-28 09:13:11,2021-09-19,1.285547001574909,2.450709552572058,4.998521716248456,,,,,,,,,,,,
49049,0,USUtahUtah,Utah,Utah,2022-04-28 09:13:11,2021-09-20,1.285547001574909,2.450709552572058,4.998521716248456,,,,,,,,,,,,
49049,0,USUtahUtah,Utah,Utah,2022-04-28 09:13:11,2021-09-21,1.285547001574909,2.450709552572058,4.998521716248456,,,,,,,,,,,,
49049,0,USUtahUtah,Utah,Utah,2022-04-28 09:13:11,2021-09-22,1.285547001574909,2.450709552572058,4.998521716248456,,,,,,,,,,,,
49049,0,USUtahUtah,Utah,Utah,2022-04-28 09:13:11,2021-09-23,1.2184424674351437,2.345146813144797,4.8315400207116,,,,,,,,,,,,
49049,0,USUtahUtah,Utah,Utah,2022-04-28 09:13:11,2021-09-24,1.2184424674351437,2.345146813144797,4.8315400207116,,,,,,,,,,,,
49049,0,USUtahUtah,Utah,Utah,2022-04-28 09:13:11,2021-09-25,1.2184424674351437,2.345146813144797,4.8315400207116,,,,,,,,,,,,
49049,0,USUtahUtah,Utah,Utah,2022-04-28 09:13:11,2021-09-26,1.2184424674351437,2.345146813144797,4.8315400207116,,,,,,,,,,,,
49049,0,USUtahUtah,Utah,Utah,2022-04-28 09:13:11,2021-09-27,1.2184424674351437,2.345146813144797,4.8315400207116,,,,,,,,,,,,
49049,0,USUtahUtah,Utah,Utah,2022-04-28 09:13:11,2021-09-28,1.2184424674351437,2.345146813144797,4.8315400207116,,,,,,,,,,,,
49049,0,USUtahUtah,Utah,Utah,2022-04-28 09:13:11,2021-09-29,1.2184424674351437,2.345146813144797,4.8315400207116,,,,,,,,,,,,
49049,0,USUtahUtah,Utah,Utah,2022-04-28 09:13:11,2021-09-30,1.3616820197639161,2.5974937587618157,5.301429616338947,,,,,,,,,,,,
49049,0,USUtahUtah,Utah,Utah,2022-04-28 09:13:11,2021-10-01,1.3616820197639161,2.5974937587618157,5.301429616338947,,,,,,,,,,,,
49049,0,USUtahUtah,Utah,Utah,2022-04-28 09:13:11,2021-10-02,1.3616820197639161,2.5974937587618157,5.301429616338947,,,,,,,,,,,,
49049,0,USUtahUtah,Utah,Utah,2022-04-28 09:13:11,2021-10-03,1.3616820197639161,2.5974937587618157,5.301429616338947,,,,,,,,,,,,
49049,0,USUtahUtah,Utah,Utah,2022-04-28 09:13:11,2021-10-04,1.3616820197639161,2.5974937587618157,5.301429616338947,,,,,,,,,,,,
49049,0,USUtahUtah,Utah,Utah,2022-04-28 09:13:11,2021-10-05,1.3616820197639161,2.5974937587618157,5.301429616338947,,,,,,,,,,,,
49049,0,USUtahUtah,Utah,Utah,2022-04-28 09:13:11,2021-10-06,1.3616820197639161,2.5974937587618157,5.301429616338947,,,,,,,,,,,,
49049,0,USUtahUtah,Utah,Utah,2022-04-28 09:13:11,2021-10-07,1.2205365376556339,2.3564078113827236,4.8703959724165,,,,,,,,,,,,
49049,0,USUtahUtah,Utah,Utah,2022-04-28 09:13:11,2021-10-08,1.2205365376556339,2.3564078113827236,4.8703959724165,,,,,,,,,,,,
49049,0,USUtahUtah,Utah,Utah,2022-04-28 09:13:11,2021-10-09,1.2205365376556339,2.3564078113827236,4.8703959724165,,,,,,,,,,,,
49049,0,USUtahUtah,Utah,Utah,2022-04-28 09:13:11,2021-10-10,1.2205365376556339,2.3564078113827236,4.8703959724165,,,,,,,,,,,,
49049,0,USUtahUtah,Utah,Utah,2022-04-28 09:13:11,2021-10-11,1.2205365376556339,2.3564078113827236,4.8703959724165,,,,,,,,,,,,
49049,0,USUtahUtah,Utah,Utah,2022-04-28 09:13:11,2021-10-12,1.2205365376556339,2.3564078113827236,4.8703959724165,,,,,,,,,,,,
49049,0,USUtahUtah,Utah,Utah,2022-04-28 09:13:11,2021-10-13,1.2205365376556339,2.3564078113827236,4.8703959724165,,,,,,,,,,,,
49049,0,USUtahUtah,Utah,Utah,2022-04-28 09:13:11,2021-10-14,1.0700688083091043,2.125699909381515,4.526374563747652,,,,,,,,,,,,
49049,0,USUtahUtah,Utah,Utah,2022-04-28 09:13:11,2021-10-15,1.0700688083091043,2.125699909381515,4.526374563747652,,,,,,,,,,,,
49049,0,USUtahUtah,Utah,Utah,2022-04-28 09:13:11,2021-10-16,1.0700688083091043,2.125699909381515,4.526374563747652,,,,,,,,,,,,
49049,0,USUtahUtah,Utah,Utah,2022-04-28 09:13:11,2021-10-17,1.0700688083091043,2.125699909381515,4.526374563747652,,,,,,,,,,,,
49049,0,USUtahUtah,Utah,Utah,2022-04-28 09:13:11,2021-10-18,1.0700688083091043,2.125699909381515,4.526374563747652,,,,,,,,,,,,
49049,0,USUtahUtah,Utah,Utah,2022-04-28 09:13:11,2021-10-19,1.0700688083091043,2.125699909381515,4.526374563747652,,,,,,,,,,,,
49049,0,USUtahUtah,Utah,Utah,2022-04-28 09:13:11,2021-10-20,1.0700688083091043,2.125699909381515,4.526374563747652,,,,,,,,,,,,
49049,0,USUtahUtah,Utah,Utah,2022-04-28 09:13:11,2021-10-21,1.4048475707888863,2.7351817359731934,5.703305122110165,,,,,,,,,,,,
49049,0,USUtahUtah,Utah,Utah,2022-04-28 09:13:11,2021-10-22,1.4048475707888863,2.7351817359731934,5.703305122110165,,,,,,,,,,,,
49049,0,USUtahUtah,Utah,Utah,2022-04-28 09:13:11,2021-10-23,1.4048475707888863,2.7351817359731934,5.703305122110165,,,,,,,,,,,,
49049,0,USUtahUtah,Utah,Utah,2022-04-28 09:13:11,2021-10-24,1.4048475707888863,2.7351817359731934,5.703305122110165,,,,,,,,,,,,
49049,0,USUtahUtah,Utah,Utah,2022-04-28 09:13:11,2021-10-25,1.4048475707888863,2.7351817359731934,5.703305122110165,,,,,,,,,,,,
49049,0,USUtahUtah,Utah,Utah,2022-04-28 09:13:11,2021-10-26,1.4048475707888863,2.7351817359731934,5.703305122110165,,,,,,,,,,,,
49049,0,USUtahUtah,Utah,Utah,2022-04-28 09:13:11,2021-10-27,1.4048475707888863,2.7351817359731934,5.703305122110165,,,,,,,,,,,,
49049,0,USUtahUtah,Utah,Utah,2022-04-28 09:13:11,2021-10-28,1.251462045462817,2.4041165005128753,4.943151851120501,,,,,,,,,,,,
49049,0,USUtahUtah,Utah,Utah,2022-04-28 09:13:11,2021-10-29,1.251462045462817,2.4041165005128753,4.943151851120501,,,,,,,,,,,,
49049,0,USUtahUtah,Utah,Utah,2022-04-28 09:13:11,2021-10-30,1.251462045462817,2.4041165005128753,4.943151851120501,,,,,,,,,,,,
49049,0,USUtahUtah,Utah,Utah,2022-04-28 09:13:11,2021-10-31,1.251462045462817,2.4041165005128753,4.943151851120501,,,,,,,,,,,,
49049,0,USUtahUtah,Utah,Utah,2022-04-28 09:13:11,2021-11-01,1.251462045462817,2.4041165005128753,4.943151851120501,,,,,,,,,,,,
49049,0,USUtahUtah,Utah,Utah,2022-04-28 09:13:11,2021-11-02,1.251462045462817,2.4041165005128753,4.943151851120501,,,,,,,,,,,,
49049,0,USUtahUtah,Utah,Utah,2022-04-28 09:13:11,2021-11-03,1.251462045462817,2.4041165005128753,4.943151851120501,,,,,,,,,,,,
49049,0,USUtahUtah,Utah,Utah,2022-04-28 09:13:11,2021-11-04,1.4808230112352831,2.770177436718217,5.538931979040266,,,,,,,,,,,,
49049,0,USUtahUtah,Utah,Utah,2022-04-28 09:13:11,2021-11-05,1.4808230112352831,2.770177436718217,5.538931979040266,,,,,,,,,,,,
49049,0,USUtahUtah,Utah,Utah,2022-04-28 09:13:11,2021-11-06,1.4808230112352831,2.770177436718217,5.538931979040266,,,,,,,,,,,,
49049,0,USUtahUtah,Utah,Utah,2022-04-28 09:13:11,2021-11-07,1.4808230112352831,2.770177436718217,5.538931979040266,,,,,,,,,,,,
49049,0,USUtahUtah,Utah,Utah,2022-04-28 09:13:11,2021-11-08,1.4808230112352831,2.770177436718217,5.538931979040266,,,,,,,,,,,,
49049,0,USUtahUtah,Utah,Utah,2022-04-28 09:13:11,2021-11-09,1.4808230112352831,2.770177436718217,5.538931979040266,,,,,,,,,,,,
49049,0,USUtahUtah,Utah,Utah,2022-04-28 09:13:11,2021-11-10,1.4808230112352831,2.770177436718217,5.538931979040266,,,,,,,,,,,,
49049,0,USUtahUtah,Utah,Utah,2022-04-28 09:13:11,2021-11-11,1.6978095398304096,3.1495080485498463,6.241742723488709,,,,,,,,,,,,
49049,0,USUtahUtah,Utah,Utah,2022-04-28 09:13:11,2021-11-12,1.6978095398304096,3.1495080485498463,6.241742723488709,,,,,,,,,,,,
49049,0,USUtahUtah,Utah,Utah,2022-04-28 09:13:11,2021-11-13,1.6978095398304096,3.1495080485498463,6.241742723488709,,,,,,,,,,,,
49049,0,USUtahUtah,Utah,Utah,2022-04-28 09:13:11,2021-11-14,1.6978095398304096,3.1495080485498463,6.241742723488709,,,,,,,,,,,,
49049,0,USUtahUtah,Utah,Utah,2022-04-28 09:13:11,2021-11-15,1.6978095398304096,3.1495080485498463,6.241742723488709,,,,,,,,,,,,
49049,0,USUtahUtah,Utah,Utah,2022-04-28 09:13:11,2021-11-16,1.6978095398304096,3.1495080485498463,6.241742723488709,,,,,,,,,,,,
49049,0,USUtahUtah,Utah,Utah,2022-04-28 09:13:11,2021-11-17,1.6978095398304096,3.1495080485498463,6.241742723488709,,,,,,,,,,,,
49049,0,USUtahUtah,Utah,Utah,2022-04-28 09:13:11,2021-11-18,1.5455137036561577,2.81558854182328,5.474043541957551,,,,,,,,,,,,
49049,0,USUtahUtah,Utah,Utah,2022-04-28 09:13:11,2021-11-19,1.5455137036561577,2.81558854182328,5.474043541957551,,,,,,,,,,,,
49049,0,USUtahUtah,Utah,Utah,2022-04-28 09:13:11,2021-11-20,1.5455137036561577,2.81558854182328,5.474043541957551,,,,,,,,,,,,
49049,0,USUtahUtah,Utah,Utah,2022-04-28 09:13:11,2021-11-21,1.5455137036561577,2.81558854182328,5.474043541957551,,,,,,,,,,,,
49049,0,USUtahUtah,Utah,Utah,2022-04-28 09:13:11,2021-11-22,1.5455137036561577,2.81558854182328,5.474043541957551,,,,,,,,,,,,
49049,0,USUtahUtah,Utah,Utah,2022-04-28 09:13:11,2021-11-23,1.5455137036561577,2.81558854182328,5.474043541957551,,,,,,,,,,,,
49049,0,USUtahUtah,Utah,Utah,2022-04-28 09:13:11,2021-11-24,1.5455137036561577,2.81558854182328,5.474043541957551,,,,,,,,,,,,
49049,0,USUtahUtah,Utah,Utah,2022-04-28 09:13:11,2021-11-25,1.357757114676432,2.5213709134875133,5.002499287337354,,,,,,,,,,,,
49049,0,USUtahUtah,Utah,Utah,2022-04-28 09:13:11,2021-11-26,1.357757114676432,2.5213709134875133,5.002499287337354,,,,,,,,,,,,
49049,0,USUtahUtah,Utah,Utah,2022-04-28 09:13:11,2021-11-27,1.357757114676432,2.5213709134875133,5.002499287337354,,,,,,,,,,,,
49049,0,USUtahUtah,Utah,Utah,2022-04-28 09:13:11,2021-11-28,1.357757114676432,2.5213709134875133,5.002499287337354,,,,,,,,,,,,
49049,0,USUtahUtah,Utah,Utah,2022-04-28 09:13:11,2021-11-29,1.357757114676432,2.5213709134875133,5.002499287337354,,,,,,,,,,,,
49049,0,USUtahUtah,Utah,Utah,2022-04-28 09:13:11,2021-11-30,1.357757114676432,2.5213709134875133,5.002499287337354,,,,,,,,,,,,
49049,0,USUtahUtah,Utah,Utah,2022-04-28 09:13:11,2021-12-01,1.357757114676432,2.5213709134875133,5.002499287337354,,,,,,,,,,,,
49049,0,USUtahUtah,Utah,Utah,2022-04-28 09:13:11,2021-12-02,1.522852161294454,2.717679863790972,5.168985302724007,,,,,,,,,,,,
49049,0,USUtahUtah,Utah,Utah,2022-04-28 09:13:11,2021-12-03,1.522852161294454,2.717679863790972,5.168985302724007,,,,,,,,,,,,
49049,0,USUtahUtah,Utah,Utah,2022-04-28 09:13:11,2021-12-04,1.522852161294454,2.717679863790972,5.168985302724007,,,,,,,,,,,,
49049,0,USUtahUtah,Utah,Utah,2022-04-28 09:13:11,2021-12-05,1.522852161294454,2.717679863790972,5.168985302724007,,,,,,,,,,,,
49049,0,USUtahUtah,Utah,Utah,2022-04-28 09:13:11,2021-12-06,1.522852161294454,2.717679863790972,5.168985302724007,,,,,,,,,,,,
49049,0,USUtahUtah,Utah,Utah,2022-04-28 09:13:11,2021-12-07,1.522852161294454,2.717679863790972,5.168985302724007,,,,,,,,,,,,
49049,0,USUtahUtah,Utah,Utah,2022-04-28 09:13:11,2021-12-08,1.522852161294454,2.717679863790972,5.168985302724007,,,,,,,,,,,,
49049,0,USUtahUtah,Utah,Utah,2022-04-28 09:13:11,2021-12-09,1.1001704005951822,2.078297801277832,4.198535787413688,,,,,,,,,,,,
49049,0,USUtahUtah,Utah,Utah,2022-04-28 09:13:11,2021-12-10,1.1001704005951822,2.078297801277832,4.198535787413688,,,,,,,,,,,,
49049,0,USUtahUtah,Utah,Utah,2022-04-28 09:13:11,2021-12-11,1.1001704005951822,2.078297801277832,4.198535787413688,,,,,,,,,,,,
49049,0,USUtahUtah,Utah,Utah,2022-04-28 09:13:11,2021-12-12,1.1001704005951822,2.078297801277832,4.198535787413688,,,,,,,,,,,,
49049,0,USUtahUtah,Utah,Utah,2022-04-28 09:13:11,2021-12-13,1.1001704005951822,2.078297801277832,4.198535787413688,,,,,,,,,,,,
49049,0,USUtahUtah,Utah,Utah,2022-04-28 09:13:11,2021-12-14,1.1001704005951822,2.078297801277832,4.198535787413688,,,,,,,,,,,,
49049,0,USUtahUtah,Utah,Utah,2022-04-28 09:13:11,2021-12-15,1.1001704005951822,2.078297801277832,4.198535787413688,,,,,,,,,,,,
49049,0,USUtahUtah,Utah,Utah,2022-04-28 09:13:11,2021-12-16,0.952709236639631,1.825257556898872,3.7423227341174576,,,,,,,,,,,,
49049,0,USUtahUtah,Utah,Utah,2022-04-28 09:13:11,2021-12-17,0.952709236639631,1.825257556898872,3.7423227341174576,,,,,,,,,,,,
49049,0,USUtahUtah,Utah,Utah,2022-04-28 09:13:11,2021-12-18,0.952709236639631,1.825257556898872,3.7423227341174576,,,,,,,,,,,,
49049,0,USUtahUtah,Utah,Utah,2022-04-28 09:13:11,2021-12-19,0.952709236639631,1.825257556898872,3.7423227341174576,,,,,,,,,,,,
49049,0,USUtahUtah,Utah,Utah,2022-04-28 09:13:11,2021-12-20,0.952709236639631,1.825257556898872,3.7423227341174576,,,,,,,,,,,,
49049,0,USUtahUtah,Utah,Utah,2022-04-28 09:13:11,2021-12-21,0.952709236639631,1.825257556898872,3.7423227341174576,,,,,,,,,,,,
49049,0,USUtahUtah,Utah,Utah,2022-04-28 09:13:11,2021-12-22,0.952709236639631,1.825257556898872,3.7423227341174576,,,,,,,,,,,,
49049,0,USUtahUtah,Utah,Utah,2022-04-28 09:13:11,2021-12-23,1.256762828127284,2.501802896708762,5.338851375037381,,,,,,,,,,,,
49049,0,USUtahUtah,Utah,Utah,2022-04-28 09:13:11,2021-12-24,1.256762828127284,2.501802896708762,5.338851375037381,,,,,,,,,,,,
49049,0,USUtahUtah,Utah,Utah,2022-04-28 09:13:11,2021-12-25,1.256762828127284,2.501802896708762,5.338851375037381,,,,,,,,,,,,
49049,0,USUtahUtah,Utah,Utah,2022-04-28 09:13:11,2021-12-26,1.256762828127284,2.501802896708762,5.338851375037381,,,,,,,,,,,,
49049,0,USUtahUtah,Utah,Utah,2022-04-28 09:13:11,2021-12-27,1.256762828127284,2.501802896708762,5.338851375037381,,,,,,,,,,,,
49049,0,USUtahUtah,Utah,Utah,2022-04-28 09:13:11,2021-12-28,1.256762828127284,2.501802896708762,5.338851375037381,,,,,,,,,,,,
49049,0,USUtahUtah,Utah,Utah,2022-04-28 09:13:11,2021-12-29,1.256762828127284,2.501802896708762,5.338851375037381,,,,,,,,,,,,
49049,0,USUtahUtah,Utah,Utah,2022-04-28 09:13:11,2021-12-30,3.234628996700383,5.955516870257306,11.709400586646026,,,,,,,,,,,,
49049,0,USUtahUtah,Utah,Utah,2022-04-28 09:13:11,2021-12-31,3.234628996700383,5.955516870257306,11.709400586646026,,,,,,,,,,,,
49049,0,USUtahUtah,Utah,Utah,2022-04-28 09:13:11,2022-01-01,3.234628996700383,5.955516870257306,11.709400586646026,,,,,,,,,,,,
49049,0,USUtahUtah,Utah,Utah,2022-04-28 09:13:11,2022-01-02,3.234628996700383,5.955516870257306,11.709400586646026,,,,,,,,,,,,
49049,0,USUtahUtah,Utah,Utah,2022-04-28 09:13:11,2022-01-03,3.234628996700383,5.955516870257306,11.709400586646026,,,,,,,,,,,,
49049,0,USUtahUtah,Utah,Utah,2022-04-28 09:13:11,2022-01-04,3.234628996700383,5.955516870257306,11.709400586646026,,,,,,,,,,,,
49049,0,USUtahUtah,Utah,Utah,2022-04-28 09:13:11,2022-01-05,3.234628996700383,5.955516870257306,11.709400586646026,,,,,,,,,,,,
49049,0,USUtahUtah,Utah,Utah,2022-04-28 09:13:11,2022-01-06,6.497657278200379,10.815036855196624,19.083482791998545,,,,,,,,,,,,
49049,0,USUtahUtah,Utah,Utah,2022-04-28 09:13:11,2022-01-07,6.497657278200379,10.815036855196624,19.083482791998545,,,,,,,,,,,,
49049,0,USUtahUtah,Utah,Utah,2022-04-28 09:13:11,2022-01-08,6.497657278200379,10.815036855196624,19.083482791998545,,,,,,,,,,,,
49049,0,USUtahUtah,Utah,Utah,2022-04-28 09:13:11,2022-01-09,6.497657278200379,10.815036855196624,19.083482791998545,,,,,,,,,,,,
49049,0,USUtahUtah,Utah,Utah,2022-04-28 09:13:11,2022-01-10,6.497657278200379,10.815036855196624,19.083482791998545,,,,,,,,,,,,
49049,0,USUtahUtah,Utah,Utah,2022-04-28 09:13:11,2022-01-11,6.497657278200379,10.815036855196624,19.083482791998545,,,,,,,,,,,,
49049,0,USUtahUtah,Utah,Utah,2022-04-28 09:13:11,2022-01-12,6.497657278200379,10.815036855196624,19.083482791998545,,,,,,,,,,,,
49049,0,USUtahUtah,Utah,Utah,2022-04-28 09:13:11,2022-01-13,8.569522374553081,13.5796204875125,22.709536919654834,,,,,,,,,,,,
49049,0,USUtahUtah,Utah,Utah,2022-04-28 09:13:11,2022-01-14,8.569522374553081,13.5796204875125,22.709536919654834,,,,,,,,,,,,
49049,0,USUtahUtah,Utah,Utah,2022-04-28 09:13:11,2022-01-15,8.569522374553081,13.5796204875125,22.709536919654834,,,,,,,,,,,,
49049,0,USUtahUtah,Utah,Utah,2022-04-28 09:13:11,2022-01-16,8.569522374553081,13.5796204875125,22.709536919654834,,,,,,,,,,,,
49049,0,USUtahUtah,Utah,Utah,2022-04-28 09:13:11,2022-01-17,8.569522374553081,13.5796204875125,22.709536919654834,,,,,,,,,,,,
49049,0,USUtahUtah,Utah,Utah,2022-04-28 09:13:11,2022-01-18,8.569522374553081,13.5796204875125,22.709536919654834,,,,,,,,,,,,
49049,0,USUtahUtah,Utah,Utah,2022-04-28 09:13:11,2022-01-19,8.569522374553081,13.5796204875125,22.709536919654834,,,,,,,,,,,,
49049,0,USUtahUtah,Utah,Utah,2022-04-28 09:13:11,2022-01-20,7.409716543651533,12.15586920427571,21.114383770103803,,,,,,,,,,,,
49049,0,USUtahUtah,Utah,Utah,2022-04-28 09:13:11,2022-01-21,7.409716543651533,12.15586920427571,21.114383770103803,,,,,,,,,,,,
49049,0,USUtahUtah,Utah,Utah,2022-04-28 09:13:11,2022-01-22,7.409716543651533,12.15586920427571,21.114383770103803,,,,,,,,,,,,
49049,0,USUtahUtah,Utah,Utah,2022-04-28 09:13:11,2022-01-23,7.409716543651533,12.15586920427571,21.114383770103803,,,,,,,,,,,,
49049,0,USUtahUtah,Utah,Utah,2022-04-28 09:13:11,2022-01-24,7.409716543651533,12.15586920427571,21.114383770103803,,,,,,,,,,,,
49049,0,USUtahUtah,Utah,Utah,2022-04-28 09:13:11,2022-01-25,7.409716543651533,12.15586920427571,21.114383770103803,,,,,,,,,,,,
49049,0,USUtahUtah,Utah,Utah,2022-04-28 09:13:11,2022-01-26,7.409716543651533,12.15586920427571,21.114383770103803,,,,,,,,,,,,
49049,0,USUtahUtah,Utah,Utah,2022-04-28 09:13:11,2022-01-27,3.7792384278419586,6.785094026772416,12.988136475446732,,,,,,,,,,,,
49049,0,USUtahUtah,Utah,Utah,2022-04-28 09:13:11,2022-01-28,3.7792384278419586,6.785094026772416,12.988136475446732,,,,,,,,,,,,
49049,0,USUtahUtah,Utah,Utah,2022-04-28 09:13:11,2022-01-29,3.7792384278419586,6.785094026772416,12.988136475446732,,,,,,,,,,,,
49049,0,USUtahUtah,Utah,Utah,2022-04-28 09:13:11,2022-01-30,3.7792384278419586,6.785094026772416,12.988136475446732,,,,,,,,,,,,
49049,0,USUtahUtah,Utah,Utah,2022-04-28 09:13:11,2022-01-31,3.7792384278419586,6.785094026772416,12.988136475446732,,,,,,,,,,,,
49049,0,USUtahUtah,Utah,Utah,2022-04-28 09:13:11,2022-02-01,3.7792384278419586,6.785094026772416,12.988136475446732,,,,,,,,,,,,
49049,0,USUtahUtah,Utah,Utah,2022-04-28 09:13:11,2022-02-02,3.7792384278419586,6.785094026772416,12.988136475446732,,,,,,,,,,,,
49049,0,USUtahUtah,Utah,Utah,2022-04-28 09:13:11,2022-02-03,1.8957372612306251,3.6823366891047855,7.6596017203020645,,,,,,,,,,,,
49049,0,USUtahUtah,Utah,Utah,2022-04-28 09:13:11,2022-02-04,1.8957372612306251,3.6823366891047855,7.6596017203020645,,,,,,,,,,,,
49049,0,USUtahUtah,Utah,Utah,2022-04-28 09:13:11,2022-02-05,1.8957372612306251,3.6823366891047855,7.6596017203020645,,,,,,,,,,,,
49049,0,USUtahUtah,Utah,Utah,2022-04-28 09:13:11,2022-02-06,1.8957372612306251,3.6823366891047855,7.6596017203020645,,,,,,,,,,,,
49049,0,USUtahUtah,Utah,Utah,2022-04-28 09:13:11,2022-02-07,1.8957372612306251,3.6823366891047855,7.6596017203020645,,,,,,,,,,,,
49049,0,USUtahUtah,Utah,Utah,2022-04-28 09:13:11,2022-02-08,1.8957372612306251,3.6823366891047855,7.6596017203020645,,,,,,,,,,,,
49049,0,USUtahUtah,Utah,Utah,2022-04-28 09:13:11,2022-02-09,1.8957372612306251,3.6823366891047855,7.6596017203020645,,,,,,,,,,,,
49049,0,USUtahUtah,Utah,Utah,2022-04-28 09:13:11,2022-02-10,1.0551443573566601,2.086754572748561,4.422927387296525,,,,,,,,,,,,
49049,0,USUtahUtah,Utah,Utah,2022-04-28 09:13:11,2022-02-11,1.0551443573566601,2.086754572748561,4.422927387296525,,,,,,,,,,,,
49049,0,USUtahUtah,Utah,Utah,2022-04-28 09:13:11,2022-02-12,1.0551443573566601,2.086754572748561,4.422927387296525,,,,,,,,,,,,
49049,0,USUtahUtah,Utah,Utah,2022-04-28 09:13:11,2022-02-13,1.0551443573566601,2.086754572748561,4.422927387296525,,,,,,,,,,,,
49049,0,USUtahUtah,Utah,Utah,2022-04-28 09:13:11,2022-02-14,1.0551443573566601,2.086754572748561,4.422927387296525,,,,,,,,,,,,
49049,0,USUtahUtah,Utah,Utah,2022-04-28 09:13:11,2022-02-15,1.0551443573566601,2.086754572748561,4.422927387296525,,,,,,,,,,,,
49049,0,USUtahUtah,Utah,Utah,2022-04-28 09:13:11,2022-02-16,1.0551443573566601,2.086754572748561,4.422927387296525,,,,,,,,,,,,
49049,0,USUtahUtah,Utah,Utah,2022-04-28 09:13:11,2022-02-17,0.6093919704090915,1.2813917396820627,2.8938099435391926,,,,,,,,,,,,
49049,0,USUtahUtah,Utah,Utah,2022-04-28 09:13:11,2022-02-18,0.6093919704090915,1.2813917396820627,2.8938099435391926,,,,,,,,,,,,
49049,0,USUtahUtah,Utah,Utah,2022-04-28 09:13:11,2022-02-19,0.6093919704090915,1.2813917396820627,2.8938099435391926,,,,,,,,,,,,
49049,0,USUtahUtah,Utah,Utah,2022-04-28 09:13:11,2022-02-20,0.6093919704090915,1.2813917396820627,2.8938099435391926,,,,,,,,,,,,
49049,0,USUtahUtah,Utah,Utah,2022-04-28 09:13:11,2022-02-21,0.6093919704090915,1.2813917396820627,2.8938099435391926,,,,,,,,,,,,
49049,0,USUtahUtah,Utah,Utah,2022-04-28 09:13:11,2022-02-22,0.6093919704090915,1.2813917396820627,2.8938099435391926,,,,,,,,,,,,
49049,0,USUtahUtah,Utah,Utah,2022-04-28 09:13:11,2022-02-23,0.6093919704090915,1.2813917396820627,2.8938099435391926,,,,,,,,,,,,
49049,0,USUtahUtah,Utah,Utah,2022-04-28 09:13:11,2022-02-24,0.321260556838138,0.6963046628359646,1.6220757273957886,,,,,,,,,,,,
49049,0,USUtahUtah,Utah,Utah,2022-04-28 09:13:11,2022-02-25,0.321260556838138,0.6963046628359646,1.6220757273957886,,,,,,,,,,,,
49049,0,USUtahUtah,Utah,Utah,2022-04-28 09:13:11,2022-02-26,0.321260556838138,0.6963046628359646,1.6220757273957886,,,,,,,,,,,,
49049,0,USUtahUtah,Utah,Utah,2022-04-28 09:13:11,2022-02-27,0.321260556838138,0.6963046628359646,1.6220757273957886,,,,,,,,,,,,
49049,0,USUtahUtah,Utah,Utah,2022-04-28 09:13:11,2022-02-28,0.321260556838138,0.6963046628359646,1.6220757273957886,,,,,,,,,,,,
49049,0,USUtahUtah,Utah,Utah,2022-04-28 09:13:11,2022-03-01,0.321260556838138,0.6963046628359646,1.6220757273957886,,,,,,,,,,,,
49049,0,USUtahUtah,Utah,Utah,2022-04-28 09:13:11,2022-03-02,0.321260556838138,0.6963046628359646,1.6220757273957886,,,,,,,,,,,,
49049,0,USUtahUtah,Utah,Utah,2022-04-28 09:13:11,2022-03-03,0.20653814420149819,0.4527472004042155,1.0669463759416735,,,,,,,,,,,,
49049,0,USUtahUtah,Utah,Utah,2022-04-28 09:13:11,2022-03-04,0.20653814420149819,0.4527472004042155,1.0669463759416735,,,,,,,,,,,,
49049,0,USUtahUtah,Utah,Utah,2022-04-28 09:13:11,2022-03-05,0.20653814420149819,0.4527472004042155,1.0669463759416735,,,,,,,,,,,,
49049,0,USUtahUtah,Utah,Utah,2022-04-28 09:13:11,2022-03-06,0.20653814420149819,0.4527472004042155,1.0669463759416735,,,,,,,,,,,,
49049,0,USUtahUtah,Utah,Utah,2022-04-28 09:13:11,2022-03-07,0.20653814420149819,0.4527472004042155,1.0669463759416735,,,,,,,,,,,,
49049,0,USUtahUtah,Utah,Utah,2022-04-28 09:13:11,2022-03-08,0.20653814420149819,0.4527472004042155,1.0669463759416735,,,,,,,,,,,,
49049,0,USUtahUtah,Utah,Utah,2022-04-28 09:13:11,2022-03-09,0.20653814420149819,0.4527472004042155,1.0669463759416735,,,,,,,,,,,,
49049,0,USUtahUtah,Utah,Utah,2022-04-28 09:13:11,2022-03-10,0.1638438265990918,0.3836087287891053,0.9664034246169965,,,,,,,,,,,,
49049,0,USUtahUtah,Utah,Utah,2022-04-28 09:13:11,2022-03-11,0.1638438265990918,0.3836087287891053,0.9664034246169965,,,,,,,,,,,,
49049,0,USUtahUtah,Utah,Utah,2022-04-28 09:13:11,2022-03-12,0.1638438265990918,0.3836087287891053,0.9664034246169965,,,,,,,,,,,,
49049,0,USUtahUtah,Utah,Utah,2022-04-28 09:13:11,2022-03-13,0.1638438265990918,0.3836087287891053,0.9664034246169965,,,,,,,,,,,,
49049,0,USUtahUtah,Utah,Utah,2022-04-28 09:13:11,2022-03-14,0.1638438265990918,0.3836087287891053,0.9664034246169965,,,,,,,,,,,,
49049,0,USUtahUtah,Utah,Utah,2022-04-28 09:13:11,2022-03-15,0.1638438265990918,0.3836087287891053,0.9664034246169965,,,,,,,,,,,,
49049,0,USUtahUtah,Utah,Utah,2022-04-28 09:13:11,2022-03-16,0.1638438265990918,0.3836087287891053,0.9664034246169965,,,,,,,,,,,,
49049,0,USUtahUtah,Utah,Utah,2022-04-28 09:13:11,2022-03-17,0.10682128022769856,0.2550363192262709,0.6552483295555781,,,,,,,,,,,,
49049,0,USUtahUtah,Utah,Utah,2022-04-28 09:13:11,2022-03-18,0.10682128022769856,0.2550363192262709,0.6552483295555781,,,,,,,,,,,,
49049,0,USUtahUtah,Utah,Utah,2022-04-28 09:13:11,2022-03-19,0.10682128022769856,0.2550363192262709,0.6552483295555781,,,,,,,,,,,,
49049,0,USUtahUtah,Utah,Utah,2022-04-28 09:13:11,2022-03-20,0.10682128022769856,0.2550363192262709,0.6552483295555781,,,,,,,,,,,,
49049,0,USUtahUtah,Utah,Utah,2022-04-28 09:13:11,2022-03-21,0.10682128022769856,0.2550363192262709,0.6552483295555781,,,,,,,,,,,,
49049,0,USUtahUtah,Utah,Utah,2022-04-28 09:13:11,2022-03-22,0.10682128022769856,0.2550363192262709,0.6552483295555781,,,,,,,,,,,,
49049,0,USUtahUtah,Utah,Utah,2022-04-28 09:13:11,2022-03-23,0.10682128022769856,0.2550363192262709,0.6552483295555781,,,,,,,,,,,,
49049,0,USUtahUtah,Utah,Utah,2022-04-28 09:13:11,2022-03-24,0.11090690646574806,0.2662081907707611,0.6876257924270889,,,,,,,,,,,,
49049,0,USUtahUtah,Utah,Utah,2022-04-28 09:13:11,2022-03-25,0.11090690646574806,0.2662081907707611,0.6876257924270889,,,,,,,,,,,,
49049,0,USUtahUtah,Utah,Utah,2022-04-28 09:13:11,2022-03-26,0.11090690646574806,0.2662081907707611,0.6876257924270889,,,,,,,,,,,,
49049,0,USUtahUtah,Utah,Utah,2022-04-28 09:13:11,2022-03-27,0.11090690646574806,0.2662081907707611,0.6876257924270889,,,,,,,,,,,,
49049,0,USUtahUtah,Utah,Utah,2022-04-28 09:13:11,2022-03-28,0.11090690646574806,0.2662081907707611,0.6876257924270889,,,,,,,,,,,,
49049,0,USUtahUtah,Utah,Utah,2022-04-28 09:13:11,2022-03-29,0.11090690646574806,0.2662081907707611,0.6876257924270889,,,,,,,,,,,,
49049,0,USUtahUtah,Utah,Utah,2022-04-28 09:13:11,2022-03-30,0.11090690646574806,0.2662081907707611,0.6876257924270889,,,,,,,,,,,,
49049,0,USUtahUtah,Utah,Utah,2022-04-28 09:13:11,2022-03-31,0.032055055303525246,0.1161126677930232,0.44861165046888796,,,,,,,,,,,,
49049,0,USUtahUtah,Utah,Utah,2022-04-28 09:13:11,2022-04-01,0.032055055303525246,0.1161126677930232,0.44861165046888796,,,,,,,,,,,,
49049,0,USUtahUtah,Utah,Utah,2022-04-28 09:13:11,2022-04-02,0.032055055303525246,0.1161126677930232,0.44861165046888796,,,,,,,,,,,,
49049,0,USUtahUtah,Utah,Utah,2022-04-28 09:13:11,2022-04-03,0.032055055303525246,0.1161126677930232,0.44861165046888796,,,,,,,,,,,,
49049,0,USUtahUtah,Utah,Utah,2022-04-28 09:13:11,2022-04-04,0.032055055303525246,0.1161126677930232,0.44861165046888796,,,,,,,,,,,,
49049,0,USUtahUtah,Utah,Utah,2022-04-28 09:13:11,2022-04-05,0.032055055303525246,0.1161126677930232,0.44861165046888796,,,,,,,,,,,,
49049,0,USUtahUtah,Utah,Utah,2022-04-28 09:13:11,2022-04-06,0.032055055303525246,0.1161126677930232,0.44861165046888796,,,,,,,,,,,,
49049,0,USUtahUtah,Utah,Utah,2022-04-28 09:13:11,2022-04-07,0.08148513455961869,0.21087037223953345,0.5871263843596596,,,,,,,,,,,,
49049,0,USUtahUtah,Utah,Utah,2022-04-28 09:13:11,2022-04-08,0.08148513455961869,0.21087037223953345,0.5871263843596596,,,,,,,,,,,,
49049,0,USUtahUtah,Utah,Utah,2022-04-28 09:13:11,2022-04-09,0.08148513455961869,0.21087037223953345,0.5871263843596596,,,,,,,,,,,,
49049,0,USUtahUtah,Utah,Utah,2022-04-28 09:13:11,2022-04-10,0.08148513455961869,0.21087037223953345,0.5871263843596596,,,,,,,,,,,,
49049,0,USUtahUtah,Utah,Utah,2022-04-28 09:13:11,2022-04-11,0.08148513455961869,0.21087037223953345,0.5871263843596596,,,,,,,,,,,,
49049,0,USUtahUtah,Utah,Utah,2022-04-28 09:13:11,2022-04-12,0.08148513455961869,0.21087037223953345,0.5871263843596596,,,,,,,,,,,,
49049,0,USUtahUtah,Utah,Utah,2022-04-28 09:13:11,2022-04-13,0.08148513455961869,0.21087037223953345,0.5871263843596596,,,,,,,,,,,,
49049,0,USUtahUtah,Utah,Utah,2022-04-28 09:13:11,2022-04-14,0.12160634532574137,0.318631064568522,0.8981516723411301,,,,,,,,,,,,
49049,0,USUtahUtah,Utah,Utah,2022-04-28 09:13:11,2022-04-15,0.12160634532574137,0.318631064568522,0.8981516723411301,,,,,,,,,,,,
49049,0,USUtahUtah,Utah,Utah,2022-04-28 09:13:11,2022-04-16,0.12160634532574137,0.318631064568522,0.8981516723411301,,,,,,,,,,,,
49049,0,USUtahUtah,Utah,Utah,2022-04-28 09:13:11,2022-04-17,0.12160634532574137,0.318631064568522,0.8981516723411301,,,,,,,,,,,,
49049,0,USUtahUtah,Utah,Utah,2022-04-28 09:13:11,2022-04-18,0.12160634532574137,0.318631064568522,0.8981516723411301,,,,,,,,,,,,
49049,0,USUtahUtah,Utah,Utah,2022-04-28 09:13:11,2022-04-19,0.12160634532574137,0.318631064568522,0.8981516723411301,,,,,,,,,,,,
49049,0,USUtahUtah,Utah,Utah,2022-04-28 09:13:11,2022-04-20,0.12160634532574137,0.318631064568522,0.8981516723411301,,,,,,,,,,,,
49049,0,USUtahUtah,Utah,Utah,2022-04-28 09:13:11,2022-04-21,0.17866649704948892,0.4726482428785818,1.3449884231866396,,,,,,,,,,,,
49049,0,USUtahUtah,Utah,Utah,2022-04-28 09:13:11,2022-04-22,0.17866649704948892,0.4726482428785818,1.3449884231866396,,,,,,,,,,,,
49049,0,USUtahUtah,Utah,Utah,2022-04-28 09:13:11,2022-04-23,0.17866649704948892,0.4726482428785818,1.3449884231866396,,,,,,,,,,,,
49049,0,USUtahUtah,Utah,Utah,2022-04-28 09:13:11,2022-04-24,0.17866649704948892,0.4726482428785818,1.3449884231866396,,,,,,,,,,,,
49049,0,USUtahUtah,Utah,Utah,2022-04-28 09:13:11,2022-04-25,0.17866649704948892,0.4726482428785818,1.3449884231866396,,,,,,,,,,,,
49049,0,USUtahUtah,Utah,Utah,2022-04-28 09:13:11,2022-04-26,0.17866649704948892,0.4726482428785818,1.3449884231866396,,,,,,,,,,,,
49049,0,USUtahUtah,Utah,Utah,2022-04-28 09:13:11,2022-04-27,0.17866649704948892,0.4726482428785818,1.3449884231866396,,,,,,,,,,,,
