FIPS,HR_UID,nameid,province,region,analysisTime,dates,pointprevalence_025,pointprevalence_50,pointprevalence_975,pointinfections_025,pointinfections_50,pointinfections_975,pointinfectious_025,pointinfectious_50,pointinfectious_975,pointinfectiousprevalence_025,pointinfectiousprevalence_50,pointinfectiousprevalence_975,infectrate_025,infectrate_50,infectrate_975
31159,0,USNebraskaSeward,Nebraska,Seward,2022-04-28 09:13:11,2020-03-19,0,0,0,,,,,,,,,,,,
31159,0,USNebraskaSeward,Nebraska,Seward,2022-04-28 09:13:11,2020-03-20,0,0,0,,,,,,,,,,,,
31159,0,USNebraskaSeward,Nebraska,Seward,2022-04-28 09:13:11,2020-03-21,0,0,0,,,,,,,,,,,,
31159,0,USNebraskaSeward,Nebraska,Seward,2022-04-28 09:13:11,2020-03-22,0,0,0,,,,,,,,,,,,
31159,0,USNebraskaSeward,Nebraska,Seward,2022-04-28 09:13:11,2020-03-23,0,0,0,,,,,,,,,,,,
31159,0,USNebraskaSeward,Nebraska,Seward,2022-04-28 09:13:11,2020-03-24,0,0,0,,,,,,,,,,,,
31159,0,USNebraskaSeward,Nebraska,Seward,2022-04-28 09:13:11,2020-03-25,0,0,0,,,,,,,,,,,,
31159,0,USNebraskaSeward,Nebraska,Seward,2022-04-28 09:13:11,2020-03-26,0,0,0,,,,,,,,,,,,
31159,0,USNebraskaSeward,Nebraska,Seward,2022-04-28 09:13:11,2020-03-27,0,0,0,,,,,,,,,,,,
31159,0,USNebraskaSeward,Nebraska,Seward,2022-04-28 09:13:11,2020-03-28,0,0,0,,,,,,,,,,,,
31159,0,USNebraskaSeward,Nebraska,Seward,2022-04-28 09:13:11,2020-03-29,0,0,0,,,,,,,,,,,,
31159,0,USNebraskaSeward,Nebraska,Seward,2022-04-28 09:13:11,2020-03-30,0,0,0,,,,,,,,,,,,
31159,0,USNebraskaSeward,Nebraska,Seward,2022-04-28 09:13:11,2020-03-31,0,0,0,,,,,,,,,,,,
31159,0,USNebraskaSeward,Nebraska,Seward,2022-04-28 09:13:11,2020-04-01,0,0,0,,,,,,,,,,,,
31159,0,USNebraskaSeward,Nebraska,Seward,2022-04-28 09:13:11,2020-04-02,0.05385792149861117,0.20299157732560574,0.8147800797229003,,,,,,,,,,,,
31159,0,USNebraskaSeward,Nebraska,Seward,2022-04-28 09:13:11,2020-04-03,0.05385792149861117,0.20299157732560574,0.8147800797229003,,,,,,,,,,,,
31159,0,USNebraskaSeward,Nebraska,Seward,2022-04-28 09:13:11,2020-04-04,0.05385792149861117,0.20299157732560574,0.8147800797229003,,,,,,,,,,,,
31159,0,USNebraskaSeward,Nebraska,Seward,2022-04-28 09:13:11,2020-04-05,0.05385792149861117,0.20299157732560574,0.8147800797229003,,,,,,,,,,,,
31159,0,USNebraskaSeward,Nebraska,Seward,2022-04-28 09:13:11,2020-04-06,0.05385792149861117,0.20299157732560574,0.8147800797229003,,,,,,,,,,,,
31159,0,USNebraskaSeward,Nebraska,Seward,2022-04-28 09:13:11,2020-04-07,0.05385792149861117,0.20299157732560574,0.8147800797229003,,,,,,,,,,,,
31159,0,USNebraskaSeward,Nebraska,Seward,2022-04-28 09:13:11,2020-04-08,0.05385792149861117,0.20299157732560574,0.8147800797229003,,,,,,,,,,,,
31159,0,USNebraskaSeward,Nebraska,Seward,2022-04-28 09:13:11,2020-04-09,0,0,0,,,,,,,,,,,,
31159,0,USNebraskaSeward,Nebraska,Seward,2022-04-28 09:13:11,2020-04-10,0,0,0,,,,,,,,,,,,
31159,0,USNebraskaSeward,Nebraska,Seward,2022-04-28 09:13:11,2020-04-11,0,0,0,,,,,,,,,,,,
31159,0,USNebraskaSeward,Nebraska,Seward,2022-04-28 09:13:11,2020-04-12,0,0,0,,,,,,,,,,,,
31159,0,USNebraskaSeward,Nebraska,Seward,2022-04-28 09:13:11,2020-04-13,0,0,0,,,,,,,,,,,,
31159,0,USNebraskaSeward,Nebraska,Seward,2022-04-28 09:13:11,2020-04-14,0,0,0,,,,,,,,,,,,
31159,0,USNebraskaSeward,Nebraska,Seward,2022-04-28 09:13:11,2020-04-15,0,0,0,,,,,,,,,,,,
31159,0,USNebraskaSeward,Nebraska,Seward,2022-04-28 09:13:11,2020-04-16,0.14920254172207514,0.5268332979242399,1.9860712669588685,,,,,,,,,,,,
31159,0,USNebraskaSeward,Nebraska,Seward,2022-04-28 09:13:11,2020-04-17,0.14920254172207514,0.5268332979242399,1.9860712669588685,,,,,,,,,,,,
31159,0,USNebraskaSeward,Nebraska,Seward,2022-04-28 09:13:11,2020-04-18,0.14920254172207514,0.5268332979242399,1.9860712669588685,,,,,,,,,,,,
31159,0,USNebraskaSeward,Nebraska,Seward,2022-04-28 09:13:11,2020-04-19,0.14920254172207514,0.5268332979242399,1.9860712669588685,,,,,,,,,,,,
31159,0,USNebraskaSeward,Nebraska,Seward,2022-04-28 09:13:11,2020-04-20,0.14920254172207514,0.5268332979242399,1.9860712669588685,,,,,,,,,,,,
31159,0,USNebraskaSeward,Nebraska,Seward,2022-04-28 09:13:11,2020-04-21,0.14920254172207514,0.5268332979242399,1.9860712669588685,,,,,,,,,,,,
31159,0,USNebraskaSeward,Nebraska,Seward,2022-04-28 09:13:11,2020-04-22,0.14920254172207514,0.5268332979242399,1.9860712669588685,,,,,,,,,,,,
31159,0,USNebraskaSeward,Nebraska,Seward,2022-04-28 09:13:11,2020-04-23,0.1641486581705641,0.6266842054518922,2.5466545354274768,,,,,,,,,,,,
31159,0,USNebraskaSeward,Nebraska,Seward,2022-04-28 09:13:11,2020-04-24,0.1641486581705641,0.6266842054518922,2.5466545354274768,,,,,,,,,,,,
31159,0,USNebraskaSeward,Nebraska,Seward,2022-04-28 09:13:11,2020-04-25,0.1641486581705641,0.6266842054518922,2.5466545354274768,,,,,,,,,,,,
31159,0,USNebraskaSeward,Nebraska,Seward,2022-04-28 09:13:11,2020-04-26,0.1641486581705641,0.6266842054518922,2.5466545354274768,,,,,,,,,,,,
31159,0,USNebraskaSeward,Nebraska,Seward,2022-04-28 09:13:11,2020-04-27,0.1641486581705641,0.6266842054518922,2.5466545354274768,,,,,,,,,,,,
31159,0,USNebraskaSeward,Nebraska,Seward,2022-04-28 09:13:11,2020-04-28,0.1641486581705641,0.6266842054518922,2.5466545354274768,,,,,,,,,,,,
31159,0,USNebraskaSeward,Nebraska,Seward,2022-04-28 09:13:11,2020-04-29,0.1641486581705641,0.6266842054518922,2.5466545354274768,,,,,,,,,,,,
31159,0,USNebraskaSeward,Nebraska,Seward,2022-04-28 09:13:11,2020-04-30,0.27447658640049083,0.904269339635015,3.1883619841054083,,,,,,,,,,,,
31159,0,USNebraskaSeward,Nebraska,Seward,2022-04-28 09:13:11,2020-05-01,0.27447658640049083,0.904269339635015,3.1883619841054083,,,,,,,,,,,,
31159,0,USNebraskaSeward,Nebraska,Seward,2022-04-28 09:13:11,2020-05-02,0.27447658640049083,0.904269339635015,3.1883619841054083,,,,,,,,,,,,
31159,0,USNebraskaSeward,Nebraska,Seward,2022-04-28 09:13:11,2020-05-03,0.27447658640049083,0.904269339635015,3.1883619841054083,,,,,,,,,,,,
31159,0,USNebraskaSeward,Nebraska,Seward,2022-04-28 09:13:11,2020-05-04,0.27447658640049083,0.904269339635015,3.1883619841054083,,,,,,,,,,,,
31159,0,USNebraskaSeward,Nebraska,Seward,2022-04-28 09:13:11,2020-05-05,0.27447658640049083,0.904269339635015,3.1883619841054083,,,,,,,,,,,,
31159,0,USNebraskaSeward,Nebraska,Seward,2022-04-28 09:13:11,2020-05-06,0.27447658640049083,0.904269339635015,3.1883619841054083,,,,,,,,,,,,
31159,0,USNebraskaSeward,Nebraska,Seward,2022-04-28 09:13:11,2020-05-07,0.2084183862266698,0.634989274585085,2.0753371240933074,,,,,,,,,,,,
31159,0,USNebraskaSeward,Nebraska,Seward,2022-04-28 09:13:11,2020-05-08,0.2084183862266698,0.634989274585085,2.0753371240933074,,,,,,,,,,,,
31159,0,USNebraskaSeward,Nebraska,Seward,2022-04-28 09:13:11,2020-05-09,0.2084183862266698,0.634989274585085,2.0753371240933074,,,,,,,,,,,,
31159,0,USNebraskaSeward,Nebraska,Seward,2022-04-28 09:13:11,2020-05-10,0.2084183862266698,0.634989274585085,2.0753371240933074,,,,,,,,,,,,
31159,0,USNebraskaSeward,Nebraska,Seward,2022-04-28 09:13:11,2020-05-11,0.2084183862266698,0.634989274585085,2.0753371240933074,,,,,,,,,,,,
31159,0,USNebraskaSeward,Nebraska,Seward,2022-04-28 09:13:11,2020-05-12,0.2084183862266698,0.634989274585085,2.0753371240933074,,,,,,,,,,,,
31159,0,USNebraskaSeward,Nebraska,Seward,2022-04-28 09:13:11,2020-05-13,0.2084183862266698,0.634989274585085,2.0753371240933074,,,,,,,,,,,,
31159,0,USNebraskaSeward,Nebraska,Seward,2022-04-28 09:13:11,2020-05-14,0.26554507459217075,0.6647293082488758,1.7906690887061074,,,,,,,,,,,,
31159,0,USNebraskaSeward,Nebraska,Seward,2022-04-28 09:13:11,2020-05-15,0.26554507459217075,0.6647293082488758,1.7906690887061074,,,,,,,,,,,,
31159,0,USNebraskaSeward,Nebraska,Seward,2022-04-28 09:13:11,2020-05-16,0.26554507459217075,0.6647293082488758,1.7906690887061074,,,,,,,,,,,,
31159,0,USNebraskaSeward,Nebraska,Seward,2022-04-28 09:13:11,2020-05-17,0.26554507459217075,0.6647293082488758,1.7906690887061074,,,,,,,,,,,,
31159,0,USNebraskaSeward,Nebraska,Seward,2022-04-28 09:13:11,2020-05-18,0.26554507459217075,0.6647293082488758,1.7906690887061074,,,,,,,,,,,,
31159,0,USNebraskaSeward,Nebraska,Seward,2022-04-28 09:13:11,2020-05-19,0.26554507459217075,0.6647293082488758,1.7906690887061074,,,,,,,,,,,,
31159,0,USNebraskaSeward,Nebraska,Seward,2022-04-28 09:13:11,2020-05-20,0.26554507459217075,0.6647293082488758,1.7906690887061074,,,,,,,,,,,,
31159,0,USNebraskaSeward,Nebraska,Seward,2022-04-28 09:13:11,2020-05-21,0.056741975443561236,0.22310201226657173,0.932587707148534,,,,,,,,,,,,
31159,0,USNebraskaSeward,Nebraska,Seward,2022-04-28 09:13:11,2020-05-22,0.056741975443561236,0.22310201226657173,0.932587707148534,,,,,,,,,,,,
31159,0,USNebraskaSeward,Nebraska,Seward,2022-04-28 09:13:11,2020-05-23,0.056741975443561236,0.22310201226657173,0.932587707148534,,,,,,,,,,,,
31159,0,USNebraskaSeward,Nebraska,Seward,2022-04-28 09:13:11,2020-05-24,0.056741975443561236,0.22310201226657173,0.932587707148534,,,,,,,,,,,,
31159,0,USNebraskaSeward,Nebraska,Seward,2022-04-28 09:13:11,2020-05-25,0.056741975443561236,0.22310201226657173,0.932587707148534,,,,,,,,,,,,
31159,0,USNebraskaSeward,Nebraska,Seward,2022-04-28 09:13:11,2020-05-26,0.056741975443561236,0.22310201226657173,0.932587707148534,,,,,,,,,,,,
31159,0,USNebraskaSeward,Nebraska,Seward,2022-04-28 09:13:11,2020-05-27,0.056741975443561236,0.22310201226657173,0.932587707148534,,,,,,,,,,,,
31159,0,USNebraskaSeward,Nebraska,Seward,2022-04-28 09:13:11,2020-05-28,0.09494117825910128,0.32256917697507037,1.1716994045688207,,,,,,,,,,,,
31159,0,USNebraskaSeward,Nebraska,Seward,2022-04-28 09:13:11,2020-05-29,0.09494117825910128,0.32256917697507037,1.1716994045688207,,,,,,,,,,,,
31159,0,USNebraskaSeward,Nebraska,Seward,2022-04-28 09:13:11,2020-05-30,0.09494117825910128,0.32256917697507037,1.1716994045688207,,,,,,,,,,,,
31159,0,USNebraskaSeward,Nebraska,Seward,2022-04-28 09:13:11,2020-05-31,0.09494117825910128,0.32256917697507037,1.1716994045688207,,,,,,,,,,,,
31159,0,USNebraskaSeward,Nebraska,Seward,2022-04-28 09:13:11,2020-06-01,0.09494117825910128,0.32256917697507037,1.1716994045688207,,,,,,,,,,,,
31159,0,USNebraskaSeward,Nebraska,Seward,2022-04-28 09:13:11,2020-06-02,0.09494117825910128,0.32256917697507037,1.1716994045688207,,,,,,,,,,,,
31159,0,USNebraskaSeward,Nebraska,Seward,2022-04-28 09:13:11,2020-06-03,0.09494117825910128,0.32256917697507037,1.1716994045688207,,,,,,,,,,,,
31159,0,USNebraskaSeward,Nebraska,Seward,2022-04-28 09:13:11,2020-06-04,0,0,0,,,,,,,,,,,,
31159,0,USNebraskaSeward,Nebraska,Seward,2022-04-28 09:13:11,2020-06-05,0,0,0,,,,,,,,,,,,
31159,0,USNebraskaSeward,Nebraska,Seward,2022-04-28 09:13:11,2020-06-06,0,0,0,,,,,,,,,,,,
31159,0,USNebraskaSeward,Nebraska,Seward,2022-04-28 09:13:11,2020-06-07,0,0,0,,,,,,,,,,,,
31159,0,USNebraskaSeward,Nebraska,Seward,2022-04-28 09:13:11,2020-06-08,0,0,0,,,,,,,,,,,,
31159,0,USNebraskaSeward,Nebraska,Seward,2022-04-28 09:13:11,2020-06-09,0,0,0,,,,,,,,,,,,
31159,0,USNebraskaSeward,Nebraska,Seward,2022-04-28 09:13:11,2020-06-10,0,0,0,,,,,,,,,,,,
31159,0,USNebraskaSeward,Nebraska,Seward,2022-04-28 09:13:11,2020-06-11,0.1118668851103205,0.30986886365356026,0.9226932933073464,,,,,,,,,,,,
31159,0,USNebraskaSeward,Nebraska,Seward,2022-04-28 09:13:11,2020-06-12,0.1118668851103205,0.30986886365356026,0.9226932933073464,,,,,,,,,,,,
31159,0,USNebraskaSeward,Nebraska,Seward,2022-04-28 09:13:11,2020-06-13,0.1118668851103205,0.30986886365356026,0.9226932933073464,,,,,,,,,,,,
31159,0,USNebraskaSeward,Nebraska,Seward,2022-04-28 09:13:11,2020-06-14,0.1118668851103205,0.30986886365356026,0.9226932933073464,,,,,,,,,,,,
31159,0,USNebraskaSeward,Nebraska,Seward,2022-04-28 09:13:11,2020-06-15,0.1118668851103205,0.30986886365356026,0.9226932933073464,,,,,,,,,,,,
31159,0,USNebraskaSeward,Nebraska,Seward,2022-04-28 09:13:11,2020-06-16,0.1118668851103205,0.30986886365356026,0.9226932933073464,,,,,,,,,,,,
31159,0,USNebraskaSeward,Nebraska,Seward,2022-04-28 09:13:11,2020-06-17,0.1118668851103205,0.30986886365356026,0.9226932933073464,,,,,,,,,,,,
31159,0,USNebraskaSeward,Nebraska,Seward,2022-04-28 09:13:11,2020-06-18,0,0,0,,,,,,,,,,,,
31159,0,USNebraskaSeward,Nebraska,Seward,2022-04-28 09:13:11,2020-06-19,0,0,0,,,,,,,,,,,,
31159,0,USNebraskaSeward,Nebraska,Seward,2022-04-28 09:13:11,2020-06-20,0,0,0,,,,,,,,,,,,
31159,0,USNebraskaSeward,Nebraska,Seward,2022-04-28 09:13:11,2020-06-21,0,0,0,,,,,,,,,,,,
31159,0,USNebraskaSeward,Nebraska,Seward,2022-04-28 09:13:11,2020-06-22,0,0,0,,,,,,,,,,,,
31159,0,USNebraskaSeward,Nebraska,Seward,2022-04-28 09:13:11,2020-06-23,0,0,0,,,,,,,,,,,,
31159,0,USNebraskaSeward,Nebraska,Seward,2022-04-28 09:13:11,2020-06-24,0,0,0,,,,,,,,,,,,
31159,0,USNebraskaSeward,Nebraska,Seward,2022-04-28 09:13:11,2020-06-25,0.1307873255364034,0.3230886135342332,0.8589260181771148,,,,,,,,,,,,
31159,0,USNebraskaSeward,Nebraska,Seward,2022-04-28 09:13:11,2020-06-26,0.1307873255364034,0.3230886135342332,0.8589260181771148,,,,,,,,,,,,
31159,0,USNebraskaSeward,Nebraska,Seward,2022-04-28 09:13:11,2020-06-27,0.1307873255364034,0.3230886135342332,0.8589260181771148,,,,,,,,,,,,
31159,0,USNebraskaSeward,Nebraska,Seward,2022-04-28 09:13:11,2020-06-28,0.1307873255364034,0.3230886135342332,0.8589260181771148,,,,,,,,,,,,
31159,0,USNebraskaSeward,Nebraska,Seward,2022-04-28 09:13:11,2020-06-29,0.1307873255364034,0.3230886135342332,0.8589260181771148,,,,,,,,,,,,
31159,0,USNebraskaSeward,Nebraska,Seward,2022-04-28 09:13:11,2020-06-30,0.1307873255364034,0.3230886135342332,0.8589260181771148,,,,,,,,,,,,
31159,0,USNebraskaSeward,Nebraska,Seward,2022-04-28 09:13:11,2020-07-01,0.1307873255364034,0.3230886135342332,0.8589260181771148,,,,,,,,,,,,
31159,0,USNebraskaSeward,Nebraska,Seward,2022-04-28 09:13:11,2020-07-02,0.27895256761567044,0.5982747698048672,1.3787851340074275,,,,,,,,,,,,
31159,0,USNebraskaSeward,Nebraska,Seward,2022-04-28 09:13:11,2020-07-03,0.27895256761567044,0.5982747698048672,1.3787851340074275,,,,,,,,,,,,
31159,0,USNebraskaSeward,Nebraska,Seward,2022-04-28 09:13:11,2020-07-04,0.27895256761567044,0.5982747698048672,1.3787851340074275,,,,,,,,,,,,
31159,0,USNebraskaSeward,Nebraska,Seward,2022-04-28 09:13:11,2020-07-05,0.27895256761567044,0.5982747698048672,1.3787851340074275,,,,,,,,,,,,
31159,0,USNebraskaSeward,Nebraska,Seward,2022-04-28 09:13:11,2020-07-06,0.27895256761567044,0.5982747698048672,1.3787851340074275,,,,,,,,,,,,
31159,0,USNebraskaSeward,Nebraska,Seward,2022-04-28 09:13:11,2020-07-07,0.27895256761567044,0.5982747698048672,1.3787851340074275,,,,,,,,,,,,
31159,0,USNebraskaSeward,Nebraska,Seward,2022-04-28 09:13:11,2020-07-08,0.27895256761567044,0.5982747698048672,1.3787851340074275,,,,,,,,,,,,
31159,0,USNebraskaSeward,Nebraska,Seward,2022-04-28 09:13:11,2020-07-09,0.23062474354409104,0.5094468063484263,1.2100009746513702,,,,,,,,,,,,
31159,0,USNebraskaSeward,Nebraska,Seward,2022-04-28 09:13:11,2020-07-10,0.23062474354409104,0.5094468063484263,1.2100009746513702,,,,,,,,,,,,
31159,0,USNebraskaSeward,Nebraska,Seward,2022-04-28 09:13:11,2020-07-11,0.23062474354409104,0.5094468063484263,1.2100009746513702,,,,,,,,,,,,
31159,0,USNebraskaSeward,Nebraska,Seward,2022-04-28 09:13:11,2020-07-12,0.23062474354409104,0.5094468063484263,1.2100009746513702,,,,,,,,,,,,
31159,0,USNebraskaSeward,Nebraska,Seward,2022-04-28 09:13:11,2020-07-13,0.23062474354409104,0.5094468063484263,1.2100009746513702,,,,,,,,,,,,
31159,0,USNebraskaSeward,Nebraska,Seward,2022-04-28 09:13:11,2020-07-14,0.23062474354409104,0.5094468063484263,1.2100009746513702,,,,,,,,,,,,
31159,0,USNebraskaSeward,Nebraska,Seward,2022-04-28 09:13:11,2020-07-15,0.23062474354409104,0.5094468063484263,1.2100009746513702,,,,,,,,,,,,
31159,0,USNebraskaSeward,Nebraska,Seward,2022-04-28 09:13:11,2020-07-16,0.21102849032743912,0.48515799160599066,1.199958329383295,,,,,,,,,,,,
31159,0,USNebraskaSeward,Nebraska,Seward,2022-04-28 09:13:11,2020-07-17,0.21102849032743912,0.48515799160599066,1.199958329383295,,,,,,,,,,,,
31159,0,USNebraskaSeward,Nebraska,Seward,2022-04-28 09:13:11,2020-07-18,0.21102849032743912,0.48515799160599066,1.199958329383295,,,,,,,,,,,,
31159,0,USNebraskaSeward,Nebraska,Seward,2022-04-28 09:13:11,2020-07-19,0.21102849032743912,0.48515799160599066,1.199958329383295,,,,,,,,,,,,
31159,0,USNebraskaSeward,Nebraska,Seward,2022-04-28 09:13:11,2020-07-20,0.21102849032743912,0.48515799160599066,1.199958329383295,,,,,,,,,,,,
31159,0,USNebraskaSeward,Nebraska,Seward,2022-04-28 09:13:11,2020-07-21,0.21102849032743912,0.48515799160599066,1.199958329383295,,,,,,,,,,,,
31159,0,USNebraskaSeward,Nebraska,Seward,2022-04-28 09:13:11,2020-07-22,0.21102849032743912,0.48515799160599066,1.199958329383295,,,,,,,,,,,,
31159,0,USNebraskaSeward,Nebraska,Seward,2022-04-28 09:13:11,2020-07-23,0.2730196703483468,0.631169952395644,1.5698703991673502,,,,,,,,,,,,
31159,0,USNebraskaSeward,Nebraska,Seward,2022-04-28 09:13:11,2020-07-24,0.2730196703483468,0.631169952395644,1.5698703991673502,,,,,,,,,,,,
31159,0,USNebraskaSeward,Nebraska,Seward,2022-04-28 09:13:11,2020-07-25,0.2730196703483468,0.631169952395644,1.5698703991673502,,,,,,,,,,,,
31159,0,USNebraskaSeward,Nebraska,Seward,2022-04-28 09:13:11,2020-07-26,0.2730196703483468,0.631169952395644,1.5698703991673502,,,,,,,,,,,,
31159,0,USNebraskaSeward,Nebraska,Seward,2022-04-28 09:13:11,2020-07-27,0.2730196703483468,0.631169952395644,1.5698703991673502,,,,,,,,,,,,
31159,0,USNebraskaSeward,Nebraska,Seward,2022-04-28 09:13:11,2020-07-28,0.2730196703483468,0.631169952395644,1.5698703991673502,,,,,,,,,,,,
31159,0,USNebraskaSeward,Nebraska,Seward,2022-04-28 09:13:11,2020-07-29,0.2730196703483468,0.631169952395644,1.5698703991673502,,,,,,,,,,,,
31159,0,USNebraskaSeward,Nebraska,Seward,2022-04-28 09:13:11,2020-07-30,0.8180937814040316,1.4201730081617296,2.6223939788928847,,,,,,,,,,,,
31159,0,USNebraskaSeward,Nebraska,Seward,2022-04-28 09:13:11,2020-07-31,0.8180937814040316,1.4201730081617296,2.6223939788928847,,,,,,,,,,,,
31159,0,USNebraskaSeward,Nebraska,Seward,2022-04-28 09:13:11,2020-08-01,0.8180937814040316,1.4201730081617296,2.6223939788928847,,,,,,,,,,,,
31159,0,USNebraskaSeward,Nebraska,Seward,2022-04-28 09:13:11,2020-08-02,0.8180937814040316,1.4201730081617296,2.6223939788928847,,,,,,,,,,,,
31159,0,USNebraskaSeward,Nebraska,Seward,2022-04-28 09:13:11,2020-08-03,0.8180937814040316,1.4201730081617296,2.6223939788928847,,,,,,,,,,,,
31159,0,USNebraskaSeward,Nebraska,Seward,2022-04-28 09:13:11,2020-08-04,0.8180937814040316,1.4201730081617296,2.6223939788928847,,,,,,,,,,,,
31159,0,USNebraskaSeward,Nebraska,Seward,2022-04-28 09:13:11,2020-08-05,0.8180937814040316,1.4201730081617296,2.6223939788928847,,,,,,,,,,,,
31159,0,USNebraskaSeward,Nebraska,Seward,2022-04-28 09:13:11,2020-08-06,0.4560590664797113,0.8966084264839564,1.8886628588616807,,,,,,,,,,,,
31159,0,USNebraskaSeward,Nebraska,Seward,2022-04-28 09:13:11,2020-08-07,0.4560590664797113,0.8966084264839564,1.8886628588616807,,,,,,,,,,,,
31159,0,USNebraskaSeward,Nebraska,Seward,2022-04-28 09:13:11,2020-08-08,0.4560590664797113,0.8966084264839564,1.8886628588616807,,,,,,,,,,,,
31159,0,USNebraskaSeward,Nebraska,Seward,2022-04-28 09:13:11,2020-08-09,0.4560590664797113,0.8966084264839564,1.8886628588616807,,,,,,,,,,,,
31159,0,USNebraskaSeward,Nebraska,Seward,2022-04-28 09:13:11,2020-08-10,0.4560590664797113,0.8966084264839564,1.8886628588616807,,,,,,,,,,,,
31159,0,USNebraskaSeward,Nebraska,Seward,2022-04-28 09:13:11,2020-08-11,0.4560590664797113,0.8966084264839564,1.8886628588616807,,,,,,,,,,,,
31159,0,USNebraskaSeward,Nebraska,Seward,2022-04-28 09:13:11,2020-08-12,0.4560590664797113,0.8966084264839564,1.8886628588616807,,,,,,,,,,,,
31159,0,USNebraskaSeward,Nebraska,Seward,2022-04-28 09:13:11,2020-08-13,0.31776371003978693,0.7032332768335035,1.673411571419738,,,,,,,,,,,,
31159,0,USNebraskaSeward,Nebraska,Seward,2022-04-28 09:13:11,2020-08-14,0.31776371003978693,0.7032332768335035,1.673411571419738,,,,,,,,,,,,
31159,0,USNebraskaSeward,Nebraska,Seward,2022-04-28 09:13:11,2020-08-15,0.31776371003978693,0.7032332768335035,1.673411571419738,,,,,,,,,,,,
31159,0,USNebraskaSeward,Nebraska,Seward,2022-04-28 09:13:11,2020-08-16,0.31776371003978693,0.7032332768335035,1.673411571419738,,,,,,,,,,,,
31159,0,USNebraskaSeward,Nebraska,Seward,2022-04-28 09:13:11,2020-08-17,0.31776371003978693,0.7032332768335035,1.673411571419738,,,,,,,,,,,,
31159,0,USNebraskaSeward,Nebraska,Seward,2022-04-28 09:13:11,2020-08-18,0.31776371003978693,0.7032332768335035,1.673411571419738,,,,,,,,,,,,
31159,0,USNebraskaSeward,Nebraska,Seward,2022-04-28 09:13:11,2020-08-19,0.31776371003978693,0.7032332768335035,1.673411571419738,,,,,,,,,,,,
31159,0,USNebraskaSeward,Nebraska,Seward,2022-04-28 09:13:11,2020-08-20,0.4578003979230017,0.9031545840212185,1.9093343183714049,,,,,,,,,,,,
31159,0,USNebraskaSeward,Nebraska,Seward,2022-04-28 09:13:11,2020-08-21,0.4578003979230017,0.9031545840212185,1.9093343183714049,,,,,,,,,,,,
31159,0,USNebraskaSeward,Nebraska,Seward,2022-04-28 09:13:11,2020-08-22,0.4578003979230017,0.9031545840212185,1.9093343183714049,,,,,,,,,,,,
31159,0,USNebraskaSeward,Nebraska,Seward,2022-04-28 09:13:11,2020-08-23,0.4578003979230017,0.9031545840212185,1.9093343183714049,,,,,,,,,,,,
31159,0,USNebraskaSeward,Nebraska,Seward,2022-04-28 09:13:11,2020-08-24,0.4578003979230017,0.9031545840212185,1.9093343183714049,,,,,,,,,,,,
31159,0,USNebraskaSeward,Nebraska,Seward,2022-04-28 09:13:11,2020-08-25,0.4578003979230017,0.9031545840212185,1.9093343183714049,,,,,,,,,,,,
31159,0,USNebraskaSeward,Nebraska,Seward,2022-04-28 09:13:11,2020-08-26,0.4578003979230017,0.9031545840212185,1.9093343183714049,,,,,,,,,,,,
31159,0,USNebraskaSeward,Nebraska,Seward,2022-04-28 09:13:11,2020-08-27,0.3692984053974148,0.805097922313824,1.8867027291158973,,,,,,,,,,,,
31159,0,USNebraskaSeward,Nebraska,Seward,2022-04-28 09:13:11,2020-08-28,0.3692984053974148,0.805097922313824,1.8867027291158973,,,,,,,,,,,,
31159,0,USNebraskaSeward,Nebraska,Seward,2022-04-28 09:13:11,2020-08-29,0.3692984053974148,0.805097922313824,1.8867027291158973,,,,,,,,,,,,
31159,0,USNebraskaSeward,Nebraska,Seward,2022-04-28 09:13:11,2020-08-30,0.3692984053974148,0.805097922313824,1.8867027291158973,,,,,,,,,,,,
31159,0,USNebraskaSeward,Nebraska,Seward,2022-04-28 09:13:11,2020-08-31,0.3692984053974148,0.805097922313824,1.8867027291158973,,,,,,,,,,,,
31159,0,USNebraskaSeward,Nebraska,Seward,2022-04-28 09:13:11,2020-09-01,0.3692984053974148,0.805097922313824,1.8867027291158973,,,,,,,,,,,,
31159,0,USNebraskaSeward,Nebraska,Seward,2022-04-28 09:13:11,2020-09-02,0.3692984053974148,0.805097922313824,1.8867027291158973,,,,,,,,,,,,
31159,0,USNebraskaSeward,Nebraska,Seward,2022-04-28 09:13:11,2020-09-03,0.3410215438342502,0.7437080706554697,1.743450990397525,,,,,,,,,,,,
31159,0,USNebraskaSeward,Nebraska,Seward,2022-04-28 09:13:11,2020-09-04,0.3410215438342502,0.7437080706554697,1.743450990397525,,,,,,,,,,,,
31159,0,USNebraskaSeward,Nebraska,Seward,2022-04-28 09:13:11,2020-09-05,0.3410215438342502,0.7437080706554697,1.743450990397525,,,,,,,,,,,,
31159,0,USNebraskaSeward,Nebraska,Seward,2022-04-28 09:13:11,2020-09-06,0.3410215438342502,0.7437080706554697,1.743450990397525,,,,,,,,,,,,
31159,0,USNebraskaSeward,Nebraska,Seward,2022-04-28 09:13:11,2020-09-07,0.3410215438342502,0.7437080706554697,1.743450990397525,,,,,,,,,,,,
31159,0,USNebraskaSeward,Nebraska,Seward,2022-04-28 09:13:11,2020-09-08,0.3410215438342502,0.7437080706554697,1.743450990397525,,,,,,,,,,,,
31159,0,USNebraskaSeward,Nebraska,Seward,2022-04-28 09:13:11,2020-09-09,0.3410215438342502,0.7437080706554697,1.743450990397525,,,,,,,,,,,,
31159,0,USNebraskaSeward,Nebraska,Seward,2022-04-28 09:13:11,2020-09-10,0.4558020967676173,0.9432713242660354,2.095531195300063,,,,,,,,,,,,
31159,0,USNebraskaSeward,Nebraska,Seward,2022-04-28 09:13:11,2020-09-11,0.4558020967676173,0.9432713242660354,2.095531195300063,,,,,,,,,,,,
31159,0,USNebraskaSeward,Nebraska,Seward,2022-04-28 09:13:11,2020-09-12,0.4558020967676173,0.9432713242660354,2.095531195300063,,,,,,,,,,,,
31159,0,USNebraskaSeward,Nebraska,Seward,2022-04-28 09:13:11,2020-09-13,0.4558020967676173,0.9432713242660354,2.095531195300063,,,,,,,,,,,,
31159,0,USNebraskaSeward,Nebraska,Seward,2022-04-28 09:13:11,2020-09-14,0.4558020967676173,0.9432713242660354,2.095531195300063,,,,,,,,,,,,
31159,0,USNebraskaSeward,Nebraska,Seward,2022-04-28 09:13:11,2020-09-15,0.4558020967676173,0.9432713242660354,2.095531195300063,,,,,,,,,,,,
31159,0,USNebraskaSeward,Nebraska,Seward,2022-04-28 09:13:11,2020-09-16,0.4558020967676173,0.9432713242660354,2.095531195300063,,,,,,,,,,,,
31159,0,USNebraskaSeward,Nebraska,Seward,2022-04-28 09:13:11,2020-09-17,0.5321018278316,1.0934905298220154,2.4117631262862047,,,,,,,,,,,,
31159,0,USNebraskaSeward,Nebraska,Seward,2022-04-28 09:13:11,2020-09-18,0.5321018278316,1.0934905298220154,2.4117631262862047,,,,,,,,,,,,
31159,0,USNebraskaSeward,Nebraska,Seward,2022-04-28 09:13:11,2020-09-19,0.5321018278316,1.0934905298220154,2.4117631262862047,,,,,,,,,,,,
31159,0,USNebraskaSeward,Nebraska,Seward,2022-04-28 09:13:11,2020-09-20,0.5321018278316,1.0934905298220154,2.4117631262862047,,,,,,,,,,,,
31159,0,USNebraskaSeward,Nebraska,Seward,2022-04-28 09:13:11,2020-09-21,0.5321018278316,1.0934905298220154,2.4117631262862047,,,,,,,,,,,,
31159,0,USNebraskaSeward,Nebraska,Seward,2022-04-28 09:13:11,2020-09-22,0.5321018278316,1.0934905298220154,2.4117631262862047,,,,,,,,,,,,
31159,0,USNebraskaSeward,Nebraska,Seward,2022-04-28 09:13:11,2020-09-23,0.5321018278316,1.0934905298220154,2.4117631262862047,,,,,,,,,,,,
31159,0,USNebraskaSeward,Nebraska,Seward,2022-04-28 09:13:11,2020-09-24,0.5966501849617438,1.1984008713433085,2.5812563572671188,,,,,,,,,,,,
31159,0,USNebraskaSeward,Nebraska,Seward,2022-04-28 09:13:11,2020-09-25,0.5966501849617438,1.1984008713433085,2.5812563572671188,,,,,,,,,,,,
31159,0,USNebraskaSeward,Nebraska,Seward,2022-04-28 09:13:11,2020-09-26,0.5966501849617438,1.1984008713433085,2.5812563572671188,,,,,,,,,,,,
31159,0,USNebraskaSeward,Nebraska,Seward,2022-04-28 09:13:11,2020-09-27,0.5966501849617438,1.1984008713433085,2.5812563572671188,,,,,,,,,,,,
31159,0,USNebraskaSeward,Nebraska,Seward,2022-04-28 09:13:11,2020-09-28,0.5966501849617438,1.1984008713433085,2.5812563572671188,,,,,,,,,,,,
31159,0,USNebraskaSeward,Nebraska,Seward,2022-04-28 09:13:11,2020-09-29,0.5966501849617438,1.1984008713433085,2.5812563572671188,,,,,,,,,,,,
31159,0,USNebraskaSeward,Nebraska,Seward,2022-04-28 09:13:11,2020-09-30,0.5966501849617438,1.1984008713433085,2.5812563572671188,,,,,,,,,,,,
31159,0,USNebraskaSeward,Nebraska,Seward,2022-04-28 09:13:11,2020-10-01,0.4450066028628383,0.9011710225071289,1.957612762809291,,,,,,,,,,,,
31159,0,USNebraskaSeward,Nebraska,Seward,2022-04-28 09:13:11,2020-10-02,0.4450066028628383,0.9011710225071289,1.957612762809291,,,,,,,,,,,,
31159,0,USNebraskaSeward,Nebraska,Seward,2022-04-28 09:13:11,2020-10-03,0.4450066028628383,0.9011710225071289,1.957612762809291,,,,,,,,,,,,
31159,0,USNebraskaSeward,Nebraska,Seward,2022-04-28 09:13:11,2020-10-04,0.4450066028628383,0.9011710225071289,1.957612762809291,,,,,,,,,,,,
31159,0,USNebraskaSeward,Nebraska,Seward,2022-04-28 09:13:11,2020-10-05,0.4450066028628383,0.9011710225071289,1.957612762809291,,,,,,,,,,,,
31159,0,USNebraskaSeward,Nebraska,Seward,2022-04-28 09:13:11,2020-10-06,0.4450066028628383,0.9011710225071289,1.957612762809291,,,,,,,,,,,,
31159,0,USNebraskaSeward,Nebraska,Seward,2022-04-28 09:13:11,2020-10-07,0.4450066028628383,0.9011710225071289,1.957612762809291,,,,,,,,,,,,
31159,0,USNebraskaSeward,Nebraska,Seward,2022-04-28 09:13:11,2020-10-08,0.5493365502597494,1.065760872860407,2.214085024668865,,,,,,,,,,,,
31159,0,USNebraskaSeward,Nebraska,Seward,2022-04-28 09:13:11,2020-10-09,0.5493365502597494,1.065760872860407,2.214085024668865,,,,,,,,,,,,
31159,0,USNebraskaSeward,Nebraska,Seward,2022-04-28 09:13:11,2020-10-10,0.5493365502597494,1.065760872860407,2.214085024668865,,,,,,,,,,,,
31159,0,USNebraskaSeward,Nebraska,Seward,2022-04-28 09:13:11,2020-10-11,0.5493365502597494,1.065760872860407,2.214085024668865,,,,,,,,,,,,
31159,0,USNebraskaSeward,Nebraska,Seward,2022-04-28 09:13:11,2020-10-12,0.5493365502597494,1.065760872860407,2.214085024668865,,,,,,,,,,,,
31159,0,USNebraskaSeward,Nebraska,Seward,2022-04-28 09:13:11,2020-10-13,0.5493365502597494,1.065760872860407,2.214085024668865,,,,,,,,,,,,
31159,0,USNebraskaSeward,Nebraska,Seward,2022-04-28 09:13:11,2020-10-14,0.5493365502597494,1.065760872860407,2.214085024668865,,,,,,,,,,,,
31159,0,USNebraskaSeward,Nebraska,Seward,2022-04-28 09:13:11,2020-10-15,0.9725092482173526,1.6532240631215012,2.984603492689952,,,,,,,,,,,,
31159,0,USNebraskaSeward,Nebraska,Seward,2022-04-28 09:13:11,2020-10-16,0.9725092482173526,1.6532240631215012,2.984603492689952,,,,,,,,,,,,
31159,0,USNebraskaSeward,Nebraska,Seward,2022-04-28 09:13:11,2020-10-17,0.9725092482173526,1.6532240631215012,2.984603492689952,,,,,,,,,,,,
31159,0,USNebraskaSeward,Nebraska,Seward,2022-04-28 09:13:11,2020-10-18,0.9725092482173526,1.6532240631215012,2.984603492689952,,,,,,,,,,,,
31159,0,USNebraskaSeward,Nebraska,Seward,2022-04-28 09:13:11,2020-10-19,0.9725092482173526,1.6532240631215012,2.984603492689952,,,,,,,,,,,,
31159,0,USNebraskaSeward,Nebraska,Seward,2022-04-28 09:13:11,2020-10-20,0.9725092482173526,1.6532240631215012,2.984603492689952,,,,,,,,,,,,
31159,0,USNebraskaSeward,Nebraska,Seward,2022-04-28 09:13:11,2020-10-21,0.9725092482173526,1.6532240631215012,2.984603492689952,,,,,,,,,,,,
31159,0,USNebraskaSeward,Nebraska,Seward,2022-04-28 09:13:11,2020-10-22,0.9971865770546843,1.7345918049497828,3.209977759352495,,,,,,,,,,,,
31159,0,USNebraskaSeward,Nebraska,Seward,2022-04-28 09:13:11,2020-10-23,0.9971865770546843,1.7345918049497828,3.209977759352495,,,,,,,,,,,,
31159,0,USNebraskaSeward,Nebraska,Seward,2022-04-28 09:13:11,2020-10-24,0.9971865770546843,1.7345918049497828,3.209977759352495,,,,,,,,,,,,
31159,0,USNebraskaSeward,Nebraska,Seward,2022-04-28 09:13:11,2020-10-25,0.9971865770546843,1.7345918049497828,3.209977759352495,,,,,,,,,,,,
31159,0,USNebraskaSeward,Nebraska,Seward,2022-04-28 09:13:11,2020-10-26,0.9971865770546843,1.7345918049497828,3.209977759352495,,,,,,,,,,,,
31159,0,USNebraskaSeward,Nebraska,Seward,2022-04-28 09:13:11,2020-10-27,0.9971865770546843,1.7345918049497828,3.209977759352495,,,,,,,,,,,,
31159,0,USNebraskaSeward,Nebraska,Seward,2022-04-28 09:13:11,2020-10-28,0.9971865770546843,1.7345918049497828,3.209977759352495,,,,,,,,,,,,
31159,0,USNebraskaSeward,Nebraska,Seward,2022-04-28 09:13:11,2020-10-29,1.9668694553445405,3.0668629270458054,5.038415800052922,,,,,,,,,,,,
31159,0,USNebraskaSeward,Nebraska,Seward,2022-04-28 09:13:11,2020-10-30,1.9668694553445405,3.0668629270458054,5.038415800052922,,,,,,,,,,,,
31159,0,USNebraskaSeward,Nebraska,Seward,2022-04-28 09:13:11,2020-10-31,1.9668694553445405,3.0668629270458054,5.038415800052922,,,,,,,,,,,,
31159,0,USNebraskaSeward,Nebraska,Seward,2022-04-28 09:13:11,2020-11-01,1.9668694553445405,3.0668629270458054,5.038415800052922,,,,,,,,,,,,
31159,0,USNebraskaSeward,Nebraska,Seward,2022-04-28 09:13:11,2020-11-02,1.9668694553445405,3.0668629270458054,5.038415800052922,,,,,,,,,,,,
31159,0,USNebraskaSeward,Nebraska,Seward,2022-04-28 09:13:11,2020-11-03,1.9668694553445405,3.0668629270458054,5.038415800052922,,,,,,,,,,,,
31159,0,USNebraskaSeward,Nebraska,Seward,2022-04-28 09:13:11,2020-11-04,1.9668694553445405,3.0668629270458054,5.038415800052922,,,,,,,,,,,,
31159,0,USNebraskaSeward,Nebraska,Seward,2022-04-28 09:13:11,2020-11-05,2.5842684693409255,4.040533049624702,6.657974700879546,,,,,,,,,,,,
31159,0,USNebraskaSeward,Nebraska,Seward,2022-04-28 09:13:11,2020-11-06,2.5842684693409255,4.040533049624702,6.657974700879546,,,,,,,,,,,,
31159,0,USNebraskaSeward,Nebraska,Seward,2022-04-28 09:13:11,2020-11-07,2.5842684693409255,4.040533049624702,6.657974700879546,,,,,,,,,,,,
31159,0,USNebraskaSeward,Nebraska,Seward,2022-04-28 09:13:11,2020-11-08,2.5842684693409255,4.040533049624702,6.657974700879546,,,,,,,,,,,,
31159,0,USNebraskaSeward,Nebraska,Seward,2022-04-28 09:13:11,2020-11-09,2.5842684693409255,4.040533049624702,6.657974700879546,,,,,,,,,,,,
31159,0,USNebraskaSeward,Nebraska,Seward,2022-04-28 09:13:11,2020-11-10,2.5842684693409255,4.040533049624702,6.657974700879546,,,,,,,,,,,,
31159,0,USNebraskaSeward,Nebraska,Seward,2022-04-28 09:13:11,2020-11-11,2.5842684693409255,4.040533049624702,6.657974700879546,,,,,,,,,,,,
31159,0,USNebraskaSeward,Nebraska,Seward,2022-04-28 09:13:11,2020-11-12,2.0553753253747744,3.4314081366393454,6.074683377226182,,,,,,,,,,,,
31159,0,USNebraskaSeward,Nebraska,Seward,2022-04-28 09:13:11,2020-11-13,2.0553753253747744,3.4314081366393454,6.074683377226182,,,,,,,,,,,,
31159,0,USNebraskaSeward,Nebraska,Seward,2022-04-28 09:13:11,2020-11-14,2.0553753253747744,3.4314081366393454,6.074683377226182,,,,,,,,,,,,
31159,0,USNebraskaSeward,Nebraska,Seward,2022-04-28 09:13:11,2020-11-15,2.0553753253747744,3.4314081366393454,6.074683377226182,,,,,,,,,,,,
31159,0,USNebraskaSeward,Nebraska,Seward,2022-04-28 09:13:11,2020-11-16,2.0553753253747744,3.4314081366393454,6.074683377226182,,,,,,,,,,,,
31159,0,USNebraskaSeward,Nebraska,Seward,2022-04-28 09:13:11,2020-11-17,2.0553753253747744,3.4314081366393454,6.074683377226182,,,,,,,,,,,,
31159,0,USNebraskaSeward,Nebraska,Seward,2022-04-28 09:13:11,2020-11-18,2.0553753253747744,3.4314081366393454,6.074683377226182,,,,,,,,,,,,
31159,0,USNebraskaSeward,Nebraska,Seward,2022-04-28 09:13:11,2020-11-19,2.0152776777268713,3.242894366835311,5.51525935528591,,,,,,,,,,,,
31159,0,USNebraskaSeward,Nebraska,Seward,2022-04-28 09:13:11,2020-11-20,2.0152776777268713,3.242894366835311,5.51525935528591,,,,,,,,,,,,
31159,0,USNebraskaSeward,Nebraska,Seward,2022-04-28 09:13:11,2020-11-21,2.0152776777268713,3.242894366835311,5.51525935528591,,,,,,,,,,,,
31159,0,USNebraskaSeward,Nebraska,Seward,2022-04-28 09:13:11,2020-11-22,2.0152776777268713,3.242894366835311,5.51525935528591,,,,,,,,,,,,
31159,0,USNebraskaSeward,Nebraska,Seward,2022-04-28 09:13:11,2020-11-23,2.0152776777268713,3.242894366835311,5.51525935528591,,,,,,,,,,,,
31159,0,USNebraskaSeward,Nebraska,Seward,2022-04-28 09:13:11,2020-11-24,2.0152776777268713,3.242894366835311,5.51525935528591,,,,,,,,,,,,
31159,0,USNebraskaSeward,Nebraska,Seward,2022-04-28 09:13:11,2020-11-25,2.0152776777268713,3.242894366835311,5.51525935528591,,,,,,,,,,,,
31159,0,USNebraskaSeward,Nebraska,Seward,2022-04-28 09:13:11,2020-11-26,2.1435681911102162,3.4584396168138998,5.8988371894370335,,,,,,,,,,,,
31159,0,USNebraskaSeward,Nebraska,Seward,2022-04-28 09:13:11,2020-11-27,2.1435681911102162,3.4584396168138998,5.8988371894370335,,,,,,,,,,,,
31159,0,USNebraskaSeward,Nebraska,Seward,2022-04-28 09:13:11,2020-11-28,2.1435681911102162,3.4584396168138998,5.8988371894370335,,,,,,,,,,,,
31159,0,USNebraskaSeward,Nebraska,Seward,2022-04-28 09:13:11,2020-11-29,2.1435681911102162,3.4584396168138998,5.8988371894370335,,,,,,,,,,,,
31159,0,USNebraskaSeward,Nebraska,Seward,2022-04-28 09:13:11,2020-11-30,2.1435681911102162,3.4584396168138998,5.8988371894370335,,,,,,,,,,,,
31159,0,USNebraskaSeward,Nebraska,Seward,2022-04-28 09:13:11,2020-12-01,2.1435681911102162,3.4584396168138998,5.8988371894370335,,,,,,,,,,,,
31159,0,USNebraskaSeward,Nebraska,Seward,2022-04-28 09:13:11,2020-12-02,2.1435681911102162,3.4584396168138998,5.8988371894370335,,,,,,,,,,,,
31159,0,USNebraskaSeward,Nebraska,Seward,2022-04-28 09:13:11,2020-12-03,1.223097493758563,2.2081488793789066,4.251981863045512,,,,,,,,,,,,
31159,0,USNebraskaSeward,Nebraska,Seward,2022-04-28 09:13:11,2020-12-04,1.223097493758563,2.2081488793789066,4.251981863045512,,,,,,,,,,,,
31159,0,USNebraskaSeward,Nebraska,Seward,2022-04-28 09:13:11,2020-12-05,1.223097493758563,2.2081488793789066,4.251981863045512,,,,,,,,,,,,
31159,0,USNebraskaSeward,Nebraska,Seward,2022-04-28 09:13:11,2020-12-06,1.223097493758563,2.2081488793789066,4.251981863045512,,,,,,,,,,,,
31159,0,USNebraskaSeward,Nebraska,Seward,2022-04-28 09:13:11,2020-12-07,1.223097493758563,2.2081488793789066,4.251981863045512,,,,,,,,,,,,
31159,0,USNebraskaSeward,Nebraska,Seward,2022-04-28 09:13:11,2020-12-08,1.223097493758563,2.2081488793789066,4.251981863045512,,,,,,,,,,,,
31159,0,USNebraskaSeward,Nebraska,Seward,2022-04-28 09:13:11,2020-12-09,1.223097493758563,2.2081488793789066,4.251981863045512,,,,,,,,,,,,
31159,0,USNebraskaSeward,Nebraska,Seward,2022-04-28 09:13:11,2020-12-10,1.7181258925988978,2.6609762648163255,4.339127074414353,,,,,,,,,,,,
31159,0,USNebraskaSeward,Nebraska,Seward,2022-04-28 09:13:11,2020-12-11,1.7181258925988978,2.6609762648163255,4.339127074414353,,,,,,,,,,,,
31159,0,USNebraskaSeward,Nebraska,Seward,2022-04-28 09:13:11,2020-12-12,1.7181258925988978,2.6609762648163255,4.339127074414353,,,,,,,,,,,,
31159,0,USNebraskaSeward,Nebraska,Seward,2022-04-28 09:13:11,2020-12-13,1.7181258925988978,2.6609762648163255,4.339127074414353,,,,,,,,,,,,
31159,0,USNebraskaSeward,Nebraska,Seward,2022-04-28 09:13:11,2020-12-14,1.7181258925988978,2.6609762648163255,4.339127074414353,,,,,,,,,,,,
31159,0,USNebraskaSeward,Nebraska,Seward,2022-04-28 09:13:11,2020-12-15,1.7181258925988978,2.6609762648163255,4.339127074414353,,,,,,,,,,,,
31159,0,USNebraskaSeward,Nebraska,Seward,2022-04-28 09:13:11,2020-12-16,1.7181258925988978,2.6609762648163255,4.339127074414353,,,,,,,,,,,,
31159,0,USNebraskaSeward,Nebraska,Seward,2022-04-28 09:13:11,2020-12-17,1.2283991248435795,2.082865247272762,3.7498182302825063,,,,,,,,,,,,
31159,0,USNebraskaSeward,Nebraska,Seward,2022-04-28 09:13:11,2020-12-18,1.2283991248435795,2.082865247272762,3.7498182302825063,,,,,,,,,,,,
31159,0,USNebraskaSeward,Nebraska,Seward,2022-04-28 09:13:11,2020-12-19,1.2283991248435795,2.082865247272762,3.7498182302825063,,,,,,,,,,,,
31159,0,USNebraskaSeward,Nebraska,Seward,2022-04-28 09:13:11,2020-12-20,1.2283991248435795,2.082865247272762,3.7498182302825063,,,,,,,,,,,,
31159,0,USNebraskaSeward,Nebraska,Seward,2022-04-28 09:13:11,2020-12-21,1.2283991248435795,2.082865247272762,3.7498182302825063,,,,,,,,,,,,
31159,0,USNebraskaSeward,Nebraska,Seward,2022-04-28 09:13:11,2020-12-22,1.2283991248435795,2.082865247272762,3.7498182302825063,,,,,,,,,,,,
31159,0,USNebraskaSeward,Nebraska,Seward,2022-04-28 09:13:11,2020-12-23,1.2283991248435795,2.082865247272762,3.7498182302825063,,,,,,,,,,,,
31159,0,USNebraskaSeward,Nebraska,Seward,2022-04-28 09:13:11,2020-12-24,0.9319462414262496,1.6593342257692236,3.148300483940457,,,,,,,,,,,,
31159,0,USNebraskaSeward,Nebraska,Seward,2022-04-28 09:13:11,2020-12-25,0.9319462414262496,1.6593342257692236,3.148300483940457,,,,,,,,,,,,
31159,0,USNebraskaSeward,Nebraska,Seward,2022-04-28 09:13:11,2020-12-26,0.9319462414262496,1.6593342257692236,3.148300483940457,,,,,,,,,,,,
31159,0,USNebraskaSeward,Nebraska,Seward,2022-04-28 09:13:11,2020-12-27,0.9319462414262496,1.6593342257692236,3.148300483940457,,,,,,,,,,,,
31159,0,USNebraskaSeward,Nebraska,Seward,2022-04-28 09:13:11,2020-12-28,0.9319462414262496,1.6593342257692236,3.148300483940457,,,,,,,,,,,,
31159,0,USNebraskaSeward,Nebraska,Seward,2022-04-28 09:13:11,2020-12-29,0.9319462414262496,1.6593342257692236,3.148300483940457,,,,,,,,,,,,
31159,0,USNebraskaSeward,Nebraska,Seward,2022-04-28 09:13:11,2020-12-30,0.9319462414262496,1.6593342257692236,3.148300483940457,,,,,,,,,,,,
31159,0,USNebraskaSeward,Nebraska,Seward,2022-04-28 09:13:11,2020-12-31,1.0124389142864776,1.861700080981242,3.6554264288808787,,,,,,,,,,,,
31159,0,USNebraskaSeward,Nebraska,Seward,2022-04-28 09:13:11,2021-01-01,1.0124389142864776,1.861700080981242,3.6554264288808787,,,,,,,,,,,,
31159,0,USNebraskaSeward,Nebraska,Seward,2022-04-28 09:13:11,2021-01-02,1.0124389142864776,1.861700080981242,3.6554264288808787,,,,,,,,,,,,
31159,0,USNebraskaSeward,Nebraska,Seward,2022-04-28 09:13:11,2021-01-03,1.0124389142864776,1.861700080981242,3.6554264288808787,,,,,,,,,,,,
31159,0,USNebraskaSeward,Nebraska,Seward,2022-04-28 09:13:11,2021-01-04,1.0124389142864776,1.861700080981242,3.6554264288808787,,,,,,,,,,,,
31159,0,USNebraskaSeward,Nebraska,Seward,2022-04-28 09:13:11,2021-01-05,1.0124389142864776,1.861700080981242,3.6554264288808787,,,,,,,,,,,,
31159,0,USNebraskaSeward,Nebraska,Seward,2022-04-28 09:13:11,2021-01-06,1.0124389142864776,1.861700080981242,3.6554264288808787,,,,,,,,,,,,
31159,0,USNebraskaSeward,Nebraska,Seward,2022-04-28 09:13:11,2021-01-07,0.5945168497884521,1.1902425463338582,2.55504904160449,,,,,,,,,,,,
31159,0,USNebraskaSeward,Nebraska,Seward,2022-04-28 09:13:11,2021-01-08,0.5945168497884521,1.1902425463338582,2.55504904160449,,,,,,,,,,,,
31159,0,USNebraskaSeward,Nebraska,Seward,2022-04-28 09:13:11,2021-01-09,0.5945168497884521,1.1902425463338582,2.55504904160449,,,,,,,,,,,,
31159,0,USNebraskaSeward,Nebraska,Seward,2022-04-28 09:13:11,2021-01-10,0.5945168497884521,1.1902425463338582,2.55504904160449,,,,,,,,,,,,
31159,0,USNebraskaSeward,Nebraska,Seward,2022-04-28 09:13:11,2021-01-11,0.5945168497884521,1.1902425463338582,2.55504904160449,,,,,,,,,,,,
31159,0,USNebraskaSeward,Nebraska,Seward,2022-04-28 09:13:11,2021-01-12,0.5945168497884521,1.1902425463338582,2.55504904160449,,,,,,,,,,,,
31159,0,USNebraskaSeward,Nebraska,Seward,2022-04-28 09:13:11,2021-01-13,0.5945168497884521,1.1902425463338582,2.55504904160449,,,,,,,,,,,,
31159,0,USNebraskaSeward,Nebraska,Seward,2022-04-28 09:13:11,2021-01-14,0.7613710749376253,1.4134892834100201,2.8036098220384367,,,,,,,,,,,,
31159,0,USNebraskaSeward,Nebraska,Seward,2022-04-28 09:13:11,2021-01-15,0.7613710749376253,1.4134892834100201,2.8036098220384367,,,,,,,,,,,,
31159,0,USNebraskaSeward,Nebraska,Seward,2022-04-28 09:13:11,2021-01-16,0.7613710749376253,1.4134892834100201,2.8036098220384367,,,,,,,,,,,,
31159,0,USNebraskaSeward,Nebraska,Seward,2022-04-28 09:13:11,2021-01-17,0.7613710749376253,1.4134892834100201,2.8036098220384367,,,,,,,,,,,,
31159,0,USNebraskaSeward,Nebraska,Seward,2022-04-28 09:13:11,2021-01-18,0.7613710749376253,1.4134892834100201,2.8036098220384367,,,,,,,,,,,,
31159,0,USNebraskaSeward,Nebraska,Seward,2022-04-28 09:13:11,2021-01-19,0.7613710749376253,1.4134892834100201,2.8036098220384367,,,,,,,,,,,,
31159,0,USNebraskaSeward,Nebraska,Seward,2022-04-28 09:13:11,2021-01-20,0.7613710749376253,1.4134892834100201,2.8036098220384367,,,,,,,,,,,,
31159,0,USNebraskaSeward,Nebraska,Seward,2022-04-28 09:13:11,2021-01-21,0.36896774223358564,0.7061099066784432,1.4460585148713403,,,,,,,,,,,,
31159,0,USNebraskaSeward,Nebraska,Seward,2022-04-28 09:13:11,2021-01-22,0.36896774223358564,0.7061099066784432,1.4460585148713403,,,,,,,,,,,,
31159,0,USNebraskaSeward,Nebraska,Seward,2022-04-28 09:13:11,2021-01-23,0.36896774223358564,0.7061099066784432,1.4460585148713403,,,,,,,,,,,,
31159,0,USNebraskaSeward,Nebraska,Seward,2022-04-28 09:13:11,2021-01-24,0.36896774223358564,0.7061099066784432,1.4460585148713403,,,,,,,,,,,,
31159,0,USNebraskaSeward,Nebraska,Seward,2022-04-28 09:13:11,2021-01-25,0.36896774223358564,0.7061099066784432,1.4460585148713403,,,,,,,,,,,,
31159,0,USNebraskaSeward,Nebraska,Seward,2022-04-28 09:13:11,2021-01-26,0.36896774223358564,0.7061099066784432,1.4460585148713403,,,,,,,,,,,,
31159,0,USNebraskaSeward,Nebraska,Seward,2022-04-28 09:13:11,2021-01-27,0.36896774223358564,0.7061099066784432,1.4460585148713403,,,,,,,,,,,,
31159,0,USNebraskaSeward,Nebraska,Seward,2022-04-28 09:13:11,2021-01-28,0.37760180088862805,0.7380138579415219,1.5450887582800574,,,,,,,,,,,,
31159,0,USNebraskaSeward,Nebraska,Seward,2022-04-28 09:13:11,2021-01-29,0.37760180088862805,0.7380138579415219,1.5450887582800574,,,,,,,,,,,,
31159,0,USNebraskaSeward,Nebraska,Seward,2022-04-28 09:13:11,2021-01-30,0.37760180088862805,0.7380138579415219,1.5450887582800574,,,,,,,,,,,,
31159,0,USNebraskaSeward,Nebraska,Seward,2022-04-28 09:13:11,2021-01-31,0.37760180088862805,0.7380138579415219,1.5450887582800574,,,,,,,,,,,,
31159,0,USNebraskaSeward,Nebraska,Seward,2022-04-28 09:13:11,2021-02-01,0.37760180088862805,0.7380138579415219,1.5450887582800574,,,,,,,,,,,,
31159,0,USNebraskaSeward,Nebraska,Seward,2022-04-28 09:13:11,2021-02-02,0.37760180088862805,0.7380138579415219,1.5450887582800574,,,,,,,,,,,,
31159,0,USNebraskaSeward,Nebraska,Seward,2022-04-28 09:13:11,2021-02-03,0.37760180088862805,0.7380138579415219,1.5450887582800574,,,,,,,,,,,,
31159,0,USNebraskaSeward,Nebraska,Seward,2022-04-28 09:13:11,2021-02-04,0.40527762201282014,0.7153426038329971,1.3446672964902173,,,,,,,,,,,,
31159,0,USNebraskaSeward,Nebraska,Seward,2022-04-28 09:13:11,2021-02-05,0.40527762201282014,0.7153426038329971,1.3446672964902173,,,,,,,,,,,,
31159,0,USNebraskaSeward,Nebraska,Seward,2022-04-28 09:13:11,2021-02-06,0.40527762201282014,0.7153426038329971,1.3446672964902173,,,,,,,,,,,,
31159,0,USNebraskaSeward,Nebraska,Seward,2022-04-28 09:13:11,2021-02-07,0.40527762201282014,0.7153426038329971,1.3446672964902173,,,,,,,,,,,,
31159,0,USNebraskaSeward,Nebraska,Seward,2022-04-28 09:13:11,2021-02-08,0.40527762201282014,0.7153426038329971,1.3446672964902173,,,,,,,,,,,,
31159,0,USNebraskaSeward,Nebraska,Seward,2022-04-28 09:13:11,2021-02-09,0.40527762201282014,0.7153426038329971,1.3446672964902173,,,,,,,,,,,,
31159,0,USNebraskaSeward,Nebraska,Seward,2022-04-28 09:13:11,2021-02-10,0.40527762201282014,0.7153426038329971,1.3446672964902173,,,,,,,,,,,,
31159,0,USNebraskaSeward,Nebraska,Seward,2022-04-28 09:13:11,2021-02-11,1.9079291981846553,2.420108453045408,3.1505168463659388,,,,,,,,,,,,
31159,0,USNebraskaSeward,Nebraska,Seward,2022-04-28 09:13:11,2021-02-12,1.9079291981846553,2.420108453045408,3.1505168463659388,,,,,,,,,,,,
31159,0,USNebraskaSeward,Nebraska,Seward,2022-04-28 09:13:11,2021-02-13,1.9079291981846553,2.420108453045408,3.1505168463659388,,,,,,,,,,,,
31159,0,USNebraskaSeward,Nebraska,Seward,2022-04-28 09:13:11,2021-02-14,1.9079291981846553,2.420108453045408,3.1505168463659388,,,,,,,,,,,,
31159,0,USNebraskaSeward,Nebraska,Seward,2022-04-28 09:13:11,2021-02-15,1.9079291981846553,2.420108453045408,3.1505168463659388,,,,,,,,,,,,
31159,0,USNebraskaSeward,Nebraska,Seward,2022-04-28 09:13:11,2021-02-16,1.9079291981846553,2.420108453045408,3.1505168463659388,,,,,,,,,,,,
31159,0,USNebraskaSeward,Nebraska,Seward,2022-04-28 09:13:11,2021-02-17,1.9079291981846553,2.420108453045408,3.1505168463659388,,,,,,,,,,,,
31159,0,USNebraskaSeward,Nebraska,Seward,2022-04-28 09:13:11,2021-02-18,0.5749893739136568,0.9327073436606376,1.60026864243687,,,,,,,,,,,,
31159,0,USNebraskaSeward,Nebraska,Seward,2022-04-28 09:13:11,2021-02-19,0.5749893739136568,0.9327073436606376,1.60026864243687,,,,,,,,,,,,
31159,0,USNebraskaSeward,Nebraska,Seward,2022-04-28 09:13:11,2021-02-20,0.5749893739136568,0.9327073436606376,1.60026864243687,,,,,,,,,,,,
31159,0,USNebraskaSeward,Nebraska,Seward,2022-04-28 09:13:11,2021-02-21,0.5749893739136568,0.9327073436606376,1.60026864243687,,,,,,,,,,,,
31159,0,USNebraskaSeward,Nebraska,Seward,2022-04-28 09:13:11,2021-02-22,0.5749893739136568,0.9327073436606376,1.60026864243687,,,,,,,,,,,,
31159,0,USNebraskaSeward,Nebraska,Seward,2022-04-28 09:13:11,2021-02-23,0.5749893739136568,0.9327073436606376,1.60026864243687,,,,,,,,,,,,
31159,0,USNebraskaSeward,Nebraska,Seward,2022-04-28 09:13:11,2021-02-24,0.5749893739136568,0.9327073436606376,1.60026864243687,,,,,,,,,,,,
31159,0,USNebraskaSeward,Nebraska,Seward,2022-04-28 09:13:11,2021-02-25,0.4949826609692219,0.8061160536883036,1.389074618430729,,,,,,,,,,,,
31159,0,USNebraskaSeward,Nebraska,Seward,2022-04-28 09:13:11,2021-02-26,0.4949826609692219,0.8061160536883036,1.389074618430729,,,,,,,,,,,,
31159,0,USNebraskaSeward,Nebraska,Seward,2022-04-28 09:13:11,2021-02-27,0.4949826609692219,0.8061160536883036,1.389074618430729,,,,,,,,,,,,
31159,0,USNebraskaSeward,Nebraska,Seward,2022-04-28 09:13:11,2021-02-28,0.4949826609692219,0.8061160536883036,1.389074618430729,,,,,,,,,,,,
31159,0,USNebraskaSeward,Nebraska,Seward,2022-04-28 09:13:11,2021-03-01,0.4949826609692219,0.8061160536883036,1.389074618430729,,,,,,,,,,,,
31159,0,USNebraskaSeward,Nebraska,Seward,2022-04-28 09:13:11,2021-03-02,0.4949826609692219,0.8061160536883036,1.389074618430729,,,,,,,,,,,,
31159,0,USNebraskaSeward,Nebraska,Seward,2022-04-28 09:13:11,2021-03-03,0.4949826609692219,0.8061160536883036,1.389074618430729,,,,,,,,,,,,
31159,0,USNebraskaSeward,Nebraska,Seward,2022-04-28 09:13:11,2021-03-04,0.42695284561280794,0.7522441726489104,1.411309129118665,,,,,,,,,,,,
31159,0,USNebraskaSeward,Nebraska,Seward,2022-04-28 09:13:11,2021-03-05,0.42695284561280794,0.7522441726489104,1.411309129118665,,,,,,,,,,,,
31159,0,USNebraskaSeward,Nebraska,Seward,2022-04-28 09:13:11,2021-03-06,0.42695284561280794,0.7522441726489104,1.411309129118665,,,,,,,,,,,,
31159,0,USNebraskaSeward,Nebraska,Seward,2022-04-28 09:13:11,2021-03-07,0.42695284561280794,0.7522441726489104,1.411309129118665,,,,,,,,,,,,
31159,0,USNebraskaSeward,Nebraska,Seward,2022-04-28 09:13:11,2021-03-08,0.42695284561280794,0.7522441726489104,1.411309129118665,,,,,,,,,,,,
31159,0,USNebraskaSeward,Nebraska,Seward,2022-04-28 09:13:11,2021-03-09,0.42695284561280794,0.7522441726489104,1.411309129118665,,,,,,,,,,,,
31159,0,USNebraskaSeward,Nebraska,Seward,2022-04-28 09:13:11,2021-03-10,0.42695284561280794,0.7522441726489104,1.411309129118665,,,,,,,,,,,,
31159,0,USNebraskaSeward,Nebraska,Seward,2022-04-28 09:13:11,2021-03-11,0.46328790683575194,0.7690641309414442,1.3531093666865261,,,,,,,,,,,,
31159,0,USNebraskaSeward,Nebraska,Seward,2022-04-28 09:13:11,2021-03-12,0.46328790683575194,0.7690641309414442,1.3531093666865261,,,,,,,,,,,,
31159,0,USNebraskaSeward,Nebraska,Seward,2022-04-28 09:13:11,2021-03-13,0.46328790683575194,0.7690641309414442,1.3531093666865261,,,,,,,,,,,,
31159,0,USNebraskaSeward,Nebraska,Seward,2022-04-28 09:13:11,2021-03-14,0.46328790683575194,0.7690641309414442,1.3531093666865261,,,,,,,,,,,,
31159,0,USNebraskaSeward,Nebraska,Seward,2022-04-28 09:13:11,2021-03-15,0.46328790683575194,0.7690641309414442,1.3531093666865261,,,,,,,,,,,,
31159,0,USNebraskaSeward,Nebraska,Seward,2022-04-28 09:13:11,2021-03-16,0.46328790683575194,0.7690641309414442,1.3531093666865261,,,,,,,,,,,,
31159,0,USNebraskaSeward,Nebraska,Seward,2022-04-28 09:13:11,2021-03-17,0.46328790683575194,0.7690641309414442,1.3531093666865261,,,,,,,,,,,,
31159,0,USNebraskaSeward,Nebraska,Seward,2022-04-28 09:13:11,2021-03-18,0.522338984491607,0.860853758658426,1.5027662079621895,,,,,,,,,,,,
31159,0,USNebraskaSeward,Nebraska,Seward,2022-04-28 09:13:11,2021-03-19,0.522338984491607,0.860853758658426,1.5027662079621895,,,,,,,,,,,,
31159,0,USNebraskaSeward,Nebraska,Seward,2022-04-28 09:13:11,2021-03-20,0.522338984491607,0.860853758658426,1.5027662079621895,,,,,,,,,,,,
31159,0,USNebraskaSeward,Nebraska,Seward,2022-04-28 09:13:11,2021-03-21,0.522338984491607,0.860853758658426,1.5027662079621895,,,,,,,,,,,,
31159,0,USNebraskaSeward,Nebraska,Seward,2022-04-28 09:13:11,2021-03-22,0.522338984491607,0.860853758658426,1.5027662079621895,,,,,,,,,,,,
31159,0,USNebraskaSeward,Nebraska,Seward,2022-04-28 09:13:11,2021-03-23,0.522338984491607,0.860853758658426,1.5027662079621895,,,,,,,,,,,,
31159,0,USNebraskaSeward,Nebraska,Seward,2022-04-28 09:13:11,2021-03-24,0.522338984491607,0.860853758658426,1.5027662079621895,,,,,,,,,,,,
31159,0,USNebraskaSeward,Nebraska,Seward,2022-04-28 09:13:11,2021-03-25,0.7016834841314875,1.1434285527475931,1.9716100397945258,,,,,,,,,,,,
31159,0,USNebraskaSeward,Nebraska,Seward,2022-04-28 09:13:11,2021-03-26,0.7016834841314875,1.1434285527475931,1.9716100397945258,,,,,,,,,,,,
31159,0,USNebraskaSeward,Nebraska,Seward,2022-04-28 09:13:11,2021-03-27,0.7016834841314875,1.1434285527475931,1.9716100397945258,,,,,,,,,,,,
31159,0,USNebraskaSeward,Nebraska,Seward,2022-04-28 09:13:11,2021-03-28,0.7016834841314875,1.1434285527475931,1.9716100397945258,,,,,,,,,,,,
31159,0,USNebraskaSeward,Nebraska,Seward,2022-04-28 09:13:11,2021-03-29,0.7016834841314875,1.1434285527475931,1.9716100397945258,,,,,,,,,,,,
31159,0,USNebraskaSeward,Nebraska,Seward,2022-04-28 09:13:11,2021-03-30,0.7016834841314875,1.1434285527475931,1.9716100397945258,,,,,,,,,,,,
31159,0,USNebraskaSeward,Nebraska,Seward,2022-04-28 09:13:11,2021-03-31,0.7016834841314875,1.1434285527475931,1.9716100397945258,,,,,,,,,,,,
31159,0,USNebraskaSeward,Nebraska,Seward,2022-04-28 09:13:11,2021-04-01,2.305704285442304,2.914917953384511,3.7801933788701594,,,,,,,,,,,,
31159,0,USNebraskaSeward,Nebraska,Seward,2022-04-28 09:13:11,2021-04-02,2.305704285442304,2.914917953384511,3.7801933788701594,,,,,,,,,,,,
31159,0,USNebraskaSeward,Nebraska,Seward,2022-04-28 09:13:11,2021-04-03,2.305704285442304,2.914917953384511,3.7801933788701594,,,,,,,,,,,,
31159,0,USNebraskaSeward,Nebraska,Seward,2022-04-28 09:13:11,2021-04-04,2.305704285442304,2.914917953384511,3.7801933788701594,,,,,,,,,,,,
31159,0,USNebraskaSeward,Nebraska,Seward,2022-04-28 09:13:11,2021-04-05,2.305704285442304,2.914917953384511,3.7801933788701594,,,,,,,,,,,,
31159,0,USNebraskaSeward,Nebraska,Seward,2022-04-28 09:13:11,2021-04-06,2.305704285442304,2.914917953384511,3.7801933788701594,,,,,,,,,,,,
31159,0,USNebraskaSeward,Nebraska,Seward,2022-04-28 09:13:11,2021-04-07,2.305704285442304,2.914917953384511,3.7801933788701594,,,,,,,,,,,,
31159,0,USNebraskaSeward,Nebraska,Seward,2022-04-28 09:13:11,2021-04-08,0.5084237317742345,0.8824074366444337,1.6290108607594018,,,,,,,,,,,,
31159,0,USNebraskaSeward,Nebraska,Seward,2022-04-28 09:13:11,2021-04-09,0.5084237317742345,0.8824074366444337,1.6290108607594018,,,,,,,,,,,,
31159,0,USNebraskaSeward,Nebraska,Seward,2022-04-28 09:13:11,2021-04-10,0.5084237317742345,0.8824074366444337,1.6290108607594018,,,,,,,,,,,,
31159,0,USNebraskaSeward,Nebraska,Seward,2022-04-28 09:13:11,2021-04-11,0.5084237317742345,0.8824074366444337,1.6290108607594018,,,,,,,,,,,,
31159,0,USNebraskaSeward,Nebraska,Seward,2022-04-28 09:13:11,2021-04-12,0.5084237317742345,0.8824074366444337,1.6290108607594018,,,,,,,,,,,,
31159,0,USNebraskaSeward,Nebraska,Seward,2022-04-28 09:13:11,2021-04-13,0.5084237317742345,0.8824074366444337,1.6290108607594018,,,,,,,,,,,,
31159,0,USNebraskaSeward,Nebraska,Seward,2022-04-28 09:13:11,2021-04-14,0.5084237317742345,0.8824074366444337,1.6290108607594018,,,,,,,,,,,,
31159,0,USNebraskaSeward,Nebraska,Seward,2022-04-28 09:13:11,2021-04-15,0.5361970510325443,0.939722479296649,1.7530547387430004,,,,,,,,,,,,
31159,0,USNebraskaSeward,Nebraska,Seward,2022-04-28 09:13:11,2021-04-16,0.5361970510325443,0.939722479296649,1.7530547387430004,,,,,,,,,,,,
31159,0,USNebraskaSeward,Nebraska,Seward,2022-04-28 09:13:11,2021-04-17,0.5361970510325443,0.939722479296649,1.7530547387430004,,,,,,,,,,,,
31159,0,USNebraskaSeward,Nebraska,Seward,2022-04-28 09:13:11,2021-04-18,0.5361970510325443,0.939722479296649,1.7530547387430004,,,,,,,,,,,,
31159,0,USNebraskaSeward,Nebraska,Seward,2022-04-28 09:13:11,2021-04-19,0.5361970510325443,0.939722479296649,1.7530547387430004,,,,,,,,,,,,
31159,0,USNebraskaSeward,Nebraska,Seward,2022-04-28 09:13:11,2021-04-20,0.5361970510325443,0.939722479296649,1.7530547387430004,,,,,,,,,,,,
31159,0,USNebraskaSeward,Nebraska,Seward,2022-04-28 09:13:11,2021-04-21,0.5361970510325443,0.939722479296649,1.7530547387430004,,,,,,,,,,,,
31159,0,USNebraskaSeward,Nebraska,Seward,2022-04-28 09:13:11,2021-04-22,0.34531544953841214,0.6220315878695087,1.1949293151280653,,,,,,,,,,,,
31159,0,USNebraskaSeward,Nebraska,Seward,2022-04-28 09:13:11,2021-04-23,0.34531544953841214,0.6220315878695087,1.1949293151280653,,,,,,,,,,,,
31159,0,USNebraskaSeward,Nebraska,Seward,2022-04-28 09:13:11,2021-04-24,0.34531544953841214,0.6220315878695087,1.1949293151280653,,,,,,,,,,,,
31159,0,USNebraskaSeward,Nebraska,Seward,2022-04-28 09:13:11,2021-04-25,0.34531544953841214,0.6220315878695087,1.1949293151280653,,,,,,,,,,,,
31159,0,USNebraskaSeward,Nebraska,Seward,2022-04-28 09:13:11,2021-04-26,0.34531544953841214,0.6220315878695087,1.1949293151280653,,,,,,,,,,,,
31159,0,USNebraskaSeward,Nebraska,Seward,2022-04-28 09:13:11,2021-04-27,0.34531544953841214,0.6220315878695087,1.1949293151280653,,,,,,,,,,,,
31159,0,USNebraskaSeward,Nebraska,Seward,2022-04-28 09:13:11,2021-04-28,0.34531544953841214,0.6220315878695087,1.1949293151280653,,,,,,,,,,,,
31159,0,USNebraskaSeward,Nebraska,Seward,2022-04-28 09:13:11,2021-04-29,0.2515641865931042,0.49137365691801355,1.0280671840730424,,,,,,,,,,,,
31159,0,USNebraskaSeward,Nebraska,Seward,2022-04-28 09:13:11,2021-04-30,0.2515641865931042,0.49137365691801355,1.0280671840730424,,,,,,,,,,,,
31159,0,USNebraskaSeward,Nebraska,Seward,2022-04-28 09:13:11,2021-05-01,0.2515641865931042,0.49137365691801355,1.0280671840730424,,,,,,,,,,,,
31159,0,USNebraskaSeward,Nebraska,Seward,2022-04-28 09:13:11,2021-05-02,0.2515641865931042,0.49137365691801355,1.0280671840730424,,,,,,,,,,,,
31159,0,USNebraskaSeward,Nebraska,Seward,2022-04-28 09:13:11,2021-05-03,0.2515641865931042,0.49137365691801355,1.0280671840730424,,,,,,,,,,,,
31159,0,USNebraskaSeward,Nebraska,Seward,2022-04-28 09:13:11,2021-05-04,0.2515641865931042,0.49137365691801355,1.0280671840730424,,,,,,,,,,,,
31159,0,USNebraskaSeward,Nebraska,Seward,2022-04-28 09:13:11,2021-05-05,0.2515641865931042,0.49137365691801355,1.0280671840730424,,,,,,,,,,,,
31159,0,USNebraskaSeward,Nebraska,Seward,2022-04-28 09:13:11,2021-05-06,0.07504780683775099,0.20900911111141127,0.6256837992612492,,,,,,,,,,,,
31159,0,USNebraskaSeward,Nebraska,Seward,2022-04-28 09:13:11,2021-05-07,0.07504780683775099,0.20900911111141127,0.6256837992612492,,,,,,,,,,,,
31159,0,USNebraskaSeward,Nebraska,Seward,2022-04-28 09:13:11,2021-05-08,0.07504780683775099,0.20900911111141127,0.6256837992612492,,,,,,,,,,,,
31159,0,USNebraskaSeward,Nebraska,Seward,2022-04-28 09:13:11,2021-05-09,0.07504780683775099,0.20900911111141127,0.6256837992612492,,,,,,,,,,,,
31159,0,USNebraskaSeward,Nebraska,Seward,2022-04-28 09:13:11,2021-05-10,0.07504780683775099,0.20900911111141127,0.6256837992612492,,,,,,,,,,,,
31159,0,USNebraskaSeward,Nebraska,Seward,2022-04-28 09:13:11,2021-05-11,0.07504780683775099,0.20900911111141127,0.6256837992612492,,,,,,,,,,,,
31159,0,USNebraskaSeward,Nebraska,Seward,2022-04-28 09:13:11,2021-05-12,0.07504780683775099,0.20900911111141127,0.6256837992612492,,,,,,,,,,,,
31159,0,USNebraskaSeward,Nebraska,Seward,2022-04-28 09:13:11,2021-05-13,0.22695255496036124,0.40351760994361047,0.764447147540483,,,,,,,,,,,,
31159,0,USNebraskaSeward,Nebraska,Seward,2022-04-28 09:13:11,2021-05-14,0.22695255496036124,0.40351760994361047,0.764447147540483,,,,,,,,,,,,
31159,0,USNebraskaSeward,Nebraska,Seward,2022-04-28 09:13:11,2021-05-15,0.22695255496036124,0.40351760994361047,0.764447147540483,,,,,,,,,,,,
31159,0,USNebraskaSeward,Nebraska,Seward,2022-04-28 09:13:11,2021-05-16,0.22695255496036124,0.40351760994361047,0.764447147540483,,,,,,,,,,,,
31159,0,USNebraskaSeward,Nebraska,Seward,2022-04-28 09:13:11,2021-05-17,0.22695255496036124,0.40351760994361047,0.764447147540483,,,,,,,,,,,,
31159,0,USNebraskaSeward,Nebraska,Seward,2022-04-28 09:13:11,2021-05-18,0.22695255496036124,0.40351760994361047,0.764447147540483,,,,,,,,,,,,
31159,0,USNebraskaSeward,Nebraska,Seward,2022-04-28 09:13:11,2021-05-19,0.22695255496036124,0.40351760994361047,0.764447147540483,,,,,,,,,,,,
31159,0,USNebraskaSeward,Nebraska,Seward,2022-04-28 09:13:11,2021-05-20,0.21211958769865144,0.39041099317913136,0.7673163401928634,,,,,,,,,,,,
31159,0,USNebraskaSeward,Nebraska,Seward,2022-04-28 09:13:11,2021-05-21,0.21211958769865144,0.39041099317913136,0.7673163401928634,,,,,,,,,,,,
31159,0,USNebraskaSeward,Nebraska,Seward,2022-04-28 09:13:11,2021-05-22,0.21211958769865144,0.39041099317913136,0.7673163401928634,,,,,,,,,,,,
31159,0,USNebraskaSeward,Nebraska,Seward,2022-04-28 09:13:11,2021-05-23,0.21211958769865144,0.39041099317913136,0.7673163401928634,,,,,,,,,,,,
31159,0,USNebraskaSeward,Nebraska,Seward,2022-04-28 09:13:11,2021-05-24,0.21211958769865144,0.39041099317913136,0.7673163401928634,,,,,,,,,,,,
31159,0,USNebraskaSeward,Nebraska,Seward,2022-04-28 09:13:11,2021-05-25,0.21211958769865144,0.39041099317913136,0.7673163401928634,,,,,,,,,,,,
31159,0,USNebraskaSeward,Nebraska,Seward,2022-04-28 09:13:11,2021-05-26,0.21211958769865144,0.39041099317913136,0.7673163401928634,,,,,,,,,,,,
31159,0,USNebraskaSeward,Nebraska,Seward,2022-04-28 09:13:11,2021-05-27,0,0,0,,,,,,,,,,,,
31159,0,USNebraskaSeward,Nebraska,Seward,2022-04-28 09:13:11,2021-05-28,0,0,0,,,,,,,,,,,,
31159,0,USNebraskaSeward,Nebraska,Seward,2022-04-28 09:13:11,2021-05-29,0,0,0,,,,,,,,,,,,
31159,0,USNebraskaSeward,Nebraska,Seward,2022-04-28 09:13:11,2021-05-30,0,0,0,,,,,,,,,,,,
31159,0,USNebraskaSeward,Nebraska,Seward,2022-04-28 09:13:11,2021-05-31,0,0,0,,,,,,,,,,,,
31159,0,USNebraskaSeward,Nebraska,Seward,2022-04-28 09:13:11,2021-06-01,0,0,0,,,,,,,,,,,,
31159,0,USNebraskaSeward,Nebraska,Seward,2022-04-28 09:13:11,2021-06-02,0,0,0,,,,,,,,,,,,
31159,0,USNebraskaSeward,Nebraska,Seward,2022-04-28 09:13:11,2021-06-03,0,0,0,,,,,,,,,,,,
31159,0,USNebraskaSeward,Nebraska,Seward,2022-04-28 09:13:11,2021-06-04,0,0,0,,,,,,,,,,,,
31159,0,USNebraskaSeward,Nebraska,Seward,2022-04-28 09:13:11,2021-06-05,0,0,0,,,,,,,,,,,,
31159,0,USNebraskaSeward,Nebraska,Seward,2022-04-28 09:13:11,2021-06-06,0,0,0,,,,,,,,,,,,
31159,0,USNebraskaSeward,Nebraska,Seward,2022-04-28 09:13:11,2021-06-07,0,0,0,,,,,,,,,,,,
31159,0,USNebraskaSeward,Nebraska,Seward,2022-04-28 09:13:11,2021-06-08,0,0,0,,,,,,,,,,,,
31159,0,USNebraskaSeward,Nebraska,Seward,2022-04-28 09:13:11,2021-06-09,0,0,0,,,,,,,,,,,,
31159,0,USNebraskaSeward,Nebraska,Seward,2022-04-28 09:13:11,2021-06-10,0,0,0,,,,,,,,,,,,
31159,0,USNebraskaSeward,Nebraska,Seward,2022-04-28 09:13:11,2021-06-11,0,0,0,,,,,,,,,,,,
31159,0,USNebraskaSeward,Nebraska,Seward,2022-04-28 09:13:11,2021-06-12,0,0,0,,,,,,,,,,,,
31159,0,USNebraskaSeward,Nebraska,Seward,2022-04-28 09:13:11,2021-06-13,0,0,0,,,,,,,,,,,,
31159,0,USNebraskaSeward,Nebraska,Seward,2022-04-28 09:13:11,2021-06-14,0,0,0,,,,,,,,,,,,
31159,0,USNebraskaSeward,Nebraska,Seward,2022-04-28 09:13:11,2021-06-15,0,0,0,,,,,,,,,,,,
31159,0,USNebraskaSeward,Nebraska,Seward,2022-04-28 09:13:11,2021-06-16,0,0,0,,,,,,,,,,,,
31159,0,USNebraskaSeward,Nebraska,Seward,2022-04-28 09:13:11,2021-06-17,0,0,0,,,,,,,,,,,,
31159,0,USNebraskaSeward,Nebraska,Seward,2022-04-28 09:13:11,2021-06-18,0,0,0,,,,,,,,,,,,
31159,0,USNebraskaSeward,Nebraska,Seward,2022-04-28 09:13:11,2021-06-19,0,0,0,,,,,,,,,,,,
31159,0,USNebraskaSeward,Nebraska,Seward,2022-04-28 09:13:11,2021-06-20,0,0,0,,,,,,,,,,,,
31159,0,USNebraskaSeward,Nebraska,Seward,2022-04-28 09:13:11,2021-06-21,0,0,0,,,,,,,,,,,,
31159,0,USNebraskaSeward,Nebraska,Seward,2022-04-28 09:13:11,2021-06-22,0,0,0,,,,,,,,,,,,
31159,0,USNebraskaSeward,Nebraska,Seward,2022-04-28 09:13:11,2021-06-23,0,0,0,,,,,,,,,,,,
31159,0,USNebraskaSeward,Nebraska,Seward,2022-04-28 09:13:11,2021-06-24,0,0,0,,,,,,,,,,,,
31159,0,USNebraskaSeward,Nebraska,Seward,2022-04-28 09:13:11,2021-06-25,0,0,0,,,,,,,,,,,,
31159,0,USNebraskaSeward,Nebraska,Seward,2022-04-28 09:13:11,2021-06-26,0,0,0,,,,,,,,,,,,
31159,0,USNebraskaSeward,Nebraska,Seward,2022-04-28 09:13:11,2021-06-27,0,0,0,,,,,,,,,,,,
31159,0,USNebraskaSeward,Nebraska,Seward,2022-04-28 09:13:11,2021-06-28,0,0,0,,,,,,,,,,,,
31159,0,USNebraskaSeward,Nebraska,Seward,2022-04-28 09:13:11,2021-06-29,0,0,0,,,,,,,,,,,,
31159,0,USNebraskaSeward,Nebraska,Seward,2022-04-28 09:13:11,2021-06-30,0,0,0,,,,,,,,,,,,
31159,0,USNebraskaSeward,Nebraska,Seward,2022-04-28 09:13:11,2021-07-01,0,0,0,,,,,,,,,,,,
31159,0,USNebraskaSeward,Nebraska,Seward,2022-04-28 09:13:11,2021-07-02,0,0,0,,,,,,,,,,,,
31159,0,USNebraskaSeward,Nebraska,Seward,2022-04-28 09:13:11,2021-07-03,0,0,0,,,,,,,,,,,,
31159,0,USNebraskaSeward,Nebraska,Seward,2022-04-28 09:13:11,2021-07-04,0,0,0,,,,,,,,,,,,
31159,0,USNebraskaSeward,Nebraska,Seward,2022-04-28 09:13:11,2021-07-05,0,0,0,,,,,,,,,,,,
31159,0,USNebraskaSeward,Nebraska,Seward,2022-04-28 09:13:11,2021-07-06,0,0,0,,,,,,,,,,,,
31159,0,USNebraskaSeward,Nebraska,Seward,2022-04-28 09:13:11,2021-07-07,0,0,0,,,,,,,,,,,,
31159,0,USNebraskaSeward,Nebraska,Seward,2022-04-28 09:13:11,2021-07-08,0,0,0,,,,,,,,,,,,
31159,0,USNebraskaSeward,Nebraska,Seward,2022-04-28 09:13:11,2021-07-09,0,0,0,,,,,,,,,,,,
31159,0,USNebraskaSeward,Nebraska,Seward,2022-04-28 09:13:11,2021-07-10,0,0,0,,,,,,,,,,,,
31159,0,USNebraskaSeward,Nebraska,Seward,2022-04-28 09:13:11,2021-07-11,0,0,0,,,,,,,,,,,,
31159,0,USNebraskaSeward,Nebraska,Seward,2022-04-28 09:13:11,2021-07-12,0,0,0,,,,,,,,,,,,
31159,0,USNebraskaSeward,Nebraska,Seward,2022-04-28 09:13:11,2021-07-13,0,0,0,,,,,,,,,,,,
31159,0,USNebraskaSeward,Nebraska,Seward,2022-04-28 09:13:11,2021-07-14,0,0,0,,,,,,,,,,,,
31159,0,USNebraskaSeward,Nebraska,Seward,2022-04-28 09:13:11,2021-07-15,0,0,0,,,,,,,,,,,,
31159,0,USNebraskaSeward,Nebraska,Seward,2022-04-28 09:13:11,2021-07-16,0,0,0,,,,,,,,,,,,
31159,0,USNebraskaSeward,Nebraska,Seward,2022-04-28 09:13:11,2021-07-17,0,0,0,,,,,,,,,,,,
31159,0,USNebraskaSeward,Nebraska,Seward,2022-04-28 09:13:11,2021-07-18,0,0,0,,,,,,,,,,,,
31159,0,USNebraskaSeward,Nebraska,Seward,2022-04-28 09:13:11,2021-07-19,0,0,0,,,,,,,,,,,,
31159,0,USNebraskaSeward,Nebraska,Seward,2022-04-28 09:13:11,2021-07-20,0,0,0,,,,,,,,,,,,
31159,0,USNebraskaSeward,Nebraska,Seward,2022-04-28 09:13:11,2021-07-21,0,0,0,,,,,,,,,,,,
31159,0,USNebraskaSeward,Nebraska,Seward,2022-04-28 09:13:11,2021-07-22,0,0,0,,,,,,,,,,,,
31159,0,USNebraskaSeward,Nebraska,Seward,2022-04-28 09:13:11,2021-07-23,0,0,0,,,,,,,,,,,,
31159,0,USNebraskaSeward,Nebraska,Seward,2022-04-28 09:13:11,2021-07-24,0,0,0,,,,,,,,,,,,
31159,0,USNebraskaSeward,Nebraska,Seward,2022-04-28 09:13:11,2021-07-25,0,0,0,,,,,,,,,,,,
31159,0,USNebraskaSeward,Nebraska,Seward,2022-04-28 09:13:11,2021-07-26,0,0,0,,,,,,,,,,,,
31159,0,USNebraskaSeward,Nebraska,Seward,2022-04-28 09:13:11,2021-07-27,0,0,0,,,,,,,,,,,,
31159,0,USNebraskaSeward,Nebraska,Seward,2022-04-28 09:13:11,2021-07-28,0,0,0,,,,,,,,,,,,
31159,0,USNebraskaSeward,Nebraska,Seward,2022-04-28 09:13:11,2021-07-29,0,0,0,,,,,,,,,,,,
31159,0,USNebraskaSeward,Nebraska,Seward,2022-04-28 09:13:11,2021-07-30,0,0,0,,,,,,,,,,,,
31159,0,USNebraskaSeward,Nebraska,Seward,2022-04-28 09:13:11,2021-07-31,0,0,0,,,,,,,,,,,,
31159,0,USNebraskaSeward,Nebraska,Seward,2022-04-28 09:13:11,2021-08-01,0,0,0,,,,,,,,,,,,
31159,0,USNebraskaSeward,Nebraska,Seward,2022-04-28 09:13:11,2021-08-02,0,0,0,,,,,,,,,,,,
31159,0,USNebraskaSeward,Nebraska,Seward,2022-04-28 09:13:11,2021-08-03,0,0,0,,,,,,,,,,,,
31159,0,USNebraskaSeward,Nebraska,Seward,2022-04-28 09:13:11,2021-08-04,0,0,0,,,,,,,,,,,,
31159,0,USNebraskaSeward,Nebraska,Seward,2022-04-28 09:13:11,2021-08-05,0,0,0,,,,,,,,,,,,
31159,0,USNebraskaSeward,Nebraska,Seward,2022-04-28 09:13:11,2021-08-06,0,0,0,,,,,,,,,,,,
31159,0,USNebraskaSeward,Nebraska,Seward,2022-04-28 09:13:11,2021-08-07,0,0,0,,,,,,,,,,,,
31159,0,USNebraskaSeward,Nebraska,Seward,2022-04-28 09:13:11,2021-08-08,0,0,0,,,,,,,,,,,,
31159,0,USNebraskaSeward,Nebraska,Seward,2022-04-28 09:13:11,2021-08-09,0,0,0,,,,,,,,,,,,
31159,0,USNebraskaSeward,Nebraska,Seward,2022-04-28 09:13:11,2021-08-10,0,0,0,,,,,,,,,,,,
31159,0,USNebraskaSeward,Nebraska,Seward,2022-04-28 09:13:11,2021-08-11,0,0,0,,,,,,,,,,,,
31159,0,USNebraskaSeward,Nebraska,Seward,2022-04-28 09:13:11,2021-08-12,0,0,0,,,,,,,,,,,,
31159,0,USNebraskaSeward,Nebraska,Seward,2022-04-28 09:13:11,2021-08-13,0,0,0,,,,,,,,,,,,
31159,0,USNebraskaSeward,Nebraska,Seward,2022-04-28 09:13:11,2021-08-14,0,0,0,,,,,,,,,,,,
31159,0,USNebraskaSeward,Nebraska,Seward,2022-04-28 09:13:11,2021-08-15,0,0,0,,,,,,,,,,,,
31159,0,USNebraskaSeward,Nebraska,Seward,2022-04-28 09:13:11,2021-08-16,0,0,0,,,,,,,,,,,,
31159,0,USNebraskaSeward,Nebraska,Seward,2022-04-28 09:13:11,2021-08-17,0,0,0,,,,,,,,,,,,
31159,0,USNebraskaSeward,Nebraska,Seward,2022-04-28 09:13:11,2021-08-18,0,0,0,,,,,,,,,,,,
31159,0,USNebraskaSeward,Nebraska,Seward,2022-04-28 09:13:11,2021-08-19,0,0,0,,,,,,,,,,,,
31159,0,USNebraskaSeward,Nebraska,Seward,2022-04-28 09:13:11,2021-08-20,0,0,0,,,,,,,,,,,,
31159,0,USNebraskaSeward,Nebraska,Seward,2022-04-28 09:13:11,2021-08-21,0,0,0,,,,,,,,,,,,
31159,0,USNebraskaSeward,Nebraska,Seward,2022-04-28 09:13:11,2021-08-22,0,0,0,,,,,,,,,,,,
31159,0,USNebraskaSeward,Nebraska,Seward,2022-04-28 09:13:11,2021-08-23,0,0,0,,,,,,,,,,,,
31159,0,USNebraskaSeward,Nebraska,Seward,2022-04-28 09:13:11,2021-08-24,0,0,0,,,,,,,,,,,,
31159,0,USNebraskaSeward,Nebraska,Seward,2022-04-28 09:13:11,2021-08-25,0,0,0,,,,,,,,,,,,
31159,0,USNebraskaSeward,Nebraska,Seward,2022-04-28 09:13:11,2021-08-26,0,0,0,,,,,,,,,,,,
31159,0,USNebraskaSeward,Nebraska,Seward,2022-04-28 09:13:11,2021-08-27,0,0,0,,,,,,,,,,,,
31159,0,USNebraskaSeward,Nebraska,Seward,2022-04-28 09:13:11,2021-08-28,0,0,0,,,,,,,,,,,,
31159,0,USNebraskaSeward,Nebraska,Seward,2022-04-28 09:13:11,2021-08-29,0,0,0,,,,,,,,,,,,
31159,0,USNebraskaSeward,Nebraska,Seward,2022-04-28 09:13:11,2021-08-30,0,0,0,,,,,,,,,,,,
31159,0,USNebraskaSeward,Nebraska,Seward,2022-04-28 09:13:11,2021-08-31,0,0,0,,,,,,,,,,,,
31159,0,USNebraskaSeward,Nebraska,Seward,2022-04-28 09:13:11,2021-09-01,0,0,0,,,,,,,,,,,,
31159,0,USNebraskaSeward,Nebraska,Seward,2022-04-28 09:13:11,2021-09-02,0,0,0,,,,,,,,,,,,
31159,0,USNebraskaSeward,Nebraska,Seward,2022-04-28 09:13:11,2021-09-03,0,0,0,,,,,,,,,,,,
31159,0,USNebraskaSeward,Nebraska,Seward,2022-04-28 09:13:11,2021-09-04,0,0,0,,,,,,,,,,,,
31159,0,USNebraskaSeward,Nebraska,Seward,2022-04-28 09:13:11,2021-09-05,0,0,0,,,,,,,,,,,,
31159,0,USNebraskaSeward,Nebraska,Seward,2022-04-28 09:13:11,2021-09-06,0,0,0,,,,,,,,,,,,
31159,0,USNebraskaSeward,Nebraska,Seward,2022-04-28 09:13:11,2021-09-07,0,0,0,,,,,,,,,,,,
31159,0,USNebraskaSeward,Nebraska,Seward,2022-04-28 09:13:11,2021-09-08,0,0,0,,,,,,,,,,,,
31159,0,USNebraskaSeward,Nebraska,Seward,2022-04-28 09:13:11,2021-09-09,0,0,0,,,,,,,,,,,,
31159,0,USNebraskaSeward,Nebraska,Seward,2022-04-28 09:13:11,2021-09-10,0,0,0,,,,,,,,,,,,
31159,0,USNebraskaSeward,Nebraska,Seward,2022-04-28 09:13:11,2021-09-11,0,0,0,,,,,,,,,,,,
31159,0,USNebraskaSeward,Nebraska,Seward,2022-04-28 09:13:11,2021-09-12,0,0,0,,,,,,,,,,,,
31159,0,USNebraskaSeward,Nebraska,Seward,2022-04-28 09:13:11,2021-09-13,0,0,0,,,,,,,,,,,,
31159,0,USNebraskaSeward,Nebraska,Seward,2022-04-28 09:13:11,2021-09-14,0,0,0,,,,,,,,,,,,
31159,0,USNebraskaSeward,Nebraska,Seward,2022-04-28 09:13:11,2021-09-15,0,0,0,,,,,,,,,,,,
31159,0,USNebraskaSeward,Nebraska,Seward,2022-04-28 09:13:11,2021-09-16,0,0,0,,,,,,,,,,,,
31159,0,USNebraskaSeward,Nebraska,Seward,2022-04-28 09:13:11,2021-09-17,0,0,0,,,,,,,,,,,,
31159,0,USNebraskaSeward,Nebraska,Seward,2022-04-28 09:13:11,2021-09-18,0,0,0,,,,,,,,,,,,
31159,0,USNebraskaSeward,Nebraska,Seward,2022-04-28 09:13:11,2021-09-19,0,0,0,,,,,,,,,,,,
31159,0,USNebraskaSeward,Nebraska,Seward,2022-04-28 09:13:11,2021-09-20,0,0,0,,,,,,,,,,,,
31159,0,USNebraskaSeward,Nebraska,Seward,2022-04-28 09:13:11,2021-09-21,0,0,0,,,,,,,,,,,,
31159,0,USNebraskaSeward,Nebraska,Seward,2022-04-28 09:13:11,2021-09-22,0,0,0,,,,,,,,,,,,
31159,0,USNebraskaSeward,Nebraska,Seward,2022-04-28 09:13:11,2021-09-23,7.050173184493086,8.563388227889966,10.608161153247345,,,,,,,,,,,,
31159,0,USNebraskaSeward,Nebraska,Seward,2022-04-28 09:13:11,2021-09-24,7.050173184493086,8.563388227889966,10.608161153247345,,,,,,,,,,,,
31159,0,USNebraskaSeward,Nebraska,Seward,2022-04-28 09:13:11,2021-09-25,7.050173184493086,8.563388227889966,10.608161153247345,,,,,,,,,,,,
31159,0,USNebraskaSeward,Nebraska,Seward,2022-04-28 09:13:11,2021-09-26,7.050173184493086,8.563388227889966,10.608161153247345,,,,,,,,,,,,
31159,0,USNebraskaSeward,Nebraska,Seward,2022-04-28 09:13:11,2021-09-27,7.050173184493086,8.563388227889966,10.608161153247345,,,,,,,,,,,,
31159,0,USNebraskaSeward,Nebraska,Seward,2022-04-28 09:13:11,2021-09-28,7.050173184493086,8.563388227889966,10.608161153247345,,,,,,,,,,,,
31159,0,USNebraskaSeward,Nebraska,Seward,2022-04-28 09:13:11,2021-09-29,7.050173184493086,8.563388227889966,10.608161153247345,,,,,,,,,,,,
31159,0,USNebraskaSeward,Nebraska,Seward,2022-04-28 09:13:11,2021-09-30,0.4340027402648176,0.907630053162848,2.0382640613149574,,,,,,,,,,,,
31159,0,USNebraskaSeward,Nebraska,Seward,2022-04-28 09:13:11,2021-10-01,0.4340027402648176,0.907630053162848,2.0382640613149574,,,,,,,,,,,,
31159,0,USNebraskaSeward,Nebraska,Seward,2022-04-28 09:13:11,2021-10-02,0.4340027402648176,0.907630053162848,2.0382640613149574,,,,,,,,,,,,
31159,0,USNebraskaSeward,Nebraska,Seward,2022-04-28 09:13:11,2021-10-03,0.4340027402648176,0.907630053162848,2.0382640613149574,,,,,,,,,,,,
31159,0,USNebraskaSeward,Nebraska,Seward,2022-04-28 09:13:11,2021-10-04,0.4340027402648176,0.907630053162848,2.0382640613149574,,,,,,,,,,,,
31159,0,USNebraskaSeward,Nebraska,Seward,2022-04-28 09:13:11,2021-10-05,0.4340027402648176,0.907630053162848,2.0382640613149574,,,,,,,,,,,,
31159,0,USNebraskaSeward,Nebraska,Seward,2022-04-28 09:13:11,2021-10-06,0.4340027402648176,0.907630053162848,2.0382640613149574,,,,,,,,,,,,
31159,0,USNebraskaSeward,Nebraska,Seward,2022-04-28 09:13:11,2021-10-07,0.5190517231001428,1.0429514658802475,2.2473501905632696,,,,,,,,,,,,
31159,0,USNebraskaSeward,Nebraska,Seward,2022-04-28 09:13:11,2021-10-08,0.5190517231001428,1.0429514658802475,2.2473501905632696,,,,,,,,,,,,
31159,0,USNebraskaSeward,Nebraska,Seward,2022-04-28 09:13:11,2021-10-09,0.5190517231001428,1.0429514658802475,2.2473501905632696,,,,,,,,,,,,
31159,0,USNebraskaSeward,Nebraska,Seward,2022-04-28 09:13:11,2021-10-10,0.5190517231001428,1.0429514658802475,2.2473501905632696,,,,,,,,,,,,
31159,0,USNebraskaSeward,Nebraska,Seward,2022-04-28 09:13:11,2021-10-11,0.5190517231001428,1.0429514658802475,2.2473501905632696,,,,,,,,,,,,
31159,0,USNebraskaSeward,Nebraska,Seward,2022-04-28 09:13:11,2021-10-12,0.5190517231001428,1.0429514658802475,2.2473501905632696,,,,,,,,,,,,
31159,0,USNebraskaSeward,Nebraska,Seward,2022-04-28 09:13:11,2021-10-13,0.5190517231001428,1.0429514658802475,2.2473501905632696,,,,,,,,,,,,
31159,0,USNebraskaSeward,Nebraska,Seward,2022-04-28 09:13:11,2021-10-14,0.4573531078285449,0.9493905190569205,2.115810508799463,,,,,,,,,,,,
31159,0,USNebraskaSeward,Nebraska,Seward,2022-04-28 09:13:11,2021-10-15,0.4573531078285449,0.9493905190569205,2.115810508799463,,,,,,,,,,,,
31159,0,USNebraskaSeward,Nebraska,Seward,2022-04-28 09:13:11,2021-10-16,0.4573531078285449,0.9493905190569205,2.115810508799463,,,,,,,,,,,,
31159,0,USNebraskaSeward,Nebraska,Seward,2022-04-28 09:13:11,2021-10-17,0.4573531078285449,0.9493905190569205,2.115810508799463,,,,,,,,,,,,
31159,0,USNebraskaSeward,Nebraska,Seward,2022-04-28 09:13:11,2021-10-18,0.4573531078285449,0.9493905190569205,2.115810508799463,,,,,,,,,,,,
31159,0,USNebraskaSeward,Nebraska,Seward,2022-04-28 09:13:11,2021-10-19,0.4573531078285449,0.9493905190569205,2.115810508799463,,,,,,,,,,,,
31159,0,USNebraskaSeward,Nebraska,Seward,2022-04-28 09:13:11,2021-10-20,0.4573531078285449,0.9493905190569205,2.115810508799463,,,,,,,,,,,,
31159,0,USNebraskaSeward,Nebraska,Seward,2022-04-28 09:13:11,2021-10-21,0.43918805081825385,0.928364771811793,2.1079113897121204,,,,,,,,,,,,
31159,0,USNebraskaSeward,Nebraska,Seward,2022-04-28 09:13:11,2021-10-22,0.43918805081825385,0.928364771811793,2.1079113897121204,,,,,,,,,,,,
31159,0,USNebraskaSeward,Nebraska,Seward,2022-04-28 09:13:11,2021-10-23,0.43918805081825385,0.928364771811793,2.1079113897121204,,,,,,,,,,,,
31159,0,USNebraskaSeward,Nebraska,Seward,2022-04-28 09:13:11,2021-10-24,0.43918805081825385,0.928364771811793,2.1079113897121204,,,,,,,,,,,,
31159,0,USNebraskaSeward,Nebraska,Seward,2022-04-28 09:13:11,2021-10-25,0.43918805081825385,0.928364771811793,2.1079113897121204,,,,,,,,,,,,
31159,0,USNebraskaSeward,Nebraska,Seward,2022-04-28 09:13:11,2021-10-26,0.43918805081825385,0.928364771811793,2.1079113897121204,,,,,,,,,,,,
31159,0,USNebraskaSeward,Nebraska,Seward,2022-04-28 09:13:11,2021-10-27,0.43918805081825385,0.928364771811793,2.1079113897121204,,,,,,,,,,,,
31159,0,USNebraskaSeward,Nebraska,Seward,2022-04-28 09:13:11,2021-10-28,0.5280108448844669,1.1285913502711065,2.5919127451449655,,,,,,,,,,,,
31159,0,USNebraskaSeward,Nebraska,Seward,2022-04-28 09:13:11,2021-10-29,0.5280108448844669,1.1285913502711065,2.5919127451449655,,,,,,,,,,,,
31159,0,USNebraskaSeward,Nebraska,Seward,2022-04-28 09:13:11,2021-10-30,0.5280108448844669,1.1285913502711065,2.5919127451449655,,,,,,,,,,,,
31159,0,USNebraskaSeward,Nebraska,Seward,2022-04-28 09:13:11,2021-10-31,0.5280108448844669,1.1285913502711065,2.5919127451449655,,,,,,,,,,,,
31159,0,USNebraskaSeward,Nebraska,Seward,2022-04-28 09:13:11,2021-11-01,0.5280108448844669,1.1285913502711065,2.5919127451449655,,,,,,,,,,,,
31159,0,USNebraskaSeward,Nebraska,Seward,2022-04-28 09:13:11,2021-11-02,0.5280108448844669,1.1285913502711065,2.5919127451449655,,,,,,,,,,,,
31159,0,USNebraskaSeward,Nebraska,Seward,2022-04-28 09:13:11,2021-11-03,0.5280108448844669,1.1285913502711065,2.5919127451449655,,,,,,,,,,,,
31159,0,USNebraskaSeward,Nebraska,Seward,2022-04-28 09:13:11,2021-11-04,0.6041687100586433,1.2273528969810144,2.674906556332392,,,,,,,,,,,,
31159,0,USNebraskaSeward,Nebraska,Seward,2022-04-28 09:13:11,2021-11-05,0.6041687100586433,1.2273528969810144,2.674906556332392,,,,,,,,,,,,
31159,0,USNebraskaSeward,Nebraska,Seward,2022-04-28 09:13:11,2021-11-06,0.6041687100586433,1.2273528969810144,2.674906556332392,,,,,,,,,,,,
31159,0,USNebraskaSeward,Nebraska,Seward,2022-04-28 09:13:11,2021-11-07,0.6041687100586433,1.2273528969810144,2.674906556332392,,,,,,,,,,,,
31159,0,USNebraskaSeward,Nebraska,Seward,2022-04-28 09:13:11,2021-11-08,0.6041687100586433,1.2273528969810144,2.674906556332392,,,,,,,,,,,,
31159,0,USNebraskaSeward,Nebraska,Seward,2022-04-28 09:13:11,2021-11-09,0.6041687100586433,1.2273528969810144,2.674906556332392,,,,,,,,,,,,
31159,0,USNebraskaSeward,Nebraska,Seward,2022-04-28 09:13:11,2021-11-10,0.6041687100586433,1.2273528969810144,2.674906556332392,,,,,,,,,,,,
31159,0,USNebraskaSeward,Nebraska,Seward,2022-04-28 09:13:11,2021-11-11,0.8119229846257283,1.5541513333754184,3.1835091410112373,,,,,,,,,,,,
31159,0,USNebraskaSeward,Nebraska,Seward,2022-04-28 09:13:11,2021-11-12,0.8119229846257283,1.5541513333754184,3.1835091410112373,,,,,,,,,,,,
31159,0,USNebraskaSeward,Nebraska,Seward,2022-04-28 09:13:11,2021-11-13,0.8119229846257283,1.5541513333754184,3.1835091410112373,,,,,,,,,,,,
31159,0,USNebraskaSeward,Nebraska,Seward,2022-04-28 09:13:11,2021-11-14,0.8119229846257283,1.5541513333754184,3.1835091410112373,,,,,,,,,,,,
31159,0,USNebraskaSeward,Nebraska,Seward,2022-04-28 09:13:11,2021-11-15,0.8119229846257283,1.5541513333754184,3.1835091410112373,,,,,,,,,,,,
31159,0,USNebraskaSeward,Nebraska,Seward,2022-04-28 09:13:11,2021-11-16,0.8119229846257283,1.5541513333754184,3.1835091410112373,,,,,,,,,,,,
31159,0,USNebraskaSeward,Nebraska,Seward,2022-04-28 09:13:11,2021-11-17,0.8119229846257283,1.5541513333754184,3.1835091410112373,,,,,,,,,,,,
31159,0,USNebraskaSeward,Nebraska,Seward,2022-04-28 09:13:11,2021-11-18,0.7711178048161466,1.9473265824251869,5.2918201676036976,,,,,,,,,,,,
31159,0,USNebraskaSeward,Nebraska,Seward,2022-04-28 09:13:11,2021-11-19,0.7711178048161466,1.9473265824251869,5.2918201676036976,,,,,,,,,,,,
31159,0,USNebraskaSeward,Nebraska,Seward,2022-04-28 09:13:11,2021-11-20,0.7711178048161466,1.9473265824251869,5.2918201676036976,,,,,,,,,,,,
31159,0,USNebraskaSeward,Nebraska,Seward,2022-04-28 09:13:11,2021-11-21,0.7711178048161466,1.9473265824251869,5.2918201676036976,,,,,,,,,,,,
31159,0,USNebraskaSeward,Nebraska,Seward,2022-04-28 09:13:11,2021-11-22,0.7711178048161466,1.9473265824251869,5.2918201676036976,,,,,,,,,,,,
31159,0,USNebraskaSeward,Nebraska,Seward,2022-04-28 09:13:11,2021-11-23,0.7711178048161466,1.9473265824251869,5.2918201676036976,,,,,,,,,,,,
31159,0,USNebraskaSeward,Nebraska,Seward,2022-04-28 09:13:11,2021-11-24,0.7711178048161466,1.9473265824251869,5.2918201676036976,,,,,,,,,,,,
31159,0,USNebraskaSeward,Nebraska,Seward,2022-04-28 09:13:11,2021-12-02,1.5687863154607806,4.264298957956209,12.464191285425194,,,,,,,,,,,,
31159,0,USNebraskaSeward,Nebraska,Seward,2022-04-28 09:13:11,2021-12-03,1.5687863154607806,4.264298957956209,12.464191285425194,,,,,,,,,,,,
31159,0,USNebraskaSeward,Nebraska,Seward,2022-04-28 09:13:11,2021-12-04,1.5687863154607806,4.264298957956209,12.464191285425194,,,,,,,,,,,,
31159,0,USNebraskaSeward,Nebraska,Seward,2022-04-28 09:13:11,2021-12-05,1.5687863154607806,4.264298957956209,12.464191285425194,,,,,,,,,,,,
31159,0,USNebraskaSeward,Nebraska,Seward,2022-04-28 09:13:11,2021-12-06,1.5687863154607806,4.264298957956209,12.464191285425194,,,,,,,,,,,,
31159,0,USNebraskaSeward,Nebraska,Seward,2022-04-28 09:13:11,2021-12-07,1.5687863154607806,4.264298957956209,12.464191285425194,,,,,,,,,,,,
31159,0,USNebraskaSeward,Nebraska,Seward,2022-04-28 09:13:11,2021-12-08,1.5687863154607806,4.264298957956209,12.464191285425194,,,,,,,,,,,,
31159,0,USNebraskaSeward,Nebraska,Seward,2022-04-28 09:13:11,2021-12-09,1.1432191989122087,2.0096962306442725,3.7613747879791206,,,,,,,,,,,,
31159,0,USNebraskaSeward,Nebraska,Seward,2022-04-28 09:13:11,2021-12-10,1.1432191989122087,2.0096962306442725,3.7613747879791206,,,,,,,,,,,,
31159,0,USNebraskaSeward,Nebraska,Seward,2022-04-28 09:13:11,2021-12-11,1.1432191989122087,2.0096962306442725,3.7613747879791206,,,,,,,,,,,,
31159,0,USNebraskaSeward,Nebraska,Seward,2022-04-28 09:13:11,2021-12-12,1.1432191989122087,2.0096962306442725,3.7613747879791206,,,,,,,,,,,,
31159,0,USNebraskaSeward,Nebraska,Seward,2022-04-28 09:13:11,2021-12-13,1.1432191989122087,2.0096962306442725,3.7613747879791206,,,,,,,,,,,,
31159,0,USNebraskaSeward,Nebraska,Seward,2022-04-28 09:13:11,2021-12-14,1.1432191989122087,2.0096962306442725,3.7613747879791206,,,,,,,,,,,,
31159,0,USNebraskaSeward,Nebraska,Seward,2022-04-28 09:13:11,2021-12-15,1.1432191989122087,2.0096962306442725,3.7613747879791206,,,,,,,,,,,,
31159,0,USNebraskaSeward,Nebraska,Seward,2022-04-28 09:13:11,2021-12-16,0.9710361776173475,1.718605487534193,3.23994975709774,,,,,,,,,,,,
31159,0,USNebraskaSeward,Nebraska,Seward,2022-04-28 09:13:11,2021-12-17,0.9710361776173475,1.718605487534193,3.23994975709774,,,,,,,,,,,,
31159,0,USNebraskaSeward,Nebraska,Seward,2022-04-28 09:13:11,2021-12-18,0.9710361776173475,1.718605487534193,3.23994975709774,,,,,,,,,,,,
31159,0,USNebraskaSeward,Nebraska,Seward,2022-04-28 09:13:11,2021-12-19,0.9710361776173475,1.718605487534193,3.23994975709774,,,,,,,,,,,,
31159,0,USNebraskaSeward,Nebraska,Seward,2022-04-28 09:13:11,2021-12-20,0.9710361776173475,1.718605487534193,3.23994975709774,,,,,,,,,,,,
31159,0,USNebraskaSeward,Nebraska,Seward,2022-04-28 09:13:11,2021-12-21,0.9710361776173475,1.718605487534193,3.23994975709774,,,,,,,,,,,,
31159,0,USNebraskaSeward,Nebraska,Seward,2022-04-28 09:13:11,2021-12-22,0.9710361776173475,1.718605487534193,3.23994975709774,,,,,,,,,,,,
31159,0,USNebraskaSeward,Nebraska,Seward,2022-04-28 09:13:11,2021-12-23,0.8667943137206573,1.6691241304822433,3.4405011916764088,,,,,,,,,,,,
31159,0,USNebraskaSeward,Nebraska,Seward,2022-04-28 09:13:11,2021-12-24,0.8667943137206573,1.6691241304822433,3.4405011916764088,,,,,,,,,,,,
31159,0,USNebraskaSeward,Nebraska,Seward,2022-04-28 09:13:11,2021-12-25,0.8667943137206573,1.6691241304822433,3.4405011916764088,,,,,,,,,,,,
31159,0,USNebraskaSeward,Nebraska,Seward,2022-04-28 09:13:11,2021-12-26,0.8667943137206573,1.6691241304822433,3.4405011916764088,,,,,,,,,,,,
31159,0,USNebraskaSeward,Nebraska,Seward,2022-04-28 09:13:11,2021-12-27,0.8667943137206573,1.6691241304822433,3.4405011916764088,,,,,,,,,,,,
31159,0,USNebraskaSeward,Nebraska,Seward,2022-04-28 09:13:11,2021-12-28,0.8667943137206573,1.6691241304822433,3.4405011916764088,,,,,,,,,,,,
31159,0,USNebraskaSeward,Nebraska,Seward,2022-04-28 09:13:11,2021-12-29,0.8667943137206573,1.6691241304822433,3.4405011916764088,,,,,,,,,,,,
31159,0,USNebraskaSeward,Nebraska,Seward,2022-04-28 09:13:11,2021-12-30,1.025597514329998,2.0855695120900726,4.550045778271362,,,,,,,,,,,,
31159,0,USNebraskaSeward,Nebraska,Seward,2022-04-28 09:13:11,2021-12-31,1.025597514329998,2.0855695120900726,4.550045778271362,,,,,,,,,,,,
31159,0,USNebraskaSeward,Nebraska,Seward,2022-04-28 09:13:11,2022-01-01,1.025597514329998,2.0855695120900726,4.550045778271362,,,,,,,,,,,,
31159,0,USNebraskaSeward,Nebraska,Seward,2022-04-28 09:13:11,2022-01-02,1.025597514329998,2.0855695120900726,4.550045778271362,,,,,,,,,,,,
31159,0,USNebraskaSeward,Nebraska,Seward,2022-04-28 09:13:11,2022-01-03,1.025597514329998,2.0855695120900726,4.550045778271362,,,,,,,,,,,,
31159,0,USNebraskaSeward,Nebraska,Seward,2022-04-28 09:13:11,2022-01-04,1.025597514329998,2.0855695120900726,4.550045778271362,,,,,,,,,,,,
31159,0,USNebraskaSeward,Nebraska,Seward,2022-04-28 09:13:11,2022-01-05,1.025597514329998,2.0855695120900726,4.550045778271362,,,,,,,,,,,,
31159,0,USNebraskaSeward,Nebraska,Seward,2022-04-28 09:13:11,2022-01-06,1.7276188207705254,3.31631436345408,6.8133082605378075,,,,,,,,,,,,
31159,0,USNebraskaSeward,Nebraska,Seward,2022-04-28 09:13:11,2022-01-07,1.7276188207705254,3.31631436345408,6.8133082605378075,,,,,,,,,,,,
31159,0,USNebraskaSeward,Nebraska,Seward,2022-04-28 09:13:11,2022-01-08,1.7276188207705254,3.31631436345408,6.8133082605378075,,,,,,,,,,,,
31159,0,USNebraskaSeward,Nebraska,Seward,2022-04-28 09:13:11,2022-01-09,1.7276188207705254,3.31631436345408,6.8133082605378075,,,,,,,,,,,,
31159,0,USNebraskaSeward,Nebraska,Seward,2022-04-28 09:13:11,2022-01-10,1.7276188207705254,3.31631436345408,6.8133082605378075,,,,,,,,,,,,
31159,0,USNebraskaSeward,Nebraska,Seward,2022-04-28 09:13:11,2022-01-11,1.7276188207705254,3.31631436345408,6.8133082605378075,,,,,,,,,,,,
31159,0,USNebraskaSeward,Nebraska,Seward,2022-04-28 09:13:11,2022-01-12,1.7276188207705254,3.31631436345408,6.8133082605378075,,,,,,,,,,,,
31159,0,USNebraskaSeward,Nebraska,Seward,2022-04-28 09:13:11,2022-01-13,2.5658331713571623,4.455758235598103,8.230853191061177,,,,,,,,,,,,
31159,0,USNebraskaSeward,Nebraska,Seward,2022-04-28 09:13:11,2022-01-14,2.5658331713571623,4.455758235598103,8.230853191061177,,,,,,,,,,,,
31159,0,USNebraskaSeward,Nebraska,Seward,2022-04-28 09:13:11,2022-01-15,2.5658331713571623,4.455758235598103,8.230853191061177,,,,,,,,,,,,
31159,0,USNebraskaSeward,Nebraska,Seward,2022-04-28 09:13:11,2022-01-16,2.5658331713571623,4.455758235598103,8.230853191061177,,,,,,,,,,,,
31159,0,USNebraskaSeward,Nebraska,Seward,2022-04-28 09:13:11,2022-01-17,2.5658331713571623,4.455758235598103,8.230853191061177,,,,,,,,,,,,
31159,0,USNebraskaSeward,Nebraska,Seward,2022-04-28 09:13:11,2022-01-18,2.5658331713571623,4.455758235598103,8.230853191061177,,,,,,,,,,,,
31159,0,USNebraskaSeward,Nebraska,Seward,2022-04-28 09:13:11,2022-01-19,2.5658331713571623,4.455758235598103,8.230853191061177,,,,,,,,,,,,
31159,0,USNebraskaSeward,Nebraska,Seward,2022-04-28 09:13:11,2022-01-20,2.729155478357821,4.6490288031131755,8.411713741609198,,,,,,,,,,,,
31159,0,USNebraskaSeward,Nebraska,Seward,2022-04-28 09:13:11,2022-01-21,2.729155478357821,4.6490288031131755,8.411713741609198,,,,,,,,,,,,
31159,0,USNebraskaSeward,Nebraska,Seward,2022-04-28 09:13:11,2022-01-22,2.729155478357821,4.6490288031131755,8.411713741609198,,,,,,,,,,,,
31159,0,USNebraskaSeward,Nebraska,Seward,2022-04-28 09:13:11,2022-01-23,2.729155478357821,4.6490288031131755,8.411713741609198,,,,,,,,,,,,
31159,0,USNebraskaSeward,Nebraska,Seward,2022-04-28 09:13:11,2022-01-24,2.729155478357821,4.6490288031131755,8.411713741609198,,,,,,,,,,,,
31159,0,USNebraskaSeward,Nebraska,Seward,2022-04-28 09:13:11,2022-01-25,2.729155478357821,4.6490288031131755,8.411713741609198,,,,,,,,,,,,
31159,0,USNebraskaSeward,Nebraska,Seward,2022-04-28 09:13:11,2022-01-26,2.729155478357821,4.6490288031131755,8.411713741609198,,,,,,,,,,,,
31159,0,USNebraskaSeward,Nebraska,Seward,2022-04-28 09:13:11,2022-01-27,1.5219924533673839,2.907352187736991,5.942549386669708,,,,,,,,,,,,
31159,0,USNebraskaSeward,Nebraska,Seward,2022-04-28 09:13:11,2022-01-28,1.5219924533673839,2.907352187736991,5.942549386669708,,,,,,,,,,,,
31159,0,USNebraskaSeward,Nebraska,Seward,2022-04-28 09:13:11,2022-01-29,1.5219924533673839,2.907352187736991,5.942549386669708,,,,,,,,,,,,
31159,0,USNebraskaSeward,Nebraska,Seward,2022-04-28 09:13:11,2022-01-30,1.5219924533673839,2.907352187736991,5.942549386669708,,,,,,,,,,,,
31159,0,USNebraskaSeward,Nebraska,Seward,2022-04-28 09:13:11,2022-01-31,1.5219924533673839,2.907352187736991,5.942549386669708,,,,,,,,,,,,
31159,0,USNebraskaSeward,Nebraska,Seward,2022-04-28 09:13:11,2022-02-01,1.5219924533673839,2.907352187736991,5.942549386669708,,,,,,,,,,,,
31159,0,USNebraskaSeward,Nebraska,Seward,2022-04-28 09:13:11,2022-02-02,1.5219924533673839,2.907352187736991,5.942549386669708,,,,,,,,,,,,
31159,0,USNebraskaSeward,Nebraska,Seward,2022-04-28 09:13:11,2022-02-03,0.3717128065654586,0.8151123433997088,1.9215944689960944,,,,,,,,,,,,
31159,0,USNebraskaSeward,Nebraska,Seward,2022-04-28 09:13:11,2022-02-04,0.3717128065654586,0.8151123433997088,1.9215944689960944,,,,,,,,,,,,
31159,0,USNebraskaSeward,Nebraska,Seward,2022-04-28 09:13:11,2022-02-05,0.3717128065654586,0.8151123433997088,1.9215944689960944,,,,,,,,,,,,
31159,0,USNebraskaSeward,Nebraska,Seward,2022-04-28 09:13:11,2022-02-06,0.3717128065654586,0.8151123433997088,1.9215944689960944,,,,,,,,,,,,
31159,0,USNebraskaSeward,Nebraska,Seward,2022-04-28 09:13:11,2022-02-07,0.3717128065654586,0.8151123433997088,1.9215944689960944,,,,,,,,,,,,
31159,0,USNebraskaSeward,Nebraska,Seward,2022-04-28 09:13:11,2022-02-08,0.3717128065654586,0.8151123433997088,1.9215944689960944,,,,,,,,,,,,
31159,0,USNebraskaSeward,Nebraska,Seward,2022-04-28 09:13:11,2022-02-09,0.3717128065654586,0.8151123433997088,1.9215944689960944,,,,,,,,,,,,
31159,0,USNebraskaSeward,Nebraska,Seward,2022-04-28 09:13:11,2022-02-10,0.29221197128033016,0.5996830877323963,1.3207639458146898,,,,,,,,,,,,
31159,0,USNebraskaSeward,Nebraska,Seward,2022-04-28 09:13:11,2022-02-11,0.29221197128033016,0.5996830877323963,1.3207639458146898,,,,,,,,,,,,
31159,0,USNebraskaSeward,Nebraska,Seward,2022-04-28 09:13:11,2022-02-12,0.29221197128033016,0.5996830877323963,1.3207639458146898,,,,,,,,,,,,
31159,0,USNebraskaSeward,Nebraska,Seward,2022-04-28 09:13:11,2022-02-13,0.29221197128033016,0.5996830877323963,1.3207639458146898,,,,,,,,,,,,
31159,0,USNebraskaSeward,Nebraska,Seward,2022-04-28 09:13:11,2022-02-14,0.29221197128033016,0.5996830877323963,1.3207639458146898,,,,,,,,,,,,
31159,0,USNebraskaSeward,Nebraska,Seward,2022-04-28 09:13:11,2022-02-15,0.29221197128033016,0.5996830877323963,1.3207639458146898,,,,,,,,,,,,
31159,0,USNebraskaSeward,Nebraska,Seward,2022-04-28 09:13:11,2022-02-16,0.29221197128033016,0.5996830877323963,1.3207639458146898,,,,,,,,,,,,
31159,0,USNebraskaSeward,Nebraska,Seward,2022-04-28 09:13:11,2022-02-17,0.19644698081830372,0.42361236532997787,0.981685558116634,,,,,,,,,,,,
31159,0,USNebraskaSeward,Nebraska,Seward,2022-04-28 09:13:11,2022-02-18,0.19644698081830372,0.42361236532997787,0.981685558116634,,,,,,,,,,,,
31159,0,USNebraskaSeward,Nebraska,Seward,2022-04-28 09:13:11,2022-02-19,0.19644698081830372,0.42361236532997787,0.981685558116634,,,,,,,,,,,,
31159,0,USNebraskaSeward,Nebraska,Seward,2022-04-28 09:13:11,2022-02-20,0.19644698081830372,0.42361236532997787,0.981685558116634,,,,,,,,,,,,
31159,0,USNebraskaSeward,Nebraska,Seward,2022-04-28 09:13:11,2022-02-21,0.19644698081830372,0.42361236532997787,0.981685558116634,,,,,,,,,,,,
31159,0,USNebraskaSeward,Nebraska,Seward,2022-04-28 09:13:11,2022-02-22,0.19644698081830372,0.42361236532997787,0.981685558116634,,,,,,,,,,,,
31159,0,USNebraskaSeward,Nebraska,Seward,2022-04-28 09:13:11,2022-02-23,0.19644698081830372,0.42361236532997787,0.981685558116634,,,,,,,,,,,,
31159,0,USNebraskaSeward,Nebraska,Seward,2022-04-28 09:13:11,2022-02-24,5.5332674606129055,7.673865587604581,11.058992303681787,,,,,,,,,,,,
31159,0,USNebraskaSeward,Nebraska,Seward,2022-04-28 09:13:11,2022-02-25,5.5332674606129055,7.673865587604581,11.058992303681787,,,,,,,,,,,,
31159,0,USNebraskaSeward,Nebraska,Seward,2022-04-28 09:13:11,2022-02-26,5.5332674606129055,7.673865587604581,11.058992303681787,,,,,,,,,,,,
31159,0,USNebraskaSeward,Nebraska,Seward,2022-04-28 09:13:11,2022-02-27,5.5332674606129055,7.673865587604581,11.058992303681787,,,,,,,,,,,,
31159,0,USNebraskaSeward,Nebraska,Seward,2022-04-28 09:13:11,2022-02-28,5.5332674606129055,7.673865587604581,11.058992303681787,,,,,,,,,,,,
31159,0,USNebraskaSeward,Nebraska,Seward,2022-04-28 09:13:11,2022-03-01,5.5332674606129055,7.673865587604581,11.058992303681787,,,,,,,,,,,,
31159,0,USNebraskaSeward,Nebraska,Seward,2022-04-28 09:13:11,2022-03-02,5.5332674606129055,7.673865587604581,11.058992303681787,,,,,,,,,,,,
31159,0,USNebraskaSeward,Nebraska,Seward,2022-04-28 09:13:11,2022-03-03,0.14350520223287072,0.315748932513869,0.746927499778259,,,,,,,,,,,,
31159,0,USNebraskaSeward,Nebraska,Seward,2022-04-28 09:13:11,2022-03-04,0.14350520223287072,0.315748932513869,0.746927499778259,,,,,,,,,,,,
31159,0,USNebraskaSeward,Nebraska,Seward,2022-04-28 09:13:11,2022-03-05,0.14350520223287072,0.315748932513869,0.746927499778259,,,,,,,,,,,,
31159,0,USNebraskaSeward,Nebraska,Seward,2022-04-28 09:13:11,2022-03-06,0.14350520223287072,0.315748932513869,0.746927499778259,,,,,,,,,,,,
31159,0,USNebraskaSeward,Nebraska,Seward,2022-04-28 09:13:11,2022-03-07,0.14350520223287072,0.315748932513869,0.746927499778259,,,,,,,,,,,,
31159,0,USNebraskaSeward,Nebraska,Seward,2022-04-28 09:13:11,2022-03-08,0.14350520223287072,0.315748932513869,0.746927499778259,,,,,,,,,,,,
31159,0,USNebraskaSeward,Nebraska,Seward,2022-04-28 09:13:11,2022-03-09,0.14350520223287072,0.315748932513869,0.746927499778259,,,,,,,,,,,,
31159,0,USNebraskaSeward,Nebraska,Seward,2022-04-28 09:13:11,2022-03-10,0,0,0,,,,,,,,,,,,
31159,0,USNebraskaSeward,Nebraska,Seward,2022-04-28 09:13:11,2022-03-11,0,0,0,,,,,,,,,,,,
31159,0,USNebraskaSeward,Nebraska,Seward,2022-04-28 09:13:11,2022-03-12,0,0,0,,,,,,,,,,,,
31159,0,USNebraskaSeward,Nebraska,Seward,2022-04-28 09:13:11,2022-03-13,0,0,0,,,,,,,,,,,,
31159,0,USNebraskaSeward,Nebraska,Seward,2022-04-28 09:13:11,2022-03-14,0,0,0,,,,,,,,,,,,
31159,0,USNebraskaSeward,Nebraska,Seward,2022-04-28 09:13:11,2022-03-15,0,0,0,,,,,,,,,,,,
31159,0,USNebraskaSeward,Nebraska,Seward,2022-04-28 09:13:11,2022-03-16,0,0,0,,,,,,,,,,,,
31159,0,USNebraskaSeward,Nebraska,Seward,2022-04-28 09:13:11,2022-03-17,0.03186464049278293,0.07694736910846453,0.19996471493170018,,,,,,,,,,,,
31159,0,USNebraskaSeward,Nebraska,Seward,2022-04-28 09:13:11,2022-03-18,0.03186464049278293,0.07694736910846453,0.19996471493170018,,,,,,,,,,,,
31159,0,USNebraskaSeward,Nebraska,Seward,2022-04-28 09:13:11,2022-03-19,0.03186464049278293,0.07694736910846453,0.19996471493170018,,,,,,,,,,,,
31159,0,USNebraskaSeward,Nebraska,Seward,2022-04-28 09:13:11,2022-03-20,0.03186464049278293,0.07694736910846453,0.19996471493170018,,,,,,,,,,,,
31159,0,USNebraskaSeward,Nebraska,Seward,2022-04-28 09:13:11,2022-03-21,0.03186464049278293,0.07694736910846453,0.19996471493170018,,,,,,,,,,,,
31159,0,USNebraskaSeward,Nebraska,Seward,2022-04-28 09:13:11,2022-03-22,0.03186464049278293,0.07694736910846453,0.19996471493170018,,,,,,,,,,,,
31159,0,USNebraskaSeward,Nebraska,Seward,2022-04-28 09:13:11,2022-03-23,0.03186464049278293,0.07694736910846453,0.19996471493170018,,,,,,,,,,,,
31159,0,USNebraskaSeward,Nebraska,Seward,2022-04-28 09:13:11,2022-03-24,0.2609030862644005,0.48298394348856055,0.9550891563650018,,,,,,,,,,,,
31159,0,USNebraskaSeward,Nebraska,Seward,2022-04-28 09:13:11,2022-03-25,0.2609030862644005,0.48298394348856055,0.9550891563650018,,,,,,,,,,,,
31159,0,USNebraskaSeward,Nebraska,Seward,2022-04-28 09:13:11,2022-03-26,0.2609030862644005,0.48298394348856055,0.9550891563650018,,,,,,,,,,,,
31159,0,USNebraskaSeward,Nebraska,Seward,2022-04-28 09:13:11,2022-03-27,0.2609030862644005,0.48298394348856055,0.9550891563650018,,,,,,,,,,,,
31159,0,USNebraskaSeward,Nebraska,Seward,2022-04-28 09:13:11,2022-03-28,0.2609030862644005,0.48298394348856055,0.9550891563650018,,,,,,,,,,,,
31159,0,USNebraskaSeward,Nebraska,Seward,2022-04-28 09:13:11,2022-03-29,0.2609030862644005,0.48298394348856055,0.9550891563650018,,,,,,,,,,,,
31159,0,USNebraskaSeward,Nebraska,Seward,2022-04-28 09:13:11,2022-03-30,0.2609030862644005,0.48298394348856055,0.9550891563650018,,,,,,,,,,,,
31159,0,USNebraskaSeward,Nebraska,Seward,2022-04-28 09:13:11,2022-03-31,0.18137675470968356,0.36391747469682234,0.7829847043460603,,,,,,,,,,,,
31159,0,USNebraskaSeward,Nebraska,Seward,2022-04-28 09:13:11,2022-04-01,0.18137675470968356,0.36391747469682234,0.7829847043460603,,,,,,,,,,,,
31159,0,USNebraskaSeward,Nebraska,Seward,2022-04-28 09:13:11,2022-04-02,0.18137675470968356,0.36391747469682234,0.7829847043460603,,,,,,,,,,,,
31159,0,USNebraskaSeward,Nebraska,Seward,2022-04-28 09:13:11,2022-04-03,0.18137675470968356,0.36391747469682234,0.7829847043460603,,,,,,,,,,,,
31159,0,USNebraskaSeward,Nebraska,Seward,2022-04-28 09:13:11,2022-04-04,0.18137675470968356,0.36391747469682234,0.7829847043460603,,,,,,,,,,,,
31159,0,USNebraskaSeward,Nebraska,Seward,2022-04-28 09:13:11,2022-04-05,0.18137675470968356,0.36391747469682234,0.7829847043460603,,,,,,,,,,,,
31159,0,USNebraskaSeward,Nebraska,Seward,2022-04-28 09:13:11,2022-04-06,0.18137675470968356,0.36391747469682234,0.7829847043460603,,,,,,,,,,,,
31159,0,USNebraskaSeward,Nebraska,Seward,2022-04-28 09:13:11,2022-04-07,0,0,0,,,,,,,,,,,,
31159,0,USNebraskaSeward,Nebraska,Seward,2022-04-28 09:13:11,2022-04-08,0,0,0,,,,,,,,,,,,
31159,0,USNebraskaSeward,Nebraska,Seward,2022-04-28 09:13:11,2022-04-09,0,0,0,,,,,,,,,,,,
31159,0,USNebraskaSeward,Nebraska,Seward,2022-04-28 09:13:11,2022-04-10,0,0,0,,,,,,,,,,,,
31159,0,USNebraskaSeward,Nebraska,Seward,2022-04-28 09:13:11,2022-04-11,0,0,0,,,,,,,,,,,,
31159,0,USNebraskaSeward,Nebraska,Seward,2022-04-28 09:13:11,2022-04-12,0,0,0,,,,,,,,,,,,
31159,0,USNebraskaSeward,Nebraska,Seward,2022-04-28 09:13:11,2022-04-13,0,0,0,,,,,,,,,,,,
31159,0,USNebraskaSeward,Nebraska,Seward,2022-04-28 09:13:11,2022-04-14,0.1353668609341302,0.2826047775488909,0.6335192785518098,,,,,,,,,,,,
31159,0,USNebraskaSeward,Nebraska,Seward,2022-04-28 09:13:11,2022-04-15,0.1353668609341302,0.2826047775488909,0.6335192785518098,,,,,,,,,,,,
31159,0,USNebraskaSeward,Nebraska,Seward,2022-04-28 09:13:11,2022-04-16,0.1353668609341302,0.2826047775488909,0.6335192785518098,,,,,,,,,,,,
31159,0,USNebraskaSeward,Nebraska,Seward,2022-04-28 09:13:11,2022-04-17,0.1353668609341302,0.2826047775488909,0.6335192785518098,,,,,,,,,,,,
31159,0,USNebraskaSeward,Nebraska,Seward,2022-04-28 09:13:11,2022-04-18,0.1353668609341302,0.2826047775488909,0.6335192785518098,,,,,,,,,,,,
31159,0,USNebraskaSeward,Nebraska,Seward,2022-04-28 09:13:11,2022-04-19,0.1353668609341302,0.2826047775488909,0.6335192785518098,,,,,,,,,,,,
31159,0,USNebraskaSeward,Nebraska,Seward,2022-04-28 09:13:11,2022-04-20,0.1353668609341302,0.2826047775488909,0.6335192785518098,,,,,,,,,,,,
31159,0,USNebraskaSeward,Nebraska,Seward,2022-04-28 09:13:11,2022-04-21,1.1471250881521324,2.6404192474958053,6.538547896180267,,,,,,,,,,,,
31159,0,USNebraskaSeward,Nebraska,Seward,2022-04-28 09:13:11,2022-04-22,1.1471250881521324,2.6404192474958053,6.538547896180267,,,,,,,,,,,,
31159,0,USNebraskaSeward,Nebraska,Seward,2022-04-28 09:13:11,2022-04-23,1.1471250881521324,2.6404192474958053,6.538547896180267,,,,,,,,,,,,
31159,0,USNebraskaSeward,Nebraska,Seward,2022-04-28 09:13:11,2022-04-24,1.1471250881521324,2.6404192474958053,6.538547896180267,,,,,,,,,,,,
31159,0,USNebraskaSeward,Nebraska,Seward,2022-04-28 09:13:11,2022-04-25,1.1471250881521324,2.6404192474958053,6.538547896180267,,,,,,,,,,,,
31159,0,USNebraskaSeward,Nebraska,Seward,2022-04-28 09:13:11,2022-04-26,1.1471250881521324,2.6404192474958053,6.538547896180267,,,,,,,,,,,,
31159,0,USNebraskaSeward,Nebraska,Seward,2022-04-28 09:13:11,2022-04-27,1.1471250881521324,2.6404192474958053,6.538547896180267,,,,,,,,,,,,
