FIPS,HR_UID,nameid,province,region,analysisTime,dates,pointprevalence_025,pointprevalence_50,pointprevalence_975,pointinfections_025,pointinfections_50,pointinfections_975,pointinfectious_025,pointinfectious_50,pointinfectious_975,pointinfectiousprevalence_025,pointinfectiousprevalence_50,pointinfectiousprevalence_975,infectrate_025,infectrate_50,infectrate_975
32021,0,USNevadaMineral,Nevada,Mineral,2022-04-28 09:13:11,2020-03-19,0,0,0,,,,,,,,,,,,
32021,0,USNevadaMineral,Nevada,Mineral,2022-04-28 09:13:11,2020-03-20,0,0,0,,,,,,,,,,,,
32021,0,USNevadaMineral,Nevada,Mineral,2022-04-28 09:13:11,2020-03-21,0,0,0,,,,,,,,,,,,
32021,0,USNevadaMineral,Nevada,Mineral,2022-04-28 09:13:11,2020-03-22,0,0,0,,,,,,,,,,,,
32021,0,USNevadaMineral,Nevada,Mineral,2022-04-28 09:13:11,2020-03-23,0,0,0,,,,,,,,,,,,
32021,0,USNevadaMineral,Nevada,Mineral,2022-04-28 09:13:11,2020-03-24,0,0,0,,,,,,,,,,,,
32021,0,USNevadaMineral,Nevada,Mineral,2022-04-28 09:13:11,2020-03-25,0,0,0,,,,,,,,,,,,
32021,0,USNevadaMineral,Nevada,Mineral,2022-04-28 09:13:11,2020-03-26,0,0,0,,,,,,,,,,,,
32021,0,USNevadaMineral,Nevada,Mineral,2022-04-28 09:13:11,2020-03-27,0,0,0,,,,,,,,,,,,
32021,0,USNevadaMineral,Nevada,Mineral,2022-04-28 09:13:11,2020-03-28,0,0,0,,,,,,,,,,,,
32021,0,USNevadaMineral,Nevada,Mineral,2022-04-28 09:13:11,2020-03-29,0,0,0,,,,,,,,,,,,
32021,0,USNevadaMineral,Nevada,Mineral,2022-04-28 09:13:11,2020-03-30,0,0,0,,,,,,,,,,,,
32021,0,USNevadaMineral,Nevada,Mineral,2022-04-28 09:13:11,2020-03-31,0,0,0,,,,,,,,,,,,
32021,0,USNevadaMineral,Nevada,Mineral,2022-04-28 09:13:11,2020-04-01,0,0,0,,,,,,,,,,,,
32021,0,USNevadaMineral,Nevada,Mineral,2022-04-28 09:13:11,2020-04-02,0,0,0,,,,,,,,,,,,
32021,0,USNevadaMineral,Nevada,Mineral,2022-04-28 09:13:11,2020-04-03,0,0,0,,,,,,,,,,,,
32021,0,USNevadaMineral,Nevada,Mineral,2022-04-28 09:13:11,2020-04-04,0,0,0,,,,,,,,,,,,
32021,0,USNevadaMineral,Nevada,Mineral,2022-04-28 09:13:11,2020-04-05,0,0,0,,,,,,,,,,,,
32021,0,USNevadaMineral,Nevada,Mineral,2022-04-28 09:13:11,2020-04-06,0,0,0,,,,,,,,,,,,
32021,0,USNevadaMineral,Nevada,Mineral,2022-04-28 09:13:11,2020-04-07,0,0,0,,,,,,,,,,,,
32021,0,USNevadaMineral,Nevada,Mineral,2022-04-28 09:13:11,2020-04-08,0,0,0,,,,,,,,,,,,
32021,0,USNevadaMineral,Nevada,Mineral,2022-04-28 09:13:11,2020-04-09,0,0,0,,,,,,,,,,,,
32021,0,USNevadaMineral,Nevada,Mineral,2022-04-28 09:13:11,2020-04-10,0,0,0,,,,,,,,,,,,
32021,0,USNevadaMineral,Nevada,Mineral,2022-04-28 09:13:11,2020-04-11,0,0,0,,,,,,,,,,,,
32021,0,USNevadaMineral,Nevada,Mineral,2022-04-28 09:13:11,2020-04-12,0,0,0,,,,,,,,,,,,
32021,0,USNevadaMineral,Nevada,Mineral,2022-04-28 09:13:11,2020-04-13,0,0,0,,,,,,,,,,,,
32021,0,USNevadaMineral,Nevada,Mineral,2022-04-28 09:13:11,2020-04-14,0,0,0,,,,,,,,,,,,
32021,0,USNevadaMineral,Nevada,Mineral,2022-04-28 09:13:11,2020-04-15,0,0,0,,,,,,,,,,,,
32021,0,USNevadaMineral,Nevada,Mineral,2022-04-28 09:13:11,2020-04-16,0.2673178194109095,0.6980778796991322,1.9612082062164429,,,,,,,,,,,,
32021,0,USNevadaMineral,Nevada,Mineral,2022-04-28 09:13:11,2020-04-17,0.2673178194109095,0.6980778796991322,1.9612082062164429,,,,,,,,,,,,
32021,0,USNevadaMineral,Nevada,Mineral,2022-04-28 09:13:11,2020-04-18,0.2673178194109095,0.6980778796991322,1.9612082062164429,,,,,,,,,,,,
32021,0,USNevadaMineral,Nevada,Mineral,2022-04-28 09:13:11,2020-04-19,0.2673178194109095,0.6980778796991322,1.9612082062164429,,,,,,,,,,,,
32021,0,USNevadaMineral,Nevada,Mineral,2022-04-28 09:13:11,2020-04-20,0.2673178194109095,0.6980778796991322,1.9612082062164429,,,,,,,,,,,,
32021,0,USNevadaMineral,Nevada,Mineral,2022-04-28 09:13:11,2020-04-21,0.2673178194109095,0.6980778796991322,1.9612082062164429,,,,,,,,,,,,
32021,0,USNevadaMineral,Nevada,Mineral,2022-04-28 09:13:11,2020-04-22,0.2673178194109095,0.6980778796991322,1.9612082062164429,,,,,,,,,,,,
32021,0,USNevadaMineral,Nevada,Mineral,2022-04-28 09:13:11,2020-04-23,0.2801973789558403,0.7622276638641626,2.2296310032356486,,,,,,,,,,,,
32021,0,USNevadaMineral,Nevada,Mineral,2022-04-28 09:13:11,2020-04-24,0.2801973789558403,0.7622276638641626,2.2296310032356486,,,,,,,,,,,,
32021,0,USNevadaMineral,Nevada,Mineral,2022-04-28 09:13:11,2020-04-25,0.2801973789558403,0.7622276638641626,2.2296310032356486,,,,,,,,,,,,
32021,0,USNevadaMineral,Nevada,Mineral,2022-04-28 09:13:11,2020-04-26,0.2801973789558403,0.7622276638641626,2.2296310032356486,,,,,,,,,,,,
32021,0,USNevadaMineral,Nevada,Mineral,2022-04-28 09:13:11,2020-04-27,0.2801973789558403,0.7622276638641626,2.2296310032356486,,,,,,,,,,,,
32021,0,USNevadaMineral,Nevada,Mineral,2022-04-28 09:13:11,2020-04-28,0.2801973789558403,0.7622276638641626,2.2296310032356486,,,,,,,,,,,,
32021,0,USNevadaMineral,Nevada,Mineral,2022-04-28 09:13:11,2020-04-29,0.2801973789558403,0.7622276638641626,2.2296310032356486,,,,,,,,,,,,
32021,0,USNevadaMineral,Nevada,Mineral,2022-04-28 09:13:11,2020-04-30,0,0,0,,,,,,,,,,,,
32021,0,USNevadaMineral,Nevada,Mineral,2022-04-28 09:13:11,2020-05-01,0,0,0,,,,,,,,,,,,
32021,0,USNevadaMineral,Nevada,Mineral,2022-04-28 09:13:11,2020-05-02,0,0,0,,,,,,,,,,,,
32021,0,USNevadaMineral,Nevada,Mineral,2022-04-28 09:13:11,2020-05-03,0,0,0,,,,,,,,,,,,
32021,0,USNevadaMineral,Nevada,Mineral,2022-04-28 09:13:11,2020-05-04,0,0,0,,,,,,,,,,,,
32021,0,USNevadaMineral,Nevada,Mineral,2022-04-28 09:13:11,2020-05-05,0,0,0,,,,,,,,,,,,
32021,0,USNevadaMineral,Nevada,Mineral,2022-04-28 09:13:11,2020-05-06,0,0,0,,,,,,,,,,,,
32021,0,USNevadaMineral,Nevada,Mineral,2022-04-28 09:13:11,2020-05-07,0,0,0,,,,,,,,,,,,
32021,0,USNevadaMineral,Nevada,Mineral,2022-04-28 09:13:11,2020-05-08,0,0,0,,,,,,,,,,,,
32021,0,USNevadaMineral,Nevada,Mineral,2022-04-28 09:13:11,2020-05-09,0,0,0,,,,,,,,,,,,
32021,0,USNevadaMineral,Nevada,Mineral,2022-04-28 09:13:11,2020-05-10,0,0,0,,,,,,,,,,,,
32021,0,USNevadaMineral,Nevada,Mineral,2022-04-28 09:13:11,2020-05-11,0,0,0,,,,,,,,,,,,
32021,0,USNevadaMineral,Nevada,Mineral,2022-04-28 09:13:11,2020-05-12,0,0,0,,,,,,,,,,,,
32021,0,USNevadaMineral,Nevada,Mineral,2022-04-28 09:13:11,2020-05-13,0,0,0,,,,,,,,,,,,
32021,0,USNevadaMineral,Nevada,Mineral,2022-04-28 09:13:11,2020-05-14,0,0,0,,,,,,,,,,,,
32021,0,USNevadaMineral,Nevada,Mineral,2022-04-28 09:13:11,2020-05-15,0,0,0,,,,,,,,,,,,
32021,0,USNevadaMineral,Nevada,Mineral,2022-04-28 09:13:11,2020-05-16,0,0,0,,,,,,,,,,,,
32021,0,USNevadaMineral,Nevada,Mineral,2022-04-28 09:13:11,2020-05-17,0,0,0,,,,,,,,,,,,
32021,0,USNevadaMineral,Nevada,Mineral,2022-04-28 09:13:11,2020-05-18,0,0,0,,,,,,,,,,,,
32021,0,USNevadaMineral,Nevada,Mineral,2022-04-28 09:13:11,2020-05-19,0,0,0,,,,,,,,,,,,
32021,0,USNevadaMineral,Nevada,Mineral,2022-04-28 09:13:11,2020-05-20,0,0,0,,,,,,,,,,,,
32021,0,USNevadaMineral,Nevada,Mineral,2022-04-28 09:13:11,2020-05-21,0,0,0,,,,,,,,,,,,
32021,0,USNevadaMineral,Nevada,Mineral,2022-04-28 09:13:11,2020-05-22,0,0,0,,,,,,,,,,,,
32021,0,USNevadaMineral,Nevada,Mineral,2022-04-28 09:13:11,2020-05-23,0,0,0,,,,,,,,,,,,
32021,0,USNevadaMineral,Nevada,Mineral,2022-04-28 09:13:11,2020-05-24,0,0,0,,,,,,,,,,,,
32021,0,USNevadaMineral,Nevada,Mineral,2022-04-28 09:13:11,2020-05-25,0,0,0,,,,,,,,,,,,
32021,0,USNevadaMineral,Nevada,Mineral,2022-04-28 09:13:11,2020-05-26,0,0,0,,,,,,,,,,,,
32021,0,USNevadaMineral,Nevada,Mineral,2022-04-28 09:13:11,2020-05-27,0,0,0,,,,,,,,,,,,
32021,0,USNevadaMineral,Nevada,Mineral,2022-04-28 09:13:11,2020-05-28,0,0,0,,,,,,,,,,,,
32021,0,USNevadaMineral,Nevada,Mineral,2022-04-28 09:13:11,2020-05-29,0,0,0,,,,,,,,,,,,
32021,0,USNevadaMineral,Nevada,Mineral,2022-04-28 09:13:11,2020-05-30,0,0,0,,,,,,,,,,,,
32021,0,USNevadaMineral,Nevada,Mineral,2022-04-28 09:13:11,2020-05-31,0,0,0,,,,,,,,,,,,
32021,0,USNevadaMineral,Nevada,Mineral,2022-04-28 09:13:11,2020-06-01,0,0,0,,,,,,,,,,,,
32021,0,USNevadaMineral,Nevada,Mineral,2022-04-28 09:13:11,2020-06-02,0,0,0,,,,,,,,,,,,
32021,0,USNevadaMineral,Nevada,Mineral,2022-04-28 09:13:11,2020-06-03,0,0,0,,,,,,,,,,,,
32021,0,USNevadaMineral,Nevada,Mineral,2022-04-28 09:13:11,2020-06-04,0,0,0,,,,,,,,,,,,
32021,0,USNevadaMineral,Nevada,Mineral,2022-04-28 09:13:11,2020-06-05,0,0,0,,,,,,,,,,,,
32021,0,USNevadaMineral,Nevada,Mineral,2022-04-28 09:13:11,2020-06-06,0,0,0,,,,,,,,,,,,
32021,0,USNevadaMineral,Nevada,Mineral,2022-04-28 09:13:11,2020-06-07,0,0,0,,,,,,,,,,,,
32021,0,USNevadaMineral,Nevada,Mineral,2022-04-28 09:13:11,2020-06-08,0,0,0,,,,,,,,,,,,
32021,0,USNevadaMineral,Nevada,Mineral,2022-04-28 09:13:11,2020-06-09,0,0,0,,,,,,,,,,,,
32021,0,USNevadaMineral,Nevada,Mineral,2022-04-28 09:13:11,2020-06-10,0,0,0,,,,,,,,,,,,
32021,0,USNevadaMineral,Nevada,Mineral,2022-04-28 09:13:11,2020-06-11,0,0,0,,,,,,,,,,,,
32021,0,USNevadaMineral,Nevada,Mineral,2022-04-28 09:13:11,2020-06-12,0,0,0,,,,,,,,,,,,
32021,0,USNevadaMineral,Nevada,Mineral,2022-04-28 09:13:11,2020-06-13,0,0,0,,,,,,,,,,,,
32021,0,USNevadaMineral,Nevada,Mineral,2022-04-28 09:13:11,2020-06-14,0,0,0,,,,,,,,,,,,
32021,0,USNevadaMineral,Nevada,Mineral,2022-04-28 09:13:11,2020-06-15,0,0,0,,,,,,,,,,,,
32021,0,USNevadaMineral,Nevada,Mineral,2022-04-28 09:13:11,2020-06-16,0,0,0,,,,,,,,,,,,
32021,0,USNevadaMineral,Nevada,Mineral,2022-04-28 09:13:11,2020-06-17,0,0,0,,,,,,,,,,,,
32021,0,USNevadaMineral,Nevada,Mineral,2022-04-28 09:13:11,2020-06-18,0,0,0,,,,,,,,,,,,
32021,0,USNevadaMineral,Nevada,Mineral,2022-04-28 09:13:11,2020-06-19,0,0,0,,,,,,,,,,,,
32021,0,USNevadaMineral,Nevada,Mineral,2022-04-28 09:13:11,2020-06-20,0,0,0,,,,,,,,,,,,
32021,0,USNevadaMineral,Nevada,Mineral,2022-04-28 09:13:11,2020-06-21,0,0,0,,,,,,,,,,,,
32021,0,USNevadaMineral,Nevada,Mineral,2022-04-28 09:13:11,2020-06-22,0,0,0,,,,,,,,,,,,
32021,0,USNevadaMineral,Nevada,Mineral,2022-04-28 09:13:11,2020-06-23,0,0,0,,,,,,,,,,,,
32021,0,USNevadaMineral,Nevada,Mineral,2022-04-28 09:13:11,2020-06-24,0,0,0,,,,,,,,,,,,
32021,0,USNevadaMineral,Nevada,Mineral,2022-04-28 09:13:11,2020-06-25,0.15054736579079847,0.43567824898237,1.3542313563213253,,,,,,,,,,,,
32021,0,USNevadaMineral,Nevada,Mineral,2022-04-28 09:13:11,2020-06-26,0.15054736579079847,0.43567824898237,1.3542313563213253,,,,,,,,,,,,
32021,0,USNevadaMineral,Nevada,Mineral,2022-04-28 09:13:11,2020-06-27,0.15054736579079847,0.43567824898237,1.3542313563213253,,,,,,,,,,,,
32021,0,USNevadaMineral,Nevada,Mineral,2022-04-28 09:13:11,2020-06-28,0.15054736579079847,0.43567824898237,1.3542313563213253,,,,,,,,,,,,
32021,0,USNevadaMineral,Nevada,Mineral,2022-04-28 09:13:11,2020-06-29,0.15054736579079847,0.43567824898237,1.3542313563213253,,,,,,,,,,,,
32021,0,USNevadaMineral,Nevada,Mineral,2022-04-28 09:13:11,2020-06-30,0.15054736579079847,0.43567824898237,1.3542313563213253,,,,,,,,,,,,
32021,0,USNevadaMineral,Nevada,Mineral,2022-04-28 09:13:11,2020-07-01,0.15054736579079847,0.43567824898237,1.3542313563213253,,,,,,,,,,,,
32021,0,USNevadaMineral,Nevada,Mineral,2022-04-28 09:13:11,2020-07-02,0,0,0,,,,,,,,,,,,
32021,0,USNevadaMineral,Nevada,Mineral,2022-04-28 09:13:11,2020-07-03,0,0,0,,,,,,,,,,,,
32021,0,USNevadaMineral,Nevada,Mineral,2022-04-28 09:13:11,2020-07-04,0,0,0,,,,,,,,,,,,
32021,0,USNevadaMineral,Nevada,Mineral,2022-04-28 09:13:11,2020-07-05,0,0,0,,,,,,,,,,,,
32021,0,USNevadaMineral,Nevada,Mineral,2022-04-28 09:13:11,2020-07-06,0,0,0,,,,,,,,,,,,
32021,0,USNevadaMineral,Nevada,Mineral,2022-04-28 09:13:11,2020-07-07,0,0,0,,,,,,,,,,,,
32021,0,USNevadaMineral,Nevada,Mineral,2022-04-28 09:13:11,2020-07-08,0,0,0,,,,,,,,,,,,
32021,0,USNevadaMineral,Nevada,Mineral,2022-04-28 09:13:11,2020-07-09,0.34861733450291593,0.8048268850827442,1.9990114562290329,,,,,,,,,,,,
32021,0,USNevadaMineral,Nevada,Mineral,2022-04-28 09:13:11,2020-07-10,0.34861733450291593,0.8048268850827442,1.9990114562290329,,,,,,,,,,,,
32021,0,USNevadaMineral,Nevada,Mineral,2022-04-28 09:13:11,2020-07-11,0.34861733450291593,0.8048268850827442,1.9990114562290329,,,,,,,,,,,,
32021,0,USNevadaMineral,Nevada,Mineral,2022-04-28 09:13:11,2020-07-12,0.34861733450291593,0.8048268850827442,1.9990114562290329,,,,,,,,,,,,
32021,0,USNevadaMineral,Nevada,Mineral,2022-04-28 09:13:11,2020-07-13,0.34861733450291593,0.8048268850827442,1.9990114562290329,,,,,,,,,,,,
32021,0,USNevadaMineral,Nevada,Mineral,2022-04-28 09:13:11,2020-07-14,0.34861733450291593,0.8048268850827442,1.9990114562290329,,,,,,,,,,,,
32021,0,USNevadaMineral,Nevada,Mineral,2022-04-28 09:13:11,2020-07-15,0.34861733450291593,0.8048268850827442,1.9990114562290329,,,,,,,,,,,,
32021,0,USNevadaMineral,Nevada,Mineral,2022-04-28 09:13:11,2020-07-16,0.27925478563868517,0.7574516128243921,2.2093030755858956,,,,,,,,,,,,
32021,0,USNevadaMineral,Nevada,Mineral,2022-04-28 09:13:11,2020-07-17,0.27925478563868517,0.7574516128243921,2.2093030755858956,,,,,,,,,,,,
32021,0,USNevadaMineral,Nevada,Mineral,2022-04-28 09:13:11,2020-07-18,0.27925478563868517,0.7574516128243921,2.2093030755858956,,,,,,,,,,,,
32021,0,USNevadaMineral,Nevada,Mineral,2022-04-28 09:13:11,2020-07-19,0.27925478563868517,0.7574516128243921,2.2093030755858956,,,,,,,,,,,,
32021,0,USNevadaMineral,Nevada,Mineral,2022-04-28 09:13:11,2020-07-20,0.27925478563868517,0.7574516128243921,2.2093030755858956,,,,,,,,,,,,
32021,0,USNevadaMineral,Nevada,Mineral,2022-04-28 09:13:11,2020-07-21,0.27925478563868517,0.7574516128243921,2.2093030755858956,,,,,,,,,,,,
32021,0,USNevadaMineral,Nevada,Mineral,2022-04-28 09:13:11,2020-07-22,0.27925478563868517,0.7574516128243921,2.2093030755858956,,,,,,,,,,,,
32021,0,USNevadaMineral,Nevada,Mineral,2022-04-28 09:13:11,2020-07-23,0.16948914873660764,0.5423050583487421,1.8587709212153631,,,,,,,,,,,,
32021,0,USNevadaMineral,Nevada,Mineral,2022-04-28 09:13:11,2020-07-24,0.16948914873660764,0.5423050583487421,1.8587709212153631,,,,,,,,,,,,
32021,0,USNevadaMineral,Nevada,Mineral,2022-04-28 09:13:11,2020-07-25,0.16948914873660764,0.5423050583487421,1.8587709212153631,,,,,,,,,,,,
32021,0,USNevadaMineral,Nevada,Mineral,2022-04-28 09:13:11,2020-07-26,0.16948914873660764,0.5423050583487421,1.8587709212153631,,,,,,,,,,,,
32021,0,USNevadaMineral,Nevada,Mineral,2022-04-28 09:13:11,2020-07-27,0.16948914873660764,0.5423050583487421,1.8587709212153631,,,,,,,,,,,,
32021,0,USNevadaMineral,Nevada,Mineral,2022-04-28 09:13:11,2020-07-28,0.16948914873660764,0.5423050583487421,1.8587709212153631,,,,,,,,,,,,
32021,0,USNevadaMineral,Nevada,Mineral,2022-04-28 09:13:11,2020-07-29,0.16948914873660764,0.5423050583487421,1.8587709212153631,,,,,,,,,,,,
32021,0,USNevadaMineral,Nevada,Mineral,2022-04-28 09:13:11,2020-07-30,0,0,0,,,,,,,,,,,,
32021,0,USNevadaMineral,Nevada,Mineral,2022-04-28 09:13:11,2020-07-31,0,0,0,,,,,,,,,,,,
32021,0,USNevadaMineral,Nevada,Mineral,2022-04-28 09:13:11,2020-08-01,0,0,0,,,,,,,,,,,,
32021,0,USNevadaMineral,Nevada,Mineral,2022-04-28 09:13:11,2020-08-02,0,0,0,,,,,,,,,,,,
32021,0,USNevadaMineral,Nevada,Mineral,2022-04-28 09:13:11,2020-08-03,0,0,0,,,,,,,,,,,,
32021,0,USNevadaMineral,Nevada,Mineral,2022-04-28 09:13:11,2020-08-04,0,0,0,,,,,,,,,,,,
32021,0,USNevadaMineral,Nevada,Mineral,2022-04-28 09:13:11,2020-08-05,0,0,0,,,,,,,,,,,,
32021,0,USNevadaMineral,Nevada,Mineral,2022-04-28 09:13:11,2020-08-06,0,0,0,,,,,,,,,,,,
32021,0,USNevadaMineral,Nevada,Mineral,2022-04-28 09:13:11,2020-08-07,0,0,0,,,,,,,,,,,,
32021,0,USNevadaMineral,Nevada,Mineral,2022-04-28 09:13:11,2020-08-08,0,0,0,,,,,,,,,,,,
32021,0,USNevadaMineral,Nevada,Mineral,2022-04-28 09:13:11,2020-08-09,0,0,0,,,,,,,,,,,,
32021,0,USNevadaMineral,Nevada,Mineral,2022-04-28 09:13:11,2020-08-10,0,0,0,,,,,,,,,,,,
32021,0,USNevadaMineral,Nevada,Mineral,2022-04-28 09:13:11,2020-08-11,0,0,0,,,,,,,,,,,,
32021,0,USNevadaMineral,Nevada,Mineral,2022-04-28 09:13:11,2020-08-12,0,0,0,,,,,,,,,,,,
32021,0,USNevadaMineral,Nevada,Mineral,2022-04-28 09:13:11,2020-08-13,0.16049017989654316,0.4904300491653528,1.6075436378389854,,,,,,,,,,,,
32021,0,USNevadaMineral,Nevada,Mineral,2022-04-28 09:13:11,2020-08-14,0.16049017989654316,0.4904300491653528,1.6075436378389854,,,,,,,,,,,,
32021,0,USNevadaMineral,Nevada,Mineral,2022-04-28 09:13:11,2020-08-15,0.16049017989654316,0.4904300491653528,1.6075436378389854,,,,,,,,,,,,
32021,0,USNevadaMineral,Nevada,Mineral,2022-04-28 09:13:11,2020-08-16,0.16049017989654316,0.4904300491653528,1.6075436378389854,,,,,,,,,,,,
32021,0,USNevadaMineral,Nevada,Mineral,2022-04-28 09:13:11,2020-08-17,0.16049017989654316,0.4904300491653528,1.6075436378389854,,,,,,,,,,,,
32021,0,USNevadaMineral,Nevada,Mineral,2022-04-28 09:13:11,2020-08-18,0.16049017989654316,0.4904300491653528,1.6075436378389854,,,,,,,,,,,,
32021,0,USNevadaMineral,Nevada,Mineral,2022-04-28 09:13:11,2020-08-19,0.16049017989654316,0.4904300491653528,1.6075436378389854,,,,,,,,,,,,
32021,0,USNevadaMineral,Nevada,Mineral,2022-04-28 09:13:11,2020-08-20,0,0,0,,,,,,,,,,,,
32021,0,USNevadaMineral,Nevada,Mineral,2022-04-28 09:13:11,2020-08-21,0,0,0,,,,,,,,,,,,
32021,0,USNevadaMineral,Nevada,Mineral,2022-04-28 09:13:11,2020-08-22,0,0,0,,,,,,,,,,,,
32021,0,USNevadaMineral,Nevada,Mineral,2022-04-28 09:13:11,2020-08-23,0,0,0,,,,,,,,,,,,
32021,0,USNevadaMineral,Nevada,Mineral,2022-04-28 09:13:11,2020-08-24,0,0,0,,,,,,,,,,,,
32021,0,USNevadaMineral,Nevada,Mineral,2022-04-28 09:13:11,2020-08-25,0,0,0,,,,,,,,,,,,
32021,0,USNevadaMineral,Nevada,Mineral,2022-04-28 09:13:11,2020-08-26,0,0,0,,,,,,,,,,,,
32021,0,USNevadaMineral,Nevada,Mineral,2022-04-28 09:13:11,2020-08-27,0,0,0,,,,,,,,,,,,
32021,0,USNevadaMineral,Nevada,Mineral,2022-04-28 09:13:11,2020-08-28,0,0,0,,,,,,,,,,,,
32021,0,USNevadaMineral,Nevada,Mineral,2022-04-28 09:13:11,2020-08-29,0,0,0,,,,,,,,,,,,
32021,0,USNevadaMineral,Nevada,Mineral,2022-04-28 09:13:11,2020-08-30,0,0,0,,,,,,,,,,,,
32021,0,USNevadaMineral,Nevada,Mineral,2022-04-28 09:13:11,2020-08-31,0,0,0,,,,,,,,,,,,
32021,0,USNevadaMineral,Nevada,Mineral,2022-04-28 09:13:11,2020-09-01,0,0,0,,,,,,,,,,,,
32021,0,USNevadaMineral,Nevada,Mineral,2022-04-28 09:13:11,2020-09-02,0,0,0,,,,,,,,,,,,
32021,0,USNevadaMineral,Nevada,Mineral,2022-04-28 09:13:11,2020-09-03,0,0,0,,,,,,,,,,,,
32021,0,USNevadaMineral,Nevada,Mineral,2022-04-28 09:13:11,2020-09-04,0,0,0,,,,,,,,,,,,
32021,0,USNevadaMineral,Nevada,Mineral,2022-04-28 09:13:11,2020-09-05,0,0,0,,,,,,,,,,,,
32021,0,USNevadaMineral,Nevada,Mineral,2022-04-28 09:13:11,2020-09-06,0,0,0,,,,,,,,,,,,
32021,0,USNevadaMineral,Nevada,Mineral,2022-04-28 09:13:11,2020-09-07,0,0,0,,,,,,,,,,,,
32021,0,USNevadaMineral,Nevada,Mineral,2022-04-28 09:13:11,2020-09-08,0,0,0,,,,,,,,,,,,
32021,0,USNevadaMineral,Nevada,Mineral,2022-04-28 09:13:11,2020-09-09,0,0,0,,,,,,,,,,,,
32021,0,USNevadaMineral,Nevada,Mineral,2022-04-28 09:13:11,2020-09-10,0.13177985982107512,0.33990732057312745,0.9433270804046108,,,,,,,,,,,,
32021,0,USNevadaMineral,Nevada,Mineral,2022-04-28 09:13:11,2020-09-11,0.13177985982107512,0.33990732057312745,0.9433270804046108,,,,,,,,,,,,
32021,0,USNevadaMineral,Nevada,Mineral,2022-04-28 09:13:11,2020-09-12,0.13177985982107512,0.33990732057312745,0.9433270804046108,,,,,,,,,,,,
32021,0,USNevadaMineral,Nevada,Mineral,2022-04-28 09:13:11,2020-09-13,0.13177985982107512,0.33990732057312745,0.9433270804046108,,,,,,,,,,,,
32021,0,USNevadaMineral,Nevada,Mineral,2022-04-28 09:13:11,2020-09-14,0.13177985982107512,0.33990732057312745,0.9433270804046108,,,,,,,,,,,,
32021,0,USNevadaMineral,Nevada,Mineral,2022-04-28 09:13:11,2020-09-15,0.13177985982107512,0.33990732057312745,0.9433270804046108,,,,,,,,,,,,
32021,0,USNevadaMineral,Nevada,Mineral,2022-04-28 09:13:11,2020-09-16,0.13177985982107512,0.33990732057312745,0.9433270804046108,,,,,,,,,,,,
32021,0,USNevadaMineral,Nevada,Mineral,2022-04-28 09:13:11,2020-09-17,0,0,0,,,,,,,,,,,,
32021,0,USNevadaMineral,Nevada,Mineral,2022-04-28 09:13:11,2020-09-18,0,0,0,,,,,,,,,,,,
32021,0,USNevadaMineral,Nevada,Mineral,2022-04-28 09:13:11,2020-09-19,0,0,0,,,,,,,,,,,,
32021,0,USNevadaMineral,Nevada,Mineral,2022-04-28 09:13:11,2020-09-20,0,0,0,,,,,,,,,,,,
32021,0,USNevadaMineral,Nevada,Mineral,2022-04-28 09:13:11,2020-09-21,0,0,0,,,,,,,,,,,,
32021,0,USNevadaMineral,Nevada,Mineral,2022-04-28 09:13:11,2020-09-22,0,0,0,,,,,,,,,,,,
32021,0,USNevadaMineral,Nevada,Mineral,2022-04-28 09:13:11,2020-09-23,0,0,0,,,,,,,,,,,,
32021,0,USNevadaMineral,Nevada,Mineral,2022-04-28 09:13:11,2020-09-24,0,0,0,,,,,,,,,,,,
32021,0,USNevadaMineral,Nevada,Mineral,2022-04-28 09:13:11,2020-09-25,0,0,0,,,,,,,,,,,,
32021,0,USNevadaMineral,Nevada,Mineral,2022-04-28 09:13:11,2020-09-26,0,0,0,,,,,,,,,,,,
32021,0,USNevadaMineral,Nevada,Mineral,2022-04-28 09:13:11,2020-09-27,0,0,0,,,,,,,,,,,,
32021,0,USNevadaMineral,Nevada,Mineral,2022-04-28 09:13:11,2020-09-28,0,0,0,,,,,,,,,,,,
32021,0,USNevadaMineral,Nevada,Mineral,2022-04-28 09:13:11,2020-09-29,0,0,0,,,,,,,,,,,,
32021,0,USNevadaMineral,Nevada,Mineral,2022-04-28 09:13:11,2020-09-30,0,0,0,,,,,,,,,,,,
32021,0,USNevadaMineral,Nevada,Mineral,2022-04-28 09:13:11,2020-10-01,0.1466616765913675,0.4150264983923512,1.2620293931639135,,,,,,,,,,,,
32021,0,USNevadaMineral,Nevada,Mineral,2022-04-28 09:13:11,2020-10-02,0.1466616765913675,0.4150264983923512,1.2620293931639135,,,,,,,,,,,,
32021,0,USNevadaMineral,Nevada,Mineral,2022-04-28 09:13:11,2020-10-03,0.1466616765913675,0.4150264983923512,1.2620293931639135,,,,,,,,,,,,
32021,0,USNevadaMineral,Nevada,Mineral,2022-04-28 09:13:11,2020-10-04,0.1466616765913675,0.4150264983923512,1.2620293931639135,,,,,,,,,,,,
32021,0,USNevadaMineral,Nevada,Mineral,2022-04-28 09:13:11,2020-10-05,0.1466616765913675,0.4150264983923512,1.2620293931639135,,,,,,,,,,,,
32021,0,USNevadaMineral,Nevada,Mineral,2022-04-28 09:13:11,2020-10-06,0.1466616765913675,0.4150264983923512,1.2620293931639135,,,,,,,,,,,,
32021,0,USNevadaMineral,Nevada,Mineral,2022-04-28 09:13:11,2020-10-07,0.1466616765913675,0.4150264983923512,1.2620293931639135,,,,,,,,,,,,
32021,0,USNevadaMineral,Nevada,Mineral,2022-04-28 09:13:11,2020-10-08,0,0,0,,,,,,,,,,,,
32021,0,USNevadaMineral,Nevada,Mineral,2022-04-28 09:13:11,2020-10-09,0,0,0,,,,,,,,,,,,
32021,0,USNevadaMineral,Nevada,Mineral,2022-04-28 09:13:11,2020-10-10,0,0,0,,,,,,,,,,,,
32021,0,USNevadaMineral,Nevada,Mineral,2022-04-28 09:13:11,2020-10-11,0,0,0,,,,,,,,,,,,
32021,0,USNevadaMineral,Nevada,Mineral,2022-04-28 09:13:11,2020-10-12,0,0,0,,,,,,,,,,,,
32021,0,USNevadaMineral,Nevada,Mineral,2022-04-28 09:13:11,2020-10-13,0,0,0,,,,,,,,,,,,
32021,0,USNevadaMineral,Nevada,Mineral,2022-04-28 09:13:11,2020-10-14,0,0,0,,,,,,,,,,,,
32021,0,USNevadaMineral,Nevada,Mineral,2022-04-28 09:13:11,2020-10-15,0,0,0,,,,,,,,,,,,
32021,0,USNevadaMineral,Nevada,Mineral,2022-04-28 09:13:11,2020-10-16,0,0,0,,,,,,,,,,,,
32021,0,USNevadaMineral,Nevada,Mineral,2022-04-28 09:13:11,2020-10-17,0,0,0,,,,,,,,,,,,
32021,0,USNevadaMineral,Nevada,Mineral,2022-04-28 09:13:11,2020-10-18,0,0,0,,,,,,,,,,,,
32021,0,USNevadaMineral,Nevada,Mineral,2022-04-28 09:13:11,2020-10-19,0,0,0,,,,,,,,,,,,
32021,0,USNevadaMineral,Nevada,Mineral,2022-04-28 09:13:11,2020-10-20,0,0,0,,,,,,,,,,,,
32021,0,USNevadaMineral,Nevada,Mineral,2022-04-28 09:13:11,2020-10-21,0,0,0,,,,,,,,,,,,
32021,0,USNevadaMineral,Nevada,Mineral,2022-04-28 09:13:11,2020-10-22,0.44006022815205587,0.9674585368804562,2.286694975671906,,,,,,,,,,,,
32021,0,USNevadaMineral,Nevada,Mineral,2022-04-28 09:13:11,2020-10-23,0.44006022815205587,0.9674585368804562,2.286694975671906,,,,,,,,,,,,
32021,0,USNevadaMineral,Nevada,Mineral,2022-04-28 09:13:11,2020-10-24,0.44006022815205587,0.9674585368804562,2.286694975671906,,,,,,,,,,,,
32021,0,USNevadaMineral,Nevada,Mineral,2022-04-28 09:13:11,2020-10-25,0.44006022815205587,0.9674585368804562,2.286694975671906,,,,,,,,,,,,
32021,0,USNevadaMineral,Nevada,Mineral,2022-04-28 09:13:11,2020-10-26,0.44006022815205587,0.9674585368804562,2.286694975671906,,,,,,,,,,,,
32021,0,USNevadaMineral,Nevada,Mineral,2022-04-28 09:13:11,2020-10-27,0.44006022815205587,0.9674585368804562,2.286694975671906,,,,,,,,,,,,
32021,0,USNevadaMineral,Nevada,Mineral,2022-04-28 09:13:11,2020-10-28,0.44006022815205587,0.9674585368804562,2.286694975671906,,,,,,,,,,,,
32021,0,USNevadaMineral,Nevada,Mineral,2022-04-28 09:13:11,2020-10-29,0,0,0,,,,,,,,,,,,
32021,0,USNevadaMineral,Nevada,Mineral,2022-04-28 09:13:11,2020-10-30,0,0,0,,,,,,,,,,,,
32021,0,USNevadaMineral,Nevada,Mineral,2022-04-28 09:13:11,2020-10-31,0,0,0,,,,,,,,,,,,
32021,0,USNevadaMineral,Nevada,Mineral,2022-04-28 09:13:11,2020-11-01,0,0,0,,,,,,,,,,,,
32021,0,USNevadaMineral,Nevada,Mineral,2022-04-28 09:13:11,2020-11-02,0,0,0,,,,,,,,,,,,
32021,0,USNevadaMineral,Nevada,Mineral,2022-04-28 09:13:11,2020-11-03,0,0,0,,,,,,,,,,,,
32021,0,USNevadaMineral,Nevada,Mineral,2022-04-28 09:13:11,2020-11-04,0,0,0,,,,,,,,,,,,
32021,0,USNevadaMineral,Nevada,Mineral,2022-04-28 09:13:11,2020-11-05,1.1748454407120612,2.1611907834394226,4.245248166529712,,,,,,,,,,,,
32021,0,USNevadaMineral,Nevada,Mineral,2022-04-28 09:13:11,2020-11-06,1.1748454407120612,2.1611907834394226,4.245248166529712,,,,,,,,,,,,
32021,0,USNevadaMineral,Nevada,Mineral,2022-04-28 09:13:11,2020-11-07,1.1748454407120612,2.1611907834394226,4.245248166529712,,,,,,,,,,,,
32021,0,USNevadaMineral,Nevada,Mineral,2022-04-28 09:13:11,2020-11-08,1.1748454407120612,2.1611907834394226,4.245248166529712,,,,,,,,,,,,
32021,0,USNevadaMineral,Nevada,Mineral,2022-04-28 09:13:11,2020-11-09,1.1748454407120612,2.1611907834394226,4.245248166529712,,,,,,,,,,,,
32021,0,USNevadaMineral,Nevada,Mineral,2022-04-28 09:13:11,2020-11-10,1.1748454407120612,2.1611907834394226,4.245248166529712,,,,,,,,,,,,
32021,0,USNevadaMineral,Nevada,Mineral,2022-04-28 09:13:11,2020-11-11,1.1748454407120612,2.1611907834394226,4.245248166529712,,,,,,,,,,,,
32021,0,USNevadaMineral,Nevada,Mineral,2022-04-28 09:13:11,2020-11-12,1.1237664482051237,2.1355225110456755,4.341185042293573,,,,,,,,,,,,
32021,0,USNevadaMineral,Nevada,Mineral,2022-04-28 09:13:11,2020-11-13,1.1237664482051237,2.1355225110456755,4.341185042293573,,,,,,,,,,,,
32021,0,USNevadaMineral,Nevada,Mineral,2022-04-28 09:13:11,2020-11-14,1.1237664482051237,2.1355225110456755,4.341185042293573,,,,,,,,,,,,
32021,0,USNevadaMineral,Nevada,Mineral,2022-04-28 09:13:11,2020-11-15,1.1237664482051237,2.1355225110456755,4.341185042293573,,,,,,,,,,,,
32021,0,USNevadaMineral,Nevada,Mineral,2022-04-28 09:13:11,2020-11-16,1.1237664482051237,2.1355225110456755,4.341185042293573,,,,,,,,,,,,
32021,0,USNevadaMineral,Nevada,Mineral,2022-04-28 09:13:11,2020-11-17,1.1237664482051237,2.1355225110456755,4.341185042293573,,,,,,,,,,,,
32021,0,USNevadaMineral,Nevada,Mineral,2022-04-28 09:13:11,2020-11-18,1.1237664482051237,2.1355225110456755,4.341185042293573,,,,,,,,,,,,
32021,0,USNevadaMineral,Nevada,Mineral,2022-04-28 09:13:11,2020-11-19,2.5090928963919388,3.9394719105401994,6.521497143998617,,,,,,,,,,,,
32021,0,USNevadaMineral,Nevada,Mineral,2022-04-28 09:13:11,2020-11-20,2.5090928963919388,3.9394719105401994,6.521497143998617,,,,,,,,,,,,
32021,0,USNevadaMineral,Nevada,Mineral,2022-04-28 09:13:11,2020-11-21,2.5090928963919388,3.9394719105401994,6.521497143998617,,,,,,,,,,,,
32021,0,USNevadaMineral,Nevada,Mineral,2022-04-28 09:13:11,2020-11-22,2.5090928963919388,3.9394719105401994,6.521497143998617,,,,,,,,,,,,
32021,0,USNevadaMineral,Nevada,Mineral,2022-04-28 09:13:11,2020-11-23,2.5090928963919388,3.9394719105401994,6.521497143998617,,,,,,,,,,,,
32021,0,USNevadaMineral,Nevada,Mineral,2022-04-28 09:13:11,2020-11-24,2.5090928963919388,3.9394719105401994,6.521497143998617,,,,,,,,,,,,
32021,0,USNevadaMineral,Nevada,Mineral,2022-04-28 09:13:11,2020-11-25,2.5090928963919388,3.9394719105401994,6.521497143998617,,,,,,,,,,,,
32021,0,USNevadaMineral,Nevada,Mineral,2022-04-28 09:13:11,2020-11-26,2.95267275939634,4.617851135723695,7.611664662357627,,,,,,,,,,,,
32021,0,USNevadaMineral,Nevada,Mineral,2022-04-28 09:13:11,2020-11-27,2.95267275939634,4.617851135723695,7.611664662357627,,,,,,,,,,,,
32021,0,USNevadaMineral,Nevada,Mineral,2022-04-28 09:13:11,2020-11-28,2.95267275939634,4.617851135723695,7.611664662357627,,,,,,,,,,,,
32021,0,USNevadaMineral,Nevada,Mineral,2022-04-28 09:13:11,2020-11-29,2.95267275939634,4.617851135723695,7.611664662357627,,,,,,,,,,,,
32021,0,USNevadaMineral,Nevada,Mineral,2022-04-28 09:13:11,2020-11-30,2.95267275939634,4.617851135723695,7.611664662357627,,,,,,,,,,,,
32021,0,USNevadaMineral,Nevada,Mineral,2022-04-28 09:13:11,2020-12-01,2.95267275939634,4.617851135723695,7.611664662357627,,,,,,,,,,,,
32021,0,USNevadaMineral,Nevada,Mineral,2022-04-28 09:13:11,2020-12-02,2.95267275939634,4.617851135723695,7.611664662357627,,,,,,,,,,,,
32021,0,USNevadaMineral,Nevada,Mineral,2022-04-28 09:13:11,2020-12-03,3.3706716438478073,5.220187905451305,8.511957751776064,,,,,,,,,,,,
32021,0,USNevadaMineral,Nevada,Mineral,2022-04-28 09:13:11,2020-12-04,3.3706716438478073,5.220187905451305,8.511957751776064,,,,,,,,,,,,
32021,0,USNevadaMineral,Nevada,Mineral,2022-04-28 09:13:11,2020-12-05,3.3706716438478073,5.220187905451305,8.511957751776064,,,,,,,,,,,,
32021,0,USNevadaMineral,Nevada,Mineral,2022-04-28 09:13:11,2020-12-06,3.3706716438478073,5.220187905451305,8.511957751776064,,,,,,,,,,,,
32021,0,USNevadaMineral,Nevada,Mineral,2022-04-28 09:13:11,2020-12-07,3.3706716438478073,5.220187905451305,8.511957751776064,,,,,,,,,,,,
32021,0,USNevadaMineral,Nevada,Mineral,2022-04-28 09:13:11,2020-12-08,3.3706716438478073,5.220187905451305,8.511957751776064,,,,,,,,,,,,
32021,0,USNevadaMineral,Nevada,Mineral,2022-04-28 09:13:11,2020-12-09,3.3706716438478073,5.220187905451305,8.511957751776064,,,,,,,,,,,,
32021,0,USNevadaMineral,Nevada,Mineral,2022-04-28 09:13:11,2020-12-10,1.0197823073100563,2.0939188588389097,4.614231903645432,,,,,,,,,,,,
32021,0,USNevadaMineral,Nevada,Mineral,2022-04-28 09:13:11,2020-12-11,1.0197823073100563,2.0939188588389097,4.614231903645432,,,,,,,,,,,,
32021,0,USNevadaMineral,Nevada,Mineral,2022-04-28 09:13:11,2020-12-12,1.0197823073100563,2.0939188588389097,4.614231903645432,,,,,,,,,,,,
32021,0,USNevadaMineral,Nevada,Mineral,2022-04-28 09:13:11,2020-12-13,1.0197823073100563,2.0939188588389097,4.614231903645432,,,,,,,,,,,,
32021,0,USNevadaMineral,Nevada,Mineral,2022-04-28 09:13:11,2020-12-14,1.0197823073100563,2.0939188588389097,4.614231903645432,,,,,,,,,,,,
32021,0,USNevadaMineral,Nevada,Mineral,2022-04-28 09:13:11,2020-12-15,1.0197823073100563,2.0939188588389097,4.614231903645432,,,,,,,,,,,,
32021,0,USNevadaMineral,Nevada,Mineral,2022-04-28 09:13:11,2020-12-16,1.0197823073100563,2.0939188588389097,4.614231903645432,,,,,,,,,,,,
32021,0,USNevadaMineral,Nevada,Mineral,2022-04-28 09:13:11,2020-12-17,1.3249683149017168,2.542207973239013,5.220371250955452,,,,,,,,,,,,
32021,0,USNevadaMineral,Nevada,Mineral,2022-04-28 09:13:11,2020-12-18,1.3249683149017168,2.542207973239013,5.220371250955452,,,,,,,,,,,,
32021,0,USNevadaMineral,Nevada,Mineral,2022-04-28 09:13:11,2020-12-19,1.3249683149017168,2.542207973239013,5.220371250955452,,,,,,,,,,,,
32021,0,USNevadaMineral,Nevada,Mineral,2022-04-28 09:13:11,2020-12-20,1.3249683149017168,2.542207973239013,5.220371250955452,,,,,,,,,,,,
32021,0,USNevadaMineral,Nevada,Mineral,2022-04-28 09:13:11,2020-12-21,1.3249683149017168,2.542207973239013,5.220371250955452,,,,,,,,,,,,
32021,0,USNevadaMineral,Nevada,Mineral,2022-04-28 09:13:11,2020-12-22,1.3249683149017168,2.542207973239013,5.220371250955452,,,,,,,,,,,,
32021,0,USNevadaMineral,Nevada,Mineral,2022-04-28 09:13:11,2020-12-23,1.3249683149017168,2.542207973239013,5.220371250955452,,,,,,,,,,,,
32021,0,USNevadaMineral,Nevada,Mineral,2022-04-28 09:13:11,2020-12-24,1.2347691559966634,2.376933976381173,4.897812851027494,,,,,,,,,,,,
32021,0,USNevadaMineral,Nevada,Mineral,2022-04-28 09:13:11,2020-12-25,1.2347691559966634,2.376933976381173,4.897812851027494,,,,,,,,,,,,
32021,0,USNevadaMineral,Nevada,Mineral,2022-04-28 09:13:11,2020-12-26,1.2347691559966634,2.376933976381173,4.897812851027494,,,,,,,,,,,,
32021,0,USNevadaMineral,Nevada,Mineral,2022-04-28 09:13:11,2020-12-27,1.2347691559966634,2.376933976381173,4.897812851027494,,,,,,,,,,,,
32021,0,USNevadaMineral,Nevada,Mineral,2022-04-28 09:13:11,2020-12-28,1.2347691559966634,2.376933976381173,4.897812851027494,,,,,,,,,,,,
32021,0,USNevadaMineral,Nevada,Mineral,2022-04-28 09:13:11,2020-12-29,1.2347691559966634,2.376933976381173,4.897812851027494,,,,,,,,,,,,
32021,0,USNevadaMineral,Nevada,Mineral,2022-04-28 09:13:11,2020-12-30,1.2347691559966634,2.376933976381173,4.897812851027494,,,,,,,,,,,,
32021,0,USNevadaMineral,Nevada,Mineral,2022-04-28 09:13:11,2020-12-31,1.393072473005679,2.6272796938833674,5.298383801635085,,,,,,,,,,,,
32021,0,USNevadaMineral,Nevada,Mineral,2022-04-28 09:13:11,2021-01-01,1.393072473005679,2.6272796938833674,5.298383801635085,,,,,,,,,,,,
32021,0,USNevadaMineral,Nevada,Mineral,2022-04-28 09:13:11,2021-01-02,1.393072473005679,2.6272796938833674,5.298383801635085,,,,,,,,,,,,
32021,0,USNevadaMineral,Nevada,Mineral,2022-04-28 09:13:11,2021-01-03,1.393072473005679,2.6272796938833674,5.298383801635085,,,,,,,,,,,,
32021,0,USNevadaMineral,Nevada,Mineral,2022-04-28 09:13:11,2021-01-04,1.393072473005679,2.6272796938833674,5.298383801635085,,,,,,,,,,,,
32021,0,USNevadaMineral,Nevada,Mineral,2022-04-28 09:13:11,2021-01-05,1.393072473005679,2.6272796938833674,5.298383801635085,,,,,,,,,,,,
32021,0,USNevadaMineral,Nevada,Mineral,2022-04-28 09:13:11,2021-01-06,1.393072473005679,2.6272796938833674,5.298383801635085,,,,,,,,,,,,
32021,0,USNevadaMineral,Nevada,Mineral,2022-04-28 09:13:11,2021-01-07,0.7743551651851569,1.7108105417773787,4.064047788637378,,,,,,,,,,,,
32021,0,USNevadaMineral,Nevada,Mineral,2022-04-28 09:13:11,2021-01-08,0.7743551651851569,1.7108105417773787,4.064047788637378,,,,,,,,,,,,
32021,0,USNevadaMineral,Nevada,Mineral,2022-04-28 09:13:11,2021-01-09,0.7743551651851569,1.7108105417773787,4.064047788637378,,,,,,,,,,,,
32021,0,USNevadaMineral,Nevada,Mineral,2022-04-28 09:13:11,2021-01-10,0.7743551651851569,1.7108105417773787,4.064047788637378,,,,,,,,,,,,
32021,0,USNevadaMineral,Nevada,Mineral,2022-04-28 09:13:11,2021-01-11,0.7743551651851569,1.7108105417773787,4.064047788637378,,,,,,,,,,,,
32021,0,USNevadaMineral,Nevada,Mineral,2022-04-28 09:13:11,2021-01-12,0.7743551651851569,1.7108105417773787,4.064047788637378,,,,,,,,,,,,
32021,0,USNevadaMineral,Nevada,Mineral,2022-04-28 09:13:11,2021-01-13,0.7743551651851569,1.7108105417773787,4.064047788637378,,,,,,,,,,,,
32021,0,USNevadaMineral,Nevada,Mineral,2022-04-28 09:13:11,2021-01-14,1.2382129382212756,2.233236694551937,4.295784681304699,,,,,,,,,,,,
32021,0,USNevadaMineral,Nevada,Mineral,2022-04-28 09:13:11,2021-01-15,1.2382129382212756,2.233236694551937,4.295784681304699,,,,,,,,,,,,
32021,0,USNevadaMineral,Nevada,Mineral,2022-04-28 09:13:11,2021-01-16,1.2382129382212756,2.233236694551937,4.295784681304699,,,,,,,,,,,,
32021,0,USNevadaMineral,Nevada,Mineral,2022-04-28 09:13:11,2021-01-17,1.2382129382212756,2.233236694551937,4.295784681304699,,,,,,,,,,,,
32021,0,USNevadaMineral,Nevada,Mineral,2022-04-28 09:13:11,2021-01-18,1.2382129382212756,2.233236694551937,4.295784681304699,,,,,,,,,,,,
32021,0,USNevadaMineral,Nevada,Mineral,2022-04-28 09:13:11,2021-01-19,1.2382129382212756,2.233236694551937,4.295784681304699,,,,,,,,,,,,
32021,0,USNevadaMineral,Nevada,Mineral,2022-04-28 09:13:11,2021-01-20,1.2382129382212756,2.233236694551937,4.295784681304699,,,,,,,,,,,,
32021,0,USNevadaMineral,Nevada,Mineral,2022-04-28 09:13:11,2021-01-21,0.5459699349119115,1.1922613323705267,2.7988049530627412,,,,,,,,,,,,
32021,0,USNevadaMineral,Nevada,Mineral,2022-04-28 09:13:11,2021-01-22,0.5459699349119115,1.1922613323705267,2.7988049530627412,,,,,,,,,,,,
32021,0,USNevadaMineral,Nevada,Mineral,2022-04-28 09:13:11,2021-01-23,0.5459699349119115,1.1922613323705267,2.7988049530627412,,,,,,,,,,,,
32021,0,USNevadaMineral,Nevada,Mineral,2022-04-28 09:13:11,2021-01-24,0.5459699349119115,1.1922613323705267,2.7988049530627412,,,,,,,,,,,,
32021,0,USNevadaMineral,Nevada,Mineral,2022-04-28 09:13:11,2021-01-25,0.5459699349119115,1.1922613323705267,2.7988049530627412,,,,,,,,,,,,
32021,0,USNevadaMineral,Nevada,Mineral,2022-04-28 09:13:11,2021-01-26,0.5459699349119115,1.1922613323705267,2.7988049530627412,,,,,,,,,,,,
32021,0,USNevadaMineral,Nevada,Mineral,2022-04-28 09:13:11,2021-01-27,0.5459699349119115,1.1922613323705267,2.7988049530627412,,,,,,,,,,,,
32021,0,USNevadaMineral,Nevada,Mineral,2022-04-28 09:13:11,2021-01-28,2.5242015109842257,3.6805828316149425,5.612122673527181,,,,,,,,,,,,
32021,0,USNevadaMineral,Nevada,Mineral,2022-04-28 09:13:11,2021-01-29,2.5242015109842257,3.6805828316149425,5.612122673527181,,,,,,,,,,,,
32021,0,USNevadaMineral,Nevada,Mineral,2022-04-28 09:13:11,2021-01-30,2.5242015109842257,3.6805828316149425,5.612122673527181,,,,,,,,,,,,
32021,0,USNevadaMineral,Nevada,Mineral,2022-04-28 09:13:11,2021-01-31,2.5242015109842257,3.6805828316149425,5.612122673527181,,,,,,,,,,,,
32021,0,USNevadaMineral,Nevada,Mineral,2022-04-28 09:13:11,2021-02-01,2.5242015109842257,3.6805828316149425,5.612122673527181,,,,,,,,,,,,
32021,0,USNevadaMineral,Nevada,Mineral,2022-04-28 09:13:11,2021-02-02,2.5242015109842257,3.6805828316149425,5.612122673527181,,,,,,,,,,,,
32021,0,USNevadaMineral,Nevada,Mineral,2022-04-28 09:13:11,2021-02-03,2.5242015109842257,3.6805828316149425,5.612122673527181,,,,,,,,,,,,
32021,0,USNevadaMineral,Nevada,Mineral,2022-04-28 09:13:11,2021-02-04,1.2671651496492247,2.065351943660159,3.56211243504218,,,,,,,,,,,,
32021,0,USNevadaMineral,Nevada,Mineral,2022-04-28 09:13:11,2021-02-05,1.2671651496492247,2.065351943660159,3.56211243504218,,,,,,,,,,,,
32021,0,USNevadaMineral,Nevada,Mineral,2022-04-28 09:13:11,2021-02-06,1.2671651496492247,2.065351943660159,3.56211243504218,,,,,,,,,,,,
32021,0,USNevadaMineral,Nevada,Mineral,2022-04-28 09:13:11,2021-02-07,1.2671651496492247,2.065351943660159,3.56211243504218,,,,,,,,,,,,
32021,0,USNevadaMineral,Nevada,Mineral,2022-04-28 09:13:11,2021-02-08,1.2671651496492247,2.065351943660159,3.56211243504218,,,,,,,,,,,,
32021,0,USNevadaMineral,Nevada,Mineral,2022-04-28 09:13:11,2021-02-09,1.2671651496492247,2.065351943660159,3.56211243504218,,,,,,,,,,,,
32021,0,USNevadaMineral,Nevada,Mineral,2022-04-28 09:13:11,2021-02-10,1.2671651496492247,2.065351943660159,3.56211243504218,,,,,,,,,,,,
32021,0,USNevadaMineral,Nevada,Mineral,2022-04-28 09:13:11,2021-02-11,0.32090447748975337,0.6879287279366193,1.5846444791097647,,,,,,,,,,,,
32021,0,USNevadaMineral,Nevada,Mineral,2022-04-28 09:13:11,2021-02-12,0.32090447748975337,0.6879287279366193,1.5846444791097647,,,,,,,,,,,,
32021,0,USNevadaMineral,Nevada,Mineral,2022-04-28 09:13:11,2021-02-13,0.32090447748975337,0.6879287279366193,1.5846444791097647,,,,,,,,,,,,
32021,0,USNevadaMineral,Nevada,Mineral,2022-04-28 09:13:11,2021-02-14,0.32090447748975337,0.6879287279366193,1.5846444791097647,,,,,,,,,,,,
32021,0,USNevadaMineral,Nevada,Mineral,2022-04-28 09:13:11,2021-02-15,0.32090447748975337,0.6879287279366193,1.5846444791097647,,,,,,,,,,,,
32021,0,USNevadaMineral,Nevada,Mineral,2022-04-28 09:13:11,2021-02-16,0.32090447748975337,0.6879287279366193,1.5846444791097647,,,,,,,,,,,,
32021,0,USNevadaMineral,Nevada,Mineral,2022-04-28 09:13:11,2021-02-17,0.32090447748975337,0.6879287279366193,1.5846444791097647,,,,,,,,,,,,
32021,0,USNevadaMineral,Nevada,Mineral,2022-04-28 09:13:11,2021-02-18,0.4623071777673349,0.8683786399051805,1.7438065871519377,,,,,,,,,,,,
32021,0,USNevadaMineral,Nevada,Mineral,2022-04-28 09:13:11,2021-02-19,0.4623071777673349,0.8683786399051805,1.7438065871519377,,,,,,,,,,,,
32021,0,USNevadaMineral,Nevada,Mineral,2022-04-28 09:13:11,2021-02-20,0.4623071777673349,0.8683786399051805,1.7438065871519377,,,,,,,,,,,,
32021,0,USNevadaMineral,Nevada,Mineral,2022-04-28 09:13:11,2021-02-21,0.4623071777673349,0.8683786399051805,1.7438065871519377,,,,,,,,,,,,
32021,0,USNevadaMineral,Nevada,Mineral,2022-04-28 09:13:11,2021-02-22,0.4623071777673349,0.8683786399051805,1.7438065871519377,,,,,,,,,,,,
32021,0,USNevadaMineral,Nevada,Mineral,2022-04-28 09:13:11,2021-02-23,0.4623071777673349,0.8683786399051805,1.7438065871519377,,,,,,,,,,,,
32021,0,USNevadaMineral,Nevada,Mineral,2022-04-28 09:13:11,2021-02-24,0.4623071777673349,0.8683786399051805,1.7438065871519377,,,,,,,,,,,,
32021,0,USNevadaMineral,Nevada,Mineral,2022-04-28 09:13:11,2021-02-25,0,0,0,,,,,,,,,,,,
32021,0,USNevadaMineral,Nevada,Mineral,2022-04-28 09:13:11,2021-02-26,0,0,0,,,,,,,,,,,,
32021,0,USNevadaMineral,Nevada,Mineral,2022-04-28 09:13:11,2021-02-27,0,0,0,,,,,,,,,,,,
32021,0,USNevadaMineral,Nevada,Mineral,2022-04-28 09:13:11,2021-02-28,0,0,0,,,,,,,,,,,,
32021,0,USNevadaMineral,Nevada,Mineral,2022-04-28 09:13:11,2021-03-01,0,0,0,,,,,,,,,,,,
32021,0,USNevadaMineral,Nevada,Mineral,2022-04-28 09:13:11,2021-03-02,0,0,0,,,,,,,,,,,,
32021,0,USNevadaMineral,Nevada,Mineral,2022-04-28 09:13:11,2021-03-03,0,0,0,,,,,,,,,,,,
32021,0,USNevadaMineral,Nevada,Mineral,2022-04-28 09:13:11,2021-03-04,0.590178202561217,1.0187706849881153,1.8698413272294763,,,,,,,,,,,,
32021,0,USNevadaMineral,Nevada,Mineral,2022-04-28 09:13:11,2021-03-05,0.590178202561217,1.0187706849881153,1.8698413272294763,,,,,,,,,,,,
32021,0,USNevadaMineral,Nevada,Mineral,2022-04-28 09:13:11,2021-03-06,0.590178202561217,1.0187706849881153,1.8698413272294763,,,,,,,,,,,,
32021,0,USNevadaMineral,Nevada,Mineral,2022-04-28 09:13:11,2021-03-07,0.590178202561217,1.0187706849881153,1.8698413272294763,,,,,,,,,,,,
32021,0,USNevadaMineral,Nevada,Mineral,2022-04-28 09:13:11,2021-03-08,0.590178202561217,1.0187706849881153,1.8698413272294763,,,,,,,,,,,,
32021,0,USNevadaMineral,Nevada,Mineral,2022-04-28 09:13:11,2021-03-09,0.590178202561217,1.0187706849881153,1.8698413272294763,,,,,,,,,,,,
32021,0,USNevadaMineral,Nevada,Mineral,2022-04-28 09:13:11,2021-03-10,0.590178202561217,1.0187706849881153,1.8698413272294763,,,,,,,,,,,,
32021,0,USNevadaMineral,Nevada,Mineral,2022-04-28 09:13:11,2021-03-11,0,0,0,,,,,,,,,,,,
32021,0,USNevadaMineral,Nevada,Mineral,2022-04-28 09:13:11,2021-03-12,0,0,0,,,,,,,,,,,,
32021,0,USNevadaMineral,Nevada,Mineral,2022-04-28 09:13:11,2021-03-13,0,0,0,,,,,,,,,,,,
32021,0,USNevadaMineral,Nevada,Mineral,2022-04-28 09:13:11,2021-03-14,0,0,0,,,,,,,,,,,,
32021,0,USNevadaMineral,Nevada,Mineral,2022-04-28 09:13:11,2021-03-15,0,0,0,,,,,,,,,,,,
32021,0,USNevadaMineral,Nevada,Mineral,2022-04-28 09:13:11,2021-03-16,0,0,0,,,,,,,,,,,,
32021,0,USNevadaMineral,Nevada,Mineral,2022-04-28 09:13:11,2021-03-17,0,0,0,,,,,,,,,,,,
32021,0,USNevadaMineral,Nevada,Mineral,2022-04-28 09:13:11,2021-03-18,0.20722311072112154,0.4316453201400516,0.9653836783753722,,,,,,,,,,,,
32021,0,USNevadaMineral,Nevada,Mineral,2022-04-28 09:13:11,2021-03-19,0.20722311072112154,0.4316453201400516,0.9653836783753722,,,,,,,,,,,,
32021,0,USNevadaMineral,Nevada,Mineral,2022-04-28 09:13:11,2021-03-20,0.20722311072112154,0.4316453201400516,0.9653836783753722,,,,,,,,,,,,
32021,0,USNevadaMineral,Nevada,Mineral,2022-04-28 09:13:11,2021-03-21,0.20722311072112154,0.4316453201400516,0.9653836783753722,,,,,,,,,,,,
32021,0,USNevadaMineral,Nevada,Mineral,2022-04-28 09:13:11,2021-03-22,0.20722311072112154,0.4316453201400516,0.9653836783753722,,,,,,,,,,,,
32021,0,USNevadaMineral,Nevada,Mineral,2022-04-28 09:13:11,2021-03-23,0.20722311072112154,0.4316453201400516,0.9653836783753722,,,,,,,,,,,,
32021,0,USNevadaMineral,Nevada,Mineral,2022-04-28 09:13:11,2021-03-24,0.20722311072112154,0.4316453201400516,0.9653836783753722,,,,,,,,,,,,
32021,0,USNevadaMineral,Nevada,Mineral,2022-04-28 09:13:11,2021-03-25,0,0,0,,,,,,,,,,,,
32021,0,USNevadaMineral,Nevada,Mineral,2022-04-28 09:13:11,2021-03-26,0,0,0,,,,,,,,,,,,
32021,0,USNevadaMineral,Nevada,Mineral,2022-04-28 09:13:11,2021-03-27,0,0,0,,,,,,,,,,,,
32021,0,USNevadaMineral,Nevada,Mineral,2022-04-28 09:13:11,2021-03-28,0,0,0,,,,,,,,,,,,
32021,0,USNevadaMineral,Nevada,Mineral,2022-04-28 09:13:11,2021-03-29,0,0,0,,,,,,,,,,,,
32021,0,USNevadaMineral,Nevada,Mineral,2022-04-28 09:13:11,2021-03-30,0,0,0,,,,,,,,,,,,
32021,0,USNevadaMineral,Nevada,Mineral,2022-04-28 09:13:11,2021-03-31,0,0,0,,,,,,,,,,,,
32021,0,USNevadaMineral,Nevada,Mineral,2022-04-28 09:13:11,2021-04-01,0,0,0,,,,,,,,,,,,
32021,0,USNevadaMineral,Nevada,Mineral,2022-04-28 09:13:11,2021-04-02,0,0,0,,,,,,,,,,,,
32021,0,USNevadaMineral,Nevada,Mineral,2022-04-28 09:13:11,2021-04-03,0,0,0,,,,,,,,,,,,
32021,0,USNevadaMineral,Nevada,Mineral,2022-04-28 09:13:11,2021-04-04,0,0,0,,,,,,,,,,,,
32021,0,USNevadaMineral,Nevada,Mineral,2022-04-28 09:13:11,2021-04-05,0,0,0,,,,,,,,,,,,
32021,0,USNevadaMineral,Nevada,Mineral,2022-04-28 09:13:11,2021-04-06,0,0,0,,,,,,,,,,,,
32021,0,USNevadaMineral,Nevada,Mineral,2022-04-28 09:13:11,2021-04-07,0,0,0,,,,,,,,,,,,
32021,0,USNevadaMineral,Nevada,Mineral,2022-04-28 09:13:11,2021-04-08,0,0,0,,,,,,,,,,,,
32021,0,USNevadaMineral,Nevada,Mineral,2022-04-28 09:13:11,2021-04-09,0,0,0,,,,,,,,,,,,
32021,0,USNevadaMineral,Nevada,Mineral,2022-04-28 09:13:11,2021-04-10,0,0,0,,,,,,,,,,,,
32021,0,USNevadaMineral,Nevada,Mineral,2022-04-28 09:13:11,2021-04-11,0,0,0,,,,,,,,,,,,
32021,0,USNevadaMineral,Nevada,Mineral,2022-04-28 09:13:11,2021-04-12,0,0,0,,,,,,,,,,,,
32021,0,USNevadaMineral,Nevada,Mineral,2022-04-28 09:13:11,2021-04-13,0,0,0,,,,,,,,,,,,
32021,0,USNevadaMineral,Nevada,Mineral,2022-04-28 09:13:11,2021-04-14,0,0,0,,,,,,,,,,,,
32021,0,USNevadaMineral,Nevada,Mineral,2022-04-28 09:13:11,2021-04-15,0.22735482034441679,0.5146885850984371,1.2532730386637148,,,,,,,,,,,,
32021,0,USNevadaMineral,Nevada,Mineral,2022-04-28 09:13:11,2021-04-16,0.22735482034441679,0.5146885850984371,1.2532730386637148,,,,,,,,,,,,
32021,0,USNevadaMineral,Nevada,Mineral,2022-04-28 09:13:11,2021-04-17,0.22735482034441679,0.5146885850984371,1.2532730386637148,,,,,,,,,,,,
32021,0,USNevadaMineral,Nevada,Mineral,2022-04-28 09:13:11,2021-04-18,0.22735482034441679,0.5146885850984371,1.2532730386637148,,,,,,,,,,,,
32021,0,USNevadaMineral,Nevada,Mineral,2022-04-28 09:13:11,2021-04-19,0.22735482034441679,0.5146885850984371,1.2532730386637148,,,,,,,,,,,,
32021,0,USNevadaMineral,Nevada,Mineral,2022-04-28 09:13:11,2021-04-20,0.22735482034441679,0.5146885850984371,1.2532730386637148,,,,,,,,,,,,
32021,0,USNevadaMineral,Nevada,Mineral,2022-04-28 09:13:11,2021-04-21,0.22735482034441679,0.5146885850984371,1.2532730386637148,,,,,,,,,,,,
32021,0,USNevadaMineral,Nevada,Mineral,2022-04-28 09:13:11,2021-04-22,0.1400485566748396,0.3808595096844773,1.1137317593622222,,,,,,,,,,,,
32021,0,USNevadaMineral,Nevada,Mineral,2022-04-28 09:13:11,2021-04-23,0.1400485566748396,0.3808595096844773,1.1137317593622222,,,,,,,,,,,,
32021,0,USNevadaMineral,Nevada,Mineral,2022-04-28 09:13:11,2021-04-24,0.1400485566748396,0.3808595096844773,1.1137317593622222,,,,,,,,,,,,
32021,0,USNevadaMineral,Nevada,Mineral,2022-04-28 09:13:11,2021-04-25,0.1400485566748396,0.3808595096844773,1.1137317593622222,,,,,,,,,,,,
32021,0,USNevadaMineral,Nevada,Mineral,2022-04-28 09:13:11,2021-04-26,0.1400485566748396,0.3808595096844773,1.1137317593622222,,,,,,,,,,,,
32021,0,USNevadaMineral,Nevada,Mineral,2022-04-28 09:13:11,2021-04-27,0.1400485566748396,0.3808595096844773,1.1137317593622222,,,,,,,,,,,,
32021,0,USNevadaMineral,Nevada,Mineral,2022-04-28 09:13:11,2021-04-28,0.1400485566748396,0.3808595096844773,1.1137317593622222,,,,,,,,,,,,
32021,0,USNevadaMineral,Nevada,Mineral,2022-04-28 09:13:11,2021-04-29,0,0,0,,,,,,,,,,,,
32021,0,USNevadaMineral,Nevada,Mineral,2022-04-28 09:13:11,2021-04-30,0,0,0,,,,,,,,,,,,
32021,0,USNevadaMineral,Nevada,Mineral,2022-04-28 09:13:11,2021-05-01,0,0,0,,,,,,,,,,,,
32021,0,USNevadaMineral,Nevada,Mineral,2022-04-28 09:13:11,2021-05-02,0,0,0,,,,,,,,,,,,
32021,0,USNevadaMineral,Nevada,Mineral,2022-04-28 09:13:11,2021-05-03,0,0,0,,,,,,,,,,,,
32021,0,USNevadaMineral,Nevada,Mineral,2022-04-28 09:13:11,2021-05-04,0,0,0,,,,,,,,,,,,
32021,0,USNevadaMineral,Nevada,Mineral,2022-04-28 09:13:11,2021-05-05,0,0,0,,,,,,,,,,,,
32021,0,USNevadaMineral,Nevada,Mineral,2022-04-28 09:13:11,2021-05-06,0.13298604536875777,0.3457571284815958,0.967158521421473,,,,,,,,,,,,
32021,0,USNevadaMineral,Nevada,Mineral,2022-04-28 09:13:11,2021-05-07,0.13298604536875777,0.3457571284815958,0.967158521421473,,,,,,,,,,,,
32021,0,USNevadaMineral,Nevada,Mineral,2022-04-28 09:13:11,2021-05-08,0.13298604536875777,0.3457571284815958,0.967158521421473,,,,,,,,,,,,
32021,0,USNevadaMineral,Nevada,Mineral,2022-04-28 09:13:11,2021-05-09,0.13298604536875777,0.3457571284815958,0.967158521421473,,,,,,,,,,,,
32021,0,USNevadaMineral,Nevada,Mineral,2022-04-28 09:13:11,2021-05-10,0.13298604536875777,0.3457571284815958,0.967158521421473,,,,,,,,,,,,
32021,0,USNevadaMineral,Nevada,Mineral,2022-04-28 09:13:11,2021-05-11,0.13298604536875777,0.3457571284815958,0.967158521421473,,,,,,,,,,,,
32021,0,USNevadaMineral,Nevada,Mineral,2022-04-28 09:13:11,2021-05-12,0.13298604536875777,0.3457571284815958,0.967158521421473,,,,,,,,,,,,
32021,0,USNevadaMineral,Nevada,Mineral,2022-04-28 09:13:11,2021-05-13,0,0,0,,,,,,,,,,,,
32021,0,USNevadaMineral,Nevada,Mineral,2022-04-28 09:13:11,2021-05-14,0,0,0,,,,,,,,,,,,
32021,0,USNevadaMineral,Nevada,Mineral,2022-04-28 09:13:11,2021-05-15,0,0,0,,,,,,,,,,,,
32021,0,USNevadaMineral,Nevada,Mineral,2022-04-28 09:13:11,2021-05-16,0,0,0,,,,,,,,,,,,
32021,0,USNevadaMineral,Nevada,Mineral,2022-04-28 09:13:11,2021-05-17,0,0,0,,,,,,,,,,,,
32021,0,USNevadaMineral,Nevada,Mineral,2022-04-28 09:13:11,2021-05-18,0,0,0,,,,,,,,,,,,
32021,0,USNevadaMineral,Nevada,Mineral,2022-04-28 09:13:11,2021-05-19,0,0,0,,,,,,,,,,,,
32021,0,USNevadaMineral,Nevada,Mineral,2022-04-28 09:13:11,2021-05-20,0,0,0,,,,,,,,,,,,
32021,0,USNevadaMineral,Nevada,Mineral,2022-04-28 09:13:11,2021-05-21,0,0,0,,,,,,,,,,,,
32021,0,USNevadaMineral,Nevada,Mineral,2022-04-28 09:13:11,2021-05-22,0,0,0,,,,,,,,,,,,
32021,0,USNevadaMineral,Nevada,Mineral,2022-04-28 09:13:11,2021-05-23,0,0,0,,,,,,,,,,,,
32021,0,USNevadaMineral,Nevada,Mineral,2022-04-28 09:13:11,2021-05-24,0,0,0,,,,,,,,,,,,
32021,0,USNevadaMineral,Nevada,Mineral,2022-04-28 09:13:11,2021-05-25,0,0,0,,,,,,,,,,,,
32021,0,USNevadaMineral,Nevada,Mineral,2022-04-28 09:13:11,2021-05-26,0,0,0,,,,,,,,,,,,
32021,0,USNevadaMineral,Nevada,Mineral,2022-04-28 09:13:11,2021-05-27,0,0,0,,,,,,,,,,,,
32021,0,USNevadaMineral,Nevada,Mineral,2022-04-28 09:13:11,2021-05-28,0,0,0,,,,,,,,,,,,
32021,0,USNevadaMineral,Nevada,Mineral,2022-04-28 09:13:11,2021-05-29,0,0,0,,,,,,,,,,,,
32021,0,USNevadaMineral,Nevada,Mineral,2022-04-28 09:13:11,2021-05-30,0,0,0,,,,,,,,,,,,
32021,0,USNevadaMineral,Nevada,Mineral,2022-04-28 09:13:11,2021-05-31,0,0,0,,,,,,,,,,,,
32021,0,USNevadaMineral,Nevada,Mineral,2022-04-28 09:13:11,2021-06-01,0,0,0,,,,,,,,,,,,
32021,0,USNevadaMineral,Nevada,Mineral,2022-04-28 09:13:11,2021-06-02,0,0,0,,,,,,,,,,,,
32021,0,USNevadaMineral,Nevada,Mineral,2022-04-28 09:13:11,2021-06-03,0,0,0,,,,,,,,,,,,
32021,0,USNevadaMineral,Nevada,Mineral,2022-04-28 09:13:11,2021-06-04,0,0,0,,,,,,,,,,,,
32021,0,USNevadaMineral,Nevada,Mineral,2022-04-28 09:13:11,2021-06-05,0,0,0,,,,,,,,,,,,
32021,0,USNevadaMineral,Nevada,Mineral,2022-04-28 09:13:11,2021-06-06,0,0,0,,,,,,,,,,,,
32021,0,USNevadaMineral,Nevada,Mineral,2022-04-28 09:13:11,2021-06-07,0,0,0,,,,,,,,,,,,
32021,0,USNevadaMineral,Nevada,Mineral,2022-04-28 09:13:11,2021-06-08,0,0,0,,,,,,,,,,,,
32021,0,USNevadaMineral,Nevada,Mineral,2022-04-28 09:13:11,2021-06-09,0,0,0,,,,,,,,,,,,
32021,0,USNevadaMineral,Nevada,Mineral,2022-04-28 09:13:11,2021-06-10,0,0,0,,,,,,,,,,,,
32021,0,USNevadaMineral,Nevada,Mineral,2022-04-28 09:13:11,2021-06-11,0,0,0,,,,,,,,,,,,
32021,0,USNevadaMineral,Nevada,Mineral,2022-04-28 09:13:11,2021-06-12,0,0,0,,,,,,,,,,,,
32021,0,USNevadaMineral,Nevada,Mineral,2022-04-28 09:13:11,2021-06-13,0,0,0,,,,,,,,,,,,
32021,0,USNevadaMineral,Nevada,Mineral,2022-04-28 09:13:11,2021-06-14,0,0,0,,,,,,,,,,,,
32021,0,USNevadaMineral,Nevada,Mineral,2022-04-28 09:13:11,2021-06-15,0,0,0,,,,,,,,,,,,
32021,0,USNevadaMineral,Nevada,Mineral,2022-04-28 09:13:11,2021-06-16,0,0,0,,,,,,,,,,,,
32021,0,USNevadaMineral,Nevada,Mineral,2022-04-28 09:13:11,2021-06-17,0,0,0,,,,,,,,,,,,
32021,0,USNevadaMineral,Nevada,Mineral,2022-04-28 09:13:11,2021-06-18,0,0,0,,,,,,,,,,,,
32021,0,USNevadaMineral,Nevada,Mineral,2022-04-28 09:13:11,2021-06-19,0,0,0,,,,,,,,,,,,
32021,0,USNevadaMineral,Nevada,Mineral,2022-04-28 09:13:11,2021-06-20,0,0,0,,,,,,,,,,,,
32021,0,USNevadaMineral,Nevada,Mineral,2022-04-28 09:13:11,2021-06-21,0,0,0,,,,,,,,,,,,
32021,0,USNevadaMineral,Nevada,Mineral,2022-04-28 09:13:11,2021-06-22,0,0,0,,,,,,,,,,,,
32021,0,USNevadaMineral,Nevada,Mineral,2022-04-28 09:13:11,2021-06-23,0,0,0,,,,,,,,,,,,
32021,0,USNevadaMineral,Nevada,Mineral,2022-04-28 09:13:11,2021-06-24,0,0,0,,,,,,,,,,,,
32021,0,USNevadaMineral,Nevada,Mineral,2022-04-28 09:13:11,2021-06-25,0,0,0,,,,,,,,,,,,
32021,0,USNevadaMineral,Nevada,Mineral,2022-04-28 09:13:11,2021-06-26,0,0,0,,,,,,,,,,,,
32021,0,USNevadaMineral,Nevada,Mineral,2022-04-28 09:13:11,2021-06-27,0,0,0,,,,,,,,,,,,
32021,0,USNevadaMineral,Nevada,Mineral,2022-04-28 09:13:11,2021-06-28,0,0,0,,,,,,,,,,,,
32021,0,USNevadaMineral,Nevada,Mineral,2022-04-28 09:13:11,2021-06-29,0,0,0,,,,,,,,,,,,
32021,0,USNevadaMineral,Nevada,Mineral,2022-04-28 09:13:11,2021-06-30,0,0,0,,,,,,,,,,,,
32021,0,USNevadaMineral,Nevada,Mineral,2022-04-28 09:13:11,2021-07-01,0,0,0,,,,,,,,,,,,
32021,0,USNevadaMineral,Nevada,Mineral,2022-04-28 09:13:11,2021-07-02,0,0,0,,,,,,,,,,,,
32021,0,USNevadaMineral,Nevada,Mineral,2022-04-28 09:13:11,2021-07-03,0,0,0,,,,,,,,,,,,
32021,0,USNevadaMineral,Nevada,Mineral,2022-04-28 09:13:11,2021-07-04,0,0,0,,,,,,,,,,,,
32021,0,USNevadaMineral,Nevada,Mineral,2022-04-28 09:13:11,2021-07-05,0,0,0,,,,,,,,,,,,
32021,0,USNevadaMineral,Nevada,Mineral,2022-04-28 09:13:11,2021-07-06,0,0,0,,,,,,,,,,,,
32021,0,USNevadaMineral,Nevada,Mineral,2022-04-28 09:13:11,2021-07-07,0,0,0,,,,,,,,,,,,
32021,0,USNevadaMineral,Nevada,Mineral,2022-04-28 09:13:11,2021-07-08,0.7127479937027897,1.461445841245002,3.2158551715705093,,,,,,,,,,,,
32021,0,USNevadaMineral,Nevada,Mineral,2022-04-28 09:13:11,2021-07-09,0.7127479937027897,1.461445841245002,3.2158551715705093,,,,,,,,,,,,
32021,0,USNevadaMineral,Nevada,Mineral,2022-04-28 09:13:11,2021-07-10,0.7127479937027897,1.461445841245002,3.2158551715705093,,,,,,,,,,,,
32021,0,USNevadaMineral,Nevada,Mineral,2022-04-28 09:13:11,2021-07-11,0.7127479937027897,1.461445841245002,3.2158551715705093,,,,,,,,,,,,
32021,0,USNevadaMineral,Nevada,Mineral,2022-04-28 09:13:11,2021-07-12,0.7127479937027897,1.461445841245002,3.2158551715705093,,,,,,,,,,,,
32021,0,USNevadaMineral,Nevada,Mineral,2022-04-28 09:13:11,2021-07-13,0.7127479937027897,1.461445841245002,3.2158551715705093,,,,,,,,,,,,
32021,0,USNevadaMineral,Nevada,Mineral,2022-04-28 09:13:11,2021-07-14,0.7127479937027897,1.461445841245002,3.2158551715705093,,,,,,,,,,,,
32021,0,USNevadaMineral,Nevada,Mineral,2022-04-28 09:13:11,2021-07-15,0.5597372133278298,1.2498985555794928,3.001504559379197,,,,,,,,,,,,
32021,0,USNevadaMineral,Nevada,Mineral,2022-04-28 09:13:11,2021-07-16,0.5597372133278298,1.2498985555794928,3.001504559379197,,,,,,,,,,,,
32021,0,USNevadaMineral,Nevada,Mineral,2022-04-28 09:13:11,2021-07-17,0.5597372133278298,1.2498985555794928,3.001504559379197,,,,,,,,,,,,
32021,0,USNevadaMineral,Nevada,Mineral,2022-04-28 09:13:11,2021-07-18,0.5597372133278298,1.2498985555794928,3.001504559379197,,,,,,,,,,,,
32021,0,USNevadaMineral,Nevada,Mineral,2022-04-28 09:13:11,2021-07-19,0.5597372133278298,1.2498985555794928,3.001504559379197,,,,,,,,,,,,
32021,0,USNevadaMineral,Nevada,Mineral,2022-04-28 09:13:11,2021-07-20,0.5597372133278298,1.2498985555794928,3.001504559379197,,,,,,,,,,,,
32021,0,USNevadaMineral,Nevada,Mineral,2022-04-28 09:13:11,2021-07-21,0.5597372133278298,1.2498985555794928,3.001504559379197,,,,,,,,,,,,
32021,0,USNevadaMineral,Nevada,Mineral,2022-04-28 09:13:11,2021-07-22,0.7351733252014973,1.5501966753632277,3.5109151620154018,,,,,,,,,,,,
32021,0,USNevadaMineral,Nevada,Mineral,2022-04-28 09:13:11,2021-07-23,0.7351733252014973,1.5501966753632277,3.5109151620154018,,,,,,,,,,,,
32021,0,USNevadaMineral,Nevada,Mineral,2022-04-28 09:13:11,2021-07-24,0.7351733252014973,1.5501966753632277,3.5109151620154018,,,,,,,,,,,,
32021,0,USNevadaMineral,Nevada,Mineral,2022-04-28 09:13:11,2021-07-25,0.7351733252014973,1.5501966753632277,3.5109151620154018,,,,,,,,,,,,
32021,0,USNevadaMineral,Nevada,Mineral,2022-04-28 09:13:11,2021-07-26,0.7351733252014973,1.5501966753632277,3.5109151620154018,,,,,,,,,,,,
32021,0,USNevadaMineral,Nevada,Mineral,2022-04-28 09:13:11,2021-07-27,0.7351733252014973,1.5501966753632277,3.5109151620154018,,,,,,,,,,,,
32021,0,USNevadaMineral,Nevada,Mineral,2022-04-28 09:13:11,2021-07-28,0.7351733252014973,1.5501966753632277,3.5109151620154018,,,,,,,,,,,,
32021,0,USNevadaMineral,Nevada,Mineral,2022-04-28 09:13:11,2021-07-29,1.1679006219392838,2.1367984417372443,4.173282333837877,,,,,,,,,,,,
32021,0,USNevadaMineral,Nevada,Mineral,2022-04-28 09:13:11,2021-07-30,1.1679006219392838,2.1367984417372443,4.173282333837877,,,,,,,,,,,,
32021,0,USNevadaMineral,Nevada,Mineral,2022-04-28 09:13:11,2021-07-31,1.1679006219392838,2.1367984417372443,4.173282333837877,,,,,,,,,,,,
32021,0,USNevadaMineral,Nevada,Mineral,2022-04-28 09:13:11,2021-08-01,1.1679006219392838,2.1367984417372443,4.173282333837877,,,,,,,,,,,,
32021,0,USNevadaMineral,Nevada,Mineral,2022-04-28 09:13:11,2021-08-02,1.1679006219392838,2.1367984417372443,4.173282333837877,,,,,,,,,,,,
32021,0,USNevadaMineral,Nevada,Mineral,2022-04-28 09:13:11,2021-08-03,1.1679006219392838,2.1367984417372443,4.173282333837877,,,,,,,,,,,,
32021,0,USNevadaMineral,Nevada,Mineral,2022-04-28 09:13:11,2021-08-04,1.1679006219392838,2.1367984417372443,4.173282333837877,,,,,,,,,,,,
32021,0,USNevadaMineral,Nevada,Mineral,2022-04-28 09:13:11,2021-08-05,1.4449797406551896,2.5129880912733458,4.649392033394449,,,,,,,,,,,,
32021,0,USNevadaMineral,Nevada,Mineral,2022-04-28 09:13:11,2021-08-06,1.4449797406551896,2.5129880912733458,4.649392033394449,,,,,,,,,,,,
32021,0,USNevadaMineral,Nevada,Mineral,2022-04-28 09:13:11,2021-08-07,1.4449797406551896,2.5129880912733458,4.649392033394449,,,,,,,,,,,,
32021,0,USNevadaMineral,Nevada,Mineral,2022-04-28 09:13:11,2021-08-08,1.4449797406551896,2.5129880912733458,4.649392033394449,,,,,,,,,,,,
32021,0,USNevadaMineral,Nevada,Mineral,2022-04-28 09:13:11,2021-08-09,1.4449797406551896,2.5129880912733458,4.649392033394449,,,,,,,,,,,,
32021,0,USNevadaMineral,Nevada,Mineral,2022-04-28 09:13:11,2021-08-10,1.4449797406551896,2.5129880912733458,4.649392033394449,,,,,,,,,,,,
32021,0,USNevadaMineral,Nevada,Mineral,2022-04-28 09:13:11,2021-08-11,1.4449797406551896,2.5129880912733458,4.649392033394449,,,,,,,,,,,,
32021,0,USNevadaMineral,Nevada,Mineral,2022-04-28 09:13:11,2021-08-12,0.4856550856139814,0.5083387098365137,0.5336330960910463,,,,,,,,,,,,
32021,0,USNevadaMineral,Nevada,Mineral,2022-04-28 09:13:11,2021-08-13,0.4856550856139814,0.5083387098365137,0.5336330960910463,,,,,,,,,,,,
32021,0,USNevadaMineral,Nevada,Mineral,2022-04-28 09:13:11,2021-08-14,0.4856550856139814,0.5083387098365137,0.5336330960910463,,,,,,,,,,,,
32021,0,USNevadaMineral,Nevada,Mineral,2022-04-28 09:13:11,2021-08-15,0.4856550856139814,0.5083387098365137,0.5336330960910463,,,,,,,,,,,,
32021,0,USNevadaMineral,Nevada,Mineral,2022-04-28 09:13:11,2021-08-16,0.4856550856139814,0.5083387098365137,0.5336330960910463,,,,,,,,,,,,
32021,0,USNevadaMineral,Nevada,Mineral,2022-04-28 09:13:11,2021-08-17,0.4856550856139814,0.5083387098365137,0.5336330960910463,,,,,,,,,,,,
32021,0,USNevadaMineral,Nevada,Mineral,2022-04-28 09:13:11,2021-08-18,0.4856550856139814,0.5083387098365137,0.5336330960910463,,,,,,,,,,,,
32021,0,USNevadaMineral,Nevada,Mineral,2022-04-28 09:13:11,2021-08-19,0.5671013005944395,0.9437556823469667,1.664986662580053,,,,,,,,,,,,
32021,0,USNevadaMineral,Nevada,Mineral,2022-04-28 09:13:11,2021-08-20,0.5671013005944395,0.9437556823469667,1.664986662580053,,,,,,,,,,,,
32021,0,USNevadaMineral,Nevada,Mineral,2022-04-28 09:13:11,2021-08-21,0.5671013005944395,0.9437556823469667,1.664986662580053,,,,,,,,,,,,
32021,0,USNevadaMineral,Nevada,Mineral,2022-04-28 09:13:11,2021-08-22,0.5671013005944395,0.9437556823469667,1.664986662580053,,,,,,,,,,,,
32021,0,USNevadaMineral,Nevada,Mineral,2022-04-28 09:13:11,2021-08-23,0.5671013005944395,0.9437556823469667,1.664986662580053,,,,,,,,,,,,
32021,0,USNevadaMineral,Nevada,Mineral,2022-04-28 09:13:11,2021-08-24,0.5671013005944395,0.9437556823469667,1.664986662580053,,,,,,,,,,,,
32021,0,USNevadaMineral,Nevada,Mineral,2022-04-28 09:13:11,2021-08-25,0.5671013005944395,0.9437556823469667,1.664986662580053,,,,,,,,,,,,
32021,0,USNevadaMineral,Nevada,Mineral,2022-04-28 09:13:11,2021-08-26,2.0960431595258853,3.472475611840869,6.096230473727938,,,,,,,,,,,,
32021,0,USNevadaMineral,Nevada,Mineral,2022-04-28 09:13:11,2021-08-27,2.0960431595258853,3.472475611840869,6.096230473727938,,,,,,,,,,,,
32021,0,USNevadaMineral,Nevada,Mineral,2022-04-28 09:13:11,2021-08-28,2.0960431595258853,3.472475611840869,6.096230473727938,,,,,,,,,,,,
32021,0,USNevadaMineral,Nevada,Mineral,2022-04-28 09:13:11,2021-08-29,2.0960431595258853,3.472475611840869,6.096230473727938,,,,,,,,,,,,
32021,0,USNevadaMineral,Nevada,Mineral,2022-04-28 09:13:11,2021-08-30,2.0960431595258853,3.472475611840869,6.096230473727938,,,,,,,,,,,,
32021,0,USNevadaMineral,Nevada,Mineral,2022-04-28 09:13:11,2021-08-31,2.0960431595258853,3.472475611840869,6.096230473727938,,,,,,,,,,,,
32021,0,USNevadaMineral,Nevada,Mineral,2022-04-28 09:13:11,2021-09-01,2.0960431595258853,3.472475611840869,6.096230473727938,,,,,,,,,,,,
32021,0,USNevadaMineral,Nevada,Mineral,2022-04-28 09:13:11,2021-09-02,1.8160078018339596,2.7346613468140957,4.32252842360962,,,,,,,,,,,,
32021,0,USNevadaMineral,Nevada,Mineral,2022-04-28 09:13:11,2021-09-03,1.8160078018339596,2.7346613468140957,4.32252842360962,,,,,,,,,,,,
32021,0,USNevadaMineral,Nevada,Mineral,2022-04-28 09:13:11,2021-09-04,1.8160078018339596,2.7346613468140957,4.32252842360962,,,,,,,,,,,,
32021,0,USNevadaMineral,Nevada,Mineral,2022-04-28 09:13:11,2021-09-05,1.8160078018339596,2.7346613468140957,4.32252842360962,,,,,,,,,,,,
32021,0,USNevadaMineral,Nevada,Mineral,2022-04-28 09:13:11,2021-09-06,1.8160078018339596,2.7346613468140957,4.32252842360962,,,,,,,,,,,,
32021,0,USNevadaMineral,Nevada,Mineral,2022-04-28 09:13:11,2021-09-07,1.8160078018339596,2.7346613468140957,4.32252842360962,,,,,,,,,,,,
32021,0,USNevadaMineral,Nevada,Mineral,2022-04-28 09:13:11,2021-09-08,1.8160078018339596,2.7346613468140957,4.32252842360962,,,,,,,,,,,,
32021,0,USNevadaMineral,Nevada,Mineral,2022-04-28 09:13:11,2021-09-09,3.2587618807096153,4.703528228830027,7.090461946720569,,,,,,,,,,,,
32021,0,USNevadaMineral,Nevada,Mineral,2022-04-28 09:13:11,2021-09-10,3.2587618807096153,4.703528228830027,7.090461946720569,,,,,,,,,,,,
32021,0,USNevadaMineral,Nevada,Mineral,2022-04-28 09:13:11,2021-09-11,3.2587618807096153,4.703528228830027,7.090461946720569,,,,,,,,,,,,
32021,0,USNevadaMineral,Nevada,Mineral,2022-04-28 09:13:11,2021-09-12,3.2587618807096153,4.703528228830027,7.090461946720569,,,,,,,,,,,,
32021,0,USNevadaMineral,Nevada,Mineral,2022-04-28 09:13:11,2021-09-13,3.2587618807096153,4.703528228830027,7.090461946720569,,,,,,,,,,,,
32021,0,USNevadaMineral,Nevada,Mineral,2022-04-28 09:13:11,2021-09-14,3.2587618807096153,4.703528228830027,7.090461946720569,,,,,,,,,,,,
32021,0,USNevadaMineral,Nevada,Mineral,2022-04-28 09:13:11,2021-09-15,3.2587618807096153,4.703528228830027,7.090461946720569,,,,,,,,,,,,
32021,0,USNevadaMineral,Nevada,Mineral,2022-04-28 09:13:11,2021-09-16,1.9721090250741142,3.3249118063935685,5.949158610275231,,,,,,,,,,,,
32021,0,USNevadaMineral,Nevada,Mineral,2022-04-28 09:13:11,2021-09-17,1.9721090250741142,3.3249118063935685,5.949158610275231,,,,,,,,,,,,
32021,0,USNevadaMineral,Nevada,Mineral,2022-04-28 09:13:11,2021-09-18,1.9721090250741142,3.3249118063935685,5.949158610275231,,,,,,,,,,,,
32021,0,USNevadaMineral,Nevada,Mineral,2022-04-28 09:13:11,2021-09-19,1.9721090250741142,3.3249118063935685,5.949158610275231,,,,,,,,,,,,
32021,0,USNevadaMineral,Nevada,Mineral,2022-04-28 09:13:11,2021-09-20,1.9721090250741142,3.3249118063935685,5.949158610275231,,,,,,,,,,,,
32021,0,USNevadaMineral,Nevada,Mineral,2022-04-28 09:13:11,2021-09-21,1.9721090250741142,3.3249118063935685,5.949158610275231,,,,,,,,,,,,
32021,0,USNevadaMineral,Nevada,Mineral,2022-04-28 09:13:11,2021-09-22,1.9721090250741142,3.3249118063935685,5.949158610275231,,,,,,,,,,,,
32021,0,USNevadaMineral,Nevada,Mineral,2022-04-28 09:13:11,2021-09-23,1.5898166257713464,2.600036345118335,4.500887571066168,,,,,,,,,,,,
32021,0,USNevadaMineral,Nevada,Mineral,2022-04-28 09:13:11,2021-09-24,1.5898166257713464,2.600036345118335,4.500887571066168,,,,,,,,,,,,
32021,0,USNevadaMineral,Nevada,Mineral,2022-04-28 09:13:11,2021-09-25,1.5898166257713464,2.600036345118335,4.500887571066168,,,,,,,,,,,,
32021,0,USNevadaMineral,Nevada,Mineral,2022-04-28 09:13:11,2021-09-26,1.5898166257713464,2.600036345118335,4.500887571066168,,,,,,,,,,,,
32021,0,USNevadaMineral,Nevada,Mineral,2022-04-28 09:13:11,2021-09-27,1.5898166257713464,2.600036345118335,4.500887571066168,,,,,,,,,,,,
32021,0,USNevadaMineral,Nevada,Mineral,2022-04-28 09:13:11,2021-09-28,1.5898166257713464,2.600036345118335,4.500887571066168,,,,,,,,,,,,
32021,0,USNevadaMineral,Nevada,Mineral,2022-04-28 09:13:11,2021-09-29,1.5898166257713464,2.600036345118335,4.500887571066168,,,,,,,,,,,,
32021,0,USNevadaMineral,Nevada,Mineral,2022-04-28 09:13:11,2021-09-30,0.8717760937731495,1.7084039478675612,3.586621351345018,,,,,,,,,,,,
32021,0,USNevadaMineral,Nevada,Mineral,2022-04-28 09:13:11,2021-10-01,0.8717760937731495,1.7084039478675612,3.586621351345018,,,,,,,,,,,,
32021,0,USNevadaMineral,Nevada,Mineral,2022-04-28 09:13:11,2021-10-02,0.8717760937731495,1.7084039478675612,3.586621351345018,,,,,,,,,,,,
32021,0,USNevadaMineral,Nevada,Mineral,2022-04-28 09:13:11,2021-10-03,0.8717760937731495,1.7084039478675612,3.586621351345018,,,,,,,,,,,,
32021,0,USNevadaMineral,Nevada,Mineral,2022-04-28 09:13:11,2021-10-04,0.8717760937731495,1.7084039478675612,3.586621351345018,,,,,,,,,,,,
32021,0,USNevadaMineral,Nevada,Mineral,2022-04-28 09:13:11,2021-10-05,0.8717760937731495,1.7084039478675612,3.586621351345018,,,,,,,,,,,,
32021,0,USNevadaMineral,Nevada,Mineral,2022-04-28 09:13:11,2021-10-06,0.8717760937731495,1.7084039478675612,3.586621351345018,,,,,,,,,,,,
32021,0,USNevadaMineral,Nevada,Mineral,2022-04-28 09:13:11,2021-10-07,0.5731953823852556,0.6035230485231986,0.6368484113389167,,,,,,,,,,,,
32021,0,USNevadaMineral,Nevada,Mineral,2022-04-28 09:13:11,2021-10-08,0.5731953823852556,0.6035230485231986,0.6368484113389167,,,,,,,,,,,,
32021,0,USNevadaMineral,Nevada,Mineral,2022-04-28 09:13:11,2021-10-09,0.5731953823852556,0.6035230485231986,0.6368484113389167,,,,,,,,,,,,
32021,0,USNevadaMineral,Nevada,Mineral,2022-04-28 09:13:11,2021-10-10,0.5731953823852556,0.6035230485231986,0.6368484113389167,,,,,,,,,,,,
32021,0,USNevadaMineral,Nevada,Mineral,2022-04-28 09:13:11,2021-10-11,0.5731953823852556,0.6035230485231986,0.6368484113389167,,,,,,,,,,,,
32021,0,USNevadaMineral,Nevada,Mineral,2022-04-28 09:13:11,2021-10-12,0.5731953823852556,0.6035230485231986,0.6368484113389167,,,,,,,,,,,,
32021,0,USNevadaMineral,Nevada,Mineral,2022-04-28 09:13:11,2021-10-13,0.5731953823852556,0.6035230485231986,0.6368484113389167,,,,,,,,,,,,
32021,0,USNevadaMineral,Nevada,Mineral,2022-04-28 09:13:11,2021-10-14,0.7605825606846349,1.0950335823317274,1.6460908113931576,,,,,,,,,,,,
32021,0,USNevadaMineral,Nevada,Mineral,2022-04-28 09:13:11,2021-10-15,0.7605825606846349,1.0950335823317274,1.6460908113931576,,,,,,,,,,,,
32021,0,USNevadaMineral,Nevada,Mineral,2022-04-28 09:13:11,2021-10-16,0.7605825606846349,1.0950335823317274,1.6460908113931576,,,,,,,,,,,,
32021,0,USNevadaMineral,Nevada,Mineral,2022-04-28 09:13:11,2021-10-17,0.7605825606846349,1.0950335823317274,1.6460908113931576,,,,,,,,,,,,
32021,0,USNevadaMineral,Nevada,Mineral,2022-04-28 09:13:11,2021-10-18,0.7605825606846349,1.0950335823317274,1.6460908113931576,,,,,,,,,,,,
32021,0,USNevadaMineral,Nevada,Mineral,2022-04-28 09:13:11,2021-10-19,0.7605825606846349,1.0950335823317274,1.6460908113931576,,,,,,,,,,,,
32021,0,USNevadaMineral,Nevada,Mineral,2022-04-28 09:13:11,2021-10-20,0.7605825606846349,1.0950335823317274,1.6460908113931576,,,,,,,,,,,,
32021,0,USNevadaMineral,Nevada,Mineral,2022-04-28 09:13:11,2021-10-21,1.1323805193671048,2.014051246555619,3.816949723449292,,,,,,,,,,,,
32021,0,USNevadaMineral,Nevada,Mineral,2022-04-28 09:13:11,2021-10-22,1.1323805193671048,2.014051246555619,3.816949723449292,,,,,,,,,,,,
32021,0,USNevadaMineral,Nevada,Mineral,2022-04-28 09:13:11,2021-10-23,1.1323805193671048,2.014051246555619,3.816949723449292,,,,,,,,,,,,
32021,0,USNevadaMineral,Nevada,Mineral,2022-04-28 09:13:11,2021-10-24,1.1323805193671048,2.014051246555619,3.816949723449292,,,,,,,,,,,,
32021,0,USNevadaMineral,Nevada,Mineral,2022-04-28 09:13:11,2021-10-25,1.1323805193671048,2.014051246555619,3.816949723449292,,,,,,,,,,,,
32021,0,USNevadaMineral,Nevada,Mineral,2022-04-28 09:13:11,2021-10-26,1.1323805193671048,2.014051246555619,3.816949723449292,,,,,,,,,,,,
32021,0,USNevadaMineral,Nevada,Mineral,2022-04-28 09:13:11,2021-10-27,1.1323805193671048,2.014051246555619,3.816949723449292,,,,,,,,,,,,
32021,0,USNevadaMineral,Nevada,Mineral,2022-04-28 09:13:11,2021-10-28,0.4423531260235312,0.6752104527003232,1.0834500110454208,,,,,,,,,,,,
32021,0,USNevadaMineral,Nevada,Mineral,2022-04-28 09:13:11,2021-10-29,0.4423531260235312,0.6752104527003232,1.0834500110454208,,,,,,,,,,,,
32021,0,USNevadaMineral,Nevada,Mineral,2022-04-28 09:13:11,2021-10-30,0.4423531260235312,0.6752104527003232,1.0834500110454208,,,,,,,,,,,,
32021,0,USNevadaMineral,Nevada,Mineral,2022-04-28 09:13:11,2021-10-31,0.4423531260235312,0.6752104527003232,1.0834500110454208,,,,,,,,,,,,
32021,0,USNevadaMineral,Nevada,Mineral,2022-04-28 09:13:11,2021-11-01,0.4423531260235312,0.6752104527003232,1.0834500110454208,,,,,,,,,,,,
32021,0,USNevadaMineral,Nevada,Mineral,2022-04-28 09:13:11,2021-11-02,0.4423531260235312,0.6752104527003232,1.0834500110454208,,,,,,,,,,,,
32021,0,USNevadaMineral,Nevada,Mineral,2022-04-28 09:13:11,2021-11-03,0.4423531260235312,0.6752104527003232,1.0834500110454208,,,,,,,,,,,,
32021,0,USNevadaMineral,Nevada,Mineral,2022-04-28 09:13:11,2021-11-04,0,0,0,,,,,,,,,,,,
32021,0,USNevadaMineral,Nevada,Mineral,2022-04-28 09:13:11,2021-11-05,0,0,0,,,,,,,,,,,,
32021,0,USNevadaMineral,Nevada,Mineral,2022-04-28 09:13:11,2021-11-06,0,0,0,,,,,,,,,,,,
32021,0,USNevadaMineral,Nevada,Mineral,2022-04-28 09:13:11,2021-11-07,0,0,0,,,,,,,,,,,,
32021,0,USNevadaMineral,Nevada,Mineral,2022-04-28 09:13:11,2021-11-08,0,0,0,,,,,,,,,,,,
32021,0,USNevadaMineral,Nevada,Mineral,2022-04-28 09:13:11,2021-11-09,0,0,0,,,,,,,,,,,,
32021,0,USNevadaMineral,Nevada,Mineral,2022-04-28 09:13:11,2021-11-10,0,0,0,,,,,,,,,,,,
32021,0,USNevadaMineral,Nevada,Mineral,2022-04-28 09:13:11,2021-11-11,2.021942568290959,2.2679761250369515,2.5663626763521683,,,,,,,,,,,,
32021,0,USNevadaMineral,Nevada,Mineral,2022-04-28 09:13:11,2021-11-12,2.021942568290959,2.2679761250369515,2.5663626763521683,,,,,,,,,,,,
32021,0,USNevadaMineral,Nevada,Mineral,2022-04-28 09:13:11,2021-11-13,2.021942568290959,2.2679761250369515,2.5663626763521683,,,,,,,,,,,,
32021,0,USNevadaMineral,Nevada,Mineral,2022-04-28 09:13:11,2021-11-14,2.021942568290959,2.2679761250369515,2.5663626763521683,,,,,,,,,,,,
32021,0,USNevadaMineral,Nevada,Mineral,2022-04-28 09:13:11,2021-11-15,2.021942568290959,2.2679761250369515,2.5663626763521683,,,,,,,,,,,,
32021,0,USNevadaMineral,Nevada,Mineral,2022-04-28 09:13:11,2021-11-16,2.021942568290959,2.2679761250369515,2.5663626763521683,,,,,,,,,,,,
32021,0,USNevadaMineral,Nevada,Mineral,2022-04-28 09:13:11,2021-11-17,2.021942568290959,2.2679761250369515,2.5663626763521683,,,,,,,,,,,,
32021,0,USNevadaMineral,Nevada,Mineral,2022-04-28 09:13:11,2021-11-18,0,0,0,,,,,,,,,,,,
32021,0,USNevadaMineral,Nevada,Mineral,2022-04-28 09:13:11,2021-11-19,0,0,0,,,,,,,,,,,,
32021,0,USNevadaMineral,Nevada,Mineral,2022-04-28 09:13:11,2021-11-20,0,0,0,,,,,,,,,,,,
32021,0,USNevadaMineral,Nevada,Mineral,2022-04-28 09:13:11,2021-11-21,0,0,0,,,,,,,,,,,,
32021,0,USNevadaMineral,Nevada,Mineral,2022-04-28 09:13:11,2021-11-22,0,0,0,,,,,,,,,,,,
32021,0,USNevadaMineral,Nevada,Mineral,2022-04-28 09:13:11,2021-11-23,0,0,0,,,,,,,,,,,,
32021,0,USNevadaMineral,Nevada,Mineral,2022-04-28 09:13:11,2021-11-24,0,0,0,,,,,,,,,,,,
32021,0,USNevadaMineral,Nevada,Mineral,2022-04-28 09:13:11,2021-11-25,1.5437427810519062,2.4574924592638174,4.130420933284293,,,,,,,,,,,,
32021,0,USNevadaMineral,Nevada,Mineral,2022-04-28 09:13:11,2021-11-26,1.5437427810519062,2.4574924592638174,4.130420933284293,,,,,,,,,,,,
32021,0,USNevadaMineral,Nevada,Mineral,2022-04-28 09:13:11,2021-11-27,1.5437427810519062,2.4574924592638174,4.130420933284293,,,,,,,,,,,,
32021,0,USNevadaMineral,Nevada,Mineral,2022-04-28 09:13:11,2021-11-28,1.5437427810519062,2.4574924592638174,4.130420933284293,,,,,,,,,,,,
32021,0,USNevadaMineral,Nevada,Mineral,2022-04-28 09:13:11,2021-11-29,1.5437427810519062,2.4574924592638174,4.130420933284293,,,,,,,,,,,,
32021,0,USNevadaMineral,Nevada,Mineral,2022-04-28 09:13:11,2021-11-30,1.5437427810519062,2.4574924592638174,4.130420933284293,,,,,,,,,,,,
32021,0,USNevadaMineral,Nevada,Mineral,2022-04-28 09:13:11,2021-12-01,1.5437427810519062,2.4574924592638174,4.130420933284293,,,,,,,,,,,,
32021,0,USNevadaMineral,Nevada,Mineral,2022-04-28 09:13:11,2021-12-02,1.2034649774757185,1.9849948458365487,3.4681764202041236,,,,,,,,,,,,
32021,0,USNevadaMineral,Nevada,Mineral,2022-04-28 09:13:11,2021-12-03,1.2034649774757185,1.9849948458365487,3.4681764202041236,,,,,,,,,,,,
32021,0,USNevadaMineral,Nevada,Mineral,2022-04-28 09:13:11,2021-12-04,1.2034649774757185,1.9849948458365487,3.4681764202041236,,,,,,,,,,,,
32021,0,USNevadaMineral,Nevada,Mineral,2022-04-28 09:13:11,2021-12-05,1.2034649774757185,1.9849948458365487,3.4681764202041236,,,,,,,,,,,,
32021,0,USNevadaMineral,Nevada,Mineral,2022-04-28 09:13:11,2021-12-06,1.2034649774757185,1.9849948458365487,3.4681764202041236,,,,,,,,,,,,
32021,0,USNevadaMineral,Nevada,Mineral,2022-04-28 09:13:11,2021-12-07,1.2034649774757185,1.9849948458365487,3.4681764202041236,,,,,,,,,,,,
32021,0,USNevadaMineral,Nevada,Mineral,2022-04-28 09:13:11,2021-12-08,1.2034649774757185,1.9849948458365487,3.4681764202041236,,,,,,,,,,,,
32021,0,USNevadaMineral,Nevada,Mineral,2022-04-28 09:13:11,2021-12-09,0.18997256511489502,0.36571187156749585,0.7536015085429877,,,,,,,,,,,,
32021,0,USNevadaMineral,Nevada,Mineral,2022-04-28 09:13:11,2021-12-10,0.18997256511489502,0.36571187156749585,0.7536015085429877,,,,,,,,,,,,
32021,0,USNevadaMineral,Nevada,Mineral,2022-04-28 09:13:11,2021-12-11,0.18997256511489502,0.36571187156749585,0.7536015085429877,,,,,,,,,,,,
32021,0,USNevadaMineral,Nevada,Mineral,2022-04-28 09:13:11,2021-12-12,0.18997256511489502,0.36571187156749585,0.7536015085429877,,,,,,,,,,,,
32021,0,USNevadaMineral,Nevada,Mineral,2022-04-28 09:13:11,2021-12-13,0.18997256511489502,0.36571187156749585,0.7536015085429877,,,,,,,,,,,,
32021,0,USNevadaMineral,Nevada,Mineral,2022-04-28 09:13:11,2021-12-14,0.18997256511489502,0.36571187156749585,0.7536015085429877,,,,,,,,,,,,
32021,0,USNevadaMineral,Nevada,Mineral,2022-04-28 09:13:11,2021-12-15,0.18997256511489502,0.36571187156749585,0.7536015085429877,,,,,,,,,,,,
32021,0,USNevadaMineral,Nevada,Mineral,2022-04-28 09:13:11,2021-12-16,0,0,0,,,,,,,,,,,,
32021,0,USNevadaMineral,Nevada,Mineral,2022-04-28 09:13:11,2021-12-17,0,0,0,,,,,,,,,,,,
32021,0,USNevadaMineral,Nevada,Mineral,2022-04-28 09:13:11,2021-12-18,0,0,0,,,,,,,,,,,,
32021,0,USNevadaMineral,Nevada,Mineral,2022-04-28 09:13:11,2021-12-19,0,0,0,,,,,,,,,,,,
32021,0,USNevadaMineral,Nevada,Mineral,2022-04-28 09:13:11,2021-12-20,0,0,0,,,,,,,,,,,,
32021,0,USNevadaMineral,Nevada,Mineral,2022-04-28 09:13:11,2021-12-21,0,0,0,,,,,,,,,,,,
32021,0,USNevadaMineral,Nevada,Mineral,2022-04-28 09:13:11,2021-12-22,0,0,0,,,,,,,,,,,,
32021,0,USNevadaMineral,Nevada,Mineral,2022-04-28 09:13:11,2021-12-23,0,0,0,,,,,,,,,,,,
32021,0,USNevadaMineral,Nevada,Mineral,2022-04-28 09:13:11,2021-12-24,0,0,0,,,,,,,,,,,,
32021,0,USNevadaMineral,Nevada,Mineral,2022-04-28 09:13:11,2021-12-25,0,0,0,,,,,,,,,,,,
32021,0,USNevadaMineral,Nevada,Mineral,2022-04-28 09:13:11,2021-12-26,0,0,0,,,,,,,,,,,,
32021,0,USNevadaMineral,Nevada,Mineral,2022-04-28 09:13:11,2021-12-27,0,0,0,,,,,,,,,,,,
32021,0,USNevadaMineral,Nevada,Mineral,2022-04-28 09:13:11,2021-12-28,0,0,0,,,,,,,,,,,,
32021,0,USNevadaMineral,Nevada,Mineral,2022-04-28 09:13:11,2021-12-29,0,0,0,,,,,,,,,,,,
32021,0,USNevadaMineral,Nevada,Mineral,2022-04-28 09:13:11,2021-12-30,1.6771260898050047,3.341780941101132,7.1384136748788976,,,,,,,,,,,,
32021,0,USNevadaMineral,Nevada,Mineral,2022-04-28 09:13:11,2021-12-31,1.6771260898050047,3.341780941101132,7.1384136748788976,,,,,,,,,,,,
32021,0,USNevadaMineral,Nevada,Mineral,2022-04-28 09:13:11,2022-01-01,1.6771260898050047,3.341780941101132,7.1384136748788976,,,,,,,,,,,,
32021,0,USNevadaMineral,Nevada,Mineral,2022-04-28 09:13:11,2022-01-02,1.6771260898050047,3.341780941101132,7.1384136748788976,,,,,,,,,,,,
32021,0,USNevadaMineral,Nevada,Mineral,2022-04-28 09:13:11,2022-01-03,1.6771260898050047,3.341780941101132,7.1384136748788976,,,,,,,,,,,,
32021,0,USNevadaMineral,Nevada,Mineral,2022-04-28 09:13:11,2022-01-04,1.6771260898050047,3.341780941101132,7.1384136748788976,,,,,,,,,,,,
32021,0,USNevadaMineral,Nevada,Mineral,2022-04-28 09:13:11,2022-01-05,1.6771260898050047,3.341780941101132,7.1384136748788976,,,,,,,,,,,,
32021,0,USNevadaMineral,Nevada,Mineral,2022-04-28 09:13:11,2022-01-06,0.9858409589950015,1.7997225067024225,3.5067305425574657,,,,,,,,,,,,
32021,0,USNevadaMineral,Nevada,Mineral,2022-04-28 09:13:11,2022-01-07,0.9858409589950015,1.7997225067024225,3.5067305425574657,,,,,,,,,,,,
32021,0,USNevadaMineral,Nevada,Mineral,2022-04-28 09:13:11,2022-01-08,0.9858409589950015,1.7997225067024225,3.5067305425574657,,,,,,,,,,,,
32021,0,USNevadaMineral,Nevada,Mineral,2022-04-28 09:13:11,2022-01-09,0.9858409589950015,1.7997225067024225,3.5067305425574657,,,,,,,,,,,,
32021,0,USNevadaMineral,Nevada,Mineral,2022-04-28 09:13:11,2022-01-10,0.9858409589950015,1.7997225067024225,3.5067305425574657,,,,,,,,,,,,
32021,0,USNevadaMineral,Nevada,Mineral,2022-04-28 09:13:11,2022-01-11,0.9858409589950015,1.7997225067024225,3.5067305425574657,,,,,,,,,,,,
32021,0,USNevadaMineral,Nevada,Mineral,2022-04-28 09:13:11,2022-01-12,0.9858409589950015,1.7997225067024225,3.5067305425574657,,,,,,,,,,,,
32021,0,USNevadaMineral,Nevada,Mineral,2022-04-28 09:13:11,2022-01-13,6.157051661514158,9.77536469778391,16.381911273125795,,,,,,,,,,,,
32021,0,USNevadaMineral,Nevada,Mineral,2022-04-28 09:13:11,2022-01-14,6.157051661514158,9.77536469778391,16.381911273125795,,,,,,,,,,,,
32021,0,USNevadaMineral,Nevada,Mineral,2022-04-28 09:13:11,2022-01-15,6.157051661514158,9.77536469778391,16.381911273125795,,,,,,,,,,,,
32021,0,USNevadaMineral,Nevada,Mineral,2022-04-28 09:13:11,2022-01-16,6.157051661514158,9.77536469778391,16.381911273125795,,,,,,,,,,,,
32021,0,USNevadaMineral,Nevada,Mineral,2022-04-28 09:13:11,2022-01-17,6.157051661514158,9.77536469778391,16.381911273125795,,,,,,,,,,,,
32021,0,USNevadaMineral,Nevada,Mineral,2022-04-28 09:13:11,2022-01-18,6.157051661514158,9.77536469778391,16.381911273125795,,,,,,,,,,,,
32021,0,USNevadaMineral,Nevada,Mineral,2022-04-28 09:13:11,2022-01-19,6.157051661514158,9.77536469778391,16.381911273125795,,,,,,,,,,,,
32021,0,USNevadaMineral,Nevada,Mineral,2022-04-28 09:13:11,2022-01-20,7.359055303626335,11.868026921776966,20.233021975323854,,,,,,,,,,,,
32021,0,USNevadaMineral,Nevada,Mineral,2022-04-28 09:13:11,2022-01-21,7.359055303626335,11.868026921776966,20.233021975323854,,,,,,,,,,,,
32021,0,USNevadaMineral,Nevada,Mineral,2022-04-28 09:13:11,2022-01-22,7.359055303626335,11.868026921776966,20.233021975323854,,,,,,,,,,,,
32021,0,USNevadaMineral,Nevada,Mineral,2022-04-28 09:13:11,2022-01-23,7.359055303626335,11.868026921776966,20.233021975323854,,,,,,,,,,,,
32021,0,USNevadaMineral,Nevada,Mineral,2022-04-28 09:13:11,2022-01-24,7.359055303626335,11.868026921776966,20.233021975323854,,,,,,,,,,,,
32021,0,USNevadaMineral,Nevada,Mineral,2022-04-28 09:13:11,2022-01-25,7.359055303626335,11.868026921776966,20.233021975323854,,,,,,,,,,,,
32021,0,USNevadaMineral,Nevada,Mineral,2022-04-28 09:13:11,2022-01-26,7.359055303626335,11.868026921776966,20.233021975323854,,,,,,,,,,,,
32021,0,USNevadaMineral,Nevada,Mineral,2022-04-28 09:13:11,2022-01-27,4.006809910966913,6.601665045903882,11.520797442796791,,,,,,,,,,,,
32021,0,USNevadaMineral,Nevada,Mineral,2022-04-28 09:13:11,2022-01-28,4.006809910966913,6.601665045903882,11.520797442796791,,,,,,,,,,,,
32021,0,USNevadaMineral,Nevada,Mineral,2022-04-28 09:13:11,2022-01-29,4.006809910966913,6.601665045903882,11.520797442796791,,,,,,,,,,,,
32021,0,USNevadaMineral,Nevada,Mineral,2022-04-28 09:13:11,2022-01-30,4.006809910966913,6.601665045903882,11.520797442796791,,,,,,,,,,,,
32021,0,USNevadaMineral,Nevada,Mineral,2022-04-28 09:13:11,2022-01-31,4.006809910966913,6.601665045903882,11.520797442796791,,,,,,,,,,,,
32021,0,USNevadaMineral,Nevada,Mineral,2022-04-28 09:13:11,2022-02-01,4.006809910966913,6.601665045903882,11.520797442796791,,,,,,,,,,,,
32021,0,USNevadaMineral,Nevada,Mineral,2022-04-28 09:13:11,2022-02-02,4.006809910966913,6.601665045903882,11.520797442796791,,,,,,,,,,,,
32021,0,USNevadaMineral,Nevada,Mineral,2022-04-28 09:13:11,2022-02-03,1.671203692283825,2.735987947769256,4.741613526041802,,,,,,,,,,,,
32021,0,USNevadaMineral,Nevada,Mineral,2022-04-28 09:13:11,2022-02-04,1.671203692283825,2.735987947769256,4.741613526041802,,,,,,,,,,,,
32021,0,USNevadaMineral,Nevada,Mineral,2022-04-28 09:13:11,2022-02-05,1.671203692283825,2.735987947769256,4.741613526041802,,,,,,,,,,,,
32021,0,USNevadaMineral,Nevada,Mineral,2022-04-28 09:13:11,2022-02-06,1.671203692283825,2.735987947769256,4.741613526041802,,,,,,,,,,,,
32021,0,USNevadaMineral,Nevada,Mineral,2022-04-28 09:13:11,2022-02-07,1.671203692283825,2.735987947769256,4.741613526041802,,,,,,,,,,,,
32021,0,USNevadaMineral,Nevada,Mineral,2022-04-28 09:13:11,2022-02-08,1.671203692283825,2.735987947769256,4.741613526041802,,,,,,,,,,,,
32021,0,USNevadaMineral,Nevada,Mineral,2022-04-28 09:13:11,2022-02-09,1.671203692283825,2.735987947769256,4.741613526041802,,,,,,,,,,,,
32021,0,USNevadaMineral,Nevada,Mineral,2022-04-28 09:13:11,2022-02-10,1.9017742720305368,3.5050666039790372,6.89889986393442,,,,,,,,,,,,
32021,0,USNevadaMineral,Nevada,Mineral,2022-04-28 09:13:11,2022-02-11,1.9017742720305368,3.5050666039790372,6.89889986393442,,,,,,,,,,,,
32021,0,USNevadaMineral,Nevada,Mineral,2022-04-28 09:13:11,2022-02-12,1.9017742720305368,3.5050666039790372,6.89889986393442,,,,,,,,,,,,
32021,0,USNevadaMineral,Nevada,Mineral,2022-04-28 09:13:11,2022-02-13,1.9017742720305368,3.5050666039790372,6.89889986393442,,,,,,,,,,,,
32021,0,USNevadaMineral,Nevada,Mineral,2022-04-28 09:13:11,2022-02-14,1.9017742720305368,3.5050666039790372,6.89889986393442,,,,,,,,,,,,
32021,0,USNevadaMineral,Nevada,Mineral,2022-04-28 09:13:11,2022-02-15,1.9017742720305368,3.5050666039790372,6.89889986393442,,,,,,,,,,,,
32021,0,USNevadaMineral,Nevada,Mineral,2022-04-28 09:13:11,2022-02-16,1.9017742720305368,3.5050666039790372,6.89889986393442,,,,,,,,,,,,
32021,0,USNevadaMineral,Nevada,Mineral,2022-04-28 09:13:11,2022-02-17,0.9284501981234695,1.7505648280046915,3.5293627553404554,,,,,,,,,,,,
32021,0,USNevadaMineral,Nevada,Mineral,2022-04-28 09:13:11,2022-02-18,0.9284501981234695,1.7505648280046915,3.5293627553404554,,,,,,,,,,,,
32021,0,USNevadaMineral,Nevada,Mineral,2022-04-28 09:13:11,2022-02-19,0.9284501981234695,1.7505648280046915,3.5293627553404554,,,,,,,,,,,,
32021,0,USNevadaMineral,Nevada,Mineral,2022-04-28 09:13:11,2022-02-20,0.9284501981234695,1.7505648280046915,3.5293627553404554,,,,,,,,,,,,
32021,0,USNevadaMineral,Nevada,Mineral,2022-04-28 09:13:11,2022-02-21,0.9284501981234695,1.7505648280046915,3.5293627553404554,,,,,,,,,,,,
32021,0,USNevadaMineral,Nevada,Mineral,2022-04-28 09:13:11,2022-02-22,0.9284501981234695,1.7505648280046915,3.5293627553404554,,,,,,,,,,,,
32021,0,USNevadaMineral,Nevada,Mineral,2022-04-28 09:13:11,2022-02-23,0.9284501981234695,1.7505648280046915,3.5293627553404554,,,,,,,,,,,,
32021,0,USNevadaMineral,Nevada,Mineral,2022-04-28 09:13:11,2022-02-24,0.7704486226444752,1.5019222449761862,3.1358792513533498,,,,,,,,,,,,
32021,0,USNevadaMineral,Nevada,Mineral,2022-04-28 09:13:11,2022-02-25,0.7704486226444752,1.5019222449761862,3.1358792513533498,,,,,,,,,,,,
32021,0,USNevadaMineral,Nevada,Mineral,2022-04-28 09:13:11,2022-02-26,0.7704486226444752,1.5019222449761862,3.1358792513533498,,,,,,,,,,,,
32021,0,USNevadaMineral,Nevada,Mineral,2022-04-28 09:13:11,2022-02-27,0.7704486226444752,1.5019222449761862,3.1358792513533498,,,,,,,,,,,,
32021,0,USNevadaMineral,Nevada,Mineral,2022-04-28 09:13:11,2022-02-28,0.7704486226444752,1.5019222449761862,3.1358792513533498,,,,,,,,,,,,
32021,0,USNevadaMineral,Nevada,Mineral,2022-04-28 09:13:11,2022-03-01,0.7704486226444752,1.5019222449761862,3.1358792513533498,,,,,,,,,,,,
32021,0,USNevadaMineral,Nevada,Mineral,2022-04-28 09:13:11,2022-03-02,0.7704486226444752,1.5019222449761862,3.1358792513533498,,,,,,,,,,,,
32021,0,USNevadaMineral,Nevada,Mineral,2022-04-28 09:13:11,2022-03-03,0.11519661942617891,0.26388873937085255,0.6503181682564908,,,,,,,,,,,,
32021,0,USNevadaMineral,Nevada,Mineral,2022-04-28 09:13:11,2022-03-04,0.11519661942617891,0.26388873937085255,0.6503181682564908,,,,,,,,,,,,
32021,0,USNevadaMineral,Nevada,Mineral,2022-04-28 09:13:11,2022-03-05,0.11519661942617891,0.26388873937085255,0.6503181682564908,,,,,,,,,,,,
32021,0,USNevadaMineral,Nevada,Mineral,2022-04-28 09:13:11,2022-03-06,0.11519661942617891,0.26388873937085255,0.6503181682564908,,,,,,,,,,,,
32021,0,USNevadaMineral,Nevada,Mineral,2022-04-28 09:13:11,2022-03-07,0.11519661942617891,0.26388873937085255,0.6503181682564908,,,,,,,,,,,,
32021,0,USNevadaMineral,Nevada,Mineral,2022-04-28 09:13:11,2022-03-08,0.11519661942617891,0.26388873937085255,0.6503181682564908,,,,,,,,,,,,
32021,0,USNevadaMineral,Nevada,Mineral,2022-04-28 09:13:11,2022-03-09,0.11519661942617891,0.26388873937085255,0.6503181682564908,,,,,,,,,,,,
32021,0,USNevadaMineral,Nevada,Mineral,2022-04-28 09:13:11,2022-03-10,21.784258518326645,32.59509476513916,51.15590196575203,,,,,,,,,,,,
32021,0,USNevadaMineral,Nevada,Mineral,2022-04-28 09:13:11,2022-03-11,21.784258518326645,32.59509476513916,51.15590196575203,,,,,,,,,,,,
32021,0,USNevadaMineral,Nevada,Mineral,2022-04-28 09:13:11,2022-03-12,21.784258518326645,32.59509476513916,51.15590196575203,,,,,,,,,,,,
32021,0,USNevadaMineral,Nevada,Mineral,2022-04-28 09:13:11,2022-03-13,21.784258518326645,32.59509476513916,51.15590196575203,,,,,,,,,,,,
32021,0,USNevadaMineral,Nevada,Mineral,2022-04-28 09:13:11,2022-03-14,21.784258518326645,32.59509476513916,51.15590196575203,,,,,,,,,,,,
32021,0,USNevadaMineral,Nevada,Mineral,2022-04-28 09:13:11,2022-03-15,21.784258518326645,32.59509476513916,51.15590196575203,,,,,,,,,,,,
32021,0,USNevadaMineral,Nevada,Mineral,2022-04-28 09:13:11,2022-03-16,21.784258518326645,32.59509476513916,51.15590196575203,,,,,,,,,,,,
