FIPS,HR_UID,nameid,province,region,analysisTime,dates,pointprevalence_025,pointprevalence_50,pointprevalence_975,pointinfections_025,pointinfections_50,pointinfections_975,pointinfectious_025,pointinfectious_50,pointinfectious_975,pointinfectiousprevalence_05,pointinfectiousprevalence_50,pointinfectiousprevalence_95,infectrate_025,infectrate_50,infectrate_975
0,0,Ghana,,,2022-03-22 20:08:25.885033,2021-08-27,0.00064361,0.00287351,0.01752706,199,892,5446,103,527,2765,0.00033377,0.00169862,0.00890094,0.35417903,0.79996007,1.29246770
0,0,Ghana,,,2022-03-22 20:08:25.885033,2021-08-28,0.00089600,0.00341327,0.01842055,278,1060,5723,136,630,2944,0.00043864,0.00202816,0.00947539,0.35417928,0.79995925,1.29246547
0,0,Ghana,,,2022-03-22 20:08:25.885033,2021-08-29,0.00123012,0.00407956,0.01936738,382,1267,6018,184,731,3199,0.00059517,0.00235371,0.01029615,0.35418007,0.79995669,1.29245851
0,0,Ghana,,,2022-03-22 20:08:25.885033,2021-08-30,0.00166716,0.00490487,0.02037900,518,1524,6332,253,866,3471,0.00081554,0.00278809,0.01117127,0.35418256,0.79994866,1.29243666
0,0,Ghana,,,2022-03-22 20:08:25.885033,2021-08-31,0.00224044,0.00593590,0.02155208,696,1844,6696,343,1039,3744,0.00110398,0.00334582,0.01205142,0.35419034,0.79992347,1.29236817
0,0,Ghana,,,2022-03-22 20:08:25.885033,2021-09-01,0.00300114,0.00708053,0.02269926,932,2200,7053,461,1258,4011,0.00148650,0.00404858,0.01290867,0.35421474,0.79984452,1.29215348
0,0,Ghana,,,2022-03-22 20:08:25.885033,2021-09-02,0.00400084,0.00831438,0.02384843,1243,2583,7410,624,1493,4294,0.00201018,0.00480564,0.01381999,0.35429118,0.79959727,1.29148115
0,0,Ghana,,,2022-03-22 20:08:25.885033,2021-09-03,0.00529734,0.00975976,0.02504226,1646,3032,7781,830,1771,4564,0.00267116,0.00570207,0.01469091,0.35453028,0.79882488,1.28938138
0,0,Ghana,,,2022-03-22 20:08:25.885033,2021-09-04,0.00700344,0.01147485,0.02629768,2176,3565,8171,1097,2047,4830,0.00353059,0.00659080,0.01554719,0.35527417,0.79643144,1.28287942
0,0,Ghana,,,2022-03-22 20:08:25.885033,2021-09-05,0.00916337,0.01396752,0.02774472,2847,4340,8621,1444,2419,5102,0.00464901,0.00778723,0.01642143,0.35755058,0.78919631,1.26326779
0,0,Ghana,,,2022-03-22 20:08:25.885033,2021-09-06,0.01143169,0.01670740,0.02970207,3552,5191,9229,1893,2946,5388,0.00609269,0.00948098,0.01734257,0.36417820,0.76887016,1.20852421
0,0,Ghana,,,2022-03-22 20:08:25.885033,2021-09-07,0.01288889,0.02037002,0.03292691,4004,6329,10231,2385,3471,5851,0.00767578,0.01117291,0.01883149,0.38096988,0.72083194,1.08379107
0,0,Ghana,,,2022-03-22 20:08:25.885033,2021-09-08,0.01403785,0.02416093,0.03603632,4361,7507,11197,2719,4193,6492,0.00875121,0.01349531,0.02089337,0.41234792,0.64556761,0.89699885
0,0,Ghana,,,2022-03-22 20:08:25.885033,2021-09-09,0.01548338,0.02781358,0.04015783,4811,8642,12478,2957,4984,7536,0.00951718,0.01604237,0.02425462,0.44647792,0.56358376,0.74650398
0,0,Ghana,,,2022-03-22 20:08:25.885033,2021-09-10,0.01717058,0.03134075,0.04454233,5335,9738,13840,3233,5728,8554,0.01040529,0.01843719,0.02753041,0.46197162,0.56718888,0.67075243
0,0,Ghana,,,2022-03-22 20:08:25.885033,2021-09-11,0.01897453,0.03525011,0.04952906,5895,10953,15390,3585,6464,9548,0.01153913,0.02080304,0.03073026,0.46317723,0.55556201,0.63974027
0,0,Ghana,,,2022-03-22 20:08:25.885033,2021-09-12,0.02094287,0.03937981,0.05344390,6507,12236,16606,3983,7181,10649,0.01282114,0.02311208,0.03427191,0.45784359,0.54117589,0.62120681
0,0,Ghana,,,2022-03-22 20:08:25.885033,2021-09-13,0.02299194,0.04354471,0.05909394,7144,13530,18362,4377,7997,11512,0.01408897,0.02573822,0.03704976,0.44706555,0.52157856,0.59278822
0,0,Ghana,,,2022-03-22 20:08:25.885033,2021-09-14,0.02497795,0.04749765,0.06418720,7761,14758,19944,4812,8798,12358,0.01548824,0.02831686,0.03977295,0.42351345,0.48306356,0.53391210
0,0,Ghana,,,2022-03-22 20:08:25.885033,2021-09-15,0.02660656,0.05070148,0.06809918,8267,15754,21160,5227,9560,13432,0.01682415,0.03076653,0.04323035,0.38477475,0.42530469,0.47625947
0,0,Ghana,,,2022-03-22 20:08:25.885033,2021-09-16,0.02795067,0.05302079,0.07142628,8685,16475,22194,5582,10219,14340,0.01796667,0.03288894,0.04614953,0.34550852,0.37418237,0.42740169
0,0,Ghana,,,2022-03-22 20:08:25.885033,2021-09-17,0.02912567,0.05487502,0.07467393,9050,17051,23203,5894,10856,15041,0.01896917,0.03493755,0.04840613,0.31669599,0.34692571,0.40099336
0,0,Ghana,,,2022-03-22 20:08:25.885033,2021-09-18,0.03023334,0.05624430,0.07774871,9394,17476,24158,6170,11389,15582,0.01985932,0.03665390,0.05014793,0.30500867,0.33686945,0.38917210
0,0,Ghana,,,2022-03-22 20:08:25.885033,2021-09-19,0.03129926,0.05772705,0.08033001,9725,17937,24960,6424,11786,16021,0.02067624,0.03793258,0.05156096,0.29962902,0.33209971,0.38045989
0,0,Ghana,,,2022-03-22 20:08:25.885033,2021-09-20,0.03227283,0.05894623,0.08276502,10028,18316,25717,6660,12220,16393,0.02143633,0.03932980,0.05275865,0.29479953,0.32408166,0.36516710
0,0,Ghana,,,2022-03-22 20:08:25.885033,2021-09-21,0.03299979,0.06030507,0.08478618,10254,18738,26345,6870,12588,16761,0.02211130,0.04051195,0.05394108,0.28228530,0.30395459,0.33519134
0,0,Ghana,,,2022-03-22 20:08:25.885033,2021-09-22,0.03330639,0.06095711,0.08568767,10349,18941,26625,7030,12871,17186,0.02262667,0.04142499,0.05531010,0.24953700,0.27937532,0.30465948
0,0,Ghana,,,2022-03-22 20:08:25.885033,2021-09-23,0.03329939,0.06073029,0.08539089,10347,18870,26533,7113,13034,17381,0.02289225,0.04194719,0.05593810,0.21476688,0.24807305,0.28486827
0,0,Ghana,,,2022-03-22 20:08:25.885033,2021-09-24,0.03296056,0.06011441,0.08453090,10241,18679,26266,7135,13063,17471,0.02296282,0.04204263,0.05622880,0.19830907,0.23396465,0.27654601
0,0,Ghana,,,2022-03-22 20:08:25.885033,2021-09-25,0.03250362,0.05950267,0.08320412,10099,18489,25853,7096,12991,17400,0.02283721,0.04181029,0.05599944,0.19232417,0.22812794,0.27254638
0,0,Ghana,,,2022-03-22 20:08:25.885033,2021-09-26,0.03200168,0.05854904,0.08167106,9943,18192,25377,7022,12865,17260,0.02259994,0.04140527,0.05554837,0.19126642,0.22463766,0.26942757
0,0,Ghana,,,2022-03-22 20:08:25.885033,2021-09-27,0.03139510,0.05769772,0.08008593,9755,17928,24885,6928,12657,17213,0.02229867,0.04073346,0.05539616,0.19253175,0.21993940,0.26274424
0,0,Ghana,,,2022-03-22 20:08:25.885033,2021-09-28,0.03085333,0.05648635,0.07803820,9587,17551,24248,6814,12427,17115,0.02193073,0.03999314,0.05508107,0.19689788,0.21113421,0.24842793
0,0,Ghana,,,2022-03-22 20:08:25.885033,2021-09-29,0.03030049,0.05476088,0.07619571,9415,17015,23676,6710,12178,16934,0.02159611,0.03919194,0.05449996,0.19151379,0.20697816,0.22591716
0,0,Ghana,,,2022-03-22 20:08:25.885033,2021-09-30,0.02994367,0.05297695,0.07385160,9304,16461,22947,6593,11813,16625,0.02122049,0.03802018,0.05350427,0.17591910,0.19112018,0.23275133
0,0,Ghana,,,2022-03-22 20:08:25.885033,2021-10-01,0.02952696,0.05094390,0.07131699,9174,15829,22160,6480,11423,16151,0.02085451,0.03676451,0.05197906,0.16673132,0.18264675,0.24020872
0,0,Ghana,,,2022-03-22 20:08:25.885033,2021-10-02,0.02898408,0.04881855,0.06879079,9006,15169,21375,6378,11045,15603,0.02052903,0.03554711,0.05021627,0.16317869,0.18030702,0.24208741
0,0,Ghana,,,2022-03-22 20:08:25.885033,2021-10-03,0.02840212,0.04683073,0.06628189,8825,14551,20595,6330,10654,15019,0.02037273,0.03428856,0.04833658,0.16258762,0.17887860,0.24141610
0,0,Ghana,,,2022-03-22 20:08:25.885033,2021-10-04,0.02743514,0.04504236,0.06376999,8524,13995,19815,6215,10214,14454,0.02000450,0.03287283,0.04651692,0.16299307,0.17635434,0.23784680
0,0,Ghana,,,2022-03-22 20:08:25.885033,2021-10-05,0.02670745,0.04334433,0.06118049,8298,13468,19010,5980,9792,13938,0.01924648,0.03151348,0.04485740,0.16478013,0.17342551,0.22911397
0,0,Ghana,,,2022-03-22 20:08:25.885033,2021-10-06,0.02544902,0.04147120,0.05843870,7907,12886,18158,5846,9447,13409,0.01881594,0.03040381,0.04315475,0.15581033,0.17107848,0.21329971
0,0,Ghana,,,2022-03-22 20:08:25.885033,2021-10-07,0.02436110,0.03985099,0.05557843,7569,12382,17269,5576,9077,12821,0.01794700,0.02921474,0.04126200,0.14481719,0.16868192,0.20253428
0,0,Ghana,,,2022-03-22 20:08:25.885033,2021-10-08,0.02341686,0.03814356,0.05270810,7276,11852,16377,5320,8693,12240,0.01712265,0.02797641,0.03939128,0.13844257,0.16724854,0.20138260
0,0,Ghana,,,2022-03-22 20:08:25.885033,2021-10-09,0.02257386,0.03647104,0.05009406,7014,11332,15565,5168,8337,11671,0.01663469,0.02683135,0.03756299,0.13611789,0.16700532,0.20252272
0,0,Ghana,,,2022-03-22 20:08:25.885033,2021-10-10,0.02172756,0.03522357,0.04767501,6751,10945,14814,4938,7981,11121,0.01589285,0.02568525,0.03579224,0.13569598,0.16757434,0.20221343
0,0,Ghana,,,2022-03-22 20:08:25.885033,2021-10-11,0.02076375,0.03356351,0.04532109,6451,10429,14082,4761,7678,10593,0.01532436,0.02471256,0.03409199,0.13662635,0.16939852,0.19963645
0,0,Ghana,,,2022-03-22 20:08:25.885033,2021-10-12,0.02015205,0.03209175,0.04312933,6261,9971,13401,4550,7347,10096,0.01464546,0.02364738,0.03249178,0.13940424,0.17386792,0.19725466
0,0,Ghana,,,2022-03-22 20:08:25.885033,2021-10-13,0.01948794,0.03087277,0.04131444,6055,9593,12837,4394,7008,9642,0.01414219,0.02255459,0.03103078,0.14241141,0.18089310,0.19980490
0,0,Ghana,,,2022-03-22 20:08:25.885033,2021-10-14,0.01878797,0.02958074,0.03979312,5837,9191,12364,4290,6708,9240,0.01380877,0.02158930,0.02973921,0.14594639,0.18141431,0.20337834
0,0,Ghana,,,2022-03-22 20:08:25.885033,2021-10-15,0.01813997,0.02828318,0.03845786,5636,8788,11949,4133,6425,8890,0.01330401,0.02067812,0.02861147,0.14714512,0.18149231,0.20607812
0,0,Ghana,,,2022-03-22 20:08:25.885033,2021-10-16,0.01753502,0.02715565,0.03722760,5448,8438,11567,3986,6159,8579,0.01282803,0.01982268,0.02761117,0.14728948,0.18197813,0.20764452
0,0,Ghana,,,2022-03-22 20:08:25.885033,2021-10-17,0.01695513,0.02607304,0.03606350,5268,8101,11205,3849,5884,8296,0.01238764,0.01893666,0.02669896,0.14717095,0.18208593,0.20831457
0,0,Ghana,,,2022-03-22 20:08:25.885033,2021-10-18,0.01638348,0.02510653,0.03494627,5090,7801,10858,3719,5666,8031,0.01196908,0.01823682,0.02584622,0.14594797,0.18021286,0.20909578
0,0,Ghana,,,2022-03-22 20:08:25.885033,2021-10-19,0.01569426,0.02411429,0.03386444,4876,7493,10522,3591,5421,7779,0.01155862,0.01744677,0.02503493,0.14297324,0.17604369,0.21046919
0,0,Ghana,,,2022-03-22 20:08:25.885033,2021-10-20,0.01492357,0.02334359,0.03281026,4637,7253,10195,3461,5186,7536,0.01114097,0.01669244,0.02425383,0.13843153,0.17113749,0.21398506
0,0,Ghana,,,2022-03-22 20:08:25.885033,2021-10-21,0.01422424,0.02248060,0.03182133,4419,6985,9887,3293,5000,7300,0.01060061,0.01609262,0.02349626,0.13401969,0.16745341,0.21810967
0,0,Ghana,,,2022-03-22 20:08:25.885033,2021-10-22,0.01352350,0.02169296,0.03087844,4202,6740,9594,3109,4819,7072,0.01000807,0.01551018,0.02276050,0.13133901,0.16729185,0.22047021
0,0,Ghana,,,2022-03-22 20:08:25.885033,2021-10-23,0.01283201,0.02106238,0.02982161,3987,6544,9266,2961,4666,6857,0.00953081,0.01501749,0.02206883,0.13064048,0.16809919,0.22125923
0,0,Ghana,,,2022-03-22 20:08:25.885033,2021-10-24,0.01211780,0.02031368,0.02889831,3765,6312,8979,2831,4486,6635,0.00911093,0.01443746,0.02135543,0.13129782,0.16922490,0.22100299
0,0,Ghana,,,2022-03-22 20:08:25.885033,2021-10-25,0.01145257,0.01974661,0.02819684,3558,6135,8761,2687,4373,6386,0.00864818,0.01407427,0.02055233,0.13452273,0.17213374,0.21937352
0,0,Ghana,,,2022-03-22 20:08:25.885033,2021-10-26,0.01087022,0.01914376,0.02731902,3377,5948,8488,2535,4223,6176,0.00816054,0.01359313,0.01987786,0.14224889,0.17915102,0.21518653
0,0,Ghana,,,2022-03-22 20:08:25.885033,2021-10-27,0.01040064,0.01845168,0.02642663,3231,5733,8211,2406,4077,6036,0.00774583,0.01312385,0.01942534,0.15454979,0.19128542,0.20973570
0,0,Ghana,,,2022-03-22 20:08:25.885033,2021-10-28,0.00989939,0.01789692,0.02573266,3076,5561,7995,2291,3943,5864,0.00737302,0.01269245,0.01887361,0.16013198,0.19869104,0.21757667
0,0,Ghana,,,2022-03-22 20:08:25.885033,2021-10-29,0.00958153,0.01733930,0.02506413,2977,5387,7788,2200,3811,5724,0.00708260,0.01226685,0.01842319,0.16114679,0.19708110,0.22934129
0,0,Ghana,,,2022-03-22 20:08:25.885033,2021-10-30,0.00931624,0.01683280,0.02457914,2894,5230,7637,2125,3686,5572,0.00684194,0.01186302,0.01793360,0.16171944,0.19685144,0.23491241
0,0,Ghana,,,2022-03-22 20:08:25.885033,2021-10-31,0.00891799,0.01637979,0.02403403,2771,5089,7468,2062,3563,5449,0.00663698,0.01146704,0.01753637,0.16246885,0.19796176,0.23807561
0,0,Ghana,,,2022-03-22 20:08:25.885033,2021-11-01,0.00849892,0.01588213,0.02352694,2640,4935,7310,1969,3448,5317,0.00633819,0.01109813,0.01711409,0.16510292,0.20048017,0.24185992
0,0,Ghana,,,2022-03-22 20:08:25.885033,2021-11-02,0.00812425,0.01552442,0.02301991,2524,4823,7152,1877,3341,5194,0.00604353,0.01075327,0.01671686,0.17194124,0.20820789,0.24931472
0,0,Ghana,,,2022-03-22 20:08:25.885033,2021-11-03,0.00780960,0.01527286,0.02251499,2426,4745,6996,1795,3254,5083,0.00577769,0.01047497,0.01635889,0.18100623,0.22159105,0.26116098
0,0,Ghana,,,2022-03-22 20:08:25.885033,2021-11-04,0.00755386,0.01511557,0.02225905,2347,4696,6916,1724,3180,4953,0.00554871,0.01023548,0.01594025,0.18800283,0.24044830,0.27764308
0,0,Ghana,,,2022-03-22 20:08:25.885033,2021-11-05,0.00733976,0.01504248,0.02234704,2280,4674,6943,1664,3126,4877,0.00535602,0.01006113,0.01569779,0.19018075,0.25246297,0.28992158
0,0,Ghana,,,2022-03-22 20:08:25.885033,2021-11-06,0.00714863,0.01498381,0.02195561,2221,4655,6822,1613,3104,4861,0.00519212,0.00999173,0.01564551,0.19272582,0.25772720,0.29431310
0,0,Ghana,,,2022-03-22 20:08:25.885033,2021-11-07,0.00697433,0.01484125,0.02225985,2167,4611,6916,1568,3083,4836,0.00504847,0.00992434,0.01556392,0.19454041,0.26011124,0.29583955
0,0,Ghana,,,2022-03-22 20:08:25.885033,2021-11-08,0.00682095,0.01478078,0.02258663,2119,4592,7018,1529,3076,4771,0.00492080,0.00990028,0.01535633,0.19812533,0.26226538,0.29410783
0,0,Ghana,,,2022-03-22 20:08:25.885033,2021-11-09,0.00668381,0.01475714,0.02293573,2076,4585,7126,1494,3079,4836,0.00481126,0.00991109,0.01556596,0.20369653,0.26610518,0.28960890
0,0,Ghana,,,2022-03-22 20:08:25.885033,2021-11-10,0.00656197,0.01475526,0.02331277,2038,4584,7243,1469,3075,4908,0.00472919,0.00989730,0.01579651,0.21459798,0.27169234,0.29779870
0,0,Ghana,,,2022-03-22 20:08:25.885033,2021-11-11,0.00654552,0.01473927,0.02373183,2033,4579,7374,1442,3060,4985,0.00464370,0.00984811,0.01604562,0.22290628,0.27771168,0.31346311
0,0,Ghana,,,2022-03-22 20:08:25.885033,2021-11-12,0.00654098,0.01477383,0.02447944,2032,4590,7606,1427,3048,5106,0.00459403,0.00980953,0.01643250,0.22658691,0.28170861,0.32433490
0,0,Ghana,,,2022-03-22 20:08:25.885033,2021-11-13,0.00655767,0.01485192,0.02508058,2037,4614,7793,1421,3048,5226,0.00457471,0.00981137,0.01681940,0.22898367,0.28385443,0.32823923
0,0,Ghana,,,2022-03-22 20:08:25.885033,2021-11-14,0.00658760,0.01484773,0.02570544,2046,4613,7987,1421,3059,5371,0.00457510,0.00984662,0.01728564,0.23201411,0.28507911,0.32858306
0,0,Ghana,,,2022-03-22 20:08:25.885033,2021-11-15,0.00663370,0.01483745,0.02638478,2061,4610,8198,1426,3067,5476,0.00458966,0.00987084,0.01762371,0.23939276,0.28745393,0.32542461
0,0,Ghana,,,2022-03-22 20:08:25.885033,2021-11-16,0.00671242,0.01490025,0.02713406,2085,4629,8431,1435,3080,5656,0.00461951,0.00991440,0.01820343,0.25529615,0.29242458,0.31986346
0,0,Ghana,,,2022-03-22 20:08:25.885033,2021-11-17,0.00684944,0.01507090,0.02799504,2128,4682,8698,1452,3104,5841,0.00467340,0.00999237,0.01879943,0.27900311,0.30029247,0.32666614
0,0,Ghana,,,2022-03-22 20:08:25.885033,2021-11-18,0.00705249,0.01531418,0.02892764,2191,4758,8988,1479,3129,5963,0.00476227,0.01007148,0.01919173,0.28009088,0.31079160,0.34332135
0,0,Ghana,,,2022-03-22 20:08:25.885033,2021-11-19,0.00729357,0.01565960,0.02951090,2266,4865,9169,1518,3171,6154,0.00488794,0.01020715,0.01980669,0.27211742,0.31748522,0.36580598
0,0,Ghana,,,2022-03-22 20:08:25.885033,2021-11-20,0.00755884,0.01601252,0.02996477,2348,4975,9310,1568,3219,6347,0.00504790,0.01036035,0.02042928,0.26920359,0.32096751,0.37762468
0,0,Ghana,,,2022-03-22 20:08:25.885033,2021-11-21,0.00782444,0.01634013,0.03064492,2431,5077,9522,1623,3286,6429,0.00522346,0.01057563,0.02069005,0.26959768,0.32232853,0.38303982
0,0,Ghana,,,2022-03-22 20:08:25.885033,2021-11-22,0.00814546,0.01671333,0.03109170,2531,5193,9661,1682,3348,6534,0.00541593,0.01077671,0.02103095,0.27343600,0.32321912,0.38787857
0,0,Ghana,,,2022-03-22 20:08:25.885033,2021-11-23,0.00850329,0.01716073,0.03173345,2642,5332,9860,1751,3427,6682,0.00563588,0.01103134,0.02150626,0.28531465,0.32345561,0.39681558
0,0,Ghana,,,2022-03-22 20:08:25.885033,2021-11-24,0.00892075,0.01753301,0.03257321,2771,5448,10121,1830,3518,6814,0.00589227,0.01132217,0.02193212,0.30559297,0.32499962,0.41371633
0,0,Ghana,,,2022-03-22 20:08:25.885033,2021-11-25,0.00953091,0.01798545,0.03372818,2961,5588,10480,1922,3588,6985,0.00618558,0.01154975,0.02248242,0.30980609,0.32956925,0.43172692
0,0,Ghana,,,2022-03-22 20:08:25.885033,2021-11-26,0.01020854,0.01848405,0.03510955,3172,5743,10909,2025,3660,7249,0.00651812,0.01178174,0.02332918,0.30763851,0.33311539,0.44470491
0,0,Ghana,,,2022-03-22 20:08:25.885033,2021-11-27,0.01088170,0.01884755,0.03663163,3381,5856,11382,2174,3736,7532,0.00699760,0.01202363,0.02424067,0.30745380,0.33393847,0.45296444
0,0,Ghana,,,2022-03-22 20:08:25.885033,2021-11-28,0.01136385,0.01920650,0.03818222,3531,5968,11864,2321,3818,7831,0.00747189,0.01228944,0.02520245,0.31011294,0.33590475,0.45630974
0,0,Ghana,,,2022-03-22 20:08:25.885033,2021-11-29,0.01188538,0.01977014,0.03967426,3693,6143,12327,2419,3912,8140,0.00778559,0.01259257,0.02619754,0.31850293,0.33669115,0.45867609
0,0,Ghana,,,2022-03-22 20:08:25.885033,2021-11-30,0.01280947,0.02029504,0.04109968,3980,6306,12770,2569,4005,8465,0.00827032,0.01289194,0.02724544,0.31965825,0.34286723,0.46287757
0,0,Ghana,,,2022-03-22 20:08:25.885033,2021-12-01,0.01366209,0.02100710,0.04236449,4245,6527,13163,2742,4126,8777,0.00882619,0.01327861,0.02824734,0.30593783,0.36621739,0.46882246
0,0,Ghana,,,2022-03-22 20:08:25.885033,2021-12-02,0.01474091,0.02180629,0.04344725,4580,6775,13500,2926,4317,9019,0.00941694,0.01389354,0.02902793,0.29437315,0.38660904,0.48189292
0,0,Ghana,,,2022-03-22 20:08:25.885033,2021-12-03,0.01606609,0.02310120,0.04443805,4992,7178,13808,3157,4501,9289,0.01016166,0.01448760,0.02989574,0.28698671,0.39196434,0.49919802
0,0,Ghana,,,2022-03-22 20:08:25.885033,2021-12-04,0.01754598,0.02428094,0.04551011,5452,7544,14141,3433,4696,9508,0.01105067,0.01511426,0.03059935,0.28465917,0.39440919,0.50618980
0,0,Ghana,,,2022-03-22 20:08:25.885033,2021-12-05,0.01916149,0.02559222,0.04632112,5954,7952,14393,3737,4977,9770,0.01202678,0.01601961,0.03144417,0.28506218,0.39562828,0.50854522
0,0,Ghana,,,2022-03-22 20:08:25.885033,2021-12-06,0.02077020,0.02752455,0.04755760,6453,8552,14777,4050,5285,9956,0.01303613,0.01701134,0.03204313,0.28760721,0.39716688,0.50547131
0,0,Ghana,,,2022-03-22 20:08:25.885033,2021-12-07,0.02248302,0.02920882,0.04871060,6986,9076,15135,4299,5610,10301,0.01383681,0.01805461,0.03315115,0.29505836,0.40073892,0.50240449
0,0,Ghana,,,2022-03-22 20:08:25.885033,2021-12-08,0.02391422,0.03108725,0.05101014,7430,9659,15850,4534,6007,10558,0.01459235,0.01933218,0.03398124,0.30328139,0.42473221,0.50338181
0,0,Ghana,,,2022-03-22 20:08:25.885033,2021-12-09,0.02561381,0.03331482,0.05284076,7958,10351,16419,4771,6480,10943,0.01535546,0.02085464,0.03521990,0.30893934,0.45128886,0.51744574
0,0,Ghana,,,2022-03-22 20:08:25.885033,2021-12-10,0.02745091,0.03587445,0.05519939,8529,11147,17152,5086,6906,11349,0.01636862,0.02222601,0.03652669,0.31201611,0.44332809,0.52576724
0,0,Ghana,,,2022-03-22 20:08:25.885033,2021-12-11,0.02941761,0.03845281,0.05834305,9140,11948,18128,5426,7486,11886,0.01746263,0.02409213,0.03825466,0.31328248,0.43983664,0.52859634
0,0,Ghana,,,2022-03-22 20:08:25.885033,2021-12-12,0.03145739,0.04131149,0.06150303,9774,12836,19110,5813,8100,12603,0.01870968,0.02606879,0.04056230,0.31398470,0.43840613,0.52708171
0,0,Ghana,,,2022-03-22 20:08:25.885033,2021-12-13,0.03332058,0.04406478,0.06430900,10353,13692,19982,6247,8607,13237,0.02010653,0.02769934,0.04260189,0.31437194,0.43736378,0.52140165
0,0,Ghana,,,2022-03-22 20:08:25.885033,2021-12-14,0.03558626,0.04712585,0.06883286,11057,14643,21388,6780,9252,13961,0.02182235,0.02977650,0.04492999,0.31490207,0.43809849,0.51778774
0,0,Ghana,,,2022-03-22 20:08:25.885033,2021-12-15,0.03819558,0.04983034,0.07360352,11868,15483,22870,7293,9744,15020,0.02347228,0.03136015,0.04833828,0.31710911,0.43689392,0.54577038
0,0,Ghana,,,2022-03-22 20:08:25.885033,2021-12-16,0.04027919,0.05360059,0.07878924,12515,16655,24482,7948,10407,15986,0.02557970,0.03349455,0.05144780,0.31571622,0.44098039,0.57634293
0,0,Ghana,,,2022-03-22 20:08:25.885033,2021-12-17,0.04287453,0.05710099,0.08502825,13322,17742,26420,8572,11110,17029,0.02758705,0.03575728,0.05480533,0.31440047,0.44612931,0.59457762
0,0,Ghana,,,2022-03-22 20:08:25.885033,2021-12-18,0.04565338,0.06164785,0.09175814,14185,19155,28511,9183,11778,18374,0.02955444,0.03790604,0.05913379,0.31400631,0.44451696,0.60140223
0,0,Ghana,,,2022-03-22 20:08:25.885033,2021-12-19,0.04868783,0.06629433,0.09898873,15128,20599,30758,9689,12538,19825,0.03118222,0.04035264,0.06380462,0.31535233,0.44384944,0.60140635
0,0,Ghana,,,2022-03-22 20:08:25.885033,2021-12-20,0.05167148,0.07163182,0.10697224,16055,22258,33239,10345,13370,21404,0.03329485,0.04303057,0.06888441,0.31734915,0.43884858,0.59459452
0,0,Ghana,,,2022-03-22 20:08:25.885033,2021-12-21,0.05374290,0.07658535,0.11513791,16699,23797,35776,10958,14374,23134,0.03526605,0.04626077,0.07445325,0.31773296,0.42697617,0.57637524
0,0,Ghana,,,2022-03-22 20:08:25.885033,2021-12-22,0.05611958,0.08118803,0.12322927,17438,25227,38290,11424,15503,24933,0.03676567,0.04989443,0.08024187,0.31625010,0.41040449,0.54783408
0,0,Ghana,,,2022-03-22 20:08:25.885033,2021-12-23,0.05865733,0.08457891,0.13126934,18226,26281,40789,11898,16510,26761,0.03829061,0.05313548,0.08612626,0.31485373,0.41360071,0.52282254
0,0,Ghana,,,2022-03-22 20:08:25.885033,2021-12-24,0.06042491,0.08925938,0.13950132,18775,27735,43347,12404,17618,28539,0.03992006,0.05669922,0.09184615,0.31310926,0.42182377,0.50876475
0,0,Ghana,,,2022-03-22 20:08:25.885033,2021-12-25,0.06224495,0.09254299,0.14825115,19341,28755,46065,12824,18718,30347,0.04127338,0.06024185,0.09766468,0.31192436,0.42263450,0.50151209
0,0,Ghana,,,2022-03-22 20:08:25.885033,2021-12-26,0.06470171,0.09607738,0.15735430,20104,29854,48894,13342,19758,32204,0.04293791,0.06358669,0.10364271,0.30938589,0.41935792,0.49399276
0,0,Ghana,,,2022-03-22 20:08:25.885033,2021-12-27,0.06688385,0.10034624,0.16660204,20782,31180,51768,13736,20554,34114,0.04420805,0.06614888,0.10978683,0.30256178,0.40778961,0.47750035
0,0,Ghana,,,2022-03-22 20:08:25.885033,2021-12-28,0.06862960,0.10407234,0.17540660,21325,32338,54503,14201,21457,36042,0.04570456,0.06905595,0.11599340,0.28780608,0.37714890,0.44052841
0,0,Ghana,,,2022-03-22 20:08:25.885033,2021-12-29,0.06966757,0.10611448,0.18265592,21647,32972,56756,14593,22143,37928,0.04696383,0.07126367,0.12206391,0.26057646,0.33158758,0.38389208
0,0,Ghana,,,2022-03-22 20:08:25.885033,2021-12-30,0.06984799,0.10610930,0.18815294,21703,32971,58464,14830,22746,39578,0.04772842,0.07320456,0.12737241,0.23508160,0.31171037,0.35709448
0,0,Ghana,,,2022-03-22 20:08:25.885033,2021-12-31,0.06895922,0.10518416,0.19342693,21427,32683,60103,14882,22847,40878,0.04789542,0.07352760,0.13155539,0.21832117,0.30108362,0.34346978
0,0,Ghana,,,2022-03-22 20:08:25.885033,2022-01-01,0.06824596,0.10395859,0.19834818,21206,32302,61632,14873,22707,42097,0.04786556,0.07307912,0.13548082,0.20900611,0.29536298,0.33710852
0,0,Ghana,,,2022-03-22 20:08:25.885033,2022-01-02,0.06758887,0.10303436,0.20292217,21001,32015,63053,14792,22527,43230,0.04760484,0.07250018,0.13912732,0.20538697,0.29160035,0.33122182
0,0,Ghana,,,2022-03-22 20:08:25.885033,2022-01-03,0.06662607,0.10221949,0.20676474,20702,31762,64247,14671,22335,44249,0.04721683,0.07187961,0.14240502,0.20245076,0.28722100,0.31796732
0,0,Ghana,,,2022-03-22 20:08:25.885033,2022-01-04,0.06492934,0.10158732,0.20887283,20175,31566,64902,14387,22162,45069,0.04630320,0.07132422,0.14504407,0.19718990,0.27706603,0.30003663
0,0,Ghana,,,2022-03-22 20:08:25.885033,2022-01-05,0.06307356,0.10131535,0.20740794,19598,31481,64447,14038,21950,45494,0.04517866,0.07064293,0.14641277,0.18852244,0.24909695,0.28143079
0,0,Ghana,,,2022-03-22 20:08:25.885033,2022-01-06,0.06108040,0.09950563,0.20462827,18979,30919,63584,13656,22028,45462,0.04395047,0.07089331,0.14630920,0.18035595,0.23155409,0.26626703
0,0,Ghana,,,2022-03-22 20:08:25.885033,2022-01-07,0.05945171,0.09738548,0.20038252,18473,30260,62264,13249,21593,44917,0.04263905,0.06949331,0.14455546,0.17577653,0.22180599,0.25699447
0,0,Ghana,,,2022-03-22 20:08:25.885033,2022-01-08,0.05802677,0.09568300,0.19547696,18030,29731,60740,12910,21242,44144,0.04154746,0.06836285,0.14206782,0.17389966,0.21831315,0.25281452
0,0,Ghana,,,2022-03-22 20:08:25.885033,2022-01-09,0.05679682,0.09400839,0.19024853,17648,29211,59115,12604,20800,43174,0.04056517,0.06693960,0.13894498,0.17361824,0.21685031,0.24991587
0,0,Ghana,,,2022-03-22 20:08:25.885033,2022-01-10,0.05551253,0.09232858,0.18377196,17249,28689,57103,12298,20465,42079,0.03957893,0.06586178,0.13542207,0.17461405,0.21472231,0.24467826
0,0,Ghana,,,2022-03-22 20:08:25.885033,2022-01-11,0.05380204,0.08994477,0.17842500,16717,27948,55441,12007,20096,40784,0.03864280,0.06467669,0.13125427,0.17584196,0.20965028,0.23775467
0,0,Ghana,,,2022-03-22 20:08:25.885033,2022-01-12,0.05220896,0.08748701,0.17487379,16222,27184,54338,11700,19708,39396,0.03765442,0.06342727,0.12678684,0.17071593,0.20015860,0.22824986
0,0,Ghana,,,2022-03-22 20:08:25.885033,2022-01-13,0.05051075,0.08497830,0.17114458,15695,26405,53179,11351,19198,37933,0.03653030,0.06178474,0.12207996,0.16372564,0.19274425,0.21950690
0,0,Ghana,,,2022-03-22 20:08:25.885033,2022-01-14,0.04851450,0.08246392,0.16691963,15074,25623,51866,10963,18669,36215,0.03528158,0.06008270,0.11655011,0.15825417,0.19225607,0.21447151
0,0,Ghana,,,2022-03-22 20:08:25.885033,2022-01-15,0.04651401,0.07962239,0.16185505,14453,24741,50293,10551,18068,35034,0.03395714,0.05814953,0.11274874,0.15607311,0.19254649,0.21193025
0,0,Ghana,,,2022-03-22 20:08:25.885033,2022-01-16,0.04456020,0.07657834,0.15747673,13846,23795,48932,10131,17424,33839,0.03260672,0.05607629,0.10890448,0.15518082,0.19189954,0.20944253
0,0,Ghana,,,2022-03-22 20:08:25.885033,2022-01-17,0.04305336,0.07362409,0.15268321,13377,22877,47443,9714,16778,33021,0.03126213,0.05399607,0.10627251,0.15530056,0.18940677,0.20408541
0,0,Ghana,,,2022-03-22 20:08:25.885033,2022-01-18,0.04136593,0.07084378,0.14790749,12853,22013,45959,9345,16143,31836,0.03007500,0.05195360,0.10245753,0.15579128,0.18427319,0.19197077
0,0,Ghana,,,2022-03-22 20:08:25.885033,2022-01-19,0.03942108,0.06834846,0.14080194,12249,21237,43751,9046,15530,30847,0.02911532,0.04998156,0.09927404,0.15599750,0.17213792,0.18766158
0,0,Ghana,,,2022-03-22 20:08:25.885033,2022-01-20,0.03760310,0.06574613,0.13410314,11684,20429,41669,8637,14993,29733,0.02779759,0.04825253,0.09568910,0.15375083,0.16310421,0.19110931
0,0,Ghana,,,2022-03-22 20:08:25.885033,2022-01-21,0.03570123,0.06313201,0.12746785,11093,19616,39608,8220,14451,28462,0.02645446,0.04650728,0.09159802,0.14574119,0.15741746,0.19361299
0,0,Ghana,,,2022-03-22 20:08:25.885033,2022-01-22,0.03399964,0.06056719,0.12030562,10564,18820,37382,7835,13910,27193,0.02521743,0.04476693,0.08751664,0.14263780,0.15519353,0.19400505
0,0,Ghana,,,2022-03-22 20:08:25.885033,2022-01-23,0.03222715,0.05805999,0.11380580,10013,18040,35362,7448,13376,25896,0.02397063,0.04304850,0.08334190,0.14217688,0.15431778,0.19297363
0,0,Ghana,,,2022-03-22 20:08:25.885033,2022-01-24,0.03064462,0.05559583,0.10790595,9522,17275,33529,7081,12828,24664,0.02278949,0.04128642,0.07937718,0.14378804,0.15252410,0.18912942
0,0,Ghana,,,2022-03-22 20:08:25.885033,2022-01-25,0.02904710,0.05310148,0.10308429,9025,16500,32031,6711,12281,23423,0.02159943,0.03952495,0.07538160,0.14224711,0.14962714,0.17905212
0,0,Ghana,,,2022-03-22 20:08:25.885033,2022-01-26,0.02739390,0.05040839,0.09818404,8512,15663,30508,6366,11723,22254,0.02049000,0.03772839,0.07162003,0.13152829,0.15387658,0.16352657
0,0,Ghana,,,2022-03-22 20:08:25.885033,2022-01-27,0.02584175,0.04758139,0.09344374,8029,14784,29035,6015,11144,21145,0.01935925,0.03586708,0.06805119,0.12134280,0.14896467,0.16789153
0,0,Ghana,,,2022-03-22 20:08:25.885033,2022-01-28,0.02429206,0.04481044,0.08964479,7548,13923,27855,5689,10551,20187,0.01830903,0.03395618,0.06496729,0.11594735,0.14632902,0.17376946
0,0,Ghana,,,2022-03-22 20:08:25.885033,2022-01-29,0.02294690,0.04213161,0.08549571,7130,13091,26566,5350,9956,19319,0.01721805,0.03204259,0.06217332,0.11397881,0.14509622,0.17630758
0,0,Ghana,,,2022-03-22 20:08:25.885033,2022-01-30,0.02162198,0.03958162,0.08207887,6718,12299,25504,5055,9375,18290,0.01626989,0.03017199,0.05886287,0.11379766,0.14501029,0.17729473
0,0,Ghana,,,2022-03-22 20:08:25.885033,2022-01-31,0.02036578,0.03717464,0.07894660,6328,11551,24531,4776,8816,17480,0.01537290,0.02837451,0.05625600,0.11517180,0.14535963,0.17789598
0,0,Ghana,,,2022-03-22 20:08:25.885033,2022-02-01,0.01907736,0.03495394,0.07597475,5927,10861,23607,4506,8286,16796,0.01450319,0.02666696,0.05405444,0.11914936,0.14652336,0.17885619
0,0,Ghana,,,2022-03-22 20:08:25.885033,2022-02-02,0.01796040,0.03291667,0.07316619,5580,10228,22734,4231,7801,16123,0.01361955,0.02510731,0.05188840,0.12220237,0.14511542,0.18041932
0,0,Ghana,,,2022-03-22 20:08:25.885033,2022-02-03,0.01703668,0.03099905,0.07050918,5293,9632,21909,3980,7348,15388,0.01280873,0.02364828,0.04952369,0.12204774,0.14872859,0.18192180
0,0,Ghana,,,2022-03-22 20:08:25.885033,2022-02-04,0.01623057,0.02918696,0.06797165,5043,9069,21120,3765,6920,14819,0.01211696,0.02227160,0.04769134,0.12301202,0.15154429,0.18273888
0,0,Ghana,,,2022-03-22 20:08:25.885033,2022-02-05,0.01549349,0.02748166,0.06553370,4814,8539,20363,3578,6514,14277,0.01151557,0.02096642,0.04594840,0.12360630,0.15250867,0.18290619
0,0,Ghana,,,2022-03-22 20:08:25.885033,2022-02-06,0.01480308,0.02596604,0.06317174,4599,8068,19629,3409,6134,13759,0.01097160,0.01974162,0.04428065,0.12410672,0.15273730,0.18230222
0,0,Ghana,,,2022-03-22 20:08:25.885033,2022-02-07,0.01411941,0.02440310,0.06084774,4387,7582,18907,3253,5767,13259,0.01046907,0.01856073,0.04267143,0.12510557,0.15224586,0.18021519
0,0,Ghana,,,2022-03-22 20:08:25.885033,2022-02-08,0.01339898,0.02289975,0.05849304,4163,7115,18175,3106,5427,12769,0.00999584,0.01746851,0.04109626,0.12709665,0.15106397,0.17498909
0,0,Ghana,,,2022-03-22 20:08:25.885033,2022-02-09,0.01270961,0.02158535,0.05603842,3949,6707,17412,2947,5106,12280,0.00948448,0.01643464,0.03952095,0.12878796,0.14957253,0.16658890
0,0,Ghana,,,2022-03-22 20:08:25.885033,2022-02-10,0.01203573,0.02038104,0.05350213,3739,6332,16624,2793,4806,11782,0.00898944,0.01546947,0.03791738,0.12385009,0.14769852,0.15869642
0,0,Ghana,,,2022-03-22 20:08:25.885033,2022-02-11,0.01136692,0.01921358,0.05096850,3532,5970,15837,2649,4525,11274,0.00852738,0.01456555,0.03628493,0.12210739,0.14654195,0.15461142
0,0,Ghana,,,2022-03-22 20:08:25.885033,2022-02-12,0.01072973,0.01801894,0.04849504,3334,5599,15068,2504,4274,10765,0.00805936,0.01375593,0.03464589,0.12168201,0.14610679,0.15277064
0,0,Ghana,,,2022-03-22 20:08:25.885033,2022-02-13,0.01019672,0.01697174,0.04610162,3168,5273,14325,2364,4030,10261,0.00761102,0.01297197,0.03302493,0.12192996,0.14594228,0.15147810
0,0,Ghana,,,2022-03-22 20:08:25.885033,2022-02-14,0.00969127,0.01602381,0.04377726,3011,4979,13602,2243,3771,9768,0.00722020,0.01213916,0.03143708,0.12397028,0.14555268,0.14907271
0,0,Ghana,,,2022-03-22 20:08:25.885033,2022-02-15,0.00923910,0.01517381,0.04148192,2870,4714,12889,2126,3555,9285,0.00684269,0.01144158,0.02988293,0.12893800,0.14347351,0.15149232
0,0,Ghana,,,2022-03-22 20:08:25.885033,2022-02-16,0.00874450,0.01436212,0.03917358,2717,4462,12172,2026,3360,8809,0.00652242,0.01081459,0.02835008,0.13376770,0.14117270,0.16087722
0,0,Ghana,,,2022-03-22 20:08:25.885033,2022-02-17,0.00824431,0.01371527,0.03686853,2561,4261,11456,1923,3193,8335,0.00619007,0.01027867,0.02682653,0.12650254,0.14683659,0.17177037
0,0,Ghana,,,2022-03-22 20:08:25.885033,2022-02-18,0.00788673,0.01307664,0.03462447,2450,4063,10758,1815,3040,7866,0.00584409,0.00978354,0.02531636,0.12212333,0.14938186,0.17861805
0,0,Ghana,,,2022-03-22 20:08:25.885033,2022-02-19,0.00757709,0.01256397,0.03247906,2354,3903,10092,1731,2910,7406,0.00557379,0.00936604,0.02383703,0.12038600,0.14965631,0.18145241
0,0,Ghana,,,2022-03-22 20:08:25.885033,2022-02-20,0.00713570,0.01212023,0.03044790,2217,3766,9461,1665,2763,6962,0.00535974,0.00889283,0.02240659,0.11986259,0.14991580,0.18208365
0,0,Ghana,,,2022-03-22 20:08:25.885033,2022-02-21,0.00669220,0.01161425,0.02853462,2079,3608,8866,1571,2665,6537,0.00505712,0.00857847,0.02103772,0.11967647,0.14963891,0.18224746
0,0,Ghana,,,2022-03-22 20:08:25.885033,2022-02-22,0.00632711,0.01105434,0.02673794,1966,3434,8308,1479,2568,6133,0.00475991,0.00826568,0.01973755,0.11958319,0.14642366,0.18151129
0,0,Ghana,,,2022-03-22 20:08:25.885033,2022-02-23,0.00595446,0.01061748,0.02505431,1850,3299,7785,1390,2441,5751,0.00447622,0.00785889,0.01850911,0.11945465,0.13935166,0.18435553
0,0,Ghana,,,2022-03-22 20:08:25.885033,2022-02-24,0.00556653,0.01032053,0.02347805,1729,3206,7295,1312,2334,5391,0.00422514,0.00751409,0.01735260,0.11920395,0.13300023,0.19163236
0,0,Ghana,,,2022-03-22 20:08:25.885033,2022-02-25,0.00521084,0.00984688,0.02200146,1619,3059,6836,1228,2267,5054,0.00395360,0.00729689,0.01626615,0.11892680,0.13019333,0.19809905
0,0,Ghana,,,2022-03-22 20:08:25.885033,2022-02-26,0.00487770,0.00942073,0.02061886,1515,2927,6406,1149,2188,4737,0.00370040,0.00704204,0.01524666,0.11862698,0.12963886,0.20035742
0,0,Ghana,,,2022-03-22 20:08:25.885033,2022-02-27,0.00456606,0.00900902,0.01932504,1418,2799,6004,1076,2087,4440,0.00346379,0.00671872,0.01429085,0.11875882,0.12921902,0.19953349
0,0,Ghana,,,2022-03-22 20:08:25.885033,2022-02-28,0.00427353,0.00865182,0.01811666,1327,2688,5629,1007,1992,4162,0.00324235,0.00641226,0.01339563,0.11858848,0.12829714,0.19469697
0,0,Ghana,,,2022-03-22 20:08:25.885033,2022-03-01,0.00399658,0.00829070,0.01698131,1241,2576,5276,942,1901,3902,0.00303433,0.00611974,0.01255876,0.11774989,0.12752103,0.18264797
0,0,Ghana,,,2022-03-22 20:08:25.885033,2022-03-02,0.00373179,0.00785444,0.01593463,1159,2440,4951,881,1825,3660,0.00283760,0.00587629,0.01177897,0.11617601,0.12755360,0.16305245
0,0,Ghana,,,2022-03-22 20:08:25.885033,2022-03-03,0.00347905,0.00741414,0.01497292,1081,2303,4652,823,1742,3435,0.00265048,0.00560934,0.01105486,0.11412037,0.12874707,0.14600251
0,0,Ghana,,,2022-03-22 20:08:25.885033,2022-03-04,0.00323103,0.00698929,0.01408560,1003,2171,4376,767,1637,3226,0.00247099,0.00527120,0.01038354,0.11247818,0.12975828,0.13815109
0,0,Ghana,,,2022-03-22 20:08:25.885033,2022-03-05,0.00299863,0.00661071,0.01325852,931,2054,4119,714,1548,3032,0.00229851,0.00498420,0.00976046,0.11118362,0.13011388,0.13583219
0,0,Ghana,,,2022-03-22 20:08:25.885033,2022-03-06,0.00278242,0.00621484,0.01248523,864,1931,3879,663,1458,2852,0.00213538,0.00469310,0.00918030,0.11111683,0.13055953,0.13513490
0,0,Ghana,,,2022-03-22 20:08:25.885033,2022-03-07,0.00258270,0.00584860,0.01176286,802,1817,3655,616,1380,2684,0.00198278,0.00444435,0.00863898,0.11219437,0.13116742,0.13525163
0,0,Ghana,,,2022-03-22 20:08:25.885033,2022-03-08,0.00239993,0.00548559,0.01109200,745,1704,3446,572,1304,2527,0.00184132,0.00419888,0.00813394,0.11328406,0.13147641,0.13601668
0,0,Ghana,,,2022-03-22 20:08:25.885033,2022-03-09,0.00223450,0.00513788,0.01047431,694,1596,3254,531,1227,2381,0.00171142,0.00395149,0.00766413,0.10956153,0.13045897,0.13935493
0,0,Ghana,,,2022-03-22 20:08:25.885033,2022-03-10,0.00208502,0.00483545,0.00990296,647,1502,3077,495,1151,2246,0.00159309,0.00370506,0.00722876,0.10492183,0.13098982,0.14350962
0,0,Ghana,,,2022-03-22 20:08:25.885033,2022-03-11,0.00194478,0.00455292,0.00936997,604,1414,2911,461,1080,2120,0.00148479,0.00347744,0.00682567,0.10233579,0.13165621,0.14552709
0,0,Ghana,,,2022-03-22 20:08:25.885033,2022-03-12,0.00183206,0.00431705,0.00887039,569,1341,2756,430,1014,2004,0.00138481,0.00326547,0.00645132,0.10133119,0.13169567,0.14617219
0,0,Ghana,,,2022-03-22 20:08:25.885033,2022-03-13,0.00172589,0.00404740,0.00839991,536,1257,2610,405,958,1896,0.00130485,0.00308336,0.00610196,0.10107879,0.13155066,0.14582220
0,0,Ghana,,,2022-03-22 20:08:25.885033,2022-03-14,0.00161562,0.00380889,0.00795552,502,1183,2472,381,901,1794,0.00122871,0.00289965,0.00577448,0.10127856,0.13120978,0.14483415
0,0,Ghana,,,2022-03-22 20:08:25.885033,2022-03-15,0.00150791,0.00359658,0.00753467,468,1117,2341,357,849,1698,0.00114909,0.00273514,0.00546634,0.10220973,0.13016817,0.14257061
0,0,Ghana,,,2022-03-22 20:08:25.885033,2022-03-16,0.00140822,0.00340001,0.00713515,437,1056,2217,333,800,1608,0.00107237,0.00257596,0.00517548,0.10391334,0.12991115,0.14223649
0,0,Ghana,,,2022-03-22 20:08:25.885033,2022-03-17,0.00131533,0.00321211,0.00675574,408,998,2099,311,755,1522,0.00100119,0.00243002,0.00490025,0.10166803,0.12993701,0.14196109
0,0,Ghana,,,2022-03-22 20:08:25.885033,2022-03-18,0.00121528,0.00301706,0.00638834,377,937,1985,290,713,1441,0.00093481,0.00229579,0.00463850,0.10065317,0.13143119,0.14245155
0,0,Ghana,,,2022-03-22 20:08:25.885033,2022-03-19,0.00111992,0.00282695,0.00603997,347,878,1876,269,670,1363,0.00086820,0.00215734,0.00438856,0.09987886,0.13213282,0.14263253
0,0,Ghana,,,2022-03-22 20:08:25.885033,2022-03-20,0.00103299,0.00264795,0.00570999,320,822,1774,249,629,1289,0.00080392,0.00202628,0.00415070,0.09970975,0.13246589,0.14263324
0,0,Ghana,,,2022-03-22 20:08:25.885033,2022-03-21,0.00095194,0.00248645,0.00539770,295,772,1677,230,590,1219,0.00074097,0.00190081,0.00392486,0.09965468,0.13244789,0.14263346
0,0,Ghana,,,2022-03-22 20:08:25.885033,2022-03-22,0.00087726,0.00233411,0.00510228,272,725,1585,213,553,1153,0.00068638,0.00178175,0.00371079,0.09963696,0.13244974,0.14263354
0,0,Ghana,,,2022-03-22 20:08:25.885033,2022-03-23,0.00080841,0.00218670,0.00482292,251,679,1498,197,519,1090,0.00063578,0.00167194,0.00350806,0.09963130,0.13245033,0.14263356
0,0,Ghana,,,2022-03-22 20:08:25.885033,2022-03-24,0.00074497,0.00204863,0.00455863,231,636,1416,182,487,1030,0.00058601,0.00156779,0.00331622,0.09962949,0.13245052,0.14263357
0,0,Ghana,,,2022-03-22 20:08:25.885033,2022-03-25,0.00068660,0.00192235,0.00430869,213,597,1338,167,456,974,0.00053896,0.00146788,0.00313466,0.09962891,0.13245058,0.14263357
0,0,Ghana,,,2022-03-22 20:08:25.885033,2022-03-26,0.00063276,0.00180310,0.00407243,196,560,1265,154,428,920,0.00049564,0.00137806,0.00296289,0.09962873,0.13245060,0.14263357
0,0,Ghana,,,2022-03-22 20:08:25.885033,2022-03-27,0.00058306,0.00169622,0.00384911,181,527,1196,141,402,870,0.00045386,0.00129577,0.00280048,0.09962867,0.13245061,0.14263357
0,0,Ghana,,,2022-03-22 20:08:25.885033,2022-03-28,0.00053613,0.00159313,0.00363803,166,495,1130,130,378,822,0.00041912,0.00121762,0.00264696,0.09962865,0.13245061,0.14263357
0,0,Ghana,,,2022-03-22 20:08:25.885033,2022-03-29,0.00049331,0.00149961,0.00343852,153,465,1068,119,355,777,0.00038541,0.00114342,0.00250183,0.09962864,0.13245061,0.14263357
0,0,Ghana,,,2022-03-22 20:08:25.885033,2022-03-30,0.00045321,0.00141157,0.00324994,140,438,1009,110,333,734,0.00035443,0.00107483,0.00236464,0.09962864,0.13245061,0.14263357
0,0,Ghana,,,2022-03-22 20:08:25.885033,2022-03-31,0.00041669,0.00132763,0.00307171,129,412,954,101,314,694,0.00032592,0.00101175,0.00223498,0.09962864,0.13245061,0.14263357
0,0,Ghana,,,2022-03-22 20:08:25.885033,2022-04-01,0.00038312,0.00124511,0.00290380,119,386,902,93,295,656,0.00029967,0.00095100,0.00211242,0.09962864,0.13245061,0.14263357
0,0,Ghana,,,2022-03-22 20:08:25.885033,2022-04-02,0.00035225,0.00117024,0.00274793,109,363,853,85,277,620,0.00027556,0.00089245,0.00199795,0.09962864,0.13245061,0.14263357
0,0,Ghana,,,2022-03-22 20:08:25.885033,2022-04-03,0.00032388,0.00109574,0.00260044,100,340,808,78,260,587,0.00025366,0.00083885,0.00189071,0.09962864,0.13245061,0.14263357
0,0,Ghana,,,2022-03-22 20:08:25.885033,2022-04-04,0.00029781,0.00102754,0.00246086,92,319,764,72,243,555,0.00023356,0.00078445,0.00178923,0.09962864,0.13245061,0.14263357
0,0,Ghana,,,2022-03-22 20:08:25.885033,2022-04-05,0.00027385,0.00096124,0.00232877,85,298,723,66,227,526,0.00021505,0.00073371,0.00169319,0.09962864,0.13245061,0.14263357
