FIPS,HR_UID,nameid,province,region,analysisTime,dates,pointprevalence_025,pointprevalence_50,pointprevalence_975,pointinfections_025,pointinfections_50,pointinfections_975,pointinfectious_025,pointinfectious_50,pointinfectious_975,pointinfectiousprevalence_025,pointinfectiousprevalence_50,pointinfectiousprevalence_975,infectrate_025,infectrate_50,infectrate_975
39103,0,USOhioMedina,Ohio,Medina,2022-04-28 09:13:11,2020-03-19,0.07910461184040282,0.2604067433397169,0.9174685237937307,,,,,,,,,,,,
39103,0,USOhioMedina,Ohio,Medina,2022-04-28 09:13:11,2020-03-20,0.07910461184040282,0.2604067433397169,0.9174685237937307,,,,,,,,,,,,
39103,0,USOhioMedina,Ohio,Medina,2022-04-28 09:13:11,2020-03-21,0.07910461184040282,0.2604067433397169,0.9174685237937307,,,,,,,,,,,,
39103,0,USOhioMedina,Ohio,Medina,2022-04-28 09:13:11,2020-03-22,0.07910461184040282,0.2604067433397169,0.9174685237937307,,,,,,,,,,,,
39103,0,USOhioMedina,Ohio,Medina,2022-04-28 09:13:11,2020-03-23,0.07910461184040282,0.2604067433397169,0.9174685237937307,,,,,,,,,,,,
39103,0,USOhioMedina,Ohio,Medina,2022-04-28 09:13:11,2020-03-24,0.07910461184040282,0.2604067433397169,0.9174685237937307,,,,,,,,,,,,
39103,0,USOhioMedina,Ohio,Medina,2022-04-28 09:13:11,2020-03-25,0.07910461184040282,0.2604067433397169,0.9174685237937307,,,,,,,,,,,,
39103,0,USOhioMedina,Ohio,Medina,2022-04-28 09:13:11,2020-03-26,0.15758374835537353,0.5053163206787552,1.7356671114687103,,,,,,,,,,,,
39103,0,USOhioMedina,Ohio,Medina,2022-04-28 09:13:11,2020-03-27,0.15758374835537353,0.5053163206787552,1.7356671114687103,,,,,,,,,,,,
39103,0,USOhioMedina,Ohio,Medina,2022-04-28 09:13:11,2020-03-28,0.15758374835537353,0.5053163206787552,1.7356671114687103,,,,,,,,,,,,
39103,0,USOhioMedina,Ohio,Medina,2022-04-28 09:13:11,2020-03-29,0.15758374835537353,0.5053163206787552,1.7356671114687103,,,,,,,,,,,,
39103,0,USOhioMedina,Ohio,Medina,2022-04-28 09:13:11,2020-03-30,0.15758374835537353,0.5053163206787552,1.7356671114687103,,,,,,,,,,,,
39103,0,USOhioMedina,Ohio,Medina,2022-04-28 09:13:11,2020-03-31,0.15758374835537353,0.5053163206787552,1.7356671114687103,,,,,,,,,,,,
39103,0,USOhioMedina,Ohio,Medina,2022-04-28 09:13:11,2020-04-01,0.15758374835537353,0.5053163206787552,1.7356671114687103,,,,,,,,,,,,
39103,0,USOhioMedina,Ohio,Medina,2022-04-28 09:13:11,2020-04-02,0.1679711944712177,0.5322722410883891,1.8073437091887579,,,,,,,,,,,,
39103,0,USOhioMedina,Ohio,Medina,2022-04-28 09:13:11,2020-04-03,0.1679711944712177,0.5322722410883891,1.8073437091887579,,,,,,,,,,,,
39103,0,USOhioMedina,Ohio,Medina,2022-04-28 09:13:11,2020-04-04,0.1679711944712177,0.5322722410883891,1.8073437091887579,,,,,,,,,,,,
39103,0,USOhioMedina,Ohio,Medina,2022-04-28 09:13:11,2020-04-05,0.1679711944712177,0.5322722410883891,1.8073437091887579,,,,,,,,,,,,
39103,0,USOhioMedina,Ohio,Medina,2022-04-28 09:13:11,2020-04-06,0.1679711944712177,0.5322722410883891,1.8073437091887579,,,,,,,,,,,,
39103,0,USOhioMedina,Ohio,Medina,2022-04-28 09:13:11,2020-04-07,0.1679711944712177,0.5322722410883891,1.8073437091887579,,,,,,,,,,,,
39103,0,USOhioMedina,Ohio,Medina,2022-04-28 09:13:11,2020-04-08,0.1679711944712177,0.5322722410883891,1.8073437091887579,,,,,,,,,,,,
39103,0,USOhioMedina,Ohio,Medina,2022-04-28 09:13:11,2020-04-09,0.13349508143591227,0.4701797151787345,1.7681847641725317,,,,,,,,,,,,
39103,0,USOhioMedina,Ohio,Medina,2022-04-28 09:13:11,2020-04-10,0.13349508143591227,0.4701797151787345,1.7681847641725317,,,,,,,,,,,,
39103,0,USOhioMedina,Ohio,Medina,2022-04-28 09:13:11,2020-04-11,0.13349508143591227,0.4701797151787345,1.7681847641725317,,,,,,,,,,,,
39103,0,USOhioMedina,Ohio,Medina,2022-04-28 09:13:11,2020-04-12,0.13349508143591227,0.4701797151787345,1.7681847641725317,,,,,,,,,,,,
39103,0,USOhioMedina,Ohio,Medina,2022-04-28 09:13:11,2020-04-13,0.13349508143591227,0.4701797151787345,1.7681847641725317,,,,,,,,,,,,
39103,0,USOhioMedina,Ohio,Medina,2022-04-28 09:13:11,2020-04-14,0.13349508143591227,0.4701797151787345,1.7681847641725317,,,,,,,,,,,,
39103,0,USOhioMedina,Ohio,Medina,2022-04-28 09:13:11,2020-04-15,0.13349508143591227,0.4701797151787345,1.7681847641725317,,,,,,,,,,,,
39103,0,USOhioMedina,Ohio,Medina,2022-04-28 09:13:11,2020-04-16,0.12506756246070752,0.5275633589864498,2.358852292410838,,,,,,,,,,,,
39103,0,USOhioMedina,Ohio,Medina,2022-04-28 09:13:11,2020-04-17,0.12506756246070752,0.5275633589864498,2.358852292410838,,,,,,,,,,,,
39103,0,USOhioMedina,Ohio,Medina,2022-04-28 09:13:11,2020-04-18,0.12506756246070752,0.5275633589864498,2.358852292410838,,,,,,,,,,,,
39103,0,USOhioMedina,Ohio,Medina,2022-04-28 09:13:11,2020-04-19,0.12506756246070752,0.5275633589864498,2.358852292410838,,,,,,,,,,,,
39103,0,USOhioMedina,Ohio,Medina,2022-04-28 09:13:11,2020-04-20,0.12506756246070752,0.5275633589864498,2.358852292410838,,,,,,,,,,,,
39103,0,USOhioMedina,Ohio,Medina,2022-04-28 09:13:11,2020-04-21,0.12506756246070752,0.5275633589864498,2.358852292410838,,,,,,,,,,,,
39103,0,USOhioMedina,Ohio,Medina,2022-04-28 09:13:11,2020-04-22,0.12506756246070752,0.5275633589864498,2.358852292410838,,,,,,,,,,,,
39103,0,USOhioMedina,Ohio,Medina,2022-04-28 09:13:11,2020-04-23,0.10672021850072323,0.36754239539898204,1.3526515443285674,,,,,,,,,,,,
39103,0,USOhioMedina,Ohio,Medina,2022-04-28 09:13:11,2020-04-24,0.10672021850072323,0.36754239539898204,1.3526515443285674,,,,,,,,,,,,
39103,0,USOhioMedina,Ohio,Medina,2022-04-28 09:13:11,2020-04-25,0.10672021850072323,0.36754239539898204,1.3526515443285674,,,,,,,,,,,,
39103,0,USOhioMedina,Ohio,Medina,2022-04-28 09:13:11,2020-04-26,0.10672021850072323,0.36754239539898204,1.3526515443285674,,,,,,,,,,,,
39103,0,USOhioMedina,Ohio,Medina,2022-04-28 09:13:11,2020-04-27,0.10672021850072323,0.36754239539898204,1.3526515443285674,,,,,,,,,,,,
39103,0,USOhioMedina,Ohio,Medina,2022-04-28 09:13:11,2020-04-28,0.10672021850072323,0.36754239539898204,1.3526515443285674,,,,,,,,,,,,
39103,0,USOhioMedina,Ohio,Medina,2022-04-28 09:13:11,2020-04-29,0.10672021850072323,0.36754239539898204,1.3526515443285674,,,,,,,,,,,,
39103,0,USOhioMedina,Ohio,Medina,2022-04-28 09:13:11,2020-04-30,0.09202768695833424,0.3283698336495438,1.250441416362522,,,,,,,,,,,,
39103,0,USOhioMedina,Ohio,Medina,2022-04-28 09:13:11,2020-05-01,0.09202768695833424,0.3283698336495438,1.250441416362522,,,,,,,,,,,,
39103,0,USOhioMedina,Ohio,Medina,2022-04-28 09:13:11,2020-05-02,0.09202768695833424,0.3283698336495438,1.250441416362522,,,,,,,,,,,,
39103,0,USOhioMedina,Ohio,Medina,2022-04-28 09:13:11,2020-05-03,0.09202768695833424,0.3283698336495438,1.250441416362522,,,,,,,,,,,,
39103,0,USOhioMedina,Ohio,Medina,2022-04-28 09:13:11,2020-05-04,0.09202768695833424,0.3283698336495438,1.250441416362522,,,,,,,,,,,,
39103,0,USOhioMedina,Ohio,Medina,2022-04-28 09:13:11,2020-05-05,0.09202768695833424,0.3283698336495438,1.250441416362522,,,,,,,,,,,,
39103,0,USOhioMedina,Ohio,Medina,2022-04-28 09:13:11,2020-05-06,0.09202768695833424,0.3283698336495438,1.250441416362522,,,,,,,,,,,,
39103,0,USOhioMedina,Ohio,Medina,2022-04-28 09:13:11,2020-05-07,0.09098202126454599,0.29595789629320896,1.0307661662457,,,,,,,,,,,,
39103,0,USOhioMedina,Ohio,Medina,2022-04-28 09:13:11,2020-05-08,0.09098202126454599,0.29595789629320896,1.0307661662457,,,,,,,,,,,,
39103,0,USOhioMedina,Ohio,Medina,2022-04-28 09:13:11,2020-05-09,0.09098202126454599,0.29595789629320896,1.0307661662457,,,,,,,,,,,,
39103,0,USOhioMedina,Ohio,Medina,2022-04-28 09:13:11,2020-05-10,0.09098202126454599,0.29595789629320896,1.0307661662457,,,,,,,,,,,,
39103,0,USOhioMedina,Ohio,Medina,2022-04-28 09:13:11,2020-05-11,0.09098202126454599,0.29595789629320896,1.0307661662457,,,,,,,,,,,,
39103,0,USOhioMedina,Ohio,Medina,2022-04-28 09:13:11,2020-05-12,0.09098202126454599,0.29595789629320896,1.0307661662457,,,,,,,,,,,,
39103,0,USOhioMedina,Ohio,Medina,2022-04-28 09:13:11,2020-05-13,0.09098202126454599,0.29595789629320896,1.0307661662457,,,,,,,,,,,,
39103,0,USOhioMedina,Ohio,Medina,2022-04-28 09:13:11,2020-05-14,0.11594931244503034,0.32409106922324005,0.9736446889494605,,,,,,,,,,,,
39103,0,USOhioMedina,Ohio,Medina,2022-04-28 09:13:11,2020-05-15,0.11594931244503034,0.32409106922324005,0.9736446889494605,,,,,,,,,,,,
39103,0,USOhioMedina,Ohio,Medina,2022-04-28 09:13:11,2020-05-16,0.11594931244503034,0.32409106922324005,0.9736446889494605,,,,,,,,,,,,
39103,0,USOhioMedina,Ohio,Medina,2022-04-28 09:13:11,2020-05-17,0.11594931244503034,0.32409106922324005,0.9736446889494605,,,,,,,,,,,,
39103,0,USOhioMedina,Ohio,Medina,2022-04-28 09:13:11,2020-05-18,0.11594931244503034,0.32409106922324005,0.9736446889494605,,,,,,,,,,,,
39103,0,USOhioMedina,Ohio,Medina,2022-04-28 09:13:11,2020-05-19,0.11594931244503034,0.32409106922324005,0.9736446889494605,,,,,,,,,,,,
39103,0,USOhioMedina,Ohio,Medina,2022-04-28 09:13:11,2020-05-20,0.11594931244503034,0.32409106922324005,0.9736446889494605,,,,,,,,,,,,
39103,0,USOhioMedina,Ohio,Medina,2022-04-28 09:13:11,2020-05-21,0.22004573666011798,0.5237394428505056,1.3414407900823742,,,,,,,,,,,,
39103,0,USOhioMedina,Ohio,Medina,2022-04-28 09:13:11,2020-05-22,0.22004573666011798,0.5237394428505056,1.3414407900823742,,,,,,,,,,,,
39103,0,USOhioMedina,Ohio,Medina,2022-04-28 09:13:11,2020-05-23,0.22004573666011798,0.5237394428505056,1.3414407900823742,,,,,,,,,,,,
39103,0,USOhioMedina,Ohio,Medina,2022-04-28 09:13:11,2020-05-24,0.22004573666011798,0.5237394428505056,1.3414407900823742,,,,,,,,,,,,
39103,0,USOhioMedina,Ohio,Medina,2022-04-28 09:13:11,2020-05-25,0.22004573666011798,0.5237394428505056,1.3414407900823742,,,,,,,,,,,,
39103,0,USOhioMedina,Ohio,Medina,2022-04-28 09:13:11,2020-05-26,0.22004573666011798,0.5237394428505056,1.3414407900823742,,,,,,,,,,,,
39103,0,USOhioMedina,Ohio,Medina,2022-04-28 09:13:11,2020-05-27,0.22004573666011798,0.5237394428505056,1.3414407900823742,,,,,,,,,,,,
39103,0,USOhioMedina,Ohio,Medina,2022-04-28 09:13:11,2020-05-28,0.1692312783851011,0.4037001865994628,1.0363236451684588,,,,,,,,,,,,
39103,0,USOhioMedina,Ohio,Medina,2022-04-28 09:13:11,2020-05-29,0.1692312783851011,0.4037001865994628,1.0363236451684588,,,,,,,,,,,,
39103,0,USOhioMedina,Ohio,Medina,2022-04-28 09:13:11,2020-05-30,0.1692312783851011,0.4037001865994628,1.0363236451684588,,,,,,,,,,,,
39103,0,USOhioMedina,Ohio,Medina,2022-04-28 09:13:11,2020-05-31,0.1692312783851011,0.4037001865994628,1.0363236451684588,,,,,,,,,,,,
39103,0,USOhioMedina,Ohio,Medina,2022-04-28 09:13:11,2020-06-01,0.1692312783851011,0.4037001865994628,1.0363236451684588,,,,,,,,,,,,
39103,0,USOhioMedina,Ohio,Medina,2022-04-28 09:13:11,2020-06-02,0.1692312783851011,0.4037001865994628,1.0363236451684588,,,,,,,,,,,,
39103,0,USOhioMedina,Ohio,Medina,2022-04-28 09:13:11,2020-06-03,0.1692312783851011,0.4037001865994628,1.0363236451684588,,,,,,,,,,,,
39103,0,USOhioMedina,Ohio,Medina,2022-04-28 09:13:11,2020-06-04,0.09478399276622487,0.2497855600091763,0.7081144971413879,,,,,,,,,,,,
39103,0,USOhioMedina,Ohio,Medina,2022-04-28 09:13:11,2020-06-05,0.09478399276622487,0.2497855600091763,0.7081144971413879,,,,,,,,,,,,
39103,0,USOhioMedina,Ohio,Medina,2022-04-28 09:13:11,2020-06-06,0.09478399276622487,0.2497855600091763,0.7081144971413879,,,,,,,,,,,,
39103,0,USOhioMedina,Ohio,Medina,2022-04-28 09:13:11,2020-06-07,0.09478399276622487,0.2497855600091763,0.7081144971413879,,,,,,,,,,,,
39103,0,USOhioMedina,Ohio,Medina,2022-04-28 09:13:11,2020-06-08,0.09478399276622487,0.2497855600091763,0.7081144971413879,,,,,,,,,,,,
39103,0,USOhioMedina,Ohio,Medina,2022-04-28 09:13:11,2020-06-09,0.09478399276622487,0.2497855600091763,0.7081144971413879,,,,,,,,,,,,
39103,0,USOhioMedina,Ohio,Medina,2022-04-28 09:13:11,2020-06-10,0.09478399276622487,0.2497855600091763,0.7081144971413879,,,,,,,,,,,,
39103,0,USOhioMedina,Ohio,Medina,2022-04-28 09:13:11,2020-06-11,0.037308193513862976,0.12902728491534493,0.47677315151978195,,,,,,,,,,,,
39103,0,USOhioMedina,Ohio,Medina,2022-04-28 09:13:11,2020-06-12,0.037308193513862976,0.12902728491534493,0.47677315151978195,,,,,,,,,,,,
39103,0,USOhioMedina,Ohio,Medina,2022-04-28 09:13:11,2020-06-13,0.037308193513862976,0.12902728491534493,0.47677315151978195,,,,,,,,,,,,
39103,0,USOhioMedina,Ohio,Medina,2022-04-28 09:13:11,2020-06-14,0.037308193513862976,0.12902728491534493,0.47677315151978195,,,,,,,,,,,,
39103,0,USOhioMedina,Ohio,Medina,2022-04-28 09:13:11,2020-06-15,0.037308193513862976,0.12902728491534493,0.47677315151978195,,,,,,,,,,,,
39103,0,USOhioMedina,Ohio,Medina,2022-04-28 09:13:11,2020-06-16,0.037308193513862976,0.12902728491534493,0.47677315151978195,,,,,,,,,,,,
39103,0,USOhioMedina,Ohio,Medina,2022-04-28 09:13:11,2020-06-17,0.037308193513862976,0.12902728491534493,0.47677315151978195,,,,,,,,,,,,
39103,0,USOhioMedina,Ohio,Medina,2022-04-28 09:13:11,2020-06-18,0.11052198465812012,0.2963859778327365,0.8548315593046822,,,,,,,,,,,,
39103,0,USOhioMedina,Ohio,Medina,2022-04-28 09:13:11,2020-06-19,0.11052198465812012,0.2963859778327365,0.8548315593046822,,,,,,,,,,,,
39103,0,USOhioMedina,Ohio,Medina,2022-04-28 09:13:11,2020-06-20,0.11052198465812012,0.2963859778327365,0.8548315593046822,,,,,,,,,,,,
39103,0,USOhioMedina,Ohio,Medina,2022-04-28 09:13:11,2020-06-21,0.11052198465812012,0.2963859778327365,0.8548315593046822,,,,,,,,,,,,
39103,0,USOhioMedina,Ohio,Medina,2022-04-28 09:13:11,2020-06-22,0.11052198465812012,0.2963859778327365,0.8548315593046822,,,,,,,,,,,,
39103,0,USOhioMedina,Ohio,Medina,2022-04-28 09:13:11,2020-06-23,0.11052198465812012,0.2963859778327365,0.8548315593046822,,,,,,,,,,,,
39103,0,USOhioMedina,Ohio,Medina,2022-04-28 09:13:11,2020-06-24,0.11052198465812012,0.2963859778327365,0.8548315593046822,,,,,,,,,,,,
39103,0,USOhioMedina,Ohio,Medina,2022-04-28 09:13:11,2020-06-25,0.17336566394152747,0.4159245980643551,1.073824667105946,,,,,,,,,,,,
39103,0,USOhioMedina,Ohio,Medina,2022-04-28 09:13:11,2020-06-26,0.17336566394152747,0.4159245980643551,1.073824667105946,,,,,,,,,,,,
39103,0,USOhioMedina,Ohio,Medina,2022-04-28 09:13:11,2020-06-27,0.17336566394152747,0.4159245980643551,1.073824667105946,,,,,,,,,,,,
39103,0,USOhioMedina,Ohio,Medina,2022-04-28 09:13:11,2020-06-28,0.17336566394152747,0.4159245980643551,1.073824667105946,,,,,,,,,,,,
39103,0,USOhioMedina,Ohio,Medina,2022-04-28 09:13:11,2020-06-29,0.17336566394152747,0.4159245980643551,1.073824667105946,,,,,,,,,,,,
39103,0,USOhioMedina,Ohio,Medina,2022-04-28 09:13:11,2020-06-30,0.17336566394152747,0.4159245980643551,1.073824667105946,,,,,,,,,,,,
39103,0,USOhioMedina,Ohio,Medina,2022-04-28 09:13:11,2020-07-01,0.17336566394152747,0.4159245980643551,1.073824667105946,,,,,,,,,,,,
39103,0,USOhioMedina,Ohio,Medina,2022-04-28 09:13:11,2020-07-02,0.16736134703949113,0.4220234947539214,1.1451682217989116,,,,,,,,,,,,
39103,0,USOhioMedina,Ohio,Medina,2022-04-28 09:13:11,2020-07-03,0.16736134703949113,0.4220234947539214,1.1451682217989116,,,,,,,,,,,,
39103,0,USOhioMedina,Ohio,Medina,2022-04-28 09:13:11,2020-07-04,0.16736134703949113,0.4220234947539214,1.1451682217989116,,,,,,,,,,,,
39103,0,USOhioMedina,Ohio,Medina,2022-04-28 09:13:11,2020-07-05,0.16736134703949113,0.4220234947539214,1.1451682217989116,,,,,,,,,,,,
39103,0,USOhioMedina,Ohio,Medina,2022-04-28 09:13:11,2020-07-06,0.16736134703949113,0.4220234947539214,1.1451682217989116,,,,,,,,,,,,
39103,0,USOhioMedina,Ohio,Medina,2022-04-28 09:13:11,2020-07-07,0.16736134703949113,0.4220234947539214,1.1451682217989116,,,,,,,,,,,,
39103,0,USOhioMedina,Ohio,Medina,2022-04-28 09:13:11,2020-07-08,0.16736134703949113,0.4220234947539214,1.1451682217989116,,,,,,,,,,,,
39103,0,USOhioMedina,Ohio,Medina,2022-04-28 09:13:11,2020-07-09,0.25901991058055446,0.5916713293595762,1.4539105001737136,,,,,,,,,,,,
39103,0,USOhioMedina,Ohio,Medina,2022-04-28 09:13:11,2020-07-10,0.25901991058055446,0.5916713293595762,1.4539105001737136,,,,,,,,,,,,
39103,0,USOhioMedina,Ohio,Medina,2022-04-28 09:13:11,2020-07-11,0.25901991058055446,0.5916713293595762,1.4539105001737136,,,,,,,,,,,,
39103,0,USOhioMedina,Ohio,Medina,2022-04-28 09:13:11,2020-07-12,0.25901991058055446,0.5916713293595762,1.4539105001737136,,,,,,,,,,,,
39103,0,USOhioMedina,Ohio,Medina,2022-04-28 09:13:11,2020-07-13,0.25901991058055446,0.5916713293595762,1.4539105001737136,,,,,,,,,,,,
39103,0,USOhioMedina,Ohio,Medina,2022-04-28 09:13:11,2020-07-14,0.25901991058055446,0.5916713293595762,1.4539105001737136,,,,,,,,,,,,
39103,0,USOhioMedina,Ohio,Medina,2022-04-28 09:13:11,2020-07-15,0.25901991058055446,0.5916713293595762,1.4539105001737136,,,,,,,,,,,,
39103,0,USOhioMedina,Ohio,Medina,2022-04-28 09:13:11,2020-07-16,0.22427458414366563,0.5238455376095683,1.3165283433774246,,,,,,,,,,,,
39103,0,USOhioMedina,Ohio,Medina,2022-04-28 09:13:11,2020-07-17,0.22427458414366563,0.5238455376095683,1.3165283433774246,,,,,,,,,,,,
39103,0,USOhioMedina,Ohio,Medina,2022-04-28 09:13:11,2020-07-18,0.22427458414366563,0.5238455376095683,1.3165283433774246,,,,,,,,,,,,
39103,0,USOhioMedina,Ohio,Medina,2022-04-28 09:13:11,2020-07-19,0.22427458414366563,0.5238455376095683,1.3165283433774246,,,,,,,,,,,,
39103,0,USOhioMedina,Ohio,Medina,2022-04-28 09:13:11,2020-07-20,0.22427458414366563,0.5238455376095683,1.3165283433774246,,,,,,,,,,,,
39103,0,USOhioMedina,Ohio,Medina,2022-04-28 09:13:11,2020-07-21,0.22427458414366563,0.5238455376095683,1.3165283433774246,,,,,,,,,,,,
39103,0,USOhioMedina,Ohio,Medina,2022-04-28 09:13:11,2020-07-22,0.22427458414366563,0.5238455376095683,1.3165283433774246,,,,,,,,,,,,
39103,0,USOhioMedina,Ohio,Medina,2022-04-28 09:13:11,2020-07-23,0.22680111496700936,0.5288678091700532,1.3269274120088064,,,,,,,,,,,,
39103,0,USOhioMedina,Ohio,Medina,2022-04-28 09:13:11,2020-07-24,0.22680111496700936,0.5288678091700532,1.3269274120088064,,,,,,,,,,,,
39103,0,USOhioMedina,Ohio,Medina,2022-04-28 09:13:11,2020-07-25,0.22680111496700936,0.5288678091700532,1.3269274120088064,,,,,,,,,,,,
39103,0,USOhioMedina,Ohio,Medina,2022-04-28 09:13:11,2020-07-26,0.22680111496700936,0.5288678091700532,1.3269274120088064,,,,,,,,,,,,
39103,0,USOhioMedina,Ohio,Medina,2022-04-28 09:13:11,2020-07-27,0.22680111496700936,0.5288678091700532,1.3269274120088064,,,,,,,,,,,,
39103,0,USOhioMedina,Ohio,Medina,2022-04-28 09:13:11,2020-07-28,0.22680111496700936,0.5288678091700532,1.3269274120088064,,,,,,,,,,,,
39103,0,USOhioMedina,Ohio,Medina,2022-04-28 09:13:11,2020-07-29,0.22680111496700936,0.5288678091700532,1.3269274120088064,,,,,,,,,,,,
39103,0,USOhioMedina,Ohio,Medina,2022-04-28 09:13:11,2020-07-30,0.23637604274014162,0.534908239034079,1.302008149106153,,,,,,,,,,,,
39103,0,USOhioMedina,Ohio,Medina,2022-04-28 09:13:11,2020-07-31,0.23637604274014162,0.534908239034079,1.302008149106153,,,,,,,,,,,,
39103,0,USOhioMedina,Ohio,Medina,2022-04-28 09:13:11,2020-08-01,0.23637604274014162,0.534908239034079,1.302008149106153,,,,,,,,,,,,
39103,0,USOhioMedina,Ohio,Medina,2022-04-28 09:13:11,2020-08-02,0.23637604274014162,0.534908239034079,1.302008149106153,,,,,,,,,,,,
39103,0,USOhioMedina,Ohio,Medina,2022-04-28 09:13:11,2020-08-03,0.23637604274014162,0.534908239034079,1.302008149106153,,,,,,,,,,,,
39103,0,USOhioMedina,Ohio,Medina,2022-04-28 09:13:11,2020-08-04,0.23637604274014162,0.534908239034079,1.302008149106153,,,,,,,,,,,,
39103,0,USOhioMedina,Ohio,Medina,2022-04-28 09:13:11,2020-08-05,0.23637604274014162,0.534908239034079,1.302008149106153,,,,,,,,,,,,
39103,0,USOhioMedina,Ohio,Medina,2022-04-28 09:13:11,2020-08-06,0.24911123914844988,0.5495457965849269,1.3034603506019977,,,,,,,,,,,,
39103,0,USOhioMedina,Ohio,Medina,2022-04-28 09:13:11,2020-08-07,0.24911123914844988,0.5495457965849269,1.3034603506019977,,,,,,,,,,,,
39103,0,USOhioMedina,Ohio,Medina,2022-04-28 09:13:11,2020-08-08,0.24911123914844988,0.5495457965849269,1.3034603506019977,,,,,,,,,,,,
39103,0,USOhioMedina,Ohio,Medina,2022-04-28 09:13:11,2020-08-09,0.24911123914844988,0.5495457965849269,1.3034603506019977,,,,,,,,,,,,
39103,0,USOhioMedina,Ohio,Medina,2022-04-28 09:13:11,2020-08-10,0.24911123914844988,0.5495457965849269,1.3034603506019977,,,,,,,,,,,,
39103,0,USOhioMedina,Ohio,Medina,2022-04-28 09:13:11,2020-08-11,0.24911123914844988,0.5495457965849269,1.3034603506019977,,,,,,,,,,,,
39103,0,USOhioMedina,Ohio,Medina,2022-04-28 09:13:11,2020-08-12,0.24911123914844988,0.5495457965849269,1.3034603506019977,,,,,,,,,,,,
39103,0,USOhioMedina,Ohio,Medina,2022-04-28 09:13:11,2020-08-13,0.19121401230793553,0.4278284216523903,1.029453511825533,,,,,,,,,,,,
39103,0,USOhioMedina,Ohio,Medina,2022-04-28 09:13:11,2020-08-14,0.19121401230793553,0.4278284216523903,1.029453511825533,,,,,,,,,,,,
39103,0,USOhioMedina,Ohio,Medina,2022-04-28 09:13:11,2020-08-15,0.19121401230793553,0.4278284216523903,1.029453511825533,,,,,,,,,,,,
39103,0,USOhioMedina,Ohio,Medina,2022-04-28 09:13:11,2020-08-16,0.19121401230793553,0.4278284216523903,1.029453511825533,,,,,,,,,,,,
39103,0,USOhioMedina,Ohio,Medina,2022-04-28 09:13:11,2020-08-17,0.19121401230793553,0.4278284216523903,1.029453511825533,,,,,,,,,,,,
39103,0,USOhioMedina,Ohio,Medina,2022-04-28 09:13:11,2020-08-18,0.19121401230793553,0.4278284216523903,1.029453511825533,,,,,,,,,,,,
39103,0,USOhioMedina,Ohio,Medina,2022-04-28 09:13:11,2020-08-19,0.19121401230793553,0.4278284216523903,1.029453511825533,,,,,,,,,,,,
39103,0,USOhioMedina,Ohio,Medina,2022-04-28 09:13:11,2020-08-20,0.23492486491882464,0.4819675825393781,1.0611622358157724,,,,,,,,,,,,
39103,0,USOhioMedina,Ohio,Medina,2022-04-28 09:13:11,2020-08-21,0.23492486491882464,0.4819675825393781,1.0611622358157724,,,,,,,,,,,,
39103,0,USOhioMedina,Ohio,Medina,2022-04-28 09:13:11,2020-08-22,0.23492486491882464,0.4819675825393781,1.0611622358157724,,,,,,,,,,,,
39103,0,USOhioMedina,Ohio,Medina,2022-04-28 09:13:11,2020-08-23,0.23492486491882464,0.4819675825393781,1.0611622358157724,,,,,,,,,,,,
39103,0,USOhioMedina,Ohio,Medina,2022-04-28 09:13:11,2020-08-24,0.23492486491882464,0.4819675825393781,1.0611622358157724,,,,,,,,,,,,
39103,0,USOhioMedina,Ohio,Medina,2022-04-28 09:13:11,2020-08-25,0.23492486491882464,0.4819675825393781,1.0611622358157724,,,,,,,,,,,,
39103,0,USOhioMedina,Ohio,Medina,2022-04-28 09:13:11,2020-08-26,0.23492486491882464,0.4819675825393781,1.0611622358157724,,,,,,,,,,,,
39103,0,USOhioMedina,Ohio,Medina,2022-04-28 09:13:11,2020-08-27,0.29716722387004657,0.592951046686142,1.2684469293760872,,,,,,,,,,,,
39103,0,USOhioMedina,Ohio,Medina,2022-04-28 09:13:11,2020-08-28,0.29716722387004657,0.592951046686142,1.2684469293760872,,,,,,,,,,,,
39103,0,USOhioMedina,Ohio,Medina,2022-04-28 09:13:11,2020-08-29,0.29716722387004657,0.592951046686142,1.2684469293760872,,,,,,,,,,,,
39103,0,USOhioMedina,Ohio,Medina,2022-04-28 09:13:11,2020-08-30,0.29716722387004657,0.592951046686142,1.2684469293760872,,,,,,,,,,,,
39103,0,USOhioMedina,Ohio,Medina,2022-04-28 09:13:11,2020-08-31,0.29716722387004657,0.592951046686142,1.2684469293760872,,,,,,,,,,,,
39103,0,USOhioMedina,Ohio,Medina,2022-04-28 09:13:11,2020-09-01,0.29716722387004657,0.592951046686142,1.2684469293760872,,,,,,,,,,,,
39103,0,USOhioMedina,Ohio,Medina,2022-04-28 09:13:11,2020-09-02,0.29716722387004657,0.592951046686142,1.2684469293760872,,,,,,,,,,,,
39103,0,USOhioMedina,Ohio,Medina,2022-04-28 09:13:11,2020-09-03,0.20328776445741403,0.445440496443612,1.0492911485305672,,,,,,,,,,,,
39103,0,USOhioMedina,Ohio,Medina,2022-04-28 09:13:11,2020-09-04,0.20328776445741403,0.445440496443612,1.0492911485305672,,,,,,,,,,,,
39103,0,USOhioMedina,Ohio,Medina,2022-04-28 09:13:11,2020-09-05,0.20328776445741403,0.445440496443612,1.0492911485305672,,,,,,,,,,,,
39103,0,USOhioMedina,Ohio,Medina,2022-04-28 09:13:11,2020-09-06,0.20328776445741403,0.445440496443612,1.0492911485305672,,,,,,,,,,,,
39103,0,USOhioMedina,Ohio,Medina,2022-04-28 09:13:11,2020-09-07,0.20328776445741403,0.445440496443612,1.0492911485305672,,,,,,,,,,,,
39103,0,USOhioMedina,Ohio,Medina,2022-04-28 09:13:11,2020-09-08,0.20328776445741403,0.445440496443612,1.0492911485305672,,,,,,,,,,,,
39103,0,USOhioMedina,Ohio,Medina,2022-04-28 09:13:11,2020-09-09,0.20328776445741403,0.445440496443612,1.0492911485305672,,,,,,,,,,,,
39103,0,USOhioMedina,Ohio,Medina,2022-04-28 09:13:11,2020-09-10,0.20228234203322695,0.43081895534087117,0.9857857872440985,,,,,,,,,,,,
39103,0,USOhioMedina,Ohio,Medina,2022-04-28 09:13:11,2020-09-11,0.20228234203322695,0.43081895534087117,0.9857857872440985,,,,,,,,,,,,
39103,0,USOhioMedina,Ohio,Medina,2022-04-28 09:13:11,2020-09-12,0.20228234203322695,0.43081895534087117,0.9857857872440985,,,,,,,,,,,,
39103,0,USOhioMedina,Ohio,Medina,2022-04-28 09:13:11,2020-09-13,0.20228234203322695,0.43081895534087117,0.9857857872440985,,,,,,,,,,,,
39103,0,USOhioMedina,Ohio,Medina,2022-04-28 09:13:11,2020-09-14,0.20228234203322695,0.43081895534087117,0.9857857872440985,,,,,,,,,,,,
39103,0,USOhioMedina,Ohio,Medina,2022-04-28 09:13:11,2020-09-15,0.20228234203322695,0.43081895534087117,0.9857857872440985,,,,,,,,,,,,
39103,0,USOhioMedina,Ohio,Medina,2022-04-28 09:13:11,2020-09-16,0.20228234203322695,0.43081895534087117,0.9857857872440985,,,,,,,,,,,,
39103,0,USOhioMedina,Ohio,Medina,2022-04-28 09:13:11,2020-09-17,0.14388827108278102,0.3119608164028641,0.726954976097123,,,,,,,,,,,,
39103,0,USOhioMedina,Ohio,Medina,2022-04-28 09:13:11,2020-09-18,0.14388827108278102,0.3119608164028641,0.726954976097123,,,,,,,,,,,,
39103,0,USOhioMedina,Ohio,Medina,2022-04-28 09:13:11,2020-09-19,0.14388827108278102,0.3119608164028641,0.726954976097123,,,,,,,,,,,,
39103,0,USOhioMedina,Ohio,Medina,2022-04-28 09:13:11,2020-09-20,0.14388827108278102,0.3119608164028641,0.726954976097123,,,,,,,,,,,,
39103,0,USOhioMedina,Ohio,Medina,2022-04-28 09:13:11,2020-09-21,0.14388827108278102,0.3119608164028641,0.726954976097123,,,,,,,,,,,,
39103,0,USOhioMedina,Ohio,Medina,2022-04-28 09:13:11,2020-09-22,0.14388827108278102,0.3119608164028641,0.726954976097123,,,,,,,,,,,,
39103,0,USOhioMedina,Ohio,Medina,2022-04-28 09:13:11,2020-09-23,0.14388827108278102,0.3119608164028641,0.726954976097123,,,,,,,,,,,,
39103,0,USOhioMedina,Ohio,Medina,2022-04-28 09:13:11,2020-09-24,0.16505515614372243,0.3567804039527282,0.8288520914780545,,,,,,,,,,,,
39103,0,USOhioMedina,Ohio,Medina,2022-04-28 09:13:11,2020-09-25,0.16505515614372243,0.3567804039527282,0.8288520914780545,,,,,,,,,,,,
39103,0,USOhioMedina,Ohio,Medina,2022-04-28 09:13:11,2020-09-26,0.16505515614372243,0.3567804039527282,0.8288520914780545,,,,,,,,,,,,
39103,0,USOhioMedina,Ohio,Medina,2022-04-28 09:13:11,2020-09-27,0.16505515614372243,0.3567804039527282,0.8288520914780545,,,,,,,,,,,,
39103,0,USOhioMedina,Ohio,Medina,2022-04-28 09:13:11,2020-09-28,0.16505515614372243,0.3567804039527282,0.8288520914780545,,,,,,,,,,,,
39103,0,USOhioMedina,Ohio,Medina,2022-04-28 09:13:11,2020-09-29,0.16505515614372243,0.3567804039527282,0.8288520914780545,,,,,,,,,,,,
39103,0,USOhioMedina,Ohio,Medina,2022-04-28 09:13:11,2020-09-30,0.16505515614372243,0.3567804039527282,0.8288520914780545,,,,,,,,,,,,
39103,0,USOhioMedina,Ohio,Medina,2022-04-28 09:13:11,2020-10-01,0.19260295875393824,0.41206650712198034,0.9472650590982271,,,,,,,,,,,,
39103,0,USOhioMedina,Ohio,Medina,2022-04-28 09:13:11,2020-10-02,0.19260295875393824,0.41206650712198034,0.9472650590982271,,,,,,,,,,,,
39103,0,USOhioMedina,Ohio,Medina,2022-04-28 09:13:11,2020-10-03,0.19260295875393824,0.41206650712198034,0.9472650590982271,,,,,,,,,,,,
39103,0,USOhioMedina,Ohio,Medina,2022-04-28 09:13:11,2020-10-04,0.19260295875393824,0.41206650712198034,0.9472650590982271,,,,,,,,,,,,
39103,0,USOhioMedina,Ohio,Medina,2022-04-28 09:13:11,2020-10-05,0.19260295875393824,0.41206650712198034,0.9472650590982271,,,,,,,,,,,,
39103,0,USOhioMedina,Ohio,Medina,2022-04-28 09:13:11,2020-10-06,0.19260295875393824,0.41206650712198034,0.9472650590982271,,,,,,,,,,,,
39103,0,USOhioMedina,Ohio,Medina,2022-04-28 09:13:11,2020-10-07,0.19260295875393824,0.41206650712198034,0.9472650590982271,,,,,,,,,,,,
39103,0,USOhioMedina,Ohio,Medina,2022-04-28 09:13:11,2020-10-08,0.2593829450024035,0.5348993182566661,1.1839986528436468,,,,,,,,,,,,
39103,0,USOhioMedina,Ohio,Medina,2022-04-28 09:13:11,2020-10-09,0.2593829450024035,0.5348993182566661,1.1839986528436468,,,,,,,,,,,,
39103,0,USOhioMedina,Ohio,Medina,2022-04-28 09:13:11,2020-10-10,0.2593829450024035,0.5348993182566661,1.1839986528436468,,,,,,,,,,,,
39103,0,USOhioMedina,Ohio,Medina,2022-04-28 09:13:11,2020-10-11,0.2593829450024035,0.5348993182566661,1.1839986528436468,,,,,,,,,,,,
39103,0,USOhioMedina,Ohio,Medina,2022-04-28 09:13:11,2020-10-12,0.2593829450024035,0.5348993182566661,1.1839986528436468,,,,,,,,,,,,
39103,0,USOhioMedina,Ohio,Medina,2022-04-28 09:13:11,2020-10-13,0.2593829450024035,0.5348993182566661,1.1839986528436468,,,,,,,,,,,,
39103,0,USOhioMedina,Ohio,Medina,2022-04-28 09:13:11,2020-10-14,0.2593829450024035,0.5348993182566661,1.1839986528436468,,,,,,,,,,,,
39103,0,USOhioMedina,Ohio,Medina,2022-04-28 09:13:11,2020-10-15,0.35785727817816104,0.7163314654572688,1.5374750052336679,,,,,,,,,,,,
39103,0,USOhioMedina,Ohio,Medina,2022-04-28 09:13:11,2020-10-16,0.35785727817816104,0.7163314654572688,1.5374750052336679,,,,,,,,,,,,
39103,0,USOhioMedina,Ohio,Medina,2022-04-28 09:13:11,2020-10-17,0.35785727817816104,0.7163314654572688,1.5374750052336679,,,,,,,,,,,,
39103,0,USOhioMedina,Ohio,Medina,2022-04-28 09:13:11,2020-10-18,0.35785727817816104,0.7163314654572688,1.5374750052336679,,,,,,,,,,,,
39103,0,USOhioMedina,Ohio,Medina,2022-04-28 09:13:11,2020-10-19,0.35785727817816104,0.7163314654572688,1.5374750052336679,,,,,,,,,,,,
39103,0,USOhioMedina,Ohio,Medina,2022-04-28 09:13:11,2020-10-20,0.35785727817816104,0.7163314654572688,1.5374750052336679,,,,,,,,,,,,
39103,0,USOhioMedina,Ohio,Medina,2022-04-28 09:13:11,2020-10-21,0.35785727817816104,0.7163314654572688,1.5374750052336679,,,,,,,,,,,,
39103,0,USOhioMedina,Ohio,Medina,2022-04-28 09:13:11,2020-10-22,0.5031812809919116,0.94968360914947,1.9167035212135926,,,,,,,,,,,,
39103,0,USOhioMedina,Ohio,Medina,2022-04-28 09:13:11,2020-10-23,0.5031812809919116,0.94968360914947,1.9167035212135926,,,,,,,,,,,,
39103,0,USOhioMedina,Ohio,Medina,2022-04-28 09:13:11,2020-10-24,0.5031812809919116,0.94968360914947,1.9167035212135926,,,,,,,,,,,,
39103,0,USOhioMedina,Ohio,Medina,2022-04-28 09:13:11,2020-10-25,0.5031812809919116,0.94968360914947,1.9167035212135926,,,,,,,,,,,,
39103,0,USOhioMedina,Ohio,Medina,2022-04-28 09:13:11,2020-10-26,0.5031812809919116,0.94968360914947,1.9167035212135926,,,,,,,,,,,,
39103,0,USOhioMedina,Ohio,Medina,2022-04-28 09:13:11,2020-10-27,0.5031812809919116,0.94968360914947,1.9167035212135926,,,,,,,,,,,,
39103,0,USOhioMedina,Ohio,Medina,2022-04-28 09:13:11,2020-10-28,0.5031812809919116,0.94968360914947,1.9167035212135926,,,,,,,,,,,,
39103,0,USOhioMedina,Ohio,Medina,2022-04-28 09:13:11,2020-10-29,0.7463536835757962,1.3635460906192067,2.65896767421819,,,,,,,,,,,,
39103,0,USOhioMedina,Ohio,Medina,2022-04-28 09:13:11,2020-10-30,0.7463536835757962,1.3635460906192067,2.65896767421819,,,,,,,,,,,,
39103,0,USOhioMedina,Ohio,Medina,2022-04-28 09:13:11,2020-10-31,0.7463536835757962,1.3635460906192067,2.65896767421819,,,,,,,,,,,,
39103,0,USOhioMedina,Ohio,Medina,2022-04-28 09:13:11,2020-11-01,0.7463536835757962,1.3635460906192067,2.65896767421819,,,,,,,,,,,,
39103,0,USOhioMedina,Ohio,Medina,2022-04-28 09:13:11,2020-11-02,0.7463536835757962,1.3635460906192067,2.65896767421819,,,,,,,,,,,,
39103,0,USOhioMedina,Ohio,Medina,2022-04-28 09:13:11,2020-11-03,0.7463536835757962,1.3635460906192067,2.65896767421819,,,,,,,,,,,,
39103,0,USOhioMedina,Ohio,Medina,2022-04-28 09:13:11,2020-11-04,0.7463536835757962,1.3635460906192067,2.65896767421819,,,,,,,,,,,,
39103,0,USOhioMedina,Ohio,Medina,2022-04-28 09:13:11,2020-11-05,1.2451065079622676,2.1534414043370393,3.960569169382924,,,,,,,,,,,,
39103,0,USOhioMedina,Ohio,Medina,2022-04-28 09:13:11,2020-11-06,1.2451065079622676,2.1534414043370393,3.960569169382924,,,,,,,,,,,,
39103,0,USOhioMedina,Ohio,Medina,2022-04-28 09:13:11,2020-11-07,1.2451065079622676,2.1534414043370393,3.960569169382924,,,,,,,,,,,,
39103,0,USOhioMedina,Ohio,Medina,2022-04-28 09:13:11,2020-11-08,1.2451065079622676,2.1534414043370393,3.960569169382924,,,,,,,,,,,,
39103,0,USOhioMedina,Ohio,Medina,2022-04-28 09:13:11,2020-11-09,1.2451065079622676,2.1534414043370393,3.960569169382924,,,,,,,,,,,,
39103,0,USOhioMedina,Ohio,Medina,2022-04-28 09:13:11,2020-11-10,1.2451065079622676,2.1534414043370393,3.960569169382924,,,,,,,,,,,,
39103,0,USOhioMedina,Ohio,Medina,2022-04-28 09:13:11,2020-11-11,1.2451065079622676,2.1534414043370393,3.960569169382924,,,,,,,,,,,,
39103,0,USOhioMedina,Ohio,Medina,2022-04-28 09:13:11,2020-11-12,1.5411044819912019,2.6781525811377422,4.9509844086216726,,,,,,,,,,,,
39103,0,USOhioMedina,Ohio,Medina,2022-04-28 09:13:11,2020-11-13,1.5411044819912019,2.6781525811377422,4.9509844086216726,,,,,,,,,,,,
39103,0,USOhioMedina,Ohio,Medina,2022-04-28 09:13:11,2020-11-14,1.5411044819912019,2.6781525811377422,4.9509844086216726,,,,,,,,,,,,
39103,0,USOhioMedina,Ohio,Medina,2022-04-28 09:13:11,2020-11-15,1.5411044819912019,2.6781525811377422,4.9509844086216726,,,,,,,,,,,,
39103,0,USOhioMedina,Ohio,Medina,2022-04-28 09:13:11,2020-11-16,1.5411044819912019,2.6781525811377422,4.9509844086216726,,,,,,,,,,,,
39103,0,USOhioMedina,Ohio,Medina,2022-04-28 09:13:11,2020-11-17,1.5411044819912019,2.6781525811377422,4.9509844086216726,,,,,,,,,,,,
39103,0,USOhioMedina,Ohio,Medina,2022-04-28 09:13:11,2020-11-18,1.5411044819912019,2.6781525811377422,4.9509844086216726,,,,,,,,,,,,
39103,0,USOhioMedina,Ohio,Medina,2022-04-28 09:13:11,2020-11-19,2.089026069106258,3.4544333203839503,6.052331958631297,,,,,,,,,,,,
39103,0,USOhioMedina,Ohio,Medina,2022-04-28 09:13:11,2020-11-20,2.089026069106258,3.4544333203839503,6.052331958631297,,,,,,,,,,,,
39103,0,USOhioMedina,Ohio,Medina,2022-04-28 09:13:11,2020-11-21,2.089026069106258,3.4544333203839503,6.052331958631297,,,,,,,,,,,,
39103,0,USOhioMedina,Ohio,Medina,2022-04-28 09:13:11,2020-11-22,2.089026069106258,3.4544333203839503,6.052331958631297,,,,,,,,,,,,
39103,0,USOhioMedina,Ohio,Medina,2022-04-28 09:13:11,2020-11-23,2.089026069106258,3.4544333203839503,6.052331958631297,,,,,,,,,,,,
39103,0,USOhioMedina,Ohio,Medina,2022-04-28 09:13:11,2020-11-24,2.089026069106258,3.4544333203839503,6.052331958631297,,,,,,,,,,,,
39103,0,USOhioMedina,Ohio,Medina,2022-04-28 09:13:11,2020-11-25,2.089026069106258,3.4544333203839503,6.052331958631297,,,,,,,,,,,,
39103,0,USOhioMedina,Ohio,Medina,2022-04-28 09:13:11,2020-11-26,1.750298723473219,3.0597065678355793,5.692305228934469,,,,,,,,,,,,
39103,0,USOhioMedina,Ohio,Medina,2022-04-28 09:13:11,2020-11-27,1.750298723473219,3.0597065678355793,5.692305228934469,,,,,,,,,,,,
39103,0,USOhioMedina,Ohio,Medina,2022-04-28 09:13:11,2020-11-28,1.750298723473219,3.0597065678355793,5.692305228934469,,,,,,,,,,,,
39103,0,USOhioMedina,Ohio,Medina,2022-04-28 09:13:11,2020-11-29,1.750298723473219,3.0597065678355793,5.692305228934469,,,,,,,,,,,,
39103,0,USOhioMedina,Ohio,Medina,2022-04-28 09:13:11,2020-11-30,1.750298723473219,3.0597065678355793,5.692305228934469,,,,,,,,,,,,
39103,0,USOhioMedina,Ohio,Medina,2022-04-28 09:13:11,2020-12-01,1.750298723473219,3.0597065678355793,5.692305228934469,,,,,,,,,,,,
39103,0,USOhioMedina,Ohio,Medina,2022-04-28 09:13:11,2020-12-02,1.750298723473219,3.0597065678355793,5.692305228934469,,,,,,,,,,,,
39103,0,USOhioMedina,Ohio,Medina,2022-04-28 09:13:11,2020-12-03,2.530502636523114,4.386755932845957,8.088237075492685,,,,,,,,,,,,
39103,0,USOhioMedina,Ohio,Medina,2022-04-28 09:13:11,2020-12-04,2.530502636523114,4.386755932845957,8.088237075492685,,,,,,,,,,,,
39103,0,USOhioMedina,Ohio,Medina,2022-04-28 09:13:11,2020-12-05,2.530502636523114,4.386755932845957,8.088237075492685,,,,,,,,,,,,
39103,0,USOhioMedina,Ohio,Medina,2022-04-28 09:13:11,2020-12-06,2.530502636523114,4.386755932845957,8.088237075492685,,,,,,,,,,,,
39103,0,USOhioMedina,Ohio,Medina,2022-04-28 09:13:11,2020-12-07,2.530502636523114,4.386755932845957,8.088237075492685,,,,,,,,,,,,
39103,0,USOhioMedina,Ohio,Medina,2022-04-28 09:13:11,2020-12-08,2.530502636523114,4.386755932845957,8.088237075492685,,,,,,,,,,,,
39103,0,USOhioMedina,Ohio,Medina,2022-04-28 09:13:11,2020-12-09,2.530502636523114,4.386755932845957,8.088237075492685,,,,,,,,,,,,
39103,0,USOhioMedina,Ohio,Medina,2022-04-28 09:13:11,2020-12-10,1.9526016872219831,3.418272506934201,6.369211823093041,,,,,,,,,,,,
39103,0,USOhioMedina,Ohio,Medina,2022-04-28 09:13:11,2020-12-11,1.9526016872219831,3.418272506934201,6.369211823093041,,,,,,,,,,,,
39103,0,USOhioMedina,Ohio,Medina,2022-04-28 09:13:11,2020-12-12,1.9526016872219831,3.418272506934201,6.369211823093041,,,,,,,,,,,,
39103,0,USOhioMedina,Ohio,Medina,2022-04-28 09:13:11,2020-12-13,1.9526016872219831,3.418272506934201,6.369211823093041,,,,,,,,,,,,
39103,0,USOhioMedina,Ohio,Medina,2022-04-28 09:13:11,2020-12-14,1.9526016872219831,3.418272506934201,6.369211823093041,,,,,,,,,,,,
39103,0,USOhioMedina,Ohio,Medina,2022-04-28 09:13:11,2020-12-15,1.9526016872219831,3.418272506934201,6.369211823093041,,,,,,,,,,,,
39103,0,USOhioMedina,Ohio,Medina,2022-04-28 09:13:11,2020-12-16,1.9526016872219831,3.418272506934201,6.369211823093041,,,,,,,,,,,,
39103,0,USOhioMedina,Ohio,Medina,2022-04-28 09:13:11,2020-12-17,1.9068672295335765,3.371910062366948,6.350765951936976,,,,,,,,,,,,
39103,0,USOhioMedina,Ohio,Medina,2022-04-28 09:13:11,2020-12-18,1.9068672295335765,3.371910062366948,6.350765951936976,,,,,,,,,,,,
39103,0,USOhioMedina,Ohio,Medina,2022-04-28 09:13:11,2020-12-19,1.9068672295335765,3.371910062366948,6.350765951936976,,,,,,,,,,,,
39103,0,USOhioMedina,Ohio,Medina,2022-04-28 09:13:11,2020-12-20,1.9068672295335765,3.371910062366948,6.350765951936976,,,,,,,,,,,,
39103,0,USOhioMedina,Ohio,Medina,2022-04-28 09:13:11,2020-12-21,1.9068672295335765,3.371910062366948,6.350765951936976,,,,,,,,,,,,
39103,0,USOhioMedina,Ohio,Medina,2022-04-28 09:13:11,2020-12-22,1.9068672295335765,3.371910062366948,6.350765951936976,,,,,,,,,,,,
39103,0,USOhioMedina,Ohio,Medina,2022-04-28 09:13:11,2020-12-23,1.9068672295335765,3.371910062366948,6.350765951936976,,,,,,,,,,,,
39103,0,USOhioMedina,Ohio,Medina,2022-04-28 09:13:11,2020-12-24,1.5608907784921275,2.9026461528313643,5.767474900660495,,,,,,,,,,,,
39103,0,USOhioMedina,Ohio,Medina,2022-04-28 09:13:11,2020-12-25,1.5608907784921275,2.9026461528313643,5.767474900660495,,,,,,,,,,,,
39103,0,USOhioMedina,Ohio,Medina,2022-04-28 09:13:11,2020-12-26,1.5608907784921275,2.9026461528313643,5.767474900660495,,,,,,,,,,,,
39103,0,USOhioMedina,Ohio,Medina,2022-04-28 09:13:11,2020-12-27,1.5608907784921275,2.9026461528313643,5.767474900660495,,,,,,,,,,,,
39103,0,USOhioMedina,Ohio,Medina,2022-04-28 09:13:11,2020-12-28,1.5608907784921275,2.9026461528313643,5.767474900660495,,,,,,,,,,,,
39103,0,USOhioMedina,Ohio,Medina,2022-04-28 09:13:11,2020-12-29,1.5608907784921275,2.9026461528313643,5.767474900660495,,,,,,,,,,,,
39103,0,USOhioMedina,Ohio,Medina,2022-04-28 09:13:11,2020-12-30,1.5608907784921275,2.9026461528313643,5.767474900660495,,,,,,,,,,,,
39103,0,USOhioMedina,Ohio,Medina,2022-04-28 09:13:11,2020-12-31,1.6899886433317426,3.151793989272236,6.2816276537528415,,,,,,,,,,,,
39103,0,USOhioMedina,Ohio,Medina,2022-04-28 09:13:11,2021-01-01,1.6899886433317426,3.151793989272236,6.2816276537528415,,,,,,,,,,,,
39103,0,USOhioMedina,Ohio,Medina,2022-04-28 09:13:11,2021-01-02,1.6899886433317426,3.151793989272236,6.2816276537528415,,,,,,,,,,,,
39103,0,USOhioMedina,Ohio,Medina,2022-04-28 09:13:11,2021-01-03,1.6899886433317426,3.151793989272236,6.2816276537528415,,,,,,,,,,,,
39103,0,USOhioMedina,Ohio,Medina,2022-04-28 09:13:11,2021-01-04,1.6899886433317426,3.151793989272236,6.2816276537528415,,,,,,,,,,,,
39103,0,USOhioMedina,Ohio,Medina,2022-04-28 09:13:11,2021-01-05,1.6899886433317426,3.151793989272236,6.2816276537528415,,,,,,,,,,,,
39103,0,USOhioMedina,Ohio,Medina,2022-04-28 09:13:11,2021-01-06,1.6899886433317426,3.151793989272236,6.2816276537528415,,,,,,,,,,,,
39103,0,USOhioMedina,Ohio,Medina,2022-04-28 09:13:11,2021-01-07,1.7750464139093112,3.178822987153287,6.068625556939258,,,,,,,,,,,,
39103,0,USOhioMedina,Ohio,Medina,2022-04-28 09:13:11,2021-01-08,1.7750464139093112,3.178822987153287,6.068625556939258,,,,,,,,,,,,
39103,0,USOhioMedina,Ohio,Medina,2022-04-28 09:13:11,2021-01-09,1.7750464139093112,3.178822987153287,6.068625556939258,,,,,,,,,,,,
39103,0,USOhioMedina,Ohio,Medina,2022-04-28 09:13:11,2021-01-10,1.7750464139093112,3.178822987153287,6.068625556939258,,,,,,,,,,,,
39103,0,USOhioMedina,Ohio,Medina,2022-04-28 09:13:11,2021-01-11,1.7750464139093112,3.178822987153287,6.068625556939258,,,,,,,,,,,,
39103,0,USOhioMedina,Ohio,Medina,2022-04-28 09:13:11,2021-01-12,1.7750464139093112,3.178822987153287,6.068625556939258,,,,,,,,,,,,
39103,0,USOhioMedina,Ohio,Medina,2022-04-28 09:13:11,2021-01-13,1.7750464139093112,3.178822987153287,6.068625556939258,,,,,,,,,,,,
39103,0,USOhioMedina,Ohio,Medina,2022-04-28 09:13:11,2021-01-14,1.385120527193904,2.4904013157333837,4.774541083656096,,,,,,,,,,,,
39103,0,USOhioMedina,Ohio,Medina,2022-04-28 09:13:11,2021-01-15,1.385120527193904,2.4904013157333837,4.774541083656096,,,,,,,,,,,,
39103,0,USOhioMedina,Ohio,Medina,2022-04-28 09:13:11,2021-01-16,1.385120527193904,2.4904013157333837,4.774541083656096,,,,,,,,,,,,
39103,0,USOhioMedina,Ohio,Medina,2022-04-28 09:13:11,2021-01-17,1.385120527193904,2.4904013157333837,4.774541083656096,,,,,,,,,,,,
39103,0,USOhioMedina,Ohio,Medina,2022-04-28 09:13:11,2021-01-18,1.385120527193904,2.4904013157333837,4.774541083656096,,,,,,,,,,,,
39103,0,USOhioMedina,Ohio,Medina,2022-04-28 09:13:11,2021-01-19,1.385120527193904,2.4904013157333837,4.774541083656096,,,,,,,,,,,,
39103,0,USOhioMedina,Ohio,Medina,2022-04-28 09:13:11,2021-01-20,1.385120527193904,2.4904013157333837,4.774541083656096,,,,,,,,,,,,
39103,0,USOhioMedina,Ohio,Medina,2022-04-28 09:13:11,2021-01-21,1.1425204984692283,2.1148330822398207,4.181610230223613,,,,,,,,,,,,
39103,0,USOhioMedina,Ohio,Medina,2022-04-28 09:13:11,2021-01-22,1.1425204984692283,2.1148330822398207,4.181610230223613,,,,,,,,,,,,
39103,0,USOhioMedina,Ohio,Medina,2022-04-28 09:13:11,2021-01-23,1.1425204984692283,2.1148330822398207,4.181610230223613,,,,,,,,,,,,
39103,0,USOhioMedina,Ohio,Medina,2022-04-28 09:13:11,2021-01-24,1.1425204984692283,2.1148330822398207,4.181610230223613,,,,,,,,,,,,
39103,0,USOhioMedina,Ohio,Medina,2022-04-28 09:13:11,2021-01-25,1.1425204984692283,2.1148330822398207,4.181610230223613,,,,,,,,,,,,
39103,0,USOhioMedina,Ohio,Medina,2022-04-28 09:13:11,2021-01-26,1.1425204984692283,2.1148330822398207,4.181610230223613,,,,,,,,,,,,
39103,0,USOhioMedina,Ohio,Medina,2022-04-28 09:13:11,2021-01-27,1.1425204984692283,2.1148330822398207,4.181610230223613,,,,,,,,,,,,
39103,0,USOhioMedina,Ohio,Medina,2022-04-28 09:13:11,2021-01-28,1.0455317931863917,1.869988568627602,3.5650961454887775,,,,,,,,,,,,
39103,0,USOhioMedina,Ohio,Medina,2022-04-28 09:13:11,2021-01-29,1.0455317931863917,1.869988568627602,3.5650961454887775,,,,,,,,,,,,
39103,0,USOhioMedina,Ohio,Medina,2022-04-28 09:13:11,2021-01-30,1.0455317931863917,1.869988568627602,3.5650961454887775,,,,,,,,,,,,
39103,0,USOhioMedina,Ohio,Medina,2022-04-28 09:13:11,2021-01-31,1.0455317931863917,1.869988568627602,3.5650961454887775,,,,,,,,,,,,
39103,0,USOhioMedina,Ohio,Medina,2022-04-28 09:13:11,2021-02-01,1.0455317931863917,1.869988568627602,3.5650961454887775,,,,,,,,,,,,
39103,0,USOhioMedina,Ohio,Medina,2022-04-28 09:13:11,2021-02-02,1.0455317931863917,1.869988568627602,3.5650961454887775,,,,,,,,,,,,
39103,0,USOhioMedina,Ohio,Medina,2022-04-28 09:13:11,2021-02-03,1.0455317931863917,1.869988568627602,3.5650961454887775,,,,,,,,,,,,
39103,0,USOhioMedina,Ohio,Medina,2022-04-28 09:13:11,2021-02-04,0.793021586177104,1.4669123854215977,2.8984231466649337,,,,,,,,,,,,
39103,0,USOhioMedina,Ohio,Medina,2022-04-28 09:13:11,2021-02-05,0.793021586177104,1.4669123854215977,2.8984231466649337,,,,,,,,,,,,
39103,0,USOhioMedina,Ohio,Medina,2022-04-28 09:13:11,2021-02-06,0.793021586177104,1.4669123854215977,2.8984231466649337,,,,,,,,,,,,
39103,0,USOhioMedina,Ohio,Medina,2022-04-28 09:13:11,2021-02-07,0.793021586177104,1.4669123854215977,2.8984231466649337,,,,,,,,,,,,
39103,0,USOhioMedina,Ohio,Medina,2022-04-28 09:13:11,2021-02-08,0.793021586177104,1.4669123854215977,2.8984231466649337,,,,,,,,,,,,
39103,0,USOhioMedina,Ohio,Medina,2022-04-28 09:13:11,2021-02-09,0.793021586177104,1.4669123854215977,2.8984231466649337,,,,,,,,,,,,
39103,0,USOhioMedina,Ohio,Medina,2022-04-28 09:13:11,2021-02-10,0.793021586177104,1.4669123854215977,2.8984231466649337,,,,,,,,,,,,
39103,0,USOhioMedina,Ohio,Medina,2022-04-28 09:13:11,2021-02-11,0.6693929878387275,1.2220633448374045,2.381251592755384,,,,,,,,,,,,
39103,0,USOhioMedina,Ohio,Medina,2022-04-28 09:13:11,2021-02-12,0.6693929878387275,1.2220633448374045,2.381251592755384,,,,,,,,,,,,
39103,0,USOhioMedina,Ohio,Medina,2022-04-28 09:13:11,2021-02-13,0.6693929878387275,1.2220633448374045,2.381251592755384,,,,,,,,,,,,
39103,0,USOhioMedina,Ohio,Medina,2022-04-28 09:13:11,2021-02-14,0.6693929878387275,1.2220633448374045,2.381251592755384,,,,,,,,,,,,
39103,0,USOhioMedina,Ohio,Medina,2022-04-28 09:13:11,2021-02-15,0.6693929878387275,1.2220633448374045,2.381251592755384,,,,,,,,,,,,
39103,0,USOhioMedina,Ohio,Medina,2022-04-28 09:13:11,2021-02-16,0.6693929878387275,1.2220633448374045,2.381251592755384,,,,,,,,,,,,
39103,0,USOhioMedina,Ohio,Medina,2022-04-28 09:13:11,2021-02-17,0.6693929878387275,1.2220633448374045,2.381251592755384,,,,,,,,,,,,
39103,0,USOhioMedina,Ohio,Medina,2022-04-28 09:13:11,2021-02-18,0.5821287426870998,1.1709102278926422,2.5257968631068803,,,,,,,,,,,,
39103,0,USOhioMedina,Ohio,Medina,2022-04-28 09:13:11,2021-02-19,0.5821287426870998,1.1709102278926422,2.5257968631068803,,,,,,,,,,,,
39103,0,USOhioMedina,Ohio,Medina,2022-04-28 09:13:11,2021-02-20,0.5821287426870998,1.1709102278926422,2.5257968631068803,,,,,,,,,,,,
39103,0,USOhioMedina,Ohio,Medina,2022-04-28 09:13:11,2021-02-21,0.5821287426870998,1.1709102278926422,2.5257968631068803,,,,,,,,,,,,
39103,0,USOhioMedina,Ohio,Medina,2022-04-28 09:13:11,2021-02-22,0.5821287426870998,1.1709102278926422,2.5257968631068803,,,,,,,,,,,,
39103,0,USOhioMedina,Ohio,Medina,2022-04-28 09:13:11,2021-02-23,0.5821287426870998,1.1709102278926422,2.5257968631068803,,,,,,,,,,,,
39103,0,USOhioMedina,Ohio,Medina,2022-04-28 09:13:11,2021-02-24,0.5821287426870998,1.1709102278926422,2.5257968631068803,,,,,,,,,,,,
39103,0,USOhioMedina,Ohio,Medina,2022-04-28 09:13:11,2021-02-25,0.46527906283771786,0.8652225822518098,1.7191422267274838,,,,,,,,,,,,
39103,0,USOhioMedina,Ohio,Medina,2022-04-28 09:13:11,2021-02-26,0.46527906283771786,0.8652225822518098,1.7191422267274838,,,,,,,,,,,,
39103,0,USOhioMedina,Ohio,Medina,2022-04-28 09:13:11,2021-02-27,0.46527906283771786,0.8652225822518098,1.7191422267274838,,,,,,,,,,,,
39103,0,USOhioMedina,Ohio,Medina,2022-04-28 09:13:11,2021-02-28,0.46527906283771786,0.8652225822518098,1.7191422267274838,,,,,,,,,,,,
39103,0,USOhioMedina,Ohio,Medina,2022-04-28 09:13:11,2021-03-01,0.46527906283771786,0.8652225822518098,1.7191422267274838,,,,,,,,,,,,
39103,0,USOhioMedina,Ohio,Medina,2022-04-28 09:13:11,2021-03-02,0.46527906283771786,0.8652225822518098,1.7191422267274838,,,,,,,,,,,,
39103,0,USOhioMedina,Ohio,Medina,2022-04-28 09:13:11,2021-03-03,0.46527906283771786,0.8652225822518098,1.7191422267274838,,,,,,,,,,,,
39103,0,USOhioMedina,Ohio,Medina,2022-04-28 09:13:11,2021-03-04,0.5236271811617433,0.934352640244087,1.7768976777542755,,,,,,,,,,,,
39103,0,USOhioMedina,Ohio,Medina,2022-04-28 09:13:11,2021-03-05,0.5236271811617433,0.934352640244087,1.7768976777542755,,,,,,,,,,,,
39103,0,USOhioMedina,Ohio,Medina,2022-04-28 09:13:11,2021-03-06,0.5236271811617433,0.934352640244087,1.7768976777542755,,,,,,,,,,,,
39103,0,USOhioMedina,Ohio,Medina,2022-04-28 09:13:11,2021-03-07,0.5236271811617433,0.934352640244087,1.7768976777542755,,,,,,,,,,,,
39103,0,USOhioMedina,Ohio,Medina,2022-04-28 09:13:11,2021-03-08,0.5236271811617433,0.934352640244087,1.7768976777542755,,,,,,,,,,,,
39103,0,USOhioMedina,Ohio,Medina,2022-04-28 09:13:11,2021-03-09,0.5236271811617433,0.934352640244087,1.7768976777542755,,,,,,,,,,,,
39103,0,USOhioMedina,Ohio,Medina,2022-04-28 09:13:11,2021-03-10,0.5236271811617433,0.934352640244087,1.7768976777542755,,,,,,,,,,,,
39103,0,USOhioMedina,Ohio,Medina,2022-04-28 09:13:11,2021-03-11,0.5468578273944578,0.9534341858763751,1.7687399728645563,,,,,,,,,,,,
39103,0,USOhioMedina,Ohio,Medina,2022-04-28 09:13:11,2021-03-12,0.5468578273944578,0.9534341858763751,1.7687399728645563,,,,,,,,,,,,
39103,0,USOhioMedina,Ohio,Medina,2022-04-28 09:13:11,2021-03-13,0.5468578273944578,0.9534341858763751,1.7687399728645563,,,,,,,,,,,,
39103,0,USOhioMedina,Ohio,Medina,2022-04-28 09:13:11,2021-03-14,0.5468578273944578,0.9534341858763751,1.7687399728645563,,,,,,,,,,,,
39103,0,USOhioMedina,Ohio,Medina,2022-04-28 09:13:11,2021-03-15,0.5468578273944578,0.9534341858763751,1.7687399728645563,,,,,,,,,,,,
39103,0,USOhioMedina,Ohio,Medina,2022-04-28 09:13:11,2021-03-16,0.5468578273944578,0.9534341858763751,1.7687399728645563,,,,,,,,,,,,
39103,0,USOhioMedina,Ohio,Medina,2022-04-28 09:13:11,2021-03-17,0.5468578273944578,0.9534341858763751,1.7687399728645563,,,,,,,,,,,,
39103,0,USOhioMedina,Ohio,Medina,2022-04-28 09:13:11,2021-03-18,0.4777141511319157,0.882257586151468,1.7402875033442882,,,,,,,,,,,,
39103,0,USOhioMedina,Ohio,Medina,2022-04-28 09:13:11,2021-03-19,0.4777141511319157,0.882257586151468,1.7402875033442882,,,,,,,,,,,,
39103,0,USOhioMedina,Ohio,Medina,2022-04-28 09:13:11,2021-03-20,0.4777141511319157,0.882257586151468,1.7402875033442882,,,,,,,,,,,,
39103,0,USOhioMedina,Ohio,Medina,2022-04-28 09:13:11,2021-03-21,0.4777141511319157,0.882257586151468,1.7402875033442882,,,,,,,,,,,,
39103,0,USOhioMedina,Ohio,Medina,2022-04-28 09:13:11,2021-03-22,0.4777141511319157,0.882257586151468,1.7402875033442882,,,,,,,,,,,,
39103,0,USOhioMedina,Ohio,Medina,2022-04-28 09:13:11,2021-03-23,0.4777141511319157,0.882257586151468,1.7402875033442882,,,,,,,,,,,,
39103,0,USOhioMedina,Ohio,Medina,2022-04-28 09:13:11,2021-03-24,0.4777141511319157,0.882257586151468,1.7402875033442882,,,,,,,,,,,,
39103,0,USOhioMedina,Ohio,Medina,2022-04-28 09:13:11,2021-03-25,0.5185738730809747,0.9852275907163878,2.0023192601233206,,,,,,,,,,,,
39103,0,USOhioMedina,Ohio,Medina,2022-04-28 09:13:11,2021-03-26,0.5185738730809747,0.9852275907163878,2.0023192601233206,,,,,,,,,,,,
39103,0,USOhioMedina,Ohio,Medina,2022-04-28 09:13:11,2021-03-27,0.5185738730809747,0.9852275907163878,2.0023192601233206,,,,,,,,,,,,
39103,0,USOhioMedina,Ohio,Medina,2022-04-28 09:13:11,2021-03-28,0.5185738730809747,0.9852275907163878,2.0023192601233206,,,,,,,,,,,,
39103,0,USOhioMedina,Ohio,Medina,2022-04-28 09:13:11,2021-03-29,0.5185738730809747,0.9852275907163878,2.0023192601233206,,,,,,,,,,,,
39103,0,USOhioMedina,Ohio,Medina,2022-04-28 09:13:11,2021-03-30,0.5185738730809747,0.9852275907163878,2.0023192601233206,,,,,,,,,,,,
39103,0,USOhioMedina,Ohio,Medina,2022-04-28 09:13:11,2021-03-31,0.5185738730809747,0.9852275907163878,2.0023192601233206,,,,,,,,,,,,
39103,0,USOhioMedina,Ohio,Medina,2022-04-28 09:13:11,2021-04-01,0.48957145811549113,0.9579324040964694,2.007861247745114,,,,,,,,,,,,
39103,0,USOhioMedina,Ohio,Medina,2022-04-28 09:13:11,2021-04-02,0.48957145811549113,0.9579324040964694,2.007861247745114,,,,,,,,,,,,
39103,0,USOhioMedina,Ohio,Medina,2022-04-28 09:13:11,2021-04-03,0.48957145811549113,0.9579324040964694,2.007861247745114,,,,,,,,,,,,
39103,0,USOhioMedina,Ohio,Medina,2022-04-28 09:13:11,2021-04-04,0.48957145811549113,0.9579324040964694,2.007861247745114,,,,,,,,,,,,
39103,0,USOhioMedina,Ohio,Medina,2022-04-28 09:13:11,2021-04-05,0.48957145811549113,0.9579324040964694,2.007861247745114,,,,,,,,,,,,
39103,0,USOhioMedina,Ohio,Medina,2022-04-28 09:13:11,2021-04-06,0.48957145811549113,0.9579324040964694,2.007861247745114,,,,,,,,,,,,
39103,0,USOhioMedina,Ohio,Medina,2022-04-28 09:13:11,2021-04-07,0.48957145811549113,0.9579324040964694,2.007861247745114,,,,,,,,,,,,
39103,0,USOhioMedina,Ohio,Medina,2022-04-28 09:13:11,2021-04-08,0.5596377186893488,1.073507295201149,2.2038523804563366,,,,,,,,,,,,
39103,0,USOhioMedina,Ohio,Medina,2022-04-28 09:13:11,2021-04-09,0.5596377186893488,1.073507295201149,2.2038523804563366,,,,,,,,,,,,
39103,0,USOhioMedina,Ohio,Medina,2022-04-28 09:13:11,2021-04-10,0.5596377186893488,1.073507295201149,2.2038523804563366,,,,,,,,,,,,
39103,0,USOhioMedina,Ohio,Medina,2022-04-28 09:13:11,2021-04-11,0.5596377186893488,1.073507295201149,2.2038523804563366,,,,,,,,,,,,
39103,0,USOhioMedina,Ohio,Medina,2022-04-28 09:13:11,2021-04-12,0.5596377186893488,1.073507295201149,2.2038523804563366,,,,,,,,,,,,
39103,0,USOhioMedina,Ohio,Medina,2022-04-28 09:13:11,2021-04-13,0.5596377186893488,1.073507295201149,2.2038523804563366,,,,,,,,,,,,
39103,0,USOhioMedina,Ohio,Medina,2022-04-28 09:13:11,2021-04-14,0.5596377186893488,1.073507295201149,2.2038523804563366,,,,,,,,,,,,
39103,0,USOhioMedina,Ohio,Medina,2022-04-28 09:13:11,2021-04-15,0.4366015675039468,0.8816327843921765,1.9095179579170978,,,,,,,,,,,,
39103,0,USOhioMedina,Ohio,Medina,2022-04-28 09:13:11,2021-04-16,0.4366015675039468,0.8816327843921765,1.9095179579170978,,,,,,,,,,,,
39103,0,USOhioMedina,Ohio,Medina,2022-04-28 09:13:11,2021-04-17,0.4366015675039468,0.8816327843921765,1.9095179579170978,,,,,,,,,,,,
39103,0,USOhioMedina,Ohio,Medina,2022-04-28 09:13:11,2021-04-18,0.4366015675039468,0.8816327843921765,1.9095179579170978,,,,,,,,,,,,
39103,0,USOhioMedina,Ohio,Medina,2022-04-28 09:13:11,2021-04-19,0.4366015675039468,0.8816327843921765,1.9095179579170978,,,,,,,,,,,,
39103,0,USOhioMedina,Ohio,Medina,2022-04-28 09:13:11,2021-04-20,0.4366015675039468,0.8816327843921765,1.9095179579170978,,,,,,,,,,,,
39103,0,USOhioMedina,Ohio,Medina,2022-04-28 09:13:11,2021-04-21,0.4366015675039468,0.8816327843921765,1.9095179579170978,,,,,,,,,,,,
39103,0,USOhioMedina,Ohio,Medina,2022-04-28 09:13:11,2021-04-22,0.2622877062495749,0.4135701661292935,0.6878520374355293,,,,,,,,,,,,
39103,0,USOhioMedina,Ohio,Medina,2022-04-28 09:13:11,2021-04-23,0.2622877062495749,0.4135701661292935,0.6878520374355293,,,,,,,,,,,,
39103,0,USOhioMedina,Ohio,Medina,2022-04-28 09:13:11,2021-04-24,0.2622877062495749,0.4135701661292935,0.6878520374355293,,,,,,,,,,,,
39103,0,USOhioMedina,Ohio,Medina,2022-04-28 09:13:11,2021-04-25,0.2622877062495749,0.4135701661292935,0.6878520374355293,,,,,,,,,,,,
39103,0,USOhioMedina,Ohio,Medina,2022-04-28 09:13:11,2021-04-26,0.2622877062495749,0.4135701661292935,0.6878520374355293,,,,,,,,,,,,
39103,0,USOhioMedina,Ohio,Medina,2022-04-28 09:13:11,2021-04-27,0.2622877062495749,0.4135701661292935,0.6878520374355293,,,,,,,,,,,,
39103,0,USOhioMedina,Ohio,Medina,2022-04-28 09:13:11,2021-04-28,0.2622877062495749,0.4135701661292935,0.6878520374355293,,,,,,,,,,,,
39103,0,USOhioMedina,Ohio,Medina,2022-04-28 09:13:11,2021-04-29,0.29283864069997817,0.5992691040060634,1.3159933987363108,,,,,,,,,,,,
39103,0,USOhioMedina,Ohio,Medina,2022-04-28 09:13:11,2021-04-30,0.29283864069997817,0.5992691040060634,1.3159933987363108,,,,,,,,,,,,
39103,0,USOhioMedina,Ohio,Medina,2022-04-28 09:13:11,2021-05-01,0.29283864069997817,0.5992691040060634,1.3159933987363108,,,,,,,,,,,,
39103,0,USOhioMedina,Ohio,Medina,2022-04-28 09:13:11,2021-05-02,0.29283864069997817,0.5992691040060634,1.3159933987363108,,,,,,,,,,,,
39103,0,USOhioMedina,Ohio,Medina,2022-04-28 09:13:11,2021-05-03,0.29283864069997817,0.5992691040060634,1.3159933987363108,,,,,,,,,,,,
39103,0,USOhioMedina,Ohio,Medina,2022-04-28 09:13:11,2021-05-04,0.29283864069997817,0.5992691040060634,1.3159933987363108,,,,,,,,,,,,
39103,0,USOhioMedina,Ohio,Medina,2022-04-28 09:13:11,2021-05-05,0.29283864069997817,0.5992691040060634,1.3159933987363108,,,,,,,,,,,,
39103,0,USOhioMedina,Ohio,Medina,2022-04-28 09:13:11,2021-05-06,0.2775294205177557,0.5632072165568296,1.2261376654076726,,,,,,,,,,,,
39103,0,USOhioMedina,Ohio,Medina,2022-04-28 09:13:11,2021-05-07,0.2775294205177557,0.5632072165568296,1.2261376654076726,,,,,,,,,,,,
39103,0,USOhioMedina,Ohio,Medina,2022-04-28 09:13:11,2021-05-08,0.2775294205177557,0.5632072165568296,1.2261376654076726,,,,,,,,,,,,
39103,0,USOhioMedina,Ohio,Medina,2022-04-28 09:13:11,2021-05-09,0.2775294205177557,0.5632072165568296,1.2261376654076726,,,,,,,,,,,,
39103,0,USOhioMedina,Ohio,Medina,2022-04-28 09:13:11,2021-05-10,0.2775294205177557,0.5632072165568296,1.2261376654076726,,,,,,,,,,,,
39103,0,USOhioMedina,Ohio,Medina,2022-04-28 09:13:11,2021-05-11,0.2775294205177557,0.5632072165568296,1.2261376654076726,,,,,,,,,,,,
39103,0,USOhioMedina,Ohio,Medina,2022-04-28 09:13:11,2021-05-12,0.2775294205177557,0.5632072165568296,1.2261376654076726,,,,,,,,,,,,
39103,0,USOhioMedina,Ohio,Medina,2022-04-28 09:13:11,2021-05-13,0.22215791117392827,0.470447453879704,1.0701555043929318,,,,,,,,,,,,
39103,0,USOhioMedina,Ohio,Medina,2022-04-28 09:13:11,2021-05-14,0.22215791117392827,0.470447453879704,1.0701555043929318,,,,,,,,,,,,
39103,0,USOhioMedina,Ohio,Medina,2022-04-28 09:13:11,2021-05-15,0.22215791117392827,0.470447453879704,1.0701555043929318,,,,,,,,,,,,
39103,0,USOhioMedina,Ohio,Medina,2022-04-28 09:13:11,2021-05-16,0.22215791117392827,0.470447453879704,1.0701555043929318,,,,,,,,,,,,
39103,0,USOhioMedina,Ohio,Medina,2022-04-28 09:13:11,2021-05-17,0.22215791117392827,0.470447453879704,1.0701555043929318,,,,,,,,,,,,
39103,0,USOhioMedina,Ohio,Medina,2022-04-28 09:13:11,2021-05-18,0.22215791117392827,0.470447453879704,1.0701555043929318,,,,,,,,,,,,
39103,0,USOhioMedina,Ohio,Medina,2022-04-28 09:13:11,2021-05-19,0.22215791117392827,0.470447453879704,1.0701555043929318,,,,,,,,,,,,
39103,0,USOhioMedina,Ohio,Medina,2022-04-28 09:13:11,2021-05-20,0.2271369127901796,0.48039946733199324,1.0914139432257215,,,,,,,,,,,,
39103,0,USOhioMedina,Ohio,Medina,2022-04-28 09:13:11,2021-05-21,0.2271369127901796,0.48039946733199324,1.0914139432257215,,,,,,,,,,,,
39103,0,USOhioMedina,Ohio,Medina,2022-04-28 09:13:11,2021-05-22,0.2271369127901796,0.48039946733199324,1.0914139432257215,,,,,,,,,,,,
39103,0,USOhioMedina,Ohio,Medina,2022-04-28 09:13:11,2021-05-23,0.2271369127901796,0.48039946733199324,1.0914139432257215,,,,,,,,,,,,
39103,0,USOhioMedina,Ohio,Medina,2022-04-28 09:13:11,2021-05-24,0.2271369127901796,0.48039946733199324,1.0914139432257215,,,,,,,,,,,,
39103,0,USOhioMedina,Ohio,Medina,2022-04-28 09:13:11,2021-05-25,0.2271369127901796,0.48039946733199324,1.0914139432257215,,,,,,,,,,,,
39103,0,USOhioMedina,Ohio,Medina,2022-04-28 09:13:11,2021-05-26,0.2271369127901796,0.48039946733199324,1.0914139432257215,,,,,,,,,,,,
39103,0,USOhioMedina,Ohio,Medina,2022-04-28 09:13:11,2021-05-27,0.11713975237456972,0.26584283191975533,0.6489639730576003,,,,,,,,,,,,
39103,0,USOhioMedina,Ohio,Medina,2022-04-28 09:13:11,2021-05-28,0.11713975237456972,0.26584283191975533,0.6489639730576003,,,,,,,,,,,,
39103,0,USOhioMedina,Ohio,Medina,2022-04-28 09:13:11,2021-05-29,0.11713975237456972,0.26584283191975533,0.6489639730576003,,,,,,,,,,,,
39103,0,USOhioMedina,Ohio,Medina,2022-04-28 09:13:11,2021-05-30,0.11713975237456972,0.26584283191975533,0.6489639730576003,,,,,,,,,,,,
39103,0,USOhioMedina,Ohio,Medina,2022-04-28 09:13:11,2021-05-31,0.11713975237456972,0.26584283191975533,0.6489639730576003,,,,,,,,,,,,
39103,0,USOhioMedina,Ohio,Medina,2022-04-28 09:13:11,2021-06-01,0.11713975237456972,0.26584283191975533,0.6489639730576003,,,,,,,,,,,,
39103,0,USOhioMedina,Ohio,Medina,2022-04-28 09:13:11,2021-06-02,0.11713975237456972,0.26584283191975533,0.6489639730576003,,,,,,,,,,,,
39103,0,USOhioMedina,Ohio,Medina,2022-04-28 09:13:11,2021-06-03,0.12158611395914826,0.26247730793413887,0.608963187299046,,,,,,,,,,,,
39103,0,USOhioMedina,Ohio,Medina,2022-04-28 09:13:11,2021-06-04,0.12158611395914826,0.26247730793413887,0.608963187299046,,,,,,,,,,,,
39103,0,USOhioMedina,Ohio,Medina,2022-04-28 09:13:11,2021-06-05,0.12158611395914826,0.26247730793413887,0.608963187299046,,,,,,,,,,,,
39103,0,USOhioMedina,Ohio,Medina,2022-04-28 09:13:11,2021-06-06,0.12158611395914826,0.26247730793413887,0.608963187299046,,,,,,,,,,,,
39103,0,USOhioMedina,Ohio,Medina,2022-04-28 09:13:11,2021-06-07,0.12158611395914826,0.26247730793413887,0.608963187299046,,,,,,,,,,,,
39103,0,USOhioMedina,Ohio,Medina,2022-04-28 09:13:11,2021-06-08,0.12158611395914826,0.26247730793413887,0.608963187299046,,,,,,,,,,,,
39103,0,USOhioMedina,Ohio,Medina,2022-04-28 09:13:11,2021-06-09,0.12158611395914826,0.26247730793413887,0.608963187299046,,,,,,,,,,,,
39103,0,USOhioMedina,Ohio,Medina,2022-04-28 09:13:11,2021-06-10,0.06492896710491573,0.1580476508141158,0.4140164924964748,,,,,,,,,,,,
39103,0,USOhioMedina,Ohio,Medina,2022-04-28 09:13:11,2021-06-11,0.06492896710491573,0.1580476508141158,0.4140164924964748,,,,,,,,,,,,
39103,0,USOhioMedina,Ohio,Medina,2022-04-28 09:13:11,2021-06-12,0.06492896710491573,0.1580476508141158,0.4140164924964748,,,,,,,,,,,,
39103,0,USOhioMedina,Ohio,Medina,2022-04-28 09:13:11,2021-06-13,0.06492896710491573,0.1580476508141158,0.4140164924964748,,,,,,,,,,,,
39103,0,USOhioMedina,Ohio,Medina,2022-04-28 09:13:11,2021-06-14,0.06492896710491573,0.1580476508141158,0.4140164924964748,,,,,,,,,,,,
39103,0,USOhioMedina,Ohio,Medina,2022-04-28 09:13:11,2021-06-15,0.06492896710491573,0.1580476508141158,0.4140164924964748,,,,,,,,,,,,
39103,0,USOhioMedina,Ohio,Medina,2022-04-28 09:13:11,2021-06-16,0.06492896710491573,0.1580476508141158,0.4140164924964748,,,,,,,,,,,,
39103,0,USOhioMedina,Ohio,Medina,2022-04-28 09:13:11,2021-06-17,0.05690690061421976,0.14126462877703622,0.3773776566836226,,,,,,,,,,,,
39103,0,USOhioMedina,Ohio,Medina,2022-04-28 09:13:11,2021-06-18,0.05690690061421976,0.14126462877703622,0.3773776566836226,,,,,,,,,,,,
39103,0,USOhioMedina,Ohio,Medina,2022-04-28 09:13:11,2021-06-19,0.05690690061421976,0.14126462877703622,0.3773776566836226,,,,,,,,,,,,
39103,0,USOhioMedina,Ohio,Medina,2022-04-28 09:13:11,2021-06-20,0.05690690061421976,0.14126462877703622,0.3773776566836226,,,,,,,,,,,,
39103,0,USOhioMedina,Ohio,Medina,2022-04-28 09:13:11,2021-06-21,0.05690690061421976,0.14126462877703622,0.3773776566836226,,,,,,,,,,,,
39103,0,USOhioMedina,Ohio,Medina,2022-04-28 09:13:11,2021-06-22,0.05690690061421976,0.14126462877703622,0.3773776566836226,,,,,,,,,,,,
39103,0,USOhioMedina,Ohio,Medina,2022-04-28 09:13:11,2021-06-23,0.05690690061421976,0.14126462877703622,0.3773776566836226,,,,,,,,,,,,
39103,0,USOhioMedina,Ohio,Medina,2022-04-28 09:13:11,2021-06-24,0.06579619056387069,0.15551787868351008,0.3955472176010629,,,,,,,,,,,,
39103,0,USOhioMedina,Ohio,Medina,2022-04-28 09:13:11,2021-06-25,0.06579619056387069,0.15551787868351008,0.3955472176010629,,,,,,,,,,,,
39103,0,USOhioMedina,Ohio,Medina,2022-04-28 09:13:11,2021-06-26,0.06579619056387069,0.15551787868351008,0.3955472176010629,,,,,,,,,,,,
39103,0,USOhioMedina,Ohio,Medina,2022-04-28 09:13:11,2021-06-27,0.06579619056387069,0.15551787868351008,0.3955472176010629,,,,,,,,,,,,
39103,0,USOhioMedina,Ohio,Medina,2022-04-28 09:13:11,2021-06-28,0.06579619056387069,0.15551787868351008,0.3955472176010629,,,,,,,,,,,,
39103,0,USOhioMedina,Ohio,Medina,2022-04-28 09:13:11,2021-06-29,0.06579619056387069,0.15551787868351008,0.3955472176010629,,,,,,,,,,,,
39103,0,USOhioMedina,Ohio,Medina,2022-04-28 09:13:11,2021-06-30,0.06579619056387069,0.15551787868351008,0.3955472176010629,,,,,,,,,,,,
39103,0,USOhioMedina,Ohio,Medina,2022-04-28 09:13:11,2021-07-01,0.08561955847091941,0.19412231622725756,0.47342097064992805,,,,,,,,,,,,
39103,0,USOhioMedina,Ohio,Medina,2022-04-28 09:13:11,2021-07-02,0.08561955847091941,0.19412231622725756,0.47342097064992805,,,,,,,,,,,,
39103,0,USOhioMedina,Ohio,Medina,2022-04-28 09:13:11,2021-07-03,0.08561955847091941,0.19412231622725756,0.47342097064992805,,,,,,,,,,,,
39103,0,USOhioMedina,Ohio,Medina,2022-04-28 09:13:11,2021-07-04,0.08561955847091941,0.19412231622725756,0.47342097064992805,,,,,,,,,,,,
39103,0,USOhioMedina,Ohio,Medina,2022-04-28 09:13:11,2021-07-05,0.08561955847091941,0.19412231622725756,0.47342097064992805,,,,,,,,,,,,
39103,0,USOhioMedina,Ohio,Medina,2022-04-28 09:13:11,2021-07-06,0.08561955847091941,0.19412231622725756,0.47342097064992805,,,,,,,,,,,,
39103,0,USOhioMedina,Ohio,Medina,2022-04-28 09:13:11,2021-07-07,0.08561955847091941,0.19412231622725756,0.47342097064992805,,,,,,,,,,,,
39103,0,USOhioMedina,Ohio,Medina,2022-04-28 09:13:11,2021-07-08,0.11669598431490623,0.25831493343090606,0.614827226926477,,,,,,,,,,,,
39103,0,USOhioMedina,Ohio,Medina,2022-04-28 09:13:11,2021-07-09,0.11669598431490623,0.25831493343090606,0.614827226926477,,,,,,,,,,,,
39103,0,USOhioMedina,Ohio,Medina,2022-04-28 09:13:11,2021-07-10,0.11669598431490623,0.25831493343090606,0.614827226926477,,,,,,,,,,,,
39103,0,USOhioMedina,Ohio,Medina,2022-04-28 09:13:11,2021-07-11,0.11669598431490623,0.25831493343090606,0.614827226926477,,,,,,,,,,,,
39103,0,USOhioMedina,Ohio,Medina,2022-04-28 09:13:11,2021-07-12,0.11669598431490623,0.25831493343090606,0.614827226926477,,,,,,,,,,,,
39103,0,USOhioMedina,Ohio,Medina,2022-04-28 09:13:11,2021-07-13,0.11669598431490623,0.25831493343090606,0.614827226926477,,,,,,,,,,,,
39103,0,USOhioMedina,Ohio,Medina,2022-04-28 09:13:11,2021-07-14,0.11669598431490623,0.25831493343090606,0.614827226926477,,,,,,,,,,,,
39103,0,USOhioMedina,Ohio,Medina,2022-04-28 09:13:11,2021-07-15,0.17116874700225626,0.39982901970031115,1.0049122378830124,,,,,,,,,,,,
39103,0,USOhioMedina,Ohio,Medina,2022-04-28 09:13:11,2021-07-16,0.17116874700225626,0.39982901970031115,1.0049122378830124,,,,,,,,,,,,
39103,0,USOhioMedina,Ohio,Medina,2022-04-28 09:13:11,2021-07-17,0.17116874700225626,0.39982901970031115,1.0049122378830124,,,,,,,,,,,,
39103,0,USOhioMedina,Ohio,Medina,2022-04-28 09:13:11,2021-07-18,0.17116874700225626,0.39982901970031115,1.0049122378830124,,,,,,,,,,,,
39103,0,USOhioMedina,Ohio,Medina,2022-04-28 09:13:11,2021-07-19,0.17116874700225626,0.39982901970031115,1.0049122378830124,,,,,,,,,,,,
39103,0,USOhioMedina,Ohio,Medina,2022-04-28 09:13:11,2021-07-20,0.17116874700225626,0.39982901970031115,1.0049122378830124,,,,,,,,,,,,
39103,0,USOhioMedina,Ohio,Medina,2022-04-28 09:13:11,2021-07-21,0.17116874700225626,0.39982901970031115,1.0049122378830124,,,,,,,,,,,,
39103,0,USOhioMedina,Ohio,Medina,2022-04-28 09:13:11,2021-07-22,0.300848133561367,0.6565973803933219,1.540438323031007,,,,,,,,,,,,
39103,0,USOhioMedina,Ohio,Medina,2022-04-28 09:13:11,2021-07-23,0.300848133561367,0.6565973803933219,1.540438323031007,,,,,,,,,,,,
39103,0,USOhioMedina,Ohio,Medina,2022-04-28 09:13:11,2021-07-24,0.300848133561367,0.6565973803933219,1.540438323031007,,,,,,,,,,,,
39103,0,USOhioMedina,Ohio,Medina,2022-04-28 09:13:11,2021-07-25,0.300848133561367,0.6565973803933219,1.540438323031007,,,,,,,,,,,,
39103,0,USOhioMedina,Ohio,Medina,2022-04-28 09:13:11,2021-07-26,0.300848133561367,0.6565973803933219,1.540438323031007,,,,,,,,,,,,
39103,0,USOhioMedina,Ohio,Medina,2022-04-28 09:13:11,2021-07-27,0.300848133561367,0.6565973803933219,1.540438323031007,,,,,,,,,,,,
39103,0,USOhioMedina,Ohio,Medina,2022-04-28 09:13:11,2021-07-28,0.300848133561367,0.6565973803933219,1.540438323031007,,,,,,,,,,,,
39103,0,USOhioMedina,Ohio,Medina,2022-04-28 09:13:11,2021-07-29,0.49477912605354724,0.9863510425017349,2.108003835346457,,,,,,,,,,,,
39103,0,USOhioMedina,Ohio,Medina,2022-04-28 09:13:11,2021-07-30,0.49477912605354724,0.9863510425017349,2.108003835346457,,,,,,,,,,,,
39103,0,USOhioMedina,Ohio,Medina,2022-04-28 09:13:11,2021-07-31,0.49477912605354724,0.9863510425017349,2.108003835346457,,,,,,,,,,,,
39103,0,USOhioMedina,Ohio,Medina,2022-04-28 09:13:11,2021-08-01,0.49477912605354724,0.9863510425017349,2.108003835346457,,,,,,,,,,,,
39103,0,USOhioMedina,Ohio,Medina,2022-04-28 09:13:11,2021-08-02,0.49477912605354724,0.9863510425017349,2.108003835346457,,,,,,,,,,,,
39103,0,USOhioMedina,Ohio,Medina,2022-04-28 09:13:11,2021-08-03,0.49477912605354724,0.9863510425017349,2.108003835346457,,,,,,,,,,,,
39103,0,USOhioMedina,Ohio,Medina,2022-04-28 09:13:11,2021-08-04,0.49477912605354724,0.9863510425017349,2.108003835346457,,,,,,,,,,,,
39103,0,USOhioMedina,Ohio,Medina,2022-04-28 09:13:11,2021-08-05,0.5801739876297698,1.1960104629546184,2.646398743546478,,,,,,,,,,,,
39103,0,USOhioMedina,Ohio,Medina,2022-04-28 09:13:11,2021-08-06,0.5801739876297698,1.1960104629546184,2.646398743546478,,,,,,,,,,,,
39103,0,USOhioMedina,Ohio,Medina,2022-04-28 09:13:11,2021-08-07,0.5801739876297698,1.1960104629546184,2.646398743546478,,,,,,,,,,,,
39103,0,USOhioMedina,Ohio,Medina,2022-04-28 09:13:11,2021-08-08,0.5801739876297698,1.1960104629546184,2.646398743546478,,,,,,,,,,,,
39103,0,USOhioMedina,Ohio,Medina,2022-04-28 09:13:11,2021-08-09,0.5801739876297698,1.1960104629546184,2.646398743546478,,,,,,,,,,,,
39103,0,USOhioMedina,Ohio,Medina,2022-04-28 09:13:11,2021-08-10,0.5801739876297698,1.1960104629546184,2.646398743546478,,,,,,,,,,,,
39103,0,USOhioMedina,Ohio,Medina,2022-04-28 09:13:11,2021-08-11,0.5801739876297698,1.1960104629546184,2.646398743546478,,,,,,,,,,,,
39103,0,USOhioMedina,Ohio,Medina,2022-04-28 09:13:11,2021-08-12,0.6631445539884736,1.3312617517531296,2.865871623013262,,,,,,,,,,,,
39103,0,USOhioMedina,Ohio,Medina,2022-04-28 09:13:11,2021-08-13,0.6631445539884736,1.3312617517531296,2.865871623013262,,,,,,,,,,,,
39103,0,USOhioMedina,Ohio,Medina,2022-04-28 09:13:11,2021-08-14,0.6631445539884736,1.3312617517531296,2.865871623013262,,,,,,,,,,,,
39103,0,USOhioMedina,Ohio,Medina,2022-04-28 09:13:11,2021-08-15,0.6631445539884736,1.3312617517531296,2.865871623013262,,,,,,,,,,,,
39103,0,USOhioMedina,Ohio,Medina,2022-04-28 09:13:11,2021-08-16,0.6631445539884736,1.3312617517531296,2.865871623013262,,,,,,,,,,,,
39103,0,USOhioMedina,Ohio,Medina,2022-04-28 09:13:11,2021-08-17,0.6631445539884736,1.3312617517531296,2.865871623013262,,,,,,,,,,,,
39103,0,USOhioMedina,Ohio,Medina,2022-04-28 09:13:11,2021-08-18,0.6631445539884736,1.3312617517531296,2.865871623013262,,,,,,,,,,,,
39103,0,USOhioMedina,Ohio,Medina,2022-04-28 09:13:11,2021-08-19,0.9420050701883025,1.8548149941921084,3.9133289509329474,,,,,,,,,,,,
39103,0,USOhioMedina,Ohio,Medina,2022-04-28 09:13:11,2021-08-20,0.9420050701883025,1.8548149941921084,3.9133289509329474,,,,,,,,,,,,
39103,0,USOhioMedina,Ohio,Medina,2022-04-28 09:13:11,2021-08-21,0.9420050701883025,1.8548149941921084,3.9133289509329474,,,,,,,,,,,,
39103,0,USOhioMedina,Ohio,Medina,2022-04-28 09:13:11,2021-08-22,0.9420050701883025,1.8548149941921084,3.9133289509329474,,,,,,,,,,,,
39103,0,USOhioMedina,Ohio,Medina,2022-04-28 09:13:11,2021-08-23,0.9420050701883025,1.8548149941921084,3.9133289509329474,,,,,,,,,,,,
39103,0,USOhioMedina,Ohio,Medina,2022-04-28 09:13:11,2021-08-24,0.9420050701883025,1.8548149941921084,3.9133289509329474,,,,,,,,,,,,
39103,0,USOhioMedina,Ohio,Medina,2022-04-28 09:13:11,2021-08-25,0.9420050701883025,1.8548149941921084,3.9133289509329474,,,,,,,,,,,,
39103,0,USOhioMedina,Ohio,Medina,2022-04-28 09:13:11,2021-08-26,1.4490193388086239,2.579814317935714,4.894406845604608,,,,,,,,,,,,
39103,0,USOhioMedina,Ohio,Medina,2022-04-28 09:13:11,2021-08-27,1.4490193388086239,2.579814317935714,4.894406845604608,,,,,,,,,,,,
39103,0,USOhioMedina,Ohio,Medina,2022-04-28 09:13:11,2021-08-28,1.4490193388086239,2.579814317935714,4.894406845604608,,,,,,,,,,,,
39103,0,USOhioMedina,Ohio,Medina,2022-04-28 09:13:11,2021-08-29,1.4490193388086239,2.579814317935714,4.894406845604608,,,,,,,,,,,,
39103,0,USOhioMedina,Ohio,Medina,2022-04-28 09:13:11,2021-08-30,1.4490193388086239,2.579814317935714,4.894406845604608,,,,,,,,,,,,
39103,0,USOhioMedina,Ohio,Medina,2022-04-28 09:13:11,2021-08-31,1.4490193388086239,2.579814317935714,4.894406845604608,,,,,,,,,,,,
39103,0,USOhioMedina,Ohio,Medina,2022-04-28 09:13:11,2021-09-01,1.4490193388086239,2.579814317935714,4.894406845604608,,,,,,,,,,,,
39103,0,USOhioMedina,Ohio,Medina,2022-04-28 09:13:11,2021-09-02,1.6890960204722967,2.978465141514098,5.592942408322166,,,,,,,,,,,,
39103,0,USOhioMedina,Ohio,Medina,2022-04-28 09:13:11,2021-09-03,1.6890960204722967,2.978465141514098,5.592942408322166,,,,,,,,,,,,
39103,0,USOhioMedina,Ohio,Medina,2022-04-28 09:13:11,2021-09-04,1.6890960204722967,2.978465141514098,5.592942408322166,,,,,,,,,,,,
39103,0,USOhioMedina,Ohio,Medina,2022-04-28 09:13:11,2021-09-05,1.6890960204722967,2.978465141514098,5.592942408322166,,,,,,,,,,,,
39103,0,USOhioMedina,Ohio,Medina,2022-04-28 09:13:11,2021-09-06,1.6890960204722967,2.978465141514098,5.592942408322166,,,,,,,,,,,,
39103,0,USOhioMedina,Ohio,Medina,2022-04-28 09:13:11,2021-09-07,1.6890960204722967,2.978465141514098,5.592942408322166,,,,,,,,,,,,
39103,0,USOhioMedina,Ohio,Medina,2022-04-28 09:13:11,2021-09-08,1.6890960204722967,2.978465141514098,5.592942408322166,,,,,,,,,,,,
39103,0,USOhioMedina,Ohio,Medina,2022-04-28 09:13:11,2021-09-09,1.769403265061774,3.1630792695096153,6.027113710438517,,,,,,,,,,,,
39103,0,USOhioMedina,Ohio,Medina,2022-04-28 09:13:11,2021-09-10,1.769403265061774,3.1630792695096153,6.027113710438517,,,,,,,,,,,,
39103,0,USOhioMedina,Ohio,Medina,2022-04-28 09:13:11,2021-09-11,1.769403265061774,3.1630792695096153,6.027113710438517,,,,,,,,,,,,
39103,0,USOhioMedina,Ohio,Medina,2022-04-28 09:13:11,2021-09-12,1.769403265061774,3.1630792695096153,6.027113710438517,,,,,,,,,,,,
39103,0,USOhioMedina,Ohio,Medina,2022-04-28 09:13:11,2021-09-13,1.769403265061774,3.1630792695096153,6.027113710438517,,,,,,,,,,,,
39103,0,USOhioMedina,Ohio,Medina,2022-04-28 09:13:11,2021-09-14,1.769403265061774,3.1630792695096153,6.027113710438517,,,,,,,,,,,,
39103,0,USOhioMedina,Ohio,Medina,2022-04-28 09:13:11,2021-09-15,1.769403265061774,3.1630792695096153,6.027113710438517,,,,,,,,,,,,
39103,0,USOhioMedina,Ohio,Medina,2022-04-28 09:13:11,2021-09-16,1.3679243454568624,2.578587100693751,5.197502977745703,,,,,,,,,,,,
39103,0,USOhioMedina,Ohio,Medina,2022-04-28 09:13:11,2021-09-17,1.3679243454568624,2.578587100693751,5.197502977745703,,,,,,,,,,,,
39103,0,USOhioMedina,Ohio,Medina,2022-04-28 09:13:11,2021-09-18,1.3679243454568624,2.578587100693751,5.197502977745703,,,,,,,,,,,,
39103,0,USOhioMedina,Ohio,Medina,2022-04-28 09:13:11,2021-09-19,1.3679243454568624,2.578587100693751,5.197502977745703,,,,,,,,,,,,
39103,0,USOhioMedina,Ohio,Medina,2022-04-28 09:13:11,2021-09-20,1.3679243454568624,2.578587100693751,5.197502977745703,,,,,,,,,,,,
39103,0,USOhioMedina,Ohio,Medina,2022-04-28 09:13:11,2021-09-21,1.3679243454568624,2.578587100693751,5.197502977745703,,,,,,,,,,,,
39103,0,USOhioMedina,Ohio,Medina,2022-04-28 09:13:11,2021-09-22,1.3679243454568624,2.578587100693751,5.197502977745703,,,,,,,,,,,,
39103,0,USOhioMedina,Ohio,Medina,2022-04-28 09:13:11,2021-09-23,1.424478964036242,2.604887118491737,5.084692324479929,,,,,,,,,,,,
39103,0,USOhioMedina,Ohio,Medina,2022-04-28 09:13:11,2021-09-24,1.424478964036242,2.604887118491737,5.084692324479929,,,,,,,,,,,,
39103,0,USOhioMedina,Ohio,Medina,2022-04-28 09:13:11,2021-09-25,1.424478964036242,2.604887118491737,5.084692324479929,,,,,,,,,,,,
39103,0,USOhioMedina,Ohio,Medina,2022-04-28 09:13:11,2021-09-26,1.424478964036242,2.604887118491737,5.084692324479929,,,,,,,,,,,,
39103,0,USOhioMedina,Ohio,Medina,2022-04-28 09:13:11,2021-09-27,1.424478964036242,2.604887118491737,5.084692324479929,,,,,,,,,,,,
39103,0,USOhioMedina,Ohio,Medina,2022-04-28 09:13:11,2021-09-28,1.424478964036242,2.604887118491737,5.084692324479929,,,,,,,,,,,,
39103,0,USOhioMedina,Ohio,Medina,2022-04-28 09:13:11,2021-09-29,1.424478964036242,2.604887118491737,5.084692324479929,,,,,,,,,,,,
39103,0,USOhioMedina,Ohio,Medina,2022-04-28 09:13:11,2021-09-30,1.2884750544446328,2.4162765525338625,4.84383779443413,,,,,,,,,,,,
39103,0,USOhioMedina,Ohio,Medina,2022-04-28 09:13:11,2021-10-01,1.2884750544446328,2.4162765525338625,4.84383779443413,,,,,,,,,,,,
39103,0,USOhioMedina,Ohio,Medina,2022-04-28 09:13:11,2021-10-02,1.2884750544446328,2.4162765525338625,4.84383779443413,,,,,,,,,,,,
39103,0,USOhioMedina,Ohio,Medina,2022-04-28 09:13:11,2021-10-03,1.2884750544446328,2.4162765525338625,4.84383779443413,,,,,,,,,,,,
39103,0,USOhioMedina,Ohio,Medina,2022-04-28 09:13:11,2021-10-04,1.2884750544446328,2.4162765525338625,4.84383779443413,,,,,,,,,,,,
39103,0,USOhioMedina,Ohio,Medina,2022-04-28 09:13:11,2021-10-05,1.2884750544446328,2.4162765525338625,4.84383779443413,,,,,,,,,,,,
39103,0,USOhioMedina,Ohio,Medina,2022-04-28 09:13:11,2021-10-06,1.2884750544446328,2.4162765525338625,4.84383779443413,,,,,,,,,,,,
39103,0,USOhioMedina,Ohio,Medina,2022-04-28 09:13:11,2021-10-07,1.1596817510956887,2.2041504733634114,4.481501088933972,,,,,,,,,,,,
39103,0,USOhioMedina,Ohio,Medina,2022-04-28 09:13:11,2021-10-08,1.1596817510956887,2.2041504733634114,4.481501088933972,,,,,,,,,,,,
39103,0,USOhioMedina,Ohio,Medina,2022-04-28 09:13:11,2021-10-09,1.1596817510956887,2.2041504733634114,4.481501088933972,,,,,,,,,,,,
39103,0,USOhioMedina,Ohio,Medina,2022-04-28 09:13:11,2021-10-10,1.1596817510956887,2.2041504733634114,4.481501088933972,,,,,,,,,,,,
39103,0,USOhioMedina,Ohio,Medina,2022-04-28 09:13:11,2021-10-11,1.1596817510956887,2.2041504733634114,4.481501088933972,,,,,,,,,,,,
39103,0,USOhioMedina,Ohio,Medina,2022-04-28 09:13:11,2021-10-12,1.1596817510956887,2.2041504733634114,4.481501088933972,,,,,,,,,,,,
39103,0,USOhioMedina,Ohio,Medina,2022-04-28 09:13:11,2021-10-13,1.1596817510956887,2.2041504733634114,4.481501088933972,,,,,,,,,,,,
39103,0,USOhioMedina,Ohio,Medina,2022-04-28 09:13:11,2021-10-14,0.9299067196217796,1.8138711741790012,3.789600535380907,,,,,,,,,,,,
39103,0,USOhioMedina,Ohio,Medina,2022-04-28 09:13:11,2021-10-15,0.9299067196217796,1.8138711741790012,3.789600535380907,,,,,,,,,,,,
39103,0,USOhioMedina,Ohio,Medina,2022-04-28 09:13:11,2021-10-16,0.9299067196217796,1.8138711741790012,3.789600535380907,,,,,,,,,,,,
39103,0,USOhioMedina,Ohio,Medina,2022-04-28 09:13:11,2021-10-17,0.9299067196217796,1.8138711741790012,3.789600535380907,,,,,,,,,,,,
39103,0,USOhioMedina,Ohio,Medina,2022-04-28 09:13:11,2021-10-18,0.9299067196217796,1.8138711741790012,3.789600535380907,,,,,,,,,,,,
39103,0,USOhioMedina,Ohio,Medina,2022-04-28 09:13:11,2021-10-19,0.9299067196217796,1.8138711741790012,3.789600535380907,,,,,,,,,,,,
39103,0,USOhioMedina,Ohio,Medina,2022-04-28 09:13:11,2021-10-20,0.9299067196217796,1.8138711741790012,3.789600535380907,,,,,,,,,,,,
39103,0,USOhioMedina,Ohio,Medina,2022-04-28 09:13:11,2021-10-21,0.9446885502950477,1.8178421965084846,3.744290712512402,,,,,,,,,,,,
39103,0,USOhioMedina,Ohio,Medina,2022-04-28 09:13:11,2021-10-22,0.9446885502950477,1.8178421965084846,3.744290712512402,,,,,,,,,,,,
39103,0,USOhioMedina,Ohio,Medina,2022-04-28 09:13:11,2021-10-23,0.9446885502950477,1.8178421965084846,3.744290712512402,,,,,,,,,,,,
39103,0,USOhioMedina,Ohio,Medina,2022-04-28 09:13:11,2021-10-24,0.9446885502950477,1.8178421965084846,3.744290712512402,,,,,,,,,,,,
39103,0,USOhioMedina,Ohio,Medina,2022-04-28 09:13:11,2021-10-25,0.9446885502950477,1.8178421965084846,3.744290712512402,,,,,,,,,,,,
39103,0,USOhioMedina,Ohio,Medina,2022-04-28 09:13:11,2021-10-26,0.9446885502950477,1.8178421965084846,3.744290712512402,,,,,,,,,,,,
39103,0,USOhioMedina,Ohio,Medina,2022-04-28 09:13:11,2021-10-27,0.9446885502950477,1.8178421965084846,3.744290712512402,,,,,,,,,,,,
39103,0,USOhioMedina,Ohio,Medina,2022-04-28 09:13:11,2021-10-28,1.0348476820088515,1.9908698542325736,4.099683198659198,,,,,,,,,,,,
39103,0,USOhioMedina,Ohio,Medina,2022-04-28 09:13:11,2021-10-29,1.0348476820088515,1.9908698542325736,4.099683198659198,,,,,,,,,,,,
39103,0,USOhioMedina,Ohio,Medina,2022-04-28 09:13:11,2021-10-30,1.0348476820088515,1.9908698542325736,4.099683198659198,,,,,,,,,,,,
39103,0,USOhioMedina,Ohio,Medina,2022-04-28 09:13:11,2021-10-31,1.0348476820088515,1.9908698542325736,4.099683198659198,,,,,,,,,,,,
39103,0,USOhioMedina,Ohio,Medina,2022-04-28 09:13:11,2021-11-01,1.0348476820088515,1.9908698542325736,4.099683198659198,,,,,,,,,,,,
39103,0,USOhioMedina,Ohio,Medina,2022-04-28 09:13:11,2021-11-02,1.0348476820088515,1.9908698542325736,4.099683198659198,,,,,,,,,,,,
39103,0,USOhioMedina,Ohio,Medina,2022-04-28 09:13:11,2021-11-03,1.0348476820088515,1.9908698542325736,4.099683198659198,,,,,,,,,,,,
39103,0,USOhioMedina,Ohio,Medina,2022-04-28 09:13:11,2021-11-04,1.4011574661056658,2.5798138831780704,5.072363945809021,,,,,,,,,,,,
39103,0,USOhioMedina,Ohio,Medina,2022-04-28 09:13:11,2021-11-05,1.4011574661056658,2.5798138831780704,5.072363945809021,,,,,,,,,,,,
39103,0,USOhioMedina,Ohio,Medina,2022-04-28 09:13:11,2021-11-06,1.4011574661056658,2.5798138831780704,5.072363945809021,,,,,,,,,,,,
39103,0,USOhioMedina,Ohio,Medina,2022-04-28 09:13:11,2021-11-07,1.4011574661056658,2.5798138831780704,5.072363945809021,,,,,,,,,,,,
39103,0,USOhioMedina,Ohio,Medina,2022-04-28 09:13:11,2021-11-08,1.4011574661056658,2.5798138831780704,5.072363945809021,,,,,,,,,,,,
39103,0,USOhioMedina,Ohio,Medina,2022-04-28 09:13:11,2021-11-09,1.4011574661056658,2.5798138831780704,5.072363945809021,,,,,,,,,,,,
39103,0,USOhioMedina,Ohio,Medina,2022-04-28 09:13:11,2021-11-10,1.4011574661056658,2.5798138831780704,5.072363945809021,,,,,,,,,,,,
39103,0,USOhioMedina,Ohio,Medina,2022-04-28 09:13:11,2021-11-11,1.590483928865548,2.9418416576295705,5.812273781928199,,,,,,,,,,,,
39103,0,USOhioMedina,Ohio,Medina,2022-04-28 09:13:11,2021-11-12,1.590483928865548,2.9418416576295705,5.812273781928199,,,,,,,,,,,,
39103,0,USOhioMedina,Ohio,Medina,2022-04-28 09:13:11,2021-11-13,1.590483928865548,2.9418416576295705,5.812273781928199,,,,,,,,,,,,
39103,0,USOhioMedina,Ohio,Medina,2022-04-28 09:13:11,2021-11-14,1.590483928865548,2.9418416576295705,5.812273781928199,,,,,,,,,,,,
39103,0,USOhioMedina,Ohio,Medina,2022-04-28 09:13:11,2021-11-15,1.590483928865548,2.9418416576295705,5.812273781928199,,,,,,,,,,,,
39103,0,USOhioMedina,Ohio,Medina,2022-04-28 09:13:11,2021-11-16,1.590483928865548,2.9418416576295705,5.812273781928199,,,,,,,,,,,,
39103,0,USOhioMedina,Ohio,Medina,2022-04-28 09:13:11,2021-11-17,1.590483928865548,2.9418416576295705,5.812273781928199,,,,,,,,,,,,
39103,0,USOhioMedina,Ohio,Medina,2022-04-28 09:13:11,2021-11-18,1.821539026977213,3.280724703505311,6.3013011439263495,,,,,,,,,,,,
39103,0,USOhioMedina,Ohio,Medina,2022-04-28 09:13:11,2021-11-19,1.821539026977213,3.280724703505311,6.3013011439263495,,,,,,,,,,,,
39103,0,USOhioMedina,Ohio,Medina,2022-04-28 09:13:11,2021-11-20,1.821539026977213,3.280724703505311,6.3013011439263495,,,,,,,,,,,,
39103,0,USOhioMedina,Ohio,Medina,2022-04-28 09:13:11,2021-11-21,1.821539026977213,3.280724703505311,6.3013011439263495,,,,,,,,,,,,
39103,0,USOhioMedina,Ohio,Medina,2022-04-28 09:13:11,2021-11-22,1.821539026977213,3.280724703505311,6.3013011439263495,,,,,,,,,,,,
39103,0,USOhioMedina,Ohio,Medina,2022-04-28 09:13:11,2021-11-23,1.821539026977213,3.280724703505311,6.3013011439263495,,,,,,,,,,,,
39103,0,USOhioMedina,Ohio,Medina,2022-04-28 09:13:11,2021-11-24,1.821539026977213,3.280724703505311,6.3013011439263495,,,,,,,,,,,,
39103,0,USOhioMedina,Ohio,Medina,2022-04-28 09:13:11,2021-11-25,1.8357638900689195,3.485069289886728,7.077173587570898,,,,,,,,,,,,
39103,0,USOhioMedina,Ohio,Medina,2022-04-28 09:13:11,2021-11-26,1.8357638900689195,3.485069289886728,7.077173587570898,,,,,,,,,,,,
39103,0,USOhioMedina,Ohio,Medina,2022-04-28 09:13:11,2021-11-27,1.8357638900689195,3.485069289886728,7.077173587570898,,,,,,,,,,,,
39103,0,USOhioMedina,Ohio,Medina,2022-04-28 09:13:11,2021-11-28,1.8357638900689195,3.485069289886728,7.077173587570898,,,,,,,,,,,,
39103,0,USOhioMedina,Ohio,Medina,2022-04-28 09:13:11,2021-11-29,1.8357638900689195,3.485069289886728,7.077173587570898,,,,,,,,,,,,
39103,0,USOhioMedina,Ohio,Medina,2022-04-28 09:13:11,2021-11-30,1.8357638900689195,3.485069289886728,7.077173587570898,,,,,,,,,,,,
39103,0,USOhioMedina,Ohio,Medina,2022-04-28 09:13:11,2021-12-01,1.8357638900689195,3.485069289886728,7.077173587570898,,,,,,,,,,,,
39103,0,USOhioMedina,Ohio,Medina,2022-04-28 09:13:11,2021-12-02,2.433969772994138,4.438105626879528,8.636675338385553,,,,,,,,,,,,
39103,0,USOhioMedina,Ohio,Medina,2022-04-28 09:13:11,2021-12-03,2.433969772994138,4.438105626879528,8.636675338385553,,,,,,,,,,,,
39103,0,USOhioMedina,Ohio,Medina,2022-04-28 09:13:11,2021-12-04,2.433969772994138,4.438105626879528,8.636675338385553,,,,,,,,,,,,
39103,0,USOhioMedina,Ohio,Medina,2022-04-28 09:13:11,2021-12-05,2.433969772994138,4.438105626879528,8.636675338385553,,,,,,,,,,,,
39103,0,USOhioMedina,Ohio,Medina,2022-04-28 09:13:11,2021-12-06,2.433969772994138,4.438105626879528,8.636675338385553,,,,,,,,,,,,
39103,0,USOhioMedina,Ohio,Medina,2022-04-28 09:13:11,2021-12-07,2.433969772994138,4.438105626879528,8.636675338385553,,,,,,,,,,,,
39103,0,USOhioMedina,Ohio,Medina,2022-04-28 09:13:11,2021-12-08,2.433969772994138,4.438105626879528,8.636675338385553,,,,,,,,,,,,
39103,0,USOhioMedina,Ohio,Medina,2022-04-28 09:13:11,2021-12-09,2.140797909385281,3.774472545839562,7.086674270146485,,,,,,,,,,,,
39103,0,USOhioMedina,Ohio,Medina,2022-04-28 09:13:11,2021-12-10,2.140797909385281,3.774472545839562,7.086674270146485,,,,,,,,,,,,
39103,0,USOhioMedina,Ohio,Medina,2022-04-28 09:13:11,2021-12-11,2.140797909385281,3.774472545839562,7.086674270146485,,,,,,,,,,,,
39103,0,USOhioMedina,Ohio,Medina,2022-04-28 09:13:11,2021-12-12,2.140797909385281,3.774472545839562,7.086674270146485,,,,,,,,,,,,
39103,0,USOhioMedina,Ohio,Medina,2022-04-28 09:13:11,2021-12-13,2.140797909385281,3.774472545839562,7.086674270146485,,,,,,,,,,,,
39103,0,USOhioMedina,Ohio,Medina,2022-04-28 09:13:11,2021-12-14,2.140797909385281,3.774472545839562,7.086674270146485,,,,,,,,,,,,
39103,0,USOhioMedina,Ohio,Medina,2022-04-28 09:13:11,2021-12-15,2.140797909385281,3.774472545839562,7.086674270146485,,,,,,,,,,,,
39103,0,USOhioMedina,Ohio,Medina,2022-04-28 09:13:11,2021-12-16,2.9788740325895096,5.151259747378524,9.472570238390427,,,,,,,,,,,,
39103,0,USOhioMedina,Ohio,Medina,2022-04-28 09:13:11,2021-12-17,2.9788740325895096,5.151259747378524,9.472570238390427,,,,,,,,,,,,
39103,0,USOhioMedina,Ohio,Medina,2022-04-28 09:13:11,2021-12-18,2.9788740325895096,5.151259747378524,9.472570238390427,,,,,,,,,,,,
39103,0,USOhioMedina,Ohio,Medina,2022-04-28 09:13:11,2021-12-19,2.9788740325895096,5.151259747378524,9.472570238390427,,,,,,,,,,,,
39103,0,USOhioMedina,Ohio,Medina,2022-04-28 09:13:11,2021-12-20,2.9788740325895096,5.151259747378524,9.472570238390427,,,,,,,,,,,,
39103,0,USOhioMedina,Ohio,Medina,2022-04-28 09:13:11,2021-12-21,2.9788740325895096,5.151259747378524,9.472570238390427,,,,,,,,,,,,
39103,0,USOhioMedina,Ohio,Medina,2022-04-28 09:13:11,2021-12-22,2.9788740325895096,5.151259747378524,9.472570238390427,,,,,,,,,,,,
39103,0,USOhioMedina,Ohio,Medina,2022-04-28 09:13:11,2021-12-23,4.335379231385568,7.377173755897899,13.332260079205557,,,,,,,,,,,,
39103,0,USOhioMedina,Ohio,Medina,2022-04-28 09:13:11,2021-12-24,4.335379231385568,7.377173755897899,13.332260079205557,,,,,,,,,,,,
39103,0,USOhioMedina,Ohio,Medina,2022-04-28 09:13:11,2021-12-25,4.335379231385568,7.377173755897899,13.332260079205557,,,,,,,,,,,,
39103,0,USOhioMedina,Ohio,Medina,2022-04-28 09:13:11,2021-12-26,4.335379231385568,7.377173755897899,13.332260079205557,,,,,,,,,,,,
39103,0,USOhioMedina,Ohio,Medina,2022-04-28 09:13:11,2021-12-27,4.335379231385568,7.377173755897899,13.332260079205557,,,,,,,,,,,,
39103,0,USOhioMedina,Ohio,Medina,2022-04-28 09:13:11,2021-12-28,4.335379231385568,7.377173755897899,13.332260079205557,,,,,,,,,,,,
39103,0,USOhioMedina,Ohio,Medina,2022-04-28 09:13:11,2021-12-29,4.335379231385568,7.377173755897899,13.332260079205557,,,,,,,,,,,,
39103,0,USOhioMedina,Ohio,Medina,2022-04-28 09:13:11,2021-12-30,5.092883920186354,8.414572394850643,14.729275778825498,,,,,,,,,,,,
39103,0,USOhioMedina,Ohio,Medina,2022-04-28 09:13:11,2021-12-31,5.092883920186354,8.414572394850643,14.729275778825498,,,,,,,,,,,,
39103,0,USOhioMedina,Ohio,Medina,2022-04-28 09:13:11,2022-01-01,5.092883920186354,8.414572394850643,14.729275778825498,,,,,,,,,,,,
39103,0,USOhioMedina,Ohio,Medina,2022-04-28 09:13:11,2022-01-02,5.092883920186354,8.414572394850643,14.729275778825498,,,,,,,,,,,,
39103,0,USOhioMedina,Ohio,Medina,2022-04-28 09:13:11,2022-01-03,5.092883920186354,8.414572394850643,14.729275778825498,,,,,,,,,,,,
39103,0,USOhioMedina,Ohio,Medina,2022-04-28 09:13:11,2022-01-04,5.092883920186354,8.414572394850643,14.729275778825498,,,,,,,,,,,,
39103,0,USOhioMedina,Ohio,Medina,2022-04-28 09:13:11,2022-01-05,5.092883920186354,8.414572394850643,14.729275778825498,,,,,,,,,,,,
39103,0,USOhioMedina,Ohio,Medina,2022-04-28 09:13:11,2022-01-06,4.663385699112731,7.649790301009979,13.286250875469213,,,,,,,,,,,,
39103,0,USOhioMedina,Ohio,Medina,2022-04-28 09:13:11,2022-01-07,4.663385699112731,7.649790301009979,13.286250875469213,,,,,,,,,,,,
39103,0,USOhioMedina,Ohio,Medina,2022-04-28 09:13:11,2022-01-08,4.663385699112731,7.649790301009979,13.286250875469213,,,,,,,,,,,,
39103,0,USOhioMedina,Ohio,Medina,2022-04-28 09:13:11,2022-01-09,4.663385699112731,7.649790301009979,13.286250875469213,,,,,,,,,,,,
39103,0,USOhioMedina,Ohio,Medina,2022-04-28 09:13:11,2022-01-10,4.663385699112731,7.649790301009979,13.286250875469213,,,,,,,,,,,,
39103,0,USOhioMedina,Ohio,Medina,2022-04-28 09:13:11,2022-01-11,4.663385699112731,7.649790301009979,13.286250875469213,,,,,,,,,,,,
39103,0,USOhioMedina,Ohio,Medina,2022-04-28 09:13:11,2022-01-12,4.663385699112731,7.649790301009979,13.286250875469213,,,,,,,,,,,,
39103,0,USOhioMedina,Ohio,Medina,2022-04-28 09:13:11,2022-01-13,4.12950363301168,7.670153592729073,15.221277924797578,,,,,,,,,,,,
39103,0,USOhioMedina,Ohio,Medina,2022-04-28 09:13:11,2022-01-14,4.12950363301168,7.670153592729073,15.221277924797578,,,,,,,,,,,,
39103,0,USOhioMedina,Ohio,Medina,2022-04-28 09:13:11,2022-01-15,4.12950363301168,7.670153592729073,15.221277924797578,,,,,,,,,,,,
39103,0,USOhioMedina,Ohio,Medina,2022-04-28 09:13:11,2022-01-16,4.12950363301168,7.670153592729073,15.221277924797578,,,,,,,,,,,,
39103,0,USOhioMedina,Ohio,Medina,2022-04-28 09:13:11,2022-01-17,4.12950363301168,7.670153592729073,15.221277924797578,,,,,,,,,,,,
39103,0,USOhioMedina,Ohio,Medina,2022-04-28 09:13:11,2022-01-18,4.12950363301168,7.670153592729073,15.221277924797578,,,,,,,,,,,,
39103,0,USOhioMedina,Ohio,Medina,2022-04-28 09:13:11,2022-01-19,4.12950363301168,7.670153592729073,15.221277924797578,,,,,,,,,,,,
39103,0,USOhioMedina,Ohio,Medina,2022-04-28 09:13:11,2022-01-20,2.428146522054858,4.767831868150261,10.030296426322357,,,,,,,,,,,,
39103,0,USOhioMedina,Ohio,Medina,2022-04-28 09:13:11,2022-01-21,2.428146522054858,4.767831868150261,10.030296426322357,,,,,,,,,,,,
39103,0,USOhioMedina,Ohio,Medina,2022-04-28 09:13:11,2022-01-22,2.428146522054858,4.767831868150261,10.030296426322357,,,,,,,,,,,,
39103,0,USOhioMedina,Ohio,Medina,2022-04-28 09:13:11,2022-01-23,2.428146522054858,4.767831868150261,10.030296426322357,,,,,,,,,,,,
39103,0,USOhioMedina,Ohio,Medina,2022-04-28 09:13:11,2022-01-24,2.428146522054858,4.767831868150261,10.030296426322357,,,,,,,,,,,,
39103,0,USOhioMedina,Ohio,Medina,2022-04-28 09:13:11,2022-01-25,2.428146522054858,4.767831868150261,10.030296426322357,,,,,,,,,,,,
39103,0,USOhioMedina,Ohio,Medina,2022-04-28 09:13:11,2022-01-26,2.428146522054858,4.767831868150261,10.030296426322357,,,,,,,,,,,,
39103,0,USOhioMedina,Ohio,Medina,2022-04-28 09:13:11,2022-01-27,1.1532498288226223,2.53131352310642,5.973251327441404,,,,,,,,,,,,
39103,0,USOhioMedina,Ohio,Medina,2022-04-28 09:13:11,2022-01-28,1.1532498288226223,2.53131352310642,5.973251327441404,,,,,,,,,,,,
39103,0,USOhioMedina,Ohio,Medina,2022-04-28 09:13:11,2022-01-29,1.1532498288226223,2.53131352310642,5.973251327441404,,,,,,,,,,,,
39103,0,USOhioMedina,Ohio,Medina,2022-04-28 09:13:11,2022-01-30,1.1532498288226223,2.53131352310642,5.973251327441404,,,,,,,,,,,,
39103,0,USOhioMedina,Ohio,Medina,2022-04-28 09:13:11,2022-01-31,1.1532498288226223,2.53131352310642,5.973251327441404,,,,,,,,,,,,
39103,0,USOhioMedina,Ohio,Medina,2022-04-28 09:13:11,2022-02-01,1.1532498288226223,2.53131352310642,5.973251327441404,,,,,,,,,,,,
39103,0,USOhioMedina,Ohio,Medina,2022-04-28 09:13:11,2022-02-02,1.1532498288226223,2.53131352310642,5.973251327441404,,,,,,,,,,,,
39103,0,USOhioMedina,Ohio,Medina,2022-04-28 09:13:11,2022-02-03,0.6647531389282562,1.5482000167487733,3.879604584473918,,,,,,,,,,,,
39103,0,USOhioMedina,Ohio,Medina,2022-04-28 09:13:11,2022-02-04,0.6647531389282562,1.5482000167487733,3.879604584473918,,,,,,,,,,,,
39103,0,USOhioMedina,Ohio,Medina,2022-04-28 09:13:11,2022-02-05,0.6647531389282562,1.5482000167487733,3.879604584473918,,,,,,,,,,,,
39103,0,USOhioMedina,Ohio,Medina,2022-04-28 09:13:11,2022-02-06,0.6647531389282562,1.5482000167487733,3.879604584473918,,,,,,,,,,,,
39103,0,USOhioMedina,Ohio,Medina,2022-04-28 09:13:11,2022-02-07,0.6647531389282562,1.5482000167487733,3.879604584473918,,,,,,,,,,,,
39103,0,USOhioMedina,Ohio,Medina,2022-04-28 09:13:11,2022-02-08,0.6647531389282562,1.5482000167487733,3.879604584473918,,,,,,,,,,,,
39103,0,USOhioMedina,Ohio,Medina,2022-04-28 09:13:11,2022-02-09,0.6647531389282562,1.5482000167487733,3.879604584473918,,,,,,,,,,,,
39103,0,USOhioMedina,Ohio,Medina,2022-04-28 09:13:11,2022-02-10,0.38123464333258644,0.9104142003786971,2.339622202313968,,,,,,,,,,,,
39103,0,USOhioMedina,Ohio,Medina,2022-04-28 09:13:11,2022-02-11,0.38123464333258644,0.9104142003786971,2.339622202313968,,,,,,,,,,,,
39103,0,USOhioMedina,Ohio,Medina,2022-04-28 09:13:11,2022-02-12,0.38123464333258644,0.9104142003786971,2.339622202313968,,,,,,,,,,,,
39103,0,USOhioMedina,Ohio,Medina,2022-04-28 09:13:11,2022-02-13,0.38123464333258644,0.9104142003786971,2.339622202313968,,,,,,,,,,,,
39103,0,USOhioMedina,Ohio,Medina,2022-04-28 09:13:11,2022-02-14,0.38123464333258644,0.9104142003786971,2.339622202313968,,,,,,,,,,,,
39103,0,USOhioMedina,Ohio,Medina,2022-04-28 09:13:11,2022-02-15,0.38123464333258644,0.9104142003786971,2.339622202313968,,,,,,,,,,,,
39103,0,USOhioMedina,Ohio,Medina,2022-04-28 09:13:11,2022-02-16,0.38123464333258644,0.9104142003786971,2.339622202313968,,,,,,,,,,,,
39103,0,USOhioMedina,Ohio,Medina,2022-04-28 09:13:11,2022-02-17,0.2453323487795929,0.5928803587382172,1.5418951147851592,,,,,,,,,,,,
39103,0,USOhioMedina,Ohio,Medina,2022-04-28 09:13:11,2022-02-18,0.2453323487795929,0.5928803587382172,1.5418951147851592,,,,,,,,,,,,
39103,0,USOhioMedina,Ohio,Medina,2022-04-28 09:13:11,2022-02-19,0.2453323487795929,0.5928803587382172,1.5418951147851592,,,,,,,,,,,,
39103,0,USOhioMedina,Ohio,Medina,2022-04-28 09:13:11,2022-02-20,0.2453323487795929,0.5928803587382172,1.5418951147851592,,,,,,,,,,,,
39103,0,USOhioMedina,Ohio,Medina,2022-04-28 09:13:11,2022-02-21,0.2453323487795929,0.5928803587382172,1.5418951147851592,,,,,,,,,,,,
39103,0,USOhioMedina,Ohio,Medina,2022-04-28 09:13:11,2022-02-22,0.2453323487795929,0.5928803587382172,1.5418951147851592,,,,,,,,,,,,
39103,0,USOhioMedina,Ohio,Medina,2022-04-28 09:13:11,2022-02-23,0.2453323487795929,0.5928803587382172,1.5418951147851592,,,,,,,,,,,,
39103,0,USOhioMedina,Ohio,Medina,2022-04-28 09:13:11,2022-02-24,0.2641186745304731,0.5905347400411607,1.4199538809770347,,,,,,,,,,,,
39103,0,USOhioMedina,Ohio,Medina,2022-04-28 09:13:11,2022-02-25,0.2641186745304731,0.5905347400411607,1.4199538809770347,,,,,,,,,,,,
39103,0,USOhioMedina,Ohio,Medina,2022-04-28 09:13:11,2022-02-26,0.2641186745304731,0.5905347400411607,1.4199538809770347,,,,,,,,,,,,
39103,0,USOhioMedina,Ohio,Medina,2022-04-28 09:13:11,2022-02-27,0.2641186745304731,0.5905347400411607,1.4199538809770347,,,,,,,,,,,,
39103,0,USOhioMedina,Ohio,Medina,2022-04-28 09:13:11,2022-02-28,0.2641186745304731,0.5905347400411607,1.4199538809770347,,,,,,,,,,,,
39103,0,USOhioMedina,Ohio,Medina,2022-04-28 09:13:11,2022-03-01,0.2641186745304731,0.5905347400411607,1.4199538809770347,,,,,,,,,,,,
39103,0,USOhioMedina,Ohio,Medina,2022-04-28 09:13:11,2022-03-02,0.2641186745304731,0.5905347400411607,1.4199538809770347,,,,,,,,,,,,
39103,0,USOhioMedina,Ohio,Medina,2022-04-28 09:13:11,2022-03-03,0.1867058951050568,0.4316655774736309,1.0737477478475659,,,,,,,,,,,,
39103,0,USOhioMedina,Ohio,Medina,2022-04-28 09:13:11,2022-03-04,0.1867058951050568,0.4316655774736309,1.0737477478475659,,,,,,,,,,,,
39103,0,USOhioMedina,Ohio,Medina,2022-04-28 09:13:11,2022-03-05,0.1867058951050568,0.4316655774736309,1.0737477478475659,,,,,,,,,,,,
39103,0,USOhioMedina,Ohio,Medina,2022-04-28 09:13:11,2022-03-06,0.1867058951050568,0.4316655774736309,1.0737477478475659,,,,,,,,,,,,
39103,0,USOhioMedina,Ohio,Medina,2022-04-28 09:13:11,2022-03-07,0.1867058951050568,0.4316655774736309,1.0737477478475659,,,,,,,,,,,,
39103,0,USOhioMedina,Ohio,Medina,2022-04-28 09:13:11,2022-03-08,0.1867058951050568,0.4316655774736309,1.0737477478475659,,,,,,,,,,,,
39103,0,USOhioMedina,Ohio,Medina,2022-04-28 09:13:11,2022-03-09,0.1867058951050568,0.4316655774736309,1.0737477478475659,,,,,,,,,,,,
39103,0,USOhioMedina,Ohio,Medina,2022-04-28 09:13:11,2022-03-10,0.08954773071440335,0.2318158271007894,0.6456678832644556,,,,,,,,,,,,
39103,0,USOhioMedina,Ohio,Medina,2022-04-28 09:13:11,2022-03-11,0.08954773071440335,0.2318158271007894,0.6456678832644556,,,,,,,,,,,,
39103,0,USOhioMedina,Ohio,Medina,2022-04-28 09:13:11,2022-03-12,0.08954773071440335,0.2318158271007894,0.6456678832644556,,,,,,,,,,,,
39103,0,USOhioMedina,Ohio,Medina,2022-04-28 09:13:11,2022-03-13,0.08954773071440335,0.2318158271007894,0.6456678832644556,,,,,,,,,,,,
39103,0,USOhioMedina,Ohio,Medina,2022-04-28 09:13:11,2022-03-14,0.08954773071440335,0.2318158271007894,0.6456678832644556,,,,,,,,,,,,
39103,0,USOhioMedina,Ohio,Medina,2022-04-28 09:13:11,2022-03-15,0.08954773071440335,0.2318158271007894,0.6456678832644556,,,,,,,,,,,,
39103,0,USOhioMedina,Ohio,Medina,2022-04-28 09:13:11,2022-03-16,0.08954773071440335,0.2318158271007894,0.6456678832644556,,,,,,,,,,,,
39103,0,USOhioMedina,Ohio,Medina,2022-04-28 09:13:11,2022-03-17,0.08311931486444435,0.24081449238568406,0.749353796449304,,,,,,,,,,,,
39103,0,USOhioMedina,Ohio,Medina,2022-04-28 09:13:11,2022-03-18,0.08311931486444435,0.24081449238568406,0.749353796449304,,,,,,,,,,,,
39103,0,USOhioMedina,Ohio,Medina,2022-04-28 09:13:11,2022-03-19,0.08311931486444435,0.24081449238568406,0.749353796449304,,,,,,,,,,,,
39103,0,USOhioMedina,Ohio,Medina,2022-04-28 09:13:11,2022-03-20,0.08311931486444435,0.24081449238568406,0.749353796449304,,,,,,,,,,,,
39103,0,USOhioMedina,Ohio,Medina,2022-04-28 09:13:11,2022-03-21,0.08311931486444435,0.24081449238568406,0.749353796449304,,,,,,,,,,,,
39103,0,USOhioMedina,Ohio,Medina,2022-04-28 09:13:11,2022-03-22,0.08311931486444435,0.24081449238568406,0.749353796449304,,,,,,,,,,,,
39103,0,USOhioMedina,Ohio,Medina,2022-04-28 09:13:11,2022-03-23,0.08311931486444435,0.24081449238568406,0.749353796449304,,,,,,,,,,,,
39103,0,USOhioMedina,Ohio,Medina,2022-04-28 09:13:11,2022-03-24,0.1450520214723187,0.33974699408867903,0.8562494538571317,,,,,,,,,,,,
39103,0,USOhioMedina,Ohio,Medina,2022-04-28 09:13:11,2022-03-25,0.1450520214723187,0.33974699408867903,0.8562494538571317,,,,,,,,,,,,
39103,0,USOhioMedina,Ohio,Medina,2022-04-28 09:13:11,2022-03-26,0.1450520214723187,0.33974699408867903,0.8562494538571317,,,,,,,,,,,,
39103,0,USOhioMedina,Ohio,Medina,2022-04-28 09:13:11,2022-03-27,0.1450520214723187,0.33974699408867903,0.8562494538571317,,,,,,,,,,,,
39103,0,USOhioMedina,Ohio,Medina,2022-04-28 09:13:11,2022-03-28,0.1450520214723187,0.33974699408867903,0.8562494538571317,,,,,,,,,,,,
39103,0,USOhioMedina,Ohio,Medina,2022-04-28 09:13:11,2022-03-29,0.1450520214723187,0.33974699408867903,0.8562494538571317,,,,,,,,,,,,
39103,0,USOhioMedina,Ohio,Medina,2022-04-28 09:13:11,2022-03-30,0.1450520214723187,0.33974699408867903,0.8562494538571317,,,,,,,,,,,,
39103,0,USOhioMedina,Ohio,Medina,2022-04-28 09:13:11,2022-03-31,0.09479511709037042,0.24230759282991257,0.66644843975445,,,,,,,,,,,,
39103,0,USOhioMedina,Ohio,Medina,2022-04-28 09:13:11,2022-04-01,0.09479511709037042,0.24230759282991257,0.66644843975445,,,,,,,,,,,,
39103,0,USOhioMedina,Ohio,Medina,2022-04-28 09:13:11,2022-04-02,0.09479511709037042,0.24230759282991257,0.66644843975445,,,,,,,,,,,,
39103,0,USOhioMedina,Ohio,Medina,2022-04-28 09:13:11,2022-04-03,0.09479511709037042,0.24230759282991257,0.66644843975445,,,,,,,,,,,,
39103,0,USOhioMedina,Ohio,Medina,2022-04-28 09:13:11,2022-04-04,0.09479511709037042,0.24230759282991257,0.66644843975445,,,,,,,,,,,,
39103,0,USOhioMedina,Ohio,Medina,2022-04-28 09:13:11,2022-04-05,0.09479511709037042,0.24230759282991257,0.66644843975445,,,,,,,,,,,,
39103,0,USOhioMedina,Ohio,Medina,2022-04-28 09:13:11,2022-04-06,0.09479511709037042,0.24230759282991257,0.66644843975445,,,,,,,,,,,,
