FIPS,HR_UID,nameid,province,region,analysisTime,dates,pointprevalence_025,pointprevalence_50,pointprevalence_975,pointinfections_025,pointinfections_50,pointinfections_975,pointinfectious_025,pointinfectious_50,pointinfectious_975,pointinfectiousprevalence_025,pointinfectiousprevalence_50,pointinfectiousprevalence_975,infectrate_025,infectrate_50,infectrate_975
38011,0,USNorthDakotaBowman,North Dakota,Bowman,2022-04-28 09:13:11,2020-03-19,0,0,0,,,,,,,,,,,,
38011,0,USNorthDakotaBowman,North Dakota,Bowman,2022-04-28 09:13:11,2020-03-20,0,0,0,,,,,,,,,,,,
38011,0,USNorthDakotaBowman,North Dakota,Bowman,2022-04-28 09:13:11,2020-03-21,0,0,0,,,,,,,,,,,,
38011,0,USNorthDakotaBowman,North Dakota,Bowman,2022-04-28 09:13:11,2020-03-22,0,0,0,,,,,,,,,,,,
38011,0,USNorthDakotaBowman,North Dakota,Bowman,2022-04-28 09:13:11,2020-03-23,0,0,0,,,,,,,,,,,,
38011,0,USNorthDakotaBowman,North Dakota,Bowman,2022-04-28 09:13:11,2020-03-24,0,0,0,,,,,,,,,,,,
38011,0,USNorthDakotaBowman,North Dakota,Bowman,2022-04-28 09:13:11,2020-03-25,0,0,0,,,,,,,,,,,,
38011,0,USNorthDakotaBowman,North Dakota,Bowman,2022-04-28 09:13:11,2020-03-26,0,0,0,,,,,,,,,,,,
38011,0,USNorthDakotaBowman,North Dakota,Bowman,2022-04-28 09:13:11,2020-03-27,0,0,0,,,,,,,,,,,,
38011,0,USNorthDakotaBowman,North Dakota,Bowman,2022-04-28 09:13:11,2020-03-28,0,0,0,,,,,,,,,,,,
38011,0,USNorthDakotaBowman,North Dakota,Bowman,2022-04-28 09:13:11,2020-03-29,0,0,0,,,,,,,,,,,,
38011,0,USNorthDakotaBowman,North Dakota,Bowman,2022-04-28 09:13:11,2020-03-30,0,0,0,,,,,,,,,,,,
38011,0,USNorthDakotaBowman,North Dakota,Bowman,2022-04-28 09:13:11,2020-03-31,0,0,0,,,,,,,,,,,,
38011,0,USNorthDakotaBowman,North Dakota,Bowman,2022-04-28 09:13:11,2020-04-01,0,0,0,,,,,,,,,,,,
38011,0,USNorthDakotaBowman,North Dakota,Bowman,2022-04-28 09:13:11,2020-04-02,0.16034053451843241,0.34563441653317084,0.8006961167874095,,,,,,,,,,,,
38011,0,USNorthDakotaBowman,North Dakota,Bowman,2022-04-28 09:13:11,2020-04-03,0.16034053451843241,0.34563441653317084,0.8006961167874095,,,,,,,,,,,,
38011,0,USNorthDakotaBowman,North Dakota,Bowman,2022-04-28 09:13:11,2020-04-04,0.16034053451843241,0.34563441653317084,0.8006961167874095,,,,,,,,,,,,
38011,0,USNorthDakotaBowman,North Dakota,Bowman,2022-04-28 09:13:11,2020-04-05,0.16034053451843241,0.34563441653317084,0.8006961167874095,,,,,,,,,,,,
38011,0,USNorthDakotaBowman,North Dakota,Bowman,2022-04-28 09:13:11,2020-04-06,0.16034053451843241,0.34563441653317084,0.8006961167874095,,,,,,,,,,,,
38011,0,USNorthDakotaBowman,North Dakota,Bowman,2022-04-28 09:13:11,2020-04-07,0.16034053451843241,0.34563441653317084,0.8006961167874095,,,,,,,,,,,,
38011,0,USNorthDakotaBowman,North Dakota,Bowman,2022-04-28 09:13:11,2020-04-08,0.16034053451843241,0.34563441653317084,0.8006961167874095,,,,,,,,,,,,
38011,0,USNorthDakotaBowman,North Dakota,Bowman,2022-04-28 09:13:11,2020-04-09,0,0,0,,,,,,,,,,,,
38011,0,USNorthDakotaBowman,North Dakota,Bowman,2022-04-28 09:13:11,2020-04-10,0,0,0,,,,,,,,,,,,
38011,0,USNorthDakotaBowman,North Dakota,Bowman,2022-04-28 09:13:11,2020-04-11,0,0,0,,,,,,,,,,,,
38011,0,USNorthDakotaBowman,North Dakota,Bowman,2022-04-28 09:13:11,2020-04-12,0,0,0,,,,,,,,,,,,
38011,0,USNorthDakotaBowman,North Dakota,Bowman,2022-04-28 09:13:11,2020-04-13,0,0,0,,,,,,,,,,,,
38011,0,USNorthDakotaBowman,North Dakota,Bowman,2022-04-28 09:13:11,2020-04-14,0,0,0,,,,,,,,,,,,
38011,0,USNorthDakotaBowman,North Dakota,Bowman,2022-04-28 09:13:11,2020-04-15,0,0,0,,,,,,,,,,,,
38011,0,USNorthDakotaBowman,North Dakota,Bowman,2022-04-28 09:13:11,2020-04-16,0,0,0,,,,,,,,,,,,
38011,0,USNorthDakotaBowman,North Dakota,Bowman,2022-04-28 09:13:11,2020-04-17,0,0,0,,,,,,,,,,,,
38011,0,USNorthDakotaBowman,North Dakota,Bowman,2022-04-28 09:13:11,2020-04-18,0,0,0,,,,,,,,,,,,
38011,0,USNorthDakotaBowman,North Dakota,Bowman,2022-04-28 09:13:11,2020-04-19,0,0,0,,,,,,,,,,,,
38011,0,USNorthDakotaBowman,North Dakota,Bowman,2022-04-28 09:13:11,2020-04-20,0,0,0,,,,,,,,,,,,
38011,0,USNorthDakotaBowman,North Dakota,Bowman,2022-04-28 09:13:11,2020-04-21,0,0,0,,,,,,,,,,,,
38011,0,USNorthDakotaBowman,North Dakota,Bowman,2022-04-28 09:13:11,2020-04-22,0,0,0,,,,,,,,,,,,
38011,0,USNorthDakotaBowman,North Dakota,Bowman,2022-04-28 09:13:11,2020-04-23,0,0,0,,,,,,,,,,,,
38011,0,USNorthDakotaBowman,North Dakota,Bowman,2022-04-28 09:13:11,2020-04-24,0,0,0,,,,,,,,,,,,
38011,0,USNorthDakotaBowman,North Dakota,Bowman,2022-04-28 09:13:11,2020-04-25,0,0,0,,,,,,,,,,,,
38011,0,USNorthDakotaBowman,North Dakota,Bowman,2022-04-28 09:13:11,2020-04-26,0,0,0,,,,,,,,,,,,
38011,0,USNorthDakotaBowman,North Dakota,Bowman,2022-04-28 09:13:11,2020-04-27,0,0,0,,,,,,,,,,,,
38011,0,USNorthDakotaBowman,North Dakota,Bowman,2022-04-28 09:13:11,2020-04-28,0,0,0,,,,,,,,,,,,
38011,0,USNorthDakotaBowman,North Dakota,Bowman,2022-04-28 09:13:11,2020-04-29,0,0,0,,,,,,,,,,,,
38011,0,USNorthDakotaBowman,North Dakota,Bowman,2022-04-28 09:13:11,2020-04-30,0,0,0,,,,,,,,,,,,
38011,0,USNorthDakotaBowman,North Dakota,Bowman,2022-04-28 09:13:11,2020-05-01,0,0,0,,,,,,,,,,,,
38011,0,USNorthDakotaBowman,North Dakota,Bowman,2022-04-28 09:13:11,2020-05-02,0,0,0,,,,,,,,,,,,
38011,0,USNorthDakotaBowman,North Dakota,Bowman,2022-04-28 09:13:11,2020-05-03,0,0,0,,,,,,,,,,,,
38011,0,USNorthDakotaBowman,North Dakota,Bowman,2022-04-28 09:13:11,2020-05-04,0,0,0,,,,,,,,,,,,
38011,0,USNorthDakotaBowman,North Dakota,Bowman,2022-04-28 09:13:11,2020-05-05,0,0,0,,,,,,,,,,,,
38011,0,USNorthDakotaBowman,North Dakota,Bowman,2022-04-28 09:13:11,2020-05-06,0,0,0,,,,,,,,,,,,
38011,0,USNorthDakotaBowman,North Dakota,Bowman,2022-04-28 09:13:11,2020-05-07,0,0,0,,,,,,,,,,,,
38011,0,USNorthDakotaBowman,North Dakota,Bowman,2022-04-28 09:13:11,2020-05-08,0,0,0,,,,,,,,,,,,
38011,0,USNorthDakotaBowman,North Dakota,Bowman,2022-04-28 09:13:11,2020-05-09,0,0,0,,,,,,,,,,,,
38011,0,USNorthDakotaBowman,North Dakota,Bowman,2022-04-28 09:13:11,2020-05-10,0,0,0,,,,,,,,,,,,
38011,0,USNorthDakotaBowman,North Dakota,Bowman,2022-04-28 09:13:11,2020-05-11,0,0,0,,,,,,,,,,,,
38011,0,USNorthDakotaBowman,North Dakota,Bowman,2022-04-28 09:13:11,2020-05-12,0,0,0,,,,,,,,,,,,
38011,0,USNorthDakotaBowman,North Dakota,Bowman,2022-04-28 09:13:11,2020-05-13,0,0,0,,,,,,,,,,,,
38011,0,USNorthDakotaBowman,North Dakota,Bowman,2022-04-28 09:13:11,2020-05-14,0,0,0,,,,,,,,,,,,
38011,0,USNorthDakotaBowman,North Dakota,Bowman,2022-04-28 09:13:11,2020-05-15,0,0,0,,,,,,,,,,,,
38011,0,USNorthDakotaBowman,North Dakota,Bowman,2022-04-28 09:13:11,2020-05-16,0,0,0,,,,,,,,,,,,
38011,0,USNorthDakotaBowman,North Dakota,Bowman,2022-04-28 09:13:11,2020-05-17,0,0,0,,,,,,,,,,,,
38011,0,USNorthDakotaBowman,North Dakota,Bowman,2022-04-28 09:13:11,2020-05-18,0,0,0,,,,,,,,,,,,
38011,0,USNorthDakotaBowman,North Dakota,Bowman,2022-04-28 09:13:11,2020-05-19,0,0,0,,,,,,,,,,,,
38011,0,USNorthDakotaBowman,North Dakota,Bowman,2022-04-28 09:13:11,2020-05-20,0,0,0,,,,,,,,,,,,
38011,0,USNorthDakotaBowman,North Dakota,Bowman,2022-04-28 09:13:11,2020-05-21,0,0,0,,,,,,,,,,,,
38011,0,USNorthDakotaBowman,North Dakota,Bowman,2022-04-28 09:13:11,2020-05-22,0,0,0,,,,,,,,,,,,
38011,0,USNorthDakotaBowman,North Dakota,Bowman,2022-04-28 09:13:11,2020-05-23,0,0,0,,,,,,,,,,,,
38011,0,USNorthDakotaBowman,North Dakota,Bowman,2022-04-28 09:13:11,2020-05-24,0,0,0,,,,,,,,,,,,
38011,0,USNorthDakotaBowman,North Dakota,Bowman,2022-04-28 09:13:11,2020-05-25,0,0,0,,,,,,,,,,,,
38011,0,USNorthDakotaBowman,North Dakota,Bowman,2022-04-28 09:13:11,2020-05-26,0,0,0,,,,,,,,,,,,
38011,0,USNorthDakotaBowman,North Dakota,Bowman,2022-04-28 09:13:11,2020-05-27,0,0,0,,,,,,,,,,,,
38011,0,USNorthDakotaBowman,North Dakota,Bowman,2022-04-28 09:13:11,2020-05-28,0,0,0,,,,,,,,,,,,
38011,0,USNorthDakotaBowman,North Dakota,Bowman,2022-04-28 09:13:11,2020-05-29,0,0,0,,,,,,,,,,,,
38011,0,USNorthDakotaBowman,North Dakota,Bowman,2022-04-28 09:13:11,2020-05-30,0,0,0,,,,,,,,,,,,
38011,0,USNorthDakotaBowman,North Dakota,Bowman,2022-04-28 09:13:11,2020-05-31,0,0,0,,,,,,,,,,,,
38011,0,USNorthDakotaBowman,North Dakota,Bowman,2022-04-28 09:13:11,2020-06-01,0,0,0,,,,,,,,,,,,
38011,0,USNorthDakotaBowman,North Dakota,Bowman,2022-04-28 09:13:11,2020-06-02,0,0,0,,,,,,,,,,,,
38011,0,USNorthDakotaBowman,North Dakota,Bowman,2022-04-28 09:13:11,2020-06-03,0,0,0,,,,,,,,,,,,
38011,0,USNorthDakotaBowman,North Dakota,Bowman,2022-04-28 09:13:11,2020-06-04,0,0,0,,,,,,,,,,,,
38011,0,USNorthDakotaBowman,North Dakota,Bowman,2022-04-28 09:13:11,2020-06-05,0,0,0,,,,,,,,,,,,
38011,0,USNorthDakotaBowman,North Dakota,Bowman,2022-04-28 09:13:11,2020-06-06,0,0,0,,,,,,,,,,,,
38011,0,USNorthDakotaBowman,North Dakota,Bowman,2022-04-28 09:13:11,2020-06-07,0,0,0,,,,,,,,,,,,
38011,0,USNorthDakotaBowman,North Dakota,Bowman,2022-04-28 09:13:11,2020-06-08,0,0,0,,,,,,,,,,,,
38011,0,USNorthDakotaBowman,North Dakota,Bowman,2022-04-28 09:13:11,2020-06-09,0,0,0,,,,,,,,,,,,
38011,0,USNorthDakotaBowman,North Dakota,Bowman,2022-04-28 09:13:11,2020-06-10,0,0,0,,,,,,,,,,,,
38011,0,USNorthDakotaBowman,North Dakota,Bowman,2022-04-28 09:13:11,2020-06-11,0,0,0,,,,,,,,,,,,
38011,0,USNorthDakotaBowman,North Dakota,Bowman,2022-04-28 09:13:11,2020-06-12,0,0,0,,,,,,,,,,,,
38011,0,USNorthDakotaBowman,North Dakota,Bowman,2022-04-28 09:13:11,2020-06-13,0,0,0,,,,,,,,,,,,
38011,0,USNorthDakotaBowman,North Dakota,Bowman,2022-04-28 09:13:11,2020-06-14,0,0,0,,,,,,,,,,,,
38011,0,USNorthDakotaBowman,North Dakota,Bowman,2022-04-28 09:13:11,2020-06-15,0,0,0,,,,,,,,,,,,
38011,0,USNorthDakotaBowman,North Dakota,Bowman,2022-04-28 09:13:11,2020-06-16,0,0,0,,,,,,,,,,,,
38011,0,USNorthDakotaBowman,North Dakota,Bowman,2022-04-28 09:13:11,2020-06-17,0,0,0,,,,,,,,,,,,
38011,0,USNorthDakotaBowman,North Dakota,Bowman,2022-04-28 09:13:11,2020-06-18,0,0,0,,,,,,,,,,,,
38011,0,USNorthDakotaBowman,North Dakota,Bowman,2022-04-28 09:13:11,2020-06-19,0,0,0,,,,,,,,,,,,
38011,0,USNorthDakotaBowman,North Dakota,Bowman,2022-04-28 09:13:11,2020-06-20,0,0,0,,,,,,,,,,,,
38011,0,USNorthDakotaBowman,North Dakota,Bowman,2022-04-28 09:13:11,2020-06-21,0,0,0,,,,,,,,,,,,
38011,0,USNorthDakotaBowman,North Dakota,Bowman,2022-04-28 09:13:11,2020-06-22,0,0,0,,,,,,,,,,,,
38011,0,USNorthDakotaBowman,North Dakota,Bowman,2022-04-28 09:13:11,2020-06-23,0,0,0,,,,,,,,,,,,
38011,0,USNorthDakotaBowman,North Dakota,Bowman,2022-04-28 09:13:11,2020-06-24,0,0,0,,,,,,,,,,,,
38011,0,USNorthDakotaBowman,North Dakota,Bowman,2022-04-28 09:13:11,2020-06-25,0,0,0,,,,,,,,,,,,
38011,0,USNorthDakotaBowman,North Dakota,Bowman,2022-04-28 09:13:11,2020-06-26,0,0,0,,,,,,,,,,,,
38011,0,USNorthDakotaBowman,North Dakota,Bowman,2022-04-28 09:13:11,2020-06-27,0,0,0,,,,,,,,,,,,
38011,0,USNorthDakotaBowman,North Dakota,Bowman,2022-04-28 09:13:11,2020-06-28,0,0,0,,,,,,,,,,,,
38011,0,USNorthDakotaBowman,North Dakota,Bowman,2022-04-28 09:13:11,2020-06-29,0,0,0,,,,,,,,,,,,
38011,0,USNorthDakotaBowman,North Dakota,Bowman,2022-04-28 09:13:11,2020-06-30,0,0,0,,,,,,,,,,,,
38011,0,USNorthDakotaBowman,North Dakota,Bowman,2022-04-28 09:13:11,2020-07-01,0,0,0,,,,,,,,,,,,
38011,0,USNorthDakotaBowman,North Dakota,Bowman,2022-04-28 09:13:11,2020-07-02,0,0,0,,,,,,,,,,,,
38011,0,USNorthDakotaBowman,North Dakota,Bowman,2022-04-28 09:13:11,2020-07-03,0,0,0,,,,,,,,,,,,
38011,0,USNorthDakotaBowman,North Dakota,Bowman,2022-04-28 09:13:11,2020-07-04,0,0,0,,,,,,,,,,,,
38011,0,USNorthDakotaBowman,North Dakota,Bowman,2022-04-28 09:13:11,2020-07-05,0,0,0,,,,,,,,,,,,
38011,0,USNorthDakotaBowman,North Dakota,Bowman,2022-04-28 09:13:11,2020-07-06,0,0,0,,,,,,,,,,,,
38011,0,USNorthDakotaBowman,North Dakota,Bowman,2022-04-28 09:13:11,2020-07-07,0,0,0,,,,,,,,,,,,
38011,0,USNorthDakotaBowman,North Dakota,Bowman,2022-04-28 09:13:11,2020-07-08,0,0,0,,,,,,,,,,,,
38011,0,USNorthDakotaBowman,North Dakota,Bowman,2022-04-28 09:13:11,2020-07-09,0,0,0,,,,,,,,,,,,
38011,0,USNorthDakotaBowman,North Dakota,Bowman,2022-04-28 09:13:11,2020-07-10,0,0,0,,,,,,,,,,,,
38011,0,USNorthDakotaBowman,North Dakota,Bowman,2022-04-28 09:13:11,2020-07-11,0,0,0,,,,,,,,,,,,
38011,0,USNorthDakotaBowman,North Dakota,Bowman,2022-04-28 09:13:11,2020-07-12,0,0,0,,,,,,,,,,,,
38011,0,USNorthDakotaBowman,North Dakota,Bowman,2022-04-28 09:13:11,2020-07-13,0,0,0,,,,,,,,,,,,
38011,0,USNorthDakotaBowman,North Dakota,Bowman,2022-04-28 09:13:11,2020-07-14,0,0,0,,,,,,,,,,,,
38011,0,USNorthDakotaBowman,North Dakota,Bowman,2022-04-28 09:13:11,2020-07-15,0,0,0,,,,,,,,,,,,
38011,0,USNorthDakotaBowman,North Dakota,Bowman,2022-04-28 09:13:11,2020-07-16,0.4543476034516615,0.7151883093053949,1.1872792147857276,,,,,,,,,,,,
38011,0,USNorthDakotaBowman,North Dakota,Bowman,2022-04-28 09:13:11,2020-07-17,0.4543476034516615,0.7151883093053949,1.1872792147857276,,,,,,,,,,,,
38011,0,USNorthDakotaBowman,North Dakota,Bowman,2022-04-28 09:13:11,2020-07-18,0.4543476034516615,0.7151883093053949,1.1872792147857276,,,,,,,,,,,,
38011,0,USNorthDakotaBowman,North Dakota,Bowman,2022-04-28 09:13:11,2020-07-19,0.4543476034516615,0.7151883093053949,1.1872792147857276,,,,,,,,,,,,
38011,0,USNorthDakotaBowman,North Dakota,Bowman,2022-04-28 09:13:11,2020-07-20,0.4543476034516615,0.7151883093053949,1.1872792147857276,,,,,,,,,,,,
38011,0,USNorthDakotaBowman,North Dakota,Bowman,2022-04-28 09:13:11,2020-07-21,0.4543476034516615,0.7151883093053949,1.1872792147857276,,,,,,,,,,,,
38011,0,USNorthDakotaBowman,North Dakota,Bowman,2022-04-28 09:13:11,2020-07-22,0.4543476034516615,0.7151883093053949,1.1872792147857276,,,,,,,,,,,,
38011,0,USNorthDakotaBowman,North Dakota,Bowman,2022-04-28 09:13:11,2020-07-23,0,0,0,,,,,,,,,,,,
38011,0,USNorthDakotaBowman,North Dakota,Bowman,2022-04-28 09:13:11,2020-07-24,0,0,0,,,,,,,,,,,,
38011,0,USNorthDakotaBowman,North Dakota,Bowman,2022-04-28 09:13:11,2020-07-25,0,0,0,,,,,,,,,,,,
38011,0,USNorthDakotaBowman,North Dakota,Bowman,2022-04-28 09:13:11,2020-07-26,0,0,0,,,,,,,,,,,,
38011,0,USNorthDakotaBowman,North Dakota,Bowman,2022-04-28 09:13:11,2020-07-27,0,0,0,,,,,,,,,,,,
38011,0,USNorthDakotaBowman,North Dakota,Bowman,2022-04-28 09:13:11,2020-07-28,0,0,0,,,,,,,,,,,,
38011,0,USNorthDakotaBowman,North Dakota,Bowman,2022-04-28 09:13:11,2020-07-29,0,0,0,,,,,,,,,,,,
38011,0,USNorthDakotaBowman,North Dakota,Bowman,2022-04-28 09:13:11,2020-07-30,0,0,0,,,,,,,,,,,,
38011,0,USNorthDakotaBowman,North Dakota,Bowman,2022-04-28 09:13:11,2020-07-31,0,0,0,,,,,,,,,,,,
38011,0,USNorthDakotaBowman,North Dakota,Bowman,2022-04-28 09:13:11,2020-08-01,0,0,0,,,,,,,,,,,,
38011,0,USNorthDakotaBowman,North Dakota,Bowman,2022-04-28 09:13:11,2020-08-02,0,0,0,,,,,,,,,,,,
38011,0,USNorthDakotaBowman,North Dakota,Bowman,2022-04-28 09:13:11,2020-08-03,0,0,0,,,,,,,,,,,,
38011,0,USNorthDakotaBowman,North Dakota,Bowman,2022-04-28 09:13:11,2020-08-04,0,0,0,,,,,,,,,,,,
38011,0,USNorthDakotaBowman,North Dakota,Bowman,2022-04-28 09:13:11,2020-08-05,0,0,0,,,,,,,,,,,,
38011,0,USNorthDakotaBowman,North Dakota,Bowman,2022-04-28 09:13:11,2020-08-06,0.5414098018699516,0.8157447469667043,1.2902033001802702,,,,,,,,,,,,
38011,0,USNorthDakotaBowman,North Dakota,Bowman,2022-04-28 09:13:11,2020-08-07,0.5414098018699516,0.8157447469667043,1.2902033001802702,,,,,,,,,,,,
38011,0,USNorthDakotaBowman,North Dakota,Bowman,2022-04-28 09:13:11,2020-08-08,0.5414098018699516,0.8157447469667043,1.2902033001802702,,,,,,,,,,,,
38011,0,USNorthDakotaBowman,North Dakota,Bowman,2022-04-28 09:13:11,2020-08-09,0.5414098018699516,0.8157447469667043,1.2902033001802702,,,,,,,,,,,,
38011,0,USNorthDakotaBowman,North Dakota,Bowman,2022-04-28 09:13:11,2020-08-10,0.5414098018699516,0.8157447469667043,1.2902033001802702,,,,,,,,,,,,
38011,0,USNorthDakotaBowman,North Dakota,Bowman,2022-04-28 09:13:11,2020-08-11,0.5414098018699516,0.8157447469667043,1.2902033001802702,,,,,,,,,,,,
38011,0,USNorthDakotaBowman,North Dakota,Bowman,2022-04-28 09:13:11,2020-08-12,0.5414098018699516,0.8157447469667043,1.2902033001802702,,,,,,,,,,,,
38011,0,USNorthDakotaBowman,North Dakota,Bowman,2022-04-28 09:13:11,2020-08-13,0.37637585171454657,0.6490207261852379,1.1898597089631398,,,,,,,,,,,,
38011,0,USNorthDakotaBowman,North Dakota,Bowman,2022-04-28 09:13:11,2020-08-14,0.37637585171454657,0.6490207261852379,1.1898597089631398,,,,,,,,,,,,
38011,0,USNorthDakotaBowman,North Dakota,Bowman,2022-04-28 09:13:11,2020-08-15,0.37637585171454657,0.6490207261852379,1.1898597089631398,,,,,,,,,,,,
38011,0,USNorthDakotaBowman,North Dakota,Bowman,2022-04-28 09:13:11,2020-08-16,0.37637585171454657,0.6490207261852379,1.1898597089631398,,,,,,,,,,,,
38011,0,USNorthDakotaBowman,North Dakota,Bowman,2022-04-28 09:13:11,2020-08-17,0.37637585171454657,0.6490207261852379,1.1898597089631398,,,,,,,,,,,,
38011,0,USNorthDakotaBowman,North Dakota,Bowman,2022-04-28 09:13:11,2020-08-18,0.37637585171454657,0.6490207261852379,1.1898597089631398,,,,,,,,,,,,
38011,0,USNorthDakotaBowman,North Dakota,Bowman,2022-04-28 09:13:11,2020-08-19,0.37637585171454657,0.6490207261852379,1.1898597089631398,,,,,,,,,,,,
38011,0,USNorthDakotaBowman,North Dakota,Bowman,2022-04-28 09:13:11,2020-08-20,0.1754174318158101,0.4097524354740068,1.0298508055065119,,,,,,,,,,,,
38011,0,USNorthDakotaBowman,North Dakota,Bowman,2022-04-28 09:13:11,2020-08-21,0.1754174318158101,0.4097524354740068,1.0298508055065119,,,,,,,,,,,,
38011,0,USNorthDakotaBowman,North Dakota,Bowman,2022-04-28 09:13:11,2020-08-22,0.1754174318158101,0.4097524354740068,1.0298508055065119,,,,,,,,,,,,
38011,0,USNorthDakotaBowman,North Dakota,Bowman,2022-04-28 09:13:11,2020-08-23,0.1754174318158101,0.4097524354740068,1.0298508055065119,,,,,,,,,,,,
38011,0,USNorthDakotaBowman,North Dakota,Bowman,2022-04-28 09:13:11,2020-08-24,0.1754174318158101,0.4097524354740068,1.0298508055065119,,,,,,,,,,,,
38011,0,USNorthDakotaBowman,North Dakota,Bowman,2022-04-28 09:13:11,2020-08-25,0.1754174318158101,0.4097524354740068,1.0298508055065119,,,,,,,,,,,,
38011,0,USNorthDakotaBowman,North Dakota,Bowman,2022-04-28 09:13:11,2020-08-26,0.1754174318158101,0.4097524354740068,1.0298508055065119,,,,,,,,,,,,
38011,0,USNorthDakotaBowman,North Dakota,Bowman,2022-04-28 09:13:11,2020-08-27,0.18336623225924992,0.44545791152804287,1.1645902705417381,,,,,,,,,,,,
38011,0,USNorthDakotaBowman,North Dakota,Bowman,2022-04-28 09:13:11,2020-08-28,0.18336623225924992,0.44545791152804287,1.1645902705417381,,,,,,,,,,,,
38011,0,USNorthDakotaBowman,North Dakota,Bowman,2022-04-28 09:13:11,2020-08-29,0.18336623225924992,0.44545791152804287,1.1645902705417381,,,,,,,,,,,,
38011,0,USNorthDakotaBowman,North Dakota,Bowman,2022-04-28 09:13:11,2020-08-30,0.18336623225924992,0.44545791152804287,1.1645902705417381,,,,,,,,,,,,
38011,0,USNorthDakotaBowman,North Dakota,Bowman,2022-04-28 09:13:11,2020-08-31,0.18336623225924992,0.44545791152804287,1.1645902705417381,,,,,,,,,,,,
38011,0,USNorthDakotaBowman,North Dakota,Bowman,2022-04-28 09:13:11,2020-09-01,0.18336623225924992,0.44545791152804287,1.1645902705417381,,,,,,,,,,,,
38011,0,USNorthDakotaBowman,North Dakota,Bowman,2022-04-28 09:13:11,2020-09-02,0.18336623225924992,0.44545791152804287,1.1645902705417381,,,,,,,,,,,,
38011,0,USNorthDakotaBowman,North Dakota,Bowman,2022-04-28 09:13:11,2020-09-03,0.938455914463189,1.5215244605464548,2.609068565597925,,,,,,,,,,,,
38011,0,USNorthDakotaBowman,North Dakota,Bowman,2022-04-28 09:13:11,2020-09-04,0.938455914463189,1.5215244605464548,2.609068565597925,,,,,,,,,,,,
38011,0,USNorthDakotaBowman,North Dakota,Bowman,2022-04-28 09:13:11,2020-09-05,0.938455914463189,1.5215244605464548,2.609068565597925,,,,,,,,,,,,
38011,0,USNorthDakotaBowman,North Dakota,Bowman,2022-04-28 09:13:11,2020-09-06,0.938455914463189,1.5215244605464548,2.609068565597925,,,,,,,,,,,,
38011,0,USNorthDakotaBowman,North Dakota,Bowman,2022-04-28 09:13:11,2020-09-07,0.938455914463189,1.5215244605464548,2.609068565597925,,,,,,,,,,,,
38011,0,USNorthDakotaBowman,North Dakota,Bowman,2022-04-28 09:13:11,2020-09-08,0.938455914463189,1.5215244605464548,2.609068565597925,,,,,,,,,,,,
38011,0,USNorthDakotaBowman,North Dakota,Bowman,2022-04-28 09:13:11,2020-09-09,0.938455914463189,1.5215244605464548,2.609068565597925,,,,,,,,,,,,
38011,0,USNorthDakotaBowman,North Dakota,Bowman,2022-04-28 09:13:11,2020-09-10,0.641720418899752,1.1298946493522029,2.1183330143683565,,,,,,,,,,,,
38011,0,USNorthDakotaBowman,North Dakota,Bowman,2022-04-28 09:13:11,2020-09-11,0.641720418899752,1.1298946493522029,2.1183330143683565,,,,,,,,,,,,
38011,0,USNorthDakotaBowman,North Dakota,Bowman,2022-04-28 09:13:11,2020-09-12,0.641720418899752,1.1298946493522029,2.1183330143683565,,,,,,,,,,,,
38011,0,USNorthDakotaBowman,North Dakota,Bowman,2022-04-28 09:13:11,2020-09-13,0.641720418899752,1.1298946493522029,2.1183330143683565,,,,,,,,,,,,
38011,0,USNorthDakotaBowman,North Dakota,Bowman,2022-04-28 09:13:11,2020-09-14,0.641720418899752,1.1298946493522029,2.1183330143683565,,,,,,,,,,,,
38011,0,USNorthDakotaBowman,North Dakota,Bowman,2022-04-28 09:13:11,2020-09-15,0.641720418899752,1.1298946493522029,2.1183330143683565,,,,,,,,,,,,
38011,0,USNorthDakotaBowman,North Dakota,Bowman,2022-04-28 09:13:11,2020-09-16,0.641720418899752,1.1298946493522029,2.1183330143683565,,,,,,,,,,,,
38011,0,USNorthDakotaBowman,North Dakota,Bowman,2022-04-28 09:13:11,2020-09-17,0.8585881573723168,1.4501666844411467,2.599808404174581,,,,,,,,,,,,
38011,0,USNorthDakotaBowman,North Dakota,Bowman,2022-04-28 09:13:11,2020-09-18,0.8585881573723168,1.4501666844411467,2.599808404174581,,,,,,,,,,,,
38011,0,USNorthDakotaBowman,North Dakota,Bowman,2022-04-28 09:13:11,2020-09-19,0.8585881573723168,1.4501666844411467,2.599808404174581,,,,,,,,,,,,
38011,0,USNorthDakotaBowman,North Dakota,Bowman,2022-04-28 09:13:11,2020-09-20,0.8585881573723168,1.4501666844411467,2.599808404174581,,,,,,,,,,,,
38011,0,USNorthDakotaBowman,North Dakota,Bowman,2022-04-28 09:13:11,2020-09-21,0.8585881573723168,1.4501666844411467,2.599808404174581,,,,,,,,,,,,
38011,0,USNorthDakotaBowman,North Dakota,Bowman,2022-04-28 09:13:11,2020-09-22,0.8585881573723168,1.4501666844411467,2.599808404174581,,,,,,,,,,,,
38011,0,USNorthDakotaBowman,North Dakota,Bowman,2022-04-28 09:13:11,2020-09-23,0.8585881573723168,1.4501666844411467,2.599808404174581,,,,,,,,,,,,
38011,0,USNorthDakotaBowman,North Dakota,Bowman,2022-04-28 09:13:11,2020-09-24,1.081804295249917,1.7935927695113798,3.1514566878367276,,,,,,,,,,,,
38011,0,USNorthDakotaBowman,North Dakota,Bowman,2022-04-28 09:13:11,2020-09-25,1.081804295249917,1.7935927695113798,3.1514566878367276,,,,,,,,,,,,
38011,0,USNorthDakotaBowman,North Dakota,Bowman,2022-04-28 09:13:11,2020-09-26,1.081804295249917,1.7935927695113798,3.1514566878367276,,,,,,,,,,,,
38011,0,USNorthDakotaBowman,North Dakota,Bowman,2022-04-28 09:13:11,2020-09-27,1.081804295249917,1.7935927695113798,3.1514566878367276,,,,,,,,,,,,
38011,0,USNorthDakotaBowman,North Dakota,Bowman,2022-04-28 09:13:11,2020-09-28,1.081804295249917,1.7935927695113798,3.1514566878367276,,,,,,,,,,,,
38011,0,USNorthDakotaBowman,North Dakota,Bowman,2022-04-28 09:13:11,2020-09-29,1.081804295249917,1.7935927695113798,3.1514566878367276,,,,,,,,,,,,
38011,0,USNorthDakotaBowman,North Dakota,Bowman,2022-04-28 09:13:11,2020-09-30,1.081804295249917,1.7935927695113798,3.1514566878367276,,,,,,,,,,,,
38011,0,USNorthDakotaBowman,North Dakota,Bowman,2022-04-28 09:13:11,2020-10-01,1.4343396595929017,2.1985211258554784,3.5440913535612184,,,,,,,,,,,,
38011,0,USNorthDakotaBowman,North Dakota,Bowman,2022-04-28 09:13:11,2020-10-02,1.4343396595929017,2.1985211258554784,3.5440913535612184,,,,,,,,,,,,
38011,0,USNorthDakotaBowman,North Dakota,Bowman,2022-04-28 09:13:11,2020-10-03,1.4343396595929017,2.1985211258554784,3.5440913535612184,,,,,,,,,,,,
38011,0,USNorthDakotaBowman,North Dakota,Bowman,2022-04-28 09:13:11,2020-10-04,1.4343396595929017,2.1985211258554784,3.5440913535612184,,,,,,,,,,,,
38011,0,USNorthDakotaBowman,North Dakota,Bowman,2022-04-28 09:13:11,2020-10-05,1.4343396595929017,2.1985211258554784,3.5440913535612184,,,,,,,,,,,,
38011,0,USNorthDakotaBowman,North Dakota,Bowman,2022-04-28 09:13:11,2020-10-06,1.4343396595929017,2.1985211258554784,3.5440913535612184,,,,,,,,,,,,
38011,0,USNorthDakotaBowman,North Dakota,Bowman,2022-04-28 09:13:11,2020-10-07,1.4343396595929017,2.1985211258554784,3.5440913535612184,,,,,,,,,,,,
38011,0,USNorthDakotaBowman,North Dakota,Bowman,2022-04-28 09:13:11,2020-10-08,4.259747764892798,5.274295345040324,6.678823833003213,,,,,,,,,,,,
38011,0,USNorthDakotaBowman,North Dakota,Bowman,2022-04-28 09:13:11,2020-10-09,4.259747764892798,5.274295345040324,6.678823833003213,,,,,,,,,,,,
38011,0,USNorthDakotaBowman,North Dakota,Bowman,2022-04-28 09:13:11,2020-10-10,4.259747764892798,5.274295345040324,6.678823833003213,,,,,,,,,,,,
38011,0,USNorthDakotaBowman,North Dakota,Bowman,2022-04-28 09:13:11,2020-10-11,4.259747764892798,5.274295345040324,6.678823833003213,,,,,,,,,,,,
38011,0,USNorthDakotaBowman,North Dakota,Bowman,2022-04-28 09:13:11,2020-10-12,4.259747764892798,5.274295345040324,6.678823833003213,,,,,,,,,,,,
38011,0,USNorthDakotaBowman,North Dakota,Bowman,2022-04-28 09:13:11,2020-10-13,4.259747764892798,5.274295345040324,6.678823833003213,,,,,,,,,,,,
38011,0,USNorthDakotaBowman,North Dakota,Bowman,2022-04-28 09:13:11,2020-10-14,4.259747764892798,5.274295345040324,6.678823833003213,,,,,,,,,,,,
38011,0,USNorthDakotaBowman,North Dakota,Bowman,2022-04-28 09:13:11,2020-10-15,3.4193039168109047,4.693012186612254,6.683964923530356,,,,,,,,,,,,
38011,0,USNorthDakotaBowman,North Dakota,Bowman,2022-04-28 09:13:11,2020-10-16,3.4193039168109047,4.693012186612254,6.683964923530356,,,,,,,,,,,,
38011,0,USNorthDakotaBowman,North Dakota,Bowman,2022-04-28 09:13:11,2020-10-17,3.4193039168109047,4.693012186612254,6.683964923530356,,,,,,,,,,,,
38011,0,USNorthDakotaBowman,North Dakota,Bowman,2022-04-28 09:13:11,2020-10-18,3.4193039168109047,4.693012186612254,6.683964923530356,,,,,,,,,,,,
38011,0,USNorthDakotaBowman,North Dakota,Bowman,2022-04-28 09:13:11,2020-10-19,3.4193039168109047,4.693012186612254,6.683964923530356,,,,,,,,,,,,
38011,0,USNorthDakotaBowman,North Dakota,Bowman,2022-04-28 09:13:11,2020-10-20,3.4193039168109047,4.693012186612254,6.683964923530356,,,,,,,,,,,,
38011,0,USNorthDakotaBowman,North Dakota,Bowman,2022-04-28 09:13:11,2020-10-21,3.4193039168109047,4.693012186612254,6.683964923530356,,,,,,,,,,,,
38011,0,USNorthDakotaBowman,North Dakota,Bowman,2022-04-28 09:13:11,2020-10-22,3.7067602223064253,5.080622451160846,7.224845738140518,,,,,,,,,,,,
38011,0,USNorthDakotaBowman,North Dakota,Bowman,2022-04-28 09:13:11,2020-10-23,3.7067602223064253,5.080622451160846,7.224845738140518,,,,,,,,,,,,
38011,0,USNorthDakotaBowman,North Dakota,Bowman,2022-04-28 09:13:11,2020-10-24,3.7067602223064253,5.080622451160846,7.224845738140518,,,,,,,,,,,,
38011,0,USNorthDakotaBowman,North Dakota,Bowman,2022-04-28 09:13:11,2020-10-25,3.7067602223064253,5.080622451160846,7.224845738140518,,,,,,,,,,,,
38011,0,USNorthDakotaBowman,North Dakota,Bowman,2022-04-28 09:13:11,2020-10-26,3.7067602223064253,5.080622451160846,7.224845738140518,,,,,,,,,,,,
38011,0,USNorthDakotaBowman,North Dakota,Bowman,2022-04-28 09:13:11,2020-10-27,3.7067602223064253,5.080622451160846,7.224845738140518,,,,,,,,,,,,
38011,0,USNorthDakotaBowman,North Dakota,Bowman,2022-04-28 09:13:11,2020-10-28,3.7067602223064253,5.080622451160846,7.224845738140518,,,,,,,,,,,,
38011,0,USNorthDakotaBowman,North Dakota,Bowman,2022-04-28 09:13:11,2020-10-29,2.7692009561512543,4.259842018149601,6.89438633669585,,,,,,,,,,,,
38011,0,USNorthDakotaBowman,North Dakota,Bowman,2022-04-28 09:13:11,2020-10-30,2.7692009561512543,4.259842018149601,6.89438633669585,,,,,,,,,,,,
38011,0,USNorthDakotaBowman,North Dakota,Bowman,2022-04-28 09:13:11,2020-10-31,2.7692009561512543,4.259842018149601,6.89438633669585,,,,,,,,,,,,
38011,0,USNorthDakotaBowman,North Dakota,Bowman,2022-04-28 09:13:11,2020-11-01,2.7692009561512543,4.259842018149601,6.89438633669585,,,,,,,,,,,,
38011,0,USNorthDakotaBowman,North Dakota,Bowman,2022-04-28 09:13:11,2020-11-02,2.7692009561512543,4.259842018149601,6.89438633669585,,,,,,,,,,,,
38011,0,USNorthDakotaBowman,North Dakota,Bowman,2022-04-28 09:13:11,2020-11-03,2.7692009561512543,4.259842018149601,6.89438633669585,,,,,,,,,,,,
38011,0,USNorthDakotaBowman,North Dakota,Bowman,2022-04-28 09:13:11,2020-11-04,2.7692009561512543,4.259842018149601,6.89438633669585,,,,,,,,,,,,
38011,0,USNorthDakotaBowman,North Dakota,Bowman,2022-04-28 09:13:11,2020-11-05,1.306419867456958,2.5739490846649598,5.434092309397339,,,,,,,,,,,,
38011,0,USNorthDakotaBowman,North Dakota,Bowman,2022-04-28 09:13:11,2020-11-06,1.306419867456958,2.5739490846649598,5.434092309397339,,,,,,,,,,,,
38011,0,USNorthDakotaBowman,North Dakota,Bowman,2022-04-28 09:13:11,2020-11-07,1.306419867456958,2.5739490846649598,5.434092309397339,,,,,,,,,,,,
38011,0,USNorthDakotaBowman,North Dakota,Bowman,2022-04-28 09:13:11,2020-11-08,1.306419867456958,2.5739490846649598,5.434092309397339,,,,,,,,,,,,
38011,0,USNorthDakotaBowman,North Dakota,Bowman,2022-04-28 09:13:11,2020-11-09,1.306419867456958,2.5739490846649598,5.434092309397339,,,,,,,,,,,,
38011,0,USNorthDakotaBowman,North Dakota,Bowman,2022-04-28 09:13:11,2020-11-10,1.306419867456958,2.5739490846649598,5.434092309397339,,,,,,,,,,,,
38011,0,USNorthDakotaBowman,North Dakota,Bowman,2022-04-28 09:13:11,2020-11-11,1.306419867456958,2.5739490846649598,5.434092309397339,,,,,,,,,,,,
38011,0,USNorthDakotaBowman,North Dakota,Bowman,2022-04-28 09:13:11,2020-11-12,3.226934248539616,4.832621914828559,7.59194805179923,,,,,,,,,,,,
38011,0,USNorthDakotaBowman,North Dakota,Bowman,2022-04-28 09:13:11,2020-11-13,3.226934248539616,4.832621914828559,7.59194805179923,,,,,,,,,,,,
38011,0,USNorthDakotaBowman,North Dakota,Bowman,2022-04-28 09:13:11,2020-11-14,3.226934248539616,4.832621914828559,7.59194805179923,,,,,,,,,,,,
38011,0,USNorthDakotaBowman,North Dakota,Bowman,2022-04-28 09:13:11,2020-11-15,3.226934248539616,4.832621914828559,7.59194805179923,,,,,,,,,,,,
38011,0,USNorthDakotaBowman,North Dakota,Bowman,2022-04-28 09:13:11,2020-11-16,3.226934248539616,4.832621914828559,7.59194805179923,,,,,,,,,,,,
38011,0,USNorthDakotaBowman,North Dakota,Bowman,2022-04-28 09:13:11,2020-11-17,3.226934248539616,4.832621914828559,7.59194805179923,,,,,,,,,,,,
38011,0,USNorthDakotaBowman,North Dakota,Bowman,2022-04-28 09:13:11,2020-11-18,3.226934248539616,4.832621914828559,7.59194805179923,,,,,,,,,,,,
38011,0,USNorthDakotaBowman,North Dakota,Bowman,2022-04-28 09:13:11,2020-11-19,2.298308509207586,3.656530647784627,6.141718611602536,,,,,,,,,,,,
38011,0,USNorthDakotaBowman,North Dakota,Bowman,2022-04-28 09:13:11,2020-11-20,2.298308509207586,3.656530647784627,6.141718611602536,,,,,,,,,,,,
38011,0,USNorthDakotaBowman,North Dakota,Bowman,2022-04-28 09:13:11,2020-11-21,2.298308509207586,3.656530647784627,6.141718611602536,,,,,,,,,,,,
38011,0,USNorthDakotaBowman,North Dakota,Bowman,2022-04-28 09:13:11,2020-11-22,2.298308509207586,3.656530647784627,6.141718611602536,,,,,,,,,,,,
38011,0,USNorthDakotaBowman,North Dakota,Bowman,2022-04-28 09:13:11,2020-11-23,2.298308509207586,3.656530647784627,6.141718611602536,,,,,,,,,,,,
38011,0,USNorthDakotaBowman,North Dakota,Bowman,2022-04-28 09:13:11,2020-11-24,2.298308509207586,3.656530647784627,6.141718611602536,,,,,,,,,,,,
38011,0,USNorthDakotaBowman,North Dakota,Bowman,2022-04-28 09:13:11,2020-11-25,2.298308509207586,3.656530647784627,6.141718611602536,,,,,,,,,,,,
38011,0,USNorthDakotaBowman,North Dakota,Bowman,2022-04-28 09:13:11,2020-11-26,0.850858973602368,1.6411755486082793,3.3888127682105584,,,,,,,,,,,,
38011,0,USNorthDakotaBowman,North Dakota,Bowman,2022-04-28 09:13:11,2020-11-27,0.850858973602368,1.6411755486082793,3.3888127682105584,,,,,,,,,,,,
38011,0,USNorthDakotaBowman,North Dakota,Bowman,2022-04-28 09:13:11,2020-11-28,0.850858973602368,1.6411755486082793,3.3888127682105584,,,,,,,,,,,,
38011,0,USNorthDakotaBowman,North Dakota,Bowman,2022-04-28 09:13:11,2020-11-29,0.850858973602368,1.6411755486082793,3.3888127682105584,,,,,,,,,,,,
38011,0,USNorthDakotaBowman,North Dakota,Bowman,2022-04-28 09:13:11,2020-11-30,0.850858973602368,1.6411755486082793,3.3888127682105584,,,,,,,,,,,,
38011,0,USNorthDakotaBowman,North Dakota,Bowman,2022-04-28 09:13:11,2020-12-01,0.850858973602368,1.6411755486082793,3.3888127682105584,,,,,,,,,,,,
38011,0,USNorthDakotaBowman,North Dakota,Bowman,2022-04-28 09:13:11,2020-12-02,0.850858973602368,1.6411755486082793,3.3888127682105584,,,,,,,,,,,,
38011,0,USNorthDakotaBowman,North Dakota,Bowman,2022-04-28 09:13:11,2020-12-03,0.8422983103386562,1.6097632325212112,3.291990646474442,,,,,,,,,,,,
38011,0,USNorthDakotaBowman,North Dakota,Bowman,2022-04-28 09:13:11,2020-12-04,0.8422983103386562,1.6097632325212112,3.291990646474442,,,,,,,,,,,,
38011,0,USNorthDakotaBowman,North Dakota,Bowman,2022-04-28 09:13:11,2020-12-05,0.8422983103386562,1.6097632325212112,3.291990646474442,,,,,,,,,,,,
38011,0,USNorthDakotaBowman,North Dakota,Bowman,2022-04-28 09:13:11,2020-12-06,0.8422983103386562,1.6097632325212112,3.291990646474442,,,,,,,,,,,,
38011,0,USNorthDakotaBowman,North Dakota,Bowman,2022-04-28 09:13:11,2020-12-07,0.8422983103386562,1.6097632325212112,3.291990646474442,,,,,,,,,,,,
38011,0,USNorthDakotaBowman,North Dakota,Bowman,2022-04-28 09:13:11,2020-12-08,0.8422983103386562,1.6097632325212112,3.291990646474442,,,,,,,,,,,,
38011,0,USNorthDakotaBowman,North Dakota,Bowman,2022-04-28 09:13:11,2020-12-09,0.8422983103386562,1.6097632325212112,3.291990646474442,,,,,,,,,,,,
38011,0,USNorthDakotaBowman,North Dakota,Bowman,2022-04-28 09:13:11,2020-12-10,1.0486009906513054,1.6895211030712967,2.87742985392092,,,,,,,,,,,,
38011,0,USNorthDakotaBowman,North Dakota,Bowman,2022-04-28 09:13:11,2020-12-11,1.0486009906513054,1.6895211030712967,2.87742985392092,,,,,,,,,,,,
38011,0,USNorthDakotaBowman,North Dakota,Bowman,2022-04-28 09:13:11,2020-12-12,1.0486009906513054,1.6895211030712967,2.87742985392092,,,,,,,,,,,,
38011,0,USNorthDakotaBowman,North Dakota,Bowman,2022-04-28 09:13:11,2020-12-13,1.0486009906513054,1.6895211030712967,2.87742985392092,,,,,,,,,,,,
38011,0,USNorthDakotaBowman,North Dakota,Bowman,2022-04-28 09:13:11,2020-12-14,1.0486009906513054,1.6895211030712967,2.87742985392092,,,,,,,,,,,,
38011,0,USNorthDakotaBowman,North Dakota,Bowman,2022-04-28 09:13:11,2020-12-15,1.0486009906513054,1.6895211030712967,2.87742985392092,,,,,,,,,,,,
38011,0,USNorthDakotaBowman,North Dakota,Bowman,2022-04-28 09:13:11,2020-12-16,1.0486009906513054,1.6895211030712967,2.87742985392092,,,,,,,,,,,,
38011,0,USNorthDakotaBowman,North Dakota,Bowman,2022-04-28 09:13:11,2020-12-17,1.5621304098621642,2.2715399509076803,3.4530088932080725,,,,,,,,,,,,
38011,0,USNorthDakotaBowman,North Dakota,Bowman,2022-04-28 09:13:11,2020-12-18,1.5621304098621642,2.2715399509076803,3.4530088932080725,,,,,,,,,,,,
38011,0,USNorthDakotaBowman,North Dakota,Bowman,2022-04-28 09:13:11,2020-12-19,1.5621304098621642,2.2715399509076803,3.4530088932080725,,,,,,,,,,,,
38011,0,USNorthDakotaBowman,North Dakota,Bowman,2022-04-28 09:13:11,2020-12-20,1.5621304098621642,2.2715399509076803,3.4530088932080725,,,,,,,,,,,,
38011,0,USNorthDakotaBowman,North Dakota,Bowman,2022-04-28 09:13:11,2020-12-21,1.5621304098621642,2.2715399509076803,3.4530088932080725,,,,,,,,,,,,
38011,0,USNorthDakotaBowman,North Dakota,Bowman,2022-04-28 09:13:11,2020-12-22,1.5621304098621642,2.2715399509076803,3.4530088932080725,,,,,,,,,,,,
38011,0,USNorthDakotaBowman,North Dakota,Bowman,2022-04-28 09:13:11,2020-12-23,1.5621304098621642,2.2715399509076803,3.4530088932080725,,,,,,,,,,,,
38011,0,USNorthDakotaBowman,North Dakota,Bowman,2022-04-28 09:13:11,2020-12-24,0.6715964587151445,1.2328078686973376,2.416155899656952,,,,,,,,,,,,
38011,0,USNorthDakotaBowman,North Dakota,Bowman,2022-04-28 09:13:11,2020-12-25,0.6715964587151445,1.2328078686973376,2.416155899656952,,,,,,,,,,,,
38011,0,USNorthDakotaBowman,North Dakota,Bowman,2022-04-28 09:13:11,2020-12-26,0.6715964587151445,1.2328078686973376,2.416155899656952,,,,,,,,,,,,
38011,0,USNorthDakotaBowman,North Dakota,Bowman,2022-04-28 09:13:11,2020-12-27,0.6715964587151445,1.2328078686973376,2.416155899656952,,,,,,,,,,,,
38011,0,USNorthDakotaBowman,North Dakota,Bowman,2022-04-28 09:13:11,2020-12-28,0.6715964587151445,1.2328078686973376,2.416155899656952,,,,,,,,,,,,
38011,0,USNorthDakotaBowman,North Dakota,Bowman,2022-04-28 09:13:11,2020-12-29,0.6715964587151445,1.2328078686973376,2.416155899656952,,,,,,,,,,,,
38011,0,USNorthDakotaBowman,North Dakota,Bowman,2022-04-28 09:13:11,2020-12-30,0.6715964587151445,1.2328078686973376,2.416155899656952,,,,,,,,,,,,
38011,0,USNorthDakotaBowman,North Dakota,Bowman,2022-04-28 09:13:11,2020-12-31,0.8311432910622952,1.3625783920630354,2.3649844004375358,,,,,,,,,,,,
38011,0,USNorthDakotaBowman,North Dakota,Bowman,2022-04-28 09:13:11,2021-01-01,0.8311432910622952,1.3625783920630354,2.3649844004375358,,,,,,,,,,,,
38011,0,USNorthDakotaBowman,North Dakota,Bowman,2022-04-28 09:13:11,2021-01-02,0.8311432910622952,1.3625783920630354,2.3649844004375358,,,,,,,,,,,,
38011,0,USNorthDakotaBowman,North Dakota,Bowman,2022-04-28 09:13:11,2021-01-03,0.8311432910622952,1.3625783920630354,2.3649844004375358,,,,,,,,,,,,
38011,0,USNorthDakotaBowman,North Dakota,Bowman,2022-04-28 09:13:11,2021-01-04,0.8311432910622952,1.3625783920630354,2.3649844004375358,,,,,,,,,,,,
38011,0,USNorthDakotaBowman,North Dakota,Bowman,2022-04-28 09:13:11,2021-01-05,0.8311432910622952,1.3625783920630354,2.3649844004375358,,,,,,,,,,,,
38011,0,USNorthDakotaBowman,North Dakota,Bowman,2022-04-28 09:13:11,2021-01-06,0.8311432910622952,1.3625783920630354,2.3649844004375358,,,,,,,,,,,,
38011,0,USNorthDakotaBowman,North Dakota,Bowman,2022-04-28 09:13:11,2021-01-07,1.738588621480782,2.361974865096551,3.3252484834148457,,,,,,,,,,,,
38011,0,USNorthDakotaBowman,North Dakota,Bowman,2022-04-28 09:13:11,2021-01-08,1.738588621480782,2.361974865096551,3.3252484834148457,,,,,,,,,,,,
38011,0,USNorthDakotaBowman,North Dakota,Bowman,2022-04-28 09:13:11,2021-01-09,1.738588621480782,2.361974865096551,3.3252484834148457,,,,,,,,,,,,
38011,0,USNorthDakotaBowman,North Dakota,Bowman,2022-04-28 09:13:11,2021-01-10,1.738588621480782,2.361974865096551,3.3252484834148457,,,,,,,,,,,,
38011,0,USNorthDakotaBowman,North Dakota,Bowman,2022-04-28 09:13:11,2021-01-11,1.738588621480782,2.361974865096551,3.3252484834148457,,,,,,,,,,,,
38011,0,USNorthDakotaBowman,North Dakota,Bowman,2022-04-28 09:13:11,2021-01-12,1.738588621480782,2.361974865096551,3.3252484834148457,,,,,,,,,,,,
38011,0,USNorthDakotaBowman,North Dakota,Bowman,2022-04-28 09:13:11,2021-01-13,1.738588621480782,2.361974865096551,3.3252484834148457,,,,,,,,,,,,
38011,0,USNorthDakotaBowman,North Dakota,Bowman,2022-04-28 09:13:11,2021-01-14,1.6185341950520231,2.1707585888578693,3.011663329819949,,,,,,,,,,,,
38011,0,USNorthDakotaBowman,North Dakota,Bowman,2022-04-28 09:13:11,2021-01-15,1.6185341950520231,2.1707585888578693,3.011663329819949,,,,,,,,,,,,
38011,0,USNorthDakotaBowman,North Dakota,Bowman,2022-04-28 09:13:11,2021-01-16,1.6185341950520231,2.1707585888578693,3.011663329819949,,,,,,,,,,,,
38011,0,USNorthDakotaBowman,North Dakota,Bowman,2022-04-28 09:13:11,2021-01-17,1.6185341950520231,2.1707585888578693,3.011663329819949,,,,,,,,,,,,
38011,0,USNorthDakotaBowman,North Dakota,Bowman,2022-04-28 09:13:11,2021-01-18,1.6185341950520231,2.1707585888578693,3.011663329819949,,,,,,,,,,,,
38011,0,USNorthDakotaBowman,North Dakota,Bowman,2022-04-28 09:13:11,2021-01-19,1.6185341950520231,2.1707585888578693,3.011663329819949,,,,,,,,,,,,
38011,0,USNorthDakotaBowman,North Dakota,Bowman,2022-04-28 09:13:11,2021-01-20,1.6185341950520231,2.1707585888578693,3.011663329819949,,,,,,,,,,,,
38011,0,USNorthDakotaBowman,North Dakota,Bowman,2022-04-28 09:13:11,2021-01-21,0.9600455898217335,1.4268663473880436,2.2226618754551795,,,,,,,,,,,,
38011,0,USNorthDakotaBowman,North Dakota,Bowman,2022-04-28 09:13:11,2021-01-22,0.9600455898217335,1.4268663473880436,2.2226618754551795,,,,,,,,,,,,
38011,0,USNorthDakotaBowman,North Dakota,Bowman,2022-04-28 09:13:11,2021-01-23,0.9600455898217335,1.4268663473880436,2.2226618754551795,,,,,,,,,,,,
38011,0,USNorthDakotaBowman,North Dakota,Bowman,2022-04-28 09:13:11,2021-01-24,0.9600455898217335,1.4268663473880436,2.2226618754551795,,,,,,,,,,,,
38011,0,USNorthDakotaBowman,North Dakota,Bowman,2022-04-28 09:13:11,2021-01-25,0.9600455898217335,1.4268663473880436,2.2226618754551795,,,,,,,,,,,,
38011,0,USNorthDakotaBowman,North Dakota,Bowman,2022-04-28 09:13:11,2021-01-26,0.9600455898217335,1.4268663473880436,2.2226618754551795,,,,,,,,,,,,
38011,0,USNorthDakotaBowman,North Dakota,Bowman,2022-04-28 09:13:11,2021-01-27,0.9600455898217335,1.4268663473880436,2.2226618754551795,,,,,,,,,,,,
38011,0,USNorthDakotaBowman,North Dakota,Bowman,2022-04-28 09:13:11,2021-01-28,1.1157294196711034,1.5840463536757146,2.344023769216967,,,,,,,,,,,,
38011,0,USNorthDakotaBowman,North Dakota,Bowman,2022-04-28 09:13:11,2021-01-29,1.1157294196711034,1.5840463536757146,2.344023769216967,,,,,,,,,,,,
38011,0,USNorthDakotaBowman,North Dakota,Bowman,2022-04-28 09:13:11,2021-01-30,1.1157294196711034,1.5840463536757146,2.344023769216967,,,,,,,,,,,,
38011,0,USNorthDakotaBowman,North Dakota,Bowman,2022-04-28 09:13:11,2021-01-31,1.1157294196711034,1.5840463536757146,2.344023769216967,,,,,,,,,,,,
38011,0,USNorthDakotaBowman,North Dakota,Bowman,2022-04-28 09:13:11,2021-02-01,1.1157294196711034,1.5840463536757146,2.344023769216967,,,,,,,,,,,,
38011,0,USNorthDakotaBowman,North Dakota,Bowman,2022-04-28 09:13:11,2021-02-02,1.1157294196711034,1.5840463536757146,2.344023769216967,,,,,,,,,,,,
38011,0,USNorthDakotaBowman,North Dakota,Bowman,2022-04-28 09:13:11,2021-02-03,1.1157294196711034,1.5840463536757146,2.344023769216967,,,,,,,,,,,,
38011,0,USNorthDakotaBowman,North Dakota,Bowman,2022-04-28 09:13:11,2021-02-04,0.8143701685020689,1.0441169020197907,1.3760086709887502,,,,,,,,,,,,
38011,0,USNorthDakotaBowman,North Dakota,Bowman,2022-04-28 09:13:11,2021-02-05,0.8143701685020689,1.0441169020197907,1.3760086709887502,,,,,,,,,,,,
38011,0,USNorthDakotaBowman,North Dakota,Bowman,2022-04-28 09:13:11,2021-02-06,0.8143701685020689,1.0441169020197907,1.3760086709887502,,,,,,,,,,,,
38011,0,USNorthDakotaBowman,North Dakota,Bowman,2022-04-28 09:13:11,2021-02-07,0.8143701685020689,1.0441169020197907,1.3760086709887502,,,,,,,,,,,,
38011,0,USNorthDakotaBowman,North Dakota,Bowman,2022-04-28 09:13:11,2021-02-08,0.8143701685020689,1.0441169020197907,1.3760086709887502,,,,,,,,,,,,
38011,0,USNorthDakotaBowman,North Dakota,Bowman,2022-04-28 09:13:11,2021-02-09,0.8143701685020689,1.0441169020197907,1.3760086709887502,,,,,,,,,,,,
38011,0,USNorthDakotaBowman,North Dakota,Bowman,2022-04-28 09:13:11,2021-02-10,0.8143701685020689,1.0441169020197907,1.3760086709887502,,,,,,,,,,,,
38011,0,USNorthDakotaBowman,North Dakota,Bowman,2022-04-28 09:13:11,2021-02-11,0.17476544997522492,0.4068813654846009,1.0192306302253302,,,,,,,,,,,,
38011,0,USNorthDakotaBowman,North Dakota,Bowman,2022-04-28 09:13:11,2021-02-12,0.17476544997522492,0.4068813654846009,1.0192306302253302,,,,,,,,,,,,
38011,0,USNorthDakotaBowman,North Dakota,Bowman,2022-04-28 09:13:11,2021-02-13,0.17476544997522492,0.4068813654846009,1.0192306302253302,,,,,,,,,,,,
38011,0,USNorthDakotaBowman,North Dakota,Bowman,2022-04-28 09:13:11,2021-02-14,0.17476544997522492,0.4068813654846009,1.0192306302253302,,,,,,,,,,,,
38011,0,USNorthDakotaBowman,North Dakota,Bowman,2022-04-28 09:13:11,2021-02-15,0.17476544997522492,0.4068813654846009,1.0192306302253302,,,,,,,,,,,,
38011,0,USNorthDakotaBowman,North Dakota,Bowman,2022-04-28 09:13:11,2021-02-16,0.17476544997522492,0.4068813654846009,1.0192306302253302,,,,,,,,,,,,
38011,0,USNorthDakotaBowman,North Dakota,Bowman,2022-04-28 09:13:11,2021-02-17,0.17476544997522492,0.4068813654846009,1.0192306302253302,,,,,,,,,,,,
38011,0,USNorthDakotaBowman,North Dakota,Bowman,2022-04-28 09:13:11,2021-02-18,0.6922771059304854,1.1054668962662466,1.8643503633255356,,,,,,,,,,,,
38011,0,USNorthDakotaBowman,North Dakota,Bowman,2022-04-28 09:13:11,2021-02-19,0.6922771059304854,1.1054668962662466,1.8643503633255356,,,,,,,,,,,,
38011,0,USNorthDakotaBowman,North Dakota,Bowman,2022-04-28 09:13:11,2021-02-20,0.6922771059304854,1.1054668962662466,1.8643503633255356,,,,,,,,,,,,
38011,0,USNorthDakotaBowman,North Dakota,Bowman,2022-04-28 09:13:11,2021-02-21,0.6922771059304854,1.1054668962662466,1.8643503633255356,,,,,,,,,,,,
38011,0,USNorthDakotaBowman,North Dakota,Bowman,2022-04-28 09:13:11,2021-02-22,0.6922771059304854,1.1054668962662466,1.8643503633255356,,,,,,,,,,,,
38011,0,USNorthDakotaBowman,North Dakota,Bowman,2022-04-28 09:13:11,2021-02-23,0.6922771059304854,1.1054668962662466,1.8643503633255356,,,,,,,,,,,,
38011,0,USNorthDakotaBowman,North Dakota,Bowman,2022-04-28 09:13:11,2021-02-24,0.6922771059304854,1.1054668962662466,1.8643503633255356,,,,,,,,,,,,
38011,0,USNorthDakotaBowman,North Dakota,Bowman,2022-04-28 09:13:11,2021-02-25,0.9050173844438643,1.2748911819528512,1.8699987639316444,,,,,,,,,,,,
38011,0,USNorthDakotaBowman,North Dakota,Bowman,2022-04-28 09:13:11,2021-02-26,0.9050173844438643,1.2748911819528512,1.8699987639316444,,,,,,,,,,,,
38011,0,USNorthDakotaBowman,North Dakota,Bowman,2022-04-28 09:13:11,2021-02-27,0.9050173844438643,1.2748911819528512,1.8699987639316444,,,,,,,,,,,,
38011,0,USNorthDakotaBowman,North Dakota,Bowman,2022-04-28 09:13:11,2021-02-28,0.9050173844438643,1.2748911819528512,1.8699987639316444,,,,,,,,,,,,
38011,0,USNorthDakotaBowman,North Dakota,Bowman,2022-04-28 09:13:11,2021-03-01,0.9050173844438643,1.2748911819528512,1.8699987639316444,,,,,,,,,,,,
38011,0,USNorthDakotaBowman,North Dakota,Bowman,2022-04-28 09:13:11,2021-03-02,0.9050173844438643,1.2748911819528512,1.8699987639316444,,,,,,,,,,,,
38011,0,USNorthDakotaBowman,North Dakota,Bowman,2022-04-28 09:13:11,2021-03-03,0.9050173844438643,1.2748911819528512,1.8699987639316444,,,,,,,,,,,,
38011,0,USNorthDakotaBowman,North Dakota,Bowman,2022-04-28 09:13:11,2021-03-04,0.6124215223087526,1.0330634694631273,1.8494748422146574,,,,,,,,,,,,
38011,0,USNorthDakotaBowman,North Dakota,Bowman,2022-04-28 09:13:11,2021-03-05,0.6124215223087526,1.0330634694631273,1.8494748422146574,,,,,,,,,,,,
38011,0,USNorthDakotaBowman,North Dakota,Bowman,2022-04-28 09:13:11,2021-03-06,0.6124215223087526,1.0330634694631273,1.8494748422146574,,,,,,,,,,,,
38011,0,USNorthDakotaBowman,North Dakota,Bowman,2022-04-28 09:13:11,2021-03-07,0.6124215223087526,1.0330634694631273,1.8494748422146574,,,,,,,,,,,,
38011,0,USNorthDakotaBowman,North Dakota,Bowman,2022-04-28 09:13:11,2021-03-08,0.6124215223087526,1.0330634694631273,1.8494748422146574,,,,,,,,,,,,
38011,0,USNorthDakotaBowman,North Dakota,Bowman,2022-04-28 09:13:11,2021-03-09,0.6124215223087526,1.0330634694631273,1.8494748422146574,,,,,,,,,,,,
38011,0,USNorthDakotaBowman,North Dakota,Bowman,2022-04-28 09:13:11,2021-03-10,0.6124215223087526,1.0330634694631273,1.8494748422146574,,,,,,,,,,,,
38011,0,USNorthDakotaBowman,North Dakota,Bowman,2022-04-28 09:13:11,2021-03-11,0.303575712777266,0.6228343131154523,1.3713670437161414,,,,,,,,,,,,
38011,0,USNorthDakotaBowman,North Dakota,Bowman,2022-04-28 09:13:11,2021-03-12,0.303575712777266,0.6228343131154523,1.3713670437161414,,,,,,,,,,,,
38011,0,USNorthDakotaBowman,North Dakota,Bowman,2022-04-28 09:13:11,2021-03-13,0.303575712777266,0.6228343131154523,1.3713670437161414,,,,,,,,,,,,
38011,0,USNorthDakotaBowman,North Dakota,Bowman,2022-04-28 09:13:11,2021-03-14,0.303575712777266,0.6228343131154523,1.3713670437161414,,,,,,,,,,,,
38011,0,USNorthDakotaBowman,North Dakota,Bowman,2022-04-28 09:13:11,2021-03-15,0.303575712777266,0.6228343131154523,1.3713670437161414,,,,,,,,,,,,
38011,0,USNorthDakotaBowman,North Dakota,Bowman,2022-04-28 09:13:11,2021-03-16,0.303575712777266,0.6228343131154523,1.3713670437161414,,,,,,,,,,,,
38011,0,USNorthDakotaBowman,North Dakota,Bowman,2022-04-28 09:13:11,2021-03-17,0.303575712777266,0.6228343131154523,1.3713670437161414,,,,,,,,,,,,
38011,0,USNorthDakotaBowman,North Dakota,Bowman,2022-04-28 09:13:11,2021-03-18,0.1987259906251121,0.5180650751949861,1.4529973623681909,,,,,,,,,,,,
38011,0,USNorthDakotaBowman,North Dakota,Bowman,2022-04-28 09:13:11,2021-03-19,0.1987259906251121,0.5180650751949861,1.4529973623681909,,,,,,,,,,,,
38011,0,USNorthDakotaBowman,North Dakota,Bowman,2022-04-28 09:13:11,2021-03-20,0.1987259906251121,0.5180650751949861,1.4529973623681909,,,,,,,,,,,,
38011,0,USNorthDakotaBowman,North Dakota,Bowman,2022-04-28 09:13:11,2021-03-21,0.1987259906251121,0.5180650751949861,1.4529973623681909,,,,,,,,,,,,
38011,0,USNorthDakotaBowman,North Dakota,Bowman,2022-04-28 09:13:11,2021-03-22,0.1987259906251121,0.5180650751949861,1.4529973623681909,,,,,,,,,,,,
38011,0,USNorthDakotaBowman,North Dakota,Bowman,2022-04-28 09:13:11,2021-03-23,0.1987259906251121,0.5180650751949861,1.4529973623681909,,,,,,,,,,,,
38011,0,USNorthDakotaBowman,North Dakota,Bowman,2022-04-28 09:13:11,2021-03-24,0.1987259906251121,0.5180650751949861,1.4529973623681909,,,,,,,,,,,,
38011,0,USNorthDakotaBowman,North Dakota,Bowman,2022-04-28 09:13:11,2021-03-25,0,0,0,,,,,,,,,,,,
38011,0,USNorthDakotaBowman,North Dakota,Bowman,2022-04-28 09:13:11,2021-03-26,0,0,0,,,,,,,,,,,,
38011,0,USNorthDakotaBowman,North Dakota,Bowman,2022-04-28 09:13:11,2021-03-27,0,0,0,,,,,,,,,,,,
38011,0,USNorthDakotaBowman,North Dakota,Bowman,2022-04-28 09:13:11,2021-03-28,0,0,0,,,,,,,,,,,,
38011,0,USNorthDakotaBowman,North Dakota,Bowman,2022-04-28 09:13:11,2021-03-29,0,0,0,,,,,,,,,,,,
38011,0,USNorthDakotaBowman,North Dakota,Bowman,2022-04-28 09:13:11,2021-03-30,0,0,0,,,,,,,,,,,,
38011,0,USNorthDakotaBowman,North Dakota,Bowman,2022-04-28 09:13:11,2021-03-31,0,0,0,,,,,,,,,,,,
38011,0,USNorthDakotaBowman,North Dakota,Bowman,2022-04-28 09:13:11,2021-04-01,0,0,0,,,,,,,,,,,,
38011,0,USNorthDakotaBowman,North Dakota,Bowman,2022-04-28 09:13:11,2021-04-02,0,0,0,,,,,,,,,,,,
38011,0,USNorthDakotaBowman,North Dakota,Bowman,2022-04-28 09:13:11,2021-04-03,0,0,0,,,,,,,,,,,,
38011,0,USNorthDakotaBowman,North Dakota,Bowman,2022-04-28 09:13:11,2021-04-04,0,0,0,,,,,,,,,,,,
38011,0,USNorthDakotaBowman,North Dakota,Bowman,2022-04-28 09:13:11,2021-04-05,0,0,0,,,,,,,,,,,,
38011,0,USNorthDakotaBowman,North Dakota,Bowman,2022-04-28 09:13:11,2021-04-06,0,0,0,,,,,,,,,,,,
38011,0,USNorthDakotaBowman,North Dakota,Bowman,2022-04-28 09:13:11,2021-04-07,0,0,0,,,,,,,,,,,,
38011,0,USNorthDakotaBowman,North Dakota,Bowman,2022-04-28 09:13:11,2021-04-08,0,0,0,,,,,,,,,,,,
38011,0,USNorthDakotaBowman,North Dakota,Bowman,2022-04-28 09:13:11,2021-04-09,0,0,0,,,,,,,,,,,,
38011,0,USNorthDakotaBowman,North Dakota,Bowman,2022-04-28 09:13:11,2021-04-10,0,0,0,,,,,,,,,,,,
38011,0,USNorthDakotaBowman,North Dakota,Bowman,2022-04-28 09:13:11,2021-04-11,0,0,0,,,,,,,,,,,,
38011,0,USNorthDakotaBowman,North Dakota,Bowman,2022-04-28 09:13:11,2021-04-12,0,0,0,,,,,,,,,,,,
38011,0,USNorthDakotaBowman,North Dakota,Bowman,2022-04-28 09:13:11,2021-04-13,0,0,0,,,,,,,,,,,,
38011,0,USNorthDakotaBowman,North Dakota,Bowman,2022-04-28 09:13:11,2021-04-14,0,0,0,,,,,,,,,,,,
38011,0,USNorthDakotaBowman,North Dakota,Bowman,2022-04-28 09:13:11,2021-04-15,0,0,0,,,,,,,,,,,,
38011,0,USNorthDakotaBowman,North Dakota,Bowman,2022-04-28 09:13:11,2021-04-16,0,0,0,,,,,,,,,,,,
38011,0,USNorthDakotaBowman,North Dakota,Bowman,2022-04-28 09:13:11,2021-04-17,0,0,0,,,,,,,,,,,,
38011,0,USNorthDakotaBowman,North Dakota,Bowman,2022-04-28 09:13:11,2021-04-18,0,0,0,,,,,,,,,,,,
38011,0,USNorthDakotaBowman,North Dakota,Bowman,2022-04-28 09:13:11,2021-04-19,0,0,0,,,,,,,,,,,,
38011,0,USNorthDakotaBowman,North Dakota,Bowman,2022-04-28 09:13:11,2021-04-20,0,0,0,,,,,,,,,,,,
38011,0,USNorthDakotaBowman,North Dakota,Bowman,2022-04-28 09:13:11,2021-04-21,0,0,0,,,,,,,,,,,,
38011,0,USNorthDakotaBowman,North Dakota,Bowman,2022-04-28 09:13:11,2021-04-22,0.33347541133091085,0.7445106368592005,1.787517577813354,,,,,,,,,,,,
38011,0,USNorthDakotaBowman,North Dakota,Bowman,2022-04-28 09:13:11,2021-04-23,0.33347541133091085,0.7445106368592005,1.787517577813354,,,,,,,,,,,,
38011,0,USNorthDakotaBowman,North Dakota,Bowman,2022-04-28 09:13:11,2021-04-24,0.33347541133091085,0.7445106368592005,1.787517577813354,,,,,,,,,,,,
38011,0,USNorthDakotaBowman,North Dakota,Bowman,2022-04-28 09:13:11,2021-04-25,0.33347541133091085,0.7445106368592005,1.787517577813354,,,,,,,,,,,,
38011,0,USNorthDakotaBowman,North Dakota,Bowman,2022-04-28 09:13:11,2021-04-26,0.33347541133091085,0.7445106368592005,1.787517577813354,,,,,,,,,,,,
38011,0,USNorthDakotaBowman,North Dakota,Bowman,2022-04-28 09:13:11,2021-04-27,0.33347541133091085,0.7445106368592005,1.787517577813354,,,,,,,,,,,,
38011,0,USNorthDakotaBowman,North Dakota,Bowman,2022-04-28 09:13:11,2021-04-28,0.33347541133091085,0.7445106368592005,1.787517577813354,,,,,,,,,,,,
38011,0,USNorthDakotaBowman,North Dakota,Bowman,2022-04-28 09:13:11,2021-04-29,0.20230945279176604,0.535676420090381,1.525703131573309,,,,,,,,,,,,
38011,0,USNorthDakotaBowman,North Dakota,Bowman,2022-04-28 09:13:11,2021-04-30,0.20230945279176604,0.535676420090381,1.525703131573309,,,,,,,,,,,,
38011,0,USNorthDakotaBowman,North Dakota,Bowman,2022-04-28 09:13:11,2021-05-01,0.20230945279176604,0.535676420090381,1.525703131573309,,,,,,,,,,,,
38011,0,USNorthDakotaBowman,North Dakota,Bowman,2022-04-28 09:13:11,2021-05-02,0.20230945279176604,0.535676420090381,1.525703131573309,,,,,,,,,,,,
38011,0,USNorthDakotaBowman,North Dakota,Bowman,2022-04-28 09:13:11,2021-05-03,0.20230945279176604,0.535676420090381,1.525703131573309,,,,,,,,,,,,
38011,0,USNorthDakotaBowman,North Dakota,Bowman,2022-04-28 09:13:11,2021-05-04,0.20230945279176604,0.535676420090381,1.525703131573309,,,,,,,,,,,,
38011,0,USNorthDakotaBowman,North Dakota,Bowman,2022-04-28 09:13:11,2021-05-05,0.20230945279176604,0.535676420090381,1.525703131573309,,,,,,,,,,,,
38011,0,USNorthDakotaBowman,North Dakota,Bowman,2022-04-28 09:13:11,2021-05-06,0,0,0,,,,,,,,,,,,
38011,0,USNorthDakotaBowman,North Dakota,Bowman,2022-04-28 09:13:11,2021-05-07,0,0,0,,,,,,,,,,,,
38011,0,USNorthDakotaBowman,North Dakota,Bowman,2022-04-28 09:13:11,2021-05-08,0,0,0,,,,,,,,,,,,
38011,0,USNorthDakotaBowman,North Dakota,Bowman,2022-04-28 09:13:11,2021-05-09,0,0,0,,,,,,,,,,,,
38011,0,USNorthDakotaBowman,North Dakota,Bowman,2022-04-28 09:13:11,2021-05-10,0,0,0,,,,,,,,,,,,
38011,0,USNorthDakotaBowman,North Dakota,Bowman,2022-04-28 09:13:11,2021-05-11,0,0,0,,,,,,,,,,,,
38011,0,USNorthDakotaBowman,North Dakota,Bowman,2022-04-28 09:13:11,2021-05-12,0,0,0,,,,,,,,,,,,
38011,0,USNorthDakotaBowman,North Dakota,Bowman,2022-04-28 09:13:11,2021-05-13,0.1930798048778034,0.49082862324820065,1.3426290178080214,,,,,,,,,,,,
38011,0,USNorthDakotaBowman,North Dakota,Bowman,2022-04-28 09:13:11,2021-05-14,0.1930798048778034,0.49082862324820065,1.3426290178080214,,,,,,,,,,,,
38011,0,USNorthDakotaBowman,North Dakota,Bowman,2022-04-28 09:13:11,2021-05-15,0.1930798048778034,0.49082862324820065,1.3426290178080214,,,,,,,,,,,,
38011,0,USNorthDakotaBowman,North Dakota,Bowman,2022-04-28 09:13:11,2021-05-16,0.1930798048778034,0.49082862324820065,1.3426290178080214,,,,,,,,,,,,
38011,0,USNorthDakotaBowman,North Dakota,Bowman,2022-04-28 09:13:11,2021-05-17,0.1930798048778034,0.49082862324820065,1.3426290178080214,,,,,,,,,,,,
38011,0,USNorthDakotaBowman,North Dakota,Bowman,2022-04-28 09:13:11,2021-05-18,0.1930798048778034,0.49082862324820065,1.3426290178080214,,,,,,,,,,,,
38011,0,USNorthDakotaBowman,North Dakota,Bowman,2022-04-28 09:13:11,2021-05-19,0.1930798048778034,0.49082862324820065,1.3426290178080214,,,,,,,,,,,,
38011,0,USNorthDakotaBowman,North Dakota,Bowman,2022-04-28 09:13:11,2021-05-20,0.18417400577067355,0.4491585003655118,1.1788309860181434,,,,,,,,,,,,
38011,0,USNorthDakotaBowman,North Dakota,Bowman,2022-04-28 09:13:11,2021-05-21,0.18417400577067355,0.4491585003655118,1.1788309860181434,,,,,,,,,,,,
38011,0,USNorthDakotaBowman,North Dakota,Bowman,2022-04-28 09:13:11,2021-05-22,0.18417400577067355,0.4491585003655118,1.1788309860181434,,,,,,,,,,,,
38011,0,USNorthDakotaBowman,North Dakota,Bowman,2022-04-28 09:13:11,2021-05-23,0.18417400577067355,0.4491585003655118,1.1788309860181434,,,,,,,,,,,,
38011,0,USNorthDakotaBowman,North Dakota,Bowman,2022-04-28 09:13:11,2021-05-24,0.18417400577067355,0.4491585003655118,1.1788309860181434,,,,,,,,,,,,
38011,0,USNorthDakotaBowman,North Dakota,Bowman,2022-04-28 09:13:11,2021-05-25,0.18417400577067355,0.4491585003655118,1.1788309860181434,,,,,,,,,,,,
38011,0,USNorthDakotaBowman,North Dakota,Bowman,2022-04-28 09:13:11,2021-05-26,0.18417400577067355,0.4491585003655118,1.1788309860181434,,,,,,,,,,,,
38011,0,USNorthDakotaBowman,North Dakota,Bowman,2022-04-28 09:13:11,2021-05-27,0,0,0,,,,,,,,,,,,
38011,0,USNorthDakotaBowman,North Dakota,Bowman,2022-04-28 09:13:11,2021-05-28,0,0,0,,,,,,,,,,,,
38011,0,USNorthDakotaBowman,North Dakota,Bowman,2022-04-28 09:13:11,2021-05-29,0,0,0,,,,,,,,,,,,
38011,0,USNorthDakotaBowman,North Dakota,Bowman,2022-04-28 09:13:11,2021-05-30,0,0,0,,,,,,,,,,,,
38011,0,USNorthDakotaBowman,North Dakota,Bowman,2022-04-28 09:13:11,2021-05-31,0,0,0,,,,,,,,,,,,
38011,0,USNorthDakotaBowman,North Dakota,Bowman,2022-04-28 09:13:11,2021-06-01,0,0,0,,,,,,,,,,,,
38011,0,USNorthDakotaBowman,North Dakota,Bowman,2022-04-28 09:13:11,2021-06-02,0,0,0,,,,,,,,,,,,
38011,0,USNorthDakotaBowman,North Dakota,Bowman,2022-04-28 09:13:11,2021-06-03,0,0,0,,,,,,,,,,,,
38011,0,USNorthDakotaBowman,North Dakota,Bowman,2022-04-28 09:13:11,2021-06-04,0,0,0,,,,,,,,,,,,
38011,0,USNorthDakotaBowman,North Dakota,Bowman,2022-04-28 09:13:11,2021-06-05,0,0,0,,,,,,,,,,,,
38011,0,USNorthDakotaBowman,North Dakota,Bowman,2022-04-28 09:13:11,2021-06-06,0,0,0,,,,,,,,,,,,
38011,0,USNorthDakotaBowman,North Dakota,Bowman,2022-04-28 09:13:11,2021-06-07,0,0,0,,,,,,,,,,,,
38011,0,USNorthDakotaBowman,North Dakota,Bowman,2022-04-28 09:13:11,2021-06-08,0,0,0,,,,,,,,,,,,
38011,0,USNorthDakotaBowman,North Dakota,Bowman,2022-04-28 09:13:11,2021-06-09,0,0,0,,,,,,,,,,,,
38011,0,USNorthDakotaBowman,North Dakota,Bowman,2022-04-28 09:13:11,2021-06-10,0.16579760976097604,0.36828880491538585,0.8797007156137466,,,,,,,,,,,,
38011,0,USNorthDakotaBowman,North Dakota,Bowman,2022-04-28 09:13:11,2021-06-11,0.16579760976097604,0.36828880491538585,0.8797007156137466,,,,,,,,,,,,
38011,0,USNorthDakotaBowman,North Dakota,Bowman,2022-04-28 09:13:11,2021-06-12,0.16579760976097604,0.36828880491538585,0.8797007156137466,,,,,,,,,,,,
38011,0,USNorthDakotaBowman,North Dakota,Bowman,2022-04-28 09:13:11,2021-06-13,0.16579760976097604,0.36828880491538585,0.8797007156137466,,,,,,,,,,,,
38011,0,USNorthDakotaBowman,North Dakota,Bowman,2022-04-28 09:13:11,2021-06-14,0.16579760976097604,0.36828880491538585,0.8797007156137466,,,,,,,,,,,,
38011,0,USNorthDakotaBowman,North Dakota,Bowman,2022-04-28 09:13:11,2021-06-15,0.16579760976097604,0.36828880491538585,0.8797007156137466,,,,,,,,,,,,
38011,0,USNorthDakotaBowman,North Dakota,Bowman,2022-04-28 09:13:11,2021-06-16,0.16579760976097604,0.36828880491538585,0.8797007156137466,,,,,,,,,,,,
38011,0,USNorthDakotaBowman,North Dakota,Bowman,2022-04-28 09:13:11,2021-06-17,0,0,0,,,,,,,,,,,,
38011,0,USNorthDakotaBowman,North Dakota,Bowman,2022-04-28 09:13:11,2021-06-18,0,0,0,,,,,,,,,,,,
38011,0,USNorthDakotaBowman,North Dakota,Bowman,2022-04-28 09:13:11,2021-06-19,0,0,0,,,,,,,,,,,,
38011,0,USNorthDakotaBowman,North Dakota,Bowman,2022-04-28 09:13:11,2021-06-20,0,0,0,,,,,,,,,,,,
38011,0,USNorthDakotaBowman,North Dakota,Bowman,2022-04-28 09:13:11,2021-06-21,0,0,0,,,,,,,,,,,,
38011,0,USNorthDakotaBowman,North Dakota,Bowman,2022-04-28 09:13:11,2021-06-22,0,0,0,,,,,,,,,,,,
38011,0,USNorthDakotaBowman,North Dakota,Bowman,2022-04-28 09:13:11,2021-06-23,0,0,0,,,,,,,,,,,,
38011,0,USNorthDakotaBowman,North Dakota,Bowman,2022-04-28 09:13:11,2021-06-24,0,0,0,,,,,,,,,,,,
38011,0,USNorthDakotaBowman,North Dakota,Bowman,2022-04-28 09:13:11,2021-06-25,0,0,0,,,,,,,,,,,,
38011,0,USNorthDakotaBowman,North Dakota,Bowman,2022-04-28 09:13:11,2021-06-26,0,0,0,,,,,,,,,,,,
38011,0,USNorthDakotaBowman,North Dakota,Bowman,2022-04-28 09:13:11,2021-06-27,0,0,0,,,,,,,,,,,,
38011,0,USNorthDakotaBowman,North Dakota,Bowman,2022-04-28 09:13:11,2021-06-28,0,0,0,,,,,,,,,,,,
38011,0,USNorthDakotaBowman,North Dakota,Bowman,2022-04-28 09:13:11,2021-06-29,0,0,0,,,,,,,,,,,,
38011,0,USNorthDakotaBowman,North Dakota,Bowman,2022-04-28 09:13:11,2021-06-30,0,0,0,,,,,,,,,,,,
38011,0,USNorthDakotaBowman,North Dakota,Bowman,2022-04-28 09:13:11,2021-07-01,0.24221008282276094,0.4043481134229723,0.7157924722442854,,,,,,,,,,,,
38011,0,USNorthDakotaBowman,North Dakota,Bowman,2022-04-28 09:13:11,2021-07-02,0.24221008282276094,0.4043481134229723,0.7157924722442854,,,,,,,,,,,,
38011,0,USNorthDakotaBowman,North Dakota,Bowman,2022-04-28 09:13:11,2021-07-03,0.24221008282276094,0.4043481134229723,0.7157924722442854,,,,,,,,,,,,
38011,0,USNorthDakotaBowman,North Dakota,Bowman,2022-04-28 09:13:11,2021-07-04,0.24221008282276094,0.4043481134229723,0.7157924722442854,,,,,,,,,,,,
38011,0,USNorthDakotaBowman,North Dakota,Bowman,2022-04-28 09:13:11,2021-07-05,0.24221008282276094,0.4043481134229723,0.7157924722442854,,,,,,,,,,,,
38011,0,USNorthDakotaBowman,North Dakota,Bowman,2022-04-28 09:13:11,2021-07-06,0.24221008282276094,0.4043481134229723,0.7157924722442854,,,,,,,,,,,,
38011,0,USNorthDakotaBowman,North Dakota,Bowman,2022-04-28 09:13:11,2021-07-07,0.24221008282276094,0.4043481134229723,0.7157924722442854,,,,,,,,,,,,
38011,0,USNorthDakotaBowman,North Dakota,Bowman,2022-04-28 09:13:11,2021-07-08,0.1586100933163064,0.3385836060299357,0.7765635487754035,,,,,,,,,,,,
38011,0,USNorthDakotaBowman,North Dakota,Bowman,2022-04-28 09:13:11,2021-07-09,0.1586100933163064,0.3385836060299357,0.7765635487754035,,,,,,,,,,,,
38011,0,USNorthDakotaBowman,North Dakota,Bowman,2022-04-28 09:13:11,2021-07-10,0.1586100933163064,0.3385836060299357,0.7765635487754035,,,,,,,,,,,,
38011,0,USNorthDakotaBowman,North Dakota,Bowman,2022-04-28 09:13:11,2021-07-11,0.1586100933163064,0.3385836060299357,0.7765635487754035,,,,,,,,,,,,
38011,0,USNorthDakotaBowman,North Dakota,Bowman,2022-04-28 09:13:11,2021-07-12,0.1586100933163064,0.3385836060299357,0.7765635487754035,,,,,,,,,,,,
38011,0,USNorthDakotaBowman,North Dakota,Bowman,2022-04-28 09:13:11,2021-07-13,0.1586100933163064,0.3385836060299357,0.7765635487754035,,,,,,,,,,,,
38011,0,USNorthDakotaBowman,North Dakota,Bowman,2022-04-28 09:13:11,2021-07-14,0.1586100933163064,0.3385836060299357,0.7765635487754035,,,,,,,,,,,,
38011,0,USNorthDakotaBowman,North Dakota,Bowman,2022-04-28 09:13:11,2021-07-15,0,0,0,,,,,,,,,,,,
38011,0,USNorthDakotaBowman,North Dakota,Bowman,2022-04-28 09:13:11,2021-07-16,0,0,0,,,,,,,,,,,,
38011,0,USNorthDakotaBowman,North Dakota,Bowman,2022-04-28 09:13:11,2021-07-17,0,0,0,,,,,,,,,,,,
38011,0,USNorthDakotaBowman,North Dakota,Bowman,2022-04-28 09:13:11,2021-07-18,0,0,0,,,,,,,,,,,,
38011,0,USNorthDakotaBowman,North Dakota,Bowman,2022-04-28 09:13:11,2021-07-19,0,0,0,,,,,,,,,,,,
38011,0,USNorthDakotaBowman,North Dakota,Bowman,2022-04-28 09:13:11,2021-07-20,0,0,0,,,,,,,,,,,,
38011,0,USNorthDakotaBowman,North Dakota,Bowman,2022-04-28 09:13:11,2021-07-21,0,0,0,,,,,,,,,,,,
38011,0,USNorthDakotaBowman,North Dakota,Bowman,2022-04-28 09:13:11,2021-07-22,0,0,0,,,,,,,,,,,,
38011,0,USNorthDakotaBowman,North Dakota,Bowman,2022-04-28 09:13:11,2021-07-23,0,0,0,,,,,,,,,,,,
38011,0,USNorthDakotaBowman,North Dakota,Bowman,2022-04-28 09:13:11,2021-07-24,0,0,0,,,,,,,,,,,,
38011,0,USNorthDakotaBowman,North Dakota,Bowman,2022-04-28 09:13:11,2021-07-25,0,0,0,,,,,,,,,,,,
38011,0,USNorthDakotaBowman,North Dakota,Bowman,2022-04-28 09:13:11,2021-07-26,0,0,0,,,,,,,,,,,,
38011,0,USNorthDakotaBowman,North Dakota,Bowman,2022-04-28 09:13:11,2021-07-27,0,0,0,,,,,,,,,,,,
38011,0,USNorthDakotaBowman,North Dakota,Bowman,2022-04-28 09:13:11,2021-07-28,0,0,0,,,,,,,,,,,,
38011,0,USNorthDakotaBowman,North Dakota,Bowman,2022-04-28 09:13:11,2021-07-29,0.20007387201410204,0.5246599073072075,1.480101534921772,,,,,,,,,,,,
38011,0,USNorthDakotaBowman,North Dakota,Bowman,2022-04-28 09:13:11,2021-07-30,0.20007387201410204,0.5246599073072075,1.480101534921772,,,,,,,,,,,,
38011,0,USNorthDakotaBowman,North Dakota,Bowman,2022-04-28 09:13:11,2021-07-31,0.20007387201410204,0.5246599073072075,1.480101534921772,,,,,,,,,,,,
38011,0,USNorthDakotaBowman,North Dakota,Bowman,2022-04-28 09:13:11,2021-08-01,0.20007387201410204,0.5246599073072075,1.480101534921772,,,,,,,,,,,,
38011,0,USNorthDakotaBowman,North Dakota,Bowman,2022-04-28 09:13:11,2021-08-02,0.20007387201410204,0.5246599073072075,1.480101534921772,,,,,,,,,,,,
38011,0,USNorthDakotaBowman,North Dakota,Bowman,2022-04-28 09:13:11,2021-08-03,0.20007387201410204,0.5246599073072075,1.480101534921772,,,,,,,,,,,,
38011,0,USNorthDakotaBowman,North Dakota,Bowman,2022-04-28 09:13:11,2021-08-04,0.20007387201410204,0.5246599073072075,1.480101534921772,,,,,,,,,,,,
38011,0,USNorthDakotaBowman,North Dakota,Bowman,2022-04-28 09:13:11,2021-08-05,0.35485465253524556,0.837316820580572,2.1259998690707063,,,,,,,,,,,,
38011,0,USNorthDakotaBowman,North Dakota,Bowman,2022-04-28 09:13:11,2021-08-06,0.35485465253524556,0.837316820580572,2.1259998690707063,,,,,,,,,,,,
38011,0,USNorthDakotaBowman,North Dakota,Bowman,2022-04-28 09:13:11,2021-08-07,0.35485465253524556,0.837316820580572,2.1259998690707063,,,,,,,,,,,,
38011,0,USNorthDakotaBowman,North Dakota,Bowman,2022-04-28 09:13:11,2021-08-08,0.35485465253524556,0.837316820580572,2.1259998690707063,,,,,,,,,,,,
38011,0,USNorthDakotaBowman,North Dakota,Bowman,2022-04-28 09:13:11,2021-08-09,0.35485465253524556,0.837316820580572,2.1259998690707063,,,,,,,,,,,,
38011,0,USNorthDakotaBowman,North Dakota,Bowman,2022-04-28 09:13:11,2021-08-10,0.35485465253524556,0.837316820580572,2.1259998690707063,,,,,,,,,,,,
38011,0,USNorthDakotaBowman,North Dakota,Bowman,2022-04-28 09:13:11,2021-08-11,0.35485465253524556,0.837316820580572,2.1259998690707063,,,,,,,,,,,,
38011,0,USNorthDakotaBowman,North Dakota,Bowman,2022-04-28 09:13:11,2021-08-12,0.8377203769803476,1.5930787365355261,3.2409123008750873,,,,,,,,,,,,
38011,0,USNorthDakotaBowman,North Dakota,Bowman,2022-04-28 09:13:11,2021-08-13,0.8377203769803476,1.5930787365355261,3.2409123008750873,,,,,,,,,,,,
38011,0,USNorthDakotaBowman,North Dakota,Bowman,2022-04-28 09:13:11,2021-08-14,0.8377203769803476,1.5930787365355261,3.2409123008750873,,,,,,,,,,,,
38011,0,USNorthDakotaBowman,North Dakota,Bowman,2022-04-28 09:13:11,2021-08-15,0.8377203769803476,1.5930787365355261,3.2409123008750873,,,,,,,,,,,,
38011,0,USNorthDakotaBowman,North Dakota,Bowman,2022-04-28 09:13:11,2021-08-16,0.8377203769803476,1.5930787365355261,3.2409123008750873,,,,,,,,,,,,
38011,0,USNorthDakotaBowman,North Dakota,Bowman,2022-04-28 09:13:11,2021-08-17,0.8377203769803476,1.5930787365355261,3.2409123008750873,,,,,,,,,,,,
38011,0,USNorthDakotaBowman,North Dakota,Bowman,2022-04-28 09:13:11,2021-08-18,0.8377203769803476,1.5930787365355261,3.2409123008750873,,,,,,,,,,,,
38011,0,USNorthDakotaBowman,North Dakota,Bowman,2022-04-28 09:13:11,2021-08-19,0.970939535037163,1.83538560280204,3.7103920403957784,,,,,,,,,,,,
38011,0,USNorthDakotaBowman,North Dakota,Bowman,2022-04-28 09:13:11,2021-08-20,0.970939535037163,1.83538560280204,3.7103920403957784,,,,,,,,,,,,
38011,0,USNorthDakotaBowman,North Dakota,Bowman,2022-04-28 09:13:11,2021-08-21,0.970939535037163,1.83538560280204,3.7103920403957784,,,,,,,,,,,,
38011,0,USNorthDakotaBowman,North Dakota,Bowman,2022-04-28 09:13:11,2021-08-22,0.970939535037163,1.83538560280204,3.7103920403957784,,,,,,,,,,,,
38011,0,USNorthDakotaBowman,North Dakota,Bowman,2022-04-28 09:13:11,2021-08-23,0.970939535037163,1.83538560280204,3.7103920403957784,,,,,,,,,,,,
38011,0,USNorthDakotaBowman,North Dakota,Bowman,2022-04-28 09:13:11,2021-08-24,0.970939535037163,1.83538560280204,3.7103920403957784,,,,,,,,,,,,
38011,0,USNorthDakotaBowman,North Dakota,Bowman,2022-04-28 09:13:11,2021-08-25,0.970939535037163,1.83538560280204,3.7103920403957784,,,,,,,,,,,,
38011,0,USNorthDakotaBowman,North Dakota,Bowman,2022-04-28 09:13:11,2021-08-26,1.7870781277796928,2.9388815180826313,5.118263056365967,,,,,,,,,,,,
38011,0,USNorthDakotaBowman,North Dakota,Bowman,2022-04-28 09:13:11,2021-08-27,1.7870781277796928,2.9388815180826313,5.118263056365967,,,,,,,,,,,,
38011,0,USNorthDakotaBowman,North Dakota,Bowman,2022-04-28 09:13:11,2021-08-28,1.7870781277796928,2.9388815180826313,5.118263056365967,,,,,,,,,,,,
38011,0,USNorthDakotaBowman,North Dakota,Bowman,2022-04-28 09:13:11,2021-08-29,1.7870781277796928,2.9388815180826313,5.118263056365967,,,,,,,,,,,,
38011,0,USNorthDakotaBowman,North Dakota,Bowman,2022-04-28 09:13:11,2021-08-30,1.7870781277796928,2.9388815180826313,5.118263056365967,,,,,,,,,,,,
38011,0,USNorthDakotaBowman,North Dakota,Bowman,2022-04-28 09:13:11,2021-08-31,1.7870781277796928,2.9388815180826313,5.118263056365967,,,,,,,,,,,,
38011,0,USNorthDakotaBowman,North Dakota,Bowman,2022-04-28 09:13:11,2021-09-01,1.7870781277796928,2.9388815180826313,5.118263056365967,,,,,,,,,,,,
38011,0,USNorthDakotaBowman,North Dakota,Bowman,2022-04-28 09:13:11,2021-09-02,2.094209776936694,3.3698052129430405,5.730907290753573,,,,,,,,,,,,
38011,0,USNorthDakotaBowman,North Dakota,Bowman,2022-04-28 09:13:11,2021-09-03,2.094209776936694,3.3698052129430405,5.730907290753573,,,,,,,,,,,,
38011,0,USNorthDakotaBowman,North Dakota,Bowman,2022-04-28 09:13:11,2021-09-04,2.094209776936694,3.3698052129430405,5.730907290753573,,,,,,,,,,,,
38011,0,USNorthDakotaBowman,North Dakota,Bowman,2022-04-28 09:13:11,2021-09-05,2.094209776936694,3.3698052129430405,5.730907290753573,,,,,,,,,,,,
38011,0,USNorthDakotaBowman,North Dakota,Bowman,2022-04-28 09:13:11,2021-09-06,2.094209776936694,3.3698052129430405,5.730907290753573,,,,,,,,,,,,
38011,0,USNorthDakotaBowman,North Dakota,Bowman,2022-04-28 09:13:11,2021-09-07,2.094209776936694,3.3698052129430405,5.730907290753573,,,,,,,,,,,,
38011,0,USNorthDakotaBowman,North Dakota,Bowman,2022-04-28 09:13:11,2021-09-08,2.094209776936694,3.3698052129430405,5.730907290753573,,,,,,,,,,,,
38011,0,USNorthDakotaBowman,North Dakota,Bowman,2022-04-28 09:13:11,2021-09-09,1.8386275424987053,3.10360083255296,5.560412670561486,,,,,,,,,,,,
38011,0,USNorthDakotaBowman,North Dakota,Bowman,2022-04-28 09:13:11,2021-09-10,1.8386275424987053,3.10360083255296,5.560412670561486,,,,,,,,,,,,
38011,0,USNorthDakotaBowman,North Dakota,Bowman,2022-04-28 09:13:11,2021-09-11,1.8386275424987053,3.10360083255296,5.560412670561486,,,,,,,,,,,,
38011,0,USNorthDakotaBowman,North Dakota,Bowman,2022-04-28 09:13:11,2021-09-12,1.8386275424987053,3.10360083255296,5.560412670561486,,,,,,,,,,,,
38011,0,USNorthDakotaBowman,North Dakota,Bowman,2022-04-28 09:13:11,2021-09-13,1.8386275424987053,3.10360083255296,5.560412670561486,,,,,,,,,,,,
38011,0,USNorthDakotaBowman,North Dakota,Bowman,2022-04-28 09:13:11,2021-09-14,1.8386275424987053,3.10360083255296,5.560412670561486,,,,,,,,,,,,
38011,0,USNorthDakotaBowman,North Dakota,Bowman,2022-04-28 09:13:11,2021-09-15,1.8386275424987053,3.10360083255296,5.560412670561486,,,,,,,,,,,,
38011,0,USNorthDakotaBowman,North Dakota,Bowman,2022-04-28 09:13:11,2021-09-16,1.0164592169158992,2.0032952112100775,4.230733627298602,,,,,,,,,,,,
38011,0,USNorthDakotaBowman,North Dakota,Bowman,2022-04-28 09:13:11,2021-09-17,1.0164592169158992,2.0032952112100775,4.230733627298602,,,,,,,,,,,,
38011,0,USNorthDakotaBowman,North Dakota,Bowman,2022-04-28 09:13:11,2021-09-18,1.0164592169158992,2.0032952112100775,4.230733627298602,,,,,,,,,,,,
38011,0,USNorthDakotaBowman,North Dakota,Bowman,2022-04-28 09:13:11,2021-09-19,1.0164592169158992,2.0032952112100775,4.230733627298602,,,,,,,,,,,,
38011,0,USNorthDakotaBowman,North Dakota,Bowman,2022-04-28 09:13:11,2021-09-20,1.0164592169158992,2.0032952112100775,4.230733627298602,,,,,,,,,,,,
38011,0,USNorthDakotaBowman,North Dakota,Bowman,2022-04-28 09:13:11,2021-09-21,1.0164592169158992,2.0032952112100775,4.230733627298602,,,,,,,,,,,,
38011,0,USNorthDakotaBowman,North Dakota,Bowman,2022-04-28 09:13:11,2021-09-22,1.0164592169158992,2.0032952112100775,4.230733627298602,,,,,,,,,,,,
38011,0,USNorthDakotaBowman,North Dakota,Bowman,2022-04-28 09:13:11,2021-09-23,1.2984916809412026,2.544211053683418,5.34039419570103,,,,,,,,,,,,
38011,0,USNorthDakotaBowman,North Dakota,Bowman,2022-04-28 09:13:11,2021-09-24,1.2984916809412026,2.544211053683418,5.34039419570103,,,,,,,,,,,,
38011,0,USNorthDakotaBowman,North Dakota,Bowman,2022-04-28 09:13:11,2021-09-25,1.2984916809412026,2.544211053683418,5.34039419570103,,,,,,,,,,,,
38011,0,USNorthDakotaBowman,North Dakota,Bowman,2022-04-28 09:13:11,2021-09-26,1.2984916809412026,2.544211053683418,5.34039419570103,,,,,,,,,,,,
38011,0,USNorthDakotaBowman,North Dakota,Bowman,2022-04-28 09:13:11,2021-09-27,1.2984916809412026,2.544211053683418,5.34039419570103,,,,,,,,,,,,
38011,0,USNorthDakotaBowman,North Dakota,Bowman,2022-04-28 09:13:11,2021-09-28,1.2984916809412026,2.544211053683418,5.34039419570103,,,,,,,,,,,,
38011,0,USNorthDakotaBowman,North Dakota,Bowman,2022-04-28 09:13:11,2021-09-29,1.2984916809412026,2.544211053683418,5.34039419570103,,,,,,,,,,,,
38011,0,USNorthDakotaBowman,North Dakota,Bowman,2022-04-28 09:13:11,2021-09-30,2.798153084264041,4.511210550522802,7.688255310009899,,,,,,,,,,,,
38011,0,USNorthDakotaBowman,North Dakota,Bowman,2022-04-28 09:13:11,2021-10-01,2.798153084264041,4.511210550522802,7.688255310009899,,,,,,,,,,,,
38011,0,USNorthDakotaBowman,North Dakota,Bowman,2022-04-28 09:13:11,2021-10-02,2.798153084264041,4.511210550522802,7.688255310009899,,,,,,,,,,,,
38011,0,USNorthDakotaBowman,North Dakota,Bowman,2022-04-28 09:13:11,2021-10-03,2.798153084264041,4.511210550522802,7.688255310009899,,,,,,,,,,,,
38011,0,USNorthDakotaBowman,North Dakota,Bowman,2022-04-28 09:13:11,2021-10-04,2.798153084264041,4.511210550522802,7.688255310009899,,,,,,,,,,,,
38011,0,USNorthDakotaBowman,North Dakota,Bowman,2022-04-28 09:13:11,2021-10-05,2.798153084264041,4.511210550522802,7.688255310009899,,,,,,,,,,,,
38011,0,USNorthDakotaBowman,North Dakota,Bowman,2022-04-28 09:13:11,2021-10-06,2.798153084264041,4.511210550522802,7.688255310009899,,,,,,,,,,,,
38011,0,USNorthDakotaBowman,North Dakota,Bowman,2022-04-28 09:13:11,2021-10-07,3.059553262697866,4.648243722836873,7.419866804168889,,,,,,,,,,,,
38011,0,USNorthDakotaBowman,North Dakota,Bowman,2022-04-28 09:13:11,2021-10-08,3.059553262697866,4.648243722836873,7.419866804168889,,,,,,,,,,,,
38011,0,USNorthDakotaBowman,North Dakota,Bowman,2022-04-28 09:13:11,2021-10-09,3.059553262697866,4.648243722836873,7.419866804168889,,,,,,,,,,,,
38011,0,USNorthDakotaBowman,North Dakota,Bowman,2022-04-28 09:13:11,2021-10-10,3.059553262697866,4.648243722836873,7.419866804168889,,,,,,,,,,,,
38011,0,USNorthDakotaBowman,North Dakota,Bowman,2022-04-28 09:13:11,2021-10-11,3.059553262697866,4.648243722836873,7.419866804168889,,,,,,,,,,,,
38011,0,USNorthDakotaBowman,North Dakota,Bowman,2022-04-28 09:13:11,2021-10-12,3.059553262697866,4.648243722836873,7.419866804168889,,,,,,,,,,,,
38011,0,USNorthDakotaBowman,North Dakota,Bowman,2022-04-28 09:13:11,2021-10-13,3.059553262697866,4.648243722836873,7.419866804168889,,,,,,,,,,,,
38011,0,USNorthDakotaBowman,North Dakota,Bowman,2022-04-28 09:13:11,2021-10-14,2.9431289973144246,4.4614562697528655,7.104179656403485,,,,,,,,,,,,
38011,0,USNorthDakotaBowman,North Dakota,Bowman,2022-04-28 09:13:11,2021-10-15,2.9431289973144246,4.4614562697528655,7.104179656403485,,,,,,,,,,,,
38011,0,USNorthDakotaBowman,North Dakota,Bowman,2022-04-28 09:13:11,2021-10-16,2.9431289973144246,4.4614562697528655,7.104179656403485,,,,,,,,,,,,
38011,0,USNorthDakotaBowman,North Dakota,Bowman,2022-04-28 09:13:11,2021-10-17,2.9431289973144246,4.4614562697528655,7.104179656403485,,,,,,,,,,,,
38011,0,USNorthDakotaBowman,North Dakota,Bowman,2022-04-28 09:13:11,2021-10-18,2.9431289973144246,4.4614562697528655,7.104179656403485,,,,,,,,,,,,
38011,0,USNorthDakotaBowman,North Dakota,Bowman,2022-04-28 09:13:11,2021-10-19,2.9431289973144246,4.4614562697528655,7.104179656403485,,,,,,,,,,,,
38011,0,USNorthDakotaBowman,North Dakota,Bowman,2022-04-28 09:13:11,2021-10-20,2.9431289973144246,4.4614562697528655,7.104179656403485,,,,,,,,,,,,
38011,0,USNorthDakotaBowman,North Dakota,Bowman,2022-04-28 09:13:11,2021-10-21,3.295231929799647,5.0302203881676135,8.072184446474266,,,,,,,,,,,,
38011,0,USNorthDakotaBowman,North Dakota,Bowman,2022-04-28 09:13:11,2021-10-22,3.295231929799647,5.0302203881676135,8.072184446474266,,,,,,,,,,,,
38011,0,USNorthDakotaBowman,North Dakota,Bowman,2022-04-28 09:13:11,2021-10-23,3.295231929799647,5.0302203881676135,8.072184446474266,,,,,,,,,,,,
38011,0,USNorthDakotaBowman,North Dakota,Bowman,2022-04-28 09:13:11,2021-10-24,3.295231929799647,5.0302203881676135,8.072184446474266,,,,,,,,,,,,
38011,0,USNorthDakotaBowman,North Dakota,Bowman,2022-04-28 09:13:11,2021-10-25,3.295231929799647,5.0302203881676135,8.072184446474266,,,,,,,,,,,,
38011,0,USNorthDakotaBowman,North Dakota,Bowman,2022-04-28 09:13:11,2021-10-26,3.295231929799647,5.0302203881676135,8.072184446474266,,,,,,,,,,,,
38011,0,USNorthDakotaBowman,North Dakota,Bowman,2022-04-28 09:13:11,2021-10-27,3.295231929799647,5.0302203881676135,8.072184446474266,,,,,,,,,,,,
38011,0,USNorthDakotaBowman,North Dakota,Bowman,2022-04-28 09:13:11,2021-10-28,1.8589156290759012,3.1696030926033782,5.740780645140467,,,,,,,,,,,,
38011,0,USNorthDakotaBowman,North Dakota,Bowman,2022-04-28 09:13:11,2021-10-29,1.8589156290759012,3.1696030926033782,5.740780645140467,,,,,,,,,,,,
38011,0,USNorthDakotaBowman,North Dakota,Bowman,2022-04-28 09:13:11,2021-10-30,1.8589156290759012,3.1696030926033782,5.740780645140467,,,,,,,,,,,,
38011,0,USNorthDakotaBowman,North Dakota,Bowman,2022-04-28 09:13:11,2021-10-31,1.8589156290759012,3.1696030926033782,5.740780645140467,,,,,,,,,,,,
38011,0,USNorthDakotaBowman,North Dakota,Bowman,2022-04-28 09:13:11,2021-11-01,1.8589156290759012,3.1696030926033782,5.740780645140467,,,,,,,,,,,,
38011,0,USNorthDakotaBowman,North Dakota,Bowman,2022-04-28 09:13:11,2021-11-02,1.8589156290759012,3.1696030926033782,5.740780645140467,,,,,,,,,,,,
38011,0,USNorthDakotaBowman,North Dakota,Bowman,2022-04-28 09:13:11,2021-11-03,1.8589156290759012,3.1696030926033782,5.740780645140467,,,,,,,,,,,,
38011,0,USNorthDakotaBowman,North Dakota,Bowman,2022-04-28 09:13:11,2021-11-04,2.1792614363109335,3.6371185970426714,6.436715772575793,,,,,,,,,,,,
38011,0,USNorthDakotaBowman,North Dakota,Bowman,2022-04-28 09:13:11,2021-11-05,2.1792614363109335,3.6371185970426714,6.436715772575793,,,,,,,,,,,,
38011,0,USNorthDakotaBowman,North Dakota,Bowman,2022-04-28 09:13:11,2021-11-06,2.1792614363109335,3.6371185970426714,6.436715772575793,,,,,,,,,,,,
38011,0,USNorthDakotaBowman,North Dakota,Bowman,2022-04-28 09:13:11,2021-11-07,2.1792614363109335,3.6371185970426714,6.436715772575793,,,,,,,,,,,,
38011,0,USNorthDakotaBowman,North Dakota,Bowman,2022-04-28 09:13:11,2021-11-08,2.1792614363109335,3.6371185970426714,6.436715772575793,,,,,,,,,,,,
38011,0,USNorthDakotaBowman,North Dakota,Bowman,2022-04-28 09:13:11,2021-11-09,2.1792614363109335,3.6371185970426714,6.436715772575793,,,,,,,,,,,,
38011,0,USNorthDakotaBowman,North Dakota,Bowman,2022-04-28 09:13:11,2021-11-10,2.1792614363109335,3.6371185970426714,6.436715772575793,,,,,,,,,,,,
38011,0,USNorthDakotaBowman,North Dakota,Bowman,2022-04-28 09:13:11,2021-11-11,0.8301830793003186,1.8464773264899073,4.416311215845316,,,,,,,,,,,,
38011,0,USNorthDakotaBowman,North Dakota,Bowman,2022-04-28 09:13:11,2021-11-12,0.8301830793003186,1.8464773264899073,4.416311215845316,,,,,,,,,,,,
38011,0,USNorthDakotaBowman,North Dakota,Bowman,2022-04-28 09:13:11,2021-11-13,0.8301830793003186,1.8464773264899073,4.416311215845316,,,,,,,,,,,,
38011,0,USNorthDakotaBowman,North Dakota,Bowman,2022-04-28 09:13:11,2021-11-14,0.8301830793003186,1.8464773264899073,4.416311215845316,,,,,,,,,,,,
38011,0,USNorthDakotaBowman,North Dakota,Bowman,2022-04-28 09:13:11,2021-11-15,0.8301830793003186,1.8464773264899073,4.416311215845316,,,,,,,,,,,,
38011,0,USNorthDakotaBowman,North Dakota,Bowman,2022-04-28 09:13:11,2021-11-16,0.8301830793003186,1.8464773264899073,4.416311215845316,,,,,,,,,,,,
38011,0,USNorthDakotaBowman,North Dakota,Bowman,2022-04-28 09:13:11,2021-11-17,0.8301830793003186,1.8464773264899073,4.416311215845316,,,,,,,,,,,,
38011,0,USNorthDakotaBowman,North Dakota,Bowman,2022-04-28 09:13:11,2021-11-18,2.071014824565147,3.4762162051772862,6.190094255370322,,,,,,,,,,,,
38011,0,USNorthDakotaBowman,North Dakota,Bowman,2022-04-28 09:13:11,2021-11-19,2.071014824565147,3.4762162051772862,6.190094255370322,,,,,,,,,,,,
38011,0,USNorthDakotaBowman,North Dakota,Bowman,2022-04-28 09:13:11,2021-11-20,2.071014824565147,3.4762162051772862,6.190094255370322,,,,,,,,,,,,
38011,0,USNorthDakotaBowman,North Dakota,Bowman,2022-04-28 09:13:11,2021-11-21,2.071014824565147,3.4762162051772862,6.190094255370322,,,,,,,,,,,,
38011,0,USNorthDakotaBowman,North Dakota,Bowman,2022-04-28 09:13:11,2021-11-22,2.071014824565147,3.4762162051772862,6.190094255370322,,,,,,,,,,,,
38011,0,USNorthDakotaBowman,North Dakota,Bowman,2022-04-28 09:13:11,2021-11-23,2.071014824565147,3.4762162051772862,6.190094255370322,,,,,,,,,,,,
38011,0,USNorthDakotaBowman,North Dakota,Bowman,2022-04-28 09:13:11,2021-11-24,2.071014824565147,3.4762162051772862,6.190094255370322,,,,,,,,,,,,
38011,0,USNorthDakotaBowman,North Dakota,Bowman,2022-04-28 09:13:11,2021-11-25,1.308984319021061,2.58360160659623,5.464611041227527,,,,,,,,,,,,
38011,0,USNorthDakotaBowman,North Dakota,Bowman,2022-04-28 09:13:11,2021-11-26,1.308984319021061,2.58360160659623,5.464611041227527,,,,,,,,,,,,
38011,0,USNorthDakotaBowman,North Dakota,Bowman,2022-04-28 09:13:11,2021-11-27,1.308984319021061,2.58360160659623,5.464611041227527,,,,,,,,,,,,
38011,0,USNorthDakotaBowman,North Dakota,Bowman,2022-04-28 09:13:11,2021-11-28,1.308984319021061,2.58360160659623,5.464611041227527,,,,,,,,,,,,
38011,0,USNorthDakotaBowman,North Dakota,Bowman,2022-04-28 09:13:11,2021-11-29,1.308984319021061,2.58360160659623,5.464611041227527,,,,,,,,,,,,
38011,0,USNorthDakotaBowman,North Dakota,Bowman,2022-04-28 09:13:11,2021-11-30,1.308984319021061,2.58360160659623,5.464611041227527,,,,,,,,,,,,
38011,0,USNorthDakotaBowman,North Dakota,Bowman,2022-04-28 09:13:11,2021-12-01,1.308984319021061,2.58360160659623,5.464611041227527,,,,,,,,,,,,
38011,0,USNorthDakotaBowman,North Dakota,Bowman,2022-04-28 09:13:11,2021-12-02,1.0415701683566125,2.098764337308502,4.535634002257234,,,,,,,,,,,,
38011,0,USNorthDakotaBowman,North Dakota,Bowman,2022-04-28 09:13:11,2021-12-03,1.0415701683566125,2.098764337308502,4.535634002257234,,,,,,,,,,,,
38011,0,USNorthDakotaBowman,North Dakota,Bowman,2022-04-28 09:13:11,2021-12-04,1.0415701683566125,2.098764337308502,4.535634002257234,,,,,,,,,,,,
38011,0,USNorthDakotaBowman,North Dakota,Bowman,2022-04-28 09:13:11,2021-12-05,1.0415701683566125,2.098764337308502,4.535634002257234,,,,,,,,,,,,
38011,0,USNorthDakotaBowman,North Dakota,Bowman,2022-04-28 09:13:11,2021-12-06,1.0415701683566125,2.098764337308502,4.535634002257234,,,,,,,,,,,,
38011,0,USNorthDakotaBowman,North Dakota,Bowman,2022-04-28 09:13:11,2021-12-07,1.0415701683566125,2.098764337308502,4.535634002257234,,,,,,,,,,,,
38011,0,USNorthDakotaBowman,North Dakota,Bowman,2022-04-28 09:13:11,2021-12-08,1.0415701683566125,2.098764337308502,4.535634002257234,,,,,,,,,,,,
38011,0,USNorthDakotaBowman,North Dakota,Bowman,2022-04-28 09:13:11,2021-12-09,0.522409820490228,1.2123615598569315,3.0271467066883475,,,,,,,,,,,,
38011,0,USNorthDakotaBowman,North Dakota,Bowman,2022-04-28 09:13:11,2021-12-10,0.522409820490228,1.2123615598569315,3.0271467066883475,,,,,,,,,,,,
38011,0,USNorthDakotaBowman,North Dakota,Bowman,2022-04-28 09:13:11,2021-12-11,0.522409820490228,1.2123615598569315,3.0271467066883475,,,,,,,,,,,,
38011,0,USNorthDakotaBowman,North Dakota,Bowman,2022-04-28 09:13:11,2021-12-12,0.522409820490228,1.2123615598569315,3.0271467066883475,,,,,,,,,,,,
38011,0,USNorthDakotaBowman,North Dakota,Bowman,2022-04-28 09:13:11,2021-12-13,0.522409820490228,1.2123615598569315,3.0271467066883475,,,,,,,,,,,,
38011,0,USNorthDakotaBowman,North Dakota,Bowman,2022-04-28 09:13:11,2021-12-14,0.522409820490228,1.2123615598569315,3.0271467066883475,,,,,,,,,,,,
38011,0,USNorthDakotaBowman,North Dakota,Bowman,2022-04-28 09:13:11,2021-12-15,0.522409820490228,1.2123615598569315,3.0271467066883475,,,,,,,,,,,,
38011,0,USNorthDakotaBowman,North Dakota,Bowman,2022-04-28 09:13:11,2021-12-16,0,0,0,,,,,,,,,,,,
38011,0,USNorthDakotaBowman,North Dakota,Bowman,2022-04-28 09:13:11,2021-12-17,0,0,0,,,,,,,,,,,,
38011,0,USNorthDakotaBowman,North Dakota,Bowman,2022-04-28 09:13:11,2021-12-18,0,0,0,,,,,,,,,,,,
38011,0,USNorthDakotaBowman,North Dakota,Bowman,2022-04-28 09:13:11,2021-12-19,0,0,0,,,,,,,,,,,,
38011,0,USNorthDakotaBowman,North Dakota,Bowman,2022-04-28 09:13:11,2021-12-20,0,0,0,,,,,,,,,,,,
38011,0,USNorthDakotaBowman,North Dakota,Bowman,2022-04-28 09:13:11,2021-12-21,0,0,0,,,,,,,,,,,,
38011,0,USNorthDakotaBowman,North Dakota,Bowman,2022-04-28 09:13:11,2021-12-22,0,0,0,,,,,,,,,,,,
38011,0,USNorthDakotaBowman,North Dakota,Bowman,2022-04-28 09:13:11,2021-12-23,0.8917633502747726,1.7950584556976783,3.87516365755544,,,,,,,,,,,,
38011,0,USNorthDakotaBowman,North Dakota,Bowman,2022-04-28 09:13:11,2021-12-24,0.8917633502747726,1.7950584556976783,3.87516365755544,,,,,,,,,,,,
38011,0,USNorthDakotaBowman,North Dakota,Bowman,2022-04-28 09:13:11,2021-12-25,0.8917633502747726,1.7950584556976783,3.87516365755544,,,,,,,,,,,,
38011,0,USNorthDakotaBowman,North Dakota,Bowman,2022-04-28 09:13:11,2021-12-26,0.8917633502747726,1.7950584556976783,3.87516365755544,,,,,,,,,,,,
38011,0,USNorthDakotaBowman,North Dakota,Bowman,2022-04-28 09:13:11,2021-12-27,0.8917633502747726,1.7950584556976783,3.87516365755544,,,,,,,,,,,,
38011,0,USNorthDakotaBowman,North Dakota,Bowman,2022-04-28 09:13:11,2021-12-28,0.8917633502747726,1.7950584556976783,3.87516365755544,,,,,,,,,,,,
38011,0,USNorthDakotaBowman,North Dakota,Bowman,2022-04-28 09:13:11,2021-12-29,0.8917633502747726,1.7950584556976783,3.87516365755544,,,,,,,,,,,,
38011,0,USNorthDakotaBowman,North Dakota,Bowman,2022-04-28 09:13:11,2021-12-30,1.1459477102725262,2.516739723378387,5.942359661271601,,,,,,,,,,,,
38011,0,USNorthDakotaBowman,North Dakota,Bowman,2022-04-28 09:13:11,2021-12-31,1.1459477102725262,2.516739723378387,5.942359661271601,,,,,,,,,,,,
38011,0,USNorthDakotaBowman,North Dakota,Bowman,2022-04-28 09:13:11,2022-01-01,1.1459477102725262,2.516739723378387,5.942359661271601,,,,,,,,,,,,
38011,0,USNorthDakotaBowman,North Dakota,Bowman,2022-04-28 09:13:11,2022-01-02,1.1459477102725262,2.516739723378387,5.942359661271601,,,,,,,,,,,,
38011,0,USNorthDakotaBowman,North Dakota,Bowman,2022-04-28 09:13:11,2022-01-03,1.1459477102725262,2.516739723378387,5.942359661271601,,,,,,,,,,,,
38011,0,USNorthDakotaBowman,North Dakota,Bowman,2022-04-28 09:13:11,2022-01-04,1.1459477102725262,2.516739723378387,5.942359661271601,,,,,,,,,,,,
38011,0,USNorthDakotaBowman,North Dakota,Bowman,2022-04-28 09:13:11,2022-01-05,1.1459477102725262,2.516739723378387,5.942359661271601,,,,,,,,,,,,
38011,0,USNorthDakotaBowman,North Dakota,Bowman,2022-04-28 09:13:11,2022-01-06,1.6516372564483017,3.656248244900284,8.702962993463299,,,,,,,,,,,,
38011,0,USNorthDakotaBowman,North Dakota,Bowman,2022-04-28 09:13:11,2022-01-07,1.6516372564483017,3.656248244900284,8.702962993463299,,,,,,,,,,,,
38011,0,USNorthDakotaBowman,North Dakota,Bowman,2022-04-28 09:13:11,2022-01-08,1.6516372564483017,3.656248244900284,8.702962993463299,,,,,,,,,,,,
38011,0,USNorthDakotaBowman,North Dakota,Bowman,2022-04-28 09:13:11,2022-01-09,1.6516372564483017,3.656248244900284,8.702962993463299,,,,,,,,,,,,
38011,0,USNorthDakotaBowman,North Dakota,Bowman,2022-04-28 09:13:11,2022-01-10,1.6516372564483017,3.656248244900284,8.702962993463299,,,,,,,,,,,,
38011,0,USNorthDakotaBowman,North Dakota,Bowman,2022-04-28 09:13:11,2022-01-11,1.6516372564483017,3.656248244900284,8.702962993463299,,,,,,,,,,,,
38011,0,USNorthDakotaBowman,North Dakota,Bowman,2022-04-28 09:13:11,2022-01-12,1.6516372564483017,3.656248244900284,8.702962993463299,,,,,,,,,,,,
38011,0,USNorthDakotaBowman,North Dakota,Bowman,2022-04-28 09:13:11,2022-01-13,3.97954152845717,7.449300299394665,14.904836033273,,,,,,,,,,,,
38011,0,USNorthDakotaBowman,North Dakota,Bowman,2022-04-28 09:13:11,2022-01-14,3.97954152845717,7.449300299394665,14.904836033273,,,,,,,,,,,,
38011,0,USNorthDakotaBowman,North Dakota,Bowman,2022-04-28 09:13:11,2022-01-15,3.97954152845717,7.449300299394665,14.904836033273,,,,,,,,,,,,
38011,0,USNorthDakotaBowman,North Dakota,Bowman,2022-04-28 09:13:11,2022-01-16,3.97954152845717,7.449300299394665,14.904836033273,,,,,,,,,,,,
38011,0,USNorthDakotaBowman,North Dakota,Bowman,2022-04-28 09:13:11,2022-01-17,3.97954152845717,7.449300299394665,14.904836033273,,,,,,,,,,,,
38011,0,USNorthDakotaBowman,North Dakota,Bowman,2022-04-28 09:13:11,2022-01-18,3.97954152845717,7.449300299394665,14.904836033273,,,,,,,,,,,,
38011,0,USNorthDakotaBowman,North Dakota,Bowman,2022-04-28 09:13:11,2022-01-19,3.97954152845717,7.449300299394665,14.904836033273,,,,,,,,,,,,
38011,0,USNorthDakotaBowman,North Dakota,Bowman,2022-04-28 09:13:11,2022-01-20,4.718722101039773,8.470245249159172,16.210698389017047,,,,,,,,,,,,
38011,0,USNorthDakotaBowman,North Dakota,Bowman,2022-04-28 09:13:11,2022-01-21,4.718722101039773,8.470245249159172,16.210698389017047,,,,,,,,,,,,
38011,0,USNorthDakotaBowman,North Dakota,Bowman,2022-04-28 09:13:11,2022-01-22,4.718722101039773,8.470245249159172,16.210698389017047,,,,,,,,,,,,
38011,0,USNorthDakotaBowman,North Dakota,Bowman,2022-04-28 09:13:11,2022-01-23,4.718722101039773,8.470245249159172,16.210698389017047,,,,,,,,,,,,
38011,0,USNorthDakotaBowman,North Dakota,Bowman,2022-04-28 09:13:11,2022-01-24,4.718722101039773,8.470245249159172,16.210698389017047,,,,,,,,,,,,
38011,0,USNorthDakotaBowman,North Dakota,Bowman,2022-04-28 09:13:11,2022-01-25,4.718722101039773,8.470245249159172,16.210698389017047,,,,,,,,,,,,
38011,0,USNorthDakotaBowman,North Dakota,Bowman,2022-04-28 09:13:11,2022-01-26,4.718722101039773,8.470245249159172,16.210698389017047,,,,,,,,,,,,
38011,0,USNorthDakotaBowman,North Dakota,Bowman,2022-04-28 09:13:11,2022-01-27,4.250709069501717,7.306437887047357,13.348850071186735,,,,,,,,,,,,
38011,0,USNorthDakotaBowman,North Dakota,Bowman,2022-04-28 09:13:11,2022-01-28,4.250709069501717,7.306437887047357,13.348850071186735,,,,,,,,,,,,
38011,0,USNorthDakotaBowman,North Dakota,Bowman,2022-04-28 09:13:11,2022-01-29,4.250709069501717,7.306437887047357,13.348850071186735,,,,,,,,,,,,
38011,0,USNorthDakotaBowman,North Dakota,Bowman,2022-04-28 09:13:11,2022-01-30,4.250709069501717,7.306437887047357,13.348850071186735,,,,,,,,,,,,
38011,0,USNorthDakotaBowman,North Dakota,Bowman,2022-04-28 09:13:11,2022-01-31,4.250709069501717,7.306437887047357,13.348850071186735,,,,,,,,,,,,
38011,0,USNorthDakotaBowman,North Dakota,Bowman,2022-04-28 09:13:11,2022-02-01,4.250709069501717,7.306437887047357,13.348850071186735,,,,,,,,,,,,
38011,0,USNorthDakotaBowman,North Dakota,Bowman,2022-04-28 09:13:11,2022-02-02,4.250709069501717,7.306437887047357,13.348850071186735,,,,,,,,,,,,
38011,0,USNorthDakotaBowman,North Dakota,Bowman,2022-04-28 09:13:11,2022-02-03,2.9065587854893113,5.045517911527781,9.316441463444479,,,,,,,,,,,,
38011,0,USNorthDakotaBowman,North Dakota,Bowman,2022-04-28 09:13:11,2022-02-04,2.9065587854893113,5.045517911527781,9.316441463444479,,,,,,,,,,,,
38011,0,USNorthDakotaBowman,North Dakota,Bowman,2022-04-28 09:13:11,2022-02-05,2.9065587854893113,5.045517911527781,9.316441463444479,,,,,,,,,,,,
38011,0,USNorthDakotaBowman,North Dakota,Bowman,2022-04-28 09:13:11,2022-02-06,2.9065587854893113,5.045517911527781,9.316441463444479,,,,,,,,,,,,
38011,0,USNorthDakotaBowman,North Dakota,Bowman,2022-04-28 09:13:11,2022-02-07,2.9065587854893113,5.045517911527781,9.316441463444479,,,,,,,,,,,,
38011,0,USNorthDakotaBowman,North Dakota,Bowman,2022-04-28 09:13:11,2022-02-08,2.9065587854893113,5.045517911527781,9.316441463444479,,,,,,,,,,,,
38011,0,USNorthDakotaBowman,North Dakota,Bowman,2022-04-28 09:13:11,2022-02-09,2.9065587854893113,5.045517911527781,9.316441463444479,,,,,,,,,,,,
38011,0,USNorthDakotaBowman,North Dakota,Bowman,2022-04-28 09:13:11,2022-02-10,0.9591067830799228,2.0618026796625233,4.762957490083047,,,,,,,,,,,,
38011,0,USNorthDakotaBowman,North Dakota,Bowman,2022-04-28 09:13:11,2022-02-11,0.9591067830799228,2.0618026796625233,4.762957490083047,,,,,,,,,,,,
38011,0,USNorthDakotaBowman,North Dakota,Bowman,2022-04-28 09:13:11,2022-02-12,0.9591067830799228,2.0618026796625233,4.762957490083047,,,,,,,,,,,,
38011,0,USNorthDakotaBowman,North Dakota,Bowman,2022-04-28 09:13:11,2022-02-13,0.9591067830799228,2.0618026796625233,4.762957490083047,,,,,,,,,,,,
38011,0,USNorthDakotaBowman,North Dakota,Bowman,2022-04-28 09:13:11,2022-02-14,0.9591067830799228,2.0618026796625233,4.762957490083047,,,,,,,,,,,,
38011,0,USNorthDakotaBowman,North Dakota,Bowman,2022-04-28 09:13:11,2022-02-15,0.9591067830799228,2.0618026796625233,4.762957490083047,,,,,,,,,,,,
38011,0,USNorthDakotaBowman,North Dakota,Bowman,2022-04-28 09:13:11,2022-02-16,0.9591067830799228,2.0618026796625233,4.762957490083047,,,,,,,,,,,,
38011,0,USNorthDakotaBowman,North Dakota,Bowman,2022-04-28 09:13:11,2022-02-17,0.5229261214134572,1.2146258637032832,3.0354882386255864,,,,,,,,,,,,
38011,0,USNorthDakotaBowman,North Dakota,Bowman,2022-04-28 09:13:11,2022-02-18,0.5229261214134572,1.2146258637032832,3.0354882386255864,,,,,,,,,,,,
38011,0,USNorthDakotaBowman,North Dakota,Bowman,2022-04-28 09:13:11,2022-02-19,0.5229261214134572,1.2146258637032832,3.0354882386255864,,,,,,,,,,,,
38011,0,USNorthDakotaBowman,North Dakota,Bowman,2022-04-28 09:13:11,2022-02-20,0.5229261214134572,1.2146258637032832,3.0354882386255864,,,,,,,,,,,,
38011,0,USNorthDakotaBowman,North Dakota,Bowman,2022-04-28 09:13:11,2022-02-21,0.5229261214134572,1.2146258637032832,3.0354882386255864,,,,,,,,,,,,
38011,0,USNorthDakotaBowman,North Dakota,Bowman,2022-04-28 09:13:11,2022-02-22,0.5229261214134572,1.2146258637032832,3.0354882386255864,,,,,,,,,,,,
38011,0,USNorthDakotaBowman,North Dakota,Bowman,2022-04-28 09:13:11,2022-02-23,0.5229261214134572,1.2146258637032832,3.0354882386255864,,,,,,,,,,,,
38011,0,USNorthDakotaBowman,North Dakota,Bowman,2022-04-28 09:13:11,2022-02-24,0.20939360832193396,0.5712273952862198,1.675575398277365,,,,,,,,,,,,
38011,0,USNorthDakotaBowman,North Dakota,Bowman,2022-04-28 09:13:11,2022-02-25,0.20939360832193396,0.5712273952862198,1.675575398277365,,,,,,,,,,,,
38011,0,USNorthDakotaBowman,North Dakota,Bowman,2022-04-28 09:13:11,2022-02-26,0.20939360832193396,0.5712273952862198,1.675575398277365,,,,,,,,,,,,
38011,0,USNorthDakotaBowman,North Dakota,Bowman,2022-04-28 09:13:11,2022-02-27,0.20939360832193396,0.5712273952862198,1.675575398277365,,,,,,,,,,,,
38011,0,USNorthDakotaBowman,North Dakota,Bowman,2022-04-28 09:13:11,2022-02-28,0.20939360832193396,0.5712273952862198,1.675575398277365,,,,,,,,,,,,
38011,0,USNorthDakotaBowman,North Dakota,Bowman,2022-04-28 09:13:11,2022-03-01,0.20939360832193396,0.5712273952862198,1.675575398277365,,,,,,,,,,,,
38011,0,USNorthDakotaBowman,North Dakota,Bowman,2022-04-28 09:13:11,2022-03-02,0.20939360832193396,0.5712273952862198,1.675575398277365,,,,,,,,,,,,
38011,0,USNorthDakotaBowman,North Dakota,Bowman,2022-04-28 09:13:11,2022-03-03,0,0,0,,,,,,,,,,,,
38011,0,USNorthDakotaBowman,North Dakota,Bowman,2022-04-28 09:13:11,2022-03-04,0,0,0,,,,,,,,,,,,
38011,0,USNorthDakotaBowman,North Dakota,Bowman,2022-04-28 09:13:11,2022-03-05,0,0,0,,,,,,,,,,,,
38011,0,USNorthDakotaBowman,North Dakota,Bowman,2022-04-28 09:13:11,2022-03-06,0,0,0,,,,,,,,,,,,
38011,0,USNorthDakotaBowman,North Dakota,Bowman,2022-04-28 09:13:11,2022-03-07,0,0,0,,,,,,,,,,,,
38011,0,USNorthDakotaBowman,North Dakota,Bowman,2022-04-28 09:13:11,2022-03-08,0,0,0,,,,,,,,,,,,
38011,0,USNorthDakotaBowman,North Dakota,Bowman,2022-04-28 09:13:11,2022-03-09,0,0,0,,,,,,,,,,,,
38011,0,USNorthDakotaBowman,North Dakota,Bowman,2022-04-28 09:13:11,2022-03-10,0.18161666319246808,0.4374881596810475,1.1340944728549467,,,,,,,,,,,,
38011,0,USNorthDakotaBowman,North Dakota,Bowman,2022-04-28 09:13:11,2022-03-11,0.18161666319246808,0.4374881596810475,1.1340944728549467,,,,,,,,,,,,
38011,0,USNorthDakotaBowman,North Dakota,Bowman,2022-04-28 09:13:11,2022-03-12,0.18161666319246808,0.4374881596810475,1.1340944728549467,,,,,,,,,,,,
38011,0,USNorthDakotaBowman,North Dakota,Bowman,2022-04-28 09:13:11,2022-03-13,0.18161666319246808,0.4374881596810475,1.1340944728549467,,,,,,,,,,,,
38011,0,USNorthDakotaBowman,North Dakota,Bowman,2022-04-28 09:13:11,2022-03-14,0.18161666319246808,0.4374881596810475,1.1340944728549467,,,,,,,,,,,,
38011,0,USNorthDakotaBowman,North Dakota,Bowman,2022-04-28 09:13:11,2022-03-15,0.18161666319246808,0.4374881596810475,1.1340944728549467,,,,,,,,,,,,
38011,0,USNorthDakotaBowman,North Dakota,Bowman,2022-04-28 09:13:11,2022-03-16,0.18161666319246808,0.4374881596810475,1.1340944728549467,,,,,,,,,,,,
