0 Divergences
Passed validation
2022-04-22 date of last case count
2022-04-01 date of last test positivity data
covid_prevalence version: WGM 0.1.7 2022-04-13

Data provenance: R = region/public health unit, P = province/state
week_start case_data_origin positivity_data_origin
2020-03-19         P                   P
2020-03-26         P                   P
2020-04-02         P                   P
2020-04-09         P                   P
2020-04-16         P                   P
2020-04-23         P                   P
2020-04-30         P                   P
2020-05-07         P                   P
2020-05-14         P                   P
2020-05-21         P                   P
2020-05-28         P                   P
2020-06-04         P                   P
2020-06-11         P                   P
2020-06-18         P                   P
2020-06-25         P                   P
2020-07-02         P                   P
2020-07-09         P                   P
2020-07-16         P                   P
2020-07-23         P                   P
2020-07-30         P                   P
2020-08-06         P                   P
2020-08-13         P                   P
2020-08-20         P                   P
2020-08-27         P                   P
2020-09-03         P                   P
2020-09-10         P                   P
2020-09-17         P                   P
2020-09-24         P                   P
2020-10-01         P                   P
2020-10-08         P                   P
2020-10-15         P                   P
2020-10-22         P                   P
2020-10-29         P                   P
2020-11-05         P                   P
2020-11-12         P                   P
2020-11-19         P                   P
2020-11-26         P                   P
2020-12-03         P                   P
2020-12-10         P                   P
2020-12-17         P                   P
2020-12-24         P                   P
2020-12-31         P                   P
2021-01-07         P                   P
2021-01-14         P                   P
2021-01-21         P                   P
2021-01-28         P                   P
2021-02-04         P                   P
2021-02-11         P                   P
2021-02-18         P                   P
2021-02-25         P                   P
2021-03-04         P                   P
2021-03-11         P                   P
2021-03-18         P                   P
2021-03-25         P                   P
2021-04-01         P                   P
2021-04-08         P                   P
2021-04-15         P                   P
2021-04-22         P                   P
2021-04-29         P                   P
2021-05-06         P                   P
2021-05-13         P                   P
2021-05-20         P                   P
2021-05-27         P                   P
2021-06-03         P                   P
2021-06-10         P                   P
2021-06-17         P                   P
2021-06-24         P                   P
2021-07-01         P                   P
2021-07-08         P                   P
2021-07-15         P                   P
2021-07-22         P                   P
2021-07-29         P                   P
2021-08-05         P                   P
2021-08-12         P                   P
2021-08-19         P                   P
2021-08-26         P                   P
2021-09-02         P                   P
2021-09-09         P                   P
2021-09-16         P                   P
2021-09-23         P                   P
2021-09-30         P                   P
2021-10-07         P                   P
2021-10-14         P                   P
2021-10-21         P                   P
2021-10-28         P                   P
2021-11-04         P                   P
2021-11-11         P                   P
2021-11-18         P                   P
2021-11-25         P                   P
2021-12-02         P                   P
2021-12-09         P                   P
2021-12-16         P                   P
2021-12-23         P                   P
2021-12-30         P                   P
2022-01-06         P                   P
2022-01-13         P                   P
2022-01-20         P                   P
2022-01-27         P                   P
2022-02-03         P                   P
2022-02-10         P                   P
2022-02-17         P                   P
2022-02-24         P                   P
2022-03-03         P                   P
2022-03-10         P                   P
2022-03-17         P                   P
2022-03-24         P                   P
2022-03-31         P                   P
