FIPS,HR_UID,nameid,province,region,analysisTime,dates,pointprevalence_025,pointprevalence_50,pointprevalence_975,pointinfections_025,pointinfections_50,pointinfections_975,pointinfectious_025,pointinfectious_50,pointinfectious_975,pointinfectiousprevalence_025,pointinfectiousprevalence_50,pointinfectiousprevalence_975,infectrate_025,infectrate_50,infectrate_975
19067,0,USIowaFloyd,Iowa,Floyd,2022-04-28 09:13:11,2020-03-19,0,0,0,,,,,,,,,,,,
19067,0,USIowaFloyd,Iowa,Floyd,2022-04-28 09:13:11,2020-03-20,0,0,0,,,,,,,,,,,,
19067,0,USIowaFloyd,Iowa,Floyd,2022-04-28 09:13:11,2020-03-21,0,0,0,,,,,,,,,,,,
19067,0,USIowaFloyd,Iowa,Floyd,2022-04-28 09:13:11,2020-03-22,0,0,0,,,,,,,,,,,,
19067,0,USIowaFloyd,Iowa,Floyd,2022-04-28 09:13:11,2020-03-23,0,0,0,,,,,,,,,,,,
19067,0,USIowaFloyd,Iowa,Floyd,2022-04-28 09:13:11,2020-03-24,0,0,0,,,,,,,,,,,,
19067,0,USIowaFloyd,Iowa,Floyd,2022-04-28 09:13:11,2020-03-25,0,0,0,,,,,,,,,,,,
19067,0,USIowaFloyd,Iowa,Floyd,2022-04-28 09:13:11,2020-03-26,0,0,0,,,,,,,,,,,,
19067,0,USIowaFloyd,Iowa,Floyd,2022-04-28 09:13:11,2020-03-27,0,0,0,,,,,,,,,,,,
19067,0,USIowaFloyd,Iowa,Floyd,2022-04-28 09:13:11,2020-03-28,0,0,0,,,,,,,,,,,,
19067,0,USIowaFloyd,Iowa,Floyd,2022-04-28 09:13:11,2020-03-29,0,0,0,,,,,,,,,,,,
19067,0,USIowaFloyd,Iowa,Floyd,2022-04-28 09:13:11,2020-03-30,0,0,0,,,,,,,,,,,,
19067,0,USIowaFloyd,Iowa,Floyd,2022-04-28 09:13:11,2020-03-31,0,0,0,,,,,,,,,,,,
19067,0,USIowaFloyd,Iowa,Floyd,2022-04-28 09:13:11,2020-04-01,0,0,0,,,,,,,,,,,,
19067,0,USIowaFloyd,Iowa,Floyd,2022-04-28 09:13:11,2020-04-02,0,0,0,,,,,,,,,,,,
19067,0,USIowaFloyd,Iowa,Floyd,2022-04-28 09:13:11,2020-04-03,0,0,0,,,,,,,,,,,,
19067,0,USIowaFloyd,Iowa,Floyd,2022-04-28 09:13:11,2020-04-04,0,0,0,,,,,,,,,,,,
19067,0,USIowaFloyd,Iowa,Floyd,2022-04-28 09:13:11,2020-04-05,0,0,0,,,,,,,,,,,,
19067,0,USIowaFloyd,Iowa,Floyd,2022-04-28 09:13:11,2020-04-06,0,0,0,,,,,,,,,,,,
19067,0,USIowaFloyd,Iowa,Floyd,2022-04-28 09:13:11,2020-04-07,0,0,0,,,,,,,,,,,,
19067,0,USIowaFloyd,Iowa,Floyd,2022-04-28 09:13:11,2020-04-08,0,0,0,,,,,,,,,,,,
19067,0,USIowaFloyd,Iowa,Floyd,2022-04-28 09:13:11,2020-04-09,0,0,0,,,,,,,,,,,,
19067,0,USIowaFloyd,Iowa,Floyd,2022-04-28 09:13:11,2020-04-10,0,0,0,,,,,,,,,,,,
19067,0,USIowaFloyd,Iowa,Floyd,2022-04-28 09:13:11,2020-04-11,0,0,0,,,,,,,,,,,,
19067,0,USIowaFloyd,Iowa,Floyd,2022-04-28 09:13:11,2020-04-12,0,0,0,,,,,,,,,,,,
19067,0,USIowaFloyd,Iowa,Floyd,2022-04-28 09:13:11,2020-04-13,0,0,0,,,,,,,,,,,,
19067,0,USIowaFloyd,Iowa,Floyd,2022-04-28 09:13:11,2020-04-14,0,0,0,,,,,,,,,,,,
19067,0,USIowaFloyd,Iowa,Floyd,2022-04-28 09:13:11,2020-04-15,0,0,0,,,,,,,,,,,,
19067,0,USIowaFloyd,Iowa,Floyd,2022-04-28 09:13:11,2020-04-16,0,0,0,,,,,,,,,,,,
19067,0,USIowaFloyd,Iowa,Floyd,2022-04-28 09:13:11,2020-04-17,0,0,0,,,,,,,,,,,,
19067,0,USIowaFloyd,Iowa,Floyd,2022-04-28 09:13:11,2020-04-18,0,0,0,,,,,,,,,,,,
19067,0,USIowaFloyd,Iowa,Floyd,2022-04-28 09:13:11,2020-04-19,0,0,0,,,,,,,,,,,,
19067,0,USIowaFloyd,Iowa,Floyd,2022-04-28 09:13:11,2020-04-20,0,0,0,,,,,,,,,,,,
19067,0,USIowaFloyd,Iowa,Floyd,2022-04-28 09:13:11,2020-04-21,0,0,0,,,,,,,,,,,,
19067,0,USIowaFloyd,Iowa,Floyd,2022-04-28 09:13:11,2020-04-22,0,0,0,,,,,,,,,,,,
19067,0,USIowaFloyd,Iowa,Floyd,2022-04-28 09:13:11,2020-04-23,0,0,0,,,,,,,,,,,,
19067,0,USIowaFloyd,Iowa,Floyd,2022-04-28 09:13:11,2020-04-24,0,0,0,,,,,,,,,,,,
19067,0,USIowaFloyd,Iowa,Floyd,2022-04-28 09:13:11,2020-04-25,0,0,0,,,,,,,,,,,,
19067,0,USIowaFloyd,Iowa,Floyd,2022-04-28 09:13:11,2020-04-26,0,0,0,,,,,,,,,,,,
19067,0,USIowaFloyd,Iowa,Floyd,2022-04-28 09:13:11,2020-04-27,0,0,0,,,,,,,,,,,,
19067,0,USIowaFloyd,Iowa,Floyd,2022-04-28 09:13:11,2020-04-28,0,0,0,,,,,,,,,,,,
19067,0,USIowaFloyd,Iowa,Floyd,2022-04-28 09:13:11,2020-04-29,0,0,0,,,,,,,,,,,,
19067,0,USIowaFloyd,Iowa,Floyd,2022-04-28 09:13:11,2020-04-30,0.1220427689331163,0.46944106111045053,1.9214452518872265,,,,,,,,,,,,
19067,0,USIowaFloyd,Iowa,Floyd,2022-04-28 09:13:11,2020-05-01,0.1220427689331163,0.46944106111045053,1.9214452518872265,,,,,,,,,,,,
19067,0,USIowaFloyd,Iowa,Floyd,2022-04-28 09:13:11,2020-05-02,0.1220427689331163,0.46944106111045053,1.9214452518872265,,,,,,,,,,,,
19067,0,USIowaFloyd,Iowa,Floyd,2022-04-28 09:13:11,2020-05-03,0.1220427689331163,0.46944106111045053,1.9214452518872265,,,,,,,,,,,,
19067,0,USIowaFloyd,Iowa,Floyd,2022-04-28 09:13:11,2020-05-04,0.1220427689331163,0.46944106111045053,1.9214452518872265,,,,,,,,,,,,
19067,0,USIowaFloyd,Iowa,Floyd,2022-04-28 09:13:11,2020-05-05,0.1220427689331163,0.46944106111045053,1.9214452518872265,,,,,,,,,,,,
19067,0,USIowaFloyd,Iowa,Floyd,2022-04-28 09:13:11,2020-05-06,0.1220427689331163,0.46944106111045053,1.9214452518872265,,,,,,,,,,,,
19067,0,USIowaFloyd,Iowa,Floyd,2022-04-28 09:13:11,2020-05-07,0.28891178959743746,0.8014478971739255,2.3898881093804825,,,,,,,,,,,,
19067,0,USIowaFloyd,Iowa,Floyd,2022-04-28 09:13:11,2020-05-08,0.28891178959743746,0.8014478971739255,2.3898881093804825,,,,,,,,,,,,
19067,0,USIowaFloyd,Iowa,Floyd,2022-04-28 09:13:11,2020-05-09,0.28891178959743746,0.8014478971739255,2.3898881093804825,,,,,,,,,,,,
19067,0,USIowaFloyd,Iowa,Floyd,2022-04-28 09:13:11,2020-05-10,0.28891178959743746,0.8014478971739255,2.3898881093804825,,,,,,,,,,,,
19067,0,USIowaFloyd,Iowa,Floyd,2022-04-28 09:13:11,2020-05-11,0.28891178959743746,0.8014478971739255,2.3898881093804825,,,,,,,,,,,,
19067,0,USIowaFloyd,Iowa,Floyd,2022-04-28 09:13:11,2020-05-12,0.28891178959743746,0.8014478971739255,2.3898881093804825,,,,,,,,,,,,
19067,0,USIowaFloyd,Iowa,Floyd,2022-04-28 09:13:11,2020-05-13,0.28891178959743746,0.8014478971739255,2.3898881093804825,,,,,,,,,,,,
19067,0,USIowaFloyd,Iowa,Floyd,2022-04-28 09:13:11,2020-05-14,0.10506665217845557,0.3574204583726212,1.299870218955039,,,,,,,,,,,,
19067,0,USIowaFloyd,Iowa,Floyd,2022-04-28 09:13:11,2020-05-15,0.10506665217845557,0.3574204583726212,1.299870218955039,,,,,,,,,,,,
19067,0,USIowaFloyd,Iowa,Floyd,2022-04-28 09:13:11,2020-05-16,0.10506665217845557,0.3574204583726212,1.299870218955039,,,,,,,,,,,,
19067,0,USIowaFloyd,Iowa,Floyd,2022-04-28 09:13:11,2020-05-17,0.10506665217845557,0.3574204583726212,1.299870218955039,,,,,,,,,,,,
19067,0,USIowaFloyd,Iowa,Floyd,2022-04-28 09:13:11,2020-05-18,0.10506665217845557,0.3574204583726212,1.299870218955039,,,,,,,,,,,,
19067,0,USIowaFloyd,Iowa,Floyd,2022-04-28 09:13:11,2020-05-19,0.10506665217845557,0.3574204583726212,1.299870218955039,,,,,,,,,,,,
19067,0,USIowaFloyd,Iowa,Floyd,2022-04-28 09:13:11,2020-05-20,0.10506665217845557,0.3574204583726212,1.299870218955039,,,,,,,,,,,,
19067,0,USIowaFloyd,Iowa,Floyd,2022-04-28 09:13:11,2020-05-21,0.26834318065189805,0.6982170781052933,1.9545591635454478,,,,,,,,,,,,
19067,0,USIowaFloyd,Iowa,Floyd,2022-04-28 09:13:11,2020-05-22,0.26834318065189805,0.6982170781052933,1.9545591635454478,,,,,,,,,,,,
19067,0,USIowaFloyd,Iowa,Floyd,2022-04-28 09:13:11,2020-05-23,0.26834318065189805,0.6982170781052933,1.9545591635454478,,,,,,,,,,,,
19067,0,USIowaFloyd,Iowa,Floyd,2022-04-28 09:13:11,2020-05-24,0.26834318065189805,0.6982170781052933,1.9545591635454478,,,,,,,,,,,,
19067,0,USIowaFloyd,Iowa,Floyd,2022-04-28 09:13:11,2020-05-25,0.26834318065189805,0.6982170781052933,1.9545591635454478,,,,,,,,,,,,
19067,0,USIowaFloyd,Iowa,Floyd,2022-04-28 09:13:11,2020-05-26,0.26834318065189805,0.6982170781052933,1.9545591635454478,,,,,,,,,,,,
19067,0,USIowaFloyd,Iowa,Floyd,2022-04-28 09:13:11,2020-05-27,0.26834318065189805,0.6982170781052933,1.9545591635454478,,,,,,,,,,,,
19067,0,USIowaFloyd,Iowa,Floyd,2022-04-28 09:13:11,2020-05-28,0.05812836329113598,0.21492537901460582,0.8469355499171044,,,,,,,,,,,,
19067,0,USIowaFloyd,Iowa,Floyd,2022-04-28 09:13:11,2020-05-29,0.05812836329113598,0.21492537901460582,0.8469355499171044,,,,,,,,,,,,
19067,0,USIowaFloyd,Iowa,Floyd,2022-04-28 09:13:11,2020-05-30,0.05812836329113598,0.21492537901460582,0.8469355499171044,,,,,,,,,,,,
19067,0,USIowaFloyd,Iowa,Floyd,2022-04-28 09:13:11,2020-05-31,0.05812836329113598,0.21492537901460582,0.8469355499171044,,,,,,,,,,,,
19067,0,USIowaFloyd,Iowa,Floyd,2022-04-28 09:13:11,2020-06-01,0.05812836329113598,0.21492537901460582,0.8469355499171044,,,,,,,,,,,,
19067,0,USIowaFloyd,Iowa,Floyd,2022-04-28 09:13:11,2020-06-02,0.05812836329113598,0.21492537901460582,0.8469355499171044,,,,,,,,,,,,
19067,0,USIowaFloyd,Iowa,Floyd,2022-04-28 09:13:11,2020-06-03,0.05812836329113598,0.21492537901460582,0.8469355499171044,,,,,,,,,,,,
19067,0,USIowaFloyd,Iowa,Floyd,2022-04-28 09:13:11,2020-06-04,0,0,0,,,,,,,,,,,,
19067,0,USIowaFloyd,Iowa,Floyd,2022-04-28 09:13:11,2020-06-05,0,0,0,,,,,,,,,,,,
19067,0,USIowaFloyd,Iowa,Floyd,2022-04-28 09:13:11,2020-06-06,0,0,0,,,,,,,,,,,,
19067,0,USIowaFloyd,Iowa,Floyd,2022-04-28 09:13:11,2020-06-07,0,0,0,,,,,,,,,,,,
19067,0,USIowaFloyd,Iowa,Floyd,2022-04-28 09:13:11,2020-06-08,0,0,0,,,,,,,,,,,,
19067,0,USIowaFloyd,Iowa,Floyd,2022-04-28 09:13:11,2020-06-09,0,0,0,,,,,,,,,,,,
19067,0,USIowaFloyd,Iowa,Floyd,2022-04-28 09:13:11,2020-06-10,0,0,0,,,,,,,,,,,,
19067,0,USIowaFloyd,Iowa,Floyd,2022-04-28 09:13:11,2020-06-11,0.12621306204336633,0.35593600272310877,1.07870474670174,,,,,,,,,,,,
19067,0,USIowaFloyd,Iowa,Floyd,2022-04-28 09:13:11,2020-06-12,0.12621306204336633,0.35593600272310877,1.07870474670174,,,,,,,,,,,,
19067,0,USIowaFloyd,Iowa,Floyd,2022-04-28 09:13:11,2020-06-13,0.12621306204336633,0.35593600272310877,1.07870474670174,,,,,,,,,,,,
19067,0,USIowaFloyd,Iowa,Floyd,2022-04-28 09:13:11,2020-06-14,0.12621306204336633,0.35593600272310877,1.07870474670174,,,,,,,,,,,,
19067,0,USIowaFloyd,Iowa,Floyd,2022-04-28 09:13:11,2020-06-15,0.12621306204336633,0.35593600272310877,1.07870474670174,,,,,,,,,,,,
19067,0,USIowaFloyd,Iowa,Floyd,2022-04-28 09:13:11,2020-06-16,0.12621306204336633,0.35593600272310877,1.07870474670174,,,,,,,,,,,,
19067,0,USIowaFloyd,Iowa,Floyd,2022-04-28 09:13:11,2020-06-17,0.12621306204336633,0.35593600272310877,1.07870474670174,,,,,,,,,,,,
19067,0,USIowaFloyd,Iowa,Floyd,2022-04-28 09:13:11,2020-06-18,0.703491749210036,1.2529452790655413,2.3780078617586553,,,,,,,,,,,,
19067,0,USIowaFloyd,Iowa,Floyd,2022-04-28 09:13:11,2020-06-19,0.703491749210036,1.2529452790655413,2.3780078617586553,,,,,,,,,,,,
19067,0,USIowaFloyd,Iowa,Floyd,2022-04-28 09:13:11,2020-06-20,0.703491749210036,1.2529452790655413,2.3780078617586553,,,,,,,,,,,,
19067,0,USIowaFloyd,Iowa,Floyd,2022-04-28 09:13:11,2020-06-21,0.703491749210036,1.2529452790655413,2.3780078617586553,,,,,,,,,,,,
19067,0,USIowaFloyd,Iowa,Floyd,2022-04-28 09:13:11,2020-06-22,0.703491749210036,1.2529452790655413,2.3780078617586553,,,,,,,,,,,,
19067,0,USIowaFloyd,Iowa,Floyd,2022-04-28 09:13:11,2020-06-23,0.703491749210036,1.2529452790655413,2.3780078617586553,,,,,,,,,,,,
19067,0,USIowaFloyd,Iowa,Floyd,2022-04-28 09:13:11,2020-06-24,0.703491749210036,1.2529452790655413,2.3780078617586553,,,,,,,,,,,,
19067,0,USIowaFloyd,Iowa,Floyd,2022-04-28 09:13:11,2020-06-25,0.4640509111726302,0.9420454765315025,2.051611841538133,,,,,,,,,,,,
19067,0,USIowaFloyd,Iowa,Floyd,2022-04-28 09:13:11,2020-06-26,0.4640509111726302,0.9420454765315025,2.051611841538133,,,,,,,,,,,,
19067,0,USIowaFloyd,Iowa,Floyd,2022-04-28 09:13:11,2020-06-27,0.4640509111726302,0.9420454765315025,2.051611841538133,,,,,,,,,,,,
19067,0,USIowaFloyd,Iowa,Floyd,2022-04-28 09:13:11,2020-06-28,0.4640509111726302,0.9420454765315025,2.051611841538133,,,,,,,,,,,,
19067,0,USIowaFloyd,Iowa,Floyd,2022-04-28 09:13:11,2020-06-29,0.4640509111726302,0.9420454765315025,2.051611841538133,,,,,,,,,,,,
19067,0,USIowaFloyd,Iowa,Floyd,2022-04-28 09:13:11,2020-06-30,0.4640509111726302,0.9420454765315025,2.051611841538133,,,,,,,,,,,,
19067,0,USIowaFloyd,Iowa,Floyd,2022-04-28 09:13:11,2020-07-01,0.4640509111726302,0.9420454765315025,2.051611841538133,,,,,,,,,,,,
19067,0,USIowaFloyd,Iowa,Floyd,2022-04-28 09:13:11,2020-07-02,0.339811085371898,0.7951765503949884,2.0021630985864527,,,,,,,,,,,,
19067,0,USIowaFloyd,Iowa,Floyd,2022-04-28 09:13:11,2020-07-03,0.339811085371898,0.7951765503949884,2.0021630985864527,,,,,,,,,,,,
19067,0,USIowaFloyd,Iowa,Floyd,2022-04-28 09:13:11,2020-07-04,0.339811085371898,0.7951765503949884,2.0021630985864527,,,,,,,,,,,,
19067,0,USIowaFloyd,Iowa,Floyd,2022-04-28 09:13:11,2020-07-05,0.339811085371898,0.7951765503949884,2.0021630985864527,,,,,,,,,,,,
19067,0,USIowaFloyd,Iowa,Floyd,2022-04-28 09:13:11,2020-07-06,0.339811085371898,0.7951765503949884,2.0021630985864527,,,,,,,,,,,,
19067,0,USIowaFloyd,Iowa,Floyd,2022-04-28 09:13:11,2020-07-07,0.339811085371898,0.7951765503949884,2.0021630985864527,,,,,,,,,,,,
19067,0,USIowaFloyd,Iowa,Floyd,2022-04-28 09:13:11,2020-07-08,0.339811085371898,0.7951765503949884,2.0021630985864527,,,,,,,,,,,,
19067,0,USIowaFloyd,Iowa,Floyd,2022-04-28 09:13:11,2020-07-09,0.3481151452938745,0.8322278129328068,2.1410332723908945,,,,,,,,,,,,
19067,0,USIowaFloyd,Iowa,Floyd,2022-04-28 09:13:11,2020-07-10,0.3481151452938745,0.8322278129328068,2.1410332723908945,,,,,,,,,,,,
19067,0,USIowaFloyd,Iowa,Floyd,2022-04-28 09:13:11,2020-07-11,0.3481151452938745,0.8322278129328068,2.1410332723908945,,,,,,,,,,,,
19067,0,USIowaFloyd,Iowa,Floyd,2022-04-28 09:13:11,2020-07-12,0.3481151452938745,0.8322278129328068,2.1410332723908945,,,,,,,,,,,,
19067,0,USIowaFloyd,Iowa,Floyd,2022-04-28 09:13:11,2020-07-13,0.3481151452938745,0.8322278129328068,2.1410332723908945,,,,,,,,,,,,
19067,0,USIowaFloyd,Iowa,Floyd,2022-04-28 09:13:11,2020-07-14,0.3481151452938745,0.8322278129328068,2.1410332723908945,,,,,,,,,,,,
19067,0,USIowaFloyd,Iowa,Floyd,2022-04-28 09:13:11,2020-07-15,0.3481151452938745,0.8322278129328068,2.1410332723908945,,,,,,,,,,,,
19067,0,USIowaFloyd,Iowa,Floyd,2022-04-28 09:13:11,2020-07-16,0.3965943634659668,0.9053852186242443,2.2234479556142213,,,,,,,,,,,,
19067,0,USIowaFloyd,Iowa,Floyd,2022-04-28 09:13:11,2020-07-17,0.3965943634659668,0.9053852186242443,2.2234479556142213,,,,,,,,,,,,
19067,0,USIowaFloyd,Iowa,Floyd,2022-04-28 09:13:11,2020-07-18,0.3965943634659668,0.9053852186242443,2.2234479556142213,,,,,,,,,,,,
19067,0,USIowaFloyd,Iowa,Floyd,2022-04-28 09:13:11,2020-07-19,0.3965943634659668,0.9053852186242443,2.2234479556142213,,,,,,,,,,,,
19067,0,USIowaFloyd,Iowa,Floyd,2022-04-28 09:13:11,2020-07-20,0.3965943634659668,0.9053852186242443,2.2234479556142213,,,,,,,,,,,,
19067,0,USIowaFloyd,Iowa,Floyd,2022-04-28 09:13:11,2020-07-21,0.3965943634659668,0.9053852186242443,2.2234479556142213,,,,,,,,,,,,
19067,0,USIowaFloyd,Iowa,Floyd,2022-04-28 09:13:11,2020-07-22,0.3965943634659668,0.9053852186242443,2.2234479556142213,,,,,,,,,,,,
19067,0,USIowaFloyd,Iowa,Floyd,2022-04-28 09:13:11,2020-07-23,0.2687789779093736,0.7003412129366929,1.963255954183885,,,,,,,,,,,,
19067,0,USIowaFloyd,Iowa,Floyd,2022-04-28 09:13:11,2020-07-24,0.2687789779093736,0.7003412129366929,1.963255954183885,,,,,,,,,,,,
19067,0,USIowaFloyd,Iowa,Floyd,2022-04-28 09:13:11,2020-07-25,0.2687789779093736,0.7003412129366929,1.963255954183885,,,,,,,,,,,,
19067,0,USIowaFloyd,Iowa,Floyd,2022-04-28 09:13:11,2020-07-26,0.2687789779093736,0.7003412129366929,1.963255954183885,,,,,,,,,,,,
19067,0,USIowaFloyd,Iowa,Floyd,2022-04-28 09:13:11,2020-07-27,0.2687789779093736,0.7003412129366929,1.963255954183885,,,,,,,,,,,,
19067,0,USIowaFloyd,Iowa,Floyd,2022-04-28 09:13:11,2020-07-28,0.2687789779093736,0.7003412129366929,1.963255954183885,,,,,,,,,,,,
19067,0,USIowaFloyd,Iowa,Floyd,2022-04-28 09:13:11,2020-07-29,0.2687789779093736,0.7003412129366929,1.963255954183885,,,,,,,,,,,,
19067,0,USIowaFloyd,Iowa,Floyd,2022-04-28 09:13:11,2020-07-30,0.8413900333553319,1.6081336394792443,3.2888862414200615,,,,,,,,,,,,
19067,0,USIowaFloyd,Iowa,Floyd,2022-04-28 09:13:11,2020-07-31,0.8413900333553319,1.6081336394792443,3.2888862414200615,,,,,,,,,,,,
19067,0,USIowaFloyd,Iowa,Floyd,2022-04-28 09:13:11,2020-08-01,0.8413900333553319,1.6081336394792443,3.2888862414200615,,,,,,,,,,,,
19067,0,USIowaFloyd,Iowa,Floyd,2022-04-28 09:13:11,2020-08-02,0.8413900333553319,1.6081336394792443,3.2888862414200615,,,,,,,,,,,,
19067,0,USIowaFloyd,Iowa,Floyd,2022-04-28 09:13:11,2020-08-03,0.8413900333553319,1.6081336394792443,3.2888862414200615,,,,,,,,,,,,
19067,0,USIowaFloyd,Iowa,Floyd,2022-04-28 09:13:11,2020-08-04,0.8413900333553319,1.6081336394792443,3.2888862414200615,,,,,,,,,,,,
19067,0,USIowaFloyd,Iowa,Floyd,2022-04-28 09:13:11,2020-08-05,0.8413900333553319,1.6081336394792443,3.2888862414200615,,,,,,,,,,,,
19067,0,USIowaFloyd,Iowa,Floyd,2022-04-28 09:13:11,2020-08-06,0.8392723903382807,1.6004054443377422,3.265195269936542,,,,,,,,,,,,
19067,0,USIowaFloyd,Iowa,Floyd,2022-04-28 09:13:11,2020-08-07,0.8392723903382807,1.6004054443377422,3.265195269936542,,,,,,,,,,,,
19067,0,USIowaFloyd,Iowa,Floyd,2022-04-28 09:13:11,2020-08-08,0.8392723903382807,1.6004054443377422,3.265195269936542,,,,,,,,,,,,
19067,0,USIowaFloyd,Iowa,Floyd,2022-04-28 09:13:11,2020-08-09,0.8392723903382807,1.6004054443377422,3.265195269936542,,,,,,,,,,,,
19067,0,USIowaFloyd,Iowa,Floyd,2022-04-28 09:13:11,2020-08-10,0.8392723903382807,1.6004054443377422,3.265195269936542,,,,,,,,,,,,
19067,0,USIowaFloyd,Iowa,Floyd,2022-04-28 09:13:11,2020-08-11,0.8392723903382807,1.6004054443377422,3.265195269936542,,,,,,,,,,,,
19067,0,USIowaFloyd,Iowa,Floyd,2022-04-28 09:13:11,2020-08-12,0.8392723903382807,1.6004054443377422,3.265195269936542,,,,,,,,,,,,
19067,0,USIowaFloyd,Iowa,Floyd,2022-04-28 09:13:11,2020-08-13,0.6489599154129764,1.3377504069491035,2.9598878675049294,,,,,,,,,,,,
19067,0,USIowaFloyd,Iowa,Floyd,2022-04-28 09:13:11,2020-08-14,0.6489599154129764,1.3377504069491035,2.9598878675049294,,,,,,,,,,,,
19067,0,USIowaFloyd,Iowa,Floyd,2022-04-28 09:13:11,2020-08-15,0.6489599154129764,1.3377504069491035,2.9598878675049294,,,,,,,,,,,,
19067,0,USIowaFloyd,Iowa,Floyd,2022-04-28 09:13:11,2020-08-16,0.6489599154129764,1.3377504069491035,2.9598878675049294,,,,,,,,,,,,
19067,0,USIowaFloyd,Iowa,Floyd,2022-04-28 09:13:11,2020-08-17,0.6489599154129764,1.3377504069491035,2.9598878675049294,,,,,,,,,,,,
19067,0,USIowaFloyd,Iowa,Floyd,2022-04-28 09:13:11,2020-08-18,0.6489599154129764,1.3377504069491035,2.9598878675049294,,,,,,,,,,,,
19067,0,USIowaFloyd,Iowa,Floyd,2022-04-28 09:13:11,2020-08-19,0.6489599154129764,1.3377504069491035,2.9598878675049294,,,,,,,,,,,,
19067,0,USIowaFloyd,Iowa,Floyd,2022-04-28 09:13:11,2020-08-20,0.6438523034412463,1.502942331663895,3.774853246536933,,,,,,,,,,,,
19067,0,USIowaFloyd,Iowa,Floyd,2022-04-28 09:13:11,2020-08-21,0.6438523034412463,1.502942331663895,3.774853246536933,,,,,,,,,,,,
19067,0,USIowaFloyd,Iowa,Floyd,2022-04-28 09:13:11,2020-08-22,0.6438523034412463,1.502942331663895,3.774853246536933,,,,,,,,,,,,
19067,0,USIowaFloyd,Iowa,Floyd,2022-04-28 09:13:11,2020-08-23,0.6438523034412463,1.502942331663895,3.774853246536933,,,,,,,,,,,,
19067,0,USIowaFloyd,Iowa,Floyd,2022-04-28 09:13:11,2020-08-24,0.6438523034412463,1.502942331663895,3.774853246536933,,,,,,,,,,,,
19067,0,USIowaFloyd,Iowa,Floyd,2022-04-28 09:13:11,2020-08-25,0.6438523034412463,1.502942331663895,3.774853246536933,,,,,,,,,,,,
19067,0,USIowaFloyd,Iowa,Floyd,2022-04-28 09:13:11,2020-08-26,0.6438523034412463,1.502942331663895,3.774853246536933,,,,,,,,,,,,
19067,0,USIowaFloyd,Iowa,Floyd,2022-04-28 09:13:11,2020-08-27,0.9155266169354865,2.006195259608952,4.726109116844961,,,,,,,,,,,,
19067,0,USIowaFloyd,Iowa,Floyd,2022-04-28 09:13:11,2020-08-28,0.9155266169354865,2.006195259608952,4.726109116844961,,,,,,,,,,,,
19067,0,USIowaFloyd,Iowa,Floyd,2022-04-28 09:13:11,2020-08-29,0.9155266169354865,2.006195259608952,4.726109116844961,,,,,,,,,,,,
19067,0,USIowaFloyd,Iowa,Floyd,2022-04-28 09:13:11,2020-08-30,0.9155266169354865,2.006195259608952,4.726109116844961,,,,,,,,,,,,
19067,0,USIowaFloyd,Iowa,Floyd,2022-04-28 09:13:11,2020-08-31,0.9155266169354865,2.006195259608952,4.726109116844961,,,,,,,,,,,,
19067,0,USIowaFloyd,Iowa,Floyd,2022-04-28 09:13:11,2020-09-01,0.9155266169354865,2.006195259608952,4.726109116844961,,,,,,,,,,,,
19067,0,USIowaFloyd,Iowa,Floyd,2022-04-28 09:13:11,2020-09-02,0.9155266169354865,2.006195259608952,4.726109116844961,,,,,,,,,,,,
19067,0,USIowaFloyd,Iowa,Floyd,2022-04-28 09:13:11,2020-09-03,0.7868263616124426,1.7194302324679656,4.039194597404353,,,,,,,,,,,,
19067,0,USIowaFloyd,Iowa,Floyd,2022-04-28 09:13:11,2020-09-04,0.7868263616124426,1.7194302324679656,4.039194597404353,,,,,,,,,,,,
19067,0,USIowaFloyd,Iowa,Floyd,2022-04-28 09:13:11,2020-09-05,0.7868263616124426,1.7194302324679656,4.039194597404353,,,,,,,,,,,,
19067,0,USIowaFloyd,Iowa,Floyd,2022-04-28 09:13:11,2020-09-06,0.7868263616124426,1.7194302324679656,4.039194597404353,,,,,,,,,,,,
19067,0,USIowaFloyd,Iowa,Floyd,2022-04-28 09:13:11,2020-09-07,0.7868263616124426,1.7194302324679656,4.039194597404353,,,,,,,,,,,,
19067,0,USIowaFloyd,Iowa,Floyd,2022-04-28 09:13:11,2020-09-08,0.7868263616124426,1.7194302324679656,4.039194597404353,,,,,,,,,,,,
19067,0,USIowaFloyd,Iowa,Floyd,2022-04-28 09:13:11,2020-09-09,0.7868263616124426,1.7194302324679656,4.039194597404353,,,,,,,,,,,,
19067,0,USIowaFloyd,Iowa,Floyd,2022-04-28 09:13:11,2020-09-10,0.9479850049098034,1.9078290681372394,4.117717160000046,,,,,,,,,,,,
19067,0,USIowaFloyd,Iowa,Floyd,2022-04-28 09:13:11,2020-09-11,0.9479850049098034,1.9078290681372394,4.117717160000046,,,,,,,,,,,,
19067,0,USIowaFloyd,Iowa,Floyd,2022-04-28 09:13:11,2020-09-12,0.9479850049098034,1.9078290681372394,4.117717160000046,,,,,,,,,,,,
19067,0,USIowaFloyd,Iowa,Floyd,2022-04-28 09:13:11,2020-09-13,0.9479850049098034,1.9078290681372394,4.117717160000046,,,,,,,,,,,,
19067,0,USIowaFloyd,Iowa,Floyd,2022-04-28 09:13:11,2020-09-14,0.9479850049098034,1.9078290681372394,4.117717160000046,,,,,,,,,,,,
19067,0,USIowaFloyd,Iowa,Floyd,2022-04-28 09:13:11,2020-09-15,0.9479850049098034,1.9078290681372394,4.117717160000046,,,,,,,,,,,,
19067,0,USIowaFloyd,Iowa,Floyd,2022-04-28 09:13:11,2020-09-16,0.9479850049098034,1.9078290681372394,4.117717160000046,,,,,,,,,,,,
19067,0,USIowaFloyd,Iowa,Floyd,2022-04-28 09:13:11,2020-09-17,0.9825791164103849,2.0426410694311636,4.559051834674962,,,,,,,,,,,,
19067,0,USIowaFloyd,Iowa,Floyd,2022-04-28 09:13:11,2020-09-18,0.9825791164103849,2.0426410694311636,4.559051834674962,,,,,,,,,,,,
19067,0,USIowaFloyd,Iowa,Floyd,2022-04-28 09:13:11,2020-09-19,0.9825791164103849,2.0426410694311636,4.559051834674962,,,,,,,,,,,,
19067,0,USIowaFloyd,Iowa,Floyd,2022-04-28 09:13:11,2020-09-20,0.9825791164103849,2.0426410694311636,4.559051834674962,,,,,,,,,,,,
19067,0,USIowaFloyd,Iowa,Floyd,2022-04-28 09:13:11,2020-09-21,0.9825791164103849,2.0426410694311636,4.559051834674962,,,,,,,,,,,,
19067,0,USIowaFloyd,Iowa,Floyd,2022-04-28 09:13:11,2020-09-22,0.9825791164103849,2.0426410694311636,4.559051834674962,,,,,,,,,,,,
19067,0,USIowaFloyd,Iowa,Floyd,2022-04-28 09:13:11,2020-09-23,0.9825791164103849,2.0426410694311636,4.559051834674962,,,,,,,,,,,,
19067,0,USIowaFloyd,Iowa,Floyd,2022-04-28 09:13:11,2020-09-24,1.3120485669092545,2.572743984296762,5.404605334716851,,,,,,,,,,,,
19067,0,USIowaFloyd,Iowa,Floyd,2022-04-28 09:13:11,2020-09-25,1.3120485669092545,2.572743984296762,5.404605334716851,,,,,,,,,,,,
19067,0,USIowaFloyd,Iowa,Floyd,2022-04-28 09:13:11,2020-09-26,1.3120485669092545,2.572743984296762,5.404605334716851,,,,,,,,,,,,
19067,0,USIowaFloyd,Iowa,Floyd,2022-04-28 09:13:11,2020-09-27,1.3120485669092545,2.572743984296762,5.404605334716851,,,,,,,,,,,,
19067,0,USIowaFloyd,Iowa,Floyd,2022-04-28 09:13:11,2020-09-28,1.3120485669092545,2.572743984296762,5.404605334716851,,,,,,,,,,,,
19067,0,USIowaFloyd,Iowa,Floyd,2022-04-28 09:13:11,2020-09-29,1.3120485669092545,2.572743984296762,5.404605334716851,,,,,,,,,,,,
19067,0,USIowaFloyd,Iowa,Floyd,2022-04-28 09:13:11,2020-09-30,1.3120485669092545,2.572743984296762,5.404605334716851,,,,,,,,,,,,
19067,0,USIowaFloyd,Iowa,Floyd,2022-04-28 09:13:11,2020-10-01,0.8074699363198974,1.8059476552282139,4.343786537477504,,,,,,,,,,,,
19067,0,USIowaFloyd,Iowa,Floyd,2022-04-28 09:13:11,2020-10-02,0.8074699363198974,1.8059476552282139,4.343786537477504,,,,,,,,,,,,
19067,0,USIowaFloyd,Iowa,Floyd,2022-04-28 09:13:11,2020-10-03,0.8074699363198974,1.8059476552282139,4.343786537477504,,,,,,,,,,,,
19067,0,USIowaFloyd,Iowa,Floyd,2022-04-28 09:13:11,2020-10-04,0.8074699363198974,1.8059476552282139,4.343786537477504,,,,,,,,,,,,
19067,0,USIowaFloyd,Iowa,Floyd,2022-04-28 09:13:11,2020-10-05,0.8074699363198974,1.8059476552282139,4.343786537477504,,,,,,,,,,,,
19067,0,USIowaFloyd,Iowa,Floyd,2022-04-28 09:13:11,2020-10-06,0.8074699363198974,1.8059476552282139,4.343786537477504,,,,,,,,,,,,
19067,0,USIowaFloyd,Iowa,Floyd,2022-04-28 09:13:11,2020-10-07,0.8074699363198974,1.8059476552282139,4.343786537477504,,,,,,,,,,,,
19067,0,USIowaFloyd,Iowa,Floyd,2022-04-28 09:13:11,2020-10-08,0.6523965686289243,1.6161550529104476,4.3085433226697525,,,,,,,,,,,,
19067,0,USIowaFloyd,Iowa,Floyd,2022-04-28 09:13:11,2020-10-09,0.6523965686289243,1.6161550529104476,4.3085433226697525,,,,,,,,,,,,
19067,0,USIowaFloyd,Iowa,Floyd,2022-04-28 09:13:11,2020-10-10,0.6523965686289243,1.6161550529104476,4.3085433226697525,,,,,,,,,,,,
19067,0,USIowaFloyd,Iowa,Floyd,2022-04-28 09:13:11,2020-10-11,0.6523965686289243,1.6161550529104476,4.3085433226697525,,,,,,,,,,,,
19067,0,USIowaFloyd,Iowa,Floyd,2022-04-28 09:13:11,2020-10-12,0.6523965686289243,1.6161550529104476,4.3085433226697525,,,,,,,,,,,,
19067,0,USIowaFloyd,Iowa,Floyd,2022-04-28 09:13:11,2020-10-13,0.6523965686289243,1.6161550529104476,4.3085433226697525,,,,,,,,,,,,
19067,0,USIowaFloyd,Iowa,Floyd,2022-04-28 09:13:11,2020-10-14,0.6523965686289243,1.6161550529104476,4.3085433226697525,,,,,,,,,,,,
19067,0,USIowaFloyd,Iowa,Floyd,2022-04-28 09:13:11,2020-10-15,0.8661017647227176,2.615663285715198,8.475923267236864,,,,,,,,,,,,
19067,0,USIowaFloyd,Iowa,Floyd,2022-04-28 09:13:11,2020-10-16,0.8661017647227176,2.615663285715198,8.475923267236864,,,,,,,,,,,,
19067,0,USIowaFloyd,Iowa,Floyd,2022-04-28 09:13:11,2020-10-17,0.8661017647227176,2.615663285715198,8.475923267236864,,,,,,,,,,,,
19067,0,USIowaFloyd,Iowa,Floyd,2022-04-28 09:13:11,2020-10-18,0.8661017647227176,2.615663285715198,8.475923267236864,,,,,,,,,,,,
19067,0,USIowaFloyd,Iowa,Floyd,2022-04-28 09:13:11,2020-10-19,0.8661017647227176,2.615663285715198,8.475923267236864,,,,,,,,,,,,
19067,0,USIowaFloyd,Iowa,Floyd,2022-04-28 09:13:11,2020-10-20,0.8661017647227176,2.615663285715198,8.475923267236864,,,,,,,,,,,,
19067,0,USIowaFloyd,Iowa,Floyd,2022-04-28 09:13:11,2020-10-21,0.8661017647227176,2.615663285715198,8.475923267236864,,,,,,,,,,,,
19067,0,USIowaFloyd,Iowa,Floyd,2022-04-28 09:13:11,2020-10-22,1.1323059361188532,2.6725576054182834,6.7877402058707865,,,,,,,,,,,,
19067,0,USIowaFloyd,Iowa,Floyd,2022-04-28 09:13:11,2020-10-23,1.1323059361188532,2.6725576054182834,6.7877402058707865,,,,,,,,,,,,
19067,0,USIowaFloyd,Iowa,Floyd,2022-04-28 09:13:11,2020-10-24,1.1323059361188532,2.6725576054182834,6.7877402058707865,,,,,,,,,,,,
19067,0,USIowaFloyd,Iowa,Floyd,2022-04-28 09:13:11,2020-10-25,1.1323059361188532,2.6725576054182834,6.7877402058707865,,,,,,,,,,,,
19067,0,USIowaFloyd,Iowa,Floyd,2022-04-28 09:13:11,2020-10-26,1.1323059361188532,2.6725576054182834,6.7877402058707865,,,,,,,,,,,,
19067,0,USIowaFloyd,Iowa,Floyd,2022-04-28 09:13:11,2020-10-27,1.1323059361188532,2.6725576054182834,6.7877402058707865,,,,,,,,,,,,
19067,0,USIowaFloyd,Iowa,Floyd,2022-04-28 09:13:11,2020-10-28,1.1323059361188532,2.6725576054182834,6.7877402058707865,,,,,,,,,,,,
19067,0,USIowaFloyd,Iowa,Floyd,2022-04-28 09:13:11,2020-10-29,1.948288494537158,4.314009047889128,10.271199670196305,,,,,,,,,,,,
19067,0,USIowaFloyd,Iowa,Floyd,2022-04-28 09:13:11,2020-10-30,1.948288494537158,4.314009047889128,10.271199670196305,,,,,,,,,,,,
19067,0,USIowaFloyd,Iowa,Floyd,2022-04-28 09:13:11,2020-10-31,1.948288494537158,4.314009047889128,10.271199670196305,,,,,,,,,,,,
19067,0,USIowaFloyd,Iowa,Floyd,2022-04-28 09:13:11,2020-11-01,1.948288494537158,4.314009047889128,10.271199670196305,,,,,,,,,,,,
19067,0,USIowaFloyd,Iowa,Floyd,2022-04-28 09:13:11,2020-11-02,1.948288494537158,4.314009047889128,10.271199670196305,,,,,,,,,,,,
19067,0,USIowaFloyd,Iowa,Floyd,2022-04-28 09:13:11,2020-11-03,1.948288494537158,4.314009047889128,10.271199670196305,,,,,,,,,,,,
19067,0,USIowaFloyd,Iowa,Floyd,2022-04-28 09:13:11,2020-11-04,1.948288494537158,4.314009047889128,10.271199670196305,,,,,,,,,,,,
19067,0,USIowaFloyd,Iowa,Floyd,2022-04-28 09:13:11,2020-11-05,3.825149801448268,7.501775336452779,15.761713129948864,,,,,,,,,,,,
19067,0,USIowaFloyd,Iowa,Floyd,2022-04-28 09:13:11,2020-11-06,3.825149801448268,7.501775336452779,15.761713129948864,,,,,,,,,,,,
19067,0,USIowaFloyd,Iowa,Floyd,2022-04-28 09:13:11,2020-11-07,3.825149801448268,7.501775336452779,15.761713129948864,,,,,,,,,,,,
19067,0,USIowaFloyd,Iowa,Floyd,2022-04-28 09:13:11,2020-11-08,3.825149801448268,7.501775336452779,15.761713129948864,,,,,,,,,,,,
19067,0,USIowaFloyd,Iowa,Floyd,2022-04-28 09:13:11,2020-11-09,3.825149801448268,7.501775336452779,15.761713129948864,,,,,,,,,,,,
19067,0,USIowaFloyd,Iowa,Floyd,2022-04-28 09:13:11,2020-11-10,3.825149801448268,7.501775336452779,15.761713129948864,,,,,,,,,,,,
19067,0,USIowaFloyd,Iowa,Floyd,2022-04-28 09:13:11,2020-11-11,3.825149801448268,7.501775336452779,15.761713129948864,,,,,,,,,,,,
19067,0,USIowaFloyd,Iowa,Floyd,2022-04-28 09:13:11,2020-11-12,4.640306949870528,8.637176676125776,17.178675597474868,,,,,,,,,,,,
19067,0,USIowaFloyd,Iowa,Floyd,2022-04-28 09:13:11,2020-11-13,4.640306949870528,8.637176676125776,17.178675597474868,,,,,,,,,,,,
19067,0,USIowaFloyd,Iowa,Floyd,2022-04-28 09:13:11,2020-11-14,4.640306949870528,8.637176676125776,17.178675597474868,,,,,,,,,,,,
19067,0,USIowaFloyd,Iowa,Floyd,2022-04-28 09:13:11,2020-11-15,4.640306949870528,8.637176676125776,17.178675597474868,,,,,,,,,,,,
19067,0,USIowaFloyd,Iowa,Floyd,2022-04-28 09:13:11,2020-11-16,4.640306949870528,8.637176676125776,17.178675597474868,,,,,,,,,,,,
19067,0,USIowaFloyd,Iowa,Floyd,2022-04-28 09:13:11,2020-11-17,4.640306949870528,8.637176676125776,17.178675597474868,,,,,,,,,,,,
19067,0,USIowaFloyd,Iowa,Floyd,2022-04-28 09:13:11,2020-11-18,4.640306949870528,8.637176676125776,17.178675597474868,,,,,,,,,,,,
19067,0,USIowaFloyd,Iowa,Floyd,2022-04-28 09:13:11,2020-11-19,4.59309744541546,8.172779569387004,15.49581153806258,,,,,,,,,,,,
19067,0,USIowaFloyd,Iowa,Floyd,2022-04-28 09:13:11,2020-11-20,4.59309744541546,8.172779569387004,15.49581153806258,,,,,,,,,,,,
19067,0,USIowaFloyd,Iowa,Floyd,2022-04-28 09:13:11,2020-11-21,4.59309744541546,8.172779569387004,15.49581153806258,,,,,,,,,,,,
19067,0,USIowaFloyd,Iowa,Floyd,2022-04-28 09:13:11,2020-11-22,4.59309744541546,8.172779569387004,15.49581153806258,,,,,,,,,,,,
19067,0,USIowaFloyd,Iowa,Floyd,2022-04-28 09:13:11,2020-11-23,4.59309744541546,8.172779569387004,15.49581153806258,,,,,,,,,,,,
19067,0,USIowaFloyd,Iowa,Floyd,2022-04-28 09:13:11,2020-11-24,4.59309744541546,8.172779569387004,15.49581153806258,,,,,,,,,,,,
19067,0,USIowaFloyd,Iowa,Floyd,2022-04-28 09:13:11,2020-11-25,4.59309744541546,8.172779569387004,15.49581153806258,,,,,,,,,,,,
19067,0,USIowaFloyd,Iowa,Floyd,2022-04-28 09:13:11,2020-11-26,2.720147505136261,5.564367985084593,12.214389900488804,,,,,,,,,,,,
19067,0,USIowaFloyd,Iowa,Floyd,2022-04-28 09:13:11,2020-11-27,2.720147505136261,5.564367985084593,12.214389900488804,,,,,,,,,,,,
19067,0,USIowaFloyd,Iowa,Floyd,2022-04-28 09:13:11,2020-11-28,2.720147505136261,5.564367985084593,12.214389900488804,,,,,,,,,,,,
19067,0,USIowaFloyd,Iowa,Floyd,2022-04-28 09:13:11,2020-11-29,2.720147505136261,5.564367985084593,12.214389900488804,,,,,,,,,,,,
19067,0,USIowaFloyd,Iowa,Floyd,2022-04-28 09:13:11,2020-11-30,2.720147505136261,5.564367985084593,12.214389900488804,,,,,,,,,,,,
19067,0,USIowaFloyd,Iowa,Floyd,2022-04-28 09:13:11,2020-12-01,2.720147505136261,5.564367985084593,12.214389900488804,,,,,,,,,,,,
19067,0,USIowaFloyd,Iowa,Floyd,2022-04-28 09:13:11,2020-12-02,2.720147505136261,5.564367985084593,12.214389900488804,,,,,,,,,,,,
19067,0,USIowaFloyd,Iowa,Floyd,2022-04-28 09:13:11,2020-12-03,2.108012249249069,4.485090565037509,10.252010983686946,,,,,,,,,,,,
19067,0,USIowaFloyd,Iowa,Floyd,2022-04-28 09:13:11,2020-12-04,2.108012249249069,4.485090565037509,10.252010983686946,,,,,,,,,,,,
19067,0,USIowaFloyd,Iowa,Floyd,2022-04-28 09:13:11,2020-12-05,2.108012249249069,4.485090565037509,10.252010983686946,,,,,,,,,,,,
19067,0,USIowaFloyd,Iowa,Floyd,2022-04-28 09:13:11,2020-12-06,2.108012249249069,4.485090565037509,10.252010983686946,,,,,,,,,,,,
19067,0,USIowaFloyd,Iowa,Floyd,2022-04-28 09:13:11,2020-12-07,2.108012249249069,4.485090565037509,10.252010983686946,,,,,,,,,,,,
19067,0,USIowaFloyd,Iowa,Floyd,2022-04-28 09:13:11,2020-12-08,2.108012249249069,4.485090565037509,10.252010983686946,,,,,,,,,,,,
19067,0,USIowaFloyd,Iowa,Floyd,2022-04-28 09:13:11,2020-12-09,2.108012249249069,4.485090565037509,10.252010983686946,,,,,,,,,,,,
19067,0,USIowaFloyd,Iowa,Floyd,2022-04-28 09:13:11,2020-12-10,1.3507238387065685,3.214549421013097,8.232416432118564,,,,,,,,,,,,
19067,0,USIowaFloyd,Iowa,Floyd,2022-04-28 09:13:11,2020-12-11,1.3507238387065685,3.214549421013097,8.232416432118564,,,,,,,,,,,,
19067,0,USIowaFloyd,Iowa,Floyd,2022-04-28 09:13:11,2020-12-12,1.3507238387065685,3.214549421013097,8.232416432118564,,,,,,,,,,,,
19067,0,USIowaFloyd,Iowa,Floyd,2022-04-28 09:13:11,2020-12-13,1.3507238387065685,3.214549421013097,8.232416432118564,,,,,,,,,,,,
19067,0,USIowaFloyd,Iowa,Floyd,2022-04-28 09:13:11,2020-12-14,1.3507238387065685,3.214549421013097,8.232416432118564,,,,,,,,,,,,
19067,0,USIowaFloyd,Iowa,Floyd,2022-04-28 09:13:11,2020-12-15,1.3507238387065685,3.214549421013097,8.232416432118564,,,,,,,,,,,,
19067,0,USIowaFloyd,Iowa,Floyd,2022-04-28 09:13:11,2020-12-16,1.3507238387065685,3.214549421013097,8.232416432118564,,,,,,,,,,,,
19067,0,USIowaFloyd,Iowa,Floyd,2022-04-28 09:13:11,2020-12-17,1.2218223461648892,2.9282220399613603,7.552064586275034,,,,,,,,,,,,
19067,0,USIowaFloyd,Iowa,Floyd,2022-04-28 09:13:11,2020-12-18,1.2218223461648892,2.9282220399613603,7.552064586275034,,,,,,,,,,,,
19067,0,USIowaFloyd,Iowa,Floyd,2022-04-28 09:13:11,2020-12-19,1.2218223461648892,2.9282220399613603,7.552064586275034,,,,,,,,,,,,
19067,0,USIowaFloyd,Iowa,Floyd,2022-04-28 09:13:11,2020-12-20,1.2218223461648892,2.9282220399613603,7.552064586275034,,,,,,,,,,,,
19067,0,USIowaFloyd,Iowa,Floyd,2022-04-28 09:13:11,2020-12-21,1.2218223461648892,2.9282220399613603,7.552064586275034,,,,,,,,,,,,
19067,0,USIowaFloyd,Iowa,Floyd,2022-04-28 09:13:11,2020-12-22,1.2218223461648892,2.9282220399613603,7.552064586275034,,,,,,,,,,,,
19067,0,USIowaFloyd,Iowa,Floyd,2022-04-28 09:13:11,2020-12-23,1.2218223461648892,2.9282220399613603,7.552064586275034,,,,,,,,,,,,
19067,0,USIowaFloyd,Iowa,Floyd,2022-04-28 09:13:11,2020-12-24,1.1007037242977589,2.8392272309995565,7.879887772054314,,,,,,,,,,,,
19067,0,USIowaFloyd,Iowa,Floyd,2022-04-28 09:13:11,2020-12-25,1.1007037242977589,2.8392272309995565,7.879887772054314,,,,,,,,,,,,
19067,0,USIowaFloyd,Iowa,Floyd,2022-04-28 09:13:11,2020-12-26,1.1007037242977589,2.8392272309995565,7.879887772054314,,,,,,,,,,,,
19067,0,USIowaFloyd,Iowa,Floyd,2022-04-28 09:13:11,2020-12-27,1.1007037242977589,2.8392272309995565,7.879887772054314,,,,,,,,,,,,
19067,0,USIowaFloyd,Iowa,Floyd,2022-04-28 09:13:11,2020-12-28,1.1007037242977589,2.8392272309995565,7.879887772054314,,,,,,,,,,,,
19067,0,USIowaFloyd,Iowa,Floyd,2022-04-28 09:13:11,2020-12-29,1.1007037242977589,2.8392272309995565,7.879887772054314,,,,,,,,,,,,
19067,0,USIowaFloyd,Iowa,Floyd,2022-04-28 09:13:11,2020-12-30,1.1007037242977589,2.8392272309995565,7.879887772054314,,,,,,,,,,,,
19067,0,USIowaFloyd,Iowa,Floyd,2022-04-28 09:13:11,2020-12-31,1.4433561174770868,3.6417433805723833,9.887698237685003,,,,,,,,,,,,
19067,0,USIowaFloyd,Iowa,Floyd,2022-04-28 09:13:11,2021-01-01,1.4433561174770868,3.6417433805723833,9.887698237685003,,,,,,,,,,,,
19067,0,USIowaFloyd,Iowa,Floyd,2022-04-28 09:13:11,2021-01-02,1.4433561174770868,3.6417433805723833,9.887698237685003,,,,,,,,,,,,
19067,0,USIowaFloyd,Iowa,Floyd,2022-04-28 09:13:11,2021-01-03,1.4433561174770868,3.6417433805723833,9.887698237685003,,,,,,,,,,,,
19067,0,USIowaFloyd,Iowa,Floyd,2022-04-28 09:13:11,2021-01-04,1.4433561174770868,3.6417433805723833,9.887698237685003,,,,,,,,,,,,
19067,0,USIowaFloyd,Iowa,Floyd,2022-04-28 09:13:11,2021-01-05,1.4433561174770868,3.6417433805723833,9.887698237685003,,,,,,,,,,,,
19067,0,USIowaFloyd,Iowa,Floyd,2022-04-28 09:13:11,2021-01-06,1.4433561174770868,3.6417433805723833,9.887698237685003,,,,,,,,,,,,
19067,0,USIowaFloyd,Iowa,Floyd,2022-04-28 09:13:11,2021-01-07,1.7577677457498613,3.958784831885695,9.589414335814144,,,,,,,,,,,,
19067,0,USIowaFloyd,Iowa,Floyd,2022-04-28 09:13:11,2021-01-08,1.7577677457498613,3.958784831885695,9.589414335814144,,,,,,,,,,,,
19067,0,USIowaFloyd,Iowa,Floyd,2022-04-28 09:13:11,2021-01-09,1.7577677457498613,3.958784831885695,9.589414335814144,,,,,,,,,,,,
19067,0,USIowaFloyd,Iowa,Floyd,2022-04-28 09:13:11,2021-01-10,1.7577677457498613,3.958784831885695,9.589414335814144,,,,,,,,,,,,
19067,0,USIowaFloyd,Iowa,Floyd,2022-04-28 09:13:11,2021-01-11,1.7577677457498613,3.958784831885695,9.589414335814144,,,,,,,,,,,,
19067,0,USIowaFloyd,Iowa,Floyd,2022-04-28 09:13:11,2021-01-12,1.7577677457498613,3.958784831885695,9.589414335814144,,,,,,,,,,,,
19067,0,USIowaFloyd,Iowa,Floyd,2022-04-28 09:13:11,2021-01-13,1.7577677457498613,3.958784831885695,9.589414335814144,,,,,,,,,,,,
19067,0,USIowaFloyd,Iowa,Floyd,2022-04-28 09:13:11,2021-01-14,1.1111520815536076,2.7258100111969927,7.196122321807469,,,,,,,,,,,,
19067,0,USIowaFloyd,Iowa,Floyd,2022-04-28 09:13:11,2021-01-15,1.1111520815536076,2.7258100111969927,7.196122321807469,,,,,,,,,,,,
19067,0,USIowaFloyd,Iowa,Floyd,2022-04-28 09:13:11,2021-01-16,1.1111520815536076,2.7258100111969927,7.196122321807469,,,,,,,,,,,,
19067,0,USIowaFloyd,Iowa,Floyd,2022-04-28 09:13:11,2021-01-17,1.1111520815536076,2.7258100111969927,7.196122321807469,,,,,,,,,,,,
19067,0,USIowaFloyd,Iowa,Floyd,2022-04-28 09:13:11,2021-01-18,1.1111520815536076,2.7258100111969927,7.196122321807469,,,,,,,,,,,,
19067,0,USIowaFloyd,Iowa,Floyd,2022-04-28 09:13:11,2021-01-19,1.1111520815536076,2.7258100111969927,7.196122321807469,,,,,,,,,,,,
19067,0,USIowaFloyd,Iowa,Floyd,2022-04-28 09:13:11,2021-01-20,1.1111520815536076,2.7258100111969927,7.196122321807469,,,,,,,,,,,,
19067,0,USIowaFloyd,Iowa,Floyd,2022-04-28 09:13:11,2021-01-21,0.9617995635542753,2.425755978059812,6.583554971708068,,,,,,,,,,,,
19067,0,USIowaFloyd,Iowa,Floyd,2022-04-28 09:13:11,2021-01-22,0.9617995635542753,2.425755978059812,6.583554971708068,,,,,,,,,,,,
19067,0,USIowaFloyd,Iowa,Floyd,2022-04-28 09:13:11,2021-01-23,0.9617995635542753,2.425755978059812,6.583554971708068,,,,,,,,,,,,
19067,0,USIowaFloyd,Iowa,Floyd,2022-04-28 09:13:11,2021-01-24,0.9617995635542753,2.425755978059812,6.583554971708068,,,,,,,,,,,,
19067,0,USIowaFloyd,Iowa,Floyd,2022-04-28 09:13:11,2021-01-25,0.9617995635542753,2.425755978059812,6.583554971708068,,,,,,,,,,,,
19067,0,USIowaFloyd,Iowa,Floyd,2022-04-28 09:13:11,2021-01-26,0.9617995635542753,2.425755978059812,6.583554971708068,,,,,,,,,,,,
19067,0,USIowaFloyd,Iowa,Floyd,2022-04-28 09:13:11,2021-01-27,0.9617995635542753,2.425755978059812,6.583554971708068,,,,,,,,,,,,
19067,0,USIowaFloyd,Iowa,Floyd,2022-04-28 09:13:11,2021-01-28,0.6905045333119838,1.7977502183414447,5.035565342349757,,,,,,,,,,,,
19067,0,USIowaFloyd,Iowa,Floyd,2022-04-28 09:13:11,2021-01-29,0.6905045333119838,1.7977502183414447,5.035565342349757,,,,,,,,,,,,
19067,0,USIowaFloyd,Iowa,Floyd,2022-04-28 09:13:11,2021-01-30,0.6905045333119838,1.7977502183414447,5.035565342349757,,,,,,,,,,,,
19067,0,USIowaFloyd,Iowa,Floyd,2022-04-28 09:13:11,2021-01-31,0.6905045333119838,1.7977502183414447,5.035565342349757,,,,,,,,,,,,
19067,0,USIowaFloyd,Iowa,Floyd,2022-04-28 09:13:11,2021-02-01,0.6905045333119838,1.7977502183414447,5.035565342349757,,,,,,,,,,,,
19067,0,USIowaFloyd,Iowa,Floyd,2022-04-28 09:13:11,2021-02-02,0.6905045333119838,1.7977502183414447,5.035565342349757,,,,,,,,,,,,
19067,0,USIowaFloyd,Iowa,Floyd,2022-04-28 09:13:11,2021-02-03,0.6905045333119838,1.7977502183414447,5.035565342349757,,,,,,,,,,,,
19067,0,USIowaFloyd,Iowa,Floyd,2022-04-28 09:13:11,2021-02-04,0.6163250671205468,1.7030973848589517,5.059291966137667,,,,,,,,,,,,
19067,0,USIowaFloyd,Iowa,Floyd,2022-04-28 09:13:11,2021-02-05,0.6163250671205468,1.7030973848589517,5.059291966137667,,,,,,,,,,,,
19067,0,USIowaFloyd,Iowa,Floyd,2022-04-28 09:13:11,2021-02-06,0.6163250671205468,1.7030973848589517,5.059291966137667,,,,,,,,,,,,
19067,0,USIowaFloyd,Iowa,Floyd,2022-04-28 09:13:11,2021-02-07,0.6163250671205468,1.7030973848589517,5.059291966137667,,,,,,,,,,,,
19067,0,USIowaFloyd,Iowa,Floyd,2022-04-28 09:13:11,2021-02-08,0.6163250671205468,1.7030973848589517,5.059291966137667,,,,,,,,,,,,
19067,0,USIowaFloyd,Iowa,Floyd,2022-04-28 09:13:11,2021-02-09,0.6163250671205468,1.7030973848589517,5.059291966137667,,,,,,,,,,,,
19067,0,USIowaFloyd,Iowa,Floyd,2022-04-28 09:13:11,2021-02-10,0.6163250671205468,1.7030973848589517,5.059291966137667,,,,,,,,,,,,
19067,0,USIowaFloyd,Iowa,Floyd,2022-04-28 09:13:11,2021-02-11,0.2320237649382927,0.711393086959855,2.339400919164645,,,,,,,,,,,,
19067,0,USIowaFloyd,Iowa,Floyd,2022-04-28 09:13:11,2021-02-12,0.2320237649382927,0.711393086959855,2.339400919164645,,,,,,,,,,,,
19067,0,USIowaFloyd,Iowa,Floyd,2022-04-28 09:13:11,2021-02-13,0.2320237649382927,0.711393086959855,2.339400919164645,,,,,,,,,,,,
19067,0,USIowaFloyd,Iowa,Floyd,2022-04-28 09:13:11,2021-02-14,0.2320237649382927,0.711393086959855,2.339400919164645,,,,,,,,,,,,
19067,0,USIowaFloyd,Iowa,Floyd,2022-04-28 09:13:11,2021-02-15,0.2320237649382927,0.711393086959855,2.339400919164645,,,,,,,,,,,,
19067,0,USIowaFloyd,Iowa,Floyd,2022-04-28 09:13:11,2021-02-16,0.2320237649382927,0.711393086959855,2.339400919164645,,,,,,,,,,,,
19067,0,USIowaFloyd,Iowa,Floyd,2022-04-28 09:13:11,2021-02-17,0.2320237649382927,0.711393086959855,2.339400919164645,,,,,,,,,,,,
19067,0,USIowaFloyd,Iowa,Floyd,2022-04-28 09:13:11,2021-02-18,0.29431406834632495,0.9455567564523768,3.2537927038074925,,,,,,,,,,,,
19067,0,USIowaFloyd,Iowa,Floyd,2022-04-28 09:13:11,2021-02-19,0.29431406834632495,0.9455567564523768,3.2537927038074925,,,,,,,,,,,,
19067,0,USIowaFloyd,Iowa,Floyd,2022-04-28 09:13:11,2021-02-20,0.29431406834632495,0.9455567564523768,3.2537927038074925,,,,,,,,,,,,
19067,0,USIowaFloyd,Iowa,Floyd,2022-04-28 09:13:11,2021-02-21,0.29431406834632495,0.9455567564523768,3.2537927038074925,,,,,,,,,,,,
19067,0,USIowaFloyd,Iowa,Floyd,2022-04-28 09:13:11,2021-02-22,0.29431406834632495,0.9455567564523768,3.2537927038074925,,,,,,,,,,,,
19067,0,USIowaFloyd,Iowa,Floyd,2022-04-28 09:13:11,2021-02-23,0.29431406834632495,0.9455567564523768,3.2537927038074925,,,,,,,,,,,,
19067,0,USIowaFloyd,Iowa,Floyd,2022-04-28 09:13:11,2021-02-24,0.29431406834632495,0.9455567564523768,3.2537927038074925,,,,,,,,,,,,
19067,0,USIowaFloyd,Iowa,Floyd,2022-04-28 09:13:11,2021-02-25,0.3889734626054794,1.122577887079525,3.479950848556068,,,,,,,,,,,,
19067,0,USIowaFloyd,Iowa,Floyd,2022-04-28 09:13:11,2021-02-26,0.3889734626054794,1.122577887079525,3.479950848556068,,,,,,,,,,,,
19067,0,USIowaFloyd,Iowa,Floyd,2022-04-28 09:13:11,2021-02-27,0.3889734626054794,1.122577887079525,3.479950848556068,,,,,,,,,,,,
19067,0,USIowaFloyd,Iowa,Floyd,2022-04-28 09:13:11,2021-02-28,0.3889734626054794,1.122577887079525,3.479950848556068,,,,,,,,,,,,
19067,0,USIowaFloyd,Iowa,Floyd,2022-04-28 09:13:11,2021-03-01,0.3889734626054794,1.122577887079525,3.479950848556068,,,,,,,,,,,,
19067,0,USIowaFloyd,Iowa,Floyd,2022-04-28 09:13:11,2021-03-02,0.3889734626054794,1.122577887079525,3.479950848556068,,,,,,,,,,,,
19067,0,USIowaFloyd,Iowa,Floyd,2022-04-28 09:13:11,2021-03-03,0.3889734626054794,1.122577887079525,3.479950848556068,,,,,,,,,,,,
19067,0,USIowaFloyd,Iowa,Floyd,2022-04-28 09:13:11,2021-03-04,0.5310661443530763,1.3691730878840853,3.798043787661705,,,,,,,,,,,,
19067,0,USIowaFloyd,Iowa,Floyd,2022-04-28 09:13:11,2021-03-05,0.5310661443530763,1.3691730878840853,3.798043787661705,,,,,,,,,,,,
19067,0,USIowaFloyd,Iowa,Floyd,2022-04-28 09:13:11,2021-03-06,0.5310661443530763,1.3691730878840853,3.798043787661705,,,,,,,,,,,,
19067,0,USIowaFloyd,Iowa,Floyd,2022-04-28 09:13:11,2021-03-07,0.5310661443530763,1.3691730878840853,3.798043787661705,,,,,,,,,,,,
19067,0,USIowaFloyd,Iowa,Floyd,2022-04-28 09:13:11,2021-03-08,0.5310661443530763,1.3691730878840853,3.798043787661705,,,,,,,,,,,,
19067,0,USIowaFloyd,Iowa,Floyd,2022-04-28 09:13:11,2021-03-09,0.5310661443530763,1.3691730878840853,3.798043787661705,,,,,,,,,,,,
19067,0,USIowaFloyd,Iowa,Floyd,2022-04-28 09:13:11,2021-03-10,0.5310661443530763,1.3691730878840853,3.798043787661705,,,,,,,,,,,,
19067,0,USIowaFloyd,Iowa,Floyd,2022-04-28 09:13:11,2021-03-11,0.3479053065765043,1.009395738197249,3.1453712350379512,,,,,,,,,,,,
19067,0,USIowaFloyd,Iowa,Floyd,2022-04-28 09:13:11,2021-03-12,0.3479053065765043,1.009395738197249,3.1453712350379512,,,,,,,,,,,,
19067,0,USIowaFloyd,Iowa,Floyd,2022-04-28 09:13:11,2021-03-13,0.3479053065765043,1.009395738197249,3.1453712350379512,,,,,,,,,,,,
19067,0,USIowaFloyd,Iowa,Floyd,2022-04-28 09:13:11,2021-03-14,0.3479053065765043,1.009395738197249,3.1453712350379512,,,,,,,,,,,,
19067,0,USIowaFloyd,Iowa,Floyd,2022-04-28 09:13:11,2021-03-15,0.3479053065765043,1.009395738197249,3.1453712350379512,,,,,,,,,,,,
19067,0,USIowaFloyd,Iowa,Floyd,2022-04-28 09:13:11,2021-03-16,0.3479053065765043,1.009395738197249,3.1453712350379512,,,,,,,,,,,,
19067,0,USIowaFloyd,Iowa,Floyd,2022-04-28 09:13:11,2021-03-17,0.3479053065765043,1.009395738197249,3.1453712350379512,,,,,,,,,,,,
19067,0,USIowaFloyd,Iowa,Floyd,2022-04-28 09:13:11,2021-03-18,0.5105891641434546,1.3568812560796852,3.8785990900774574,,,,,,,,,,,,
19067,0,USIowaFloyd,Iowa,Floyd,2022-04-28 09:13:11,2021-03-19,0.5105891641434546,1.3568812560796852,3.8785990900774574,,,,,,,,,,,,
19067,0,USIowaFloyd,Iowa,Floyd,2022-04-28 09:13:11,2021-03-20,0.5105891641434546,1.3568812560796852,3.8785990900774574,,,,,,,,,,,,
19067,0,USIowaFloyd,Iowa,Floyd,2022-04-28 09:13:11,2021-03-21,0.5105891641434546,1.3568812560796852,3.8785990900774574,,,,,,,,,,,,
19067,0,USIowaFloyd,Iowa,Floyd,2022-04-28 09:13:11,2021-03-22,0.5105891641434546,1.3568812560796852,3.8785990900774574,,,,,,,,,,,,
19067,0,USIowaFloyd,Iowa,Floyd,2022-04-28 09:13:11,2021-03-23,0.5105891641434546,1.3568812560796852,3.8785990900774574,,,,,,,,,,,,
19067,0,USIowaFloyd,Iowa,Floyd,2022-04-28 09:13:11,2021-03-24,0.5105891641434546,1.3568812560796852,3.8785990900774574,,,,,,,,,,,,
19067,0,USIowaFloyd,Iowa,Floyd,2022-04-28 09:13:11,2021-03-25,0.5105339641830652,1.3566071333619591,3.877455604798348,,,,,,,,,,,,
19067,0,USIowaFloyd,Iowa,Floyd,2022-04-28 09:13:11,2021-03-26,0.5105339641830652,1.3566071333619591,3.877455604798348,,,,,,,,,,,,
19067,0,USIowaFloyd,Iowa,Floyd,2022-04-28 09:13:11,2021-03-27,0.5105339641830652,1.3566071333619591,3.877455604798348,,,,,,,,,,,,
19067,0,USIowaFloyd,Iowa,Floyd,2022-04-28 09:13:11,2021-03-28,0.5105339641830652,1.3566071333619591,3.877455604798348,,,,,,,,,,,,
19067,0,USIowaFloyd,Iowa,Floyd,2022-04-28 09:13:11,2021-03-29,0.5105339641830652,1.3566071333619591,3.877455604798348,,,,,,,,,,,,
19067,0,USIowaFloyd,Iowa,Floyd,2022-04-28 09:13:11,2021-03-30,0.5105339641830652,1.3566071333619591,3.877455604798348,,,,,,,,,,,,
19067,0,USIowaFloyd,Iowa,Floyd,2022-04-28 09:13:11,2021-03-31,0.5105339641830652,1.3566071333619591,3.877455604798348,,,,,,,,,,,,
19067,0,USIowaFloyd,Iowa,Floyd,2022-04-28 09:13:11,2021-04-01,0.4437712580799815,1.2070330546893315,3.5302682047579186,,,,,,,,,,,,
19067,0,USIowaFloyd,Iowa,Floyd,2022-04-28 09:13:11,2021-04-02,0.4437712580799815,1.2070330546893315,3.5302682047579186,,,,,,,,,,,,
19067,0,USIowaFloyd,Iowa,Floyd,2022-04-28 09:13:11,2021-04-03,0.4437712580799815,1.2070330546893315,3.5302682047579186,,,,,,,,,,,,
19067,0,USIowaFloyd,Iowa,Floyd,2022-04-28 09:13:11,2021-04-04,0.4437712580799815,1.2070330546893315,3.5302682047579186,,,,,,,,,,,,
19067,0,USIowaFloyd,Iowa,Floyd,2022-04-28 09:13:11,2021-04-05,0.4437712580799815,1.2070330546893315,3.5302682047579186,,,,,,,,,,,,
19067,0,USIowaFloyd,Iowa,Floyd,2022-04-28 09:13:11,2021-04-06,0.4437712580799815,1.2070330546893315,3.5302682047579186,,,,,,,,,,,,
19067,0,USIowaFloyd,Iowa,Floyd,2022-04-28 09:13:11,2021-04-07,0.4437712580799815,1.2070330546893315,3.5302682047579186,,,,,,,,,,,,
19067,0,USIowaFloyd,Iowa,Floyd,2022-04-28 09:13:11,2021-04-08,0.5476561158605717,1.450303256282984,4.131332248019782,,,,,,,,,,,,
19067,0,USIowaFloyd,Iowa,Floyd,2022-04-28 09:13:11,2021-04-09,0.5476561158605717,1.450303256282984,4.131332248019782,,,,,,,,,,,,
19067,0,USIowaFloyd,Iowa,Floyd,2022-04-28 09:13:11,2021-04-10,0.5476561158605717,1.450303256282984,4.131332248019782,,,,,,,,,,,,
19067,0,USIowaFloyd,Iowa,Floyd,2022-04-28 09:13:11,2021-04-11,0.5476561158605717,1.450303256282984,4.131332248019782,,,,,,,,,,,,
19067,0,USIowaFloyd,Iowa,Floyd,2022-04-28 09:13:11,2021-04-12,0.5476561158605717,1.450303256282984,4.131332248019782,,,,,,,,,,,,
19067,0,USIowaFloyd,Iowa,Floyd,2022-04-28 09:13:11,2021-04-13,0.5476561158605717,1.450303256282984,4.131332248019782,,,,,,,,,,,,
19067,0,USIowaFloyd,Iowa,Floyd,2022-04-28 09:13:11,2021-04-14,0.5476561158605717,1.450303256282984,4.131332248019782,,,,,,,,,,,,
19067,0,USIowaFloyd,Iowa,Floyd,2022-04-28 09:13:11,2021-04-15,0.4756964116953947,1.2743548467514116,3.6717287283932296,,,,,,,,,,,,
19067,0,USIowaFloyd,Iowa,Floyd,2022-04-28 09:13:11,2021-04-16,0.4756964116953947,1.2743548467514116,3.6717287283932296,,,,,,,,,,,,
19067,0,USIowaFloyd,Iowa,Floyd,2022-04-28 09:13:11,2021-04-17,0.4756964116953947,1.2743548467514116,3.6717287283932296,,,,,,,,,,,,
19067,0,USIowaFloyd,Iowa,Floyd,2022-04-28 09:13:11,2021-04-18,0.4756964116953947,1.2743548467514116,3.6717287283932296,,,,,,,,,,,,
19067,0,USIowaFloyd,Iowa,Floyd,2022-04-28 09:13:11,2021-04-19,0.4756964116953947,1.2743548467514116,3.6717287283932296,,,,,,,,,,,,
19067,0,USIowaFloyd,Iowa,Floyd,2022-04-28 09:13:11,2021-04-20,0.4756964116953947,1.2743548467514116,3.6717287283932296,,,,,,,,,,,,
19067,0,USIowaFloyd,Iowa,Floyd,2022-04-28 09:13:11,2021-04-21,0.4756964116953947,1.2743548467514116,3.6717287283932296,,,,,,,,,,,,
19067,0,USIowaFloyd,Iowa,Floyd,2022-04-28 09:13:11,2021-04-22,0.78570793626099,1.7785972009085689,4.330664500916273,,,,,,,,,,,,
19067,0,USIowaFloyd,Iowa,Floyd,2022-04-28 09:13:11,2021-04-23,0.78570793626099,1.7785972009085689,4.330664500916273,,,,,,,,,,,,
19067,0,USIowaFloyd,Iowa,Floyd,2022-04-28 09:13:11,2021-04-24,0.78570793626099,1.7785972009085689,4.330664500916273,,,,,,,,,,,,
19067,0,USIowaFloyd,Iowa,Floyd,2022-04-28 09:13:11,2021-04-25,0.78570793626099,1.7785972009085689,4.330664500916273,,,,,,,,,,,,
19067,0,USIowaFloyd,Iowa,Floyd,2022-04-28 09:13:11,2021-04-26,0.78570793626099,1.7785972009085689,4.330664500916273,,,,,,,,,,,,
19067,0,USIowaFloyd,Iowa,Floyd,2022-04-28 09:13:11,2021-04-27,0.78570793626099,1.7785972009085689,4.330664500916273,,,,,,,,,,,,
19067,0,USIowaFloyd,Iowa,Floyd,2022-04-28 09:13:11,2021-04-28,0.78570793626099,1.7785972009085689,4.330664500916273,,,,,,,,,,,,
19067,0,USIowaFloyd,Iowa,Floyd,2022-04-28 09:13:11,2021-04-29,0.36784694551196706,1.011852380821492,2.9924038740395056,,,,,,,,,,,,
19067,0,USIowaFloyd,Iowa,Floyd,2022-04-28 09:13:11,2021-04-30,0.36784694551196706,1.011852380821492,2.9924038740395056,,,,,,,,,,,,
19067,0,USIowaFloyd,Iowa,Floyd,2022-04-28 09:13:11,2021-05-01,0.36784694551196706,1.011852380821492,2.9924038740395056,,,,,,,,,,,,
19067,0,USIowaFloyd,Iowa,Floyd,2022-04-28 09:13:11,2021-05-02,0.36784694551196706,1.011852380821492,2.9924038740395056,,,,,,,,,,,,
19067,0,USIowaFloyd,Iowa,Floyd,2022-04-28 09:13:11,2021-05-03,0.36784694551196706,1.011852380821492,2.9924038740395056,,,,,,,,,,,,
19067,0,USIowaFloyd,Iowa,Floyd,2022-04-28 09:13:11,2021-05-04,0.36784694551196706,1.011852380821492,2.9924038740395056,,,,,,,,,,,,
19067,0,USIowaFloyd,Iowa,Floyd,2022-04-28 09:13:11,2021-05-05,0.36784694551196706,1.011852380821492,2.9924038740395056,,,,,,,,,,,,
19067,0,USIowaFloyd,Iowa,Floyd,2022-04-28 09:13:11,2021-05-06,0.35970891666825305,0.9705057528705621,2.815941705213932,,,,,,,,,,,,
19067,0,USIowaFloyd,Iowa,Floyd,2022-04-28 09:13:11,2021-05-07,0.35970891666825305,0.9705057528705621,2.815941705213932,,,,,,,,,,,,
19067,0,USIowaFloyd,Iowa,Floyd,2022-04-28 09:13:11,2021-05-08,0.35970891666825305,0.9705057528705621,2.815941705213932,,,,,,,,,,,,
19067,0,USIowaFloyd,Iowa,Floyd,2022-04-28 09:13:11,2021-05-09,0.35970891666825305,0.9705057528705621,2.815941705213932,,,,,,,,,,,,
19067,0,USIowaFloyd,Iowa,Floyd,2022-04-28 09:13:11,2021-05-10,0.35970891666825305,0.9705057528705621,2.815941705213932,,,,,,,,,,,,
19067,0,USIowaFloyd,Iowa,Floyd,2022-04-28 09:13:11,2021-05-11,0.35970891666825305,0.9705057528705621,2.815941705213932,,,,,,,,,,,,
19067,0,USIowaFloyd,Iowa,Floyd,2022-04-28 09:13:11,2021-05-12,0.35970891666825305,0.9705057528705621,2.815941705213932,,,,,,,,,,,,
19067,0,USIowaFloyd,Iowa,Floyd,2022-04-28 09:13:11,2021-05-13,0.39304204917656504,0.9615189611812452,2.531382339304424,,,,,,,,,,,,
19067,0,USIowaFloyd,Iowa,Floyd,2022-04-28 09:13:11,2021-05-14,0.39304204917656504,0.9615189611812452,2.531382339304424,,,,,,,,,,,,
19067,0,USIowaFloyd,Iowa,Floyd,2022-04-28 09:13:11,2021-05-15,0.39304204917656504,0.9615189611812452,2.531382339304424,,,,,,,,,,,,
19067,0,USIowaFloyd,Iowa,Floyd,2022-04-28 09:13:11,2021-05-16,0.39304204917656504,0.9615189611812452,2.531382339304424,,,,,,,,,,,,
19067,0,USIowaFloyd,Iowa,Floyd,2022-04-28 09:13:11,2021-05-17,0.39304204917656504,0.9615189611812452,2.531382339304424,,,,,,,,,,,,
19067,0,USIowaFloyd,Iowa,Floyd,2022-04-28 09:13:11,2021-05-18,0.39304204917656504,0.9615189611812452,2.531382339304424,,,,,,,,,,,,
19067,0,USIowaFloyd,Iowa,Floyd,2022-04-28 09:13:11,2021-05-19,0.39304204917656504,0.9615189611812452,2.531382339304424,,,,,,,,,,,,
19067,0,USIowaFloyd,Iowa,Floyd,2022-04-28 09:13:11,2021-05-20,0.14427757223796034,0.45589654028966775,1.5437552593824908,,,,,,,,,,,,
19067,0,USIowaFloyd,Iowa,Floyd,2022-04-28 09:13:11,2021-05-21,0.14427757223796034,0.45589654028966775,1.5437552593824908,,,,,,,,,,,,
19067,0,USIowaFloyd,Iowa,Floyd,2022-04-28 09:13:11,2021-05-22,0.14427757223796034,0.45589654028966775,1.5437552593824908,,,,,,,,,,,,
19067,0,USIowaFloyd,Iowa,Floyd,2022-04-28 09:13:11,2021-05-23,0.14427757223796034,0.45589654028966775,1.5437552593824908,,,,,,,,,,,,
19067,0,USIowaFloyd,Iowa,Floyd,2022-04-28 09:13:11,2021-05-24,0.14427757223796034,0.45589654028966775,1.5437552593824908,,,,,,,,,,,,
19067,0,USIowaFloyd,Iowa,Floyd,2022-04-28 09:13:11,2021-05-25,0.14427757223796034,0.45589654028966775,1.5437552593824908,,,,,,,,,,,,
19067,0,USIowaFloyd,Iowa,Floyd,2022-04-28 09:13:11,2021-05-26,0.14427757223796034,0.45589654028966775,1.5437552593824908,,,,,,,,,,,,
19067,0,USIowaFloyd,Iowa,Floyd,2022-04-28 09:13:11,2021-05-27,0.19462778367572067,0.5132042760924665,1.455716481646499,,,,,,,,,,,,
19067,0,USIowaFloyd,Iowa,Floyd,2022-04-28 09:13:11,2021-05-28,0.19462778367572067,0.5132042760924665,1.455716481646499,,,,,,,,,,,,
19067,0,USIowaFloyd,Iowa,Floyd,2022-04-28 09:13:11,2021-05-29,0.19462778367572067,0.5132042760924665,1.455716481646499,,,,,,,,,,,,
19067,0,USIowaFloyd,Iowa,Floyd,2022-04-28 09:13:11,2021-05-30,0.19462778367572067,0.5132042760924665,1.455716481646499,,,,,,,,,,,,
19067,0,USIowaFloyd,Iowa,Floyd,2022-04-28 09:13:11,2021-05-31,0.19462778367572067,0.5132042760924665,1.455716481646499,,,,,,,,,,,,
19067,0,USIowaFloyd,Iowa,Floyd,2022-04-28 09:13:11,2021-06-01,0.19462778367572067,0.5132042760924665,1.455716481646499,,,,,,,,,,,,
19067,0,USIowaFloyd,Iowa,Floyd,2022-04-28 09:13:11,2021-06-02,0.19462778367572067,0.5132042760924665,1.455716481646499,,,,,,,,,,,,
19067,0,USIowaFloyd,Iowa,Floyd,2022-04-28 09:13:11,2021-06-03,0.1312379736876001,0.38269571473174085,1.1984194717479895,,,,,,,,,,,,
19067,0,USIowaFloyd,Iowa,Floyd,2022-04-28 09:13:11,2021-06-04,0.1312379736876001,0.38269571473174085,1.1984194717479895,,,,,,,,,,,,
19067,0,USIowaFloyd,Iowa,Floyd,2022-04-28 09:13:11,2021-06-05,0.1312379736876001,0.38269571473174085,1.1984194717479895,,,,,,,,,,,,
19067,0,USIowaFloyd,Iowa,Floyd,2022-04-28 09:13:11,2021-06-06,0.1312379736876001,0.38269571473174085,1.1984194717479895,,,,,,,,,,,,
19067,0,USIowaFloyd,Iowa,Floyd,2022-04-28 09:13:11,2021-06-07,0.1312379736876001,0.38269571473174085,1.1984194717479895,,,,,,,,,,,,
19067,0,USIowaFloyd,Iowa,Floyd,2022-04-28 09:13:11,2021-06-08,0.1312379736876001,0.38269571473174085,1.1984194717479895,,,,,,,,,,,,
19067,0,USIowaFloyd,Iowa,Floyd,2022-04-28 09:13:11,2021-06-09,0.1312379736876001,0.38269571473174085,1.1984194717479895,,,,,,,,,,,,
19067,0,USIowaFloyd,Iowa,Floyd,2022-04-28 09:13:11,2021-06-10,0.22421969948666054,0.5705598434464538,1.5622812975632316,,,,,,,,,,,,
19067,0,USIowaFloyd,Iowa,Floyd,2022-04-28 09:13:11,2021-06-11,0.22421969948666054,0.5705598434464538,1.5622812975632316,,,,,,,,,,,,
19067,0,USIowaFloyd,Iowa,Floyd,2022-04-28 09:13:11,2021-06-12,0.22421969948666054,0.5705598434464538,1.5622812975632316,,,,,,,,,,,,
19067,0,USIowaFloyd,Iowa,Floyd,2022-04-28 09:13:11,2021-06-13,0.22421969948666054,0.5705598434464538,1.5622812975632316,,,,,,,,,,,,
19067,0,USIowaFloyd,Iowa,Floyd,2022-04-28 09:13:11,2021-06-14,0.22421969948666054,0.5705598434464538,1.5622812975632316,,,,,,,,,,,,
19067,0,USIowaFloyd,Iowa,Floyd,2022-04-28 09:13:11,2021-06-15,0.22421969948666054,0.5705598434464538,1.5622812975632316,,,,,,,,,,,,
19067,0,USIowaFloyd,Iowa,Floyd,2022-04-28 09:13:11,2021-06-16,0.22421969948666054,0.5705598434464538,1.5622812975632316,,,,,,,,,,,,
19067,0,USIowaFloyd,Iowa,Floyd,2022-04-28 09:13:11,2021-06-17,0.1317206373297518,0.38530904457288906,1.2103051358527401,,,,,,,,,,,,
19067,0,USIowaFloyd,Iowa,Floyd,2022-04-28 09:13:11,2021-06-18,0.1317206373297518,0.38530904457288906,1.2103051358527401,,,,,,,,,,,,
19067,0,USIowaFloyd,Iowa,Floyd,2022-04-28 09:13:11,2021-06-19,0.1317206373297518,0.38530904457288906,1.2103051358527401,,,,,,,,,,,,
19067,0,USIowaFloyd,Iowa,Floyd,2022-04-28 09:13:11,2021-06-20,0.1317206373297518,0.38530904457288906,1.2103051358527401,,,,,,,,,,,,
19067,0,USIowaFloyd,Iowa,Floyd,2022-04-28 09:13:11,2021-06-21,0.1317206373297518,0.38530904457288906,1.2103051358527401,,,,,,,,,,,,
19067,0,USIowaFloyd,Iowa,Floyd,2022-04-28 09:13:11,2021-06-22,0.1317206373297518,0.38530904457288906,1.2103051358527401,,,,,,,,,,,,
19067,0,USIowaFloyd,Iowa,Floyd,2022-04-28 09:13:11,2021-06-23,0.1317206373297518,0.38530904457288906,1.2103051358527401,,,,,,,,,,,,
19067,0,USIowaFloyd,Iowa,Floyd,2022-04-28 09:13:11,2021-06-24,0.13743544389029852,0.41681714618688714,1.3562408797172503,,,,,,,,,,,,
19067,0,USIowaFloyd,Iowa,Floyd,2022-04-28 09:13:11,2021-06-25,0.13743544389029852,0.41681714618688714,1.3562408797172503,,,,,,,,,,,,
19067,0,USIowaFloyd,Iowa,Floyd,2022-04-28 09:13:11,2021-06-26,0.13743544389029852,0.41681714618688714,1.3562408797172503,,,,,,,,,,,,
19067,0,USIowaFloyd,Iowa,Floyd,2022-04-28 09:13:11,2021-06-27,0.13743544389029852,0.41681714618688714,1.3562408797172503,,,,,,,,,,,,
19067,0,USIowaFloyd,Iowa,Floyd,2022-04-28 09:13:11,2021-06-28,0.13743544389029852,0.41681714618688714,1.3562408797172503,,,,,,,,,,,,
19067,0,USIowaFloyd,Iowa,Floyd,2022-04-28 09:13:11,2021-06-29,0.13743544389029852,0.41681714618688714,1.3562408797172503,,,,,,,,,,,,
19067,0,USIowaFloyd,Iowa,Floyd,2022-04-28 09:13:11,2021-06-30,0.13743544389029852,0.41681714618688714,1.3562408797172503,,,,,,,,,,,,
19067,0,USIowaFloyd,Iowa,Floyd,2022-04-28 09:13:11,2021-07-01,0.333460140281275,1.045280135077161,3.5121129762245724,,,,,,,,,,,,
19067,0,USIowaFloyd,Iowa,Floyd,2022-04-28 09:13:11,2021-07-02,0.333460140281275,1.045280135077161,3.5121129762245724,,,,,,,,,,,,
19067,0,USIowaFloyd,Iowa,Floyd,2022-04-28 09:13:11,2021-07-03,0.333460140281275,1.045280135077161,3.5121129762245724,,,,,,,,,,,,
19067,0,USIowaFloyd,Iowa,Floyd,2022-04-28 09:13:11,2021-07-04,0.333460140281275,1.045280135077161,3.5121129762245724,,,,,,,,,,,,
19067,0,USIowaFloyd,Iowa,Floyd,2022-04-28 09:13:11,2021-07-05,0.333460140281275,1.045280135077161,3.5121129762245724,,,,,,,,,,,,
19067,0,USIowaFloyd,Iowa,Floyd,2022-04-28 09:13:11,2021-07-06,0.333460140281275,1.045280135077161,3.5121129762245724,,,,,,,,,,,,
19067,0,USIowaFloyd,Iowa,Floyd,2022-04-28 09:13:11,2021-07-07,0.333460140281275,1.045280135077161,3.5121129762245724,,,,,,,,,,,,
19067,0,USIowaFloyd,Iowa,Floyd,2022-04-28 09:13:11,2021-07-08,0.06812618637140787,0.28632909016279195,1.2757953004638924,,,,,,,,,,,,
19067,0,USIowaFloyd,Iowa,Floyd,2022-04-28 09:13:11,2021-07-09,0.06812618637140787,0.28632909016279195,1.2757953004638924,,,,,,,,,,,,
19067,0,USIowaFloyd,Iowa,Floyd,2022-04-28 09:13:11,2021-07-10,0.06812618637140787,0.28632909016279195,1.2757953004638924,,,,,,,,,,,,
19067,0,USIowaFloyd,Iowa,Floyd,2022-04-28 09:13:11,2021-07-11,0.06812618637140787,0.28632909016279195,1.2757953004638924,,,,,,,,,,,,
19067,0,USIowaFloyd,Iowa,Floyd,2022-04-28 09:13:11,2021-07-12,0.06812618637140787,0.28632909016279195,1.2757953004638924,,,,,,,,,,,,
19067,0,USIowaFloyd,Iowa,Floyd,2022-04-28 09:13:11,2021-07-13,0.06812618637140787,0.28632909016279195,1.2757953004638924,,,,,,,,,,,,
19067,0,USIowaFloyd,Iowa,Floyd,2022-04-28 09:13:11,2021-07-14,0.06812618637140787,0.28632909016279195,1.2757953004638924,,,,,,,,,,,,
19067,0,USIowaFloyd,Iowa,Floyd,2022-04-28 09:13:11,2021-07-15,0,0,0,,,,,,,,,,,,
19067,0,USIowaFloyd,Iowa,Floyd,2022-04-28 09:13:11,2021-07-16,0,0,0,,,,,,,,,,,,
19067,0,USIowaFloyd,Iowa,Floyd,2022-04-28 09:13:11,2021-07-17,0,0,0,,,,,,,,,,,,
19067,0,USIowaFloyd,Iowa,Floyd,2022-04-28 09:13:11,2021-07-18,0,0,0,,,,,,,,,,,,
19067,0,USIowaFloyd,Iowa,Floyd,2022-04-28 09:13:11,2021-07-19,0,0,0,,,,,,,,,,,,
19067,0,USIowaFloyd,Iowa,Floyd,2022-04-28 09:13:11,2021-07-20,0,0,0,,,,,,,,,,,,
19067,0,USIowaFloyd,Iowa,Floyd,2022-04-28 09:13:11,2021-07-21,0,0,0,,,,,,,,,,,,
19067,0,USIowaFloyd,Iowa,Floyd,2022-04-28 09:13:11,2021-07-22,0.2918133637362616,0.9308326052297821,3.1809679575397034,,,,,,,,,,,,
19067,0,USIowaFloyd,Iowa,Floyd,2022-04-28 09:13:11,2021-07-23,0.2918133637362616,0.9308326052297821,3.1809679575397034,,,,,,,,,,,,
19067,0,USIowaFloyd,Iowa,Floyd,2022-04-28 09:13:11,2021-07-24,0.2918133637362616,0.9308326052297821,3.1809679575397034,,,,,,,,,,,,
19067,0,USIowaFloyd,Iowa,Floyd,2022-04-28 09:13:11,2021-07-25,0.2918133637362616,0.9308326052297821,3.1809679575397034,,,,,,,,,,,,
19067,0,USIowaFloyd,Iowa,Floyd,2022-04-28 09:13:11,2021-07-26,0.2918133637362616,0.9308326052297821,3.1809679575397034,,,,,,,,,,,,
19067,0,USIowaFloyd,Iowa,Floyd,2022-04-28 09:13:11,2021-07-27,0.2918133637362616,0.9308326052297821,3.1809679575397034,,,,,,,,,,,,
19067,0,USIowaFloyd,Iowa,Floyd,2022-04-28 09:13:11,2021-07-28,0.2918133637362616,0.9308326052297821,3.1809679575397034,,,,,,,,,,,,
19067,0,USIowaFloyd,Iowa,Floyd,2022-04-28 09:13:11,2021-07-29,0.502971864422612,1.5229641434040033,4.947644168800584,,,,,,,,,,,,
19067,0,USIowaFloyd,Iowa,Floyd,2022-04-28 09:13:11,2021-07-30,0.502971864422612,1.5229641434040033,4.947644168800584,,,,,,,,,,,,
19067,0,USIowaFloyd,Iowa,Floyd,2022-04-28 09:13:11,2021-07-31,0.502971864422612,1.5229641434040033,4.947644168800584,,,,,,,,,,,,
19067,0,USIowaFloyd,Iowa,Floyd,2022-04-28 09:13:11,2021-08-01,0.502971864422612,1.5229641434040033,4.947644168800584,,,,,,,,,,,,
19067,0,USIowaFloyd,Iowa,Floyd,2022-04-28 09:13:11,2021-08-02,0.502971864422612,1.5229641434040033,4.947644168800584,,,,,,,,,,,,
19067,0,USIowaFloyd,Iowa,Floyd,2022-04-28 09:13:11,2021-08-03,0.502971864422612,1.5229641434040033,4.947644168800584,,,,,,,,,,,,
19067,0,USIowaFloyd,Iowa,Floyd,2022-04-28 09:13:11,2021-08-04,0.502971864422612,1.5229641434040033,4.947644168800584,,,,,,,,,,,,
19067,0,USIowaFloyd,Iowa,Floyd,2022-04-28 09:13:11,2021-08-05,0.7599077776090073,2.0514762220437084,5.955896645492959,,,,,,,,,,,,
19067,0,USIowaFloyd,Iowa,Floyd,2022-04-28 09:13:11,2021-08-06,0.7599077776090073,2.0514762220437084,5.955896645492959,,,,,,,,,,,,
19067,0,USIowaFloyd,Iowa,Floyd,2022-04-28 09:13:11,2021-08-07,0.7599077776090073,2.0514762220437084,5.955896645492959,,,,,,,,,,,,
19067,0,USIowaFloyd,Iowa,Floyd,2022-04-28 09:13:11,2021-08-08,0.7599077776090073,2.0514762220437084,5.955896645492959,,,,,,,,,,,,
19067,0,USIowaFloyd,Iowa,Floyd,2022-04-28 09:13:11,2021-08-09,0.7599077776090073,2.0514762220437084,5.955896645492959,,,,,,,,,,,,
19067,0,USIowaFloyd,Iowa,Floyd,2022-04-28 09:13:11,2021-08-10,0.7599077776090073,2.0514762220437084,5.955896645492959,,,,,,,,,,,,
19067,0,USIowaFloyd,Iowa,Floyd,2022-04-28 09:13:11,2021-08-11,0.7599077776090073,2.0514762220437084,5.955896645492959,,,,,,,,,,,,
19067,0,USIowaFloyd,Iowa,Floyd,2022-04-28 09:13:11,2021-08-12,0.8272262321008982,2.2989702699854573,6.867851632903426,,,,,,,,,,,,
19067,0,USIowaFloyd,Iowa,Floyd,2022-04-28 09:13:11,2021-08-13,0.8272262321008982,2.2989702699854573,6.867851632903426,,,,,,,,,,,,
19067,0,USIowaFloyd,Iowa,Floyd,2022-04-28 09:13:11,2021-08-14,0.8272262321008982,2.2989702699854573,6.867851632903426,,,,,,,,,,,,
19067,0,USIowaFloyd,Iowa,Floyd,2022-04-28 09:13:11,2021-08-15,0.8272262321008982,2.2989702699854573,6.867851632903426,,,,,,,,,,,,
19067,0,USIowaFloyd,Iowa,Floyd,2022-04-28 09:13:11,2021-08-16,0.8272262321008982,2.2989702699854573,6.867851632903426,,,,,,,,,,,,
19067,0,USIowaFloyd,Iowa,Floyd,2022-04-28 09:13:11,2021-08-17,0.8272262321008982,2.2989702699854573,6.867851632903426,,,,,,,,,,,,
19067,0,USIowaFloyd,Iowa,Floyd,2022-04-28 09:13:11,2021-08-18,0.8272262321008982,2.2989702699854573,6.867851632903426,,,,,,,,,,,,
19067,0,USIowaFloyd,Iowa,Floyd,2022-04-28 09:13:11,2021-08-19,0.38711965961251893,0.40786015562123124,0.43145744996731406,,,,,,,,,,,,
19067,0,USIowaFloyd,Iowa,Floyd,2022-04-28 09:13:11,2021-08-20,0.38711965961251893,0.40786015562123124,0.43145744996731406,,,,,,,,,,,,
19067,0,USIowaFloyd,Iowa,Floyd,2022-04-28 09:13:11,2021-08-21,0.38711965961251893,0.40786015562123124,0.43145744996731406,,,,,,,,,,,,
19067,0,USIowaFloyd,Iowa,Floyd,2022-04-28 09:13:11,2021-08-22,0.38711965961251893,0.40786015562123124,0.43145744996731406,,,,,,,,,,,,
19067,0,USIowaFloyd,Iowa,Floyd,2022-04-28 09:13:11,2021-08-23,0.38711965961251893,0.40786015562123124,0.43145744996731406,,,,,,,,,,,,
19067,0,USIowaFloyd,Iowa,Floyd,2022-04-28 09:13:11,2021-08-24,0.38711965961251893,0.40786015562123124,0.43145744996731406,,,,,,,,,,,,
19067,0,USIowaFloyd,Iowa,Floyd,2022-04-28 09:13:11,2021-08-25,0.38711965961251893,0.40786015562123124,0.43145744996731406,,,,,,,,,,,,
19067,0,USIowaFloyd,Iowa,Floyd,2022-04-28 09:13:11,2021-08-26,1.1280531657787778,2.0049393208956183,3.796818674440719,,,,,,,,,,,,
19067,0,USIowaFloyd,Iowa,Floyd,2022-04-28 09:13:11,2021-08-27,1.1280531657787778,2.0049393208956183,3.796818674440719,,,,,,,,,,,,
19067,0,USIowaFloyd,Iowa,Floyd,2022-04-28 09:13:11,2021-08-28,1.1280531657787778,2.0049393208956183,3.796818674440719,,,,,,,,,,,,
19067,0,USIowaFloyd,Iowa,Floyd,2022-04-28 09:13:11,2021-08-29,1.1280531657787778,2.0049393208956183,3.796818674440719,,,,,,,,,,,,
19067,0,USIowaFloyd,Iowa,Floyd,2022-04-28 09:13:11,2021-08-30,1.1280531657787778,2.0049393208956183,3.796818674440719,,,,,,,,,,,,
19067,0,USIowaFloyd,Iowa,Floyd,2022-04-28 09:13:11,2021-08-31,1.1280531657787778,2.0049393208956183,3.796818674440719,,,,,,,,,,,,
19067,0,USIowaFloyd,Iowa,Floyd,2022-04-28 09:13:11,2021-09-01,1.1280531657787778,2.0049393208956183,3.796818674440719,,,,,,,,,,,,
19067,0,USIowaFloyd,Iowa,Floyd,2022-04-28 09:13:11,2021-09-02,0.7358298693569408,1.3655575589195885,2.707460938511087,,,,,,,,,,,,
19067,0,USIowaFloyd,Iowa,Floyd,2022-04-28 09:13:11,2021-09-03,0.7358298693569408,1.3655575589195885,2.707460938511087,,,,,,,,,,,,
19067,0,USIowaFloyd,Iowa,Floyd,2022-04-28 09:13:11,2021-09-04,0.7358298693569408,1.3655575589195885,2.707460938511087,,,,,,,,,,,,
19067,0,USIowaFloyd,Iowa,Floyd,2022-04-28 09:13:11,2021-09-05,0.7358298693569408,1.3655575589195885,2.707460938511087,,,,,,,,,,,,
19067,0,USIowaFloyd,Iowa,Floyd,2022-04-28 09:13:11,2021-09-06,0.7358298693569408,1.3655575589195885,2.707460938511087,,,,,,,,,,,,
19067,0,USIowaFloyd,Iowa,Floyd,2022-04-28 09:13:11,2021-09-07,0.7358298693569408,1.3655575589195885,2.707460938511087,,,,,,,,,,,,
19067,0,USIowaFloyd,Iowa,Floyd,2022-04-28 09:13:11,2021-09-08,0.7358298693569408,1.3655575589195885,2.707460938511087,,,,,,,,,,,,
19067,0,USIowaFloyd,Iowa,Floyd,2022-04-28 09:13:11,2021-09-09,1.4290368030027465,2.2518788501048967,3.74277855597279,,,,,,,,,,,,
19067,0,USIowaFloyd,Iowa,Floyd,2022-04-28 09:13:11,2021-09-10,1.4290368030027465,2.2518788501048967,3.74277855597279,,,,,,,,,,,,
19067,0,USIowaFloyd,Iowa,Floyd,2022-04-28 09:13:11,2021-09-11,1.4290368030027465,2.2518788501048967,3.74277855597279,,,,,,,,,,,,
19067,0,USIowaFloyd,Iowa,Floyd,2022-04-28 09:13:11,2021-09-12,1.4290368030027465,2.2518788501048967,3.74277855597279,,,,,,,,,,,,
19067,0,USIowaFloyd,Iowa,Floyd,2022-04-28 09:13:11,2021-09-13,1.4290368030027465,2.2518788501048967,3.74277855597279,,,,,,,,,,,,
19067,0,USIowaFloyd,Iowa,Floyd,2022-04-28 09:13:11,2021-09-14,1.4290368030027465,2.2518788501048967,3.74277855597279,,,,,,,,,,,,
19067,0,USIowaFloyd,Iowa,Floyd,2022-04-28 09:13:11,2021-09-15,1.4290368030027465,2.2518788501048967,3.74277855597279,,,,,,,,,,,,
19067,0,USIowaFloyd,Iowa,Floyd,2022-04-28 09:13:11,2021-09-16,2.399925862459842,5.022965408010738,11.289320228483286,,,,,,,,,,,,
19067,0,USIowaFloyd,Iowa,Floyd,2022-04-28 09:13:11,2021-09-17,2.399925862459842,5.022965408010738,11.289320228483286,,,,,,,,,,,,
19067,0,USIowaFloyd,Iowa,Floyd,2022-04-28 09:13:11,2021-09-18,2.399925862459842,5.022965408010738,11.289320228483286,,,,,,,,,,,,
19067,0,USIowaFloyd,Iowa,Floyd,2022-04-28 09:13:11,2021-09-19,2.399925862459842,5.022965408010738,11.289320228483286,,,,,,,,,,,,
19067,0,USIowaFloyd,Iowa,Floyd,2022-04-28 09:13:11,2021-09-20,2.399925862459842,5.022965408010738,11.289320228483286,,,,,,,,,,,,
19067,0,USIowaFloyd,Iowa,Floyd,2022-04-28 09:13:11,2021-09-21,2.399925862459842,5.022965408010738,11.289320228483286,,,,,,,,,,,,
19067,0,USIowaFloyd,Iowa,Floyd,2022-04-28 09:13:11,2021-09-22,2.399925862459842,5.022965408010738,11.289320228483286,,,,,,,,,,,,
19067,0,USIowaFloyd,Iowa,Floyd,2022-04-28 09:13:11,2021-09-23,2.5129303267260026,5.246307664592408,11.760896838121404,,,,,,,,,,,,
19067,0,USIowaFloyd,Iowa,Floyd,2022-04-28 09:13:11,2021-09-24,2.5129303267260026,5.246307664592408,11.760896838121404,,,,,,,,,,,,
19067,0,USIowaFloyd,Iowa,Floyd,2022-04-28 09:13:11,2021-09-25,2.5129303267260026,5.246307664592408,11.760896838121404,,,,,,,,,,,,
19067,0,USIowaFloyd,Iowa,Floyd,2022-04-28 09:13:11,2021-09-26,2.5129303267260026,5.246307664592408,11.760896838121404,,,,,,,,,,,,
19067,0,USIowaFloyd,Iowa,Floyd,2022-04-28 09:13:11,2021-09-27,2.5129303267260026,5.246307664592408,11.760896838121404,,,,,,,,,,,,
19067,0,USIowaFloyd,Iowa,Floyd,2022-04-28 09:13:11,2021-09-28,2.5129303267260026,5.246307664592408,11.760896838121404,,,,,,,,,,,,
19067,0,USIowaFloyd,Iowa,Floyd,2022-04-28 09:13:11,2021-09-29,2.5129303267260026,5.246307664592408,11.760896838121404,,,,,,,,,,,,
19067,0,USIowaFloyd,Iowa,Floyd,2022-04-28 09:13:11,2021-09-30,1.8970695494179741,4.357938566479714,10.770011719538939,,,,,,,,,,,,
19067,0,USIowaFloyd,Iowa,Floyd,2022-04-28 09:13:11,2021-10-01,1.8970695494179741,4.357938566479714,10.770011719538939,,,,,,,,,,,,
19067,0,USIowaFloyd,Iowa,Floyd,2022-04-28 09:13:11,2021-10-02,1.8970695494179741,4.357938566479714,10.770011719538939,,,,,,,,,,,,
19067,0,USIowaFloyd,Iowa,Floyd,2022-04-28 09:13:11,2021-10-03,1.8970695494179741,4.357938566479714,10.770011719538939,,,,,,,,,,,,
19067,0,USIowaFloyd,Iowa,Floyd,2022-04-28 09:13:11,2021-10-04,1.8970695494179741,4.357938566479714,10.770011719538939,,,,,,,,,,,,
19067,0,USIowaFloyd,Iowa,Floyd,2022-04-28 09:13:11,2021-10-05,1.8970695494179741,4.357938566479714,10.770011719538939,,,,,,,,,,,,
19067,0,USIowaFloyd,Iowa,Floyd,2022-04-28 09:13:11,2021-10-06,1.8970695494179741,4.357938566479714,10.770011719538939,,,,,,,,,,,,
19067,0,USIowaFloyd,Iowa,Floyd,2022-04-28 09:13:11,2021-10-07,2.1648193203911816,4.717385141909154,11.049956227740966,,,,,,,,,,,,
19067,0,USIowaFloyd,Iowa,Floyd,2022-04-28 09:13:11,2021-10-08,2.1648193203911816,4.717385141909154,11.049956227740966,,,,,,,,,,,,
19067,0,USIowaFloyd,Iowa,Floyd,2022-04-28 09:13:11,2021-10-09,2.1648193203911816,4.717385141909154,11.049956227740966,,,,,,,,,,,,
19067,0,USIowaFloyd,Iowa,Floyd,2022-04-28 09:13:11,2021-10-10,2.1648193203911816,4.717385141909154,11.049956227740966,,,,,,,,,,,,
19067,0,USIowaFloyd,Iowa,Floyd,2022-04-28 09:13:11,2021-10-11,2.1648193203911816,4.717385141909154,11.049956227740966,,,,,,,,,,,,
19067,0,USIowaFloyd,Iowa,Floyd,2022-04-28 09:13:11,2021-10-12,2.1648193203911816,4.717385141909154,11.049956227740966,,,,,,,,,,,,
19067,0,USIowaFloyd,Iowa,Floyd,2022-04-28 09:13:11,2021-10-13,2.1648193203911816,4.717385141909154,11.049956227740966,,,,,,,,,,,,
19067,0,USIowaFloyd,Iowa,Floyd,2022-04-28 09:13:11,2021-10-14,2.1427925742702763,6.0360825897260195,18.27269423740019,,,,,,,,,,,,
19067,0,USIowaFloyd,Iowa,Floyd,2022-04-28 09:13:11,2021-10-15,2.1427925742702763,6.0360825897260195,18.27269423740019,,,,,,,,,,,,
19067,0,USIowaFloyd,Iowa,Floyd,2022-04-28 09:13:11,2021-10-16,2.1427925742702763,6.0360825897260195,18.27269423740019,,,,,,,,,,,,
19067,0,USIowaFloyd,Iowa,Floyd,2022-04-28 09:13:11,2021-10-17,2.1427925742702763,6.0360825897260195,18.27269423740019,,,,,,,,,,,,
19067,0,USIowaFloyd,Iowa,Floyd,2022-04-28 09:13:11,2021-10-18,2.1427925742702763,6.0360825897260195,18.27269423740019,,,,,,,,,,,,
19067,0,USIowaFloyd,Iowa,Floyd,2022-04-28 09:13:11,2021-10-19,2.1427925742702763,6.0360825897260195,18.27269423740019,,,,,,,,,,,,
19067,0,USIowaFloyd,Iowa,Floyd,2022-04-28 09:13:11,2021-10-20,2.1427925742702763,6.0360825897260195,18.27269423740019,,,,,,,,,,,,
19067,0,USIowaFloyd,Iowa,Floyd,2022-04-28 09:13:11,2021-10-21,2.2573300289000247,4.7385331620040105,10.682549860014804,,,,,,,,,,,,
19067,0,USIowaFloyd,Iowa,Floyd,2022-04-28 09:13:11,2021-10-22,2.2573300289000247,4.7385331620040105,10.682549860014804,,,,,,,,,,,,
19067,0,USIowaFloyd,Iowa,Floyd,2022-04-28 09:13:11,2021-10-23,2.2573300289000247,4.7385331620040105,10.682549860014804,,,,,,,,,,,,
19067,0,USIowaFloyd,Iowa,Floyd,2022-04-28 09:13:11,2021-10-24,2.2573300289000247,4.7385331620040105,10.682549860014804,,,,,,,,,,,,
19067,0,USIowaFloyd,Iowa,Floyd,2022-04-28 09:13:11,2021-10-25,2.2573300289000247,4.7385331620040105,10.682549860014804,,,,,,,,,,,,
19067,0,USIowaFloyd,Iowa,Floyd,2022-04-28 09:13:11,2021-10-26,2.2573300289000247,4.7385331620040105,10.682549860014804,,,,,,,,,,,,
19067,0,USIowaFloyd,Iowa,Floyd,2022-04-28 09:13:11,2021-10-27,2.2573300289000247,4.7385331620040105,10.682549860014804,,,,,,,,,,,,
19067,0,USIowaFloyd,Iowa,Floyd,2022-04-28 09:13:11,2021-10-28,2.3890220779301576,6.518766106643609,19.125749706642704,,,,,,,,,,,,
19067,0,USIowaFloyd,Iowa,Floyd,2022-04-28 09:13:11,2021-10-29,2.3890220779301576,6.518766106643609,19.125749706642704,,,,,,,,,,,,
19067,0,USIowaFloyd,Iowa,Floyd,2022-04-28 09:13:11,2021-10-30,2.3890220779301576,6.518766106643609,19.125749706642704,,,,,,,,,,,,
19067,0,USIowaFloyd,Iowa,Floyd,2022-04-28 09:13:11,2021-10-31,2.3890220779301576,6.518766106643609,19.125749706642704,,,,,,,,,,,,
19067,0,USIowaFloyd,Iowa,Floyd,2022-04-28 09:13:11,2021-11-01,2.3890220779301576,6.518766106643609,19.125749706642704,,,,,,,,,,,,
19067,0,USIowaFloyd,Iowa,Floyd,2022-04-28 09:13:11,2021-11-02,2.3890220779301576,6.518766106643609,19.125749706642704,,,,,,,,,,,,
19067,0,USIowaFloyd,Iowa,Floyd,2022-04-28 09:13:11,2021-11-03,2.3890220779301576,6.518766106643609,19.125749706642704,,,,,,,,,,,,
19067,0,USIowaFloyd,Iowa,Floyd,2022-04-28 09:13:11,2021-11-04,2.598027443832655,6.917638952886351,19.81183766502512,,,,,,,,,,,,
19067,0,USIowaFloyd,Iowa,Floyd,2022-04-28 09:13:11,2021-11-05,2.598027443832655,6.917638952886351,19.81183766502512,,,,,,,,,,,,
19067,0,USIowaFloyd,Iowa,Floyd,2022-04-28 09:13:11,2021-11-06,2.598027443832655,6.917638952886351,19.81183766502512,,,,,,,,,,,,
19067,0,USIowaFloyd,Iowa,Floyd,2022-04-28 09:13:11,2021-11-07,2.598027443832655,6.917638952886351,19.81183766502512,,,,,,,,,,,,
19067,0,USIowaFloyd,Iowa,Floyd,2022-04-28 09:13:11,2021-11-08,2.598027443832655,6.917638952886351,19.81183766502512,,,,,,,,,,,,
19067,0,USIowaFloyd,Iowa,Floyd,2022-04-28 09:13:11,2021-11-09,2.598027443832655,6.917638952886351,19.81183766502512,,,,,,,,,,,,
19067,0,USIowaFloyd,Iowa,Floyd,2022-04-28 09:13:11,2021-11-10,2.598027443832655,6.917638952886351,19.81183766502512,,,,,,,,,,,,
19067,0,USIowaFloyd,Iowa,Floyd,2022-04-28 09:13:11,2021-11-11,3.0293466193064713,7.713922986999712,21.13637239591318,,,,,,,,,,,,
19067,0,USIowaFloyd,Iowa,Floyd,2022-04-28 09:13:11,2021-11-12,3.0293466193064713,7.713922986999712,21.13637239591318,,,,,,,,,,,,
19067,0,USIowaFloyd,Iowa,Floyd,2022-04-28 09:13:11,2021-11-13,3.0293466193064713,7.713922986999712,21.13637239591318,,,,,,,,,,,,
19067,0,USIowaFloyd,Iowa,Floyd,2022-04-28 09:13:11,2021-11-14,3.0293466193064713,7.713922986999712,21.13637239591318,,,,,,,,,,,,
19067,0,USIowaFloyd,Iowa,Floyd,2022-04-28 09:13:11,2021-11-15,3.0293466193064713,7.713922986999712,21.13637239591318,,,,,,,,,,,,
19067,0,USIowaFloyd,Iowa,Floyd,2022-04-28 09:13:11,2021-11-16,3.0293466193064713,7.713922986999712,21.13637239591318,,,,,,,,,,,,
19067,0,USIowaFloyd,Iowa,Floyd,2022-04-28 09:13:11,2021-11-17,3.0293466193064713,7.713922986999712,21.13637239591318,,,,,,,,,,,,
19067,0,USIowaFloyd,Iowa,Floyd,2022-04-28 09:13:11,2021-11-18,1.9225174797988491,4.612837659944133,11.91059465297573,,,,,,,,,,,,
19067,0,USIowaFloyd,Iowa,Floyd,2022-04-28 09:13:11,2021-11-19,1.9225174797988491,4.612837659944133,11.91059465297573,,,,,,,,,,,,
19067,0,USIowaFloyd,Iowa,Floyd,2022-04-28 09:13:11,2021-11-20,1.9225174797988491,4.612837659944133,11.91059465297573,,,,,,,,,,,,
19067,0,USIowaFloyd,Iowa,Floyd,2022-04-28 09:13:11,2021-11-21,1.9225174797988491,4.612837659944133,11.91059465297573,,,,,,,,,,,,
19067,0,USIowaFloyd,Iowa,Floyd,2022-04-28 09:13:11,2021-11-22,1.9225174797988491,4.612837659944133,11.91059465297573,,,,,,,,,,,,
19067,0,USIowaFloyd,Iowa,Floyd,2022-04-28 09:13:11,2021-11-23,1.9225174797988491,4.612837659944133,11.91059465297573,,,,,,,,,,,,
19067,0,USIowaFloyd,Iowa,Floyd,2022-04-28 09:13:11,2021-11-24,1.9225174797988491,4.612837659944133,11.91059465297573,,,,,,,,,,,,
19067,0,USIowaFloyd,Iowa,Floyd,2022-04-28 09:13:11,2021-11-25,2.297676791030744,6.341408219933137,18.815333963609962,,,,,,,,,,,,
19067,0,USIowaFloyd,Iowa,Floyd,2022-04-28 09:13:11,2021-11-26,2.297676791030744,6.341408219933137,18.815333963609962,,,,,,,,,,,,
19067,0,USIowaFloyd,Iowa,Floyd,2022-04-28 09:13:11,2021-11-27,2.297676791030744,6.341408219933137,18.815333963609962,,,,,,,,,,,,
19067,0,USIowaFloyd,Iowa,Floyd,2022-04-28 09:13:11,2021-11-28,2.297676791030744,6.341408219933137,18.815333963609962,,,,,,,,,,,,
19067,0,USIowaFloyd,Iowa,Floyd,2022-04-28 09:13:11,2021-11-29,2.297676791030744,6.341408219933137,18.815333963609962,,,,,,,,,,,,
19067,0,USIowaFloyd,Iowa,Floyd,2022-04-28 09:13:11,2021-11-30,2.297676791030744,6.341408219933137,18.815333963609962,,,,,,,,,,,,
19067,0,USIowaFloyd,Iowa,Floyd,2022-04-28 09:13:11,2021-12-01,2.297676791030744,6.341408219933137,18.815333963609962,,,,,,,,,,,,
19067,0,USIowaFloyd,Iowa,Floyd,2022-04-28 09:13:11,2021-12-02,2.1314450580786377,5.34469929820084,14.422271658090684,,,,,,,,,,,,
19067,0,USIowaFloyd,Iowa,Floyd,2022-04-28 09:13:11,2021-12-03,2.1314450580786377,5.34469929820084,14.422271658090684,,,,,,,,,,,,
19067,0,USIowaFloyd,Iowa,Floyd,2022-04-28 09:13:11,2021-12-04,2.1314450580786377,5.34469929820084,14.422271658090684,,,,,,,,,,,,
19067,0,USIowaFloyd,Iowa,Floyd,2022-04-28 09:13:11,2021-12-05,2.1314450580786377,5.34469929820084,14.422271658090684,,,,,,,,,,,,
19067,0,USIowaFloyd,Iowa,Floyd,2022-04-28 09:13:11,2021-12-06,2.1314450580786377,5.34469929820084,14.422271658090684,,,,,,,,,,,,
19067,0,USIowaFloyd,Iowa,Floyd,2022-04-28 09:13:11,2021-12-07,2.1314450580786377,5.34469929820084,14.422271658090684,,,,,,,,,,,,
19067,0,USIowaFloyd,Iowa,Floyd,2022-04-28 09:13:11,2021-12-08,2.1314450580786377,5.34469929820084,14.422271658090684,,,,,,,,,,,,
19067,0,USIowaFloyd,Iowa,Floyd,2022-04-28 09:13:11,2021-12-09,1.931546581957808,4.808148388976339,12.880178605196207,,,,,,,,,,,,
19067,0,USIowaFloyd,Iowa,Floyd,2022-04-28 09:13:11,2021-12-10,1.931546581957808,4.808148388976339,12.880178605196207,,,,,,,,,,,,
19067,0,USIowaFloyd,Iowa,Floyd,2022-04-28 09:13:11,2021-12-11,1.931546581957808,4.808148388976339,12.880178605196207,,,,,,,,,,,,
19067,0,USIowaFloyd,Iowa,Floyd,2022-04-28 09:13:11,2021-12-12,1.931546581957808,4.808148388976339,12.880178605196207,,,,,,,,,,,,
19067,0,USIowaFloyd,Iowa,Floyd,2022-04-28 09:13:11,2021-12-13,1.931546581957808,4.808148388976339,12.880178605196207,,,,,,,,,,,,
19067,0,USIowaFloyd,Iowa,Floyd,2022-04-28 09:13:11,2021-12-14,1.931546581957808,4.808148388976339,12.880178605196207,,,,,,,,,,,,
19067,0,USIowaFloyd,Iowa,Floyd,2022-04-28 09:13:11,2021-12-15,1.931546581957808,4.808148388976339,12.880178605196207,,,,,,,,,,,,
19067,0,USIowaFloyd,Iowa,Floyd,2022-04-28 09:13:11,2021-12-16,1.721512598469354,5.1717863225182565,16.673307614587713,,,,,,,,,,,,
19067,0,USIowaFloyd,Iowa,Floyd,2022-04-28 09:13:11,2021-12-17,1.721512598469354,5.1717863225182565,16.673307614587713,,,,,,,,,,,,
19067,0,USIowaFloyd,Iowa,Floyd,2022-04-28 09:13:11,2021-12-18,1.721512598469354,5.1717863225182565,16.673307614587713,,,,,,,,,,,,
19067,0,USIowaFloyd,Iowa,Floyd,2022-04-28 09:13:11,2021-12-19,1.721512598469354,5.1717863225182565,16.673307614587713,,,,,,,,,,,,
19067,0,USIowaFloyd,Iowa,Floyd,2022-04-28 09:13:11,2021-12-20,1.721512598469354,5.1717863225182565,16.673307614587713,,,,,,,,,,,,
19067,0,USIowaFloyd,Iowa,Floyd,2022-04-28 09:13:11,2021-12-21,1.721512598469354,5.1717863225182565,16.673307614587713,,,,,,,,,,,,
19067,0,USIowaFloyd,Iowa,Floyd,2022-04-28 09:13:11,2021-12-22,1.721512598469354,5.1717863225182565,16.673307614587713,,,,,,,,,,,,
19067,0,USIowaFloyd,Iowa,Floyd,2022-04-28 09:13:11,2021-12-23,1.0872711148227496,3.2663913615904776,10.530510072371186,,,,,,,,,,,,
19067,0,USIowaFloyd,Iowa,Floyd,2022-04-28 09:13:11,2021-12-24,1.0872711148227496,3.2663913615904776,10.530510072371186,,,,,,,,,,,,
19067,0,USIowaFloyd,Iowa,Floyd,2022-04-28 09:13:11,2021-12-25,1.0872711148227496,3.2663913615904776,10.530510072371186,,,,,,,,,,,,
19067,0,USIowaFloyd,Iowa,Floyd,2022-04-28 09:13:11,2021-12-26,1.0872711148227496,3.2663913615904776,10.530510072371186,,,,,,,,,,,,
19067,0,USIowaFloyd,Iowa,Floyd,2022-04-28 09:13:11,2021-12-27,1.0872711148227496,3.2663913615904776,10.530510072371186,,,,,,,,,,,,
19067,0,USIowaFloyd,Iowa,Floyd,2022-04-28 09:13:11,2021-12-28,1.0872711148227496,3.2663913615904776,10.530510072371186,,,,,,,,,,,,
19067,0,USIowaFloyd,Iowa,Floyd,2022-04-28 09:13:11,2021-12-29,1.0872711148227496,3.2663913615904776,10.530510072371186,,,,,,,,,,,,
19067,0,USIowaFloyd,Iowa,Floyd,2022-04-28 09:13:11,2021-12-30,2.1427925742702763,6.0360825897260195,18.27269423740019,,,,,,,,,,,,
19067,0,USIowaFloyd,Iowa,Floyd,2022-04-28 09:13:11,2021-12-31,2.1427925742702763,6.0360825897260195,18.27269423740019,,,,,,,,,,,,
19067,0,USIowaFloyd,Iowa,Floyd,2022-04-28 09:13:11,2022-01-01,2.1427925742702763,6.0360825897260195,18.27269423740019,,,,,,,,,,,,
19067,0,USIowaFloyd,Iowa,Floyd,2022-04-28 09:13:11,2022-01-02,2.1427925742702763,6.0360825897260195,18.27269423740019,,,,,,,,,,,,
19067,0,USIowaFloyd,Iowa,Floyd,2022-04-28 09:13:11,2022-01-03,2.1427925742702763,6.0360825897260195,18.27269423740019,,,,,,,,,,,,
19067,0,USIowaFloyd,Iowa,Floyd,2022-04-28 09:13:11,2022-01-04,2.1427925742702763,6.0360825897260195,18.27269423740019,,,,,,,,,,,,
19067,0,USIowaFloyd,Iowa,Floyd,2022-04-28 09:13:11,2022-01-05,2.1427925742702763,6.0360825897260195,18.27269423740019,,,,,,,,,,,,
19067,0,USIowaFloyd,Iowa,Floyd,2022-04-28 09:13:11,2022-01-06,3.996805114505896,9.3966056821578,23.771312779585024,,,,,,,,,,,,
19067,0,USIowaFloyd,Iowa,Floyd,2022-04-28 09:13:11,2022-01-07,3.996805114505896,9.3966056821578,23.771312779585024,,,,,,,,,,,,
19067,0,USIowaFloyd,Iowa,Floyd,2022-04-28 09:13:11,2022-01-08,3.996805114505896,9.3966056821578,23.771312779585024,,,,,,,,,,,,
19067,0,USIowaFloyd,Iowa,Floyd,2022-04-28 09:13:11,2022-01-09,3.996805114505896,9.3966056821578,23.771312779585024,,,,,,,,,,,,
19067,0,USIowaFloyd,Iowa,Floyd,2022-04-28 09:13:11,2022-01-10,3.996805114505896,9.3966056821578,23.771312779585024,,,,,,,,,,,,
19067,0,USIowaFloyd,Iowa,Floyd,2022-04-28 09:13:11,2022-01-11,3.996805114505896,9.3966056821578,23.771312779585024,,,,,,,,,,,,
19067,0,USIowaFloyd,Iowa,Floyd,2022-04-28 09:13:11,2022-01-12,3.996805114505896,9.3966056821578,23.771312779585024,,,,,,,,,,,,
19067,0,USIowaFloyd,Iowa,Floyd,2022-04-28 09:13:11,2022-01-13,5.519500684486819,11.841807637784592,27.30016800798713,,,,,,,,,,,,
19067,0,USIowaFloyd,Iowa,Floyd,2022-04-28 09:13:11,2022-01-14,5.519500684486819,11.841807637784592,27.30016800798713,,,,,,,,,,,,
19067,0,USIowaFloyd,Iowa,Floyd,2022-04-28 09:13:11,2022-01-15,5.519500684486819,11.841807637784592,27.30016800798713,,,,,,,,,,,,
19067,0,USIowaFloyd,Iowa,Floyd,2022-04-28 09:13:11,2022-01-16,5.519500684486819,11.841807637784592,27.30016800798713,,,,,,,,,,,,
19067,0,USIowaFloyd,Iowa,Floyd,2022-04-28 09:13:11,2022-01-17,5.519500684486819,11.841807637784592,27.30016800798713,,,,,,,,,,,,
19067,0,USIowaFloyd,Iowa,Floyd,2022-04-28 09:13:11,2022-01-18,5.519500684486819,11.841807637784592,27.30016800798713,,,,,,,,,,,,
19067,0,USIowaFloyd,Iowa,Floyd,2022-04-28 09:13:11,2022-01-19,5.519500684486819,11.841807637784592,27.30016800798713,,,,,,,,,,,,
19067,0,USIowaFloyd,Iowa,Floyd,2022-04-28 09:13:11,2022-01-20,4.454173739612991,10.153168575905486,24.896307777858002,,,,,,,,,,,,
19067,0,USIowaFloyd,Iowa,Floyd,2022-04-28 09:13:11,2022-01-21,4.454173739612991,10.153168575905486,24.896307777858002,,,,,,,,,,,,
19067,0,USIowaFloyd,Iowa,Floyd,2022-04-28 09:13:11,2022-01-22,4.454173739612991,10.153168575905486,24.896307777858002,,,,,,,,,,,,
19067,0,USIowaFloyd,Iowa,Floyd,2022-04-28 09:13:11,2022-01-23,4.454173739612991,10.153168575905486,24.896307777858002,,,,,,,,,,,,
19067,0,USIowaFloyd,Iowa,Floyd,2022-04-28 09:13:11,2022-01-24,4.454173739612991,10.153168575905486,24.896307777858002,,,,,,,,,,,,
19067,0,USIowaFloyd,Iowa,Floyd,2022-04-28 09:13:11,2022-01-25,4.454173739612991,10.153168575905486,24.896307777858002,,,,,,,,,,,,
19067,0,USIowaFloyd,Iowa,Floyd,2022-04-28 09:13:11,2022-01-26,4.454173739612991,10.153168575905486,24.896307777858002,,,,,,,,,,,,
19067,0,USIowaFloyd,Iowa,Floyd,2022-04-28 09:13:11,2022-01-27,4.074074560534145,9.525962753725487,23.96602774470386,,,,,,,,,,,,
19067,0,USIowaFloyd,Iowa,Floyd,2022-04-28 09:13:11,2022-01-28,4.074074560534145,9.525962753725487,23.96602774470386,,,,,,,,,,,,
19067,0,USIowaFloyd,Iowa,Floyd,2022-04-28 09:13:11,2022-01-29,4.074074560534145,9.525962753725487,23.96602774470386,,,,,,,,,,,,
19067,0,USIowaFloyd,Iowa,Floyd,2022-04-28 09:13:11,2022-01-30,4.074074560534145,9.525962753725487,23.96602774470386,,,,,,,,,,,,
19067,0,USIowaFloyd,Iowa,Floyd,2022-04-28 09:13:11,2022-01-31,4.074074560534145,9.525962753725487,23.96602774470386,,,,,,,,,,,,
19067,0,USIowaFloyd,Iowa,Floyd,2022-04-28 09:13:11,2022-02-01,4.074074560534145,9.525962753725487,23.96602774470386,,,,,,,,,,,,
19067,0,USIowaFloyd,Iowa,Floyd,2022-04-28 09:13:11,2022-02-02,4.074074560534145,9.525962753725487,23.96602774470386,,,,,,,,,,,,
19067,0,USIowaFloyd,Iowa,Floyd,2022-04-28 09:13:11,2022-02-03,2.449307324069033,6.6347791975862895,19.326979494037243,,,,,,,,,,,,
19067,0,USIowaFloyd,Iowa,Floyd,2022-04-28 09:13:11,2022-02-04,2.449307324069033,6.6347791975862895,19.326979494037243,,,,,,,,,,,,
19067,0,USIowaFloyd,Iowa,Floyd,2022-04-28 09:13:11,2022-02-05,2.449307324069033,6.6347791975862895,19.326979494037243,,,,,,,,,,,,
19067,0,USIowaFloyd,Iowa,Floyd,2022-04-28 09:13:11,2022-02-06,2.449307324069033,6.6347791975862895,19.326979494037243,,,,,,,,,,,,
19067,0,USIowaFloyd,Iowa,Floyd,2022-04-28 09:13:11,2022-02-07,2.449307324069033,6.6347791975862895,19.326979494037243,,,,,,,,,,,,
19067,0,USIowaFloyd,Iowa,Floyd,2022-04-28 09:13:11,2022-02-08,2.449307324069033,6.6347791975862895,19.326979494037243,,,,,,,,,,,,
19067,0,USIowaFloyd,Iowa,Floyd,2022-04-28 09:13:11,2022-02-09,2.449307324069033,6.6347791975862895,19.326979494037243,,,,,,,,,,,,
19067,0,USIowaFloyd,Iowa,Floyd,2022-04-28 09:13:11,2022-02-10,1.0870243209176602,3.049092317272137,9.191969630074587,,,,,,,,,,,,
19067,0,USIowaFloyd,Iowa,Floyd,2022-04-28 09:13:11,2022-02-11,1.0870243209176602,3.049092317272137,9.191969630074587,,,,,,,,,,,,
19067,0,USIowaFloyd,Iowa,Floyd,2022-04-28 09:13:11,2022-02-12,1.0870243209176602,3.049092317272137,9.191969630074587,,,,,,,,,,,,
19067,0,USIowaFloyd,Iowa,Floyd,2022-04-28 09:13:11,2022-02-13,1.0870243209176602,3.049092317272137,9.191969630074587,,,,,,,,,,,,
19067,0,USIowaFloyd,Iowa,Floyd,2022-04-28 09:13:11,2022-02-14,1.0870243209176602,3.049092317272137,9.191969630074587,,,,,,,,,,,,
19067,0,USIowaFloyd,Iowa,Floyd,2022-04-28 09:13:11,2022-02-15,1.0870243209176602,3.049092317272137,9.191969630074587,,,,,,,,,,,,
19067,0,USIowaFloyd,Iowa,Floyd,2022-04-28 09:13:11,2022-02-16,1.0870243209176602,3.049092317272137,9.191969630074587,,,,,,,,,,,,
19067,0,USIowaFloyd,Iowa,Floyd,2022-04-28 09:13:11,2022-02-17,0.9092995915894263,3.3005493290897583,12.77729870075749,,,,,,,,,,,,
19067,0,USIowaFloyd,Iowa,Floyd,2022-04-28 09:13:11,2022-02-18,0.9092995915894263,3.3005493290897583,12.77729870075749,,,,,,,,,,,,
19067,0,USIowaFloyd,Iowa,Floyd,2022-04-28 09:13:11,2022-02-19,0.9092995915894263,3.3005493290897583,12.77729870075749,,,,,,,,,,,,
19067,0,USIowaFloyd,Iowa,Floyd,2022-04-28 09:13:11,2022-02-20,0.9092995915894263,3.3005493290897583,12.77729870075749,,,,,,,,,,,,
19067,0,USIowaFloyd,Iowa,Floyd,2022-04-28 09:13:11,2022-02-21,0.9092995915894263,3.3005493290897583,12.77729870075749,,,,,,,,,,,,
19067,0,USIowaFloyd,Iowa,Floyd,2022-04-28 09:13:11,2022-02-22,0.9092995915894263,3.3005493290897583,12.77729870075749,,,,,,,,,,,,
19067,0,USIowaFloyd,Iowa,Floyd,2022-04-28 09:13:11,2022-02-23,0.9092995915894263,3.3005493290897583,12.77729870075749,,,,,,,,,,,,
19067,0,USIowaFloyd,Iowa,Floyd,2022-04-28 09:13:11,2022-02-24,0.8244987096907113,3.0812014888183774,12.266794792276928,,,,,,,,,,,,
19067,0,USIowaFloyd,Iowa,Floyd,2022-04-28 09:13:11,2022-02-25,0.8244987096907113,3.0812014888183774,12.266794792276928,,,,,,,,,,,,
19067,0,USIowaFloyd,Iowa,Floyd,2022-04-28 09:13:11,2022-02-26,0.8244987096907113,3.0812014888183774,12.266794792276928,,,,,,,,,,,,
19067,0,USIowaFloyd,Iowa,Floyd,2022-04-28 09:13:11,2022-02-27,0.8244987096907113,3.0812014888183774,12.266794792276928,,,,,,,,,,,,
19067,0,USIowaFloyd,Iowa,Floyd,2022-04-28 09:13:11,2022-02-28,0.8244987096907113,3.0812014888183774,12.266794792276928,,,,,,,,,,,,
19067,0,USIowaFloyd,Iowa,Floyd,2022-04-28 09:13:11,2022-03-01,0.8244987096907113,3.0812014888183774,12.266794792276928,,,,,,,,,,,,
19067,0,USIowaFloyd,Iowa,Floyd,2022-04-28 09:13:11,2022-03-02,0.8244987096907113,3.0812014888183774,12.266794792276928,,,,,,,,,,,,
