FIPS,HR_UID,nameid,province,region,analysisTime,dates,pointprevalence_025,pointprevalence_50,pointprevalence_975,pointinfections_025,pointinfections_50,pointinfections_975,pointinfectious_025,pointinfectious_50,pointinfectious_975,pointinfectiousprevalence_025,pointinfectiousprevalence_50,pointinfectiousprevalence_975,infectrate_025,infectrate_50,infectrate_975
31103,0,USNebraskaKeyaPaha,Nebraska,KeyaPaha,2022-04-28 09:13:11,2020-03-19,0,0,0,,,,,,,,,,,,
31103,0,USNebraskaKeyaPaha,Nebraska,KeyaPaha,2022-04-28 09:13:11,2020-03-20,0,0,0,,,,,,,,,,,,
31103,0,USNebraskaKeyaPaha,Nebraska,KeyaPaha,2022-04-28 09:13:11,2020-03-21,0,0,0,,,,,,,,,,,,
31103,0,USNebraskaKeyaPaha,Nebraska,KeyaPaha,2022-04-28 09:13:11,2020-03-22,0,0,0,,,,,,,,,,,,
31103,0,USNebraskaKeyaPaha,Nebraska,KeyaPaha,2022-04-28 09:13:11,2020-03-23,0,0,0,,,,,,,,,,,,
31103,0,USNebraskaKeyaPaha,Nebraska,KeyaPaha,2022-04-28 09:13:11,2020-03-24,0,0,0,,,,,,,,,,,,
31103,0,USNebraskaKeyaPaha,Nebraska,KeyaPaha,2022-04-28 09:13:11,2020-03-25,0,0,0,,,,,,,,,,,,
31103,0,USNebraskaKeyaPaha,Nebraska,KeyaPaha,2022-04-28 09:13:11,2020-03-26,0,0,0,,,,,,,,,,,,
31103,0,USNebraskaKeyaPaha,Nebraska,KeyaPaha,2022-04-28 09:13:11,2020-03-27,0,0,0,,,,,,,,,,,,
31103,0,USNebraskaKeyaPaha,Nebraska,KeyaPaha,2022-04-28 09:13:11,2020-03-28,0,0,0,,,,,,,,,,,,
31103,0,USNebraskaKeyaPaha,Nebraska,KeyaPaha,2022-04-28 09:13:11,2020-03-29,0,0,0,,,,,,,,,,,,
31103,0,USNebraskaKeyaPaha,Nebraska,KeyaPaha,2022-04-28 09:13:11,2020-03-30,0,0,0,,,,,,,,,,,,
31103,0,USNebraskaKeyaPaha,Nebraska,KeyaPaha,2022-04-28 09:13:11,2020-03-31,0,0,0,,,,,,,,,,,,
31103,0,USNebraskaKeyaPaha,Nebraska,KeyaPaha,2022-04-28 09:13:11,2020-04-01,0,0,0,,,,,,,,,,,,
31103,0,USNebraskaKeyaPaha,Nebraska,KeyaPaha,2022-04-28 09:13:11,2020-04-02,0,0,0,,,,,,,,,,,,
31103,0,USNebraskaKeyaPaha,Nebraska,KeyaPaha,2022-04-28 09:13:11,2020-04-03,0,0,0,,,,,,,,,,,,
31103,0,USNebraskaKeyaPaha,Nebraska,KeyaPaha,2022-04-28 09:13:11,2020-04-04,0,0,0,,,,,,,,,,,,
31103,0,USNebraskaKeyaPaha,Nebraska,KeyaPaha,2022-04-28 09:13:11,2020-04-05,0,0,0,,,,,,,,,,,,
31103,0,USNebraskaKeyaPaha,Nebraska,KeyaPaha,2022-04-28 09:13:11,2020-04-06,0,0,0,,,,,,,,,,,,
31103,0,USNebraskaKeyaPaha,Nebraska,KeyaPaha,2022-04-28 09:13:11,2020-04-07,0,0,0,,,,,,,,,,,,
31103,0,USNebraskaKeyaPaha,Nebraska,KeyaPaha,2022-04-28 09:13:11,2020-04-08,0,0,0,,,,,,,,,,,,
31103,0,USNebraskaKeyaPaha,Nebraska,KeyaPaha,2022-04-28 09:13:11,2020-04-09,0,0,0,,,,,,,,,,,,
31103,0,USNebraskaKeyaPaha,Nebraska,KeyaPaha,2022-04-28 09:13:11,2020-04-10,0,0,0,,,,,,,,,,,,
31103,0,USNebraskaKeyaPaha,Nebraska,KeyaPaha,2022-04-28 09:13:11,2020-04-11,0,0,0,,,,,,,,,,,,
31103,0,USNebraskaKeyaPaha,Nebraska,KeyaPaha,2022-04-28 09:13:11,2020-04-12,0,0,0,,,,,,,,,,,,
31103,0,USNebraskaKeyaPaha,Nebraska,KeyaPaha,2022-04-28 09:13:11,2020-04-13,0,0,0,,,,,,,,,,,,
31103,0,USNebraskaKeyaPaha,Nebraska,KeyaPaha,2022-04-28 09:13:11,2020-04-14,0,0,0,,,,,,,,,,,,
31103,0,USNebraskaKeyaPaha,Nebraska,KeyaPaha,2022-04-28 09:13:11,2020-04-15,0,0,0,,,,,,,,,,,,
31103,0,USNebraskaKeyaPaha,Nebraska,KeyaPaha,2022-04-28 09:13:11,2020-04-16,0,0,0,,,,,,,,,,,,
31103,0,USNebraskaKeyaPaha,Nebraska,KeyaPaha,2022-04-28 09:13:11,2020-04-17,0,0,0,,,,,,,,,,,,
31103,0,USNebraskaKeyaPaha,Nebraska,KeyaPaha,2022-04-28 09:13:11,2020-04-18,0,0,0,,,,,,,,,,,,
31103,0,USNebraskaKeyaPaha,Nebraska,KeyaPaha,2022-04-28 09:13:11,2020-04-19,0,0,0,,,,,,,,,,,,
31103,0,USNebraskaKeyaPaha,Nebraska,KeyaPaha,2022-04-28 09:13:11,2020-04-20,0,0,0,,,,,,,,,,,,
31103,0,USNebraskaKeyaPaha,Nebraska,KeyaPaha,2022-04-28 09:13:11,2020-04-21,0,0,0,,,,,,,,,,,,
31103,0,USNebraskaKeyaPaha,Nebraska,KeyaPaha,2022-04-28 09:13:11,2020-04-22,0,0,0,,,,,,,,,,,,
31103,0,USNebraskaKeyaPaha,Nebraska,KeyaPaha,2022-04-28 09:13:11,2020-04-23,0,0,0,,,,,,,,,,,,
31103,0,USNebraskaKeyaPaha,Nebraska,KeyaPaha,2022-04-28 09:13:11,2020-04-24,0,0,0,,,,,,,,,,,,
31103,0,USNebraskaKeyaPaha,Nebraska,KeyaPaha,2022-04-28 09:13:11,2020-04-25,0,0,0,,,,,,,,,,,,
31103,0,USNebraskaKeyaPaha,Nebraska,KeyaPaha,2022-04-28 09:13:11,2020-04-26,0,0,0,,,,,,,,,,,,
31103,0,USNebraskaKeyaPaha,Nebraska,KeyaPaha,2022-04-28 09:13:11,2020-04-27,0,0,0,,,,,,,,,,,,
31103,0,USNebraskaKeyaPaha,Nebraska,KeyaPaha,2022-04-28 09:13:11,2020-04-28,0,0,0,,,,,,,,,,,,
31103,0,USNebraskaKeyaPaha,Nebraska,KeyaPaha,2022-04-28 09:13:11,2020-04-29,0,0,0,,,,,,,,,,,,
31103,0,USNebraskaKeyaPaha,Nebraska,KeyaPaha,2022-04-28 09:13:11,2020-04-30,0,0,0,,,,,,,,,,,,
31103,0,USNebraskaKeyaPaha,Nebraska,KeyaPaha,2022-04-28 09:13:11,2020-05-01,0,0,0,,,,,,,,,,,,
31103,0,USNebraskaKeyaPaha,Nebraska,KeyaPaha,2022-04-28 09:13:11,2020-05-02,0,0,0,,,,,,,,,,,,
31103,0,USNebraskaKeyaPaha,Nebraska,KeyaPaha,2022-04-28 09:13:11,2020-05-03,0,0,0,,,,,,,,,,,,
31103,0,USNebraskaKeyaPaha,Nebraska,KeyaPaha,2022-04-28 09:13:11,2020-05-04,0,0,0,,,,,,,,,,,,
31103,0,USNebraskaKeyaPaha,Nebraska,KeyaPaha,2022-04-28 09:13:11,2020-05-05,0,0,0,,,,,,,,,,,,
31103,0,USNebraskaKeyaPaha,Nebraska,KeyaPaha,2022-04-28 09:13:11,2020-05-06,0,0,0,,,,,,,,,,,,
31103,0,USNebraskaKeyaPaha,Nebraska,KeyaPaha,2022-04-28 09:13:11,2020-05-07,0,0,0,,,,,,,,,,,,
31103,0,USNebraskaKeyaPaha,Nebraska,KeyaPaha,2022-04-28 09:13:11,2020-05-08,0,0,0,,,,,,,,,,,,
31103,0,USNebraskaKeyaPaha,Nebraska,KeyaPaha,2022-04-28 09:13:11,2020-05-09,0,0,0,,,,,,,,,,,,
31103,0,USNebraskaKeyaPaha,Nebraska,KeyaPaha,2022-04-28 09:13:11,2020-05-10,0,0,0,,,,,,,,,,,,
31103,0,USNebraskaKeyaPaha,Nebraska,KeyaPaha,2022-04-28 09:13:11,2020-05-11,0,0,0,,,,,,,,,,,,
31103,0,USNebraskaKeyaPaha,Nebraska,KeyaPaha,2022-04-28 09:13:11,2020-05-12,0,0,0,,,,,,,,,,,,
31103,0,USNebraskaKeyaPaha,Nebraska,KeyaPaha,2022-04-28 09:13:11,2020-05-13,0,0,0,,,,,,,,,,,,
31103,0,USNebraskaKeyaPaha,Nebraska,KeyaPaha,2022-04-28 09:13:11,2020-05-14,1.315610329277251,2.1259695252628044,3.632407488635058,,,,,,,,,,,,
31103,0,USNebraskaKeyaPaha,Nebraska,KeyaPaha,2022-04-28 09:13:11,2020-05-15,1.315610329277251,2.1259695252628044,3.632407488635058,,,,,,,,,,,,
31103,0,USNebraskaKeyaPaha,Nebraska,KeyaPaha,2022-04-28 09:13:11,2020-05-16,1.315610329277251,2.1259695252628044,3.632407488635058,,,,,,,,,,,,
31103,0,USNebraskaKeyaPaha,Nebraska,KeyaPaha,2022-04-28 09:13:11,2020-05-17,1.315610329277251,2.1259695252628044,3.632407488635058,,,,,,,,,,,,
31103,0,USNebraskaKeyaPaha,Nebraska,KeyaPaha,2022-04-28 09:13:11,2020-05-18,1.315610329277251,2.1259695252628044,3.632407488635058,,,,,,,,,,,,
31103,0,USNebraskaKeyaPaha,Nebraska,KeyaPaha,2022-04-28 09:13:11,2020-05-19,1.315610329277251,2.1259695252628044,3.632407488635058,,,,,,,,,,,,
31103,0,USNebraskaKeyaPaha,Nebraska,KeyaPaha,2022-04-28 09:13:11,2020-05-20,1.315610329277251,2.1259695252628044,3.632407488635058,,,,,,,,,,,,
31103,0,USNebraskaKeyaPaha,Nebraska,KeyaPaha,2022-04-28 09:13:11,2020-05-21,0,0,0,,,,,,,,,,,,
31103,0,USNebraskaKeyaPaha,Nebraska,KeyaPaha,2022-04-28 09:13:11,2020-05-22,0,0,0,,,,,,,,,,,,
31103,0,USNebraskaKeyaPaha,Nebraska,KeyaPaha,2022-04-28 09:13:11,2020-05-23,0,0,0,,,,,,,,,,,,
31103,0,USNebraskaKeyaPaha,Nebraska,KeyaPaha,2022-04-28 09:13:11,2020-05-24,0,0,0,,,,,,,,,,,,
31103,0,USNebraskaKeyaPaha,Nebraska,KeyaPaha,2022-04-28 09:13:11,2020-05-25,0,0,0,,,,,,,,,,,,
31103,0,USNebraskaKeyaPaha,Nebraska,KeyaPaha,2022-04-28 09:13:11,2020-05-26,0,0,0,,,,,,,,,,,,
31103,0,USNebraskaKeyaPaha,Nebraska,KeyaPaha,2022-04-28 09:13:11,2020-05-27,0,0,0,,,,,,,,,,,,
31103,0,USNebraskaKeyaPaha,Nebraska,KeyaPaha,2022-04-28 09:13:11,2020-05-28,0,0,0,,,,,,,,,,,,
31103,0,USNebraskaKeyaPaha,Nebraska,KeyaPaha,2022-04-28 09:13:11,2020-05-29,0,0,0,,,,,,,,,,,,
31103,0,USNebraskaKeyaPaha,Nebraska,KeyaPaha,2022-04-28 09:13:11,2020-05-30,0,0,0,,,,,,,,,,,,
31103,0,USNebraskaKeyaPaha,Nebraska,KeyaPaha,2022-04-28 09:13:11,2020-05-31,0,0,0,,,,,,,,,,,,
31103,0,USNebraskaKeyaPaha,Nebraska,KeyaPaha,2022-04-28 09:13:11,2020-06-01,0,0,0,,,,,,,,,,,,
31103,0,USNebraskaKeyaPaha,Nebraska,KeyaPaha,2022-04-28 09:13:11,2020-06-02,0,0,0,,,,,,,,,,,,
31103,0,USNebraskaKeyaPaha,Nebraska,KeyaPaha,2022-04-28 09:13:11,2020-06-03,0,0,0,,,,,,,,,,,,
31103,0,USNebraskaKeyaPaha,Nebraska,KeyaPaha,2022-04-28 09:13:11,2020-06-04,0,0,0,,,,,,,,,,,,
31103,0,USNebraskaKeyaPaha,Nebraska,KeyaPaha,2022-04-28 09:13:11,2020-06-05,0,0,0,,,,,,,,,,,,
31103,0,USNebraskaKeyaPaha,Nebraska,KeyaPaha,2022-04-28 09:13:11,2020-06-06,0,0,0,,,,,,,,,,,,
31103,0,USNebraskaKeyaPaha,Nebraska,KeyaPaha,2022-04-28 09:13:11,2020-06-07,0,0,0,,,,,,,,,,,,
31103,0,USNebraskaKeyaPaha,Nebraska,KeyaPaha,2022-04-28 09:13:11,2020-06-08,0,0,0,,,,,,,,,,,,
31103,0,USNebraskaKeyaPaha,Nebraska,KeyaPaha,2022-04-28 09:13:11,2020-06-09,0,0,0,,,,,,,,,,,,
31103,0,USNebraskaKeyaPaha,Nebraska,KeyaPaha,2022-04-28 09:13:11,2020-06-10,0,0,0,,,,,,,,,,,,
31103,0,USNebraskaKeyaPaha,Nebraska,KeyaPaha,2022-04-28 09:13:11,2020-06-11,0,0,0,,,,,,,,,,,,
31103,0,USNebraskaKeyaPaha,Nebraska,KeyaPaha,2022-04-28 09:13:11,2020-06-12,0,0,0,,,,,,,,,,,,
31103,0,USNebraskaKeyaPaha,Nebraska,KeyaPaha,2022-04-28 09:13:11,2020-06-13,0,0,0,,,,,,,,,,,,
31103,0,USNebraskaKeyaPaha,Nebraska,KeyaPaha,2022-04-28 09:13:11,2020-06-14,0,0,0,,,,,,,,,,,,
31103,0,USNebraskaKeyaPaha,Nebraska,KeyaPaha,2022-04-28 09:13:11,2020-06-15,0,0,0,,,,,,,,,,,,
31103,0,USNebraskaKeyaPaha,Nebraska,KeyaPaha,2022-04-28 09:13:11,2020-06-16,0,0,0,,,,,,,,,,,,
31103,0,USNebraskaKeyaPaha,Nebraska,KeyaPaha,2022-04-28 09:13:11,2020-06-17,0,0,0,,,,,,,,,,,,
31103,0,USNebraskaKeyaPaha,Nebraska,KeyaPaha,2022-04-28 09:13:11,2020-06-18,0.4919343949513209,0.883294732151666,1.6910114731673993,,,,,,,,,,,,
31103,0,USNebraskaKeyaPaha,Nebraska,KeyaPaha,2022-04-28 09:13:11,2020-06-19,0.4919343949513209,0.883294732151666,1.6910114731673993,,,,,,,,,,,,
31103,0,USNebraskaKeyaPaha,Nebraska,KeyaPaha,2022-04-28 09:13:11,2020-06-20,0.4919343949513209,0.883294732151666,1.6910114731673993,,,,,,,,,,,,
31103,0,USNebraskaKeyaPaha,Nebraska,KeyaPaha,2022-04-28 09:13:11,2020-06-21,0.4919343949513209,0.883294732151666,1.6910114731673993,,,,,,,,,,,,
31103,0,USNebraskaKeyaPaha,Nebraska,KeyaPaha,2022-04-28 09:13:11,2020-06-22,0.4919343949513209,0.883294732151666,1.6910114731673993,,,,,,,,,,,,
31103,0,USNebraskaKeyaPaha,Nebraska,KeyaPaha,2022-04-28 09:13:11,2020-06-23,0.4919343949513209,0.883294732151666,1.6910114731673993,,,,,,,,,,,,
31103,0,USNebraskaKeyaPaha,Nebraska,KeyaPaha,2022-04-28 09:13:11,2020-06-24,0.4919343949513209,0.883294732151666,1.6910114731673993,,,,,,,,,,,,
31103,0,USNebraskaKeyaPaha,Nebraska,KeyaPaha,2022-04-28 09:13:11,2020-06-25,0,0,0,,,,,,,,,,,,
31103,0,USNebraskaKeyaPaha,Nebraska,KeyaPaha,2022-04-28 09:13:11,2020-06-26,0,0,0,,,,,,,,,,,,
31103,0,USNebraskaKeyaPaha,Nebraska,KeyaPaha,2022-04-28 09:13:11,2020-06-27,0,0,0,,,,,,,,,,,,
31103,0,USNebraskaKeyaPaha,Nebraska,KeyaPaha,2022-04-28 09:13:11,2020-06-28,0,0,0,,,,,,,,,,,,
31103,0,USNebraskaKeyaPaha,Nebraska,KeyaPaha,2022-04-28 09:13:11,2020-06-29,0,0,0,,,,,,,,,,,,
31103,0,USNebraskaKeyaPaha,Nebraska,KeyaPaha,2022-04-28 09:13:11,2020-06-30,0,0,0,,,,,,,,,,,,
31103,0,USNebraskaKeyaPaha,Nebraska,KeyaPaha,2022-04-28 09:13:11,2020-07-01,0,0,0,,,,,,,,,,,,
31103,0,USNebraskaKeyaPaha,Nebraska,KeyaPaha,2022-04-28 09:13:11,2020-07-02,0,0,0,,,,,,,,,,,,
31103,0,USNebraskaKeyaPaha,Nebraska,KeyaPaha,2022-04-28 09:13:11,2020-07-03,0,0,0,,,,,,,,,,,,
31103,0,USNebraskaKeyaPaha,Nebraska,KeyaPaha,2022-04-28 09:13:11,2020-07-04,0,0,0,,,,,,,,,,,,
31103,0,USNebraskaKeyaPaha,Nebraska,KeyaPaha,2022-04-28 09:13:11,2020-07-05,0,0,0,,,,,,,,,,,,
31103,0,USNebraskaKeyaPaha,Nebraska,KeyaPaha,2022-04-28 09:13:11,2020-07-06,0,0,0,,,,,,,,,,,,
31103,0,USNebraskaKeyaPaha,Nebraska,KeyaPaha,2022-04-28 09:13:11,2020-07-07,0,0,0,,,,,,,,,,,,
31103,0,USNebraskaKeyaPaha,Nebraska,KeyaPaha,2022-04-28 09:13:11,2020-07-08,0,0,0,,,,,,,,,,,,
31103,0,USNebraskaKeyaPaha,Nebraska,KeyaPaha,2022-04-28 09:13:11,2020-07-09,0,0,0,,,,,,,,,,,,
31103,0,USNebraskaKeyaPaha,Nebraska,KeyaPaha,2022-04-28 09:13:11,2020-07-10,0,0,0,,,,,,,,,,,,
31103,0,USNebraskaKeyaPaha,Nebraska,KeyaPaha,2022-04-28 09:13:11,2020-07-11,0,0,0,,,,,,,,,,,,
31103,0,USNebraskaKeyaPaha,Nebraska,KeyaPaha,2022-04-28 09:13:11,2020-07-12,0,0,0,,,,,,,,,,,,
31103,0,USNebraskaKeyaPaha,Nebraska,KeyaPaha,2022-04-28 09:13:11,2020-07-13,0,0,0,,,,,,,,,,,,
31103,0,USNebraskaKeyaPaha,Nebraska,KeyaPaha,2022-04-28 09:13:11,2020-07-14,0,0,0,,,,,,,,,,,,
31103,0,USNebraskaKeyaPaha,Nebraska,KeyaPaha,2022-04-28 09:13:11,2020-07-15,0,0,0,,,,,,,,,,,,
31103,0,USNebraskaKeyaPaha,Nebraska,KeyaPaha,2022-04-28 09:13:11,2020-07-16,0,0,0,,,,,,,,,,,,
31103,0,USNebraskaKeyaPaha,Nebraska,KeyaPaha,2022-04-28 09:13:11,2020-07-17,0,0,0,,,,,,,,,,,,
31103,0,USNebraskaKeyaPaha,Nebraska,KeyaPaha,2022-04-28 09:13:11,2020-07-18,0,0,0,,,,,,,,,,,,
31103,0,USNebraskaKeyaPaha,Nebraska,KeyaPaha,2022-04-28 09:13:11,2020-07-19,0,0,0,,,,,,,,,,,,
31103,0,USNebraskaKeyaPaha,Nebraska,KeyaPaha,2022-04-28 09:13:11,2020-07-20,0,0,0,,,,,,,,,,,,
31103,0,USNebraskaKeyaPaha,Nebraska,KeyaPaha,2022-04-28 09:13:11,2020-07-21,0,0,0,,,,,,,,,,,,
31103,0,USNebraskaKeyaPaha,Nebraska,KeyaPaha,2022-04-28 09:13:11,2020-07-22,0,0,0,,,,,,,,,,,,
31103,0,USNebraskaKeyaPaha,Nebraska,KeyaPaha,2022-04-28 09:13:11,2020-07-23,0,0,0,,,,,,,,,,,,
31103,0,USNebraskaKeyaPaha,Nebraska,KeyaPaha,2022-04-28 09:13:11,2020-07-24,0,0,0,,,,,,,,,,,,
31103,0,USNebraskaKeyaPaha,Nebraska,KeyaPaha,2022-04-28 09:13:11,2020-07-25,0,0,0,,,,,,,,,,,,
31103,0,USNebraskaKeyaPaha,Nebraska,KeyaPaha,2022-04-28 09:13:11,2020-07-26,0,0,0,,,,,,,,,,,,
31103,0,USNebraskaKeyaPaha,Nebraska,KeyaPaha,2022-04-28 09:13:11,2020-07-27,0,0,0,,,,,,,,,,,,
31103,0,USNebraskaKeyaPaha,Nebraska,KeyaPaha,2022-04-28 09:13:11,2020-07-28,0,0,0,,,,,,,,,,,,
31103,0,USNebraskaKeyaPaha,Nebraska,KeyaPaha,2022-04-28 09:13:11,2020-07-29,0,0,0,,,,,,,,,,,,
31103,0,USNebraskaKeyaPaha,Nebraska,KeyaPaha,2022-04-28 09:13:11,2020-07-30,0,0,0,,,,,,,,,,,,
31103,0,USNebraskaKeyaPaha,Nebraska,KeyaPaha,2022-04-28 09:13:11,2020-07-31,0,0,0,,,,,,,,,,,,
31103,0,USNebraskaKeyaPaha,Nebraska,KeyaPaha,2022-04-28 09:13:11,2020-08-01,0,0,0,,,,,,,,,,,,
31103,0,USNebraskaKeyaPaha,Nebraska,KeyaPaha,2022-04-28 09:13:11,2020-08-02,0,0,0,,,,,,,,,,,,
31103,0,USNebraskaKeyaPaha,Nebraska,KeyaPaha,2022-04-28 09:13:11,2020-08-03,0,0,0,,,,,,,,,,,,
31103,0,USNebraskaKeyaPaha,Nebraska,KeyaPaha,2022-04-28 09:13:11,2020-08-04,0,0,0,,,,,,,,,,,,
31103,0,USNebraskaKeyaPaha,Nebraska,KeyaPaha,2022-04-28 09:13:11,2020-08-05,0,0,0,,,,,,,,,,,,
31103,0,USNebraskaKeyaPaha,Nebraska,KeyaPaha,2022-04-28 09:13:11,2020-08-06,0,0,0,,,,,,,,,,,,
31103,0,USNebraskaKeyaPaha,Nebraska,KeyaPaha,2022-04-28 09:13:11,2020-08-07,0,0,0,,,,,,,,,,,,
31103,0,USNebraskaKeyaPaha,Nebraska,KeyaPaha,2022-04-28 09:13:11,2020-08-08,0,0,0,,,,,,,,,,,,
31103,0,USNebraskaKeyaPaha,Nebraska,KeyaPaha,2022-04-28 09:13:11,2020-08-09,0,0,0,,,,,,,,,,,,
31103,0,USNebraskaKeyaPaha,Nebraska,KeyaPaha,2022-04-28 09:13:11,2020-08-10,0,0,0,,,,,,,,,,,,
31103,0,USNebraskaKeyaPaha,Nebraska,KeyaPaha,2022-04-28 09:13:11,2020-08-11,0,0,0,,,,,,,,,,,,
31103,0,USNebraskaKeyaPaha,Nebraska,KeyaPaha,2022-04-28 09:13:11,2020-08-12,0,0,0,,,,,,,,,,,,
31103,0,USNebraskaKeyaPaha,Nebraska,KeyaPaha,2022-04-28 09:13:11,2020-08-13,0,0,0,,,,,,,,,,,,
31103,0,USNebraskaKeyaPaha,Nebraska,KeyaPaha,2022-04-28 09:13:11,2020-08-14,0,0,0,,,,,,,,,,,,
31103,0,USNebraskaKeyaPaha,Nebraska,KeyaPaha,2022-04-28 09:13:11,2020-08-15,0,0,0,,,,,,,,,,,,
31103,0,USNebraskaKeyaPaha,Nebraska,KeyaPaha,2022-04-28 09:13:11,2020-08-16,0,0,0,,,,,,,,,,,,
31103,0,USNebraskaKeyaPaha,Nebraska,KeyaPaha,2022-04-28 09:13:11,2020-08-17,0,0,0,,,,,,,,,,,,
31103,0,USNebraskaKeyaPaha,Nebraska,KeyaPaha,2022-04-28 09:13:11,2020-08-18,0,0,0,,,,,,,,,,,,
31103,0,USNebraskaKeyaPaha,Nebraska,KeyaPaha,2022-04-28 09:13:11,2020-08-19,0,0,0,,,,,,,,,,,,
31103,0,USNebraskaKeyaPaha,Nebraska,KeyaPaha,2022-04-28 09:13:11,2020-08-20,0.5238383608523227,0.9961802904791014,2.0266119278353765,,,,,,,,,,,,
31103,0,USNebraskaKeyaPaha,Nebraska,KeyaPaha,2022-04-28 09:13:11,2020-08-21,0.5238383608523227,0.9961802904791014,2.0266119278353765,,,,,,,,,,,,
31103,0,USNebraskaKeyaPaha,Nebraska,KeyaPaha,2022-04-28 09:13:11,2020-08-22,0.5238383608523227,0.9961802904791014,2.0266119278353765,,,,,,,,,,,,
31103,0,USNebraskaKeyaPaha,Nebraska,KeyaPaha,2022-04-28 09:13:11,2020-08-23,0.5238383608523227,0.9961802904791014,2.0266119278353765,,,,,,,,,,,,
31103,0,USNebraskaKeyaPaha,Nebraska,KeyaPaha,2022-04-28 09:13:11,2020-08-24,0.5238383608523227,0.9961802904791014,2.0266119278353765,,,,,,,,,,,,
31103,0,USNebraskaKeyaPaha,Nebraska,KeyaPaha,2022-04-28 09:13:11,2020-08-25,0.5238383608523227,0.9961802904791014,2.0266119278353765,,,,,,,,,,,,
31103,0,USNebraskaKeyaPaha,Nebraska,KeyaPaha,2022-04-28 09:13:11,2020-08-26,0.5238383608523227,0.9961802904791014,2.0266119278353765,,,,,,,,,,,,
31103,0,USNebraskaKeyaPaha,Nebraska,KeyaPaha,2022-04-28 09:13:11,2020-08-27,0,0,0,,,,,,,,,,,,
31103,0,USNebraskaKeyaPaha,Nebraska,KeyaPaha,2022-04-28 09:13:11,2020-08-28,0,0,0,,,,,,,,,,,,
31103,0,USNebraskaKeyaPaha,Nebraska,KeyaPaha,2022-04-28 09:13:11,2020-08-29,0,0,0,,,,,,,,,,,,
31103,0,USNebraskaKeyaPaha,Nebraska,KeyaPaha,2022-04-28 09:13:11,2020-08-30,0,0,0,,,,,,,,,,,,
31103,0,USNebraskaKeyaPaha,Nebraska,KeyaPaha,2022-04-28 09:13:11,2020-08-31,0,0,0,,,,,,,,,,,,
31103,0,USNebraskaKeyaPaha,Nebraska,KeyaPaha,2022-04-28 09:13:11,2020-09-01,0,0,0,,,,,,,,,,,,
31103,0,USNebraskaKeyaPaha,Nebraska,KeyaPaha,2022-04-28 09:13:11,2020-09-02,0,0,0,,,,,,,,,,,,
31103,0,USNebraskaKeyaPaha,Nebraska,KeyaPaha,2022-04-28 09:13:11,2020-09-03,0,0,0,,,,,,,,,,,,
31103,0,USNebraskaKeyaPaha,Nebraska,KeyaPaha,2022-04-28 09:13:11,2020-09-04,0,0,0,,,,,,,,,,,,
31103,0,USNebraskaKeyaPaha,Nebraska,KeyaPaha,2022-04-28 09:13:11,2020-09-05,0,0,0,,,,,,,,,,,,
31103,0,USNebraskaKeyaPaha,Nebraska,KeyaPaha,2022-04-28 09:13:11,2020-09-06,0,0,0,,,,,,,,,,,,
31103,0,USNebraskaKeyaPaha,Nebraska,KeyaPaha,2022-04-28 09:13:11,2020-09-07,0,0,0,,,,,,,,,,,,
31103,0,USNebraskaKeyaPaha,Nebraska,KeyaPaha,2022-04-28 09:13:11,2020-09-08,0,0,0,,,,,,,,,,,,
31103,0,USNebraskaKeyaPaha,Nebraska,KeyaPaha,2022-04-28 09:13:11,2020-09-09,0,0,0,,,,,,,,,,,,
31103,0,USNebraskaKeyaPaha,Nebraska,KeyaPaha,2022-04-28 09:13:11,2020-09-10,1.2796038848299025,2.015836389515108,3.3494250988042062,,,,,,,,,,,,
31103,0,USNebraskaKeyaPaha,Nebraska,KeyaPaha,2022-04-28 09:13:11,2020-09-11,1.2796038848299025,2.015836389515108,3.3494250988042062,,,,,,,,,,,,
31103,0,USNebraskaKeyaPaha,Nebraska,KeyaPaha,2022-04-28 09:13:11,2020-09-12,1.2796038848299025,2.015836389515108,3.3494250988042062,,,,,,,,,,,,
31103,0,USNebraskaKeyaPaha,Nebraska,KeyaPaha,2022-04-28 09:13:11,2020-09-13,1.2796038848299025,2.015836389515108,3.3494250988042062,,,,,,,,,,,,
31103,0,USNebraskaKeyaPaha,Nebraska,KeyaPaha,2022-04-28 09:13:11,2020-09-14,1.2796038848299025,2.015836389515108,3.3494250988042062,,,,,,,,,,,,
31103,0,USNebraskaKeyaPaha,Nebraska,KeyaPaha,2022-04-28 09:13:11,2020-09-15,1.2796038848299025,2.015836389515108,3.3494250988042062,,,,,,,,,,,,
31103,0,USNebraskaKeyaPaha,Nebraska,KeyaPaha,2022-04-28 09:13:11,2020-09-16,1.2796038848299025,2.015836389515108,3.3494250988042062,,,,,,,,,,,,
31103,0,USNebraskaKeyaPaha,Nebraska,KeyaPaha,2022-04-28 09:13:11,2020-09-17,0.5612829416477982,1.1365326592489577,2.4686489095655006,,,,,,,,,,,,
31103,0,USNebraskaKeyaPaha,Nebraska,KeyaPaha,2022-04-28 09:13:11,2020-09-18,0.5612829416477982,1.1365326592489577,2.4686489095655006,,,,,,,,,,,,
31103,0,USNebraskaKeyaPaha,Nebraska,KeyaPaha,2022-04-28 09:13:11,2020-09-19,0.5612829416477982,1.1365326592489577,2.4686489095655006,,,,,,,,,,,,
31103,0,USNebraskaKeyaPaha,Nebraska,KeyaPaha,2022-04-28 09:13:11,2020-09-20,0.5612829416477982,1.1365326592489577,2.4686489095655006,,,,,,,,,,,,
31103,0,USNebraskaKeyaPaha,Nebraska,KeyaPaha,2022-04-28 09:13:11,2020-09-21,0.5612829416477982,1.1365326592489577,2.4686489095655006,,,,,,,,,,,,
31103,0,USNebraskaKeyaPaha,Nebraska,KeyaPaha,2022-04-28 09:13:11,2020-09-22,0.5612829416477982,1.1365326592489577,2.4686489095655006,,,,,,,,,,,,
31103,0,USNebraskaKeyaPaha,Nebraska,KeyaPaha,2022-04-28 09:13:11,2020-09-23,0.5612829416477982,1.1365326592489577,2.4686489095655006,,,,,,,,,,,,
31103,0,USNebraskaKeyaPaha,Nebraska,KeyaPaha,2022-04-28 09:13:11,2020-09-24,0.5654679740136228,1.1527364008752938,2.521349143616888,,,,,,,,,,,,
31103,0,USNebraskaKeyaPaha,Nebraska,KeyaPaha,2022-04-28 09:13:11,2020-09-25,0.5654679740136228,1.1527364008752938,2.521349143616888,,,,,,,,,,,,
31103,0,USNebraskaKeyaPaha,Nebraska,KeyaPaha,2022-04-28 09:13:11,2020-09-26,0.5654679740136228,1.1527364008752938,2.521349143616888,,,,,,,,,,,,
31103,0,USNebraskaKeyaPaha,Nebraska,KeyaPaha,2022-04-28 09:13:11,2020-09-27,0.5654679740136228,1.1527364008752938,2.521349143616888,,,,,,,,,,,,
31103,0,USNebraskaKeyaPaha,Nebraska,KeyaPaha,2022-04-28 09:13:11,2020-09-28,0.5654679740136228,1.1527364008752938,2.521349143616888,,,,,,,,,,,,
31103,0,USNebraskaKeyaPaha,Nebraska,KeyaPaha,2022-04-28 09:13:11,2020-09-29,0.5654679740136228,1.1527364008752938,2.521349143616888,,,,,,,,,,,,
31103,0,USNebraskaKeyaPaha,Nebraska,KeyaPaha,2022-04-28 09:13:11,2020-09-30,0.5654679740136228,1.1527364008752938,2.521349143616888,,,,,,,,,,,,
31103,0,USNebraskaKeyaPaha,Nebraska,KeyaPaha,2022-04-28 09:13:11,2020-10-01,0,0,0,,,,,,,,,,,,
31103,0,USNebraskaKeyaPaha,Nebraska,KeyaPaha,2022-04-28 09:13:11,2020-10-02,0,0,0,,,,,,,,,,,,
31103,0,USNebraskaKeyaPaha,Nebraska,KeyaPaha,2022-04-28 09:13:11,2020-10-03,0,0,0,,,,,,,,,,,,
31103,0,USNebraskaKeyaPaha,Nebraska,KeyaPaha,2022-04-28 09:13:11,2020-10-04,0,0,0,,,,,,,,,,,,
31103,0,USNebraskaKeyaPaha,Nebraska,KeyaPaha,2022-04-28 09:13:11,2020-10-05,0,0,0,,,,,,,,,,,,
31103,0,USNebraskaKeyaPaha,Nebraska,KeyaPaha,2022-04-28 09:13:11,2020-10-06,0,0,0,,,,,,,,,,,,
31103,0,USNebraskaKeyaPaha,Nebraska,KeyaPaha,2022-04-28 09:13:11,2020-10-07,0,0,0,,,,,,,,,,,,
31103,0,USNebraskaKeyaPaha,Nebraska,KeyaPaha,2022-04-28 09:13:11,2020-10-08,1.2666883489871956,1.9770303449999023,3.251483110166657,,,,,,,,,,,,
31103,0,USNebraskaKeyaPaha,Nebraska,KeyaPaha,2022-04-28 09:13:11,2020-10-09,1.2666883489871956,1.9770303449999023,3.251483110166657,,,,,,,,,,,,
31103,0,USNebraskaKeyaPaha,Nebraska,KeyaPaha,2022-04-28 09:13:11,2020-10-10,1.2666883489871956,1.9770303449999023,3.251483110166657,,,,,,,,,,,,
31103,0,USNebraskaKeyaPaha,Nebraska,KeyaPaha,2022-04-28 09:13:11,2020-10-11,1.2666883489871956,1.9770303449999023,3.251483110166657,,,,,,,,,,,,
31103,0,USNebraskaKeyaPaha,Nebraska,KeyaPaha,2022-04-28 09:13:11,2020-10-12,1.2666883489871956,1.9770303449999023,3.251483110166657,,,,,,,,,,,,
31103,0,USNebraskaKeyaPaha,Nebraska,KeyaPaha,2022-04-28 09:13:11,2020-10-13,1.2666883489871956,1.9770303449999023,3.251483110166657,,,,,,,,,,,,
31103,0,USNebraskaKeyaPaha,Nebraska,KeyaPaha,2022-04-28 09:13:11,2020-10-14,1.2666883489871956,1.9770303449999023,3.251483110166657,,,,,,,,,,,,
31103,0,USNebraskaKeyaPaha,Nebraska,KeyaPaha,2022-04-28 09:13:11,2020-10-15,0.5479475092699619,1.085589224482663,2.305169122927339,,,,,,,,,,,,
31103,0,USNebraskaKeyaPaha,Nebraska,KeyaPaha,2022-04-28 09:13:11,2020-10-16,0.5479475092699619,1.085589224482663,2.305169122927339,,,,,,,,,,,,
31103,0,USNebraskaKeyaPaha,Nebraska,KeyaPaha,2022-04-28 09:13:11,2020-10-17,0.5479475092699619,1.085589224482663,2.305169122927339,,,,,,,,,,,,
31103,0,USNebraskaKeyaPaha,Nebraska,KeyaPaha,2022-04-28 09:13:11,2020-10-18,0.5479475092699619,1.085589224482663,2.305169122927339,,,,,,,,,,,,
31103,0,USNebraskaKeyaPaha,Nebraska,KeyaPaha,2022-04-28 09:13:11,2020-10-19,0.5479475092699619,1.085589224482663,2.305169122927339,,,,,,,,,,,,
31103,0,USNebraskaKeyaPaha,Nebraska,KeyaPaha,2022-04-28 09:13:11,2020-10-20,0.5479475092699619,1.085589224482663,2.305169122927339,,,,,,,,,,,,
31103,0,USNebraskaKeyaPaha,Nebraska,KeyaPaha,2022-04-28 09:13:11,2020-10-21,0.5479475092699619,1.085589224482663,2.305169122927339,,,,,,,,,,,,
31103,0,USNebraskaKeyaPaha,Nebraska,KeyaPaha,2022-04-28 09:13:11,2020-10-22,0,0,0,,,,,,,,,,,,
31103,0,USNebraskaKeyaPaha,Nebraska,KeyaPaha,2022-04-28 09:13:11,2020-10-23,0,0,0,,,,,,,,,,,,
31103,0,USNebraskaKeyaPaha,Nebraska,KeyaPaha,2022-04-28 09:13:11,2020-10-24,0,0,0,,,,,,,,,,,,
31103,0,USNebraskaKeyaPaha,Nebraska,KeyaPaha,2022-04-28 09:13:11,2020-10-25,0,0,0,,,,,,,,,,,,
31103,0,USNebraskaKeyaPaha,Nebraska,KeyaPaha,2022-04-28 09:13:11,2020-10-26,0,0,0,,,,,,,,,,,,
31103,0,USNebraskaKeyaPaha,Nebraska,KeyaPaha,2022-04-28 09:13:11,2020-10-27,0,0,0,,,,,,,,,,,,
31103,0,USNebraskaKeyaPaha,Nebraska,KeyaPaha,2022-04-28 09:13:11,2020-10-28,0,0,0,,,,,,,,,,,,
31103,0,USNebraskaKeyaPaha,Nebraska,KeyaPaha,2022-04-28 09:13:11,2020-10-29,0.5965671525490355,1.2763445127032775,2.934110305726543,,,,,,,,,,,,
31103,0,USNebraskaKeyaPaha,Nebraska,KeyaPaha,2022-04-28 09:13:11,2020-10-30,0.5965671525490355,1.2763445127032775,2.934110305726543,,,,,,,,,,,,
31103,0,USNebraskaKeyaPaha,Nebraska,KeyaPaha,2022-04-28 09:13:11,2020-10-31,0.5965671525490355,1.2763445127032775,2.934110305726543,,,,,,,,,,,,
31103,0,USNebraskaKeyaPaha,Nebraska,KeyaPaha,2022-04-28 09:13:11,2020-11-01,0.5965671525490355,1.2763445127032775,2.934110305726543,,,,,,,,,,,,
31103,0,USNebraskaKeyaPaha,Nebraska,KeyaPaha,2022-04-28 09:13:11,2020-11-02,0.5965671525490355,1.2763445127032775,2.934110305726543,,,,,,,,,,,,
31103,0,USNebraskaKeyaPaha,Nebraska,KeyaPaha,2022-04-28 09:13:11,2020-11-03,0.5965671525490355,1.2763445127032775,2.934110305726543,,,,,,,,,,,,
31103,0,USNebraskaKeyaPaha,Nebraska,KeyaPaha,2022-04-28 09:13:11,2020-11-04,0.5965671525490355,1.2763445127032775,2.934110305726543,,,,,,,,,,,,
31103,0,USNebraskaKeyaPaha,Nebraska,KeyaPaha,2022-04-28 09:13:11,2020-11-05,1.0839914905776589,2.1263863825730964,4.468755933099009,,,,,,,,,,,,
31103,0,USNebraskaKeyaPaha,Nebraska,KeyaPaha,2022-04-28 09:13:11,2020-11-06,1.0839914905776589,2.1263863825730964,4.468755933099009,,,,,,,,,,,,
31103,0,USNebraskaKeyaPaha,Nebraska,KeyaPaha,2022-04-28 09:13:11,2020-11-07,1.0839914905776589,2.1263863825730964,4.468755933099009,,,,,,,,,,,,
31103,0,USNebraskaKeyaPaha,Nebraska,KeyaPaha,2022-04-28 09:13:11,2020-11-08,1.0839914905776589,2.1263863825730964,4.468755933099009,,,,,,,,,,,,
31103,0,USNebraskaKeyaPaha,Nebraska,KeyaPaha,2022-04-28 09:13:11,2020-11-09,1.0839914905776589,2.1263863825730964,4.468755933099009,,,,,,,,,,,,
31103,0,USNebraskaKeyaPaha,Nebraska,KeyaPaha,2022-04-28 09:13:11,2020-11-10,1.0839914905776589,2.1263863825730964,4.468755933099009,,,,,,,,,,,,
31103,0,USNebraskaKeyaPaha,Nebraska,KeyaPaha,2022-04-28 09:13:11,2020-11-11,1.0839914905776589,2.1263863825730964,4.468755933099009,,,,,,,,,,,,
31103,0,USNebraskaKeyaPaha,Nebraska,KeyaPaha,2022-04-28 09:13:11,2020-11-12,2.2230506318509553,3.637972020697085,6.302034541855667,,,,,,,,,,,,
31103,0,USNebraskaKeyaPaha,Nebraska,KeyaPaha,2022-04-28 09:13:11,2020-11-13,2.2230506318509553,3.637972020697085,6.302034541855667,,,,,,,,,,,,
31103,0,USNebraskaKeyaPaha,Nebraska,KeyaPaha,2022-04-28 09:13:11,2020-11-14,2.2230506318509553,3.637972020697085,6.302034541855667,,,,,,,,,,,,
31103,0,USNebraskaKeyaPaha,Nebraska,KeyaPaha,2022-04-28 09:13:11,2020-11-15,2.2230506318509553,3.637972020697085,6.302034541855667,,,,,,,,,,,,
31103,0,USNebraskaKeyaPaha,Nebraska,KeyaPaha,2022-04-28 09:13:11,2020-11-16,2.2230506318509553,3.637972020697085,6.302034541855667,,,,,,,,,,,,
31103,0,USNebraskaKeyaPaha,Nebraska,KeyaPaha,2022-04-28 09:13:11,2020-11-17,2.2230506318509553,3.637972020697085,6.302034541855667,,,,,,,,,,,,
31103,0,USNebraskaKeyaPaha,Nebraska,KeyaPaha,2022-04-28 09:13:11,2020-11-18,2.2230506318509553,3.637972020697085,6.302034541855667,,,,,,,,,,,,
31103,0,USNebraskaKeyaPaha,Nebraska,KeyaPaha,2022-04-28 09:13:11,2020-11-19,1.0513075309418956,2.005581798011894,4.093664592036882,,,,,,,,,,,,
31103,0,USNebraskaKeyaPaha,Nebraska,KeyaPaha,2022-04-28 09:13:11,2020-11-20,1.0513075309418956,2.005581798011894,4.093664592036882,,,,,,,,,,,,
31103,0,USNebraskaKeyaPaha,Nebraska,KeyaPaha,2022-04-28 09:13:11,2020-11-21,1.0513075309418956,2.005581798011894,4.093664592036882,,,,,,,,,,,,
31103,0,USNebraskaKeyaPaha,Nebraska,KeyaPaha,2022-04-28 09:13:11,2020-11-22,1.0513075309418956,2.005581798011894,4.093664592036882,,,,,,,,,,,,
31103,0,USNebraskaKeyaPaha,Nebraska,KeyaPaha,2022-04-28 09:13:11,2020-11-23,1.0513075309418956,2.005581798011894,4.093664592036882,,,,,,,,,,,,
31103,0,USNebraskaKeyaPaha,Nebraska,KeyaPaha,2022-04-28 09:13:11,2020-11-24,1.0513075309418956,2.005581798011894,4.093664592036882,,,,,,,,,,,,
31103,0,USNebraskaKeyaPaha,Nebraska,KeyaPaha,2022-04-28 09:13:11,2020-11-25,1.0513075309418956,2.005581798011894,4.093664592036882,,,,,,,,,,,,
31103,0,USNebraskaKeyaPaha,Nebraska,KeyaPaha,2022-04-28 09:13:11,2020-11-26,1.4623422401042419,2.6037699830472665,4.940332936292768,,,,,,,,,,,,
31103,0,USNebraskaKeyaPaha,Nebraska,KeyaPaha,2022-04-28 09:13:11,2020-11-27,1.4623422401042419,2.6037699830472665,4.940332936292768,,,,,,,,,,,,
31103,0,USNebraskaKeyaPaha,Nebraska,KeyaPaha,2022-04-28 09:13:11,2020-11-28,1.4623422401042419,2.6037699830472665,4.940332936292768,,,,,,,,,,,,
31103,0,USNebraskaKeyaPaha,Nebraska,KeyaPaha,2022-04-28 09:13:11,2020-11-29,1.4623422401042419,2.6037699830472665,4.940332936292768,,,,,,,,,,,,
31103,0,USNebraskaKeyaPaha,Nebraska,KeyaPaha,2022-04-28 09:13:11,2020-11-30,1.4623422401042419,2.6037699830472665,4.940332936292768,,,,,,,,,,,,
31103,0,USNebraskaKeyaPaha,Nebraska,KeyaPaha,2022-04-28 09:13:11,2020-12-01,1.4623422401042419,2.6037699830472665,4.940332936292768,,,,,,,,,,,,
31103,0,USNebraskaKeyaPaha,Nebraska,KeyaPaha,2022-04-28 09:13:11,2020-12-02,1.4623422401042419,2.6037699830472665,4.940332936292768,,,,,,,,,,,,
31103,0,USNebraskaKeyaPaha,Nebraska,KeyaPaha,2022-04-28 09:13:11,2020-12-03,2.4494805617630666,3.7071341063658827,5.892431849301312,,,,,,,,,,,,
31103,0,USNebraskaKeyaPaha,Nebraska,KeyaPaha,2022-04-28 09:13:11,2020-12-04,2.4494805617630666,3.7071341063658827,5.892431849301312,,,,,,,,,,,,
31103,0,USNebraskaKeyaPaha,Nebraska,KeyaPaha,2022-04-28 09:13:11,2020-12-05,2.4494805617630666,3.7071341063658827,5.892431849301312,,,,,,,,,,,,
31103,0,USNebraskaKeyaPaha,Nebraska,KeyaPaha,2022-04-28 09:13:11,2020-12-06,2.4494805617630666,3.7071341063658827,5.892431849301312,,,,,,,,,,,,
31103,0,USNebraskaKeyaPaha,Nebraska,KeyaPaha,2022-04-28 09:13:11,2020-12-07,2.4494805617630666,3.7071341063658827,5.892431849301312,,,,,,,,,,,,
31103,0,USNebraskaKeyaPaha,Nebraska,KeyaPaha,2022-04-28 09:13:11,2020-12-08,2.4494805617630666,3.7071341063658827,5.892431849301312,,,,,,,,,,,,
31103,0,USNebraskaKeyaPaha,Nebraska,KeyaPaha,2022-04-28 09:13:11,2020-12-09,2.4494805617630666,3.7071341063658827,5.892431849301312,,,,,,,,,,,,
31103,0,USNebraskaKeyaPaha,Nebraska,KeyaPaha,2022-04-28 09:13:11,2020-12-10,2.321683758197223,3.346360220959905,5.036721016217485,,,,,,,,,,,,
31103,0,USNebraskaKeyaPaha,Nebraska,KeyaPaha,2022-04-28 09:13:11,2020-12-11,2.321683758197223,3.346360220959905,5.036721016217485,,,,,,,,,,,,
31103,0,USNebraskaKeyaPaha,Nebraska,KeyaPaha,2022-04-28 09:13:11,2020-12-12,2.321683758197223,3.346360220959905,5.036721016217485,,,,,,,,,,,,
31103,0,USNebraskaKeyaPaha,Nebraska,KeyaPaha,2022-04-28 09:13:11,2020-12-13,2.321683758197223,3.346360220959905,5.036721016217485,,,,,,,,,,,,
31103,0,USNebraskaKeyaPaha,Nebraska,KeyaPaha,2022-04-28 09:13:11,2020-12-14,2.321683758197223,3.346360220959905,5.036721016217485,,,,,,,,,,,,
31103,0,USNebraskaKeyaPaha,Nebraska,KeyaPaha,2022-04-28 09:13:11,2020-12-15,2.321683758197223,3.346360220959905,5.036721016217485,,,,,,,,,,,,
31103,0,USNebraskaKeyaPaha,Nebraska,KeyaPaha,2022-04-28 09:13:11,2020-12-16,2.321683758197223,3.346360220959905,5.036721016217485,,,,,,,,,,,,
31103,0,USNebraskaKeyaPaha,Nebraska,KeyaPaha,2022-04-28 09:13:11,2020-12-17,1.692520881254013,2.646825362006116,4.362427562499108,,,,,,,,,,,,
31103,0,USNebraskaKeyaPaha,Nebraska,KeyaPaha,2022-04-28 09:13:11,2020-12-18,1.692520881254013,2.646825362006116,4.362427562499108,,,,,,,,,,,,
31103,0,USNebraskaKeyaPaha,Nebraska,KeyaPaha,2022-04-28 09:13:11,2020-12-19,1.692520881254013,2.646825362006116,4.362427562499108,,,,,,,,,,,,
31103,0,USNebraskaKeyaPaha,Nebraska,KeyaPaha,2022-04-28 09:13:11,2020-12-20,1.692520881254013,2.646825362006116,4.362427562499108,,,,,,,,,,,,
31103,0,USNebraskaKeyaPaha,Nebraska,KeyaPaha,2022-04-28 09:13:11,2020-12-21,1.692520881254013,2.646825362006116,4.362427562499108,,,,,,,,,,,,
31103,0,USNebraskaKeyaPaha,Nebraska,KeyaPaha,2022-04-28 09:13:11,2020-12-22,1.692520881254013,2.646825362006116,4.362427562499108,,,,,,,,,,,,
31103,0,USNebraskaKeyaPaha,Nebraska,KeyaPaha,2022-04-28 09:13:11,2020-12-23,1.692520881254013,2.646825362006116,4.362427562499108,,,,,,,,,,,,
31103,0,USNebraskaKeyaPaha,Nebraska,KeyaPaha,2022-04-28 09:13:11,2020-12-24,0,0,0,,,,,,,,,,,,
31103,0,USNebraskaKeyaPaha,Nebraska,KeyaPaha,2022-04-28 09:13:11,2020-12-25,0,0,0,,,,,,,,,,,,
31103,0,USNebraskaKeyaPaha,Nebraska,KeyaPaha,2022-04-28 09:13:11,2020-12-26,0,0,0,,,,,,,,,,,,
31103,0,USNebraskaKeyaPaha,Nebraska,KeyaPaha,2022-04-28 09:13:11,2020-12-27,0,0,0,,,,,,,,,,,,
31103,0,USNebraskaKeyaPaha,Nebraska,KeyaPaha,2022-04-28 09:13:11,2020-12-28,0,0,0,,,,,,,,,,,,
31103,0,USNebraskaKeyaPaha,Nebraska,KeyaPaha,2022-04-28 09:13:11,2020-12-29,0,0,0,,,,,,,,,,,,
31103,0,USNebraskaKeyaPaha,Nebraska,KeyaPaha,2022-04-28 09:13:11,2020-12-30,0,0,0,,,,,,,,,,,,
31103,0,USNebraskaKeyaPaha,Nebraska,KeyaPaha,2022-04-28 09:13:11,2020-12-31,0,0,0,,,,,,,,,,,,
31103,0,USNebraskaKeyaPaha,Nebraska,KeyaPaha,2022-04-28 09:13:11,2021-01-01,0,0,0,,,,,,,,,,,,
31103,0,USNebraskaKeyaPaha,Nebraska,KeyaPaha,2022-04-28 09:13:11,2021-01-02,0,0,0,,,,,,,,,,,,
31103,0,USNebraskaKeyaPaha,Nebraska,KeyaPaha,2022-04-28 09:13:11,2021-01-03,0,0,0,,,,,,,,,,,,
31103,0,USNebraskaKeyaPaha,Nebraska,KeyaPaha,2022-04-28 09:13:11,2021-01-04,0,0,0,,,,,,,,,,,,
31103,0,USNebraskaKeyaPaha,Nebraska,KeyaPaha,2022-04-28 09:13:11,2021-01-05,0,0,0,,,,,,,,,,,,
31103,0,USNebraskaKeyaPaha,Nebraska,KeyaPaha,2022-04-28 09:13:11,2021-01-06,0,0,0,,,,,,,,,,,,
31103,0,USNebraskaKeyaPaha,Nebraska,KeyaPaha,2022-04-28 09:13:11,2021-01-07,0,0,0,,,,,,,,,,,,
31103,0,USNebraskaKeyaPaha,Nebraska,KeyaPaha,2022-04-28 09:13:11,2021-01-08,0,0,0,,,,,,,,,,,,
31103,0,USNebraskaKeyaPaha,Nebraska,KeyaPaha,2022-04-28 09:13:11,2021-01-09,0,0,0,,,,,,,,,,,,
31103,0,USNebraskaKeyaPaha,Nebraska,KeyaPaha,2022-04-28 09:13:11,2021-01-10,0,0,0,,,,,,,,,,,,
31103,0,USNebraskaKeyaPaha,Nebraska,KeyaPaha,2022-04-28 09:13:11,2021-01-11,0,0,0,,,,,,,,,,,,
31103,0,USNebraskaKeyaPaha,Nebraska,KeyaPaha,2022-04-28 09:13:11,2021-01-12,0,0,0,,,,,,,,,,,,
31103,0,USNebraskaKeyaPaha,Nebraska,KeyaPaha,2022-04-28 09:13:11,2021-01-13,0,0,0,,,,,,,,,,,,
31103,0,USNebraskaKeyaPaha,Nebraska,KeyaPaha,2022-04-28 09:13:11,2021-01-14,1.963685671790346,2.8688100282098374,4.383795738585001,,,,,,,,,,,,
31103,0,USNebraskaKeyaPaha,Nebraska,KeyaPaha,2022-04-28 09:13:11,2021-01-15,1.963685671790346,2.8688100282098374,4.383795738585001,,,,,,,,,,,,
31103,0,USNebraskaKeyaPaha,Nebraska,KeyaPaha,2022-04-28 09:13:11,2021-01-16,1.963685671790346,2.8688100282098374,4.383795738585001,,,,,,,,,,,,
31103,0,USNebraskaKeyaPaha,Nebraska,KeyaPaha,2022-04-28 09:13:11,2021-01-17,1.963685671790346,2.8688100282098374,4.383795738585001,,,,,,,,,,,,
31103,0,USNebraskaKeyaPaha,Nebraska,KeyaPaha,2022-04-28 09:13:11,2021-01-18,1.963685671790346,2.8688100282098374,4.383795738585001,,,,,,,,,,,,
31103,0,USNebraskaKeyaPaha,Nebraska,KeyaPaha,2022-04-28 09:13:11,2021-01-19,1.963685671790346,2.8688100282098374,4.383795738585001,,,,,,,,,,,,
31103,0,USNebraskaKeyaPaha,Nebraska,KeyaPaha,2022-04-28 09:13:11,2021-01-20,1.963685671790346,2.8688100282098374,4.383795738585001,,,,,,,,,,,,
31103,0,USNebraskaKeyaPaha,Nebraska,KeyaPaha,2022-04-28 09:13:11,2021-01-21,0,0,0,,,,,,,,,,,,
31103,0,USNebraskaKeyaPaha,Nebraska,KeyaPaha,2022-04-28 09:13:11,2021-01-22,0,0,0,,,,,,,,,,,,
31103,0,USNebraskaKeyaPaha,Nebraska,KeyaPaha,2022-04-28 09:13:11,2021-01-23,0,0,0,,,,,,,,,,,,
31103,0,USNebraskaKeyaPaha,Nebraska,KeyaPaha,2022-04-28 09:13:11,2021-01-24,0,0,0,,,,,,,,,,,,
31103,0,USNebraskaKeyaPaha,Nebraska,KeyaPaha,2022-04-28 09:13:11,2021-01-25,0,0,0,,,,,,,,,,,,
31103,0,USNebraskaKeyaPaha,Nebraska,KeyaPaha,2022-04-28 09:13:11,2021-01-26,0,0,0,,,,,,,,,,,,
31103,0,USNebraskaKeyaPaha,Nebraska,KeyaPaha,2022-04-28 09:13:11,2021-01-27,0,0,0,,,,,,,,,,,,
31103,0,USNebraskaKeyaPaha,Nebraska,KeyaPaha,2022-04-28 09:13:11,2021-01-28,0.4975529324918992,0.9027195088350976,1.74742350781508,,,,,,,,,,,,
31103,0,USNebraskaKeyaPaha,Nebraska,KeyaPaha,2022-04-28 09:13:11,2021-01-29,0.4975529324918992,0.9027195088350976,1.74742350781508,,,,,,,,,,,,
31103,0,USNebraskaKeyaPaha,Nebraska,KeyaPaha,2022-04-28 09:13:11,2021-01-30,0.4975529324918992,0.9027195088350976,1.74742350781508,,,,,,,,,,,,
31103,0,USNebraskaKeyaPaha,Nebraska,KeyaPaha,2022-04-28 09:13:11,2021-01-31,0.4975529324918992,0.9027195088350976,1.74742350781508,,,,,,,,,,,,
31103,0,USNebraskaKeyaPaha,Nebraska,KeyaPaha,2022-04-28 09:13:11,2021-02-01,0.4975529324918992,0.9027195088350976,1.74742350781508,,,,,,,,,,,,
31103,0,USNebraskaKeyaPaha,Nebraska,KeyaPaha,2022-04-28 09:13:11,2021-02-02,0.4975529324918992,0.9027195088350976,1.74742350781508,,,,,,,,,,,,
31103,0,USNebraskaKeyaPaha,Nebraska,KeyaPaha,2022-04-28 09:13:11,2021-02-03,0.4975529324918992,0.9027195088350976,1.74742350781508,,,,,,,,,,,,
31103,0,USNebraskaKeyaPaha,Nebraska,KeyaPaha,2022-04-28 09:13:11,2021-02-04,1.106674783127832,1.5276882424345395,2.1900365617868,,,,,,,,,,,,
31103,0,USNebraskaKeyaPaha,Nebraska,KeyaPaha,2022-04-28 09:13:11,2021-02-05,1.106674783127832,1.5276882424345395,2.1900365617868,,,,,,,,,,,,
31103,0,USNebraskaKeyaPaha,Nebraska,KeyaPaha,2022-04-28 09:13:11,2021-02-06,1.106674783127832,1.5276882424345395,2.1900365617868,,,,,,,,,,,,
31103,0,USNebraskaKeyaPaha,Nebraska,KeyaPaha,2022-04-28 09:13:11,2021-02-07,1.106674783127832,1.5276882424345395,2.1900365617868,,,,,,,,,,,,
31103,0,USNebraskaKeyaPaha,Nebraska,KeyaPaha,2022-04-28 09:13:11,2021-02-08,1.106674783127832,1.5276882424345395,2.1900365617868,,,,,,,,,,,,
31103,0,USNebraskaKeyaPaha,Nebraska,KeyaPaha,2022-04-28 09:13:11,2021-02-09,1.106674783127832,1.5276882424345395,2.1900365617868,,,,,,,,,,,,
31103,0,USNebraskaKeyaPaha,Nebraska,KeyaPaha,2022-04-28 09:13:11,2021-02-10,1.106674783127832,1.5276882424345395,2.1900365617868,,,,,,,,,,,,
31103,0,USNebraskaKeyaPaha,Nebraska,KeyaPaha,2022-04-28 09:13:11,2021-02-11,0.48002505402654466,0.8427728692657793,1.575190347403497,,,,,,,,,,,,
31103,0,USNebraskaKeyaPaha,Nebraska,KeyaPaha,2022-04-28 09:13:11,2021-02-12,0.48002505402654466,0.8427728692657793,1.575190347403497,,,,,,,,,,,,
31103,0,USNebraskaKeyaPaha,Nebraska,KeyaPaha,2022-04-28 09:13:11,2021-02-13,0.48002505402654466,0.8427728692657793,1.575190347403497,,,,,,,,,,,,
31103,0,USNebraskaKeyaPaha,Nebraska,KeyaPaha,2022-04-28 09:13:11,2021-02-14,0.48002505402654466,0.8427728692657793,1.575190347403497,,,,,,,,,,,,
31103,0,USNebraskaKeyaPaha,Nebraska,KeyaPaha,2022-04-28 09:13:11,2021-02-15,0.48002505402654466,0.8427728692657793,1.575190347403497,,,,,,,,,,,,
31103,0,USNebraskaKeyaPaha,Nebraska,KeyaPaha,2022-04-28 09:13:11,2021-02-16,0.48002505402654466,0.8427728692657793,1.575190347403497,,,,,,,,,,,,
31103,0,USNebraskaKeyaPaha,Nebraska,KeyaPaha,2022-04-28 09:13:11,2021-02-17,0.48002505402654466,0.8427728692657793,1.575190347403497,,,,,,,,,,,,
31103,0,USNebraskaKeyaPaha,Nebraska,KeyaPaha,2022-04-28 09:13:11,2021-02-18,0.4667151058240277,0.7985436921832838,1.4517253094167029,,,,,,,,,,,,
31103,0,USNebraskaKeyaPaha,Nebraska,KeyaPaha,2022-04-28 09:13:11,2021-02-19,0.4667151058240277,0.7985436921832838,1.4517253094167029,,,,,,,,,,,,
31103,0,USNebraskaKeyaPaha,Nebraska,KeyaPaha,2022-04-28 09:13:11,2021-02-20,0.4667151058240277,0.7985436921832838,1.4517253094167029,,,,,,,,,,,,
31103,0,USNebraskaKeyaPaha,Nebraska,KeyaPaha,2022-04-28 09:13:11,2021-02-21,0.4667151058240277,0.7985436921832838,1.4517253094167029,,,,,,,,,,,,
31103,0,USNebraskaKeyaPaha,Nebraska,KeyaPaha,2022-04-28 09:13:11,2021-02-22,0.4667151058240277,0.7985436921832838,1.4517253094167029,,,,,,,,,,,,
31103,0,USNebraskaKeyaPaha,Nebraska,KeyaPaha,2022-04-28 09:13:11,2021-02-23,0.4667151058240277,0.7985436921832838,1.4517253094167029,,,,,,,,,,,,
31103,0,USNebraskaKeyaPaha,Nebraska,KeyaPaha,2022-04-28 09:13:11,2021-02-24,0.4667151058240277,0.7985436921832838,1.4517253094167029,,,,,,,,,,,,
31103,0,USNebraskaKeyaPaha,Nebraska,KeyaPaha,2022-04-28 09:13:11,2021-02-25,0,0,0,,,,,,,,,,,,
31103,0,USNebraskaKeyaPaha,Nebraska,KeyaPaha,2022-04-28 09:13:11,2021-02-26,0,0,0,,,,,,,,,,,,
31103,0,USNebraskaKeyaPaha,Nebraska,KeyaPaha,2022-04-28 09:13:11,2021-02-27,0,0,0,,,,,,,,,,,,
31103,0,USNebraskaKeyaPaha,Nebraska,KeyaPaha,2022-04-28 09:13:11,2021-02-28,0,0,0,,,,,,,,,,,,
31103,0,USNebraskaKeyaPaha,Nebraska,KeyaPaha,2022-04-28 09:13:11,2021-03-01,0,0,0,,,,,,,,,,,,
31103,0,USNebraskaKeyaPaha,Nebraska,KeyaPaha,2022-04-28 09:13:11,2021-03-02,0,0,0,,,,,,,,,,,,
31103,0,USNebraskaKeyaPaha,Nebraska,KeyaPaha,2022-04-28 09:13:11,2021-03-03,0,0,0,,,,,,,,,,,,
31103,0,USNebraskaKeyaPaha,Nebraska,KeyaPaha,2022-04-28 09:13:11,2021-03-04,0.46911935644043956,0.8064497947352419,1.4735639310101367,,,,,,,,,,,,
31103,0,USNebraskaKeyaPaha,Nebraska,KeyaPaha,2022-04-28 09:13:11,2021-03-05,0.46911935644043956,0.8064497947352419,1.4735639310101367,,,,,,,,,,,,
31103,0,USNebraskaKeyaPaha,Nebraska,KeyaPaha,2022-04-28 09:13:11,2021-03-06,0.46911935644043956,0.8064497947352419,1.4735639310101367,,,,,,,,,,,,
31103,0,USNebraskaKeyaPaha,Nebraska,KeyaPaha,2022-04-28 09:13:11,2021-03-07,0.46911935644043956,0.8064497947352419,1.4735639310101367,,,,,,,,,,,,
31103,0,USNebraskaKeyaPaha,Nebraska,KeyaPaha,2022-04-28 09:13:11,2021-03-08,0.46911935644043956,0.8064497947352419,1.4735639310101367,,,,,,,,,,,,
31103,0,USNebraskaKeyaPaha,Nebraska,KeyaPaha,2022-04-28 09:13:11,2021-03-09,0.46911935644043956,0.8064497947352419,1.4735639310101367,,,,,,,,,,,,
31103,0,USNebraskaKeyaPaha,Nebraska,KeyaPaha,2022-04-28 09:13:11,2021-03-10,0.46911935644043956,0.8064497947352419,1.4735639310101367,,,,,,,,,,,,
31103,0,USNebraskaKeyaPaha,Nebraska,KeyaPaha,2022-04-28 09:13:11,2021-03-11,0.4541068779833983,0.7576891052725607,1.3405189844463106,,,,,,,,,,,,
31103,0,USNebraskaKeyaPaha,Nebraska,KeyaPaha,2022-04-28 09:13:11,2021-03-12,0.4541068779833983,0.7576891052725607,1.3405189844463106,,,,,,,,,,,,
31103,0,USNebraskaKeyaPaha,Nebraska,KeyaPaha,2022-04-28 09:13:11,2021-03-13,0.4541068779833983,0.7576891052725607,1.3405189844463106,,,,,,,,,,,,
31103,0,USNebraskaKeyaPaha,Nebraska,KeyaPaha,2022-04-28 09:13:11,2021-03-14,0.4541068779833983,0.7576891052725607,1.3405189844463106,,,,,,,,,,,,
31103,0,USNebraskaKeyaPaha,Nebraska,KeyaPaha,2022-04-28 09:13:11,2021-03-15,0.4541068779833983,0.7576891052725607,1.3405189844463106,,,,,,,,,,,,
31103,0,USNebraskaKeyaPaha,Nebraska,KeyaPaha,2022-04-28 09:13:11,2021-03-16,0.4541068779833983,0.7576891052725607,1.3405189844463106,,,,,,,,,,,,
31103,0,USNebraskaKeyaPaha,Nebraska,KeyaPaha,2022-04-28 09:13:11,2021-03-17,0.4541068779833983,0.7576891052725607,1.3405189844463106,,,,,,,,,,,,
31103,0,USNebraskaKeyaPaha,Nebraska,KeyaPaha,2022-04-28 09:13:11,2021-03-18,0.799228854518968,1.1862209068616771,1.8449705244809738,,,,,,,,,,,,
31103,0,USNebraskaKeyaPaha,Nebraska,KeyaPaha,2022-04-28 09:13:11,2021-03-19,0.799228854518968,1.1862209068616771,1.8449705244809738,,,,,,,,,,,,
31103,0,USNebraskaKeyaPaha,Nebraska,KeyaPaha,2022-04-28 09:13:11,2021-03-20,0.799228854518968,1.1862209068616771,1.8449705244809738,,,,,,,,,,,,
31103,0,USNebraskaKeyaPaha,Nebraska,KeyaPaha,2022-04-28 09:13:11,2021-03-21,0.799228854518968,1.1862209068616771,1.8449705244809738,,,,,,,,,,,,
31103,0,USNebraskaKeyaPaha,Nebraska,KeyaPaha,2022-04-28 09:13:11,2021-03-22,0.799228854518968,1.1862209068616771,1.8449705244809738,,,,,,,,,,,,
31103,0,USNebraskaKeyaPaha,Nebraska,KeyaPaha,2022-04-28 09:13:11,2021-03-23,0.799228854518968,1.1862209068616771,1.8449705244809738,,,,,,,,,,,,
31103,0,USNebraskaKeyaPaha,Nebraska,KeyaPaha,2022-04-28 09:13:11,2021-03-24,0.799228854518968,1.1862209068616771,1.8449705244809738,,,,,,,,,,,,
31103,0,USNebraskaKeyaPaha,Nebraska,KeyaPaha,2022-04-28 09:13:11,2021-03-25,0,0,0,,,,,,,,,,,,
31103,0,USNebraskaKeyaPaha,Nebraska,KeyaPaha,2022-04-28 09:13:11,2021-03-26,0,0,0,,,,,,,,,,,,
31103,0,USNebraskaKeyaPaha,Nebraska,KeyaPaha,2022-04-28 09:13:11,2021-03-27,0,0,0,,,,,,,,,,,,
31103,0,USNebraskaKeyaPaha,Nebraska,KeyaPaha,2022-04-28 09:13:11,2021-03-28,0,0,0,,,,,,,,,,,,
31103,0,USNebraskaKeyaPaha,Nebraska,KeyaPaha,2022-04-28 09:13:11,2021-03-29,0,0,0,,,,,,,,,,,,
31103,0,USNebraskaKeyaPaha,Nebraska,KeyaPaha,2022-04-28 09:13:11,2021-03-30,0,0,0,,,,,,,,,,,,
31103,0,USNebraskaKeyaPaha,Nebraska,KeyaPaha,2022-04-28 09:13:11,2021-03-31,0,0,0,,,,,,,,,,,,
31103,0,USNebraskaKeyaPaha,Nebraska,KeyaPaha,2022-04-28 09:13:11,2021-04-01,1.181141680053318,1.7294703534606548,2.649479059256597,,,,,,,,,,,,
31103,0,USNebraskaKeyaPaha,Nebraska,KeyaPaha,2022-04-28 09:13:11,2021-04-02,1.181141680053318,1.7294703534606548,2.649479059256597,,,,,,,,,,,,
31103,0,USNebraskaKeyaPaha,Nebraska,KeyaPaha,2022-04-28 09:13:11,2021-04-03,1.181141680053318,1.7294703534606548,2.649479059256597,,,,,,,,,,,,
31103,0,USNebraskaKeyaPaha,Nebraska,KeyaPaha,2022-04-28 09:13:11,2021-04-04,1.181141680053318,1.7294703534606548,2.649479059256597,,,,,,,,,,,,
31103,0,USNebraskaKeyaPaha,Nebraska,KeyaPaha,2022-04-28 09:13:11,2021-04-05,1.181141680053318,1.7294703534606548,2.649479059256597,,,,,,,,,,,,
31103,0,USNebraskaKeyaPaha,Nebraska,KeyaPaha,2022-04-28 09:13:11,2021-04-06,1.181141680053318,1.7294703534606548,2.649479059256597,,,,,,,,,,,,
31103,0,USNebraskaKeyaPaha,Nebraska,KeyaPaha,2022-04-28 09:13:11,2021-04-07,1.181141680053318,1.7294703534606548,2.649479059256597,,,,,,,,,,,,
31103,0,USNebraskaKeyaPaha,Nebraska,KeyaPaha,2022-04-28 09:13:11,2021-04-08,0,0,0,,,,,,,,,,,,
31103,0,USNebraskaKeyaPaha,Nebraska,KeyaPaha,2022-04-28 09:13:11,2021-04-09,0,0,0,,,,,,,,,,,,
31103,0,USNebraskaKeyaPaha,Nebraska,KeyaPaha,2022-04-28 09:13:11,2021-04-10,0,0,0,,,,,,,,,,,,
31103,0,USNebraskaKeyaPaha,Nebraska,KeyaPaha,2022-04-28 09:13:11,2021-04-11,0,0,0,,,,,,,,,,,,
31103,0,USNebraskaKeyaPaha,Nebraska,KeyaPaha,2022-04-28 09:13:11,2021-04-12,0,0,0,,,,,,,,,,,,
31103,0,USNebraskaKeyaPaha,Nebraska,KeyaPaha,2022-04-28 09:13:11,2021-04-13,0,0,0,,,,,,,,,,,,
31103,0,USNebraskaKeyaPaha,Nebraska,KeyaPaha,2022-04-28 09:13:11,2021-04-14,0,0,0,,,,,,,,,,,,
31103,0,USNebraskaKeyaPaha,Nebraska,KeyaPaha,2022-04-28 09:13:11,2021-04-15,0,0,0,,,,,,,,,,,,
31103,0,USNebraskaKeyaPaha,Nebraska,KeyaPaha,2022-04-28 09:13:11,2021-04-16,0,0,0,,,,,,,,,,,,
31103,0,USNebraskaKeyaPaha,Nebraska,KeyaPaha,2022-04-28 09:13:11,2021-04-17,0,0,0,,,,,,,,,,,,
31103,0,USNebraskaKeyaPaha,Nebraska,KeyaPaha,2022-04-28 09:13:11,2021-04-18,0,0,0,,,,,,,,,,,,
31103,0,USNebraskaKeyaPaha,Nebraska,KeyaPaha,2022-04-28 09:13:11,2021-04-19,0,0,0,,,,,,,,,,,,
31103,0,USNebraskaKeyaPaha,Nebraska,KeyaPaha,2022-04-28 09:13:11,2021-04-20,0,0,0,,,,,,,,,,,,
31103,0,USNebraskaKeyaPaha,Nebraska,KeyaPaha,2022-04-28 09:13:11,2021-04-21,0,0,0,,,,,,,,,,,,
31103,0,USNebraskaKeyaPaha,Nebraska,KeyaPaha,2022-04-28 09:13:11,2021-04-22,0,0,0,,,,,,,,,,,,
31103,0,USNebraskaKeyaPaha,Nebraska,KeyaPaha,2022-04-28 09:13:11,2021-04-23,0,0,0,,,,,,,,,,,,
31103,0,USNebraskaKeyaPaha,Nebraska,KeyaPaha,2022-04-28 09:13:11,2021-04-24,0,0,0,,,,,,,,,,,,
31103,0,USNebraskaKeyaPaha,Nebraska,KeyaPaha,2022-04-28 09:13:11,2021-04-25,0,0,0,,,,,,,,,,,,
31103,0,USNebraskaKeyaPaha,Nebraska,KeyaPaha,2022-04-28 09:13:11,2021-04-26,0,0,0,,,,,,,,,,,,
31103,0,USNebraskaKeyaPaha,Nebraska,KeyaPaha,2022-04-28 09:13:11,2021-04-27,0,0,0,,,,,,,,,,,,
31103,0,USNebraskaKeyaPaha,Nebraska,KeyaPaha,2022-04-28 09:13:11,2021-04-28,0,0,0,,,,,,,,,,,,
31103,0,USNebraskaKeyaPaha,Nebraska,KeyaPaha,2022-04-28 09:13:11,2021-04-29,0,0,0,,,,,,,,,,,,
31103,0,USNebraskaKeyaPaha,Nebraska,KeyaPaha,2022-04-28 09:13:11,2021-04-30,0,0,0,,,,,,,,,,,,
31103,0,USNebraskaKeyaPaha,Nebraska,KeyaPaha,2022-04-28 09:13:11,2021-05-01,0,0,0,,,,,,,,,,,,
31103,0,USNebraskaKeyaPaha,Nebraska,KeyaPaha,2022-04-28 09:13:11,2021-05-02,0,0,0,,,,,,,,,,,,
31103,0,USNebraskaKeyaPaha,Nebraska,KeyaPaha,2022-04-28 09:13:11,2021-05-03,0,0,0,,,,,,,,,,,,
31103,0,USNebraskaKeyaPaha,Nebraska,KeyaPaha,2022-04-28 09:13:11,2021-05-04,0,0,0,,,,,,,,,,,,
31103,0,USNebraskaKeyaPaha,Nebraska,KeyaPaha,2022-04-28 09:13:11,2021-05-05,0,0,0,,,,,,,,,,,,
31103,0,USNebraskaKeyaPaha,Nebraska,KeyaPaha,2022-04-28 09:13:11,2021-05-06,0,0,0,,,,,,,,,,,,
31103,0,USNebraskaKeyaPaha,Nebraska,KeyaPaha,2022-04-28 09:13:11,2021-05-07,0,0,0,,,,,,,,,,,,
31103,0,USNebraskaKeyaPaha,Nebraska,KeyaPaha,2022-04-28 09:13:11,2021-05-08,0,0,0,,,,,,,,,,,,
31103,0,USNebraskaKeyaPaha,Nebraska,KeyaPaha,2022-04-28 09:13:11,2021-05-09,0,0,0,,,,,,,,,,,,
31103,0,USNebraskaKeyaPaha,Nebraska,KeyaPaha,2022-04-28 09:13:11,2021-05-10,0,0,0,,,,,,,,,,,,
31103,0,USNebraskaKeyaPaha,Nebraska,KeyaPaha,2022-04-28 09:13:11,2021-05-11,0,0,0,,,,,,,,,,,,
31103,0,USNebraskaKeyaPaha,Nebraska,KeyaPaha,2022-04-28 09:13:11,2021-05-12,0,0,0,,,,,,,,,,,,
31103,0,USNebraskaKeyaPaha,Nebraska,KeyaPaha,2022-04-28 09:13:11,2021-05-13,0.4125049714618294,0.6302489504623735,1.0123708982462574,,,,,,,,,,,,
31103,0,USNebraskaKeyaPaha,Nebraska,KeyaPaha,2022-04-28 09:13:11,2021-05-14,0.4125049714618294,0.6302489504623735,1.0123708982462574,,,,,,,,,,,,
31103,0,USNebraskaKeyaPaha,Nebraska,KeyaPaha,2022-04-28 09:13:11,2021-05-15,0.4125049714618294,0.6302489504623735,1.0123708982462574,,,,,,,,,,,,
31103,0,USNebraskaKeyaPaha,Nebraska,KeyaPaha,2022-04-28 09:13:11,2021-05-16,0.4125049714618294,0.6302489504623735,1.0123708982462574,,,,,,,,,,,,
31103,0,USNebraskaKeyaPaha,Nebraska,KeyaPaha,2022-04-28 09:13:11,2021-05-17,0.4125049714618294,0.6302489504623735,1.0123708982462574,,,,,,,,,,,,
31103,0,USNebraskaKeyaPaha,Nebraska,KeyaPaha,2022-04-28 09:13:11,2021-05-18,0.4125049714618294,0.6302489504623735,1.0123708982462574,,,,,,,,,,,,
31103,0,USNebraskaKeyaPaha,Nebraska,KeyaPaha,2022-04-28 09:13:11,2021-05-19,0.4125049714618294,0.6302489504623735,1.0123708982462574,,,,,,,,,,,,
31103,0,USNebraskaKeyaPaha,Nebraska,KeyaPaha,2022-04-28 09:13:11,2021-05-20,0,0,0,,,,,,,,,,,,
31103,0,USNebraskaKeyaPaha,Nebraska,KeyaPaha,2022-04-28 09:13:11,2021-05-21,0,0,0,,,,,,,,,,,,
31103,0,USNebraskaKeyaPaha,Nebraska,KeyaPaha,2022-04-28 09:13:11,2021-05-22,0,0,0,,,,,,,,,,,,
31103,0,USNebraskaKeyaPaha,Nebraska,KeyaPaha,2022-04-28 09:13:11,2021-05-23,0,0,0,,,,,,,,,,,,
31103,0,USNebraskaKeyaPaha,Nebraska,KeyaPaha,2022-04-28 09:13:11,2021-05-24,0,0,0,,,,,,,,,,,,
31103,0,USNebraskaKeyaPaha,Nebraska,KeyaPaha,2022-04-28 09:13:11,2021-05-25,0,0,0,,,,,,,,,,,,
31103,0,USNebraskaKeyaPaha,Nebraska,KeyaPaha,2022-04-28 09:13:11,2021-05-26,0,0,0,,,,,,,,,,,,
31103,0,USNebraskaKeyaPaha,Nebraska,KeyaPaha,2022-04-28 09:13:11,2021-05-27,0,0,0,,,,,,,,,,,,
31103,0,USNebraskaKeyaPaha,Nebraska,KeyaPaha,2022-04-28 09:13:11,2021-05-28,0,0,0,,,,,,,,,,,,
31103,0,USNebraskaKeyaPaha,Nebraska,KeyaPaha,2022-04-28 09:13:11,2021-05-29,0,0,0,,,,,,,,,,,,
31103,0,USNebraskaKeyaPaha,Nebraska,KeyaPaha,2022-04-28 09:13:11,2021-05-30,0,0,0,,,,,,,,,,,,
31103,0,USNebraskaKeyaPaha,Nebraska,KeyaPaha,2022-04-28 09:13:11,2021-05-31,0,0,0,,,,,,,,,,,,
31103,0,USNebraskaKeyaPaha,Nebraska,KeyaPaha,2022-04-28 09:13:11,2021-06-01,0,0,0,,,,,,,,,,,,
31103,0,USNebraskaKeyaPaha,Nebraska,KeyaPaha,2022-04-28 09:13:11,2021-06-02,0,0,0,,,,,,,,,,,,
31103,0,USNebraskaKeyaPaha,Nebraska,KeyaPaha,2022-04-28 09:13:11,2021-06-03,0,0,0,,,,,,,,,,,,
31103,0,USNebraskaKeyaPaha,Nebraska,KeyaPaha,2022-04-28 09:13:11,2021-06-04,0,0,0,,,,,,,,,,,,
31103,0,USNebraskaKeyaPaha,Nebraska,KeyaPaha,2022-04-28 09:13:11,2021-06-05,0,0,0,,,,,,,,,,,,
31103,0,USNebraskaKeyaPaha,Nebraska,KeyaPaha,2022-04-28 09:13:11,2021-06-06,0,0,0,,,,,,,,,,,,
31103,0,USNebraskaKeyaPaha,Nebraska,KeyaPaha,2022-04-28 09:13:11,2021-06-07,0,0,0,,,,,,,,,,,,
31103,0,USNebraskaKeyaPaha,Nebraska,KeyaPaha,2022-04-28 09:13:11,2021-06-08,0,0,0,,,,,,,,,,,,
31103,0,USNebraskaKeyaPaha,Nebraska,KeyaPaha,2022-04-28 09:13:11,2021-06-09,0,0,0,,,,,,,,,,,,
31103,0,USNebraskaKeyaPaha,Nebraska,KeyaPaha,2022-04-28 09:13:11,2021-06-10,0,0,0,,,,,,,,,,,,
31103,0,USNebraskaKeyaPaha,Nebraska,KeyaPaha,2022-04-28 09:13:11,2021-06-11,0,0,0,,,,,,,,,,,,
31103,0,USNebraskaKeyaPaha,Nebraska,KeyaPaha,2022-04-28 09:13:11,2021-06-12,0,0,0,,,,,,,,,,,,
31103,0,USNebraskaKeyaPaha,Nebraska,KeyaPaha,2022-04-28 09:13:11,2021-06-13,0,0,0,,,,,,,,,,,,
31103,0,USNebraskaKeyaPaha,Nebraska,KeyaPaha,2022-04-28 09:13:11,2021-06-14,0,0,0,,,,,,,,,,,,
31103,0,USNebraskaKeyaPaha,Nebraska,KeyaPaha,2022-04-28 09:13:11,2021-06-15,0,0,0,,,,,,,,,,,,
31103,0,USNebraskaKeyaPaha,Nebraska,KeyaPaha,2022-04-28 09:13:11,2021-06-16,0,0,0,,,,,,,,,,,,
31103,0,USNebraskaKeyaPaha,Nebraska,KeyaPaha,2022-04-28 09:13:11,2021-06-17,0,0,0,,,,,,,,,,,,
31103,0,USNebraskaKeyaPaha,Nebraska,KeyaPaha,2022-04-28 09:13:11,2021-06-18,0,0,0,,,,,,,,,,,,
31103,0,USNebraskaKeyaPaha,Nebraska,KeyaPaha,2022-04-28 09:13:11,2021-06-19,0,0,0,,,,,,,,,,,,
31103,0,USNebraskaKeyaPaha,Nebraska,KeyaPaha,2022-04-28 09:13:11,2021-06-20,0,0,0,,,,,,,,,,,,
31103,0,USNebraskaKeyaPaha,Nebraska,KeyaPaha,2022-04-28 09:13:11,2021-06-21,0,0,0,,,,,,,,,,,,
31103,0,USNebraskaKeyaPaha,Nebraska,KeyaPaha,2022-04-28 09:13:11,2021-06-22,0,0,0,,,,,,,,,,,,
31103,0,USNebraskaKeyaPaha,Nebraska,KeyaPaha,2022-04-28 09:13:11,2021-06-23,0,0,0,,,,,,,,,,,,
31103,0,USNebraskaKeyaPaha,Nebraska,KeyaPaha,2022-04-28 09:13:11,2021-06-24,0,0,0,,,,,,,,,,,,
31103,0,USNebraskaKeyaPaha,Nebraska,KeyaPaha,2022-04-28 09:13:11,2021-06-25,0,0,0,,,,,,,,,,,,
31103,0,USNebraskaKeyaPaha,Nebraska,KeyaPaha,2022-04-28 09:13:11,2021-06-26,0,0,0,,,,,,,,,,,,
31103,0,USNebraskaKeyaPaha,Nebraska,KeyaPaha,2022-04-28 09:13:11,2021-06-27,0,0,0,,,,,,,,,,,,
31103,0,USNebraskaKeyaPaha,Nebraska,KeyaPaha,2022-04-28 09:13:11,2021-06-28,0,0,0,,,,,,,,,,,,
31103,0,USNebraskaKeyaPaha,Nebraska,KeyaPaha,2022-04-28 09:13:11,2021-06-29,0,0,0,,,,,,,,,,,,
31103,0,USNebraskaKeyaPaha,Nebraska,KeyaPaha,2022-04-28 09:13:11,2021-06-30,0,0,0,,,,,,,,,,,,
31103,0,USNebraskaKeyaPaha,Nebraska,KeyaPaha,2022-04-28 09:13:11,2021-07-01,0,0,0,,,,,,,,,,,,
31103,0,USNebraskaKeyaPaha,Nebraska,KeyaPaha,2022-04-28 09:13:11,2021-07-02,0,0,0,,,,,,,,,,,,
31103,0,USNebraskaKeyaPaha,Nebraska,KeyaPaha,2022-04-28 09:13:11,2021-07-03,0,0,0,,,,,,,,,,,,
31103,0,USNebraskaKeyaPaha,Nebraska,KeyaPaha,2022-04-28 09:13:11,2021-07-04,0,0,0,,,,,,,,,,,,
31103,0,USNebraskaKeyaPaha,Nebraska,KeyaPaha,2022-04-28 09:13:11,2021-07-05,0,0,0,,,,,,,,,,,,
31103,0,USNebraskaKeyaPaha,Nebraska,KeyaPaha,2022-04-28 09:13:11,2021-07-06,0,0,0,,,,,,,,,,,,
31103,0,USNebraskaKeyaPaha,Nebraska,KeyaPaha,2022-04-28 09:13:11,2021-07-07,0,0,0,,,,,,,,,,,,
31103,0,USNebraskaKeyaPaha,Nebraska,KeyaPaha,2022-04-28 09:13:11,2021-07-08,0,0,0,,,,,,,,,,,,
31103,0,USNebraskaKeyaPaha,Nebraska,KeyaPaha,2022-04-28 09:13:11,2021-07-09,0,0,0,,,,,,,,,,,,
31103,0,USNebraskaKeyaPaha,Nebraska,KeyaPaha,2022-04-28 09:13:11,2021-07-10,0,0,0,,,,,,,,,,,,
31103,0,USNebraskaKeyaPaha,Nebraska,KeyaPaha,2022-04-28 09:13:11,2021-07-11,0,0,0,,,,,,,,,,,,
31103,0,USNebraskaKeyaPaha,Nebraska,KeyaPaha,2022-04-28 09:13:11,2021-07-12,0,0,0,,,,,,,,,,,,
31103,0,USNebraskaKeyaPaha,Nebraska,KeyaPaha,2022-04-28 09:13:11,2021-07-13,0,0,0,,,,,,,,,,,,
31103,0,USNebraskaKeyaPaha,Nebraska,KeyaPaha,2022-04-28 09:13:11,2021-07-14,0,0,0,,,,,,,,,,,,
31103,0,USNebraskaKeyaPaha,Nebraska,KeyaPaha,2022-04-28 09:13:11,2021-07-15,0,0,0,,,,,,,,,,,,
31103,0,USNebraskaKeyaPaha,Nebraska,KeyaPaha,2022-04-28 09:13:11,2021-07-16,0,0,0,,,,,,,,,,,,
31103,0,USNebraskaKeyaPaha,Nebraska,KeyaPaha,2022-04-28 09:13:11,2021-07-17,0,0,0,,,,,,,,,,,,
31103,0,USNebraskaKeyaPaha,Nebraska,KeyaPaha,2022-04-28 09:13:11,2021-07-18,0,0,0,,,,,,,,,,,,
31103,0,USNebraskaKeyaPaha,Nebraska,KeyaPaha,2022-04-28 09:13:11,2021-07-19,0,0,0,,,,,,,,,,,,
31103,0,USNebraskaKeyaPaha,Nebraska,KeyaPaha,2022-04-28 09:13:11,2021-07-20,0,0,0,,,,,,,,,,,,
31103,0,USNebraskaKeyaPaha,Nebraska,KeyaPaha,2022-04-28 09:13:11,2021-07-21,0,0,0,,,,,,,,,,,,
31103,0,USNebraskaKeyaPaha,Nebraska,KeyaPaha,2022-04-28 09:13:11,2021-07-22,0,0,0,,,,,,,,,,,,
31103,0,USNebraskaKeyaPaha,Nebraska,KeyaPaha,2022-04-28 09:13:11,2021-07-23,0,0,0,,,,,,,,,,,,
31103,0,USNebraskaKeyaPaha,Nebraska,KeyaPaha,2022-04-28 09:13:11,2021-07-24,0,0,0,,,,,,,,,,,,
31103,0,USNebraskaKeyaPaha,Nebraska,KeyaPaha,2022-04-28 09:13:11,2021-07-25,0,0,0,,,,,,,,,,,,
31103,0,USNebraskaKeyaPaha,Nebraska,KeyaPaha,2022-04-28 09:13:11,2021-07-26,0,0,0,,,,,,,,,,,,
31103,0,USNebraskaKeyaPaha,Nebraska,KeyaPaha,2022-04-28 09:13:11,2021-07-27,0,0,0,,,,,,,,,,,,
31103,0,USNebraskaKeyaPaha,Nebraska,KeyaPaha,2022-04-28 09:13:11,2021-07-28,0,0,0,,,,,,,,,,,,
31103,0,USNebraskaKeyaPaha,Nebraska,KeyaPaha,2022-04-28 09:13:11,2021-07-29,0,0,0,,,,,,,,,,,,
31103,0,USNebraskaKeyaPaha,Nebraska,KeyaPaha,2022-04-28 09:13:11,2021-07-30,0,0,0,,,,,,,,,,,,
31103,0,USNebraskaKeyaPaha,Nebraska,KeyaPaha,2022-04-28 09:13:11,2021-07-31,0,0,0,,,,,,,,,,,,
31103,0,USNebraskaKeyaPaha,Nebraska,KeyaPaha,2022-04-28 09:13:11,2021-08-01,0,0,0,,,,,,,,,,,,
31103,0,USNebraskaKeyaPaha,Nebraska,KeyaPaha,2022-04-28 09:13:11,2021-08-02,0,0,0,,,,,,,,,,,,
31103,0,USNebraskaKeyaPaha,Nebraska,KeyaPaha,2022-04-28 09:13:11,2021-08-03,0,0,0,,,,,,,,,,,,
31103,0,USNebraskaKeyaPaha,Nebraska,KeyaPaha,2022-04-28 09:13:11,2021-08-04,0,0,0,,,,,,,,,,,,
31103,0,USNebraskaKeyaPaha,Nebraska,KeyaPaha,2022-04-28 09:13:11,2021-08-05,0,0,0,,,,,,,,,,,,
31103,0,USNebraskaKeyaPaha,Nebraska,KeyaPaha,2022-04-28 09:13:11,2021-08-06,0,0,0,,,,,,,,,,,,
31103,0,USNebraskaKeyaPaha,Nebraska,KeyaPaha,2022-04-28 09:13:11,2021-08-07,0,0,0,,,,,,,,,,,,
31103,0,USNebraskaKeyaPaha,Nebraska,KeyaPaha,2022-04-28 09:13:11,2021-08-08,0,0,0,,,,,,,,,,,,
31103,0,USNebraskaKeyaPaha,Nebraska,KeyaPaha,2022-04-28 09:13:11,2021-08-09,0,0,0,,,,,,,,,,,,
31103,0,USNebraskaKeyaPaha,Nebraska,KeyaPaha,2022-04-28 09:13:11,2021-08-10,0,0,0,,,,,,,,,,,,
31103,0,USNebraskaKeyaPaha,Nebraska,KeyaPaha,2022-04-28 09:13:11,2021-08-11,0,0,0,,,,,,,,,,,,
31103,0,USNebraskaKeyaPaha,Nebraska,KeyaPaha,2022-04-28 09:13:11,2021-08-12,0,0,0,,,,,,,,,,,,
31103,0,USNebraskaKeyaPaha,Nebraska,KeyaPaha,2022-04-28 09:13:11,2021-08-13,0,0,0,,,,,,,,,,,,
31103,0,USNebraskaKeyaPaha,Nebraska,KeyaPaha,2022-04-28 09:13:11,2021-08-14,0,0,0,,,,,,,,,,,,
31103,0,USNebraskaKeyaPaha,Nebraska,KeyaPaha,2022-04-28 09:13:11,2021-08-15,0,0,0,,,,,,,,,,,,
31103,0,USNebraskaKeyaPaha,Nebraska,KeyaPaha,2022-04-28 09:13:11,2021-08-16,0,0,0,,,,,,,,,,,,
31103,0,USNebraskaKeyaPaha,Nebraska,KeyaPaha,2022-04-28 09:13:11,2021-08-17,0,0,0,,,,,,,,,,,,
31103,0,USNebraskaKeyaPaha,Nebraska,KeyaPaha,2022-04-28 09:13:11,2021-08-18,0,0,0,,,,,,,,,,,,
31103,0,USNebraskaKeyaPaha,Nebraska,KeyaPaha,2022-04-28 09:13:11,2021-08-19,0,0,0,,,,,,,,,,,,
31103,0,USNebraskaKeyaPaha,Nebraska,KeyaPaha,2022-04-28 09:13:11,2021-08-20,0,0,0,,,,,,,,,,,,
31103,0,USNebraskaKeyaPaha,Nebraska,KeyaPaha,2022-04-28 09:13:11,2021-08-21,0,0,0,,,,,,,,,,,,
31103,0,USNebraskaKeyaPaha,Nebraska,KeyaPaha,2022-04-28 09:13:11,2021-08-22,0,0,0,,,,,,,,,,,,
31103,0,USNebraskaKeyaPaha,Nebraska,KeyaPaha,2022-04-28 09:13:11,2021-08-23,0,0,0,,,,,,,,,,,,
31103,0,USNebraskaKeyaPaha,Nebraska,KeyaPaha,2022-04-28 09:13:11,2021-08-24,0,0,0,,,,,,,,,,,,
31103,0,USNebraskaKeyaPaha,Nebraska,KeyaPaha,2022-04-28 09:13:11,2021-08-25,0,0,0,,,,,,,,,,,,
31103,0,USNebraskaKeyaPaha,Nebraska,KeyaPaha,2022-04-28 09:13:11,2021-08-26,0,0,0,,,,,,,,,,,,
31103,0,USNebraskaKeyaPaha,Nebraska,KeyaPaha,2022-04-28 09:13:11,2021-08-27,0,0,0,,,,,,,,,,,,
31103,0,USNebraskaKeyaPaha,Nebraska,KeyaPaha,2022-04-28 09:13:11,2021-08-28,0,0,0,,,,,,,,,,,,
31103,0,USNebraskaKeyaPaha,Nebraska,KeyaPaha,2022-04-28 09:13:11,2021-08-29,0,0,0,,,,,,,,,,,,
31103,0,USNebraskaKeyaPaha,Nebraska,KeyaPaha,2022-04-28 09:13:11,2021-08-30,0,0,0,,,,,,,,,,,,
31103,0,USNebraskaKeyaPaha,Nebraska,KeyaPaha,2022-04-28 09:13:11,2021-08-31,0,0,0,,,,,,,,,,,,
31103,0,USNebraskaKeyaPaha,Nebraska,KeyaPaha,2022-04-28 09:13:11,2021-09-01,0,0,0,,,,,,,,,,,,
31103,0,USNebraskaKeyaPaha,Nebraska,KeyaPaha,2022-04-28 09:13:11,2021-09-02,0,0,0,,,,,,,,,,,,
31103,0,USNebraskaKeyaPaha,Nebraska,KeyaPaha,2022-04-28 09:13:11,2021-09-03,0,0,0,,,,,,,,,,,,
31103,0,USNebraskaKeyaPaha,Nebraska,KeyaPaha,2022-04-28 09:13:11,2021-09-04,0,0,0,,,,,,,,,,,,
31103,0,USNebraskaKeyaPaha,Nebraska,KeyaPaha,2022-04-28 09:13:11,2021-09-05,0,0,0,,,,,,,,,,,,
31103,0,USNebraskaKeyaPaha,Nebraska,KeyaPaha,2022-04-28 09:13:11,2021-09-06,0,0,0,,,,,,,,,,,,
31103,0,USNebraskaKeyaPaha,Nebraska,KeyaPaha,2022-04-28 09:13:11,2021-09-07,0,0,0,,,,,,,,,,,,
31103,0,USNebraskaKeyaPaha,Nebraska,KeyaPaha,2022-04-28 09:13:11,2021-09-08,0,0,0,,,,,,,,,,,,
31103,0,USNebraskaKeyaPaha,Nebraska,KeyaPaha,2022-04-28 09:13:11,2021-09-09,0,0,0,,,,,,,,,,,,
31103,0,USNebraskaKeyaPaha,Nebraska,KeyaPaha,2022-04-28 09:13:11,2021-09-10,0,0,0,,,,,,,,,,,,
31103,0,USNebraskaKeyaPaha,Nebraska,KeyaPaha,2022-04-28 09:13:11,2021-09-11,0,0,0,,,,,,,,,,,,
31103,0,USNebraskaKeyaPaha,Nebraska,KeyaPaha,2022-04-28 09:13:11,2021-09-12,0,0,0,,,,,,,,,,,,
31103,0,USNebraskaKeyaPaha,Nebraska,KeyaPaha,2022-04-28 09:13:11,2021-09-13,0,0,0,,,,,,,,,,,,
31103,0,USNebraskaKeyaPaha,Nebraska,KeyaPaha,2022-04-28 09:13:11,2021-09-14,0,0,0,,,,,,,,,,,,
31103,0,USNebraskaKeyaPaha,Nebraska,KeyaPaha,2022-04-28 09:13:11,2021-09-15,0,0,0,,,,,,,,,,,,
31103,0,USNebraskaKeyaPaha,Nebraska,KeyaPaha,2022-04-28 09:13:11,2021-09-16,0,0,0,,,,,,,,,,,,
31103,0,USNebraskaKeyaPaha,Nebraska,KeyaPaha,2022-04-28 09:13:11,2021-09-17,0,0,0,,,,,,,,,,,,
31103,0,USNebraskaKeyaPaha,Nebraska,KeyaPaha,2022-04-28 09:13:11,2021-09-18,0,0,0,,,,,,,,,,,,
31103,0,USNebraskaKeyaPaha,Nebraska,KeyaPaha,2022-04-28 09:13:11,2021-09-19,0,0,0,,,,,,,,,,,,
31103,0,USNebraskaKeyaPaha,Nebraska,KeyaPaha,2022-04-28 09:13:11,2021-09-20,0,0,0,,,,,,,,,,,,
31103,0,USNebraskaKeyaPaha,Nebraska,KeyaPaha,2022-04-28 09:13:11,2021-09-21,0,0,0,,,,,,,,,,,,
31103,0,USNebraskaKeyaPaha,Nebraska,KeyaPaha,2022-04-28 09:13:11,2021-09-22,0,0,0,,,,,,,,,,,,
31103,0,USNebraskaKeyaPaha,Nebraska,KeyaPaha,2022-04-28 09:13:11,2021-09-23,2.7946402235717254,4.14422791438991,6.439423826040221,,,,,,,,,,,,
31103,0,USNebraskaKeyaPaha,Nebraska,KeyaPaha,2022-04-28 09:13:11,2021-09-24,2.7946402235717254,4.14422791438991,6.439423826040221,,,,,,,,,,,,
31103,0,USNebraskaKeyaPaha,Nebraska,KeyaPaha,2022-04-28 09:13:11,2021-09-25,2.7946402235717254,4.14422791438991,6.439423826040221,,,,,,,,,,,,
31103,0,USNebraskaKeyaPaha,Nebraska,KeyaPaha,2022-04-28 09:13:11,2021-09-26,2.7946402235717254,4.14422791438991,6.439423826040221,,,,,,,,,,,,
31103,0,USNebraskaKeyaPaha,Nebraska,KeyaPaha,2022-04-28 09:13:11,2021-09-27,2.7946402235717254,4.14422791438991,6.439423826040221,,,,,,,,,,,,
31103,0,USNebraskaKeyaPaha,Nebraska,KeyaPaha,2022-04-28 09:13:11,2021-09-28,2.7946402235717254,4.14422791438991,6.439423826040221,,,,,,,,,,,,
31103,0,USNebraskaKeyaPaha,Nebraska,KeyaPaha,2022-04-28 09:13:11,2021-09-29,2.7946402235717254,4.14422791438991,6.439423826040221,,,,,,,,,,,,
31103,0,USNebraskaKeyaPaha,Nebraska,KeyaPaha,2022-04-28 09:13:11,2021-09-30,0.9289978959383551,1.5825775785788858,2.8635506574767327,,,,,,,,,,,,
31103,0,USNebraskaKeyaPaha,Nebraska,KeyaPaha,2022-04-28 09:13:11,2021-10-01,0.9289978959383551,1.5825775785788858,2.8635506574767327,,,,,,,,,,,,
31103,0,USNebraskaKeyaPaha,Nebraska,KeyaPaha,2022-04-28 09:13:11,2021-10-02,0.9289978959383551,1.5825775785788858,2.8635506574767327,,,,,,,,,,,,
31103,0,USNebraskaKeyaPaha,Nebraska,KeyaPaha,2022-04-28 09:13:11,2021-10-03,0.9289978959383551,1.5825775785788858,2.8635506574767327,,,,,,,,,,,,
31103,0,USNebraskaKeyaPaha,Nebraska,KeyaPaha,2022-04-28 09:13:11,2021-10-04,0.9289978959383551,1.5825775785788858,2.8635506574767327,,,,,,,,,,,,
31103,0,USNebraskaKeyaPaha,Nebraska,KeyaPaha,2022-04-28 09:13:11,2021-10-05,0.9289978959383551,1.5825775785788858,2.8635506574767327,,,,,,,,,,,,
31103,0,USNebraskaKeyaPaha,Nebraska,KeyaPaha,2022-04-28 09:13:11,2021-10-06,0.9289978959383551,1.5825775785788858,2.8635506574767327,,,,,,,,,,,,
31103,0,USNebraskaKeyaPaha,Nebraska,KeyaPaha,2022-04-28 09:13:11,2021-10-07,1.92694948234251,2.7672661235693328,4.148016661324546,,,,,,,,,,,,
31103,0,USNebraskaKeyaPaha,Nebraska,KeyaPaha,2022-04-28 09:13:11,2021-10-08,1.92694948234251,2.7672661235693328,4.148016661324546,,,,,,,,,,,,
31103,0,USNebraskaKeyaPaha,Nebraska,KeyaPaha,2022-04-28 09:13:11,2021-10-09,1.92694948234251,2.7672661235693328,4.148016661324546,,,,,,,,,,,,
31103,0,USNebraskaKeyaPaha,Nebraska,KeyaPaha,2022-04-28 09:13:11,2021-10-10,1.92694948234251,2.7672661235693328,4.148016661324546,,,,,,,,,,,,
31103,0,USNebraskaKeyaPaha,Nebraska,KeyaPaha,2022-04-28 09:13:11,2021-10-11,1.92694948234251,2.7672661235693328,4.148016661324546,,,,,,,,,,,,
31103,0,USNebraskaKeyaPaha,Nebraska,KeyaPaha,2022-04-28 09:13:11,2021-10-12,1.92694948234251,2.7672661235693328,4.148016661324546,,,,,,,,,,,,
31103,0,USNebraskaKeyaPaha,Nebraska,KeyaPaha,2022-04-28 09:13:11,2021-10-13,1.92694948234251,2.7672661235693328,4.148016661324546,,,,,,,,,,,,
31103,0,USNebraskaKeyaPaha,Nebraska,KeyaPaha,2022-04-28 09:13:11,2021-10-14,0,0,0,,,,,,,,,,,,
31103,0,USNebraskaKeyaPaha,Nebraska,KeyaPaha,2022-04-28 09:13:11,2021-10-15,0,0,0,,,,,,,,,,,,
31103,0,USNebraskaKeyaPaha,Nebraska,KeyaPaha,2022-04-28 09:13:11,2021-10-16,0,0,0,,,,,,,,,,,,
31103,0,USNebraskaKeyaPaha,Nebraska,KeyaPaha,2022-04-28 09:13:11,2021-10-17,0,0,0,,,,,,,,,,,,
31103,0,USNebraskaKeyaPaha,Nebraska,KeyaPaha,2022-04-28 09:13:11,2021-10-18,0,0,0,,,,,,,,,,,,
31103,0,USNebraskaKeyaPaha,Nebraska,KeyaPaha,2022-04-28 09:13:11,2021-10-19,0,0,0,,,,,,,,,,,,
31103,0,USNebraskaKeyaPaha,Nebraska,KeyaPaha,2022-04-28 09:13:11,2021-10-20,0,0,0,,,,,,,,,,,,
31103,0,USNebraskaKeyaPaha,Nebraska,KeyaPaha,2022-04-28 09:13:11,2021-10-21,1.2902599666703578,2.048132316783951,3.431645472812455,,,,,,,,,,,,
31103,0,USNebraskaKeyaPaha,Nebraska,KeyaPaha,2022-04-28 09:13:11,2021-10-22,1.2902599666703578,2.048132316783951,3.431645472812455,,,,,,,,,,,,
31103,0,USNebraskaKeyaPaha,Nebraska,KeyaPaha,2022-04-28 09:13:11,2021-10-23,1.2902599666703578,2.048132316783951,3.431645472812455,,,,,,,,,,,,
31103,0,USNebraskaKeyaPaha,Nebraska,KeyaPaha,2022-04-28 09:13:11,2021-10-24,1.2902599666703578,2.048132316783951,3.431645472812455,,,,,,,,,,,,
31103,0,USNebraskaKeyaPaha,Nebraska,KeyaPaha,2022-04-28 09:13:11,2021-10-25,1.2902599666703578,2.048132316783951,3.431645472812455,,,,,,,,,,,,
31103,0,USNebraskaKeyaPaha,Nebraska,KeyaPaha,2022-04-28 09:13:11,2021-10-26,1.2902599666703578,2.048132316783951,3.431645472812455,,,,,,,,,,,,
31103,0,USNebraskaKeyaPaha,Nebraska,KeyaPaha,2022-04-28 09:13:11,2021-10-27,1.2902599666703578,2.048132316783951,3.431645472812455,,,,,,,,,,,,
31103,0,USNebraskaKeyaPaha,Nebraska,KeyaPaha,2022-04-28 09:13:11,2021-10-28,5.674702998238118,6.824645351958517,8.358834608345775,,,,,,,,,,,,
31103,0,USNebraskaKeyaPaha,Nebraska,KeyaPaha,2022-04-28 09:13:11,2021-10-29,5.674702998238118,6.824645351958517,8.358834608345775,,,,,,,,,,,,
31103,0,USNebraskaKeyaPaha,Nebraska,KeyaPaha,2022-04-28 09:13:11,2021-10-30,5.674702998238118,6.824645351958517,8.358834608345775,,,,,,,,,,,,
31103,0,USNebraskaKeyaPaha,Nebraska,KeyaPaha,2022-04-28 09:13:11,2021-10-31,5.674702998238118,6.824645351958517,8.358834608345775,,,,,,,,,,,,
31103,0,USNebraskaKeyaPaha,Nebraska,KeyaPaha,2022-04-28 09:13:11,2021-11-01,5.674702998238118,6.824645351958517,8.358834608345775,,,,,,,,,,,,
31103,0,USNebraskaKeyaPaha,Nebraska,KeyaPaha,2022-04-28 09:13:11,2021-11-02,5.674702998238118,6.824645351958517,8.358834608345775,,,,,,,,,,,,
31103,0,USNebraskaKeyaPaha,Nebraska,KeyaPaha,2022-04-28 09:13:11,2021-11-03,5.674702998238118,6.824645351958517,8.358834608345775,,,,,,,,,,,,
31103,0,USNebraskaKeyaPaha,Nebraska,KeyaPaha,2022-04-28 09:13:11,2021-11-04,2.6198911800368068,3.664046915962629,5.330709329748495,,,,,,,,,,,,
31103,0,USNebraskaKeyaPaha,Nebraska,KeyaPaha,2022-04-28 09:13:11,2021-11-05,2.6198911800368068,3.664046915962629,5.330709329748495,,,,,,,,,,,,
31103,0,USNebraskaKeyaPaha,Nebraska,KeyaPaha,2022-04-28 09:13:11,2021-11-06,2.6198911800368068,3.664046915962629,5.330709329748495,,,,,,,,,,,,
31103,0,USNebraskaKeyaPaha,Nebraska,KeyaPaha,2022-04-28 09:13:11,2021-11-07,2.6198911800368068,3.664046915962629,5.330709329748495,,,,,,,,,,,,
31103,0,USNebraskaKeyaPaha,Nebraska,KeyaPaha,2022-04-28 09:13:11,2021-11-08,2.6198911800368068,3.664046915962629,5.330709329748495,,,,,,,,,,,,
31103,0,USNebraskaKeyaPaha,Nebraska,KeyaPaha,2022-04-28 09:13:11,2021-11-09,2.6198911800368068,3.664046915962629,5.330709329748495,,,,,,,,,,,,
31103,0,USNebraskaKeyaPaha,Nebraska,KeyaPaha,2022-04-28 09:13:11,2021-11-10,2.6198911800368068,3.664046915962629,5.330709329748495,,,,,,,,,,,,
31103,0,USNebraskaKeyaPaha,Nebraska,KeyaPaha,2022-04-28 09:13:11,2021-11-11,0.9941852300638238,1.80224138443961,3.485517713373168,,,,,,,,,,,,
31103,0,USNebraskaKeyaPaha,Nebraska,KeyaPaha,2022-04-28 09:13:11,2021-11-12,0.9941852300638238,1.80224138443961,3.485517713373168,,,,,,,,,,,,
31103,0,USNebraskaKeyaPaha,Nebraska,KeyaPaha,2022-04-28 09:13:11,2021-11-13,0.9941852300638238,1.80224138443961,3.485517713373168,,,,,,,,,,,,
31103,0,USNebraskaKeyaPaha,Nebraska,KeyaPaha,2022-04-28 09:13:11,2021-11-14,0.9941852300638238,1.80224138443961,3.485517713373168,,,,,,,,,,,,
31103,0,USNebraskaKeyaPaha,Nebraska,KeyaPaha,2022-04-28 09:13:11,2021-11-15,0.9941852300638238,1.80224138443961,3.485517713373168,,,,,,,,,,,,
31103,0,USNebraskaKeyaPaha,Nebraska,KeyaPaha,2022-04-28 09:13:11,2021-11-16,0.9941852300638238,1.80224138443961,3.485517713373168,,,,,,,,,,,,
31103,0,USNebraskaKeyaPaha,Nebraska,KeyaPaha,2022-04-28 09:13:11,2021-11-17,0.9941852300638238,1.80224138443961,3.485517713373168,,,,,,,,,,,,
31103,0,USNebraskaKeyaPaha,Nebraska,KeyaPaha,2022-04-28 09:13:11,2021-11-18,1.6830323313870361,3.4064473500102506,7.395734495705771,,,,,,,,,,,,
31103,0,USNebraskaKeyaPaha,Nebraska,KeyaPaha,2022-04-28 09:13:11,2021-11-19,1.6830323313870361,3.4064473500102506,7.395734495705771,,,,,,,,,,,,
31103,0,USNebraskaKeyaPaha,Nebraska,KeyaPaha,2022-04-28 09:13:11,2021-11-20,1.6830323313870361,3.4064473500102506,7.395734495705771,,,,,,,,,,,,
31103,0,USNebraskaKeyaPaha,Nebraska,KeyaPaha,2022-04-28 09:13:11,2021-11-21,1.6830323313870361,3.4064473500102506,7.395734495705771,,,,,,,,,,,,
31103,0,USNebraskaKeyaPaha,Nebraska,KeyaPaha,2022-04-28 09:13:11,2021-11-22,1.6830323313870361,3.4064473500102506,7.395734495705771,,,,,,,,,,,,
31103,0,USNebraskaKeyaPaha,Nebraska,KeyaPaha,2022-04-28 09:13:11,2021-11-23,1.6830323313870361,3.4064473500102506,7.395734495705771,,,,,,,,,,,,
31103,0,USNebraskaKeyaPaha,Nebraska,KeyaPaha,2022-04-28 09:13:11,2021-11-24,1.6830323313870361,3.4064473500102506,7.395734495705771,,,,,,,,,,,,
31103,0,USNebraskaKeyaPaha,Nebraska,KeyaPaha,2022-04-28 09:13:11,2021-12-02,0,0,0,,,,,,,,,,,,
31103,0,USNebraskaKeyaPaha,Nebraska,KeyaPaha,2022-04-28 09:13:11,2021-12-03,0,0,0,,,,,,,,,,,,
31103,0,USNebraskaKeyaPaha,Nebraska,KeyaPaha,2022-04-28 09:13:11,2021-12-04,0,0,0,,,,,,,,,,,,
31103,0,USNebraskaKeyaPaha,Nebraska,KeyaPaha,2022-04-28 09:13:11,2021-12-05,0,0,0,,,,,,,,,,,,
31103,0,USNebraskaKeyaPaha,Nebraska,KeyaPaha,2022-04-28 09:13:11,2021-12-06,0,0,0,,,,,,,,,,,,
31103,0,USNebraskaKeyaPaha,Nebraska,KeyaPaha,2022-04-28 09:13:11,2021-12-07,0,0,0,,,,,,,,,,,,
31103,0,USNebraskaKeyaPaha,Nebraska,KeyaPaha,2022-04-28 09:13:11,2021-12-08,0,0,0,,,,,,,,,,,,
31103,0,USNebraskaKeyaPaha,Nebraska,KeyaPaha,2022-04-28 09:13:11,2021-12-09,0,0,0,,,,,,,,,,,,
31103,0,USNebraskaKeyaPaha,Nebraska,KeyaPaha,2022-04-28 09:13:11,2021-12-10,0,0,0,,,,,,,,,,,,
31103,0,USNebraskaKeyaPaha,Nebraska,KeyaPaha,2022-04-28 09:13:11,2021-12-11,0,0,0,,,,,,,,,,,,
31103,0,USNebraskaKeyaPaha,Nebraska,KeyaPaha,2022-04-28 09:13:11,2021-12-12,0,0,0,,,,,,,,,,,,
31103,0,USNebraskaKeyaPaha,Nebraska,KeyaPaha,2022-04-28 09:13:11,2021-12-13,0,0,0,,,,,,,,,,,,
31103,0,USNebraskaKeyaPaha,Nebraska,KeyaPaha,2022-04-28 09:13:11,2021-12-14,0,0,0,,,,,,,,,,,,
31103,0,USNebraskaKeyaPaha,Nebraska,KeyaPaha,2022-04-28 09:13:11,2021-12-15,0,0,0,,,,,,,,,,,,
31103,0,USNebraskaKeyaPaha,Nebraska,KeyaPaha,2022-04-28 09:13:11,2021-12-16,0,0,0,,,,,,,,,,,,
31103,0,USNebraskaKeyaPaha,Nebraska,KeyaPaha,2022-04-28 09:13:11,2021-12-17,0,0,0,,,,,,,,,,,,
31103,0,USNebraskaKeyaPaha,Nebraska,KeyaPaha,2022-04-28 09:13:11,2021-12-18,0,0,0,,,,,,,,,,,,
31103,0,USNebraskaKeyaPaha,Nebraska,KeyaPaha,2022-04-28 09:13:11,2021-12-19,0,0,0,,,,,,,,,,,,
31103,0,USNebraskaKeyaPaha,Nebraska,KeyaPaha,2022-04-28 09:13:11,2021-12-20,0,0,0,,,,,,,,,,,,
31103,0,USNebraskaKeyaPaha,Nebraska,KeyaPaha,2022-04-28 09:13:11,2021-12-21,0,0,0,,,,,,,,,,,,
31103,0,USNebraskaKeyaPaha,Nebraska,KeyaPaha,2022-04-28 09:13:11,2021-12-22,0,0,0,,,,,,,,,,,,
31103,0,USNebraskaKeyaPaha,Nebraska,KeyaPaha,2022-04-28 09:13:11,2021-12-23,0.595513066764679,1.27206338650315,2.919504703443095,,,,,,,,,,,,
31103,0,USNebraskaKeyaPaha,Nebraska,KeyaPaha,2022-04-28 09:13:11,2021-12-24,0.595513066764679,1.27206338650315,2.919504703443095,,,,,,,,,,,,
31103,0,USNebraskaKeyaPaha,Nebraska,KeyaPaha,2022-04-28 09:13:11,2021-12-25,0.595513066764679,1.27206338650315,2.919504703443095,,,,,,,,,,,,
31103,0,USNebraskaKeyaPaha,Nebraska,KeyaPaha,2022-04-28 09:13:11,2021-12-26,0.595513066764679,1.27206338650315,2.919504703443095,,,,,,,,,,,,
31103,0,USNebraskaKeyaPaha,Nebraska,KeyaPaha,2022-04-28 09:13:11,2021-12-27,0.595513066764679,1.27206338650315,2.919504703443095,,,,,,,,,,,,
31103,0,USNebraskaKeyaPaha,Nebraska,KeyaPaha,2022-04-28 09:13:11,2021-12-28,0.595513066764679,1.27206338650315,2.919504703443095,,,,,,,,,,,,
31103,0,USNebraskaKeyaPaha,Nebraska,KeyaPaha,2022-04-28 09:13:11,2021-12-29,0.595513066764679,1.27206338650315,2.919504703443095,,,,,,,,,,,,
31103,0,USNebraskaKeyaPaha,Nebraska,KeyaPaha,2022-04-28 09:13:11,2021-12-30,0,0,0,,,,,,,,,,,,
31103,0,USNebraskaKeyaPaha,Nebraska,KeyaPaha,2022-04-28 09:13:11,2021-12-31,0,0,0,,,,,,,,,,,,
31103,0,USNebraskaKeyaPaha,Nebraska,KeyaPaha,2022-04-28 09:13:11,2022-01-01,0,0,0,,,,,,,,,,,,
31103,0,USNebraskaKeyaPaha,Nebraska,KeyaPaha,2022-04-28 09:13:11,2022-01-02,0,0,0,,,,,,,,,,,,
31103,0,USNebraskaKeyaPaha,Nebraska,KeyaPaha,2022-04-28 09:13:11,2022-01-03,0,0,0,,,,,,,,,,,,
31103,0,USNebraskaKeyaPaha,Nebraska,KeyaPaha,2022-04-28 09:13:11,2022-01-04,0,0,0,,,,,,,,,,,,
31103,0,USNebraskaKeyaPaha,Nebraska,KeyaPaha,2022-04-28 09:13:11,2022-01-05,0,0,0,,,,,,,,,,,,
31103,0,USNebraskaKeyaPaha,Nebraska,KeyaPaha,2022-04-28 09:13:11,2022-01-06,0,0,0,,,,,,,,,,,,
31103,0,USNebraskaKeyaPaha,Nebraska,KeyaPaha,2022-04-28 09:13:11,2022-01-07,0,0,0,,,,,,,,,,,,
31103,0,USNebraskaKeyaPaha,Nebraska,KeyaPaha,2022-04-28 09:13:11,2022-01-08,0,0,0,,,,,,,,,,,,
31103,0,USNebraskaKeyaPaha,Nebraska,KeyaPaha,2022-04-28 09:13:11,2022-01-09,0,0,0,,,,,,,,,,,,
31103,0,USNebraskaKeyaPaha,Nebraska,KeyaPaha,2022-04-28 09:13:11,2022-01-10,0,0,0,,,,,,,,,,,,
31103,0,USNebraskaKeyaPaha,Nebraska,KeyaPaha,2022-04-28 09:13:11,2022-01-11,0,0,0,,,,,,,,,,,,
31103,0,USNebraskaKeyaPaha,Nebraska,KeyaPaha,2022-04-28 09:13:11,2022-01-12,0,0,0,,,,,,,,,,,,
31103,0,USNebraskaKeyaPaha,Nebraska,KeyaPaha,2022-04-28 09:13:11,2022-01-13,0,0,0,,,,,,,,,,,,
31103,0,USNebraskaKeyaPaha,Nebraska,KeyaPaha,2022-04-28 09:13:11,2022-01-14,0,0,0,,,,,,,,,,,,
31103,0,USNebraskaKeyaPaha,Nebraska,KeyaPaha,2022-04-28 09:13:11,2022-01-15,0,0,0,,,,,,,,,,,,
31103,0,USNebraskaKeyaPaha,Nebraska,KeyaPaha,2022-04-28 09:13:11,2022-01-16,0,0,0,,,,,,,,,,,,
31103,0,USNebraskaKeyaPaha,Nebraska,KeyaPaha,2022-04-28 09:13:11,2022-01-17,0,0,0,,,,,,,,,,,,
31103,0,USNebraskaKeyaPaha,Nebraska,KeyaPaha,2022-04-28 09:13:11,2022-01-18,0,0,0,,,,,,,,,,,,
31103,0,USNebraskaKeyaPaha,Nebraska,KeyaPaha,2022-04-28 09:13:11,2022-01-19,0,0,0,,,,,,,,,,,,
31103,0,USNebraskaKeyaPaha,Nebraska,KeyaPaha,2022-04-28 09:13:11,2022-01-20,2.7740949141527302,4.705686914381664,8.475524971633032,,,,,,,,,,,,
31103,0,USNebraskaKeyaPaha,Nebraska,KeyaPaha,2022-04-28 09:13:11,2022-01-21,2.7740949141527302,4.705686914381664,8.475524971633032,,,,,,,,,,,,
31103,0,USNebraskaKeyaPaha,Nebraska,KeyaPaha,2022-04-28 09:13:11,2022-01-22,2.7740949141527302,4.705686914381664,8.475524971633032,,,,,,,,,,,,
31103,0,USNebraskaKeyaPaha,Nebraska,KeyaPaha,2022-04-28 09:13:11,2022-01-23,2.7740949141527302,4.705686914381664,8.475524971633032,,,,,,,,,,,,
31103,0,USNebraskaKeyaPaha,Nebraska,KeyaPaha,2022-04-28 09:13:11,2022-01-24,2.7740949141527302,4.705686914381664,8.475524971633032,,,,,,,,,,,,
31103,0,USNebraskaKeyaPaha,Nebraska,KeyaPaha,2022-04-28 09:13:11,2022-01-25,2.7740949141527302,4.705686914381664,8.475524971633032,,,,,,,,,,,,
31103,0,USNebraskaKeyaPaha,Nebraska,KeyaPaha,2022-04-28 09:13:11,2022-01-26,2.7740949141527302,4.705686914381664,8.475524971633032,,,,,,,,,,,,
31103,0,USNebraskaKeyaPaha,Nebraska,KeyaPaha,2022-04-28 09:13:11,2022-01-27,2.683659298418314,4.415909838779352,7.695513044255889,,,,,,,,,,,,
31103,0,USNebraskaKeyaPaha,Nebraska,KeyaPaha,2022-04-28 09:13:11,2022-01-28,2.683659298418314,4.415909838779352,7.695513044255889,,,,,,,,,,,,
31103,0,USNebraskaKeyaPaha,Nebraska,KeyaPaha,2022-04-28 09:13:11,2022-01-29,2.683659298418314,4.415909838779352,7.695513044255889,,,,,,,,,,,,
31103,0,USNebraskaKeyaPaha,Nebraska,KeyaPaha,2022-04-28 09:13:11,2022-01-30,2.683659298418314,4.415909838779352,7.695513044255889,,,,,,,,,,,,
31103,0,USNebraskaKeyaPaha,Nebraska,KeyaPaha,2022-04-28 09:13:11,2022-01-31,2.683659298418314,4.415909838779352,7.695513044255889,,,,,,,,,,,,
31103,0,USNebraskaKeyaPaha,Nebraska,KeyaPaha,2022-04-28 09:13:11,2022-02-01,2.683659298418314,4.415909838779352,7.695513044255889,,,,,,,,,,,,
31103,0,USNebraskaKeyaPaha,Nebraska,KeyaPaha,2022-04-28 09:13:11,2022-02-02,2.683659298418314,4.415909838779352,7.695513044255889,,,,,,,,,,,,
31103,0,USNebraskaKeyaPaha,Nebraska,KeyaPaha,2022-04-28 09:13:11,2022-02-03,0.5449695027704488,1.0743568225076696,2.2695814394893112,,,,,,,,,,,,
31103,0,USNebraskaKeyaPaha,Nebraska,KeyaPaha,2022-04-28 09:13:11,2022-02-04,0.5449695027704488,1.0743568225076696,2.2695814394893112,,,,,,,,,,,,
31103,0,USNebraskaKeyaPaha,Nebraska,KeyaPaha,2022-04-28 09:13:11,2022-02-05,0.5449695027704488,1.0743568225076696,2.2695814394893112,,,,,,,,,,,,
31103,0,USNebraskaKeyaPaha,Nebraska,KeyaPaha,2022-04-28 09:13:11,2022-02-06,0.5449695027704488,1.0743568225076696,2.2695814394893112,,,,,,,,,,,,
31103,0,USNebraskaKeyaPaha,Nebraska,KeyaPaha,2022-04-28 09:13:11,2022-02-07,0.5449695027704488,1.0743568225076696,2.2695814394893112,,,,,,,,,,,,
31103,0,USNebraskaKeyaPaha,Nebraska,KeyaPaha,2022-04-28 09:13:11,2022-02-08,0.5449695027704488,1.0743568225076696,2.2695814394893112,,,,,,,,,,,,
31103,0,USNebraskaKeyaPaha,Nebraska,KeyaPaha,2022-04-28 09:13:11,2022-02-09,0.5449695027704488,1.0743568225076696,2.2695814394893112,,,,,,,,,,,,
31103,0,USNebraskaKeyaPaha,Nebraska,KeyaPaha,2022-04-28 09:13:11,2022-02-10,0,0,0,,,,,,,,,,,,
31103,0,USNebraskaKeyaPaha,Nebraska,KeyaPaha,2022-04-28 09:13:11,2022-02-11,0,0,0,,,,,,,,,,,,
31103,0,USNebraskaKeyaPaha,Nebraska,KeyaPaha,2022-04-28 09:13:11,2022-02-12,0,0,0,,,,,,,,,,,,
31103,0,USNebraskaKeyaPaha,Nebraska,KeyaPaha,2022-04-28 09:13:11,2022-02-13,0,0,0,,,,,,,,,,,,
31103,0,USNebraskaKeyaPaha,Nebraska,KeyaPaha,2022-04-28 09:13:11,2022-02-14,0,0,0,,,,,,,,,,,,
31103,0,USNebraskaKeyaPaha,Nebraska,KeyaPaha,2022-04-28 09:13:11,2022-02-15,0,0,0,,,,,,,,,,,,
31103,0,USNebraskaKeyaPaha,Nebraska,KeyaPaha,2022-04-28 09:13:11,2022-02-16,0,0,0,,,,,,,,,,,,
31103,0,USNebraskaKeyaPaha,Nebraska,KeyaPaha,2022-04-28 09:13:11,2022-02-17,0,0,0,,,,,,,,,,,,
31103,0,USNebraskaKeyaPaha,Nebraska,KeyaPaha,2022-04-28 09:13:11,2022-02-18,0,0,0,,,,,,,,,,,,
31103,0,USNebraskaKeyaPaha,Nebraska,KeyaPaha,2022-04-28 09:13:11,2022-02-19,0,0,0,,,,,,,,,,,,
31103,0,USNebraskaKeyaPaha,Nebraska,KeyaPaha,2022-04-28 09:13:11,2022-02-20,0,0,0,,,,,,,,,,,,
31103,0,USNebraskaKeyaPaha,Nebraska,KeyaPaha,2022-04-28 09:13:11,2022-02-21,0,0,0,,,,,,,,,,,,
31103,0,USNebraskaKeyaPaha,Nebraska,KeyaPaha,2022-04-28 09:13:11,2022-02-22,0,0,0,,,,,,,,,,,,
31103,0,USNebraskaKeyaPaha,Nebraska,KeyaPaha,2022-04-28 09:13:11,2022-02-23,0,0,0,,,,,,,,,,,,
31103,0,USNebraskaKeyaPaha,Nebraska,KeyaPaha,2022-04-28 09:13:11,2022-02-24,1.9612146343959642,3.510774584329099,6.699406043415183,,,,,,,,,,,,
31103,0,USNebraskaKeyaPaha,Nebraska,KeyaPaha,2022-04-28 09:13:11,2022-02-25,1.9612146343959642,3.510774584329099,6.699406043415183,,,,,,,,,,,,
31103,0,USNebraskaKeyaPaha,Nebraska,KeyaPaha,2022-04-28 09:13:11,2022-02-26,1.9612146343959642,3.510774584329099,6.699406043415183,,,,,,,,,,,,
31103,0,USNebraskaKeyaPaha,Nebraska,KeyaPaha,2022-04-28 09:13:11,2022-02-27,1.9612146343959642,3.510774584329099,6.699406043415183,,,,,,,,,,,,
31103,0,USNebraskaKeyaPaha,Nebraska,KeyaPaha,2022-04-28 09:13:11,2022-02-28,1.9612146343959642,3.510774584329099,6.699406043415183,,,,,,,,,,,,
31103,0,USNebraskaKeyaPaha,Nebraska,KeyaPaha,2022-04-28 09:13:11,2022-03-01,1.9612146343959642,3.510774584329099,6.699406043415183,,,,,,,,,,,,
31103,0,USNebraskaKeyaPaha,Nebraska,KeyaPaha,2022-04-28 09:13:11,2022-03-02,1.9612146343959642,3.510774584329099,6.699406043415183,,,,,,,,,,,,
31103,0,USNebraskaKeyaPaha,Nebraska,KeyaPaha,2022-04-28 09:13:11,2022-03-03,0.44156222612378604,0.7180602660924634,1.2353548810285853,,,,,,,,,,,,
31103,0,USNebraskaKeyaPaha,Nebraska,KeyaPaha,2022-04-28 09:13:11,2022-03-04,0.44156222612378604,0.7180602660924634,1.2353548810285853,,,,,,,,,,,,
31103,0,USNebraskaKeyaPaha,Nebraska,KeyaPaha,2022-04-28 09:13:11,2022-03-05,0.44156222612378604,0.7180602660924634,1.2353548810285853,,,,,,,,,,,,
31103,0,USNebraskaKeyaPaha,Nebraska,KeyaPaha,2022-04-28 09:13:11,2022-03-06,0.44156222612378604,0.7180602660924634,1.2353548810285853,,,,,,,,,,,,
31103,0,USNebraskaKeyaPaha,Nebraska,KeyaPaha,2022-04-28 09:13:11,2022-03-07,0.44156222612378604,0.7180602660924634,1.2353548810285853,,,,,,,,,,,,
31103,0,USNebraskaKeyaPaha,Nebraska,KeyaPaha,2022-04-28 09:13:11,2022-03-08,0.44156222612378604,0.7180602660924634,1.2353548810285853,,,,,,,,,,,,
31103,0,USNebraskaKeyaPaha,Nebraska,KeyaPaha,2022-04-28 09:13:11,2022-03-09,0.44156222612378604,0.7180602660924634,1.2353548810285853,,,,,,,,,,,,
31103,0,USNebraskaKeyaPaha,Nebraska,KeyaPaha,2022-04-28 09:13:11,2022-03-10,0,0,0,,,,,,,,,,,,
31103,0,USNebraskaKeyaPaha,Nebraska,KeyaPaha,2022-04-28 09:13:11,2022-03-11,0,0,0,,,,,,,,,,,,
31103,0,USNebraskaKeyaPaha,Nebraska,KeyaPaha,2022-04-28 09:13:11,2022-03-12,0,0,0,,,,,,,,,,,,
31103,0,USNebraskaKeyaPaha,Nebraska,KeyaPaha,2022-04-28 09:13:11,2022-03-13,0,0,0,,,,,,,,,,,,
31103,0,USNebraskaKeyaPaha,Nebraska,KeyaPaha,2022-04-28 09:13:11,2022-03-14,0,0,0,,,,,,,,,,,,
31103,0,USNebraskaKeyaPaha,Nebraska,KeyaPaha,2022-04-28 09:13:11,2022-03-15,0,0,0,,,,,,,,,,,,
31103,0,USNebraskaKeyaPaha,Nebraska,KeyaPaha,2022-04-28 09:13:11,2022-03-16,0,0,0,,,,,,,,,,,,
31103,0,USNebraskaKeyaPaha,Nebraska,KeyaPaha,2022-04-28 09:13:11,2022-03-17,0,0,0,,,,,,,,,,,,
31103,0,USNebraskaKeyaPaha,Nebraska,KeyaPaha,2022-04-28 09:13:11,2022-03-18,0,0,0,,,,,,,,,,,,
31103,0,USNebraskaKeyaPaha,Nebraska,KeyaPaha,2022-04-28 09:13:11,2022-03-19,0,0,0,,,,,,,,,,,,
31103,0,USNebraskaKeyaPaha,Nebraska,KeyaPaha,2022-04-28 09:13:11,2022-03-20,0,0,0,,,,,,,,,,,,
31103,0,USNebraskaKeyaPaha,Nebraska,KeyaPaha,2022-04-28 09:13:11,2022-03-21,0,0,0,,,,,,,,,,,,
31103,0,USNebraskaKeyaPaha,Nebraska,KeyaPaha,2022-04-28 09:13:11,2022-03-22,0,0,0,,,,,,,,,,,,
31103,0,USNebraskaKeyaPaha,Nebraska,KeyaPaha,2022-04-28 09:13:11,2022-03-23,0,0,0,,,,,,,,,,,,
31103,0,USNebraskaKeyaPaha,Nebraska,KeyaPaha,2022-04-28 09:13:11,2022-03-24,0.4388309055328221,0.7095680905612769,1.2131756884073217,,,,,,,,,,,,
31103,0,USNebraskaKeyaPaha,Nebraska,KeyaPaha,2022-04-28 09:13:11,2022-03-25,0.4388309055328221,0.7095680905612769,1.2131756884073217,,,,,,,,,,,,
31103,0,USNebraskaKeyaPaha,Nebraska,KeyaPaha,2022-04-28 09:13:11,2022-03-26,0.4388309055328221,0.7095680905612769,1.2131756884073217,,,,,,,,,,,,
31103,0,USNebraskaKeyaPaha,Nebraska,KeyaPaha,2022-04-28 09:13:11,2022-03-27,0.4388309055328221,0.7095680905612769,1.2131756884073217,,,,,,,,,,,,
31103,0,USNebraskaKeyaPaha,Nebraska,KeyaPaha,2022-04-28 09:13:11,2022-03-28,0.4388309055328221,0.7095680905612769,1.2131756884073217,,,,,,,,,,,,
31103,0,USNebraskaKeyaPaha,Nebraska,KeyaPaha,2022-04-28 09:13:11,2022-03-29,0.4388309055328221,0.7095680905612769,1.2131756884073217,,,,,,,,,,,,
31103,0,USNebraskaKeyaPaha,Nebraska,KeyaPaha,2022-04-28 09:13:11,2022-03-30,0.4388309055328221,0.7095680905612769,1.2131756884073217,,,,,,,,,,,,
31103,0,USNebraskaKeyaPaha,Nebraska,KeyaPaha,2022-04-28 09:13:11,2022-03-31,0.4325214275920991,0.6901382873651791,1.162914904508937,,,,,,,,,,,,
31103,0,USNebraskaKeyaPaha,Nebraska,KeyaPaha,2022-04-28 09:13:11,2022-04-01,0.4325214275920991,0.6901382873651791,1.162914904508937,,,,,,,,,,,,
31103,0,USNebraskaKeyaPaha,Nebraska,KeyaPaha,2022-04-28 09:13:11,2022-04-02,0.4325214275920991,0.6901382873651791,1.162914904508937,,,,,,,,,,,,
31103,0,USNebraskaKeyaPaha,Nebraska,KeyaPaha,2022-04-28 09:13:11,2022-04-03,0.4325214275920991,0.6901382873651791,1.162914904508937,,,,,,,,,,,,
31103,0,USNebraskaKeyaPaha,Nebraska,KeyaPaha,2022-04-28 09:13:11,2022-04-04,0.4325214275920991,0.6901382873651791,1.162914904508937,,,,,,,,,,,,
31103,0,USNebraskaKeyaPaha,Nebraska,KeyaPaha,2022-04-28 09:13:11,2022-04-05,0.4325214275920991,0.6901382873651791,1.162914904508937,,,,,,,,,,,,
31103,0,USNebraskaKeyaPaha,Nebraska,KeyaPaha,2022-04-28 09:13:11,2022-04-06,0.4325214275920991,0.6901382873651791,1.162914904508937,,,,,,,,,,,,
