FIPS,HR_UID,nameid,province,region,analysisTime,dates,pointprevalence_025,pointprevalence_50,pointprevalence_975,pointinfections_025,pointinfections_50,pointinfections_975,pointinfectious_025,pointinfectious_50,pointinfectious_975,pointinfectiousprevalence_05,pointinfectiousprevalence_50,pointinfectiousprevalence_95,infectrate_025,infectrate_50,infectrate_975
0,0,Bulgaria,,,2022-03-22 20:26:34.859395,2021-08-27,0.00154770,0.00444136,0.01039421,107,308,722,44,141,340,0.00063416,0.00203068,0.00490634,2.21224026,2.36035108,2.51668136
0,0,Bulgaria,,,2022-03-22 20:26:34.859395,2021-08-28,0.00279591,0.00752682,0.01674825,194,522,1163,88,216,473,0.00126812,0.00311852,0.00681217,2.21223295,2.36034462,2.51667507
0,0,Bulgaria,,,2022-03-22 20:26:34.859395,2021-08-29,0.00494825,0.01237317,0.02625433,343,859,1824,161,352,740,0.00231763,0.00507072,0.01065288,2.21221002,2.36032435,2.51665535
0,0,Bulgaria,,,2022-03-22 20:26:34.859395,2021-08-30,0.00864674,0.02018957,0.04078443,600,1402,2833,285,575,1186,0.00410985,0.00828588,0.01706956,2.21213815,2.36026079,2.51659353
0,0,Bulgaria,,,2022-03-22 20:26:34.859395,2021-08-31,0.01496693,0.03284886,0.06362511,1039,2282,4420,499,938,1887,0.00718457,0.01351340,0.02716342,2.21191280,2.36006154,2.51639969
0,0,Bulgaria,,,2022-03-22 20:26:34.859395,2021-09-01,0.02582366,0.05336920,0.10017699,1794,3708,6960,864,1528,2997,0.01243545,0.02199657,0.04314328,2.21117972,2.35943704,2.51579217
0,0,Bulgaria,,,2022-03-22 20:26:34.859395,2021-09-02,0.04446102,0.08662176,0.15817326,3089,6018,10990,1491,2484,4747,0.02145917,0.03575719,0.06832385,2.20888509,2.35748171,2.51388989
0,0,Bulgaria,,,2022-03-22 20:26:34.859395,2021-09-03,0.07609380,0.14027466,0.24948242,5287,9746,17335,2559,4040,7495,0.03683514,0.05814333,0.10787150,2.20187524,2.35137887,2.50795174
0,0,Bulgaria,,,2022-03-22 20:26:34.859395,2021-09-04,0.12988420,0.22650637,0.39171996,9024,15738,27218,4380,6570,11836,0.06304449,0.09456004,0.17034326,2.17986891,2.33251866,2.48957207
0,0,Bulgaria,,,2022-03-22 20:26:34.859395,2021-09-05,0.21934480,0.36361122,0.60741363,15241,25265,42205,7440,10634,18546,0.10708758,0.15305555,0.26691108,2.11394949,2.27597467,2.43356736
0,0,Bulgaria,,,2022-03-22 20:26:34.859395,2021-09-06,0.35916847,0.56888404,0.91381167,24956,39528,63495,12401,16920,28504,0.17847278,0.24352073,0.41022592,1.93479401,2.12080673,2.27970070
0,0,Bulgaria,,,2022-03-22 20:26:34.859395,2021-09-07,0.54860040,0.83861593,1.27529566,38119,58270,88613,19794,25891,42033,0.28488236,0.37262012,0.60493590,1.55614765,1.78285413,1.93931223
0,0,Bulgaria,,,2022-03-22 20:26:34.859395,2021-09-08,0.75749782,1.13295297,1.60957470,52634,78722,111840,29267,37432,57841,0.42121268,0.53871210,0.83243543,1.06837597,1.32213073,1.47767939
0,0,Bulgaria,,,2022-03-22 20:26:34.859395,2021-09-09,0.96116402,1.42611660,1.88877001,66785,99092,131240,39715,50206,73419,0.57157756,0.72256216,1.05663299,0.73314966,0.97904896,1.12541628
0,0,Bulgaria,,,2022-03-22 20:26:34.859395,2021-09-10,1.16830148,1.72370024,2.17845636,81178,119770,151368,50367,63350,87212,0.72488118,0.91172858,1.25514276,0.58902788,0.82194114,0.95946435
0,0,Bulgaria,,,2022-03-22 20:26:34.859395,2021-09-11,1.39529644,2.05187032,2.55848737,96951,142573,177775,61878,78537,100345,0.89054321,1.13028760,1.44414716,0.53722336,0.76169923,0.89493492
0,0,Bulgaria,,,2022-03-22 20:26:34.859395,2021-09-12,1.65050476,2.38073423,2.97239971,114684,165424,206535,74050,94898,115176,1.06570708,1.36575061,1.65758032,0.51564649,0.73236517,0.85960250
0,0,Bulgaria,,,2022-03-22 20:26:34.859395,2021-09-13,1.93682580,2.70325526,3.41821063,134579,187834,237512,87536,113027,135446,1.25979724,1.62665185,1.94930063,0.49579107,0.69632912,0.81124416
0,0,Bulgaria,,,2022-03-22 20:26:34.859395,2021-09-14,2.22250910,2.98562013,3.86554089,154429,207454,268594,102224,129056,157054,1.47119051,1.85734501,2.26028525,0.46014457,0.62275790,0.71838079
0,0,Bulgaria,,,2022-03-22 20:26:34.859395,2021-09-15,2.45469474,3.19034218,4.24904913,170563,221679,295242,116506,143636,177995,1.67673425,2.06717353,2.56165674,0.40443519,0.51784538,0.59123666
0,0,Bulgaria,,,2022-03-22 20:26:34.859395,2021-09-16,2.64001503,3.34174537,4.54160850,183439,232199,315571,128478,154215,197044,1.84902732,2.21942720,2.83580622,0.35011592,0.43254404,0.48672470
0,0,Bulgaria,,,2022-03-22 20:26:34.859395,2021-09-17,2.79431957,3.46322044,4.78828765,194161,240639,332711,138308,164771,213534,1.99049927,2.37134335,3.07313072,0.32218610,0.38605210,0.43267592
0,0,Bulgaria,,,2022-03-22 20:26:34.859395,2021-09-18,2.92877786,3.63140499,5.01143411,203504,252326,348216,146654,175166,227706,2.11060739,2.52093873,3.27708905,0.31158761,0.36799776,0.41158561
0,0,Bulgaria,,,2022-03-22 20:26:34.859395,2021-09-19,3.05676227,3.79192462,5.23461051,212397,263479,363724,152505,184208,240355,2.19480821,2.65107526,3.45912968,0.30855654,0.35991273,0.40201641
0,0,Bulgaria,,,2022-03-22 20:26:34.859395,2021-09-20,3.17780911,3.94302531,5.44274591,220808,273978,378186,156886,193100,252028,2.25786411,2.77904255,3.62711571,0.30935286,0.35197069,0.39193448
0,0,Bulgaria,,,2022-03-22 20:26:34.859395,2021-09-21,3.27779272,4.07252029,5.62635464,227755,282976,390944,160266,200738,262811,2.30651523,2.88896896,3.78231034,0.31407932,0.33676116,0.37254431
0,0,Bulgaria,,,2022-03-22 20:26:34.859395,2021-09-22,3.34529283,4.16738497,5.76627719,232445,289568,400666,163215,207929,272324,2.34894652,2.99245394,3.91921776,0.30621010,0.32237568,0.34211918
0,0,Bulgaria,,,2022-03-22 20:26:34.859395,2021-09-23,3.38768774,4.23675173,5.86178467,235391,294388,407302,166505,213623,280092,2.39629711,3.07440354,4.03100339,0.28482190,0.29928435,0.33726371
0,0,Bulgaria,,,2022-03-22 20:26:34.859395,2021-09-24,3.40076320,4.26619693,5.92918349,236300,296434,411986,170065,217590,286040,2.44752800,3.13149330,4.11661234,0.27304296,0.28812829,0.34053744
0,0,Bulgaria,,,2022-03-22 20:26:34.859395,2021-09-25,3.40348091,4.28247200,5.98173361,236488,297565,415637,173698,220071,290517,2.49981575,3.16720984,4.18103959,0.26787040,0.28382403,0.34203050
0,0,Bulgaria,,,2022-03-22 20:26:34.859395,2021-09-26,3.40150597,4.29537684,6.02516054,236351,298461,418654,177191,220355,293955,2.55009174,3.17128759,4.23052445,0.26589926,0.28277311,0.34059241
0,0,Bulgaria,,,2022-03-22 20:26:34.859395,2021-09-27,3.39786079,4.32848440,6.06026117,236098,300762,421093,178808,219880,296672,2.57335882,3.16445177,4.26962595,0.26466292,0.28145565,0.33443453
0,0,Bulgaria,,,2022-03-22 20:26:34.859395,2021-09-28,3.39290927,4.38630084,6.08457125,235754,304779,422783,179097,220246,298823,2.57751393,3.16972521,4.30058578,0.26296919,0.27960594,0.31924997
0,0,Bulgaria,,,2022-03-22 20:26:34.859395,2021-09-29,3.39353556,4.40681258,6.09393603,235797,306204,423433,178955,222043,300425,2.57547577,3.19558095,4.32363063,0.25873047,0.28284275,0.30190530
0,0,Bulgaria,,,2022-03-22 20:26:34.859395,2021-09-30,3.40575579,4.41258645,6.08854725,236647,306606,423059,179323,223159,301554,2.58077862,3.21164238,4.33988760,0.25173867,0.27200008,0.30763323
0,0,Bulgaria,,,2022-03-22 20:26:34.859395,2021-10-01,3.41652281,4.40099679,6.07671591,237395,305800,422237,179810,223255,302078,2.58777644,3.21303044,4.34742381,0.24583244,0.26042304,0.31110552
0,0,Bulgaria,,,2022-03-22 20:26:34.859395,2021-10-02,3.43009710,4.36825700,6.07212855,238338,303525,421918,180462,224042,302058,2.59717035,3.22435320,4.34714293,0.24374626,0.25642743,0.31273125
0,0,Bulgaria,,,2022-03-22 20:26:34.859395,2021-10-03,3.44313032,4.33174244,6.06116006,239244,300988,421156,181151,224826,301601,2.60708276,3.23563865,4.34055434,0.24482144,0.25538493,0.31392002
0,0,Bulgaria,,,2022-03-22 20:26:34.859395,2021-10-04,3.45477893,4.29432989,6.04033121,240053,298389,419709,181716,224301,301158,2.61521260,3.22808432,4.33419172,0.24470171,0.25563244,0.31596832
0,0,Bulgaria,,,2022-03-22 20:26:34.859395,2021-10-05,3.46564637,4.27562252,6.00117149,240808,297089,416988,181060,223456,300336,2.60576713,3.21592210,4.32235765,0.23858124,0.26010810,0.31747836
0,0,Bulgaria,,,2022-03-22 20:26:34.859395,2021-10-06,3.46699564,4.26313992,5.93413427,240902,296221,412330,180725,222668,298721,2.60094683,3.20457413,4.29910738,0.22675217,0.27200404,0.32757207
0,0,Bulgaria,,,2022-03-22 20:26:34.859395,2021-10-07,3.46918540,4.25464149,5.83461907,241054,295631,405415,180293,222024,296056,2.59473620,3.19530550,4.26075908,0.21456237,0.27872411,0.33853879
0,0,Bulgaria,,,2022-03-22 20:26:34.859395,2021-10-08,3.47293652,4.24787693,5.73337535,241315,295161,398380,178781,221528,292326,2.57296588,3.18817983,4.20708092,0.20783519,0.28270175,0.35003056
0,0,Bulgaria,,,2022-03-22 20:26:34.859395,2021-10-09,3.47638928,4.24078587,5.68461646,241554,294668,394992,177768,221113,290153,2.55839207,3.18220781,4.17580281,0.20550031,0.28311986,0.35718629
0,0,Bulgaria,,,2022-03-22 20:26:34.859395,2021-10-10,3.46596525,4.23248425,5.68299563,240830,294091,394879,176856,220704,285819,2.54526556,3.17630817,4.11343585,0.20576532,0.28329031,0.35879922
0,0,Bulgaria,,,2022-03-22 20:26:34.859395,2021-10-11,3.44830884,4.22296241,5.74998178,239603,293430,399534,175744,220256,286126,2.52925832,3.16986747,4.11784431,0.20896426,0.28345073,0.35557908
0,0,Bulgaria,,,2022-03-22 20:26:34.859395,2021-10-12,3.42722990,4.21300845,5.81984293,238139,292738,404388,174551,218591,288106,2.51209070,3.14590168,4.14634656,0.21772902,0.28376589,0.34768791
0,0,Bulgaria,,,2022-03-22 20:26:34.859395,2021-10-13,3.41526812,4.20376289,5.84516688,237308,292096,406148,173448,216608,291564,2.49622604,3.11736400,4.19610645,0.23333634,0.28505644,0.33796697
0,0,Bulgaria,,,2022-03-22 20:26:34.859395,2021-10-14,3.40852232,4.19528251,5.83819538,236839,291506,405663,172486,215023,293519,2.48238048,3.09455669,4.22424818,0.25026446,0.28835496,0.32983430
0,0,Bulgaria,,,2022-03-22 20:26:34.859395,2021-10-15,3.40188105,4.18637906,5.80996097,236377,290888,403701,171669,213889,293719,2.47061786,3.07823360,4.22712760,0.26032996,0.29073445,0.32484336
0,0,Bulgaria,,,2022-03-22 20:26:34.859395,2021-10-16,3.39125143,4.17615128,5.78349050,235639,290177,401862,170961,213111,292700,2.46042883,3.06703280,4.21246638,0.26451654,0.29186286,0.32269405
0,0,Bulgaria,,,2022-03-22 20:26:34.859395,2021-10-17,3.38925806,4.16418262,5.79557014,235500,289345,402702,170347,212559,291528,2.45159173,3.05908978,4.19559376,0.26619563,0.29392548,0.32094017
0,0,Bulgaria,,,2022-03-22 20:26:34.859395,2021-10-18,3.39090352,4.15050083,5.74514989,235615,288395,399198,169905,212150,290645,2.44523152,3.05320587,4.18287942,0.26740186,0.29929448,0.31748578
0,0,Bulgaria,,,2022-03-22 20:26:34.859395,2021-10-19,3.40292220,4.13560108,5.68151655,236450,287359,394777,169824,211883,289873,2.44406139,3.04937133,4.17177788,0.26937596,0.30860870,0.32572216
0,0,Bulgaria,,,2022-03-22 20:26:34.859395,2021-10-20,3.44606964,4.12037864,5.59960354,239448,286302,389085,170712,211844,286767,2.45685028,3.04880211,4.12706960,0.27255325,0.30830021,0.36786217
0,0,Bulgaria,,,2022-03-22 20:26:34.859395,2021-10-21,3.51383883,4.10526119,5.50217161,244157,285251,382315,173460,212120,282882,2.49639535,3.05278333,4.07116986,0.27062140,0.30535258,0.41599447
0,0,Bulgaria,,,2022-03-22 20:26:34.859395,2021-10-22,3.56430145,4.08973029,5.39952508,247663,284172,375183,178310,212695,278264,2.56619536,3.06105809,4.00469769,0.26664998,0.30446259,0.44610288
0,0,Bulgaria,,,2022-03-22 20:26:34.859395,2021-10-23,3.59668030,4.19572434,5.28818232,249913,291537,367446,184009,212339,273706,2.64821220,3.05593247,3.93910754,0.26491398,0.30558613,0.45847098
0,0,Bulgaria,,,2022-03-22 20:26:34.859395,2021-10-24,3.62896776,4.31313028,5.19043714,252156,299695,360654,188003,213112,268286,2.70569358,3.06705439,3.86109780,0.26467146,0.30546588,0.46132286
0,0,Bulgaria,,,2022-03-22 20:26:34.859395,2021-10-25,3.66153603,4.43173037,5.09573949,254419,307936,354074,191587,214838,262729,2.75727265,3.09188855,3.78111953,0.26491537,0.30394984,0.45774177
0,0,Bulgaria,,,2022-03-22 20:26:34.859395,2021-10-26,3.69258448,4.54896078,5.00051319,256577,316082,347457,193333,219037,257419,2.78239811,3.15232390,3.70470939,0.26657580,0.30107937,0.44594715
0,0,Bulgaria,,,2022-03-22 20:26:34.859395,2021-10-27,3.72596541,4.61182064,4.90783765,258896,320449,341018,194934,224390,252459,2.80544749,3.22936115,3.63331932,0.26702149,0.29754714,0.42622232
0,0,Bulgaria,,,2022-03-22 20:26:34.859395,2021-10-28,3.75971374,4.62065334,4.99902671,261241,321063,347354,196597,227759,248228,2.82937150,3.27784838,3.57243101,0.26119775,0.29516228,0.40886816
0,0,Bulgaria,,,2022-03-22 20:26:34.859395,2021-10-29,3.78132217,4.57508694,5.10113585,262743,317897,354449,197963,229712,246029,2.84903578,3.30596233,3.54078597,0.25780237,0.29704162,0.39997531
0,0,Bulgaria,,,2022-03-22 20:26:34.859395,2021-10-30,3.80263693,4.51749789,5.21809954,264224,313895,362576,199487,229033,251183,2.87096071,3.29618550,3.61495695,0.25677735,0.29766602,0.39643187
0,0,Bulgaria,,,2022-03-22 20:26:34.859395,2021-10-31,3.80111528,4.45148210,5.31380735,264118,309308,369226,199825,225518,256480,2.87582349,3.24559662,3.69119942,0.25744592,0.29860188,0.39470829
0,0,Bulgaria,,,2022-03-22 20:26:34.859395,2021-11-01,3.77870352,4.39481475,5.40653598,262561,305371,375670,199143,223287,262127,2.86600979,3.21349168,3.77246549,0.26024048,0.29976326,0.39262999
0,0,Bulgaria,,,2022-03-22 20:26:34.859395,2021-11-02,3.74587970,4.35141490,5.49694615,260280,302355,381952,197378,220889,267337,2.84061224,3.17898252,3.84743906,0.26742742,0.31057997,0.38851470
0,0,Bulgaria,,,2022-03-22 20:26:34.859395,2021-11-03,3.70731967,4.32750900,5.58065610,257601,300694,387768,195436,218867,271805,2.81266620,3.14987774,3.91174835,0.27950600,0.32652564,0.38186464
0,0,Bulgaria,,,2022-03-22 20:26:34.859395,2021-11-04,3.66890231,4.33778792,5.64484752,254931,301408,392229,193541,217656,275219,2.78539155,3.13245293,3.96088277,0.29198260,0.34322446,0.37549190
0,0,Bulgaria,,,2022-03-22 20:26:34.859395,2021-11-05,3.62129244,4.35830345,5.70188032,251623,302834,396192,193514,217359,278241,2.78499863,3.12817984,4.00436940,0.29385233,0.34893488,0.37635142
0,0,Bulgaria,,,2022-03-22 20:26:34.859395,2021-11-06,3.57743535,4.37170576,5.75247521,248576,303765,399707,191153,217592,280992,2.75103253,3.13153247,4.04396080,0.29273922,0.34916401,0.38301489
0,0,Bulgaria,,,2022-03-22 20:26:34.859395,2021-11-07,3.53318397,4.40150366,5.78840757,245501,305836,402204,189025,218272,283701,2.72039486,3.14130927,4.08294249,0.29281470,0.34873852,0.38272385
0,0,Bulgaria,,,2022-03-22 20:26:34.859395,2021-11-08,3.48946698,4.41729190,5.80539751,242463,306933,403384,186719,218671,285542,2.68721263,3.14706097,4.10944951,0.29467495,0.34582955,0.37581517
0,0,Bulgaria,,,2022-03-22 20:26:34.859395,2021-11-09,3.44308867,4.42224130,5.80176651,239241,307277,403132,184364,219639,286678,2.65331966,3.16098645,4.12579986,0.29932909,0.33832733,0.35783265
0,0,Bulgaria,,,2022-03-22 20:26:34.859395,2021-11-10,3.40702220,4.39185060,5.76073446,236735,305165,400281,182035,220116,286973,2.61979733,3.16785153,4.13003716,0.30438073,0.32163245,0.33175126
0,0,Bulgaria,,,2022-03-22 20:26:34.859395,2021-11-11,3.38158571,4.34332882,5.68563743,234967,301793,395063,180187,220244,285865,2.59320094,3.16970004,4.11409471,0.29595321,0.31297800,0.32427117
0,0,Bulgaria,,,2022-03-22 20:26:34.859395,2021-11-12,3.36266586,4.29069679,5.59760640,233652,298136,388946,178799,218942,283057,2.57322488,3.15095248,4.07368826,0.28188551,0.30411126,0.32974679
0,0,Bulgaria,,,2022-03-22 20:26:34.859395,2021-11-13,3.34789171,4.23273771,5.49946183,232626,294109,382127,177815,216855,278938,2.55906872,3.12092341,4.01439738,0.27643936,0.30151878,0.33145450
0,0,Bulgaria,,,2022-03-22 20:26:34.859395,2021-11-14,3.33149000,4.21385220,5.39781860,231486,292797,375064,176956,213879,274294,2.54670037,3.07809468,3.94757056,0.27534854,0.30080365,0.33074174
0,0,Bulgaria,,,2022-03-22 20:26:34.859395,2021-11-15,3.30964700,4.16445570,5.29480610,229969,289364,367906,175998,212928,269516,2.53292003,3.06439829,3.87880866,0.27708275,0.30041080,0.32683961
0,0,Bulgaria,,,2022-03-22 20:26:34.859395,2021-11-16,3.27435265,4.10608628,5.19446874,227516,285309,360934,174642,211078,264629,2.51340816,3.03777658,3.80847154,0.28232867,0.30064860,0.31681539
0,0,Bulgaria,,,2022-03-22 20:26:34.859395,2021-11-17,3.22121886,4.05648406,5.10069616,223824,281862,354419,172625,208006,259777,2.48437344,2.99356483,3.73863861,0.28392853,0.29379548,0.30920719
0,0,Bulgaria,,,2022-03-22 20:26:34.859395,2021-11-18,3.14986031,3.97819319,5.01372255,218866,276422,348375,169382,205899,255127,2.43770393,2.96324567,3.67172440,0.27355402,0.28998331,0.31529497
0,0,Bulgaria,,,2022-03-22 20:26:34.859395,2021-11-19,3.07098114,3.89897255,4.93023855,213385,270917,342574,165729,202070,250716,2.38512635,2.90814255,3.60823183,0.26747916,0.28882042,0.31898506
0,0,Bulgaria,,,2022-03-22 20:26:34.859395,2021-11-20,2.99119083,3.81952703,4.84745059,207841,265397,336822,161823,198179,246470,2.32891326,2.85214307,3.54712736,0.26485294,0.28869488,0.32026711
0,0,Bulgaria,,,2022-03-22 20:26:34.859395,2021-11-21,2.90944303,3.74034774,4.76178140,202161,259896,330869,157657,194252,242292,2.26896776,2.79562343,3.48699685,0.26339268,0.28967719,0.32001599
0,0,Bulgaria,,,2022-03-22 20:26:34.859395,2021-11-22,2.82762142,3.66199716,4.66937305,196475,254451,324448,153531,190318,238084,2.20958279,2.73900336,3.42644301,0.26133423,0.29296737,0.31794059
0,0,Bulgaria,,,2022-03-22 20:26:34.859395,2021-11-23,2.74553270,3.58547257,4.57052795,190771,249134,317580,149380,186415,233596,2.14984433,2.68283821,3.36185888,0.25691835,0.30028236,0.31974919
0,0,Bulgaria,,,2022-03-22 20:26:34.859395,2021-11-24,2.66575809,3.51216366,4.46462834,185228,244040,310222,145078,182598,228764,2.08792975,2.62790832,3.29230615,0.24837063,0.30130840,0.33574459
0,0,Bulgaria,,,2022-03-22 20:26:34.859395,2021-11-25,2.58916459,3.44251100,4.34849895,179906,239200,302153,140898,178919,223507,2.02777313,2.57495186,3.21664969,0.23948172,0.29252743,0.35478118
0,0,Bulgaria,,,2022-03-22 20:26:34.859395,2021-11-26,2.51712129,3.36631252,4.22735937,174900,233906,293735,136845,175387,217826,1.96943502,2.52412774,3.13490226,0.23418454,0.28851088,0.36598571
0,0,Bulgaria,,,2022-03-22 20:26:34.859395,2021-11-27,2.44873084,3.28388324,4.10823578,170148,228178,285458,133070,171974,211902,1.91511617,2.47501029,3.04964390,0.23243235,0.28736559,0.37034239
0,0,Bulgaria,,,2022-03-22 20:26:34.859395,2021-11-28,2.38208334,3.20860164,3.98911072,165517,222947,277181,129459,168120,205873,1.86313824,2.41954042,2.96287134,0.23317026,0.28640672,0.37104529
0,0,Bulgaria,,,2022-03-22 20:26:34.859395,2021-11-29,2.31373672,3.14197121,3.86711248,160768,218318,268704,125943,164000,199887,1.81253658,2.36024411,2.87672376,0.23734801,0.28555367,0.36892845
0,0,Bulgaria,,,2022-03-22 20:26:34.859395,2021-11-30,2.24771078,3.08941162,3.75008263,156180,214666,260572,122350,160363,194007,1.76083723,2.30790344,2.79210343,0.24832942,0.28436317,0.36162985
0,0,Bulgaria,,,2022-03-22 20:26:34.859395,2021-12-01,2.19164905,3.04775431,3.63504826,152285,211771,252579,118893,157861,188058,1.71108521,2.27189927,2.70648216,0.26831217,0.28080363,0.34923482
0,0,Bulgaria,,,2022-03-22 20:26:34.859395,2021-12-02,2.14029302,3.00010360,3.55143271,148717,208460,246769,115950,154795,182063,1.66873253,2.22777517,2.62020086,0.27352346,0.29233144,0.34031102
0,0,Bulgaria,,,2022-03-22 20:26:34.859395,2021-12-03,2.09080710,2.94882780,3.50797490,145278,204897,243749,113221,152212,176636,1.62945335,2.19059714,2.54209875,0.27109680,0.30472411,0.33549575
0,0,Bulgaria,,,2022-03-22 20:26:34.859395,2021-12-04,2.04104197,2.89460427,3.47622990,141820,201129,241543,110587,149790,172992,1.59154592,2.15574034,2.48965660,0.26986755,0.30960453,0.33289089
0,0,Bulgaria,,,2022-03-22 20:26:34.859395,2021-12-05,1.99470251,2.83506664,3.45052366,138600,196993,239757,107954,146870,171052,1.55365564,2.11371818,2.46173393,0.26915268,0.31167103,0.33122065
0,0,Bulgaria,,,2022-03-22 20:26:34.859395,2021-12-06,1.95092859,2.75097602,3.42614697,135559,191150,238063,105524,143343,169340,1.51867911,2.06295217,2.43709211,0.26813919,0.31328744,0.32851238
0,0,Bulgaria,,,2022-03-22 20:26:34.859395,2021-12-07,1.91390146,2.66009346,3.40399933,132986,184835,236525,103289,139303,167756,1.48651895,2.00481179,2.41430480,0.26591849,0.31595289,0.32853028
0,0,Bulgaria,,,2022-03-22 20:26:34.859395,2021-12-08,1.89040606,2.55749567,3.38580427,131353,177706,235260,101432,134560,166566,1.45978012,1.93655463,2.39718229,0.26201169,0.31788559,0.34513687
0,0,Bulgaria,,,2022-03-22 20:26:34.859395,2021-12-09,1.88196560,2.46374963,3.37153336,130767,171192,234269,100279,129437,165702,1.44319304,1.86282803,2.38473787,0.25792050,0.31821162,0.36652036
0,0,Bulgaria,,,2022-03-22 20:26:34.859395,2021-12-10,1.88265246,2.36579345,3.35932924,130815,164385,233421,99774,124957,164985,1.43593004,1.79835292,2.37441822,0.25569628,0.31890265,0.38207261
0,0,Bulgaria,,,2022-03-22 20:26:34.859395,2021-12-11,1.88780364,2.27828080,3.34793588,131172,158305,232629,99694,120235,163969,1.43477558,1.73039116,2.35980122,0.25558618,0.31975940,0.38959043
0,0,Bulgaria,,,2022-03-22 20:26:34.859395,2021-12-12,1.89522413,2.20881233,3.33764173,131688,153478,231914,99879,116332,163158,1.43743562,1.67422621,2.34812355,0.25803389,0.32144238,0.39479395
0,0,Bulgaria,,,2022-03-22 20:26:34.859395,2021-12-13,1.88645924,2.14803390,3.33168391,131079,149254,231500,99139,113758,162648,1.42678530,1.63718266,2.34079157,0.26628625,0.32638303,0.40370192
0,0,Bulgaria,,,2022-03-22 20:26:34.859395,2021-12-14,1.87756182,2.10828615,3.33849476,130461,146493,231973,98147,110831,162337,1.41250583,1.59506180,2.33631806,0.28759092,0.34171174,0.42626363
0,0,Bulgaria,,,2022-03-22 20:26:34.859395,2021-12-15,1.86164894,2.11093860,3.36458284,129355,146677,233786,96597,109868,162456,1.39020814,1.58119512,2.33802380,0.32611096,0.37443861,0.46944909
0,0,Bulgaria,,,2022-03-22 20:26:34.859395,2021-12-16,1.84248165,2.13424163,3.41053069,128023,148296,236978,94331,109696,163283,1.35759803,1.57872580,2.34993529,0.33895831,0.41049048,0.51804326
0,0,Bulgaria,,,2022-03-22 20:26:34.859395,2021-12-17,1.83655497,2.16695254,3.46746228,127612,150569,240934,93080,110434,164885,1.33959134,1.58934599,2.37298458,0.34698000,0.43010468,0.55114251
0,0,Bulgaria,,,2022-03-22 20:26:34.859395,2021-12-18,1.83727293,2.17824298,3.53480968,127661,151354,245614,92726,112228,166864,1.33448607,1.61515823,2.40146709,0.35146775,0.43861376,0.56545107
0,0,Bulgaria,,,2022-03-22 20:26:34.859395,2021-12-19,1.84193486,2.25210994,3.60590891,127985,156486,250554,92701,113912,169514,1.33413457,1.63939799,2.43960612,0.35669727,0.44330237,0.57018845
0,0,Bulgaria,,,2022-03-22 20:26:34.859395,2021-12-20,1.84976821,2.29204809,3.68227922,128530,159261,255861,92843,115626,172637,1.33617978,1.66406448,2.48455506,0.36920915,0.45011649,0.57164550
0,0,Bulgaria,,,2022-03-22 20:26:34.859395,2021-12-21,1.85971667,2.35065997,3.77597582,129221,163334,262371,93137,117993,176147,1.34040901,1.69812956,2.53506612,0.40278593,0.46677171,0.57143419
0,0,Bulgaria,,,2022-03-22 20:26:34.859395,2021-12-22,1.88358985,2.43451321,3.89554890,130880,169160,270680,93825,121150,180225,1.35030757,1.74356015,2.59375096,0.46661022,0.49645139,0.56857016
0,0,Bulgaria,,,2022-03-22 20:26:34.859395,2021-12-23,1.93129034,2.53668125,4.04240673,134194,176259,280884,94829,125415,185281,1.36476377,1.80493711,2.66652327,0.49603082,0.52751737,0.58878388
0,0,Bulgaria,,,2022-03-22 20:26:34.859395,2021-12-24,1.98237668,2.64134905,4.19987983,137744,183532,291826,96226,130423,191474,1.38486906,1.87701118,2.75565059,0.50966990,0.54485370,0.63068810
0,0,Bulgaria,,,2022-03-22 20:26:34.859395,2021-12-25,2.03265477,2.74114004,4.36304015,141237,190466,303163,98345,135624,198552,1.41535490,1.95187474,2.85751176,0.51737219,0.55218107,0.64913033
0,0,Bulgaria,,,2022-03-22 20:26:34.859395,2021-12-26,2.08248927,2.84571149,4.53056152,144700,197732,314803,100591,140514,205735,1.44768936,2.02224589,2.96089222,0.52211094,0.55417083,0.65703697
0,0,Bulgaria,,,2022-03-22 20:26:34.859395,2021-12-27,2.14148358,2.92524050,4.70324326,148799,203258,326802,103089,145723,213603,1.48363549,2.09721336,3.07412427,0.52518605,0.55702552,0.66225753
0,0,Bulgaria,,,2022-03-22 20:26:34.859395,2021-12-28,2.22428774,3.04053979,4.88953265,154553,211270,339746,106057,151287,222342,1.52635520,2.17728836,3.19988307,0.53293252,0.58591867,0.67084654
0,0,Bulgaria,,,2022-03-22 20:26:34.859395,2021-12-29,2.35633168,3.13655693,5.08317856,163728,217941,353201,110136,157363,230942,1.58505962,2.26472391,3.32365915,0.54668850,0.60734057,0.70977263
0,0,Bulgaria,,,2022-03-22 20:26:34.859395,2021-12-30,2.55305327,3.29752238,5.28413173,177397,229126,367164,116479,163188,240256,1.67633997,2.34855757,3.45770129,0.56023161,0.62239236,0.82556192
0,0,Bulgaria,,,2022-03-22 20:26:34.859395,2021-12-31,2.79854184,3.48952944,5.49004525,194455,242468,381472,125352,169613,250098,1.80404170,2.44102770,3.59934682,0.56765787,0.62715044,0.90195564
0,0,Bulgaria,,,2022-03-22 20:26:34.859395,2022-01-01,3.04747779,3.68330648,5.69909356,211752,255932,395998,136676,177501,260238,1.96700918,2.55455667,3.74528026,0.56925360,0.62935631,0.93398481
0,0,Bulgaria,,,2022-03-22 20:26:34.859395,2022-01-02,3.29146150,3.88539048,5.91093983,228705,269974,410718,149700,186734,270598,2.15444422,2.68742701,3.89437291,0.57067502,0.63171909,0.94316259
0,0,Bulgaria,,,2022-03-22 20:26:34.859395,2022-01-03,3.51746074,4.15208525,6.12582993,244408,288505,425649,163858,196851,281108,2.35820010,2.83303213,4.04563336,0.57377895,0.63712035,0.93955439
0,0,Bulgaria,,,2022-03-22 20:26:34.859395,2022-01-04,3.73829460,4.44268547,6.34090013,259753,308697,440593,175294,206839,291726,2.52278072,2.97677971,4.19844017,0.57886000,0.65257212,0.92522196
0,0,Bulgaria,,,2022-03-22 20:26:34.859395,2022-01-05,3.96003197,4.75594907,6.57863235,275160,330464,457112,186997,220724,302435,2.69121015,3.17659990,4.35256881,0.57964287,0.68454267,0.90188364
0,0,Bulgaria,,,2022-03-22 20:26:34.859395,2022-01-06,4.20181551,5.03442182,6.81359245,291960,349814,473438,200395,236768,313229,2.88402688,3.40750767,4.50790094,0.58013443,0.71818687,0.87968087
0,0,Bulgaria,,,2022-03-22 20:26:34.859395,2022-01-07,4.37615305,5.35072405,7.03735590,304074,371792,488986,214556,252917,324094,3.08783640,3.63991437,4.66427201,0.58105325,0.73868936,0.86819440
0,0,Bulgaria,,,2022-03-22 20:26:34.859395,2022-01-08,4.59777239,5.71016290,7.26380251,319473,396767,504721,228821,269824,335068,3.29312713,3.88323139,4.82221152,0.58278891,0.74669634,0.86410426
0,0,Bulgaria,,,2022-03-22 20:26:34.859395,2022-01-09,4.75292723,6.08420989,7.50839792,330254,422757,521716,239195,284919,347242,3.44243304,4.10047731,4.99741805,0.58766530,0.74879615,0.86523024
0,0,Bulgaria,,,2022-03-22 20:26:34.859395,2022-01-10,4.90618166,6.47673080,7.78055095,340903,450032,540627,250943,301229,357508,3.61151197,4.33520243,5.14515373,0.60185680,0.75557471,0.86613519
0,0,Bulgaria,,,2022-03-22 20:26:34.859395,2022-01-11,5.06790430,6.89269549,8.09395696,352140,478935,562404,259754,317775,368771,3.73831419,4.57333244,5.30724698,0.62288647,0.77259151,0.87381014
0,0,Bulgaria,,,2022-03-22 20:26:34.859395,2022-01-12,5.24705837,7.30551464,8.47817364,364588,507619,589101,268496,337539,384741,3.86412078,4.85776539,5.53708677,0.63297512,0.80253703,0.89367318
0,0,Bulgaria,,,2022-03-22 20:26:34.859395,2022-01-13,5.43644402,7.76379370,8.99498388,377748,539462,625011,277988,357817,405009,4.00072607,5.14960599,5.82877306,0.64251293,0.83160777,0.91899294
0,0,Bulgaria,,,2022-03-22 20:26:34.859395,2022-01-14,5.62906900,8.23051802,9.48874378,391132,571893,659320,287677,379294,430594,4.14017639,5.45870241,6.19698684,0.64851059,0.84930191,0.93494989
0,0,Bulgaria,,,2022-03-22 20:26:34.859395,2022-01-15,5.82370054,8.70876647,9.99583997,404656,605123,694555,297744,401701,457403,4.28504908,5.78117393,6.58281336,0.65223985,0.85634449,0.94050422
0,0,Bulgaria,,,2022-03-22 20:26:34.859395,2022-01-16,6.01901725,9.17951339,10.64341345,418228,637833,739551,307972,425552,486690,4.43224831,6.12442796,7.00430798,0.65751137,0.85646219,0.93877137
0,0,Bulgaria,,,2022-03-22 20:26:34.859395,2022-01-17,6.22081649,9.63970641,11.17400164,432250,669809,776419,318370,448472,513738,4.58189035,6.45429012,7.39357267,0.67078771,0.85132172,0.92802893
0,0,Bulgaria,,,2022-03-22 20:26:34.859395,2022-01-18,6.44716229,10.06542707,11.72502344,447977,699390,814706,329362,470127,542044,4.74009578,6.76594516,7.80094566,0.70327051,0.83539894,0.90135997
0,0,Bulgaria,,,2022-03-22 20:26:34.859395,2022-01-19,6.72510620,10.40266480,12.18008933,467290,722823,846326,341897,490350,568536,4.92049657,7.05697486,8.18221301,0.76101733,0.81427688,0.85766329
0,0,Bulgaria,,,2022-03-22 20:26:34.859395,2022-01-20,7.06172185,10.67571479,12.50991306,490679,741796,869244,356923,509351,591966,5.13673242,7.33043979,8.51940629,0.76150137,0.80618124,0.83156983
0,0,Bulgaria,,,2022-03-22 20:26:34.859395,2022-01-21,7.43472896,10.89337488,12.74017312,516598,756920,885243,374498,524122,612817,5.38967142,7.54301635,8.81948924,0.74367960,0.78751843,0.87032469
0,0,Bulgaria,,,2022-03-22 20:26:34.859395,2022-01-22,7.82051831,11.03585677,12.92342543,543404,766820,897977,393777,536506,627319,5.66713131,7.72124608,9.02820630,0.73704377,0.78063994,0.88621954
0,0,Bulgaria,,,2022-03-22 20:26:34.859395,2022-01-23,8.20517694,11.14978686,13.07523712,570132,774736,908525,413794,545127,636598,5.95520782,7.84531425,9.16173366,0.73621383,0.77823709,0.89019471
0,0,Bulgaria,,,2022-03-22 20:26:34.859395,2022-01-24,8.58259819,11.20797186,13.14179956,596357,778779,913150,433882,551935,643228,6.24430373,7.94329724,9.25715370,0.74077609,0.77623890,0.88603851
0,0,Bulgaria,,,2022-03-22 20:26:34.859395,2022-01-25,8.95278268,11.22678057,13.17043783,622079,780086,915140,453736,556490,646952,6.53004224,8.00884237,9.31075007,0.74559563,0.77902165,0.88300833
0,0,Bulgaria,,,2022-03-22 20:26:34.859395,2022-01-26,9.30748785,11.19259469,13.29408658,646725,777711,923732,473350,560695,647476,6.81232109,8.06936739,9.31828949,0.70295724,0.78679858,0.89035408
0,0,Bulgaria,,,2022-03-22 20:26:34.859395,2022-01-27,9.66052375,11.15804576,13.34998972,671256,775310,927616,492658,564306,650251,7.09019531,8.12134001,9.35823491,0.66119812,0.79430764,0.90157184
0,0,Bulgaria,,,2022-03-22 20:26:34.859395,2022-01-28,9.86021738,11.11935771,13.42726472,685131,772622,932986,507976,567635,653381,7.31064690,8.16924414,9.40328228,0.63837813,0.79740378,0.90956142
0,0,Bulgaria,,,2022-03-22 20:26:34.859395,2022-01-29,9.84797992,11.03948883,13.47493962,684281,767072,936298,510497,568968,657939,7.34692631,8.18842586,9.46888062,0.62998643,0.79852888,0.90984003
0,0,Bulgaria,,,2022-03-22 20:26:34.859395,2022-01-30,9.65619970,10.93206841,13.48273054,670955,759608,936840,505928,565911,660808,7.28116943,8.14443963,9.51015780,0.62919303,0.79986850,0.90069260
0,0,Bulgaria,,,2022-03-22 20:26:34.859395,2022-01-31,9.34995810,10.73854559,13.43202052,649676,746161,933316,490065,558839,662105,7.05287505,8.04265414,9.52883086,0.63500516,0.80247808,0.87173411
0,0,Bulgaria,,,2022-03-22 20:26:34.859395,2022-02-01,9.01594895,10.54421777,13.29133322,626468,732659,923540,475784,552267,660057,6.84735307,7.94807428,9.49935548,0.65179322,0.79459059,0.81809306
0,0,Bulgaria,,,2022-03-22 20:26:34.859395,2022-02-02,8.69115683,10.29931381,13.06661427,603900,715642,907926,459383,541153,656672,6.61130786,7.78812419,9.45064659,0.62931070,0.75160434,0.83256873
0,0,Bulgaria,,,2022-03-22 20:26:34.859395,2022-02-03,8.38773089,10.01759859,12.82095031,582816,696067,890856,443448,526870,649150,6.38197771,7.58256332,9.34238216,0.58045556,0.74263679,0.85207620
0,0,Bulgaria,,,2022-03-22 20:26:34.859395,2022-02-04,8.10210527,9.71969017,12.52441196,562970,675367,870251,428173,511597,640084,6.16214714,7.36275790,9.21191141,0.55229393,0.73789277,0.86379009
0,0,Bulgaria,,,2022-03-22 20:26:34.859395,2022-02-05,7.82843516,9.43482511,12.17269826,543954,655573,845813,413596,494691,627295,5.95236538,7.11946208,9.02785712,0.54201804,0.73840538,0.86895791
0,0,Bulgaria,,,2022-03-22 20:26:34.859395,2022-02-06,7.53866998,9.11744710,11.78532345,523820,633520,818896,399284,479459,611602,5.74639176,6.90024878,8.80201160,0.54054807,0.73661015,0.87277433
0,0,Bulgaria,,,2022-03-22 20:26:34.859395,2022-02-07,7.27225323,8.79145401,11.39886023,505308,610869,792043,385318,463675,595055,5.54538518,6.67308075,8.56386732,0.54835779,0.73223869,0.87978643
0,0,Bulgaria,,,2022-03-22 20:26:34.859395,2022-02-08,7.01981721,8.43576527,10.99247700,487768,586154,763806,370881,448365,577381,5.33762062,6.45273967,8.30950598,0.57046663,0.72602935,0.89649004
0,0,Bulgaria,,,2022-03-22 20:26:34.859395,2022-02-09,6.77045427,8.12189802,10.58214490,470441,564345,735294,357374,432276,559480,5.14323014,6.22119335,8.05187351,0.61013357,0.71802681,0.93058203
0,0,Bulgaria,,,2022-03-22 20:26:34.859395,2022-02-10,6.53707692,7.84073711,10.16558209,454225,544809,706349,345605,416684,538783,4.97385529,5.99680919,7.75401215,0.65302913,0.71421883,0.97292196
0,0,Bulgaria,,,2022-03-22 20:26:34.859395,2022-02-11,6.31007674,7.57514535,9.74747521,438452,526354,677297,334501,403169,517587,4.81404590,5.80230530,7.44896480,0.67943163,0.74405101,0.99832436
0,0,Bulgaria,,,2022-03-22 20:26:34.859395,2022-02-12,6.08967087,7.30962804,9.33543621,423137,507905,648667,323614,389529,495843,4.65737131,5.60599751,7.13604018,0.68358153,0.75248738,1.00894925
0,0,Bulgaria,,,2022-03-22 20:26:34.859395,2022-02-13,5.87841490,7.04183734,8.92454598,408458,489298,620117,312111,376291,474239,4.49181770,5.41547947,6.82511098,0.68520818,0.75763300,1.01412593
0,0,Bulgaria,,,2022-03-22 20:26:34.859395,2022-02-14,5.65792776,6.78127009,8.51319990,393137,471192,591535,300293,362788,454035,4.32174201,5.22114471,6.53434937,0.69237756,0.76416973,1.02003502
0,0,Bulgaria,,,2022-03-22 20:26:34.859395,2022-02-15,5.37535078,6.52184481,8.12754547,373503,453166,564738,289137,349375,435093,4.16117827,5.02810654,6.26174576,0.70914600,0.77737451,1.03215761
0,0,Bulgaria,,,2022-03-22 20:26:34.859395,2022-02-16,5.13347881,6.27205401,7.75727369,356696,435810,539009,275940,336850,415341,3.97124921,4.84784921,5.97748084,0.73795946,0.79958091,1.05289298
0,0,Bulgaria,,,2022-03-22 20:26:34.859395,2022-02-17,4.89932007,6.03207225,7.41765072,340426,419135,515411,262523,324531,396795,3.77815995,4.67056618,5.71056283,0.76442880,0.82041263,1.07397307
0,0,Bulgaria,,,2022-03-22 20:26:34.859395,2022-02-18,4.66514566,5.79920097,7.09778790,324155,402954,493185,250609,312134,379970,3.60669272,4.49214421,5.46842350,0.77842564,0.83200325,1.08620203
0,0,Bulgaria,,,2022-03-22 20:26:34.859395,2022-02-19,4.42748361,5.57183298,6.78913580,307641,387155,471739,239315,299786,364263,3.44416494,4.31444588,5.24238151,0.78529401,0.83943678,1.09153254
0,0,Bulgaria,,,2022-03-22 20:26:34.859395,2022-02-20,4.19836360,5.34680687,6.49384615,291720,371519,451221,227353,288367,348743,3.27200292,4.15009481,5.01901359,0.78723276,0.84468445,1.09393349
0,0,Bulgaria,,,2022-03-22 20:26:34.859395,2022-02-21,3.99281760,5.12574555,6.20560767,277438,356159,431193,215725,276826,333561,3.10465483,3.98400369,4.80052374,0.78718476,0.85300111,1.09655595
0,0,Bulgaria,,,2022-03-22 20:26:34.859395,2022-02-22,3.79869765,4.91262858,5.91983427,263950,341351,411336,204880,265424,318919,2.94857926,3.81990875,4.58979626,0.78626586,0.87372094,1.10288322
0,0,Bulgaria,,,2022-03-22 20:26:34.859395,2022-02-23,3.61897067,4.70936619,5.64723472,251462,327227,392394,194980,254282,304483,2.80610289,3.65956558,4.38204239,0.77979405,0.90808092,1.11407306
0,0,Bulgaria,,,2022-03-22 20:26:34.859395,2022-02-24,3.46059670,4.55072241,5.37747932,240457,316204,373651,185735,244253,289897,2.67304887,3.51523116,4.17212365,0.77031590,0.94237281,1.12592064
0,0,Bulgaria,,,2022-03-22 20:26:34.859395,2022-02-25,3.30401562,4.35609174,5.10117627,229577,302680,354452,177122,234473,275876,2.54909848,3.37447605,3.97033173,0.76230277,0.96129947,1.13332820
0,0,Bulgaria,,,2022-03-22 20:26:34.859395,2022-02-26,3.15383092,4.16920878,4.83392153,219142,289695,335882,169729,224285,262427,2.44269907,3.22785867,3.77678591,0.76054295,0.96760426,1.13801523
0,0,Bulgaria,,,2022-03-22 20:26:34.859395,2022-02-27,3.01242956,3.97176557,4.59781789,209317,275975,319476,161908,214239,249798,2.33014083,3.08327327,3.59503398,0.76504571,0.97032358,1.14481747
0,0,Bulgaria,,,2022-03-22 20:26:34.859395,2022-02-28,2.87296561,3.78402880,4.37293075,199626,262931,303850,154304,204501,237691,2.22070068,2.94312924,3.42078661,0.78172551,0.97275544,1.16208013
0,0,Bulgaria,,,2022-03-22 20:26:34.859395,2022-03-01,2.73814946,3.60753863,4.16110113,190258,250667,289131,147094,194519,226271,2.11694818,2.79946905,3.25643140,0.82562843,0.97565952,1.20484625
0,0,Bulgaria,,,2022-03-22 20:26:34.859395,2022-03-02,2.60394911,3.44522784,3.97050186,180933,239389,275888,140398,185650,215587,2.02057299,2.67182427,3.10267146,0.90157686,0.98080473,1.28412699
0,0,Bulgaria,,,2022-03-22 20:26:34.859395,2022-03-03,2.47474051,3.29648444,3.80191279,171955,229054,264173,133642,177428,205762,1.92335077,2.55350550,2.96126973,0.96039390,0.99677137,1.36836358
0,0,Bulgaria,,,2022-03-22 20:26:34.859395,2022-03-04,2.34335300,3.15852156,3.64764622,162826,219468,253454,127032,169997,196787,1.82821808,2.44655088,2.83210309,0.96443119,1.01615966,1.42193735
0,0,Bulgaria,,,2022-03-22 20:26:34.859395,2022-03-05,2.22389181,3.02717077,3.50146950,154525,210341,243297,120692,162906,188506,1.73697705,2.34450779,2.71293533,0.96509052,1.02833255,1.44589948
0,0,Bulgaria,,,2022-03-22 20:26:34.859395,2022-03-06,2.11313637,2.90029010,3.36010884,146830,201525,233475,114801,156130,181635,1.65218639,2.24698268,2.61405123,0.96738057,1.03348148,1.45596227
0,0,Bulgaria,,,2022-03-22 20:26:34.859395,2022-03-07,2.00767089,2.77789502,3.22319053,139501,193020,223961,108824,149492,174411,1.56617057,2.15144897,2.51008253,0.97296607,1.03845453,1.46544874
0,0,Bulgaria,,,2022-03-22 20:26:34.859395,2022-03-08,1.89836558,2.65557659,3.09501321,131906,184521,215055,103301,143156,167316,1.48668053,2.06027111,2.40797725,0.98681531,1.05821671,1.49623336
0,0,Bulgaria,,,2022-03-22 20:26:34.859395,2022-03-09,1.79640199,2.53967955,2.96931203,124822,176468,206321,98161,137389,160878,1.41271304,1.97726475,2.31531780,1.00133410,1.08509917,1.54208686
0,0,Bulgaria,,,2022-03-22 20:26:34.859395,2022-03-10,1.70410654,2.43700756,2.84644448,118408,169334,197783,93435,131500,154401,1.34470310,1.89252114,2.22210486,1.01280999,1.10847792,1.58881838
0,0,Bulgaria,,,2022-03-22 20:26:34.859395,2022-03-11,1.62340850,2.33115625,2.72735737,112801,161979,189508,88871,125537,148052,1.27900717,1.80670612,2.13072464,1.01968748,1.11633240,1.61537192
0,0,Bulgaria,,,2022-03-22 20:26:34.859395,2022-03-12,1.54681231,2.23619080,2.60888998,107479,155380,181277,84321,120168,142086,1.21353421,1.72942389,2.04487132,1.02279434,1.11866537,1.62258248
0,0,Bulgaria,,,2022-03-22 20:26:34.859395,2022-03-13,1.46796610,2.13797640,2.49409530,102000,148556,173300,80032,115199,136008,1.15181036,1.65791441,1.95739711,1.02956970,1.12143747,1.61354064
0,0,Bulgaria,,,2022-03-22 20:26:34.859395,2022-03-14,1.39689076,2.04426736,2.39516344,97062,142044,166426,75975,109982,130118,1.09341623,1.58283840,1.87262878,1.03398417,1.12889194,1.57786740
0,0,Bulgaria,,,2022-03-22 20:26:34.859395,2022-03-15,1.32740613,1.94971797,2.29195023,92234,135475,159254,72197,104812,124432,1.03904538,1.50843346,1.79079145,1.02733922,1.14522190,1.49103362
0,0,Bulgaria,,,2022-03-22 20:26:34.859395,2022-03-16,1.26182713,1.84954813,2.19501131,87677,128514,152519,68564,99923,119101,0.98676067,1.43807316,1.71407635,1.01199885,1.20272363,1.35557520
0,0,Bulgaria,,,2022-03-22 20:26:34.859395,2022-03-17,1.19636922,1.75490455,2.11190122,83129,121938,146744,65122,94795,114448,0.93721986,1.36427091,1.64711378,0.98916443,1.19533392,1.40198051
0,0,Bulgaria,,,2022-03-22 20:26:34.859395,2022-03-18,1.13424887,1.66112071,2.06158046,78812,115422,143247,61955,90309,111567,0.89164196,1.29970569,1.60565104,0.97069947,1.18077762,1.44762911
0,0,Bulgaria,,,2022-03-22 20:26:34.859395,2022-03-19,1.07313687,1.56933428,2.01091965,74566,109044,139727,58594,85535,108769,0.84327728,1.23099697,1.56537695,0.96007315,1.18534565,1.47388861
0,0,Bulgaria,,,2022-03-22 20:26:34.859395,2022-03-20,1.01423979,1.47422555,1.95566641,70473,102435,135888,55495,80668,105648,0.79867981,1.16095440,1.52046538,0.95696978,1.18699230,1.48296677
0,0,Bulgaria,,,2022-03-22 20:26:34.859395,2022-03-21,0.95887049,1.37476473,1.91116166,66626,95524,132796,52235,75450,103331,0.75175256,1.08585785,1.48711218,0.95616239,1.18752142,1.48672206
0,0,Bulgaria,,,2022-03-22 20:26:34.859395,2022-03-22,0.90576904,1.28694033,1.86539825,62936,89422,129616,49380,70726,100969,0.71066263,1.01786956,1.45312259,0.95590267,1.18769178,1.48746495
0,0,Bulgaria,,,2022-03-22 20:26:34.859395,2022-03-23,0.85534924,1.21269458,1.81595070,59433,84263,126180,46659,66695,98468,0.67150508,0.95986671,1.41713324,0.95581961,1.18774628,1.48762857
0,0,Bulgaria,,,2022-03-22 20:26:34.859395,2022-03-24,0.80650775,1.15334845,1.76605536,56039,80139,122713,44072,63411,96011,0.63427271,0.91259457,1.38177353,0.95579310,1.18776367,1.48768081
0,0,Bulgaria,,,2022-03-22 20:26:34.859395,2022-03-25,0.75911866,1.09771391,1.71586774,52746,76274,119226,41560,60385,93367,0.59812857,0.86904384,1.34371874,0.95578464,1.18776922,1.48769747
0,0,Bulgaria,,,2022-03-22 20:26:34.859395,2022-03-26,0.71436842,1.04438620,1.66554859,49637,72568,115729,39124,57481,90711,0.56306907,0.82726382,1.30549110,0.95578194,1.18777099,1.48770278
0,0,Bulgaria,,,2022-03-22 20:26:34.859395,2022-03-27,0.67212923,0.99330880,1.61685965,46702,69019,112346,36823,54698,88050,0.52995610,0.78721001,1.26719671,0.95578108,1.18777155,1.48770448
0,0,Bulgaria,,,2022-03-22 20:26:34.859395,2022-03-28,0.63232165,0.94442254,1.57528564,43936,65622,109457,34656,52032,85506,0.49876186,0.74883806,1.23057774,0.95578081,1.18777173,1.48770502
0,0,Bulgaria,,,2022-03-22 20:26:34.859395,2022-03-29,0.59482578,0.89766589,1.53231344,41331,62373,106471,32610,49480,83308,0.46931619,0.71210290,1.19894497,0.95578072,1.18777179,1.48770519
0,0,Bulgaria,,,2022-03-22 20:26:34.859395,2022-03-30,0.55980243,0.85297547,1.48286094,38897,59268,103035,30747,47038,80927,0.44251230,0.67695848,1.16469146,0.95578069,1.18777181,1.48770525
0,0,Bulgaria,,,2022-03-22 20:26:34.859395,2022-03-31,0.52604155,0.81028646,1.43283895,36551,56302,99560,28918,44703,78392,0.41618124,0.64335774,1.12820547,0.95578069,1.18777182,1.48770526
0,0,Bulgaria,,,2022-03-22 20:26:34.859395,2022-04-01,0.49454284,0.76953307,1.38617597,34363,53470,96317,27157,42472,75871,0.39084097,0.61125276,1.09192747,0.95578068,1.18777182,1.48770527
0,0,Bulgaria,,,2022-03-22 20:26:34.859395,2022-04-02,0.46463655,0.73064899,1.34253283,32285,50768,93285,25508,40342,73377,0.36711694,0.58059501,1.05602657,0.95578068,1.18777182,1.48770527
0,0,Bulgaria,,,2022-03-22 20:26:34.859395,2022-04-03,0.43600856,0.69356773,1.29648850,30295,48192,90085,23980,38309,70918,0.34512551,0.55133556,1.02063140,0.95578068,1.18777182,1.48770527
0,0,Bulgaria,,,2022-03-22 20:26:34.859395,2022-04-04,0.41063801,0.65822300,1.25444911,28532,45736,87164,22540,36369,68549,0.32440072,0.52342534,0.98654885,0.95578068,1.18777182,1.48770527
0,0,Bulgaria,,,2022-03-22 20:26:34.859395,2022-04-05,0.38381098,0.62454900,1.21283805,26668,43396,84273,21184,34520,66345,0.30488483,0.49681540,0.95483082,0.95578068,1.18777182,1.48770527
