FIPS,HR_UID,nameid,province,region,analysisTime,dates,pointprevalence_025,pointprevalence_50,pointprevalence_975,pointinfections_025,pointinfections_50,pointinfections_975,pointinfectious_025,pointinfectious_50,pointinfectious_975,pointinfectiousprevalence_025,pointinfectiousprevalence_50,pointinfectiousprevalence_975,infectrate_025,infectrate_50,infectrate_975
26013,0,USMichiganBaraga,Michigan,Baraga,2022-04-28 09:13:11,2020-03-19,0,0,0,,,,,,,,,,,,
26013,0,USMichiganBaraga,Michigan,Baraga,2022-04-28 09:13:11,2020-03-20,0,0,0,,,,,,,,,,,,
26013,0,USMichiganBaraga,Michigan,Baraga,2022-04-28 09:13:11,2020-03-21,0,0,0,,,,,,,,,,,,
26013,0,USMichiganBaraga,Michigan,Baraga,2022-04-28 09:13:11,2020-03-22,0,0,0,,,,,,,,,,,,
26013,0,USMichiganBaraga,Michigan,Baraga,2022-04-28 09:13:11,2020-03-23,0,0,0,,,,,,,,,,,,
26013,0,USMichiganBaraga,Michigan,Baraga,2022-04-28 09:13:11,2020-03-24,0,0,0,,,,,,,,,,,,
26013,0,USMichiganBaraga,Michigan,Baraga,2022-04-28 09:13:11,2020-03-25,0,0,0,,,,,,,,,,,,
26013,0,USMichiganBaraga,Michigan,Baraga,2022-04-28 09:13:11,2020-03-26,0,0,0,,,,,,,,,,,,
26013,0,USMichiganBaraga,Michigan,Baraga,2022-04-28 09:13:11,2020-03-27,0,0,0,,,,,,,,,,,,
26013,0,USMichiganBaraga,Michigan,Baraga,2022-04-28 09:13:11,2020-03-28,0,0,0,,,,,,,,,,,,
26013,0,USMichiganBaraga,Michigan,Baraga,2022-04-28 09:13:11,2020-03-29,0,0,0,,,,,,,,,,,,
26013,0,USMichiganBaraga,Michigan,Baraga,2022-04-28 09:13:11,2020-03-30,0,0,0,,,,,,,,,,,,
26013,0,USMichiganBaraga,Michigan,Baraga,2022-04-28 09:13:11,2020-03-31,0,0,0,,,,,,,,,,,,
26013,0,USMichiganBaraga,Michigan,Baraga,2022-04-28 09:13:11,2020-04-01,0,0,0,,,,,,,,,,,,
26013,0,USMichiganBaraga,Michigan,Baraga,2022-04-28 09:13:11,2020-04-02,0,0,0,,,,,,,,,,,,
26013,0,USMichiganBaraga,Michigan,Baraga,2022-04-28 09:13:11,2020-04-03,0,0,0,,,,,,,,,,,,
26013,0,USMichiganBaraga,Michigan,Baraga,2022-04-28 09:13:11,2020-04-04,0,0,0,,,,,,,,,,,,
26013,0,USMichiganBaraga,Michigan,Baraga,2022-04-28 09:13:11,2020-04-05,0,0,0,,,,,,,,,,,,
26013,0,USMichiganBaraga,Michigan,Baraga,2022-04-28 09:13:11,2020-04-06,0,0,0,,,,,,,,,,,,
26013,0,USMichiganBaraga,Michigan,Baraga,2022-04-28 09:13:11,2020-04-07,0,0,0,,,,,,,,,,,,
26013,0,USMichiganBaraga,Michigan,Baraga,2022-04-28 09:13:11,2020-04-08,0,0,0,,,,,,,,,,,,
26013,0,USMichiganBaraga,Michigan,Baraga,2022-04-28 09:13:11,2020-04-09,0,0,0,,,,,,,,,,,,
26013,0,USMichiganBaraga,Michigan,Baraga,2022-04-28 09:13:11,2020-04-10,0,0,0,,,,,,,,,,,,
26013,0,USMichiganBaraga,Michigan,Baraga,2022-04-28 09:13:11,2020-04-11,0,0,0,,,,,,,,,,,,
26013,0,USMichiganBaraga,Michigan,Baraga,2022-04-28 09:13:11,2020-04-12,0,0,0,,,,,,,,,,,,
26013,0,USMichiganBaraga,Michigan,Baraga,2022-04-28 09:13:11,2020-04-13,0,0,0,,,,,,,,,,,,
26013,0,USMichiganBaraga,Michigan,Baraga,2022-04-28 09:13:11,2020-04-14,0,0,0,,,,,,,,,,,,
26013,0,USMichiganBaraga,Michigan,Baraga,2022-04-28 09:13:11,2020-04-15,0,0,0,,,,,,,,,,,,
26013,0,USMichiganBaraga,Michigan,Baraga,2022-04-28 09:13:11,2020-04-16,0,0,0,,,,,,,,,,,,
26013,0,USMichiganBaraga,Michigan,Baraga,2022-04-28 09:13:11,2020-04-17,0,0,0,,,,,,,,,,,,
26013,0,USMichiganBaraga,Michigan,Baraga,2022-04-28 09:13:11,2020-04-18,0,0,0,,,,,,,,,,,,
26013,0,USMichiganBaraga,Michigan,Baraga,2022-04-28 09:13:11,2020-04-19,0,0,0,,,,,,,,,,,,
26013,0,USMichiganBaraga,Michigan,Baraga,2022-04-28 09:13:11,2020-04-20,0,0,0,,,,,,,,,,,,
26013,0,USMichiganBaraga,Michigan,Baraga,2022-04-28 09:13:11,2020-04-21,0,0,0,,,,,,,,,,,,
26013,0,USMichiganBaraga,Michigan,Baraga,2022-04-28 09:13:11,2020-04-22,0,0,0,,,,,,,,,,,,
26013,0,USMichiganBaraga,Michigan,Baraga,2022-04-28 09:13:11,2020-04-23,0,0,0,,,,,,,,,,,,
26013,0,USMichiganBaraga,Michigan,Baraga,2022-04-28 09:13:11,2020-04-24,0,0,0,,,,,,,,,,,,
26013,0,USMichiganBaraga,Michigan,Baraga,2022-04-28 09:13:11,2020-04-25,0,0,0,,,,,,,,,,,,
26013,0,USMichiganBaraga,Michigan,Baraga,2022-04-28 09:13:11,2020-04-26,0,0,0,,,,,,,,,,,,
26013,0,USMichiganBaraga,Michigan,Baraga,2022-04-28 09:13:11,2020-04-27,0,0,0,,,,,,,,,,,,
26013,0,USMichiganBaraga,Michigan,Baraga,2022-04-28 09:13:11,2020-04-28,0,0,0,,,,,,,,,,,,
26013,0,USMichiganBaraga,Michigan,Baraga,2022-04-28 09:13:11,2020-04-29,0,0,0,,,,,,,,,,,,
26013,0,USMichiganBaraga,Michigan,Baraga,2022-04-28 09:13:11,2020-04-30,0.09193761470921795,0.2913061938235254,0.989043530496825,,,,,,,,,,,,
26013,0,USMichiganBaraga,Michigan,Baraga,2022-04-28 09:13:11,2020-05-01,0.09193761470921795,0.2913061938235254,0.989043530496825,,,,,,,,,,,,
26013,0,USMichiganBaraga,Michigan,Baraga,2022-04-28 09:13:11,2020-05-02,0.09193761470921795,0.2913061938235254,0.989043530496825,,,,,,,,,,,,
26013,0,USMichiganBaraga,Michigan,Baraga,2022-04-28 09:13:11,2020-05-03,0.09193761470921795,0.2913061938235254,0.989043530496825,,,,,,,,,,,,
26013,0,USMichiganBaraga,Michigan,Baraga,2022-04-28 09:13:11,2020-05-04,0.09193761470921795,0.2913061938235254,0.989043530496825,,,,,,,,,,,,
26013,0,USMichiganBaraga,Michigan,Baraga,2022-04-28 09:13:11,2020-05-05,0.09193761470921795,0.2913061938235254,0.989043530496825,,,,,,,,,,,,
26013,0,USMichiganBaraga,Michigan,Baraga,2022-04-28 09:13:11,2020-05-06,0.09193761470921795,0.2913061938235254,0.989043530496825,,,,,,,,,,,,
26013,0,USMichiganBaraga,Michigan,Baraga,2022-04-28 09:13:11,2020-05-07,0,0,0,,,,,,,,,,,,
26013,0,USMichiganBaraga,Michigan,Baraga,2022-04-28 09:13:11,2020-05-08,0,0,0,,,,,,,,,,,,
26013,0,USMichiganBaraga,Michigan,Baraga,2022-04-28 09:13:11,2020-05-09,0,0,0,,,,,,,,,,,,
26013,0,USMichiganBaraga,Michigan,Baraga,2022-04-28 09:13:11,2020-05-10,0,0,0,,,,,,,,,,,,
26013,0,USMichiganBaraga,Michigan,Baraga,2022-04-28 09:13:11,2020-05-11,0,0,0,,,,,,,,,,,,
26013,0,USMichiganBaraga,Michigan,Baraga,2022-04-28 09:13:11,2020-05-12,0,0,0,,,,,,,,,,,,
26013,0,USMichiganBaraga,Michigan,Baraga,2022-04-28 09:13:11,2020-05-13,0,0,0,,,,,,,,,,,,
26013,0,USMichiganBaraga,Michigan,Baraga,2022-04-28 09:13:11,2020-05-14,0,0,0,,,,,,,,,,,,
26013,0,USMichiganBaraga,Michigan,Baraga,2022-04-28 09:13:11,2020-05-15,0,0,0,,,,,,,,,,,,
26013,0,USMichiganBaraga,Michigan,Baraga,2022-04-28 09:13:11,2020-05-16,0,0,0,,,,,,,,,,,,
26013,0,USMichiganBaraga,Michigan,Baraga,2022-04-28 09:13:11,2020-05-17,0,0,0,,,,,,,,,,,,
26013,0,USMichiganBaraga,Michigan,Baraga,2022-04-28 09:13:11,2020-05-18,0,0,0,,,,,,,,,,,,
26013,0,USMichiganBaraga,Michigan,Baraga,2022-04-28 09:13:11,2020-05-19,0,0,0,,,,,,,,,,,,
26013,0,USMichiganBaraga,Michigan,Baraga,2022-04-28 09:13:11,2020-05-20,0,0,0,,,,,,,,,,,,
26013,0,USMichiganBaraga,Michigan,Baraga,2022-04-28 09:13:11,2020-05-21,0,0,0,,,,,,,,,,,,
26013,0,USMichiganBaraga,Michigan,Baraga,2022-04-28 09:13:11,2020-05-22,0,0,0,,,,,,,,,,,,
26013,0,USMichiganBaraga,Michigan,Baraga,2022-04-28 09:13:11,2020-05-23,0,0,0,,,,,,,,,,,,
26013,0,USMichiganBaraga,Michigan,Baraga,2022-04-28 09:13:11,2020-05-24,0,0,0,,,,,,,,,,,,
26013,0,USMichiganBaraga,Michigan,Baraga,2022-04-28 09:13:11,2020-05-25,0,0,0,,,,,,,,,,,,
26013,0,USMichiganBaraga,Michigan,Baraga,2022-04-28 09:13:11,2020-05-26,0,0,0,,,,,,,,,,,,
26013,0,USMichiganBaraga,Michigan,Baraga,2022-04-28 09:13:11,2020-05-27,0,0,0,,,,,,,,,,,,
26013,0,USMichiganBaraga,Michigan,Baraga,2022-04-28 09:13:11,2020-05-28,0,0,0,,,,,,,,,,,,
26013,0,USMichiganBaraga,Michigan,Baraga,2022-04-28 09:13:11,2020-05-29,0,0,0,,,,,,,,,,,,
26013,0,USMichiganBaraga,Michigan,Baraga,2022-04-28 09:13:11,2020-05-30,0,0,0,,,,,,,,,,,,
26013,0,USMichiganBaraga,Michigan,Baraga,2022-04-28 09:13:11,2020-05-31,0,0,0,,,,,,,,,,,,
26013,0,USMichiganBaraga,Michigan,Baraga,2022-04-28 09:13:11,2020-06-01,0,0,0,,,,,,,,,,,,
26013,0,USMichiganBaraga,Michigan,Baraga,2022-04-28 09:13:11,2020-06-02,0,0,0,,,,,,,,,,,,
26013,0,USMichiganBaraga,Michigan,Baraga,2022-04-28 09:13:11,2020-06-03,0,0,0,,,,,,,,,,,,
26013,0,USMichiganBaraga,Michigan,Baraga,2022-04-28 09:13:11,2020-06-04,0,0,0,,,,,,,,,,,,
26013,0,USMichiganBaraga,Michigan,Baraga,2022-04-28 09:13:11,2020-06-05,0,0,0,,,,,,,,,,,,
26013,0,USMichiganBaraga,Michigan,Baraga,2022-04-28 09:13:11,2020-06-06,0,0,0,,,,,,,,,,,,
26013,0,USMichiganBaraga,Michigan,Baraga,2022-04-28 09:13:11,2020-06-07,0,0,0,,,,,,,,,,,,
26013,0,USMichiganBaraga,Michigan,Baraga,2022-04-28 09:13:11,2020-06-08,0,0,0,,,,,,,,,,,,
26013,0,USMichiganBaraga,Michigan,Baraga,2022-04-28 09:13:11,2020-06-09,0,0,0,,,,,,,,,,,,
26013,0,USMichiganBaraga,Michigan,Baraga,2022-04-28 09:13:11,2020-06-10,0,0,0,,,,,,,,,,,,
26013,0,USMichiganBaraga,Michigan,Baraga,2022-04-28 09:13:11,2020-06-11,0,0,0,,,,,,,,,,,,
26013,0,USMichiganBaraga,Michigan,Baraga,2022-04-28 09:13:11,2020-06-12,0,0,0,,,,,,,,,,,,
26013,0,USMichiganBaraga,Michigan,Baraga,2022-04-28 09:13:11,2020-06-13,0,0,0,,,,,,,,,,,,
26013,0,USMichiganBaraga,Michigan,Baraga,2022-04-28 09:13:11,2020-06-14,0,0,0,,,,,,,,,,,,
26013,0,USMichiganBaraga,Michigan,Baraga,2022-04-28 09:13:11,2020-06-15,0,0,0,,,,,,,,,,,,
26013,0,USMichiganBaraga,Michigan,Baraga,2022-04-28 09:13:11,2020-06-16,0,0,0,,,,,,,,,,,,
26013,0,USMichiganBaraga,Michigan,Baraga,2022-04-28 09:13:11,2020-06-17,0,0,0,,,,,,,,,,,,
26013,0,USMichiganBaraga,Michigan,Baraga,2022-04-28 09:13:11,2020-06-18,0,0,0,,,,,,,,,,,,
26013,0,USMichiganBaraga,Michigan,Baraga,2022-04-28 09:13:11,2020-06-19,0,0,0,,,,,,,,,,,,
26013,0,USMichiganBaraga,Michigan,Baraga,2022-04-28 09:13:11,2020-06-20,0,0,0,,,,,,,,,,,,
26013,0,USMichiganBaraga,Michigan,Baraga,2022-04-28 09:13:11,2020-06-21,0,0,0,,,,,,,,,,,,
26013,0,USMichiganBaraga,Michigan,Baraga,2022-04-28 09:13:11,2020-06-22,0,0,0,,,,,,,,,,,,
26013,0,USMichiganBaraga,Michigan,Baraga,2022-04-28 09:13:11,2020-06-23,0,0,0,,,,,,,,,,,,
26013,0,USMichiganBaraga,Michigan,Baraga,2022-04-28 09:13:11,2020-06-24,0,0,0,,,,,,,,,,,,
26013,0,USMichiganBaraga,Michigan,Baraga,2022-04-28 09:13:11,2020-06-25,0.2005841894518735,0.3727275509522459,0.740010427220273,,,,,,,,,,,,
26013,0,USMichiganBaraga,Michigan,Baraga,2022-04-28 09:13:11,2020-06-26,0.2005841894518735,0.3727275509522459,0.740010427220273,,,,,,,,,,,,
26013,0,USMichiganBaraga,Michigan,Baraga,2022-04-28 09:13:11,2020-06-27,0.2005841894518735,0.3727275509522459,0.740010427220273,,,,,,,,,,,,
26013,0,USMichiganBaraga,Michigan,Baraga,2022-04-28 09:13:11,2020-06-28,0.2005841894518735,0.3727275509522459,0.740010427220273,,,,,,,,,,,,
26013,0,USMichiganBaraga,Michigan,Baraga,2022-04-28 09:13:11,2020-06-29,0.2005841894518735,0.3727275509522459,0.740010427220273,,,,,,,,,,,,
26013,0,USMichiganBaraga,Michigan,Baraga,2022-04-28 09:13:11,2020-06-30,0.2005841894518735,0.3727275509522459,0.740010427220273,,,,,,,,,,,,
26013,0,USMichiganBaraga,Michigan,Baraga,2022-04-28 09:13:11,2020-07-01,0.2005841894518735,0.3727275509522459,0.740010427220273,,,,,,,,,,,,
26013,0,USMichiganBaraga,Michigan,Baraga,2022-04-28 09:13:11,2020-07-02,0,0,0,,,,,,,,,,,,
26013,0,USMichiganBaraga,Michigan,Baraga,2022-04-28 09:13:11,2020-07-03,0,0,0,,,,,,,,,,,,
26013,0,USMichiganBaraga,Michigan,Baraga,2022-04-28 09:13:11,2020-07-04,0,0,0,,,,,,,,,,,,
26013,0,USMichiganBaraga,Michigan,Baraga,2022-04-28 09:13:11,2020-07-05,0,0,0,,,,,,,,,,,,
26013,0,USMichiganBaraga,Michigan,Baraga,2022-04-28 09:13:11,2020-07-06,0,0,0,,,,,,,,,,,,
26013,0,USMichiganBaraga,Michigan,Baraga,2022-04-28 09:13:11,2020-07-07,0,0,0,,,,,,,,,,,,
26013,0,USMichiganBaraga,Michigan,Baraga,2022-04-28 09:13:11,2020-07-08,0,0,0,,,,,,,,,,,,
26013,0,USMichiganBaraga,Michigan,Baraga,2022-04-28 09:13:11,2020-07-09,0.07287742848227897,0.1892428283471271,0.5287032987602043,,,,,,,,,,,,
26013,0,USMichiganBaraga,Michigan,Baraga,2022-04-28 09:13:11,2020-07-10,0.07287742848227897,0.1892428283471271,0.5287032987602043,,,,,,,,,,,,
26013,0,USMichiganBaraga,Michigan,Baraga,2022-04-28 09:13:11,2020-07-11,0.07287742848227897,0.1892428283471271,0.5287032987602043,,,,,,,,,,,,
26013,0,USMichiganBaraga,Michigan,Baraga,2022-04-28 09:13:11,2020-07-12,0.07287742848227897,0.1892428283471271,0.5287032987602043,,,,,,,,,,,,
26013,0,USMichiganBaraga,Michigan,Baraga,2022-04-28 09:13:11,2020-07-13,0.07287742848227897,0.1892428283471271,0.5287032987602043,,,,,,,,,,,,
26013,0,USMichiganBaraga,Michigan,Baraga,2022-04-28 09:13:11,2020-07-14,0.07287742848227897,0.1892428283471271,0.5287032987602043,,,,,,,,,,,,
26013,0,USMichiganBaraga,Michigan,Baraga,2022-04-28 09:13:11,2020-07-15,0.07287742848227897,0.1892428283471271,0.5287032987602043,,,,,,,,,,,,
26013,0,USMichiganBaraga,Michigan,Baraga,2022-04-28 09:13:11,2020-07-16,0,0,0,,,,,,,,,,,,
26013,0,USMichiganBaraga,Michigan,Baraga,2022-04-28 09:13:11,2020-07-17,0,0,0,,,,,,,,,,,,
26013,0,USMichiganBaraga,Michigan,Baraga,2022-04-28 09:13:11,2020-07-18,0,0,0,,,,,,,,,,,,
26013,0,USMichiganBaraga,Michigan,Baraga,2022-04-28 09:13:11,2020-07-19,0,0,0,,,,,,,,,,,,
26013,0,USMichiganBaraga,Michigan,Baraga,2022-04-28 09:13:11,2020-07-20,0,0,0,,,,,,,,,,,,
26013,0,USMichiganBaraga,Michigan,Baraga,2022-04-28 09:13:11,2020-07-21,0,0,0,,,,,,,,,,,,
26013,0,USMichiganBaraga,Michigan,Baraga,2022-04-28 09:13:11,2020-07-22,0,0,0,,,,,,,,,,,,
26013,0,USMichiganBaraga,Michigan,Baraga,2022-04-28 09:13:11,2020-07-23,0,0,0,,,,,,,,,,,,
26013,0,USMichiganBaraga,Michigan,Baraga,2022-04-28 09:13:11,2020-07-24,0,0,0,,,,,,,,,,,,
26013,0,USMichiganBaraga,Michigan,Baraga,2022-04-28 09:13:11,2020-07-25,0,0,0,,,,,,,,,,,,
26013,0,USMichiganBaraga,Michigan,Baraga,2022-04-28 09:13:11,2020-07-26,0,0,0,,,,,,,,,,,,
26013,0,USMichiganBaraga,Michigan,Baraga,2022-04-28 09:13:11,2020-07-27,0,0,0,,,,,,,,,,,,
26013,0,USMichiganBaraga,Michigan,Baraga,2022-04-28 09:13:11,2020-07-28,0,0,0,,,,,,,,,,,,
26013,0,USMichiganBaraga,Michigan,Baraga,2022-04-28 09:13:11,2020-07-29,0,0,0,,,,,,,,,,,,
26013,0,USMichiganBaraga,Michigan,Baraga,2022-04-28 09:13:11,2020-07-30,0,0,0,,,,,,,,,,,,
26013,0,USMichiganBaraga,Michigan,Baraga,2022-04-28 09:13:11,2020-07-31,0,0,0,,,,,,,,,,,,
26013,0,USMichiganBaraga,Michigan,Baraga,2022-04-28 09:13:11,2020-08-01,0,0,0,,,,,,,,,,,,
26013,0,USMichiganBaraga,Michigan,Baraga,2022-04-28 09:13:11,2020-08-02,0,0,0,,,,,,,,,,,,
26013,0,USMichiganBaraga,Michigan,Baraga,2022-04-28 09:13:11,2020-08-03,0,0,0,,,,,,,,,,,,
26013,0,USMichiganBaraga,Michigan,Baraga,2022-04-28 09:13:11,2020-08-04,0,0,0,,,,,,,,,,,,
26013,0,USMichiganBaraga,Michigan,Baraga,2022-04-28 09:13:11,2020-08-05,0,0,0,,,,,,,,,,,,
26013,0,USMichiganBaraga,Michigan,Baraga,2022-04-28 09:13:11,2020-08-06,0,0,0,,,,,,,,,,,,
26013,0,USMichiganBaraga,Michigan,Baraga,2022-04-28 09:13:11,2020-08-07,0,0,0,,,,,,,,,,,,
26013,0,USMichiganBaraga,Michigan,Baraga,2022-04-28 09:13:11,2020-08-08,0,0,0,,,,,,,,,,,,
26013,0,USMichiganBaraga,Michigan,Baraga,2022-04-28 09:13:11,2020-08-09,0,0,0,,,,,,,,,,,,
26013,0,USMichiganBaraga,Michigan,Baraga,2022-04-28 09:13:11,2020-08-10,0,0,0,,,,,,,,,,,,
26013,0,USMichiganBaraga,Michigan,Baraga,2022-04-28 09:13:11,2020-08-11,0,0,0,,,,,,,,,,,,
26013,0,USMichiganBaraga,Michigan,Baraga,2022-04-28 09:13:11,2020-08-12,0,0,0,,,,,,,,,,,,
26013,0,USMichiganBaraga,Michigan,Baraga,2022-04-28 09:13:11,2020-08-13,0.1665323497976307,0.339431623907164,0.7423087976067311,,,,,,,,,,,,
26013,0,USMichiganBaraga,Michigan,Baraga,2022-04-28 09:13:11,2020-08-14,0.1665323497976307,0.339431623907164,0.7423087976067311,,,,,,,,,,,,
26013,0,USMichiganBaraga,Michigan,Baraga,2022-04-28 09:13:11,2020-08-15,0.1665323497976307,0.339431623907164,0.7423087976067311,,,,,,,,,,,,
26013,0,USMichiganBaraga,Michigan,Baraga,2022-04-28 09:13:11,2020-08-16,0.1665323497976307,0.339431623907164,0.7423087976067311,,,,,,,,,,,,
26013,0,USMichiganBaraga,Michigan,Baraga,2022-04-28 09:13:11,2020-08-17,0.1665323497976307,0.339431623907164,0.7423087976067311,,,,,,,,,,,,
26013,0,USMichiganBaraga,Michigan,Baraga,2022-04-28 09:13:11,2020-08-18,0.1665323497976307,0.339431623907164,0.7423087976067311,,,,,,,,,,,,
26013,0,USMichiganBaraga,Michigan,Baraga,2022-04-28 09:13:11,2020-08-19,0.1665323497976307,0.339431623907164,0.7423087976067311,,,,,,,,,,,,
26013,0,USMichiganBaraga,Michigan,Baraga,2022-04-28 09:13:11,2020-08-20,0,0,0,,,,,,,,,,,,
26013,0,USMichiganBaraga,Michigan,Baraga,2022-04-28 09:13:11,2020-08-21,0,0,0,,,,,,,,,,,,
26013,0,USMichiganBaraga,Michigan,Baraga,2022-04-28 09:13:11,2020-08-22,0,0,0,,,,,,,,,,,,
26013,0,USMichiganBaraga,Michigan,Baraga,2022-04-28 09:13:11,2020-08-23,0,0,0,,,,,,,,,,,,
26013,0,USMichiganBaraga,Michigan,Baraga,2022-04-28 09:13:11,2020-08-24,0,0,0,,,,,,,,,,,,
26013,0,USMichiganBaraga,Michigan,Baraga,2022-04-28 09:13:11,2020-08-25,0,0,0,,,,,,,,,,,,
26013,0,USMichiganBaraga,Michigan,Baraga,2022-04-28 09:13:11,2020-08-26,0,0,0,,,,,,,,,,,,
26013,0,USMichiganBaraga,Michigan,Baraga,2022-04-28 09:13:11,2020-08-27,0,0,0,,,,,,,,,,,,
26013,0,USMichiganBaraga,Michigan,Baraga,2022-04-28 09:13:11,2020-08-28,0,0,0,,,,,,,,,,,,
26013,0,USMichiganBaraga,Michigan,Baraga,2022-04-28 09:13:11,2020-08-29,0,0,0,,,,,,,,,,,,
26013,0,USMichiganBaraga,Michigan,Baraga,2022-04-28 09:13:11,2020-08-30,0,0,0,,,,,,,,,,,,
26013,0,USMichiganBaraga,Michigan,Baraga,2022-04-28 09:13:11,2020-08-31,0,0,0,,,,,,,,,,,,
26013,0,USMichiganBaraga,Michigan,Baraga,2022-04-28 09:13:11,2020-09-01,0,0,0,,,,,,,,,,,,
26013,0,USMichiganBaraga,Michigan,Baraga,2022-04-28 09:13:11,2020-09-02,0,0,0,,,,,,,,,,,,
26013,0,USMichiganBaraga,Michigan,Baraga,2022-04-28 09:13:11,2020-09-03,0.25449520037069745,0.4793858895510201,0.9655336256513791,,,,,,,,,,,,
26013,0,USMichiganBaraga,Michigan,Baraga,2022-04-28 09:13:11,2020-09-04,0.25449520037069745,0.4793858895510201,0.9655336256513791,,,,,,,,,,,,
26013,0,USMichiganBaraga,Michigan,Baraga,2022-04-28 09:13:11,2020-09-05,0.25449520037069745,0.4793858895510201,0.9655336256513791,,,,,,,,,,,,
26013,0,USMichiganBaraga,Michigan,Baraga,2022-04-28 09:13:11,2020-09-06,0.25449520037069745,0.4793858895510201,0.9655336256513791,,,,,,,,,,,,
26013,0,USMichiganBaraga,Michigan,Baraga,2022-04-28 09:13:11,2020-09-07,0.25449520037069745,0.4793858895510201,0.9655336256513791,,,,,,,,,,,,
26013,0,USMichiganBaraga,Michigan,Baraga,2022-04-28 09:13:11,2020-09-08,0.25449520037069745,0.4793858895510201,0.9655336256513791,,,,,,,,,,,,
26013,0,USMichiganBaraga,Michigan,Baraga,2022-04-28 09:13:11,2020-09-09,0.25449520037069745,0.4793858895510201,0.9655336256513791,,,,,,,,,,,,
26013,0,USMichiganBaraga,Michigan,Baraga,2022-04-28 09:13:11,2020-09-10,0.21151417510517725,0.4125195477064235,0.861721140383583,,,,,,,,,,,,
26013,0,USMichiganBaraga,Michigan,Baraga,2022-04-28 09:13:11,2020-09-11,0.21151417510517725,0.4125195477064235,0.861721140383583,,,,,,,,,,,,
26013,0,USMichiganBaraga,Michigan,Baraga,2022-04-28 09:13:11,2020-09-12,0.21151417510517725,0.4125195477064235,0.861721140383583,,,,,,,,,,,,
26013,0,USMichiganBaraga,Michigan,Baraga,2022-04-28 09:13:11,2020-09-13,0.21151417510517725,0.4125195477064235,0.861721140383583,,,,,,,,,,,,
26013,0,USMichiganBaraga,Michigan,Baraga,2022-04-28 09:13:11,2020-09-14,0.21151417510517725,0.4125195477064235,0.861721140383583,,,,,,,,,,,,
26013,0,USMichiganBaraga,Michigan,Baraga,2022-04-28 09:13:11,2020-09-15,0.21151417510517725,0.4125195477064235,0.861721140383583,,,,,,,,,,,,
26013,0,USMichiganBaraga,Michigan,Baraga,2022-04-28 09:13:11,2020-09-16,0.21151417510517725,0.4125195477064235,0.861721140383583,,,,,,,,,,,,
26013,0,USMichiganBaraga,Michigan,Baraga,2022-04-28 09:13:11,2020-09-17,0.3246421580087152,0.5616052895920017,1.0331489874934734,,,,,,,,,,,,
26013,0,USMichiganBaraga,Michigan,Baraga,2022-04-28 09:13:11,2020-09-18,0.3246421580087152,0.5616052895920017,1.0331489874934734,,,,,,,,,,,,
26013,0,USMichiganBaraga,Michigan,Baraga,2022-04-28 09:13:11,2020-09-19,0.3246421580087152,0.5616052895920017,1.0331489874934734,,,,,,,,,,,,
26013,0,USMichiganBaraga,Michigan,Baraga,2022-04-28 09:13:11,2020-09-20,0.3246421580087152,0.5616052895920017,1.0331489874934734,,,,,,,,,,,,
26013,0,USMichiganBaraga,Michigan,Baraga,2022-04-28 09:13:11,2020-09-21,0.3246421580087152,0.5616052895920017,1.0331489874934734,,,,,,,,,,,,
26013,0,USMichiganBaraga,Michigan,Baraga,2022-04-28 09:13:11,2020-09-22,0.3246421580087152,0.5616052895920017,1.0331489874934734,,,,,,,,,,,,
26013,0,USMichiganBaraga,Michigan,Baraga,2022-04-28 09:13:11,2020-09-23,0.3246421580087152,0.5616052895920017,1.0331489874934734,,,,,,,,,,,,
26013,0,USMichiganBaraga,Michigan,Baraga,2022-04-28 09:13:11,2020-09-24,0.6388163796389705,0.963334601971203,1.5250911555565496,,,,,,,,,,,,
26013,0,USMichiganBaraga,Michigan,Baraga,2022-04-28 09:13:11,2020-09-25,0.6388163796389705,0.963334601971203,1.5250911555565496,,,,,,,,,,,,
26013,0,USMichiganBaraga,Michigan,Baraga,2022-04-28 09:13:11,2020-09-26,0.6388163796389705,0.963334601971203,1.5250911555565496,,,,,,,,,,,,
26013,0,USMichiganBaraga,Michigan,Baraga,2022-04-28 09:13:11,2020-09-27,0.6388163796389705,0.963334601971203,1.5250911555565496,,,,,,,,,,,,
26013,0,USMichiganBaraga,Michigan,Baraga,2022-04-28 09:13:11,2020-09-28,0.6388163796389705,0.963334601971203,1.5250911555565496,,,,,,,,,,,,
26013,0,USMichiganBaraga,Michigan,Baraga,2022-04-28 09:13:11,2020-09-29,0.6388163796389705,0.963334601971203,1.5250911555565496,,,,,,,,,,,,
26013,0,USMichiganBaraga,Michigan,Baraga,2022-04-28 09:13:11,2020-09-30,0.6388163796389705,0.963334601971203,1.5250911555565496,,,,,,,,,,,,
26013,0,USMichiganBaraga,Michigan,Baraga,2022-04-28 09:13:11,2020-10-01,0.5428356119382289,0.8528656411758866,1.412896734692155,,,,,,,,,,,,
26013,0,USMichiganBaraga,Michigan,Baraga,2022-04-28 09:13:11,2020-10-02,0.5428356119382289,0.8528656411758866,1.412896734692155,,,,,,,,,,,,
26013,0,USMichiganBaraga,Michigan,Baraga,2022-04-28 09:13:11,2020-10-03,0.5428356119382289,0.8528656411758866,1.412896734692155,,,,,,,,,,,,
26013,0,USMichiganBaraga,Michigan,Baraga,2022-04-28 09:13:11,2020-10-04,0.5428356119382289,0.8528656411758866,1.412896734692155,,,,,,,,,,,,
26013,0,USMichiganBaraga,Michigan,Baraga,2022-04-28 09:13:11,2020-10-05,0.5428356119382289,0.8528656411758866,1.412896734692155,,,,,,,,,,,,
26013,0,USMichiganBaraga,Michigan,Baraga,2022-04-28 09:13:11,2020-10-06,0.5428356119382289,0.8528656411758866,1.412896734692155,,,,,,,,,,,,
26013,0,USMichiganBaraga,Michigan,Baraga,2022-04-28 09:13:11,2020-10-07,0.5428356119382289,0.8528656411758866,1.412896734692155,,,,,,,,,,,,
26013,0,USMichiganBaraga,Michigan,Baraga,2022-04-28 09:13:11,2020-10-08,0.532691861318329,0.8852338291134432,1.559334278683818,,,,,,,,,,,,
26013,0,USMichiganBaraga,Michigan,Baraga,2022-04-28 09:13:11,2020-10-09,0.532691861318329,0.8852338291134432,1.559334278683818,,,,,,,,,,,,
26013,0,USMichiganBaraga,Michigan,Baraga,2022-04-28 09:13:11,2020-10-10,0.532691861318329,0.8852338291134432,1.559334278683818,,,,,,,,,,,,
26013,0,USMichiganBaraga,Michigan,Baraga,2022-04-28 09:13:11,2020-10-11,0.532691861318329,0.8852338291134432,1.559334278683818,,,,,,,,,,,,
26013,0,USMichiganBaraga,Michigan,Baraga,2022-04-28 09:13:11,2020-10-12,0.532691861318329,0.8852338291134432,1.559334278683818,,,,,,,,,,,,
26013,0,USMichiganBaraga,Michigan,Baraga,2022-04-28 09:13:11,2020-10-13,0.532691861318329,0.8852338291134432,1.559334278683818,,,,,,,,,,,,
26013,0,USMichiganBaraga,Michigan,Baraga,2022-04-28 09:13:11,2020-10-14,0.532691861318329,0.8852338291134432,1.559334278683818,,,,,,,,,,,,
26013,0,USMichiganBaraga,Michigan,Baraga,2022-04-28 09:13:11,2020-10-15,0.6284516330350683,1.0551245385050974,1.8793666557005484,,,,,,,,,,,,
26013,0,USMichiganBaraga,Michigan,Baraga,2022-04-28 09:13:11,2020-10-16,0.6284516330350683,1.0551245385050974,1.8793666557005484,,,,,,,,,,,,
26013,0,USMichiganBaraga,Michigan,Baraga,2022-04-28 09:13:11,2020-10-17,0.6284516330350683,1.0551245385050974,1.8793666557005484,,,,,,,,,,,,
26013,0,USMichiganBaraga,Michigan,Baraga,2022-04-28 09:13:11,2020-10-18,0.6284516330350683,1.0551245385050974,1.8793666557005484,,,,,,,,,,,,
26013,0,USMichiganBaraga,Michigan,Baraga,2022-04-28 09:13:11,2020-10-19,0.6284516330350683,1.0551245385050974,1.8793666557005484,,,,,,,,,,,,
26013,0,USMichiganBaraga,Michigan,Baraga,2022-04-28 09:13:11,2020-10-20,0.6284516330350683,1.0551245385050974,1.8793666557005484,,,,,,,,,,,,
26013,0,USMichiganBaraga,Michigan,Baraga,2022-04-28 09:13:11,2020-10-21,0.6284516330350683,1.0551245385050974,1.8793666557005484,,,,,,,,,,,,
26013,0,USMichiganBaraga,Michigan,Baraga,2022-04-28 09:13:11,2020-10-22,1.1373086576860183,1.8012064225699465,3.010328705350004,,,,,,,,,,,,
26013,0,USMichiganBaraga,Michigan,Baraga,2022-04-28 09:13:11,2020-10-23,1.1373086576860183,1.8012064225699465,3.010328705350004,,,,,,,,,,,,
26013,0,USMichiganBaraga,Michigan,Baraga,2022-04-28 09:13:11,2020-10-24,1.1373086576860183,1.8012064225699465,3.010328705350004,,,,,,,,,,,,
26013,0,USMichiganBaraga,Michigan,Baraga,2022-04-28 09:13:11,2020-10-25,1.1373086576860183,1.8012064225699465,3.010328705350004,,,,,,,,,,,,
26013,0,USMichiganBaraga,Michigan,Baraga,2022-04-28 09:13:11,2020-10-26,1.1373086576860183,1.8012064225699465,3.010328705350004,,,,,,,,,,,,
26013,0,USMichiganBaraga,Michigan,Baraga,2022-04-28 09:13:11,2020-10-27,1.1373086576860183,1.8012064225699465,3.010328705350004,,,,,,,,,,,,
26013,0,USMichiganBaraga,Michigan,Baraga,2022-04-28 09:13:11,2020-10-28,1.1373086576860183,1.8012064225699465,3.010328705350004,,,,,,,,,,,,
26013,0,USMichiganBaraga,Michigan,Baraga,2022-04-28 09:13:11,2020-10-29,1.9074102708216407,2.6632380716713966,3.8674912799102392,,,,,,,,,,,,
26013,0,USMichiganBaraga,Michigan,Baraga,2022-04-28 09:13:11,2020-10-30,1.9074102708216407,2.6632380716713966,3.8674912799102392,,,,,,,,,,,,
26013,0,USMichiganBaraga,Michigan,Baraga,2022-04-28 09:13:11,2020-10-31,1.9074102708216407,2.6632380716713966,3.8674912799102392,,,,,,,,,,,,
26013,0,USMichiganBaraga,Michigan,Baraga,2022-04-28 09:13:11,2020-11-01,1.9074102708216407,2.6632380716713966,3.8674912799102392,,,,,,,,,,,,
26013,0,USMichiganBaraga,Michigan,Baraga,2022-04-28 09:13:11,2020-11-02,1.9074102708216407,2.6632380716713966,3.8674912799102392,,,,,,,,,,,,
26013,0,USMichiganBaraga,Michigan,Baraga,2022-04-28 09:13:11,2020-11-03,1.9074102708216407,2.6632380716713966,3.8674912799102392,,,,,,,,,,,,
26013,0,USMichiganBaraga,Michigan,Baraga,2022-04-28 09:13:11,2020-11-04,1.9074102708216407,2.6632380716713966,3.8674912799102392,,,,,,,,,,,,
26013,0,USMichiganBaraga,Michigan,Baraga,2022-04-28 09:13:11,2020-11-05,3.4273534240429253,4.627293098628563,6.468387046665641,,,,,,,,,,,,
26013,0,USMichiganBaraga,Michigan,Baraga,2022-04-28 09:13:11,2020-11-06,3.4273534240429253,4.627293098628563,6.468387046665641,,,,,,,,,,,,
26013,0,USMichiganBaraga,Michigan,Baraga,2022-04-28 09:13:11,2020-11-07,3.4273534240429253,4.627293098628563,6.468387046665641,,,,,,,,,,,,
26013,0,USMichiganBaraga,Michigan,Baraga,2022-04-28 09:13:11,2020-11-08,3.4273534240429253,4.627293098628563,6.468387046665641,,,,,,,,,,,,
26013,0,USMichiganBaraga,Michigan,Baraga,2022-04-28 09:13:11,2020-11-09,3.4273534240429253,4.627293098628563,6.468387046665641,,,,,,,,,,,,
26013,0,USMichiganBaraga,Michigan,Baraga,2022-04-28 09:13:11,2020-11-10,3.4273534240429253,4.627293098628563,6.468387046665641,,,,,,,,,,,,
26013,0,USMichiganBaraga,Michigan,Baraga,2022-04-28 09:13:11,2020-11-11,3.4273534240429253,4.627293098628563,6.468387046665641,,,,,,,,,,,,
26013,0,USMichiganBaraga,Michigan,Baraga,2022-04-28 09:13:11,2020-11-12,3.801184438711949,5.156889480438439,7.248435068217882,,,,,,,,,,,,
26013,0,USMichiganBaraga,Michigan,Baraga,2022-04-28 09:13:11,2020-11-13,3.801184438711949,5.156889480438439,7.248435068217882,,,,,,,,,,,,
26013,0,USMichiganBaraga,Michigan,Baraga,2022-04-28 09:13:11,2020-11-14,3.801184438711949,5.156889480438439,7.248435068217882,,,,,,,,,,,,
26013,0,USMichiganBaraga,Michigan,Baraga,2022-04-28 09:13:11,2020-11-15,3.801184438711949,5.156889480438439,7.248435068217882,,,,,,,,,,,,
26013,0,USMichiganBaraga,Michigan,Baraga,2022-04-28 09:13:11,2020-11-16,3.801184438711949,5.156889480438439,7.248435068217882,,,,,,,,,,,,
26013,0,USMichiganBaraga,Michigan,Baraga,2022-04-28 09:13:11,2020-11-17,3.801184438711949,5.156889480438439,7.248435068217882,,,,,,,,,,,,
26013,0,USMichiganBaraga,Michigan,Baraga,2022-04-28 09:13:11,2020-11-18,3.801184438711949,5.156889480438439,7.248435068217882,,,,,,,,,,,,
26013,0,USMichiganBaraga,Michigan,Baraga,2022-04-28 09:13:11,2020-11-19,2.9773124630450045,4.16486461029325,6.06088997245644,,,,,,,,,,,,
26013,0,USMichiganBaraga,Michigan,Baraga,2022-04-28 09:13:11,2020-11-20,2.9773124630450045,4.16486461029325,6.06088997245644,,,,,,,,,,,,
26013,0,USMichiganBaraga,Michigan,Baraga,2022-04-28 09:13:11,2020-11-21,2.9773124630450045,4.16486461029325,6.06088997245644,,,,,,,,,,,,
26013,0,USMichiganBaraga,Michigan,Baraga,2022-04-28 09:13:11,2020-11-22,2.9773124630450045,4.16486461029325,6.06088997245644,,,,,,,,,,,,
26013,0,USMichiganBaraga,Michigan,Baraga,2022-04-28 09:13:11,2020-11-23,2.9773124630450045,4.16486461029325,6.06088997245644,,,,,,,,,,,,
26013,0,USMichiganBaraga,Michigan,Baraga,2022-04-28 09:13:11,2020-11-24,2.9773124630450045,4.16486461029325,6.06088997245644,,,,,,,,,,,,
26013,0,USMichiganBaraga,Michigan,Baraga,2022-04-28 09:13:11,2020-11-25,2.9773124630450045,4.16486461029325,6.06088997245644,,,,,,,,,,,,
26013,0,USMichiganBaraga,Michigan,Baraga,2022-04-28 09:13:11,2020-11-26,2.8776991921927344,4.343738876723286,6.884085428407288,,,,,,,,,,,,
26013,0,USMichiganBaraga,Michigan,Baraga,2022-04-28 09:13:11,2020-11-27,2.8776991921927344,4.343738876723286,6.884085428407288,,,,,,,,,,,,
26013,0,USMichiganBaraga,Michigan,Baraga,2022-04-28 09:13:11,2020-11-28,2.8776991921927344,4.343738876723286,6.884085428407288,,,,,,,,,,,,
26013,0,USMichiganBaraga,Michigan,Baraga,2022-04-28 09:13:11,2020-11-29,2.8776991921927344,4.343738876723286,6.884085428407288,,,,,,,,,,,,
26013,0,USMichiganBaraga,Michigan,Baraga,2022-04-28 09:13:11,2020-11-30,2.8776991921927344,4.343738876723286,6.884085428407288,,,,,,,,,,,,
26013,0,USMichiganBaraga,Michigan,Baraga,2022-04-28 09:13:11,2020-12-01,2.8776991921927344,4.343738876723286,6.884085428407288,,,,,,,,,,,,
26013,0,USMichiganBaraga,Michigan,Baraga,2022-04-28 09:13:11,2020-12-02,2.8776991921927344,4.343738876723286,6.884085428407288,,,,,,,,,,,,
26013,0,USMichiganBaraga,Michigan,Baraga,2022-04-28 09:13:11,2020-12-03,1.5903016169287405,2.6309823754703645,4.611978651554445,,,,,,,,,,,,
26013,0,USMichiganBaraga,Michigan,Baraga,2022-04-28 09:13:11,2020-12-04,1.5903016169287405,2.6309823754703645,4.611978651554445,,,,,,,,,,,,
26013,0,USMichiganBaraga,Michigan,Baraga,2022-04-28 09:13:11,2020-12-05,1.5903016169287405,2.6309823754703645,4.611978651554445,,,,,,,,,,,,
26013,0,USMichiganBaraga,Michigan,Baraga,2022-04-28 09:13:11,2020-12-06,1.5903016169287405,2.6309823754703645,4.611978651554445,,,,,,,,,,,,
26013,0,USMichiganBaraga,Michigan,Baraga,2022-04-28 09:13:11,2020-12-07,1.5903016169287405,2.6309823754703645,4.611978651554445,,,,,,,,,,,,
26013,0,USMichiganBaraga,Michigan,Baraga,2022-04-28 09:13:11,2020-12-08,1.5903016169287405,2.6309823754703645,4.611978651554445,,,,,,,,,,,,
26013,0,USMichiganBaraga,Michigan,Baraga,2022-04-28 09:13:11,2020-12-09,1.5903016169287405,2.6309823754703645,4.611978651554445,,,,,,,,,,,,
26013,0,USMichiganBaraga,Michigan,Baraga,2022-04-28 09:13:11,2020-12-10,1.0794521894805829,1.8878587286000563,3.5139108434679907,,,,,,,,,,,,
26013,0,USMichiganBaraga,Michigan,Baraga,2022-04-28 09:13:11,2020-12-11,1.0794521894805829,1.8878587286000563,3.5139108434679907,,,,,,,,,,,,
26013,0,USMichiganBaraga,Michigan,Baraga,2022-04-28 09:13:11,2020-12-12,1.0794521894805829,1.8878587286000563,3.5139108434679907,,,,,,,,,,,,
26013,0,USMichiganBaraga,Michigan,Baraga,2022-04-28 09:13:11,2020-12-13,1.0794521894805829,1.8878587286000563,3.5139108434679907,,,,,,,,,,,,
26013,0,USMichiganBaraga,Michigan,Baraga,2022-04-28 09:13:11,2020-12-14,1.0794521894805829,1.8878587286000563,3.5139108434679907,,,,,,,,,,,,
26013,0,USMichiganBaraga,Michigan,Baraga,2022-04-28 09:13:11,2020-12-15,1.0794521894805829,1.8878587286000563,3.5139108434679907,,,,,,,,,,,,
26013,0,USMichiganBaraga,Michigan,Baraga,2022-04-28 09:13:11,2020-12-16,1.0794521894805829,1.8878587286000563,3.5139108434679907,,,,,,,,,,,,
26013,0,USMichiganBaraga,Michigan,Baraga,2022-04-28 09:13:11,2020-12-17,0.7516395006434559,1.39576885824561,2.7691880466704917,,,,,,,,,,,,
26013,0,USMichiganBaraga,Michigan,Baraga,2022-04-28 09:13:11,2020-12-18,0.7516395006434559,1.39576885824561,2.7691880466704917,,,,,,,,,,,,
26013,0,USMichiganBaraga,Michigan,Baraga,2022-04-28 09:13:11,2020-12-19,0.7516395006434559,1.39576885824561,2.7691880466704917,,,,,,,,,,,,
26013,0,USMichiganBaraga,Michigan,Baraga,2022-04-28 09:13:11,2020-12-20,0.7516395006434559,1.39576885824561,2.7691880466704917,,,,,,,,,,,,
26013,0,USMichiganBaraga,Michigan,Baraga,2022-04-28 09:13:11,2020-12-21,0.7516395006434559,1.39576885824561,2.7691880466704917,,,,,,,,,,,,
26013,0,USMichiganBaraga,Michigan,Baraga,2022-04-28 09:13:11,2020-12-22,0.7516395006434559,1.39576885824561,2.7691880466704917,,,,,,,,,,,,
26013,0,USMichiganBaraga,Michigan,Baraga,2022-04-28 09:13:11,2020-12-23,0.7516395006434559,1.39576885824561,2.7691880466704917,,,,,,,,,,,,
26013,0,USMichiganBaraga,Michigan,Baraga,2022-04-28 09:13:11,2020-12-24,0.36760517430824613,0.8188593080026172,1.961523134120124,,,,,,,,,,,,
26013,0,USMichiganBaraga,Michigan,Baraga,2022-04-28 09:13:11,2020-12-25,0.36760517430824613,0.8188593080026172,1.961523134120124,,,,,,,,,,,,
26013,0,USMichiganBaraga,Michigan,Baraga,2022-04-28 09:13:11,2020-12-26,0.36760517430824613,0.8188593080026172,1.961523134120124,,,,,,,,,,,,
26013,0,USMichiganBaraga,Michigan,Baraga,2022-04-28 09:13:11,2020-12-27,0.36760517430824613,0.8188593080026172,1.961523134120124,,,,,,,,,,,,
26013,0,USMichiganBaraga,Michigan,Baraga,2022-04-28 09:13:11,2020-12-28,0.36760517430824613,0.8188593080026172,1.961523134120124,,,,,,,,,,,,
26013,0,USMichiganBaraga,Michigan,Baraga,2022-04-28 09:13:11,2020-12-29,0.36760517430824613,0.8188593080026172,1.961523134120124,,,,,,,,,,,,
26013,0,USMichiganBaraga,Michigan,Baraga,2022-04-28 09:13:11,2020-12-30,0.36760517430824613,0.8188593080026172,1.961523134120124,,,,,,,,,,,,
26013,0,USMichiganBaraga,Michigan,Baraga,2022-04-28 09:13:11,2020-12-31,0.8496764982723168,1.5741273948368475,3.1153226874640034,,,,,,,,,,,,
26013,0,USMichiganBaraga,Michigan,Baraga,2022-04-28 09:13:11,2021-01-01,0.8496764982723168,1.5741273948368475,3.1153226874640034,,,,,,,,,,,,
26013,0,USMichiganBaraga,Michigan,Baraga,2022-04-28 09:13:11,2021-01-02,0.8496764982723168,1.5741273948368475,3.1153226874640034,,,,,,,,,,,,
26013,0,USMichiganBaraga,Michigan,Baraga,2022-04-28 09:13:11,2021-01-03,0.8496764982723168,1.5741273948368475,3.1153226874640034,,,,,,,,,,,,
26013,0,USMichiganBaraga,Michigan,Baraga,2022-04-28 09:13:11,2021-01-04,0.8496764982723168,1.5741273948368475,3.1153226874640034,,,,,,,,,,,,
26013,0,USMichiganBaraga,Michigan,Baraga,2022-04-28 09:13:11,2021-01-05,0.8496764982723168,1.5741273948368475,3.1153226874640034,,,,,,,,,,,,
26013,0,USMichiganBaraga,Michigan,Baraga,2022-04-28 09:13:11,2021-01-06,0.8496764982723168,1.5741273948368475,3.1153226874640034,,,,,,,,,,,,
26013,0,USMichiganBaraga,Michigan,Baraga,2022-04-28 09:13:11,2021-01-07,0.315554849731766,0.7217673253250736,1.775971586874266,,,,,,,,,,,,
26013,0,USMichiganBaraga,Michigan,Baraga,2022-04-28 09:13:11,2021-01-08,0.315554849731766,0.7217673253250736,1.775971586874266,,,,,,,,,,,,
26013,0,USMichiganBaraga,Michigan,Baraga,2022-04-28 09:13:11,2021-01-09,0.315554849731766,0.7217673253250736,1.775971586874266,,,,,,,,,,,,
26013,0,USMichiganBaraga,Michigan,Baraga,2022-04-28 09:13:11,2021-01-10,0.315554849731766,0.7217673253250736,1.775971586874266,,,,,,,,,,,,
26013,0,USMichiganBaraga,Michigan,Baraga,2022-04-28 09:13:11,2021-01-11,0.315554849731766,0.7217673253250736,1.775971586874266,,,,,,,,,,,,
26013,0,USMichiganBaraga,Michigan,Baraga,2022-04-28 09:13:11,2021-01-12,0.315554849731766,0.7217673253250736,1.775971586874266,,,,,,,,,,,,
26013,0,USMichiganBaraga,Michigan,Baraga,2022-04-28 09:13:11,2021-01-13,0.315554849731766,0.7217673253250736,1.775971586874266,,,,,,,,,,,,
26013,0,USMichiganBaraga,Michigan,Baraga,2022-04-28 09:13:11,2021-01-14,0.3045629136671212,0.6749108783468656,1.6081780961351668,,,,,,,,,,,,
26013,0,USMichiganBaraga,Michigan,Baraga,2022-04-28 09:13:11,2021-01-15,0.3045629136671212,0.6749108783468656,1.6081780961351668,,,,,,,,,,,,
26013,0,USMichiganBaraga,Michigan,Baraga,2022-04-28 09:13:11,2021-01-16,0.3045629136671212,0.6749108783468656,1.6081780961351668,,,,,,,,,,,,
26013,0,USMichiganBaraga,Michigan,Baraga,2022-04-28 09:13:11,2021-01-17,0.3045629136671212,0.6749108783468656,1.6081780961351668,,,,,,,,,,,,
26013,0,USMichiganBaraga,Michigan,Baraga,2022-04-28 09:13:11,2021-01-18,0.3045629136671212,0.6749108783468656,1.6081780961351668,,,,,,,,,,,,
26013,0,USMichiganBaraga,Michigan,Baraga,2022-04-28 09:13:11,2021-01-19,0.3045629136671212,0.6749108783468656,1.6081780961351668,,,,,,,,,,,,
26013,0,USMichiganBaraga,Michigan,Baraga,2022-04-28 09:13:11,2021-01-20,0.3045629136671212,0.6749108783468656,1.6081780961351668,,,,,,,,,,,,
26013,0,USMichiganBaraga,Michigan,Baraga,2022-04-28 09:13:11,2021-01-21,0.2436626488468842,0.5399804384675237,1.2867250027321986,,,,,,,,,,,,
26013,0,USMichiganBaraga,Michigan,Baraga,2022-04-28 09:13:11,2021-01-22,0.2436626488468842,0.5399804384675237,1.2867250027321986,,,,,,,,,,,,
26013,0,USMichiganBaraga,Michigan,Baraga,2022-04-28 09:13:11,2021-01-23,0.2436626488468842,0.5399804384675237,1.2867250027321986,,,,,,,,,,,,
26013,0,USMichiganBaraga,Michigan,Baraga,2022-04-28 09:13:11,2021-01-24,0.2436626488468842,0.5399804384675237,1.2867250027321986,,,,,,,,,,,,
26013,0,USMichiganBaraga,Michigan,Baraga,2022-04-28 09:13:11,2021-01-25,0.2436626488468842,0.5399804384675237,1.2867250027321986,,,,,,,,,,,,
26013,0,USMichiganBaraga,Michigan,Baraga,2022-04-28 09:13:11,2021-01-26,0.2436626488468842,0.5399804384675237,1.2867250027321986,,,,,,,,,,,,
26013,0,USMichiganBaraga,Michigan,Baraga,2022-04-28 09:13:11,2021-01-27,0.2436626488468842,0.5399804384675237,1.2867250027321986,,,,,,,,,,,,
26013,0,USMichiganBaraga,Michigan,Baraga,2022-04-28 09:13:11,2021-01-28,0.5197633885586684,0.9146703618153016,1.7138438535431035,,,,,,,,,,,,
26013,0,USMichiganBaraga,Michigan,Baraga,2022-04-28 09:13:11,2021-01-29,0.5197633885586684,0.9146703618153016,1.7138438535431035,,,,,,,,,,,,
26013,0,USMichiganBaraga,Michigan,Baraga,2022-04-28 09:13:11,2021-01-30,0.5197633885586684,0.9146703618153016,1.7138438535431035,,,,,,,,,,,,
26013,0,USMichiganBaraga,Michigan,Baraga,2022-04-28 09:13:11,2021-01-31,0.5197633885586684,0.9146703618153016,1.7138438535431035,,,,,,,,,,,,
26013,0,USMichiganBaraga,Michigan,Baraga,2022-04-28 09:13:11,2021-02-01,0.5197633885586684,0.9146703618153016,1.7138438535431035,,,,,,,,,,,,
26013,0,USMichiganBaraga,Michigan,Baraga,2022-04-28 09:13:11,2021-02-02,0.5197633885586684,0.9146703618153016,1.7138438535431035,,,,,,,,,,,,
26013,0,USMichiganBaraga,Michigan,Baraga,2022-04-28 09:13:11,2021-02-03,0.5197633885586684,0.9146703618153016,1.7138438535431035,,,,,,,,,,,,
26013,0,USMichiganBaraga,Michigan,Baraga,2022-04-28 09:13:11,2021-02-04,0.4636090332678556,0.8017445384906403,1.4743986451720883,,,,,,,,,,,,
26013,0,USMichiganBaraga,Michigan,Baraga,2022-04-28 09:13:11,2021-02-05,0.4636090332678556,0.8017445384906403,1.4743986451720883,,,,,,,,,,,,
26013,0,USMichiganBaraga,Michigan,Baraga,2022-04-28 09:13:11,2021-02-06,0.4636090332678556,0.8017445384906403,1.4743986451720883,,,,,,,,,,,,
26013,0,USMichiganBaraga,Michigan,Baraga,2022-04-28 09:13:11,2021-02-07,0.4636090332678556,0.8017445384906403,1.4743986451720883,,,,,,,,,,,,
26013,0,USMichiganBaraga,Michigan,Baraga,2022-04-28 09:13:11,2021-02-08,0.4636090332678556,0.8017445384906403,1.4743986451720883,,,,,,,,,,,,
26013,0,USMichiganBaraga,Michigan,Baraga,2022-04-28 09:13:11,2021-02-09,0.4636090332678556,0.8017445384906403,1.4743986451720883,,,,,,,,,,,,
26013,0,USMichiganBaraga,Michigan,Baraga,2022-04-28 09:13:11,2021-02-10,0.4636090332678556,0.8017445384906403,1.4743986451720883,,,,,,,,,,,,
26013,0,USMichiganBaraga,Michigan,Baraga,2022-04-28 09:13:11,2021-02-11,0.22468313342814103,0.4628800253496943,1.0235309315454963,,,,,,,,,,,,
26013,0,USMichiganBaraga,Michigan,Baraga,2022-04-28 09:13:11,2021-02-12,0.22468313342814103,0.4628800253496943,1.0235309315454963,,,,,,,,,,,,
26013,0,USMichiganBaraga,Michigan,Baraga,2022-04-28 09:13:11,2021-02-13,0.22468313342814103,0.4628800253496943,1.0235309315454963,,,,,,,,,,,,
26013,0,USMichiganBaraga,Michigan,Baraga,2022-04-28 09:13:11,2021-02-14,0.22468313342814103,0.4628800253496943,1.0235309315454963,,,,,,,,,,,,
26013,0,USMichiganBaraga,Michigan,Baraga,2022-04-28 09:13:11,2021-02-15,0.22468313342814103,0.4628800253496943,1.0235309315454963,,,,,,,,,,,,
26013,0,USMichiganBaraga,Michigan,Baraga,2022-04-28 09:13:11,2021-02-16,0.22468313342814103,0.4628800253496943,1.0235309315454963,,,,,,,,,,,,
26013,0,USMichiganBaraga,Michigan,Baraga,2022-04-28 09:13:11,2021-02-17,0.22468313342814103,0.4628800253496943,1.0235309315454963,,,,,,,,,,,,
26013,0,USMichiganBaraga,Michigan,Baraga,2022-04-28 09:13:11,2021-02-18,0.2288351627446894,0.47929572610186966,1.07804975522789,,,,,,,,,,,,
26013,0,USMichiganBaraga,Michigan,Baraga,2022-04-28 09:13:11,2021-02-19,0.2288351627446894,0.47929572610186966,1.07804975522789,,,,,,,,,,,,
26013,0,USMichiganBaraga,Michigan,Baraga,2022-04-28 09:13:11,2021-02-20,0.2288351627446894,0.47929572610186966,1.07804975522789,,,,,,,,,,,,
26013,0,USMichiganBaraga,Michigan,Baraga,2022-04-28 09:13:11,2021-02-21,0.2288351627446894,0.47929572610186966,1.07804975522789,,,,,,,,,,,,
26013,0,USMichiganBaraga,Michigan,Baraga,2022-04-28 09:13:11,2021-02-22,0.2288351627446894,0.47929572610186966,1.07804975522789,,,,,,,,,,,,
26013,0,USMichiganBaraga,Michigan,Baraga,2022-04-28 09:13:11,2021-02-23,0.2288351627446894,0.47929572610186966,1.07804975522789,,,,,,,,,,,,
26013,0,USMichiganBaraga,Michigan,Baraga,2022-04-28 09:13:11,2021-02-24,0.2288351627446894,0.47929572610186966,1.07804975522789,,,,,,,,,,,,
26013,0,USMichiganBaraga,Michigan,Baraga,2022-04-28 09:13:11,2021-02-25,0.23248325602503048,0.49392893687755635,1.1273556762145187,,,,,,,,,,,,
26013,0,USMichiganBaraga,Michigan,Baraga,2022-04-28 09:13:11,2021-02-26,0.23248325602503048,0.49392893687755635,1.1273556762145187,,,,,,,,,,,,
26013,0,USMichiganBaraga,Michigan,Baraga,2022-04-28 09:13:11,2021-02-27,0.23248325602503048,0.49392893687755635,1.1273556762145187,,,,,,,,,,,,
26013,0,USMichiganBaraga,Michigan,Baraga,2022-04-28 09:13:11,2021-02-28,0.23248325602503048,0.49392893687755635,1.1273556762145187,,,,,,,,,,,,
26013,0,USMichiganBaraga,Michigan,Baraga,2022-04-28 09:13:11,2021-03-01,0.23248325602503048,0.49392893687755635,1.1273556762145187,,,,,,,,,,,,
26013,0,USMichiganBaraga,Michigan,Baraga,2022-04-28 09:13:11,2021-03-02,0.23248325602503048,0.49392893687755635,1.1273556762145187,,,,,,,,,,,,
26013,0,USMichiganBaraga,Michigan,Baraga,2022-04-28 09:13:11,2021-03-03,0.23248325602503048,0.49392893687755635,1.1273556762145187,,,,,,,,,,,,
26013,0,USMichiganBaraga,Michigan,Baraga,2022-04-28 09:13:11,2021-03-04,0.19613956161339408,0.46293654394651923,1.1757433582414305,,,,,,,,,,,,
26013,0,USMichiganBaraga,Michigan,Baraga,2022-04-28 09:13:11,2021-03-05,0.19613956161339408,0.46293654394651923,1.1757433582414305,,,,,,,,,,,,
26013,0,USMichiganBaraga,Michigan,Baraga,2022-04-28 09:13:11,2021-03-06,0.19613956161339408,0.46293654394651923,1.1757433582414305,,,,,,,,,,,,
26013,0,USMichiganBaraga,Michigan,Baraga,2022-04-28 09:13:11,2021-03-07,0.19613956161339408,0.46293654394651923,1.1757433582414305,,,,,,,,,,,,
26013,0,USMichiganBaraga,Michigan,Baraga,2022-04-28 09:13:11,2021-03-08,0.19613956161339408,0.46293654394651923,1.1757433582414305,,,,,,,,,,,,
26013,0,USMichiganBaraga,Michigan,Baraga,2022-04-28 09:13:11,2021-03-09,0.19613956161339408,0.46293654394651923,1.1757433582414305,,,,,,,,,,,,
26013,0,USMichiganBaraga,Michigan,Baraga,2022-04-28 09:13:11,2021-03-10,0.19613956161339408,0.46293654394651923,1.1757433582414305,,,,,,,,,,,,
26013,0,USMichiganBaraga,Michigan,Baraga,2022-04-28 09:13:11,2021-03-11,0.4098829030803536,0.8766783693668744,2.0147334306007845,,,,,,,,,,,,
26013,0,USMichiganBaraga,Michigan,Baraga,2022-04-28 09:13:11,2021-03-12,0.4098829030803536,0.8766783693668744,2.0147334306007845,,,,,,,,,,,,
26013,0,USMichiganBaraga,Michigan,Baraga,2022-04-28 09:13:11,2021-03-13,0.4098829030803536,0.8766783693668744,2.0147334306007845,,,,,,,,,,,,
26013,0,USMichiganBaraga,Michigan,Baraga,2022-04-28 09:13:11,2021-03-14,0.4098829030803536,0.8766783693668744,2.0147334306007845,,,,,,,,,,,,
26013,0,USMichiganBaraga,Michigan,Baraga,2022-04-28 09:13:11,2021-03-15,0.4098829030803536,0.8766783693668744,2.0147334306007845,,,,,,,,,,,,
26013,0,USMichiganBaraga,Michigan,Baraga,2022-04-28 09:13:11,2021-03-16,0.4098829030803536,0.8766783693668744,2.0147334306007845,,,,,,,,,,,,
26013,0,USMichiganBaraga,Michigan,Baraga,2022-04-28 09:13:11,2021-03-17,0.4098829030803536,0.8766783693668744,2.0147334306007845,,,,,,,,,,,,
26013,0,USMichiganBaraga,Michigan,Baraga,2022-04-28 09:13:11,2021-03-18,0.5400788631958592,1.180887186226106,2.7756782985736406,,,,,,,,,,,,
26013,0,USMichiganBaraga,Michigan,Baraga,2022-04-28 09:13:11,2021-03-19,0.5400788631958592,1.180887186226106,2.7756782985736406,,,,,,,,,,,,
26013,0,USMichiganBaraga,Michigan,Baraga,2022-04-28 09:13:11,2021-03-20,0.5400788631958592,1.180887186226106,2.7756782985736406,,,,,,,,,,,,
26013,0,USMichiganBaraga,Michigan,Baraga,2022-04-28 09:13:11,2021-03-21,0.5400788631958592,1.180887186226106,2.7756782985736406,,,,,,,,,,,,
26013,0,USMichiganBaraga,Michigan,Baraga,2022-04-28 09:13:11,2021-03-22,0.5400788631958592,1.180887186226106,2.7756782985736406,,,,,,,,,,,,
26013,0,USMichiganBaraga,Michigan,Baraga,2022-04-28 09:13:11,2021-03-23,0.5400788631958592,1.180887186226106,2.7756782985736406,,,,,,,,,,,,
26013,0,USMichiganBaraga,Michigan,Baraga,2022-04-28 09:13:11,2021-03-24,0.5400788631958592,1.180887186226106,2.7756782985736406,,,,,,,,,,,,
26013,0,USMichiganBaraga,Michigan,Baraga,2022-04-28 09:13:11,2021-03-25,0.3169306919739514,0.8848331428566235,2.655229115340414,,,,,,,,,,,,
26013,0,USMichiganBaraga,Michigan,Baraga,2022-04-28 09:13:11,2021-03-26,0.3169306919739514,0.8848331428566235,2.655229115340414,,,,,,,,,,,,
26013,0,USMichiganBaraga,Michigan,Baraga,2022-04-28 09:13:11,2021-03-27,0.3169306919739514,0.8848331428566235,2.655229115340414,,,,,,,,,,,,
26013,0,USMichiganBaraga,Michigan,Baraga,2022-04-28 09:13:11,2021-03-28,0.3169306919739514,0.8848331428566235,2.655229115340414,,,,,,,,,,,,
26013,0,USMichiganBaraga,Michigan,Baraga,2022-04-28 09:13:11,2021-03-29,0.3169306919739514,0.8848331428566235,2.655229115340414,,,,,,,,,,,,
26013,0,USMichiganBaraga,Michigan,Baraga,2022-04-28 09:13:11,2021-03-30,0.3169306919739514,0.8848331428566235,2.655229115340414,,,,,,,,,,,,
26013,0,USMichiganBaraga,Michigan,Baraga,2022-04-28 09:13:11,2021-03-31,0.3169306919739514,0.8848331428566235,2.655229115340414,,,,,,,,,,,,
26013,0,USMichiganBaraga,Michigan,Baraga,2022-04-28 09:13:11,2021-04-01,0.19871194910520434,0.6718096342053905,2.4286665110437964,,,,,,,,,,,,
26013,0,USMichiganBaraga,Michigan,Baraga,2022-04-28 09:13:11,2021-04-02,0.19871194910520434,0.6718096342053905,2.4286665110437964,,,,,,,,,,,,
26013,0,USMichiganBaraga,Michigan,Baraga,2022-04-28 09:13:11,2021-04-03,0.19871194910520434,0.6718096342053905,2.4286665110437964,,,,,,,,,,,,
26013,0,USMichiganBaraga,Michigan,Baraga,2022-04-28 09:13:11,2021-04-04,0.19871194910520434,0.6718096342053905,2.4286665110437964,,,,,,,,,,,,
26013,0,USMichiganBaraga,Michigan,Baraga,2022-04-28 09:13:11,2021-04-05,0.19871194910520434,0.6718096342053905,2.4286665110437964,,,,,,,,,,,,
26013,0,USMichiganBaraga,Michigan,Baraga,2022-04-28 09:13:11,2021-04-06,0.19871194910520434,0.6718096342053905,2.4286665110437964,,,,,,,,,,,,
26013,0,USMichiganBaraga,Michigan,Baraga,2022-04-28 09:13:11,2021-04-07,0.19871194910520434,0.6718096342053905,2.4286665110437964,,,,,,,,,,,,
26013,0,USMichiganBaraga,Michigan,Baraga,2022-04-28 09:13:11,2021-04-08,0.599423511268947,1.4381871485772615,3.713337150234043,,,,,,,,,,,,
26013,0,USMichiganBaraga,Michigan,Baraga,2022-04-28 09:13:11,2021-04-09,0.599423511268947,1.4381871485772615,3.713337150234043,,,,,,,,,,,,
26013,0,USMichiganBaraga,Michigan,Baraga,2022-04-28 09:13:11,2021-04-10,0.599423511268947,1.4381871485772615,3.713337150234043,,,,,,,,,,,,
26013,0,USMichiganBaraga,Michigan,Baraga,2022-04-28 09:13:11,2021-04-11,0.599423511268947,1.4381871485772615,3.713337150234043,,,,,,,,,,,,
26013,0,USMichiganBaraga,Michigan,Baraga,2022-04-28 09:13:11,2021-04-12,0.599423511268947,1.4381871485772615,3.713337150234043,,,,,,,,,,,,
26013,0,USMichiganBaraga,Michigan,Baraga,2022-04-28 09:13:11,2021-04-13,0.599423511268947,1.4381871485772615,3.713337150234043,,,,,,,,,,,,
26013,0,USMichiganBaraga,Michigan,Baraga,2022-04-28 09:13:11,2021-04-14,0.599423511268947,1.4381871485772615,3.713337150234043,,,,,,,,,,,,
26013,0,USMichiganBaraga,Michigan,Baraga,2022-04-28 09:13:11,2021-04-15,0.8024038870343346,1.683439759974729,3.79295186542985,,,,,,,,,,,,
26013,0,USMichiganBaraga,Michigan,Baraga,2022-04-28 09:13:11,2021-04-16,0.8024038870343346,1.683439759974729,3.79295186542985,,,,,,,,,,,,
26013,0,USMichiganBaraga,Michigan,Baraga,2022-04-28 09:13:11,2021-04-17,0.8024038870343346,1.683439759974729,3.79295186542985,,,,,,,,,,,,
26013,0,USMichiganBaraga,Michigan,Baraga,2022-04-28 09:13:11,2021-04-18,0.8024038870343346,1.683439759974729,3.79295186542985,,,,,,,,,,,,
26013,0,USMichiganBaraga,Michigan,Baraga,2022-04-28 09:13:11,2021-04-19,0.8024038870343346,1.683439759974729,3.79295186542985,,,,,,,,,,,,
26013,0,USMichiganBaraga,Michigan,Baraga,2022-04-28 09:13:11,2021-04-20,0.8024038870343346,1.683439759974729,3.79295186542985,,,,,,,,,,,,
26013,0,USMichiganBaraga,Michigan,Baraga,2022-04-28 09:13:11,2021-04-21,0.8024038870343346,1.683439759974729,3.79295186542985,,,,,,,,,,,,
26013,0,USMichiganBaraga,Michigan,Baraga,2022-04-28 09:13:11,2021-04-22,1.0762308364760604,1.95509035611564,3.789608362676438,,,,,,,,,,,,
26013,0,USMichiganBaraga,Michigan,Baraga,2022-04-28 09:13:11,2021-04-23,1.0762308364760604,1.95509035611564,3.789608362676438,,,,,,,,,,,,
26013,0,USMichiganBaraga,Michigan,Baraga,2022-04-28 09:13:11,2021-04-24,1.0762308364760604,1.95509035611564,3.789608362676438,,,,,,,,,,,,
26013,0,USMichiganBaraga,Michigan,Baraga,2022-04-28 09:13:11,2021-04-25,1.0762308364760604,1.95509035611564,3.789608362676438,,,,,,,,,,,,
26013,0,USMichiganBaraga,Michigan,Baraga,2022-04-28 09:13:11,2021-04-26,1.0762308364760604,1.95509035611564,3.789608362676438,,,,,,,,,,,,
26013,0,USMichiganBaraga,Michigan,Baraga,2022-04-28 09:13:11,2021-04-27,1.0762308364760604,1.95509035611564,3.789608362676438,,,,,,,,,,,,
26013,0,USMichiganBaraga,Michigan,Baraga,2022-04-28 09:13:11,2021-04-28,1.0762308364760604,1.95509035611564,3.789608362676438,,,,,,,,,,,,
26013,0,USMichiganBaraga,Michigan,Baraga,2022-04-28 09:13:11,2021-04-29,1.8345730756260539,2.7637506212666,4.370500325542817,,,,,,,,,,,,
26013,0,USMichiganBaraga,Michigan,Baraga,2022-04-28 09:13:11,2021-04-30,1.8345730756260539,2.7637506212666,4.370500325542817,,,,,,,,,,,,
26013,0,USMichiganBaraga,Michigan,Baraga,2022-04-28 09:13:11,2021-05-01,1.8345730756260539,2.7637506212666,4.370500325542817,,,,,,,,,,,,
26013,0,USMichiganBaraga,Michigan,Baraga,2022-04-28 09:13:11,2021-05-02,1.8345730756260539,2.7637506212666,4.370500325542817,,,,,,,,,,,,
26013,0,USMichiganBaraga,Michigan,Baraga,2022-04-28 09:13:11,2021-05-03,1.8345730756260539,2.7637506212666,4.370500325542817,,,,,,,,,,,,
26013,0,USMichiganBaraga,Michigan,Baraga,2022-04-28 09:13:11,2021-05-04,1.8345730756260539,2.7637506212666,4.370500325542817,,,,,,,,,,,,
26013,0,USMichiganBaraga,Michigan,Baraga,2022-04-28 09:13:11,2021-05-05,1.8345730756260539,2.7637506212666,4.370500325542817,,,,,,,,,,,,
26013,0,USMichiganBaraga,Michigan,Baraga,2022-04-28 09:13:11,2021-05-06,1.5279293144918518,2.376279924788244,3.8927476454514873,,,,,,,,,,,,
26013,0,USMichiganBaraga,Michigan,Baraga,2022-04-28 09:13:11,2021-05-07,1.5279293144918518,2.376279924788244,3.8927476454514873,,,,,,,,,,,,
26013,0,USMichiganBaraga,Michigan,Baraga,2022-04-28 09:13:11,2021-05-08,1.5279293144918518,2.376279924788244,3.8927476454514873,,,,,,,,,,,,
26013,0,USMichiganBaraga,Michigan,Baraga,2022-04-28 09:13:11,2021-05-09,1.5279293144918518,2.376279924788244,3.8927476454514873,,,,,,,,,,,,
26013,0,USMichiganBaraga,Michigan,Baraga,2022-04-28 09:13:11,2021-05-10,1.5279293144918518,2.376279924788244,3.8927476454514873,,,,,,,,,,,,
26013,0,USMichiganBaraga,Michigan,Baraga,2022-04-28 09:13:11,2021-05-11,1.5279293144918518,2.376279924788244,3.8927476454514873,,,,,,,,,,,,
26013,0,USMichiganBaraga,Michigan,Baraga,2022-04-28 09:13:11,2021-05-12,1.5279293144918518,2.376279924788244,3.8927476454514873,,,,,,,,,,,,
26013,0,USMichiganBaraga,Michigan,Baraga,2022-04-28 09:13:11,2021-05-13,1.0711025179480145,1.6621479134923192,2.7162703543111317,,,,,,,,,,,,
26013,0,USMichiganBaraga,Michigan,Baraga,2022-04-28 09:13:11,2021-05-14,1.0711025179480145,1.6621479134923192,2.7162703543111317,,,,,,,,,,,,
26013,0,USMichiganBaraga,Michigan,Baraga,2022-04-28 09:13:11,2021-05-15,1.0711025179480145,1.6621479134923192,2.7162703543111317,,,,,,,,,,,,
26013,0,USMichiganBaraga,Michigan,Baraga,2022-04-28 09:13:11,2021-05-16,1.0711025179480145,1.6621479134923192,2.7162703543111317,,,,,,,,,,,,
26013,0,USMichiganBaraga,Michigan,Baraga,2022-04-28 09:13:11,2021-05-17,1.0711025179480145,1.6621479134923192,2.7162703543111317,,,,,,,,,,,,
26013,0,USMichiganBaraga,Michigan,Baraga,2022-04-28 09:13:11,2021-05-18,1.0711025179480145,1.6621479134923192,2.7162703543111317,,,,,,,,,,,,
26013,0,USMichiganBaraga,Michigan,Baraga,2022-04-28 09:13:11,2021-05-19,1.0711025179480145,1.6621479134923192,2.7162703543111317,,,,,,,,,,,,
26013,0,USMichiganBaraga,Michigan,Baraga,2022-04-28 09:13:11,2021-05-20,0.549049173932172,0.9380941971045853,1.7028354099361918,,,,,,,,,,,,
26013,0,USMichiganBaraga,Michigan,Baraga,2022-04-28 09:13:11,2021-05-21,0.549049173932172,0.9380941971045853,1.7028354099361918,,,,,,,,,,,,
26013,0,USMichiganBaraga,Michigan,Baraga,2022-04-28 09:13:11,2021-05-22,0.549049173932172,0.9380941971045853,1.7028354099361918,,,,,,,,,,,,
26013,0,USMichiganBaraga,Michigan,Baraga,2022-04-28 09:13:11,2021-05-23,0.549049173932172,0.9380941971045853,1.7028354099361918,,,,,,,,,,,,
26013,0,USMichiganBaraga,Michigan,Baraga,2022-04-28 09:13:11,2021-05-24,0.549049173932172,0.9380941971045853,1.7028354099361918,,,,,,,,,,,,
26013,0,USMichiganBaraga,Michigan,Baraga,2022-04-28 09:13:11,2021-05-25,0.549049173932172,0.9380941971045853,1.7028354099361918,,,,,,,,,,,,
26013,0,USMichiganBaraga,Michigan,Baraga,2022-04-28 09:13:11,2021-05-26,0.549049173932172,0.9380941971045853,1.7028354099361918,,,,,,,,,,,,
26013,0,USMichiganBaraga,Michigan,Baraga,2022-04-28 09:13:11,2021-05-27,0.6517210962940884,0.9470828220253203,1.4386487864907123,,,,,,,,,,,,
26013,0,USMichiganBaraga,Michigan,Baraga,2022-04-28 09:13:11,2021-05-28,0.6517210962940884,0.9470828220253203,1.4386487864907123,,,,,,,,,,,,
26013,0,USMichiganBaraga,Michigan,Baraga,2022-04-28 09:13:11,2021-05-29,0.6517210962940884,0.9470828220253203,1.4386487864907123,,,,,,,,,,,,
26013,0,USMichiganBaraga,Michigan,Baraga,2022-04-28 09:13:11,2021-05-30,0.6517210962940884,0.9470828220253203,1.4386487864907123,,,,,,,,,,,,
26013,0,USMichiganBaraga,Michigan,Baraga,2022-04-28 09:13:11,2021-05-31,0.6517210962940884,0.9470828220253203,1.4386487864907123,,,,,,,,,,,,
26013,0,USMichiganBaraga,Michigan,Baraga,2022-04-28 09:13:11,2021-06-01,0.6517210962940884,0.9470828220253203,1.4386487864907123,,,,,,,,,,,,
26013,0,USMichiganBaraga,Michigan,Baraga,2022-04-28 09:13:11,2021-06-02,0.6517210962940884,0.9470828220253203,1.4386487864907123,,,,,,,,,,,,
26013,0,USMichiganBaraga,Michigan,Baraga,2022-04-28 09:13:11,2021-06-03,0.15539888702020108,0.29744085972714757,0.6092371908226498,,,,,,,,,,,,
26013,0,USMichiganBaraga,Michigan,Baraga,2022-04-28 09:13:11,2021-06-04,0.15539888702020108,0.29744085972714757,0.6092371908226498,,,,,,,,,,,,
26013,0,USMichiganBaraga,Michigan,Baraga,2022-04-28 09:13:11,2021-06-05,0.15539888702020108,0.29744085972714757,0.6092371908226498,,,,,,,,,,,,
26013,0,USMichiganBaraga,Michigan,Baraga,2022-04-28 09:13:11,2021-06-06,0.15539888702020108,0.29744085972714757,0.6092371908226498,,,,,,,,,,,,
26013,0,USMichiganBaraga,Michigan,Baraga,2022-04-28 09:13:11,2021-06-07,0.15539888702020108,0.29744085972714757,0.6092371908226498,,,,,,,,,,,,
26013,0,USMichiganBaraga,Michigan,Baraga,2022-04-28 09:13:11,2021-06-08,0.15539888702020108,0.29744085972714757,0.6092371908226498,,,,,,,,,,,,
26013,0,USMichiganBaraga,Michigan,Baraga,2022-04-28 09:13:11,2021-06-09,0.15539888702020108,0.29744085972714757,0.6092371908226498,,,,,,,,,,,,
26013,0,USMichiganBaraga,Michigan,Baraga,2022-04-28 09:13:11,2021-06-10,0.06294150549687172,0.14362128698756538,0.35253705583229666,,,,,,,,,,,,
26013,0,USMichiganBaraga,Michigan,Baraga,2022-04-28 09:13:11,2021-06-11,0.06294150549687172,0.14362128698756538,0.35253705583229666,,,,,,,,,,,,
26013,0,USMichiganBaraga,Michigan,Baraga,2022-04-28 09:13:11,2021-06-12,0.06294150549687172,0.14362128698756538,0.35253705583229666,,,,,,,,,,,,
26013,0,USMichiganBaraga,Michigan,Baraga,2022-04-28 09:13:11,2021-06-13,0.06294150549687172,0.14362128698756538,0.35253705583229666,,,,,,,,,,,,
26013,0,USMichiganBaraga,Michigan,Baraga,2022-04-28 09:13:11,2021-06-14,0.06294150549687172,0.14362128698756538,0.35253705583229666,,,,,,,,,,,,
26013,0,USMichiganBaraga,Michigan,Baraga,2022-04-28 09:13:11,2021-06-15,0.06294150549687172,0.14362128698756538,0.35253705583229666,,,,,,,,,,,,
26013,0,USMichiganBaraga,Michigan,Baraga,2022-04-28 09:13:11,2021-06-16,0.06294150549687172,0.14362128698756538,0.35253705583229666,,,,,,,,,,,,
26013,0,USMichiganBaraga,Michigan,Baraga,2022-04-28 09:13:11,2021-06-17,0.16766409663678553,0.2643436872544635,0.4396105652028928,,,,,,,,,,,,
26013,0,USMichiganBaraga,Michigan,Baraga,2022-04-28 09:13:11,2021-06-18,0.16766409663678553,0.2643436872544635,0.4396105652028928,,,,,,,,,,,,
26013,0,USMichiganBaraga,Michigan,Baraga,2022-04-28 09:13:11,2021-06-19,0.16766409663678553,0.2643436872544635,0.4396105652028928,,,,,,,,,,,,
26013,0,USMichiganBaraga,Michigan,Baraga,2022-04-28 09:13:11,2021-06-20,0.16766409663678553,0.2643436872544635,0.4396105652028928,,,,,,,,,,,,
26013,0,USMichiganBaraga,Michigan,Baraga,2022-04-28 09:13:11,2021-06-21,0.16766409663678553,0.2643436872544635,0.4396105652028928,,,,,,,,,,,,
26013,0,USMichiganBaraga,Michigan,Baraga,2022-04-28 09:13:11,2021-06-22,0.16766409663678553,0.2643436872544635,0.4396105652028928,,,,,,,,,,,,
26013,0,USMichiganBaraga,Michigan,Baraga,2022-04-28 09:13:11,2021-06-23,0.16766409663678553,0.2643436872544635,0.4396105652028928,,,,,,,,,,,,
26013,0,USMichiganBaraga,Michigan,Baraga,2022-04-28 09:13:11,2021-06-24,0.14098634333258578,0.246873846838802,0.4601153007880841,,,,,,,,,,,,
26013,0,USMichiganBaraga,Michigan,Baraga,2022-04-28 09:13:11,2021-06-25,0.14098634333258578,0.246873846838802,0.4601153007880841,,,,,,,,,,,,
26013,0,USMichiganBaraga,Michigan,Baraga,2022-04-28 09:13:11,2021-06-26,0.14098634333258578,0.246873846838802,0.4601153007880841,,,,,,,,,,,,
26013,0,USMichiganBaraga,Michigan,Baraga,2022-04-28 09:13:11,2021-06-27,0.14098634333258578,0.246873846838802,0.4601153007880841,,,,,,,,,,,,
26013,0,USMichiganBaraga,Michigan,Baraga,2022-04-28 09:13:11,2021-06-28,0.14098634333258578,0.246873846838802,0.4601153007880841,,,,,,,,,,,,
26013,0,USMichiganBaraga,Michigan,Baraga,2022-04-28 09:13:11,2021-06-29,0.14098634333258578,0.246873846838802,0.4601153007880841,,,,,,,,,,,,
26013,0,USMichiganBaraga,Michigan,Baraga,2022-04-28 09:13:11,2021-06-30,0.14098634333258578,0.246873846838802,0.4601153007880841,,,,,,,,,,,,
26013,0,USMichiganBaraga,Michigan,Baraga,2022-04-28 09:13:11,2021-07-01,0,0,0,,,,,,,,,,,,
26013,0,USMichiganBaraga,Michigan,Baraga,2022-04-28 09:13:11,2021-07-02,0,0,0,,,,,,,,,,,,
26013,0,USMichiganBaraga,Michigan,Baraga,2022-04-28 09:13:11,2021-07-03,0,0,0,,,,,,,,,,,,
26013,0,USMichiganBaraga,Michigan,Baraga,2022-04-28 09:13:11,2021-07-04,0,0,0,,,,,,,,,,,,
26013,0,USMichiganBaraga,Michigan,Baraga,2022-04-28 09:13:11,2021-07-05,0,0,0,,,,,,,,,,,,
26013,0,USMichiganBaraga,Michigan,Baraga,2022-04-28 09:13:11,2021-07-06,0,0,0,,,,,,,,,,,,
26013,0,USMichiganBaraga,Michigan,Baraga,2022-04-28 09:13:11,2021-07-07,0,0,0,,,,,,,,,,,,
26013,0,USMichiganBaraga,Michigan,Baraga,2022-04-28 09:13:11,2021-07-08,0,0,0,,,,,,,,,,,,
26013,0,USMichiganBaraga,Michigan,Baraga,2022-04-28 09:13:11,2021-07-09,0,0,0,,,,,,,,,,,,
26013,0,USMichiganBaraga,Michigan,Baraga,2022-04-28 09:13:11,2021-07-10,0,0,0,,,,,,,,,,,,
26013,0,USMichiganBaraga,Michigan,Baraga,2022-04-28 09:13:11,2021-07-11,0,0,0,,,,,,,,,,,,
26013,0,USMichiganBaraga,Michigan,Baraga,2022-04-28 09:13:11,2021-07-12,0,0,0,,,,,,,,,,,,
26013,0,USMichiganBaraga,Michigan,Baraga,2022-04-28 09:13:11,2021-07-13,0,0,0,,,,,,,,,,,,
26013,0,USMichiganBaraga,Michigan,Baraga,2022-04-28 09:13:11,2021-07-14,0,0,0,,,,,,,,,,,,
26013,0,USMichiganBaraga,Michigan,Baraga,2022-04-28 09:13:11,2021-07-15,0,0,0,,,,,,,,,,,,
26013,0,USMichiganBaraga,Michigan,Baraga,2022-04-28 09:13:11,2021-07-16,0,0,0,,,,,,,,,,,,
26013,0,USMichiganBaraga,Michigan,Baraga,2022-04-28 09:13:11,2021-07-17,0,0,0,,,,,,,,,,,,
26013,0,USMichiganBaraga,Michigan,Baraga,2022-04-28 09:13:11,2021-07-18,0,0,0,,,,,,,,,,,,
26013,0,USMichiganBaraga,Michigan,Baraga,2022-04-28 09:13:11,2021-07-19,0,0,0,,,,,,,,,,,,
26013,0,USMichiganBaraga,Michigan,Baraga,2022-04-28 09:13:11,2021-07-20,0,0,0,,,,,,,,,,,,
26013,0,USMichiganBaraga,Michigan,Baraga,2022-04-28 09:13:11,2021-07-21,0,0,0,,,,,,,,,,,,
26013,0,USMichiganBaraga,Michigan,Baraga,2022-04-28 09:13:11,2021-07-22,0,0,0,,,,,,,,,,,,
26013,0,USMichiganBaraga,Michigan,Baraga,2022-04-28 09:13:11,2021-07-23,0,0,0,,,,,,,,,,,,
26013,0,USMichiganBaraga,Michigan,Baraga,2022-04-28 09:13:11,2021-07-24,0,0,0,,,,,,,,,,,,
26013,0,USMichiganBaraga,Michigan,Baraga,2022-04-28 09:13:11,2021-07-25,0,0,0,,,,,,,,,,,,
26013,0,USMichiganBaraga,Michigan,Baraga,2022-04-28 09:13:11,2021-07-26,0,0,0,,,,,,,,,,,,
26013,0,USMichiganBaraga,Michigan,Baraga,2022-04-28 09:13:11,2021-07-27,0,0,0,,,,,,,,,,,,
26013,0,USMichiganBaraga,Michigan,Baraga,2022-04-28 09:13:11,2021-07-28,0,0,0,,,,,,,,,,,,
26013,0,USMichiganBaraga,Michigan,Baraga,2022-04-28 09:13:11,2021-07-29,0.0922069459450291,0.09364561608212699,0.09513188913245137,,,,,,,,,,,,
26013,0,USMichiganBaraga,Michigan,Baraga,2022-04-28 09:13:11,2021-07-30,0.0922069459450291,0.09364561608212699,0.09513188913245137,,,,,,,,,,,,
26013,0,USMichiganBaraga,Michigan,Baraga,2022-04-28 09:13:11,2021-07-31,0.0922069459450291,0.09364561608212699,0.09513188913245137,,,,,,,,,,,,
26013,0,USMichiganBaraga,Michigan,Baraga,2022-04-28 09:13:11,2021-08-01,0.0922069459450291,0.09364561608212699,0.09513188913245137,,,,,,,,,,,,
26013,0,USMichiganBaraga,Michigan,Baraga,2022-04-28 09:13:11,2021-08-02,0.0922069459450291,0.09364561608212699,0.09513188913245137,,,,,,,,,,,,
26013,0,USMichiganBaraga,Michigan,Baraga,2022-04-28 09:13:11,2021-08-03,0.0922069459450291,0.09364561608212699,0.09513188913245137,,,,,,,,,,,,
26013,0,USMichiganBaraga,Michigan,Baraga,2022-04-28 09:13:11,2021-08-04,0.0922069459450291,0.09364561608212699,0.09513188913245137,,,,,,,,,,,,
26013,0,USMichiganBaraga,Michigan,Baraga,2022-04-28 09:13:11,2021-08-05,0.5398427362518092,1.310303544209476,3.4225929897189262,,,,,,,,,,,,
26013,0,USMichiganBaraga,Michigan,Baraga,2022-04-28 09:13:11,2021-08-06,0.5398427362518092,1.310303544209476,3.4225929897189262,,,,,,,,,,,,
26013,0,USMichiganBaraga,Michigan,Baraga,2022-04-28 09:13:11,2021-08-07,0.5398427362518092,1.310303544209476,3.4225929897189262,,,,,,,,,,,,
26013,0,USMichiganBaraga,Michigan,Baraga,2022-04-28 09:13:11,2021-08-08,0.5398427362518092,1.310303544209476,3.4225929897189262,,,,,,,,,,,,
26013,0,USMichiganBaraga,Michigan,Baraga,2022-04-28 09:13:11,2021-08-09,0.5398427362518092,1.310303544209476,3.4225929897189262,,,,,,,,,,,,
26013,0,USMichiganBaraga,Michigan,Baraga,2022-04-28 09:13:11,2021-08-10,0.5398427362518092,1.310303544209476,3.4225929897189262,,,,,,,,,,,,
26013,0,USMichiganBaraga,Michigan,Baraga,2022-04-28 09:13:11,2021-08-11,0.5398427362518092,1.310303544209476,3.4225929897189262,,,,,,,,,,,,
26013,0,USMichiganBaraga,Michigan,Baraga,2022-04-28 09:13:11,2021-08-12,0.26868446110553407,0.6495104888859732,1.6896843163925177,,,,,,,,,,,,
26013,0,USMichiganBaraga,Michigan,Baraga,2022-04-28 09:13:11,2021-08-13,0.26868446110553407,0.6495104888859732,1.6896843163925177,,,,,,,,,,,,
26013,0,USMichiganBaraga,Michigan,Baraga,2022-04-28 09:13:11,2021-08-14,0.26868446110553407,0.6495104888859732,1.6896843163925177,,,,,,,,,,,,
26013,0,USMichiganBaraga,Michigan,Baraga,2022-04-28 09:13:11,2021-08-15,0.26868446110553407,0.6495104888859732,1.6896843163925177,,,,,,,,,,,,
26013,0,USMichiganBaraga,Michigan,Baraga,2022-04-28 09:13:11,2021-08-16,0.26868446110553407,0.6495104888859732,1.6896843163925177,,,,,,,,,,,,
26013,0,USMichiganBaraga,Michigan,Baraga,2022-04-28 09:13:11,2021-08-17,0.26868446110553407,0.6495104888859732,1.6896843163925177,,,,,,,,,,,,
26013,0,USMichiganBaraga,Michigan,Baraga,2022-04-28 09:13:11,2021-08-18,0.26868446110553407,0.6495104888859732,1.6896843163925177,,,,,,,,,,,,
26013,0,USMichiganBaraga,Michigan,Baraga,2022-04-28 09:13:11,2021-08-19,1.2907460802038033,3.4733202319909653,10.051780722463983,,,,,,,,,,,,
26013,0,USMichiganBaraga,Michigan,Baraga,2022-04-28 09:13:11,2021-08-20,1.2907460802038033,3.4733202319909653,10.051780722463983,,,,,,,,,,,,
26013,0,USMichiganBaraga,Michigan,Baraga,2022-04-28 09:13:11,2021-08-21,1.2907460802038033,3.4733202319909653,10.051780722463983,,,,,,,,,,,,
26013,0,USMichiganBaraga,Michigan,Baraga,2022-04-28 09:13:11,2021-08-22,1.2907460802038033,3.4733202319909653,10.051780722463983,,,,,,,,,,,,
26013,0,USMichiganBaraga,Michigan,Baraga,2022-04-28 09:13:11,2021-08-23,1.2907460802038033,3.4733202319909653,10.051780722463983,,,,,,,,,,,,
26013,0,USMichiganBaraga,Michigan,Baraga,2022-04-28 09:13:11,2021-08-24,1.2907460802038033,3.4733202319909653,10.051780722463983,,,,,,,,,,,,
26013,0,USMichiganBaraga,Michigan,Baraga,2022-04-28 09:13:11,2021-08-25,1.2907460802038033,3.4733202319909653,10.051780722463983,,,,,,,,,,,,
26013,0,USMichiganBaraga,Michigan,Baraga,2022-04-28 09:13:11,2021-08-26,2.3332559191003646,6.410719726296741,18.937051635668126,,,,,,,,,,,,
26013,0,USMichiganBaraga,Michigan,Baraga,2022-04-28 09:13:11,2021-08-27,2.3332559191003646,6.410719726296741,18.937051635668126,,,,,,,,,,,,
26013,0,USMichiganBaraga,Michigan,Baraga,2022-04-28 09:13:11,2021-08-28,2.3332559191003646,6.410719726296741,18.937051635668126,,,,,,,,,,,,
26013,0,USMichiganBaraga,Michigan,Baraga,2022-04-28 09:13:11,2021-08-29,2.3332559191003646,6.410719726296741,18.937051635668126,,,,,,,,,,,,
26013,0,USMichiganBaraga,Michigan,Baraga,2022-04-28 09:13:11,2021-08-30,2.3332559191003646,6.410719726296741,18.937051635668126,,,,,,,,,,,,
26013,0,USMichiganBaraga,Michigan,Baraga,2022-04-28 09:13:11,2021-08-31,2.3332559191003646,6.410719726296741,18.937051635668126,,,,,,,,,,,,
26013,0,USMichiganBaraga,Michigan,Baraga,2022-04-28 09:13:11,2021-09-01,2.3332559191003646,6.410719726296741,18.937051635668126,,,,,,,,,,,,
26013,0,USMichiganBaraga,Michigan,Baraga,2022-04-28 09:13:11,2021-09-02,1.6247912737346857,3.44704509962295,7.856042907846719,,,,,,,,,,,,
26013,0,USMichiganBaraga,Michigan,Baraga,2022-04-28 09:13:11,2021-09-03,1.6247912737346857,3.44704509962295,7.856042907846719,,,,,,,,,,,,
26013,0,USMichiganBaraga,Michigan,Baraga,2022-04-28 09:13:11,2021-09-04,1.6247912737346857,3.44704509962295,7.856042907846719,,,,,,,,,,,,
26013,0,USMichiganBaraga,Michigan,Baraga,2022-04-28 09:13:11,2021-09-05,1.6247912737346857,3.44704509962295,7.856042907846719,,,,,,,,,,,,
26013,0,USMichiganBaraga,Michigan,Baraga,2022-04-28 09:13:11,2021-09-06,1.6247912737346857,3.44704509962295,7.856042907846719,,,,,,,,,,,,
26013,0,USMichiganBaraga,Michigan,Baraga,2022-04-28 09:13:11,2021-09-07,1.6247912737346857,3.44704509962295,7.856042907846719,,,,,,,,,,,,
26013,0,USMichiganBaraga,Michigan,Baraga,2022-04-28 09:13:11,2021-09-08,1.6247912737346857,3.44704509962295,7.856042907846719,,,,,,,,,,,,
26013,0,USMichiganBaraga,Michigan,Baraga,2022-04-28 09:13:11,2021-09-09,1.6343843775791147,4.151405884059481,11.34674532049288,,,,,,,,,,,,
26013,0,USMichiganBaraga,Michigan,Baraga,2022-04-28 09:13:11,2021-09-10,1.6343843775791147,4.151405884059481,11.34674532049288,,,,,,,,,,,,
26013,0,USMichiganBaraga,Michigan,Baraga,2022-04-28 09:13:11,2021-09-11,1.6343843775791147,4.151405884059481,11.34674532049288,,,,,,,,,,,,
26013,0,USMichiganBaraga,Michigan,Baraga,2022-04-28 09:13:11,2021-09-12,1.6343843775791147,4.151405884059481,11.34674532049288,,,,,,,,,,,,
26013,0,USMichiganBaraga,Michigan,Baraga,2022-04-28 09:13:11,2021-09-13,1.6343843775791147,4.151405884059481,11.34674532049288,,,,,,,,,,,,
26013,0,USMichiganBaraga,Michigan,Baraga,2022-04-28 09:13:11,2021-09-14,1.6343843775791147,4.151405884059481,11.34674532049288,,,,,,,,,,,,
26013,0,USMichiganBaraga,Michigan,Baraga,2022-04-28 09:13:11,2021-09-15,1.6343843775791147,4.151405884059481,11.34674532049288,,,,,,,,,,,,
26013,0,USMichiganBaraga,Michigan,Baraga,2022-04-28 09:13:11,2021-09-16,1.9365776196767361,4.266548280509606,10.106279854882281,,,,,,,,,,,,
26013,0,USMichiganBaraga,Michigan,Baraga,2022-04-28 09:13:11,2021-09-17,1.9365776196767361,4.266548280509606,10.106279854882281,,,,,,,,,,,,
26013,0,USMichiganBaraga,Michigan,Baraga,2022-04-28 09:13:11,2021-09-18,1.9365776196767361,4.266548280509606,10.106279854882281,,,,,,,,,,,,
26013,0,USMichiganBaraga,Michigan,Baraga,2022-04-28 09:13:11,2021-09-19,1.9365776196767361,4.266548280509606,10.106279854882281,,,,,,,,,,,,
26013,0,USMichiganBaraga,Michigan,Baraga,2022-04-28 09:13:11,2021-09-20,1.9365776196767361,4.266548280509606,10.106279854882281,,,,,,,,,,,,
26013,0,USMichiganBaraga,Michigan,Baraga,2022-04-28 09:13:11,2021-09-21,1.9365776196767361,4.266548280509606,10.106279854882281,,,,,,,,,,,,
26013,0,USMichiganBaraga,Michigan,Baraga,2022-04-28 09:13:11,2021-09-22,1.9365776196767361,4.266548280509606,10.106279854882281,,,,,,,,,,,,
26013,0,USMichiganBaraga,Michigan,Baraga,2022-04-28 09:13:11,2021-09-23,1.5317347574213975,2.98427785369378,6.227186649190326,,,,,,,,,,,,
26013,0,USMichiganBaraga,Michigan,Baraga,2022-04-28 09:13:11,2021-09-24,1.5317347574213975,2.98427785369378,6.227186649190326,,,,,,,,,,,,
26013,0,USMichiganBaraga,Michigan,Baraga,2022-04-28 09:13:11,2021-09-25,1.5317347574213975,2.98427785369378,6.227186649190326,,,,,,,,,,,,
26013,0,USMichiganBaraga,Michigan,Baraga,2022-04-28 09:13:11,2021-09-26,1.5317347574213975,2.98427785369378,6.227186649190326,,,,,,,,,,,,
26013,0,USMichiganBaraga,Michigan,Baraga,2022-04-28 09:13:11,2021-09-27,1.5317347574213975,2.98427785369378,6.227186649190326,,,,,,,,,,,,
26013,0,USMichiganBaraga,Michigan,Baraga,2022-04-28 09:13:11,2021-09-28,1.5317347574213975,2.98427785369378,6.227186649190326,,,,,,,,,,,,
26013,0,USMichiganBaraga,Michigan,Baraga,2022-04-28 09:13:11,2021-09-29,1.5317347574213975,2.98427785369378,6.227186649190326,,,,,,,,,,,,
26013,0,USMichiganBaraga,Michigan,Baraga,2022-04-28 09:13:11,2021-09-30,1.0417410053615064,2.099652563814995,4.53877333302022,,,,,,,,,,,,
26013,0,USMichiganBaraga,Michigan,Baraga,2022-04-28 09:13:11,2021-10-01,1.0417410053615064,2.099652563814995,4.53877333302022,,,,,,,,,,,,
26013,0,USMichiganBaraga,Michigan,Baraga,2022-04-28 09:13:11,2021-10-02,1.0417410053615064,2.099652563814995,4.53877333302022,,,,,,,,,,,,
26013,0,USMichiganBaraga,Michigan,Baraga,2022-04-28 09:13:11,2021-10-03,1.0417410053615064,2.099652563814995,4.53877333302022,,,,,,,,,,,,
26013,0,USMichiganBaraga,Michigan,Baraga,2022-04-28 09:13:11,2021-10-04,1.0417410053615064,2.099652563814995,4.53877333302022,,,,,,,,,,,,
26013,0,USMichiganBaraga,Michigan,Baraga,2022-04-28 09:13:11,2021-10-05,1.0417410053615064,2.099652563814995,4.53877333302022,,,,,,,,,,,,
26013,0,USMichiganBaraga,Michigan,Baraga,2022-04-28 09:13:11,2021-10-06,1.0417410053615064,2.099652563814995,4.53877333302022,,,,,,,,,,,,
26013,0,USMichiganBaraga,Michigan,Baraga,2022-04-28 09:13:11,2021-10-07,2.684909431630049,6.78574566982177,18.45491501519289,,,,,,,,,,,,
26013,0,USMichiganBaraga,Michigan,Baraga,2022-04-28 09:13:11,2021-10-08,2.684909431630049,6.78574566982177,18.45491501519289,,,,,,,,,,,,
26013,0,USMichiganBaraga,Michigan,Baraga,2022-04-28 09:13:11,2021-10-09,2.684909431630049,6.78574566982177,18.45491501519289,,,,,,,,,,,,
26013,0,USMichiganBaraga,Michigan,Baraga,2022-04-28 09:13:11,2021-10-10,2.684909431630049,6.78574566982177,18.45491501519289,,,,,,,,,,,,
26013,0,USMichiganBaraga,Michigan,Baraga,2022-04-28 09:13:11,2021-10-11,2.684909431630049,6.78574566982177,18.45491501519289,,,,,,,,,,,,
26013,0,USMichiganBaraga,Michigan,Baraga,2022-04-28 09:13:11,2021-10-12,2.684909431630049,6.78574566982177,18.45491501519289,,,,,,,,,,,,
26013,0,USMichiganBaraga,Michigan,Baraga,2022-04-28 09:13:11,2021-10-13,2.684909431630049,6.78574566982177,18.45491501519289,,,,,,,,,,,,
26013,0,USMichiganBaraga,Michigan,Baraga,2022-04-28 09:13:11,2021-10-14,3.348017509540547,7.414889155126772,17.657755674689728,,,,,,,,,,,,
26013,0,USMichiganBaraga,Michigan,Baraga,2022-04-28 09:13:11,2021-10-15,3.348017509540547,7.414889155126772,17.657755674689728,,,,,,,,,,,,
26013,0,USMichiganBaraga,Michigan,Baraga,2022-04-28 09:13:11,2021-10-16,3.348017509540547,7.414889155126772,17.657755674689728,,,,,,,,,,,,
26013,0,USMichiganBaraga,Michigan,Baraga,2022-04-28 09:13:11,2021-10-17,3.348017509540547,7.414889155126772,17.657755674689728,,,,,,,,,,,,
26013,0,USMichiganBaraga,Michigan,Baraga,2022-04-28 09:13:11,2021-10-18,3.348017509540547,7.414889155126772,17.657755674689728,,,,,,,,,,,,
26013,0,USMichiganBaraga,Michigan,Baraga,2022-04-28 09:13:11,2021-10-19,3.348017509540547,7.414889155126772,17.657755674689728,,,,,,,,,,,,
26013,0,USMichiganBaraga,Michigan,Baraga,2022-04-28 09:13:11,2021-10-20,3.348017509540547,7.414889155126772,17.657755674689728,,,,,,,,,,,,
26013,0,USMichiganBaraga,Michigan,Baraga,2022-04-28 09:13:11,2021-10-21,2.255658144504148,4.189935410150304,8.31541259516575,,,,,,,,,,,,
26013,0,USMichiganBaraga,Michigan,Baraga,2022-04-28 09:13:11,2021-10-22,2.255658144504148,4.189935410150304,8.31541259516575,,,,,,,,,,,,
26013,0,USMichiganBaraga,Michigan,Baraga,2022-04-28 09:13:11,2021-10-23,2.255658144504148,4.189935410150304,8.31541259516575,,,,,,,,,,,,
26013,0,USMichiganBaraga,Michigan,Baraga,2022-04-28 09:13:11,2021-10-24,2.255658144504148,4.189935410150304,8.31541259516575,,,,,,,,,,,,
26013,0,USMichiganBaraga,Michigan,Baraga,2022-04-28 09:13:11,2021-10-25,2.255658144504148,4.189935410150304,8.31541259516575,,,,,,,,,,,,
26013,0,USMichiganBaraga,Michigan,Baraga,2022-04-28 09:13:11,2021-10-26,2.255658144504148,4.189935410150304,8.31541259516575,,,,,,,,,,,,
26013,0,USMichiganBaraga,Michigan,Baraga,2022-04-28 09:13:11,2021-10-27,2.255658144504148,4.189935410150304,8.31541259516575,,,,,,,,,,,,
26013,0,USMichiganBaraga,Michigan,Baraga,2022-04-28 09:13:11,2021-10-28,2.9485183644689514,6.583308959124793,15.807292645742352,,,,,,,,,,,,
26013,0,USMichiganBaraga,Michigan,Baraga,2022-04-28 09:13:11,2021-10-29,2.9485183644689514,6.583308959124793,15.807292645742352,,,,,,,,,,,,
26013,0,USMichiganBaraga,Michigan,Baraga,2022-04-28 09:13:11,2021-10-30,2.9485183644689514,6.583308959124793,15.807292645742352,,,,,,,,,,,,
26013,0,USMichiganBaraga,Michigan,Baraga,2022-04-28 09:13:11,2021-10-31,2.9485183644689514,6.583308959124793,15.807292645742352,,,,,,,,,,,,
26013,0,USMichiganBaraga,Michigan,Baraga,2022-04-28 09:13:11,2021-11-01,2.9485183644689514,6.583308959124793,15.807292645742352,,,,,,,,,,,,
26013,0,USMichiganBaraga,Michigan,Baraga,2022-04-28 09:13:11,2021-11-02,2.9485183644689514,6.583308959124793,15.807292645742352,,,,,,,,,,,,
26013,0,USMichiganBaraga,Michigan,Baraga,2022-04-28 09:13:11,2021-11-03,2.9485183644689514,6.583308959124793,15.807292645742352,,,,,,,,,,,,
26013,0,USMichiganBaraga,Michigan,Baraga,2022-04-28 09:13:11,2021-11-04,4.272617959201056,8.221924988762527,16.935553062903285,,,,,,,,,,,,
26013,0,USMichiganBaraga,Michigan,Baraga,2022-04-28 09:13:11,2021-11-05,4.272617959201056,8.221924988762527,16.935553062903285,,,,,,,,,,,,
26013,0,USMichiganBaraga,Michigan,Baraga,2022-04-28 09:13:11,2021-11-06,4.272617959201056,8.221924988762527,16.935553062903285,,,,,,,,,,,,
26013,0,USMichiganBaraga,Michigan,Baraga,2022-04-28 09:13:11,2021-11-07,4.272617959201056,8.221924988762527,16.935553062903285,,,,,,,,,,,,
26013,0,USMichiganBaraga,Michigan,Baraga,2022-04-28 09:13:11,2021-11-08,4.272617959201056,8.221924988762527,16.935553062903285,,,,,,,,,,,,
26013,0,USMichiganBaraga,Michigan,Baraga,2022-04-28 09:13:11,2021-11-09,4.272617959201056,8.221924988762527,16.935553062903285,,,,,,,,,,,,
26013,0,USMichiganBaraga,Michigan,Baraga,2022-04-28 09:13:11,2021-11-10,4.272617959201056,8.221924988762527,16.935553062903285,,,,,,,,,,,,
26013,0,USMichiganBaraga,Michigan,Baraga,2022-04-28 09:13:11,2021-11-11,2.671895739095963,5.358540783079895,11.523786652215184,,,,,,,,,,,,
26013,0,USMichiganBaraga,Michigan,Baraga,2022-04-28 09:13:11,2021-11-12,2.671895739095963,5.358540783079895,11.523786652215184,,,,,,,,,,,,
26013,0,USMichiganBaraga,Michigan,Baraga,2022-04-28 09:13:11,2021-11-13,2.671895739095963,5.358540783079895,11.523786652215184,,,,,,,,,,,,
26013,0,USMichiganBaraga,Michigan,Baraga,2022-04-28 09:13:11,2021-11-14,2.671895739095963,5.358540783079895,11.523786652215184,,,,,,,,,,,,
26013,0,USMichiganBaraga,Michigan,Baraga,2022-04-28 09:13:11,2021-11-15,2.671895739095963,5.358540783079895,11.523786652215184,,,,,,,,,,,,
26013,0,USMichiganBaraga,Michigan,Baraga,2022-04-28 09:13:11,2021-11-16,2.671895739095963,5.358540783079895,11.523786652215184,,,,,,,,,,,,
26013,0,USMichiganBaraga,Michigan,Baraga,2022-04-28 09:13:11,2021-11-17,2.671895739095963,5.358540783079895,11.523786652215184,,,,,,,,,,,,
26013,0,USMichiganBaraga,Michigan,Baraga,2022-04-28 09:13:11,2021-11-18,1.8851862960722097,3.7388428175280644,7.947848701739855,,,,,,,,,,,,
26013,0,USMichiganBaraga,Michigan,Baraga,2022-04-28 09:13:11,2021-11-19,1.8851862960722097,3.7388428175280644,7.947848701739855,,,,,,,,,,,,
26013,0,USMichiganBaraga,Michigan,Baraga,2022-04-28 09:13:11,2021-11-20,1.8851862960722097,3.7388428175280644,7.947848701739855,,,,,,,,,,,,
26013,0,USMichiganBaraga,Michigan,Baraga,2022-04-28 09:13:11,2021-11-21,1.8851862960722097,3.7388428175280644,7.947848701739855,,,,,,,,,,,,
26013,0,USMichiganBaraga,Michigan,Baraga,2022-04-28 09:13:11,2021-11-22,1.8851862960722097,3.7388428175280644,7.947848701739855,,,,,,,,,,,,
26013,0,USMichiganBaraga,Michigan,Baraga,2022-04-28 09:13:11,2021-11-23,1.8851862960722097,3.7388428175280644,7.947848701739855,,,,,,,,,,,,
26013,0,USMichiganBaraga,Michigan,Baraga,2022-04-28 09:13:11,2021-11-24,1.8851862960722097,3.7388428175280644,7.947848701739855,,,,,,,,,,,,
26013,0,USMichiganBaraga,Michigan,Baraga,2022-04-28 09:13:11,2021-11-25,2.149961307425277,4.8003294493618265,11.526150887520465,,,,,,,,,,,,
26013,0,USMichiganBaraga,Michigan,Baraga,2022-04-28 09:13:11,2021-11-26,2.149961307425277,4.8003294493618265,11.526150887520465,,,,,,,,,,,,
26013,0,USMichiganBaraga,Michigan,Baraga,2022-04-28 09:13:11,2021-11-27,2.149961307425277,4.8003294493618265,11.526150887520465,,,,,,,,,,,,
26013,0,USMichiganBaraga,Michigan,Baraga,2022-04-28 09:13:11,2021-11-28,2.149961307425277,4.8003294493618265,11.526150887520465,,,,,,,,,,,,
26013,0,USMichiganBaraga,Michigan,Baraga,2022-04-28 09:13:11,2021-11-29,2.149961307425277,4.8003294493618265,11.526150887520465,,,,,,,,,,,,
26013,0,USMichiganBaraga,Michigan,Baraga,2022-04-28 09:13:11,2021-11-30,2.149961307425277,4.8003294493618265,11.526150887520465,,,,,,,,,,,,
26013,0,USMichiganBaraga,Michigan,Baraga,2022-04-28 09:13:11,2021-12-01,2.149961307425277,4.8003294493618265,11.526150887520465,,,,,,,,,,,,
26013,0,USMichiganBaraga,Michigan,Baraga,2022-04-28 09:13:11,2021-12-02,1.149842961683062,2.5332630415525785,6.000603663836355,,,,,,,,,,,,
26013,0,USMichiganBaraga,Michigan,Baraga,2022-04-28 09:13:11,2021-12-03,1.149842961683062,2.5332630415525785,6.000603663836355,,,,,,,,,,,,
26013,0,USMichiganBaraga,Michigan,Baraga,2022-04-28 09:13:11,2021-12-04,1.149842961683062,2.5332630415525785,6.000603663836355,,,,,,,,,,,,
26013,0,USMichiganBaraga,Michigan,Baraga,2022-04-28 09:13:11,2021-12-05,1.149842961683062,2.5332630415525785,6.000603663836355,,,,,,,,,,,,
26013,0,USMichiganBaraga,Michigan,Baraga,2022-04-28 09:13:11,2021-12-06,1.149842961683062,2.5332630415525785,6.000603663836355,,,,,,,,,,,,
26013,0,USMichiganBaraga,Michigan,Baraga,2022-04-28 09:13:11,2021-12-07,1.149842961683062,2.5332630415525785,6.000603663836355,,,,,,,,,,,,
26013,0,USMichiganBaraga,Michigan,Baraga,2022-04-28 09:13:11,2021-12-08,1.149842961683062,2.5332630415525785,6.000603663836355,,,,,,,,,,,,
26013,0,USMichiganBaraga,Michigan,Baraga,2022-04-28 09:13:11,2021-12-09,1.4654206284874047,3.028285483202142,6.717516672637018,,,,,,,,,,,,
26013,0,USMichiganBaraga,Michigan,Baraga,2022-04-28 09:13:11,2021-12-10,1.4654206284874047,3.028285483202142,6.717516672637018,,,,,,,,,,,,
26013,0,USMichiganBaraga,Michigan,Baraga,2022-04-28 09:13:11,2021-12-11,1.4654206284874047,3.028285483202142,6.717516672637018,,,,,,,,,,,,
26013,0,USMichiganBaraga,Michigan,Baraga,2022-04-28 09:13:11,2021-12-12,1.4654206284874047,3.028285483202142,6.717516672637018,,,,,,,,,,,,
26013,0,USMichiganBaraga,Michigan,Baraga,2022-04-28 09:13:11,2021-12-13,1.4654206284874047,3.028285483202142,6.717516672637018,,,,,,,,,,,,
26013,0,USMichiganBaraga,Michigan,Baraga,2022-04-28 09:13:11,2021-12-14,1.4654206284874047,3.028285483202142,6.717516672637018,,,,,,,,,,,,
26013,0,USMichiganBaraga,Michigan,Baraga,2022-04-28 09:13:11,2021-12-15,1.4654206284874047,3.028285483202142,6.717516672637018,,,,,,,,,,,,
26013,0,USMichiganBaraga,Michigan,Baraga,2022-04-28 09:13:11,2021-12-16,1.3103517731332412,2.7342721748621788,6.126359375527256,,,,,,,,,,,,
26013,0,USMichiganBaraga,Michigan,Baraga,2022-04-28 09:13:11,2021-12-17,1.3103517731332412,2.7342721748621788,6.126359375527256,,,,,,,,,,,,
26013,0,USMichiganBaraga,Michigan,Baraga,2022-04-28 09:13:11,2021-12-18,1.3103517731332412,2.7342721748621788,6.126359375527256,,,,,,,,,,,,
26013,0,USMichiganBaraga,Michigan,Baraga,2022-04-28 09:13:11,2021-12-19,1.3103517731332412,2.7342721748621788,6.126359375527256,,,,,,,,,,,,
26013,0,USMichiganBaraga,Michigan,Baraga,2022-04-28 09:13:11,2021-12-20,1.3103517731332412,2.7342721748621788,6.126359375527256,,,,,,,,,,,,
26013,0,USMichiganBaraga,Michigan,Baraga,2022-04-28 09:13:11,2021-12-21,1.3103517731332412,2.7342721748621788,6.126359375527256,,,,,,,,,,,,
26013,0,USMichiganBaraga,Michigan,Baraga,2022-04-28 09:13:11,2021-12-22,1.3103517731332412,2.7342721748621788,6.126359375527256,,,,,,,,,,,,
26013,0,USMichiganBaraga,Michigan,Baraga,2022-04-28 09:13:11,2021-12-23,1.3392070038162187,2.9659556620507095,7.063102269875891,,,,,,,,,,,,
26013,0,USMichiganBaraga,Michigan,Baraga,2022-04-28 09:13:11,2021-12-24,1.3392070038162187,2.9659556620507095,7.063102269875891,,,,,,,,,,,,
26013,0,USMichiganBaraga,Michigan,Baraga,2022-04-28 09:13:11,2021-12-25,1.3392070038162187,2.9659556620507095,7.063102269875891,,,,,,,,,,,,
26013,0,USMichiganBaraga,Michigan,Baraga,2022-04-28 09:13:11,2021-12-26,1.3392070038162187,2.9659556620507095,7.063102269875891,,,,,,,,,,,,
26013,0,USMichiganBaraga,Michigan,Baraga,2022-04-28 09:13:11,2021-12-27,1.3392070038162187,2.9659556620507095,7.063102269875891,,,,,,,,,,,,
26013,0,USMichiganBaraga,Michigan,Baraga,2022-04-28 09:13:11,2021-12-28,1.3392070038162187,2.9659556620507095,7.063102269875891,,,,,,,,,,,,
26013,0,USMichiganBaraga,Michigan,Baraga,2022-04-28 09:13:11,2021-12-29,1.3392070038162187,2.9659556620507095,7.063102269875891,,,,,,,,,,,,
26013,0,USMichiganBaraga,Michigan,Baraga,2022-04-28 09:13:11,2021-12-30,2.7743063059935604,6.340413050532572,15.58809280794785,,,,,,,,,,,,
26013,0,USMichiganBaraga,Michigan,Baraga,2022-04-28 09:13:11,2021-12-31,2.7743063059935604,6.340413050532572,15.58809280794785,,,,,,,,,,,,
26013,0,USMichiganBaraga,Michigan,Baraga,2022-04-28 09:13:11,2022-01-01,2.7743063059935604,6.340413050532572,15.58809280794785,,,,,,,,,,,,
26013,0,USMichiganBaraga,Michigan,Baraga,2022-04-28 09:13:11,2022-01-02,2.7743063059935604,6.340413050532572,15.58809280794785,,,,,,,,,,,,
26013,0,USMichiganBaraga,Michigan,Baraga,2022-04-28 09:13:11,2022-01-03,2.7743063059935604,6.340413050532572,15.58809280794785,,,,,,,,,,,,
26013,0,USMichiganBaraga,Michigan,Baraga,2022-04-28 09:13:11,2022-01-04,2.7743063059935604,6.340413050532572,15.58809280794785,,,,,,,,,,,,
26013,0,USMichiganBaraga,Michigan,Baraga,2022-04-28 09:13:11,2022-01-05,2.7743063059935604,6.340413050532572,15.58809280794785,,,,,,,,,,,,
26013,0,USMichiganBaraga,Michigan,Baraga,2022-04-28 09:13:11,2022-01-06,5.905759418627383,11.304954130206864,23.15777894818832,,,,,,,,,,,,
26013,0,USMichiganBaraga,Michigan,Baraga,2022-04-28 09:13:11,2022-01-07,5.905759418627383,11.304954130206864,23.15777894818832,,,,,,,,,,,,
26013,0,USMichiganBaraga,Michigan,Baraga,2022-04-28 09:13:11,2022-01-08,5.905759418627383,11.304954130206864,23.15777894818832,,,,,,,,,,,,
26013,0,USMichiganBaraga,Michigan,Baraga,2022-04-28 09:13:11,2022-01-09,5.905759418627383,11.304954130206864,23.15777894818832,,,,,,,,,,,,
26013,0,USMichiganBaraga,Michigan,Baraga,2022-04-28 09:13:11,2022-01-10,5.905759418627383,11.304954130206864,23.15777894818832,,,,,,,,,,,,
26013,0,USMichiganBaraga,Michigan,Baraga,2022-04-28 09:13:11,2022-01-11,5.905759418627383,11.304954130206864,23.15777894818832,,,,,,,,,,,,
26013,0,USMichiganBaraga,Michigan,Baraga,2022-04-28 09:13:11,2022-01-12,5.905759418627383,11.304954130206864,23.15777894818832,,,,,,,,,,,,
26013,0,USMichiganBaraga,Michigan,Baraga,2022-04-28 09:13:11,2022-01-13,6.312581168868821,13.04492208148615,28.9369948975133,,,,,,,,,,,,
26013,0,USMichiganBaraga,Michigan,Baraga,2022-04-28 09:13:11,2022-01-14,6.312581168868821,13.04492208148615,28.9369948975133,,,,,,,,,,,,
26013,0,USMichiganBaraga,Michigan,Baraga,2022-04-28 09:13:11,2022-01-15,6.312581168868821,13.04492208148615,28.9369948975133,,,,,,,,,,,,
26013,0,USMichiganBaraga,Michigan,Baraga,2022-04-28 09:13:11,2022-01-16,6.312581168868821,13.04492208148615,28.9369948975133,,,,,,,,,,,,
26013,0,USMichiganBaraga,Michigan,Baraga,2022-04-28 09:13:11,2022-01-17,6.312581168868821,13.04492208148615,28.9369948975133,,,,,,,,,,,,
26013,0,USMichiganBaraga,Michigan,Baraga,2022-04-28 09:13:11,2022-01-18,6.312581168868821,13.04492208148615,28.9369948975133,,,,,,,,,,,,
26013,0,USMichiganBaraga,Michigan,Baraga,2022-04-28 09:13:11,2022-01-19,6.312581168868821,13.04492208148615,28.9369948975133,,,,,,,,,,,,
26013,0,USMichiganBaraga,Michigan,Baraga,2022-04-28 09:13:11,2022-01-20,4.806753381808901,8.592646018982999,16.372594861308805,,,,,,,,,,,,
26013,0,USMichiganBaraga,Michigan,Baraga,2022-04-28 09:13:11,2022-01-21,4.806753381808901,8.592646018982999,16.372594861308805,,,,,,,,,,,,
26013,0,USMichiganBaraga,Michigan,Baraga,2022-04-28 09:13:11,2022-01-22,4.806753381808901,8.592646018982999,16.372594861308805,,,,,,,,,,,,
26013,0,USMichiganBaraga,Michigan,Baraga,2022-04-28 09:13:11,2022-01-23,4.806753381808901,8.592646018982999,16.372594861308805,,,,,,,,,,,,
26013,0,USMichiganBaraga,Michigan,Baraga,2022-04-28 09:13:11,2022-01-24,4.806753381808901,8.592646018982999,16.372594861308805,,,,,,,,,,,,
26013,0,USMichiganBaraga,Michigan,Baraga,2022-04-28 09:13:11,2022-01-25,4.806753381808901,8.592646018982999,16.372594861308805,,,,,,,,,,,,
26013,0,USMichiganBaraga,Michigan,Baraga,2022-04-28 09:13:11,2022-01-26,4.806753381808901,8.592646018982999,16.372594861308805,,,,,,,,,,,,
26013,0,USMichiganBaraga,Michigan,Baraga,2022-04-28 09:13:11,2022-01-27,4.384008844701958,9.362149095007116,21.481264817042707,,,,,,,,,,,,
26013,0,USMichiganBaraga,Michigan,Baraga,2022-04-28 09:13:11,2022-01-28,4.384008844701958,9.362149095007116,21.481264817042707,,,,,,,,,,,,
26013,0,USMichiganBaraga,Michigan,Baraga,2022-04-28 09:13:11,2022-01-29,4.384008844701958,9.362149095007116,21.481264817042707,,,,,,,,,,,,
26013,0,USMichiganBaraga,Michigan,Baraga,2022-04-28 09:13:11,2022-01-30,4.384008844701958,9.362149095007116,21.481264817042707,,,,,,,,,,,,
26013,0,USMichiganBaraga,Michigan,Baraga,2022-04-28 09:13:11,2022-01-31,4.384008844701958,9.362149095007116,21.481264817042707,,,,,,,,,,,,
26013,0,USMichiganBaraga,Michigan,Baraga,2022-04-28 09:13:11,2022-02-01,4.384008844701958,9.362149095007116,21.481264817042707,,,,,,,,,,,,
26013,0,USMichiganBaraga,Michigan,Baraga,2022-04-28 09:13:11,2022-02-02,4.384008844701958,9.362149095007116,21.481264817042707,,,,,,,,,,,,
26013,0,USMichiganBaraga,Michigan,Baraga,2022-04-28 09:13:11,2022-02-03,2.0775325395563953,4.498304046175299,10.468153071251926,,,,,,,,,,,,
26013,0,USMichiganBaraga,Michigan,Baraga,2022-04-28 09:13:11,2022-02-04,2.0775325395563953,4.498304046175299,10.468153071251926,,,,,,,,,,,,
26013,0,USMichiganBaraga,Michigan,Baraga,2022-04-28 09:13:11,2022-02-05,2.0775325395563953,4.498304046175299,10.468153071251926,,,,,,,,,,,,
26013,0,USMichiganBaraga,Michigan,Baraga,2022-04-28 09:13:11,2022-02-06,2.0775325395563953,4.498304046175299,10.468153071251926,,,,,,,,,,,,
26013,0,USMichiganBaraga,Michigan,Baraga,2022-04-28 09:13:11,2022-02-07,2.0775325395563953,4.498304046175299,10.468153071251926,,,,,,,,,,,,
26013,0,USMichiganBaraga,Michigan,Baraga,2022-04-28 09:13:11,2022-02-08,2.0775325395563953,4.498304046175299,10.468153071251926,,,,,,,,,,,,
26013,0,USMichiganBaraga,Michigan,Baraga,2022-04-28 09:13:11,2022-02-09,2.0775325395563953,4.498304046175299,10.468153071251926,,,,,,,,,,,,
26013,0,USMichiganBaraga,Michigan,Baraga,2022-04-28 09:13:11,2022-02-10,1.5977862273613463,3.8321080474502485,9.890622838997995,,,,,,,,,,,,
26013,0,USMichiganBaraga,Michigan,Baraga,2022-04-28 09:13:11,2022-02-11,1.5977862273613463,3.8321080474502485,9.890622838997995,,,,,,,,,,,,
26013,0,USMichiganBaraga,Michigan,Baraga,2022-04-28 09:13:11,2022-02-12,1.5977862273613463,3.8321080474502485,9.890622838997995,,,,,,,,,,,,
26013,0,USMichiganBaraga,Michigan,Baraga,2022-04-28 09:13:11,2022-02-13,1.5977862273613463,3.8321080474502485,9.890622838997995,,,,,,,,,,,,
26013,0,USMichiganBaraga,Michigan,Baraga,2022-04-28 09:13:11,2022-02-14,1.5977862273613463,3.8321080474502485,9.890622838997995,,,,,,,,,,,,
26013,0,USMichiganBaraga,Michigan,Baraga,2022-04-28 09:13:11,2022-02-15,1.5977862273613463,3.8321080474502485,9.890622838997995,,,,,,,,,,,,
26013,0,USMichiganBaraga,Michigan,Baraga,2022-04-28 09:13:11,2022-02-16,1.5977862273613463,3.8321080474502485,9.890622838997995,,,,,,,,,,,,
26013,0,USMichiganBaraga,Michigan,Baraga,2022-04-28 09:13:11,2022-02-17,0.9870411201558497,2.6560684126989735,7.686655846590104,,,,,,,,,,,,
26013,0,USMichiganBaraga,Michigan,Baraga,2022-04-28 09:13:11,2022-02-18,0.9870411201558497,2.6560684126989735,7.686655846590104,,,,,,,,,,,,
26013,0,USMichiganBaraga,Michigan,Baraga,2022-04-28 09:13:11,2022-02-19,0.9870411201558497,2.6560684126989735,7.686655846590104,,,,,,,,,,,,
26013,0,USMichiganBaraga,Michigan,Baraga,2022-04-28 09:13:11,2022-02-20,0.9870411201558497,2.6560684126989735,7.686655846590104,,,,,,,,,,,,
26013,0,USMichiganBaraga,Michigan,Baraga,2022-04-28 09:13:11,2022-02-21,0.9870411201558497,2.6560684126989735,7.686655846590104,,,,,,,,,,,,
26013,0,USMichiganBaraga,Michigan,Baraga,2022-04-28 09:13:11,2022-02-22,0.9870411201558497,2.6560684126989735,7.686655846590104,,,,,,,,,,,,
26013,0,USMichiganBaraga,Michigan,Baraga,2022-04-28 09:13:11,2022-02-23,0.9870411201558497,2.6560684126989735,7.686655846590104,,,,,,,,,,,,
26013,0,USMichiganBaraga,Michigan,Baraga,2022-04-28 09:13:11,2022-02-24,0.34324196459579664,0.6248772825853188,1.2139845695209788,,,,,,,,,,,,
26013,0,USMichiganBaraga,Michigan,Baraga,2022-04-28 09:13:11,2022-02-25,0.34324196459579664,0.6248772825853188,1.2139845695209788,,,,,,,,,,,,
26013,0,USMichiganBaraga,Michigan,Baraga,2022-04-28 09:13:11,2022-02-26,0.34324196459579664,0.6248772825853188,1.2139845695209788,,,,,,,,,,,,
26013,0,USMichiganBaraga,Michigan,Baraga,2022-04-28 09:13:11,2022-02-27,0.34324196459579664,0.6248772825853188,1.2139845695209788,,,,,,,,,,,,
26013,0,USMichiganBaraga,Michigan,Baraga,2022-04-28 09:13:11,2022-02-28,0.34324196459579664,0.6248772825853188,1.2139845695209788,,,,,,,,,,,,
26013,0,USMichiganBaraga,Michigan,Baraga,2022-04-28 09:13:11,2022-03-01,0.34324196459579664,0.6248772825853188,1.2139845695209788,,,,,,,,,,,,
26013,0,USMichiganBaraga,Michigan,Baraga,2022-04-28 09:13:11,2022-03-02,0.34324196459579664,0.6248772825853188,1.2139845695209788,,,,,,,,,,,,
26013,0,USMichiganBaraga,Michigan,Baraga,2022-04-28 09:13:11,2022-03-03,0.4815831802684806,1.1889819946398543,3.1590588218992335,,,,,,,,,,,,
26013,0,USMichiganBaraga,Michigan,Baraga,2022-04-28 09:13:11,2022-03-04,0.4815831802684806,1.1889819946398543,3.1590588218992335,,,,,,,,,,,,
26013,0,USMichiganBaraga,Michigan,Baraga,2022-04-28 09:13:11,2022-03-05,0.4815831802684806,1.1889819946398543,3.1590588218992335,,,,,,,,,,,,
26013,0,USMichiganBaraga,Michigan,Baraga,2022-04-28 09:13:11,2022-03-06,0.4815831802684806,1.1889819946398543,3.1590588218992335,,,,,,,,,,,,
26013,0,USMichiganBaraga,Michigan,Baraga,2022-04-28 09:13:11,2022-03-07,0.4815831802684806,1.1889819946398543,3.1590588218992335,,,,,,,,,,,,
26013,0,USMichiganBaraga,Michigan,Baraga,2022-04-28 09:13:11,2022-03-08,0.4815831802684806,1.1889819946398543,3.1590588218992335,,,,,,,,,,,,
26013,0,USMichiganBaraga,Michigan,Baraga,2022-04-28 09:13:11,2022-03-09,0.4815831802684806,1.1889819946398543,3.1590588218992335,,,,,,,,,,,,
26013,0,USMichiganBaraga,Michigan,Baraga,2022-04-28 09:13:11,2022-03-10,0.19258817527199162,0.4472402864059323,1.1174684305842069,,,,,,,,,,,,
26013,0,USMichiganBaraga,Michigan,Baraga,2022-04-28 09:13:11,2022-03-11,0.19258817527199162,0.4472402864059323,1.1174684305842069,,,,,,,,,,,,
26013,0,USMichiganBaraga,Michigan,Baraga,2022-04-28 09:13:11,2022-03-12,0.19258817527199162,0.4472402864059323,1.1174684305842069,,,,,,,,,,,,
26013,0,USMichiganBaraga,Michigan,Baraga,2022-04-28 09:13:11,2022-03-13,0.19258817527199162,0.4472402864059323,1.1174684305842069,,,,,,,,,,,,
26013,0,USMichiganBaraga,Michigan,Baraga,2022-04-28 09:13:11,2022-03-14,0.19258817527199162,0.4472402864059323,1.1174684305842069,,,,,,,,,,,,
26013,0,USMichiganBaraga,Michigan,Baraga,2022-04-28 09:13:11,2022-03-15,0.19258817527199162,0.4472402864059323,1.1174684305842069,,,,,,,,,,,,
26013,0,USMichiganBaraga,Michigan,Baraga,2022-04-28 09:13:11,2022-03-16,0.19258817527199162,0.4472402864059323,1.1174684305842069,,,,,,,,,,,,
26013,0,USMichiganBaraga,Michigan,Baraga,2022-04-28 09:13:11,2022-03-17,0.38098037853872885,0.876157299898786,2.1677234786974955,,,,,,,,,,,,
26013,0,USMichiganBaraga,Michigan,Baraga,2022-04-28 09:13:11,2022-03-18,0.38098037853872885,0.876157299898786,2.1677234786974955,,,,,,,,,,,,
26013,0,USMichiganBaraga,Michigan,Baraga,2022-04-28 09:13:11,2022-03-19,0.38098037853872885,0.876157299898786,2.1677234786974955,,,,,,,,,,,,
26013,0,USMichiganBaraga,Michigan,Baraga,2022-04-28 09:13:11,2022-03-20,0.38098037853872885,0.876157299898786,2.1677234786974955,,,,,,,,,,,,
26013,0,USMichiganBaraga,Michigan,Baraga,2022-04-28 09:13:11,2022-03-21,0.38098037853872885,0.876157299898786,2.1677234786974955,,,,,,,,,,,,
26013,0,USMichiganBaraga,Michigan,Baraga,2022-04-28 09:13:11,2022-03-22,0.38098037853872885,0.876157299898786,2.1677234786974955,,,,,,,,,,,,
26013,0,USMichiganBaraga,Michigan,Baraga,2022-04-28 09:13:11,2022-03-23,0.38098037853872885,0.876157299898786,2.1677234786974955,,,,,,,,,,,,
26013,0,USMichiganBaraga,Michigan,Baraga,2022-04-28 09:13:11,2022-03-24,0.31658795582186355,0.8830531417339837,2.6474637847731337,,,,,,,,,,,,
26013,0,USMichiganBaraga,Michigan,Baraga,2022-04-28 09:13:11,2022-03-25,0.31658795582186355,0.8830531417339837,2.6474637847731337,,,,,,,,,,,,
26013,0,USMichiganBaraga,Michigan,Baraga,2022-04-28 09:13:11,2022-03-26,0.31658795582186355,0.8830531417339837,2.6474637847731337,,,,,,,,,,,,
26013,0,USMichiganBaraga,Michigan,Baraga,2022-04-28 09:13:11,2022-03-27,0.31658795582186355,0.8830531417339837,2.6474637847731337,,,,,,,,,,,,
26013,0,USMichiganBaraga,Michigan,Baraga,2022-04-28 09:13:11,2022-03-28,0.31658795582186355,0.8830531417339837,2.6474637847731337,,,,,,,,,,,,
26013,0,USMichiganBaraga,Michigan,Baraga,2022-04-28 09:13:11,2022-03-29,0.31658795582186355,0.8830531417339837,2.6474637847731337,,,,,,,,,,,,
26013,0,USMichiganBaraga,Michigan,Baraga,2022-04-28 09:13:11,2022-03-30,0.31658795582186355,0.8830531417339837,2.6474637847731337,,,,,,,,,,,,
26013,0,USMichiganBaraga,Michigan,Baraga,2022-04-28 09:13:11,2022-03-31,0.12839211684799443,0.2981601909372881,0.7449789537228045,,,,,,,,,,,,
26013,0,USMichiganBaraga,Michigan,Baraga,2022-04-28 09:13:11,2022-04-01,0.12839211684799443,0.2981601909372881,0.7449789537228045,,,,,,,,,,,,
26013,0,USMichiganBaraga,Michigan,Baraga,2022-04-28 09:13:11,2022-04-02,0.12839211684799443,0.2981601909372881,0.7449789537228045,,,,,,,,,,,,
26013,0,USMichiganBaraga,Michigan,Baraga,2022-04-28 09:13:11,2022-04-03,0.12839211684799443,0.2981601909372881,0.7449789537228045,,,,,,,,,,,,
26013,0,USMichiganBaraga,Michigan,Baraga,2022-04-28 09:13:11,2022-04-04,0.12839211684799443,0.2981601909372881,0.7449789537228045,,,,,,,,,,,,
26013,0,USMichiganBaraga,Michigan,Baraga,2022-04-28 09:13:11,2022-04-05,0.12839211684799443,0.2981601909372881,0.7449789537228045,,,,,,,,,,,,
26013,0,USMichiganBaraga,Michigan,Baraga,2022-04-28 09:13:11,2022-04-06,0.12839211684799443,0.2981601909372881,0.7449789537228045,,,,,,,,,,,,
26013,0,USMichiganBaraga,Michigan,Baraga,2022-04-28 09:13:11,2022-04-07,0.06572950055519436,0.1558725198475213,0.39776354174138623,,,,,,,,,,,,
26013,0,USMichiganBaraga,Michigan,Baraga,2022-04-28 09:13:11,2022-04-08,0.06572950055519436,0.1558725198475213,0.39776354174138623,,,,,,,,,,,,
26013,0,USMichiganBaraga,Michigan,Baraga,2022-04-28 09:13:11,2022-04-09,0.06572950055519436,0.1558725198475213,0.39776354174138623,,,,,,,,,,,,
26013,0,USMichiganBaraga,Michigan,Baraga,2022-04-28 09:13:11,2022-04-10,0.06572950055519436,0.1558725198475213,0.39776354174138623,,,,,,,,,,,,
26013,0,USMichiganBaraga,Michigan,Baraga,2022-04-28 09:13:11,2022-04-11,0.06572950055519436,0.1558725198475213,0.39776354174138623,,,,,,,,,,,,
26013,0,USMichiganBaraga,Michigan,Baraga,2022-04-28 09:13:11,2022-04-12,0.06572950055519436,0.1558725198475213,0.39776354174138623,,,,,,,,,,,,
26013,0,USMichiganBaraga,Michigan,Baraga,2022-04-28 09:13:11,2022-04-13,0.06572950055519436,0.1558725198475213,0.39776354174138623,,,,,,,,,,,,
