FIPS,HR_UID,nameid,province,region,analysisTime,dates,pointprevalence_025,pointprevalence_50,pointprevalence_975,pointinfections_025,pointinfections_50,pointinfections_975,pointinfectious_025,pointinfectious_50,pointinfectious_975,pointinfectiousprevalence_025,pointinfectiousprevalence_50,pointinfectiousprevalence_975,infectrate_025,infectrate_50,infectrate_975
38091,0,USNorthDakotaSteele,North Dakota,Steele,2022-04-28 09:13:11,2020-03-19,0,0,0,,,,,,,,,,,,
38091,0,USNorthDakotaSteele,North Dakota,Steele,2022-04-28 09:13:11,2020-03-20,0,0,0,,,,,,,,,,,,
38091,0,USNorthDakotaSteele,North Dakota,Steele,2022-04-28 09:13:11,2020-03-21,0,0,0,,,,,,,,,,,,
38091,0,USNorthDakotaSteele,North Dakota,Steele,2022-04-28 09:13:11,2020-03-22,0,0,0,,,,,,,,,,,,
38091,0,USNorthDakotaSteele,North Dakota,Steele,2022-04-28 09:13:11,2020-03-23,0,0,0,,,,,,,,,,,,
38091,0,USNorthDakotaSteele,North Dakota,Steele,2022-04-28 09:13:11,2020-03-24,0,0,0,,,,,,,,,,,,
38091,0,USNorthDakotaSteele,North Dakota,Steele,2022-04-28 09:13:11,2020-03-25,0,0,0,,,,,,,,,,,,
38091,0,USNorthDakotaSteele,North Dakota,Steele,2022-04-28 09:13:11,2020-03-26,0,0,0,,,,,,,,,,,,
38091,0,USNorthDakotaSteele,North Dakota,Steele,2022-04-28 09:13:11,2020-03-27,0,0,0,,,,,,,,,,,,
38091,0,USNorthDakotaSteele,North Dakota,Steele,2022-04-28 09:13:11,2020-03-28,0,0,0,,,,,,,,,,,,
38091,0,USNorthDakotaSteele,North Dakota,Steele,2022-04-28 09:13:11,2020-03-29,0,0,0,,,,,,,,,,,,
38091,0,USNorthDakotaSteele,North Dakota,Steele,2022-04-28 09:13:11,2020-03-30,0,0,0,,,,,,,,,,,,
38091,0,USNorthDakotaSteele,North Dakota,Steele,2022-04-28 09:13:11,2020-03-31,0,0,0,,,,,,,,,,,,
38091,0,USNorthDakotaSteele,North Dakota,Steele,2022-04-28 09:13:11,2020-04-01,0,0,0,,,,,,,,,,,,
38091,0,USNorthDakotaSteele,North Dakota,Steele,2022-04-28 09:13:11,2020-04-02,0,0,0,,,,,,,,,,,,
38091,0,USNorthDakotaSteele,North Dakota,Steele,2022-04-28 09:13:11,2020-04-03,0,0,0,,,,,,,,,,,,
38091,0,USNorthDakotaSteele,North Dakota,Steele,2022-04-28 09:13:11,2020-04-04,0,0,0,,,,,,,,,,,,
38091,0,USNorthDakotaSteele,North Dakota,Steele,2022-04-28 09:13:11,2020-04-05,0,0,0,,,,,,,,,,,,
38091,0,USNorthDakotaSteele,North Dakota,Steele,2022-04-28 09:13:11,2020-04-06,0,0,0,,,,,,,,,,,,
38091,0,USNorthDakotaSteele,North Dakota,Steele,2022-04-28 09:13:11,2020-04-07,0,0,0,,,,,,,,,,,,
38091,0,USNorthDakotaSteele,North Dakota,Steele,2022-04-28 09:13:11,2020-04-08,0,0,0,,,,,,,,,,,,
38091,0,USNorthDakotaSteele,North Dakota,Steele,2022-04-28 09:13:11,2020-04-09,0,0,0,,,,,,,,,,,,
38091,0,USNorthDakotaSteele,North Dakota,Steele,2022-04-28 09:13:11,2020-04-10,0,0,0,,,,,,,,,,,,
38091,0,USNorthDakotaSteele,North Dakota,Steele,2022-04-28 09:13:11,2020-04-11,0,0,0,,,,,,,,,,,,
38091,0,USNorthDakotaSteele,North Dakota,Steele,2022-04-28 09:13:11,2020-04-12,0,0,0,,,,,,,,,,,,
38091,0,USNorthDakotaSteele,North Dakota,Steele,2022-04-28 09:13:11,2020-04-13,0,0,0,,,,,,,,,,,,
38091,0,USNorthDakotaSteele,North Dakota,Steele,2022-04-28 09:13:11,2020-04-14,0,0,0,,,,,,,,,,,,
38091,0,USNorthDakotaSteele,North Dakota,Steele,2022-04-28 09:13:11,2020-04-15,0,0,0,,,,,,,,,,,,
38091,0,USNorthDakotaSteele,North Dakota,Steele,2022-04-28 09:13:11,2020-04-16,0,0,0,,,,,,,,,,,,
38091,0,USNorthDakotaSteele,North Dakota,Steele,2022-04-28 09:13:11,2020-04-17,0,0,0,,,,,,,,,,,,
38091,0,USNorthDakotaSteele,North Dakota,Steele,2022-04-28 09:13:11,2020-04-18,0,0,0,,,,,,,,,,,,
38091,0,USNorthDakotaSteele,North Dakota,Steele,2022-04-28 09:13:11,2020-04-19,0,0,0,,,,,,,,,,,,
38091,0,USNorthDakotaSteele,North Dakota,Steele,2022-04-28 09:13:11,2020-04-20,0,0,0,,,,,,,,,,,,
38091,0,USNorthDakotaSteele,North Dakota,Steele,2022-04-28 09:13:11,2020-04-21,0,0,0,,,,,,,,,,,,
38091,0,USNorthDakotaSteele,North Dakota,Steele,2022-04-28 09:13:11,2020-04-22,0,0,0,,,,,,,,,,,,
38091,0,USNorthDakotaSteele,North Dakota,Steele,2022-04-28 09:13:11,2020-04-23,0.2352824044097122,0.46905011979043065,1.0024649269860657,,,,,,,,,,,,
38091,0,USNorthDakotaSteele,North Dakota,Steele,2022-04-28 09:13:11,2020-04-24,0.2352824044097122,0.46905011979043065,1.0024649269860657,,,,,,,,,,,,
38091,0,USNorthDakotaSteele,North Dakota,Steele,2022-04-28 09:13:11,2020-04-25,0.2352824044097122,0.46905011979043065,1.0024649269860657,,,,,,,,,,,,
38091,0,USNorthDakotaSteele,North Dakota,Steele,2022-04-28 09:13:11,2020-04-26,0.2352824044097122,0.46905011979043065,1.0024649269860657,,,,,,,,,,,,
38091,0,USNorthDakotaSteele,North Dakota,Steele,2022-04-28 09:13:11,2020-04-27,0.2352824044097122,0.46905011979043065,1.0024649269860657,,,,,,,,,,,,
38091,0,USNorthDakotaSteele,North Dakota,Steele,2022-04-28 09:13:11,2020-04-28,0.2352824044097122,0.46905011979043065,1.0024649269860657,,,,,,,,,,,,
38091,0,USNorthDakotaSteele,North Dakota,Steele,2022-04-28 09:13:11,2020-04-29,0.2352824044097122,0.46905011979043065,1.0024649269860657,,,,,,,,,,,,
38091,0,USNorthDakotaSteele,North Dakota,Steele,2022-04-28 09:13:11,2020-04-30,0,0,0,,,,,,,,,,,,
38091,0,USNorthDakotaSteele,North Dakota,Steele,2022-04-28 09:13:11,2020-05-01,0,0,0,,,,,,,,,,,,
38091,0,USNorthDakotaSteele,North Dakota,Steele,2022-04-28 09:13:11,2020-05-02,0,0,0,,,,,,,,,,,,
38091,0,USNorthDakotaSteele,North Dakota,Steele,2022-04-28 09:13:11,2020-05-03,0,0,0,,,,,,,,,,,,
38091,0,USNorthDakotaSteele,North Dakota,Steele,2022-04-28 09:13:11,2020-05-04,0,0,0,,,,,,,,,,,,
38091,0,USNorthDakotaSteele,North Dakota,Steele,2022-04-28 09:13:11,2020-05-05,0,0,0,,,,,,,,,,,,
38091,0,USNorthDakotaSteele,North Dakota,Steele,2022-04-28 09:13:11,2020-05-06,0,0,0,,,,,,,,,,,,
38091,0,USNorthDakotaSteele,North Dakota,Steele,2022-04-28 09:13:11,2020-05-07,0,0,0,,,,,,,,,,,,
38091,0,USNorthDakotaSteele,North Dakota,Steele,2022-04-28 09:13:11,2020-05-08,0,0,0,,,,,,,,,,,,
38091,0,USNorthDakotaSteele,North Dakota,Steele,2022-04-28 09:13:11,2020-05-09,0,0,0,,,,,,,,,,,,
38091,0,USNorthDakotaSteele,North Dakota,Steele,2022-04-28 09:13:11,2020-05-10,0,0,0,,,,,,,,,,,,
38091,0,USNorthDakotaSteele,North Dakota,Steele,2022-04-28 09:13:11,2020-05-11,0,0,0,,,,,,,,,,,,
38091,0,USNorthDakotaSteele,North Dakota,Steele,2022-04-28 09:13:11,2020-05-12,0,0,0,,,,,,,,,,,,
38091,0,USNorthDakotaSteele,North Dakota,Steele,2022-04-28 09:13:11,2020-05-13,0,0,0,,,,,,,,,,,,
38091,0,USNorthDakotaSteele,North Dakota,Steele,2022-04-28 09:13:11,2020-05-14,0.22654145537103093,0.43634202627992646,0.8996467383166966,,,,,,,,,,,,
38091,0,USNorthDakotaSteele,North Dakota,Steele,2022-04-28 09:13:11,2020-05-15,0.22654145537103093,0.43634202627992646,0.8996467383166966,,,,,,,,,,,,
38091,0,USNorthDakotaSteele,North Dakota,Steele,2022-04-28 09:13:11,2020-05-16,0.22654145537103093,0.43634202627992646,0.8996467383166966,,,,,,,,,,,,
38091,0,USNorthDakotaSteele,North Dakota,Steele,2022-04-28 09:13:11,2020-05-17,0.22654145537103093,0.43634202627992646,0.8996467383166966,,,,,,,,,,,,
38091,0,USNorthDakotaSteele,North Dakota,Steele,2022-04-28 09:13:11,2020-05-18,0.22654145537103093,0.43634202627992646,0.8996467383166966,,,,,,,,,,,,
38091,0,USNorthDakotaSteele,North Dakota,Steele,2022-04-28 09:13:11,2020-05-19,0.22654145537103093,0.43634202627992646,0.8996467383166966,,,,,,,,,,,,
38091,0,USNorthDakotaSteele,North Dakota,Steele,2022-04-28 09:13:11,2020-05-20,0.22654145537103093,0.43634202627992646,0.8996467383166966,,,,,,,,,,,,
38091,0,USNorthDakotaSteele,North Dakota,Steele,2022-04-28 09:13:11,2020-05-21,0,0,0,,,,,,,,,,,,
38091,0,USNorthDakotaSteele,North Dakota,Steele,2022-04-28 09:13:11,2020-05-22,0,0,0,,,,,,,,,,,,
38091,0,USNorthDakotaSteele,North Dakota,Steele,2022-04-28 09:13:11,2020-05-23,0,0,0,,,,,,,,,,,,
38091,0,USNorthDakotaSteele,North Dakota,Steele,2022-04-28 09:13:11,2020-05-24,0,0,0,,,,,,,,,,,,
38091,0,USNorthDakotaSteele,North Dakota,Steele,2022-04-28 09:13:11,2020-05-25,0,0,0,,,,,,,,,,,,
38091,0,USNorthDakotaSteele,North Dakota,Steele,2022-04-28 09:13:11,2020-05-26,0,0,0,,,,,,,,,,,,
38091,0,USNorthDakotaSteele,North Dakota,Steele,2022-04-28 09:13:11,2020-05-27,0,0,0,,,,,,,,,,,,
38091,0,USNorthDakotaSteele,North Dakota,Steele,2022-04-28 09:13:11,2020-05-28,0,0,0,,,,,,,,,,,,
38091,0,USNorthDakotaSteele,North Dakota,Steele,2022-04-28 09:13:11,2020-05-29,0,0,0,,,,,,,,,,,,
38091,0,USNorthDakotaSteele,North Dakota,Steele,2022-04-28 09:13:11,2020-05-30,0,0,0,,,,,,,,,,,,
38091,0,USNorthDakotaSteele,North Dakota,Steele,2022-04-28 09:13:11,2020-05-31,0,0,0,,,,,,,,,,,,
38091,0,USNorthDakotaSteele,North Dakota,Steele,2022-04-28 09:13:11,2020-06-01,0,0,0,,,,,,,,,,,,
38091,0,USNorthDakotaSteele,North Dakota,Steele,2022-04-28 09:13:11,2020-06-02,0,0,0,,,,,,,,,,,,
38091,0,USNorthDakotaSteele,North Dakota,Steele,2022-04-28 09:13:11,2020-06-03,0,0,0,,,,,,,,,,,,
38091,0,USNorthDakotaSteele,North Dakota,Steele,2022-04-28 09:13:11,2020-06-04,0,0,0,,,,,,,,,,,,
38091,0,USNorthDakotaSteele,North Dakota,Steele,2022-04-28 09:13:11,2020-06-05,0,0,0,,,,,,,,,,,,
38091,0,USNorthDakotaSteele,North Dakota,Steele,2022-04-28 09:13:11,2020-06-06,0,0,0,,,,,,,,,,,,
38091,0,USNorthDakotaSteele,North Dakota,Steele,2022-04-28 09:13:11,2020-06-07,0,0,0,,,,,,,,,,,,
38091,0,USNorthDakotaSteele,North Dakota,Steele,2022-04-28 09:13:11,2020-06-08,0,0,0,,,,,,,,,,,,
38091,0,USNorthDakotaSteele,North Dakota,Steele,2022-04-28 09:13:11,2020-06-09,0,0,0,,,,,,,,,,,,
38091,0,USNorthDakotaSteele,North Dakota,Steele,2022-04-28 09:13:11,2020-06-10,0,0,0,,,,,,,,,,,,
38091,0,USNorthDakotaSteele,North Dakota,Steele,2022-04-28 09:13:11,2020-06-11,0,0,0,,,,,,,,,,,,
38091,0,USNorthDakotaSteele,North Dakota,Steele,2022-04-28 09:13:11,2020-06-12,0,0,0,,,,,,,,,,,,
38091,0,USNorthDakotaSteele,North Dakota,Steele,2022-04-28 09:13:11,2020-06-13,0,0,0,,,,,,,,,,,,
38091,0,USNorthDakotaSteele,North Dakota,Steele,2022-04-28 09:13:11,2020-06-14,0,0,0,,,,,,,,,,,,
38091,0,USNorthDakotaSteele,North Dakota,Steele,2022-04-28 09:13:11,2020-06-15,0,0,0,,,,,,,,,,,,
38091,0,USNorthDakotaSteele,North Dakota,Steele,2022-04-28 09:13:11,2020-06-16,0,0,0,,,,,,,,,,,,
38091,0,USNorthDakotaSteele,North Dakota,Steele,2022-04-28 09:13:11,2020-06-17,0,0,0,,,,,,,,,,,,
38091,0,USNorthDakotaSteele,North Dakota,Steele,2022-04-28 09:13:11,2020-06-18,0,0,0,,,,,,,,,,,,
38091,0,USNorthDakotaSteele,North Dakota,Steele,2022-04-28 09:13:11,2020-06-19,0,0,0,,,,,,,,,,,,
38091,0,USNorthDakotaSteele,North Dakota,Steele,2022-04-28 09:13:11,2020-06-20,0,0,0,,,,,,,,,,,,
38091,0,USNorthDakotaSteele,North Dakota,Steele,2022-04-28 09:13:11,2020-06-21,0,0,0,,,,,,,,,,,,
38091,0,USNorthDakotaSteele,North Dakota,Steele,2022-04-28 09:13:11,2020-06-22,0,0,0,,,,,,,,,,,,
38091,0,USNorthDakotaSteele,North Dakota,Steele,2022-04-28 09:13:11,2020-06-23,0,0,0,,,,,,,,,,,,
38091,0,USNorthDakotaSteele,North Dakota,Steele,2022-04-28 09:13:11,2020-06-24,0,0,0,,,,,,,,,,,,
38091,0,USNorthDakotaSteele,North Dakota,Steele,2022-04-28 09:13:11,2020-06-25,0.18670951661641655,0.3012606207272967,0.5138835338688855,,,,,,,,,,,,
38091,0,USNorthDakotaSteele,North Dakota,Steele,2022-04-28 09:13:11,2020-06-26,0.18670951661641655,0.3012606207272967,0.5138835338688855,,,,,,,,,,,,
38091,0,USNorthDakotaSteele,North Dakota,Steele,2022-04-28 09:13:11,2020-06-27,0.18670951661641655,0.3012606207272967,0.5138835338688855,,,,,,,,,,,,
38091,0,USNorthDakotaSteele,North Dakota,Steele,2022-04-28 09:13:11,2020-06-28,0.18670951661641655,0.3012606207272967,0.5138835338688855,,,,,,,,,,,,
38091,0,USNorthDakotaSteele,North Dakota,Steele,2022-04-28 09:13:11,2020-06-29,0.18670951661641655,0.3012606207272967,0.5138835338688855,,,,,,,,,,,,
38091,0,USNorthDakotaSteele,North Dakota,Steele,2022-04-28 09:13:11,2020-06-30,0.18670951661641655,0.3012606207272967,0.5138835338688855,,,,,,,,,,,,
38091,0,USNorthDakotaSteele,North Dakota,Steele,2022-04-28 09:13:11,2020-07-01,0.18670951661641655,0.3012606207272967,0.5138835338688855,,,,,,,,,,,,
38091,0,USNorthDakotaSteele,North Dakota,Steele,2022-04-28 09:13:11,2020-07-02,0.19893547280773285,0.34022307415998737,0.6182141776138699,,,,,,,,,,,,
38091,0,USNorthDakotaSteele,North Dakota,Steele,2022-04-28 09:13:11,2020-07-03,0.19893547280773285,0.34022307415998737,0.6182141776138699,,,,,,,,,,,,
38091,0,USNorthDakotaSteele,North Dakota,Steele,2022-04-28 09:13:11,2020-07-04,0.19893547280773285,0.34022307415998737,0.6182141776138699,,,,,,,,,,,,
38091,0,USNorthDakotaSteele,North Dakota,Steele,2022-04-28 09:13:11,2020-07-05,0.19893547280773285,0.34022307415998737,0.6182141776138699,,,,,,,,,,,,
38091,0,USNorthDakotaSteele,North Dakota,Steele,2022-04-28 09:13:11,2020-07-06,0.19893547280773285,0.34022307415998737,0.6182141776138699,,,,,,,,,,,,
38091,0,USNorthDakotaSteele,North Dakota,Steele,2022-04-28 09:13:11,2020-07-07,0.19893547280773285,0.34022307415998737,0.6182141776138699,,,,,,,,,,,,
38091,0,USNorthDakotaSteele,North Dakota,Steele,2022-04-28 09:13:11,2020-07-08,0.19893547280773285,0.34022307415998737,0.6182141776138699,,,,,,,,,,,,
38091,0,USNorthDakotaSteele,North Dakota,Steele,2022-04-28 09:13:11,2020-07-09,0.21074230841765287,0.3799751049905025,0.7306647231981953,,,,,,,,,,,,
38091,0,USNorthDakotaSteele,North Dakota,Steele,2022-04-28 09:13:11,2020-07-10,0.21074230841765287,0.3799751049905025,0.7306647231981953,,,,,,,,,,,,
38091,0,USNorthDakotaSteele,North Dakota,Steele,2022-04-28 09:13:11,2020-07-11,0.21074230841765287,0.3799751049905025,0.7306647231981953,,,,,,,,,,,,
38091,0,USNorthDakotaSteele,North Dakota,Steele,2022-04-28 09:13:11,2020-07-12,0.21074230841765287,0.3799751049905025,0.7306647231981953,,,,,,,,,,,,
38091,0,USNorthDakotaSteele,North Dakota,Steele,2022-04-28 09:13:11,2020-07-13,0.21074230841765287,0.3799751049905025,0.7306647231981953,,,,,,,,,,,,
38091,0,USNorthDakotaSteele,North Dakota,Steele,2022-04-28 09:13:11,2020-07-14,0.21074230841765287,0.3799751049905025,0.7306647231981953,,,,,,,,,,,,
38091,0,USNorthDakotaSteele,North Dakota,Steele,2022-04-28 09:13:11,2020-07-15,0.21074230841765287,0.3799751049905025,0.7306647231981953,,,,,,,,,,,,
38091,0,USNorthDakotaSteele,North Dakota,Steele,2022-04-28 09:13:11,2020-07-16,0.2224982407351468,0.4215767164181679,0.854352125764696,,,,,,,,,,,,
38091,0,USNorthDakotaSteele,North Dakota,Steele,2022-04-28 09:13:11,2020-07-17,0.2224982407351468,0.4215767164181679,0.854352125764696,,,,,,,,,,,,
38091,0,USNorthDakotaSteele,North Dakota,Steele,2022-04-28 09:13:11,2020-07-18,0.2224982407351468,0.4215767164181679,0.854352125764696,,,,,,,,,,,,
38091,0,USNorthDakotaSteele,North Dakota,Steele,2022-04-28 09:13:11,2020-07-19,0.2224982407351468,0.4215767164181679,0.854352125764696,,,,,,,,,,,,
38091,0,USNorthDakotaSteele,North Dakota,Steele,2022-04-28 09:13:11,2020-07-20,0.2224982407351468,0.4215767164181679,0.854352125764696,,,,,,,,,,,,
38091,0,USNorthDakotaSteele,North Dakota,Steele,2022-04-28 09:13:11,2020-07-21,0.2224982407351468,0.4215767164181679,0.854352125764696,,,,,,,,,,,,
38091,0,USNorthDakotaSteele,North Dakota,Steele,2022-04-28 09:13:11,2020-07-22,0.2224982407351468,0.4215767164181679,0.854352125764696,,,,,,,,,,,,
38091,0,USNorthDakotaSteele,North Dakota,Steele,2022-04-28 09:13:11,2020-07-23,0.8129228964877062,1.1560491814198766,1.7138755453756562,,,,,,,,,,,,
38091,0,USNorthDakotaSteele,North Dakota,Steele,2022-04-28 09:13:11,2020-07-24,0.8129228964877062,1.1560491814198766,1.7138755453756562,,,,,,,,,,,,
38091,0,USNorthDakotaSteele,North Dakota,Steele,2022-04-28 09:13:11,2020-07-25,0.8129228964877062,1.1560491814198766,1.7138755453756562,,,,,,,,,,,,
38091,0,USNorthDakotaSteele,North Dakota,Steele,2022-04-28 09:13:11,2020-07-26,0.8129228964877062,1.1560491814198766,1.7138755453756562,,,,,,,,,,,,
38091,0,USNorthDakotaSteele,North Dakota,Steele,2022-04-28 09:13:11,2020-07-27,0.8129228964877062,1.1560491814198766,1.7138755453756562,,,,,,,,,,,,
38091,0,USNorthDakotaSteele,North Dakota,Steele,2022-04-28 09:13:11,2020-07-28,0.8129228964877062,1.1560491814198766,1.7138755453756562,,,,,,,,,,,,
38091,0,USNorthDakotaSteele,North Dakota,Steele,2022-04-28 09:13:11,2020-07-29,0.8129228964877062,1.1560491814198766,1.7138755453756562,,,,,,,,,,,,
38091,0,USNorthDakotaSteele,North Dakota,Steele,2022-04-28 09:13:11,2020-07-30,0.37865708942136656,0.6188310200738519,1.0704261305227205,,,,,,,,,,,,
38091,0,USNorthDakotaSteele,North Dakota,Steele,2022-04-28 09:13:11,2020-07-31,0.37865708942136656,0.6188310200738519,1.0704261305227205,,,,,,,,,,,,
38091,0,USNorthDakotaSteele,North Dakota,Steele,2022-04-28 09:13:11,2020-08-01,0.37865708942136656,0.6188310200738519,1.0704261305227205,,,,,,,,,,,,
38091,0,USNorthDakotaSteele,North Dakota,Steele,2022-04-28 09:13:11,2020-08-02,0.37865708942136656,0.6188310200738519,1.0704261305227205,,,,,,,,,,,,
38091,0,USNorthDakotaSteele,North Dakota,Steele,2022-04-28 09:13:11,2020-08-03,0.37865708942136656,0.6188310200738519,1.0704261305227205,,,,,,,,,,,,
38091,0,USNorthDakotaSteele,North Dakota,Steele,2022-04-28 09:13:11,2020-08-04,0.37865708942136656,0.6188310200738519,1.0704261305227205,,,,,,,,,,,,
38091,0,USNorthDakotaSteele,North Dakota,Steele,2022-04-28 09:13:11,2020-08-05,0.37865708942136656,0.6188310200738519,1.0704261305227205,,,,,,,,,,,,
38091,0,USNorthDakotaSteele,North Dakota,Steele,2022-04-28 09:13:11,2020-08-06,0.5242019003886742,0.7959902250332268,1.2698978519195203,,,,,,,,,,,,
38091,0,USNorthDakotaSteele,North Dakota,Steele,2022-04-28 09:13:11,2020-08-07,0.5242019003886742,0.7959902250332268,1.2698978519195203,,,,,,,,,,,,
38091,0,USNorthDakotaSteele,North Dakota,Steele,2022-04-28 09:13:11,2020-08-08,0.5242019003886742,0.7959902250332268,1.2698978519195203,,,,,,,,,,,,
38091,0,USNorthDakotaSteele,North Dakota,Steele,2022-04-28 09:13:11,2020-08-09,0.5242019003886742,0.7959902250332268,1.2698978519195203,,,,,,,,,,,,
38091,0,USNorthDakotaSteele,North Dakota,Steele,2022-04-28 09:13:11,2020-08-10,0.5242019003886742,0.7959902250332268,1.2698978519195203,,,,,,,,,,,,
38091,0,USNorthDakotaSteele,North Dakota,Steele,2022-04-28 09:13:11,2020-08-11,0.5242019003886742,0.7959902250332268,1.2698978519195203,,,,,,,,,,,,
38091,0,USNorthDakotaSteele,North Dakota,Steele,2022-04-28 09:13:11,2020-08-12,0.5242019003886742,0.7959902250332268,1.2698978519195203,,,,,,,,,,,,
38091,0,USNorthDakotaSteele,North Dakota,Steele,2022-04-28 09:13:11,2020-08-13,0.23141265521556065,0.45443770185936816,0.9561151086818925,,,,,,,,,,,,
38091,0,USNorthDakotaSteele,North Dakota,Steele,2022-04-28 09:13:11,2020-08-14,0.23141265521556065,0.45443770185936816,0.9561151086818925,,,,,,,,,,,,
38091,0,USNorthDakotaSteele,North Dakota,Steele,2022-04-28 09:13:11,2020-08-15,0.23141265521556065,0.45443770185936816,0.9561151086818925,,,,,,,,,,,,
38091,0,USNorthDakotaSteele,North Dakota,Steele,2022-04-28 09:13:11,2020-08-16,0.23141265521556065,0.45443770185936816,0.9561151086818925,,,,,,,,,,,,
38091,0,USNorthDakotaSteele,North Dakota,Steele,2022-04-28 09:13:11,2020-08-17,0.23141265521556065,0.45443770185936816,0.9561151086818925,,,,,,,,,,,,
38091,0,USNorthDakotaSteele,North Dakota,Steele,2022-04-28 09:13:11,2020-08-18,0.23141265521556065,0.45443770185936816,0.9561151086818925,,,,,,,,,,,,
38091,0,USNorthDakotaSteele,North Dakota,Steele,2022-04-28 09:13:11,2020-08-19,0.23141265521556065,0.45443770185936816,0.9561151086818925,,,,,,,,,,,,
38091,0,USNorthDakotaSteele,North Dakota,Steele,2022-04-28 09:13:11,2020-08-20,0.2507150854992522,0.5293813724907209,1.2006306918203262,,,,,,,,,,,,
38091,0,USNorthDakotaSteele,North Dakota,Steele,2022-04-28 09:13:11,2020-08-21,0.2507150854992522,0.5293813724907209,1.2006306918203262,,,,,,,,,,,,
38091,0,USNorthDakotaSteele,North Dakota,Steele,2022-04-28 09:13:11,2020-08-22,0.2507150854992522,0.5293813724907209,1.2006306918203262,,,,,,,,,,,,
38091,0,USNorthDakotaSteele,North Dakota,Steele,2022-04-28 09:13:11,2020-08-23,0.2507150854992522,0.5293813724907209,1.2006306918203262,,,,,,,,,,,,
38091,0,USNorthDakotaSteele,North Dakota,Steele,2022-04-28 09:13:11,2020-08-24,0.2507150854992522,0.5293813724907209,1.2006306918203262,,,,,,,,,,,,
38091,0,USNorthDakotaSteele,North Dakota,Steele,2022-04-28 09:13:11,2020-08-25,0.2507150854992522,0.5293813724907209,1.2006306918203262,,,,,,,,,,,,
38091,0,USNorthDakotaSteele,North Dakota,Steele,2022-04-28 09:13:11,2020-08-26,0.2507150854992522,0.5293813724907209,1.2006306918203262,,,,,,,,,,,,
38091,0,USNorthDakotaSteele,North Dakota,Steele,2022-04-28 09:13:11,2020-08-27,0.4450988053143753,0.8435242053535442,1.7098327929697552,,,,,,,,,,,,
38091,0,USNorthDakotaSteele,North Dakota,Steele,2022-04-28 09:13:11,2020-08-28,0.4450988053143753,0.8435242053535442,1.7098327929697552,,,,,,,,,,,,
38091,0,USNorthDakotaSteele,North Dakota,Steele,2022-04-28 09:13:11,2020-08-29,0.4450988053143753,0.8435242053535442,1.7098327929697552,,,,,,,,,,,,
38091,0,USNorthDakotaSteele,North Dakota,Steele,2022-04-28 09:13:11,2020-08-30,0.4450988053143753,0.8435242053535442,1.7098327929697552,,,,,,,,,,,,
38091,0,USNorthDakotaSteele,North Dakota,Steele,2022-04-28 09:13:11,2020-08-31,0.4450988053143753,0.8435242053535442,1.7098327929697552,,,,,,,,,,,,
38091,0,USNorthDakotaSteele,North Dakota,Steele,2022-04-28 09:13:11,2020-09-01,0.4450988053143753,0.8435242053535442,1.7098327929697552,,,,,,,,,,,,
38091,0,USNorthDakotaSteele,North Dakota,Steele,2022-04-28 09:13:11,2020-09-02,0.4450988053143753,0.8435242053535442,1.7098327929697552,,,,,,,,,,,,
38091,0,USNorthDakotaSteele,North Dakota,Steele,2022-04-28 09:13:11,2020-09-03,0.7880908020533697,1.3359121109244618,2.4043473135867655,,,,,,,,,,,,
38091,0,USNorthDakotaSteele,North Dakota,Steele,2022-04-28 09:13:11,2020-09-04,0.7880908020533697,1.3359121109244618,2.4043473135867655,,,,,,,,,,,,
38091,0,USNorthDakotaSteele,North Dakota,Steele,2022-04-28 09:13:11,2020-09-05,0.7880908020533697,1.3359121109244618,2.4043473135867655,,,,,,,,,,,,
38091,0,USNorthDakotaSteele,North Dakota,Steele,2022-04-28 09:13:11,2020-09-06,0.7880908020533697,1.3359121109244618,2.4043473135867655,,,,,,,,,,,,
38091,0,USNorthDakotaSteele,North Dakota,Steele,2022-04-28 09:13:11,2020-09-07,0.7880908020533697,1.3359121109244618,2.4043473135867655,,,,,,,,,,,,
38091,0,USNorthDakotaSteele,North Dakota,Steele,2022-04-28 09:13:11,2020-09-08,0.7880908020533697,1.3359121109244618,2.4043473135867655,,,,,,,,,,,,
38091,0,USNorthDakotaSteele,North Dakota,Steele,2022-04-28 09:13:11,2020-09-09,0.7880908020533697,1.3359121109244618,2.4043473135867655,,,,,,,,,,,,
38091,0,USNorthDakotaSteele,North Dakota,Steele,2022-04-28 09:13:11,2020-09-10,0.6216866689524491,1.1037930104690732,2.087947642480508,,,,,,,,,,,,
38091,0,USNorthDakotaSteele,North Dakota,Steele,2022-04-28 09:13:11,2020-09-11,0.6216866689524491,1.1037930104690732,2.087947642480508,,,,,,,,,,,,
38091,0,USNorthDakotaSteele,North Dakota,Steele,2022-04-28 09:13:11,2020-09-12,0.6216866689524491,1.1037930104690732,2.087947642480508,,,,,,,,,,,,
38091,0,USNorthDakotaSteele,North Dakota,Steele,2022-04-28 09:13:11,2020-09-13,0.6216866689524491,1.1037930104690732,2.087947642480508,,,,,,,,,,,,
38091,0,USNorthDakotaSteele,North Dakota,Steele,2022-04-28 09:13:11,2020-09-14,0.6216866689524491,1.1037930104690732,2.087947642480508,,,,,,,,,,,,
38091,0,USNorthDakotaSteele,North Dakota,Steele,2022-04-28 09:13:11,2020-09-15,0.6216866689524491,1.1037930104690732,2.087947642480508,,,,,,,,,,,,
38091,0,USNorthDakotaSteele,North Dakota,Steele,2022-04-28 09:13:11,2020-09-16,0.6216866689524491,1.1037930104690732,2.087947642480508,,,,,,,,,,,,
38091,0,USNorthDakotaSteele,North Dakota,Steele,2022-04-28 09:13:11,2020-09-17,0.2760908292483859,0.6355530210500066,1.5739766693658903,,,,,,,,,,,,
38091,0,USNorthDakotaSteele,North Dakota,Steele,2022-04-28 09:13:11,2020-09-18,0.2760908292483859,0.6355530210500066,1.5739766693658903,,,,,,,,,,,,
38091,0,USNorthDakotaSteele,North Dakota,Steele,2022-04-28 09:13:11,2020-09-19,0.2760908292483859,0.6355530210500066,1.5739766693658903,,,,,,,,,,,,
38091,0,USNorthDakotaSteele,North Dakota,Steele,2022-04-28 09:13:11,2020-09-20,0.2760908292483859,0.6355530210500066,1.5739766693658903,,,,,,,,,,,,
38091,0,USNorthDakotaSteele,North Dakota,Steele,2022-04-28 09:13:11,2020-09-21,0.2760908292483859,0.6355530210500066,1.5739766693658903,,,,,,,,,,,,
38091,0,USNorthDakotaSteele,North Dakota,Steele,2022-04-28 09:13:11,2020-09-22,0.2760908292483859,0.6355530210500066,1.5739766693658903,,,,,,,,,,,,
38091,0,USNorthDakotaSteele,North Dakota,Steele,2022-04-28 09:13:11,2020-09-23,0.2760908292483859,0.6355530210500066,1.5739766693658903,,,,,,,,,,,,
38091,0,USNorthDakotaSteele,North Dakota,Steele,2022-04-28 09:13:11,2020-09-24,0.286973124095347,0.6836679570352616,1.7526892261119087,,,,,,,,,,,,
38091,0,USNorthDakotaSteele,North Dakota,Steele,2022-04-28 09:13:11,2020-09-25,0.286973124095347,0.6836679570352616,1.7526892261119087,,,,,,,,,,,,
38091,0,USNorthDakotaSteele,North Dakota,Steele,2022-04-28 09:13:11,2020-09-26,0.286973124095347,0.6836679570352616,1.7526892261119087,,,,,,,,,,,,
38091,0,USNorthDakotaSteele,North Dakota,Steele,2022-04-28 09:13:11,2020-09-27,0.286973124095347,0.6836679570352616,1.7526892261119087,,,,,,,,,,,,
38091,0,USNorthDakotaSteele,North Dakota,Steele,2022-04-28 09:13:11,2020-09-28,0.286973124095347,0.6836679570352616,1.7526892261119087,,,,,,,,,,,,
38091,0,USNorthDakotaSteele,North Dakota,Steele,2022-04-28 09:13:11,2020-09-29,0.286973124095347,0.6836679570352616,1.7526892261119087,,,,,,,,,,,,
38091,0,USNorthDakotaSteele,North Dakota,Steele,2022-04-28 09:13:11,2020-09-30,0.286973124095347,0.6836679570352616,1.7526892261119087,,,,,,,,,,,,
38091,0,USNorthDakotaSteele,North Dakota,Steele,2022-04-28 09:13:11,2020-10-01,0.48232533021701285,0.9833048011386338,2.1508897107681313,,,,,,,,,,,,
38091,0,USNorthDakotaSteele,North Dakota,Steele,2022-04-28 09:13:11,2020-10-02,0.48232533021701285,0.9833048011386338,2.1508897107681313,,,,,,,,,,,,
38091,0,USNorthDakotaSteele,North Dakota,Steele,2022-04-28 09:13:11,2020-10-03,0.48232533021701285,0.9833048011386338,2.1508897107681313,,,,,,,,,,,,
38091,0,USNorthDakotaSteele,North Dakota,Steele,2022-04-28 09:13:11,2020-10-04,0.48232533021701285,0.9833048011386338,2.1508897107681313,,,,,,,,,,,,
38091,0,USNorthDakotaSteele,North Dakota,Steele,2022-04-28 09:13:11,2020-10-05,0.48232533021701285,0.9833048011386338,2.1508897107681313,,,,,,,,,,,,
38091,0,USNorthDakotaSteele,North Dakota,Steele,2022-04-28 09:13:11,2020-10-06,0.48232533021701285,0.9833048011386338,2.1508897107681313,,,,,,,,,,,,
38091,0,USNorthDakotaSteele,North Dakota,Steele,2022-04-28 09:13:11,2020-10-07,0.48232533021701285,0.9833048011386338,2.1508897107681313,,,,,,,,,,,,
38091,0,USNorthDakotaSteele,North Dakota,Steele,2022-04-28 09:13:11,2020-10-08,0,0,0,,,,,,,,,,,,
38091,0,USNorthDakotaSteele,North Dakota,Steele,2022-04-28 09:13:11,2020-10-09,0,0,0,,,,,,,,,,,,
38091,0,USNorthDakotaSteele,North Dakota,Steele,2022-04-28 09:13:11,2020-10-10,0,0,0,,,,,,,,,,,,
38091,0,USNorthDakotaSteele,North Dakota,Steele,2022-04-28 09:13:11,2020-10-11,0,0,0,,,,,,,,,,,,
38091,0,USNorthDakotaSteele,North Dakota,Steele,2022-04-28 09:13:11,2020-10-12,0,0,0,,,,,,,,,,,,
38091,0,USNorthDakotaSteele,North Dakota,Steele,2022-04-28 09:13:11,2020-10-13,0,0,0,,,,,,,,,,,,
38091,0,USNorthDakotaSteele,North Dakota,Steele,2022-04-28 09:13:11,2020-10-14,0,0,0,,,,,,,,,,,,
38091,0,USNorthDakotaSteele,North Dakota,Steele,2022-04-28 09:13:11,2020-10-15,1.3891440474463324,2.3704104623474214,4.2968169006700645,,,,,,,,,,,,
38091,0,USNorthDakotaSteele,North Dakota,Steele,2022-04-28 09:13:11,2020-10-16,1.3891440474463324,2.3704104623474214,4.2968169006700645,,,,,,,,,,,,
38091,0,USNorthDakotaSteele,North Dakota,Steele,2022-04-28 09:13:11,2020-10-17,1.3891440474463324,2.3704104623474214,4.2968169006700645,,,,,,,,,,,,
38091,0,USNorthDakotaSteele,North Dakota,Steele,2022-04-28 09:13:11,2020-10-18,1.3891440474463324,2.3704104623474214,4.2968169006700645,,,,,,,,,,,,
38091,0,USNorthDakotaSteele,North Dakota,Steele,2022-04-28 09:13:11,2020-10-19,1.3891440474463324,2.3704104623474214,4.2968169006700645,,,,,,,,,,,,
38091,0,USNorthDakotaSteele,North Dakota,Steele,2022-04-28 09:13:11,2020-10-20,1.3891440474463324,2.3704104623474214,4.2968169006700645,,,,,,,,,,,,
38091,0,USNorthDakotaSteele,North Dakota,Steele,2022-04-28 09:13:11,2020-10-21,1.3891440474463324,2.3704104623474214,4.2968169006700645,,,,,,,,,,,,
38091,0,USNorthDakotaSteele,North Dakota,Steele,2022-04-28 09:13:11,2020-10-22,2.7048423521433906,3.985240957593427,6.147863587720751,,,,,,,,,,,,
38091,0,USNorthDakotaSteele,North Dakota,Steele,2022-04-28 09:13:11,2020-10-23,2.7048423521433906,3.985240957593427,6.147863587720751,,,,,,,,,,,,
38091,0,USNorthDakotaSteele,North Dakota,Steele,2022-04-28 09:13:11,2020-10-24,2.7048423521433906,3.985240957593427,6.147863587720751,,,,,,,,,,,,
38091,0,USNorthDakotaSteele,North Dakota,Steele,2022-04-28 09:13:11,2020-10-25,2.7048423521433906,3.985240957593427,6.147863587720751,,,,,,,,,,,,
38091,0,USNorthDakotaSteele,North Dakota,Steele,2022-04-28 09:13:11,2020-10-26,2.7048423521433906,3.985240957593427,6.147863587720751,,,,,,,,,,,,
38091,0,USNorthDakotaSteele,North Dakota,Steele,2022-04-28 09:13:11,2020-10-27,2.7048423521433906,3.985240957593427,6.147863587720751,,,,,,,,,,,,
38091,0,USNorthDakotaSteele,North Dakota,Steele,2022-04-28 09:13:11,2020-10-28,2.7048423521433906,3.985240957593427,6.147863587720751,,,,,,,,,,,,
38091,0,USNorthDakotaSteele,North Dakota,Steele,2022-04-28 09:13:11,2020-10-29,2.8215596371000498,4.320636494931051,6.957552746107175,,,,,,,,,,,,
38091,0,USNorthDakotaSteele,North Dakota,Steele,2022-04-28 09:13:11,2020-10-30,2.8215596371000498,4.320636494931051,6.957552746107175,,,,,,,,,,,,
38091,0,USNorthDakotaSteele,North Dakota,Steele,2022-04-28 09:13:11,2020-10-31,2.8215596371000498,4.320636494931051,6.957552746107175,,,,,,,,,,,,
38091,0,USNorthDakotaSteele,North Dakota,Steele,2022-04-28 09:13:11,2020-11-01,2.8215596371000498,4.320636494931051,6.957552746107175,,,,,,,,,,,,
38091,0,USNorthDakotaSteele,North Dakota,Steele,2022-04-28 09:13:11,2020-11-02,2.8215596371000498,4.320636494931051,6.957552746107175,,,,,,,,,,,,
38091,0,USNorthDakotaSteele,North Dakota,Steele,2022-04-28 09:13:11,2020-11-03,2.8215596371000498,4.320636494931051,6.957552746107175,,,,,,,,,,,,
38091,0,USNorthDakotaSteele,North Dakota,Steele,2022-04-28 09:13:11,2020-11-04,2.8215596371000498,4.320636494931051,6.957552746107175,,,,,,,,,,,,
38091,0,USNorthDakotaSteele,North Dakota,Steele,2022-04-28 09:13:11,2020-11-05,2.7980468477112375,4.5108821782729365,7.6874027239782166,,,,,,,,,,,,
38091,0,USNorthDakotaSteele,North Dakota,Steele,2022-04-28 09:13:11,2020-11-06,2.7980468477112375,4.5108821782729365,7.6874027239782166,,,,,,,,,,,,
38091,0,USNorthDakotaSteele,North Dakota,Steele,2022-04-28 09:13:11,2020-11-07,2.7980468477112375,4.5108821782729365,7.6874027239782166,,,,,,,,,,,,
38091,0,USNorthDakotaSteele,North Dakota,Steele,2022-04-28 09:13:11,2020-11-08,2.7980468477112375,4.5108821782729365,7.6874027239782166,,,,,,,,,,,,
38091,0,USNorthDakotaSteele,North Dakota,Steele,2022-04-28 09:13:11,2020-11-09,2.7980468477112375,4.5108821782729365,7.6874027239782166,,,,,,,,,,,,
38091,0,USNorthDakotaSteele,North Dakota,Steele,2022-04-28 09:13:11,2020-11-10,2.7980468477112375,4.5108821782729365,7.6874027239782166,,,,,,,,,,,,
38091,0,USNorthDakotaSteele,North Dakota,Steele,2022-04-28 09:13:11,2020-11-11,2.7980468477112375,4.5108821782729365,7.6874027239782166,,,,,,,,,,,,
38091,0,USNorthDakotaSteele,North Dakota,Steele,2022-04-28 09:13:11,2020-11-12,3.2609790771099085,4.871368369405782,7.631452827953086,,,,,,,,,,,,
38091,0,USNorthDakotaSteele,North Dakota,Steele,2022-04-28 09:13:11,2020-11-13,3.2609790771099085,4.871368369405782,7.631452827953086,,,,,,,,,,,,
38091,0,USNorthDakotaSteele,North Dakota,Steele,2022-04-28 09:13:11,2020-11-14,3.2609790771099085,4.871368369405782,7.631452827953086,,,,,,,,,,,,
38091,0,USNorthDakotaSteele,North Dakota,Steele,2022-04-28 09:13:11,2020-11-15,3.2609790771099085,4.871368369405782,7.631452827953086,,,,,,,,,,,,
38091,0,USNorthDakotaSteele,North Dakota,Steele,2022-04-28 09:13:11,2020-11-16,3.2609790771099085,4.871368369405782,7.631452827953086,,,,,,,,,,,,
38091,0,USNorthDakotaSteele,North Dakota,Steele,2022-04-28 09:13:11,2020-11-17,3.2609790771099085,4.871368369405782,7.631452827953086,,,,,,,,,,,,
38091,0,USNorthDakotaSteele,North Dakota,Steele,2022-04-28 09:13:11,2020-11-18,3.2609790771099085,4.871368369405782,7.631452827953086,,,,,,,,,,,,
38091,0,USNorthDakotaSteele,North Dakota,Steele,2022-04-28 09:13:11,2020-11-19,3.5956077063851253,5.13754327557339,7.65726238571533,,,,,,,,,,,,
38091,0,USNorthDakotaSteele,North Dakota,Steele,2022-04-28 09:13:11,2020-11-20,3.5956077063851253,5.13754327557339,7.65726238571533,,,,,,,,,,,,
38091,0,USNorthDakotaSteele,North Dakota,Steele,2022-04-28 09:13:11,2020-11-21,3.5956077063851253,5.13754327557339,7.65726238571533,,,,,,,,,,,,
38091,0,USNorthDakotaSteele,North Dakota,Steele,2022-04-28 09:13:11,2020-11-22,3.5956077063851253,5.13754327557339,7.65726238571533,,,,,,,,,,,,
38091,0,USNorthDakotaSteele,North Dakota,Steele,2022-04-28 09:13:11,2020-11-23,3.5956077063851253,5.13754327557339,7.65726238571533,,,,,,,,,,,,
38091,0,USNorthDakotaSteele,North Dakota,Steele,2022-04-28 09:13:11,2020-11-24,3.5956077063851253,5.13754327557339,7.65726238571533,,,,,,,,,,,,
38091,0,USNorthDakotaSteele,North Dakota,Steele,2022-04-28 09:13:11,2020-11-25,3.5956077063851253,5.13754327557339,7.65726238571533,,,,,,,,,,,,
38091,0,USNorthDakotaSteele,North Dakota,Steele,2022-04-28 09:13:11,2020-11-26,2.6479471508632266,3.826718975272436,5.776842847103328,,,,,,,,,,,,
38091,0,USNorthDakotaSteele,North Dakota,Steele,2022-04-28 09:13:11,2020-11-27,2.6479471508632266,3.826718975272436,5.776842847103328,,,,,,,,,,,,
38091,0,USNorthDakotaSteele,North Dakota,Steele,2022-04-28 09:13:11,2020-11-28,2.6479471508632266,3.826718975272436,5.776842847103328,,,,,,,,,,,,
38091,0,USNorthDakotaSteele,North Dakota,Steele,2022-04-28 09:13:11,2020-11-29,2.6479471508632266,3.826718975272436,5.776842847103328,,,,,,,,,,,,
38091,0,USNorthDakotaSteele,North Dakota,Steele,2022-04-28 09:13:11,2020-11-30,2.6479471508632266,3.826718975272436,5.776842847103328,,,,,,,,,,,,
38091,0,USNorthDakotaSteele,North Dakota,Steele,2022-04-28 09:13:11,2020-12-01,2.6479471508632266,3.826718975272436,5.776842847103328,,,,,,,,,,,,
38091,0,USNorthDakotaSteele,North Dakota,Steele,2022-04-28 09:13:11,2020-12-02,2.6479471508632266,3.826718975272436,5.776842847103328,,,,,,,,,,,,
38091,0,USNorthDakotaSteele,North Dakota,Steele,2022-04-28 09:13:11,2020-12-03,1.0520779607124413,1.8942374861272082,3.6369782478630577,,,,,,,,,,,,
38091,0,USNorthDakotaSteele,North Dakota,Steele,2022-04-28 09:13:11,2020-12-04,1.0520779607124413,1.8942374861272082,3.6369782478630577,,,,,,,,,,,,
38091,0,USNorthDakotaSteele,North Dakota,Steele,2022-04-28 09:13:11,2020-12-05,1.0520779607124413,1.8942374861272082,3.6369782478630577,,,,,,,,,,,,
38091,0,USNorthDakotaSteele,North Dakota,Steele,2022-04-28 09:13:11,2020-12-06,1.0520779607124413,1.8942374861272082,3.6369782478630577,,,,,,,,,,,,
38091,0,USNorthDakotaSteele,North Dakota,Steele,2022-04-28 09:13:11,2020-12-07,1.0520779607124413,1.8942374861272082,3.6369782478630577,,,,,,,,,,,,
38091,0,USNorthDakotaSteele,North Dakota,Steele,2022-04-28 09:13:11,2020-12-08,1.0520779607124413,1.8942374861272082,3.6369782478630577,,,,,,,,,,,,
38091,0,USNorthDakotaSteele,North Dakota,Steele,2022-04-28 09:13:11,2020-12-09,1.0520779607124413,1.8942374861272082,3.6369782478630577,,,,,,,,,,,,
38091,0,USNorthDakotaSteele,North Dakota,Steele,2022-04-28 09:13:11,2020-12-10,0.6423772768388328,1.1752316968754966,2.2951542960071727,,,,,,,,,,,,
38091,0,USNorthDakotaSteele,North Dakota,Steele,2022-04-28 09:13:11,2020-12-11,0.6423772768388328,1.1752316968754966,2.2951542960071727,,,,,,,,,,,,
38091,0,USNorthDakotaSteele,North Dakota,Steele,2022-04-28 09:13:11,2020-12-12,0.6423772768388328,1.1752316968754966,2.2951542960071727,,,,,,,,,,,,
38091,0,USNorthDakotaSteele,North Dakota,Steele,2022-04-28 09:13:11,2020-12-13,0.6423772768388328,1.1752316968754966,2.2951542960071727,,,,,,,,,,,,
38091,0,USNorthDakotaSteele,North Dakota,Steele,2022-04-28 09:13:11,2020-12-14,0.6423772768388328,1.1752316968754966,2.2951542960071727,,,,,,,,,,,,
38091,0,USNorthDakotaSteele,North Dakota,Steele,2022-04-28 09:13:11,2020-12-15,0.6423772768388328,1.1752316968754966,2.2951542960071727,,,,,,,,,,,,
38091,0,USNorthDakotaSteele,North Dakota,Steele,2022-04-28 09:13:11,2020-12-16,0.6423772768388328,1.1752316968754966,2.2951542960071727,,,,,,,,,,,,
38091,0,USNorthDakotaSteele,North Dakota,Steele,2022-04-28 09:13:11,2020-12-17,1.6444667959791466,2.362837518044294,3.5438871910917062,,,,,,,,,,,,
38091,0,USNorthDakotaSteele,North Dakota,Steele,2022-04-28 09:13:11,2020-12-18,1.6444667959791466,2.362837518044294,3.5438871910917062,,,,,,,,,,,,
38091,0,USNorthDakotaSteele,North Dakota,Steele,2022-04-28 09:13:11,2020-12-19,1.6444667959791466,2.362837518044294,3.5438871910917062,,,,,,,,,,,,
38091,0,USNorthDakotaSteele,North Dakota,Steele,2022-04-28 09:13:11,2020-12-20,1.6444667959791466,2.362837518044294,3.5438871910917062,,,,,,,,,,,,
38091,0,USNorthDakotaSteele,North Dakota,Steele,2022-04-28 09:13:11,2020-12-21,1.6444667959791466,2.362837518044294,3.5438871910917062,,,,,,,,,,,,
38091,0,USNorthDakotaSteele,North Dakota,Steele,2022-04-28 09:13:11,2020-12-22,1.6444667959791466,2.362837518044294,3.5438871910917062,,,,,,,,,,,,
38091,0,USNorthDakotaSteele,North Dakota,Steele,2022-04-28 09:13:11,2020-12-23,1.6444667959791466,2.362837518044294,3.5438871910917062,,,,,,,,,,,,
38091,0,USNorthDakotaSteele,North Dakota,Steele,2022-04-28 09:13:11,2020-12-24,0.4762390588356594,0.9597912685028437,2.074582073200015,,,,,,,,,,,,
38091,0,USNorthDakotaSteele,North Dakota,Steele,2022-04-28 09:13:11,2020-12-25,0.4762390588356594,0.9597912685028437,2.074582073200015,,,,,,,,,,,,
38091,0,USNorthDakotaSteele,North Dakota,Steele,2022-04-28 09:13:11,2020-12-26,0.4762390588356594,0.9597912685028437,2.074582073200015,,,,,,,,,,,,
38091,0,USNorthDakotaSteele,North Dakota,Steele,2022-04-28 09:13:11,2020-12-27,0.4762390588356594,0.9597912685028437,2.074582073200015,,,,,,,,,,,,
38091,0,USNorthDakotaSteele,North Dakota,Steele,2022-04-28 09:13:11,2020-12-28,0.4762390588356594,0.9597912685028437,2.074582073200015,,,,,,,,,,,,
38091,0,USNorthDakotaSteele,North Dakota,Steele,2022-04-28 09:13:11,2020-12-29,0.4762390588356594,0.9597912685028437,2.074582073200015,,,,,,,,,,,,
38091,0,USNorthDakotaSteele,North Dakota,Steele,2022-04-28 09:13:11,2020-12-30,0.4762390588356594,0.9597912685028437,2.074582073200015,,,,,,,,,,,,
38091,0,USNorthDakotaSteele,North Dakota,Steele,2022-04-28 09:13:11,2020-12-31,0.26632348534175104,0.5936778078927808,1.4231600952669243,,,,,,,,,,,,
38091,0,USNorthDakotaSteele,North Dakota,Steele,2022-04-28 09:13:11,2021-01-01,0.26632348534175104,0.5936778078927808,1.4231600952669243,,,,,,,,,,,,
38091,0,USNorthDakotaSteele,North Dakota,Steele,2022-04-28 09:13:11,2021-01-02,0.26632348534175104,0.5936778078927808,1.4231600952669243,,,,,,,,,,,,
38091,0,USNorthDakotaSteele,North Dakota,Steele,2022-04-28 09:13:11,2021-01-03,0.26632348534175104,0.5936778078927808,1.4231600952669243,,,,,,,,,,,,
38091,0,USNorthDakotaSteele,North Dakota,Steele,2022-04-28 09:13:11,2021-01-04,0.26632348534175104,0.5936778078927808,1.4231600952669243,,,,,,,,,,,,
38091,0,USNorthDakotaSteele,North Dakota,Steele,2022-04-28 09:13:11,2021-01-05,0.26632348534175104,0.5936778078927808,1.4231600952669243,,,,,,,,,,,,
38091,0,USNorthDakotaSteele,North Dakota,Steele,2022-04-28 09:13:11,2021-01-06,0.26632348534175104,0.5936778078927808,1.4231600952669243,,,,,,,,,,,,
38091,0,USNorthDakotaSteele,North Dakota,Steele,2022-04-28 09:13:11,2021-01-07,0,0,0,,,,,,,,,,,,
38091,0,USNorthDakotaSteele,North Dakota,Steele,2022-04-28 09:13:11,2021-01-08,0,0,0,,,,,,,,,,,,
38091,0,USNorthDakotaSteele,North Dakota,Steele,2022-04-28 09:13:11,2021-01-09,0,0,0,,,,,,,,,,,,
38091,0,USNorthDakotaSteele,North Dakota,Steele,2022-04-28 09:13:11,2021-01-10,0,0,0,,,,,,,,,,,,
38091,0,USNorthDakotaSteele,North Dakota,Steele,2022-04-28 09:13:11,2021-01-11,0,0,0,,,,,,,,,,,,
38091,0,USNorthDakotaSteele,North Dakota,Steele,2022-04-28 09:13:11,2021-01-12,0,0,0,,,,,,,,,,,,
38091,0,USNorthDakotaSteele,North Dakota,Steele,2022-04-28 09:13:11,2021-01-13,0,0,0,,,,,,,,,,,,
38091,0,USNorthDakotaSteele,North Dakota,Steele,2022-04-28 09:13:11,2021-01-14,0.7447610915525392,1.1986255369645629,2.0388806539313005,,,,,,,,,,,,
38091,0,USNorthDakotaSteele,North Dakota,Steele,2022-04-28 09:13:11,2021-01-15,0.7447610915525392,1.1986255369645629,2.0388806539313005,,,,,,,,,,,,
38091,0,USNorthDakotaSteele,North Dakota,Steele,2022-04-28 09:13:11,2021-01-16,0.7447610915525392,1.1986255369645629,2.0388806539313005,,,,,,,,,,,,
38091,0,USNorthDakotaSteele,North Dakota,Steele,2022-04-28 09:13:11,2021-01-17,0.7447610915525392,1.1986255369645629,2.0388806539313005,,,,,,,,,,,,
38091,0,USNorthDakotaSteele,North Dakota,Steele,2022-04-28 09:13:11,2021-01-18,0.7447610915525392,1.1986255369645629,2.0388806539313005,,,,,,,,,,,,
38091,0,USNorthDakotaSteele,North Dakota,Steele,2022-04-28 09:13:11,2021-01-19,0.7447610915525392,1.1986255369645629,2.0388806539313005,,,,,,,,,,,,
38091,0,USNorthDakotaSteele,North Dakota,Steele,2022-04-28 09:13:11,2021-01-20,0.7447610915525392,1.1986255369645629,2.0388806539313005,,,,,,,,,,,,
38091,0,USNorthDakotaSteele,North Dakota,Steele,2022-04-28 09:13:11,2021-01-21,0,0,0,,,,,,,,,,,,
38091,0,USNorthDakotaSteele,North Dakota,Steele,2022-04-28 09:13:11,2021-01-22,0,0,0,,,,,,,,,,,,
38091,0,USNorthDakotaSteele,North Dakota,Steele,2022-04-28 09:13:11,2021-01-23,0,0,0,,,,,,,,,,,,
38091,0,USNorthDakotaSteele,North Dakota,Steele,2022-04-28 09:13:11,2021-01-24,0,0,0,,,,,,,,,,,,
38091,0,USNorthDakotaSteele,North Dakota,Steele,2022-04-28 09:13:11,2021-01-25,0,0,0,,,,,,,,,,,,
38091,0,USNorthDakotaSteele,North Dakota,Steele,2022-04-28 09:13:11,2021-01-26,0,0,0,,,,,,,,,,,,
38091,0,USNorthDakotaSteele,North Dakota,Steele,2022-04-28 09:13:11,2021-01-27,0,0,0,,,,,,,,,,,,
38091,0,USNorthDakotaSteele,North Dakota,Steele,2022-04-28 09:13:11,2021-01-28,0,0,0,,,,,,,,,,,,
38091,0,USNorthDakotaSteele,North Dakota,Steele,2022-04-28 09:13:11,2021-01-29,0,0,0,,,,,,,,,,,,
38091,0,USNorthDakotaSteele,North Dakota,Steele,2022-04-28 09:13:11,2021-01-30,0,0,0,,,,,,,,,,,,
38091,0,USNorthDakotaSteele,North Dakota,Steele,2022-04-28 09:13:11,2021-01-31,0,0,0,,,,,,,,,,,,
38091,0,USNorthDakotaSteele,North Dakota,Steele,2022-04-28 09:13:11,2021-02-01,0,0,0,,,,,,,,,,,,
38091,0,USNorthDakotaSteele,North Dakota,Steele,2022-04-28 09:13:11,2021-02-02,0,0,0,,,,,,,,,,,,
38091,0,USNorthDakotaSteele,North Dakota,Steele,2022-04-28 09:13:11,2021-02-03,0,0,0,,,,,,,,,,,,
38091,0,USNorthDakotaSteele,North Dakota,Steele,2022-04-28 09:13:11,2021-02-04,0.35638294157071737,0.550945425152853,0.8965860201566124,,,,,,,,,,,,
38091,0,USNorthDakotaSteele,North Dakota,Steele,2022-04-28 09:13:11,2021-02-05,0.35638294157071737,0.550945425152853,0.8965860201566124,,,,,,,,,,,,
38091,0,USNorthDakotaSteele,North Dakota,Steele,2022-04-28 09:13:11,2021-02-06,0.35638294157071737,0.550945425152853,0.8965860201566124,,,,,,,,,,,,
38091,0,USNorthDakotaSteele,North Dakota,Steele,2022-04-28 09:13:11,2021-02-07,0.35638294157071737,0.550945425152853,0.8965860201566124,,,,,,,,,,,,
38091,0,USNorthDakotaSteele,North Dakota,Steele,2022-04-28 09:13:11,2021-02-08,0.35638294157071737,0.550945425152853,0.8965860201566124,,,,,,,,,,,,
38091,0,USNorthDakotaSteele,North Dakota,Steele,2022-04-28 09:13:11,2021-02-09,0.35638294157071737,0.550945425152853,0.8965860201566124,,,,,,,,,,,,
38091,0,USNorthDakotaSteele,North Dakota,Steele,2022-04-28 09:13:11,2021-02-10,0.35638294157071737,0.550945425152853,0.8965860201566124,,,,,,,,,,,,
38091,0,USNorthDakotaSteele,North Dakota,Steele,2022-04-28 09:13:11,2021-02-11,0.42568355745970676,0.7745163819213149,1.5037750999888249,,,,,,,,,,,,
38091,0,USNorthDakotaSteele,North Dakota,Steele,2022-04-28 09:13:11,2021-02-12,0.42568355745970676,0.7745163819213149,1.5037750999888249,,,,,,,,,,,,
38091,0,USNorthDakotaSteele,North Dakota,Steele,2022-04-28 09:13:11,2021-02-13,0.42568355745970676,0.7745163819213149,1.5037750999888249,,,,,,,,,,,,
38091,0,USNorthDakotaSteele,North Dakota,Steele,2022-04-28 09:13:11,2021-02-14,0.42568355745970676,0.7745163819213149,1.5037750999888249,,,,,,,,,,,,
38091,0,USNorthDakotaSteele,North Dakota,Steele,2022-04-28 09:13:11,2021-02-15,0.42568355745970676,0.7745163819213149,1.5037750999888249,,,,,,,,,,,,
38091,0,USNorthDakotaSteele,North Dakota,Steele,2022-04-28 09:13:11,2021-02-16,0.42568355745970676,0.7745163819213149,1.5037750999888249,,,,,,,,,,,,
38091,0,USNorthDakotaSteele,North Dakota,Steele,2022-04-28 09:13:11,2021-02-17,0.42568355745970676,0.7745163819213149,1.5037750999888249,,,,,,,,,,,,
38091,0,USNorthDakotaSteele,North Dakota,Steele,2022-04-28 09:13:11,2021-02-18,0.2486979494604952,0.5213108265626288,1.1735068243341042,,,,,,,,,,,,
38091,0,USNorthDakotaSteele,North Dakota,Steele,2022-04-28 09:13:11,2021-02-19,0.2486979494604952,0.5213108265626288,1.1735068243341042,,,,,,,,,,,,
38091,0,USNorthDakotaSteele,North Dakota,Steele,2022-04-28 09:13:11,2021-02-20,0.2486979494604952,0.5213108265626288,1.1735068243341042,,,,,,,,,,,,
38091,0,USNorthDakotaSteele,North Dakota,Steele,2022-04-28 09:13:11,2021-02-21,0.2486979494604952,0.5213108265626288,1.1735068243341042,,,,,,,,,,,,
38091,0,USNorthDakotaSteele,North Dakota,Steele,2022-04-28 09:13:11,2021-02-22,0.2486979494604952,0.5213108265626288,1.1735068243341042,,,,,,,,,,,,
38091,0,USNorthDakotaSteele,North Dakota,Steele,2022-04-28 09:13:11,2021-02-23,0.2486979494604952,0.5213108265626288,1.1735068243341042,,,,,,,,,,,,
38091,0,USNorthDakotaSteele,North Dakota,Steele,2022-04-28 09:13:11,2021-02-24,0.2486979494604952,0.5213108265626288,1.1735068243341042,,,,,,,,,,,,
38091,0,USNorthDakotaSteele,North Dakota,Steele,2022-04-28 09:13:11,2021-02-25,0,0,0,,,,,,,,,,,,
38091,0,USNorthDakotaSteele,North Dakota,Steele,2022-04-28 09:13:11,2021-02-26,0,0,0,,,,,,,,,,,,
38091,0,USNorthDakotaSteele,North Dakota,Steele,2022-04-28 09:13:11,2021-02-27,0,0,0,,,,,,,,,,,,
38091,0,USNorthDakotaSteele,North Dakota,Steele,2022-04-28 09:13:11,2021-02-28,0,0,0,,,,,,,,,,,,
38091,0,USNorthDakotaSteele,North Dakota,Steele,2022-04-28 09:13:11,2021-03-01,0,0,0,,,,,,,,,,,,
38091,0,USNorthDakotaSteele,North Dakota,Steele,2022-04-28 09:13:11,2021-03-02,0,0,0,,,,,,,,,,,,
38091,0,USNorthDakotaSteele,North Dakota,Steele,2022-04-28 09:13:11,2021-03-03,0,0,0,,,,,,,,,,,,
38091,0,USNorthDakotaSteele,North Dakota,Steele,2022-04-28 09:13:11,2021-03-04,0.43294146304986536,0.7999957491154754,1.5789120122164337,,,,,,,,,,,,
38091,0,USNorthDakotaSteele,North Dakota,Steele,2022-04-28 09:13:11,2021-03-05,0.43294146304986536,0.7999957491154754,1.5789120122164337,,,,,,,,,,,,
38091,0,USNorthDakotaSteele,North Dakota,Steele,2022-04-28 09:13:11,2021-03-06,0.43294146304986536,0.7999957491154754,1.5789120122164337,,,,,,,,,,,,
38091,0,USNorthDakotaSteele,North Dakota,Steele,2022-04-28 09:13:11,2021-03-07,0.43294146304986536,0.7999957491154754,1.5789120122164337,,,,,,,,,,,,
38091,0,USNorthDakotaSteele,North Dakota,Steele,2022-04-28 09:13:11,2021-03-08,0.43294146304986536,0.7999957491154754,1.5789120122164337,,,,,,,,,,,,
38091,0,USNorthDakotaSteele,North Dakota,Steele,2022-04-28 09:13:11,2021-03-09,0.43294146304986536,0.7999957491154754,1.5789120122164337,,,,,,,,,,,,
38091,0,USNorthDakotaSteele,North Dakota,Steele,2022-04-28 09:13:11,2021-03-10,0.43294146304986536,0.7999957491154754,1.5789120122164337,,,,,,,,,,,,
38091,0,USNorthDakotaSteele,North Dakota,Steele,2022-04-28 09:13:11,2021-03-11,0,0,0,,,,,,,,,,,,
38091,0,USNorthDakotaSteele,North Dakota,Steele,2022-04-28 09:13:11,2021-03-12,0,0,0,,,,,,,,,,,,
38091,0,USNorthDakotaSteele,North Dakota,Steele,2022-04-28 09:13:11,2021-03-13,0,0,0,,,,,,,,,,,,
38091,0,USNorthDakotaSteele,North Dakota,Steele,2022-04-28 09:13:11,2021-03-14,0,0,0,,,,,,,,,,,,
38091,0,USNorthDakotaSteele,North Dakota,Steele,2022-04-28 09:13:11,2021-03-15,0,0,0,,,,,,,,,,,,
38091,0,USNorthDakotaSteele,North Dakota,Steele,2022-04-28 09:13:11,2021-03-16,0,0,0,,,,,,,,,,,,
38091,0,USNorthDakotaSteele,North Dakota,Steele,2022-04-28 09:13:11,2021-03-17,0,0,0,,,,,,,,,,,,
38091,0,USNorthDakotaSteele,North Dakota,Steele,2022-04-28 09:13:11,2021-03-18,0,0,0,,,,,,,,,,,,
38091,0,USNorthDakotaSteele,North Dakota,Steele,2022-04-28 09:13:11,2021-03-19,0,0,0,,,,,,,,,,,,
38091,0,USNorthDakotaSteele,North Dakota,Steele,2022-04-28 09:13:11,2021-03-20,0,0,0,,,,,,,,,,,,
38091,0,USNorthDakotaSteele,North Dakota,Steele,2022-04-28 09:13:11,2021-03-21,0,0,0,,,,,,,,,,,,
38091,0,USNorthDakotaSteele,North Dakota,Steele,2022-04-28 09:13:11,2021-03-22,0,0,0,,,,,,,,,,,,
38091,0,USNorthDakotaSteele,North Dakota,Steele,2022-04-28 09:13:11,2021-03-23,0,0,0,,,,,,,,,,,,
38091,0,USNorthDakotaSteele,North Dakota,Steele,2022-04-28 09:13:11,2021-03-24,0,0,0,,,,,,,,,,,,
38091,0,USNorthDakotaSteele,North Dakota,Steele,2022-04-28 09:13:11,2021-03-25,0.2870443955822398,0.6839880959349063,1.7538971522083593,,,,,,,,,,,,
38091,0,USNorthDakotaSteele,North Dakota,Steele,2022-04-28 09:13:11,2021-03-26,0.2870443955822398,0.6839880959349063,1.7538971522083593,,,,,,,,,,,,
38091,0,USNorthDakotaSteele,North Dakota,Steele,2022-04-28 09:13:11,2021-03-27,0.2870443955822398,0.6839880959349063,1.7538971522083593,,,,,,,,,,,,
38091,0,USNorthDakotaSteele,North Dakota,Steele,2022-04-28 09:13:11,2021-03-28,0.2870443955822398,0.6839880959349063,1.7538971522083593,,,,,,,,,,,,
38091,0,USNorthDakotaSteele,North Dakota,Steele,2022-04-28 09:13:11,2021-03-29,0.2870443955822398,0.6839880959349063,1.7538971522083593,,,,,,,,,,,,
38091,0,USNorthDakotaSteele,North Dakota,Steele,2022-04-28 09:13:11,2021-03-30,0.2870443955822398,0.6839880959349063,1.7538971522083593,,,,,,,,,,,,
38091,0,USNorthDakotaSteele,North Dakota,Steele,2022-04-28 09:13:11,2021-03-31,0.2870443955822398,0.6839880959349063,1.7538971522083593,,,,,,,,,,,,
38091,0,USNorthDakotaSteele,North Dakota,Steele,2022-04-28 09:13:11,2021-04-01,0,0,0,,,,,,,,,,,,
38091,0,USNorthDakotaSteele,North Dakota,Steele,2022-04-28 09:13:11,2021-04-02,0,0,0,,,,,,,,,,,,
38091,0,USNorthDakotaSteele,North Dakota,Steele,2022-04-28 09:13:11,2021-04-03,0,0,0,,,,,,,,,,,,
38091,0,USNorthDakotaSteele,North Dakota,Steele,2022-04-28 09:13:11,2021-04-04,0,0,0,,,,,,,,,,,,
38091,0,USNorthDakotaSteele,North Dakota,Steele,2022-04-28 09:13:11,2021-04-05,0,0,0,,,,,,,,,,,,
38091,0,USNorthDakotaSteele,North Dakota,Steele,2022-04-28 09:13:11,2021-04-06,0,0,0,,,,,,,,,,,,
38091,0,USNorthDakotaSteele,North Dakota,Steele,2022-04-28 09:13:11,2021-04-07,0,0,0,,,,,,,,,,,,
38091,0,USNorthDakotaSteele,North Dakota,Steele,2022-04-28 09:13:11,2021-04-08,0.658835223153746,1.2335337788717584,2.4686504215872374,,,,,,,,,,,,
38091,0,USNorthDakotaSteele,North Dakota,Steele,2022-04-28 09:13:11,2021-04-09,0.658835223153746,1.2335337788717584,2.4686504215872374,,,,,,,,,,,,
38091,0,USNorthDakotaSteele,North Dakota,Steele,2022-04-28 09:13:11,2021-04-10,0.658835223153746,1.2335337788717584,2.4686504215872374,,,,,,,,,,,,
38091,0,USNorthDakotaSteele,North Dakota,Steele,2022-04-28 09:13:11,2021-04-11,0.658835223153746,1.2335337788717584,2.4686504215872374,,,,,,,,,,,,
38091,0,USNorthDakotaSteele,North Dakota,Steele,2022-04-28 09:13:11,2021-04-12,0.658835223153746,1.2335337788717584,2.4686504215872374,,,,,,,,,,,,
38091,0,USNorthDakotaSteele,North Dakota,Steele,2022-04-28 09:13:11,2021-04-13,0.658835223153746,1.2335337788717584,2.4686504215872374,,,,,,,,,,,,
38091,0,USNorthDakotaSteele,North Dakota,Steele,2022-04-28 09:13:11,2021-04-14,0.658835223153746,1.2335337788717584,2.4686504215872374,,,,,,,,,,,,
38091,0,USNorthDakotaSteele,North Dakota,Steele,2022-04-28 09:13:11,2021-04-15,0.6811416807427455,1.3146160014017423,2.7162389903527635,,,,,,,,,,,,
38091,0,USNorthDakotaSteele,North Dakota,Steele,2022-04-28 09:13:11,2021-04-16,0.6811416807427455,1.3146160014017423,2.7162389903527635,,,,,,,,,,,,
38091,0,USNorthDakotaSteele,North Dakota,Steele,2022-04-28 09:13:11,2021-04-17,0.6811416807427455,1.3146160014017423,2.7162389903527635,,,,,,,,,,,,
38091,0,USNorthDakotaSteele,North Dakota,Steele,2022-04-28 09:13:11,2021-04-18,0.6811416807427455,1.3146160014017423,2.7162389903527635,,,,,,,,,,,,
38091,0,USNorthDakotaSteele,North Dakota,Steele,2022-04-28 09:13:11,2021-04-19,0.6811416807427455,1.3146160014017423,2.7162389903527635,,,,,,,,,,,,
38091,0,USNorthDakotaSteele,North Dakota,Steele,2022-04-28 09:13:11,2021-04-20,0.6811416807427455,1.3146160014017423,2.7162389903527635,,,,,,,,,,,,
38091,0,USNorthDakotaSteele,North Dakota,Steele,2022-04-28 09:13:11,2021-04-21,0.6811416807427455,1.3146160014017423,2.7162389903527635,,,,,,,,,,,,
38091,0,USNorthDakotaSteele,North Dakota,Steele,2022-04-28 09:13:11,2021-04-22,0,0,0,,,,,,,,,,,,
38091,0,USNorthDakotaSteele,North Dakota,Steele,2022-04-28 09:13:11,2021-04-23,0,0,0,,,,,,,,,,,,
38091,0,USNorthDakotaSteele,North Dakota,Steele,2022-04-28 09:13:11,2021-04-24,0,0,0,,,,,,,,,,,,
38091,0,USNorthDakotaSteele,North Dakota,Steele,2022-04-28 09:13:11,2021-04-25,0,0,0,,,,,,,,,,,,
38091,0,USNorthDakotaSteele,North Dakota,Steele,2022-04-28 09:13:11,2021-04-26,0,0,0,,,,,,,,,,,,
38091,0,USNorthDakotaSteele,North Dakota,Steele,2022-04-28 09:13:11,2021-04-27,0,0,0,,,,,,,,,,,,
38091,0,USNorthDakotaSteele,North Dakota,Steele,2022-04-28 09:13:11,2021-04-28,0,0,0,,,,,,,,,,,,
38091,0,USNorthDakotaSteele,North Dakota,Steele,2022-04-28 09:13:11,2021-04-29,0.28808373727333164,0.6886640138634197,1.7715679034352985,,,,,,,,,,,,
38091,0,USNorthDakotaSteele,North Dakota,Steele,2022-04-28 09:13:11,2021-04-30,0.28808373727333164,0.6886640138634197,1.7715679034352985,,,,,,,,,,,,
38091,0,USNorthDakotaSteele,North Dakota,Steele,2022-04-28 09:13:11,2021-05-01,0.28808373727333164,0.6886640138634197,1.7715679034352985,,,,,,,,,,,,
38091,0,USNorthDakotaSteele,North Dakota,Steele,2022-04-28 09:13:11,2021-05-02,0.28808373727333164,0.6886640138634197,1.7715679034352985,,,,,,,,,,,,
38091,0,USNorthDakotaSteele,North Dakota,Steele,2022-04-28 09:13:11,2021-05-03,0.28808373727333164,0.6886640138634197,1.7715679034352985,,,,,,,,,,,,
38091,0,USNorthDakotaSteele,North Dakota,Steele,2022-04-28 09:13:11,2021-05-04,0.28808373727333164,0.6886640138634197,1.7715679034352985,,,,,,,,,,,,
38091,0,USNorthDakotaSteele,North Dakota,Steele,2022-04-28 09:13:11,2021-05-05,0.28808373727333164,0.6886640138634197,1.7715679034352985,,,,,,,,,,,,
38091,0,USNorthDakotaSteele,North Dakota,Steele,2022-04-28 09:13:11,2021-05-06,0,0,0,,,,,,,,,,,,
38091,0,USNorthDakotaSteele,North Dakota,Steele,2022-04-28 09:13:11,2021-05-07,0,0,0,,,,,,,,,,,,
38091,0,USNorthDakotaSteele,North Dakota,Steele,2022-04-28 09:13:11,2021-05-08,0,0,0,,,,,,,,,,,,
38091,0,USNorthDakotaSteele,North Dakota,Steele,2022-04-28 09:13:11,2021-05-09,0,0,0,,,,,,,,,,,,
38091,0,USNorthDakotaSteele,North Dakota,Steele,2022-04-28 09:13:11,2021-05-10,0,0,0,,,,,,,,,,,,
38091,0,USNorthDakotaSteele,North Dakota,Steele,2022-04-28 09:13:11,2021-05-11,0,0,0,,,,,,,,,,,,
38091,0,USNorthDakotaSteele,North Dakota,Steele,2022-04-28 09:13:11,2021-05-12,0,0,0,,,,,,,,,,,,
38091,0,USNorthDakotaSteele,North Dakota,Steele,2022-04-28 09:13:11,2021-05-13,0.27525839033482513,0.6319355394387008,1.5607716269286613,,,,,,,,,,,,
38091,0,USNorthDakotaSteele,North Dakota,Steele,2022-04-28 09:13:11,2021-05-14,0.27525839033482513,0.6319355394387008,1.5607716269286613,,,,,,,,,,,,
38091,0,USNorthDakotaSteele,North Dakota,Steele,2022-04-28 09:13:11,2021-05-15,0.27525839033482513,0.6319355394387008,1.5607716269286613,,,,,,,,,,,,
38091,0,USNorthDakotaSteele,North Dakota,Steele,2022-04-28 09:13:11,2021-05-16,0.27525839033482513,0.6319355394387008,1.5607716269286613,,,,,,,,,,,,
38091,0,USNorthDakotaSteele,North Dakota,Steele,2022-04-28 09:13:11,2021-05-17,0.27525839033482513,0.6319355394387008,1.5607716269286613,,,,,,,,,,,,
38091,0,USNorthDakotaSteele,North Dakota,Steele,2022-04-28 09:13:11,2021-05-18,0.27525839033482513,0.6319355394387008,1.5607716269286613,,,,,,,,,,,,
38091,0,USNorthDakotaSteele,North Dakota,Steele,2022-04-28 09:13:11,2021-05-19,0.27525839033482513,0.6319355394387008,1.5607716269286613,,,,,,,,,,,,
38091,0,USNorthDakotaSteele,North Dakota,Steele,2022-04-28 09:13:11,2021-05-20,0.4469222583930394,0.8501440199114302,1.7300200263109942,,,,,,,,,,,,
38091,0,USNorthDakotaSteele,North Dakota,Steele,2022-04-28 09:13:11,2021-05-21,0.4469222583930394,0.8501440199114302,1.7300200263109942,,,,,,,,,,,,
38091,0,USNorthDakotaSteele,North Dakota,Steele,2022-04-28 09:13:11,2021-05-22,0.4469222583930394,0.8501440199114302,1.7300200263109942,,,,,,,,,,,,
38091,0,USNorthDakotaSteele,North Dakota,Steele,2022-04-28 09:13:11,2021-05-23,0.4469222583930394,0.8501440199114302,1.7300200263109942,,,,,,,,,,,,
38091,0,USNorthDakotaSteele,North Dakota,Steele,2022-04-28 09:13:11,2021-05-24,0.4469222583930394,0.8501440199114302,1.7300200263109942,,,,,,,,,,,,
38091,0,USNorthDakotaSteele,North Dakota,Steele,2022-04-28 09:13:11,2021-05-25,0.4469222583930394,0.8501440199114302,1.7300200263109942,,,,,,,,,,,,
38091,0,USNorthDakotaSteele,North Dakota,Steele,2022-04-28 09:13:11,2021-05-26,0.4469222583930394,0.8501440199114302,1.7300200263109942,,,,,,,,,,,,
38091,0,USNorthDakotaSteele,North Dakota,Steele,2022-04-28 09:13:11,2021-05-27,1.2892634234255886,1.818888548083189,2.6724262352524764,,,,,,,,,,,,
38091,0,USNorthDakotaSteele,North Dakota,Steele,2022-04-28 09:13:11,2021-05-28,1.2892634234255886,1.818888548083189,2.6724262352524764,,,,,,,,,,,,
38091,0,USNorthDakotaSteele,North Dakota,Steele,2022-04-28 09:13:11,2021-05-29,1.2892634234255886,1.818888548083189,2.6724262352524764,,,,,,,,,,,,
38091,0,USNorthDakotaSteele,North Dakota,Steele,2022-04-28 09:13:11,2021-05-30,1.2892634234255886,1.818888548083189,2.6724262352524764,,,,,,,,,,,,
38091,0,USNorthDakotaSteele,North Dakota,Steele,2022-04-28 09:13:11,2021-05-31,1.2892634234255886,1.818888548083189,2.6724262352524764,,,,,,,,,,,,
38091,0,USNorthDakotaSteele,North Dakota,Steele,2022-04-28 09:13:11,2021-06-01,1.2892634234255886,1.818888548083189,2.6724262352524764,,,,,,,,,,,,
38091,0,USNorthDakotaSteele,North Dakota,Steele,2022-04-28 09:13:11,2021-06-02,1.2892634234255886,1.818888548083189,2.6724262352524764,,,,,,,,,,,,
38091,0,USNorthDakotaSteele,North Dakota,Steele,2022-04-28 09:13:11,2021-06-03,0,0,0,,,,,,,,,,,,
38091,0,USNorthDakotaSteele,North Dakota,Steele,2022-04-28 09:13:11,2021-06-04,0,0,0,,,,,,,,,,,,
38091,0,USNorthDakotaSteele,North Dakota,Steele,2022-04-28 09:13:11,2021-06-05,0,0,0,,,,,,,,,,,,
38091,0,USNorthDakotaSteele,North Dakota,Steele,2022-04-28 09:13:11,2021-06-06,0,0,0,,,,,,,,,,,,
38091,0,USNorthDakotaSteele,North Dakota,Steele,2022-04-28 09:13:11,2021-06-07,0,0,0,,,,,,,,,,,,
38091,0,USNorthDakotaSteele,North Dakota,Steele,2022-04-28 09:13:11,2021-06-08,0,0,0,,,,,,,,,,,,
38091,0,USNorthDakotaSteele,North Dakota,Steele,2022-04-28 09:13:11,2021-06-09,0,0,0,,,,,,,,,,,,
38091,0,USNorthDakotaSteele,North Dakota,Steele,2022-04-28 09:13:11,2021-06-10,0.23734755983737973,0.47693356744072013,1.0277439891862752,,,,,,,,,,,,
38091,0,USNorthDakotaSteele,North Dakota,Steele,2022-04-28 09:13:11,2021-06-11,0.23734755983737973,0.47693356744072013,1.0277439891862752,,,,,,,,,,,,
38091,0,USNorthDakotaSteele,North Dakota,Steele,2022-04-28 09:13:11,2021-06-12,0.23734755983737973,0.47693356744072013,1.0277439891862752,,,,,,,,,,,,
38091,0,USNorthDakotaSteele,North Dakota,Steele,2022-04-28 09:13:11,2021-06-13,0.23734755983737973,0.47693356744072013,1.0277439891862752,,,,,,,,,,,,
38091,0,USNorthDakotaSteele,North Dakota,Steele,2022-04-28 09:13:11,2021-06-14,0.23734755983737973,0.47693356744072013,1.0277439891862752,,,,,,,,,,,,
38091,0,USNorthDakotaSteele,North Dakota,Steele,2022-04-28 09:13:11,2021-06-15,0.23734755983737973,0.47693356744072013,1.0277439891862752,,,,,,,,,,,,
38091,0,USNorthDakotaSteele,North Dakota,Steele,2022-04-28 09:13:11,2021-06-16,0.23734755983737973,0.47693356744072013,1.0277439891862752,,,,,,,,,,,,
38091,0,USNorthDakotaSteele,North Dakota,Steele,2022-04-28 09:13:11,2021-06-17,0,0,0,,,,,,,,,,,,
38091,0,USNorthDakotaSteele,North Dakota,Steele,2022-04-28 09:13:11,2021-06-18,0,0,0,,,,,,,,,,,,
38091,0,USNorthDakotaSteele,North Dakota,Steele,2022-04-28 09:13:11,2021-06-19,0,0,0,,,,,,,,,,,,
38091,0,USNorthDakotaSteele,North Dakota,Steele,2022-04-28 09:13:11,2021-06-20,0,0,0,,,,,,,,,,,,
38091,0,USNorthDakotaSteele,North Dakota,Steele,2022-04-28 09:13:11,2021-06-21,0,0,0,,,,,,,,,,,,
38091,0,USNorthDakotaSteele,North Dakota,Steele,2022-04-28 09:13:11,2021-06-22,0,0,0,,,,,,,,,,,,
38091,0,USNorthDakotaSteele,North Dakota,Steele,2022-04-28 09:13:11,2021-06-23,0,0,0,,,,,,,,,,,,
38091,0,USNorthDakotaSteele,North Dakota,Steele,2022-04-28 09:13:11,2021-06-24,0.20887600954539914,0.37355487050754593,0.7121122356819649,,,,,,,,,,,,
38091,0,USNorthDakotaSteele,North Dakota,Steele,2022-04-28 09:13:11,2021-06-25,0.20887600954539914,0.37355487050754593,0.7121122356819649,,,,,,,,,,,,
38091,0,USNorthDakotaSteele,North Dakota,Steele,2022-04-28 09:13:11,2021-06-26,0.20887600954539914,0.37355487050754593,0.7121122356819649,,,,,,,,,,,,
38091,0,USNorthDakotaSteele,North Dakota,Steele,2022-04-28 09:13:11,2021-06-27,0.20887600954539914,0.37355487050754593,0.7121122356819649,,,,,,,,,,,,
38091,0,USNorthDakotaSteele,North Dakota,Steele,2022-04-28 09:13:11,2021-06-28,0.20887600954539914,0.37355487050754593,0.7121122356819649,,,,,,,,,,,,
38091,0,USNorthDakotaSteele,North Dakota,Steele,2022-04-28 09:13:11,2021-06-29,0.20887600954539914,0.37355487050754593,0.7121122356819649,,,,,,,,,,,,
38091,0,USNorthDakotaSteele,North Dakota,Steele,2022-04-28 09:13:11,2021-06-30,0.20887600954539914,0.37355487050754593,0.7121122356819649,,,,,,,,,,,,
38091,0,USNorthDakotaSteele,North Dakota,Steele,2022-04-28 09:13:11,2021-07-01,0,0,0,,,,,,,,,,,,
38091,0,USNorthDakotaSteele,North Dakota,Steele,2022-04-28 09:13:11,2021-07-02,0,0,0,,,,,,,,,,,,
38091,0,USNorthDakotaSteele,North Dakota,Steele,2022-04-28 09:13:11,2021-07-03,0,0,0,,,,,,,,,,,,
38091,0,USNorthDakotaSteele,North Dakota,Steele,2022-04-28 09:13:11,2021-07-04,0,0,0,,,,,,,,,,,,
38091,0,USNorthDakotaSteele,North Dakota,Steele,2022-04-28 09:13:11,2021-07-05,0,0,0,,,,,,,,,,,,
38091,0,USNorthDakotaSteele,North Dakota,Steele,2022-04-28 09:13:11,2021-07-06,0,0,0,,,,,,,,,,,,
38091,0,USNorthDakotaSteele,North Dakota,Steele,2022-04-28 09:13:11,2021-07-07,0,0,0,,,,,,,,,,,,
38091,0,USNorthDakotaSteele,North Dakota,Steele,2022-04-28 09:13:11,2021-07-08,0,0,0,,,,,,,,,,,,
38091,0,USNorthDakotaSteele,North Dakota,Steele,2022-04-28 09:13:11,2021-07-09,0,0,0,,,,,,,,,,,,
38091,0,USNorthDakotaSteele,North Dakota,Steele,2022-04-28 09:13:11,2021-07-10,0,0,0,,,,,,,,,,,,
38091,0,USNorthDakotaSteele,North Dakota,Steele,2022-04-28 09:13:11,2021-07-11,0,0,0,,,,,,,,,,,,
38091,0,USNorthDakotaSteele,North Dakota,Steele,2022-04-28 09:13:11,2021-07-12,0,0,0,,,,,,,,,,,,
38091,0,USNorthDakotaSteele,North Dakota,Steele,2022-04-28 09:13:11,2021-07-13,0,0,0,,,,,,,,,,,,
38091,0,USNorthDakotaSteele,North Dakota,Steele,2022-04-28 09:13:11,2021-07-14,0,0,0,,,,,,,,,,,,
38091,0,USNorthDakotaSteele,North Dakota,Steele,2022-04-28 09:13:11,2021-07-15,0,0,0,,,,,,,,,,,,
38091,0,USNorthDakotaSteele,North Dakota,Steele,2022-04-28 09:13:11,2021-07-16,0,0,0,,,,,,,,,,,,
38091,0,USNorthDakotaSteele,North Dakota,Steele,2022-04-28 09:13:11,2021-07-17,0,0,0,,,,,,,,,,,,
38091,0,USNorthDakotaSteele,North Dakota,Steele,2022-04-28 09:13:11,2021-07-18,0,0,0,,,,,,,,,,,,
38091,0,USNorthDakotaSteele,North Dakota,Steele,2022-04-28 09:13:11,2021-07-19,0,0,0,,,,,,,,,,,,
38091,0,USNorthDakotaSteele,North Dakota,Steele,2022-04-28 09:13:11,2021-07-20,0,0,0,,,,,,,,,,,,
38091,0,USNorthDakotaSteele,North Dakota,Steele,2022-04-28 09:13:11,2021-07-21,0,0,0,,,,,,,,,,,,
38091,0,USNorthDakotaSteele,North Dakota,Steele,2022-04-28 09:13:11,2021-07-22,0,0,0,,,,,,,,,,,,
38091,0,USNorthDakotaSteele,North Dakota,Steele,2022-04-28 09:13:11,2021-07-23,0,0,0,,,,,,,,,,,,
38091,0,USNorthDakotaSteele,North Dakota,Steele,2022-04-28 09:13:11,2021-07-24,0,0,0,,,,,,,,,,,,
38091,0,USNorthDakotaSteele,North Dakota,Steele,2022-04-28 09:13:11,2021-07-25,0,0,0,,,,,,,,,,,,
38091,0,USNorthDakotaSteele,North Dakota,Steele,2022-04-28 09:13:11,2021-07-26,0,0,0,,,,,,,,,,,,
38091,0,USNorthDakotaSteele,North Dakota,Steele,2022-04-28 09:13:11,2021-07-27,0,0,0,,,,,,,,,,,,
38091,0,USNorthDakotaSteele,North Dakota,Steele,2022-04-28 09:13:11,2021-07-28,0,0,0,,,,,,,,,,,,
38091,0,USNorthDakotaSteele,North Dakota,Steele,2022-04-28 09:13:11,2021-07-29,0.28497721583829155,0.674729104956544,1.7190610438952025,,,,,,,,,,,,
38091,0,USNorthDakotaSteele,North Dakota,Steele,2022-04-28 09:13:11,2021-07-30,0.28497721583829155,0.674729104956544,1.7190610438952025,,,,,,,,,,,,
38091,0,USNorthDakotaSteele,North Dakota,Steele,2022-04-28 09:13:11,2021-07-31,0.28497721583829155,0.674729104956544,1.7190610438952025,,,,,,,,,,,,
38091,0,USNorthDakotaSteele,North Dakota,Steele,2022-04-28 09:13:11,2021-08-01,0.28497721583829155,0.674729104956544,1.7190610438952025,,,,,,,,,,,,
38091,0,USNorthDakotaSteele,North Dakota,Steele,2022-04-28 09:13:11,2021-08-02,0.28497721583829155,0.674729104956544,1.7190610438952025,,,,,,,,,,,,
38091,0,USNorthDakotaSteele,North Dakota,Steele,2022-04-28 09:13:11,2021-08-03,0.28497721583829155,0.674729104956544,1.7190610438952025,,,,,,,,,,,,
38091,0,USNorthDakotaSteele,North Dakota,Steele,2022-04-28 09:13:11,2021-08-04,0.28497721583829155,0.674729104956544,1.7190610438952025,,,,,,,,,,,,
38091,0,USNorthDakotaSteele,North Dakota,Steele,2022-04-28 09:13:11,2021-08-05,0.6915990359782225,1.353435922489524,2.8372912886859525,,,,,,,,,,,,
38091,0,USNorthDakotaSteele,North Dakota,Steele,2022-04-28 09:13:11,2021-08-06,0.6915990359782225,1.353435922489524,2.8372912886859525,,,,,,,,,,,,
38091,0,USNorthDakotaSteele,North Dakota,Steele,2022-04-28 09:13:11,2021-08-07,0.6915990359782225,1.353435922489524,2.8372912886859525,,,,,,,,,,,,
38091,0,USNorthDakotaSteele,North Dakota,Steele,2022-04-28 09:13:11,2021-08-08,0.6915990359782225,1.353435922489524,2.8372912886859525,,,,,,,,,,,,
38091,0,USNorthDakotaSteele,North Dakota,Steele,2022-04-28 09:13:11,2021-08-09,0.6915990359782225,1.353435922489524,2.8372912886859525,,,,,,,,,,,,
38091,0,USNorthDakotaSteele,North Dakota,Steele,2022-04-28 09:13:11,2021-08-10,0.6915990359782225,1.353435922489524,2.8372912886859525,,,,,,,,,,,,
38091,0,USNorthDakotaSteele,North Dakota,Steele,2022-04-28 09:13:11,2021-08-11,0.6915990359782225,1.353435922489524,2.8372912886859525,,,,,,,,,,,,
38091,0,USNorthDakotaSteele,North Dakota,Steele,2022-04-28 09:13:11,2021-08-12,0.3063575654862619,0.7731124981328249,2.0994543524872493,,,,,,,,,,,,
38091,0,USNorthDakotaSteele,North Dakota,Steele,2022-04-28 09:13:11,2021-08-13,0.3063575654862619,0.7731124981328249,2.0994543524872493,,,,,,,,,,,,
38091,0,USNorthDakotaSteele,North Dakota,Steele,2022-04-28 09:13:11,2021-08-14,0.3063575654862619,0.7731124981328249,2.0994543524872493,,,,,,,,,,,,
38091,0,USNorthDakotaSteele,North Dakota,Steele,2022-04-28 09:13:11,2021-08-15,0.3063575654862619,0.7731124981328249,2.0994543524872493,,,,,,,,,,,,
38091,0,USNorthDakotaSteele,North Dakota,Steele,2022-04-28 09:13:11,2021-08-16,0.3063575654862619,0.7731124981328249,2.0994543524872493,,,,,,,,,,,,
38091,0,USNorthDakotaSteele,North Dakota,Steele,2022-04-28 09:13:11,2021-08-17,0.3063575654862619,0.7731124981328249,2.0994543524872493,,,,,,,,,,,,
38091,0,USNorthDakotaSteele,North Dakota,Steele,2022-04-28 09:13:11,2021-08-18,0.3063575654862619,0.7731124981328249,2.0994543524872493,,,,,,,,,,,,
38091,0,USNorthDakotaSteele,North Dakota,Steele,2022-04-28 09:13:11,2021-08-19,0,0,0,,,,,,,,,,,,
38091,0,USNorthDakotaSteele,North Dakota,Steele,2022-04-28 09:13:11,2021-08-20,0,0,0,,,,,,,,,,,,
38091,0,USNorthDakotaSteele,North Dakota,Steele,2022-04-28 09:13:11,2021-08-21,0,0,0,,,,,,,,,,,,
38091,0,USNorthDakotaSteele,North Dakota,Steele,2022-04-28 09:13:11,2021-08-22,0,0,0,,,,,,,,,,,,
38091,0,USNorthDakotaSteele,North Dakota,Steele,2022-04-28 09:13:11,2021-08-23,0,0,0,,,,,,,,,,,,
38091,0,USNorthDakotaSteele,North Dakota,Steele,2022-04-28 09:13:11,2021-08-24,0,0,0,,,,,,,,,,,,
38091,0,USNorthDakotaSteele,North Dakota,Steele,2022-04-28 09:13:11,2021-08-25,0,0,0,,,,,,,,,,,,
38091,0,USNorthDakotaSteele,North Dakota,Steele,2022-04-28 09:13:11,2021-08-26,0.5436273550591801,1.2341240846068218,3.0136519673495306,,,,,,,,,,,,
38091,0,USNorthDakotaSteele,North Dakota,Steele,2022-04-28 09:13:11,2021-08-27,0.5436273550591801,1.2341240846068218,3.0136519673495306,,,,,,,,,,,,
38091,0,USNorthDakotaSteele,North Dakota,Steele,2022-04-28 09:13:11,2021-08-28,0.5436273550591801,1.2341240846068218,3.0136519673495306,,,,,,,,,,,,
38091,0,USNorthDakotaSteele,North Dakota,Steele,2022-04-28 09:13:11,2021-08-29,0.5436273550591801,1.2341240846068218,3.0136519673495306,,,,,,,,,,,,
38091,0,USNorthDakotaSteele,North Dakota,Steele,2022-04-28 09:13:11,2021-08-30,0.5436273550591801,1.2341240846068218,3.0136519673495306,,,,,,,,,,,,
38091,0,USNorthDakotaSteele,North Dakota,Steele,2022-04-28 09:13:11,2021-08-31,0.5436273550591801,1.2341240846068218,3.0136519673495306,,,,,,,,,,,,
38091,0,USNorthDakotaSteele,North Dakota,Steele,2022-04-28 09:13:11,2021-09-01,0.5436273550591801,1.2341240846068218,3.0136519673495306,,,,,,,,,,,,
38091,0,USNorthDakotaSteele,North Dakota,Steele,2022-04-28 09:13:11,2021-09-02,0.7529833749591045,1.5915104573709542,3.6132497609973333,,,,,,,,,,,,
38091,0,USNorthDakotaSteele,North Dakota,Steele,2022-04-28 09:13:11,2021-09-03,0.7529833749591045,1.5915104573709542,3.6132497609973333,,,,,,,,,,,,
38091,0,USNorthDakotaSteele,North Dakota,Steele,2022-04-28 09:13:11,2021-09-04,0.7529833749591045,1.5915104573709542,3.6132497609973333,,,,,,,,,,,,
38091,0,USNorthDakotaSteele,North Dakota,Steele,2022-04-28 09:13:11,2021-09-05,0.7529833749591045,1.5915104573709542,3.6132497609973333,,,,,,,,,,,,
38091,0,USNorthDakotaSteele,North Dakota,Steele,2022-04-28 09:13:11,2021-09-06,0.7529833749591045,1.5915104573709542,3.6132497609973333,,,,,,,,,,,,
38091,0,USNorthDakotaSteele,North Dakota,Steele,2022-04-28 09:13:11,2021-09-07,0.7529833749591045,1.5915104573709542,3.6132497609973333,,,,,,,,,,,,
38091,0,USNorthDakotaSteele,North Dakota,Steele,2022-04-28 09:13:11,2021-09-08,0.7529833749591045,1.5915104573709542,3.6132497609973333,,,,,,,,,,,,
38091,0,USNorthDakotaSteele,North Dakota,Steele,2022-04-28 09:13:11,2021-09-09,0.9512580610521605,1.914897206582136,4.134050133365563,,,,,,,,,,,,
38091,0,USNorthDakotaSteele,North Dakota,Steele,2022-04-28 09:13:11,2021-09-10,0.9512580610521605,1.914897206582136,4.134050133365563,,,,,,,,,,,,
38091,0,USNorthDakotaSteele,North Dakota,Steele,2022-04-28 09:13:11,2021-09-11,0.9512580610521605,1.914897206582136,4.134050133365563,,,,,,,,,,,,
38091,0,USNorthDakotaSteele,North Dakota,Steele,2022-04-28 09:13:11,2021-09-12,0.9512580610521605,1.914897206582136,4.134050133365563,,,,,,,,,,,,
38091,0,USNorthDakotaSteele,North Dakota,Steele,2022-04-28 09:13:11,2021-09-13,0.9512580610521605,1.914897206582136,4.134050133365563,,,,,,,,,,,,
38091,0,USNorthDakotaSteele,North Dakota,Steele,2022-04-28 09:13:11,2021-09-14,0.9512580610521605,1.914897206582136,4.134050133365563,,,,,,,,,,,,
38091,0,USNorthDakotaSteele,North Dakota,Steele,2022-04-28 09:13:11,2021-09-15,0.9512580610521605,1.914897206582136,4.134050133365563,,,,,,,,,,,,
38091,0,USNorthDakotaSteele,North Dakota,Steele,2022-04-28 09:13:11,2021-09-16,1.4611608197784383,2.6115571605705123,4.975212878198863,,,,,,,,,,,,
38091,0,USNorthDakotaSteele,North Dakota,Steele,2022-04-28 09:13:11,2021-09-17,1.4611608197784383,2.6115571605705123,4.975212878198863,,,,,,,,,,,,
38091,0,USNorthDakotaSteele,North Dakota,Steele,2022-04-28 09:13:11,2021-09-18,1.4611608197784383,2.6115571605705123,4.975212878198863,,,,,,,,,,,,
38091,0,USNorthDakotaSteele,North Dakota,Steele,2022-04-28 09:13:11,2021-09-19,1.4611608197784383,2.6115571605705123,4.975212878198863,,,,,,,,,,,,
38091,0,USNorthDakotaSteele,North Dakota,Steele,2022-04-28 09:13:11,2021-09-20,1.4611608197784383,2.6115571605705123,4.975212878198863,,,,,,,,,,,,
38091,0,USNorthDakotaSteele,North Dakota,Steele,2022-04-28 09:13:11,2021-09-21,1.4611608197784383,2.6115571605705123,4.975212878198863,,,,,,,,,,,,
38091,0,USNorthDakotaSteele,North Dakota,Steele,2022-04-28 09:13:11,2021-09-22,1.4611608197784383,2.6115571605705123,4.975212878198863,,,,,,,,,,,,
38091,0,USNorthDakotaSteele,North Dakota,Steele,2022-04-28 09:13:11,2021-09-23,1.536808408696824,2.8765486735771146,5.7550796143142655,,,,,,,,,,,,
38091,0,USNorthDakotaSteele,North Dakota,Steele,2022-04-28 09:13:11,2021-09-24,1.536808408696824,2.8765486735771146,5.7550796143142655,,,,,,,,,,,,
38091,0,USNorthDakotaSteele,North Dakota,Steele,2022-04-28 09:13:11,2021-09-25,1.536808408696824,2.8765486735771146,5.7550796143142655,,,,,,,,,,,,
38091,0,USNorthDakotaSteele,North Dakota,Steele,2022-04-28 09:13:11,2021-09-26,1.536808408696824,2.8765486735771146,5.7550796143142655,,,,,,,,,,,,
38091,0,USNorthDakotaSteele,North Dakota,Steele,2022-04-28 09:13:11,2021-09-27,1.536808408696824,2.8765486735771146,5.7550796143142655,,,,,,,,,,,,
38091,0,USNorthDakotaSteele,North Dakota,Steele,2022-04-28 09:13:11,2021-09-28,1.536808408696824,2.8765486735771146,5.7550796143142655,,,,,,,,,,,,
38091,0,USNorthDakotaSteele,North Dakota,Steele,2022-04-28 09:13:11,2021-09-29,1.536808408696824,2.8765486735771146,5.7550796143142655,,,,,,,,,,,,
38091,0,USNorthDakotaSteele,North Dakota,Steele,2022-04-28 09:13:11,2021-09-30,2.349547198828855,3.960007165633995,7.083088807196325,,,,,,,,,,,,
38091,0,USNorthDakotaSteele,North Dakota,Steele,2022-04-28 09:13:11,2021-10-01,2.349547198828855,3.960007165633995,7.083088807196325,,,,,,,,,,,,
38091,0,USNorthDakotaSteele,North Dakota,Steele,2022-04-28 09:13:11,2021-10-02,2.349547198828855,3.960007165633995,7.083088807196325,,,,,,,,,,,,
38091,0,USNorthDakotaSteele,North Dakota,Steele,2022-04-28 09:13:11,2021-10-03,2.349547198828855,3.960007165633995,7.083088807196325,,,,,,,,,,,,
38091,0,USNorthDakotaSteele,North Dakota,Steele,2022-04-28 09:13:11,2021-10-04,2.349547198828855,3.960007165633995,7.083088807196325,,,,,,,,,,,,
38091,0,USNorthDakotaSteele,North Dakota,Steele,2022-04-28 09:13:11,2021-10-05,2.349547198828855,3.960007165633995,7.083088807196325,,,,,,,,,,,,
38091,0,USNorthDakotaSteele,North Dakota,Steele,2022-04-28 09:13:11,2021-10-06,2.349547198828855,3.960007165633995,7.083088807196325,,,,,,,,,,,,
38091,0,USNorthDakotaSteele,North Dakota,Steele,2022-04-28 09:13:11,2021-10-07,1.3260111871915274,2.4970264431861273,5.027692234346651,,,,,,,,,,,,
38091,0,USNorthDakotaSteele,North Dakota,Steele,2022-04-28 09:13:11,2021-10-08,1.3260111871915274,2.4970264431861273,5.027692234346651,,,,,,,,,,,,
38091,0,USNorthDakotaSteele,North Dakota,Steele,2022-04-28 09:13:11,2021-10-09,1.3260111871915274,2.4970264431861273,5.027692234346651,,,,,,,,,,,,
38091,0,USNorthDakotaSteele,North Dakota,Steele,2022-04-28 09:13:11,2021-10-10,1.3260111871915274,2.4970264431861273,5.027692234346651,,,,,,,,,,,,
38091,0,USNorthDakotaSteele,North Dakota,Steele,2022-04-28 09:13:11,2021-10-11,1.3260111871915274,2.4970264431861273,5.027692234346651,,,,,,,,,,,,
38091,0,USNorthDakotaSteele,North Dakota,Steele,2022-04-28 09:13:11,2021-10-12,1.3260111871915274,2.4970264431861273,5.027692234346651,,,,,,,,,,,,
38091,0,USNorthDakotaSteele,North Dakota,Steele,2022-04-28 09:13:11,2021-10-13,1.3260111871915274,2.4970264431861273,5.027692234346651,,,,,,,,,,,,
38091,0,USNorthDakotaSteele,North Dakota,Steele,2022-04-28 09:13:11,2021-10-14,1.139573944020823,2.207049588424949,4.576780563891056,,,,,,,,,,,,
38091,0,USNorthDakotaSteele,North Dakota,Steele,2022-04-28 09:13:11,2021-10-15,1.139573944020823,2.207049588424949,4.576780563891056,,,,,,,,,,,,
38091,0,USNorthDakotaSteele,North Dakota,Steele,2022-04-28 09:13:11,2021-10-16,1.139573944020823,2.207049588424949,4.576780563891056,,,,,,,,,,,,
38091,0,USNorthDakotaSteele,North Dakota,Steele,2022-04-28 09:13:11,2021-10-17,1.139573944020823,2.207049588424949,4.576780563891056,,,,,,,,,,,,
38091,0,USNorthDakotaSteele,North Dakota,Steele,2022-04-28 09:13:11,2021-10-18,1.139573944020823,2.207049588424949,4.576780563891056,,,,,,,,,,,,
38091,0,USNorthDakotaSteele,North Dakota,Steele,2022-04-28 09:13:11,2021-10-19,1.139573944020823,2.207049588424949,4.576780563891056,,,,,,,,,,,,
38091,0,USNorthDakotaSteele,North Dakota,Steele,2022-04-28 09:13:11,2021-10-20,1.139573944020823,2.207049588424949,4.576780563891056,,,,,,,,,,,,
38091,0,USNorthDakotaSteele,North Dakota,Steele,2022-04-28 09:13:11,2021-10-21,1.3548231536833373,2.6017868172446734,5.347665155543809,,,,,,,,,,,,
38091,0,USNorthDakotaSteele,North Dakota,Steele,2022-04-28 09:13:11,2021-10-22,1.3548231536833373,2.6017868172446734,5.347665155543809,,,,,,,,,,,,
38091,0,USNorthDakotaSteele,North Dakota,Steele,2022-04-28 09:13:11,2021-10-23,1.3548231536833373,2.6017868172446734,5.347665155543809,,,,,,,,,,,,
38091,0,USNorthDakotaSteele,North Dakota,Steele,2022-04-28 09:13:11,2021-10-24,1.3548231536833373,2.6017868172446734,5.347665155543809,,,,,,,,,,,,
38091,0,USNorthDakotaSteele,North Dakota,Steele,2022-04-28 09:13:11,2021-10-25,1.3548231536833373,2.6017868172446734,5.347665155543809,,,,,,,,,,,,
38091,0,USNorthDakotaSteele,North Dakota,Steele,2022-04-28 09:13:11,2021-10-26,1.3548231536833373,2.6017868172446734,5.347665155543809,,,,,,,,,,,,
38091,0,USNorthDakotaSteele,North Dakota,Steele,2022-04-28 09:13:11,2021-10-27,1.3548231536833373,2.6017868172446734,5.347665155543809,,,,,,,,,,,,
38091,0,USNorthDakotaSteele,North Dakota,Steele,2022-04-28 09:13:11,2021-10-28,0.9624344933055581,1.9580097023138712,4.2737467998669665,,,,,,,,,,,,
38091,0,USNorthDakotaSteele,North Dakota,Steele,2022-04-28 09:13:11,2021-10-29,0.9624344933055581,1.9580097023138712,4.2737467998669665,,,,,,,,,,,,
38091,0,USNorthDakotaSteele,North Dakota,Steele,2022-04-28 09:13:11,2021-10-30,0.9624344933055581,1.9580097023138712,4.2737467998669665,,,,,,,,,,,,
38091,0,USNorthDakotaSteele,North Dakota,Steele,2022-04-28 09:13:11,2021-10-31,0.9624344933055581,1.9580097023138712,4.2737467998669665,,,,,,,,,,,,
38091,0,USNorthDakotaSteele,North Dakota,Steele,2022-04-28 09:13:11,2021-11-01,0.9624344933055581,1.9580097023138712,4.2737467998669665,,,,,,,,,,,,
38091,0,USNorthDakotaSteele,North Dakota,Steele,2022-04-28 09:13:11,2021-11-02,0.9624344933055581,1.9580097023138712,4.2737467998669665,,,,,,,,,,,,
38091,0,USNorthDakotaSteele,North Dakota,Steele,2022-04-28 09:13:11,2021-11-03,0.9624344933055581,1.9580097023138712,4.2737467998669665,,,,,,,,,,,,
38091,0,USNorthDakotaSteele,North Dakota,Steele,2022-04-28 09:13:11,2021-11-04,0.7867013048878925,1.7295504953491168,4.088013446717274,,,,,,,,,,,,
38091,0,USNorthDakotaSteele,North Dakota,Steele,2022-04-28 09:13:11,2021-11-05,0.7867013048878925,1.7295504953491168,4.088013446717274,,,,,,,,,,,,
38091,0,USNorthDakotaSteele,North Dakota,Steele,2022-04-28 09:13:11,2021-11-06,0.7867013048878925,1.7295504953491168,4.088013446717274,,,,,,,,,,,,
38091,0,USNorthDakotaSteele,North Dakota,Steele,2022-04-28 09:13:11,2021-11-07,0.7867013048878925,1.7295504953491168,4.088013446717274,,,,,,,,,,,,
38091,0,USNorthDakotaSteele,North Dakota,Steele,2022-04-28 09:13:11,2021-11-08,0.7867013048878925,1.7295504953491168,4.088013446717274,,,,,,,,,,,,
38091,0,USNorthDakotaSteele,North Dakota,Steele,2022-04-28 09:13:11,2021-11-09,0.7867013048878925,1.7295504953491168,4.088013446717274,,,,,,,,,,,,
38091,0,USNorthDakotaSteele,North Dakota,Steele,2022-04-28 09:13:11,2021-11-10,0.7867013048878925,1.7295504953491168,4.088013446717274,,,,,,,,,,,,
38091,0,USNorthDakotaSteele,North Dakota,Steele,2022-04-28 09:13:11,2021-11-11,2.029896238774444,3.5364033983553615,6.555150903000756,,,,,,,,,,,,
38091,0,USNorthDakotaSteele,North Dakota,Steele,2022-04-28 09:13:11,2021-11-12,2.029896238774444,3.5364033983553615,6.555150903000756,,,,,,,,,,,,
38091,0,USNorthDakotaSteele,North Dakota,Steele,2022-04-28 09:13:11,2021-11-13,2.029896238774444,3.5364033983553615,6.555150903000756,,,,,,,,,,,,
38091,0,USNorthDakotaSteele,North Dakota,Steele,2022-04-28 09:13:11,2021-11-14,2.029896238774444,3.5364033983553615,6.555150903000756,,,,,,,,,,,,
38091,0,USNorthDakotaSteele,North Dakota,Steele,2022-04-28 09:13:11,2021-11-15,2.029896238774444,3.5364033983553615,6.555150903000756,,,,,,,,,,,,
38091,0,USNorthDakotaSteele,North Dakota,Steele,2022-04-28 09:13:11,2021-11-16,2.029896238774444,3.5364033983553615,6.555150903000756,,,,,,,,,,,,
38091,0,USNorthDakotaSteele,North Dakota,Steele,2022-04-28 09:13:11,2021-11-17,2.029896238774444,3.5364033983553615,6.555150903000756,,,,,,,,,,,,
38091,0,USNorthDakotaSteele,North Dakota,Steele,2022-04-28 09:13:11,2021-11-18,1.9752544467343307,3.3561412674240216,6.0555934139086824,,,,,,,,,,,,
38091,0,USNorthDakotaSteele,North Dakota,Steele,2022-04-28 09:13:11,2021-11-19,1.9752544467343307,3.3561412674240216,6.0555934139086824,,,,,,,,,,,,
38091,0,USNorthDakotaSteele,North Dakota,Steele,2022-04-28 09:13:11,2021-11-20,1.9752544467343307,3.3561412674240216,6.0555934139086824,,,,,,,,,,,,
38091,0,USNorthDakotaSteele,North Dakota,Steele,2022-04-28 09:13:11,2021-11-21,1.9752544467343307,3.3561412674240216,6.0555934139086824,,,,,,,,,,,,
38091,0,USNorthDakotaSteele,North Dakota,Steele,2022-04-28 09:13:11,2021-11-22,1.9752544467343307,3.3561412674240216,6.0555934139086824,,,,,,,,,,,,
38091,0,USNorthDakotaSteele,North Dakota,Steele,2022-04-28 09:13:11,2021-11-23,1.9752544467343307,3.3561412674240216,6.0555934139086824,,,,,,,,,,,,
38091,0,USNorthDakotaSteele,North Dakota,Steele,2022-04-28 09:13:11,2021-11-24,1.9752544467343307,3.3561412674240216,6.0555934139086824,,,,,,,,,,,,
38091,0,USNorthDakotaSteele,North Dakota,Steele,2022-04-28 09:13:11,2021-11-25,1.375563798390839,2.678412952297449,5.585468073225757,,,,,,,,,,,,
38091,0,USNorthDakotaSteele,North Dakota,Steele,2022-04-28 09:13:11,2021-11-26,1.375563798390839,2.678412952297449,5.585468073225757,,,,,,,,,,,,
38091,0,USNorthDakotaSteele,North Dakota,Steele,2022-04-28 09:13:11,2021-11-27,1.375563798390839,2.678412952297449,5.585468073225757,,,,,,,,,,,,
38091,0,USNorthDakotaSteele,North Dakota,Steele,2022-04-28 09:13:11,2021-11-28,1.375563798390839,2.678412952297449,5.585468073225757,,,,,,,,,,,,
38091,0,USNorthDakotaSteele,North Dakota,Steele,2022-04-28 09:13:11,2021-11-29,1.375563798390839,2.678412952297449,5.585468073225757,,,,,,,,,,,,
38091,0,USNorthDakotaSteele,North Dakota,Steele,2022-04-28 09:13:11,2021-11-30,1.375563798390839,2.678412952297449,5.585468073225757,,,,,,,,,,,,
38091,0,USNorthDakotaSteele,North Dakota,Steele,2022-04-28 09:13:11,2021-12-01,1.375563798390839,2.678412952297449,5.585468073225757,,,,,,,,,,,,
38091,0,USNorthDakotaSteele,North Dakota,Steele,2022-04-28 09:13:11,2021-12-02,1.4960545304795725,2.73231711444925,5.326283067341809,,,,,,,,,,,,
38091,0,USNorthDakotaSteele,North Dakota,Steele,2022-04-28 09:13:11,2021-12-03,1.4960545304795725,2.73231711444925,5.326283067341809,,,,,,,,,,,,
38091,0,USNorthDakotaSteele,North Dakota,Steele,2022-04-28 09:13:11,2021-12-04,1.4960545304795725,2.73231711444925,5.326283067341809,,,,,,,,,,,,
38091,0,USNorthDakotaSteele,North Dakota,Steele,2022-04-28 09:13:11,2021-12-05,1.4960545304795725,2.73231711444925,5.326283067341809,,,,,,,,,,,,
38091,0,USNorthDakotaSteele,North Dakota,Steele,2022-04-28 09:13:11,2021-12-06,1.4960545304795725,2.73231711444925,5.326283067341809,,,,,,,,,,,,
38091,0,USNorthDakotaSteele,North Dakota,Steele,2022-04-28 09:13:11,2021-12-07,1.4960545304795725,2.73231711444925,5.326283067341809,,,,,,,,,,,,
38091,0,USNorthDakotaSteele,North Dakota,Steele,2022-04-28 09:13:11,2021-12-08,1.4960545304795725,2.73231711444925,5.326283067341809,,,,,,,,,,,,
38091,0,USNorthDakotaSteele,North Dakota,Steele,2022-04-28 09:13:11,2021-12-09,0,0,0,,,,,,,,,,,,
38091,0,USNorthDakotaSteele,North Dakota,Steele,2022-04-28 09:13:11,2021-12-10,0,0,0,,,,,,,,,,,,
38091,0,USNorthDakotaSteele,North Dakota,Steele,2022-04-28 09:13:11,2021-12-11,0,0,0,,,,,,,,,,,,
38091,0,USNorthDakotaSteele,North Dakota,Steele,2022-04-28 09:13:11,2021-12-12,0,0,0,,,,,,,,,,,,
38091,0,USNorthDakotaSteele,North Dakota,Steele,2022-04-28 09:13:11,2021-12-13,0,0,0,,,,,,,,,,,,
38091,0,USNorthDakotaSteele,North Dakota,Steele,2022-04-28 09:13:11,2021-12-14,0,0,0,,,,,,,,,,,,
38091,0,USNorthDakotaSteele,North Dakota,Steele,2022-04-28 09:13:11,2021-12-15,0,0,0,,,,,,,,,,,,
38091,0,USNorthDakotaSteele,North Dakota,Steele,2022-04-28 09:13:11,2021-12-16,0,0,0,,,,,,,,,,,,
38091,0,USNorthDakotaSteele,North Dakota,Steele,2022-04-28 09:13:11,2021-12-17,0,0,0,,,,,,,,,,,,
38091,0,USNorthDakotaSteele,North Dakota,Steele,2022-04-28 09:13:11,2021-12-18,0,0,0,,,,,,,,,,,,
38091,0,USNorthDakotaSteele,North Dakota,Steele,2022-04-28 09:13:11,2021-12-19,0,0,0,,,,,,,,,,,,
38091,0,USNorthDakotaSteele,North Dakota,Steele,2022-04-28 09:13:11,2021-12-20,0,0,0,,,,,,,,,,,,
38091,0,USNorthDakotaSteele,North Dakota,Steele,2022-04-28 09:13:11,2021-12-21,0,0,0,,,,,,,,,,,,
38091,0,USNorthDakotaSteele,North Dakota,Steele,2022-04-28 09:13:11,2021-12-22,0,0,0,,,,,,,,,,,,
38091,0,USNorthDakotaSteele,North Dakota,Steele,2022-04-28 09:13:11,2021-12-23,1.2809274771033379,2.3370752012462837,4.550966605646703,,,,,,,,,,,,
38091,0,USNorthDakotaSteele,North Dakota,Steele,2022-04-28 09:13:11,2021-12-24,1.2809274771033379,2.3370752012462837,4.550966605646703,,,,,,,,,,,,
38091,0,USNorthDakotaSteele,North Dakota,Steele,2022-04-28 09:13:11,2021-12-25,1.2809274771033379,2.3370752012462837,4.550966605646703,,,,,,,,,,,,
38091,0,USNorthDakotaSteele,North Dakota,Steele,2022-04-28 09:13:11,2021-12-26,1.2809274771033379,2.3370752012462837,4.550966605646703,,,,,,,,,,,,
38091,0,USNorthDakotaSteele,North Dakota,Steele,2022-04-28 09:13:11,2021-12-27,1.2809274771033379,2.3370752012462837,4.550966605646703,,,,,,,,,,,,
38091,0,USNorthDakotaSteele,North Dakota,Steele,2022-04-28 09:13:11,2021-12-28,1.2809274771033379,2.3370752012462837,4.550966605646703,,,,,,,,,,,,
38091,0,USNorthDakotaSteele,North Dakota,Steele,2022-04-28 09:13:11,2021-12-29,1.2809274771033379,2.3370752012462837,4.550966605646703,,,,,,,,,,,,
38091,0,USNorthDakotaSteele,North Dakota,Steele,2022-04-28 09:13:11,2021-12-30,1.641095619818954,3.2610188047968705,6.946023427613314,,,,,,,,,,,,
38091,0,USNorthDakotaSteele,North Dakota,Steele,2022-04-28 09:13:11,2021-12-31,1.641095619818954,3.2610188047968705,6.946023427613314,,,,,,,,,,,,
38091,0,USNorthDakotaSteele,North Dakota,Steele,2022-04-28 09:13:11,2022-01-01,1.641095619818954,3.2610188047968705,6.946023427613314,,,,,,,,,,,,
38091,0,USNorthDakotaSteele,North Dakota,Steele,2022-04-28 09:13:11,2022-01-02,1.641095619818954,3.2610188047968705,6.946023427613314,,,,,,,,,,,,
38091,0,USNorthDakotaSteele,North Dakota,Steele,2022-04-28 09:13:11,2022-01-03,1.641095619818954,3.2610188047968705,6.946023427613314,,,,,,,,,,,,
38091,0,USNorthDakotaSteele,North Dakota,Steele,2022-04-28 09:13:11,2022-01-04,1.641095619818954,3.2610188047968705,6.946023427613314,,,,,,,,,,,,
38091,0,USNorthDakotaSteele,North Dakota,Steele,2022-04-28 09:13:11,2022-01-05,1.641095619818954,3.2610188047968705,6.946023427613314,,,,,,,,,,,,
38091,0,USNorthDakotaSteele,North Dakota,Steele,2022-04-28 09:13:11,2022-01-06,2.1812515312350826,4.466862973245421,9.816305853075981,,,,,,,,,,,,
38091,0,USNorthDakotaSteele,North Dakota,Steele,2022-04-28 09:13:11,2022-01-07,2.1812515312350826,4.466862973245421,9.816305853075981,,,,,,,,,,,,
38091,0,USNorthDakotaSteele,North Dakota,Steele,2022-04-28 09:13:11,2022-01-08,2.1812515312350826,4.466862973245421,9.816305853075981,,,,,,,,,,,,
38091,0,USNorthDakotaSteele,North Dakota,Steele,2022-04-28 09:13:11,2022-01-09,2.1812515312350826,4.466862973245421,9.816305853075981,,,,,,,,,,,,
38091,0,USNorthDakotaSteele,North Dakota,Steele,2022-04-28 09:13:11,2022-01-10,2.1812515312350826,4.466862973245421,9.816305853075981,,,,,,,,,,,,
38091,0,USNorthDakotaSteele,North Dakota,Steele,2022-04-28 09:13:11,2022-01-11,2.1812515312350826,4.466862973245421,9.816305853075981,,,,,,,,,,,,
38091,0,USNorthDakotaSteele,North Dakota,Steele,2022-04-28 09:13:11,2022-01-12,2.1812515312350826,4.466862973245421,9.816305853075981,,,,,,,,,,,,
38091,0,USNorthDakotaSteele,North Dakota,Steele,2022-04-28 09:13:11,2022-01-13,3.958330691643934,7.420267458207058,14.869298892101554,,,,,,,,,,,,
38091,0,USNorthDakotaSteele,North Dakota,Steele,2022-04-28 09:13:11,2022-01-14,3.958330691643934,7.420267458207058,14.869298892101554,,,,,,,,,,,,
38091,0,USNorthDakotaSteele,North Dakota,Steele,2022-04-28 09:13:11,2022-01-15,3.958330691643934,7.420267458207058,14.869298892101554,,,,,,,,,,,,
38091,0,USNorthDakotaSteele,North Dakota,Steele,2022-04-28 09:13:11,2022-01-16,3.958330691643934,7.420267458207058,14.869298892101554,,,,,,,,,,,,
38091,0,USNorthDakotaSteele,North Dakota,Steele,2022-04-28 09:13:11,2022-01-17,3.958330691643934,7.420267458207058,14.869298892101554,,,,,,,,,,,,
38091,0,USNorthDakotaSteele,North Dakota,Steele,2022-04-28 09:13:11,2022-01-18,3.958330691643934,7.420267458207058,14.869298892101554,,,,,,,,,,,,
38091,0,USNorthDakotaSteele,North Dakota,Steele,2022-04-28 09:13:11,2022-01-19,3.958330691643934,7.420267458207058,14.869298892101554,,,,,,,,,,,,
38091,0,USNorthDakotaSteele,North Dakota,Steele,2022-04-28 09:13:11,2022-01-20,4.473009557480295,8.14403618141964,15.82364209133532,,,,,,,,,,,,
38091,0,USNorthDakotaSteele,North Dakota,Steele,2022-04-28 09:13:11,2022-01-21,4.473009557480295,8.14403618141964,15.82364209133532,,,,,,,,,,,,
38091,0,USNorthDakotaSteele,North Dakota,Steele,2022-04-28 09:13:11,2022-01-22,4.473009557480295,8.14403618141964,15.82364209133532,,,,,,,,,,,,
38091,0,USNorthDakotaSteele,North Dakota,Steele,2022-04-28 09:13:11,2022-01-23,4.473009557480295,8.14403618141964,15.82364209133532,,,,,,,,,,,,
38091,0,USNorthDakotaSteele,North Dakota,Steele,2022-04-28 09:13:11,2022-01-24,4.473009557480295,8.14403618141964,15.82364209133532,,,,,,,,,,,,
38091,0,USNorthDakotaSteele,North Dakota,Steele,2022-04-28 09:13:11,2022-01-25,4.473009557480295,8.14403618141964,15.82364209133532,,,,,,,,,,,,
38091,0,USNorthDakotaSteele,North Dakota,Steele,2022-04-28 09:13:11,2022-01-26,4.473009557480295,8.14403618141964,15.82364209133532,,,,,,,,,,,,
38091,0,USNorthDakotaSteele,North Dakota,Steele,2022-04-28 09:13:11,2022-01-27,4.211689307786837,7.2567374934826985,13.292298372311393,,,,,,,,,,,,
38091,0,USNorthDakotaSteele,North Dakota,Steele,2022-04-28 09:13:11,2022-01-28,4.211689307786837,7.2567374934826985,13.292298372311393,,,,,,,,,,,,
38091,0,USNorthDakotaSteele,North Dakota,Steele,2022-04-28 09:13:11,2022-01-29,4.211689307786837,7.2567374934826985,13.292298372311393,,,,,,,,,,,,
38091,0,USNorthDakotaSteele,North Dakota,Steele,2022-04-28 09:13:11,2022-01-30,4.211689307786837,7.2567374934826985,13.292298372311393,,,,,,,,,,,,
38091,0,USNorthDakotaSteele,North Dakota,Steele,2022-04-28 09:13:11,2022-01-31,4.211689307786837,7.2567374934826985,13.292298372311393,,,,,,,,,,,,
38091,0,USNorthDakotaSteele,North Dakota,Steele,2022-04-28 09:13:11,2022-02-01,4.211689307786837,7.2567374934826985,13.292298372311393,,,,,,,,,,,,
38091,0,USNorthDakotaSteele,North Dakota,Steele,2022-04-28 09:13:11,2022-02-02,4.211689307786837,7.2567374934826985,13.292298372311393,,,,,,,,,,,,
38091,0,USNorthDakotaSteele,North Dakota,Steele,2022-04-28 09:13:11,2022-02-03,0.3850334872333586,1.183071278044543,3.8986621522760334,,,,,,,,,,,,
38091,0,USNorthDakotaSteele,North Dakota,Steele,2022-04-28 09:13:11,2022-02-04,0.3850334872333586,1.183071278044543,3.8986621522760334,,,,,,,,,,,,
38091,0,USNorthDakotaSteele,North Dakota,Steele,2022-04-28 09:13:11,2022-02-05,0.3850334872333586,1.183071278044543,3.8986621522760334,,,,,,,,,,,,
38091,0,USNorthDakotaSteele,North Dakota,Steele,2022-04-28 09:13:11,2022-02-06,0.3850334872333586,1.183071278044543,3.8986621522760334,,,,,,,,,,,,
38091,0,USNorthDakotaSteele,North Dakota,Steele,2022-04-28 09:13:11,2022-02-07,0.3850334872333586,1.183071278044543,3.8986621522760334,,,,,,,,,,,,
38091,0,USNorthDakotaSteele,North Dakota,Steele,2022-04-28 09:13:11,2022-02-08,0.3850334872333586,1.183071278044543,3.8986621522760334,,,,,,,,,,,,
38091,0,USNorthDakotaSteele,North Dakota,Steele,2022-04-28 09:13:11,2022-02-09,0.3850334872333586,1.183071278044543,3.8986621522760334,,,,,,,,,,,,
38091,0,USNorthDakotaSteele,North Dakota,Steele,2022-04-28 09:13:11,2022-02-10,0.35448006380417857,1.0151605015594292,3.123261521813232,,,,,,,,,,,,
38091,0,USNorthDakotaSteele,North Dakota,Steele,2022-04-28 09:13:11,2022-02-11,0.35448006380417857,1.0151605015594292,3.123261521813232,,,,,,,,,,,,
38091,0,USNorthDakotaSteele,North Dakota,Steele,2022-04-28 09:13:11,2022-02-12,0.35448006380417857,1.0151605015594292,3.123261521813232,,,,,,,,,,,,
38091,0,USNorthDakotaSteele,North Dakota,Steele,2022-04-28 09:13:11,2022-02-13,0.35448006380417857,1.0151605015594292,3.123261521813232,,,,,,,,,,,,
38091,0,USNorthDakotaSteele,North Dakota,Steele,2022-04-28 09:13:11,2022-02-14,0.35448006380417857,1.0151605015594292,3.123261521813232,,,,,,,,,,,,
38091,0,USNorthDakotaSteele,North Dakota,Steele,2022-04-28 09:13:11,2022-02-15,0.35448006380417857,1.0151605015594292,3.123261521813232,,,,,,,,,,,,
38091,0,USNorthDakotaSteele,North Dakota,Steele,2022-04-28 09:13:11,2022-02-16,0.35448006380417857,1.0151605015594292,3.123261521813232,,,,,,,,,,,,
38091,0,USNorthDakotaSteele,North Dakota,Steele,2022-04-28 09:13:11,2022-02-17,0.5491212340958618,1.2578204268018092,3.099506913484671,,,,,,,,,,,,
38091,0,USNorthDakotaSteele,North Dakota,Steele,2022-04-28 09:13:11,2022-02-18,0.5491212340958618,1.2578204268018092,3.099506913484671,,,,,,,,,,,,
38091,0,USNorthDakotaSteele,North Dakota,Steele,2022-04-28 09:13:11,2022-02-19,0.5491212340958618,1.2578204268018092,3.099506913484671,,,,,,,,,,,,
38091,0,USNorthDakotaSteele,North Dakota,Steele,2022-04-28 09:13:11,2022-02-20,0.5491212340958618,1.2578204268018092,3.099506913484671,,,,,,,,,,,,
38091,0,USNorthDakotaSteele,North Dakota,Steele,2022-04-28 09:13:11,2022-02-21,0.5491212340958618,1.2578204268018092,3.099506913484671,,,,,,,,,,,,
38091,0,USNorthDakotaSteele,North Dakota,Steele,2022-04-28 09:13:11,2022-02-22,0.5491212340958618,1.2578204268018092,3.099506913484671,,,,,,,,,,,,
38091,0,USNorthDakotaSteele,North Dakota,Steele,2022-04-28 09:13:11,2022-02-23,0.5491212340958618,1.2578204268018092,3.099506913484671,,,,,,,,,,,,
38091,0,USNorthDakotaSteele,North Dakota,Steele,2022-04-28 09:13:11,2022-02-24,0.5038525256826105,1.0685074974962157,2.434190780782443,,,,,,,,,,,,
38091,0,USNorthDakotaSteele,North Dakota,Steele,2022-04-28 09:13:11,2022-02-25,0.5038525256826105,1.0685074974962157,2.434190780782443,,,,,,,,,,,,
38091,0,USNorthDakotaSteele,North Dakota,Steele,2022-04-28 09:13:11,2022-02-26,0.5038525256826105,1.0685074974962157,2.434190780782443,,,,,,,,,,,,
38091,0,USNorthDakotaSteele,North Dakota,Steele,2022-04-28 09:13:11,2022-02-27,0.5038525256826105,1.0685074974962157,2.434190780782443,,,,,,,,,,,,
38091,0,USNorthDakotaSteele,North Dakota,Steele,2022-04-28 09:13:11,2022-02-28,0.5038525256826105,1.0685074974962157,2.434190780782443,,,,,,,,,,,,
38091,0,USNorthDakotaSteele,North Dakota,Steele,2022-04-28 09:13:11,2022-03-01,0.5038525256826105,1.0685074974962157,2.434190780782443,,,,,,,,,,,,
38091,0,USNorthDakotaSteele,North Dakota,Steele,2022-04-28 09:13:11,2022-03-02,0.5038525256826105,1.0685074974962157,2.434190780782443,,,,,,,,,,,,
