FIPS,HR_UID,nameid,province,region,analysisTime,dates,pointprevalence_025,pointprevalence_50,pointprevalence_975,pointinfections_025,pointinfections_50,pointinfections_975,pointinfectious_025,pointinfectious_50,pointinfectious_975,pointinfectiousprevalence_05,pointinfectiousprevalence_50,pointinfectiousprevalence_95,infectrate_025,infectrate_50,infectrate_975
0,0,Turkey,,,2022-03-22 20:02:46.589264,2021-08-27,0.00193565,0.04355584,0.08782079,1632,36734,74067,705,18515,37185,0.00083644,0.02195356,0.04409002,1.03520101,1.48089879,2.54049017
0,0,Turkey,,,2022-03-22 20:02:46.589264,2021-08-28,0.00345705,0.05659683,0.10888480,2915,47733,91832,1380,26130,48861,0.00163713,0.03098239,0.05793511,1.03519854,1.48089427,2.54048113
0,0,Turkey,,,2022-03-22 20:02:46.589264,2021-08-29,0.00622042,0.07491974,0.14006687,5246,63186,118131,2522,35937,67167,0.00299076,0.04261118,0.07964030,1.03519078,1.48088007,2.54045276
0,0,Turkey,,,2022-03-22 20:02:46.589264,2021-08-30,0.01121236,0.10044318,0.18383879,9456,84712,155047,4567,49116,91465,0.00541578,0.05823705,0.10844950,1.03516647,1.48083558,2.54036382
0,0,Turkey,,,2022-03-22 20:02:46.589264,2021-08-31,0.02021288,0.13591891,0.24335199,17047,114632,205240,8252,67033,123348,0.00978478,0.07948098,0.14625274,1.03509024,1.48069608,2.54008497
0,0,Turkey,,,2022-03-22 20:02:46.589264,2021-09-01,0.03644292,0.18534434,0.32359567,30735,156317,272917,14895,91616,165552,0.01766102,0.10862933,0.19629390,1.03485133,1.48025887,2.53921102
0,0,Turkey,,,2022-03-22 20:02:46.589264,2021-09-02,0.06568895,0.25452697,0.43138091,55401,214665,363822,26805,125668,221701,0.03178339,0.14900385,0.26286932,1.03410321,1.47889002,2.53647512
0,0,Turkey,,,2022-03-22 20:02:46.589264,2021-09-03,0.11786342,0.35198204,0.57483613,99404,296858,484811,48150,173322,296119,0.05709175,0.20550718,0.35110561,1.03176776,1.47461853,2.52794045
0,0,Turkey,,,2022-03-22 20:02:46.589264,2021-09-04,0.21026549,0.48993843,0.76453517,177335,413209,644801,86180,240544,395141,0.10218335,0.28521140,0.46851482,1.02454541,1.46142610,2.50160697
0,0,Turkey,,,2022-03-22 20:02:46.589264,2021-09-05,0.36984705,0.68224268,1.00808635,311925,575397,850210,153065,334976,524365,0.18148773,0.39717798,0.62173512,1.00291422,1.42194914,2.42346727
0,0,Turkey,,,2022-03-22 20:02:46.589264,2021-09-06,0.62459176,0.93631519,1.30084879,526774,789679,1097123,265392,464431,687506,0.31467341,0.55067143,0.81516920,0.94331610,1.31440438,2.21062853
0,0,Turkey,,,2022-03-22 20:02:46.589264,2021-09-07,0.96060972,1.22862607,1.60106479,810169,1036211,1350323,433854,629317,876845,0.51441725,0.74617586,1.03966736,0.79134786,1.09326123,1.76505151
0,0,Turkey,,,2022-03-22 20:02:46.589264,2021-09-08,1.26952073,1.50213223,1.84190959,1070701,1266884,1553449,643049,812647,1066032,0.76245784,0.96354822,1.26398365,0.57115183,0.80294573,1.19697151
0,0,Turkey,,,2022-03-22 20:02:46.589264,2021-09-09,1.51519004,1.75218164,2.01125549,1277897,1477773,1696274,837751,988911,1226598,0.99331367,1.17254249,1.45436618,0.41203524,0.59068878,0.81142465
0,0,Turkey,,,2022-03-22 20:02:46.589264,2021-09-10,1.74121588,1.96751227,2.14081917,1468525,1659381,1805546,1007196,1160693,1352635,1.19422303,1.37622301,1.60380715,0.34082403,0.49366041,0.64707303
0,0,Turkey,,,2022-03-22 20:02:46.589264,2021-09-11,1.96977114,2.17650132,2.27823677,1661286,1835640,1921443,1168943,1315126,1454359,1.38600536,1.55933297,1.72441989,0.31484900,0.45714068,0.58725204
0,0,Turkey,,,2022-03-22 20:02:46.589264,2021-09-12,2.21273849,2.34432825,2.60626296,1866202,1977184,2198097,1332963,1463616,1549426,1.58048196,1.73539615,1.83713992,0.30450880,0.44068562,0.55937097
0,0,Turkey,,,2022-03-22 20:02:46.589264,2021-09-13,2.40968792,2.49389846,2.94571615,2032308,2103330,2484389,1503259,1600322,1767905,1.78240040,1.89748612,2.09618768,0.29615679,0.42324593,0.52740975
0,0,Turkey,,,2022-03-22 20:02:46.589264,2021-09-14,2.52803620,2.66639890,3.25685461,2132122,2248815,2746800,1628349,1701935,1994236,1.93071840,2.01796868,2.36454631,0.28182076,0.39007118,0.46710963
0,0,Turkey,,,2022-03-22 20:02:46.589264,2021-09-15,2.60994212,2.81281685,3.49474720,2201200,2372303,2947437,1723610,1793507,2198135,2.04366800,2.12654395,2.60630746,0.25965889,0.33773668,0.38315901
0,0,Turkey,,,2022-03-22 20:02:46.589264,2021-09-16,2.67277634,2.92960592,3.65519488,2254194,2470802,3082757,1790524,1899528,2361267,2.12300697,2.25225204,2.79973140,0.23921027,0.28650195,0.33025174
0,0,Turkey,,,2022-03-22 20:02:46.589264,2021-09-17,2.72476230,3.02362845,3.77133847,2298039,2550100,3180711,1844570,1986680,2483003,2.18708849,2.35558793,2.94407240,0.22809574,0.26044379,0.30293812
0,0,Turkey,,,2022-03-22 20:02:46.589264,2021-09-18,2.77246363,3.10877111,3.86922095,2338269,2621908,3263264,1886390,2059367,2576603,2.23667465,2.44177224,3.05505282,0.22354145,0.25000177,0.29171176
0,0,Turkey,,,2022-03-22 20:02:46.589264,2021-09-19,2.81876713,3.19064424,3.95931642,2377321,2690959,3339250,1923385,2124163,2654639,2.28053933,2.51859933,3.14757977,0.22166846,0.24528876,0.28572628
0,0,Turkey,,,2022-03-22 20:02:46.589264,2021-09-20,2.86403898,3.26815224,4.04005692,2415503,2756329,3407346,1958877,2184280,2723145,2.32262185,2.58987960,3.22880712,0.22018363,0.24041094,0.27749784
0,0,Turkey,,,2022-03-22 20:02:46.589264,2021-09-21,2.90680402,3.33385739,4.09911490,2451571,2811744,3457155,1991914,2239003,2781067,2.36179340,2.65476381,3.29748487,0.21760631,0.23109236,0.26042841
0,0,Turkey,,,2022-03-22 20:02:46.589264,2021-09-22,2.94484252,3.37841199,4.12162868,2483652,2849321,3476143,2021684,2284446,2822030,2.39709162,2.70864611,3.34605397,0.20940750,0.21853190,0.23398095
0,0,Turkey,,,2022-03-22 20:02:46.589264,2021-09-23,2.97792520,3.40216614,4.11450182,2511554,2869355,3470132,2048251,2317187,2840824,2.42859154,2.74746620,3.36833716,0.18903446,0.20948636,0.21658416
0,0,Turkey,,,2022-03-22 20:02:46.589264,2021-09-24,3.00796300,3.41377792,4.08283678,2536887,2879148,3443426,2071204,2337989,2842894,2.45580716,2.77213100,3.37079183,0.17811891,0.20238488,0.21268829
0,0,Turkey,,,2022-03-22 20:02:46.589264,2021-09-25,3.03668655,3.42005785,4.04851346,2561113,2884444,3414478,2092863,2350600,2828257,2.48148773,2.78708420,3.35343746,0.17373850,0.19940901,0.21104763
0,0,Turkey,,,2022-03-22 20:02:46.589264,2021-09-26,3.06512734,3.42380602,4.02298912,2585099,2887606,3392951,2109933,2358436,2809873,2.50172790,2.79637448,3.33163902,0.17189179,0.19816581,0.21024916
0,0,Turkey,,,2022-03-22 20:02:46.589264,2021-09-27,3.09079712,3.42487140,4.00057562,2606749,2888504,3374048,2126441,2363239,2797285,2.52130094,2.80206945,3.31671416,0.17029411,0.19714324,0.20930347
0,0,Turkey,,,2022-03-22 20:02:46.589264,2021-09-28,3.11951024,3.41366217,3.96558827,2630965,2879050,3344540,2142831,2365037,2780544,2.54073470,2.80420142,3.29686408,0.16741603,0.19452748,0.20924627
0,0,Turkey,,,2022-03-22 20:02:46.589264,2021-09-29,3.14151655,3.39204977,3.92766758,2649525,2860823,3312558,2152923,2362980,2759204,2.55269983,2.80176268,3.27156113,0.16275951,0.18845009,0.21307865
0,0,Turkey,,,2022-03-22 20:02:46.589264,2021-09-30,3.14912871,3.37570336,3.87657249,2655945,2847036,3269465,2158479,2359021,2734538,2.55928821,2.79706866,3.24231482,0.15826553,0.18263430,0.21699643
0,0,Turkey,,,2022-03-22 20:02:46.589264,2021-10-01,3.14888392,3.36838545,3.81777129,2655739,2840864,3219872,2161358,2354580,2702125,2.56270101,2.79180318,3.20388358,0.15569624,0.17939338,0.21931702
0,0,Turkey,,,2022-03-22 20:02:46.589264,2021-10-02,3.14719736,3.36547112,3.75595515,2654316,2838406,3167737,2162276,2349933,2664753,2.56379020,2.78629275,3.15957229,0.15462910,0.17815267,0.22030204
0,0,Turkey,,,2022-03-22 20:02:46.589264,2021-10-03,3.14501190,3.39620850,3.69517017,2652473,2864330,3116472,2162017,2348134,2624647,2.56348227,2.78416017,3.11201886,0.15415578,0.17790243,0.22074561
0,0,Turkey,,,2022-03-22 20:02:46.589264,2021-10-04,3.14335405,3.41227102,3.63542900,2651075,2877877,3066086,2161273,2370602,2583277,2.56260054,2.81079943,3.06296669,0.15374779,0.17832790,0.22118847
0,0,Turkey,,,2022-03-22 20:02:46.589264,2021-10-05,3.14403720,3.40449869,3.57703380,2651651,2871322,3016836,2160887,2381476,2542283,2.56214313,2.82369294,3.01436085,0.15297376,0.17969597,0.22205517
0,0,Turkey,,,2022-03-22 20:02:46.589264,2021-10-06,3.13516330,3.34695675,3.54115721,2644167,2822792,2986578,2162026,2378303,2502726,2.56349318,2.81993052,2.96745848,0.15166223,0.18237386,0.22354702
0,0,Turkey,,,2022-03-22 20:02:46.589264,2021-10-07,3.12222864,3.29195249,3.58617819,2633258,2776402,3024549,2165324,2339882,2471836,2.56740396,2.77437513,2.93083250,0.15032686,0.18511392,0.22503464
0,0,Turkey,,,2022-03-22 20:02:46.589264,2021-10-08,3.08806540,3.24702946,3.63655179,2604445,2738514,3067033,2160335,2299819,2502935,2.56148888,2.72687328,2.96770546,0.14961580,0.18673113,0.22583462
0,0,Turkey,,,2022-03-22 20:02:46.589264,2021-10-09,3.02608477,3.24235525,3.68671446,2552171,2734572,3109340,2153037,2261321,2537665,2.55283479,2.68122648,3.00888454,0.14956896,0.18742639,0.22595244
0,0,Turkey,,,2022-03-22 20:02:46.589264,2021-10-10,2.96591314,3.24025387,3.73558603,2501423,2732799,3150558,2113803,2234817,2572272,2.50631604,2.64980138,3.04991759,0.15030625,0.18777315,0.22534558
0,0,Turkey,,,2022-03-22 20:02:46.589264,2021-10-11,2.90941915,3.23645743,3.78104393,2453776,2729597,3188897,2072424,2234517,2605859,2.45725374,2.64944585,3.08974241,0.15273560,0.18818193,0.22329877
0,0,Turkey,,,2022-03-22 20:02:46.589264,2021-10-12,2.86063250,3.21679204,3.81869631,2412630,2713012,3220652,2033991,2233038,2636721,2.41168353,2.64769166,3.12633519,0.15894218,0.18903188,0.21827287
0,0,Turkey,,,2022-03-22 20:02:46.589264,2021-10-13,2.82481213,3.20400419,3.84336313,2382420,2702227,3241456,2001099,2231102,2662157,2.37268376,2.64539578,3.15649409,0.16770373,0.19019855,0.21339113
0,0,Turkey,,,2022-03-22 20:02:46.589264,2021-10-14,2.80242912,3.20322501,3.85512020,2363542,2701570,3251372,1975987,2220107,2679983,2.34290843,2.63235979,3.17762974,0.17120588,0.19226922,0.21277576
0,0,Turkey,,,2022-03-22 20:02:46.589264,2021-10-15,2.78812722,3.19376616,3.85897022,2351480,2693592,3254619,1958390,2212398,2690457,2.32204410,2.62321949,3.19004851,0.17315900,0.19381115,0.21235565
0,0,Turkey,,,2022-03-22 20:02:46.589264,2021-10-16,2.77702257,3.17944336,3.85904326,2342114,2681512,3254681,1945919,2204770,2695682,2.30725803,2.61417489,3.19624474,0.17394061,0.19452244,0.21196904
0,0,Turkey,,,2022-03-22 20:02:46.589264,2021-10-17,2.76688847,3.16424500,3.85723030,2333567,2668694,3253152,1936192,2203909,2697716,2.29572456,2.61315429,3.19865606,0.17404312,0.19451337,0.21116304
0,0,Turkey,,,2022-03-22 20:02:46.589264,2021-10-18,2.75749677,3.14702326,3.85395877,2325647,2654170,3250392,1927885,2192938,2697770,2.28587473,2.60014538,3.19871937,0.17366925,0.19466018,0.20895832
0,0,Turkey,,,2022-03-22 20:02:46.589264,2021-10-19,2.74897210,3.12551417,3.84867062,2318457,2636029,3245932,1920797,2180444,2696248,2.27747061,2.58533124,3.19691542,0.17257239,0.19560142,0.20368236
0,0,Turkey,,,2022-03-22 20:02:46.589264,2021-10-20,2.74149885,3.09715717,3.84037350,2312154,2612113,3238935,1915590,2165063,2692999,2.27129673,2.56709412,3.19306347,0.17063623,0.19318867,0.20440691
0,0,Turkey,,,2022-03-22 20:02:46.589264,2021-10-21,2.72431382,3.06226375,3.82915181,2297660,2582684,3229470,1909259,2145763,2687774,2.26378976,2.54421058,3.18686819,0.16871499,0.18826410,0.20993187
0,0,Turkey,,,2022-03-22 20:02:46.589264,2021-10-22,2.70622893,3.02577834,3.81589516,2282408,2551913,3218290,1899679,2122830,2680683,2.25243148,2.51701899,3.17845961,0.16762029,0.18555174,0.21313761
0,0,Turkey,,,2022-03-22 20:02:46.589264,2021-10-23,2.67929784,3.00943787,3.80132791,2259694,2538131,3206004,1889284,2097560,2672137,2.24010560,2.48705621,3.16832650,0.16738376,0.18466565,0.21416473
0,0,Turkey,,,2022-03-22 20:02:46.589264,2021-10-24,2.64299703,2.99367105,3.78567039,2229079,2524834,3192799,1871926,2082416,2662535,2.21952427,2.46910072,3.15694155,0.16802020,0.18498974,0.21371821
0,0,Turkey,,,2022-03-22 20:02:46.589264,2021-10-25,2.60873927,2.97873473,3.76863794,2200186,2512237,3178434,1847365,2071912,2652031,2.19040263,2.45664577,3.14448790,0.17031335,0.18694582,0.21124874
0,0,Turkey,,,2022-03-22 20:02:46.589264,2021-10-26,2.58030364,2.96669684,3.74933500,2176204,2502084,3162154,1824557,2062154,2640354,2.16335988,2.44507666,3.13064176,0.17619498,0.19227822,0.20497681
0,0,Turkey,,,2022-03-22 20:02:46.589264,2021-10-27,2.56342445,2.96105879,3.72665469,2161968,2497329,3143025,1806183,2054473,2626991,2.14157388,2.43596927,3.11479830,0.18458014,0.19071703,0.22033678
0,0,Turkey,,,2022-03-22 20:02:46.589264,2021-10-28,2.55775693,2.96357664,3.70067667,2157188,2499452,3121116,1793997,2050557,2611518,2.12712518,2.43132622,3.09645182,0.18254957,0.19102643,0.24525116
0,0,Turkey,,,2022-03-22 20:02:46.589264,2021-10-29,2.55875156,2.97185475,3.67266884,2158027,2506434,3097494,1787758,2051016,2594070,2.11972745,2.43187021,3.07576396,0.17863748,0.19253679,0.26087863
0,0,Turkey,,,2022-03-22 20:02:46.589264,2021-10-30,2.56218417,2.98289907,3.64382070,2160922,2515749,3073164,1786188,2054961,2575246,2.11786571,2.43654778,3.05344475,0.17686072,0.19374296,0.26728578
0,0,Turkey,,,2022-03-22 20:02:46.589264,2021-10-31,2.55646583,2.99503968,3.61518151,2156099,2525988,3049010,1786732,2061061,2555747,2.11851131,2.44378084,3.03032415,0.17708958,0.19443007,0.26876963
0,0,Turkey,,,2022-03-22 20:02:46.589264,2021-11-01,2.55144858,3.01161034,3.58848822,2151867,2539964,3026497,1783560,2068315,2536406,2.11475045,2.45238183,3.00739203,0.17955912,0.19541950,0.26701724
0,0,Turkey,,,2022-03-22 20:02:46.589264,2021-11-02,2.53691664,3.03726224,3.56729207,2139611,2561598,3008620,1777353,2079430,2518634,2.10738999,2.46556037,2.98632017,0.18638924,0.19761350,0.26114681
0,0,Turkey,,,2022-03-22 20:02:46.589264,2021-11-03,2.52437797,3.05527827,3.55612390,2129036,2576793,2999201,1770882,2095696,2504670,2.09971800,2.48484712,2.96976337,0.19586756,0.20305189,0.25098315
0,0,Turkey,,,2022-03-22 20:02:46.589264,2021-11-04,2.52287602,3.06561040,3.55536412,2127770,2585507,2998560,1762433,2107835,2496449,2.08969973,2.49923971,2.96001568,0.20424030,0.20998324,0.24116343
0,0,Turkey,,,2022-03-22 20:02:46.589264,2021-11-05,2.52923987,3.07106315,3.56017366,2133137,2590106,3002617,1760183,2115824,2494077,2.08703242,2.50871262,2.95720323,0.20537195,0.21480224,0.23562208
0,0,Turkey,,,2022-03-22 20:02:46.589264,2021-11-06,2.53496471,3.07397353,3.56663620,2137965,2592560,3008067,1762433,2120748,2495573,2.08970024,2.51455031,2.95897715,0.20483782,0.21736145,0.23331084
0,0,Turkey,,,2022-03-22 20:02:46.589264,2021-11-07,2.53802750,3.07697600,3.57282955,2140548,2595092,3013291,1764274,2123694,2498848,2.09188281,2.51804405,2.96286025,0.20447884,0.21781218,0.23223754
0,0,Turkey,,,2022-03-22 20:02:46.589264,2021-11-08,2.53409427,3.08447442,3.57751381,2137231,2601416,3017241,1766546,2125238,2502289,2.09457655,2.51987382,2.96694021,0.20388876,0.21668189,0.23110691
0,0,Turkey,,,2022-03-22 20:02:46.589264,2021-11-09,2.52936932,3.08720611,3.57938515,2133246,2603720,3018820,1763482,2127695,2504747,2.09094407,2.52278786,2.96985464,0.20260629,0.21328880,0.22889170
0,0,Turkey,,,2022-03-22 20:02:46.589264,2021-11-10,2.51925091,3.08244246,3.57733355,2124712,2599703,3017089,1760836,2129146,2505513,2.08780600,2.52450825,2.97076264,0.20031490,0.20768290,0.22523349
0,0,Turkey,,,2022-03-22 20:02:46.589264,2021-11-11,2.50515500,3.07036608,3.57143741,2112824,2589518,3012116,1754305,2126191,2503920,2.08006216,2.52100476,2.96887393,0.19786505,0.20221426,0.22162727
0,0,Turkey,,,2022-03-22 20:02:46.589264,2021-11-12,2.48872193,3.05382908,3.56271518,2098964,2575570,3004760,1744843,2119076,2500000,2.06884346,2.51256821,2.96422582,0.19313559,0.20054483,0.21950752
0,0,Turkey,,,2022-03-22 20:02:46.589264,2021-11-13,2.47119136,3.03511456,3.55209649,2084179,2559787,2995805,1733223,2109023,2494296,2.05506546,2.50064883,2.95746229,0.19120305,0.20003384,0.21844739
0,0,Turkey,,,2022-03-22 20:02:46.589264,2021-11-14,2.45297031,3.01501925,3.54028324,2068812,2542839,2985841,1722947,2097152,2487361,2.04288244,2.48657358,2.94923946,0.19060053,0.19997072,0.21745451
0,0,Turkey,,,2022-03-22 20:02:46.589264,2021-11-15,2.42954938,2.99471563,3.52711781,2049059,2525715,2974738,1708380,2084546,2479664,2.02561042,2.47162675,2.94011418,0.19061043,0.20026131,0.21533879
0,0,Turkey,,,2022-03-22 20:02:46.589264,2021-11-16,2.40647005,2.97592231,3.51185919,2029594,2509865,2961869,1693238,2073106,2470828,2.00765654,2.45806204,2.92963730,0.19109823,0.20113516,0.21043083
0,0,Turkey,,,2022-03-22 20:02:46.589264,2021-11-17,2.38447401,2.95452425,3.49353511,2011043,2491818,2946414,1678009,2060311,2460441,1.98959910,2.44289111,2.91732108,0.19204684,0.20070506,0.20686659
0,0,Turkey,,,2022-03-22 20:02:46.589264,2021-11-18,2.36295020,2.93131955,3.47219679,1992890,2472247,2928418,1662734,2045883,2448108,1.97148832,2.42578392,2.90269783,0.19298521,0.19586339,0.21269969
0,0,Turkey,,,2022-03-22 20:02:46.589264,2021-11-19,2.34062863,2.90682143,3.44891698,1974064,2451586,2908784,1646774,2029984,2433763,1.95256478,2.40693252,2.88568983,0.18999824,0.19505977,0.21618873
0,0,Turkey,,,2022-03-22 20:02:46.589264,2021-11-20,2.31887759,2.88182717,3.42463325,1955719,2430506,2888303,1631231,2013163,2418120,1.93413569,2.38698758,2.86714216,0.18850781,0.19516894,0.21754546
0,0,Turkey,,,2022-03-22 20:02:46.589264,2021-11-21,2.29831717,2.85692413,3.39999115,1938379,2409503,2867520,1616200,1996438,2401673,1.91631314,2.36715729,2.84764076,0.18873233,0.19588846,0.21785757
0,0,Turkey,,,2022-03-22 20:02:46.589264,2021-11-22,2.28111963,2.83294974,3.37543181,1923875,2389283,2846807,1602325,1979721,2384834,1.89986105,2.34733567,2.82767439,0.19095415,0.19818701,0.21748720
0,0,Turkey,,,2022-03-22 20:02:46.589264,2021-11-23,2.27254124,2.81153886,3.35198713,1916640,2371225,2827034,1591556,1963695,2368058,1.88709265,2.32833432,2.80778412,0.19696597,0.20419201,0.21619524
0,0,Turkey,,,2022-03-22 20:02:46.589264,2021-11-24,2.27996647,2.79479318,3.33047888,1922902,2357102,2808894,1587190,1949400,2352005,1.88191580,2.31138502,2.78874997,0.19953219,0.20979377,0.23151243
0,0,Turkey,,,2022-03-22 20:02:46.589264,2021-11-25,2.30491081,2.78292772,3.31098201,1943940,2347095,2792451,1592439,1937749,2337019,1.88814032,2.29757018,2.77098129,0.20171976,0.21560017,0.25362615
0,0,Turkey,,,2022-03-22 20:02:46.589264,2021-11-26,2.34100072,2.77384029,3.29256872,1974378,2339431,2776921,1607440,1928717,2323088,1.90592636,2.28686158,2.75446326,0.20295196,0.21834320,0.26735735
0,0,Turkey,,,2022-03-22 20:02:46.589264,2021-11-27,2.37171081,2.76549224,3.27427086,2000278,2332390,2761489,1629362,1921414,2309784,1.93191881,2.27820279,2.73868821,0.20344987,0.21932575,0.27305417
0,0,Turkey,,,2022-03-22 20:02:46.589264,2021-11-28,2.36983463,2.78070729,3.25562051,1998696,2345222,2745759,1649864,1914744,2296616,1.95622830,2.27029414,2.72307587,0.20361539,0.21915585,0.27474079
0,0,Turkey,,,2022-03-22 20:02:46.589264,2021-11-29,2.35828559,2.79532372,3.23644606,1988956,2357549,2729588,1651393,1921016,2283367,1.95804117,2.27773079,2.70736576,0.20363984,0.21763116,0.27426079
0,0,Turkey,,,2022-03-22 20:02:46.589264,2021-11-30,2.34582048,2.80436889,3.21666635,1978443,2365178,2712906,1645274,1929676,2269864,1.95078546,2.28799872,2.69135578,0.20357635,0.21369067,0.27181522
0,0,Turkey,,,2022-03-22 20:02:46.589264,2021-12-01,2.33281561,2.80442007,3.19625394,1967474,2365221,2695690,1636755,1934893,2256015,1.94068488,2.29418385,2.67493539,0.20344170,0.20697670,0.26767260
0,0,Turkey,,,2022-03-22 20:02:46.589264,2021-12-02,2.32034480,2.79585247,3.17518785,1956957,2357995,2677923,1627515,1935143,2241749,1.92972925,2.29448031,2.65802036,0.19399589,0.20558936,0.26361177
0,0,Turkey,,,2022-03-22 20:02:46.589264,2021-12-03,2.30654652,2.78227773,3.15347299,1945319,2346547,2659609,1618737,1930675,2227061,1.91932164,2.28918241,2.64060477,0.18754059,0.20540869,0.26109322
0,0,Turkey,,,2022-03-22 20:02:46.589264,2021-12-04,2.29251721,2.76653408,3.13093102,1933487,2333269,2640598,1609405,1922967,2211903,1.90825588,2.28004370,2.62263228,0.18513334,0.20519506,0.25958913
0,0,Turkey,,,2022-03-22 20:02:46.589264,2021-12-05,2.27852866,2.74972610,3.10688505,1921689,2319093,2620317,1599718,1913382,2196076,1.89677056,2.26867933,2.60386618,0.18480679,0.20478849,0.25753470
0,0,Turkey,,,2022-03-22 20:02:46.589264,2021-12-06,2.26508799,2.73151785,3.07940619,1910354,2303736,2597142,1590123,1902541,2178957,1.88539432,2.25582450,2.58356862,0.18615723,0.20371604,0.25251626
0,0,Turkey,,,2022-03-22 20:02:46.589264,2021-12-07,2.25332951,2.70162260,3.04437552,1900437,2278523,2567597,1581036,1890197,2159015,1.87461993,2.24118847,2.55992322,0.19015579,0.20121165,0.24081803
0,0,Turkey,,,2022-03-22 20:02:46.589264,2021-12-08,2.24467914,2.66766846,2.99739550,1893141,2249886,2527975,1573167,1868331,2133841,1.86528883,2.21526192,2.53007451,0.17960372,0.20606127,0.22191340
0,0,Turkey,,,2022-03-22 20:02:46.589264,2021-12-09,2.23920360,2.63592269,2.93956515,1888523,2223112,2479201,1567109,1844942,2101768,1.85810600,2.18752989,2.49204628,0.16845342,0.20480095,0.22159743
0,0,Turkey,,,2022-03-22 20:02:46.589264,2021-12-10,2.23627603,2.60565765,2.87619477,1886054,2197587,2425755,1563135,1822589,2063531,1.85339414,2.16102692,2.44670930,0.16239974,0.20223994,0.22433654
0,0,Turkey,,,2022-03-22 20:02:46.589264,2021-12-11,2.23291249,2.57501868,2.81183149,1883217,2171746,2371472,1560863,1801310,2021670,1.85070036,2.13579617,2.39707469,0.16032744,0.20122801,0.22541366
0,0,Turkey,,,2022-03-22 20:02:46.589264,2021-12-12,2.22895026,2.54472005,2.74894171,1879875,2146193,2318431,1557815,1780822,1978439,1.84708633,2.11150392,2.34581648,0.16064515,0.20052790,0.22564330
0,0,Turkey,,,2022-03-22 20:02:46.589264,2021-12-13,2.22564804,2.51301930,2.69028120,1877090,2119457,2268958,1554698,1760217,1935922,1.84339108,2.08707273,2.29540404,0.16375926,0.19927403,0.22533161
0,0,Turkey,,,2022-03-22 20:02:46.589264,2021-12-14,2.22078583,2.47864901,2.64031793,1872990,2090469,2226819,1551515,1738423,1896279,1.83961699,2.06123119,2.24840037,0.17229701,0.19643313,0.22434804
0,0,Turkey,,,2022-03-22 20:02:46.589264,2021-12-15,2.21366771,2.43766161,2.60495625,1866986,2055901,2196995,1548247,1713927,1862563,1.83574234,2.03218637,2.20842340,0.18272604,0.19439497,0.22251248
0,0,Turkey,,,2022-03-22 20:02:46.589264,2021-12-16,2.20562141,2.39340794,2.58482908,1860200,2018577,2180020,1543310,1687038,1837431,1.82988863,2.00030492,2.17862451,0.17936947,0.20011109,0.22074819
0,0,Turkey,,,2022-03-22 20:02:46.589264,2021-12-17,2.19790908,2.34765399,2.57422365,1853696,1979989,2171076,1537813,1658322,1820911,1.82337001,1.96625606,2.15903695,0.17752925,0.20396792,0.21990139
0,0,Turkey,,,2022-03-22 20:02:46.589264,2021-12-18,2.19011370,2.30208862,2.56762033,1847121,1941560,2165507,1532630,1629047,1810301,1.81722543,1.93154563,2.14645694,0.17708615,0.20485903,0.22166852
0,0,Turkey,,,2022-03-22 20:02:46.589264,2021-12-19,2.18211985,2.25789432,2.56266570,1840379,1904287,2161328,1527664,1598867,1803373,1.81133723,1.89576176,2.13824178,0.17786655,0.20608012,0.22431135
0,0,Turkey,,,2022-03-22 20:02:46.589264,2021-12-20,2.16921511,2.23029269,2.56004087,1829495,1881008,2159114,1522842,1568875,1798595,1.80561956,1.86019973,2.13257664,0.18084173,0.21035243,0.22783432
0,0,Turkey,,,2022-03-22 20:02:46.589264,2021-12-21,2.13838570,2.21095570,2.56305552,1803494,1864699,2161657,1516420,1547321,1796298,1.79800486,1.83464365,2.12985373,0.18855158,0.22121731,0.23553451
0,0,Turkey,,,2022-03-22 20:02:46.589264,2021-12-22,2.11358926,2.20245508,2.57639359,1782581,1857530,2172906,1495490,1534321,1798638,1.77318807,1.81922959,2.13262736,0.20259730,0.23977706,0.25459386
0,0,Turkey,,,2022-03-22 20:02:46.589264,2021-12-23,2.10059753,2.21224839,2.60093742,1771624,1865789,2193606,1478621,1528560,1807312,1.75318668,1.81239956,2.14291278,0.21770593,0.25949126,0.27535953
0,0,Turkey,,,2022-03-22 20:02:46.589264,2021-12-24,2.09431104,2.23335502,2.63254504,1766322,1883590,2220263,1467521,1533285,1822412,1.74002622,1.81800173,2.16081627,0.22722943,0.27195276,0.28838516
0,0,Turkey,,,2022-03-22 20:02:46.589264,2021-12-25,2.09114151,2.26330897,2.66754686,1763649,1908853,2249784,1461452,1547833,1842158,1.73282948,1.83525050,2.18422889,0.23212728,0.27810117,0.29442573
0,0,Turkey,,,2022-03-22 20:02:46.589264,2021-12-26,2.09048319,2.29638582,2.70545600,1763094,1936750,2281756,1458248,1566367,1865055,1.72903125,1.85722634,2.21137806,0.23669315,0.28296685,0.29831173
0,0,Turkey,,,2022-03-22 20:02:46.589264,2021-12-27,2.09467434,2.33515282,2.75000804,1766628,1969446,2319331,1457688,1588276,1891169,1.72836745,1.88320336,2.24234094,0.24661202,0.29256021,0.30472785
0,0,Turkey,,,2022-03-22 20:02:46.589264,2021-12-28,2.11513477,2.38837158,2.81211123,1783884,2014330,2371708,1462268,1615728,1923656,1.73379789,1.91575379,2.28086019,0.27166439,0.31287896,0.32094287
0,0,Turkey,,,2022-03-22 20:02:46.589264,2021-12-29,2.16736015,2.47009413,2.90903993,1827931,2083254,2453457,1479158,1654333,1969616,1.75382356,1.96152731,2.33535431,0.32076982,0.34945831,0.37007133
0,0,Turkey,,,2022-03-22 20:02:46.589264,2021-12-30,2.25981679,2.58631251,3.04797932,1905908,2181271,2570637,1516349,1710542,2037208,1.79792028,2.02817381,2.41549832,0.37324742,0.38856986,0.42667618
0,0,Turkey,,,2022-03-22 20:02:46.589264,2021-12-31,2.38137319,2.73267546,3.21827141,2008427,2304712,2714260,1576302,1786286,2128765,1.86900673,2.11798173,2.52405577,0.39181117,0.42212795,0.46339195
0,0,Turkey,,,2022-03-22 20:02:46.589264,2022-01-01,2.52053021,2.90006934,3.40727409,2125791,2445891,2873663,1654524,1878295,2240072,1.96175304,2.22707674,2.65603193,0.39999343,0.43708598,0.47941313
0,0,Turkey,,,2022-03-22 20:02:46.589264,2022-01-02,2.67159166,3.08632317,3.60896306,2253195,2602976,3043765,1745204,1985971,2365668,2.06927120,2.35474647,2.80495005,0.40408685,0.44359529,0.48566672
0,0,Turkey,,,2022-03-22 20:02:46.589264,2022-01-03,2.83522084,3.27774085,3.82212858,2391198,2764416,3223547,1846317,2104739,2501838,2.18916007,2.49556847,2.96640515,0.40877530,0.44900982,0.48933530
0,0,Turkey,,,2022-03-22 20:02:46.589264,2022-01-04,3.01886231,3.48942838,4.04926939,2546080,2942951,3415116,1958389,2238469,2647690,2.32204289,2.65413153,3.13934056,0.41851378,0.45921465,0.49440824
0,0,Turkey,,,2022-03-22 20:02:46.589264,2022-01-05,3.23515323,3.71680253,4.29497161,2728498,3134716,3622338,2086062,2377221,2804389,2.47342410,2.81864793,3.32513641,0.43539678,0.47670471,0.50240624
0,0,Turkey,,,2022-03-22 20:02:46.589264,2022-01-06,3.49020232,3.96299304,4.56074617,2943604,3342351,3846490,2235138,2533177,2973698,2.65018137,3.00356327,3.52588514,0.45267089,0.49025703,0.52119740
0,0,Turkey,,,2022-03-22 20:02:46.589264,2022-01-07,3.77934830,4.22824028,4.84378259,3187467,3566058,4085201,2407804,2702579,3155958,2.85491052,3.20442222,3.74198868,0.46264560,0.49498690,0.53827461
0,0,Turkey,,,2022-03-22 20:02:46.589264,2022-01-08,4.09468786,4.50906353,5.14088133,3453421,3802902,4335771,2602614,2882727,3349979,3.08589458,3.41802102,3.97203727,0.46596221,0.49660400,0.54512209
0,0,Turkey,,,2022-03-22 20:02:46.589264,2022-01-09,4.43200234,4.80121130,5.44974309,3737909,4049296,4596262,2815971,3074097,3554072,3.33886917,3.64492682,4.21402892,0.46455121,0.49618674,0.54668885
0,0,Turkey,,,2022-03-22 20:02:46.589264,2022-01-10,4.74183859,5.09747006,5.76687655,3999222,4299158,4863729,3044981,3275682,3766358,3.61040412,3.88394451,4.46573472,0.45666231,0.49324226,0.54492894
0,0,Turkey,,,2022-03-22 20:02:46.589264,2022-01-11,4.98515518,5.41082193,6.08787218,4204433,4563436,5134454,3262871,3474458,3984271,3.86875420,4.11963127,4.72411200,0.43656389,0.48562234,0.53881814
0,0,Turkey,,,2022-03-22 20:02:46.589264,2022-01-12,5.19151899,5.76310426,6.40216937,4378478,4860548,5399529,3428571,3684497,4204179,4.06522342,4.36867182,4.98485467,0.40263312,0.47273556,0.52821606
0,0,Turkey,,,2022-03-22 20:02:46.589264,2022-01-13,5.35853723,6.07142287,6.71048562,4519340,5120581,5659560,3570852,3910401,4422952,4.23392426,4.63652464,5.24425171,0.37159322,0.46018144,0.51801688
0,0,Turkey,,,2022-03-22 20:02:46.589264,2022-01-14,5.50009489,6.37610569,7.01347044,4638728,5377548,5915095,3692037,4129740,4637648,4.37761230,4.89659230,5.49881424,0.35470248,0.45286540,0.51183633
0,0,Turkey,,,2022-03-22 20:02:46.589264,2022-01-15,5.61981618,6.70200221,7.31491360,4739700,5652406,6169329,3797059,4350182,4851790,4.50213656,5.15796808,5.75272042,0.34849438,0.44928501,0.50811439
0,0,Turkey,,,2022-03-22 20:02:46.589264,2022-01-16,5.75480267,7.02717394,7.61270640,4853546,5926652,6420485,3887544,4572498,5062820,4.60942350,5.42156678,6.00293634,0.34783771,0.44607323,0.50288269
0,0,Turkey,,,2022-03-22 20:02:46.589264,2022-01-17,5.89011859,7.32511369,7.89712430,4967671,6177932,6660360,3981934,4786638,5269698,4.72134073,5.67546989,6.24822932,0.35190120,0.43940675,0.49005137
0,0,Turkey,,,2022-03-22 20:02:46.589264,2022-01-18,6.04192419,7.60388911,8.15654135,5095702,6413049,6879150,4081308,4999011,5464811,4.83916776,5.92727842,6.47957310,0.36377581,0.42413060,0.46050355
0,0,Turkey,,,2022-03-22 20:02:46.589264,2022-01-19,6.22064487,7.81802929,8.35670276,5246433,6593652,7047965,4191061,5186111,5635092,4.96930014,6.14912131,6.68147331,0.38550492,0.40135255,0.41360225
0,0,Turkey,,,2022-03-22 20:02:46.589264,2022-01-20,6.43371761,7.96704323,8.49254165,5426137,6719329,7162530,4319034,5335834,5773335,5.12103653,6.32664687,6.84538681,0.35958882,0.38200150,0.41043764
0,0,Turkey,,,2022-03-22 20:02:46.589264,2022-01-21,6.66849874,8.07540881,8.58275014,5624149,6810724,7238611,4464648,5448965,5877816,5.29368943,6.46078427,6.96926931,0.34493520,0.36553298,0.42295608
0,0,Turkey,,,2022-03-22 20:02:46.589264,2022-01-22,6.91118797,8.16328858,8.65405670,5828831,6884841,7298750,4622402,5535702,5953616,5.48073651,6.56362788,7.05914493,0.33910471,0.35922450,0.42806547
0,0,Turkey,,,2022-03-22 20:02:46.589264,2022-01-23,7.15325460,8.25722390,8.71783704,6032988,6964065,7352542,4786363,5606209,6013641,5.67514345,6.64722742,7.13031489,0.33686333,0.35808298,0.42838522
0,0,Turkey,,,2022-03-22 20:02:46.589264,2022-01-24,7.38586807,8.34772191,8.78475647,6229172,7040390,7408981,4950492,5667434,6066629,5.86975072,6.71982064,7.19314329,0.33787949,0.36148394,0.42417469
0,0,Turkey,,,2022-03-22 20:02:46.589264,2022-01-25,7.59491784,8.42315826,8.85930824,6405482,7104013,7471857,5107562,5724558,6120105,6.05598661,6.78755202,7.25654893,0.34222455,0.37128977,0.41265129
0,0,Turkey,,,2022-03-22 20:02:46.589264,2022-01-26,7.76358143,8.51029127,8.98246516,6547732,7177500,7575727,5248328,5794448,6187685,6.22289146,6.87042063,7.33667756,0.35020357,0.38836136,0.39448110
0,0,Turkey,,,2022-03-22 20:02:46.589264,2022-01-27,7.89115364,8.61894895,9.15241856,6655325,7269141,7719064,5365500,5870256,6274621,6.36182083,6.96030560,7.43975679,0.35838084,0.38965685,0.41293032
0,0,Turkey,,,2022-03-22 20:02:46.589264,2022-01-28,7.99194940,8.72232990,9.35983061,6740335,7356331,7893993,5459851,5935076,6394110,6.47369217,7.03716217,7.58143365,0.36323448,0.38980009,0.43014463
0,0,Turkey,,,2022-03-22 20:02:46.589264,2022-01-29,8.07862750,8.83204674,9.57325656,6813439,7448865,8073995,5537060,6006486,6529902,6.56523750,7.12183169,7.74244059,0.36024762,0.39269198,0.43774085
0,0,Turkey,,,2022-03-22 20:02:46.589264,2022-01-30,8.15927448,8.92422795,9.78339120,6881455,7526610,8251220,5603733,6079317,6672264,6.64429191,7.20818632,7.91123807,0.36068712,0.39484628,0.44159789
0,0,Turkey,,,2022-03-22 20:02:46.589264,2022-01-31,8.24279677,9.02697966,9.99044961,6951897,7613270,8425851,5665691,6148536,6815654,6.71775434,7.29025850,8.08125435,0.36564402,0.39886477,0.44630581
0,0,Turkey,,,2022-03-22 20:02:46.589264,2022-02-01,8.34564077,9.14138768,10.20239601,7038635,7709761,8604605,5730420,6219098,6959230,6.79450324,7.37392346,8.25149127,0.37435393,0.40856589,0.45624698
0,0,Turkey,,,2022-03-22 20:02:46.589264,2022-02-02,8.48951755,9.29032513,10.43578571,7159979,7835373,8801444,5809092,6292688,7109573,6.88778377,7.46117859,8.42975095,0.38344024,0.43398587,0.47355655
0,0,Turkey,,,2022-03-22 20:02:46.589264,2022-02-03,8.67777792,9.47346302,10.69146097,7318756,7989830,9017078,5911182,6388104,7272146,7.00883132,7.57431250,8.62251223,0.39232209,0.46102424,0.49158593
0,0,Turkey,,,2022-03-22 20:02:46.589264,2022-02-04,8.89014562,9.65882347,10.95339090,7497865,8146161,9237987,6036521,6507596,7445713,7.15744399,7.71599269,8.82830902,0.39711788,0.47516965,0.50823803
0,0,Turkey,,,2022-03-22 20:02:46.589264,2022-02-05,9.10360137,9.80401449,11.20609294,7677892,8268614,9451114,6176314,6637657,7622928,7.32319544,7.87020554,9.03843130,0.39930950,0.48058920,0.51505309
0,0,Turkey,,,2022-03-22 20:02:46.589264,2022-02-06,9.21549528,9.99792962,11.43913194,7772262,8432160,9647657,6318950,6752747,7795852,7.49231690,8.00666657,9.24346551,0.40118241,0.48179551,0.51694526
0,0,Turkey,,,2022-03-22 20:02:46.589264,2022-02-07,9.28867451,10.20070439,11.64195321,7833981,8603178,9818714,6395945,6877332,7956657,7.58360991,8.15438538,9.43413035,0.40496591,0.48020215,0.51616402
0,0,Turkey,,,2022-03-22 20:02:46.589264,2022-02-08,9.34508198,10.38476741,11.80036187,7881554,8758415,9952315,6448483,7015561,8096832,7.64590305,8.31828237,9.60033479,0.41393305,0.47495884,0.51255861
0,0,Turkey,,,2022-03-22 20:02:46.589264,2022-02-09,9.41777499,10.54722080,11.89775184,7942863,8895427,10034452,6492420,7142484,8207155,7.69799842,8.46877351,9.73114282,0.42977785,0.46603828,0.50607161
0,0,Turkey,,,2022-03-22 20:02:46.589264,2022-02-10,9.50984962,10.68734094,11.93371743,8020518,9013603,10064785,6543837,7256098,8280143,7.75896363,8.60348502,9.81768475,0.44602356,0.45670897,0.49962721
0,0,Turkey,,,2022-03-22 20:02:46.589264,2022-02-11,9.60254112,10.80616276,11.92812633,8098693,9113816,10060070,6605654,7352410,8315252,7.83225933,8.71768067,9.85931303,0.43766131,0.46164232,0.49590470
0,0,Turkey,,,2022-03-22 20:02:46.589264,2022-02-12,9.69609541,10.89932750,11.89563667,8177596,9192391,10032668,6665112,7415689,8323299,7.90275763,8.79271001,9.86885438,0.43360689,0.46360882,0.49431355
0,0,Turkey,,,2022-03-22 20:02:46.589264,2022-02-13,9.77886704,10.93962127,11.84417779,8247405,9226374,9989269,6726023,7486586,8310650,7.97497934,8.87677236,9.85385687,0.43316330,0.46340652,0.49350065
0,0,Turkey,,,2022-03-22 20:02:46.589264,2022-02-14,9.84467552,10.99306107,11.78006196,8302907,9271445,9935194,6782060,7528915,8283086,8.04142258,8.92696047,9.82117345,0.43578234,0.46006894,0.49247043
0,0,Turkey,,,2022-03-22 20:02:46.589264,2022-02-15,9.89405056,10.99756144,11.71174046,8344549,9275240,9877572,6827813,7558185,8245811,8.09567126,8.96166611,9.77697727,0.44173808,0.45353471,0.49030320
0,0,Turkey,,,2022-03-22 20:02:46.589264,2022-02-16,9.92324489,10.96682521,11.64848742,8369172,9249318,9824225,6861797,7560626,8204581,8.13596579,8.96456051,9.72809095,0.41719062,0.45932495,0.48665649
0,0,Turkey,,,2022-03-22 20:02:46.589264,2022-02-17,9.93253559,10.91093321,11.59012990,8377007,9202179,9775007,6883910,7544611,8163687,8.16218473,8.94557164,9.67960409,0.39372715,0.46499506,0.48301513
0,0,Turkey,,,2022-03-22 20:02:46.589264,2022-02-18,9.92438743,10.81934908,11.52721383,8370135,9124938,9721944,6893039,7510023,8122735,8.17300919,8.90456124,9.63104734,0.38048183,0.46843042,0.48079655
0,0,Turkey,,,2022-03-22 20:02:46.589264,2022-02-19,9.90065610,10.70532348,11.45216956,8350120,9028769,9658652,6890210,7458365,8077881,8.16965471,8.84331027,9.57786437,0.37491185,0.46840712,0.48340964
0,0,Turkey,,,2022-03-22 20:02:46.589264,2022-02-20,9.86226624,10.59251608,11.36236603,8317743,8933629,9582913,6876519,7392058,8025571,8.15342163,8.76469077,9.51584048,0.37231782,0.46738380,0.48521731
0,0,Turkey,,,2022-03-22 20:02:46.589264,2022-02-21,9.80071063,10.45502065,11.25894258,8265827,8817666,9495687,6852623,7310722,7964268,8.12508857,8.66825140,9.44315481,0.36953704,0.46500605,0.48744327
0,0,Turkey,,,2022-03-22 20:02:46.589264,2022-02-22,9.69079682,10.28361015,11.14625969,8173127,8673100,9400651,6818945,7220015,7894627,8.08515585,8.56070171,9.36058194,0.36396640,0.45940977,0.49208364
0,0,Turkey,,,2022-03-22 20:02:46.589264,2022-02-23,9.55871506,10.09490354,11.02990054,8061731,8513947,9302515,6757561,7103021,7819100,8.01237363,8.42198274,9.27103076,0.35429429,0.44989452,0.50006383
0,0,Turkey,,,2022-03-22 20:02:46.589264,2022-02-24,9.34597479,9.89868182,10.90986451,7882307,8348455,9201277,6666923,6977427,7739819,7.90490601,8.27306673,9.17702789,0.34439166,0.44074166,0.50816872
0,0,Turkey,,,2022-03-22 20:02:46.589264,2022-02-25,9.12112972,9.66635128,10.78115848,7692675,8152510,9092728,6540811,6839432,7656324,7.75537622,8.10944796,9.07802855,0.33856121,0.43543716,0.51262176
0,0,Turkey,,,2022-03-22 20:02:46.589264,2022-02-26,8.88933172,9.43805578,10.63930189,7497179,7959968,8973087,6387233,6686384,7566452,7.57327941,7.92798007,8.97146777,0.33583391,0.43273540,0.51338436
0,0,Turkey,,,2022-03-22 20:02:46.589264,2022-02-27,8.65572538,9.21863167,10.48030045,7300158,7774907,8838987,6229139,6543938,7467598,7.38582984,7.75908376,8.85425773,0.33361330,0.43003075,0.51025236
0,0,Turkey,,,2022-03-22 20:02:46.589264,2022-02-28,8.42013230,8.98602097,10.29672961,7101461,7578726,8684165,6069194,6392164,7356422,7.19618442,7.57912650,8.72243743,0.32890506,0.42412915,0.49959957
0,0,Turkey,,,2022-03-22 20:02:46.589264,2022-03-01,8.17495590,8.75018850,10.07403979,6894681,7379827,8496351,5905338,6236278,7227027,7.00190210,7.39429436,8.56901493,0.31772904,0.41063491,0.47392750
0,0,Turkey,,,2022-03-22 20:02:46.589264,2022-03-02,7.91155120,8.49188781,9.79926256,6672528,7161978,8264606,5734214,6076731,7071215,6.79900187,7.20512103,8.38427050,0.29937578,0.38968468,0.43254550
0,0,Turkey,,,2022-03-22 20:02:46.589264,2022-03-03,7.62500914,8.21168802,9.48203024,6430861,6925661,7997055,5552750,5901351,6884963,6.58384126,6.99717459,8.16343298,0.28172686,0.36980888,0.39480313
0,0,Turkey,,,2022-03-22 20:02:46.589264,2022-03-04,7.33450304,7.92278481,9.14596334,6185851,6682002,7713620,5357311,5713427,6673971,6.35211104,6.77435464,7.91326223,0.27205051,0.35072002,0.39103953
0,0,Turkey,,,2022-03-22 20:02:46.589264,2022-03-05,7.05110193,7.63448248,8.80753870,5946833,6438851,7428195,5158961,5519161,6449140,6.11692946,6.54401580,7.64668173,0.26797309,0.34287507,0.38922038
0,0,Turkey,,,2022-03-22 20:02:46.589264,2022-03-06,6.77410892,7.35057119,8.47387987,5713220,6199403,7146791,4962030,5323574,6219478,5.88343033,6.31210993,7.37437419,0.26599438,0.33940918,0.38726767
0,0,Turkey,,,2022-03-22 20:02:46.589264,2022-03-07,6.50351584,7.07104884,8.14650256,5485004,5963656,6870684,4770116,5129210,5990031,5.65587977,6.08165466,7.10232101,0.26366305,0.33605618,0.38286386
0,0,Turkey,,,2022-03-22 20:02:46.589264,2022-03-08,6.24279104,6.79302210,7.82354626,5265111,5729171,6598305,4581108,4936363,5762571,5.43177571,5.85299702,6.83262464,0.25852289,0.32970902,0.37258046
0,0,Turkey,,,2022-03-22 20:02:46.589264,2022-03-09,5.97747620,6.51321503,7.50244298,5041347,5493184,6327490,4397883,4743839,5536864,5.21452734,5.62472401,6.56500524,0.25046295,0.31972265,0.35557267
0,0,Turkey,,,2022-03-22 20:02:46.589264,2022-03-10,5.71812159,6.23312319,7.18434004,4822610,5256957,6059205,4213612,4550824,5312576,4.99603916,5.39586773,6.29906904,0.24237630,0.31012877,0.33948244
0,0,Turkey,,,2022-03-22 20:02:46.589264,2022-03-11,5.46379667,5.95778055,6.87330661,4608115,5024736,5796882,4032719,4358475,5090808,4.78155541,5.16780130,6.03612153,0.23799052,0.30476000,0.33046716
0,0,Turkey,,,2022-03-22 20:02:46.589264,2022-03-12,5.21879510,5.69079974,6.57242018,4401483,4799567,5543117,3856919,4169154,4873614,4.57311187,4.94332560,5.77859704,0.23664265,0.30284498,0.32665602
0,0,Turkey,,,2022-03-22 20:02:46.589264,2022-03-13,4.98367333,5.43361251,6.28364635,4203183,4582658,5299568,3685337,3984824,4662828,4.36966813,4.72476654,5.52866999,0.23738091,0.30260916,0.32501100
0,0,Turkey,,,2022-03-22 20:02:46.589264,2022-03-14,4.76071054,5.18634412,6.00857642,4015138,4374114,5067577,3520098,3806523,4459935,4.17374659,4.51335764,5.28810098,0.24005684,0.30155448,0.32920799
0,0,Turkey,,,2022-03-22 20:02:46.589264,2022-03-15,4.55187610,4.94838882,5.75048911,3839009,4173424,4849908,3364144,3634541,4266634,3.98883284,4.30943954,5.05890652,0.24221141,0.29967800,0.34035632
0,0,Turkey,,,2022-03-22 20:02:46.589264,2022-03-16,4.36011292,4.71898679,5.51309305,3677278,3979949,4649691,3217888,3468712,4084960,3.81541809,4.11281778,4.84349704,0.24401941,0.29661501,0.36080128
0,0,Turkey,,,2022-03-22 20:02:46.589264,2022-03-17,4.18769688,4.49803682,5.29521390,3531864,3793602,4465934,3082831,3308805,3916379,3.65528266,3.92321750,4.64361215,0.24610487,0.29712763,0.38251238
0,0,Turkey,,,2022-03-22 20:02:46.589264,2022-03-18,4.01728786,4.28592382,5.09162946,3388143,3614708,4294232,2958671,3154806,3759886,3.50806777,3.74062244,4.45806075,0.24732270,0.29569732,0.39567641
0,0,Turkey,,,2022-03-22 20:02:46.589264,2022-03-19,3.85285658,4.08340566,4.89694169,3249463,3443906,4130034,2838808,3006849,3613090,3.36594703,3.56519137,4.28400536,0.24782082,0.29384609,0.40116791
0,0,Turkey,,,2022-03-22 20:02:46.589264,2022-03-20,3.69048466,3.91601202,4.70887575,3112520,3302728,3971421,2720839,2877587,3473356,3.22607283,3.41192670,4.11832492,0.24799429,0.29320250,0.40309564
0,0,Turkey,,,2022-03-22 20:02:46.589264,2022-03-21,3.52417844,3.75468261,4.52712969,2972259,3166664,3818138,2607342,2759055,3339034,3.09150077,3.27138466,3.95906056,0.24805125,0.29299154,0.40373028
0,0,Turkey,,,2022-03-22 20:02:46.589264,2022-03-22,3.37169504,3.59923594,4.35075425,2843656,3035562,3669385,2491451,2645162,3209372,2.95408979,3.13634324,3.80532129,0.24806959,0.29292356,0.40393476
0,0,Turkey,,,2022-03-22 20:02:46.589264,2022-03-23,3.21680875,3.44951347,4.18047425,2713026,2909287,3525772,2380984,2535576,3084259,2.82311031,3.00640818,3.65697558,0.24807546,0.29290181,0.40400019
0,0,Turkey,,,2022-03-22 20:02:46.589264,2022-03-24,3.06858728,3.30538876,4.01581531,2588017,2787734,3386901,2264189,2430079,2963454,2.68462747,2.88132163,3.51373828,0.24807733,0.29289488,0.40402107
0,0,Turkey,,,2022-03-22 20:02:46.589264,2022-03-25,2.91280653,3.16617374,3.85650194,2456633,2670321,3252537,2149473,2328593,2846671,2.54860993,2.76099055,3.37526988,0.24807793,0.29289266,0.40402774
0,0,Turkey,,,2022-03-22 20:02:46.589264,2022-03-26,2.76388201,3.02586851,3.70247673,2331032,2551989,3122634,2039697,2229432,2734239,2.41844908,2.64341576,3.24196123,0.24807812,0.29289196,0.40402986
0,0,Turkey,,,2022-03-22 20:02:46.589264,2022-03-27,2.62173665,2.89073102,3.55369577,2211148,2438015,2997153,1935241,2131246,2625334,2.29459659,2.52699826,3.11283343,0.24807818,0.29289173,0.40403054
0,0,Turkey,,,2022-03-22 20:02:46.589264,2022-03-28,2.48687018,2.76029342,3.41027951,2097403,2328005,2876197,1835928,2036620,2520051,2.17684234,2.41480043,2.98800079,0.24807820,0.29289166,0.40403075
0,0,Turkey,,,2022-03-22 20:02:46.589264,2022-03-29,2.35855877,2.63297066,3.27187241,1989186,2220622,2759466,1741526,1944775,2418416,2.06491111,2.30590071,2.86749296,0.24807820,0.29289164,0.40403082
0,0,Turkey,,,2022-03-22 20:02:46.589264,2022-03-30,2.23661749,2.51120013,3.13853278,1886342,2117922,2647009,1651809,1855155,2320447,1.95853405,2.19963989,2.75133125,0.24807820,0.29289163,0.40403085
0,0,Turkey,,,2022-03-22 20:02:46.589264,2022-03-31,2.12073447,2.39515926,3.01005760,1788607,2020054,2538654,1566566,1769541,2225978,1.85746302,2.09812751,2.63932128,0.24807820,0.29289163,0.40403085
0,0,Turkey,,,2022-03-22 20:02:46.589264,2022-04-01,2.01077656,2.28457425,2.88636573,1695870,1926788,2434333,1485537,1687867,2134923,1.76138771,2.00128771,2.53135821,0.24807820,0.29289162,0.40403085
0,0,Turkey,,,2022-03-22 20:02:46.589264,2022-04-02,1.90615859,2.17900079,2.76715849,1607636,1837748,2333795,1408604,1609720,2047306,1.67016846,1.90862943,2.42747136,0.24807820,0.29289162,0.40403086
0,0,Turkey,,,2022-03-22 20:02:46.589264,2022-04-03,1.80702143,2.07771738,2.65238372,1524025,1752327,2236995,1335346,1535794,1962982,1.58330727,1.82097666,2.32748897,0.24807820,0.29289162,0.40403086
0,0,Turkey,,,2022-03-22 20:02:46.589264,2022-04-04,1.71291770,1.98127025,2.54199771,1444658,1670984,2143897,1265855,1464639,1881797,1.50091218,1.73660884,2.23122884,0.24807820,0.29289162,0.40403086
0,0,Turkey,,,2022-03-22 20:02:46.589264,2022-04-05,1.62355905,1.88872851,2.43582027,1369294,1592936,2054348,1199991,1396612,1803588,1.42281768,1.65594954,2.13849678,0.24807820,0.29289162,0.40403086
