FIPS,HR_UID,nameid,province,region,analysisTime,dates,pointprevalence_025,pointprevalence_50,pointprevalence_975,pointinfections_025,pointinfections_50,pointinfections_975,pointinfectious_025,pointinfectious_50,pointinfectious_975,pointinfectiousprevalence_025,pointinfectiousprevalence_50,pointinfectiousprevalence_975,infectrate_025,infectrate_50,infectrate_975
21193,0,USKentuckyPerry,Kentucky,Perry,2022-04-28 09:13:11,2020-03-19,0,0,0,,,,,,,,,,,,
21193,0,USKentuckyPerry,Kentucky,Perry,2022-04-28 09:13:11,2020-03-20,0,0,0,,,,,,,,,,,,
21193,0,USKentuckyPerry,Kentucky,Perry,2022-04-28 09:13:11,2020-03-21,0,0,0,,,,,,,,,,,,
21193,0,USKentuckyPerry,Kentucky,Perry,2022-04-28 09:13:11,2020-03-22,0,0,0,,,,,,,,,,,,
21193,0,USKentuckyPerry,Kentucky,Perry,2022-04-28 09:13:11,2020-03-23,0,0,0,,,,,,,,,,,,
21193,0,USKentuckyPerry,Kentucky,Perry,2022-04-28 09:13:11,2020-03-24,0,0,0,,,,,,,,,,,,
21193,0,USKentuckyPerry,Kentucky,Perry,2022-04-28 09:13:11,2020-03-25,0,0,0,,,,,,,,,,,,
21193,0,USKentuckyPerry,Kentucky,Perry,2022-04-28 09:13:11,2020-03-26,0,0,0,,,,,,,,,,,,
21193,0,USKentuckyPerry,Kentucky,Perry,2022-04-28 09:13:11,2020-03-27,0,0,0,,,,,,,,,,,,
21193,0,USKentuckyPerry,Kentucky,Perry,2022-04-28 09:13:11,2020-03-28,0,0,0,,,,,,,,,,,,
21193,0,USKentuckyPerry,Kentucky,Perry,2022-04-28 09:13:11,2020-03-29,0,0,0,,,,,,,,,,,,
21193,0,USKentuckyPerry,Kentucky,Perry,2022-04-28 09:13:11,2020-03-30,0,0,0,,,,,,,,,,,,
21193,0,USKentuckyPerry,Kentucky,Perry,2022-04-28 09:13:11,2020-03-31,0,0,0,,,,,,,,,,,,
21193,0,USKentuckyPerry,Kentucky,Perry,2022-04-28 09:13:11,2020-04-01,0,0,0,,,,,,,,,,,,
21193,0,USKentuckyPerry,Kentucky,Perry,2022-04-28 09:13:11,2020-04-02,0.07864339416338229,0.22673398881592446,0.7021672854072973,,,,,,,,,,,,
21193,0,USKentuckyPerry,Kentucky,Perry,2022-04-28 09:13:11,2020-04-03,0.07864339416338229,0.22673398881592446,0.7021672854072973,,,,,,,,,,,,
21193,0,USKentuckyPerry,Kentucky,Perry,2022-04-28 09:13:11,2020-04-04,0.07864339416338229,0.22673398881592446,0.7021672854072973,,,,,,,,,,,,
21193,0,USKentuckyPerry,Kentucky,Perry,2022-04-28 09:13:11,2020-04-05,0.07864339416338229,0.22673398881592446,0.7021672854072973,,,,,,,,,,,,
21193,0,USKentuckyPerry,Kentucky,Perry,2022-04-28 09:13:11,2020-04-06,0.07864339416338229,0.22673398881592446,0.7021672854072973,,,,,,,,,,,,
21193,0,USKentuckyPerry,Kentucky,Perry,2022-04-28 09:13:11,2020-04-07,0.07864339416338229,0.22673398881592446,0.7021672854072973,,,,,,,,,,,,
21193,0,USKentuckyPerry,Kentucky,Perry,2022-04-28 09:13:11,2020-04-08,0.07864339416338229,0.22673398881592446,0.7021672854072973,,,,,,,,,,,,
21193,0,USKentuckyPerry,Kentucky,Perry,2022-04-28 09:13:11,2020-04-09,0.05225793354618308,0.26388988355540444,1.401361327438841,,,,,,,,,,,,
21193,0,USKentuckyPerry,Kentucky,Perry,2022-04-28 09:13:11,2020-04-10,0.05225793354618308,0.26388988355540444,1.401361327438841,,,,,,,,,,,,
21193,0,USKentuckyPerry,Kentucky,Perry,2022-04-28 09:13:11,2020-04-11,0.05225793354618308,0.26388988355540444,1.401361327438841,,,,,,,,,,,,
21193,0,USKentuckyPerry,Kentucky,Perry,2022-04-28 09:13:11,2020-04-12,0.05225793354618308,0.26388988355540444,1.401361327438841,,,,,,,,,,,,
21193,0,USKentuckyPerry,Kentucky,Perry,2022-04-28 09:13:11,2020-04-13,0.05225793354618308,0.26388988355540444,1.401361327438841,,,,,,,,,,,,
21193,0,USKentuckyPerry,Kentucky,Perry,2022-04-28 09:13:11,2020-04-14,0.05225793354618308,0.26388988355540444,1.401361327438841,,,,,,,,,,,,
21193,0,USKentuckyPerry,Kentucky,Perry,2022-04-28 09:13:11,2020-04-15,0.05225793354618308,0.26388988355540444,1.401361327438841,,,,,,,,,,,,
21193,0,USKentuckyPerry,Kentucky,Perry,2022-04-28 09:13:11,2020-04-16,0.05227938363089957,0.26408206046805066,1.4028076085080956,,,,,,,,,,,,
21193,0,USKentuckyPerry,Kentucky,Perry,2022-04-28 09:13:11,2020-04-17,0.05227938363089957,0.26408206046805066,1.4028076085080956,,,,,,,,,,,,
21193,0,USKentuckyPerry,Kentucky,Perry,2022-04-28 09:13:11,2020-04-18,0.05227938363089957,0.26408206046805066,1.4028076085080956,,,,,,,,,,,,
21193,0,USKentuckyPerry,Kentucky,Perry,2022-04-28 09:13:11,2020-04-19,0.05227938363089957,0.26408206046805066,1.4028076085080956,,,,,,,,,,,,
21193,0,USKentuckyPerry,Kentucky,Perry,2022-04-28 09:13:11,2020-04-20,0.05227938363089957,0.26408206046805066,1.4028076085080956,,,,,,,,,,,,
21193,0,USKentuckyPerry,Kentucky,Perry,2022-04-28 09:13:11,2020-04-21,0.05227938363089957,0.26408206046805066,1.4028076085080956,,,,,,,,,,,,
21193,0,USKentuckyPerry,Kentucky,Perry,2022-04-28 09:13:11,2020-04-22,0.05227938363089957,0.26408206046805066,1.4028076085080956,,,,,,,,,,,,
21193,0,USKentuckyPerry,Kentucky,Perry,2022-04-28 09:13:11,2020-04-23,0.08821615998664337,0.2803575819654909,0.9546547689585447,,,,,,,,,,,,
21193,0,USKentuckyPerry,Kentucky,Perry,2022-04-28 09:13:11,2020-04-24,0.08821615998664337,0.2803575819654909,0.9546547689585447,,,,,,,,,,,,
21193,0,USKentuckyPerry,Kentucky,Perry,2022-04-28 09:13:11,2020-04-25,0.08821615998664337,0.2803575819654909,0.9546547689585447,,,,,,,,,,,,
21193,0,USKentuckyPerry,Kentucky,Perry,2022-04-28 09:13:11,2020-04-26,0.08821615998664337,0.2803575819654909,0.9546547689585447,,,,,,,,,,,,
21193,0,USKentuckyPerry,Kentucky,Perry,2022-04-28 09:13:11,2020-04-27,0.08821615998664337,0.2803575819654909,0.9546547689585447,,,,,,,,,,,,
21193,0,USKentuckyPerry,Kentucky,Perry,2022-04-28 09:13:11,2020-04-28,0.08821615998664337,0.2803575819654909,0.9546547689585447,,,,,,,,,,,,
21193,0,USKentuckyPerry,Kentucky,Perry,2022-04-28 09:13:11,2020-04-29,0.08821615998664337,0.2803575819654909,0.9546547689585447,,,,,,,,,,,,
21193,0,USKentuckyPerry,Kentucky,Perry,2022-04-28 09:13:11,2020-04-30,0.23630212583892557,0.7538251668463664,2.5762844831008334,,,,,,,,,,,,
21193,0,USKentuckyPerry,Kentucky,Perry,2022-04-28 09:13:11,2020-05-01,0.23630212583892557,0.7538251668463664,2.5762844831008334,,,,,,,,,,,,
21193,0,USKentuckyPerry,Kentucky,Perry,2022-04-28 09:13:11,2020-05-02,0.23630212583892557,0.7538251668463664,2.5762844831008334,,,,,,,,,,,,
21193,0,USKentuckyPerry,Kentucky,Perry,2022-04-28 09:13:11,2020-05-03,0.23630212583892557,0.7538251668463664,2.5762844831008334,,,,,,,,,,,,
21193,0,USKentuckyPerry,Kentucky,Perry,2022-04-28 09:13:11,2020-05-04,0.23630212583892557,0.7538251668463664,2.5762844831008334,,,,,,,,,,,,
21193,0,USKentuckyPerry,Kentucky,Perry,2022-04-28 09:13:11,2020-05-05,0.23630212583892557,0.7538251668463664,2.5762844831008334,,,,,,,,,,,,
21193,0,USKentuckyPerry,Kentucky,Perry,2022-04-28 09:13:11,2020-05-06,0.23630212583892557,0.7538251668463664,2.5762844831008334,,,,,,,,,,,,
21193,0,USKentuckyPerry,Kentucky,Perry,2022-04-28 09:13:11,2020-05-07,0.05112124883079553,0.14422749201559681,0.4372746520861926,,,,,,,,,,,,
21193,0,USKentuckyPerry,Kentucky,Perry,2022-04-28 09:13:11,2020-05-08,0.05112124883079553,0.14422749201559681,0.4372746520861926,,,,,,,,,,,,
21193,0,USKentuckyPerry,Kentucky,Perry,2022-04-28 09:13:11,2020-05-09,0.05112124883079553,0.14422749201559681,0.4372746520861926,,,,,,,,,,,,
21193,0,USKentuckyPerry,Kentucky,Perry,2022-04-28 09:13:11,2020-05-10,0.05112124883079553,0.14422749201559681,0.4372746520861926,,,,,,,,,,,,
21193,0,USKentuckyPerry,Kentucky,Perry,2022-04-28 09:13:11,2020-05-11,0.05112124883079553,0.14422749201559681,0.4372746520861926,,,,,,,,,,,,
21193,0,USKentuckyPerry,Kentucky,Perry,2022-04-28 09:13:11,2020-05-12,0.05112124883079553,0.14422749201559681,0.4372746520861926,,,,,,,,,,,,
21193,0,USKentuckyPerry,Kentucky,Perry,2022-04-28 09:13:11,2020-05-13,0.05112124883079553,0.14422749201559681,0.4372746520861926,,,,,,,,,,,,
21193,0,USKentuckyPerry,Kentucky,Perry,2022-04-28 09:13:11,2020-05-14,0.0863428716219969,0.21025805247971915,0.551009363316541,,,,,,,,,,,,
21193,0,USKentuckyPerry,Kentucky,Perry,2022-04-28 09:13:11,2020-05-15,0.0863428716219969,0.21025805247971915,0.551009363316541,,,,,,,,,,,,
21193,0,USKentuckyPerry,Kentucky,Perry,2022-04-28 09:13:11,2020-05-16,0.0863428716219969,0.21025805247971915,0.551009363316541,,,,,,,,,,,,
21193,0,USKentuckyPerry,Kentucky,Perry,2022-04-28 09:13:11,2020-05-17,0.0863428716219969,0.21025805247971915,0.551009363316541,,,,,,,,,,,,
21193,0,USKentuckyPerry,Kentucky,Perry,2022-04-28 09:13:11,2020-05-18,0.0863428716219969,0.21025805247971915,0.551009363316541,,,,,,,,,,,,
21193,0,USKentuckyPerry,Kentucky,Perry,2022-04-28 09:13:11,2020-05-19,0.0863428716219969,0.21025805247971915,0.551009363316541,,,,,,,,,,,,
21193,0,USKentuckyPerry,Kentucky,Perry,2022-04-28 09:13:11,2020-05-20,0.0863428716219969,0.21025805247971915,0.551009363316541,,,,,,,,,,,,
21193,0,USKentuckyPerry,Kentucky,Perry,2022-04-28 09:13:11,2020-05-21,0,0,0,,,,,,,,,,,,
21193,0,USKentuckyPerry,Kentucky,Perry,2022-04-28 09:13:11,2020-05-22,0,0,0,,,,,,,,,,,,
21193,0,USKentuckyPerry,Kentucky,Perry,2022-04-28 09:13:11,2020-05-23,0,0,0,,,,,,,,,,,,
21193,0,USKentuckyPerry,Kentucky,Perry,2022-04-28 09:13:11,2020-05-24,0,0,0,,,,,,,,,,,,
21193,0,USKentuckyPerry,Kentucky,Perry,2022-04-28 09:13:11,2020-05-25,0,0,0,,,,,,,,,,,,
21193,0,USKentuckyPerry,Kentucky,Perry,2022-04-28 09:13:11,2020-05-26,0,0,0,,,,,,,,,,,,
21193,0,USKentuckyPerry,Kentucky,Perry,2022-04-28 09:13:11,2020-05-27,0,0,0,,,,,,,,,,,,
21193,0,USKentuckyPerry,Kentucky,Perry,2022-04-28 09:13:11,2020-05-28,0.07100114319281933,0.18741788915667631,0.5321730061443215,,,,,,,,,,,,
21193,0,USKentuckyPerry,Kentucky,Perry,2022-04-28 09:13:11,2020-05-29,0.07100114319281933,0.18741788915667631,0.5321730061443215,,,,,,,,,,,,
21193,0,USKentuckyPerry,Kentucky,Perry,2022-04-28 09:13:11,2020-05-30,0.07100114319281933,0.18741788915667631,0.5321730061443215,,,,,,,,,,,,
21193,0,USKentuckyPerry,Kentucky,Perry,2022-04-28 09:13:11,2020-05-31,0.07100114319281933,0.18741788915667631,0.5321730061443215,,,,,,,,,,,,
21193,0,USKentuckyPerry,Kentucky,Perry,2022-04-28 09:13:11,2020-06-01,0.07100114319281933,0.18741788915667631,0.5321730061443215,,,,,,,,,,,,
21193,0,USKentuckyPerry,Kentucky,Perry,2022-04-28 09:13:11,2020-06-02,0.07100114319281933,0.18741788915667631,0.5321730061443215,,,,,,,,,,,,
21193,0,USKentuckyPerry,Kentucky,Perry,2022-04-28 09:13:11,2020-06-03,0.07100114319281933,0.18741788915667631,0.5321730061443215,,,,,,,,,,,,
21193,0,USKentuckyPerry,Kentucky,Perry,2022-04-28 09:13:11,2020-06-04,0,0,0,,,,,,,,,,,,
21193,0,USKentuckyPerry,Kentucky,Perry,2022-04-28 09:13:11,2020-06-05,0,0,0,,,,,,,,,,,,
21193,0,USKentuckyPerry,Kentucky,Perry,2022-04-28 09:13:11,2020-06-06,0,0,0,,,,,,,,,,,,
21193,0,USKentuckyPerry,Kentucky,Perry,2022-04-28 09:13:11,2020-06-07,0,0,0,,,,,,,,,,,,
21193,0,USKentuckyPerry,Kentucky,Perry,2022-04-28 09:13:11,2020-06-08,0,0,0,,,,,,,,,,,,
21193,0,USKentuckyPerry,Kentucky,Perry,2022-04-28 09:13:11,2020-06-09,0,0,0,,,,,,,,,,,,
21193,0,USKentuckyPerry,Kentucky,Perry,2022-04-28 09:13:11,2020-06-10,0,0,0,,,,,,,,,,,,
21193,0,USKentuckyPerry,Kentucky,Perry,2022-04-28 09:13:11,2020-06-11,0.08061699568341057,0.23739750341369892,0.7505660311580171,,,,,,,,,,,,
21193,0,USKentuckyPerry,Kentucky,Perry,2022-04-28 09:13:11,2020-06-12,0.08061699568341057,0.23739750341369892,0.7505660311580171,,,,,,,,,,,,
21193,0,USKentuckyPerry,Kentucky,Perry,2022-04-28 09:13:11,2020-06-13,0.08061699568341057,0.23739750341369892,0.7505660311580171,,,,,,,,,,,,
21193,0,USKentuckyPerry,Kentucky,Perry,2022-04-28 09:13:11,2020-06-14,0.08061699568341057,0.23739750341369892,0.7505660311580171,,,,,,,,,,,,
21193,0,USKentuckyPerry,Kentucky,Perry,2022-04-28 09:13:11,2020-06-15,0.08061699568341057,0.23739750341369892,0.7505660311580171,,,,,,,,,,,,
21193,0,USKentuckyPerry,Kentucky,Perry,2022-04-28 09:13:11,2020-06-16,0.08061699568341057,0.23739750341369892,0.7505660311580171,,,,,,,,,,,,
21193,0,USKentuckyPerry,Kentucky,Perry,2022-04-28 09:13:11,2020-06-17,0.08061699568341057,0.23739750341369892,0.7505660311580171,,,,,,,,,,,,
21193,0,USKentuckyPerry,Kentucky,Perry,2022-04-28 09:13:11,2020-06-18,0.42507262105535987,0.7536028352188535,1.4232924621646208,,,,,,,,,,,,
21193,0,USKentuckyPerry,Kentucky,Perry,2022-04-28 09:13:11,2020-06-19,0.42507262105535987,0.7536028352188535,1.4232924621646208,,,,,,,,,,,,
21193,0,USKentuckyPerry,Kentucky,Perry,2022-04-28 09:13:11,2020-06-20,0.42507262105535987,0.7536028352188535,1.4232924621646208,,,,,,,,,,,,
21193,0,USKentuckyPerry,Kentucky,Perry,2022-04-28 09:13:11,2020-06-21,0.42507262105535987,0.7536028352188535,1.4232924621646208,,,,,,,,,,,,
21193,0,USKentuckyPerry,Kentucky,Perry,2022-04-28 09:13:11,2020-06-22,0.42507262105535987,0.7536028352188535,1.4232924621646208,,,,,,,,,,,,
21193,0,USKentuckyPerry,Kentucky,Perry,2022-04-28 09:13:11,2020-06-23,0.42507262105535987,0.7536028352188535,1.4232924621646208,,,,,,,,,,,,
21193,0,USKentuckyPerry,Kentucky,Perry,2022-04-28 09:13:11,2020-06-24,0.42507262105535987,0.7536028352188535,1.4232924621646208,,,,,,,,,,,,
21193,0,USKentuckyPerry,Kentucky,Perry,2022-04-28 09:13:11,2020-06-25,0.09498786368395916,0.25147043397914487,0.7161230653910426,,,,,,,,,,,,
21193,0,USKentuckyPerry,Kentucky,Perry,2022-04-28 09:13:11,2020-06-26,0.09498786368395916,0.25147043397914487,0.7161230653910426,,,,,,,,,,,,
21193,0,USKentuckyPerry,Kentucky,Perry,2022-04-28 09:13:11,2020-06-27,0.09498786368395916,0.25147043397914487,0.7161230653910426,,,,,,,,,,,,
21193,0,USKentuckyPerry,Kentucky,Perry,2022-04-28 09:13:11,2020-06-28,0.09498786368395916,0.25147043397914487,0.7161230653910426,,,,,,,,,,,,
21193,0,USKentuckyPerry,Kentucky,Perry,2022-04-28 09:13:11,2020-06-29,0.09498786368395916,0.25147043397914487,0.7161230653910426,,,,,,,,,,,,
21193,0,USKentuckyPerry,Kentucky,Perry,2022-04-28 09:13:11,2020-06-30,0.09498786368395916,0.25147043397914487,0.7161230653910426,,,,,,,,,,,,
21193,0,USKentuckyPerry,Kentucky,Perry,2022-04-28 09:13:11,2020-07-01,0.09498786368395916,0.25147043397914487,0.7161230653910426,,,,,,,,,,,,
21193,0,USKentuckyPerry,Kentucky,Perry,2022-04-28 09:13:11,2020-07-02,0.2988525600176081,0.639727130267521,1.4714248285089437,,,,,,,,,,,,
21193,0,USKentuckyPerry,Kentucky,Perry,2022-04-28 09:13:11,2020-07-03,0.2988525600176081,0.639727130267521,1.4714248285089437,,,,,,,,,,,,
21193,0,USKentuckyPerry,Kentucky,Perry,2022-04-28 09:13:11,2020-07-04,0.2988525600176081,0.639727130267521,1.4714248285089437,,,,,,,,,,,,
21193,0,USKentuckyPerry,Kentucky,Perry,2022-04-28 09:13:11,2020-07-05,0.2988525600176081,0.639727130267521,1.4714248285089437,,,,,,,,,,,,
21193,0,USKentuckyPerry,Kentucky,Perry,2022-04-28 09:13:11,2020-07-06,0.2988525600176081,0.639727130267521,1.4714248285089437,,,,,,,,,,,,
21193,0,USKentuckyPerry,Kentucky,Perry,2022-04-28 09:13:11,2020-07-07,0.2988525600176081,0.639727130267521,1.4714248285089437,,,,,,,,,,,,
21193,0,USKentuckyPerry,Kentucky,Perry,2022-04-28 09:13:11,2020-07-08,0.2988525600176081,0.639727130267521,1.4714248285089437,,,,,,,,,,,,
21193,0,USKentuckyPerry,Kentucky,Perry,2022-04-28 09:13:11,2020-07-09,0.54242874571940225,1.0341542716099776,2.1094817384412377,,,,,,,,,,,,
21193,0,USKentuckyPerry,Kentucky,Perry,2022-04-28 09:13:11,2020-07-10,0.54242874571940225,1.0341542716099776,2.1094817384412377,,,,,,,,,,,,
21193,0,USKentuckyPerry,Kentucky,Perry,2022-04-28 09:13:11,2020-07-11,0.54242874571940225,1.0341542716099776,2.1094817384412377,,,,,,,,,,,,
21193,0,USKentuckyPerry,Kentucky,Perry,2022-04-28 09:13:11,2020-07-12,0.54242874571940225,1.0341542716099776,2.1094817384412377,,,,,,,,,,,,
21193,0,USKentuckyPerry,Kentucky,Perry,2022-04-28 09:13:11,2020-07-13,0.54242874571940225,1.0341542716099776,2.1094817384412377,,,,,,,,,,,,
21193,0,USKentuckyPerry,Kentucky,Perry,2022-04-28 09:13:11,2020-07-14,0.54242874571940225,1.0341542716099776,2.1094817384412377,,,,,,,,,,,,
21193,0,USKentuckyPerry,Kentucky,Perry,2022-04-28 09:13:11,2020-07-15,0.54242874571940225,1.0341542716099776,2.1094817384412377,,,,,,,,,,,,
21193,0,USKentuckyPerry,Kentucky,Perry,2022-04-28 09:13:11,2020-07-16,0.5690519528496434,1.074154267682399,2.1682338107354857,,,,,,,,,,,,
21193,0,USKentuckyPerry,Kentucky,Perry,2022-04-28 09:13:11,2020-07-17,0.5690519528496434,1.074154267682399,2.1682338107354857,,,,,,,,,,,,
21193,0,USKentuckyPerry,Kentucky,Perry,2022-04-28 09:13:11,2020-07-18,0.5690519528496434,1.074154267682399,2.1682338107354857,,,,,,,,,,,,
21193,0,USKentuckyPerry,Kentucky,Perry,2022-04-28 09:13:11,2020-07-19,0.5690519528496434,1.074154267682399,2.1682338107354857,,,,,,,,,,,,
21193,0,USKentuckyPerry,Kentucky,Perry,2022-04-28 09:13:11,2020-07-20,0.5690519528496434,1.074154267682399,2.1682338107354857,,,,,,,,,,,,
21193,0,USKentuckyPerry,Kentucky,Perry,2022-04-28 09:13:11,2020-07-21,0.5690519528496434,1.074154267682399,2.1682338107354857,,,,,,,,,,,,
21193,0,USKentuckyPerry,Kentucky,Perry,2022-04-28 09:13:11,2020-07-22,0.5690519528496434,1.074154267682399,2.1682338107354857,,,,,,,,,,,,
21193,0,USKentuckyPerry,Kentucky,Perry,2022-04-28 09:13:11,2020-07-23,0.48339285018322664,1.0304549725322254,2.3600359994009676,,,,,,,,,,,,
21193,0,USKentuckyPerry,Kentucky,Perry,2022-04-28 09:13:11,2020-07-24,0.48339285018322664,1.0304549725322254,2.3600359994009676,,,,,,,,,,,,
21193,0,USKentuckyPerry,Kentucky,Perry,2022-04-28 09:13:11,2020-07-25,0.48339285018322664,1.0304549725322254,2.3600359994009676,,,,,,,,,,,,
21193,0,USKentuckyPerry,Kentucky,Perry,2022-04-28 09:13:11,2020-07-26,0.48339285018322664,1.0304549725322254,2.3600359994009676,,,,,,,,,,,,
21193,0,USKentuckyPerry,Kentucky,Perry,2022-04-28 09:13:11,2020-07-27,0.48339285018322664,1.0304549725322254,2.3600359994009676,,,,,,,,,,,,
21193,0,USKentuckyPerry,Kentucky,Perry,2022-04-28 09:13:11,2020-07-28,0.48339285018322664,1.0304549725322254,2.3600359994009676,,,,,,,,,,,,
21193,0,USKentuckyPerry,Kentucky,Perry,2022-04-28 09:13:11,2020-07-29,0.48339285018322664,1.0304549725322254,2.3600359994009676,,,,,,,,,,,,
21193,0,USKentuckyPerry,Kentucky,Perry,2022-04-28 09:13:11,2020-07-30,0.5662207648473261,1.1225195281493454,2.385197248661829,,,,,,,,,,,,
21193,0,USKentuckyPerry,Kentucky,Perry,2022-04-28 09:13:11,2020-07-31,0.5662207648473261,1.1225195281493454,2.385197248661829,,,,,,,,,,,,
21193,0,USKentuckyPerry,Kentucky,Perry,2022-04-28 09:13:11,2020-08-01,0.5662207648473261,1.1225195281493454,2.385197248661829,,,,,,,,,,,,
21193,0,USKentuckyPerry,Kentucky,Perry,2022-04-28 09:13:11,2020-08-02,0.5662207648473261,1.1225195281493454,2.385197248661829,,,,,,,,,,,,
21193,0,USKentuckyPerry,Kentucky,Perry,2022-04-28 09:13:11,2020-08-03,0.5662207648473261,1.1225195281493454,2.385197248661829,,,,,,,,,,,,
21193,0,USKentuckyPerry,Kentucky,Perry,2022-04-28 09:13:11,2020-08-04,0.5662207648473261,1.1225195281493454,2.385197248661829,,,,,,,,,,,,
21193,0,USKentuckyPerry,Kentucky,Perry,2022-04-28 09:13:11,2020-08-05,0.5662207648473261,1.1225195281493454,2.385197248661829,,,,,,,,,,,,
21193,0,USKentuckyPerry,Kentucky,Perry,2022-04-28 09:13:11,2020-08-06,0.7468060155108106,1.3804273516932637,2.7254586760258066,,,,,,,,,,,,
21193,0,USKentuckyPerry,Kentucky,Perry,2022-04-28 09:13:11,2020-08-07,0.7468060155108106,1.3804273516932637,2.7254586760258066,,,,,,,,,,,,
21193,0,USKentuckyPerry,Kentucky,Perry,2022-04-28 09:13:11,2020-08-08,0.7468060155108106,1.3804273516932637,2.7254586760258066,,,,,,,,,,,,
21193,0,USKentuckyPerry,Kentucky,Perry,2022-04-28 09:13:11,2020-08-09,0.7468060155108106,1.3804273516932637,2.7254586760258066,,,,,,,,,,,,
21193,0,USKentuckyPerry,Kentucky,Perry,2022-04-28 09:13:11,2020-08-10,0.7468060155108106,1.3804273516932637,2.7254586760258066,,,,,,,,,,,,
21193,0,USKentuckyPerry,Kentucky,Perry,2022-04-28 09:13:11,2020-08-11,0.7468060155108106,1.3804273516932637,2.7254586760258066,,,,,,,,,,,,
21193,0,USKentuckyPerry,Kentucky,Perry,2022-04-28 09:13:11,2020-08-12,0.7468060155108106,1.3804273516932637,2.7254586760258066,,,,,,,,,,,,
21193,0,USKentuckyPerry,Kentucky,Perry,2022-04-28 09:13:11,2020-08-13,0.3353957850413863,0.7540643240419553,1.823383867985591,,,,,,,,,,,,
21193,0,USKentuckyPerry,Kentucky,Perry,2022-04-28 09:13:11,2020-08-14,0.3353957850413863,0.7540643240419553,1.823383867985591,,,,,,,,,,,,
21193,0,USKentuckyPerry,Kentucky,Perry,2022-04-28 09:13:11,2020-08-15,0.3353957850413863,0.7540643240419553,1.823383867985591,,,,,,,,,,,,
21193,0,USKentuckyPerry,Kentucky,Perry,2022-04-28 09:13:11,2020-08-16,0.3353957850413863,0.7540643240419553,1.823383867985591,,,,,,,,,,,,
21193,0,USKentuckyPerry,Kentucky,Perry,2022-04-28 09:13:11,2020-08-17,0.3353957850413863,0.7540643240419553,1.823383867985591,,,,,,,,,,,,
21193,0,USKentuckyPerry,Kentucky,Perry,2022-04-28 09:13:11,2020-08-18,0.3353957850413863,0.7540643240419553,1.823383867985591,,,,,,,,,,,,
21193,0,USKentuckyPerry,Kentucky,Perry,2022-04-28 09:13:11,2020-08-19,0.3353957850413863,0.7540643240419553,1.823383867985591,,,,,,,,,,,,
21193,0,USKentuckyPerry,Kentucky,Perry,2022-04-28 09:13:11,2020-08-20,0.2669760778845766,0.6676507269799533,1.7967667165363552,,,,,,,,,,,,
21193,0,USKentuckyPerry,Kentucky,Perry,2022-04-28 09:13:11,2020-08-21,0.2669760778845766,0.6676507269799533,1.7967667165363552,,,,,,,,,,,,
21193,0,USKentuckyPerry,Kentucky,Perry,2022-04-28 09:13:11,2020-08-22,0.2669760778845766,0.6676507269799533,1.7967667165363552,,,,,,,,,,,,
21193,0,USKentuckyPerry,Kentucky,Perry,2022-04-28 09:13:11,2020-08-23,0.2669760778845766,0.6676507269799533,1.7967667165363552,,,,,,,,,,,,
21193,0,USKentuckyPerry,Kentucky,Perry,2022-04-28 09:13:11,2020-08-24,0.2669760778845766,0.6676507269799533,1.7967667165363552,,,,,,,,,,,,
21193,0,USKentuckyPerry,Kentucky,Perry,2022-04-28 09:13:11,2020-08-25,0.2669760778845766,0.6676507269799533,1.7967667165363552,,,,,,,,,,,,
21193,0,USKentuckyPerry,Kentucky,Perry,2022-04-28 09:13:11,2020-08-26,0.2669760778845766,0.6676507269799533,1.7967667165363552,,,,,,,,,,,,
21193,0,USKentuckyPerry,Kentucky,Perry,2022-04-28 09:13:11,2020-08-27,0.3383615504584403,0.8091705544013487,2.0823874830963476,,,,,,,,,,,,
21193,0,USKentuckyPerry,Kentucky,Perry,2022-04-28 09:13:11,2020-08-28,0.3383615504584403,0.8091705544013487,2.0823874830963476,,,,,,,,,,,,
21193,0,USKentuckyPerry,Kentucky,Perry,2022-04-28 09:13:11,2020-08-29,0.3383615504584403,0.8091705544013487,2.0823874830963476,,,,,,,,,,,,
21193,0,USKentuckyPerry,Kentucky,Perry,2022-04-28 09:13:11,2020-08-30,0.3383615504584403,0.8091705544013487,2.0823874830963476,,,,,,,,,,,,
21193,0,USKentuckyPerry,Kentucky,Perry,2022-04-28 09:13:11,2020-08-31,0.3383615504584403,0.8091705544013487,2.0823874830963476,,,,,,,,,,,,
21193,0,USKentuckyPerry,Kentucky,Perry,2022-04-28 09:13:11,2020-09-01,0.3383615504584403,0.8091705544013487,2.0823874830963476,,,,,,,,,,,,
21193,0,USKentuckyPerry,Kentucky,Perry,2022-04-28 09:13:11,2020-09-02,0.3383615504584403,0.8091705544013487,2.0823874830963476,,,,,,,,,,,,
21193,0,USKentuckyPerry,Kentucky,Perry,2022-04-28 09:13:11,2020-09-03,0.14546354467406825,0.4581558218663342,1.54653101476702,,,,,,,,,,,,
21193,0,USKentuckyPerry,Kentucky,Perry,2022-04-28 09:13:11,2020-09-04,0.14546354467406825,0.4581558218663342,1.54653101476702,,,,,,,,,,,,
21193,0,USKentuckyPerry,Kentucky,Perry,2022-04-28 09:13:11,2020-09-05,0.14546354467406825,0.4581558218663342,1.54653101476702,,,,,,,,,,,,
21193,0,USKentuckyPerry,Kentucky,Perry,2022-04-28 09:13:11,2020-09-06,0.14546354467406825,0.4581558218663342,1.54653101476702,,,,,,,,,,,,
21193,0,USKentuckyPerry,Kentucky,Perry,2022-04-28 09:13:11,2020-09-07,0.14546354467406825,0.4581558218663342,1.54653101476702,,,,,,,,,,,,
21193,0,USKentuckyPerry,Kentucky,Perry,2022-04-28 09:13:11,2020-09-08,0.14546354467406825,0.4581558218663342,1.54653101476702,,,,,,,,,,,,
21193,0,USKentuckyPerry,Kentucky,Perry,2022-04-28 09:13:11,2020-09-09,0.14546354467406825,0.4581558218663342,1.54653101476702,,,,,,,,,,,,
21193,0,USKentuckyPerry,Kentucky,Perry,2022-04-28 09:13:11,2020-09-10,0.36293358273079696,0.6411484345109203,1.2062994222500303,,,,,,,,,,,,
21193,0,USKentuckyPerry,Kentucky,Perry,2022-04-28 09:13:11,2020-09-11,0.36293358273079696,0.6411484345109203,1.2062994222500303,,,,,,,,,,,,
21193,0,USKentuckyPerry,Kentucky,Perry,2022-04-28 09:13:11,2020-09-12,0.36293358273079696,0.6411484345109203,1.2062994222500303,,,,,,,,,,,,
21193,0,USKentuckyPerry,Kentucky,Perry,2022-04-28 09:13:11,2020-09-13,0.36293358273079696,0.6411484345109203,1.2062994222500303,,,,,,,,,,,,
21193,0,USKentuckyPerry,Kentucky,Perry,2022-04-28 09:13:11,2020-09-14,0.36293358273079696,0.6411484345109203,1.2062994222500303,,,,,,,,,,,,
21193,0,USKentuckyPerry,Kentucky,Perry,2022-04-28 09:13:11,2020-09-15,0.36293358273079696,0.6411484345109203,1.2062994222500303,,,,,,,,,,,,
21193,0,USKentuckyPerry,Kentucky,Perry,2022-04-28 09:13:11,2020-09-16,0.36293358273079696,0.6411484345109203,1.2062994222500303,,,,,,,,,,,,
21193,0,USKentuckyPerry,Kentucky,Perry,2022-04-28 09:13:11,2020-09-17,0.17316840207903245,0.34618243015006883,0.7420089172364305,,,,,,,,,,,,
21193,0,USKentuckyPerry,Kentucky,Perry,2022-04-28 09:13:11,2020-09-18,0.17316840207903245,0.34618243015006883,0.7420089172364305,,,,,,,,,,,,
21193,0,USKentuckyPerry,Kentucky,Perry,2022-04-28 09:13:11,2020-09-19,0.17316840207903245,0.34618243015006883,0.7420089172364305,,,,,,,,,,,,
21193,0,USKentuckyPerry,Kentucky,Perry,2022-04-28 09:13:11,2020-09-20,0.17316840207903245,0.34618243015006883,0.7420089172364305,,,,,,,,,,,,
21193,0,USKentuckyPerry,Kentucky,Perry,2022-04-28 09:13:11,2020-09-21,0.17316840207903245,0.34618243015006883,0.7420089172364305,,,,,,,,,,,,
21193,0,USKentuckyPerry,Kentucky,Perry,2022-04-28 09:13:11,2020-09-22,0.17316840207903245,0.34618243015006883,0.7420089172364305,,,,,,,,,,,,
21193,0,USKentuckyPerry,Kentucky,Perry,2022-04-28 09:13:11,2020-09-23,0.17316840207903245,0.34618243015006883,0.7420089172364305,,,,,,,,,,,,
21193,0,USKentuckyPerry,Kentucky,Perry,2022-04-28 09:13:11,2020-09-24,0.21448559400895545,0.4412540398212519,0.9743030215135913,,,,,,,,,,,,
21193,0,USKentuckyPerry,Kentucky,Perry,2022-04-28 09:13:11,2020-09-25,0.21448559400895545,0.4412540398212519,0.9743030215135913,,,,,,,,,,,,
21193,0,USKentuckyPerry,Kentucky,Perry,2022-04-28 09:13:11,2020-09-26,0.21448559400895545,0.4412540398212519,0.9743030215135913,,,,,,,,,,,,
21193,0,USKentuckyPerry,Kentucky,Perry,2022-04-28 09:13:11,2020-09-27,0.21448559400895545,0.4412540398212519,0.9743030215135913,,,,,,,,,,,,
21193,0,USKentuckyPerry,Kentucky,Perry,2022-04-28 09:13:11,2020-09-28,0.21448559400895545,0.4412540398212519,0.9743030215135913,,,,,,,,,,,,
21193,0,USKentuckyPerry,Kentucky,Perry,2022-04-28 09:13:11,2020-09-29,0.21448559400895545,0.4412540398212519,0.9743030215135913,,,,,,,,,,,,
21193,0,USKentuckyPerry,Kentucky,Perry,2022-04-28 09:13:11,2020-09-30,0.21448559400895545,0.4412540398212519,0.9743030215135913,,,,,,,,,,,,
21193,0,USKentuckyPerry,Kentucky,Perry,2022-04-28 09:13:11,2020-10-01,0.2754161194441119,0.6596944282231708,1.700439536345299,,,,,,,,,,,,
21193,0,USKentuckyPerry,Kentucky,Perry,2022-04-28 09:13:11,2020-10-02,0.2754161194441119,0.6596944282231708,1.700439536345299,,,,,,,,,,,,
21193,0,USKentuckyPerry,Kentucky,Perry,2022-04-28 09:13:11,2020-10-03,0.2754161194441119,0.6596944282231708,1.700439536345299,,,,,,,,,,,,
21193,0,USKentuckyPerry,Kentucky,Perry,2022-04-28 09:13:11,2020-10-04,0.2754161194441119,0.6596944282231708,1.700439536345299,,,,,,,,,,,,
21193,0,USKentuckyPerry,Kentucky,Perry,2022-04-28 09:13:11,2020-10-05,0.2754161194441119,0.6596944282231708,1.700439536345299,,,,,,,,,,,,
21193,0,USKentuckyPerry,Kentucky,Perry,2022-04-28 09:13:11,2020-10-06,0.2754161194441119,0.6596944282231708,1.700439536345299,,,,,,,,,,,,
21193,0,USKentuckyPerry,Kentucky,Perry,2022-04-28 09:13:11,2020-10-07,0.2754161194441119,0.6596944282231708,1.700439536345299,,,,,,,,,,,,
21193,0,USKentuckyPerry,Kentucky,Perry,2022-04-28 09:13:11,2020-10-08,0.5802754985018055,1.034298375157958,1.9646643578515373,,,,,,,,,,,,
21193,0,USKentuckyPerry,Kentucky,Perry,2022-04-28 09:13:11,2020-10-09,0.5802754985018055,1.034298375157958,1.9646643578515373,,,,,,,,,,,,
21193,0,USKentuckyPerry,Kentucky,Perry,2022-04-28 09:13:11,2020-10-10,0.5802754985018055,1.034298375157958,1.9646643578515373,,,,,,,,,,,,
21193,0,USKentuckyPerry,Kentucky,Perry,2022-04-28 09:13:11,2020-10-11,0.5802754985018055,1.034298375157958,1.9646643578515373,,,,,,,,,,,,
21193,0,USKentuckyPerry,Kentucky,Perry,2022-04-28 09:13:11,2020-10-12,0.5802754985018055,1.034298375157958,1.9646643578515373,,,,,,,,,,,,
21193,0,USKentuckyPerry,Kentucky,Perry,2022-04-28 09:13:11,2020-10-13,0.5802754985018055,1.034298375157958,1.9646643578515373,,,,,,,,,,,,
21193,0,USKentuckyPerry,Kentucky,Perry,2022-04-28 09:13:11,2020-10-14,0.5802754985018055,1.034298375157958,1.9646643578515373,,,,,,,,,,,,
21193,0,USKentuckyPerry,Kentucky,Perry,2022-04-28 09:13:11,2020-10-15,0.9828614230673034,1.6436148213909076,2.915004778803128,,,,,,,,,,,,
21193,0,USKentuckyPerry,Kentucky,Perry,2022-04-28 09:13:11,2020-10-16,0.9828614230673034,1.6436148213909076,2.915004778803128,,,,,,,,,,,,
21193,0,USKentuckyPerry,Kentucky,Perry,2022-04-28 09:13:11,2020-10-17,0.9828614230673034,1.6436148213909076,2.915004778803128,,,,,,,,,,,,
21193,0,USKentuckyPerry,Kentucky,Perry,2022-04-28 09:13:11,2020-10-18,0.9828614230673034,1.6436148213909076,2.915004778803128,,,,,,,,,,,,
21193,0,USKentuckyPerry,Kentucky,Perry,2022-04-28 09:13:11,2020-10-19,0.9828614230673034,1.6436148213909076,2.915004778803128,,,,,,,,,,,,
21193,0,USKentuckyPerry,Kentucky,Perry,2022-04-28 09:13:11,2020-10-20,0.9828614230673034,1.6436148213909076,2.915004778803128,,,,,,,,,,,,
21193,0,USKentuckyPerry,Kentucky,Perry,2022-04-28 09:13:11,2020-10-21,0.9828614230673034,1.6436148213909076,2.915004778803128,,,,,,,,,,,,
21193,0,USKentuckyPerry,Kentucky,Perry,2022-04-28 09:13:11,2020-10-22,1.083477874257655,1.8815178215101405,3.4755720407171986,,,,,,,,,,,,
21193,0,USKentuckyPerry,Kentucky,Perry,2022-04-28 09:13:11,2020-10-23,1.083477874257655,1.8815178215101405,3.4755720407171986,,,,,,,,,,,,
21193,0,USKentuckyPerry,Kentucky,Perry,2022-04-28 09:13:11,2020-10-24,1.083477874257655,1.8815178215101405,3.4755720407171986,,,,,,,,,,,,
21193,0,USKentuckyPerry,Kentucky,Perry,2022-04-28 09:13:11,2020-10-25,1.083477874257655,1.8815178215101405,3.4755720407171986,,,,,,,,,,,,
21193,0,USKentuckyPerry,Kentucky,Perry,2022-04-28 09:13:11,2020-10-26,1.083477874257655,1.8815178215101405,3.4755720407171986,,,,,,,,,,,,
21193,0,USKentuckyPerry,Kentucky,Perry,2022-04-28 09:13:11,2020-10-27,1.083477874257655,1.8815178215101405,3.4755720407171986,,,,,,,,,,,,
21193,0,USKentuckyPerry,Kentucky,Perry,2022-04-28 09:13:11,2020-10-28,1.083477874257655,1.8815178215101405,3.4755720407171986,,,,,,,,,,,,
21193,0,USKentuckyPerry,Kentucky,Perry,2022-04-28 09:13:11,2020-10-29,1.000932565368604,1.702054418402895,3.0737563842279165,,,,,,,,,,,,
21193,0,USKentuckyPerry,Kentucky,Perry,2022-04-28 09:13:11,2020-10-30,1.000932565368604,1.702054418402895,3.0737563842279165,,,,,,,,,,,,
21193,0,USKentuckyPerry,Kentucky,Perry,2022-04-28 09:13:11,2020-10-31,1.000932565368604,1.702054418402895,3.0737563842279165,,,,,,,,,,,,
21193,0,USKentuckyPerry,Kentucky,Perry,2022-04-28 09:13:11,2020-11-01,1.000932565368604,1.702054418402895,3.0737563842279165,,,,,,,,,,,,
21193,0,USKentuckyPerry,Kentucky,Perry,2022-04-28 09:13:11,2020-11-02,1.000932565368604,1.702054418402895,3.0737563842279165,,,,,,,,,,,,
21193,0,USKentuckyPerry,Kentucky,Perry,2022-04-28 09:13:11,2020-11-03,1.000932565368604,1.702054418402895,3.0737563842279165,,,,,,,,,,,,
21193,0,USKentuckyPerry,Kentucky,Perry,2022-04-28 09:13:11,2020-11-04,1.000932565368604,1.702054418402895,3.0737563842279165,,,,,,,,,,,,
21193,0,USKentuckyPerry,Kentucky,Perry,2022-04-28 09:13:11,2020-11-05,1.4850246929254751,2.53366936484512,4.592069893737883,,,,,,,,,,,,
21193,0,USKentuckyPerry,Kentucky,Perry,2022-04-28 09:13:11,2020-11-06,1.4850246929254751,2.53366936484512,4.592069893737883,,,,,,,,,,,,
21193,0,USKentuckyPerry,Kentucky,Perry,2022-04-28 09:13:11,2020-11-07,1.4850246929254751,2.53366936484512,4.592069893737883,,,,,,,,,,,,
21193,0,USKentuckyPerry,Kentucky,Perry,2022-04-28 09:13:11,2020-11-08,1.4850246929254751,2.53366936484512,4.592069893737883,,,,,,,,,,,,
21193,0,USKentuckyPerry,Kentucky,Perry,2022-04-28 09:13:11,2020-11-09,1.4850246929254751,2.53366936484512,4.592069893737883,,,,,,,,,,,,
21193,0,USKentuckyPerry,Kentucky,Perry,2022-04-28 09:13:11,2020-11-10,1.4850246929254751,2.53366936484512,4.592069893737883,,,,,,,,,,,,
21193,0,USKentuckyPerry,Kentucky,Perry,2022-04-28 09:13:11,2020-11-11,1.4850246929254751,2.53366936484512,4.592069893737883,,,,,,,,,,,,
21193,0,USKentuckyPerry,Kentucky,Perry,2022-04-28 09:13:11,2020-11-12,1.3825002792900505,2.2702248166971954,3.9474619102988404,,,,,,,,,,,,
21193,0,USKentuckyPerry,Kentucky,Perry,2022-04-28 09:13:11,2020-11-13,1.3825002792900505,2.2702248166971954,3.9474619102988404,,,,,,,,,,,,
21193,0,USKentuckyPerry,Kentucky,Perry,2022-04-28 09:13:11,2020-11-14,1.3825002792900505,2.2702248166971954,3.9474619102988404,,,,,,,,,,,,
21193,0,USKentuckyPerry,Kentucky,Perry,2022-04-28 09:13:11,2020-11-15,1.3825002792900505,2.2702248166971954,3.9474619102988404,,,,,,,,,,,,
21193,0,USKentuckyPerry,Kentucky,Perry,2022-04-28 09:13:11,2020-11-16,1.3825002792900505,2.2702248166971954,3.9474619102988404,,,,,,,,,,,,
21193,0,USKentuckyPerry,Kentucky,Perry,2022-04-28 09:13:11,2020-11-17,1.3825002792900505,2.2702248166971954,3.9474619102988404,,,,,,,,,,,,
21193,0,USKentuckyPerry,Kentucky,Perry,2022-04-28 09:13:11,2020-11-18,1.3825002792900505,2.2702248166971954,3.9474619102988404,,,,,,,,,,,,
21193,0,USKentuckyPerry,Kentucky,Perry,2022-04-28 09:13:11,2020-11-19,1.4490022001385927,2.484252638905172,4.52616051850072,,,,,,,,,,,,
21193,0,USKentuckyPerry,Kentucky,Perry,2022-04-28 09:13:11,2020-11-20,1.4490022001385927,2.484252638905172,4.52616051850072,,,,,,,,,,,,
21193,0,USKentuckyPerry,Kentucky,Perry,2022-04-28 09:13:11,2020-11-21,1.4490022001385927,2.484252638905172,4.52616051850072,,,,,,,,,,,,
21193,0,USKentuckyPerry,Kentucky,Perry,2022-04-28 09:13:11,2020-11-22,1.4490022001385927,2.484252638905172,4.52616051850072,,,,,,,,,,,,
21193,0,USKentuckyPerry,Kentucky,Perry,2022-04-28 09:13:11,2020-11-23,1.4490022001385927,2.484252638905172,4.52616051850072,,,,,,,,,,,,
21193,0,USKentuckyPerry,Kentucky,Perry,2022-04-28 09:13:11,2020-11-24,1.4490022001385927,2.484252638905172,4.52616051850072,,,,,,,,,,,,
21193,0,USKentuckyPerry,Kentucky,Perry,2022-04-28 09:13:11,2020-11-25,1.4490022001385927,2.484252638905172,4.52616051850072,,,,,,,,,,,,
21193,0,USKentuckyPerry,Kentucky,Perry,2022-04-28 09:13:11,2020-11-26,1.9733923268784912,3.334046088382913,5.979024926462211,,,,,,,,,,,,
21193,0,USKentuckyPerry,Kentucky,Perry,2022-04-28 09:13:11,2020-11-27,1.9733923268784912,3.334046088382913,5.979024926462211,,,,,,,,,,,,
21193,0,USKentuckyPerry,Kentucky,Perry,2022-04-28 09:13:11,2020-11-28,1.9733923268784912,3.334046088382913,5.979024926462211,,,,,,,,,,,,
21193,0,USKentuckyPerry,Kentucky,Perry,2022-04-28 09:13:11,2020-11-29,1.9733923268784912,3.334046088382913,5.979024926462211,,,,,,,,,,,,
21193,0,USKentuckyPerry,Kentucky,Perry,2022-04-28 09:13:11,2020-11-30,1.9733923268784912,3.334046088382913,5.979024926462211,,,,,,,,,,,,
21193,0,USKentuckyPerry,Kentucky,Perry,2022-04-28 09:13:11,2020-12-01,1.9733923268784912,3.334046088382913,5.979024926462211,,,,,,,,,,,,
21193,0,USKentuckyPerry,Kentucky,Perry,2022-04-28 09:13:11,2020-12-02,1.9733923268784912,3.334046088382913,5.979024926462211,,,,,,,,,,,,
21193,0,USKentuckyPerry,Kentucky,Perry,2022-04-28 09:13:11,2020-12-03,2.4808414622847135,3.8304487122770348,6.224934853050675,,,,,,,,,,,,
21193,0,USKentuckyPerry,Kentucky,Perry,2022-04-28 09:13:11,2020-12-04,2.4808414622847135,3.8304487122770348,6.224934853050675,,,,,,,,,,,,
21193,0,USKentuckyPerry,Kentucky,Perry,2022-04-28 09:13:11,2020-12-05,2.4808414622847135,3.8304487122770348,6.224934853050675,,,,,,,,,,,,
21193,0,USKentuckyPerry,Kentucky,Perry,2022-04-28 09:13:11,2020-12-06,2.4808414622847135,3.8304487122770348,6.224934853050675,,,,,,,,,,,,
21193,0,USKentuckyPerry,Kentucky,Perry,2022-04-28 09:13:11,2020-12-07,2.4808414622847135,3.8304487122770348,6.224934853050675,,,,,,,,,,,,
21193,0,USKentuckyPerry,Kentucky,Perry,2022-04-28 09:13:11,2020-12-08,2.4808414622847135,3.8304487122770348,6.224934853050675,,,,,,,,,,,,
21193,0,USKentuckyPerry,Kentucky,Perry,2022-04-28 09:13:11,2020-12-09,2.4808414622847135,3.8304487122770348,6.224934853050675,,,,,,,,,,,,
21193,0,USKentuckyPerry,Kentucky,Perry,2022-04-28 09:13:11,2020-12-10,2.1127988572014225,3.4969621874069134,6.132980351169105,,,,,,,,,,,,
21193,0,USKentuckyPerry,Kentucky,Perry,2022-04-28 09:13:11,2020-12-11,2.1127988572014225,3.4969621874069134,6.132980351169105,,,,,,,,,,,,
21193,0,USKentuckyPerry,Kentucky,Perry,2022-04-28 09:13:11,2020-12-12,2.1127988572014225,3.4969621874069134,6.132980351169105,,,,,,,,,,,,
21193,0,USKentuckyPerry,Kentucky,Perry,2022-04-28 09:13:11,2020-12-13,2.1127988572014225,3.4969621874069134,6.132980351169105,,,,,,,,,,,,
21193,0,USKentuckyPerry,Kentucky,Perry,2022-04-28 09:13:11,2020-12-14,2.1127988572014225,3.4969621874069134,6.132980351169105,,,,,,,,,,,,
21193,0,USKentuckyPerry,Kentucky,Perry,2022-04-28 09:13:11,2020-12-15,2.1127988572014225,3.4969621874069134,6.132980351169105,,,,,,,,,,,,
21193,0,USKentuckyPerry,Kentucky,Perry,2022-04-28 09:13:11,2020-12-16,2.1127988572014225,3.4969621874069134,6.132980351169105,,,,,,,,,,,,
21193,0,USKentuckyPerry,Kentucky,Perry,2022-04-28 09:13:11,2020-12-17,1.4520794685571214,2.721824435687808,5.453699708690409,,,,,,,,,,,,
21193,0,USKentuckyPerry,Kentucky,Perry,2022-04-28 09:13:11,2020-12-18,1.4520794685571214,2.721824435687808,5.453699708690409,,,,,,,,,,,,
21193,0,USKentuckyPerry,Kentucky,Perry,2022-04-28 09:13:11,2020-12-19,1.4520794685571214,2.721824435687808,5.453699708690409,,,,,,,,,,,,
21193,0,USKentuckyPerry,Kentucky,Perry,2022-04-28 09:13:11,2020-12-20,1.4520794685571214,2.721824435687808,5.453699708690409,,,,,,,,,,,,
21193,0,USKentuckyPerry,Kentucky,Perry,2022-04-28 09:13:11,2020-12-21,1.4520794685571214,2.721824435687808,5.453699708690409,,,,,,,,,,,,
21193,0,USKentuckyPerry,Kentucky,Perry,2022-04-28 09:13:11,2020-12-22,1.4520794685571214,2.721824435687808,5.453699708690409,,,,,,,,,,,,
21193,0,USKentuckyPerry,Kentucky,Perry,2022-04-28 09:13:11,2020-12-23,1.4520794685571214,2.721824435687808,5.453699708690409,,,,,,,,,,,,
21193,0,USKentuckyPerry,Kentucky,Perry,2022-04-28 09:13:11,2020-12-24,1.3726744248668936,2.660908566159324,5.523177738710413,,,,,,,,,,,,
21193,0,USKentuckyPerry,Kentucky,Perry,2022-04-28 09:13:11,2020-12-25,1.3726744248668936,2.660908566159324,5.523177738710413,,,,,,,,,,,,
21193,0,USKentuckyPerry,Kentucky,Perry,2022-04-28 09:13:11,2020-12-26,1.3726744248668936,2.660908566159324,5.523177738710413,,,,,,,,,,,,
21193,0,USKentuckyPerry,Kentucky,Perry,2022-04-28 09:13:11,2020-12-27,1.3726744248668936,2.660908566159324,5.523177738710413,,,,,,,,,,,,
21193,0,USKentuckyPerry,Kentucky,Perry,2022-04-28 09:13:11,2020-12-28,1.3726744248668936,2.660908566159324,5.523177738710413,,,,,,,,,,,,
21193,0,USKentuckyPerry,Kentucky,Perry,2022-04-28 09:13:11,2020-12-29,1.3726744248668936,2.660908566159324,5.523177738710413,,,,,,,,,,,,
21193,0,USKentuckyPerry,Kentucky,Perry,2022-04-28 09:13:11,2020-12-30,1.3726744248668936,2.660908566159324,5.523177738710413,,,,,,,,,,,,
21193,0,USKentuckyPerry,Kentucky,Perry,2022-04-28 09:13:11,2020-12-31,1.8999829054511426,3.5825302718935177,7.223200182432271,,,,,,,,,,,,
21193,0,USKentuckyPerry,Kentucky,Perry,2022-04-28 09:13:11,2021-01-01,1.8999829054511426,3.5825302718935177,7.223200182432271,,,,,,,,,,,,
21193,0,USKentuckyPerry,Kentucky,Perry,2022-04-28 09:13:11,2021-01-02,1.8999829054511426,3.5825302718935177,7.223200182432271,,,,,,,,,,,,
21193,0,USKentuckyPerry,Kentucky,Perry,2022-04-28 09:13:11,2021-01-03,1.8999829054511426,3.5825302718935177,7.223200182432271,,,,,,,,,,,,
21193,0,USKentuckyPerry,Kentucky,Perry,2022-04-28 09:13:11,2021-01-04,1.8999829054511426,3.5825302718935177,7.223200182432271,,,,,,,,,,,,
21193,0,USKentuckyPerry,Kentucky,Perry,2022-04-28 09:13:11,2021-01-05,1.8999829054511426,3.5825302718935177,7.223200182432271,,,,,,,,,,,,
21193,0,USKentuckyPerry,Kentucky,Perry,2022-04-28 09:13:11,2021-01-06,1.8999829054511426,3.5825302718935177,7.223200182432271,,,,,,,,,,,,
21193,0,USKentuckyPerry,Kentucky,Perry,2022-04-28 09:13:11,2021-01-07,2.066613366063634,3.848731246819628,7.659172045183079,,,,,,,,,,,,
21193,0,USKentuckyPerry,Kentucky,Perry,2022-04-28 09:13:11,2021-01-08,2.066613366063634,3.848731246819628,7.659172045183079,,,,,,,,,,,,
21193,0,USKentuckyPerry,Kentucky,Perry,2022-04-28 09:13:11,2021-01-09,2.066613366063634,3.848731246819628,7.659172045183079,,,,,,,,,,,,
21193,0,USKentuckyPerry,Kentucky,Perry,2022-04-28 09:13:11,2021-01-10,2.066613366063634,3.848731246819628,7.659172045183079,,,,,,,,,,,,
21193,0,USKentuckyPerry,Kentucky,Perry,2022-04-28 09:13:11,2021-01-11,2.066613366063634,3.848731246819628,7.659172045183079,,,,,,,,,,,,
21193,0,USKentuckyPerry,Kentucky,Perry,2022-04-28 09:13:11,2021-01-12,2.066613366063634,3.848731246819628,7.659172045183079,,,,,,,,,,,,
21193,0,USKentuckyPerry,Kentucky,Perry,2022-04-28 09:13:11,2021-01-13,2.066613366063634,3.848731246819628,7.659172045183079,,,,,,,,,,,,
21193,0,USKentuckyPerry,Kentucky,Perry,2022-04-28 09:13:11,2021-01-14,1.5517446424458552,3.2197419911112397,7.172236212981797,,,,,,,,,,,,
21193,0,USKentuckyPerry,Kentucky,Perry,2022-04-28 09:13:11,2021-01-15,1.5517446424458552,3.2197419911112397,7.172236212981797,,,,,,,,,,,,
21193,0,USKentuckyPerry,Kentucky,Perry,2022-04-28 09:13:11,2021-01-16,1.5517446424458552,3.2197419911112397,7.172236212981797,,,,,,,,,,,,
21193,0,USKentuckyPerry,Kentucky,Perry,2022-04-28 09:13:11,2021-01-17,1.5517446424458552,3.2197419911112397,7.172236212981797,,,,,,,,,,,,
21193,0,USKentuckyPerry,Kentucky,Perry,2022-04-28 09:13:11,2021-01-18,1.5517446424458552,3.2197419911112397,7.172236212981797,,,,,,,,,,,,
21193,0,USKentuckyPerry,Kentucky,Perry,2022-04-28 09:13:11,2021-01-19,1.5517446424458552,3.2197419911112397,7.172236212981797,,,,,,,,,,,,
21193,0,USKentuckyPerry,Kentucky,Perry,2022-04-28 09:13:11,2021-01-20,1.5517446424458552,3.2197419911112397,7.172236212981797,,,,,,,,,,,,
21193,0,USKentuckyPerry,Kentucky,Perry,2022-04-28 09:13:11,2021-01-21,1.2699514691938436,2.6143259637971905,5.776387788960138,,,,,,,,,,,,
21193,0,USKentuckyPerry,Kentucky,Perry,2022-04-28 09:13:11,2021-01-22,1.2699514691938436,2.6143259637971905,5.776387788960138,,,,,,,,,,,,
21193,0,USKentuckyPerry,Kentucky,Perry,2022-04-28 09:13:11,2021-01-23,1.2699514691938436,2.6143259637971905,5.776387788960138,,,,,,,,,,,,
21193,0,USKentuckyPerry,Kentucky,Perry,2022-04-28 09:13:11,2021-01-24,1.2699514691938436,2.6143259637971905,5.776387788960138,,,,,,,,,,,,
21193,0,USKentuckyPerry,Kentucky,Perry,2022-04-28 09:13:11,2021-01-25,1.2699514691938436,2.6143259637971905,5.776387788960138,,,,,,,,,,,,
21193,0,USKentuckyPerry,Kentucky,Perry,2022-04-28 09:13:11,2021-01-26,1.2699514691938436,2.6143259637971905,5.776387788960138,,,,,,,,,,,,
21193,0,USKentuckyPerry,Kentucky,Perry,2022-04-28 09:13:11,2021-01-27,1.2699514691938436,2.6143259637971905,5.776387788960138,,,,,,,,,,,,
21193,0,USKentuckyPerry,Kentucky,Perry,2022-04-28 09:13:11,2021-01-28,1.2593355638042103,2.540470336815968,5.496730940613722,,,,,,,,,,,,
21193,0,USKentuckyPerry,Kentucky,Perry,2022-04-28 09:13:11,2021-01-29,1.2593355638042103,2.540470336815968,5.496730940613722,,,,,,,,,,,,
21193,0,USKentuckyPerry,Kentucky,Perry,2022-04-28 09:13:11,2021-01-30,1.2593355638042103,2.540470336815968,5.496730940613722,,,,,,,,,,,,
21193,0,USKentuckyPerry,Kentucky,Perry,2022-04-28 09:13:11,2021-01-31,1.2593355638042103,2.540470336815968,5.496730940613722,,,,,,,,,,,,
21193,0,USKentuckyPerry,Kentucky,Perry,2022-04-28 09:13:11,2021-02-01,1.2593355638042103,2.540470336815968,5.496730940613722,,,,,,,,,,,,
21193,0,USKentuckyPerry,Kentucky,Perry,2022-04-28 09:13:11,2021-02-02,1.2593355638042103,2.540470336815968,5.496730940613722,,,,,,,,,,,,
21193,0,USKentuckyPerry,Kentucky,Perry,2022-04-28 09:13:11,2021-02-03,1.2593355638042103,2.540470336815968,5.496730940613722,,,,,,,,,,,,
21193,0,USKentuckyPerry,Kentucky,Perry,2022-04-28 09:13:11,2021-02-04,1.3485978569883703,2.630935622721881,5.497441788503635,,,,,,,,,,,,
21193,0,USKentuckyPerry,Kentucky,Perry,2022-04-28 09:13:11,2021-02-05,1.3485978569883703,2.630935622721881,5.497441788503635,,,,,,,,,,,,
21193,0,USKentuckyPerry,Kentucky,Perry,2022-04-28 09:13:11,2021-02-06,1.3485978569883703,2.630935622721881,5.497441788503635,,,,,,,,,,,,
21193,0,USKentuckyPerry,Kentucky,Perry,2022-04-28 09:13:11,2021-02-07,1.3485978569883703,2.630935622721881,5.497441788503635,,,,,,,,,,,,
21193,0,USKentuckyPerry,Kentucky,Perry,2022-04-28 09:13:11,2021-02-08,1.3485978569883703,2.630935622721881,5.497441788503635,,,,,,,,,,,,
21193,0,USKentuckyPerry,Kentucky,Perry,2022-04-28 09:13:11,2021-02-09,1.3485978569883703,2.630935622721881,5.497441788503635,,,,,,,,,,,,
21193,0,USKentuckyPerry,Kentucky,Perry,2022-04-28 09:13:11,2021-02-10,1.3485978569883703,2.630935622721881,5.497441788503635,,,,,,,,,,,,
21193,0,USKentuckyPerry,Kentucky,Perry,2022-04-28 09:13:11,2021-02-11,1.1417488230635149,2.161485467985124,4.376482410668673,,,,,,,,,,,,
21193,0,USKentuckyPerry,Kentucky,Perry,2022-04-28 09:13:11,2021-02-12,1.1417488230635149,2.161485467985124,4.376482410668673,,,,,,,,,,,,
21193,0,USKentuckyPerry,Kentucky,Perry,2022-04-28 09:13:11,2021-02-13,1.1417488230635149,2.161485467985124,4.376482410668673,,,,,,,,,,,,
21193,0,USKentuckyPerry,Kentucky,Perry,2022-04-28 09:13:11,2021-02-14,1.1417488230635149,2.161485467985124,4.376482410668673,,,,,,,,,,,,
21193,0,USKentuckyPerry,Kentucky,Perry,2022-04-28 09:13:11,2021-02-15,1.1417488230635149,2.161485467985124,4.376482410668673,,,,,,,,,,,,
21193,0,USKentuckyPerry,Kentucky,Perry,2022-04-28 09:13:11,2021-02-16,1.1417488230635149,2.161485467985124,4.376482410668673,,,,,,,,,,,,
21193,0,USKentuckyPerry,Kentucky,Perry,2022-04-28 09:13:11,2021-02-17,1.1417488230635149,2.161485467985124,4.376482410668673,,,,,,,,,,,,
21193,0,USKentuckyPerry,Kentucky,Perry,2022-04-28 09:13:11,2021-02-18,1.3027277814888154,2.2336120541100635,4.069784514055901,,,,,,,,,,,,
21193,0,USKentuckyPerry,Kentucky,Perry,2022-04-28 09:13:11,2021-02-19,1.3027277814888154,2.2336120541100635,4.069784514055901,,,,,,,,,,,,
21193,0,USKentuckyPerry,Kentucky,Perry,2022-04-28 09:13:11,2021-02-20,1.3027277814888154,2.2336120541100635,4.069784514055901,,,,,,,,,,,,
21193,0,USKentuckyPerry,Kentucky,Perry,2022-04-28 09:13:11,2021-02-21,1.3027277814888154,2.2336120541100635,4.069784514055901,,,,,,,,,,,,
21193,0,USKentuckyPerry,Kentucky,Perry,2022-04-28 09:13:11,2021-02-22,1.3027277814888154,2.2336120541100635,4.069784514055901,,,,,,,,,,,,
21193,0,USKentuckyPerry,Kentucky,Perry,2022-04-28 09:13:11,2021-02-23,1.3027277814888154,2.2336120541100635,4.069784514055901,,,,,,,,,,,,
21193,0,USKentuckyPerry,Kentucky,Perry,2022-04-28 09:13:11,2021-02-24,1.3027277814888154,2.2336120541100635,4.069784514055901,,,,,,,,,,,,
21193,0,USKentuckyPerry,Kentucky,Perry,2022-04-28 09:13:11,2021-02-25,1.1893338946754506,2.022143897199778,3.6512610086022494,,,,,,,,,,,,
21193,0,USKentuckyPerry,Kentucky,Perry,2022-04-28 09:13:11,2021-02-26,1.1893338946754506,2.022143897199778,3.6512610086022494,,,,,,,,,,,,
21193,0,USKentuckyPerry,Kentucky,Perry,2022-04-28 09:13:11,2021-02-27,1.1893338946754506,2.022143897199778,3.6512610086022494,,,,,,,,,,,,
21193,0,USKentuckyPerry,Kentucky,Perry,2022-04-28 09:13:11,2021-02-28,1.1893338946754506,2.022143897199778,3.6512610086022494,,,,,,,,,,,,
21193,0,USKentuckyPerry,Kentucky,Perry,2022-04-28 09:13:11,2021-03-01,1.1893338946754506,2.022143897199778,3.6512610086022494,,,,,,,,,,,,
21193,0,USKentuckyPerry,Kentucky,Perry,2022-04-28 09:13:11,2021-03-02,1.1893338946754506,2.022143897199778,3.6512610086022494,,,,,,,,,,,,
21193,0,USKentuckyPerry,Kentucky,Perry,2022-04-28 09:13:11,2021-03-03,1.1893338946754506,2.022143897199778,3.6512610086022494,,,,,,,,,,,,
21193,0,USKentuckyPerry,Kentucky,Perry,2022-04-28 09:13:11,2021-03-04,0.9658422772960223,1.8066303098998462,3.6119697865676628,,,,,,,,,,,,
21193,0,USKentuckyPerry,Kentucky,Perry,2022-04-28 09:13:11,2021-03-05,0.9658422772960223,1.8066303098998462,3.6119697865676628,,,,,,,,,,,,
21193,0,USKentuckyPerry,Kentucky,Perry,2022-04-28 09:13:11,2021-03-06,0.9658422772960223,1.8066303098998462,3.6119697865676628,,,,,,,,,,,,
21193,0,USKentuckyPerry,Kentucky,Perry,2022-04-28 09:13:11,2021-03-07,0.9658422772960223,1.8066303098998462,3.6119697865676628,,,,,,,,,,,,
21193,0,USKentuckyPerry,Kentucky,Perry,2022-04-28 09:13:11,2021-03-08,0.9658422772960223,1.8066303098998462,3.6119697865676628,,,,,,,,,,,,
21193,0,USKentuckyPerry,Kentucky,Perry,2022-04-28 09:13:11,2021-03-09,0.9658422772960223,1.8066303098998462,3.6119697865676628,,,,,,,,,,,,
21193,0,USKentuckyPerry,Kentucky,Perry,2022-04-28 09:13:11,2021-03-10,0.9658422772960223,1.8066303098998462,3.6119697865676628,,,,,,,,,,,,
21193,0,USKentuckyPerry,Kentucky,Perry,2022-04-28 09:13:11,2021-03-11,0.5965768097683831,1.2069473723172623,2.619231574046912,,,,,,,,,,,,
21193,0,USKentuckyPerry,Kentucky,Perry,2022-04-28 09:13:11,2021-03-12,0.5965768097683831,1.2069473723172623,2.619231574046912,,,,,,,,,,,,
21193,0,USKentuckyPerry,Kentucky,Perry,2022-04-28 09:13:11,2021-03-13,0.5965768097683831,1.2069473723172623,2.619231574046912,,,,,,,,,,,,
21193,0,USKentuckyPerry,Kentucky,Perry,2022-04-28 09:13:11,2021-03-14,0.5965768097683831,1.2069473723172623,2.619231574046912,,,,,,,,,,,,
21193,0,USKentuckyPerry,Kentucky,Perry,2022-04-28 09:13:11,2021-03-15,0.5965768097683831,1.2069473723172623,2.619231574046912,,,,,,,,,,,,
21193,0,USKentuckyPerry,Kentucky,Perry,2022-04-28 09:13:11,2021-03-16,0.5965768097683831,1.2069473723172623,2.619231574046912,,,,,,,,,,,,
21193,0,USKentuckyPerry,Kentucky,Perry,2022-04-28 09:13:11,2021-03-17,0.5965768097683831,1.2069473723172623,2.619231574046912,,,,,,,,,,,,
21193,0,USKentuckyPerry,Kentucky,Perry,2022-04-28 09:13:11,2021-03-18,0.6273998231914866,1.2010143048120119,2.4602970410582925,,,,,,,,,,,,
21193,0,USKentuckyPerry,Kentucky,Perry,2022-04-28 09:13:11,2021-03-19,0.6273998231914866,1.2010143048120119,2.4602970410582925,,,,,,,,,,,,
21193,0,USKentuckyPerry,Kentucky,Perry,2022-04-28 09:13:11,2021-03-20,0.6273998231914866,1.2010143048120119,2.4602970410582925,,,,,,,,,,,,
21193,0,USKentuckyPerry,Kentucky,Perry,2022-04-28 09:13:11,2021-03-21,0.6273998231914866,1.2010143048120119,2.4602970410582925,,,,,,,,,,,,
21193,0,USKentuckyPerry,Kentucky,Perry,2022-04-28 09:13:11,2021-03-22,0.6273998231914866,1.2010143048120119,2.4602970410582925,,,,,,,,,,,,
21193,0,USKentuckyPerry,Kentucky,Perry,2022-04-28 09:13:11,2021-03-23,0.6273998231914866,1.2010143048120119,2.4602970410582925,,,,,,,,,,,,
21193,0,USKentuckyPerry,Kentucky,Perry,2022-04-28 09:13:11,2021-03-24,0.6273998231914866,1.2010143048120119,2.4602970410582925,,,,,,,,,,,,
21193,0,USKentuckyPerry,Kentucky,Perry,2022-04-28 09:13:11,2021-03-25,0.620479397215628,1.0280781877691636,1.8051500497030466,,,,,,,,,,,,
21193,0,USKentuckyPerry,Kentucky,Perry,2022-04-28 09:13:11,2021-03-26,0.620479397215628,1.0280781877691636,1.8051500497030466,,,,,,,,,,,,
21193,0,USKentuckyPerry,Kentucky,Perry,2022-04-28 09:13:11,2021-03-27,0.620479397215628,1.0280781877691636,1.8051500497030466,,,,,,,,,,,,
21193,0,USKentuckyPerry,Kentucky,Perry,2022-04-28 09:13:11,2021-03-28,0.620479397215628,1.0280781877691636,1.8051500497030466,,,,,,,,,,,,
21193,0,USKentuckyPerry,Kentucky,Perry,2022-04-28 09:13:11,2021-03-29,0.620479397215628,1.0280781877691636,1.8051500497030466,,,,,,,,,,,,
21193,0,USKentuckyPerry,Kentucky,Perry,2022-04-28 09:13:11,2021-03-30,0.620479397215628,1.0280781877691636,1.8051500497030466,,,,,,,,,,,,
21193,0,USKentuckyPerry,Kentucky,Perry,2022-04-28 09:13:11,2021-03-31,0.620479397215628,1.0280781877691636,1.8051500497030466,,,,,,,,,,,,
21193,0,USKentuckyPerry,Kentucky,Perry,2022-04-28 09:13:11,2021-04-01,0.5171088459902679,0.7911839357418203,1.2728697663587314,,,,,,,,,,,,
21193,0,USKentuckyPerry,Kentucky,Perry,2022-04-28 09:13:11,2021-04-02,0.5171088459902679,0.7911839357418203,1.2728697663587314,,,,,,,,,,,,
21193,0,USKentuckyPerry,Kentucky,Perry,2022-04-28 09:13:11,2021-04-03,0.5171088459902679,0.7911839357418203,1.2728697663587314,,,,,,,,,,,,
21193,0,USKentuckyPerry,Kentucky,Perry,2022-04-28 09:13:11,2021-04-04,0.5171088459902679,0.7911839357418203,1.2728697663587314,,,,,,,,,,,,
21193,0,USKentuckyPerry,Kentucky,Perry,2022-04-28 09:13:11,2021-04-05,0.5171088459902679,0.7911839357418203,1.2728697663587314,,,,,,,,,,,,
21193,0,USKentuckyPerry,Kentucky,Perry,2022-04-28 09:13:11,2021-04-06,0.5171088459902679,0.7911839357418203,1.2728697663587314,,,,,,,,,,,,
21193,0,USKentuckyPerry,Kentucky,Perry,2022-04-28 09:13:11,2021-04-07,0.5171088459902679,0.7911839357418203,1.2728697663587314,,,,,,,,,,,,
21193,0,USKentuckyPerry,Kentucky,Perry,2022-04-28 09:13:11,2021-04-08,0.523406430389296,1.0534707907278142,2.273980357680823,,,,,,,,,,,,
21193,0,USKentuckyPerry,Kentucky,Perry,2022-04-28 09:13:11,2021-04-09,0.523406430389296,1.0534707907278142,2.273980357680823,,,,,,,,,,,,
21193,0,USKentuckyPerry,Kentucky,Perry,2022-04-28 09:13:11,2021-04-10,0.523406430389296,1.0534707907278142,2.273980357680823,,,,,,,,,,,,
21193,0,USKentuckyPerry,Kentucky,Perry,2022-04-28 09:13:11,2021-04-11,0.523406430389296,1.0534707907278142,2.273980357680823,,,,,,,,,,,,
21193,0,USKentuckyPerry,Kentucky,Perry,2022-04-28 09:13:11,2021-04-12,0.523406430389296,1.0534707907278142,2.273980357680823,,,,,,,,,,,,
21193,0,USKentuckyPerry,Kentucky,Perry,2022-04-28 09:13:11,2021-04-13,0.523406430389296,1.0534707907278142,2.273980357680823,,,,,,,,,,,,
21193,0,USKentuckyPerry,Kentucky,Perry,2022-04-28 09:13:11,2021-04-14,0.523406430389296,1.0534707907278142,2.273980357680823,,,,,,,,,,,,
21193,0,USKentuckyPerry,Kentucky,Perry,2022-04-28 09:13:11,2021-04-15,0.27671294820064823,0.5228744643328066,1.0566081488542929,,,,,,,,,,,,
21193,0,USKentuckyPerry,Kentucky,Perry,2022-04-28 09:13:11,2021-04-16,0.27671294820064823,0.5228744643328066,1.0566081488542929,,,,,,,,,,,,
21193,0,USKentuckyPerry,Kentucky,Perry,2022-04-28 09:13:11,2021-04-17,0.27671294820064823,0.5228744643328066,1.0566081488542929,,,,,,,,,,,,
21193,0,USKentuckyPerry,Kentucky,Perry,2022-04-28 09:13:11,2021-04-18,0.27671294820064823,0.5228744643328066,1.0566081488542929,,,,,,,,,,,,
21193,0,USKentuckyPerry,Kentucky,Perry,2022-04-28 09:13:11,2021-04-19,0.27671294820064823,0.5228744643328066,1.0566081488542929,,,,,,,,,,,,
21193,0,USKentuckyPerry,Kentucky,Perry,2022-04-28 09:13:11,2021-04-20,0.27671294820064823,0.5228744643328066,1.0566081488542929,,,,,,,,,,,,
21193,0,USKentuckyPerry,Kentucky,Perry,2022-04-28 09:13:11,2021-04-21,0.27671294820064823,0.5228744643328066,1.0566081488542929,,,,,,,,,,,,
21193,0,USKentuckyPerry,Kentucky,Perry,2022-04-28 09:13:11,2021-04-22,0.3183597313588732,0.648742529053875,1.4184099332514233,,,,,,,,,,,,
21193,0,USKentuckyPerry,Kentucky,Perry,2022-04-28 09:13:11,2021-04-23,0.3183597313588732,0.648742529053875,1.4184099332514233,,,,,,,,,,,,
21193,0,USKentuckyPerry,Kentucky,Perry,2022-04-28 09:13:11,2021-04-24,0.3183597313588732,0.648742529053875,1.4184099332514233,,,,,,,,,,,,
21193,0,USKentuckyPerry,Kentucky,Perry,2022-04-28 09:13:11,2021-04-25,0.3183597313588732,0.648742529053875,1.4184099332514233,,,,,,,,,,,,
21193,0,USKentuckyPerry,Kentucky,Perry,2022-04-28 09:13:11,2021-04-26,0.3183597313588732,0.648742529053875,1.4184099332514233,,,,,,,,,,,,
21193,0,USKentuckyPerry,Kentucky,Perry,2022-04-28 09:13:11,2021-04-27,0.3183597313588732,0.648742529053875,1.4184099332514233,,,,,,,,,,,,
21193,0,USKentuckyPerry,Kentucky,Perry,2022-04-28 09:13:11,2021-04-28,0.3183597313588732,0.648742529053875,1.4184099332514233,,,,,,,,,,,,
21193,0,USKentuckyPerry,Kentucky,Perry,2022-04-28 09:13:11,2021-04-29,0.1862604914840599,0.27469472303701625,0.42421501327462985,,,,,,,,,,,,
21193,0,USKentuckyPerry,Kentucky,Perry,2022-04-28 09:13:11,2021-04-30,0.1862604914840599,0.27469472303701625,0.42421501327462985,,,,,,,,,,,,
21193,0,USKentuckyPerry,Kentucky,Perry,2022-04-28 09:13:11,2021-05-01,0.1862604914840599,0.27469472303701625,0.42421501327462985,,,,,,,,,,,,
21193,0,USKentuckyPerry,Kentucky,Perry,2022-04-28 09:13:11,2021-05-02,0.1862604914840599,0.27469472303701625,0.42421501327462985,,,,,,,,,,,,
21193,0,USKentuckyPerry,Kentucky,Perry,2022-04-28 09:13:11,2021-05-03,0.1862604914840599,0.27469472303701625,0.42421501327462985,,,,,,,,,,,,
21193,0,USKentuckyPerry,Kentucky,Perry,2022-04-28 09:13:11,2021-05-04,0.1862604914840599,0.27469472303701625,0.42421501327462985,,,,,,,,,,,,
21193,0,USKentuckyPerry,Kentucky,Perry,2022-04-28 09:13:11,2021-05-05,0.1862604914840599,0.27469472303701625,0.42421501327462985,,,,,,,,,,,,
21193,0,USKentuckyPerry,Kentucky,Perry,2022-04-28 09:13:11,2021-05-06,0.283171474751018,0.6509442363405202,1.6098241643342566,,,,,,,,,,,,
21193,0,USKentuckyPerry,Kentucky,Perry,2022-04-28 09:13:11,2021-05-07,0.283171474751018,0.6509442363405202,1.6098241643342566,,,,,,,,,,,,
21193,0,USKentuckyPerry,Kentucky,Perry,2022-04-28 09:13:11,2021-05-08,0.283171474751018,0.6509442363405202,1.6098241643342566,,,,,,,,,,,,
21193,0,USKentuckyPerry,Kentucky,Perry,2022-04-28 09:13:11,2021-05-09,0.283171474751018,0.6509442363405202,1.6098241643342566,,,,,,,,,,,,
21193,0,USKentuckyPerry,Kentucky,Perry,2022-04-28 09:13:11,2021-05-10,0.283171474751018,0.6509442363405202,1.6098241643342566,,,,,,,,,,,,
21193,0,USKentuckyPerry,Kentucky,Perry,2022-04-28 09:13:11,2021-05-11,0.283171474751018,0.6509442363405202,1.6098241643342566,,,,,,,,,,,,
21193,0,USKentuckyPerry,Kentucky,Perry,2022-04-28 09:13:11,2021-05-12,0.283171474751018,0.6509442363405202,1.6098241643342566,,,,,,,,,,,,
21193,0,USKentuckyPerry,Kentucky,Perry,2022-04-28 09:13:11,2021-05-13,0.23590599463422474,0.5711843743667772,1.4883008355363267,,,,,,,,,,,,
21193,0,USKentuckyPerry,Kentucky,Perry,2022-04-28 09:13:11,2021-05-14,0.23590599463422474,0.5711843743667772,1.4883008355363267,,,,,,,,,,,,
21193,0,USKentuckyPerry,Kentucky,Perry,2022-04-28 09:13:11,2021-05-15,0.23590599463422474,0.5711843743667772,1.4883008355363267,,,,,,,,,,,,
21193,0,USKentuckyPerry,Kentucky,Perry,2022-04-28 09:13:11,2021-05-16,0.23590599463422474,0.5711843743667772,1.4883008355363267,,,,,,,,,,,,
21193,0,USKentuckyPerry,Kentucky,Perry,2022-04-28 09:13:11,2021-05-17,0.23590599463422474,0.5711843743667772,1.4883008355363267,,,,,,,,,,,,
21193,0,USKentuckyPerry,Kentucky,Perry,2022-04-28 09:13:11,2021-05-18,0.23590599463422474,0.5711843743667772,1.4883008355363267,,,,,,,,,,,,
21193,0,USKentuckyPerry,Kentucky,Perry,2022-04-28 09:13:11,2021-05-19,0.23590599463422474,0.5711843743667772,1.4883008355363267,,,,,,,,,,,,
21193,0,USKentuckyPerry,Kentucky,Perry,2022-04-28 09:13:11,2021-05-20,0.26376252830795033,0.6080055489376808,1.507838224613911,,,,,,,,,,,,
21193,0,USKentuckyPerry,Kentucky,Perry,2022-04-28 09:13:11,2021-05-21,0.26376252830795033,0.6080055489376808,1.507838224613911,,,,,,,,,,,,
21193,0,USKentuckyPerry,Kentucky,Perry,2022-04-28 09:13:11,2021-05-22,0.26376252830795033,0.6080055489376808,1.507838224613911,,,,,,,,,,,,
21193,0,USKentuckyPerry,Kentucky,Perry,2022-04-28 09:13:11,2021-05-23,0.26376252830795033,0.6080055489376808,1.507838224613911,,,,,,,,,,,,
21193,0,USKentuckyPerry,Kentucky,Perry,2022-04-28 09:13:11,2021-05-24,0.26376252830795033,0.6080055489376808,1.507838224613911,,,,,,,,,,,,
21193,0,USKentuckyPerry,Kentucky,Perry,2022-04-28 09:13:11,2021-05-25,0.26376252830795033,0.6080055489376808,1.507838224613911,,,,,,,,,,,,
21193,0,USKentuckyPerry,Kentucky,Perry,2022-04-28 09:13:11,2021-05-26,0.26376252830795033,0.6080055489376808,1.507838224613911,,,,,,,,,,,,
21193,0,USKentuckyPerry,Kentucky,Perry,2022-04-28 09:13:11,2021-05-27,0.3396368487675947,0.7336915171342351,1.7033748460952638,,,,,,,,,,,,
21193,0,USKentuckyPerry,Kentucky,Perry,2022-04-28 09:13:11,2021-05-28,0.3396368487675947,0.7336915171342351,1.7033748460952638,,,,,,,,,,,,
21193,0,USKentuckyPerry,Kentucky,Perry,2022-04-28 09:13:11,2021-05-29,0.3396368487675947,0.7336915171342351,1.7033748460952638,,,,,,,,,,,,
21193,0,USKentuckyPerry,Kentucky,Perry,2022-04-28 09:13:11,2021-05-30,0.3396368487675947,0.7336915171342351,1.7033748460952638,,,,,,,,,,,,
21193,0,USKentuckyPerry,Kentucky,Perry,2022-04-28 09:13:11,2021-05-31,0.3396368487675947,0.7336915171342351,1.7033748460952638,,,,,,,,,,,,
21193,0,USKentuckyPerry,Kentucky,Perry,2022-04-28 09:13:11,2021-06-01,0.3396368487675947,0.7336915171342351,1.7033748460952638,,,,,,,,,,,,
21193,0,USKentuckyPerry,Kentucky,Perry,2022-04-28 09:13:11,2021-06-02,0.3396368487675947,0.7336915171342351,1.7033748460952638,,,,,,,,,,,,
21193,0,USKentuckyPerry,Kentucky,Perry,2022-04-28 09:13:11,2021-06-03,0.33403580473876493,0.7108792789817245,1.6253283924368596,,,,,,,,,,,,
21193,0,USKentuckyPerry,Kentucky,Perry,2022-04-28 09:13:11,2021-06-04,0.33403580473876493,0.7108792789817245,1.6253283924368596,,,,,,,,,,,,
21193,0,USKentuckyPerry,Kentucky,Perry,2022-04-28 09:13:11,2021-06-05,0.33403580473876493,0.7108792789817245,1.6253283924368596,,,,,,,,,,,,
21193,0,USKentuckyPerry,Kentucky,Perry,2022-04-28 09:13:11,2021-06-06,0.33403580473876493,0.7108792789817245,1.6253283924368596,,,,,,,,,,,,
21193,0,USKentuckyPerry,Kentucky,Perry,2022-04-28 09:13:11,2021-06-07,0.33403580473876493,0.7108792789817245,1.6253283924368596,,,,,,,,,,,,
21193,0,USKentuckyPerry,Kentucky,Perry,2022-04-28 09:13:11,2021-06-08,0.33403580473876493,0.7108792789817245,1.6253283924368596,,,,,,,,,,,,
21193,0,USKentuckyPerry,Kentucky,Perry,2022-04-28 09:13:11,2021-06-09,0.33403580473876493,0.7108792789817245,1.6253283924368596,,,,,,,,,,,,
21193,0,USKentuckyPerry,Kentucky,Perry,2022-04-28 09:13:11,2021-06-10,0.5558165102379856,0.9523482242016721,1.7339924362064625,,,,,,,,,,,,
21193,0,USKentuckyPerry,Kentucky,Perry,2022-04-28 09:13:11,2021-06-11,0.5558165102379856,0.9523482242016721,1.7339924362064625,,,,,,,,,,,,
21193,0,USKentuckyPerry,Kentucky,Perry,2022-04-28 09:13:11,2021-06-12,0.5558165102379856,0.9523482242016721,1.7339924362064625,,,,,,,,,,,,
21193,0,USKentuckyPerry,Kentucky,Perry,2022-04-28 09:13:11,2021-06-13,0.5558165102379856,0.9523482242016721,1.7339924362064625,,,,,,,,,,,,
21193,0,USKentuckyPerry,Kentucky,Perry,2022-04-28 09:13:11,2021-06-14,0.5558165102379856,0.9523482242016721,1.7339924362064625,,,,,,,,,,,,
21193,0,USKentuckyPerry,Kentucky,Perry,2022-04-28 09:13:11,2021-06-15,0.5558165102379856,0.9523482242016721,1.7339924362064625,,,,,,,,,,,,
21193,0,USKentuckyPerry,Kentucky,Perry,2022-04-28 09:13:11,2021-06-16,0.5558165102379856,0.9523482242016721,1.7339924362064625,,,,,,,,,,,,
21193,0,USKentuckyPerry,Kentucky,Perry,2022-04-28 09:13:11,2021-06-17,0.2932279123725184,0.5544911849103923,1.1213712155823368,,,,,,,,,,,,
21193,0,USKentuckyPerry,Kentucky,Perry,2022-04-28 09:13:11,2021-06-18,0.2932279123725184,0.5544911849103923,1.1213712155823368,,,,,,,,,,,,
21193,0,USKentuckyPerry,Kentucky,Perry,2022-04-28 09:13:11,2021-06-19,0.2932279123725184,0.5544911849103923,1.1213712155823368,,,,,,,,,,,,
21193,0,USKentuckyPerry,Kentucky,Perry,2022-04-28 09:13:11,2021-06-20,0.2932279123725184,0.5544911849103923,1.1213712155823368,,,,,,,,,,,,
21193,0,USKentuckyPerry,Kentucky,Perry,2022-04-28 09:13:11,2021-06-21,0.2932279123725184,0.5544911849103923,1.1213712155823368,,,,,,,,,,,,
21193,0,USKentuckyPerry,Kentucky,Perry,2022-04-28 09:13:11,2021-06-22,0.2932279123725184,0.5544911849103923,1.1213712155823368,,,,,,,,,,,,
21193,0,USKentuckyPerry,Kentucky,Perry,2022-04-28 09:13:11,2021-06-23,0.2932279123725184,0.5544911849103923,1.1213712155823368,,,,,,,,,,,,
21193,0,USKentuckyPerry,Kentucky,Perry,2022-04-28 09:13:11,2021-06-24,0.32650848320068265,0.5916580368986467,1.1437868009188361,,,,,,,,,,,,
21193,0,USKentuckyPerry,Kentucky,Perry,2022-04-28 09:13:11,2021-06-25,0.32650848320068265,0.5916580368986467,1.1437868009188361,,,,,,,,,,,,
21193,0,USKentuckyPerry,Kentucky,Perry,2022-04-28 09:13:11,2021-06-26,0.32650848320068265,0.5916580368986467,1.1437868009188361,,,,,,,,,,,,
21193,0,USKentuckyPerry,Kentucky,Perry,2022-04-28 09:13:11,2021-06-27,0.32650848320068265,0.5916580368986467,1.1437868009188361,,,,,,,,,,,,
21193,0,USKentuckyPerry,Kentucky,Perry,2022-04-28 09:13:11,2021-06-28,0.32650848320068265,0.5916580368986467,1.1437868009188361,,,,,,,,,,,,
21193,0,USKentuckyPerry,Kentucky,Perry,2022-04-28 09:13:11,2021-06-29,0.32650848320068265,0.5916580368986467,1.1437868009188361,,,,,,,,,,,,
21193,0,USKentuckyPerry,Kentucky,Perry,2022-04-28 09:13:11,2021-06-30,0.32650848320068265,0.5916580368986467,1.1437868009188361,,,,,,,,,,,,
21193,0,USKentuckyPerry,Kentucky,Perry,2022-04-28 09:13:11,2021-07-01,0.16596965003361755,0.3902245595310019,0.9872447618458856,,,,,,,,,,,,
21193,0,USKentuckyPerry,Kentucky,Perry,2022-04-28 09:13:11,2021-07-02,0.16596965003361755,0.3902245595310019,0.9872447618458856,,,,,,,,,,,,
21193,0,USKentuckyPerry,Kentucky,Perry,2022-04-28 09:13:11,2021-07-03,0.16596965003361755,0.3902245595310019,0.9872447618458856,,,,,,,,,,,,
21193,0,USKentuckyPerry,Kentucky,Perry,2022-04-28 09:13:11,2021-07-04,0.16596965003361755,0.3902245595310019,0.9872447618458856,,,,,,,,,,,,
21193,0,USKentuckyPerry,Kentucky,Perry,2022-04-28 09:13:11,2021-07-05,0.16596965003361755,0.3902245595310019,0.9872447618458856,,,,,,,,,,,,
21193,0,USKentuckyPerry,Kentucky,Perry,2022-04-28 09:13:11,2021-07-06,0.16596965003361755,0.3902245595310019,0.9872447618458856,,,,,,,,,,,,
21193,0,USKentuckyPerry,Kentucky,Perry,2022-04-28 09:13:11,2021-07-07,0.16596965003361755,0.3902245595310019,0.9872447618458856,,,,,,,,,,,,
21193,0,USKentuckyPerry,Kentucky,Perry,2022-04-28 09:13:11,2021-07-08,0.4338869395495399,0.9018604347731838,2.0126031600596583,,,,,,,,,,,,
21193,0,USKentuckyPerry,Kentucky,Perry,2022-04-28 09:13:11,2021-07-09,0.4338869395495399,0.9018604347731838,2.0126031600596583,,,,,,,,,,,,
21193,0,USKentuckyPerry,Kentucky,Perry,2022-04-28 09:13:11,2021-07-10,0.4338869395495399,0.9018604347731838,2.0126031600596583,,,,,,,,,,,,
21193,0,USKentuckyPerry,Kentucky,Perry,2022-04-28 09:13:11,2021-07-11,0.4338869395495399,0.9018604347731838,2.0126031600596583,,,,,,,,,,,,
21193,0,USKentuckyPerry,Kentucky,Perry,2022-04-28 09:13:11,2021-07-12,0.4338869395495399,0.9018604347731838,2.0126031600596583,,,,,,,,,,,,
21193,0,USKentuckyPerry,Kentucky,Perry,2022-04-28 09:13:11,2021-07-13,0.4338869395495399,0.9018604347731838,2.0126031600596583,,,,,,,,,,,,
21193,0,USKentuckyPerry,Kentucky,Perry,2022-04-28 09:13:11,2021-07-14,0.4338869395495399,0.9018604347731838,2.0126031600596583,,,,,,,,,,,,
21193,0,USKentuckyPerry,Kentucky,Perry,2022-04-28 09:13:11,2021-07-15,0.7007025740505683,1.4154967722533542,3.0670720997913814,,,,,,,,,,,,
21193,0,USKentuckyPerry,Kentucky,Perry,2022-04-28 09:13:11,2021-07-16,0.7007025740505683,1.4154967722533542,3.0670720997913814,,,,,,,,,,,,
21193,0,USKentuckyPerry,Kentucky,Perry,2022-04-28 09:13:11,2021-07-17,0.7007025740505683,1.4154967722533542,3.0670720997913814,,,,,,,,,,,,
21193,0,USKentuckyPerry,Kentucky,Perry,2022-04-28 09:13:11,2021-07-18,0.7007025740505683,1.4154967722533542,3.0670720997913814,,,,,,,,,,,,
21193,0,USKentuckyPerry,Kentucky,Perry,2022-04-28 09:13:11,2021-07-19,0.7007025740505683,1.4154967722533542,3.0670720997913814,,,,,,,,,,,,
21193,0,USKentuckyPerry,Kentucky,Perry,2022-04-28 09:13:11,2021-07-20,0.7007025740505683,1.4154967722533542,3.0670720997913814,,,,,,,,,,,,
21193,0,USKentuckyPerry,Kentucky,Perry,2022-04-28 09:13:11,2021-07-21,0.7007025740505683,1.4154967722533542,3.0670720997913814,,,,,,,,,,,,
21193,0,USKentuckyPerry,Kentucky,Perry,2022-04-28 09:13:11,2021-07-22,1.0206419617187623,2.0075881642338,4.231118207471866,,,,,,,,,,,,
21193,0,USKentuckyPerry,Kentucky,Perry,2022-04-28 09:13:11,2021-07-23,1.0206419617187623,2.0075881642338,4.231118207471866,,,,,,,,,,,,
21193,0,USKentuckyPerry,Kentucky,Perry,2022-04-28 09:13:11,2021-07-24,1.0206419617187623,2.0075881642338,4.231118207471866,,,,,,,,,,,,
21193,0,USKentuckyPerry,Kentucky,Perry,2022-04-28 09:13:11,2021-07-25,1.0206419617187623,2.0075881642338,4.231118207471866,,,,,,,,,,,,
21193,0,USKentuckyPerry,Kentucky,Perry,2022-04-28 09:13:11,2021-07-26,1.0206419617187623,2.0075881642338,4.231118207471866,,,,,,,,,,,,
21193,0,USKentuckyPerry,Kentucky,Perry,2022-04-28 09:13:11,2021-07-27,1.0206419617187623,2.0075881642338,4.231118207471866,,,,,,,,,,,,
21193,0,USKentuckyPerry,Kentucky,Perry,2022-04-28 09:13:11,2021-07-28,1.0206419617187623,2.0075881642338,4.231118207471866,,,,,,,,,,,,
21193,0,USKentuckyPerry,Kentucky,Perry,2022-04-28 09:13:11,2021-07-29,1.2292659680436413,2.3662860373408825,4.875754915222571,,,,,,,,,,,,
21193,0,USKentuckyPerry,Kentucky,Perry,2022-04-28 09:13:11,2021-07-30,1.2292659680436413,2.3662860373408825,4.875754915222571,,,,,,,,,,,,
21193,0,USKentuckyPerry,Kentucky,Perry,2022-04-28 09:13:11,2021-07-31,1.2292659680436413,2.3662860373408825,4.875754915222571,,,,,,,,,,,,
21193,0,USKentuckyPerry,Kentucky,Perry,2022-04-28 09:13:11,2021-08-01,1.2292659680436413,2.3662860373408825,4.875754915222571,,,,,,,,,,,,
21193,0,USKentuckyPerry,Kentucky,Perry,2022-04-28 09:13:11,2021-08-02,1.2292659680436413,2.3662860373408825,4.875754915222571,,,,,,,,,,,,
21193,0,USKentuckyPerry,Kentucky,Perry,2022-04-28 09:13:11,2021-08-03,1.2292659680436413,2.3662860373408825,4.875754915222571,,,,,,,,,,,,
21193,0,USKentuckyPerry,Kentucky,Perry,2022-04-28 09:13:11,2021-08-04,1.2292659680436413,2.3662860373408825,4.875754915222571,,,,,,,,,,,,
21193,0,USKentuckyPerry,Kentucky,Perry,2022-04-28 09:13:11,2021-08-05,1.9597399385242031,3.33465214638104,6.0263258894696135,,,,,,,,,,,,
21193,0,USKentuckyPerry,Kentucky,Perry,2022-04-28 09:13:11,2021-08-06,1.9597399385242031,3.33465214638104,6.0263258894696135,,,,,,,,,,,,
21193,0,USKentuckyPerry,Kentucky,Perry,2022-04-28 09:13:11,2021-08-07,1.9597399385242031,3.33465214638104,6.0263258894696135,,,,,,,,,,,,
21193,0,USKentuckyPerry,Kentucky,Perry,2022-04-28 09:13:11,2021-08-08,1.9597399385242031,3.33465214638104,6.0263258894696135,,,,,,,,,,,,
21193,0,USKentuckyPerry,Kentucky,Perry,2022-04-28 09:13:11,2021-08-09,1.9597399385242031,3.33465214638104,6.0263258894696135,,,,,,,,,,,,
21193,0,USKentuckyPerry,Kentucky,Perry,2022-04-28 09:13:11,2021-08-10,1.9597399385242031,3.33465214638104,6.0263258894696135,,,,,,,,,,,,
21193,0,USKentuckyPerry,Kentucky,Perry,2022-04-28 09:13:11,2021-08-11,1.9597399385242031,3.33465214638104,6.0263258894696135,,,,,,,,,,,,
21193,0,USKentuckyPerry,Kentucky,Perry,2022-04-28 09:13:11,2021-08-12,3.1144412849575644,4.8370582240274285,7.9119773367063955,,,,,,,,,,,,
21193,0,USKentuckyPerry,Kentucky,Perry,2022-04-28 09:13:11,2021-08-13,3.1144412849575644,4.8370582240274285,7.9119773367063955,,,,,,,,,,,,
21193,0,USKentuckyPerry,Kentucky,Perry,2022-04-28 09:13:11,2021-08-14,3.1144412849575644,4.8370582240274285,7.9119773367063955,,,,,,,,,,,,
21193,0,USKentuckyPerry,Kentucky,Perry,2022-04-28 09:13:11,2021-08-15,3.1144412849575644,4.8370582240274285,7.9119773367063955,,,,,,,,,,,,
21193,0,USKentuckyPerry,Kentucky,Perry,2022-04-28 09:13:11,2021-08-16,3.1144412849575644,4.8370582240274285,7.9119773367063955,,,,,,,,,,,,
21193,0,USKentuckyPerry,Kentucky,Perry,2022-04-28 09:13:11,2021-08-17,3.1144412849575644,4.8370582240274285,7.9119773367063955,,,,,,,,,,,,
21193,0,USKentuckyPerry,Kentucky,Perry,2022-04-28 09:13:11,2021-08-18,3.1144412849575644,4.8370582240274285,7.9119773367063955,,,,,,,,,,,,
21193,0,USKentuckyPerry,Kentucky,Perry,2022-04-28 09:13:11,2021-08-19,3.336742103394631,5.199501059665761,8.535964434335504,,,,,,,,,,,,
21193,0,USKentuckyPerry,Kentucky,Perry,2022-04-28 09:13:11,2021-08-20,3.336742103394631,5.199501059665761,8.535964434335504,,,,,,,,,,,,
21193,0,USKentuckyPerry,Kentucky,Perry,2022-04-28 09:13:11,2021-08-21,3.336742103394631,5.199501059665761,8.535964434335504,,,,,,,,,,,,
21193,0,USKentuckyPerry,Kentucky,Perry,2022-04-28 09:13:11,2021-08-22,3.336742103394631,5.199501059665761,8.535964434335504,,,,,,,,,,,,
21193,0,USKentuckyPerry,Kentucky,Perry,2022-04-28 09:13:11,2021-08-23,3.336742103394631,5.199501059665761,8.535964434335504,,,,,,,,,,,,
21193,0,USKentuckyPerry,Kentucky,Perry,2022-04-28 09:13:11,2021-08-24,3.336742103394631,5.199501059665761,8.535964434335504,,,,,,,,,,,,
21193,0,USKentuckyPerry,Kentucky,Perry,2022-04-28 09:13:11,2021-08-25,3.336742103394631,5.199501059665761,8.535964434335504,,,,,,,,,,,,
21193,0,USKentuckyPerry,Kentucky,Perry,2022-04-28 09:13:11,2021-08-26,5.743172510899429,7.8367656156325936,11.087927296178355,,,,,,,,,,,,
21193,0,USKentuckyPerry,Kentucky,Perry,2022-04-28 09:13:11,2021-08-27,5.743172510899429,7.8367656156325936,11.087927296178355,,,,,,,,,,,,
21193,0,USKentuckyPerry,Kentucky,Perry,2022-04-28 09:13:11,2021-08-28,5.743172510899429,7.8367656156325936,11.087927296178355,,,,,,,,,,,,
21193,0,USKentuckyPerry,Kentucky,Perry,2022-04-28 09:13:11,2021-08-29,5.743172510899429,7.8367656156325936,11.087927296178355,,,,,,,,,,,,
21193,0,USKentuckyPerry,Kentucky,Perry,2022-04-28 09:13:11,2021-08-30,5.743172510899429,7.8367656156325936,11.087927296178355,,,,,,,,,,,,
21193,0,USKentuckyPerry,Kentucky,Perry,2022-04-28 09:13:11,2021-08-31,5.743172510899429,7.8367656156325936,11.087927296178355,,,,,,,,,,,,
21193,0,USKentuckyPerry,Kentucky,Perry,2022-04-28 09:13:11,2021-09-01,5.743172510899429,7.8367656156325936,11.087927296178355,,,,,,,,,,,,
21193,0,USKentuckyPerry,Kentucky,Perry,2022-04-28 09:13:11,2021-09-02,5.517233698551892,7.80750525405525,11.510866022666086,,,,,,,,,,,,
21193,0,USKentuckyPerry,Kentucky,Perry,2022-04-28 09:13:11,2021-09-03,5.517233698551892,7.80750525405525,11.510866022666086,,,,,,,,,,,,
21193,0,USKentuckyPerry,Kentucky,Perry,2022-04-28 09:13:11,2021-09-04,5.517233698551892,7.80750525405525,11.510866022666086,,,,,,,,,,,,
21193,0,USKentuckyPerry,Kentucky,Perry,2022-04-28 09:13:11,2021-09-05,5.517233698551892,7.80750525405525,11.510866022666086,,,,,,,,,,,,
21193,0,USKentuckyPerry,Kentucky,Perry,2022-04-28 09:13:11,2021-09-06,5.517233698551892,7.80750525405525,11.510866022666086,,,,,,,,,,,,
21193,0,USKentuckyPerry,Kentucky,Perry,2022-04-28 09:13:11,2021-09-07,5.517233698551892,7.80750525405525,11.510866022666086,,,,,,,,,,,,
21193,0,USKentuckyPerry,Kentucky,Perry,2022-04-28 09:13:11,2021-09-08,5.517233698551892,7.80750525405525,11.510866022666086,,,,,,,,,,,,
21193,0,USKentuckyPerry,Kentucky,Perry,2022-04-28 09:13:11,2021-09-09,4.724849458375714,6.570369268591765,9.497607927041729,,,,,,,,,,,,
21193,0,USKentuckyPerry,Kentucky,Perry,2022-04-28 09:13:11,2021-09-10,4.724849458375714,6.570369268591765,9.497607927041729,,,,,,,,,,,,
21193,0,USKentuckyPerry,Kentucky,Perry,2022-04-28 09:13:11,2021-09-11,4.724849458375714,6.570369268591765,9.497607927041729,,,,,,,,,,,,
21193,0,USKentuckyPerry,Kentucky,Perry,2022-04-28 09:13:11,2021-09-12,4.724849458375714,6.570369268591765,9.497607927041729,,,,,,,,,,,,
21193,0,USKentuckyPerry,Kentucky,Perry,2022-04-28 09:13:11,2021-09-13,4.724849458375714,6.570369268591765,9.497607927041729,,,,,,,,,,,,
21193,0,USKentuckyPerry,Kentucky,Perry,2022-04-28 09:13:11,2021-09-14,4.724849458375714,6.570369268591765,9.497607927041729,,,,,,,,,,,,
21193,0,USKentuckyPerry,Kentucky,Perry,2022-04-28 09:13:11,2021-09-15,4.724849458375714,6.570369268591765,9.497607927041729,,,,,,,,,,,,
21193,0,USKentuckyPerry,Kentucky,Perry,2022-04-28 09:13:11,2021-09-16,4.203090340420261,6.124373314332051,9.331177090491408,,,,,,,,,,,,
21193,0,USKentuckyPerry,Kentucky,Perry,2022-04-28 09:13:11,2021-09-17,4.203090340420261,6.124373314332051,9.331177090491408,,,,,,,,,,,,
21193,0,USKentuckyPerry,Kentucky,Perry,2022-04-28 09:13:11,2021-09-18,4.203090340420261,6.124373314332051,9.331177090491408,,,,,,,,,,,,
21193,0,USKentuckyPerry,Kentucky,Perry,2022-04-28 09:13:11,2021-09-19,4.203090340420261,6.124373314332051,9.331177090491408,,,,,,,,,,,,
21193,0,USKentuckyPerry,Kentucky,Perry,2022-04-28 09:13:11,2021-09-20,4.203090340420261,6.124373314332051,9.331177090491408,,,,,,,,,,,,
21193,0,USKentuckyPerry,Kentucky,Perry,2022-04-28 09:13:11,2021-09-21,4.203090340420261,6.124373314332051,9.331177090491408,,,,,,,,,,,,
21193,0,USKentuckyPerry,Kentucky,Perry,2022-04-28 09:13:11,2021-09-22,4.203090340420261,6.124373314332051,9.331177090491408,,,,,,,,,,,,
21193,0,USKentuckyPerry,Kentucky,Perry,2022-04-28 09:13:11,2021-09-23,3.0232819446381285,4.659583773319289,7.557307988236836,,,,,,,,,,,,
21193,0,USKentuckyPerry,Kentucky,Perry,2022-04-28 09:13:11,2021-09-24,3.0232819446381285,4.659583773319289,7.557307988236836,,,,,,,,,,,,
21193,0,USKentuckyPerry,Kentucky,Perry,2022-04-28 09:13:11,2021-09-25,3.0232819446381285,4.659583773319289,7.557307988236836,,,,,,,,,,,,
21193,0,USKentuckyPerry,Kentucky,Perry,2022-04-28 09:13:11,2021-09-26,3.0232819446381285,4.659583773319289,7.557307988236836,,,,,,,,,,,,
21193,0,USKentuckyPerry,Kentucky,Perry,2022-04-28 09:13:11,2021-09-27,3.0232819446381285,4.659583773319289,7.557307988236836,,,,,,,,,,,,
21193,0,USKentuckyPerry,Kentucky,Perry,2022-04-28 09:13:11,2021-09-28,3.0232819446381285,4.659583773319289,7.557307988236836,,,,,,,,,,,,
21193,0,USKentuckyPerry,Kentucky,Perry,2022-04-28 09:13:11,2021-09-29,3.0232819446381285,4.659583773319289,7.557307988236836,,,,,,,,,,,,
21193,0,USKentuckyPerry,Kentucky,Perry,2022-04-28 09:13:11,2021-09-30,2.7652792811905713,4.211176968732129,6.739968078827974,,,,,,,,,,,,
21193,0,USKentuckyPerry,Kentucky,Perry,2022-04-28 09:13:11,2021-10-01,2.7652792811905713,4.211176968732129,6.739968078827974,,,,,,,,,,,,
21193,0,USKentuckyPerry,Kentucky,Perry,2022-04-28 09:13:11,2021-10-02,2.7652792811905713,4.211176968732129,6.739968078827974,,,,,,,,,,,,
21193,0,USKentuckyPerry,Kentucky,Perry,2022-04-28 09:13:11,2021-10-03,2.7652792811905713,4.211176968732129,6.739968078827974,,,,,,,,,,,,
21193,0,USKentuckyPerry,Kentucky,Perry,2022-04-28 09:13:11,2021-10-04,2.7652792811905713,4.211176968732129,6.739968078827974,,,,,,,,,,,,
21193,0,USKentuckyPerry,Kentucky,Perry,2022-04-28 09:13:11,2021-10-05,2.7652792811905713,4.211176968732129,6.739968078827974,,,,,,,,,,,,
21193,0,USKentuckyPerry,Kentucky,Perry,2022-04-28 09:13:11,2021-10-06,2.7652792811905713,4.211176968732129,6.739968078827974,,,,,,,,,,,,
21193,0,USKentuckyPerry,Kentucky,Perry,2022-04-28 09:13:11,2021-10-07,1.9670081659696212,3.2061742823437225,5.5299682000599955,,,,,,,,,,,,
21193,0,USKentuckyPerry,Kentucky,Perry,2022-04-28 09:13:11,2021-10-08,1.9670081659696212,3.2061742823437225,5.5299682000599955,,,,,,,,,,,,
21193,0,USKentuckyPerry,Kentucky,Perry,2022-04-28 09:13:11,2021-10-09,1.9670081659696212,3.2061742823437225,5.5299682000599955,,,,,,,,,,,,
21193,0,USKentuckyPerry,Kentucky,Perry,2022-04-28 09:13:11,2021-10-10,1.9670081659696212,3.2061742823437225,5.5299682000599955,,,,,,,,,,,,
21193,0,USKentuckyPerry,Kentucky,Perry,2022-04-28 09:13:11,2021-10-11,1.9670081659696212,3.2061742823437225,5.5299682000599955,,,,,,,,,,,,
21193,0,USKentuckyPerry,Kentucky,Perry,2022-04-28 09:13:11,2021-10-12,1.9670081659696212,3.2061742823437225,5.5299682000599955,,,,,,,,,,,,
21193,0,USKentuckyPerry,Kentucky,Perry,2022-04-28 09:13:11,2021-10-13,1.9670081659696212,3.2061742823437225,5.5299682000599955,,,,,,,,,,,,
21193,0,USKentuckyPerry,Kentucky,Perry,2022-04-28 09:13:11,2021-10-14,1.310095629906605,2.2814168643407826,4.226934857171756,,,,,,,,,,,,
21193,0,USKentuckyPerry,Kentucky,Perry,2022-04-28 09:13:11,2021-10-15,1.310095629906605,2.2814168643407826,4.226934857171756,,,,,,,,,,,,
21193,0,USKentuckyPerry,Kentucky,Perry,2022-04-28 09:13:11,2021-10-16,1.310095629906605,2.2814168643407826,4.226934857171756,,,,,,,,,,,,
21193,0,USKentuckyPerry,Kentucky,Perry,2022-04-28 09:13:11,2021-10-17,1.310095629906605,2.2814168643407826,4.226934857171756,,,,,,,,,,,,
21193,0,USKentuckyPerry,Kentucky,Perry,2022-04-28 09:13:11,2021-10-18,1.310095629906605,2.2814168643407826,4.226934857171756,,,,,,,,,,,,
21193,0,USKentuckyPerry,Kentucky,Perry,2022-04-28 09:13:11,2021-10-19,1.310095629906605,2.2814168643407826,4.226934857171756,,,,,,,,,,,,
21193,0,USKentuckyPerry,Kentucky,Perry,2022-04-28 09:13:11,2021-10-20,1.310095629906605,2.2814168643407826,4.226934857171756,,,,,,,,,,,,
21193,0,USKentuckyPerry,Kentucky,Perry,2022-04-28 09:13:11,2021-10-21,1.4040897251694409,2.3172269152876344,4.051165052858748,,,,,,,,,,,,
21193,0,USKentuckyPerry,Kentucky,Perry,2022-04-28 09:13:11,2021-10-22,1.4040897251694409,2.3172269152876344,4.051165052858748,,,,,,,,,,,,
21193,0,USKentuckyPerry,Kentucky,Perry,2022-04-28 09:13:11,2021-10-23,1.4040897251694409,2.3172269152876344,4.051165052858748,,,,,,,,,,,,
21193,0,USKentuckyPerry,Kentucky,Perry,2022-04-28 09:13:11,2021-10-24,1.4040897251694409,2.3172269152876344,4.051165052858748,,,,,,,,,,,,
21193,0,USKentuckyPerry,Kentucky,Perry,2022-04-28 09:13:11,2021-10-25,1.4040897251694409,2.3172269152876344,4.051165052858748,,,,,,,,,,,,
21193,0,USKentuckyPerry,Kentucky,Perry,2022-04-28 09:13:11,2021-10-26,1.4040897251694409,2.3172269152876344,4.051165052858748,,,,,,,,,,,,
21193,0,USKentuckyPerry,Kentucky,Perry,2022-04-28 09:13:11,2021-10-27,1.4040897251694409,2.3172269152876344,4.051165052858748,,,,,,,,,,,,
21193,0,USKentuckyPerry,Kentucky,Perry,2022-04-28 09:13:11,2021-10-28,1.0191612025234755,1.810143486310905,3.4253860348076466,,,,,,,,,,,,
21193,0,USKentuckyPerry,Kentucky,Perry,2022-04-28 09:13:11,2021-10-29,1.0191612025234755,1.810143486310905,3.4253860348076466,,,,,,,,,,,,
21193,0,USKentuckyPerry,Kentucky,Perry,2022-04-28 09:13:11,2021-10-30,1.0191612025234755,1.810143486310905,3.4253860348076466,,,,,,,,,,,,
21193,0,USKentuckyPerry,Kentucky,Perry,2022-04-28 09:13:11,2021-10-31,1.0191612025234755,1.810143486310905,3.4253860348076466,,,,,,,,,,,,
21193,0,USKentuckyPerry,Kentucky,Perry,2022-04-28 09:13:11,2021-11-01,1.0191612025234755,1.810143486310905,3.4253860348076466,,,,,,,,,,,,
21193,0,USKentuckyPerry,Kentucky,Perry,2022-04-28 09:13:11,2021-11-02,1.0191612025234755,1.810143486310905,3.4253860348076466,,,,,,,,,,,,
21193,0,USKentuckyPerry,Kentucky,Perry,2022-04-28 09:13:11,2021-11-03,1.0191612025234755,1.810143486310905,3.4253860348076466,,,,,,,,,,,,
21193,0,USKentuckyPerry,Kentucky,Perry,2022-04-28 09:13:11,2021-11-04,1.3356212899876563,2.228398674859643,3.9422977787469637,,,,,,,,,,,,
21193,0,USKentuckyPerry,Kentucky,Perry,2022-04-28 09:13:11,2021-11-05,1.3356212899876563,2.228398674859643,3.9422977787469637,,,,,,,,,,,,
21193,0,USKentuckyPerry,Kentucky,Perry,2022-04-28 09:13:11,2021-11-06,1.3356212899876563,2.228398674859643,3.9422977787469637,,,,,,,,,,,,
21193,0,USKentuckyPerry,Kentucky,Perry,2022-04-28 09:13:11,2021-11-07,1.3356212899876563,2.228398674859643,3.9422977787469637,,,,,,,,,,,,
21193,0,USKentuckyPerry,Kentucky,Perry,2022-04-28 09:13:11,2021-11-08,1.3356212899876563,2.228398674859643,3.9422977787469637,,,,,,,,,,,,
21193,0,USKentuckyPerry,Kentucky,Perry,2022-04-28 09:13:11,2021-11-09,1.3356212899876563,2.228398674859643,3.9422977787469637,,,,,,,,,,,,
21193,0,USKentuckyPerry,Kentucky,Perry,2022-04-28 09:13:11,2021-11-10,1.3356212899876563,2.228398674859643,3.9422977787469637,,,,,,,,,,,,
21193,0,USKentuckyPerry,Kentucky,Perry,2022-04-28 09:13:11,2021-11-11,0.965066086314652,1.7768129489967248,3.493381197794558,,,,,,,,,,,,
21193,0,USKentuckyPerry,Kentucky,Perry,2022-04-28 09:13:11,2021-11-12,0.965066086314652,1.7768129489967248,3.493381197794558,,,,,,,,,,,,
21193,0,USKentuckyPerry,Kentucky,Perry,2022-04-28 09:13:11,2021-11-13,0.965066086314652,1.7768129489967248,3.493381197794558,,,,,,,,,,,,
21193,0,USKentuckyPerry,Kentucky,Perry,2022-04-28 09:13:11,2021-11-14,0.965066086314652,1.7768129489967248,3.493381197794558,,,,,,,,,,,,
21193,0,USKentuckyPerry,Kentucky,Perry,2022-04-28 09:13:11,2021-11-15,0.965066086314652,1.7768129489967248,3.493381197794558,,,,,,,,,,,,
21193,0,USKentuckyPerry,Kentucky,Perry,2022-04-28 09:13:11,2021-11-16,0.965066086314652,1.7768129489967248,3.493381197794558,,,,,,,,,,,,
21193,0,USKentuckyPerry,Kentucky,Perry,2022-04-28 09:13:11,2021-11-17,0.965066086314652,1.7768129489967248,3.493381197794558,,,,,,,,,,,,
21193,0,USKentuckyPerry,Kentucky,Perry,2022-04-28 09:13:11,2021-11-18,0.8324185103186502,1.6055924113155133,3.315307246693344,,,,,,,,,,,,
21193,0,USKentuckyPerry,Kentucky,Perry,2022-04-28 09:13:11,2021-11-19,0.8324185103186502,1.6055924113155133,3.315307246693344,,,,,,,,,,,,
21193,0,USKentuckyPerry,Kentucky,Perry,2022-04-28 09:13:11,2021-11-20,0.8324185103186502,1.6055924113155133,3.315307246693344,,,,,,,,,,,,
21193,0,USKentuckyPerry,Kentucky,Perry,2022-04-28 09:13:11,2021-11-21,0.8324185103186502,1.6055924113155133,3.315307246693344,,,,,,,,,,,,
21193,0,USKentuckyPerry,Kentucky,Perry,2022-04-28 09:13:11,2021-11-22,0.8324185103186502,1.6055924113155133,3.315307246693344,,,,,,,,,,,,
21193,0,USKentuckyPerry,Kentucky,Perry,2022-04-28 09:13:11,2021-11-23,0.8324185103186502,1.6055924113155133,3.315307246693344,,,,,,,,,,,,
21193,0,USKentuckyPerry,Kentucky,Perry,2022-04-28 09:13:11,2021-11-24,0.8324185103186502,1.6055924113155133,3.315307246693344,,,,,,,,,,,,
21193,0,USKentuckyPerry,Kentucky,Perry,2022-04-28 09:13:11,2021-11-25,0.6991763028357092,1.5123866145997835,3.5160080557125175,,,,,,,,,,,,
21193,0,USKentuckyPerry,Kentucky,Perry,2022-04-28 09:13:11,2021-11-26,0.6991763028357092,1.5123866145997835,3.5160080557125175,,,,,,,,,,,,
21193,0,USKentuckyPerry,Kentucky,Perry,2022-04-28 09:13:11,2021-11-27,0.6991763028357092,1.5123866145997835,3.5160080557125175,,,,,,,,,,,,
21193,0,USKentuckyPerry,Kentucky,Perry,2022-04-28 09:13:11,2021-11-28,0.6991763028357092,1.5123866145997835,3.5160080557125175,,,,,,,,,,,,
21193,0,USKentuckyPerry,Kentucky,Perry,2022-04-28 09:13:11,2021-11-29,0.6991763028357092,1.5123866145997835,3.5160080557125175,,,,,,,,,,,,
21193,0,USKentuckyPerry,Kentucky,Perry,2022-04-28 09:13:11,2021-11-30,0.6991763028357092,1.5123866145997835,3.5160080557125175,,,,,,,,,,,,
21193,0,USKentuckyPerry,Kentucky,Perry,2022-04-28 09:13:11,2021-12-01,0.6991763028357092,1.5123866145997835,3.5160080557125175,,,,,,,,,,,,
21193,0,USKentuckyPerry,Kentucky,Perry,2022-04-28 09:13:11,2021-12-02,1.4659708359910448,2.6381837417100726,5.062804122860359,,,,,,,,,,,,
21193,0,USKentuckyPerry,Kentucky,Perry,2022-04-28 09:13:11,2021-12-03,1.4659708359910448,2.6381837417100726,5.062804122860359,,,,,,,,,,,,
21193,0,USKentuckyPerry,Kentucky,Perry,2022-04-28 09:13:11,2021-12-04,1.4659708359910448,2.6381837417100726,5.062804122860359,,,,,,,,,,,,
21193,0,USKentuckyPerry,Kentucky,Perry,2022-04-28 09:13:11,2021-12-05,1.4659708359910448,2.6381837417100726,5.062804122860359,,,,,,,,,,,,
21193,0,USKentuckyPerry,Kentucky,Perry,2022-04-28 09:13:11,2021-12-06,1.4659708359910448,2.6381837417100726,5.062804122860359,,,,,,,,,,,,
21193,0,USKentuckyPerry,Kentucky,Perry,2022-04-28 09:13:11,2021-12-07,1.4659708359910448,2.6381837417100726,5.062804122860359,,,,,,,,,,,,
21193,0,USKentuckyPerry,Kentucky,Perry,2022-04-28 09:13:11,2021-12-08,1.4659708359910448,2.6381837417100726,5.062804122860359,,,,,,,,,,,,
21193,0,USKentuckyPerry,Kentucky,Perry,2022-04-28 09:13:11,2021-12-09,1.9790709695399338,3.265089052311794,5.706292732624145,,,,,,,,,,,,
21193,0,USKentuckyPerry,Kentucky,Perry,2022-04-28 09:13:11,2021-12-10,1.9790709695399338,3.265089052311794,5.706292732624145,,,,,,,,,,,,
21193,0,USKentuckyPerry,Kentucky,Perry,2022-04-28 09:13:11,2021-12-11,1.9790709695399338,3.265089052311794,5.706292732624145,,,,,,,,,,,,
21193,0,USKentuckyPerry,Kentucky,Perry,2022-04-28 09:13:11,2021-12-12,1.9790709695399338,3.265089052311794,5.706292732624145,,,,,,,,,,,,
21193,0,USKentuckyPerry,Kentucky,Perry,2022-04-28 09:13:11,2021-12-13,1.9790709695399338,3.265089052311794,5.706292732624145,,,,,,,,,,,,
21193,0,USKentuckyPerry,Kentucky,Perry,2022-04-28 09:13:11,2021-12-14,1.9790709695399338,3.265089052311794,5.706292732624145,,,,,,,,,,,,
21193,0,USKentuckyPerry,Kentucky,Perry,2022-04-28 09:13:11,2021-12-15,1.9790709695399338,3.265089052311794,5.706292732624145,,,,,,,,,,,,
21193,0,USKentuckyPerry,Kentucky,Perry,2022-04-28 09:13:11,2021-12-16,1.6350241836423443,2.8431132887949015,5.259408221621802,,,,,,,,,,,,
21193,0,USKentuckyPerry,Kentucky,Perry,2022-04-28 09:13:11,2021-12-17,1.6350241836423443,2.8431132887949015,5.259408221621802,,,,,,,,,,,,
21193,0,USKentuckyPerry,Kentucky,Perry,2022-04-28 09:13:11,2021-12-18,1.6350241836423443,2.8431132887949015,5.259408221621802,,,,,,,,,,,,
21193,0,USKentuckyPerry,Kentucky,Perry,2022-04-28 09:13:11,2021-12-19,1.6350241836423443,2.8431132887949015,5.259408221621802,,,,,,,,,,,,
21193,0,USKentuckyPerry,Kentucky,Perry,2022-04-28 09:13:11,2021-12-20,1.6350241836423443,2.8431132887949015,5.259408221621802,,,,,,,,,,,,
21193,0,USKentuckyPerry,Kentucky,Perry,2022-04-28 09:13:11,2021-12-21,1.6350241836423443,2.8431132887949015,5.259408221621802,,,,,,,,,,,,
21193,0,USKentuckyPerry,Kentucky,Perry,2022-04-28 09:13:11,2021-12-22,1.6350241836423443,2.8431132887949015,5.259408221621802,,,,,,,,,,,,
21193,0,USKentuckyPerry,Kentucky,Perry,2022-04-28 09:13:11,2021-12-23,1.9759651339661986,3.4825332424252156,6.535898571532595,,,,,,,,,,,,
21193,0,USKentuckyPerry,Kentucky,Perry,2022-04-28 09:13:11,2021-12-24,1.9759651339661986,3.4825332424252156,6.535898571532595,,,,,,,,,,,,
21193,0,USKentuckyPerry,Kentucky,Perry,2022-04-28 09:13:11,2021-12-25,1.9759651339661986,3.4825332424252156,6.535898571532595,,,,,,,,,,,,
21193,0,USKentuckyPerry,Kentucky,Perry,2022-04-28 09:13:11,2021-12-26,1.9759651339661986,3.4825332424252156,6.535898571532595,,,,,,,,,,,,
21193,0,USKentuckyPerry,Kentucky,Perry,2022-04-28 09:13:11,2021-12-27,1.9759651339661986,3.4825332424252156,6.535898571532595,,,,,,,,,,,,
21193,0,USKentuckyPerry,Kentucky,Perry,2022-04-28 09:13:11,2021-12-28,1.9759651339661986,3.4825332424252156,6.535898571532595,,,,,,,,,,,,
21193,0,USKentuckyPerry,Kentucky,Perry,2022-04-28 09:13:11,2021-12-29,1.9759651339661986,3.4825332424252156,6.535898571532595,,,,,,,,,,,,
21193,0,USKentuckyPerry,Kentucky,Perry,2022-04-28 09:13:11,2021-12-30,2.2658172890710193,4.402735321014442,9.161457901040759,,,,,,,,,,,,
21193,0,USKentuckyPerry,Kentucky,Perry,2022-04-28 09:13:11,2021-12-31,2.2658172890710193,4.402735321014442,9.161457901040759,,,,,,,,,,,,
21193,0,USKentuckyPerry,Kentucky,Perry,2022-04-28 09:13:11,2022-01-01,2.2658172890710193,4.402735321014442,9.161457901040759,,,,,,,,,,,,
21193,0,USKentuckyPerry,Kentucky,Perry,2022-04-28 09:13:11,2022-01-02,2.2658172890710193,4.402735321014442,9.161457901040759,,,,,,,,,,,,
21193,0,USKentuckyPerry,Kentucky,Perry,2022-04-28 09:13:11,2022-01-03,2.2658172890710193,4.402735321014442,9.161457901040759,,,,,,,,,,,,
21193,0,USKentuckyPerry,Kentucky,Perry,2022-04-28 09:13:11,2022-01-04,2.2658172890710193,4.402735321014442,9.161457901040759,,,,,,,,,,,,
21193,0,USKentuckyPerry,Kentucky,Perry,2022-04-28 09:13:11,2022-01-05,2.2658172890710193,4.402735321014442,9.161457901040759,,,,,,,,,,,,
21193,0,USKentuckyPerry,Kentucky,Perry,2022-04-28 09:13:11,2022-01-06,3.2366625427737814,5.921631491209353,11.564877630170598,,,,,,,,,,,,
21193,0,USKentuckyPerry,Kentucky,Perry,2022-04-28 09:13:11,2022-01-07,3.2366625427737814,5.921631491209353,11.564877630170598,,,,,,,,,,,,
21193,0,USKentuckyPerry,Kentucky,Perry,2022-04-28 09:13:11,2022-01-08,3.2366625427737814,5.921631491209353,11.564877630170598,,,,,,,,,,,,
21193,0,USKentuckyPerry,Kentucky,Perry,2022-04-28 09:13:11,2022-01-09,3.2366625427737814,5.921631491209353,11.564877630170598,,,,,,,,,,,,
21193,0,USKentuckyPerry,Kentucky,Perry,2022-04-28 09:13:11,2022-01-10,3.2366625427737814,5.921631491209353,11.564877630170598,,,,,,,,,,,,
21193,0,USKentuckyPerry,Kentucky,Perry,2022-04-28 09:13:11,2022-01-11,3.2366625427737814,5.921631491209353,11.564877630170598,,,,,,,,,,,,
21193,0,USKentuckyPerry,Kentucky,Perry,2022-04-28 09:13:11,2022-01-12,3.2366625427737814,5.921631491209353,11.564877630170598,,,,,,,,,,,,
21193,0,USKentuckyPerry,Kentucky,Perry,2022-04-28 09:13:11,2022-01-13,4.726846141374782,7.945016922333135,14.168861706038552,,,,,,,,,,,,
21193,0,USKentuckyPerry,Kentucky,Perry,2022-04-28 09:13:11,2022-01-14,4.726846141374782,7.945016922333135,14.168861706038552,,,,,,,,,,,,
21193,0,USKentuckyPerry,Kentucky,Perry,2022-04-28 09:13:11,2022-01-15,4.726846141374782,7.945016922333135,14.168861706038552,,,,,,,,,,,,
21193,0,USKentuckyPerry,Kentucky,Perry,2022-04-28 09:13:11,2022-01-16,4.726846141374782,7.945016922333135,14.168861706038552,,,,,,,,,,,,
21193,0,USKentuckyPerry,Kentucky,Perry,2022-04-28 09:13:11,2022-01-17,4.726846141374782,7.945016922333135,14.168861706038552,,,,,,,,,,,,
21193,0,USKentuckyPerry,Kentucky,Perry,2022-04-28 09:13:11,2022-01-18,4.726846141374782,7.945016922333135,14.168861706038552,,,,,,,,,,,,
21193,0,USKentuckyPerry,Kentucky,Perry,2022-04-28 09:13:11,2022-01-19,4.726846141374782,7.945016922333135,14.168861706038552,,,,,,,,,,,,
21193,0,USKentuckyPerry,Kentucky,Perry,2022-04-28 09:13:11,2022-01-20,6.63413250696495,10.510419770297313,17.572607234114766,,,,,,,,,,,,
21193,0,USKentuckyPerry,Kentucky,Perry,2022-04-28 09:13:11,2022-01-21,6.63413250696495,10.510419770297313,17.572607234114766,,,,,,,,,,,,
21193,0,USKentuckyPerry,Kentucky,Perry,2022-04-28 09:13:11,2022-01-22,6.63413250696495,10.510419770297313,17.572607234114766,,,,,,,,,,,,
21193,0,USKentuckyPerry,Kentucky,Perry,2022-04-28 09:13:11,2022-01-23,6.63413250696495,10.510419770297313,17.572607234114766,,,,,,,,,,,,
21193,0,USKentuckyPerry,Kentucky,Perry,2022-04-28 09:13:11,2022-01-24,6.63413250696495,10.510419770297313,17.572607234114766,,,,,,,,,,,,
21193,0,USKentuckyPerry,Kentucky,Perry,2022-04-28 09:13:11,2022-01-25,6.63413250696495,10.510419770297313,17.572607234114766,,,,,,,,,,,,
21193,0,USKentuckyPerry,Kentucky,Perry,2022-04-28 09:13:11,2022-01-26,6.63413250696495,10.510419770297313,17.572607234114766,,,,,,,,,,,,
21193,0,USKentuckyPerry,Kentucky,Perry,2022-04-28 09:13:11,2022-01-27,7.477575702641076,11.358500078030346,18.127992305050807,,,,,,,,,,,,
21193,0,USKentuckyPerry,Kentucky,Perry,2022-04-28 09:13:11,2022-01-28,7.477575702641076,11.358500078030346,18.127992305050807,,,,,,,,,,,,
21193,0,USKentuckyPerry,Kentucky,Perry,2022-04-28 09:13:11,2022-01-29,7.477575702641076,11.358500078030346,18.127992305050807,,,,,,,,,,,,
21193,0,USKentuckyPerry,Kentucky,Perry,2022-04-28 09:13:11,2022-01-30,7.477575702641076,11.358500078030346,18.127992305050807,,,,,,,,,,,,
21193,0,USKentuckyPerry,Kentucky,Perry,2022-04-28 09:13:11,2022-01-31,7.477575702641076,11.358500078030346,18.127992305050807,,,,,,,,,,,,
21193,0,USKentuckyPerry,Kentucky,Perry,2022-04-28 09:13:11,2022-02-01,7.477575702641076,11.358500078030346,18.127992305050807,,,,,,,,,,,,
21193,0,USKentuckyPerry,Kentucky,Perry,2022-04-28 09:13:11,2022-02-02,7.477575702641076,11.358500078030346,18.127992305050807,,,,,,,,,,,,
21193,0,USKentuckyPerry,Kentucky,Perry,2022-04-28 09:13:11,2022-02-03,7.033275892198003,10.761846165143577,17.315321669907345,,,,,,,,,,,,
21193,0,USKentuckyPerry,Kentucky,Perry,2022-04-28 09:13:11,2022-02-04,7.033275892198003,10.761846165143577,17.315321669907345,,,,,,,,,,,,
21193,0,USKentuckyPerry,Kentucky,Perry,2022-04-28 09:13:11,2022-02-05,7.033275892198003,10.761846165143577,17.315321669907345,,,,,,,,,,,,
21193,0,USKentuckyPerry,Kentucky,Perry,2022-04-28 09:13:11,2022-02-06,7.033275892198003,10.761846165143577,17.315321669907345,,,,,,,,,,,,
21193,0,USKentuckyPerry,Kentucky,Perry,2022-04-28 09:13:11,2022-02-07,7.033275892198003,10.761846165143577,17.315321669907345,,,,,,,,,,,,
21193,0,USKentuckyPerry,Kentucky,Perry,2022-04-28 09:13:11,2022-02-08,7.033275892198003,10.761846165143577,17.315321669907345,,,,,,,,,,,,
21193,0,USKentuckyPerry,Kentucky,Perry,2022-04-28 09:13:11,2022-02-09,7.033275892198003,10.761846165143577,17.315321669907345,,,,,,,,,,,,
21193,0,USKentuckyPerry,Kentucky,Perry,2022-04-28 09:13:11,2022-02-10,6.447989497361572,9.302323808326149,14.015646508475779,,,,,,,,,,,,
21193,0,USKentuckyPerry,Kentucky,Perry,2022-04-28 09:13:11,2022-02-11,6.447989497361572,9.302323808326149,14.015646508475779,,,,,,,,,,,,
21193,0,USKentuckyPerry,Kentucky,Perry,2022-04-28 09:13:11,2022-02-12,6.447989497361572,9.302323808326149,14.015646508475779,,,,,,,,,,,,
21193,0,USKentuckyPerry,Kentucky,Perry,2022-04-28 09:13:11,2022-02-13,6.447989497361572,9.302323808326149,14.015646508475779,,,,,,,,,,,,
21193,0,USKentuckyPerry,Kentucky,Perry,2022-04-28 09:13:11,2022-02-14,6.447989497361572,9.302323808326149,14.015646508475779,,,,,,,,,,,,
21193,0,USKentuckyPerry,Kentucky,Perry,2022-04-28 09:13:11,2022-02-15,6.447989497361572,9.302323808326149,14.015646508475779,,,,,,,,,,,,
21193,0,USKentuckyPerry,Kentucky,Perry,2022-04-28 09:13:11,2022-02-16,6.447989497361572,9.302323808326149,14.015646508475779,,,,,,,,,,,,
21193,0,USKentuckyPerry,Kentucky,Perry,2022-04-28 09:13:11,2022-02-17,5.286641535024251,7.61391489811043,11.449845291445222,,,,,,,,,,,,
21193,0,USKentuckyPerry,Kentucky,Perry,2022-04-28 09:13:11,2022-02-18,5.286641535024251,7.61391489811043,11.449845291445222,,,,,,,,,,,,
21193,0,USKentuckyPerry,Kentucky,Perry,2022-04-28 09:13:11,2022-02-19,5.286641535024251,7.61391489811043,11.449845291445222,,,,,,,,,,,,
21193,0,USKentuckyPerry,Kentucky,Perry,2022-04-28 09:13:11,2022-02-20,5.286641535024251,7.61391489811043,11.449845291445222,,,,,,,,,,,,
21193,0,USKentuckyPerry,Kentucky,Perry,2022-04-28 09:13:11,2022-02-21,5.286641535024251,7.61391489811043,11.449845291445222,,,,,,,,,,,,
21193,0,USKentuckyPerry,Kentucky,Perry,2022-04-28 09:13:11,2022-02-22,5.286641535024251,7.61391489811043,11.449845291445222,,,,,,,,,,,,
21193,0,USKentuckyPerry,Kentucky,Perry,2022-04-28 09:13:11,2022-02-23,5.286641535024251,7.61391489811043,11.449845291445222,,,,,,,,,,,,
21193,0,USKentuckyPerry,Kentucky,Perry,2022-04-28 09:13:11,2022-02-24,3.8697424124969335,5.619189429481933,8.528355655593552,,,,,,,,,,,,
21193,0,USKentuckyPerry,Kentucky,Perry,2022-04-28 09:13:11,2022-02-25,3.8697424124969335,5.619189429481933,8.528355655593552,,,,,,,,,,,,
21193,0,USKentuckyPerry,Kentucky,Perry,2022-04-28 09:13:11,2022-02-26,3.8697424124969335,5.619189429481933,8.528355655593552,,,,,,,,,,,,
21193,0,USKentuckyPerry,Kentucky,Perry,2022-04-28 09:13:11,2022-02-27,3.8697424124969335,5.619189429481933,8.528355655593552,,,,,,,,,,,,
21193,0,USKentuckyPerry,Kentucky,Perry,2022-04-28 09:13:11,2022-02-28,3.8697424124969335,5.619189429481933,8.528355655593552,,,,,,,,,,,,
21193,0,USKentuckyPerry,Kentucky,Perry,2022-04-28 09:13:11,2022-03-01,3.8697424124969335,5.619189429481933,8.528355655593552,,,,,,,,,,,,
21193,0,USKentuckyPerry,Kentucky,Perry,2022-04-28 09:13:11,2022-03-02,3.8697424124969335,5.619189429481933,8.528355655593552,,,,,,,,,,,,
21193,0,USKentuckyPerry,Kentucky,Perry,2022-04-28 09:13:11,2022-03-03,1.1464395207407443,2.2072555520513437,4.548950098906538,,,,,,,,,,,,
21193,0,USKentuckyPerry,Kentucky,Perry,2022-04-28 09:13:11,2022-03-04,1.1464395207407443,2.2072555520513437,4.548950098906538,,,,,,,,,,,,
21193,0,USKentuckyPerry,Kentucky,Perry,2022-04-28 09:13:11,2022-03-05,1.1464395207407443,2.2072555520513437,4.548950098906538,,,,,,,,,,,,
21193,0,USKentuckyPerry,Kentucky,Perry,2022-04-28 09:13:11,2022-03-06,1.1464395207407443,2.2072555520513437,4.548950098906538,,,,,,,,,,,,
21193,0,USKentuckyPerry,Kentucky,Perry,2022-04-28 09:13:11,2022-03-07,1.1464395207407443,2.2072555520513437,4.548950098906538,,,,,,,,,,,,
21193,0,USKentuckyPerry,Kentucky,Perry,2022-04-28 09:13:11,2022-03-08,1.1464395207407443,2.2072555520513437,4.548950098906538,,,,,,,,,,,,
21193,0,USKentuckyPerry,Kentucky,Perry,2022-04-28 09:13:11,2022-03-09,1.1464395207407443,2.2072555520513437,4.548950098906538,,,,,,,,,,,,
