FIPS,HR_UID,nameid,province,region,analysisTime,dates,pointprevalence_025,pointprevalence_50,pointprevalence_975,pointinfections_025,pointinfections_50,pointinfections_975,pointinfectious_025,pointinfectious_50,pointinfectious_975,pointinfectiousprevalence_025,pointinfectiousprevalence_50,pointinfectiousprevalence_975,infectrate_025,infectrate_50,infectrate_975
20185,0,USKansasStafford,Kansas,Stafford,2022-04-28 09:13:11,2020-03-19,0,0,0,,,,,,,,,,,,
20185,0,USKansasStafford,Kansas,Stafford,2022-04-28 09:13:11,2020-03-20,0,0,0,,,,,,,,,,,,
20185,0,USKansasStafford,Kansas,Stafford,2022-04-28 09:13:11,2020-03-21,0,0,0,,,,,,,,,,,,
20185,0,USKansasStafford,Kansas,Stafford,2022-04-28 09:13:11,2020-03-22,0,0,0,,,,,,,,,,,,
20185,0,USKansasStafford,Kansas,Stafford,2022-04-28 09:13:11,2020-03-23,0,0,0,,,,,,,,,,,,
20185,0,USKansasStafford,Kansas,Stafford,2022-04-28 09:13:11,2020-03-24,0,0,0,,,,,,,,,,,,
20185,0,USKansasStafford,Kansas,Stafford,2022-04-28 09:13:11,2020-03-25,0,0,0,,,,,,,,,,,,
20185,0,USKansasStafford,Kansas,Stafford,2022-04-28 09:13:11,2020-03-26,0.1728778906903363,0.5254810321963513,1.713536884513422,,,,,,,,,,,,
20185,0,USKansasStafford,Kansas,Stafford,2022-04-28 09:13:11,2020-03-27,0.1728778906903363,0.5254810321963513,1.713536884513422,,,,,,,,,,,,
20185,0,USKansasStafford,Kansas,Stafford,2022-04-28 09:13:11,2020-03-28,0.1728778906903363,0.5254810321963513,1.713536884513422,,,,,,,,,,,,
20185,0,USKansasStafford,Kansas,Stafford,2022-04-28 09:13:11,2020-03-29,0.1728778906903363,0.5254810321963513,1.713536884513422,,,,,,,,,,,,
20185,0,USKansasStafford,Kansas,Stafford,2022-04-28 09:13:11,2020-03-30,0.1728778906903363,0.5254810321963513,1.713536884513422,,,,,,,,,,,,
20185,0,USKansasStafford,Kansas,Stafford,2022-04-28 09:13:11,2020-03-31,0.1728778906903363,0.5254810321963513,1.713536884513422,,,,,,,,,,,,
20185,0,USKansasStafford,Kansas,Stafford,2022-04-28 09:13:11,2020-04-01,0.1728778906903363,0.5254810321963513,1.713536884513422,,,,,,,,,,,,
20185,0,USKansasStafford,Kansas,Stafford,2022-04-28 09:13:11,2020-04-02,0,0,0,,,,,,,,,,,,
20185,0,USKansasStafford,Kansas,Stafford,2022-04-28 09:13:11,2020-04-03,0,0,0,,,,,,,,,,,,
20185,0,USKansasStafford,Kansas,Stafford,2022-04-28 09:13:11,2020-04-04,0,0,0,,,,,,,,,,,,
20185,0,USKansasStafford,Kansas,Stafford,2022-04-28 09:13:11,2020-04-05,0,0,0,,,,,,,,,,,,
20185,0,USKansasStafford,Kansas,Stafford,2022-04-28 09:13:11,2020-04-06,0,0,0,,,,,,,,,,,,
20185,0,USKansasStafford,Kansas,Stafford,2022-04-28 09:13:11,2020-04-07,0,0,0,,,,,,,,,,,,
20185,0,USKansasStafford,Kansas,Stafford,2022-04-28 09:13:11,2020-04-08,0,0,0,,,,,,,,,,,,
20185,0,USKansasStafford,Kansas,Stafford,2022-04-28 09:13:11,2020-04-09,0,0,0,,,,,,,,,,,,
20185,0,USKansasStafford,Kansas,Stafford,2022-04-28 09:13:11,2020-04-10,0,0,0,,,,,,,,,,,,
20185,0,USKansasStafford,Kansas,Stafford,2022-04-28 09:13:11,2020-04-11,0,0,0,,,,,,,,,,,,
20185,0,USKansasStafford,Kansas,Stafford,2022-04-28 09:13:11,2020-04-12,0,0,0,,,,,,,,,,,,
20185,0,USKansasStafford,Kansas,Stafford,2022-04-28 09:13:11,2020-04-13,0,0,0,,,,,,,,,,,,
20185,0,USKansasStafford,Kansas,Stafford,2022-04-28 09:13:11,2020-04-14,0,0,0,,,,,,,,,,,,
20185,0,USKansasStafford,Kansas,Stafford,2022-04-28 09:13:11,2020-04-15,0,0,0,,,,,,,,,,,,
20185,0,USKansasStafford,Kansas,Stafford,2022-04-28 09:13:11,2020-04-16,0,0,0,,,,,,,,,,,,
20185,0,USKansasStafford,Kansas,Stafford,2022-04-28 09:13:11,2020-04-17,0,0,0,,,,,,,,,,,,
20185,0,USKansasStafford,Kansas,Stafford,2022-04-28 09:13:11,2020-04-18,0,0,0,,,,,,,,,,,,
20185,0,USKansasStafford,Kansas,Stafford,2022-04-28 09:13:11,2020-04-19,0,0,0,,,,,,,,,,,,
20185,0,USKansasStafford,Kansas,Stafford,2022-04-28 09:13:11,2020-04-20,0,0,0,,,,,,,,,,,,
20185,0,USKansasStafford,Kansas,Stafford,2022-04-28 09:13:11,2020-04-21,0,0,0,,,,,,,,,,,,
20185,0,USKansasStafford,Kansas,Stafford,2022-04-28 09:13:11,2020-04-22,0,0,0,,,,,,,,,,,,
20185,0,USKansasStafford,Kansas,Stafford,2022-04-28 09:13:11,2020-04-23,0,0,0,,,,,,,,,,,,
20185,0,USKansasStafford,Kansas,Stafford,2022-04-28 09:13:11,2020-04-24,0,0,0,,,,,,,,,,,,
20185,0,USKansasStafford,Kansas,Stafford,2022-04-28 09:13:11,2020-04-25,0,0,0,,,,,,,,,,,,
20185,0,USKansasStafford,Kansas,Stafford,2022-04-28 09:13:11,2020-04-26,0,0,0,,,,,,,,,,,,
20185,0,USKansasStafford,Kansas,Stafford,2022-04-28 09:13:11,2020-04-27,0,0,0,,,,,,,,,,,,
20185,0,USKansasStafford,Kansas,Stafford,2022-04-28 09:13:11,2020-04-28,0,0,0,,,,,,,,,,,,
20185,0,USKansasStafford,Kansas,Stafford,2022-04-28 09:13:11,2020-04-29,0,0,0,,,,,,,,,,,,
20185,0,USKansasStafford,Kansas,Stafford,2022-04-28 09:13:11,2020-04-30,0,0,0,,,,,,,,,,,,
20185,0,USKansasStafford,Kansas,Stafford,2022-04-28 09:13:11,2020-05-01,0,0,0,,,,,,,,,,,,
20185,0,USKansasStafford,Kansas,Stafford,2022-04-28 09:13:11,2020-05-02,0,0,0,,,,,,,,,,,,
20185,0,USKansasStafford,Kansas,Stafford,2022-04-28 09:13:11,2020-05-03,0,0,0,,,,,,,,,,,,
20185,0,USKansasStafford,Kansas,Stafford,2022-04-28 09:13:11,2020-05-04,0,0,0,,,,,,,,,,,,
20185,0,USKansasStafford,Kansas,Stafford,2022-04-28 09:13:11,2020-05-05,0,0,0,,,,,,,,,,,,
20185,0,USKansasStafford,Kansas,Stafford,2022-04-28 09:13:11,2020-05-06,0,0,0,,,,,,,,,,,,
20185,0,USKansasStafford,Kansas,Stafford,2022-04-28 09:13:11,2020-05-07,0,0,0,,,,,,,,,,,,
20185,0,USKansasStafford,Kansas,Stafford,2022-04-28 09:13:11,2020-05-08,0,0,0,,,,,,,,,,,,
20185,0,USKansasStafford,Kansas,Stafford,2022-04-28 09:13:11,2020-05-09,0,0,0,,,,,,,,,,,,
20185,0,USKansasStafford,Kansas,Stafford,2022-04-28 09:13:11,2020-05-10,0,0,0,,,,,,,,,,,,
20185,0,USKansasStafford,Kansas,Stafford,2022-04-28 09:13:11,2020-05-11,0,0,0,,,,,,,,,,,,
20185,0,USKansasStafford,Kansas,Stafford,2022-04-28 09:13:11,2020-05-12,0,0,0,,,,,,,,,,,,
20185,0,USKansasStafford,Kansas,Stafford,2022-04-28 09:13:11,2020-05-13,0,0,0,,,,,,,,,,,,
20185,0,USKansasStafford,Kansas,Stafford,2022-04-28 09:13:11,2020-05-14,0,0,0,,,,,,,,,,,,
20185,0,USKansasStafford,Kansas,Stafford,2022-04-28 09:13:11,2020-05-15,0,0,0,,,,,,,,,,,,
20185,0,USKansasStafford,Kansas,Stafford,2022-04-28 09:13:11,2020-05-16,0,0,0,,,,,,,,,,,,
20185,0,USKansasStafford,Kansas,Stafford,2022-04-28 09:13:11,2020-05-17,0,0,0,,,,,,,,,,,,
20185,0,USKansasStafford,Kansas,Stafford,2022-04-28 09:13:11,2020-05-18,0,0,0,,,,,,,,,,,,
20185,0,USKansasStafford,Kansas,Stafford,2022-04-28 09:13:11,2020-05-19,0,0,0,,,,,,,,,,,,
20185,0,USKansasStafford,Kansas,Stafford,2022-04-28 09:13:11,2020-05-20,0,0,0,,,,,,,,,,,,
20185,0,USKansasStafford,Kansas,Stafford,2022-04-28 09:13:11,2020-05-21,0,0,0,,,,,,,,,,,,
20185,0,USKansasStafford,Kansas,Stafford,2022-04-28 09:13:11,2020-05-22,0,0,0,,,,,,,,,,,,
20185,0,USKansasStafford,Kansas,Stafford,2022-04-28 09:13:11,2020-05-23,0,0,0,,,,,,,,,,,,
20185,0,USKansasStafford,Kansas,Stafford,2022-04-28 09:13:11,2020-05-24,0,0,0,,,,,,,,,,,,
20185,0,USKansasStafford,Kansas,Stafford,2022-04-28 09:13:11,2020-05-25,0,0,0,,,,,,,,,,,,
20185,0,USKansasStafford,Kansas,Stafford,2022-04-28 09:13:11,2020-05-26,0,0,0,,,,,,,,,,,,
20185,0,USKansasStafford,Kansas,Stafford,2022-04-28 09:13:11,2020-05-27,0,0,0,,,,,,,,,,,,
20185,0,USKansasStafford,Kansas,Stafford,2022-04-28 09:13:11,2020-05-28,0,0,0,,,,,,,,,,,,
20185,0,USKansasStafford,Kansas,Stafford,2022-04-28 09:13:11,2020-05-29,0,0,0,,,,,,,,,,,,
20185,0,USKansasStafford,Kansas,Stafford,2022-04-28 09:13:11,2020-05-30,0,0,0,,,,,,,,,,,,
20185,0,USKansasStafford,Kansas,Stafford,2022-04-28 09:13:11,2020-05-31,0,0,0,,,,,,,,,,,,
20185,0,USKansasStafford,Kansas,Stafford,2022-04-28 09:13:11,2020-06-01,0,0,0,,,,,,,,,,,,
20185,0,USKansasStafford,Kansas,Stafford,2022-04-28 09:13:11,2020-06-02,0,0,0,,,,,,,,,,,,
20185,0,USKansasStafford,Kansas,Stafford,2022-04-28 09:13:11,2020-06-03,0,0,0,,,,,,,,,,,,
20185,0,USKansasStafford,Kansas,Stafford,2022-04-28 09:13:11,2020-06-04,0,0,0,,,,,,,,,,,,
20185,0,USKansasStafford,Kansas,Stafford,2022-04-28 09:13:11,2020-06-05,0,0,0,,,,,,,,,,,,
20185,0,USKansasStafford,Kansas,Stafford,2022-04-28 09:13:11,2020-06-06,0,0,0,,,,,,,,,,,,
20185,0,USKansasStafford,Kansas,Stafford,2022-04-28 09:13:11,2020-06-07,0,0,0,,,,,,,,,,,,
20185,0,USKansasStafford,Kansas,Stafford,2022-04-28 09:13:11,2020-06-08,0,0,0,,,,,,,,,,,,
20185,0,USKansasStafford,Kansas,Stafford,2022-04-28 09:13:11,2020-06-09,0,0,0,,,,,,,,,,,,
20185,0,USKansasStafford,Kansas,Stafford,2022-04-28 09:13:11,2020-06-10,0,0,0,,,,,,,,,,,,
20185,0,USKansasStafford,Kansas,Stafford,2022-04-28 09:13:11,2020-06-11,0,0,0,,,,,,,,,,,,
20185,0,USKansasStafford,Kansas,Stafford,2022-04-28 09:13:11,2020-06-12,0,0,0,,,,,,,,,,,,
20185,0,USKansasStafford,Kansas,Stafford,2022-04-28 09:13:11,2020-06-13,0,0,0,,,,,,,,,,,,
20185,0,USKansasStafford,Kansas,Stafford,2022-04-28 09:13:11,2020-06-14,0,0,0,,,,,,,,,,,,
20185,0,USKansasStafford,Kansas,Stafford,2022-04-28 09:13:11,2020-06-15,0,0,0,,,,,,,,,,,,
20185,0,USKansasStafford,Kansas,Stafford,2022-04-28 09:13:11,2020-06-16,0,0,0,,,,,,,,,,,,
20185,0,USKansasStafford,Kansas,Stafford,2022-04-28 09:13:11,2020-06-17,0,0,0,,,,,,,,,,,,
20185,0,USKansasStafford,Kansas,Stafford,2022-04-28 09:13:11,2020-06-18,0,0,0,,,,,,,,,,,,
20185,0,USKansasStafford,Kansas,Stafford,2022-04-28 09:13:11,2020-06-19,0,0,0,,,,,,,,,,,,
20185,0,USKansasStafford,Kansas,Stafford,2022-04-28 09:13:11,2020-06-20,0,0,0,,,,,,,,,,,,
20185,0,USKansasStafford,Kansas,Stafford,2022-04-28 09:13:11,2020-06-21,0,0,0,,,,,,,,,,,,
20185,0,USKansasStafford,Kansas,Stafford,2022-04-28 09:13:11,2020-06-22,0,0,0,,,,,,,,,,,,
20185,0,USKansasStafford,Kansas,Stafford,2022-04-28 09:13:11,2020-06-23,0,0,0,,,,,,,,,,,,
20185,0,USKansasStafford,Kansas,Stafford,2022-04-28 09:13:11,2020-06-24,0,0,0,,,,,,,,,,,,
20185,0,USKansasStafford,Kansas,Stafford,2022-04-28 09:13:11,2020-06-25,0,0,0,,,,,,,,,,,,
20185,0,USKansasStafford,Kansas,Stafford,2022-04-28 09:13:11,2020-06-26,0,0,0,,,,,,,,,,,,
20185,0,USKansasStafford,Kansas,Stafford,2022-04-28 09:13:11,2020-06-27,0,0,0,,,,,,,,,,,,
20185,0,USKansasStafford,Kansas,Stafford,2022-04-28 09:13:11,2020-06-28,0,0,0,,,,,,,,,,,,
20185,0,USKansasStafford,Kansas,Stafford,2022-04-28 09:13:11,2020-06-29,0,0,0,,,,,,,,,,,,
20185,0,USKansasStafford,Kansas,Stafford,2022-04-28 09:13:11,2020-06-30,0,0,0,,,,,,,,,,,,
20185,0,USKansasStafford,Kansas,Stafford,2022-04-28 09:13:11,2020-07-01,0,0,0,,,,,,,,,,,,
20185,0,USKansasStafford,Kansas,Stafford,2022-04-28 09:13:11,2020-07-02,0,0,0,,,,,,,,,,,,
20185,0,USKansasStafford,Kansas,Stafford,2022-04-28 09:13:11,2020-07-03,0,0,0,,,,,,,,,,,,
20185,0,USKansasStafford,Kansas,Stafford,2022-04-28 09:13:11,2020-07-04,0,0,0,,,,,,,,,,,,
20185,0,USKansasStafford,Kansas,Stafford,2022-04-28 09:13:11,2020-07-05,0,0,0,,,,,,,,,,,,
20185,0,USKansasStafford,Kansas,Stafford,2022-04-28 09:13:11,2020-07-06,0,0,0,,,,,,,,,,,,
20185,0,USKansasStafford,Kansas,Stafford,2022-04-28 09:13:11,2020-07-07,0,0,0,,,,,,,,,,,,
20185,0,USKansasStafford,Kansas,Stafford,2022-04-28 09:13:11,2020-07-08,0,0,0,,,,,,,,,,,,
20185,0,USKansasStafford,Kansas,Stafford,2022-04-28 09:13:11,2020-07-09,0.17407096341243855,0.5321987903079364,1.745310169592265,,,,,,,,,,,,
20185,0,USKansasStafford,Kansas,Stafford,2022-04-28 09:13:11,2020-07-10,0.17407096341243855,0.5321987903079364,1.745310169592265,,,,,,,,,,,,
20185,0,USKansasStafford,Kansas,Stafford,2022-04-28 09:13:11,2020-07-11,0.17407096341243855,0.5321987903079364,1.745310169592265,,,,,,,,,,,,
20185,0,USKansasStafford,Kansas,Stafford,2022-04-28 09:13:11,2020-07-12,0.17407096341243855,0.5321987903079364,1.745310169592265,,,,,,,,,,,,
20185,0,USKansasStafford,Kansas,Stafford,2022-04-28 09:13:11,2020-07-13,0.17407096341243855,0.5321987903079364,1.745310169592265,,,,,,,,,,,,
20185,0,USKansasStafford,Kansas,Stafford,2022-04-28 09:13:11,2020-07-14,0.17407096341243855,0.5321987903079364,1.745310169592265,,,,,,,,,,,,
20185,0,USKansasStafford,Kansas,Stafford,2022-04-28 09:13:11,2020-07-15,0.17407096341243855,0.5321987903079364,1.745310169592265,,,,,,,,,,,,
20185,0,USKansasStafford,Kansas,Stafford,2022-04-28 09:13:11,2020-07-16,0,0,0,,,,,,,,,,,,
20185,0,USKansasStafford,Kansas,Stafford,2022-04-28 09:13:11,2020-07-17,0,0,0,,,,,,,,,,,,
20185,0,USKansasStafford,Kansas,Stafford,2022-04-28 09:13:11,2020-07-18,0,0,0,,,,,,,,,,,,
20185,0,USKansasStafford,Kansas,Stafford,2022-04-28 09:13:11,2020-07-19,0,0,0,,,,,,,,,,,,
20185,0,USKansasStafford,Kansas,Stafford,2022-04-28 09:13:11,2020-07-20,0,0,0,,,,,,,,,,,,
20185,0,USKansasStafford,Kansas,Stafford,2022-04-28 09:13:11,2020-07-21,0,0,0,,,,,,,,,,,,
20185,0,USKansasStafford,Kansas,Stafford,2022-04-28 09:13:11,2020-07-22,0,0,0,,,,,,,,,,,,
20185,0,USKansasStafford,Kansas,Stafford,2022-04-28 09:13:11,2020-07-23,0.19629706071565162,0.6637787383950899,2.400099684869855,,,,,,,,,,,,
20185,0,USKansasStafford,Kansas,Stafford,2022-04-28 09:13:11,2020-07-24,0.19629706071565162,0.6637787383950899,2.400099684869855,,,,,,,,,,,,
20185,0,USKansasStafford,Kansas,Stafford,2022-04-28 09:13:11,2020-07-25,0.19629706071565162,0.6637787383950899,2.400099684869855,,,,,,,,,,,,
20185,0,USKansasStafford,Kansas,Stafford,2022-04-28 09:13:11,2020-07-26,0.19629706071565162,0.6637787383950899,2.400099684869855,,,,,,,,,,,,
20185,0,USKansasStafford,Kansas,Stafford,2022-04-28 09:13:11,2020-07-27,0.19629706071565162,0.6637787383950899,2.400099684869855,,,,,,,,,,,,
20185,0,USKansasStafford,Kansas,Stafford,2022-04-28 09:13:11,2020-07-28,0.19629706071565162,0.6637787383950899,2.400099684869855,,,,,,,,,,,,
20185,0,USKansasStafford,Kansas,Stafford,2022-04-28 09:13:11,2020-07-29,0.19629706071565162,0.6637787383950899,2.400099684869855,,,,,,,,,,,,
20185,0,USKansasStafford,Kansas,Stafford,2022-04-28 09:13:11,2020-07-30,0,0,0,,,,,,,,,,,,
20185,0,USKansasStafford,Kansas,Stafford,2022-04-28 09:13:11,2020-07-31,0,0,0,,,,,,,,,,,,
20185,0,USKansasStafford,Kansas,Stafford,2022-04-28 09:13:11,2020-08-01,0,0,0,,,,,,,,,,,,
20185,0,USKansasStafford,Kansas,Stafford,2022-04-28 09:13:11,2020-08-02,0,0,0,,,,,,,,,,,,
20185,0,USKansasStafford,Kansas,Stafford,2022-04-28 09:13:11,2020-08-03,0,0,0,,,,,,,,,,,,
20185,0,USKansasStafford,Kansas,Stafford,2022-04-28 09:13:11,2020-08-04,0,0,0,,,,,,,,,,,,
20185,0,USKansasStafford,Kansas,Stafford,2022-04-28 09:13:11,2020-08-05,0,0,0,,,,,,,,,,,,
20185,0,USKansasStafford,Kansas,Stafford,2022-04-28 09:13:11,2020-08-06,0.3978227121333935,0.9612381117190393,2.4994690776353043,,,,,,,,,,,,
20185,0,USKansasStafford,Kansas,Stafford,2022-04-28 09:13:11,2020-08-07,0.3978227121333935,0.9612381117190393,2.4994690776353043,,,,,,,,,,,,
20185,0,USKansasStafford,Kansas,Stafford,2022-04-28 09:13:11,2020-08-08,0.3978227121333935,0.9612381117190393,2.4994690776353043,,,,,,,,,,,,
20185,0,USKansasStafford,Kansas,Stafford,2022-04-28 09:13:11,2020-08-09,0.3978227121333935,0.9612381117190393,2.4994690776353043,,,,,,,,,,,,
20185,0,USKansasStafford,Kansas,Stafford,2022-04-28 09:13:11,2020-08-10,0.3978227121333935,0.9612381117190393,2.4994690776353043,,,,,,,,,,,,
20185,0,USKansasStafford,Kansas,Stafford,2022-04-28 09:13:11,2020-08-11,0.3978227121333935,0.9612381117190393,2.4994690776353043,,,,,,,,,,,,
20185,0,USKansasStafford,Kansas,Stafford,2022-04-28 09:13:11,2020-08-12,0.3978227121333935,0.9612381117190393,2.4994690776353043,,,,,,,,,,,,
20185,0,USKansasStafford,Kansas,Stafford,2022-04-28 09:13:11,2020-08-13,0.7920497052739336,1.6609392077787852,3.740454985166877,,,,,,,,,,,,
20185,0,USKansasStafford,Kansas,Stafford,2022-04-28 09:13:11,2020-08-14,0.7920497052739336,1.6609392077787852,3.740454985166877,,,,,,,,,,,,
20185,0,USKansasStafford,Kansas,Stafford,2022-04-28 09:13:11,2020-08-15,0.7920497052739336,1.6609392077787852,3.740454985166877,,,,,,,,,,,,
20185,0,USKansasStafford,Kansas,Stafford,2022-04-28 09:13:11,2020-08-16,0.7920497052739336,1.6609392077787852,3.740454985166877,,,,,,,,,,,,
20185,0,USKansasStafford,Kansas,Stafford,2022-04-28 09:13:11,2020-08-17,0.7920497052739336,1.6609392077787852,3.740454985166877,,,,,,,,,,,,
20185,0,USKansasStafford,Kansas,Stafford,2022-04-28 09:13:11,2020-08-18,0.7920497052739336,1.6609392077787852,3.740454985166877,,,,,,,,,,,,
20185,0,USKansasStafford,Kansas,Stafford,2022-04-28 09:13:11,2020-08-19,0.7920497052739336,1.6609392077787852,3.740454985166877,,,,,,,,,,,,
20185,0,USKansasStafford,Kansas,Stafford,2022-04-28 09:13:11,2020-08-20,0.6809061859395795,1.4316755466159867,3.2329876533819593,,,,,,,,,,,,
20185,0,USKansasStafford,Kansas,Stafford,2022-04-28 09:13:11,2020-08-21,0.6809061859395795,1.4316755466159867,3.2329876533819593,,,,,,,,,,,,
20185,0,USKansasStafford,Kansas,Stafford,2022-04-28 09:13:11,2020-08-22,0.6809061859395795,1.4316755466159867,3.2329876533819593,,,,,,,,,,,,
20185,0,USKansasStafford,Kansas,Stafford,2022-04-28 09:13:11,2020-08-23,0.6809061859395795,1.4316755466159867,3.2329876533819593,,,,,,,,,,,,
20185,0,USKansasStafford,Kansas,Stafford,2022-04-28 09:13:11,2020-08-24,0.6809061859395795,1.4316755466159867,3.2329876533819593,,,,,,,,,,,,
20185,0,USKansasStafford,Kansas,Stafford,2022-04-28 09:13:11,2020-08-25,0.6809061859395795,1.4316755466159867,3.2329876533819593,,,,,,,,,,,,
20185,0,USKansasStafford,Kansas,Stafford,2022-04-28 09:13:11,2020-08-26,0.6809061859395795,1.4316755466159867,3.2329876533819593,,,,,,,,,,,,
20185,0,USKansasStafford,Kansas,Stafford,2022-04-28 09:13:11,2020-08-27,2.087952969910141,3.5821454689192436,6.531247399570719,,,,,,,,,,,,
20185,0,USKansasStafford,Kansas,Stafford,2022-04-28 09:13:11,2020-08-28,2.087952969910141,3.5821454689192436,6.531247399570719,,,,,,,,,,,,
20185,0,USKansasStafford,Kansas,Stafford,2022-04-28 09:13:11,2020-08-29,2.087952969910141,3.5821454689192436,6.531247399570719,,,,,,,,,,,,
20185,0,USKansasStafford,Kansas,Stafford,2022-04-28 09:13:11,2020-08-30,2.087952969910141,3.5821454689192436,6.531247399570719,,,,,,,,,,,,
20185,0,USKansasStafford,Kansas,Stafford,2022-04-28 09:13:11,2020-08-31,2.087952969910141,3.5821454689192436,6.531247399570719,,,,,,,,,,,,
20185,0,USKansasStafford,Kansas,Stafford,2022-04-28 09:13:11,2020-09-01,2.087952969910141,3.5821454689192436,6.531247399570719,,,,,,,,,,,,
20185,0,USKansasStafford,Kansas,Stafford,2022-04-28 09:13:11,2020-09-02,2.087952969910141,3.5821454689192436,6.531247399570719,,,,,,,,,,,,
20185,0,USKansasStafford,Kansas,Stafford,2022-04-28 09:13:11,2020-09-03,0.19206337988702327,0.6377861634928065,2.266048782255829,,,,,,,,,,,,
20185,0,USKansasStafford,Kansas,Stafford,2022-04-28 09:13:11,2020-09-04,0.19206337988702327,0.6377861634928065,2.266048782255829,,,,,,,,,,,,
20185,0,USKansasStafford,Kansas,Stafford,2022-04-28 09:13:11,2020-09-05,0.19206337988702327,0.6377861634928065,2.266048782255829,,,,,,,,,,,,
20185,0,USKansasStafford,Kansas,Stafford,2022-04-28 09:13:11,2020-09-06,0.19206337988702327,0.6377861634928065,2.266048782255829,,,,,,,,,,,,
20185,0,USKansasStafford,Kansas,Stafford,2022-04-28 09:13:11,2020-09-07,0.19206337988702327,0.6377861634928065,2.266048782255829,,,,,,,,,,,,
20185,0,USKansasStafford,Kansas,Stafford,2022-04-28 09:13:11,2020-09-08,0.19206337988702327,0.6377861634928065,2.266048782255829,,,,,,,,,,,,
20185,0,USKansasStafford,Kansas,Stafford,2022-04-28 09:13:11,2020-09-09,0.19206337988702327,0.6377861634928065,2.266048782255829,,,,,,,,,,,,
20185,0,USKansasStafford,Kansas,Stafford,2022-04-28 09:13:11,2020-09-10,0.9913206403124054,2.0288951194543743,4.455999388182157,,,,,,,,,,,,
20185,0,USKansasStafford,Kansas,Stafford,2022-04-28 09:13:11,2020-09-11,0.9913206403124054,2.0288951194543743,4.455999388182157,,,,,,,,,,,,
20185,0,USKansasStafford,Kansas,Stafford,2022-04-28 09:13:11,2020-09-12,0.9913206403124054,2.0288951194543743,4.455999388182157,,,,,,,,,,,,
20185,0,USKansasStafford,Kansas,Stafford,2022-04-28 09:13:11,2020-09-13,0.9913206403124054,2.0288951194543743,4.455999388182157,,,,,,,,,,,,
20185,0,USKansasStafford,Kansas,Stafford,2022-04-28 09:13:11,2020-09-14,0.9913206403124054,2.0288951194543743,4.455999388182157,,,,,,,,,,,,
20185,0,USKansasStafford,Kansas,Stafford,2022-04-28 09:13:11,2020-09-15,0.9913206403124054,2.0288951194543743,4.455999388182157,,,,,,,,,,,,
20185,0,USKansasStafford,Kansas,Stafford,2022-04-28 09:13:11,2020-09-16,0.9913206403124054,2.0288951194543743,4.455999388182157,,,,,,,,,,,,
20185,0,USKansasStafford,Kansas,Stafford,2022-04-28 09:13:11,2020-09-17,0.5385213958051234,1.3186961666087536,3.475102164716025,,,,,,,,,,,,
20185,0,USKansasStafford,Kansas,Stafford,2022-04-28 09:13:11,2020-09-18,0.5385213958051234,1.3186961666087536,3.475102164716025,,,,,,,,,,,,
20185,0,USKansasStafford,Kansas,Stafford,2022-04-28 09:13:11,2020-09-19,0.5385213958051234,1.3186961666087536,3.475102164716025,,,,,,,,,,,,
20185,0,USKansasStafford,Kansas,Stafford,2022-04-28 09:13:11,2020-09-20,0.5385213958051234,1.3186961666087536,3.475102164716025,,,,,,,,,,,,
20185,0,USKansasStafford,Kansas,Stafford,2022-04-28 09:13:11,2020-09-21,0.5385213958051234,1.3186961666087536,3.475102164716025,,,,,,,,,,,,
20185,0,USKansasStafford,Kansas,Stafford,2022-04-28 09:13:11,2020-09-22,0.5385213958051234,1.3186961666087536,3.475102164716025,,,,,,,,,,,,
20185,0,USKansasStafford,Kansas,Stafford,2022-04-28 09:13:11,2020-09-23,0.5385213958051234,1.3186961666087536,3.475102164716025,,,,,,,,,,,,
20185,0,USKansasStafford,Kansas,Stafford,2022-04-28 09:13:11,2020-09-24,0.4336475155166459,1.1301597349295645,3.1688000402157543,,,,,,,,,,,,
20185,0,USKansasStafford,Kansas,Stafford,2022-04-28 09:13:11,2020-09-25,0.4336475155166459,1.1301597349295645,3.1688000402157543,,,,,,,,,,,,
20185,0,USKansasStafford,Kansas,Stafford,2022-04-28 09:13:11,2020-09-26,0.4336475155166459,1.1301597349295645,3.1688000402157543,,,,,,,,,,,,
20185,0,USKansasStafford,Kansas,Stafford,2022-04-28 09:13:11,2020-09-27,0.4336475155166459,1.1301597349295645,3.1688000402157543,,,,,,,,,,,,
20185,0,USKansasStafford,Kansas,Stafford,2022-04-28 09:13:11,2020-09-28,0.4336475155166459,1.1301597349295645,3.1688000402157543,,,,,,,,,,,,
20185,0,USKansasStafford,Kansas,Stafford,2022-04-28 09:13:11,2020-09-29,0.4336475155166459,1.1301597349295645,3.1688000402157543,,,,,,,,,,,,
20185,0,USKansasStafford,Kansas,Stafford,2022-04-28 09:13:11,2020-09-30,0.4336475155166459,1.1301597349295645,3.1688000402157543,,,,,,,,,,,,
20185,0,USKansasStafford,Kansas,Stafford,2022-04-28 09:13:11,2020-10-01,0.7261988952953164,1.61784259034029,3.875915350411853,,,,,,,,,,,,
20185,0,USKansasStafford,Kansas,Stafford,2022-04-28 09:13:11,2020-10-02,0.7261988952953164,1.61784259034029,3.875915350411853,,,,,,,,,,,,
20185,0,USKansasStafford,Kansas,Stafford,2022-04-28 09:13:11,2020-10-03,0.7261988952953164,1.61784259034029,3.875915350411853,,,,,,,,,,,,
20185,0,USKansasStafford,Kansas,Stafford,2022-04-28 09:13:11,2020-10-04,0.7261988952953164,1.61784259034029,3.875915350411853,,,,,,,,,,,,
20185,0,USKansasStafford,Kansas,Stafford,2022-04-28 09:13:11,2020-10-05,0.7261988952953164,1.61784259034029,3.875915350411853,,,,,,,,,,,,
20185,0,USKansasStafford,Kansas,Stafford,2022-04-28 09:13:11,2020-10-06,0.7261988952953164,1.61784259034029,3.875915350411853,,,,,,,,,,,,
20185,0,USKansasStafford,Kansas,Stafford,2022-04-28 09:13:11,2020-10-07,0.7261988952953164,1.61784259034029,3.875915350411853,,,,,,,,,,,,
20185,0,USKansasStafford,Kansas,Stafford,2022-04-28 09:13:11,2020-10-08,0.5515058313624174,1.3790946791150445,3.7111076855819896,,,,,,,,,,,,
20185,0,USKansasStafford,Kansas,Stafford,2022-04-28 09:13:11,2020-10-09,0.5515058313624174,1.3790946791150445,3.7111076855819896,,,,,,,,,,,,
20185,0,USKansasStafford,Kansas,Stafford,2022-04-28 09:13:11,2020-10-10,0.5515058313624174,1.3790946791150445,3.7111076855819896,,,,,,,,,,,,
20185,0,USKansasStafford,Kansas,Stafford,2022-04-28 09:13:11,2020-10-11,0.5515058313624174,1.3790946791150445,3.7111076855819896,,,,,,,,,,,,
20185,0,USKansasStafford,Kansas,Stafford,2022-04-28 09:13:11,2020-10-12,0.5515058313624174,1.3790946791150445,3.7111076855819896,,,,,,,,,,,,
20185,0,USKansasStafford,Kansas,Stafford,2022-04-28 09:13:11,2020-10-13,0.5515058313624174,1.3790946791150445,3.7111076855819896,,,,,,,,,,,,
20185,0,USKansasStafford,Kansas,Stafford,2022-04-28 09:13:11,2020-10-14,0.5515058313624174,1.3790946791150445,3.7111076855819896,,,,,,,,,,,,
20185,0,USKansasStafford,Kansas,Stafford,2022-04-28 09:13:11,2020-10-15,0.5779587681736822,1.5057192175039842,4.220312415379176,,,,,,,,,,,,
20185,0,USKansasStafford,Kansas,Stafford,2022-04-28 09:13:11,2020-10-16,0.5779587681736822,1.5057192175039842,4.220312415379176,,,,,,,,,,,,
20185,0,USKansasStafford,Kansas,Stafford,2022-04-28 09:13:11,2020-10-17,0.5779587681736822,1.5057192175039842,4.220312415379176,,,,,,,,,,,,
20185,0,USKansasStafford,Kansas,Stafford,2022-04-28 09:13:11,2020-10-18,0.5779587681736822,1.5057192175039842,4.220312415379176,,,,,,,,,,,,
20185,0,USKansasStafford,Kansas,Stafford,2022-04-28 09:13:11,2020-10-19,0.5779587681736822,1.5057192175039842,4.220312415379176,,,,,,,,,,,,
20185,0,USKansasStafford,Kansas,Stafford,2022-04-28 09:13:11,2020-10-20,0.5779587681736822,1.5057192175039842,4.220312415379176,,,,,,,,,,,,
20185,0,USKansasStafford,Kansas,Stafford,2022-04-28 09:13:11,2020-10-21,0.5779587681736822,1.5057192175039842,4.220312415379176,,,,,,,,,,,,
20185,0,USKansasStafford,Kansas,Stafford,2022-04-28 09:13:11,2020-10-22,1.4224332974281202,3.110299597851114,7.311094725292596,,,,,,,,,,,,
20185,0,USKansasStafford,Kansas,Stafford,2022-04-28 09:13:11,2020-10-23,1.4224332974281202,3.110299597851114,7.311094725292596,,,,,,,,,,,,
20185,0,USKansasStafford,Kansas,Stafford,2022-04-28 09:13:11,2020-10-24,1.4224332974281202,3.110299597851114,7.311094725292596,,,,,,,,,,,,
20185,0,USKansasStafford,Kansas,Stafford,2022-04-28 09:13:11,2020-10-25,1.4224332974281202,3.110299597851114,7.311094725292596,,,,,,,,,,,,
20185,0,USKansasStafford,Kansas,Stafford,2022-04-28 09:13:11,2020-10-26,1.4224332974281202,3.110299597851114,7.311094725292596,,,,,,,,,,,,
20185,0,USKansasStafford,Kansas,Stafford,2022-04-28 09:13:11,2020-10-27,1.4224332974281202,3.110299597851114,7.311094725292596,,,,,,,,,,,,
20185,0,USKansasStafford,Kansas,Stafford,2022-04-28 09:13:11,2020-10-28,1.4224332974281202,3.110299597851114,7.311094725292596,,,,,,,,,,,,
20185,0,USKansasStafford,Kansas,Stafford,2022-04-28 09:13:11,2020-10-29,2.110405157530005,4.3521529689270055,9.633658499912162,,,,,,,,,,,,
20185,0,USKansasStafford,Kansas,Stafford,2022-04-28 09:13:11,2020-10-30,2.110405157530005,4.3521529689270055,9.633658499912162,,,,,,,,,,,,
20185,0,USKansasStafford,Kansas,Stafford,2022-04-28 09:13:11,2020-10-31,2.110405157530005,4.3521529689270055,9.633658499912162,,,,,,,,,,,,
20185,0,USKansasStafford,Kansas,Stafford,2022-04-28 09:13:11,2020-11-01,2.110405157530005,4.3521529689270055,9.633658499912162,,,,,,,,,,,,
20185,0,USKansasStafford,Kansas,Stafford,2022-04-28 09:13:11,2020-11-02,2.110405157530005,4.3521529689270055,9.633658499912162,,,,,,,,,,,,
20185,0,USKansasStafford,Kansas,Stafford,2022-04-28 09:13:11,2020-11-03,2.110405157530005,4.3521529689270055,9.633658499912162,,,,,,,,,,,,
20185,0,USKansasStafford,Kansas,Stafford,2022-04-28 09:13:11,2020-11-04,2.110405157530005,4.3521529689270055,9.633658499912162,,,,,,,,,,,,
20185,0,USKansasStafford,Kansas,Stafford,2022-04-28 09:13:11,2020-11-05,2.927814557795618,5.90796476077856,12.786580690724788,,,,,,,,,,,,
20185,0,USKansasStafford,Kansas,Stafford,2022-04-28 09:13:11,2020-11-06,2.927814557795618,5.90796476077856,12.786580690724788,,,,,,,,,,,,
20185,0,USKansasStafford,Kansas,Stafford,2022-04-28 09:13:11,2020-11-07,2.927814557795618,5.90796476077856,12.786580690724788,,,,,,,,,,,,
20185,0,USKansasStafford,Kansas,Stafford,2022-04-28 09:13:11,2020-11-08,2.927814557795618,5.90796476077856,12.786580690724788,,,,,,,,,,,,
20185,0,USKansasStafford,Kansas,Stafford,2022-04-28 09:13:11,2020-11-09,2.927814557795618,5.90796476077856,12.786580690724788,,,,,,,,,,,,
20185,0,USKansasStafford,Kansas,Stafford,2022-04-28 09:13:11,2020-11-10,2.927814557795618,5.90796476077856,12.786580690724788,,,,,,,,,,,,
20185,0,USKansasStafford,Kansas,Stafford,2022-04-28 09:13:11,2020-11-11,2.927814557795618,5.90796476077856,12.786580690724788,,,,,,,,,,,,
20185,0,USKansasStafford,Kansas,Stafford,2022-04-28 09:13:11,2020-11-12,3.747600821303992,7.107282597833486,14.41732866578922,,,,,,,,,,,,
20185,0,USKansasStafford,Kansas,Stafford,2022-04-28 09:13:11,2020-11-13,3.747600821303992,7.107282597833486,14.41732866578922,,,,,,,,,,,,
20185,0,USKansasStafford,Kansas,Stafford,2022-04-28 09:13:11,2020-11-14,3.747600821303992,7.107282597833486,14.41732866578922,,,,,,,,,,,,
20185,0,USKansasStafford,Kansas,Stafford,2022-04-28 09:13:11,2020-11-15,3.747600821303992,7.107282597833486,14.41732866578922,,,,,,,,,,,,
20185,0,USKansasStafford,Kansas,Stafford,2022-04-28 09:13:11,2020-11-16,3.747600821303992,7.107282597833486,14.41732866578922,,,,,,,,,,,,
20185,0,USKansasStafford,Kansas,Stafford,2022-04-28 09:13:11,2020-11-17,3.747600821303992,7.107282597833486,14.41732866578922,,,,,,,,,,,,
20185,0,USKansasStafford,Kansas,Stafford,2022-04-28 09:13:11,2020-11-18,3.747600821303992,7.107282597833486,14.41732866578922,,,,,,,,,,,,
20185,0,USKansasStafford,Kansas,Stafford,2022-04-28 09:13:11,2020-11-19,3.322287593565466,6.265987339772066,12.637097945283223,,,,,,,,,,,,
20185,0,USKansasStafford,Kansas,Stafford,2022-04-28 09:13:11,2020-11-20,3.322287593565466,6.265987339772066,12.637097945283223,,,,,,,,,,,,
20185,0,USKansasStafford,Kansas,Stafford,2022-04-28 09:13:11,2020-11-21,3.322287593565466,6.265987339772066,12.637097945283223,,,,,,,,,,,,
20185,0,USKansasStafford,Kansas,Stafford,2022-04-28 09:13:11,2020-11-22,3.322287593565466,6.265987339772066,12.637097945283223,,,,,,,,,,,,
20185,0,USKansasStafford,Kansas,Stafford,2022-04-28 09:13:11,2020-11-23,3.322287593565466,6.265987339772066,12.637097945283223,,,,,,,,,,,,
20185,0,USKansasStafford,Kansas,Stafford,2022-04-28 09:13:11,2020-11-24,3.322287593565466,6.265987339772066,12.637097945283223,,,,,,,,,,,,
20185,0,USKansasStafford,Kansas,Stafford,2022-04-28 09:13:11,2020-11-25,3.322287593565466,6.265987339772066,12.637097945283223,,,,,,,,,,,,
20185,0,USKansasStafford,Kansas,Stafford,2022-04-28 09:13:11,2020-11-26,2.1723406769024125,4.8271539331136095,11.534349939700538,,,,,,,,,,,,
20185,0,USKansasStafford,Kansas,Stafford,2022-04-28 09:13:11,2020-11-27,2.1723406769024125,4.8271539331136095,11.534349939700538,,,,,,,,,,,,
20185,0,USKansasStafford,Kansas,Stafford,2022-04-28 09:13:11,2020-11-28,2.1723406769024125,4.8271539331136095,11.534349939700538,,,,,,,,,,,,
20185,0,USKansasStafford,Kansas,Stafford,2022-04-28 09:13:11,2020-11-29,2.1723406769024125,4.8271539331136095,11.534349939700538,,,,,,,,,,,,
20185,0,USKansasStafford,Kansas,Stafford,2022-04-28 09:13:11,2020-11-30,2.1723406769024125,4.8271539331136095,11.534349939700538,,,,,,,,,,,,
20185,0,USKansasStafford,Kansas,Stafford,2022-04-28 09:13:11,2020-12-01,2.1723406769024125,4.8271539331136095,11.534349939700538,,,,,,,,,,,,
20185,0,USKansasStafford,Kansas,Stafford,2022-04-28 09:13:11,2020-12-02,2.1723406769024125,4.8271539331136095,11.534349939700538,,,,,,,,,,,,
20185,0,USKansasStafford,Kansas,Stafford,2022-04-28 09:13:11,2020-12-03,1.6487852745671667,3.829677607395115,9.570709560873743,,,,,,,,,,,,
20185,0,USKansasStafford,Kansas,Stafford,2022-04-28 09:13:11,2020-12-04,1.6487852745671667,3.829677607395115,9.570709560873743,,,,,,,,,,,,
20185,0,USKansasStafford,Kansas,Stafford,2022-04-28 09:13:11,2020-12-05,1.6487852745671667,3.829677607395115,9.570709560873743,,,,,,,,,,,,
20185,0,USKansasStafford,Kansas,Stafford,2022-04-28 09:13:11,2020-12-06,1.6487852745671667,3.829677607395115,9.570709560873743,,,,,,,,,,,,
20185,0,USKansasStafford,Kansas,Stafford,2022-04-28 09:13:11,2020-12-07,1.6487852745671667,3.829677607395115,9.570709560873743,,,,,,,,,,,,
20185,0,USKansasStafford,Kansas,Stafford,2022-04-28 09:13:11,2020-12-08,1.6487852745671667,3.829677607395115,9.570709560873743,,,,,,,,,,,,
20185,0,USKansasStafford,Kansas,Stafford,2022-04-28 09:13:11,2020-12-09,1.6487852745671667,3.829677607395115,9.570709560873743,,,,,,,,,,,,
20185,0,USKansasStafford,Kansas,Stafford,2022-04-28 09:13:11,2020-12-10,1.962815836110912,4.191687192637114,9.617860440147682,,,,,,,,,,,,
20185,0,USKansasStafford,Kansas,Stafford,2022-04-28 09:13:11,2020-12-11,1.962815836110912,4.191687192637114,9.617860440147682,,,,,,,,,,,,
20185,0,USKansasStafford,Kansas,Stafford,2022-04-28 09:13:11,2020-12-12,1.962815836110912,4.191687192637114,9.617860440147682,,,,,,,,,,,,
20185,0,USKansasStafford,Kansas,Stafford,2022-04-28 09:13:11,2020-12-13,1.962815836110912,4.191687192637114,9.617860440147682,,,,,,,,,,,,
20185,0,USKansasStafford,Kansas,Stafford,2022-04-28 09:13:11,2020-12-14,1.962815836110912,4.191687192637114,9.617860440147682,,,,,,,,,,,,
20185,0,USKansasStafford,Kansas,Stafford,2022-04-28 09:13:11,2020-12-15,1.962815836110912,4.191687192637114,9.617860440147682,,,,,,,,,,,,
20185,0,USKansasStafford,Kansas,Stafford,2022-04-28 09:13:11,2020-12-16,1.962815836110912,4.191687192637114,9.617860440147682,,,,,,,,,,,,
20185,0,USKansasStafford,Kansas,Stafford,2022-04-28 09:13:11,2020-12-17,1.866894773814665,4.024747953526594,9.32471693314178,,,,,,,,,,,,
20185,0,USKansasStafford,Kansas,Stafford,2022-04-28 09:13:11,2020-12-18,1.866894773814665,4.024747953526594,9.32471693314178,,,,,,,,,,,,
20185,0,USKansasStafford,Kansas,Stafford,2022-04-28 09:13:11,2020-12-19,1.866894773814665,4.024747953526594,9.32471693314178,,,,,,,,,,,,
20185,0,USKansasStafford,Kansas,Stafford,2022-04-28 09:13:11,2020-12-20,1.866894773814665,4.024747953526594,9.32471693314178,,,,,,,,,,,,
20185,0,USKansasStafford,Kansas,Stafford,2022-04-28 09:13:11,2020-12-21,1.866894773814665,4.024747953526594,9.32471693314178,,,,,,,,,,,,
20185,0,USKansasStafford,Kansas,Stafford,2022-04-28 09:13:11,2020-12-22,1.866894773814665,4.024747953526594,9.32471693314178,,,,,,,,,,,,
20185,0,USKansasStafford,Kansas,Stafford,2022-04-28 09:13:11,2020-12-23,1.866894773814665,4.024747953526594,9.32471693314178,,,,,,,,,,,,
20185,0,USKansasStafford,Kansas,Stafford,2022-04-28 09:13:11,2020-12-24,1.7552676823555842,3.7939143997739384,8.813232516759308,,,,,,,,,,,,
20185,0,USKansasStafford,Kansas,Stafford,2022-04-28 09:13:11,2020-12-25,1.7552676823555842,3.7939143997739384,8.813232516759308,,,,,,,,,,,,
20185,0,USKansasStafford,Kansas,Stafford,2022-04-28 09:13:11,2020-12-26,1.7552676823555842,3.7939143997739384,8.813232516759308,,,,,,,,,,,,
20185,0,USKansasStafford,Kansas,Stafford,2022-04-28 09:13:11,2020-12-27,1.7552676823555842,3.7939143997739384,8.813232516759308,,,,,,,,,,,,
20185,0,USKansasStafford,Kansas,Stafford,2022-04-28 09:13:11,2020-12-28,1.7552676823555842,3.7939143997739384,8.813232516759308,,,,,,,,,,,,
20185,0,USKansasStafford,Kansas,Stafford,2022-04-28 09:13:11,2020-12-29,1.7552676823555842,3.7939143997739384,8.813232516759308,,,,,,,,,,,,
20185,0,USKansasStafford,Kansas,Stafford,2022-04-28 09:13:11,2020-12-30,1.7552676823555842,3.7939143997739384,8.813232516759308,,,,,,,,,,,,
20185,0,USKansasStafford,Kansas,Stafford,2022-04-28 09:13:11,2020-12-31,1.8388021708423934,4.143496465404568,10.042272986534533,,,,,,,,,,,,
20185,0,USKansasStafford,Kansas,Stafford,2022-04-28 09:13:11,2021-01-01,1.8388021708423934,4.143496465404568,10.042272986534533,,,,,,,,,,,,
20185,0,USKansasStafford,Kansas,Stafford,2022-04-28 09:13:11,2021-01-02,1.8388021708423934,4.143496465404568,10.042272986534533,,,,,,,,,,,,
20185,0,USKansasStafford,Kansas,Stafford,2022-04-28 09:13:11,2021-01-03,1.8388021708423934,4.143496465404568,10.042272986534533,,,,,,,,,,,,
20185,0,USKansasStafford,Kansas,Stafford,2022-04-28 09:13:11,2021-01-04,1.8388021708423934,4.143496465404568,10.042272986534533,,,,,,,,,,,,
20185,0,USKansasStafford,Kansas,Stafford,2022-04-28 09:13:11,2021-01-05,1.8388021708423934,4.143496465404568,10.042272986534533,,,,,,,,,,,,
20185,0,USKansasStafford,Kansas,Stafford,2022-04-28 09:13:11,2021-01-06,1.8388021708423934,4.143496465404568,10.042272986534533,,,,,,,,,,,,
20185,0,USKansasStafford,Kansas,Stafford,2022-04-28 09:13:11,2021-01-07,1.3884029405657823,3.211058378754468,7.990016973343744,,,,,,,,,,,,
20185,0,USKansasStafford,Kansas,Stafford,2022-04-28 09:13:11,2021-01-08,1.3884029405657823,3.211058378754468,7.990016973343744,,,,,,,,,,,,
20185,0,USKansasStafford,Kansas,Stafford,2022-04-28 09:13:11,2021-01-09,1.3884029405657823,3.211058378754468,7.990016973343744,,,,,,,,,,,,
20185,0,USKansasStafford,Kansas,Stafford,2022-04-28 09:13:11,2021-01-10,1.3884029405657823,3.211058378754468,7.990016973343744,,,,,,,,,,,,
20185,0,USKansasStafford,Kansas,Stafford,2022-04-28 09:13:11,2021-01-11,1.3884029405657823,3.211058378754468,7.990016973343744,,,,,,,,,,,,
20185,0,USKansasStafford,Kansas,Stafford,2022-04-28 09:13:11,2021-01-12,1.3884029405657823,3.211058378754468,7.990016973343744,,,,,,,,,,,,
20185,0,USKansasStafford,Kansas,Stafford,2022-04-28 09:13:11,2021-01-13,1.3884029405657823,3.211058378754468,7.990016973343744,,,,,,,,,,,,
20185,0,USKansasStafford,Kansas,Stafford,2022-04-28 09:13:11,2021-01-14,0.7322031567244404,1.92997524915077,5.472361353552609,,,,,,,,,,,,
20185,0,USKansasStafford,Kansas,Stafford,2022-04-28 09:13:11,2021-01-15,0.7322031567244404,1.92997524915077,5.472361353552609,,,,,,,,,,,,
20185,0,USKansasStafford,Kansas,Stafford,2022-04-28 09:13:11,2021-01-16,0.7322031567244404,1.92997524915077,5.472361353552609,,,,,,,,,,,,
20185,0,USKansasStafford,Kansas,Stafford,2022-04-28 09:13:11,2021-01-17,0.7322031567244404,1.92997524915077,5.472361353552609,,,,,,,,,,,,
20185,0,USKansasStafford,Kansas,Stafford,2022-04-28 09:13:11,2021-01-18,0.7322031567244404,1.92997524915077,5.472361353552609,,,,,,,,,,,,
20185,0,USKansasStafford,Kansas,Stafford,2022-04-28 09:13:11,2021-01-19,0.7322031567244404,1.92997524915077,5.472361353552609,,,,,,,,,,,,
20185,0,USKansasStafford,Kansas,Stafford,2022-04-28 09:13:11,2021-01-20,0.7322031567244404,1.92997524915077,5.472361353552609,,,,,,,,,,,,
20185,0,USKansasStafford,Kansas,Stafford,2022-04-28 09:13:11,2021-01-21,0.8357252401777258,2.1085681563055765,5.724820111870696,,,,,,,,,,,,
20185,0,USKansasStafford,Kansas,Stafford,2022-04-28 09:13:11,2021-01-22,0.8357252401777258,2.1085681563055765,5.724820111870696,,,,,,,,,,,,
20185,0,USKansasStafford,Kansas,Stafford,2022-04-28 09:13:11,2021-01-23,0.8357252401777258,2.1085681563055765,5.724820111870696,,,,,,,,,,,,
20185,0,USKansasStafford,Kansas,Stafford,2022-04-28 09:13:11,2021-01-24,0.8357252401777258,2.1085681563055765,5.724820111870696,,,,,,,,,,,,
20185,0,USKansasStafford,Kansas,Stafford,2022-04-28 09:13:11,2021-01-25,0.8357252401777258,2.1085681563055765,5.724820111870696,,,,,,,,,,,,
20185,0,USKansasStafford,Kansas,Stafford,2022-04-28 09:13:11,2021-01-26,0.8357252401777258,2.1085681563055765,5.724820111870696,,,,,,,,,,,,
20185,0,USKansasStafford,Kansas,Stafford,2022-04-28 09:13:11,2021-01-27,0.8357252401777258,2.1085681563055765,5.724820111870696,,,,,,,,,,,,
20185,0,USKansasStafford,Kansas,Stafford,2022-04-28 09:13:11,2021-01-28,0.7067951120444701,1.8064772151004536,4.968098411330295,,,,,,,,,,,,
20185,0,USKansasStafford,Kansas,Stafford,2022-04-28 09:13:11,2021-01-29,0.7067951120444701,1.8064772151004536,4.968098411330295,,,,,,,,,,,,
20185,0,USKansasStafford,Kansas,Stafford,2022-04-28 09:13:11,2021-01-30,0.7067951120444701,1.8064772151004536,4.968098411330295,,,,,,,,,,,,
20185,0,USKansasStafford,Kansas,Stafford,2022-04-28 09:13:11,2021-01-31,0.7067951120444701,1.8064772151004536,4.968098411330295,,,,,,,,,,,,
20185,0,USKansasStafford,Kansas,Stafford,2022-04-28 09:13:11,2021-02-01,0.7067951120444701,1.8064772151004536,4.968098411330295,,,,,,,,,,,,
20185,0,USKansasStafford,Kansas,Stafford,2022-04-28 09:13:11,2021-02-02,0.7067951120444701,1.8064772151004536,4.968098411330295,,,,,,,,,,,,
20185,0,USKansasStafford,Kansas,Stafford,2022-04-28 09:13:11,2021-02-03,0.7067951120444701,1.8064772151004536,4.968098411330295,,,,,,,,,,,,
20185,0,USKansasStafford,Kansas,Stafford,2022-04-28 09:13:11,2021-02-04,0.8159657457392264,2.0158984626789724,5.3597364188070085,,,,,,,,,,,,
20185,0,USKansasStafford,Kansas,Stafford,2022-04-28 09:13:11,2021-02-05,0.8159657457392264,2.0158984626789724,5.3597364188070085,,,,,,,,,,,,
20185,0,USKansasStafford,Kansas,Stafford,2022-04-28 09:13:11,2021-02-06,0.8159657457392264,2.0158984626789724,5.3597364188070085,,,,,,,,,,,,
20185,0,USKansasStafford,Kansas,Stafford,2022-04-28 09:13:11,2021-02-07,0.8159657457392264,2.0158984626789724,5.3597364188070085,,,,,,,,,,,,
20185,0,USKansasStafford,Kansas,Stafford,2022-04-28 09:13:11,2021-02-08,0.8159657457392264,2.0158984626789724,5.3597364188070085,,,,,,,,,,,,
20185,0,USKansasStafford,Kansas,Stafford,2022-04-28 09:13:11,2021-02-09,0.8159657457392264,2.0158984626789724,5.3597364188070085,,,,,,,,,,,,
20185,0,USKansasStafford,Kansas,Stafford,2022-04-28 09:13:11,2021-02-10,0.8159657457392264,2.0158984626789724,5.3597364188070085,,,,,,,,,,,,
20185,0,USKansasStafford,Kansas,Stafford,2022-04-28 09:13:11,2021-02-11,0.3481823046669783,1.0646255486459697,3.491701484507423,,,,,,,,,,,,
20185,0,USKansasStafford,Kansas,Stafford,2022-04-28 09:13:11,2021-02-12,0.3481823046669783,1.0646255486459697,3.491701484507423,,,,,,,,,,,,
20185,0,USKansasStafford,Kansas,Stafford,2022-04-28 09:13:11,2021-02-13,0.3481823046669783,1.0646255486459697,3.491701484507423,,,,,,,,,,,,
20185,0,USKansasStafford,Kansas,Stafford,2022-04-28 09:13:11,2021-02-14,0.3481823046669783,1.0646255486459697,3.491701484507423,,,,,,,,,,,,
20185,0,USKansasStafford,Kansas,Stafford,2022-04-28 09:13:11,2021-02-15,0.3481823046669783,1.0646255486459697,3.491701484507423,,,,,,,,,,,,
20185,0,USKansasStafford,Kansas,Stafford,2022-04-28 09:13:11,2021-02-16,0.3481823046669783,1.0646255486459697,3.491701484507423,,,,,,,,,,,,
20185,0,USKansasStafford,Kansas,Stafford,2022-04-28 09:13:11,2021-02-17,0.3481823046669783,1.0646255486459697,3.491701484507423,,,,,,,,,,,,
20185,0,USKansasStafford,Kansas,Stafford,2022-04-28 09:13:11,2021-02-18,0.46898453446269095,1.30809947143216,3.921696102806047,,,,,,,,,,,,
20185,0,USKansasStafford,Kansas,Stafford,2022-04-28 09:13:11,2021-02-19,0.46898453446269095,1.30809947143216,3.921696102806047,,,,,,,,,,,,
20185,0,USKansasStafford,Kansas,Stafford,2022-04-28 09:13:11,2021-02-20,0.46898453446269095,1.30809947143216,3.921696102806047,,,,,,,,,,,,
20185,0,USKansasStafford,Kansas,Stafford,2022-04-28 09:13:11,2021-02-21,0.46898453446269095,1.30809947143216,3.921696102806047,,,,,,,,,,,,
20185,0,USKansasStafford,Kansas,Stafford,2022-04-28 09:13:11,2021-02-22,0.46898453446269095,1.30809947143216,3.921696102806047,,,,,,,,,,,,
20185,0,USKansasStafford,Kansas,Stafford,2022-04-28 09:13:11,2021-02-23,0.46898453446269095,1.30809947143216,3.921696102806047,,,,,,,,,,,,
20185,0,USKansasStafford,Kansas,Stafford,2022-04-28 09:13:11,2021-02-24,0.46898453446269095,1.30809947143216,3.921696102806047,,,,,,,,,,,,
20185,0,USKansasStafford,Kansas,Stafford,2022-04-28 09:13:11,2021-02-25,0,0,0,,,,,,,,,,,,
20185,0,USKansasStafford,Kansas,Stafford,2022-04-28 09:13:11,2021-02-26,0,0,0,,,,,,,,,,,,
20185,0,USKansasStafford,Kansas,Stafford,2022-04-28 09:13:11,2021-02-27,0,0,0,,,,,,,,,,,,
20185,0,USKansasStafford,Kansas,Stafford,2022-04-28 09:13:11,2021-02-28,0,0,0,,,,,,,,,,,,
20185,0,USKansasStafford,Kansas,Stafford,2022-04-28 09:13:11,2021-03-01,0,0,0,,,,,,,,,,,,
20185,0,USKansasStafford,Kansas,Stafford,2022-04-28 09:13:11,2021-03-02,0,0,0,,,,,,,,,,,,
20185,0,USKansasStafford,Kansas,Stafford,2022-04-28 09:13:11,2021-03-03,0,0,0,,,,,,,,,,,,
20185,0,USKansasStafford,Kansas,Stafford,2022-04-28 09:13:11,2021-03-04,0.18494647024334268,0.5950698401266946,2.050668622676946,,,,,,,,,,,,
20185,0,USKansasStafford,Kansas,Stafford,2022-04-28 09:13:11,2021-03-05,0.18494647024334268,0.5950698401266946,2.050668622676946,,,,,,,,,,,,
20185,0,USKansasStafford,Kansas,Stafford,2022-04-28 09:13:11,2021-03-06,0.18494647024334268,0.5950698401266946,2.050668622676946,,,,,,,,,,,,
20185,0,USKansasStafford,Kansas,Stafford,2022-04-28 09:13:11,2021-03-07,0.18494647024334268,0.5950698401266946,2.050668622676946,,,,,,,,,,,,
20185,0,USKansasStafford,Kansas,Stafford,2022-04-28 09:13:11,2021-03-08,0.18494647024334268,0.5950698401266946,2.050668622676946,,,,,,,,,,,,
20185,0,USKansasStafford,Kansas,Stafford,2022-04-28 09:13:11,2021-03-09,0.18494647024334268,0.5950698401266946,2.050668622676946,,,,,,,,,,,,
20185,0,USKansasStafford,Kansas,Stafford,2022-04-28 09:13:11,2021-03-10,0.18494647024334268,0.5950698401266946,2.050668622676946,,,,,,,,,,,,
20185,0,USKansasStafford,Kansas,Stafford,2022-04-28 09:13:11,2021-03-11,0.3027289972432668,0.8211790177061001,2.395341130159855,,,,,,,,,,,,
20185,0,USKansasStafford,Kansas,Stafford,2022-04-28 09:13:11,2021-03-12,0.3027289972432668,0.8211790177061001,2.395341130159855,,,,,,,,,,,,
20185,0,USKansasStafford,Kansas,Stafford,2022-04-28 09:13:11,2021-03-13,0.3027289972432668,0.8211790177061001,2.395341130159855,,,,,,,,,,,,
20185,0,USKansasStafford,Kansas,Stafford,2022-04-28 09:13:11,2021-03-14,0.3027289972432668,0.8211790177061001,2.395341130159855,,,,,,,,,,,,
20185,0,USKansasStafford,Kansas,Stafford,2022-04-28 09:13:11,2021-03-15,0.3027289972432668,0.8211790177061001,2.395341130159855,,,,,,,,,,,,
20185,0,USKansasStafford,Kansas,Stafford,2022-04-28 09:13:11,2021-03-16,0.3027289972432668,0.8211790177061001,2.395341130159855,,,,,,,,,,,,
20185,0,USKansasStafford,Kansas,Stafford,2022-04-28 09:13:11,2021-03-17,0.3027289972432668,0.8211790177061001,2.395341130159855,,,,,,,,,,,,
20185,0,USKansasStafford,Kansas,Stafford,2022-04-28 09:13:11,2021-03-18,0.19183511373429785,0.6363970007753196,2.2589473812886602,,,,,,,,,,,,
20185,0,USKansasStafford,Kansas,Stafford,2022-04-28 09:13:11,2021-03-19,0.19183511373429785,0.6363970007753196,2.2589473812886602,,,,,,,,,,,,
20185,0,USKansasStafford,Kansas,Stafford,2022-04-28 09:13:11,2021-03-20,0.19183511373429785,0.6363970007753196,2.2589473812886602,,,,,,,,,,,,
20185,0,USKansasStafford,Kansas,Stafford,2022-04-28 09:13:11,2021-03-21,0.19183511373429785,0.6363970007753196,2.2589473812886602,,,,,,,,,,,,
20185,0,USKansasStafford,Kansas,Stafford,2022-04-28 09:13:11,2021-03-22,0.19183511373429785,0.6363970007753196,2.2589473812886602,,,,,,,,,,,,
20185,0,USKansasStafford,Kansas,Stafford,2022-04-28 09:13:11,2021-03-23,0.19183511373429785,0.6363970007753196,2.2589473812886602,,,,,,,,,,,,
20185,0,USKansasStafford,Kansas,Stafford,2022-04-28 09:13:11,2021-03-24,0.19183511373429785,0.6363970007753196,2.2589473812886602,,,,,,,,,,,,
20185,0,USKansasStafford,Kansas,Stafford,2022-04-28 09:13:11,2021-03-25,0.17904634848644588,0.5605973188503218,1.8814738824585318,,,,,,,,,,,,
20185,0,USKansasStafford,Kansas,Stafford,2022-04-28 09:13:11,2021-03-26,0.17904634848644588,0.5605973188503218,1.8814738824585318,,,,,,,,,,,,
20185,0,USKansasStafford,Kansas,Stafford,2022-04-28 09:13:11,2021-03-27,0.17904634848644588,0.5605973188503218,1.8814738824585318,,,,,,,,,,,,
20185,0,USKansasStafford,Kansas,Stafford,2022-04-28 09:13:11,2021-03-28,0.17904634848644588,0.5605973188503218,1.8814738824585318,,,,,,,,,,,,
20185,0,USKansasStafford,Kansas,Stafford,2022-04-28 09:13:11,2021-03-29,0.17904634848644588,0.5605973188503218,1.8814738824585318,,,,,,,,,,,,
20185,0,USKansasStafford,Kansas,Stafford,2022-04-28 09:13:11,2021-03-30,0.17904634848644588,0.5605973188503218,1.8814738824585318,,,,,,,,,,,,
20185,0,USKansasStafford,Kansas,Stafford,2022-04-28 09:13:11,2021-03-31,0.17904634848644588,0.5605973188503218,1.8814738824585318,,,,,,,,,,,,
20185,0,USKansasStafford,Kansas,Stafford,2022-04-28 09:13:11,2021-04-01,0,0,0,,,,,,,,,,,,
20185,0,USKansasStafford,Kansas,Stafford,2022-04-28 09:13:11,2021-04-02,0,0,0,,,,,,,,,,,,
20185,0,USKansasStafford,Kansas,Stafford,2022-04-28 09:13:11,2021-04-03,0,0,0,,,,,,,,,,,,
20185,0,USKansasStafford,Kansas,Stafford,2022-04-28 09:13:11,2021-04-04,0,0,0,,,,,,,,,,,,
20185,0,USKansasStafford,Kansas,Stafford,2022-04-28 09:13:11,2021-04-05,0,0,0,,,,,,,,,,,,
20185,0,USKansasStafford,Kansas,Stafford,2022-04-28 09:13:11,2021-04-06,0,0,0,,,,,,,,,,,,
20185,0,USKansasStafford,Kansas,Stafford,2022-04-28 09:13:11,2021-04-07,0,0,0,,,,,,,,,,,,
20185,0,USKansasStafford,Kansas,Stafford,2022-04-28 09:13:11,2021-04-08,0.17892018657088118,0.5598695912829755,1.8779478307554716,,,,,,,,,,,,
20185,0,USKansasStafford,Kansas,Stafford,2022-04-28 09:13:11,2021-04-09,0.17892018657088118,0.5598695912829755,1.8779478307554716,,,,,,,,,,,,
20185,0,USKansasStafford,Kansas,Stafford,2022-04-28 09:13:11,2021-04-10,0.17892018657088118,0.5598695912829755,1.8779478307554716,,,,,,,,,,,,
20185,0,USKansasStafford,Kansas,Stafford,2022-04-28 09:13:11,2021-04-11,0.17892018657088118,0.5598695912829755,1.8779478307554716,,,,,,,,,,,,
20185,0,USKansasStafford,Kansas,Stafford,2022-04-28 09:13:11,2021-04-12,0.17892018657088118,0.5598695912829755,1.8779478307554716,,,,,,,,,,,,
20185,0,USKansasStafford,Kansas,Stafford,2022-04-28 09:13:11,2021-04-13,0.17892018657088118,0.5598695912829755,1.8779478307554716,,,,,,,,,,,,
20185,0,USKansasStafford,Kansas,Stafford,2022-04-28 09:13:11,2021-04-14,0.17892018657088118,0.5598695912829755,1.8779478307554716,,,,,,,,,,,,
20185,0,USKansasStafford,Kansas,Stafford,2022-04-28 09:13:11,2021-04-15,0,0,0,,,,,,,,,,,,
20185,0,USKansasStafford,Kansas,Stafford,2022-04-28 09:13:11,2021-04-16,0,0,0,,,,,,,,,,,,
20185,0,USKansasStafford,Kansas,Stafford,2022-04-28 09:13:11,2021-04-17,0,0,0,,,,,,,,,,,,
20185,0,USKansasStafford,Kansas,Stafford,2022-04-28 09:13:11,2021-04-18,0,0,0,,,,,,,,,,,,
20185,0,USKansasStafford,Kansas,Stafford,2022-04-28 09:13:11,2021-04-19,0,0,0,,,,,,,,,,,,
20185,0,USKansasStafford,Kansas,Stafford,2022-04-28 09:13:11,2021-04-20,0,0,0,,,,,,,,,,,,
20185,0,USKansasStafford,Kansas,Stafford,2022-04-28 09:13:11,2021-04-21,0,0,0,,,,,,,,,,,,
20185,0,USKansasStafford,Kansas,Stafford,2022-04-28 09:13:11,2021-04-22,0.18079515834771895,0.5707254521605564,1.9307455812007916,,,,,,,,,,,,
20185,0,USKansasStafford,Kansas,Stafford,2022-04-28 09:13:11,2021-04-23,0.18079515834771895,0.5707254521605564,1.9307455812007916,,,,,,,,,,,,
20185,0,USKansasStafford,Kansas,Stafford,2022-04-28 09:13:11,2021-04-24,0.18079515834771895,0.5707254521605564,1.9307455812007916,,,,,,,,,,,,
20185,0,USKansasStafford,Kansas,Stafford,2022-04-28 09:13:11,2021-04-25,0.18079515834771895,0.5707254521605564,1.9307455812007916,,,,,,,,,,,,
20185,0,USKansasStafford,Kansas,Stafford,2022-04-28 09:13:11,2021-04-26,0.18079515834771895,0.5707254521605564,1.9307455812007916,,,,,,,,,,,,
20185,0,USKansasStafford,Kansas,Stafford,2022-04-28 09:13:11,2021-04-27,0.18079515834771895,0.5707254521605564,1.9307455812007916,,,,,,,,,,,,
20185,0,USKansasStafford,Kansas,Stafford,2022-04-28 09:13:11,2021-04-28,0.18079515834771895,0.5707254521605564,1.9307455812007916,,,,,,,,,,,,
20185,0,USKansasStafford,Kansas,Stafford,2022-04-28 09:13:11,2021-04-29,0.18704795524441922,0.6075547758194187,2.112974400161745,,,,,,,,,,,,
20185,0,USKansasStafford,Kansas,Stafford,2022-04-28 09:13:11,2021-04-30,0.18704795524441922,0.6075547758194187,2.112974400161745,,,,,,,,,,,,
20185,0,USKansasStafford,Kansas,Stafford,2022-04-28 09:13:11,2021-05-01,0.18704795524441922,0.6075547758194187,2.112974400161745,,,,,,,,,,,,
20185,0,USKansasStafford,Kansas,Stafford,2022-04-28 09:13:11,2021-05-02,0.18704795524441922,0.6075547758194187,2.112974400161745,,,,,,,,,,,,
20185,0,USKansasStafford,Kansas,Stafford,2022-04-28 09:13:11,2021-05-03,0.18704795524441922,0.6075547758194187,2.112974400161745,,,,,,,,,,,,
20185,0,USKansasStafford,Kansas,Stafford,2022-04-28 09:13:11,2021-05-04,0.18704795524441922,0.6075547758194187,2.112974400161745,,,,,,,,,,,,
20185,0,USKansasStafford,Kansas,Stafford,2022-04-28 09:13:11,2021-05-05,0.18704795524441922,0.6075547758194187,2.112974400161745,,,,,,,,,,,,
20185,0,USKansasStafford,Kansas,Stafford,2022-04-28 09:13:11,2021-05-06,0.2984548334185377,0.7996709773724964,2.3044263660206297,,,,,,,,,,,,
20185,0,USKansasStafford,Kansas,Stafford,2022-04-28 09:13:11,2021-05-07,0.2984548334185377,0.7996709773724964,2.3044263660206297,,,,,,,,,,,,
20185,0,USKansasStafford,Kansas,Stafford,2022-04-28 09:13:11,2021-05-08,0.2984548334185377,0.7996709773724964,2.3044263660206297,,,,,,,,,,,,
20185,0,USKansasStafford,Kansas,Stafford,2022-04-28 09:13:11,2021-05-09,0.2984548334185377,0.7996709773724964,2.3044263660206297,,,,,,,,,,,,
20185,0,USKansasStafford,Kansas,Stafford,2022-04-28 09:13:11,2021-05-10,0.2984548334185377,0.7996709773724964,2.3044263660206297,,,,,,,,,,,,
20185,0,USKansasStafford,Kansas,Stafford,2022-04-28 09:13:11,2021-05-11,0.2984548334185377,0.7996709773724964,2.3044263660206297,,,,,,,,,,,,
20185,0,USKansasStafford,Kansas,Stafford,2022-04-28 09:13:11,2021-05-12,0.2984548334185377,0.7996709773724964,2.3044263660206297,,,,,,,,,,,,
20185,0,USKansasStafford,Kansas,Stafford,2022-04-28 09:13:11,2021-05-13,0.18199723411601895,0.577731076963954,1.9650414754212242,,,,,,,,,,,,
20185,0,USKansasStafford,Kansas,Stafford,2022-04-28 09:13:11,2021-05-14,0.18199723411601895,0.577731076963954,1.9650414754212242,,,,,,,,,,,,
20185,0,USKansasStafford,Kansas,Stafford,2022-04-28 09:13:11,2021-05-15,0.18199723411601895,0.577731076963954,1.9650414754212242,,,,,,,,,,,,
20185,0,USKansasStafford,Kansas,Stafford,2022-04-28 09:13:11,2021-05-16,0.18199723411601895,0.577731076963954,1.9650414754212242,,,,,,,,,,,,
20185,0,USKansasStafford,Kansas,Stafford,2022-04-28 09:13:11,2021-05-17,0.18199723411601895,0.577731076963954,1.9650414754212242,,,,,,,,,,,,
20185,0,USKansasStafford,Kansas,Stafford,2022-04-28 09:13:11,2021-05-18,0.18199723411601895,0.577731076963954,1.9650414754212242,,,,,,,,,,,,
20185,0,USKansasStafford,Kansas,Stafford,2022-04-28 09:13:11,2021-05-19,0.18199723411601895,0.577731076963954,1.9650414754212242,,,,,,,,,,,,
20185,0,USKansasStafford,Kansas,Stafford,2022-04-28 09:13:11,2021-05-20,0,0,0,,,,,,,,,,,,
20185,0,USKansasStafford,Kansas,Stafford,2022-04-28 09:13:11,2021-05-21,0,0,0,,,,,,,,,,,,
20185,0,USKansasStafford,Kansas,Stafford,2022-04-28 09:13:11,2021-05-22,0,0,0,,,,,,,,,,,,
20185,0,USKansasStafford,Kansas,Stafford,2022-04-28 09:13:11,2021-05-23,0,0,0,,,,,,,,,,,,
20185,0,USKansasStafford,Kansas,Stafford,2022-04-28 09:13:11,2021-05-24,0,0,0,,,,,,,,,,,,
20185,0,USKansasStafford,Kansas,Stafford,2022-04-28 09:13:11,2021-05-25,0,0,0,,,,,,,,,,,,
20185,0,USKansasStafford,Kansas,Stafford,2022-04-28 09:13:11,2021-05-26,0,0,0,,,,,,,,,,,,
20185,0,USKansasStafford,Kansas,Stafford,2022-04-28 09:13:11,2021-05-27,0.18153320631279077,0.5750225228088207,1.9517610964295995,,,,,,,,,,,,
20185,0,USKansasStafford,Kansas,Stafford,2022-04-28 09:13:11,2021-05-28,0.18153320631279077,0.5750225228088207,1.9517610964295995,,,,,,,,,,,,
20185,0,USKansasStafford,Kansas,Stafford,2022-04-28 09:13:11,2021-05-29,0.18153320631279077,0.5750225228088207,1.9517610964295995,,,,,,,,,,,,
20185,0,USKansasStafford,Kansas,Stafford,2022-04-28 09:13:11,2021-05-30,0.18153320631279077,0.5750225228088207,1.9517610964295995,,,,,,,,,,,,
20185,0,USKansasStafford,Kansas,Stafford,2022-04-28 09:13:11,2021-05-31,0.18153320631279077,0.5750225228088207,1.9517610964295995,,,,,,,,,,,,
20185,0,USKansasStafford,Kansas,Stafford,2022-04-28 09:13:11,2021-06-01,0.18153320631279077,0.5750225228088207,1.9517610964295995,,,,,,,,,,,,
20185,0,USKansasStafford,Kansas,Stafford,2022-04-28 09:13:11,2021-06-02,0.18153320631279077,0.5750225228088207,1.9517610964295995,,,,,,,,,,,,
20185,0,USKansasStafford,Kansas,Stafford,2022-04-28 09:13:11,2021-06-03,0,0,0,,,,,,,,,,,,
20185,0,USKansasStafford,Kansas,Stafford,2022-04-28 09:13:11,2021-06-04,0,0,0,,,,,,,,,,,,
20185,0,USKansasStafford,Kansas,Stafford,2022-04-28 09:13:11,2021-06-05,0,0,0,,,,,,,,,,,,
20185,0,USKansasStafford,Kansas,Stafford,2022-04-28 09:13:11,2021-06-06,0,0,0,,,,,,,,,,,,
20185,0,USKansasStafford,Kansas,Stafford,2022-04-28 09:13:11,2021-06-07,0,0,0,,,,,,,,,,,,
20185,0,USKansasStafford,Kansas,Stafford,2022-04-28 09:13:11,2021-06-08,0,0,0,,,,,,,,,,,,
20185,0,USKansasStafford,Kansas,Stafford,2022-04-28 09:13:11,2021-06-09,0,0,0,,,,,,,,,,,,
20185,0,USKansasStafford,Kansas,Stafford,2022-04-28 09:13:11,2021-06-10,0,0,0,,,,,,,,,,,,
20185,0,USKansasStafford,Kansas,Stafford,2022-04-28 09:13:11,2021-06-11,0,0,0,,,,,,,,,,,,
20185,0,USKansasStafford,Kansas,Stafford,2022-04-28 09:13:11,2021-06-12,0,0,0,,,,,,,,,,,,
20185,0,USKansasStafford,Kansas,Stafford,2022-04-28 09:13:11,2021-06-13,0,0,0,,,,,,,,,,,,
20185,0,USKansasStafford,Kansas,Stafford,2022-04-28 09:13:11,2021-06-14,0,0,0,,,,,,,,,,,,
20185,0,USKansasStafford,Kansas,Stafford,2022-04-28 09:13:11,2021-06-15,0,0,0,,,,,,,,,,,,
20185,0,USKansasStafford,Kansas,Stafford,2022-04-28 09:13:11,2021-06-16,0,0,0,,,,,,,,,,,,
20185,0,USKansasStafford,Kansas,Stafford,2022-04-28 09:13:11,2021-06-17,0,0,0,,,,,,,,,,,,
20185,0,USKansasStafford,Kansas,Stafford,2022-04-28 09:13:11,2021-06-18,0,0,0,,,,,,,,,,,,
20185,0,USKansasStafford,Kansas,Stafford,2022-04-28 09:13:11,2021-06-19,0,0,0,,,,,,,,,,,,
20185,0,USKansasStafford,Kansas,Stafford,2022-04-28 09:13:11,2021-06-20,0,0,0,,,,,,,,,,,,
20185,0,USKansasStafford,Kansas,Stafford,2022-04-28 09:13:11,2021-06-21,0,0,0,,,,,,,,,,,,
20185,0,USKansasStafford,Kansas,Stafford,2022-04-28 09:13:11,2021-06-22,0,0,0,,,,,,,,,,,,
20185,0,USKansasStafford,Kansas,Stafford,2022-04-28 09:13:11,2021-06-23,0,0,0,,,,,,,,,,,,
20185,0,USKansasStafford,Kansas,Stafford,2022-04-28 09:13:11,2021-06-24,0,0,0,,,,,,,,,,,,
20185,0,USKansasStafford,Kansas,Stafford,2022-04-28 09:13:11,2021-06-25,0,0,0,,,,,,,,,,,,
20185,0,USKansasStafford,Kansas,Stafford,2022-04-28 09:13:11,2021-06-26,0,0,0,,,,,,,,,,,,
20185,0,USKansasStafford,Kansas,Stafford,2022-04-28 09:13:11,2021-06-27,0,0,0,,,,,,,,,,,,
20185,0,USKansasStafford,Kansas,Stafford,2022-04-28 09:13:11,2021-06-28,0,0,0,,,,,,,,,,,,
20185,0,USKansasStafford,Kansas,Stafford,2022-04-28 09:13:11,2021-06-29,0,0,0,,,,,,,,,,,,
20185,0,USKansasStafford,Kansas,Stafford,2022-04-28 09:13:11,2021-06-30,0,0,0,,,,,,,,,,,,
20185,0,USKansasStafford,Kansas,Stafford,2022-04-28 09:13:11,2021-07-01,0,0,0,,,,,,,,,,,,
20185,0,USKansasStafford,Kansas,Stafford,2022-04-28 09:13:11,2021-07-02,0,0,0,,,,,,,,,,,,
20185,0,USKansasStafford,Kansas,Stafford,2022-04-28 09:13:11,2021-07-03,0,0,0,,,,,,,,,,,,
20185,0,USKansasStafford,Kansas,Stafford,2022-04-28 09:13:11,2021-07-04,0,0,0,,,,,,,,,,,,
20185,0,USKansasStafford,Kansas,Stafford,2022-04-28 09:13:11,2021-07-05,0,0,0,,,,,,,,,,,,
20185,0,USKansasStafford,Kansas,Stafford,2022-04-28 09:13:11,2021-07-06,0,0,0,,,,,,,,,,,,
20185,0,USKansasStafford,Kansas,Stafford,2022-04-28 09:13:11,2021-07-07,0,0,0,,,,,,,,,,,,
20185,0,USKansasStafford,Kansas,Stafford,2022-04-28 09:13:11,2021-07-08,0.21386535732181933,0.7761895173713684,3.004489428317294,,,,,,,,,,,,
20185,0,USKansasStafford,Kansas,Stafford,2022-04-28 09:13:11,2021-07-09,0.21386535732181933,0.7761895173713684,3.004489428317294,,,,,,,,,,,,
20185,0,USKansasStafford,Kansas,Stafford,2022-04-28 09:13:11,2021-07-10,0.21386535732181933,0.7761895173713684,3.004489428317294,,,,,,,,,,,,
20185,0,USKansasStafford,Kansas,Stafford,2022-04-28 09:13:11,2021-07-11,0.21386535732181933,0.7761895173713684,3.004489428317294,,,,,,,,,,,,
20185,0,USKansasStafford,Kansas,Stafford,2022-04-28 09:13:11,2021-07-12,0.21386535732181933,0.7761895173713684,3.004489428317294,,,,,,,,,,,,
20185,0,USKansasStafford,Kansas,Stafford,2022-04-28 09:13:11,2021-07-13,0.21386535732181933,0.7761895173713684,3.004489428317294,,,,,,,,,,,,
20185,0,USKansasStafford,Kansas,Stafford,2022-04-28 09:13:11,2021-07-14,0.21386535732181933,0.7761895173713684,3.004489428317294,,,,,,,,,,,,
20185,0,USKansasStafford,Kansas,Stafford,2022-04-28 09:13:11,2021-07-15,0.7338930538986113,1.9383126413541567,5.506913862837924,,,,,,,,,,,,
20185,0,USKansasStafford,Kansas,Stafford,2022-04-28 09:13:11,2021-07-16,0.7338930538986113,1.9383126413541567,5.506913862837924,,,,,,,,,,,,
20185,0,USKansasStafford,Kansas,Stafford,2022-04-28 09:13:11,2021-07-17,0.7338930538986113,1.9383126413541567,5.506913862837924,,,,,,,,,,,,
20185,0,USKansasStafford,Kansas,Stafford,2022-04-28 09:13:11,2021-07-18,0.7338930538986113,1.9383126413541567,5.506913862837924,,,,,,,,,,,,
20185,0,USKansasStafford,Kansas,Stafford,2022-04-28 09:13:11,2021-07-19,0.7338930538986113,1.9383126413541567,5.506913862837924,,,,,,,,,,,,
20185,0,USKansasStafford,Kansas,Stafford,2022-04-28 09:13:11,2021-07-20,0.7338930538986113,1.9383126413541567,5.506913862837924,,,,,,,,,,,,
20185,0,USKansasStafford,Kansas,Stafford,2022-04-28 09:13:11,2021-07-21,0.7338930538986113,1.9383126413541567,5.506913862837924,,,,,,,,,,,,
20185,0,USKansasStafford,Kansas,Stafford,2022-04-28 09:13:11,2021-07-22,0.8864358915197913,2.354514309140122,6.7269884992932845,,,,,,,,,,,,
20185,0,USKansasStafford,Kansas,Stafford,2022-04-28 09:13:11,2021-07-23,0.8864358915197913,2.354514309140122,6.7269884992932845,,,,,,,,,,,,
20185,0,USKansasStafford,Kansas,Stafford,2022-04-28 09:13:11,2021-07-24,0.8864358915197913,2.354514309140122,6.7269884992932845,,,,,,,,,,,,
20185,0,USKansasStafford,Kansas,Stafford,2022-04-28 09:13:11,2021-07-25,0.8864358915197913,2.354514309140122,6.7269884992932845,,,,,,,,,,,,
20185,0,USKansasStafford,Kansas,Stafford,2022-04-28 09:13:11,2021-07-26,0.8864358915197913,2.354514309140122,6.7269884992932845,,,,,,,,,,,,
20185,0,USKansasStafford,Kansas,Stafford,2022-04-28 09:13:11,2021-07-27,0.8864358915197913,2.354514309140122,6.7269884992932845,,,,,,,,,,,,
20185,0,USKansasStafford,Kansas,Stafford,2022-04-28 09:13:11,2021-07-28,0.8864358915197913,2.354514309140122,6.7269884992932845,,,,,,,,,,,,
20185,0,USKansasStafford,Kansas,Stafford,2022-04-28 09:13:11,2021-07-29,0.9532957525961098,2.094347628914476,4.946748479868486,,,,,,,,,,,,
20185,0,USKansasStafford,Kansas,Stafford,2022-04-28 09:13:11,2021-07-30,0.9532957525961098,2.094347628914476,4.946748479868486,,,,,,,,,,,,
20185,0,USKansasStafford,Kansas,Stafford,2022-04-28 09:13:11,2021-07-31,0.9532957525961098,2.094347628914476,4.946748479868486,,,,,,,,,,,,
20185,0,USKansasStafford,Kansas,Stafford,2022-04-28 09:13:11,2021-08-01,0.9532957525961098,2.094347628914476,4.946748479868486,,,,,,,,,,,,
20185,0,USKansasStafford,Kansas,Stafford,2022-04-28 09:13:11,2021-08-02,0.9532957525961098,2.094347628914476,4.946748479868486,,,,,,,,,,,,
20185,0,USKansasStafford,Kansas,Stafford,2022-04-28 09:13:11,2021-08-03,0.9532957525961098,2.094347628914476,4.946748479868486,,,,,,,,,,,,
20185,0,USKansasStafford,Kansas,Stafford,2022-04-28 09:13:11,2021-08-04,0.9532957525961098,2.094347628914476,4.946748479868486,,,,,,,,,,,,
20185,0,USKansasStafford,Kansas,Stafford,2022-04-28 09:13:11,2021-08-05,1.7665672364493081,3.840406945272373,8.97392134277501,,,,,,,,,,,,
20185,0,USKansasStafford,Kansas,Stafford,2022-04-28 09:13:11,2021-08-06,1.7665672364493081,3.840406945272373,8.97392134277501,,,,,,,,,,,,
20185,0,USKansasStafford,Kansas,Stafford,2022-04-28 09:13:11,2021-08-07,1.7665672364493081,3.840406945272373,8.97392134277501,,,,,,,,,,,,
20185,0,USKansasStafford,Kansas,Stafford,2022-04-28 09:13:11,2021-08-08,1.7665672364493081,3.840406945272373,8.97392134277501,,,,,,,,,,,,
20185,0,USKansasStafford,Kansas,Stafford,2022-04-28 09:13:11,2021-08-09,1.7665672364493081,3.840406945272373,8.97392134277501,,,,,,,,,,,,
20185,0,USKansasStafford,Kansas,Stafford,2022-04-28 09:13:11,2021-08-10,1.7665672364493081,3.840406945272373,8.97392134277501,,,,,,,,,,,,
20185,0,USKansasStafford,Kansas,Stafford,2022-04-28 09:13:11,2021-08-11,1.7665672364493081,3.840406945272373,8.97392134277501,,,,,,,,,,,,
20185,0,USKansasStafford,Kansas,Stafford,2022-04-28 09:13:11,2021-08-12,0.9093462360446388,2.4694063476067973,7.2109852048618865,,,,,,,,,,,,
20185,0,USKansasStafford,Kansas,Stafford,2022-04-28 09:13:11,2021-08-13,0.9093462360446388,2.4694063476067973,7.2109852048618865,,,,,,,,,,,,
20185,0,USKansasStafford,Kansas,Stafford,2022-04-28 09:13:11,2021-08-14,0.9093462360446388,2.4694063476067973,7.2109852048618865,,,,,,,,,,,,
20185,0,USKansasStafford,Kansas,Stafford,2022-04-28 09:13:11,2021-08-15,0.9093462360446388,2.4694063476067973,7.2109852048618865,,,,,,,,,,,,
20185,0,USKansasStafford,Kansas,Stafford,2022-04-28 09:13:11,2021-08-16,0.9093462360446388,2.4694063476067973,7.2109852048618865,,,,,,,,,,,,
20185,0,USKansasStafford,Kansas,Stafford,2022-04-28 09:13:11,2021-08-17,0.9093462360446388,2.4694063476067973,7.2109852048618865,,,,,,,,,,,,
20185,0,USKansasStafford,Kansas,Stafford,2022-04-28 09:13:11,2021-08-18,0.9093462360446388,2.4694063476067973,7.2109852048618865,,,,,,,,,,,,
20185,0,USKansasStafford,Kansas,Stafford,2022-04-28 09:13:11,2021-08-19,1.2269341507578029,3.0377276313432326,8.093808796489256,,,,,,,,,,,,
20185,0,USKansasStafford,Kansas,Stafford,2022-04-28 09:13:11,2021-08-20,1.2269341507578029,3.0377276313432326,8.093808796489256,,,,,,,,,,,,
20185,0,USKansasStafford,Kansas,Stafford,2022-04-28 09:13:11,2021-08-21,1.2269341507578029,3.0377276313432326,8.093808796489256,,,,,,,,,,,,
20185,0,USKansasStafford,Kansas,Stafford,2022-04-28 09:13:11,2021-08-22,1.2269341507578029,3.0377276313432326,8.093808796489256,,,,,,,,,,,,
20185,0,USKansasStafford,Kansas,Stafford,2022-04-28 09:13:11,2021-08-23,1.2269341507578029,3.0377276313432326,8.093808796489256,,,,,,,,,,,,
20185,0,USKansasStafford,Kansas,Stafford,2022-04-28 09:13:11,2021-08-24,1.2269341507578029,3.0377276313432326,8.093808796489256,,,,,,,,,,,,
20185,0,USKansasStafford,Kansas,Stafford,2022-04-28 09:13:11,2021-08-25,1.2269341507578029,3.0377276313432326,8.093808796489256,,,,,,,,,,,,
20185,0,USKansasStafford,Kansas,Stafford,2022-04-28 09:13:11,2021-08-26,0.9791800821123315,2.4797628954946367,6.757714613837079,,,,,,,,,,,,
20185,0,USKansasStafford,Kansas,Stafford,2022-04-28 09:13:11,2021-08-27,0.9791800821123315,2.4797628954946367,6.757714613837079,,,,,,,,,,,,
20185,0,USKansasStafford,Kansas,Stafford,2022-04-28 09:13:11,2021-08-28,0.9791800821123315,2.4797628954946367,6.757714613837079,,,,,,,,,,,,
20185,0,USKansasStafford,Kansas,Stafford,2022-04-28 09:13:11,2021-08-29,0.9791800821123315,2.4797628954946367,6.757714613837079,,,,,,,,,,,,
20185,0,USKansasStafford,Kansas,Stafford,2022-04-28 09:13:11,2021-08-30,0.9791800821123315,2.4797628954946367,6.757714613837079,,,,,,,,,,,,
20185,0,USKansasStafford,Kansas,Stafford,2022-04-28 09:13:11,2021-08-31,0.9791800821123315,2.4797628954946367,6.757714613837079,,,,,,,,,,,,
20185,0,USKansasStafford,Kansas,Stafford,2022-04-28 09:13:11,2021-09-01,0.9791800821123315,2.4797628954946367,6.757714613837079,,,,,,,,,,,,
20185,0,USKansasStafford,Kansas,Stafford,2022-04-28 09:13:11,2021-09-02,1.8342257538276638,3.8920008047335553,8.871609094223157,,,,,,,,,,,,
20185,0,USKansasStafford,Kansas,Stafford,2022-04-28 09:13:11,2021-09-03,1.8342257538276638,3.8920008047335553,8.871609094223157,,,,,,,,,,,,
20185,0,USKansasStafford,Kansas,Stafford,2022-04-28 09:13:11,2021-09-04,1.8342257538276638,3.8920008047335553,8.871609094223157,,,,,,,,,,,,
20185,0,USKansasStafford,Kansas,Stafford,2022-04-28 09:13:11,2021-09-05,1.8342257538276638,3.8920008047335553,8.871609094223157,,,,,,,,,,,,
20185,0,USKansasStafford,Kansas,Stafford,2022-04-28 09:13:11,2021-09-06,1.8342257538276638,3.8920008047335553,8.871609094223157,,,,,,,,,,,,
20185,0,USKansasStafford,Kansas,Stafford,2022-04-28 09:13:11,2021-09-07,1.8342257538276638,3.8920008047335553,8.871609094223157,,,,,,,,,,,,
20185,0,USKansasStafford,Kansas,Stafford,2022-04-28 09:13:11,2021-09-08,1.8342257538276638,3.8920008047335553,8.871609094223157,,,,,,,,,,,,
20185,0,USKansasStafford,Kansas,Stafford,2022-04-28 09:13:11,2021-09-09,4.7644783326978555,7.701823185722034,13.16416713413103,,,,,,,,,,,,
20185,0,USKansasStafford,Kansas,Stafford,2022-04-28 09:13:11,2021-09-10,4.7644783326978555,7.701823185722034,13.16416713413103,,,,,,,,,,,,
20185,0,USKansasStafford,Kansas,Stafford,2022-04-28 09:13:11,2021-09-11,4.7644783326978555,7.701823185722034,13.16416713413103,,,,,,,,,,,,
20185,0,USKansasStafford,Kansas,Stafford,2022-04-28 09:13:11,2021-09-12,4.7644783326978555,7.701823185722034,13.16416713413103,,,,,,,,,,,,
20185,0,USKansasStafford,Kansas,Stafford,2022-04-28 09:13:11,2021-09-13,4.7644783326978555,7.701823185722034,13.16416713413103,,,,,,,,,,,,
20185,0,USKansasStafford,Kansas,Stafford,2022-04-28 09:13:11,2021-09-14,4.7644783326978555,7.701823185722034,13.16416713413103,,,,,,,,,,,,
20185,0,USKansasStafford,Kansas,Stafford,2022-04-28 09:13:11,2021-09-15,4.7644783326978555,7.701823185722034,13.16416713413103,,,,,,,,,,,,
20185,0,USKansasStafford,Kansas,Stafford,2022-04-28 09:13:11,2021-09-16,2.8243219846844974,5.167772105893347,10.09371289274229,,,,,,,,,,,,
20185,0,USKansasStafford,Kansas,Stafford,2022-04-28 09:13:11,2021-09-17,2.8243219846844974,5.167772105893347,10.09371289274229,,,,,,,,,,,,
20185,0,USKansasStafford,Kansas,Stafford,2022-04-28 09:13:11,2021-09-18,2.8243219846844974,5.167772105893347,10.09371289274229,,,,,,,,,,,,
20185,0,USKansasStafford,Kansas,Stafford,2022-04-28 09:13:11,2021-09-19,2.8243219846844974,5.167772105893347,10.09371289274229,,,,,,,,,,,,
20185,0,USKansasStafford,Kansas,Stafford,2022-04-28 09:13:11,2021-09-20,2.8243219846844974,5.167772105893347,10.09371289274229,,,,,,,,,,,,
20185,0,USKansasStafford,Kansas,Stafford,2022-04-28 09:13:11,2021-09-21,2.8243219846844974,5.167772105893347,10.09371289274229,,,,,,,,,,,,
20185,0,USKansasStafford,Kansas,Stafford,2022-04-28 09:13:11,2021-09-22,2.8243219846844974,5.167772105893347,10.09371289274229,,,,,,,,,,,,
20185,0,USKansasStafford,Kansas,Stafford,2022-04-28 09:13:11,2021-09-23,2.1909025703733365,4.268565240344372,8.90713148987474,,,,,,,,,,,,
20185,0,USKansasStafford,Kansas,Stafford,2022-04-28 09:13:11,2021-09-24,2.1909025703733365,4.268565240344372,8.90713148987474,,,,,,,,,,,,
20185,0,USKansasStafford,Kansas,Stafford,2022-04-28 09:13:11,2021-09-25,2.1909025703733365,4.268565240344372,8.90713148987474,,,,,,,,,,,,
20185,0,USKansasStafford,Kansas,Stafford,2022-04-28 09:13:11,2021-09-26,2.1909025703733365,4.268565240344372,8.90713148987474,,,,,,,,,,,,
20185,0,USKansasStafford,Kansas,Stafford,2022-04-28 09:13:11,2021-09-27,2.1909025703733365,4.268565240344372,8.90713148987474,,,,,,,,,,,,
20185,0,USKansasStafford,Kansas,Stafford,2022-04-28 09:13:11,2021-09-28,2.1909025703733365,4.268565240344372,8.90713148987474,,,,,,,,,,,,
20185,0,USKansasStafford,Kansas,Stafford,2022-04-28 09:13:11,2021-09-29,2.1909025703733365,4.268565240344372,8.90713148987474,,,,,,,,,,,,
20185,0,USKansasStafford,Kansas,Stafford,2022-04-28 09:13:11,2021-09-30,1.4651216985772795,3.289585828851412,7.943630718997112,,,,,,,,,,,,
20185,0,USKansasStafford,Kansas,Stafford,2022-04-28 09:13:11,2021-10-01,1.4651216985772795,3.289585828851412,7.943630718997112,,,,,,,,,,,,
20185,0,USKansasStafford,Kansas,Stafford,2022-04-28 09:13:11,2021-10-02,1.4651216985772795,3.289585828851412,7.943630718997112,,,,,,,,,,,,
20185,0,USKansasStafford,Kansas,Stafford,2022-04-28 09:13:11,2021-10-03,1.4651216985772795,3.289585828851412,7.943630718997112,,,,,,,,,,,,
20185,0,USKansasStafford,Kansas,Stafford,2022-04-28 09:13:11,2021-10-04,1.4651216985772795,3.289585828851412,7.943630718997112,,,,,,,,,,,,
20185,0,USKansasStafford,Kansas,Stafford,2022-04-28 09:13:11,2021-10-05,1.4651216985772795,3.289585828851412,7.943630718997112,,,,,,,,,,,,
20185,0,USKansasStafford,Kansas,Stafford,2022-04-28 09:13:11,2021-10-06,1.4651216985772795,3.289585828851412,7.943630718997112,,,,,,,,,,,,
20185,0,USKansasStafford,Kansas,Stafford,2022-04-28 09:13:11,2021-10-07,2.149425966629444,4.302210733360178,9.233138939181739,,,,,,,,,,,,
20185,0,USKansasStafford,Kansas,Stafford,2022-04-28 09:13:11,2021-10-08,2.149425966629444,4.302210733360178,9.233138939181739,,,,,,,,,,,,
20185,0,USKansasStafford,Kansas,Stafford,2022-04-28 09:13:11,2021-10-09,2.149425966629444,4.302210733360178,9.233138939181739,,,,,,,,,,,,
20185,0,USKansasStafford,Kansas,Stafford,2022-04-28 09:13:11,2021-10-10,2.149425966629444,4.302210733360178,9.233138939181739,,,,,,,,,,,,
20185,0,USKansasStafford,Kansas,Stafford,2022-04-28 09:13:11,2021-10-11,2.149425966629444,4.302210733360178,9.233138939181739,,,,,,,,,,,,
20185,0,USKansasStafford,Kansas,Stafford,2022-04-28 09:13:11,2021-10-12,2.149425966629444,4.302210733360178,9.233138939181739,,,,,,,,,,,,
20185,0,USKansasStafford,Kansas,Stafford,2022-04-28 09:13:11,2021-10-13,2.149425966629444,4.302210733360178,9.233138939181739,,,,,,,,,,,,
20185,0,USKansasStafford,Kansas,Stafford,2022-04-28 09:13:11,2021-10-14,2.768497947850437,5.1361746804600354,10.179985075947428,,,,,,,,,,,,
20185,0,USKansasStafford,Kansas,Stafford,2022-04-28 09:13:11,2021-10-15,2.768497947850437,5.1361746804600354,10.179985075947428,,,,,,,,,,,,
20185,0,USKansasStafford,Kansas,Stafford,2022-04-28 09:13:11,2021-10-16,2.768497947850437,5.1361746804600354,10.179985075947428,,,,,,,,,,,,
20185,0,USKansasStafford,Kansas,Stafford,2022-04-28 09:13:11,2021-10-17,2.768497947850437,5.1361746804600354,10.179985075947428,,,,,,,,,,,,
20185,0,USKansasStafford,Kansas,Stafford,2022-04-28 09:13:11,2021-10-18,2.768497947850437,5.1361746804600354,10.179985075947428,,,,,,,,,,,,
20185,0,USKansasStafford,Kansas,Stafford,2022-04-28 09:13:11,2021-10-19,2.768497947850437,5.1361746804600354,10.179985075947428,,,,,,,,,,,,
20185,0,USKansasStafford,Kansas,Stafford,2022-04-28 09:13:11,2021-10-20,2.768497947850437,5.1361746804600354,10.179985075947428,,,,,,,,,,,,
20185,0,USKansasStafford,Kansas,Stafford,2022-04-28 09:13:11,2021-10-21,2.259244912461542,4.526287371698889,9.723560181875621,,,,,,,,,,,,
20185,0,USKansasStafford,Kansas,Stafford,2022-04-28 09:13:11,2021-10-22,2.259244912461542,4.526287371698889,9.723560181875621,,,,,,,,,,,,
20185,0,USKansasStafford,Kansas,Stafford,2022-04-28 09:13:11,2021-10-23,2.259244912461542,4.526287371698889,9.723560181875621,,,,,,,,,,,,
20185,0,USKansasStafford,Kansas,Stafford,2022-04-28 09:13:11,2021-10-24,2.259244912461542,4.526287371698889,9.723560181875621,,,,,,,,,,,,
20185,0,USKansasStafford,Kansas,Stafford,2022-04-28 09:13:11,2021-10-25,2.259244912461542,4.526287371698889,9.723560181875621,,,,,,,,,,,,
20185,0,USKansasStafford,Kansas,Stafford,2022-04-28 09:13:11,2021-10-26,2.259244912461542,4.526287371698889,9.723560181875621,,,,,,,,,,,,
20185,0,USKansasStafford,Kansas,Stafford,2022-04-28 09:13:11,2021-10-27,2.259244912461542,4.526287371698889,9.723560181875621,,,,,,,,,,,,
20185,0,USKansasStafford,Kansas,Stafford,2022-04-28 09:13:11,2021-10-28,1.195866214462151,2.8946352751699114,7.540184123213943,,,,,,,,,,,,
20185,0,USKansasStafford,Kansas,Stafford,2022-04-28 09:13:11,2021-10-29,1.195866214462151,2.8946352751699114,7.540184123213943,,,,,,,,,,,,
20185,0,USKansasStafford,Kansas,Stafford,2022-04-28 09:13:11,2021-10-30,1.195866214462151,2.8946352751699114,7.540184123213943,,,,,,,,,,,,
20185,0,USKansasStafford,Kansas,Stafford,2022-04-28 09:13:11,2021-10-31,1.195866214462151,2.8946352751699114,7.540184123213943,,,,,,,,,,,,
20185,0,USKansasStafford,Kansas,Stafford,2022-04-28 09:13:11,2021-11-01,1.195866214462151,2.8946352751699114,7.540184123213943,,,,,,,,,,,,
20185,0,USKansasStafford,Kansas,Stafford,2022-04-28 09:13:11,2021-11-02,1.195866214462151,2.8946352751699114,7.540184123213943,,,,,,,,,,,,
20185,0,USKansasStafford,Kansas,Stafford,2022-04-28 09:13:11,2021-11-03,1.195866214462151,2.8946352751699114,7.540184123213943,,,,,,,,,,,,
20185,0,USKansasStafford,Kansas,Stafford,2022-04-28 09:13:11,2021-11-04,3.1192443191952255,5.880126753270459,11.852722867322411,,,,,,,,,,,,
20185,0,USKansasStafford,Kansas,Stafford,2022-04-28 09:13:11,2021-11-05,3.1192443191952255,5.880126753270459,11.852722867322411,,,,,,,,,,,,
20185,0,USKansasStafford,Kansas,Stafford,2022-04-28 09:13:11,2021-11-06,3.1192443191952255,5.880126753270459,11.852722867322411,,,,,,,,,,,,
20185,0,USKansasStafford,Kansas,Stafford,2022-04-28 09:13:11,2021-11-07,3.1192443191952255,5.880126753270459,11.852722867322411,,,,,,,,,,,,
20185,0,USKansasStafford,Kansas,Stafford,2022-04-28 09:13:11,2021-11-08,3.1192443191952255,5.880126753270459,11.852722867322411,,,,,,,,,,,,
20185,0,USKansasStafford,Kansas,Stafford,2022-04-28 09:13:11,2021-11-09,3.1192443191952255,5.880126753270459,11.852722867322411,,,,,,,,,,,,
20185,0,USKansasStafford,Kansas,Stafford,2022-04-28 09:13:11,2021-11-10,3.1192443191952255,5.880126753270459,11.852722867322411,,,,,,,,,,,,
20185,0,USKansasStafford,Kansas,Stafford,2022-04-28 09:13:11,2021-11-11,4.486521620663627,7.757920889375153,14.265009466635586,,,,,,,,,,,,
20185,0,USKansasStafford,Kansas,Stafford,2022-04-28 09:13:11,2021-11-12,4.486521620663627,7.757920889375153,14.265009466635586,,,,,,,,,,,,
20185,0,USKansasStafford,Kansas,Stafford,2022-04-28 09:13:11,2021-11-13,4.486521620663627,7.757920889375153,14.265009466635586,,,,,,,,,,,,
20185,0,USKansasStafford,Kansas,Stafford,2022-04-28 09:13:11,2021-11-14,4.486521620663627,7.757920889375153,14.265009466635586,,,,,,,,,,,,
20185,0,USKansasStafford,Kansas,Stafford,2022-04-28 09:13:11,2021-11-15,4.486521620663627,7.757920889375153,14.265009466635586,,,,,,,,,,,,
20185,0,USKansasStafford,Kansas,Stafford,2022-04-28 09:13:11,2021-11-16,4.486521620663627,7.757920889375153,14.265009466635586,,,,,,,,,,,,
20185,0,USKansasStafford,Kansas,Stafford,2022-04-28 09:13:11,2021-11-17,4.486521620663627,7.757920889375153,14.265009466635586,,,,,,,,,,,,
20185,0,USKansasStafford,Kansas,Stafford,2022-04-28 09:13:11,2021-11-18,2.8502722532535882,5.098411202295369,9.721137154806994,,,,,,,,,,,,
20185,0,USKansasStafford,Kansas,Stafford,2022-04-28 09:13:11,2021-11-19,2.8502722532535882,5.098411202295369,9.721137154806994,,,,,,,,,,,,
20185,0,USKansasStafford,Kansas,Stafford,2022-04-28 09:13:11,2021-11-20,2.8502722532535882,5.098411202295369,9.721137154806994,,,,,,,,,,,,
20185,0,USKansasStafford,Kansas,Stafford,2022-04-28 09:13:11,2021-11-21,2.8502722532535882,5.098411202295369,9.721137154806994,,,,,,,,,,,,
20185,0,USKansasStafford,Kansas,Stafford,2022-04-28 09:13:11,2021-11-22,2.8502722532535882,5.098411202295369,9.721137154806994,,,,,,,,,,,,
20185,0,USKansasStafford,Kansas,Stafford,2022-04-28 09:13:11,2021-11-23,2.8502722532535882,5.098411202295369,9.721137154806994,,,,,,,,,,,,
20185,0,USKansasStafford,Kansas,Stafford,2022-04-28 09:13:11,2021-11-24,2.8502722532535882,5.098411202295369,9.721137154806994,,,,,,,,,,,,
20185,0,USKansasStafford,Kansas,Stafford,2022-04-28 09:13:11,2021-11-25,3.8461708366175884,8.28345013693521,19.171763715867378,,,,,,,,,,,,
20185,0,USKansasStafford,Kansas,Stafford,2022-04-28 09:13:11,2021-11-26,3.8461708366175884,8.28345013693521,19.171763715867378,,,,,,,,,,,,
20185,0,USKansasStafford,Kansas,Stafford,2022-04-28 09:13:11,2021-11-27,3.8461708366175884,8.28345013693521,19.171763715867378,,,,,,,,,,,,
20185,0,USKansasStafford,Kansas,Stafford,2022-04-28 09:13:11,2021-11-28,3.8461708366175884,8.28345013693521,19.171763715867378,,,,,,,,,,,,
20185,0,USKansasStafford,Kansas,Stafford,2022-04-28 09:13:11,2021-11-29,3.8461708366175884,8.28345013693521,19.171763715867378,,,,,,,,,,,,
20185,0,USKansasStafford,Kansas,Stafford,2022-04-28 09:13:11,2021-11-30,3.8461708366175884,8.28345013693521,19.171763715867378,,,,,,,,,,,,
20185,0,USKansasStafford,Kansas,Stafford,2022-04-28 09:13:11,2021-12-01,3.8461708366175884,8.28345013693521,19.171763715867378,,,,,,,,,,,,
20185,0,USKansasStafford,Kansas,Stafford,2022-04-28 09:13:11,2021-12-02,3.6692523073576533,7.180454433788462,15.052505530240282,,,,,,,,,,,,
20185,0,USKansasStafford,Kansas,Stafford,2022-04-28 09:13:11,2021-12-03,3.6692523073576533,7.180454433788462,15.052505530240282,,,,,,,,,,,,
20185,0,USKansasStafford,Kansas,Stafford,2022-04-28 09:13:11,2021-12-04,3.6692523073576533,7.180454433788462,15.052505530240282,,,,,,,,,,,,
20185,0,USKansasStafford,Kansas,Stafford,2022-04-28 09:13:11,2021-12-05,3.6692523073576533,7.180454433788462,15.052505530240282,,,,,,,,,,,,
20185,0,USKansasStafford,Kansas,Stafford,2022-04-28 09:13:11,2021-12-06,3.6692523073576533,7.180454433788462,15.052505530240282,,,,,,,,,,,,
20185,0,USKansasStafford,Kansas,Stafford,2022-04-28 09:13:11,2021-12-07,3.6692523073576533,7.180454433788462,15.052505530240282,,,,,,,,,,,,
20185,0,USKansasStafford,Kansas,Stafford,2022-04-28 09:13:11,2021-12-08,3.6692523073576533,7.180454433788462,15.052505530240282,,,,,,,,,,,,
20185,0,USKansasStafford,Kansas,Stafford,2022-04-28 09:13:11,2021-12-09,3.492228627403578,6.892633392142958,14.578402517751513,,,,,,,,,,,,
20185,0,USKansasStafford,Kansas,Stafford,2022-04-28 09:13:11,2021-12-10,3.492228627403578,6.892633392142958,14.578402517751513,,,,,,,,,,,,
20185,0,USKansasStafford,Kansas,Stafford,2022-04-28 09:13:11,2021-12-11,3.492228627403578,6.892633392142958,14.578402517751513,,,,,,,,,,,,
20185,0,USKansasStafford,Kansas,Stafford,2022-04-28 09:13:11,2021-12-12,3.492228627403578,6.892633392142958,14.578402517751513,,,,,,,,,,,,
20185,0,USKansasStafford,Kansas,Stafford,2022-04-28 09:13:11,2021-12-13,3.492228627403578,6.892633392142958,14.578402517751513,,,,,,,,,,,,
20185,0,USKansasStafford,Kansas,Stafford,2022-04-28 09:13:11,2021-12-14,3.492228627403578,6.892633392142958,14.578402517751513,,,,,,,,,,,,
20185,0,USKansasStafford,Kansas,Stafford,2022-04-28 09:13:11,2021-12-15,3.492228627403578,6.892633392142958,14.578402517751513,,,,,,,,,,,,
20185,0,USKansasStafford,Kansas,Stafford,2022-04-28 09:13:11,2021-12-16,1.977164379246854,4.7519511245925035,12.290535022855694,,,,,,,,,,,,
20185,0,USKansasStafford,Kansas,Stafford,2022-04-28 09:13:11,2021-12-17,1.977164379246854,4.7519511245925035,12.290535022855694,,,,,,,,,,,,
20185,0,USKansasStafford,Kansas,Stafford,2022-04-28 09:13:11,2021-12-18,1.977164379246854,4.7519511245925035,12.290535022855694,,,,,,,,,,,,
20185,0,USKansasStafford,Kansas,Stafford,2022-04-28 09:13:11,2021-12-19,1.977164379246854,4.7519511245925035,12.290535022855694,,,,,,,,,,,,
20185,0,USKansasStafford,Kansas,Stafford,2022-04-28 09:13:11,2021-12-20,1.977164379246854,4.7519511245925035,12.290535022855694,,,,,,,,,,,,
20185,0,USKansasStafford,Kansas,Stafford,2022-04-28 09:13:11,2021-12-21,1.977164379246854,4.7519511245925035,12.290535022855694,,,,,,,,,,,,
20185,0,USKansasStafford,Kansas,Stafford,2022-04-28 09:13:11,2021-12-22,1.977164379246854,4.7519511245925035,12.290535022855694,,,,,,,,,,,,
20185,0,USKansasStafford,Kansas,Stafford,2022-04-28 09:13:11,2021-12-23,1.8416526075393438,4.7159539102236465,12.994054178642617,,,,,,,,,,,,
20185,0,USKansasStafford,Kansas,Stafford,2022-04-28 09:13:11,2021-12-24,1.8416526075393438,4.7159539102236465,12.994054178642617,,,,,,,,,,,,
20185,0,USKansasStafford,Kansas,Stafford,2022-04-28 09:13:11,2021-12-25,1.8416526075393438,4.7159539102236465,12.994054178642617,,,,,,,,,,,,
20185,0,USKansasStafford,Kansas,Stafford,2022-04-28 09:13:11,2021-12-26,1.8416526075393438,4.7159539102236465,12.994054178642617,,,,,,,,,,,,
20185,0,USKansasStafford,Kansas,Stafford,2022-04-28 09:13:11,2021-12-27,1.8416526075393438,4.7159539102236465,12.994054178642617,,,,,,,,,,,,
20185,0,USKansasStafford,Kansas,Stafford,2022-04-28 09:13:11,2021-12-28,1.8416526075393438,4.7159539102236465,12.994054178642617,,,,,,,,,,,,
20185,0,USKansasStafford,Kansas,Stafford,2022-04-28 09:13:11,2021-12-29,1.8416526075393438,4.7159539102236465,12.994054178642617,,,,,,,,,,,,
20185,0,USKansasStafford,Kansas,Stafford,2022-04-28 09:13:11,2021-12-30,2.8119073365469744,7.152883322569102,19.579100458315335,,,,,,,,,,,,
20185,0,USKansasStafford,Kansas,Stafford,2022-04-28 09:13:11,2021-12-31,2.8119073365469744,7.152883322569102,19.579100458315335,,,,,,,,,,,,
20185,0,USKansasStafford,Kansas,Stafford,2022-04-28 09:13:11,2022-01-01,2.8119073365469744,7.152883322569102,19.579100458315335,,,,,,,,,,,,
20185,0,USKansasStafford,Kansas,Stafford,2022-04-28 09:13:11,2022-01-02,2.8119073365469744,7.152883322569102,19.579100458315335,,,,,,,,,,,,
20185,0,USKansasStafford,Kansas,Stafford,2022-04-28 09:13:11,2022-01-03,2.8119073365469744,7.152883322569102,19.579100458315335,,,,,,,,,,,,
20185,0,USKansasStafford,Kansas,Stafford,2022-04-28 09:13:11,2022-01-04,2.8119073365469744,7.152883322569102,19.579100458315335,,,,,,,,,,,,
20185,0,USKansasStafford,Kansas,Stafford,2022-04-28 09:13:11,2022-01-05,2.8119073365469744,7.152883322569102,19.579100458315335,,,,,,,,,,,,
20185,0,USKansasStafford,Kansas,Stafford,2022-04-28 09:13:11,2022-01-06,2.7589017618800833,7.21860774849831,20.319190527792742,,,,,,,,,,,,
20185,0,USKansasStafford,Kansas,Stafford,2022-04-28 09:13:11,2022-01-07,2.7589017618800833,7.21860774849831,20.319190527792742,,,,,,,,,,,,
20185,0,USKansasStafford,Kansas,Stafford,2022-04-28 09:13:11,2022-01-08,2.7589017618800833,7.21860774849831,20.319190527792742,,,,,,,,,,,,
20185,0,USKansasStafford,Kansas,Stafford,2022-04-28 09:13:11,2022-01-09,2.7589017618800833,7.21860774849831,20.319190527792742,,,,,,,,,,,,
20185,0,USKansasStafford,Kansas,Stafford,2022-04-28 09:13:11,2022-01-10,2.7589017618800833,7.21860774849831,20.319190527792742,,,,,,,,,,,,
20185,0,USKansasStafford,Kansas,Stafford,2022-04-28 09:13:11,2022-01-11,2.7589017618800833,7.21860774849831,20.319190527792742,,,,,,,,,,,,
20185,0,USKansasStafford,Kansas,Stafford,2022-04-28 09:13:11,2022-01-12,2.7589017618800833,7.21860774849831,20.319190527792742,,,,,,,,,,,,
20185,0,USKansasStafford,Kansas,Stafford,2022-04-28 09:13:11,2022-01-13,10.737255593282397,19.20823141121604,36.628420350149966,,,,,,,,,,,,
20185,0,USKansasStafford,Kansas,Stafford,2022-04-28 09:13:11,2022-01-14,10.737255593282397,19.20823141121604,36.628420350149966,,,,,,,,,,,,
20185,0,USKansasStafford,Kansas,Stafford,2022-04-28 09:13:11,2022-01-15,10.737255593282397,19.20823141121604,36.628420350149966,,,,,,,,,,,,
20185,0,USKansasStafford,Kansas,Stafford,2022-04-28 09:13:11,2022-01-16,10.737255593282397,19.20823141121604,36.628420350149966,,,,,,,,,,,,
20185,0,USKansasStafford,Kansas,Stafford,2022-04-28 09:13:11,2022-01-17,10.737255593282397,19.20823141121604,36.628420350149966,,,,,,,,,,,,
20185,0,USKansasStafford,Kansas,Stafford,2022-04-28 09:13:11,2022-01-18,10.737255593282397,19.20823141121604,36.628420350149966,,,,,,,,,,,,
20185,0,USKansasStafford,Kansas,Stafford,2022-04-28 09:13:11,2022-01-19,10.737255593282397,19.20823141121604,36.628420350149966,,,,,,,,,,,,
20185,0,USKansasStafford,Kansas,Stafford,2022-04-28 09:13:11,2022-01-20,6.2526723095229855,12.955418589508197,28.81713871626175,,,,,,,,,,,,
20185,0,USKansasStafford,Kansas,Stafford,2022-04-28 09:13:11,2022-01-21,6.2526723095229855,12.955418589508197,28.81713871626175,,,,,,,,,,,,
20185,0,USKansasStafford,Kansas,Stafford,2022-04-28 09:13:11,2022-01-22,6.2526723095229855,12.955418589508197,28.81713871626175,,,,,,,,,,,,
20185,0,USKansasStafford,Kansas,Stafford,2022-04-28 09:13:11,2022-01-23,6.2526723095229855,12.955418589508197,28.81713871626175,,,,,,,,,,,,
20185,0,USKansasStafford,Kansas,Stafford,2022-04-28 09:13:11,2022-01-24,6.2526723095229855,12.955418589508197,28.81713871626175,,,,,,,,,,,,
20185,0,USKansasStafford,Kansas,Stafford,2022-04-28 09:13:11,2022-01-25,6.2526723095229855,12.955418589508197,28.81713871626175,,,,,,,,,,,,
20185,0,USKansasStafford,Kansas,Stafford,2022-04-28 09:13:11,2022-01-26,6.2526723095229855,12.955418589508197,28.81713871626175,,,,,,,,,,,,
20185,0,USKansasStafford,Kansas,Stafford,2022-04-28 09:13:11,2022-01-27,4.466519032679971,10.173298245208583,24.925800111046357,,,,,,,,,,,,
20185,0,USKansasStafford,Kansas,Stafford,2022-04-28 09:13:11,2022-01-28,4.466519032679971,10.173298245208583,24.925800111046357,,,,,,,,,,,,
20185,0,USKansasStafford,Kansas,Stafford,2022-04-28 09:13:11,2022-01-29,4.466519032679971,10.173298245208583,24.925800111046357,,,,,,,,,,,,
20185,0,USKansasStafford,Kansas,Stafford,2022-04-28 09:13:11,2022-01-30,4.466519032679971,10.173298245208583,24.925800111046357,,,,,,,,,,,,
20185,0,USKansasStafford,Kansas,Stafford,2022-04-28 09:13:11,2022-01-31,4.466519032679971,10.173298245208583,24.925800111046357,,,,,,,,,,,,
20185,0,USKansasStafford,Kansas,Stafford,2022-04-28 09:13:11,2022-02-01,4.466519032679971,10.173298245208583,24.925800111046357,,,,,,,,,,,,
20185,0,USKansasStafford,Kansas,Stafford,2022-04-28 09:13:11,2022-02-02,4.466519032679971,10.173298245208583,24.925800111046357,,,,,,,,,,,,
20185,0,USKansasStafford,Kansas,Stafford,2022-04-28 09:13:11,2022-02-03,1.4487833914449033,4.579892712239261,15.5148059469678,,,,,,,,,,,,
20185,0,USKansasStafford,Kansas,Stafford,2022-04-28 09:13:11,2022-02-04,1.4487833914449033,4.579892712239261,15.5148059469678,,,,,,,,,,,,
20185,0,USKansasStafford,Kansas,Stafford,2022-04-28 09:13:11,2022-02-05,1.4487833914449033,4.579892712239261,15.5148059469678,,,,,,,,,,,,
20185,0,USKansasStafford,Kansas,Stafford,2022-04-28 09:13:11,2022-02-06,1.4487833914449033,4.579892712239261,15.5148059469678,,,,,,,,,,,,
20185,0,USKansasStafford,Kansas,Stafford,2022-04-28 09:13:11,2022-02-07,1.4487833914449033,4.579892712239261,15.5148059469678,,,,,,,,,,,,
20185,0,USKansasStafford,Kansas,Stafford,2022-04-28 09:13:11,2022-02-08,1.4487833914449033,4.579892712239261,15.5148059469678,,,,,,,,,,,,
20185,0,USKansasStafford,Kansas,Stafford,2022-04-28 09:13:11,2022-02-09,1.4487833914449033,4.579892712239261,15.5148059469678,,,,,,,,,,,,
20185,0,USKansasStafford,Kansas,Stafford,2022-04-28 09:13:11,2022-02-10,2.708095218100268,6.664996529613244,17.65289441827131,,,,,,,,,,,,
20185,0,USKansasStafford,Kansas,Stafford,2022-04-28 09:13:11,2022-02-11,2.708095218100268,6.664996529613244,17.65289441827131,,,,,,,,,,,,
20185,0,USKansasStafford,Kansas,Stafford,2022-04-28 09:13:11,2022-02-12,2.708095218100268,6.664996529613244,17.65289441827131,,,,,,,,,,,,
20185,0,USKansasStafford,Kansas,Stafford,2022-04-28 09:13:11,2022-02-13,2.708095218100268,6.664996529613244,17.65289441827131,,,,,,,,,,,,
20185,0,USKansasStafford,Kansas,Stafford,2022-04-28 09:13:11,2022-02-14,2.708095218100268,6.664996529613244,17.65289441827131,,,,,,,,,,,,
20185,0,USKansasStafford,Kansas,Stafford,2022-04-28 09:13:11,2022-02-15,2.708095218100268,6.664996529613244,17.65289441827131,,,,,,,,,,,,
20185,0,USKansasStafford,Kansas,Stafford,2022-04-28 09:13:11,2022-02-16,2.708095218100268,6.664996529613244,17.65289441827131,,,,,,,,,,,,
20185,0,USKansasStafford,Kansas,Stafford,2022-04-28 09:13:11,2022-02-17,0.7182611421553673,2.254379225099835,7.584070948310669,,,,,,,,,,,,
20185,0,USKansasStafford,Kansas,Stafford,2022-04-28 09:13:11,2022-02-18,0.7182611421553673,2.254379225099835,7.584070948310669,,,,,,,,,,,,
20185,0,USKansasStafford,Kansas,Stafford,2022-04-28 09:13:11,2022-02-19,0.7182611421553673,2.254379225099835,7.584070948310669,,,,,,,,,,,,
20185,0,USKansasStafford,Kansas,Stafford,2022-04-28 09:13:11,2022-02-20,0.7182611421553673,2.254379225099835,7.584070948310669,,,,,,,,,,,,
20185,0,USKansasStafford,Kansas,Stafford,2022-04-28 09:13:11,2022-02-21,0.7182611421553673,2.254379225099835,7.584070948310669,,,,,,,,,,,,
20185,0,USKansasStafford,Kansas,Stafford,2022-04-28 09:13:11,2022-02-22,0.7182611421553673,2.254379225099835,7.584070948310669,,,,,,,,,,,,
20185,0,USKansasStafford,Kansas,Stafford,2022-04-28 09:13:11,2022-02-23,0.7182611421553673,2.254379225099835,7.584070948310669,,,,,,,,,,,,
20185,0,USKansasStafford,Kansas,Stafford,2022-04-28 09:13:11,2022-02-24,0.5683773444929329,1.866036715742168,6.557378315720674,,,,,,,,,,,,
20185,0,USKansasStafford,Kansas,Stafford,2022-04-28 09:13:11,2022-02-25,0.5683773444929329,1.866036715742168,6.557378315720674,,,,,,,,,,,,
20185,0,USKansasStafford,Kansas,Stafford,2022-04-28 09:13:11,2022-02-26,0.5683773444929329,1.866036715742168,6.557378315720674,,,,,,,,,,,,
20185,0,USKansasStafford,Kansas,Stafford,2022-04-28 09:13:11,2022-02-27,0.5683773444929329,1.866036715742168,6.557378315720674,,,,,,,,,,,,
20185,0,USKansasStafford,Kansas,Stafford,2022-04-28 09:13:11,2022-02-28,0.5683773444929329,1.866036715742168,6.557378315720674,,,,,,,,,,,,
20185,0,USKansasStafford,Kansas,Stafford,2022-04-28 09:13:11,2022-03-01,0.5683773444929329,1.866036715742168,6.557378315720674,,,,,,,,,,,,
20185,0,USKansasStafford,Kansas,Stafford,2022-04-28 09:13:11,2022-03-02,0.5683773444929329,1.866036715742168,6.557378315720674,,,,,,,,,,,,
20185,0,USKansasStafford,Kansas,Stafford,2022-04-28 09:13:11,2022-03-03,0.4922436292432257,1.4311856504500482,4.468910135608983,,,,,,,,,,,,
20185,0,USKansasStafford,Kansas,Stafford,2022-04-28 09:13:11,2022-03-04,0.4922436292432257,1.4311856504500482,4.468910135608983,,,,,,,,,,,,
20185,0,USKansasStafford,Kansas,Stafford,2022-04-28 09:13:11,2022-03-05,0.4922436292432257,1.4311856504500482,4.468910135608983,,,,,,,,,,,,
20185,0,USKansasStafford,Kansas,Stafford,2022-04-28 09:13:11,2022-03-06,0.4922436292432257,1.4311856504500482,4.468910135608983,,,,,,,,,,,,
20185,0,USKansasStafford,Kansas,Stafford,2022-04-28 09:13:11,2022-03-07,0.4922436292432257,1.4311856504500482,4.468910135608983,,,,,,,,,,,,
20185,0,USKansasStafford,Kansas,Stafford,2022-04-28 09:13:11,2022-03-08,0.4922436292432257,1.4311856504500482,4.468910135608983,,,,,,,,,,,,
20185,0,USKansasStafford,Kansas,Stafford,2022-04-28 09:13:11,2022-03-09,0.4922436292432257,1.4311856504500482,4.468910135608983,,,,,,,,,,,,
20185,0,USKansasStafford,Kansas,Stafford,2022-04-28 09:13:11,2022-03-10,0,0,0,,,,,,,,,,,,
20185,0,USKansasStafford,Kansas,Stafford,2022-04-28 09:13:11,2022-03-11,0,0,0,,,,,,,,,,,,
20185,0,USKansasStafford,Kansas,Stafford,2022-04-28 09:13:11,2022-03-12,0,0,0,,,,,,,,,,,,
20185,0,USKansasStafford,Kansas,Stafford,2022-04-28 09:13:11,2022-03-13,0,0,0,,,,,,,,,,,,
20185,0,USKansasStafford,Kansas,Stafford,2022-04-28 09:13:11,2022-03-14,0,0,0,,,,,,,,,,,,
20185,0,USKansasStafford,Kansas,Stafford,2022-04-28 09:13:11,2022-03-15,0,0,0,,,,,,,,,,,,
20185,0,USKansasStafford,Kansas,Stafford,2022-04-28 09:13:11,2022-03-16,0,0,0,,,,,,,,,,,,
20185,0,USKansasStafford,Kansas,Stafford,2022-04-28 09:13:11,2022-03-17,0.3062333938542786,0.8389941695642177,2.4714172050880867,,,,,,,,,,,,
20185,0,USKansasStafford,Kansas,Stafford,2022-04-28 09:13:11,2022-03-18,0.3062333938542786,0.8389941695642177,2.4714172050880867,,,,,,,,,,,,
20185,0,USKansasStafford,Kansas,Stafford,2022-04-28 09:13:11,2022-03-19,0.3062333938542786,0.8389941695642177,2.4714172050880867,,,,,,,,,,,,
20185,0,USKansasStafford,Kansas,Stafford,2022-04-28 09:13:11,2022-03-20,0.3062333938542786,0.8389941695642177,2.4714172050880867,,,,,,,,,,,,
20185,0,USKansasStafford,Kansas,Stafford,2022-04-28 09:13:11,2022-03-21,0.3062333938542786,0.8389941695642177,2.4714172050880867,,,,,,,,,,,,
20185,0,USKansasStafford,Kansas,Stafford,2022-04-28 09:13:11,2022-03-22,0.3062333938542786,0.8389941695642177,2.4714172050880867,,,,,,,,,,,,
20185,0,USKansasStafford,Kansas,Stafford,2022-04-28 09:13:11,2022-03-23,0.3062333938542786,0.8389941695642177,2.4714172050880867,,,,,,,,,,,,
