FIPS,HR_UID,nameid,province,region,analysisTime,dates,pointprevalence_025,pointprevalence_50,pointprevalence_975,pointinfections_025,pointinfections_50,pointinfections_975,pointinfectious_025,pointinfectious_50,pointinfectious_975,pointinfectiousprevalence_025,pointinfectiousprevalence_50,pointinfectiousprevalence_975,infectrate_025,infectrate_50,infectrate_975
31149,0,USNebraskaRock,Nebraska,Rock,2022-04-28 09:13:11,2020-03-19,0,0,0,,,,,,,,,,,,
31149,0,USNebraskaRock,Nebraska,Rock,2022-04-28 09:13:11,2020-03-20,0,0,0,,,,,,,,,,,,
31149,0,USNebraskaRock,Nebraska,Rock,2022-04-28 09:13:11,2020-03-21,0,0,0,,,,,,,,,,,,
31149,0,USNebraskaRock,Nebraska,Rock,2022-04-28 09:13:11,2020-03-22,0,0,0,,,,,,,,,,,,
31149,0,USNebraskaRock,Nebraska,Rock,2022-04-28 09:13:11,2020-03-23,0,0,0,,,,,,,,,,,,
31149,0,USNebraskaRock,Nebraska,Rock,2022-04-28 09:13:11,2020-03-24,0,0,0,,,,,,,,,,,,
31149,0,USNebraskaRock,Nebraska,Rock,2022-04-28 09:13:11,2020-03-25,0,0,0,,,,,,,,,,,,
31149,0,USNebraskaRock,Nebraska,Rock,2022-04-28 09:13:11,2020-03-26,0,0,0,,,,,,,,,,,,
31149,0,USNebraskaRock,Nebraska,Rock,2022-04-28 09:13:11,2020-03-27,0,0,0,,,,,,,,,,,,
31149,0,USNebraskaRock,Nebraska,Rock,2022-04-28 09:13:11,2020-03-28,0,0,0,,,,,,,,,,,,
31149,0,USNebraskaRock,Nebraska,Rock,2022-04-28 09:13:11,2020-03-29,0,0,0,,,,,,,,,,,,
31149,0,USNebraskaRock,Nebraska,Rock,2022-04-28 09:13:11,2020-03-30,0,0,0,,,,,,,,,,,,
31149,0,USNebraskaRock,Nebraska,Rock,2022-04-28 09:13:11,2020-03-31,0,0,0,,,,,,,,,,,,
31149,0,USNebraskaRock,Nebraska,Rock,2022-04-28 09:13:11,2020-04-01,0,0,0,,,,,,,,,,,,
31149,0,USNebraskaRock,Nebraska,Rock,2022-04-28 09:13:11,2020-04-02,0,0,0,,,,,,,,,,,,
31149,0,USNebraskaRock,Nebraska,Rock,2022-04-28 09:13:11,2020-04-03,0,0,0,,,,,,,,,,,,
31149,0,USNebraskaRock,Nebraska,Rock,2022-04-28 09:13:11,2020-04-04,0,0,0,,,,,,,,,,,,
31149,0,USNebraskaRock,Nebraska,Rock,2022-04-28 09:13:11,2020-04-05,0,0,0,,,,,,,,,,,,
31149,0,USNebraskaRock,Nebraska,Rock,2022-04-28 09:13:11,2020-04-06,0,0,0,,,,,,,,,,,,
31149,0,USNebraskaRock,Nebraska,Rock,2022-04-28 09:13:11,2020-04-07,0,0,0,,,,,,,,,,,,
31149,0,USNebraskaRock,Nebraska,Rock,2022-04-28 09:13:11,2020-04-08,0,0,0,,,,,,,,,,,,
31149,0,USNebraskaRock,Nebraska,Rock,2022-04-28 09:13:11,2020-04-09,0,0,0,,,,,,,,,,,,
31149,0,USNebraskaRock,Nebraska,Rock,2022-04-28 09:13:11,2020-04-10,0,0,0,,,,,,,,,,,,
31149,0,USNebraskaRock,Nebraska,Rock,2022-04-28 09:13:11,2020-04-11,0,0,0,,,,,,,,,,,,
31149,0,USNebraskaRock,Nebraska,Rock,2022-04-28 09:13:11,2020-04-12,0,0,0,,,,,,,,,,,,
31149,0,USNebraskaRock,Nebraska,Rock,2022-04-28 09:13:11,2020-04-13,0,0,0,,,,,,,,,,,,
31149,0,USNebraskaRock,Nebraska,Rock,2022-04-28 09:13:11,2020-04-14,0,0,0,,,,,,,,,,,,
31149,0,USNebraskaRock,Nebraska,Rock,2022-04-28 09:13:11,2020-04-15,0,0,0,,,,,,,,,,,,
31149,0,USNebraskaRock,Nebraska,Rock,2022-04-28 09:13:11,2020-04-16,0,0,0,,,,,,,,,,,,
31149,0,USNebraskaRock,Nebraska,Rock,2022-04-28 09:13:11,2020-04-17,0,0,0,,,,,,,,,,,,
31149,0,USNebraskaRock,Nebraska,Rock,2022-04-28 09:13:11,2020-04-18,0,0,0,,,,,,,,,,,,
31149,0,USNebraskaRock,Nebraska,Rock,2022-04-28 09:13:11,2020-04-19,0,0,0,,,,,,,,,,,,
31149,0,USNebraskaRock,Nebraska,Rock,2022-04-28 09:13:11,2020-04-20,0,0,0,,,,,,,,,,,,
31149,0,USNebraskaRock,Nebraska,Rock,2022-04-28 09:13:11,2020-04-21,0,0,0,,,,,,,,,,,,
31149,0,USNebraskaRock,Nebraska,Rock,2022-04-28 09:13:11,2020-04-22,0,0,0,,,,,,,,,,,,
31149,0,USNebraskaRock,Nebraska,Rock,2022-04-28 09:13:11,2020-04-23,0,0,0,,,,,,,,,,,,
31149,0,USNebraskaRock,Nebraska,Rock,2022-04-28 09:13:11,2020-04-24,0,0,0,,,,,,,,,,,,
31149,0,USNebraskaRock,Nebraska,Rock,2022-04-28 09:13:11,2020-04-25,0,0,0,,,,,,,,,,,,
31149,0,USNebraskaRock,Nebraska,Rock,2022-04-28 09:13:11,2020-04-26,0,0,0,,,,,,,,,,,,
31149,0,USNebraskaRock,Nebraska,Rock,2022-04-28 09:13:11,2020-04-27,0,0,0,,,,,,,,,,,,
31149,0,USNebraskaRock,Nebraska,Rock,2022-04-28 09:13:11,2020-04-28,0,0,0,,,,,,,,,,,,
31149,0,USNebraskaRock,Nebraska,Rock,2022-04-28 09:13:11,2020-04-29,0,0,0,,,,,,,,,,,,
31149,0,USNebraskaRock,Nebraska,Rock,2022-04-28 09:13:11,2020-04-30,0,0,0,,,,,,,,,,,,
31149,0,USNebraskaRock,Nebraska,Rock,2022-04-28 09:13:11,2020-05-01,0,0,0,,,,,,,,,,,,
31149,0,USNebraskaRock,Nebraska,Rock,2022-04-28 09:13:11,2020-05-02,0,0,0,,,,,,,,,,,,
31149,0,USNebraskaRock,Nebraska,Rock,2022-04-28 09:13:11,2020-05-03,0,0,0,,,,,,,,,,,,
31149,0,USNebraskaRock,Nebraska,Rock,2022-04-28 09:13:11,2020-05-04,0,0,0,,,,,,,,,,,,
31149,0,USNebraskaRock,Nebraska,Rock,2022-04-28 09:13:11,2020-05-05,0,0,0,,,,,,,,,,,,
31149,0,USNebraskaRock,Nebraska,Rock,2022-04-28 09:13:11,2020-05-06,0,0,0,,,,,,,,,,,,
31149,0,USNebraskaRock,Nebraska,Rock,2022-04-28 09:13:11,2020-05-07,0,0,0,,,,,,,,,,,,
31149,0,USNebraskaRock,Nebraska,Rock,2022-04-28 09:13:11,2020-05-08,0,0,0,,,,,,,,,,,,
31149,0,USNebraskaRock,Nebraska,Rock,2022-04-28 09:13:11,2020-05-09,0,0,0,,,,,,,,,,,,
31149,0,USNebraskaRock,Nebraska,Rock,2022-04-28 09:13:11,2020-05-10,0,0,0,,,,,,,,,,,,
31149,0,USNebraskaRock,Nebraska,Rock,2022-04-28 09:13:11,2020-05-11,0,0,0,,,,,,,,,,,,
31149,0,USNebraskaRock,Nebraska,Rock,2022-04-28 09:13:11,2020-05-12,0,0,0,,,,,,,,,,,,
31149,0,USNebraskaRock,Nebraska,Rock,2022-04-28 09:13:11,2020-05-13,0,0,0,,,,,,,,,,,,
31149,0,USNebraskaRock,Nebraska,Rock,2022-04-28 09:13:11,2020-05-14,0,0,0,,,,,,,,,,,,
31149,0,USNebraskaRock,Nebraska,Rock,2022-04-28 09:13:11,2020-05-15,0,0,0,,,,,,,,,,,,
31149,0,USNebraskaRock,Nebraska,Rock,2022-04-28 09:13:11,2020-05-16,0,0,0,,,,,,,,,,,,
31149,0,USNebraskaRock,Nebraska,Rock,2022-04-28 09:13:11,2020-05-17,0,0,0,,,,,,,,,,,,
31149,0,USNebraskaRock,Nebraska,Rock,2022-04-28 09:13:11,2020-05-18,0,0,0,,,,,,,,,,,,
31149,0,USNebraskaRock,Nebraska,Rock,2022-04-28 09:13:11,2020-05-19,0,0,0,,,,,,,,,,,,
31149,0,USNebraskaRock,Nebraska,Rock,2022-04-28 09:13:11,2020-05-20,0,0,0,,,,,,,,,,,,
31149,0,USNebraskaRock,Nebraska,Rock,2022-04-28 09:13:11,2020-05-21,0,0,0,,,,,,,,,,,,
31149,0,USNebraskaRock,Nebraska,Rock,2022-04-28 09:13:11,2020-05-22,0,0,0,,,,,,,,,,,,
31149,0,USNebraskaRock,Nebraska,Rock,2022-04-28 09:13:11,2020-05-23,0,0,0,,,,,,,,,,,,
31149,0,USNebraskaRock,Nebraska,Rock,2022-04-28 09:13:11,2020-05-24,0,0,0,,,,,,,,,,,,
31149,0,USNebraskaRock,Nebraska,Rock,2022-04-28 09:13:11,2020-05-25,0,0,0,,,,,,,,,,,,
31149,0,USNebraskaRock,Nebraska,Rock,2022-04-28 09:13:11,2020-05-26,0,0,0,,,,,,,,,,,,
31149,0,USNebraskaRock,Nebraska,Rock,2022-04-28 09:13:11,2020-05-27,0,0,0,,,,,,,,,,,,
31149,0,USNebraskaRock,Nebraska,Rock,2022-04-28 09:13:11,2020-05-28,0,0,0,,,,,,,,,,,,
31149,0,USNebraskaRock,Nebraska,Rock,2022-04-28 09:13:11,2020-05-29,0,0,0,,,,,,,,,,,,
31149,0,USNebraskaRock,Nebraska,Rock,2022-04-28 09:13:11,2020-05-30,0,0,0,,,,,,,,,,,,
31149,0,USNebraskaRock,Nebraska,Rock,2022-04-28 09:13:11,2020-05-31,0,0,0,,,,,,,,,,,,
31149,0,USNebraskaRock,Nebraska,Rock,2022-04-28 09:13:11,2020-06-01,0,0,0,,,,,,,,,,,,
31149,0,USNebraskaRock,Nebraska,Rock,2022-04-28 09:13:11,2020-06-02,0,0,0,,,,,,,,,,,,
31149,0,USNebraskaRock,Nebraska,Rock,2022-04-28 09:13:11,2020-06-03,0,0,0,,,,,,,,,,,,
31149,0,USNebraskaRock,Nebraska,Rock,2022-04-28 09:13:11,2020-06-04,0,0,0,,,,,,,,,,,,
31149,0,USNebraskaRock,Nebraska,Rock,2022-04-28 09:13:11,2020-06-05,0,0,0,,,,,,,,,,,,
31149,0,USNebraskaRock,Nebraska,Rock,2022-04-28 09:13:11,2020-06-06,0,0,0,,,,,,,,,,,,
31149,0,USNebraskaRock,Nebraska,Rock,2022-04-28 09:13:11,2020-06-07,0,0,0,,,,,,,,,,,,
31149,0,USNebraskaRock,Nebraska,Rock,2022-04-28 09:13:11,2020-06-08,0,0,0,,,,,,,,,,,,
31149,0,USNebraskaRock,Nebraska,Rock,2022-04-28 09:13:11,2020-06-09,0,0,0,,,,,,,,,,,,
31149,0,USNebraskaRock,Nebraska,Rock,2022-04-28 09:13:11,2020-06-10,0,0,0,,,,,,,,,,,,
31149,0,USNebraskaRock,Nebraska,Rock,2022-04-28 09:13:11,2020-06-11,0,0,0,,,,,,,,,,,,
31149,0,USNebraskaRock,Nebraska,Rock,2022-04-28 09:13:11,2020-06-12,0,0,0,,,,,,,,,,,,
31149,0,USNebraskaRock,Nebraska,Rock,2022-04-28 09:13:11,2020-06-13,0,0,0,,,,,,,,,,,,
31149,0,USNebraskaRock,Nebraska,Rock,2022-04-28 09:13:11,2020-06-14,0,0,0,,,,,,,,,,,,
31149,0,USNebraskaRock,Nebraska,Rock,2022-04-28 09:13:11,2020-06-15,0,0,0,,,,,,,,,,,,
31149,0,USNebraskaRock,Nebraska,Rock,2022-04-28 09:13:11,2020-06-16,0,0,0,,,,,,,,,,,,
31149,0,USNebraskaRock,Nebraska,Rock,2022-04-28 09:13:11,2020-06-17,0,0,0,,,,,,,,,,,,
31149,0,USNebraskaRock,Nebraska,Rock,2022-04-28 09:13:11,2020-06-18,0.32914849617001724,0.6588164125401221,1.4139224090476463,,,,,,,,,,,,
31149,0,USNebraskaRock,Nebraska,Rock,2022-04-28 09:13:11,2020-06-19,0.32914849617001724,0.6588164125401221,1.4139224090476463,,,,,,,,,,,,
31149,0,USNebraskaRock,Nebraska,Rock,2022-04-28 09:13:11,2020-06-20,0.32914849617001724,0.6588164125401221,1.4139224090476463,,,,,,,,,,,,
31149,0,USNebraskaRock,Nebraska,Rock,2022-04-28 09:13:11,2020-06-21,0.32914849617001724,0.6588164125401221,1.4139224090476463,,,,,,,,,,,,
31149,0,USNebraskaRock,Nebraska,Rock,2022-04-28 09:13:11,2020-06-22,0.32914849617001724,0.6588164125401221,1.4139224090476463,,,,,,,,,,,,
31149,0,USNebraskaRock,Nebraska,Rock,2022-04-28 09:13:11,2020-06-23,0.32914849617001724,0.6588164125401221,1.4139224090476463,,,,,,,,,,,,
31149,0,USNebraskaRock,Nebraska,Rock,2022-04-28 09:13:11,2020-06-24,0.32914849617001724,0.6588164125401221,1.4139224090476463,,,,,,,,,,,,
31149,0,USNebraskaRock,Nebraska,Rock,2022-04-28 09:13:11,2020-06-25,0,0,0,,,,,,,,,,,,
31149,0,USNebraskaRock,Nebraska,Rock,2022-04-28 09:13:11,2020-06-26,0,0,0,,,,,,,,,,,,
31149,0,USNebraskaRock,Nebraska,Rock,2022-04-28 09:13:11,2020-06-27,0,0,0,,,,,,,,,,,,
31149,0,USNebraskaRock,Nebraska,Rock,2022-04-28 09:13:11,2020-06-28,0,0,0,,,,,,,,,,,,
31149,0,USNebraskaRock,Nebraska,Rock,2022-04-28 09:13:11,2020-06-29,0,0,0,,,,,,,,,,,,
31149,0,USNebraskaRock,Nebraska,Rock,2022-04-28 09:13:11,2020-06-30,0,0,0,,,,,,,,,,,,
31149,0,USNebraskaRock,Nebraska,Rock,2022-04-28 09:13:11,2020-07-01,0,0,0,,,,,,,,,,,,
31149,0,USNebraskaRock,Nebraska,Rock,2022-04-28 09:13:11,2020-07-02,0.33558573748632553,0.6835964763280467,1.4940522530582783,,,,,,,,,,,,
31149,0,USNebraskaRock,Nebraska,Rock,2022-04-28 09:13:11,2020-07-03,0.33558573748632553,0.6835964763280467,1.4940522530582783,,,,,,,,,,,,
31149,0,USNebraskaRock,Nebraska,Rock,2022-04-28 09:13:11,2020-07-04,0.33558573748632553,0.6835964763280467,1.4940522530582783,,,,,,,,,,,,
31149,0,USNebraskaRock,Nebraska,Rock,2022-04-28 09:13:11,2020-07-05,0.33558573748632553,0.6835964763280467,1.4940522530582783,,,,,,,,,,,,
31149,0,USNebraskaRock,Nebraska,Rock,2022-04-28 09:13:11,2020-07-06,0.33558573748632553,0.6835964763280467,1.4940522530582783,,,,,,,,,,,,
31149,0,USNebraskaRock,Nebraska,Rock,2022-04-28 09:13:11,2020-07-07,0.33558573748632553,0.6835964763280467,1.4940522530582783,,,,,,,,,,,,
31149,0,USNebraskaRock,Nebraska,Rock,2022-04-28 09:13:11,2020-07-08,0.33558573748632553,0.6835964763280467,1.4940522530582783,,,,,,,,,,,,
31149,0,USNebraskaRock,Nebraska,Rock,2022-04-28 09:13:11,2020-07-09,0,0,0,,,,,,,,,,,,
31149,0,USNebraskaRock,Nebraska,Rock,2022-04-28 09:13:11,2020-07-10,0,0,0,,,,,,,,,,,,
31149,0,USNebraskaRock,Nebraska,Rock,2022-04-28 09:13:11,2020-07-11,0,0,0,,,,,,,,,,,,
31149,0,USNebraskaRock,Nebraska,Rock,2022-04-28 09:13:11,2020-07-12,0,0,0,,,,,,,,,,,,
31149,0,USNebraskaRock,Nebraska,Rock,2022-04-28 09:13:11,2020-07-13,0,0,0,,,,,,,,,,,,
31149,0,USNebraskaRock,Nebraska,Rock,2022-04-28 09:13:11,2020-07-14,0,0,0,,,,,,,,,,,,
31149,0,USNebraskaRock,Nebraska,Rock,2022-04-28 09:13:11,2020-07-15,0,0,0,,,,,,,,,,,,
31149,0,USNebraskaRock,Nebraska,Rock,2022-04-28 09:13:11,2020-07-16,0,0,0,,,,,,,,,,,,
31149,0,USNebraskaRock,Nebraska,Rock,2022-04-28 09:13:11,2020-07-17,0,0,0,,,,,,,,,,,,
31149,0,USNebraskaRock,Nebraska,Rock,2022-04-28 09:13:11,2020-07-18,0,0,0,,,,,,,,,,,,
31149,0,USNebraskaRock,Nebraska,Rock,2022-04-28 09:13:11,2020-07-19,0,0,0,,,,,,,,,,,,
31149,0,USNebraskaRock,Nebraska,Rock,2022-04-28 09:13:11,2020-07-20,0,0,0,,,,,,,,,,,,
31149,0,USNebraskaRock,Nebraska,Rock,2022-04-28 09:13:11,2020-07-21,0,0,0,,,,,,,,,,,,
31149,0,USNebraskaRock,Nebraska,Rock,2022-04-28 09:13:11,2020-07-22,0,0,0,,,,,,,,,,,,
31149,0,USNebraskaRock,Nebraska,Rock,2022-04-28 09:13:11,2020-07-23,0,0,0,,,,,,,,,,,,
31149,0,USNebraskaRock,Nebraska,Rock,2022-04-28 09:13:11,2020-07-24,0,0,0,,,,,,,,,,,,
31149,0,USNebraskaRock,Nebraska,Rock,2022-04-28 09:13:11,2020-07-25,0,0,0,,,,,,,,,,,,
31149,0,USNebraskaRock,Nebraska,Rock,2022-04-28 09:13:11,2020-07-26,0,0,0,,,,,,,,,,,,
31149,0,USNebraskaRock,Nebraska,Rock,2022-04-28 09:13:11,2020-07-27,0,0,0,,,,,,,,,,,,
31149,0,USNebraskaRock,Nebraska,Rock,2022-04-28 09:13:11,2020-07-28,0,0,0,,,,,,,,,,,,
31149,0,USNebraskaRock,Nebraska,Rock,2022-04-28 09:13:11,2020-07-29,0,0,0,,,,,,,,,,,,
31149,0,USNebraskaRock,Nebraska,Rock,2022-04-28 09:13:11,2020-07-30,0.3600156893560514,0.7813369789977604,1.8226265618758417,,,,,,,,,,,,
31149,0,USNebraskaRock,Nebraska,Rock,2022-04-28 09:13:11,2020-07-31,0.3600156893560514,0.7813369789977604,1.8226265618758417,,,,,,,,,,,,
31149,0,USNebraskaRock,Nebraska,Rock,2022-04-28 09:13:11,2020-08-01,0.3600156893560514,0.7813369789977604,1.8226265618758417,,,,,,,,,,,,
31149,0,USNebraskaRock,Nebraska,Rock,2022-04-28 09:13:11,2020-08-02,0.3600156893560514,0.7813369789977604,1.8226265618758417,,,,,,,,,,,,
31149,0,USNebraskaRock,Nebraska,Rock,2022-04-28 09:13:11,2020-08-03,0.3600156893560514,0.7813369789977604,1.8226265618758417,,,,,,,,,,,,
31149,0,USNebraskaRock,Nebraska,Rock,2022-04-28 09:13:11,2020-08-04,0.3600156893560514,0.7813369789977604,1.8226265618758417,,,,,,,,,,,,
31149,0,USNebraskaRock,Nebraska,Rock,2022-04-28 09:13:11,2020-08-05,0.3600156893560514,0.7813369789977604,1.8226265618758417,,,,,,,,,,,,
31149,0,USNebraskaRock,Nebraska,Rock,2022-04-28 09:13:11,2020-08-06,0,0,0,,,,,,,,,,,,
31149,0,USNebraskaRock,Nebraska,Rock,2022-04-28 09:13:11,2020-08-07,0,0,0,,,,,,,,,,,,
31149,0,USNebraskaRock,Nebraska,Rock,2022-04-28 09:13:11,2020-08-08,0,0,0,,,,,,,,,,,,
31149,0,USNebraskaRock,Nebraska,Rock,2022-04-28 09:13:11,2020-08-09,0,0,0,,,,,,,,,,,,
31149,0,USNebraskaRock,Nebraska,Rock,2022-04-28 09:13:11,2020-08-10,0,0,0,,,,,,,,,,,,
31149,0,USNebraskaRock,Nebraska,Rock,2022-04-28 09:13:11,2020-08-11,0,0,0,,,,,,,,,,,,
31149,0,USNebraskaRock,Nebraska,Rock,2022-04-28 09:13:11,2020-08-12,0,0,0,,,,,,,,,,,,
31149,0,USNebraskaRock,Nebraska,Rock,2022-04-28 09:13:11,2020-08-13,0,0,0,,,,,,,,,,,,
31149,0,USNebraskaRock,Nebraska,Rock,2022-04-28 09:13:11,2020-08-14,0,0,0,,,,,,,,,,,,
31149,0,USNebraskaRock,Nebraska,Rock,2022-04-28 09:13:11,2020-08-15,0,0,0,,,,,,,,,,,,
31149,0,USNebraskaRock,Nebraska,Rock,2022-04-28 09:13:11,2020-08-16,0,0,0,,,,,,,,,,,,
31149,0,USNebraskaRock,Nebraska,Rock,2022-04-28 09:13:11,2020-08-17,0,0,0,,,,,,,,,,,,
31149,0,USNebraskaRock,Nebraska,Rock,2022-04-28 09:13:11,2020-08-18,0,0,0,,,,,,,,,,,,
31149,0,USNebraskaRock,Nebraska,Rock,2022-04-28 09:13:11,2020-08-19,0,0,0,,,,,,,,,,,,
31149,0,USNebraskaRock,Nebraska,Rock,2022-04-28 09:13:11,2020-08-20,0.5983653226478348,1.0979105143658439,2.1507942816594845,,,,,,,,,,,,
31149,0,USNebraskaRock,Nebraska,Rock,2022-04-28 09:13:11,2020-08-21,0.5983653226478348,1.0979105143658439,2.1507942816594845,,,,,,,,,,,,
31149,0,USNebraskaRock,Nebraska,Rock,2022-04-28 09:13:11,2020-08-22,0.5983653226478348,1.0979105143658439,2.1507942816594845,,,,,,,,,,,,
31149,0,USNebraskaRock,Nebraska,Rock,2022-04-28 09:13:11,2020-08-23,0.5983653226478348,1.0979105143658439,2.1507942816594845,,,,,,,,,,,,
31149,0,USNebraskaRock,Nebraska,Rock,2022-04-28 09:13:11,2020-08-24,0.5983653226478348,1.0979105143658439,2.1507942816594845,,,,,,,,,,,,
31149,0,USNebraskaRock,Nebraska,Rock,2022-04-28 09:13:11,2020-08-25,0.5983653226478348,1.0979105143658439,2.1507942816594845,,,,,,,,,,,,
31149,0,USNebraskaRock,Nebraska,Rock,2022-04-28 09:13:11,2020-08-26,0.5983653226478348,1.0979105143658439,2.1507942816594845,,,,,,,,,,,,
31149,0,USNebraskaRock,Nebraska,Rock,2022-04-28 09:13:11,2020-08-27,2.012893957960225,2.830610089460933,4.143752161875012,,,,,,,,,,,,
31149,0,USNebraskaRock,Nebraska,Rock,2022-04-28 09:13:11,2020-08-28,2.012893957960225,2.830610089460933,4.143752161875012,,,,,,,,,,,,
31149,0,USNebraskaRock,Nebraska,Rock,2022-04-28 09:13:11,2020-08-29,2.012893957960225,2.830610089460933,4.143752161875012,,,,,,,,,,,,
31149,0,USNebraskaRock,Nebraska,Rock,2022-04-28 09:13:11,2020-08-30,2.012893957960225,2.830610089460933,4.143752161875012,,,,,,,,,,,,
31149,0,USNebraskaRock,Nebraska,Rock,2022-04-28 09:13:11,2020-08-31,2.012893957960225,2.830610089460933,4.143752161875012,,,,,,,,,,,,
31149,0,USNebraskaRock,Nebraska,Rock,2022-04-28 09:13:11,2020-09-01,2.012893957960225,2.830610089460933,4.143752161875012,,,,,,,,,,,,
31149,0,USNebraskaRock,Nebraska,Rock,2022-04-28 09:13:11,2020-09-02,2.012893957960225,2.830610089460933,4.143752161875012,,,,,,,,,,,,
31149,0,USNebraskaRock,Nebraska,Rock,2022-04-28 09:13:11,2020-09-03,1.2420667531921366,1.9218003443720908,3.1304191205005667,,,,,,,,,,,,
31149,0,USNebraskaRock,Nebraska,Rock,2022-04-28 09:13:11,2020-09-04,1.2420667531921366,1.9218003443720908,3.1304191205005667,,,,,,,,,,,,
31149,0,USNebraskaRock,Nebraska,Rock,2022-04-28 09:13:11,2020-09-05,1.2420667531921366,1.9218003443720908,3.1304191205005667,,,,,,,,,,,,
31149,0,USNebraskaRock,Nebraska,Rock,2022-04-28 09:13:11,2020-09-06,1.2420667531921366,1.9218003443720908,3.1304191205005667,,,,,,,,,,,,
31149,0,USNebraskaRock,Nebraska,Rock,2022-04-28 09:13:11,2020-09-07,1.2420667531921366,1.9218003443720908,3.1304191205005667,,,,,,,,,,,,
31149,0,USNebraskaRock,Nebraska,Rock,2022-04-28 09:13:11,2020-09-08,1.2420667531921366,1.9218003443720908,3.1304191205005667,,,,,,,,,,,,
31149,0,USNebraskaRock,Nebraska,Rock,2022-04-28 09:13:11,2020-09-09,1.2420667531921366,1.9218003443720908,3.1304191205005667,,,,,,,,,,,,
31149,0,USNebraskaRock,Nebraska,Rock,2022-04-28 09:13:11,2020-09-10,3.212946873163834,4.1044393007723485,5.386692515215142,,,,,,,,,,,,
31149,0,USNebraskaRock,Nebraska,Rock,2022-04-28 09:13:11,2020-09-11,3.212946873163834,4.1044393007723485,5.386692515215142,,,,,,,,,,,,
31149,0,USNebraskaRock,Nebraska,Rock,2022-04-28 09:13:11,2020-09-12,3.212946873163834,4.1044393007723485,5.386692515215142,,,,,,,,,,,,
31149,0,USNebraskaRock,Nebraska,Rock,2022-04-28 09:13:11,2020-09-13,3.212946873163834,4.1044393007723485,5.386692515215142,,,,,,,,,,,,
31149,0,USNebraskaRock,Nebraska,Rock,2022-04-28 09:13:11,2020-09-14,3.212946873163834,4.1044393007723485,5.386692515215142,,,,,,,,,,,,
31149,0,USNebraskaRock,Nebraska,Rock,2022-04-28 09:13:11,2020-09-15,3.212946873163834,4.1044393007723485,5.386692515215142,,,,,,,,,,,,
31149,0,USNebraskaRock,Nebraska,Rock,2022-04-28 09:13:11,2020-09-16,3.212946873163834,4.1044393007723485,5.386692515215142,,,,,,,,,,,,
31149,0,USNebraskaRock,Nebraska,Rock,2022-04-28 09:13:11,2020-09-17,1.3051612291393715,2.1132445114288845,3.618453470276037,,,,,,,,,,,,
31149,0,USNebraskaRock,Nebraska,Rock,2022-04-28 09:13:11,2020-09-18,1.3051612291393715,2.1132445114288845,3.618453470276037,,,,,,,,,,,,
31149,0,USNebraskaRock,Nebraska,Rock,2022-04-28 09:13:11,2020-09-19,1.3051612291393715,2.1132445114288845,3.618453470276037,,,,,,,,,,,,
31149,0,USNebraskaRock,Nebraska,Rock,2022-04-28 09:13:11,2020-09-20,1.3051612291393715,2.1132445114288845,3.618453470276037,,,,,,,,,,,,
31149,0,USNebraskaRock,Nebraska,Rock,2022-04-28 09:13:11,2020-09-21,1.3051612291393715,2.1132445114288845,3.618453470276037,,,,,,,,,,,,
31149,0,USNebraskaRock,Nebraska,Rock,2022-04-28 09:13:11,2020-09-22,1.3051612291393715,2.1132445114288845,3.618453470276037,,,,,,,,,,,,
31149,0,USNebraskaRock,Nebraska,Rock,2022-04-28 09:13:11,2020-09-23,1.3051612291393715,2.1132445114288845,3.618453470276037,,,,,,,,,,,,
31149,0,USNebraskaRock,Nebraska,Rock,2022-04-28 09:13:11,2020-09-24,1.3141273886326756,2.141168529400876,3.691505132699303,,,,,,,,,,,,
31149,0,USNebraskaRock,Nebraska,Rock,2022-04-28 09:13:11,2020-09-25,1.3141273886326756,2.141168529400876,3.691505132699303,,,,,,,,,,,,
31149,0,USNebraskaRock,Nebraska,Rock,2022-04-28 09:13:11,2020-09-26,1.3141273886326756,2.141168529400876,3.691505132699303,,,,,,,,,,,,
31149,0,USNebraskaRock,Nebraska,Rock,2022-04-28 09:13:11,2020-09-27,1.3141273886326756,2.141168529400876,3.691505132699303,,,,,,,,,,,,
31149,0,USNebraskaRock,Nebraska,Rock,2022-04-28 09:13:11,2020-09-28,1.3141273886326756,2.141168529400876,3.691505132699303,,,,,,,,,,,,
31149,0,USNebraskaRock,Nebraska,Rock,2022-04-28 09:13:11,2020-09-29,1.3141273886326756,2.141168529400876,3.691505132699303,,,,,,,,,,,,
31149,0,USNebraskaRock,Nebraska,Rock,2022-04-28 09:13:11,2020-09-30,1.3141273886326756,2.141168529400876,3.691505132699303,,,,,,,,,,,,
31149,0,USNebraskaRock,Nebraska,Rock,2022-04-28 09:13:11,2020-10-01,0.8321679057344138,1.4246792752489648,2.591686336535024,,,,,,,,,,,,
31149,0,USNebraskaRock,Nebraska,Rock,2022-04-28 09:13:11,2020-10-02,0.8321679057344138,1.4246792752489648,2.591686336535024,,,,,,,,,,,,
31149,0,USNebraskaRock,Nebraska,Rock,2022-04-28 09:13:11,2020-10-03,0.8321679057344138,1.4246792752489648,2.591686336535024,,,,,,,,,,,,
31149,0,USNebraskaRock,Nebraska,Rock,2022-04-28 09:13:11,2020-10-04,0.8321679057344138,1.4246792752489648,2.591686336535024,,,,,,,,,,,,
31149,0,USNebraskaRock,Nebraska,Rock,2022-04-28 09:13:11,2020-10-05,0.8321679057344138,1.4246792752489648,2.591686336535024,,,,,,,,,,,,
31149,0,USNebraskaRock,Nebraska,Rock,2022-04-28 09:13:11,2020-10-06,0.8321679057344138,1.4246792752489648,2.591686336535024,,,,,,,,,,,,
31149,0,USNebraskaRock,Nebraska,Rock,2022-04-28 09:13:11,2020-10-07,0.8321679057344138,1.4246792752489648,2.591686336535024,,,,,,,,,,,,
31149,0,USNebraskaRock,Nebraska,Rock,2022-04-28 09:13:11,2020-10-08,1.054492740118371,1.722917823163736,2.979440136397546,,,,,,,,,,,,
31149,0,USNebraskaRock,Nebraska,Rock,2022-04-28 09:13:11,2020-10-09,1.054492740118371,1.722917823163736,2.979440136397546,,,,,,,,,,,,
31149,0,USNebraskaRock,Nebraska,Rock,2022-04-28 09:13:11,2020-10-10,1.054492740118371,1.722917823163736,2.979440136397546,,,,,,,,,,,,
31149,0,USNebraskaRock,Nebraska,Rock,2022-04-28 09:13:11,2020-10-11,1.054492740118371,1.722917823163736,2.979440136397546,,,,,,,,,,,,
31149,0,USNebraskaRock,Nebraska,Rock,2022-04-28 09:13:11,2020-10-12,1.054492740118371,1.722917823163736,2.979440136397546,,,,,,,,,,,,
31149,0,USNebraskaRock,Nebraska,Rock,2022-04-28 09:13:11,2020-10-13,1.054492740118371,1.722917823163736,2.979440136397546,,,,,,,,,,,,
31149,0,USNebraskaRock,Nebraska,Rock,2022-04-28 09:13:11,2020-10-14,1.054492740118371,1.722917823163736,2.979440136397546,,,,,,,,,,,,
31149,0,USNebraskaRock,Nebraska,Rock,2022-04-28 09:13:11,2020-10-15,1.0715720209767057,1.77682791782622,3.122381474786187,,,,,,,,,,,,
31149,0,USNebraskaRock,Nebraska,Rock,2022-04-28 09:13:11,2020-10-16,1.0715720209767057,1.77682791782622,3.122381474786187,,,,,,,,,,,,
31149,0,USNebraskaRock,Nebraska,Rock,2022-04-28 09:13:11,2020-10-17,1.0715720209767057,1.77682791782622,3.122381474786187,,,,,,,,,,,,
31149,0,USNebraskaRock,Nebraska,Rock,2022-04-28 09:13:11,2020-10-18,1.0715720209767057,1.77682791782622,3.122381474786187,,,,,,,,,,,,
31149,0,USNebraskaRock,Nebraska,Rock,2022-04-28 09:13:11,2020-10-19,1.0715720209767057,1.77682791782622,3.122381474786187,,,,,,,,,,,,
31149,0,USNebraskaRock,Nebraska,Rock,2022-04-28 09:13:11,2020-10-20,1.0715720209767057,1.77682791782622,3.122381474786187,,,,,,,,,,,,
31149,0,USNebraskaRock,Nebraska,Rock,2022-04-28 09:13:11,2020-10-21,1.0715720209767057,1.77682791782622,3.122381474786187,,,,,,,,,,,,
31149,0,USNebraskaRock,Nebraska,Rock,2022-04-28 09:13:11,2020-10-22,1.3080592473681305,2.122250637702451,3.641963565618439,,,,,,,,,,,,
31149,0,USNebraskaRock,Nebraska,Rock,2022-04-28 09:13:11,2020-10-23,1.3080592473681305,2.122250637702451,3.641963565618439,,,,,,,,,,,,
31149,0,USNebraskaRock,Nebraska,Rock,2022-04-28 09:13:11,2020-10-24,1.3080592473681305,2.122250637702451,3.641963565618439,,,,,,,,,,,,
31149,0,USNebraskaRock,Nebraska,Rock,2022-04-28 09:13:11,2020-10-25,1.3080592473681305,2.122250637702451,3.641963565618439,,,,,,,,,,,,
31149,0,USNebraskaRock,Nebraska,Rock,2022-04-28 09:13:11,2020-10-26,1.3080592473681305,2.122250637702451,3.641963565618439,,,,,,,,,,,,
31149,0,USNebraskaRock,Nebraska,Rock,2022-04-28 09:13:11,2020-10-27,1.3080592473681305,2.122250637702451,3.641963565618439,,,,,,,,,,,,
31149,0,USNebraskaRock,Nebraska,Rock,2022-04-28 09:13:11,2020-10-28,1.3080592473681305,2.122250637702451,3.641963565618439,,,,,,,,,,,,
31149,0,USNebraskaRock,Nebraska,Rock,2022-04-28 09:13:11,2020-10-29,1.5922480511207098,2.617402792752511,4.556343879004725,,,,,,,,,,,,
31149,0,USNebraskaRock,Nebraska,Rock,2022-04-28 09:13:11,2020-10-30,1.5922480511207098,2.617402792752511,4.556343879004725,,,,,,,,,,,,
31149,0,USNebraskaRock,Nebraska,Rock,2022-04-28 09:13:11,2020-10-31,1.5922480511207098,2.617402792752511,4.556343879004725,,,,,,,,,,,,
31149,0,USNebraskaRock,Nebraska,Rock,2022-04-28 09:13:11,2020-11-01,1.5922480511207098,2.617402792752511,4.556343879004725,,,,,,,,,,,,
31149,0,USNebraskaRock,Nebraska,Rock,2022-04-28 09:13:11,2020-11-02,1.5922480511207098,2.617402792752511,4.556343879004725,,,,,,,,,,,,
31149,0,USNebraskaRock,Nebraska,Rock,2022-04-28 09:13:11,2020-11-03,1.5922480511207098,2.617402792752511,4.556343879004725,,,,,,,,,,,,
31149,0,USNebraskaRock,Nebraska,Rock,2022-04-28 09:13:11,2020-11-04,1.5922480511207098,2.617402792752511,4.556343879004725,,,,,,,,,,,,
31149,0,USNebraskaRock,Nebraska,Rock,2022-04-28 09:13:11,2020-11-05,1.237697527893762,2.3418977486224195,4.739151080620662,,,,,,,,,,,,
31149,0,USNebraskaRock,Nebraska,Rock,2022-04-28 09:13:11,2020-11-06,1.237697527893762,2.3418977486224195,4.739151080620662,,,,,,,,,,,,
31149,0,USNebraskaRock,Nebraska,Rock,2022-04-28 09:13:11,2020-11-07,1.237697527893762,2.3418977486224195,4.739151080620662,,,,,,,,,,,,
31149,0,USNebraskaRock,Nebraska,Rock,2022-04-28 09:13:11,2020-11-08,1.237697527893762,2.3418977486224195,4.739151080620662,,,,,,,,,,,,
31149,0,USNebraskaRock,Nebraska,Rock,2022-04-28 09:13:11,2020-11-09,1.237697527893762,2.3418977486224195,4.739151080620662,,,,,,,,,,,,
31149,0,USNebraskaRock,Nebraska,Rock,2022-04-28 09:13:11,2020-11-10,1.237697527893762,2.3418977486224195,4.739151080620662,,,,,,,,,,,,
31149,0,USNebraskaRock,Nebraska,Rock,2022-04-28 09:13:11,2020-11-11,1.237697527893762,2.3418977486224195,4.739151080620662,,,,,,,,,,,,
31149,0,USNebraskaRock,Nebraska,Rock,2022-04-28 09:13:11,2020-11-12,1.9243908770090048,3.2675801821431842,5.891633651726434,,,,,,,,,,,,
31149,0,USNebraskaRock,Nebraska,Rock,2022-04-28 09:13:11,2020-11-13,1.9243908770090048,3.2675801821431842,5.891633651726434,,,,,,,,,,,,
31149,0,USNebraskaRock,Nebraska,Rock,2022-04-28 09:13:11,2020-11-14,1.9243908770090048,3.2675801821431842,5.891633651726434,,,,,,,,,,,,
31149,0,USNebraskaRock,Nebraska,Rock,2022-04-28 09:13:11,2020-11-15,1.9243908770090048,3.2675801821431842,5.891633651726434,,,,,,,,,,,,
31149,0,USNebraskaRock,Nebraska,Rock,2022-04-28 09:13:11,2020-11-16,1.9243908770090048,3.2675801821431842,5.891633651726434,,,,,,,,,,,,
31149,0,USNebraskaRock,Nebraska,Rock,2022-04-28 09:13:11,2020-11-17,1.9243908770090048,3.2675801821431842,5.891633651726434,,,,,,,,,,,,
31149,0,USNebraskaRock,Nebraska,Rock,2022-04-28 09:13:11,2020-11-18,1.9243908770090048,3.2675801821431842,5.891633651726434,,,,,,,,,,,,
31149,0,USNebraskaRock,Nebraska,Rock,2022-04-28 09:13:11,2020-11-19,0.705128494685994,1.5018209247444796,3.436523250662381,,,,,,,,,,,,
31149,0,USNebraskaRock,Nebraska,Rock,2022-04-28 09:13:11,2020-11-20,0.705128494685994,1.5018209247444796,3.436523250662381,,,,,,,,,,,,
31149,0,USNebraskaRock,Nebraska,Rock,2022-04-28 09:13:11,2020-11-21,0.705128494685994,1.5018209247444796,3.436523250662381,,,,,,,,,,,,
31149,0,USNebraskaRock,Nebraska,Rock,2022-04-28 09:13:11,2020-11-22,0.705128494685994,1.5018209247444796,3.436523250662381,,,,,,,,,,,,
31149,0,USNebraskaRock,Nebraska,Rock,2022-04-28 09:13:11,2020-11-23,0.705128494685994,1.5018209247444796,3.436523250662381,,,,,,,,,,,,
31149,0,USNebraskaRock,Nebraska,Rock,2022-04-28 09:13:11,2020-11-24,0.705128494685994,1.5018209247444796,3.436523250662381,,,,,,,,,,,,
31149,0,USNebraskaRock,Nebraska,Rock,2022-04-28 09:13:11,2020-11-25,0.705128494685994,1.5018209247444796,3.436523250662381,,,,,,,,,,,,
31149,0,USNebraskaRock,Nebraska,Rock,2022-04-28 09:13:11,2020-11-26,1.2206710130120997,2.280660822507356,4.554145159027618,,,,,,,,,,,,
31149,0,USNebraskaRock,Nebraska,Rock,2022-04-28 09:13:11,2020-11-27,1.2206710130120997,2.280660822507356,4.554145159027618,,,,,,,,,,,,
31149,0,USNebraskaRock,Nebraska,Rock,2022-04-28 09:13:11,2020-11-28,1.2206710130120997,2.280660822507356,4.554145159027618,,,,,,,,,,,,
31149,0,USNebraskaRock,Nebraska,Rock,2022-04-28 09:13:11,2020-11-29,1.2206710130120997,2.280660822507356,4.554145159027618,,,,,,,,,,,,
31149,0,USNebraskaRock,Nebraska,Rock,2022-04-28 09:13:11,2020-11-30,1.2206710130120997,2.280660822507356,4.554145159027618,,,,,,,,,,,,
31149,0,USNebraskaRock,Nebraska,Rock,2022-04-28 09:13:11,2020-12-01,1.2206710130120997,2.280660822507356,4.554145159027618,,,,,,,,,,,,
31149,0,USNebraskaRock,Nebraska,Rock,2022-04-28 09:13:11,2020-12-02,1.2206710130120997,2.280660822507356,4.554145159027618,,,,,,,,,,,,
31149,0,USNebraskaRock,Nebraska,Rock,2022-04-28 09:13:11,2020-12-03,2.429944656566183,3.6846800432578766,5.869325448089023,,,,,,,,,,,,
31149,0,USNebraskaRock,Nebraska,Rock,2022-04-28 09:13:11,2020-12-04,2.429944656566183,3.6846800432578766,5.869325448089023,,,,,,,,,,,,
31149,0,USNebraskaRock,Nebraska,Rock,2022-04-28 09:13:11,2020-12-05,2.429944656566183,3.6846800432578766,5.869325448089023,,,,,,,,,,,,
31149,0,USNebraskaRock,Nebraska,Rock,2022-04-28 09:13:11,2020-12-06,2.429944656566183,3.6846800432578766,5.869325448089023,,,,,,,,,,,,
31149,0,USNebraskaRock,Nebraska,Rock,2022-04-28 09:13:11,2020-12-07,2.429944656566183,3.6846800432578766,5.869325448089023,,,,,,,,,,,,
31149,0,USNebraskaRock,Nebraska,Rock,2022-04-28 09:13:11,2020-12-08,2.429944656566183,3.6846800432578766,5.869325448089023,,,,,,,,,,,,
31149,0,USNebraskaRock,Nebraska,Rock,2022-04-28 09:13:11,2020-12-09,2.429944656566183,3.6846800432578766,5.869325448089023,,,,,,,,,,,,
31149,0,USNebraskaRock,Nebraska,Rock,2022-04-28 09:13:11,2020-12-10,0.8953132794242855,1.6390243311866912,3.2030787036095125,,,,,,,,,,,,
31149,0,USNebraskaRock,Nebraska,Rock,2022-04-28 09:13:11,2020-12-11,0.8953132794242855,1.6390243311866912,3.2030787036095125,,,,,,,,,,,,
31149,0,USNebraskaRock,Nebraska,Rock,2022-04-28 09:13:11,2020-12-12,0.8953132794242855,1.6390243311866912,3.2030787036095125,,,,,,,,,,,,
31149,0,USNebraskaRock,Nebraska,Rock,2022-04-28 09:13:11,2020-12-13,0.8953132794242855,1.6390243311866912,3.2030787036095125,,,,,,,,,,,,
31149,0,USNebraskaRock,Nebraska,Rock,2022-04-28 09:13:11,2020-12-14,0.8953132794242855,1.6390243311866912,3.2030787036095125,,,,,,,,,,,,
31149,0,USNebraskaRock,Nebraska,Rock,2022-04-28 09:13:11,2020-12-15,0.8953132794242855,1.6390243311866912,3.2030787036095125,,,,,,,,,,,,
31149,0,USNebraskaRock,Nebraska,Rock,2022-04-28 09:13:11,2020-12-16,0.8953132794242855,1.6390243311866912,3.2030787036095125,,,,,,,,,,,,
31149,0,USNebraskaRock,Nebraska,Rock,2022-04-28 09:13:11,2020-12-17,1.7449082508258682,2.7083743059686602,4.427103291723654,,,,,,,,,,,,
31149,0,USNebraskaRock,Nebraska,Rock,2022-04-28 09:13:11,2020-12-18,1.7449082508258682,2.7083743059686602,4.427103291723654,,,,,,,,,,,,
31149,0,USNebraskaRock,Nebraska,Rock,2022-04-28 09:13:11,2020-12-19,1.7449082508258682,2.7083743059686602,4.427103291723654,,,,,,,,,,,,
31149,0,USNebraskaRock,Nebraska,Rock,2022-04-28 09:13:11,2020-12-20,1.7449082508258682,2.7083743059686602,4.427103291723654,,,,,,,,,,,,
31149,0,USNebraskaRock,Nebraska,Rock,2022-04-28 09:13:11,2020-12-21,1.7449082508258682,2.7083743059686602,4.427103291723654,,,,,,,,,,,,
31149,0,USNebraskaRock,Nebraska,Rock,2022-04-28 09:13:11,2020-12-22,1.7449082508258682,2.7083743059686602,4.427103291723654,,,,,,,,,,,,
31149,0,USNebraskaRock,Nebraska,Rock,2022-04-28 09:13:11,2020-12-23,1.7449082508258682,2.7083743059686602,4.427103291723654,,,,,,,,,,,,
31149,0,USNebraskaRock,Nebraska,Rock,2022-04-28 09:13:11,2020-12-24,0.38018039909883383,0.8663332899943371,2.123623388749145,,,,,,,,,,,,
31149,0,USNebraskaRock,Nebraska,Rock,2022-04-28 09:13:11,2020-12-25,0.38018039909883383,0.8663332899943371,2.123623388749145,,,,,,,,,,,,
31149,0,USNebraskaRock,Nebraska,Rock,2022-04-28 09:13:11,2020-12-26,0.38018039909883383,0.8663332899943371,2.123623388749145,,,,,,,,,,,,
31149,0,USNebraskaRock,Nebraska,Rock,2022-04-28 09:13:11,2020-12-27,0.38018039909883383,0.8663332899943371,2.123623388749145,,,,,,,,,,,,
31149,0,USNebraskaRock,Nebraska,Rock,2022-04-28 09:13:11,2020-12-28,0.38018039909883383,0.8663332899943371,2.123623388749145,,,,,,,,,,,,
31149,0,USNebraskaRock,Nebraska,Rock,2022-04-28 09:13:11,2020-12-29,0.38018039909883383,0.8663332899943371,2.123623388749145,,,,,,,,,,,,
31149,0,USNebraskaRock,Nebraska,Rock,2022-04-28 09:13:11,2020-12-30,0.38018039909883383,0.8663332899943371,2.123623388749145,,,,,,,,,,,,
31149,0,USNebraskaRock,Nebraska,Rock,2022-04-28 09:13:11,2020-12-31,0,0,0,,,,,,,,,,,,
31149,0,USNebraskaRock,Nebraska,Rock,2022-04-28 09:13:11,2021-01-01,0,0,0,,,,,,,,,,,,
31149,0,USNebraskaRock,Nebraska,Rock,2022-04-28 09:13:11,2021-01-02,0,0,0,,,,,,,,,,,,
31149,0,USNebraskaRock,Nebraska,Rock,2022-04-28 09:13:11,2021-01-03,0,0,0,,,,,,,,,,,,
31149,0,USNebraskaRock,Nebraska,Rock,2022-04-28 09:13:11,2021-01-04,0,0,0,,,,,,,,,,,,
31149,0,USNebraskaRock,Nebraska,Rock,2022-04-28 09:13:11,2021-01-05,0,0,0,,,,,,,,,,,,
31149,0,USNebraskaRock,Nebraska,Rock,2022-04-28 09:13:11,2021-01-06,0,0,0,,,,,,,,,,,,
31149,0,USNebraskaRock,Nebraska,Rock,2022-04-28 09:13:11,2021-01-07,0.37880186828664913,0.8604002686799931,2.1021739984246812,,,,,,,,,,,,
31149,0,USNebraskaRock,Nebraska,Rock,2022-04-28 09:13:11,2021-01-08,0.37880186828664913,0.8604002686799931,2.1021739984246812,,,,,,,,,,,,
31149,0,USNebraskaRock,Nebraska,Rock,2022-04-28 09:13:11,2021-01-09,0.37880186828664913,0.8604002686799931,2.1021739984246812,,,,,,,,,,,,
31149,0,USNebraskaRock,Nebraska,Rock,2022-04-28 09:13:11,2021-01-10,0.37880186828664913,0.8604002686799931,2.1021739984246812,,,,,,,,,,,,
31149,0,USNebraskaRock,Nebraska,Rock,2022-04-28 09:13:11,2021-01-11,0.37880186828664913,0.8604002686799931,2.1021739984246812,,,,,,,,,,,,
31149,0,USNebraskaRock,Nebraska,Rock,2022-04-28 09:13:11,2021-01-12,0.37880186828664913,0.8604002686799931,2.1021739984246812,,,,,,,,,,,,
31149,0,USNebraskaRock,Nebraska,Rock,2022-04-28 09:13:11,2021-01-13,0.37880186828664913,0.8604002686799931,2.1021739984246812,,,,,,,,,,,,
31149,0,USNebraskaRock,Nebraska,Rock,2022-04-28 09:13:11,2021-01-14,0,0,0,,,,,,,,,,,,
31149,0,USNebraskaRock,Nebraska,Rock,2022-04-28 09:13:11,2021-01-15,0,0,0,,,,,,,,,,,,
31149,0,USNebraskaRock,Nebraska,Rock,2022-04-28 09:13:11,2021-01-16,0,0,0,,,,,,,,,,,,
31149,0,USNebraskaRock,Nebraska,Rock,2022-04-28 09:13:11,2021-01-17,0,0,0,,,,,,,,,,,,
31149,0,USNebraskaRock,Nebraska,Rock,2022-04-28 09:13:11,2021-01-18,0,0,0,,,,,,,,,,,,
31149,0,USNebraskaRock,Nebraska,Rock,2022-04-28 09:13:11,2021-01-19,0,0,0,,,,,,,,,,,,
31149,0,USNebraskaRock,Nebraska,Rock,2022-04-28 09:13:11,2021-01-20,0,0,0,,,,,,,,,,,,
31149,0,USNebraskaRock,Nebraska,Rock,2022-04-28 09:13:11,2021-01-21,0.3253500815697594,0.6443879225584337,1.367883789426816,,,,,,,,,,,,
31149,0,USNebraskaRock,Nebraska,Rock,2022-04-28 09:13:11,2021-01-22,0.3253500815697594,0.6443879225584337,1.367883789426816,,,,,,,,,,,,
31149,0,USNebraskaRock,Nebraska,Rock,2022-04-28 09:13:11,2021-01-23,0.3253500815697594,0.6443879225584337,1.367883789426816,,,,,,,,,,,,
31149,0,USNebraskaRock,Nebraska,Rock,2022-04-28 09:13:11,2021-01-24,0.3253500815697594,0.6443879225584337,1.367883789426816,,,,,,,,,,,,
31149,0,USNebraskaRock,Nebraska,Rock,2022-04-28 09:13:11,2021-01-25,0.3253500815697594,0.6443879225584337,1.367883789426816,,,,,,,,,,,,
31149,0,USNebraskaRock,Nebraska,Rock,2022-04-28 09:13:11,2021-01-26,0.3253500815697594,0.6443879225584337,1.367883789426816,,,,,,,,,,,,
31149,0,USNebraskaRock,Nebraska,Rock,2022-04-28 09:13:11,2021-01-27,0.3253500815697594,0.6443879225584337,1.367883789426816,,,,,,,,,,,,
31149,0,USNebraskaRock,Nebraska,Rock,2022-04-28 09:13:11,2021-01-28,0,0,0,,,,,,,,,,,,
31149,0,USNebraskaRock,Nebraska,Rock,2022-04-28 09:13:11,2021-01-29,0,0,0,,,,,,,,,,,,
31149,0,USNebraskaRock,Nebraska,Rock,2022-04-28 09:13:11,2021-01-30,0,0,0,,,,,,,,,,,,
31149,0,USNebraskaRock,Nebraska,Rock,2022-04-28 09:13:11,2021-01-31,0,0,0,,,,,,,,,,,,
31149,0,USNebraskaRock,Nebraska,Rock,2022-04-28 09:13:11,2021-02-01,0,0,0,,,,,,,,,,,,
31149,0,USNebraskaRock,Nebraska,Rock,2022-04-28 09:13:11,2021-02-02,0,0,0,,,,,,,,,,,,
31149,0,USNebraskaRock,Nebraska,Rock,2022-04-28 09:13:11,2021-02-03,0,0,0,,,,,,,,,,,,
31149,0,USNebraskaRock,Nebraska,Rock,2022-04-28 09:13:11,2021-02-04,0.31007465107280274,0.5878295243810295,1.1919525076754547,,,,,,,,,,,,
31149,0,USNebraskaRock,Nebraska,Rock,2022-04-28 09:13:11,2021-02-05,0.31007465107280274,0.5878295243810295,1.1919525076754547,,,,,,,,,,,,
31149,0,USNebraskaRock,Nebraska,Rock,2022-04-28 09:13:11,2021-02-06,0.31007465107280274,0.5878295243810295,1.1919525076754547,,,,,,,,,,,,
31149,0,USNebraskaRock,Nebraska,Rock,2022-04-28 09:13:11,2021-02-07,0.31007465107280274,0.5878295243810295,1.1919525076754547,,,,,,,,,,,,
31149,0,USNebraskaRock,Nebraska,Rock,2022-04-28 09:13:11,2021-02-08,0.31007465107280274,0.5878295243810295,1.1919525076754547,,,,,,,,,,,,
31149,0,USNebraskaRock,Nebraska,Rock,2022-04-28 09:13:11,2021-02-09,0.31007465107280274,0.5878295243810295,1.1919525076754547,,,,,,,,,,,,
31149,0,USNebraskaRock,Nebraska,Rock,2022-04-28 09:13:11,2021-02-10,0.31007465107280274,0.5878295243810295,1.1919525076754547,,,,,,,,,,,,
31149,0,USNebraskaRock,Nebraska,Rock,2022-04-28 09:13:11,2021-02-11,0.3208782894778008,0.627586770969662,1.3148587557132818,,,,,,,,,,,,
31149,0,USNebraskaRock,Nebraska,Rock,2022-04-28 09:13:11,2021-02-12,0.3208782894778008,0.627586770969662,1.3148587557132818,,,,,,,,,,,,
31149,0,USNebraskaRock,Nebraska,Rock,2022-04-28 09:13:11,2021-02-13,0.3208782894778008,0.627586770969662,1.3148587557132818,,,,,,,,,,,,
31149,0,USNebraskaRock,Nebraska,Rock,2022-04-28 09:13:11,2021-02-14,0.3208782894778008,0.627586770969662,1.3148587557132818,,,,,,,,,,,,
31149,0,USNebraskaRock,Nebraska,Rock,2022-04-28 09:13:11,2021-02-15,0.3208782894778008,0.627586770969662,1.3148587557132818,,,,,,,,,,,,
31149,0,USNebraskaRock,Nebraska,Rock,2022-04-28 09:13:11,2021-02-16,0.3208782894778008,0.627586770969662,1.3148587557132818,,,,,,,,,,,,
31149,0,USNebraskaRock,Nebraska,Rock,2022-04-28 09:13:11,2021-02-17,0.3208782894778008,0.627586770969662,1.3148587557132818,,,,,,,,,,,,
31149,0,USNebraskaRock,Nebraska,Rock,2022-04-28 09:13:11,2021-02-18,0,0,0,,,,,,,,,,,,
31149,0,USNebraskaRock,Nebraska,Rock,2022-04-28 09:13:11,2021-02-19,0,0,0,,,,,,,,,,,,
31149,0,USNebraskaRock,Nebraska,Rock,2022-04-28 09:13:11,2021-02-20,0,0,0,,,,,,,,,,,,
31149,0,USNebraskaRock,Nebraska,Rock,2022-04-28 09:13:11,2021-02-21,0,0,0,,,,,,,,,,,,
31149,0,USNebraskaRock,Nebraska,Rock,2022-04-28 09:13:11,2021-02-22,0,0,0,,,,,,,,,,,,
31149,0,USNebraskaRock,Nebraska,Rock,2022-04-28 09:13:11,2021-02-23,0,0,0,,,,,,,,,,,,
31149,0,USNebraskaRock,Nebraska,Rock,2022-04-28 09:13:11,2021-02-24,0,0,0,,,,,,,,,,,,
31149,0,USNebraskaRock,Nebraska,Rock,2022-04-28 09:13:11,2021-02-25,0.5186812364489318,0.8348261886095056,1.4201560511565712,,,,,,,,,,,,
31149,0,USNebraskaRock,Nebraska,Rock,2022-04-28 09:13:11,2021-02-26,0.5186812364489318,0.8348261886095056,1.4201560511565712,,,,,,,,,,,,
31149,0,USNebraskaRock,Nebraska,Rock,2022-04-28 09:13:11,2021-02-27,0.5186812364489318,0.8348261886095056,1.4201560511565712,,,,,,,,,,,,
31149,0,USNebraskaRock,Nebraska,Rock,2022-04-28 09:13:11,2021-02-28,0.5186812364489318,0.8348261886095056,1.4201560511565712,,,,,,,,,,,,
31149,0,USNebraskaRock,Nebraska,Rock,2022-04-28 09:13:11,2021-03-01,0.5186812364489318,0.8348261886095056,1.4201560511565712,,,,,,,,,,,,
31149,0,USNebraskaRock,Nebraska,Rock,2022-04-28 09:13:11,2021-03-02,0.5186812364489318,0.8348261886095056,1.4201560511565712,,,,,,,,,,,,
31149,0,USNebraskaRock,Nebraska,Rock,2022-04-28 09:13:11,2021-03-03,0.5186812364489318,0.8348261886095056,1.4201560511565712,,,,,,,,,,,,
31149,0,USNebraskaRock,Nebraska,Rock,2022-04-28 09:13:11,2021-03-04,0,0,0,,,,,,,,,,,,
31149,0,USNebraskaRock,Nebraska,Rock,2022-04-28 09:13:11,2021-03-05,0,0,0,,,,,,,,,,,,
31149,0,USNebraskaRock,Nebraska,Rock,2022-04-28 09:13:11,2021-03-06,0,0,0,,,,,,,,,,,,
31149,0,USNebraskaRock,Nebraska,Rock,2022-04-28 09:13:11,2021-03-07,0,0,0,,,,,,,,,,,,
31149,0,USNebraskaRock,Nebraska,Rock,2022-04-28 09:13:11,2021-03-08,0,0,0,,,,,,,,,,,,
31149,0,USNebraskaRock,Nebraska,Rock,2022-04-28 09:13:11,2021-03-09,0,0,0,,,,,,,,,,,,
31149,0,USNebraskaRock,Nebraska,Rock,2022-04-28 09:13:11,2021-03-10,0,0,0,,,,,,,,,,,,
31149,0,USNebraskaRock,Nebraska,Rock,2022-04-28 09:13:11,2021-03-11,0,0,0,,,,,,,,,,,,
31149,0,USNebraskaRock,Nebraska,Rock,2022-04-28 09:13:11,2021-03-12,0,0,0,,,,,,,,,,,,
31149,0,USNebraskaRock,Nebraska,Rock,2022-04-28 09:13:11,2021-03-13,0,0,0,,,,,,,,,,,,
31149,0,USNebraskaRock,Nebraska,Rock,2022-04-28 09:13:11,2021-03-14,0,0,0,,,,,,,,,,,,
31149,0,USNebraskaRock,Nebraska,Rock,2022-04-28 09:13:11,2021-03-15,0,0,0,,,,,,,,,,,,
31149,0,USNebraskaRock,Nebraska,Rock,2022-04-28 09:13:11,2021-03-16,0,0,0,,,,,,,,,,,,
31149,0,USNebraskaRock,Nebraska,Rock,2022-04-28 09:13:11,2021-03-17,0,0,0,,,,,,,,,,,,
31149,0,USNebraskaRock,Nebraska,Rock,2022-04-28 09:13:11,2021-03-18,0,0,0,,,,,,,,,,,,
31149,0,USNebraskaRock,Nebraska,Rock,2022-04-28 09:13:11,2021-03-19,0,0,0,,,,,,,,,,,,
31149,0,USNebraskaRock,Nebraska,Rock,2022-04-28 09:13:11,2021-03-20,0,0,0,,,,,,,,,,,,
31149,0,USNebraskaRock,Nebraska,Rock,2022-04-28 09:13:11,2021-03-21,0,0,0,,,,,,,,,,,,
31149,0,USNebraskaRock,Nebraska,Rock,2022-04-28 09:13:11,2021-03-22,0,0,0,,,,,,,,,,,,
31149,0,USNebraskaRock,Nebraska,Rock,2022-04-28 09:13:11,2021-03-23,0,0,0,,,,,,,,,,,,
31149,0,USNebraskaRock,Nebraska,Rock,2022-04-28 09:13:11,2021-03-24,0,0,0,,,,,,,,,,,,
31149,0,USNebraskaRock,Nebraska,Rock,2022-04-28 09:13:11,2021-03-25,0,0,0,,,,,,,,,,,,
31149,0,USNebraskaRock,Nebraska,Rock,2022-04-28 09:13:11,2021-03-26,0,0,0,,,,,,,,,,,,
31149,0,USNebraskaRock,Nebraska,Rock,2022-04-28 09:13:11,2021-03-27,0,0,0,,,,,,,,,,,,
31149,0,USNebraskaRock,Nebraska,Rock,2022-04-28 09:13:11,2021-03-28,0,0,0,,,,,,,,,,,,
31149,0,USNebraskaRock,Nebraska,Rock,2022-04-28 09:13:11,2021-03-29,0,0,0,,,,,,,,,,,,
31149,0,USNebraskaRock,Nebraska,Rock,2022-04-28 09:13:11,2021-03-30,0,0,0,,,,,,,,,,,,
31149,0,USNebraskaRock,Nebraska,Rock,2022-04-28 09:13:11,2021-03-31,0,0,0,,,,,,,,,,,,
31149,0,USNebraskaRock,Nebraska,Rock,2022-04-28 09:13:11,2021-04-01,0,0,0,,,,,,,,,,,,
31149,0,USNebraskaRock,Nebraska,Rock,2022-04-28 09:13:11,2021-04-02,0,0,0,,,,,,,,,,,,
31149,0,USNebraskaRock,Nebraska,Rock,2022-04-28 09:13:11,2021-04-03,0,0,0,,,,,,,,,,,,
31149,0,USNebraskaRock,Nebraska,Rock,2022-04-28 09:13:11,2021-04-04,0,0,0,,,,,,,,,,,,
31149,0,USNebraskaRock,Nebraska,Rock,2022-04-28 09:13:11,2021-04-05,0,0,0,,,,,,,,,,,,
31149,0,USNebraskaRock,Nebraska,Rock,2022-04-28 09:13:11,2021-04-06,0,0,0,,,,,,,,,,,,
31149,0,USNebraskaRock,Nebraska,Rock,2022-04-28 09:13:11,2021-04-07,0,0,0,,,,,,,,,,,,
31149,0,USNebraskaRock,Nebraska,Rock,2022-04-28 09:13:11,2021-04-08,0,0,0,,,,,,,,,,,,
31149,0,USNebraskaRock,Nebraska,Rock,2022-04-28 09:13:11,2021-04-09,0,0,0,,,,,,,,,,,,
31149,0,USNebraskaRock,Nebraska,Rock,2022-04-28 09:13:11,2021-04-10,0,0,0,,,,,,,,,,,,
31149,0,USNebraskaRock,Nebraska,Rock,2022-04-28 09:13:11,2021-04-11,0,0,0,,,,,,,,,,,,
31149,0,USNebraskaRock,Nebraska,Rock,2022-04-28 09:13:11,2021-04-12,0,0,0,,,,,,,,,,,,
31149,0,USNebraskaRock,Nebraska,Rock,2022-04-28 09:13:11,2021-04-13,0,0,0,,,,,,,,,,,,
31149,0,USNebraskaRock,Nebraska,Rock,2022-04-28 09:13:11,2021-04-14,0,0,0,,,,,,,,,,,,
31149,0,USNebraskaRock,Nebraska,Rock,2022-04-28 09:13:11,2021-04-15,0,0,0,,,,,,,,,,,,
31149,0,USNebraskaRock,Nebraska,Rock,2022-04-28 09:13:11,2021-04-16,0,0,0,,,,,,,,,,,,
31149,0,USNebraskaRock,Nebraska,Rock,2022-04-28 09:13:11,2021-04-17,0,0,0,,,,,,,,,,,,
31149,0,USNebraskaRock,Nebraska,Rock,2022-04-28 09:13:11,2021-04-18,0,0,0,,,,,,,,,,,,
31149,0,USNebraskaRock,Nebraska,Rock,2022-04-28 09:13:11,2021-04-19,0,0,0,,,,,,,,,,,,
31149,0,USNebraskaRock,Nebraska,Rock,2022-04-28 09:13:11,2021-04-20,0,0,0,,,,,,,,,,,,
31149,0,USNebraskaRock,Nebraska,Rock,2022-04-28 09:13:11,2021-04-21,0,0,0,,,,,,,,,,,,
31149,0,USNebraskaRock,Nebraska,Rock,2022-04-28 09:13:11,2021-04-22,0,0,0,,,,,,,,,,,,
31149,0,USNebraskaRock,Nebraska,Rock,2022-04-28 09:13:11,2021-04-23,0,0,0,,,,,,,,,,,,
31149,0,USNebraskaRock,Nebraska,Rock,2022-04-28 09:13:11,2021-04-24,0,0,0,,,,,,,,,,,,
31149,0,USNebraskaRock,Nebraska,Rock,2022-04-28 09:13:11,2021-04-25,0,0,0,,,,,,,,,,,,
31149,0,USNebraskaRock,Nebraska,Rock,2022-04-28 09:13:11,2021-04-26,0,0,0,,,,,,,,,,,,
31149,0,USNebraskaRock,Nebraska,Rock,2022-04-28 09:13:11,2021-04-27,0,0,0,,,,,,,,,,,,
31149,0,USNebraskaRock,Nebraska,Rock,2022-04-28 09:13:11,2021-04-28,0,0,0,,,,,,,,,,,,
31149,0,USNebraskaRock,Nebraska,Rock,2022-04-28 09:13:11,2021-04-29,0,0,0,,,,,,,,,,,,
31149,0,USNebraskaRock,Nebraska,Rock,2022-04-28 09:13:11,2021-04-30,0,0,0,,,,,,,,,,,,
31149,0,USNebraskaRock,Nebraska,Rock,2022-04-28 09:13:11,2021-05-01,0,0,0,,,,,,,,,,,,
31149,0,USNebraskaRock,Nebraska,Rock,2022-04-28 09:13:11,2021-05-02,0,0,0,,,,,,,,,,,,
31149,0,USNebraskaRock,Nebraska,Rock,2022-04-28 09:13:11,2021-05-03,0,0,0,,,,,,,,,,,,
31149,0,USNebraskaRock,Nebraska,Rock,2022-04-28 09:13:11,2021-05-04,0,0,0,,,,,,,,,,,,
31149,0,USNebraskaRock,Nebraska,Rock,2022-04-28 09:13:11,2021-05-05,0,0,0,,,,,,,,,,,,
31149,0,USNebraskaRock,Nebraska,Rock,2022-04-28 09:13:11,2021-05-06,0,0,0,,,,,,,,,,,,
31149,0,USNebraskaRock,Nebraska,Rock,2022-04-28 09:13:11,2021-05-07,0,0,0,,,,,,,,,,,,
31149,0,USNebraskaRock,Nebraska,Rock,2022-04-28 09:13:11,2021-05-08,0,0,0,,,,,,,,,,,,
31149,0,USNebraskaRock,Nebraska,Rock,2022-04-28 09:13:11,2021-05-09,0,0,0,,,,,,,,,,,,
31149,0,USNebraskaRock,Nebraska,Rock,2022-04-28 09:13:11,2021-05-10,0,0,0,,,,,,,,,,,,
31149,0,USNebraskaRock,Nebraska,Rock,2022-04-28 09:13:11,2021-05-11,0,0,0,,,,,,,,,,,,
31149,0,USNebraskaRock,Nebraska,Rock,2022-04-28 09:13:11,2021-05-12,0,0,0,,,,,,,,,,,,
31149,0,USNebraskaRock,Nebraska,Rock,2022-04-28 09:13:11,2021-05-13,0,0,0,,,,,,,,,,,,
31149,0,USNebraskaRock,Nebraska,Rock,2022-04-28 09:13:11,2021-05-14,0,0,0,,,,,,,,,,,,
31149,0,USNebraskaRock,Nebraska,Rock,2022-04-28 09:13:11,2021-05-15,0,0,0,,,,,,,,,,,,
31149,0,USNebraskaRock,Nebraska,Rock,2022-04-28 09:13:11,2021-05-16,0,0,0,,,,,,,,,,,,
31149,0,USNebraskaRock,Nebraska,Rock,2022-04-28 09:13:11,2021-05-17,0,0,0,,,,,,,,,,,,
31149,0,USNebraskaRock,Nebraska,Rock,2022-04-28 09:13:11,2021-05-18,0,0,0,,,,,,,,,,,,
31149,0,USNebraskaRock,Nebraska,Rock,2022-04-28 09:13:11,2021-05-19,0,0,0,,,,,,,,,,,,
31149,0,USNebraskaRock,Nebraska,Rock,2022-04-28 09:13:11,2021-05-20,0,0,0,,,,,,,,,,,,
31149,0,USNebraskaRock,Nebraska,Rock,2022-04-28 09:13:11,2021-05-21,0,0,0,,,,,,,,,,,,
31149,0,USNebraskaRock,Nebraska,Rock,2022-04-28 09:13:11,2021-05-22,0,0,0,,,,,,,,,,,,
31149,0,USNebraskaRock,Nebraska,Rock,2022-04-28 09:13:11,2021-05-23,0,0,0,,,,,,,,,,,,
31149,0,USNebraskaRock,Nebraska,Rock,2022-04-28 09:13:11,2021-05-24,0,0,0,,,,,,,,,,,,
31149,0,USNebraskaRock,Nebraska,Rock,2022-04-28 09:13:11,2021-05-25,0,0,0,,,,,,,,,,,,
31149,0,USNebraskaRock,Nebraska,Rock,2022-04-28 09:13:11,2021-05-26,0,0,0,,,,,,,,,,,,
31149,0,USNebraskaRock,Nebraska,Rock,2022-04-28 09:13:11,2021-05-27,0,0,0,,,,,,,,,,,,
31149,0,USNebraskaRock,Nebraska,Rock,2022-04-28 09:13:11,2021-05-28,0,0,0,,,,,,,,,,,,
31149,0,USNebraskaRock,Nebraska,Rock,2022-04-28 09:13:11,2021-05-29,0,0,0,,,,,,,,,,,,
31149,0,USNebraskaRock,Nebraska,Rock,2022-04-28 09:13:11,2021-05-30,0,0,0,,,,,,,,,,,,
31149,0,USNebraskaRock,Nebraska,Rock,2022-04-28 09:13:11,2021-05-31,0,0,0,,,,,,,,,,,,
31149,0,USNebraskaRock,Nebraska,Rock,2022-04-28 09:13:11,2021-06-01,0,0,0,,,,,,,,,,,,
31149,0,USNebraskaRock,Nebraska,Rock,2022-04-28 09:13:11,2021-06-02,0,0,0,,,,,,,,,,,,
31149,0,USNebraskaRock,Nebraska,Rock,2022-04-28 09:13:11,2021-06-03,0,0,0,,,,,,,,,,,,
31149,0,USNebraskaRock,Nebraska,Rock,2022-04-28 09:13:11,2021-06-04,0,0,0,,,,,,,,,,,,
31149,0,USNebraskaRock,Nebraska,Rock,2022-04-28 09:13:11,2021-06-05,0,0,0,,,,,,,,,,,,
31149,0,USNebraskaRock,Nebraska,Rock,2022-04-28 09:13:11,2021-06-06,0,0,0,,,,,,,,,,,,
31149,0,USNebraskaRock,Nebraska,Rock,2022-04-28 09:13:11,2021-06-07,0,0,0,,,,,,,,,,,,
31149,0,USNebraskaRock,Nebraska,Rock,2022-04-28 09:13:11,2021-06-08,0,0,0,,,,,,,,,,,,
31149,0,USNebraskaRock,Nebraska,Rock,2022-04-28 09:13:11,2021-06-09,0,0,0,,,,,,,,,,,,
31149,0,USNebraskaRock,Nebraska,Rock,2022-04-28 09:13:11,2021-06-10,0,0,0,,,,,,,,,,,,
31149,0,USNebraskaRock,Nebraska,Rock,2022-04-28 09:13:11,2021-06-11,0,0,0,,,,,,,,,,,,
31149,0,USNebraskaRock,Nebraska,Rock,2022-04-28 09:13:11,2021-06-12,0,0,0,,,,,,,,,,,,
31149,0,USNebraskaRock,Nebraska,Rock,2022-04-28 09:13:11,2021-06-13,0,0,0,,,,,,,,,,,,
31149,0,USNebraskaRock,Nebraska,Rock,2022-04-28 09:13:11,2021-06-14,0,0,0,,,,,,,,,,,,
31149,0,USNebraskaRock,Nebraska,Rock,2022-04-28 09:13:11,2021-06-15,0,0,0,,,,,,,,,,,,
31149,0,USNebraskaRock,Nebraska,Rock,2022-04-28 09:13:11,2021-06-16,0,0,0,,,,,,,,,,,,
31149,0,USNebraskaRock,Nebraska,Rock,2022-04-28 09:13:11,2021-06-17,0,0,0,,,,,,,,,,,,
31149,0,USNebraskaRock,Nebraska,Rock,2022-04-28 09:13:11,2021-06-18,0,0,0,,,,,,,,,,,,
31149,0,USNebraskaRock,Nebraska,Rock,2022-04-28 09:13:11,2021-06-19,0,0,0,,,,,,,,,,,,
31149,0,USNebraskaRock,Nebraska,Rock,2022-04-28 09:13:11,2021-06-20,0,0,0,,,,,,,,,,,,
31149,0,USNebraskaRock,Nebraska,Rock,2022-04-28 09:13:11,2021-06-21,0,0,0,,,,,,,,,,,,
31149,0,USNebraskaRock,Nebraska,Rock,2022-04-28 09:13:11,2021-06-22,0,0,0,,,,,,,,,,,,
31149,0,USNebraskaRock,Nebraska,Rock,2022-04-28 09:13:11,2021-06-23,0,0,0,,,,,,,,,,,,
31149,0,USNebraskaRock,Nebraska,Rock,2022-04-28 09:13:11,2021-06-24,0,0,0,,,,,,,,,,,,
31149,0,USNebraskaRock,Nebraska,Rock,2022-04-28 09:13:11,2021-06-25,0,0,0,,,,,,,,,,,,
31149,0,USNebraskaRock,Nebraska,Rock,2022-04-28 09:13:11,2021-06-26,0,0,0,,,,,,,,,,,,
31149,0,USNebraskaRock,Nebraska,Rock,2022-04-28 09:13:11,2021-06-27,0,0,0,,,,,,,,,,,,
31149,0,USNebraskaRock,Nebraska,Rock,2022-04-28 09:13:11,2021-06-28,0,0,0,,,,,,,,,,,,
31149,0,USNebraskaRock,Nebraska,Rock,2022-04-28 09:13:11,2021-06-29,0,0,0,,,,,,,,,,,,
31149,0,USNebraskaRock,Nebraska,Rock,2022-04-28 09:13:11,2021-06-30,0,0,0,,,,,,,,,,,,
31149,0,USNebraskaRock,Nebraska,Rock,2022-04-28 09:13:11,2021-07-01,0,0,0,,,,,,,,,,,,
31149,0,USNebraskaRock,Nebraska,Rock,2022-04-28 09:13:11,2021-07-02,0,0,0,,,,,,,,,,,,
31149,0,USNebraskaRock,Nebraska,Rock,2022-04-28 09:13:11,2021-07-03,0,0,0,,,,,,,,,,,,
31149,0,USNebraskaRock,Nebraska,Rock,2022-04-28 09:13:11,2021-07-04,0,0,0,,,,,,,,,,,,
31149,0,USNebraskaRock,Nebraska,Rock,2022-04-28 09:13:11,2021-07-05,0,0,0,,,,,,,,,,,,
31149,0,USNebraskaRock,Nebraska,Rock,2022-04-28 09:13:11,2021-07-06,0,0,0,,,,,,,,,,,,
31149,0,USNebraskaRock,Nebraska,Rock,2022-04-28 09:13:11,2021-07-07,0,0,0,,,,,,,,,,,,
31149,0,USNebraskaRock,Nebraska,Rock,2022-04-28 09:13:11,2021-07-08,0,0,0,,,,,,,,,,,,
31149,0,USNebraskaRock,Nebraska,Rock,2022-04-28 09:13:11,2021-07-09,0,0,0,,,,,,,,,,,,
31149,0,USNebraskaRock,Nebraska,Rock,2022-04-28 09:13:11,2021-07-10,0,0,0,,,,,,,,,,,,
31149,0,USNebraskaRock,Nebraska,Rock,2022-04-28 09:13:11,2021-07-11,0,0,0,,,,,,,,,,,,
31149,0,USNebraskaRock,Nebraska,Rock,2022-04-28 09:13:11,2021-07-12,0,0,0,,,,,,,,,,,,
31149,0,USNebraskaRock,Nebraska,Rock,2022-04-28 09:13:11,2021-07-13,0,0,0,,,,,,,,,,,,
31149,0,USNebraskaRock,Nebraska,Rock,2022-04-28 09:13:11,2021-07-14,0,0,0,,,,,,,,,,,,
31149,0,USNebraskaRock,Nebraska,Rock,2022-04-28 09:13:11,2021-07-15,0,0,0,,,,,,,,,,,,
31149,0,USNebraskaRock,Nebraska,Rock,2022-04-28 09:13:11,2021-07-16,0,0,0,,,,,,,,,,,,
31149,0,USNebraskaRock,Nebraska,Rock,2022-04-28 09:13:11,2021-07-17,0,0,0,,,,,,,,,,,,
31149,0,USNebraskaRock,Nebraska,Rock,2022-04-28 09:13:11,2021-07-18,0,0,0,,,,,,,,,,,,
31149,0,USNebraskaRock,Nebraska,Rock,2022-04-28 09:13:11,2021-07-19,0,0,0,,,,,,,,,,,,
31149,0,USNebraskaRock,Nebraska,Rock,2022-04-28 09:13:11,2021-07-20,0,0,0,,,,,,,,,,,,
31149,0,USNebraskaRock,Nebraska,Rock,2022-04-28 09:13:11,2021-07-21,0,0,0,,,,,,,,,,,,
31149,0,USNebraskaRock,Nebraska,Rock,2022-04-28 09:13:11,2021-07-22,0,0,0,,,,,,,,,,,,
31149,0,USNebraskaRock,Nebraska,Rock,2022-04-28 09:13:11,2021-07-23,0,0,0,,,,,,,,,,,,
31149,0,USNebraskaRock,Nebraska,Rock,2022-04-28 09:13:11,2021-07-24,0,0,0,,,,,,,,,,,,
31149,0,USNebraskaRock,Nebraska,Rock,2022-04-28 09:13:11,2021-07-25,0,0,0,,,,,,,,,,,,
31149,0,USNebraskaRock,Nebraska,Rock,2022-04-28 09:13:11,2021-07-26,0,0,0,,,,,,,,,,,,
31149,0,USNebraskaRock,Nebraska,Rock,2022-04-28 09:13:11,2021-07-27,0,0,0,,,,,,,,,,,,
31149,0,USNebraskaRock,Nebraska,Rock,2022-04-28 09:13:11,2021-07-28,0,0,0,,,,,,,,,,,,
31149,0,USNebraskaRock,Nebraska,Rock,2022-04-28 09:13:11,2021-07-29,0,0,0,,,,,,,,,,,,
31149,0,USNebraskaRock,Nebraska,Rock,2022-04-28 09:13:11,2021-07-30,0,0,0,,,,,,,,,,,,
31149,0,USNebraskaRock,Nebraska,Rock,2022-04-28 09:13:11,2021-07-31,0,0,0,,,,,,,,,,,,
31149,0,USNebraskaRock,Nebraska,Rock,2022-04-28 09:13:11,2021-08-01,0,0,0,,,,,,,,,,,,
31149,0,USNebraskaRock,Nebraska,Rock,2022-04-28 09:13:11,2021-08-02,0,0,0,,,,,,,,,,,,
31149,0,USNebraskaRock,Nebraska,Rock,2022-04-28 09:13:11,2021-08-03,0,0,0,,,,,,,,,,,,
31149,0,USNebraskaRock,Nebraska,Rock,2022-04-28 09:13:11,2021-08-04,0,0,0,,,,,,,,,,,,
31149,0,USNebraskaRock,Nebraska,Rock,2022-04-28 09:13:11,2021-08-05,0,0,0,,,,,,,,,,,,
31149,0,USNebraskaRock,Nebraska,Rock,2022-04-28 09:13:11,2021-08-06,0,0,0,,,,,,,,,,,,
31149,0,USNebraskaRock,Nebraska,Rock,2022-04-28 09:13:11,2021-08-07,0,0,0,,,,,,,,,,,,
31149,0,USNebraskaRock,Nebraska,Rock,2022-04-28 09:13:11,2021-08-08,0,0,0,,,,,,,,,,,,
31149,0,USNebraskaRock,Nebraska,Rock,2022-04-28 09:13:11,2021-08-09,0,0,0,,,,,,,,,,,,
31149,0,USNebraskaRock,Nebraska,Rock,2022-04-28 09:13:11,2021-08-10,0,0,0,,,,,,,,,,,,
31149,0,USNebraskaRock,Nebraska,Rock,2022-04-28 09:13:11,2021-08-11,0,0,0,,,,,,,,,,,,
31149,0,USNebraskaRock,Nebraska,Rock,2022-04-28 09:13:11,2021-08-12,0,0,0,,,,,,,,,,,,
31149,0,USNebraskaRock,Nebraska,Rock,2022-04-28 09:13:11,2021-08-13,0,0,0,,,,,,,,,,,,
31149,0,USNebraskaRock,Nebraska,Rock,2022-04-28 09:13:11,2021-08-14,0,0,0,,,,,,,,,,,,
31149,0,USNebraskaRock,Nebraska,Rock,2022-04-28 09:13:11,2021-08-15,0,0,0,,,,,,,,,,,,
31149,0,USNebraskaRock,Nebraska,Rock,2022-04-28 09:13:11,2021-08-16,0,0,0,,,,,,,,,,,,
31149,0,USNebraskaRock,Nebraska,Rock,2022-04-28 09:13:11,2021-08-17,0,0,0,,,,,,,,,,,,
31149,0,USNebraskaRock,Nebraska,Rock,2022-04-28 09:13:11,2021-08-18,0,0,0,,,,,,,,,,,,
31149,0,USNebraskaRock,Nebraska,Rock,2022-04-28 09:13:11,2021-08-19,0,0,0,,,,,,,,,,,,
31149,0,USNebraskaRock,Nebraska,Rock,2022-04-28 09:13:11,2021-08-20,0,0,0,,,,,,,,,,,,
31149,0,USNebraskaRock,Nebraska,Rock,2022-04-28 09:13:11,2021-08-21,0,0,0,,,,,,,,,,,,
31149,0,USNebraskaRock,Nebraska,Rock,2022-04-28 09:13:11,2021-08-22,0,0,0,,,,,,,,,,,,
31149,0,USNebraskaRock,Nebraska,Rock,2022-04-28 09:13:11,2021-08-23,0,0,0,,,,,,,,,,,,
31149,0,USNebraskaRock,Nebraska,Rock,2022-04-28 09:13:11,2021-08-24,0,0,0,,,,,,,,,,,,
31149,0,USNebraskaRock,Nebraska,Rock,2022-04-28 09:13:11,2021-08-25,0,0,0,,,,,,,,,,,,
31149,0,USNebraskaRock,Nebraska,Rock,2022-04-28 09:13:11,2021-08-26,0,0,0,,,,,,,,,,,,
31149,0,USNebraskaRock,Nebraska,Rock,2022-04-28 09:13:11,2021-08-27,0,0,0,,,,,,,,,,,,
31149,0,USNebraskaRock,Nebraska,Rock,2022-04-28 09:13:11,2021-08-28,0,0,0,,,,,,,,,,,,
31149,0,USNebraskaRock,Nebraska,Rock,2022-04-28 09:13:11,2021-08-29,0,0,0,,,,,,,,,,,,
31149,0,USNebraskaRock,Nebraska,Rock,2022-04-28 09:13:11,2021-08-30,0,0,0,,,,,,,,,,,,
31149,0,USNebraskaRock,Nebraska,Rock,2022-04-28 09:13:11,2021-08-31,0,0,0,,,,,,,,,,,,
31149,0,USNebraskaRock,Nebraska,Rock,2022-04-28 09:13:11,2021-09-01,0,0,0,,,,,,,,,,,,
31149,0,USNebraskaRock,Nebraska,Rock,2022-04-28 09:13:11,2021-09-02,0,0,0,,,,,,,,,,,,
31149,0,USNebraskaRock,Nebraska,Rock,2022-04-28 09:13:11,2021-09-03,0,0,0,,,,,,,,,,,,
31149,0,USNebraskaRock,Nebraska,Rock,2022-04-28 09:13:11,2021-09-04,0,0,0,,,,,,,,,,,,
31149,0,USNebraskaRock,Nebraska,Rock,2022-04-28 09:13:11,2021-09-05,0,0,0,,,,,,,,,,,,
31149,0,USNebraskaRock,Nebraska,Rock,2022-04-28 09:13:11,2021-09-06,0,0,0,,,,,,,,,,,,
31149,0,USNebraskaRock,Nebraska,Rock,2022-04-28 09:13:11,2021-09-07,0,0,0,,,,,,,,,,,,
31149,0,USNebraskaRock,Nebraska,Rock,2022-04-28 09:13:11,2021-09-08,0,0,0,,,,,,,,,,,,
31149,0,USNebraskaRock,Nebraska,Rock,2022-04-28 09:13:11,2021-09-09,0,0,0,,,,,,,,,,,,
31149,0,USNebraskaRock,Nebraska,Rock,2022-04-28 09:13:11,2021-09-10,0,0,0,,,,,,,,,,,,
31149,0,USNebraskaRock,Nebraska,Rock,2022-04-28 09:13:11,2021-09-11,0,0,0,,,,,,,,,,,,
31149,0,USNebraskaRock,Nebraska,Rock,2022-04-28 09:13:11,2021-09-12,0,0,0,,,,,,,,,,,,
31149,0,USNebraskaRock,Nebraska,Rock,2022-04-28 09:13:11,2021-09-13,0,0,0,,,,,,,,,,,,
31149,0,USNebraskaRock,Nebraska,Rock,2022-04-28 09:13:11,2021-09-14,0,0,0,,,,,,,,,,,,
31149,0,USNebraskaRock,Nebraska,Rock,2022-04-28 09:13:11,2021-09-15,0,0,0,,,,,,,,,,,,
31149,0,USNebraskaRock,Nebraska,Rock,2022-04-28 09:13:11,2021-09-16,0,0,0,,,,,,,,,,,,
31149,0,USNebraskaRock,Nebraska,Rock,2022-04-28 09:13:11,2021-09-17,0,0,0,,,,,,,,,,,,
31149,0,USNebraskaRock,Nebraska,Rock,2022-04-28 09:13:11,2021-09-18,0,0,0,,,,,,,,,,,,
31149,0,USNebraskaRock,Nebraska,Rock,2022-04-28 09:13:11,2021-09-19,0,0,0,,,,,,,,,,,,
31149,0,USNebraskaRock,Nebraska,Rock,2022-04-28 09:13:11,2021-09-20,0,0,0,,,,,,,,,,,,
31149,0,USNebraskaRock,Nebraska,Rock,2022-04-28 09:13:11,2021-09-21,0,0,0,,,,,,,,,,,,
31149,0,USNebraskaRock,Nebraska,Rock,2022-04-28 09:13:11,2021-09-22,0,0,0,,,,,,,,,,,,
31149,0,USNebraskaRock,Nebraska,Rock,2022-04-28 09:13:11,2021-09-23,3.385799649445949,4.800969975876073,7.0943587592285695,,,,,,,,,,,,
31149,0,USNebraskaRock,Nebraska,Rock,2022-04-28 09:13:11,2021-09-24,3.385799649445949,4.800969975876073,7.0943587592285695,,,,,,,,,,,,
31149,0,USNebraskaRock,Nebraska,Rock,2022-04-28 09:13:11,2021-09-25,3.385799649445949,4.800969975876073,7.0943587592285695,,,,,,,,,,,,
31149,0,USNebraskaRock,Nebraska,Rock,2022-04-28 09:13:11,2021-09-26,3.385799649445949,4.800969975876073,7.0943587592285695,,,,,,,,,,,,
31149,0,USNebraskaRock,Nebraska,Rock,2022-04-28 09:13:11,2021-09-27,3.385799649445949,4.800969975876073,7.0943587592285695,,,,,,,,,,,,
31149,0,USNebraskaRock,Nebraska,Rock,2022-04-28 09:13:11,2021-09-28,3.385799649445949,4.800969975876073,7.0943587592285695,,,,,,,,,,,,
31149,0,USNebraskaRock,Nebraska,Rock,2022-04-28 09:13:11,2021-09-29,3.385799649445949,4.800969975876073,7.0943587592285695,,,,,,,,,,,,
31149,0,USNebraskaRock,Nebraska,Rock,2022-04-28 09:13:11,2021-09-30,1.4623173638996265,2.2234508176782763,3.552456936500876,,,,,,,,,,,,
31149,0,USNebraskaRock,Nebraska,Rock,2022-04-28 09:13:11,2021-10-01,1.4623173638996265,2.2234508176782763,3.552456936500876,,,,,,,,,,,,
31149,0,USNebraskaRock,Nebraska,Rock,2022-04-28 09:13:11,2021-10-02,1.4623173638996265,2.2234508176782763,3.552456936500876,,,,,,,,,,,,
31149,0,USNebraskaRock,Nebraska,Rock,2022-04-28 09:13:11,2021-10-03,1.4623173638996265,2.2234508176782763,3.552456936500876,,,,,,,,,,,,
31149,0,USNebraskaRock,Nebraska,Rock,2022-04-28 09:13:11,2021-10-04,1.4623173638996265,2.2234508176782763,3.552456936500876,,,,,,,,,,,,
31149,0,USNebraskaRock,Nebraska,Rock,2022-04-28 09:13:11,2021-10-05,1.4623173638996265,2.2234508176782763,3.552456936500876,,,,,,,,,,,,
31149,0,USNebraskaRock,Nebraska,Rock,2022-04-28 09:13:11,2021-10-06,1.4623173638996265,2.2234508176782763,3.552456936500876,,,,,,,,,,,,
31149,0,USNebraskaRock,Nebraska,Rock,2022-04-28 09:13:11,2021-10-07,0.6251485462747811,1.193845296368358,2.439477897374616,,,,,,,,,,,,
31149,0,USNebraskaRock,Nebraska,Rock,2022-04-28 09:13:11,2021-10-08,0.6251485462747811,1.193845296368358,2.439477897374616,,,,,,,,,,,,
31149,0,USNebraskaRock,Nebraska,Rock,2022-04-28 09:13:11,2021-10-09,0.6251485462747811,1.193845296368358,2.439477897374616,,,,,,,,,,,,
31149,0,USNebraskaRock,Nebraska,Rock,2022-04-28 09:13:11,2021-10-10,0.6251485462747811,1.193845296368358,2.439477897374616,,,,,,,,,,,,
31149,0,USNebraskaRock,Nebraska,Rock,2022-04-28 09:13:11,2021-10-11,0.6251485462747811,1.193845296368358,2.439477897374616,,,,,,,,,,,,
31149,0,USNebraskaRock,Nebraska,Rock,2022-04-28 09:13:11,2021-10-12,0.6251485462747811,1.193845296368358,2.439477897374616,,,,,,,,,,,,
31149,0,USNebraskaRock,Nebraska,Rock,2022-04-28 09:13:11,2021-10-13,0.6251485462747811,1.193845296368358,2.439477897374616,,,,,,,,,,,,
31149,0,USNebraskaRock,Nebraska,Rock,2022-04-28 09:13:11,2021-10-14,0.36699783387269785,0.810330581571906,1.9237621843120865,,,,,,,,,,,,
31149,0,USNebraskaRock,Nebraska,Rock,2022-04-28 09:13:11,2021-10-15,0.36699783387269785,0.810330581571906,1.9237621843120865,,,,,,,,,,,,
31149,0,USNebraskaRock,Nebraska,Rock,2022-04-28 09:13:11,2021-10-16,0.36699783387269785,0.810330581571906,1.9237621843120865,,,,,,,,,,,,
31149,0,USNebraskaRock,Nebraska,Rock,2022-04-28 09:13:11,2021-10-17,0.36699783387269785,0.810330581571906,1.9237621843120865,,,,,,,,,,,,
31149,0,USNebraskaRock,Nebraska,Rock,2022-04-28 09:13:11,2021-10-18,0.36699783387269785,0.810330581571906,1.9237621843120865,,,,,,,,,,,,
31149,0,USNebraskaRock,Nebraska,Rock,2022-04-28 09:13:11,2021-10-19,0.36699783387269785,0.810330581571906,1.9237621843120865,,,,,,,,,,,,
31149,0,USNebraskaRock,Nebraska,Rock,2022-04-28 09:13:11,2021-10-20,0.36699783387269785,0.810330581571906,1.9237621843120865,,,,,,,,,,,,
31149,0,USNebraskaRock,Nebraska,Rock,2022-04-28 09:13:11,2021-10-21,0.6273735193486722,1.2019802678601672,2.4644621834690934,,,,,,,,,,,,
31149,0,USNebraskaRock,Nebraska,Rock,2022-04-28 09:13:11,2021-10-22,0.6273735193486722,1.2019802678601672,2.4644621834690934,,,,,,,,,,,,
31149,0,USNebraskaRock,Nebraska,Rock,2022-04-28 09:13:11,2021-10-23,0.6273735193486722,1.2019802678601672,2.4644621834690934,,,,,,,,,,,,
31149,0,USNebraskaRock,Nebraska,Rock,2022-04-28 09:13:11,2021-10-24,0.6273735193486722,1.2019802678601672,2.4644621834690934,,,,,,,,,,,,
31149,0,USNebraskaRock,Nebraska,Rock,2022-04-28 09:13:11,2021-10-25,0.6273735193486722,1.2019802678601672,2.4644621834690934,,,,,,,,,,,,
31149,0,USNebraskaRock,Nebraska,Rock,2022-04-28 09:13:11,2021-10-26,0.6273735193486722,1.2019802678601672,2.4644621834690934,,,,,,,,,,,,
31149,0,USNebraskaRock,Nebraska,Rock,2022-04-28 09:13:11,2021-10-27,0.6273735193486722,1.2019802678601672,2.4644621834690934,,,,,,,,,,,,
31149,0,USNebraskaRock,Nebraska,Rock,2022-04-28 09:13:11,2021-10-28,1.7496537409962025,2.722501605645627,4.462431105493758,,,,,,,,,,,,
31149,0,USNebraskaRock,Nebraska,Rock,2022-04-28 09:13:11,2021-10-29,1.7496537409962025,2.722501605645627,4.462431105493758,,,,,,,,,,,,
31149,0,USNebraskaRock,Nebraska,Rock,2022-04-28 09:13:11,2021-10-30,1.7496537409962025,2.722501605645627,4.462431105493758,,,,,,,,,,,,
31149,0,USNebraskaRock,Nebraska,Rock,2022-04-28 09:13:11,2021-10-31,1.7496537409962025,2.722501605645627,4.462431105493758,,,,,,,,,,,,
31149,0,USNebraskaRock,Nebraska,Rock,2022-04-28 09:13:11,2021-11-01,1.7496537409962025,2.722501605645627,4.462431105493758,,,,,,,,,,,,
31149,0,USNebraskaRock,Nebraska,Rock,2022-04-28 09:13:11,2021-11-02,1.7496537409962025,2.722501605645627,4.462431105493758,,,,,,,,,,,,
31149,0,USNebraskaRock,Nebraska,Rock,2022-04-28 09:13:11,2021-11-03,1.7496537409962025,2.722501605645627,4.462431105493758,,,,,,,,,,,,
31149,0,USNebraskaRock,Nebraska,Rock,2022-04-28 09:13:11,2021-11-04,3.8468099146638526,4.9497054322985,6.549759224742839,,,,,,,,,,,,
31149,0,USNebraskaRock,Nebraska,Rock,2022-04-28 09:13:11,2021-11-05,3.8468099146638526,4.9497054322985,6.549759224742839,,,,,,,,,,,,
31149,0,USNebraskaRock,Nebraska,Rock,2022-04-28 09:13:11,2021-11-06,3.8468099146638526,4.9497054322985,6.549759224742839,,,,,,,,,,,,
31149,0,USNebraskaRock,Nebraska,Rock,2022-04-28 09:13:11,2021-11-07,3.8468099146638526,4.9497054322985,6.549759224742839,,,,,,,,,,,,
31149,0,USNebraskaRock,Nebraska,Rock,2022-04-28 09:13:11,2021-11-08,3.8468099146638526,4.9497054322985,6.549759224742839,,,,,,,,,,,,
31149,0,USNebraskaRock,Nebraska,Rock,2022-04-28 09:13:11,2021-11-09,3.8468099146638526,4.9497054322985,6.549759224742839,,,,,,,,,,,,
31149,0,USNebraskaRock,Nebraska,Rock,2022-04-28 09:13:11,2021-11-10,3.8468099146638526,4.9497054322985,6.549759224742839,,,,,,,,,,,,
31149,0,USNebraskaRock,Nebraska,Rock,2022-04-28 09:13:11,2021-11-11,0.6654610405438575,1.3451092688530797,2.9163655405126288,,,,,,,,,,,,
31149,0,USNebraskaRock,Nebraska,Rock,2022-04-28 09:13:11,2021-11-12,0.6654610405438575,1.3451092688530797,2.9163655405126288,,,,,,,,,,,,
31149,0,USNebraskaRock,Nebraska,Rock,2022-04-28 09:13:11,2021-11-13,0.6654610405438575,1.3451092688530797,2.9163655405126288,,,,,,,,,,,,
31149,0,USNebraskaRock,Nebraska,Rock,2022-04-28 09:13:11,2021-11-14,0.6654610405438575,1.3451092688530797,2.9163655405126288,,,,,,,,,,,,
31149,0,USNebraskaRock,Nebraska,Rock,2022-04-28 09:13:11,2021-11-15,0.6654610405438575,1.3451092688530797,2.9163655405126288,,,,,,,,,,,,
31149,0,USNebraskaRock,Nebraska,Rock,2022-04-28 09:13:11,2021-11-16,0.6654610405438575,1.3451092688530797,2.9163655405126288,,,,,,,,,,,,
31149,0,USNebraskaRock,Nebraska,Rock,2022-04-28 09:13:11,2021-11-17,0.6654610405438575,1.3451092688530797,2.9163655405126288,,,,,,,,,,,,
31149,0,USNebraskaRock,Nebraska,Rock,2022-04-28 09:13:11,2021-11-18,0.4955711609926904,1.4237944738519863,4.394305085965536,,,,,,,,,,,,
31149,0,USNebraskaRock,Nebraska,Rock,2022-04-28 09:13:11,2021-11-19,0.4955711609926904,1.4237944738519863,4.394305085965536,,,,,,,,,,,,
31149,0,USNebraskaRock,Nebraska,Rock,2022-04-28 09:13:11,2021-11-20,0.4955711609926904,1.4237944738519863,4.394305085965536,,,,,,,,,,,,
31149,0,USNebraskaRock,Nebraska,Rock,2022-04-28 09:13:11,2021-11-21,0.4955711609926904,1.4237944738519863,4.394305085965536,,,,,,,,,,,,
31149,0,USNebraskaRock,Nebraska,Rock,2022-04-28 09:13:11,2021-11-22,0.4955711609926904,1.4237944738519863,4.394305085965536,,,,,,,,,,,,
31149,0,USNebraskaRock,Nebraska,Rock,2022-04-28 09:13:11,2021-11-23,0.4955711609926904,1.4237944738519863,4.394305085965536,,,,,,,,,,,,
31149,0,USNebraskaRock,Nebraska,Rock,2022-04-28 09:13:11,2021-11-24,0.4955711609926904,1.4237944738519863,4.394305085965536,,,,,,,,,,,,
31149,0,USNebraskaRock,Nebraska,Rock,2022-04-28 09:13:11,2021-12-02,0.6369294271033077,2.2591331199246176,8.553513310398305,,,,,,,,,,,,
31149,0,USNebraskaRock,Nebraska,Rock,2022-04-28 09:13:11,2021-12-03,0.6369294271033077,2.2591331199246176,8.553513310398305,,,,,,,,,,,,
31149,0,USNebraskaRock,Nebraska,Rock,2022-04-28 09:13:11,2021-12-04,0.6369294271033077,2.2591331199246176,8.553513310398305,,,,,,,,,,,,
31149,0,USNebraskaRock,Nebraska,Rock,2022-04-28 09:13:11,2021-12-05,0.6369294271033077,2.2591331199246176,8.553513310398305,,,,,,,,,,,,
31149,0,USNebraskaRock,Nebraska,Rock,2022-04-28 09:13:11,2021-12-06,0.6369294271033077,2.2591331199246176,8.553513310398305,,,,,,,,,,,,
31149,0,USNebraskaRock,Nebraska,Rock,2022-04-28 09:13:11,2021-12-07,0.6369294271033077,2.2591331199246176,8.553513310398305,,,,,,,,,,,,
31149,0,USNebraskaRock,Nebraska,Rock,2022-04-28 09:13:11,2021-12-08,0.6369294271033077,2.2591331199246176,8.553513310398305,,,,,,,,,,,,
31149,0,USNebraskaRock,Nebraska,Rock,2022-04-28 09:13:11,2021-12-09,0,0,0,,,,,,,,,,,,
31149,0,USNebraskaRock,Nebraska,Rock,2022-04-28 09:13:11,2021-12-10,0,0,0,,,,,,,,,,,,
31149,0,USNebraskaRock,Nebraska,Rock,2022-04-28 09:13:11,2021-12-11,0,0,0,,,,,,,,,,,,
31149,0,USNebraskaRock,Nebraska,Rock,2022-04-28 09:13:11,2021-12-12,0,0,0,,,,,,,,,,,,
31149,0,USNebraskaRock,Nebraska,Rock,2022-04-28 09:13:11,2021-12-13,0,0,0,,,,,,,,,,,,
31149,0,USNebraskaRock,Nebraska,Rock,2022-04-28 09:13:11,2021-12-14,0,0,0,,,,,,,,,,,,
31149,0,USNebraskaRock,Nebraska,Rock,2022-04-28 09:13:11,2021-12-15,0,0,0,,,,,,,,,,,,
31149,0,USNebraskaRock,Nebraska,Rock,2022-04-28 09:13:11,2021-12-16,0.6480249447230746,1.2786825897416074,2.7037798783689166,,,,,,,,,,,,
31149,0,USNebraskaRock,Nebraska,Rock,2022-04-28 09:13:11,2021-12-17,0.6480249447230746,1.2786825897416074,2.7037798783689166,,,,,,,,,,,,
31149,0,USNebraskaRock,Nebraska,Rock,2022-04-28 09:13:11,2021-12-18,0.6480249447230746,1.2786825897416074,2.7037798783689166,,,,,,,,,,,,
31149,0,USNebraskaRock,Nebraska,Rock,2022-04-28 09:13:11,2021-12-19,0.6480249447230746,1.2786825897416074,2.7037798783689166,,,,,,,,,,,,
31149,0,USNebraskaRock,Nebraska,Rock,2022-04-28 09:13:11,2021-12-20,0.6480249447230746,1.2786825897416074,2.7037798783689166,,,,,,,,,,,,
31149,0,USNebraskaRock,Nebraska,Rock,2022-04-28 09:13:11,2021-12-21,0.6480249447230746,1.2786825897416074,2.7037798783689166,,,,,,,,,,,,
31149,0,USNebraskaRock,Nebraska,Rock,2022-04-28 09:13:11,2021-12-22,0.6480249447230746,1.2786825897416074,2.7037798783689166,,,,,,,,,,,,
31149,0,USNebraskaRock,Nebraska,Rock,2022-04-28 09:13:11,2021-12-23,0.4010766599712242,0.9584350594768982,2.464672232838208,,,,,,,,,,,,
31149,0,USNebraskaRock,Nebraska,Rock,2022-04-28 09:13:11,2021-12-24,0.4010766599712242,0.9584350594768982,2.464672232838208,,,,,,,,,,,,
31149,0,USNebraskaRock,Nebraska,Rock,2022-04-28 09:13:11,2021-12-25,0.4010766599712242,0.9584350594768982,2.464672232838208,,,,,,,,,,,,
31149,0,USNebraskaRock,Nebraska,Rock,2022-04-28 09:13:11,2021-12-26,0.4010766599712242,0.9584350594768982,2.464672232838208,,,,,,,,,,,,
31149,0,USNebraskaRock,Nebraska,Rock,2022-04-28 09:13:11,2021-12-27,0.4010766599712242,0.9584350594768982,2.464672232838208,,,,,,,,,,,,
31149,0,USNebraskaRock,Nebraska,Rock,2022-04-28 09:13:11,2021-12-28,0.4010766599712242,0.9584350594768982,2.464672232838208,,,,,,,,,,,,
31149,0,USNebraskaRock,Nebraska,Rock,2022-04-28 09:13:11,2021-12-29,0.4010766599712242,0.9584350594768982,2.464672232838208,,,,,,,,,,,,
31149,0,USNebraskaRock,Nebraska,Rock,2022-04-28 09:13:11,2021-12-30,0,0,0,,,,,,,,,,,,
31149,0,USNebraskaRock,Nebraska,Rock,2022-04-28 09:13:11,2021-12-31,0,0,0,,,,,,,,,,,,
31149,0,USNebraskaRock,Nebraska,Rock,2022-04-28 09:13:11,2022-01-01,0,0,0,,,,,,,,,,,,
31149,0,USNebraskaRock,Nebraska,Rock,2022-04-28 09:13:11,2022-01-02,0,0,0,,,,,,,,,,,,
31149,0,USNebraskaRock,Nebraska,Rock,2022-04-28 09:13:11,2022-01-03,0,0,0,,,,,,,,,,,,
31149,0,USNebraskaRock,Nebraska,Rock,2022-04-28 09:13:11,2022-01-04,0,0,0,,,,,,,,,,,,
31149,0,USNebraskaRock,Nebraska,Rock,2022-04-28 09:13:11,2022-01-05,0,0,0,,,,,,,,,,,,
31149,0,USNebraskaRock,Nebraska,Rock,2022-04-28 09:13:11,2022-01-06,0.7992112179584346,1.9036384693156632,4.879358294201084,,,,,,,,,,,,
31149,0,USNebraskaRock,Nebraska,Rock,2022-04-28 09:13:11,2022-01-07,0.7992112179584346,1.9036384693156632,4.879358294201084,,,,,,,,,,,,
31149,0,USNebraskaRock,Nebraska,Rock,2022-04-28 09:13:11,2022-01-08,0.7992112179584346,1.9036384693156632,4.879358294201084,,,,,,,,,,,,
31149,0,USNebraskaRock,Nebraska,Rock,2022-04-28 09:13:11,2022-01-09,0.7992112179584346,1.9036384693156632,4.879358294201084,,,,,,,,,,,,
31149,0,USNebraskaRock,Nebraska,Rock,2022-04-28 09:13:11,2022-01-10,0.7992112179584346,1.9036384693156632,4.879358294201084,,,,,,,,,,,,
31149,0,USNebraskaRock,Nebraska,Rock,2022-04-28 09:13:11,2022-01-11,0.7992112179584346,1.9036384693156632,4.879358294201084,,,,,,,,,,,,
31149,0,USNebraskaRock,Nebraska,Rock,2022-04-28 09:13:11,2022-01-12,0.7992112179584346,1.9036384693156632,4.879358294201084,,,,,,,,,,,,
31149,0,USNebraskaRock,Nebraska,Rock,2022-04-28 09:13:11,2022-01-13,0,0,0,,,,,,,,,,,,
31149,0,USNebraskaRock,Nebraska,Rock,2022-04-28 09:13:11,2022-01-14,0,0,0,,,,,,,,,,,,
31149,0,USNebraskaRock,Nebraska,Rock,2022-04-28 09:13:11,2022-01-15,0,0,0,,,,,,,,,,,,
31149,0,USNebraskaRock,Nebraska,Rock,2022-04-28 09:13:11,2022-01-16,0,0,0,,,,,,,,,,,,
31149,0,USNebraskaRock,Nebraska,Rock,2022-04-28 09:13:11,2022-01-17,0,0,0,,,,,,,,,,,,
31149,0,USNebraskaRock,Nebraska,Rock,2022-04-28 09:13:11,2022-01-18,0,0,0,,,,,,,,,,,,
31149,0,USNebraskaRock,Nebraska,Rock,2022-04-28 09:13:11,2022-01-19,0,0,0,,,,,,,,,,,,
31149,0,USNebraskaRock,Nebraska,Rock,2022-04-28 09:13:11,2022-01-20,0.8006211382530419,1.909974411096655,4.903275319079359,,,,,,,,,,,,
31149,0,USNebraskaRock,Nebraska,Rock,2022-04-28 09:13:11,2022-01-21,0.8006211382530419,1.909974411096655,4.903275319079359,,,,,,,,,,,,
31149,0,USNebraskaRock,Nebraska,Rock,2022-04-28 09:13:11,2022-01-22,0.8006211382530419,1.909974411096655,4.903275319079359,,,,,,,,,,,,
31149,0,USNebraskaRock,Nebraska,Rock,2022-04-28 09:13:11,2022-01-23,0.8006211382530419,1.909974411096655,4.903275319079359,,,,,,,,,,,,
31149,0,USNebraskaRock,Nebraska,Rock,2022-04-28 09:13:11,2022-01-24,0.8006211382530419,1.909974411096655,4.903275319079359,,,,,,,,,,,,
31149,0,USNebraskaRock,Nebraska,Rock,2022-04-28 09:13:11,2022-01-25,0.8006211382530419,1.909974411096655,4.903275319079359,,,,,,,,,,,,
31149,0,USNebraskaRock,Nebraska,Rock,2022-04-28 09:13:11,2022-01-26,0.8006211382530419,1.909974411096655,4.903275319079359,,,,,,,,,,,,
31149,0,USNebraskaRock,Nebraska,Rock,2022-04-28 09:13:11,2022-01-27,1.3086719212809228,2.605101330475343,5.559211475240037,,,,,,,,,,,,
31149,0,USNebraskaRock,Nebraska,Rock,2022-04-28 09:13:11,2022-01-28,1.3086719212809228,2.605101330475343,5.559211475240037,,,,,,,,,,,,
31149,0,USNebraskaRock,Nebraska,Rock,2022-04-28 09:13:11,2022-01-29,1.3086719212809228,2.605101330475343,5.559211475240037,,,,,,,,,,,,
31149,0,USNebraskaRock,Nebraska,Rock,2022-04-28 09:13:11,2022-01-30,1.3086719212809228,2.605101330475343,5.559211475240037,,,,,,,,,,,,
31149,0,USNebraskaRock,Nebraska,Rock,2022-04-28 09:13:11,2022-01-31,1.3086719212809228,2.605101330475343,5.559211475240037,,,,,,,,,,,,
31149,0,USNebraskaRock,Nebraska,Rock,2022-04-28 09:13:11,2022-02-01,1.3086719212809228,2.605101330475343,5.559211475240037,,,,,,,,,,,,
31149,0,USNebraskaRock,Nebraska,Rock,2022-04-28 09:13:11,2022-02-02,1.3086719212809228,2.605101330475343,5.559211475240037,,,,,,,,,,,,
31149,0,USNebraskaRock,Nebraska,Rock,2022-04-28 09:13:11,2022-02-03,0,0,0,,,,,,,,,,,,
31149,0,USNebraskaRock,Nebraska,Rock,2022-04-28 09:13:11,2022-02-04,0,0,0,,,,,,,,,,,,
31149,0,USNebraskaRock,Nebraska,Rock,2022-04-28 09:13:11,2022-02-05,0,0,0,,,,,,,,,,,,
31149,0,USNebraskaRock,Nebraska,Rock,2022-04-28 09:13:11,2022-02-06,0,0,0,,,,,,,,,,,,
31149,0,USNebraskaRock,Nebraska,Rock,2022-04-28 09:13:11,2022-02-07,0,0,0,,,,,,,,,,,,
31149,0,USNebraskaRock,Nebraska,Rock,2022-04-28 09:13:11,2022-02-08,0,0,0,,,,,,,,,,,,
31149,0,USNebraskaRock,Nebraska,Rock,2022-04-28 09:13:11,2022-02-09,0,0,0,,,,,,,,,,,,
31149,0,USNebraskaRock,Nebraska,Rock,2022-04-28 09:13:11,2022-02-10,0,0,0,,,,,,,,,,,,
31149,0,USNebraskaRock,Nebraska,Rock,2022-04-28 09:13:11,2022-02-11,0,0,0,,,,,,,,,,,,
31149,0,USNebraskaRock,Nebraska,Rock,2022-04-28 09:13:11,2022-02-12,0,0,0,,,,,,,,,,,,
31149,0,USNebraskaRock,Nebraska,Rock,2022-04-28 09:13:11,2022-02-13,0,0,0,,,,,,,,,,,,
31149,0,USNebraskaRock,Nebraska,Rock,2022-04-28 09:13:11,2022-02-14,0,0,0,,,,,,,,,,,,
31149,0,USNebraskaRock,Nebraska,Rock,2022-04-28 09:13:11,2022-02-15,0,0,0,,,,,,,,,,,,
31149,0,USNebraskaRock,Nebraska,Rock,2022-04-28 09:13:11,2022-02-16,0,0,0,,,,,,,,,,,,
31149,0,USNebraskaRock,Nebraska,Rock,2022-04-28 09:13:11,2022-02-17,0.31080408691562567,0.5904764751071353,1.2000208451038257,,,,,,,,,,,,
31149,0,USNebraskaRock,Nebraska,Rock,2022-04-28 09:13:11,2022-02-18,0.31080408691562567,0.5904764751071353,1.2000208451038257,,,,,,,,,,,,
31149,0,USNebraskaRock,Nebraska,Rock,2022-04-28 09:13:11,2022-02-19,0.31080408691562567,0.5904764751071353,1.2000208451038257,,,,,,,,,,,,
31149,0,USNebraskaRock,Nebraska,Rock,2022-04-28 09:13:11,2022-02-20,0.31080408691562567,0.5904764751071353,1.2000208451038257,,,,,,,,,,,,
31149,0,USNebraskaRock,Nebraska,Rock,2022-04-28 09:13:11,2022-02-21,0.31080408691562567,0.5904764751071353,1.2000208451038257,,,,,,,,,,,,
31149,0,USNebraskaRock,Nebraska,Rock,2022-04-28 09:13:11,2022-02-22,0.31080408691562567,0.5904764751071353,1.2000208451038257,,,,,,,,,,,,
31149,0,USNebraskaRock,Nebraska,Rock,2022-04-28 09:13:11,2022-02-23,0.31080408691562567,0.5904764751071353,1.2000208451038257,,,,,,,,,,,,
31149,0,USNebraskaRock,Nebraska,Rock,2022-04-28 09:13:11,2022-02-24,0.7736033149136554,1.7901563721702634,4.456898087927881,,,,,,,,,,,,
31149,0,USNebraskaRock,Nebraska,Rock,2022-04-28 09:13:11,2022-02-25,0.7736033149136554,1.7901563721702634,4.456898087927881,,,,,,,,,,,,
31149,0,USNebraskaRock,Nebraska,Rock,2022-04-28 09:13:11,2022-02-26,0.7736033149136554,1.7901563721702634,4.456898087927881,,,,,,,,,,,,
31149,0,USNebraskaRock,Nebraska,Rock,2022-04-28 09:13:11,2022-02-27,0.7736033149136554,1.7901563721702634,4.456898087927881,,,,,,,,,,,,
31149,0,USNebraskaRock,Nebraska,Rock,2022-04-28 09:13:11,2022-02-28,0.7736033149136554,1.7901563721702634,4.456898087927881,,,,,,,,,,,,
31149,0,USNebraskaRock,Nebraska,Rock,2022-04-28 09:13:11,2022-03-01,0.7736033149136554,1.7901563721702634,4.456898087927881,,,,,,,,,,,,
31149,0,USNebraskaRock,Nebraska,Rock,2022-04-28 09:13:11,2022-03-02,0.7736033149136554,1.7901563721702634,4.456898087927881,,,,,,,,,,,,
31149,0,USNebraskaRock,Nebraska,Rock,2022-04-28 09:13:11,2022-03-03,0.2941685379699574,0.5314724855186304,1.02419206939293,,,,,,,,,,,,
31149,0,USNebraskaRock,Nebraska,Rock,2022-04-28 09:13:11,2022-03-04,0.2941685379699574,0.5314724855186304,1.02419206939293,,,,,,,,,,,,
31149,0,USNebraskaRock,Nebraska,Rock,2022-04-28 09:13:11,2022-03-05,0.2941685379699574,0.5314724855186304,1.02419206939293,,,,,,,,,,,,
31149,0,USNebraskaRock,Nebraska,Rock,2022-04-28 09:13:11,2022-03-06,0.2941685379699574,0.5314724855186304,1.02419206939293,,,,,,,,,,,,
31149,0,USNebraskaRock,Nebraska,Rock,2022-04-28 09:13:11,2022-03-07,0.2941685379699574,0.5314724855186304,1.02419206939293,,,,,,,,,,,,
31149,0,USNebraskaRock,Nebraska,Rock,2022-04-28 09:13:11,2022-03-08,0.2941685379699574,0.5314724855186304,1.02419206939293,,,,,,,,,,,,
31149,0,USNebraskaRock,Nebraska,Rock,2022-04-28 09:13:11,2022-03-09,0.2941685379699574,0.5314724855186304,1.02419206939293,,,,,,,,,,,,
31149,0,USNebraskaRock,Nebraska,Rock,2022-04-28 09:13:11,2022-03-10,0,0,0,,,,,,,,,,,,
31149,0,USNebraskaRock,Nebraska,Rock,2022-04-28 09:13:11,2022-03-11,0,0,0,,,,,,,,,,,,
31149,0,USNebraskaRock,Nebraska,Rock,2022-04-28 09:13:11,2022-03-12,0,0,0,,,,,,,,,,,,
31149,0,USNebraskaRock,Nebraska,Rock,2022-04-28 09:13:11,2022-03-13,0,0,0,,,,,,,,,,,,
31149,0,USNebraskaRock,Nebraska,Rock,2022-04-28 09:13:11,2022-03-14,0,0,0,,,,,,,,,,,,
31149,0,USNebraskaRock,Nebraska,Rock,2022-04-28 09:13:11,2022-03-15,0,0,0,,,,,,,,,,,,
31149,0,USNebraskaRock,Nebraska,Rock,2022-04-28 09:13:11,2022-03-16,0,0,0,,,,,,,,,,,,
31149,0,USNebraskaRock,Nebraska,Rock,2022-04-28 09:13:11,2022-03-17,0,0,0,,,,,,,,,,,,
31149,0,USNebraskaRock,Nebraska,Rock,2022-04-28 09:13:11,2022-03-18,0,0,0,,,,,,,,,,,,
31149,0,USNebraskaRock,Nebraska,Rock,2022-04-28 09:13:11,2022-03-19,0,0,0,,,,,,,,,,,,
31149,0,USNebraskaRock,Nebraska,Rock,2022-04-28 09:13:11,2022-03-20,0,0,0,,,,,,,,,,,,
31149,0,USNebraskaRock,Nebraska,Rock,2022-04-28 09:13:11,2022-03-21,0,0,0,,,,,,,,,,,,
31149,0,USNebraskaRock,Nebraska,Rock,2022-04-28 09:13:11,2022-03-22,0,0,0,,,,,,,,,,,,
31149,0,USNebraskaRock,Nebraska,Rock,2022-04-28 09:13:11,2022-03-23,0,0,0,,,,,,,,,,,,
31149,0,USNebraskaRock,Nebraska,Rock,2022-04-28 09:13:11,2022-03-24,0,0,0,,,,,,,,,,,,
31149,0,USNebraskaRock,Nebraska,Rock,2022-04-28 09:13:11,2022-03-25,0,0,0,,,,,,,,,,,,
31149,0,USNebraskaRock,Nebraska,Rock,2022-04-28 09:13:11,2022-03-26,0,0,0,,,,,,,,,,,,
31149,0,USNebraskaRock,Nebraska,Rock,2022-04-28 09:13:11,2022-03-27,0,0,0,,,,,,,,,,,,
31149,0,USNebraskaRock,Nebraska,Rock,2022-04-28 09:13:11,2022-03-28,0,0,0,,,,,,,,,,,,
31149,0,USNebraskaRock,Nebraska,Rock,2022-04-28 09:13:11,2022-03-29,0,0,0,,,,,,,,,,,,
31149,0,USNebraskaRock,Nebraska,Rock,2022-04-28 09:13:11,2022-03-30,0,0,0,,,,,,,,,,,,
31149,0,USNebraskaRock,Nebraska,Rock,2022-04-28 09:13:11,2022-03-31,0,0,0,,,,,,,,,,,,
31149,0,USNebraskaRock,Nebraska,Rock,2022-04-28 09:13:11,2022-04-01,0,0,0,,,,,,,,,,,,
31149,0,USNebraskaRock,Nebraska,Rock,2022-04-28 09:13:11,2022-04-02,0,0,0,,,,,,,,,,,,
31149,0,USNebraskaRock,Nebraska,Rock,2022-04-28 09:13:11,2022-04-03,0,0,0,,,,,,,,,,,,
31149,0,USNebraskaRock,Nebraska,Rock,2022-04-28 09:13:11,2022-04-04,0,0,0,,,,,,,,,,,,
31149,0,USNebraskaRock,Nebraska,Rock,2022-04-28 09:13:11,2022-04-05,0,0,0,,,,,,,,,,,,
31149,0,USNebraskaRock,Nebraska,Rock,2022-04-28 09:13:11,2022-04-06,0,0,0,,,,,,,,,,,,
31149,0,USNebraskaRock,Nebraska,Rock,2022-04-28 09:13:11,2022-04-07,0,0,0,,,,,,,,,,,,
31149,0,USNebraskaRock,Nebraska,Rock,2022-04-28 09:13:11,2022-04-08,0,0,0,,,,,,,,,,,,
31149,0,USNebraskaRock,Nebraska,Rock,2022-04-28 09:13:11,2022-04-09,0,0,0,,,,,,,,,,,,
31149,0,USNebraskaRock,Nebraska,Rock,2022-04-28 09:13:11,2022-04-10,0,0,0,,,,,,,,,,,,
31149,0,USNebraskaRock,Nebraska,Rock,2022-04-28 09:13:11,2022-04-11,0,0,0,,,,,,,,,,,,
31149,0,USNebraskaRock,Nebraska,Rock,2022-04-28 09:13:11,2022-04-12,0,0,0,,,,,,,,,,,,
31149,0,USNebraskaRock,Nebraska,Rock,2022-04-28 09:13:11,2022-04-13,0,0,0,,,,,,,,,,,,
31149,0,USNebraskaRock,Nebraska,Rock,2022-04-28 09:13:11,2022-04-14,0,0,0,,,,,,,,,,,,
31149,0,USNebraskaRock,Nebraska,Rock,2022-04-28 09:13:11,2022-04-15,0,0,0,,,,,,,,,,,,
31149,0,USNebraskaRock,Nebraska,Rock,2022-04-28 09:13:11,2022-04-16,0,0,0,,,,,,,,,,,,
31149,0,USNebraskaRock,Nebraska,Rock,2022-04-28 09:13:11,2022-04-17,0,0,0,,,,,,,,,,,,
31149,0,USNebraskaRock,Nebraska,Rock,2022-04-28 09:13:11,2022-04-18,0,0,0,,,,,,,,,,,,
31149,0,USNebraskaRock,Nebraska,Rock,2022-04-28 09:13:11,2022-04-19,0,0,0,,,,,,,,,,,,
31149,0,USNebraskaRock,Nebraska,Rock,2022-04-28 09:13:11,2022-04-20,0,0,0,,,,,,,,,,,,
31149,0,USNebraskaRock,Nebraska,Rock,2022-04-28 09:13:11,2022-04-21,1.4332968891945317,3.0975332535328572,7.194454802373993,,,,,,,,,,,,
31149,0,USNebraskaRock,Nebraska,Rock,2022-04-28 09:13:11,2022-04-22,1.4332968891945317,3.0975332535328572,7.194454802373993,,,,,,,,,,,,
31149,0,USNebraskaRock,Nebraska,Rock,2022-04-28 09:13:11,2022-04-23,1.4332968891945317,3.0975332535328572,7.194454802373993,,,,,,,,,,,,
31149,0,USNebraskaRock,Nebraska,Rock,2022-04-28 09:13:11,2022-04-24,1.4332968891945317,3.0975332535328572,7.194454802373993,,,,,,,,,,,,
31149,0,USNebraskaRock,Nebraska,Rock,2022-04-28 09:13:11,2022-04-25,1.4332968891945317,3.0975332535328572,7.194454802373993,,,,,,,,,,,,
31149,0,USNebraskaRock,Nebraska,Rock,2022-04-28 09:13:11,2022-04-26,1.4332968891945317,3.0975332535328572,7.194454802373993,,,,,,,,,,,,
31149,0,USNebraskaRock,Nebraska,Rock,2022-04-28 09:13:11,2022-04-27,1.4332968891945317,3.0975332535328572,7.194454802373993,,,,,,,,,,,,
