FIPS,HR_UID,nameid,province,region,analysisTime,dates,pointprevalence_025,pointprevalence_50,pointprevalence_975,pointinfections_025,pointinfections_50,pointinfections_975,pointinfectious_025,pointinfectious_50,pointinfectious_975,pointinfectiousprevalence_025,pointinfectiousprevalence_50,pointinfectiousprevalence_975,infectrate_025,infectrate_50,infectrate_975
48495,0,USTexasWinkler,Texas,Winkler,2022-04-28 09:13:11,2020-03-19,0,0,0,,,,,,,,,,,,
48495,0,USTexasWinkler,Texas,Winkler,2022-04-28 09:13:11,2020-03-20,0,0,0,,,,,,,,,,,,
48495,0,USTexasWinkler,Texas,Winkler,2022-04-28 09:13:11,2020-03-21,0,0,0,,,,,,,,,,,,
48495,0,USTexasWinkler,Texas,Winkler,2022-04-28 09:13:11,2020-03-22,0,0,0,,,,,,,,,,,,
48495,0,USTexasWinkler,Texas,Winkler,2022-04-28 09:13:11,2020-03-23,0,0,0,,,,,,,,,,,,
48495,0,USTexasWinkler,Texas,Winkler,2022-04-28 09:13:11,2020-03-24,0,0,0,,,,,,,,,,,,
48495,0,USTexasWinkler,Texas,Winkler,2022-04-28 09:13:11,2020-03-25,0,0,0,,,,,,,,,,,,
48495,0,USTexasWinkler,Texas,Winkler,2022-04-28 09:13:11,2020-03-26,0,0,0,,,,,,,,,,,,
48495,0,USTexasWinkler,Texas,Winkler,2022-04-28 09:13:11,2020-03-27,0,0,0,,,,,,,,,,,,
48495,0,USTexasWinkler,Texas,Winkler,2022-04-28 09:13:11,2020-03-28,0,0,0,,,,,,,,,,,,
48495,0,USTexasWinkler,Texas,Winkler,2022-04-28 09:13:11,2020-03-29,0,0,0,,,,,,,,,,,,
48495,0,USTexasWinkler,Texas,Winkler,2022-04-28 09:13:11,2020-03-30,0,0,0,,,,,,,,,,,,
48495,0,USTexasWinkler,Texas,Winkler,2022-04-28 09:13:11,2020-03-31,0,0,0,,,,,,,,,,,,
48495,0,USTexasWinkler,Texas,Winkler,2022-04-28 09:13:11,2020-04-01,0,0,0,,,,,,,,,,,,
48495,0,USTexasWinkler,Texas,Winkler,2022-04-28 09:13:11,2020-04-02,0,0,0,,,,,,,,,,,,
48495,0,USTexasWinkler,Texas,Winkler,2022-04-28 09:13:11,2020-04-03,0,0,0,,,,,,,,,,,,
48495,0,USTexasWinkler,Texas,Winkler,2022-04-28 09:13:11,2020-04-04,0,0,0,,,,,,,,,,,,
48495,0,USTexasWinkler,Texas,Winkler,2022-04-28 09:13:11,2020-04-05,0,0,0,,,,,,,,,,,,
48495,0,USTexasWinkler,Texas,Winkler,2022-04-28 09:13:11,2020-04-06,0,0,0,,,,,,,,,,,,
48495,0,USTexasWinkler,Texas,Winkler,2022-04-28 09:13:11,2020-04-07,0,0,0,,,,,,,,,,,,
48495,0,USTexasWinkler,Texas,Winkler,2022-04-28 09:13:11,2020-04-08,0,0,0,,,,,,,,,,,,
48495,0,USTexasWinkler,Texas,Winkler,2022-04-28 09:13:11,2020-04-09,0.2767105322867345,0.6718087807524403,1.7552722994531373,,,,,,,,,,,,
48495,0,USTexasWinkler,Texas,Winkler,2022-04-28 09:13:11,2020-04-10,0.2767105322867345,0.6718087807524403,1.7552722994531373,,,,,,,,,,,,
48495,0,USTexasWinkler,Texas,Winkler,2022-04-28 09:13:11,2020-04-11,0.2767105322867345,0.6718087807524403,1.7552722994531373,,,,,,,,,,,,
48495,0,USTexasWinkler,Texas,Winkler,2022-04-28 09:13:11,2020-04-12,0.2767105322867345,0.6718087807524403,1.7552722994531373,,,,,,,,,,,,
48495,0,USTexasWinkler,Texas,Winkler,2022-04-28 09:13:11,2020-04-13,0.2767105322867345,0.6718087807524403,1.7552722994531373,,,,,,,,,,,,
48495,0,USTexasWinkler,Texas,Winkler,2022-04-28 09:13:11,2020-04-14,0.2767105322867345,0.6718087807524403,1.7552722994531373,,,,,,,,,,,,
48495,0,USTexasWinkler,Texas,Winkler,2022-04-28 09:13:11,2020-04-15,0.2767105322867345,0.6718087807524403,1.7552722994531373,,,,,,,,,,,,
48495,0,USTexasWinkler,Texas,Winkler,2022-04-28 09:13:11,2020-04-16,0.09112677893316423,0.2807198187753513,0.9273885312185979,,,,,,,,,,,,
48495,0,USTexasWinkler,Texas,Winkler,2022-04-28 09:13:11,2020-04-17,0.09112677893316423,0.2807198187753513,0.9273885312185979,,,,,,,,,,,,
48495,0,USTexasWinkler,Texas,Winkler,2022-04-28 09:13:11,2020-04-18,0.09112677893316423,0.2807198187753513,0.9273885312185979,,,,,,,,,,,,
48495,0,USTexasWinkler,Texas,Winkler,2022-04-28 09:13:11,2020-04-19,0.09112677893316423,0.2807198187753513,0.9273885312185979,,,,,,,,,,,,
48495,0,USTexasWinkler,Texas,Winkler,2022-04-28 09:13:11,2020-04-20,0.09112677893316423,0.2807198187753513,0.9273885312185979,,,,,,,,,,,,
48495,0,USTexasWinkler,Texas,Winkler,2022-04-28 09:13:11,2020-04-21,0.09112677893316423,0.2807198187753513,0.9273885312185979,,,,,,,,,,,,
48495,0,USTexasWinkler,Texas,Winkler,2022-04-28 09:13:11,2020-04-22,0.09112677893316423,0.2807198187753513,0.9273885312185979,,,,,,,,,,,,
48495,0,USTexasWinkler,Texas,Winkler,2022-04-28 09:13:11,2020-04-23,0,0,0,,,,,,,,,,,,
48495,0,USTexasWinkler,Texas,Winkler,2022-04-28 09:13:11,2020-04-24,0,0,0,,,,,,,,,,,,
48495,0,USTexasWinkler,Texas,Winkler,2022-04-28 09:13:11,2020-04-25,0,0,0,,,,,,,,,,,,
48495,0,USTexasWinkler,Texas,Winkler,2022-04-28 09:13:11,2020-04-26,0,0,0,,,,,,,,,,,,
48495,0,USTexasWinkler,Texas,Winkler,2022-04-28 09:13:11,2020-04-27,0,0,0,,,,,,,,,,,,
48495,0,USTexasWinkler,Texas,Winkler,2022-04-28 09:13:11,2020-04-28,0,0,0,,,,,,,,,,,,
48495,0,USTexasWinkler,Texas,Winkler,2022-04-28 09:13:11,2020-04-29,0,0,0,,,,,,,,,,,,
48495,0,USTexasWinkler,Texas,Winkler,2022-04-28 09:13:11,2020-04-30,0,0,0,,,,,,,,,,,,
48495,0,USTexasWinkler,Texas,Winkler,2022-04-28 09:13:11,2020-05-01,0,0,0,,,,,,,,,,,,
48495,0,USTexasWinkler,Texas,Winkler,2022-04-28 09:13:11,2020-05-02,0,0,0,,,,,,,,,,,,
48495,0,USTexasWinkler,Texas,Winkler,2022-04-28 09:13:11,2020-05-03,0,0,0,,,,,,,,,,,,
48495,0,USTexasWinkler,Texas,Winkler,2022-04-28 09:13:11,2020-05-04,0,0,0,,,,,,,,,,,,
48495,0,USTexasWinkler,Texas,Winkler,2022-04-28 09:13:11,2020-05-05,0,0,0,,,,,,,,,,,,
48495,0,USTexasWinkler,Texas,Winkler,2022-04-28 09:13:11,2020-05-06,0,0,0,,,,,,,,,,,,
48495,0,USTexasWinkler,Texas,Winkler,2022-04-28 09:13:11,2020-05-07,0,0,0,,,,,,,,,,,,
48495,0,USTexasWinkler,Texas,Winkler,2022-04-28 09:13:11,2020-05-08,0,0,0,,,,,,,,,,,,
48495,0,USTexasWinkler,Texas,Winkler,2022-04-28 09:13:11,2020-05-09,0,0,0,,,,,,,,,,,,
48495,0,USTexasWinkler,Texas,Winkler,2022-04-28 09:13:11,2020-05-10,0,0,0,,,,,,,,,,,,
48495,0,USTexasWinkler,Texas,Winkler,2022-04-28 09:13:11,2020-05-11,0,0,0,,,,,,,,,,,,
48495,0,USTexasWinkler,Texas,Winkler,2022-04-28 09:13:11,2020-05-12,0,0,0,,,,,,,,,,,,
48495,0,USTexasWinkler,Texas,Winkler,2022-04-28 09:13:11,2020-05-13,0,0,0,,,,,,,,,,,,
48495,0,USTexasWinkler,Texas,Winkler,2022-04-28 09:13:11,2020-05-14,0,0,0,,,,,,,,,,,,
48495,0,USTexasWinkler,Texas,Winkler,2022-04-28 09:13:11,2020-05-15,0,0,0,,,,,,,,,,,,
48495,0,USTexasWinkler,Texas,Winkler,2022-04-28 09:13:11,2020-05-16,0,0,0,,,,,,,,,,,,
48495,0,USTexasWinkler,Texas,Winkler,2022-04-28 09:13:11,2020-05-17,0,0,0,,,,,,,,,,,,
48495,0,USTexasWinkler,Texas,Winkler,2022-04-28 09:13:11,2020-05-18,0,0,0,,,,,,,,,,,,
48495,0,USTexasWinkler,Texas,Winkler,2022-04-28 09:13:11,2020-05-19,0,0,0,,,,,,,,,,,,
48495,0,USTexasWinkler,Texas,Winkler,2022-04-28 09:13:11,2020-05-20,0,0,0,,,,,,,,,,,,
48495,0,USTexasWinkler,Texas,Winkler,2022-04-28 09:13:11,2020-05-21,0,0,0,,,,,,,,,,,,
48495,0,USTexasWinkler,Texas,Winkler,2022-04-28 09:13:11,2020-05-22,0,0,0,,,,,,,,,,,,
48495,0,USTexasWinkler,Texas,Winkler,2022-04-28 09:13:11,2020-05-23,0,0,0,,,,,,,,,,,,
48495,0,USTexasWinkler,Texas,Winkler,2022-04-28 09:13:11,2020-05-24,0,0,0,,,,,,,,,,,,
48495,0,USTexasWinkler,Texas,Winkler,2022-04-28 09:13:11,2020-05-25,0,0,0,,,,,,,,,,,,
48495,0,USTexasWinkler,Texas,Winkler,2022-04-28 09:13:11,2020-05-26,0,0,0,,,,,,,,,,,,
48495,0,USTexasWinkler,Texas,Winkler,2022-04-28 09:13:11,2020-05-27,0,0,0,,,,,,,,,,,,
48495,0,USTexasWinkler,Texas,Winkler,2022-04-28 09:13:11,2020-05-28,0,0,0,,,,,,,,,,,,
48495,0,USTexasWinkler,Texas,Winkler,2022-04-28 09:13:11,2020-05-29,0,0,0,,,,,,,,,,,,
48495,0,USTexasWinkler,Texas,Winkler,2022-04-28 09:13:11,2020-05-30,0,0,0,,,,,,,,,,,,
48495,0,USTexasWinkler,Texas,Winkler,2022-04-28 09:13:11,2020-05-31,0,0,0,,,,,,,,,,,,
48495,0,USTexasWinkler,Texas,Winkler,2022-04-28 09:13:11,2020-06-01,0,0,0,,,,,,,,,,,,
48495,0,USTexasWinkler,Texas,Winkler,2022-04-28 09:13:11,2020-06-02,0,0,0,,,,,,,,,,,,
48495,0,USTexasWinkler,Texas,Winkler,2022-04-28 09:13:11,2020-06-03,0,0,0,,,,,,,,,,,,
48495,0,USTexasWinkler,Texas,Winkler,2022-04-28 09:13:11,2020-06-04,0,0,0,,,,,,,,,,,,
48495,0,USTexasWinkler,Texas,Winkler,2022-04-28 09:13:11,2020-06-05,0,0,0,,,,,,,,,,,,
48495,0,USTexasWinkler,Texas,Winkler,2022-04-28 09:13:11,2020-06-06,0,0,0,,,,,,,,,,,,
48495,0,USTexasWinkler,Texas,Winkler,2022-04-28 09:13:11,2020-06-07,0,0,0,,,,,,,,,,,,
48495,0,USTexasWinkler,Texas,Winkler,2022-04-28 09:13:11,2020-06-08,0,0,0,,,,,,,,,,,,
48495,0,USTexasWinkler,Texas,Winkler,2022-04-28 09:13:11,2020-06-09,0,0,0,,,,,,,,,,,,
48495,0,USTexasWinkler,Texas,Winkler,2022-04-28 09:13:11,2020-06-10,0,0,0,,,,,,,,,,,,
48495,0,USTexasWinkler,Texas,Winkler,2022-04-28 09:13:11,2020-06-11,0.09691418252147277,0.31442012442536665,1.0922595206228525,,,,,,,,,,,,
48495,0,USTexasWinkler,Texas,Winkler,2022-04-28 09:13:11,2020-06-12,0.09691418252147277,0.31442012442536665,1.0922595206228525,,,,,,,,,,,,
48495,0,USTexasWinkler,Texas,Winkler,2022-04-28 09:13:11,2020-06-13,0.09691418252147277,0.31442012442536665,1.0922595206228525,,,,,,,,,,,,
48495,0,USTexasWinkler,Texas,Winkler,2022-04-28 09:13:11,2020-06-14,0.09691418252147277,0.31442012442536665,1.0922595206228525,,,,,,,,,,,,
48495,0,USTexasWinkler,Texas,Winkler,2022-04-28 09:13:11,2020-06-15,0.09691418252147277,0.31442012442536665,1.0922595206228525,,,,,,,,,,,,
48495,0,USTexasWinkler,Texas,Winkler,2022-04-28 09:13:11,2020-06-16,0.09691418252147277,0.31442012442536665,1.0922595206228525,,,,,,,,,,,,
48495,0,USTexasWinkler,Texas,Winkler,2022-04-28 09:13:11,2020-06-17,0.09691418252147277,0.31442012442536665,1.0922595206228525,,,,,,,,,,,,
48495,0,USTexasWinkler,Texas,Winkler,2022-04-28 09:13:11,2020-06-18,0.23519639893457883,0.6370281527282288,1.855417673213607,,,,,,,,,,,,
48495,0,USTexasWinkler,Texas,Winkler,2022-04-28 09:13:11,2020-06-19,0.23519639893457883,0.6370281527282288,1.855417673213607,,,,,,,,,,,,
48495,0,USTexasWinkler,Texas,Winkler,2022-04-28 09:13:11,2020-06-20,0.23519639893457883,0.6370281527282288,1.855417673213607,,,,,,,,,,,,
48495,0,USTexasWinkler,Texas,Winkler,2022-04-28 09:13:11,2020-06-21,0.23519639893457883,0.6370281527282288,1.855417673213607,,,,,,,,,,,,
48495,0,USTexasWinkler,Texas,Winkler,2022-04-28 09:13:11,2020-06-22,0.23519639893457883,0.6370281527282288,1.855417673213607,,,,,,,,,,,,
48495,0,USTexasWinkler,Texas,Winkler,2022-04-28 09:13:11,2020-06-23,0.23519639893457883,0.6370281527282288,1.855417673213607,,,,,,,,,,,,
48495,0,USTexasWinkler,Texas,Winkler,2022-04-28 09:13:11,2020-06-24,0.23519639893457883,0.6370281527282288,1.855417673213607,,,,,,,,,,,,
48495,0,USTexasWinkler,Texas,Winkler,2022-04-28 09:13:11,2020-06-25,0.8716352205492545,1.616247931644009,3.201697247820052,,,,,,,,,,,,
48495,0,USTexasWinkler,Texas,Winkler,2022-04-28 09:13:11,2020-06-26,0.8716352205492545,1.616247931644009,3.201697247820052,,,,,,,,,,,,
48495,0,USTexasWinkler,Texas,Winkler,2022-04-28 09:13:11,2020-06-27,0.8716352205492545,1.616247931644009,3.201697247820052,,,,,,,,,,,,
48495,0,USTexasWinkler,Texas,Winkler,2022-04-28 09:13:11,2020-06-28,0.8716352205492545,1.616247931644009,3.201697247820052,,,,,,,,,,,,
48495,0,USTexasWinkler,Texas,Winkler,2022-04-28 09:13:11,2020-06-29,0.8716352205492545,1.616247931644009,3.201697247820052,,,,,,,,,,,,
48495,0,USTexasWinkler,Texas,Winkler,2022-04-28 09:13:11,2020-06-30,0.8716352205492545,1.616247931644009,3.201697247820052,,,,,,,,,,,,
48495,0,USTexasWinkler,Texas,Winkler,2022-04-28 09:13:11,2020-07-01,0.8716352205492545,1.616247931644009,3.201697247820052,,,,,,,,,,,,
48495,0,USTexasWinkler,Texas,Winkler,2022-04-28 09:13:11,2020-07-02,0.8619177195407038,1.6719092153606772,3.4727169548345675,,,,,,,,,,,,
48495,0,USTexasWinkler,Texas,Winkler,2022-04-28 09:13:11,2020-07-03,0.8619177195407038,1.6719092153606772,3.4727169548345675,,,,,,,,,,,,
48495,0,USTexasWinkler,Texas,Winkler,2022-04-28 09:13:11,2020-07-04,0.8619177195407038,1.6719092153606772,3.4727169548345675,,,,,,,,,,,,
48495,0,USTexasWinkler,Texas,Winkler,2022-04-28 09:13:11,2020-07-05,0.8619177195407038,1.6719092153606772,3.4727169548345675,,,,,,,,,,,,
48495,0,USTexasWinkler,Texas,Winkler,2022-04-28 09:13:11,2020-07-06,0.8619177195407038,1.6719092153606772,3.4727169548345675,,,,,,,,,,,,
48495,0,USTexasWinkler,Texas,Winkler,2022-04-28 09:13:11,2020-07-07,0.8619177195407038,1.6719092153606772,3.4727169548345675,,,,,,,,,,,,
48495,0,USTexasWinkler,Texas,Winkler,2022-04-28 09:13:11,2020-07-08,0.8619177195407038,1.6719092153606772,3.4727169548345675,,,,,,,,,,,,
48495,0,USTexasWinkler,Texas,Winkler,2022-04-28 09:13:11,2020-07-09,0.5683494494472315,1.2725217421649246,3.064127372865126,,,,,,,,,,,,
48495,0,USTexasWinkler,Texas,Winkler,2022-04-28 09:13:11,2020-07-10,0.5683494494472315,1.2725217421649246,3.064127372865126,,,,,,,,,,,,
48495,0,USTexasWinkler,Texas,Winkler,2022-04-28 09:13:11,2020-07-11,0.5683494494472315,1.2725217421649246,3.064127372865126,,,,,,,,,,,,
48495,0,USTexasWinkler,Texas,Winkler,2022-04-28 09:13:11,2020-07-12,0.5683494494472315,1.2725217421649246,3.064127372865126,,,,,,,,,,,,
48495,0,USTexasWinkler,Texas,Winkler,2022-04-28 09:13:11,2020-07-13,0.5683494494472315,1.2725217421649246,3.064127372865126,,,,,,,,,,,,
48495,0,USTexasWinkler,Texas,Winkler,2022-04-28 09:13:11,2020-07-14,0.5683494494472315,1.2725217421649246,3.064127372865126,,,,,,,,,,,,
48495,0,USTexasWinkler,Texas,Winkler,2022-04-28 09:13:11,2020-07-15,0.5683494494472315,1.2725217421649246,3.064127372865126,,,,,,,,,,,,
48495,0,USTexasWinkler,Texas,Winkler,2022-04-28 09:13:11,2020-07-16,0.8728637114278588,1.815848767393937,4.055834519372321,,,,,,,,,,,,
48495,0,USTexasWinkler,Texas,Winkler,2022-04-28 09:13:11,2020-07-17,0.8728637114278588,1.815848767393937,4.055834519372321,,,,,,,,,,,,
48495,0,USTexasWinkler,Texas,Winkler,2022-04-28 09:13:11,2020-07-18,0.8728637114278588,1.815848767393937,4.055834519372321,,,,,,,,,,,,
48495,0,USTexasWinkler,Texas,Winkler,2022-04-28 09:13:11,2020-07-19,0.8728637114278588,1.815848767393937,4.055834519372321,,,,,,,,,,,,
48495,0,USTexasWinkler,Texas,Winkler,2022-04-28 09:13:11,2020-07-20,0.8728637114278588,1.815848767393937,4.055834519372321,,,,,,,,,,,,
48495,0,USTexasWinkler,Texas,Winkler,2022-04-28 09:13:11,2020-07-21,0.8728637114278588,1.815848767393937,4.055834519372321,,,,,,,,,,,,
48495,0,USTexasWinkler,Texas,Winkler,2022-04-28 09:13:11,2020-07-22,0.8728637114278588,1.815848767393937,4.055834519372321,,,,,,,,,,,,
48495,0,USTexasWinkler,Texas,Winkler,2022-04-28 09:13:11,2020-07-23,0.5596794772207975,1.3723526213821806,3.621370768927968,,,,,,,,,,,,
48495,0,USTexasWinkler,Texas,Winkler,2022-04-28 09:13:11,2020-07-24,0.5596794772207975,1.3723526213821806,3.621370768927968,,,,,,,,,,,,
48495,0,USTexasWinkler,Texas,Winkler,2022-04-28 09:13:11,2020-07-25,0.5596794772207975,1.3723526213821806,3.621370768927968,,,,,,,,,,,,
48495,0,USTexasWinkler,Texas,Winkler,2022-04-28 09:13:11,2020-07-26,0.5596794772207975,1.3723526213821806,3.621370768927968,,,,,,,,,,,,
48495,0,USTexasWinkler,Texas,Winkler,2022-04-28 09:13:11,2020-07-27,0.5596794772207975,1.3723526213821806,3.621370768927968,,,,,,,,,,,,
48495,0,USTexasWinkler,Texas,Winkler,2022-04-28 09:13:11,2020-07-28,0.5596794772207975,1.3723526213821806,3.621370768927968,,,,,,,,,,,,
48495,0,USTexasWinkler,Texas,Winkler,2022-04-28 09:13:11,2020-07-29,0.5596794772207975,1.3723526213821806,3.621370768927968,,,,,,,,,,,,
48495,0,USTexasWinkler,Texas,Winkler,2022-04-28 09:13:11,2020-07-30,0.9449326781492813,2.1110569503288783,5.071962106370839,,,,,,,,,,,,
48495,0,USTexasWinkler,Texas,Winkler,2022-04-28 09:13:11,2020-07-31,0.9449326781492813,2.1110569503288783,5.071962106370839,,,,,,,,,,,,
48495,0,USTexasWinkler,Texas,Winkler,2022-04-28 09:13:11,2020-08-01,0.9449326781492813,2.1110569503288783,5.071962106370839,,,,,,,,,,,,
48495,0,USTexasWinkler,Texas,Winkler,2022-04-28 09:13:11,2020-08-02,0.9449326781492813,2.1110569503288783,5.071962106370839,,,,,,,,,,,,
48495,0,USTexasWinkler,Texas,Winkler,2022-04-28 09:13:11,2020-08-03,0.9449326781492813,2.1110569503288783,5.071962106370839,,,,,,,,,,,,
48495,0,USTexasWinkler,Texas,Winkler,2022-04-28 09:13:11,2020-08-04,0.9449326781492813,2.1110569503288783,5.071962106370839,,,,,,,,,,,,
48495,0,USTexasWinkler,Texas,Winkler,2022-04-28 09:13:11,2020-08-05,0.9449326781492813,2.1110569503288783,5.071962106370839,,,,,,,,,,,,
48495,0,USTexasWinkler,Texas,Winkler,2022-04-28 09:13:11,2020-08-06,1.0719522419902026,2.6780898387677583,7.20015131576268,,,,,,,,,,,,
48495,0,USTexasWinkler,Texas,Winkler,2022-04-28 09:13:11,2020-08-07,1.0719522419902026,2.6780898387677583,7.20015131576268,,,,,,,,,,,,
48495,0,USTexasWinkler,Texas,Winkler,2022-04-28 09:13:11,2020-08-08,1.0719522419902026,2.6780898387677583,7.20015131576268,,,,,,,,,,,,
48495,0,USTexasWinkler,Texas,Winkler,2022-04-28 09:13:11,2020-08-09,1.0719522419902026,2.6780898387677583,7.20015131576268,,,,,,,,,,,,
48495,0,USTexasWinkler,Texas,Winkler,2022-04-28 09:13:11,2020-08-10,1.0719522419902026,2.6780898387677583,7.20015131576268,,,,,,,,,,,,
48495,0,USTexasWinkler,Texas,Winkler,2022-04-28 09:13:11,2020-08-11,1.0719522419902026,2.6780898387677583,7.20015131576268,,,,,,,,,,,,
48495,0,USTexasWinkler,Texas,Winkler,2022-04-28 09:13:11,2020-08-12,1.0719522419902026,2.6780898387677583,7.20015131576268,,,,,,,,,,,,
48495,0,USTexasWinkler,Texas,Winkler,2022-04-28 09:13:11,2020-08-13,0.2944512767024425,0.9654731979738266,3.3885330945158816,,,,,,,,,,,,
48495,0,USTexasWinkler,Texas,Winkler,2022-04-28 09:13:11,2020-08-14,0.2944512767024425,0.9654731979738266,3.3885330945158816,,,,,,,,,,,,
48495,0,USTexasWinkler,Texas,Winkler,2022-04-28 09:13:11,2020-08-15,0.2944512767024425,0.9654731979738266,3.3885330945158816,,,,,,,,,,,,
48495,0,USTexasWinkler,Texas,Winkler,2022-04-28 09:13:11,2020-08-16,0.2944512767024425,0.9654731979738266,3.3885330945158816,,,,,,,,,,,,
48495,0,USTexasWinkler,Texas,Winkler,2022-04-28 09:13:11,2020-08-17,0.2944512767024425,0.9654731979738266,3.3885330945158816,,,,,,,,,,,,
48495,0,USTexasWinkler,Texas,Winkler,2022-04-28 09:13:11,2020-08-18,0.2944512767024425,0.9654731979738266,3.3885330945158816,,,,,,,,,,,,
48495,0,USTexasWinkler,Texas,Winkler,2022-04-28 09:13:11,2020-08-19,0.2944512767024425,0.9654731979738266,3.3885330945158816,,,,,,,,,,,,
48495,0,USTexasWinkler,Texas,Winkler,2022-04-28 09:13:11,2020-08-20,0.11143888869145997,0.40586615180726143,1.5763265246891676,,,,,,,,,,,,
48495,0,USTexasWinkler,Texas,Winkler,2022-04-28 09:13:11,2020-08-21,0.11143888869145997,0.40586615180726143,1.5763265246891676,,,,,,,,,,,,
48495,0,USTexasWinkler,Texas,Winkler,2022-04-28 09:13:11,2020-08-22,0.11143888869145997,0.40586615180726143,1.5763265246891676,,,,,,,,,,,,
48495,0,USTexasWinkler,Texas,Winkler,2022-04-28 09:13:11,2020-08-23,0.11143888869145997,0.40586615180726143,1.5763265246891676,,,,,,,,,,,,
48495,0,USTexasWinkler,Texas,Winkler,2022-04-28 09:13:11,2020-08-24,0.11143888869145997,0.40586615180726143,1.5763265246891676,,,,,,,,,,,,
48495,0,USTexasWinkler,Texas,Winkler,2022-04-28 09:13:11,2020-08-25,0.11143888869145997,0.40586615180726143,1.5763265246891676,,,,,,,,,,,,
48495,0,USTexasWinkler,Texas,Winkler,2022-04-28 09:13:11,2020-08-26,0.11143888869145997,0.40586615180726143,1.5763265246891676,,,,,,,,,,,,
48495,0,USTexasWinkler,Texas,Winkler,2022-04-28 09:13:11,2020-08-27,0.674704490053763,1.4717421677930638,3.4509481631450933,,,,,,,,,,,,
48495,0,USTexasWinkler,Texas,Winkler,2022-04-28 09:13:11,2020-08-28,0.674704490053763,1.4717421677930638,3.4509481631450933,,,,,,,,,,,,
48495,0,USTexasWinkler,Texas,Winkler,2022-04-28 09:13:11,2020-08-29,0.674704490053763,1.4717421677930638,3.4509481631450933,,,,,,,,,,,,
48495,0,USTexasWinkler,Texas,Winkler,2022-04-28 09:13:11,2020-08-30,0.674704490053763,1.4717421677930638,3.4509481631450933,,,,,,,,,,,,
48495,0,USTexasWinkler,Texas,Winkler,2022-04-28 09:13:11,2020-08-31,0.674704490053763,1.4717421677930638,3.4509481631450933,,,,,,,,,,,,
48495,0,USTexasWinkler,Texas,Winkler,2022-04-28 09:13:11,2020-09-01,0.674704490053763,1.4717421677930638,3.4509481631450933,,,,,,,,,,,,
48495,0,USTexasWinkler,Texas,Winkler,2022-04-28 09:13:11,2020-09-02,0.674704490053763,1.4717421677930638,3.4509481631450933,,,,,,,,,,,,
48495,0,USTexasWinkler,Texas,Winkler,2022-04-28 09:13:11,2020-09-03,0.40905057910972387,0.9803833501297141,2.5286031162009293,,,,,,,,,,,,
48495,0,USTexasWinkler,Texas,Winkler,2022-04-28 09:13:11,2020-09-04,0.40905057910972387,0.9803833501297141,2.5286031162009293,,,,,,,,,,,,
48495,0,USTexasWinkler,Texas,Winkler,2022-04-28 09:13:11,2020-09-05,0.40905057910972387,0.9803833501297141,2.5286031162009293,,,,,,,,,,,,
48495,0,USTexasWinkler,Texas,Winkler,2022-04-28 09:13:11,2020-09-06,0.40905057910972387,0.9803833501297141,2.5286031162009293,,,,,,,,,,,,
48495,0,USTexasWinkler,Texas,Winkler,2022-04-28 09:13:11,2020-09-07,0.40905057910972387,0.9803833501297141,2.5286031162009293,,,,,,,,,,,,
48495,0,USTexasWinkler,Texas,Winkler,2022-04-28 09:13:11,2020-09-08,0.40905057910972387,0.9803833501297141,2.5286031162009293,,,,,,,,,,,,
48495,0,USTexasWinkler,Texas,Winkler,2022-04-28 09:13:11,2020-09-09,0.40905057910972387,0.9803833501297141,2.5286031162009293,,,,,,,,,,,,
48495,0,USTexasWinkler,Texas,Winkler,2022-04-28 09:13:11,2020-09-10,0.6188910792544805,1.4946653897108841,3.884621146749509,,,,,,,,,,,,
48495,0,USTexasWinkler,Texas,Winkler,2022-04-28 09:13:11,2020-09-11,0.6188910792544805,1.4946653897108841,3.884621146749509,,,,,,,,,,,,
48495,0,USTexasWinkler,Texas,Winkler,2022-04-28 09:13:11,2020-09-12,0.6188910792544805,1.4946653897108841,3.884621146749509,,,,,,,,,,,,
48495,0,USTexasWinkler,Texas,Winkler,2022-04-28 09:13:11,2020-09-13,0.6188910792544805,1.4946653897108841,3.884621146749509,,,,,,,,,,,,
48495,0,USTexasWinkler,Texas,Winkler,2022-04-28 09:13:11,2020-09-14,0.6188910792544805,1.4946653897108841,3.884621146749509,,,,,,,,,,,,
48495,0,USTexasWinkler,Texas,Winkler,2022-04-28 09:13:11,2020-09-15,0.6188910792544805,1.4946653897108841,3.884621146749509,,,,,,,,,,,,
48495,0,USTexasWinkler,Texas,Winkler,2022-04-28 09:13:11,2020-09-16,0.6188910792544805,1.4946653897108841,3.884621146749509,,,,,,,,,,,,
48495,0,USTexasWinkler,Texas,Winkler,2022-04-28 09:13:11,2020-09-17,0.30852273378894596,0.823902005560862,2.366470146662754,,,,,,,,,,,,
48495,0,USTexasWinkler,Texas,Winkler,2022-04-28 09:13:11,2020-09-18,0.30852273378894596,0.823902005560862,2.366470146662754,,,,,,,,,,,,
48495,0,USTexasWinkler,Texas,Winkler,2022-04-28 09:13:11,2020-09-19,0.30852273378894596,0.823902005560862,2.366470146662754,,,,,,,,,,,,
48495,0,USTexasWinkler,Texas,Winkler,2022-04-28 09:13:11,2020-09-20,0.30852273378894596,0.823902005560862,2.366470146662754,,,,,,,,,,,,
48495,0,USTexasWinkler,Texas,Winkler,2022-04-28 09:13:11,2020-09-21,0.30852273378894596,0.823902005560862,2.366470146662754,,,,,,,,,,,,
48495,0,USTexasWinkler,Texas,Winkler,2022-04-28 09:13:11,2020-09-22,0.30852273378894596,0.823902005560862,2.366470146662754,,,,,,,,,,,,
48495,0,USTexasWinkler,Texas,Winkler,2022-04-28 09:13:11,2020-09-23,0.30852273378894596,0.823902005560862,2.366470146662754,,,,,,,,,,,,
48495,0,USTexasWinkler,Texas,Winkler,2022-04-28 09:13:11,2020-09-24,0.3387159106472071,0.8072578748231616,2.0703578871897212,,,,,,,,,,,,
48495,0,USTexasWinkler,Texas,Winkler,2022-04-28 09:13:11,2020-09-25,0.3387159106472071,0.8072578748231616,2.0703578871897212,,,,,,,,,,,,
48495,0,USTexasWinkler,Texas,Winkler,2022-04-28 09:13:11,2020-09-26,0.3387159106472071,0.8072578748231616,2.0703578871897212,,,,,,,,,,,,
48495,0,USTexasWinkler,Texas,Winkler,2022-04-28 09:13:11,2020-09-27,0.3387159106472071,0.8072578748231616,2.0703578871897212,,,,,,,,,,,,
48495,0,USTexasWinkler,Texas,Winkler,2022-04-28 09:13:11,2020-09-28,0.3387159106472071,0.8072578748231616,2.0703578871897212,,,,,,,,,,,,
48495,0,USTexasWinkler,Texas,Winkler,2022-04-28 09:13:11,2020-09-29,0.3387159106472071,0.8072578748231616,2.0703578871897212,,,,,,,,,,,,
48495,0,USTexasWinkler,Texas,Winkler,2022-04-28 09:13:11,2020-09-30,0.3387159106472071,0.8072578748231616,2.0703578871897212,,,,,,,,,,,,
48495,0,USTexasWinkler,Texas,Winkler,2022-04-28 09:13:11,2020-10-01,0.21948693193989452,0.5597620052996736,1.5361121282337757,,,,,,,,,,,,
48495,0,USTexasWinkler,Texas,Winkler,2022-04-28 09:13:11,2020-10-02,0.21948693193989452,0.5597620052996736,1.5361121282337757,,,,,,,,,,,,
48495,0,USTexasWinkler,Texas,Winkler,2022-04-28 09:13:11,2020-10-03,0.21948693193989452,0.5597620052996736,1.5361121282337757,,,,,,,,,,,,
48495,0,USTexasWinkler,Texas,Winkler,2022-04-28 09:13:11,2020-10-04,0.21948693193989452,0.5597620052996736,1.5361121282337757,,,,,,,,,,,,
48495,0,USTexasWinkler,Texas,Winkler,2022-04-28 09:13:11,2020-10-05,0.21948693193989452,0.5597620052996736,1.5361121282337757,,,,,,,,,,,,
48495,0,USTexasWinkler,Texas,Winkler,2022-04-28 09:13:11,2020-10-06,0.21948693193989452,0.5597620052996736,1.5361121282337757,,,,,,,,,,,,
48495,0,USTexasWinkler,Texas,Winkler,2022-04-28 09:13:11,2020-10-07,0.21948693193989452,0.5597620052996736,1.5361121282337757,,,,,,,,,,,,
48495,0,USTexasWinkler,Texas,Winkler,2022-04-28 09:13:11,2020-10-08,0.2616969625735249,0.6047158710368887,1.5033747187436792,,,,,,,,,,,,
48495,0,USTexasWinkler,Texas,Winkler,2022-04-28 09:13:11,2020-10-09,0.2616969625735249,0.6047158710368887,1.5033747187436792,,,,,,,,,,,,
48495,0,USTexasWinkler,Texas,Winkler,2022-04-28 09:13:11,2020-10-10,0.2616969625735249,0.6047158710368887,1.5033747187436792,,,,,,,,,,,,
48495,0,USTexasWinkler,Texas,Winkler,2022-04-28 09:13:11,2020-10-11,0.2616969625735249,0.6047158710368887,1.5033747187436792,,,,,,,,,,,,
48495,0,USTexasWinkler,Texas,Winkler,2022-04-28 09:13:11,2020-10-12,0.2616969625735249,0.6047158710368887,1.5033747187436792,,,,,,,,,,,,
48495,0,USTexasWinkler,Texas,Winkler,2022-04-28 09:13:11,2020-10-13,0.2616969625735249,0.6047158710368887,1.5033747187436792,,,,,,,,,,,,
48495,0,USTexasWinkler,Texas,Winkler,2022-04-28 09:13:11,2020-10-14,0.2616969625735249,0.6047158710368887,1.5033747187436792,,,,,,,,,,,,
48495,0,USTexasWinkler,Texas,Winkler,2022-04-28 09:13:11,2020-10-15,0.4260018714509368,0.9227212307969921,2.1480939471458,,,,,,,,,,,,
48495,0,USTexasWinkler,Texas,Winkler,2022-04-28 09:13:11,2020-10-16,0.4260018714509368,0.9227212307969921,2.1480939471458,,,,,,,,,,,,
48495,0,USTexasWinkler,Texas,Winkler,2022-04-28 09:13:11,2020-10-17,0.4260018714509368,0.9227212307969921,2.1480939471458,,,,,,,,,,,,
48495,0,USTexasWinkler,Texas,Winkler,2022-04-28 09:13:11,2020-10-18,0.4260018714509368,0.9227212307969921,2.1480939471458,,,,,,,,,,,,
48495,0,USTexasWinkler,Texas,Winkler,2022-04-28 09:13:11,2020-10-19,0.4260018714509368,0.9227212307969921,2.1480939471458,,,,,,,,,,,,
48495,0,USTexasWinkler,Texas,Winkler,2022-04-28 09:13:11,2020-10-20,0.4260018714509368,0.9227212307969921,2.1480939471458,,,,,,,,,,,,
48495,0,USTexasWinkler,Texas,Winkler,2022-04-28 09:13:11,2020-10-21,0.4260018714509368,0.9227212307969921,2.1480939471458,,,,,,,,,,,,
48495,0,USTexasWinkler,Texas,Winkler,2022-04-28 09:13:11,2020-10-22,0.6692009075538543,1.3395587910464941,2.875126386491553,,,,,,,,,,,,
48495,0,USTexasWinkler,Texas,Winkler,2022-04-28 09:13:11,2020-10-23,0.6692009075538543,1.3395587910464941,2.875126386491553,,,,,,,,,,,,
48495,0,USTexasWinkler,Texas,Winkler,2022-04-28 09:13:11,2020-10-24,0.6692009075538543,1.3395587910464941,2.875126386491553,,,,,,,,,,,,
48495,0,USTexasWinkler,Texas,Winkler,2022-04-28 09:13:11,2020-10-25,0.6692009075538543,1.3395587910464941,2.875126386491553,,,,,,,,,,,,
48495,0,USTexasWinkler,Texas,Winkler,2022-04-28 09:13:11,2020-10-26,0.6692009075538543,1.3395587910464941,2.875126386491553,,,,,,,,,,,,
48495,0,USTexasWinkler,Texas,Winkler,2022-04-28 09:13:11,2020-10-27,0.6692009075538543,1.3395587910464941,2.875126386491553,,,,,,,,,,,,
48495,0,USTexasWinkler,Texas,Winkler,2022-04-28 09:13:11,2020-10-28,0.6692009075538543,1.3395587910464941,2.875126386491553,,,,,,,,,,,,
48495,0,USTexasWinkler,Texas,Winkler,2022-04-28 09:13:11,2020-10-29,0.8118910224012618,1.4912484792171001,2.9245609440434044,,,,,,,,,,,,
48495,0,USTexasWinkler,Texas,Winkler,2022-04-28 09:13:11,2020-10-30,0.8118910224012618,1.4912484792171001,2.9245609440434044,,,,,,,,,,,,
48495,0,USTexasWinkler,Texas,Winkler,2022-04-28 09:13:11,2020-10-31,0.8118910224012618,1.4912484792171001,2.9245609440434044,,,,,,,,,,,,
48495,0,USTexasWinkler,Texas,Winkler,2022-04-28 09:13:11,2020-11-01,0.8118910224012618,1.4912484792171001,2.9245609440434044,,,,,,,,,,,,
48495,0,USTexasWinkler,Texas,Winkler,2022-04-28 09:13:11,2020-11-02,0.8118910224012618,1.4912484792171001,2.9245609440434044,,,,,,,,,,,,
48495,0,USTexasWinkler,Texas,Winkler,2022-04-28 09:13:11,2020-11-03,0.8118910224012618,1.4912484792171001,2.9245609440434044,,,,,,,,,,,,
48495,0,USTexasWinkler,Texas,Winkler,2022-04-28 09:13:11,2020-11-04,0.8118910224012618,1.4912484792171001,2.9245609440434044,,,,,,,,,,,,
48495,0,USTexasWinkler,Texas,Winkler,2022-04-28 09:13:11,2020-11-05,1.6160344545597505,2.5869622249813147,4.374709204910131,,,,,,,,,,,,
48495,0,USTexasWinkler,Texas,Winkler,2022-04-28 09:13:11,2020-11-06,1.6160344545597505,2.5869622249813147,4.374709204910131,,,,,,,,,,,,
48495,0,USTexasWinkler,Texas,Winkler,2022-04-28 09:13:11,2020-11-07,1.6160344545597505,2.5869622249813147,4.374709204910131,,,,,,,,,,,,
48495,0,USTexasWinkler,Texas,Winkler,2022-04-28 09:13:11,2020-11-08,1.6160344545597505,2.5869622249813147,4.374709204910131,,,,,,,,,,,,
48495,0,USTexasWinkler,Texas,Winkler,2022-04-28 09:13:11,2020-11-09,1.6160344545597505,2.5869622249813147,4.374709204910131,,,,,,,,,,,,
48495,0,USTexasWinkler,Texas,Winkler,2022-04-28 09:13:11,2020-11-10,1.6160344545597505,2.5869622249813147,4.374709204910131,,,,,,,,,,,,
48495,0,USTexasWinkler,Texas,Winkler,2022-04-28 09:13:11,2020-11-11,1.6160344545597505,2.5869622249813147,4.374709204910131,,,,,,,,,,,,
48495,0,USTexasWinkler,Texas,Winkler,2022-04-28 09:13:11,2020-11-12,1.8647865368694516,2.903946336987057,4.763991813661384,,,,,,,,,,,,
48495,0,USTexasWinkler,Texas,Winkler,2022-04-28 09:13:11,2020-11-13,1.8647865368694516,2.903946336987057,4.763991813661384,,,,,,,,,,,,
48495,0,USTexasWinkler,Texas,Winkler,2022-04-28 09:13:11,2020-11-14,1.8647865368694516,2.903946336987057,4.763991813661384,,,,,,,,,,,,
48495,0,USTexasWinkler,Texas,Winkler,2022-04-28 09:13:11,2020-11-15,1.8647865368694516,2.903946336987057,4.763991813661384,,,,,,,,,,,,
48495,0,USTexasWinkler,Texas,Winkler,2022-04-28 09:13:11,2020-11-16,1.8647865368694516,2.903946336987057,4.763991813661384,,,,,,,,,,,,
48495,0,USTexasWinkler,Texas,Winkler,2022-04-28 09:13:11,2020-11-17,1.8647865368694516,2.903946336987057,4.763991813661384,,,,,,,,,,,,
48495,0,USTexasWinkler,Texas,Winkler,2022-04-28 09:13:11,2020-11-18,1.8647865368694516,2.903946336987057,4.763991813661384,,,,,,,,,,,,
48495,0,USTexasWinkler,Texas,Winkler,2022-04-28 09:13:11,2020-11-19,2.166495863558162,3.442896260120553,5.775656106184897,,,,,,,,,,,,
48495,0,USTexasWinkler,Texas,Winkler,2022-04-28 09:13:11,2020-11-20,2.166495863558162,3.442896260120553,5.775656106184897,,,,,,,,,,,,
48495,0,USTexasWinkler,Texas,Winkler,2022-04-28 09:13:11,2020-11-21,2.166495863558162,3.442896260120553,5.775656106184897,,,,,,,,,,,,
48495,0,USTexasWinkler,Texas,Winkler,2022-04-28 09:13:11,2020-11-22,2.166495863558162,3.442896260120553,5.775656106184897,,,,,,,,,,,,
48495,0,USTexasWinkler,Texas,Winkler,2022-04-28 09:13:11,2020-11-23,2.166495863558162,3.442896260120553,5.775656106184897,,,,,,,,,,,,
48495,0,USTexasWinkler,Texas,Winkler,2022-04-28 09:13:11,2020-11-24,2.166495863558162,3.442896260120553,5.775656106184897,,,,,,,,,,,,
48495,0,USTexasWinkler,Texas,Winkler,2022-04-28 09:13:11,2020-11-25,2.166495863558162,3.442896260120553,5.775656106184897,,,,,,,,,,,,
48495,0,USTexasWinkler,Texas,Winkler,2022-04-28 09:13:11,2020-11-26,1.8549443316222647,3.2883343111702046,6.209990325543884,,,,,,,,,,,,
48495,0,USTexasWinkler,Texas,Winkler,2022-04-28 09:13:11,2020-11-27,1.8549443316222647,3.2883343111702046,6.209990325543884,,,,,,,,,,,,
48495,0,USTexasWinkler,Texas,Winkler,2022-04-28 09:13:11,2020-11-28,1.8549443316222647,3.2883343111702046,6.209990325543884,,,,,,,,,,,,
48495,0,USTexasWinkler,Texas,Winkler,2022-04-28 09:13:11,2020-11-29,1.8549443316222647,3.2883343111702046,6.209990325543884,,,,,,,,,,,,
48495,0,USTexasWinkler,Texas,Winkler,2022-04-28 09:13:11,2020-11-30,1.8549443316222647,3.2883343111702046,6.209990325543884,,,,,,,,,,,,
48495,0,USTexasWinkler,Texas,Winkler,2022-04-28 09:13:11,2020-12-01,1.8549443316222647,3.2883343111702046,6.209990325543884,,,,,,,,,,,,
48495,0,USTexasWinkler,Texas,Winkler,2022-04-28 09:13:11,2020-12-02,1.8549443316222647,3.2883343111702046,6.209990325543884,,,,,,,,,,,,
48495,0,USTexasWinkler,Texas,Winkler,2022-04-28 09:13:11,2020-12-03,2.4959806124598396,4.00502715781091,6.790278366872399,,,,,,,,,,,,
48495,0,USTexasWinkler,Texas,Winkler,2022-04-28 09:13:11,2020-12-04,2.4959806124598396,4.00502715781091,6.790278366872399,,,,,,,,,,,,
48495,0,USTexasWinkler,Texas,Winkler,2022-04-28 09:13:11,2020-12-05,2.4959806124598396,4.00502715781091,6.790278366872399,,,,,,,,,,,,
48495,0,USTexasWinkler,Texas,Winkler,2022-04-28 09:13:11,2020-12-06,2.4959806124598396,4.00502715781091,6.790278366872399,,,,,,,,,,,,
48495,0,USTexasWinkler,Texas,Winkler,2022-04-28 09:13:11,2020-12-07,2.4959806124598396,4.00502715781091,6.790278366872399,,,,,,,,,,,,
48495,0,USTexasWinkler,Texas,Winkler,2022-04-28 09:13:11,2020-12-08,2.4959806124598396,4.00502715781091,6.790278366872399,,,,,,,,,,,,
48495,0,USTexasWinkler,Texas,Winkler,2022-04-28 09:13:11,2020-12-09,2.4959806124598396,4.00502715781091,6.790278366872399,,,,,,,,,,,,
48495,0,USTexasWinkler,Texas,Winkler,2022-04-28 09:13:11,2020-12-10,1.8934294459161782,3.7853444546946107,8.11391010120636,,,,,,,,,,,,
48495,0,USTexasWinkler,Texas,Winkler,2022-04-28 09:13:11,2020-12-11,1.8934294459161782,3.7853444546946107,8.11391010120636,,,,,,,,,,,,
48495,0,USTexasWinkler,Texas,Winkler,2022-04-28 09:13:11,2020-12-12,1.8934294459161782,3.7853444546946107,8.11391010120636,,,,,,,,,,,,
48495,0,USTexasWinkler,Texas,Winkler,2022-04-28 09:13:11,2020-12-13,1.8934294459161782,3.7853444546946107,8.11391010120636,,,,,,,,,,,,
48495,0,USTexasWinkler,Texas,Winkler,2022-04-28 09:13:11,2020-12-14,1.8934294459161782,3.7853444546946107,8.11391010120636,,,,,,,,,,,,
48495,0,USTexasWinkler,Texas,Winkler,2022-04-28 09:13:11,2020-12-15,1.8934294459161782,3.7853444546946107,8.11391010120636,,,,,,,,,,,,
48495,0,USTexasWinkler,Texas,Winkler,2022-04-28 09:13:11,2020-12-16,1.8934294459161782,3.7853444546946107,8.11391010120636,,,,,,,,,,,,
48495,0,USTexasWinkler,Texas,Winkler,2022-04-28 09:13:11,2020-12-17,2.0139537653567148,3.6728459208522684,7.148695149981499,,,,,,,,,,,,
48495,0,USTexasWinkler,Texas,Winkler,2022-04-28 09:13:11,2020-12-18,2.0139537653567148,3.6728459208522684,7.148695149981499,,,,,,,,,,,,
48495,0,USTexasWinkler,Texas,Winkler,2022-04-28 09:13:11,2020-12-19,2.0139537653567148,3.6728459208522684,7.148695149981499,,,,,,,,,,,,
48495,0,USTexasWinkler,Texas,Winkler,2022-04-28 09:13:11,2020-12-20,2.0139537653567148,3.6728459208522684,7.148695149981499,,,,,,,,,,,,
48495,0,USTexasWinkler,Texas,Winkler,2022-04-28 09:13:11,2020-12-21,2.0139537653567148,3.6728459208522684,7.148695149981499,,,,,,,,,,,,
48495,0,USTexasWinkler,Texas,Winkler,2022-04-28 09:13:11,2020-12-22,2.0139537653567148,3.6728459208522684,7.148695149981499,,,,,,,,,,,,
48495,0,USTexasWinkler,Texas,Winkler,2022-04-28 09:13:11,2020-12-23,2.0139537653567148,3.6728459208522684,7.148695149981499,,,,,,,,,,,,
48495,0,USTexasWinkler,Texas,Winkler,2022-04-28 09:13:11,2020-12-24,1.4480594846435828,2.797579081778758,5.786373713211872,,,,,,,,,,,,
48495,0,USTexasWinkler,Texas,Winkler,2022-04-28 09:13:11,2020-12-25,1.4480594846435828,2.797579081778758,5.786373713211872,,,,,,,,,,,,
48495,0,USTexasWinkler,Texas,Winkler,2022-04-28 09:13:11,2020-12-26,1.4480594846435828,2.797579081778758,5.786373713211872,,,,,,,,,,,,
48495,0,USTexasWinkler,Texas,Winkler,2022-04-28 09:13:11,2020-12-27,1.4480594846435828,2.797579081778758,5.786373713211872,,,,,,,,,,,,
48495,0,USTexasWinkler,Texas,Winkler,2022-04-28 09:13:11,2020-12-28,1.4480594846435828,2.797579081778758,5.786373713211872,,,,,,,,,,,,
48495,0,USTexasWinkler,Texas,Winkler,2022-04-28 09:13:11,2020-12-29,1.4480594846435828,2.797579081778758,5.786373713211872,,,,,,,,,,,,
48495,0,USTexasWinkler,Texas,Winkler,2022-04-28 09:13:11,2020-12-30,1.4480594846435828,2.797579081778758,5.786373713211872,,,,,,,,,,,,
48495,0,USTexasWinkler,Texas,Winkler,2022-04-28 09:13:11,2020-12-31,2.4911739176780983,4.5836921878697074,9.005966131772308,,,,,,,,,,,,
48495,0,USTexasWinkler,Texas,Winkler,2022-04-28 09:13:11,2021-01-01,2.4911739176780983,4.5836921878697074,9.005966131772308,,,,,,,,,,,,
48495,0,USTexasWinkler,Texas,Winkler,2022-04-28 09:13:11,2021-01-02,2.4911739176780983,4.5836921878697074,9.005966131772308,,,,,,,,,,,,
48495,0,USTexasWinkler,Texas,Winkler,2022-04-28 09:13:11,2021-01-03,2.4911739176780983,4.5836921878697074,9.005966131772308,,,,,,,,,,,,
48495,0,USTexasWinkler,Texas,Winkler,2022-04-28 09:13:11,2021-01-04,2.4911739176780983,4.5836921878697074,9.005966131772308,,,,,,,,,,,,
48495,0,USTexasWinkler,Texas,Winkler,2022-04-28 09:13:11,2021-01-05,2.4911739176780983,4.5836921878697074,9.005966131772308,,,,,,,,,,,,
48495,0,USTexasWinkler,Texas,Winkler,2022-04-28 09:13:11,2021-01-06,2.4911739176780983,4.5836921878697074,9.005966131772308,,,,,,,,,,,,
48495,0,USTexasWinkler,Texas,Winkler,2022-04-28 09:13:11,2021-01-07,2.1412824456260986,3.785331470613055,7.127213209867096,,,,,,,,,,,,
48495,0,USTexasWinkler,Texas,Winkler,2022-04-28 09:13:11,2021-01-08,2.1412824456260986,3.785331470613055,7.127213209867096,,,,,,,,,,,,
48495,0,USTexasWinkler,Texas,Winkler,2022-04-28 09:13:11,2021-01-09,2.1412824456260986,3.785331470613055,7.127213209867096,,,,,,,,,,,,
48495,0,USTexasWinkler,Texas,Winkler,2022-04-28 09:13:11,2021-01-10,2.1412824456260986,3.785331470613055,7.127213209867096,,,,,,,,,,,,
48495,0,USTexasWinkler,Texas,Winkler,2022-04-28 09:13:11,2021-01-11,2.1412824456260986,3.785331470613055,7.127213209867096,,,,,,,,,,,,
48495,0,USTexasWinkler,Texas,Winkler,2022-04-28 09:13:11,2021-01-12,2.1412824456260986,3.785331470613055,7.127213209867096,,,,,,,,,,,,
48495,0,USTexasWinkler,Texas,Winkler,2022-04-28 09:13:11,2021-01-13,2.1412824456260986,3.785331470613055,7.127213209867096,,,,,,,,,,,,
48495,0,USTexasWinkler,Texas,Winkler,2022-04-28 09:13:11,2021-01-14,1.5725393131205287,2.8875376111482174,5.661149872933783,,,,,,,,,,,,
48495,0,USTexasWinkler,Texas,Winkler,2022-04-28 09:13:11,2021-01-15,1.5725393131205287,2.8875376111482174,5.661149872933783,,,,,,,,,,,,
48495,0,USTexasWinkler,Texas,Winkler,2022-04-28 09:13:11,2021-01-16,1.5725393131205287,2.8875376111482174,5.661149872933783,,,,,,,,,,,,
48495,0,USTexasWinkler,Texas,Winkler,2022-04-28 09:13:11,2021-01-17,1.5725393131205287,2.8875376111482174,5.661149872933783,,,,,,,,,,,,
48495,0,USTexasWinkler,Texas,Winkler,2022-04-28 09:13:11,2021-01-18,1.5725393131205287,2.8875376111482174,5.661149872933783,,,,,,,,,,,,
48495,0,USTexasWinkler,Texas,Winkler,2022-04-28 09:13:11,2021-01-19,1.5725393131205287,2.8875376111482174,5.661149872933783,,,,,,,,,,,,
48495,0,USTexasWinkler,Texas,Winkler,2022-04-28 09:13:11,2021-01-20,1.5725393131205287,2.8875376111482174,5.661149872933783,,,,,,,,,,,,
48495,0,USTexasWinkler,Texas,Winkler,2022-04-28 09:13:11,2021-01-21,1.5426055775488337,2.867927938806895,5.696990430142378,,,,,,,,,,,,
48495,0,USTexasWinkler,Texas,Winkler,2022-04-28 09:13:11,2021-01-22,1.5426055775488337,2.867927938806895,5.696990430142378,,,,,,,,,,,,
48495,0,USTexasWinkler,Texas,Winkler,2022-04-28 09:13:11,2021-01-23,1.5426055775488337,2.867927938806895,5.696990430142378,,,,,,,,,,,,
48495,0,USTexasWinkler,Texas,Winkler,2022-04-28 09:13:11,2021-01-24,1.5426055775488337,2.867927938806895,5.696990430142378,,,,,,,,,,,,
48495,0,USTexasWinkler,Texas,Winkler,2022-04-28 09:13:11,2021-01-25,1.5426055775488337,2.867927938806895,5.696990430142378,,,,,,,,,,,,
48495,0,USTexasWinkler,Texas,Winkler,2022-04-28 09:13:11,2021-01-26,1.5426055775488337,2.867927938806895,5.696990430142378,,,,,,,,,,,,
48495,0,USTexasWinkler,Texas,Winkler,2022-04-28 09:13:11,2021-01-27,1.5426055775488337,2.867927938806895,5.696990430142378,,,,,,,,,,,,
48495,0,USTexasWinkler,Texas,Winkler,2022-04-28 09:13:11,2021-01-28,0.8101865549482352,1.7926974900711485,4.265165967889395,,,,,,,,,,,,
48495,0,USTexasWinkler,Texas,Winkler,2022-04-28 09:13:11,2021-01-29,0.8101865549482352,1.7926974900711485,4.265165967889395,,,,,,,,,,,,
48495,0,USTexasWinkler,Texas,Winkler,2022-04-28 09:13:11,2021-01-30,0.8101865549482352,1.7926974900711485,4.265165967889395,,,,,,,,,,,,
48495,0,USTexasWinkler,Texas,Winkler,2022-04-28 09:13:11,2021-01-31,0.8101865549482352,1.7926974900711485,4.265165967889395,,,,,,,,,,,,
48495,0,USTexasWinkler,Texas,Winkler,2022-04-28 09:13:11,2021-02-01,0.8101865549482352,1.7926974900711485,4.265165967889395,,,,,,,,,,,,
48495,0,USTexasWinkler,Texas,Winkler,2022-04-28 09:13:11,2021-02-02,0.8101865549482352,1.7926974900711485,4.265165967889395,,,,,,,,,,,,
48495,0,USTexasWinkler,Texas,Winkler,2022-04-28 09:13:11,2021-02-03,0.8101865549482352,1.7926974900711485,4.265165967889395,,,,,,,,,,,,
48495,0,USTexasWinkler,Texas,Winkler,2022-04-28 09:13:11,2021-02-04,0.8349114159321004,1.6683842473436512,3.5744762237865864,,,,,,,,,,,,
48495,0,USTexasWinkler,Texas,Winkler,2022-04-28 09:13:11,2021-02-05,0.8349114159321004,1.6683842473436512,3.5744762237865864,,,,,,,,,,,,
48495,0,USTexasWinkler,Texas,Winkler,2022-04-28 09:13:11,2021-02-06,0.8349114159321004,1.6683842473436512,3.5744762237865864,,,,,,,,,,,,
48495,0,USTexasWinkler,Texas,Winkler,2022-04-28 09:13:11,2021-02-07,0.8349114159321004,1.6683842473436512,3.5744762237865864,,,,,,,,,,,,
48495,0,USTexasWinkler,Texas,Winkler,2022-04-28 09:13:11,2021-02-08,0.8349114159321004,1.6683842473436512,3.5744762237865864,,,,,,,,,,,,
48495,0,USTexasWinkler,Texas,Winkler,2022-04-28 09:13:11,2021-02-09,0.8349114159321004,1.6683842473436512,3.5744762237865864,,,,,,,,,,,,
48495,0,USTexasWinkler,Texas,Winkler,2022-04-28 09:13:11,2021-02-10,0.8349114159321004,1.6683842473436512,3.5744762237865864,,,,,,,,,,,,
48495,0,USTexasWinkler,Texas,Winkler,2022-04-28 09:13:11,2021-02-11,0.6817583515866026,1.501063330428375,3.5533287147322645,,,,,,,,,,,,
48495,0,USTexasWinkler,Texas,Winkler,2022-04-28 09:13:11,2021-02-12,0.6817583515866026,1.501063330428375,3.5533287147322645,,,,,,,,,,,,
48495,0,USTexasWinkler,Texas,Winkler,2022-04-28 09:13:11,2021-02-13,0.6817583515866026,1.501063330428375,3.5533287147322645,,,,,,,,,,,,
48495,0,USTexasWinkler,Texas,Winkler,2022-04-28 09:13:11,2021-02-14,0.6817583515866026,1.501063330428375,3.5533287147322645,,,,,,,,,,,,
48495,0,USTexasWinkler,Texas,Winkler,2022-04-28 09:13:11,2021-02-15,0.6817583515866026,1.501063330428375,3.5533287147322645,,,,,,,,,,,,
48495,0,USTexasWinkler,Texas,Winkler,2022-04-28 09:13:11,2021-02-16,0.6817583515866026,1.501063330428375,3.5533287147322645,,,,,,,,,,,,
48495,0,USTexasWinkler,Texas,Winkler,2022-04-28 09:13:11,2021-02-17,0.6817583515866026,1.501063330428375,3.5533287147322645,,,,,,,,,,,,
48495,0,USTexasWinkler,Texas,Winkler,2022-04-28 09:13:11,2021-02-18,0.2844747978216511,0.707698352864247,1.894630873588606,,,,,,,,,,,,
48495,0,USTexasWinkler,Texas,Winkler,2022-04-28 09:13:11,2021-02-19,0.2844747978216511,0.707698352864247,1.894630873588606,,,,,,,,,,,,
48495,0,USTexasWinkler,Texas,Winkler,2022-04-28 09:13:11,2021-02-20,0.2844747978216511,0.707698352864247,1.894630873588606,,,,,,,,,,,,
48495,0,USTexasWinkler,Texas,Winkler,2022-04-28 09:13:11,2021-02-21,0.2844747978216511,0.707698352864247,1.894630873588606,,,,,,,,,,,,
48495,0,USTexasWinkler,Texas,Winkler,2022-04-28 09:13:11,2021-02-22,0.2844747978216511,0.707698352864247,1.894630873588606,,,,,,,,,,,,
48495,0,USTexasWinkler,Texas,Winkler,2022-04-28 09:13:11,2021-02-23,0.2844747978216511,0.707698352864247,1.894630873588606,,,,,,,,,,,,
48495,0,USTexasWinkler,Texas,Winkler,2022-04-28 09:13:11,2021-02-24,0.2844747978216511,0.707698352864247,1.894630873588606,,,,,,,,,,,,
48495,0,USTexasWinkler,Texas,Winkler,2022-04-28 09:13:11,2021-02-25,0.571875592363326,1.2875126939249113,3.1176624882831216,,,,,,,,,,,,
48495,0,USTexasWinkler,Texas,Winkler,2022-04-28 09:13:11,2021-02-26,0.571875592363326,1.2875126939249113,3.1176624882831216,,,,,,,,,,,,
48495,0,USTexasWinkler,Texas,Winkler,2022-04-28 09:13:11,2021-02-27,0.571875592363326,1.2875126939249113,3.1176624882831216,,,,,,,,,,,,
48495,0,USTexasWinkler,Texas,Winkler,2022-04-28 09:13:11,2021-02-28,0.571875592363326,1.2875126939249113,3.1176624882831216,,,,,,,,,,,,
48495,0,USTexasWinkler,Texas,Winkler,2022-04-28 09:13:11,2021-03-01,0.571875592363326,1.2875126939249113,3.1176624882831216,,,,,,,,,,,,
48495,0,USTexasWinkler,Texas,Winkler,2022-04-28 09:13:11,2021-03-02,0.571875592363326,1.2875126939249113,3.1176624882831216,,,,,,,,,,,,
48495,0,USTexasWinkler,Texas,Winkler,2022-04-28 09:13:11,2021-03-03,0.571875592363326,1.2875126939249113,3.1176624882831216,,,,,,,,,,,,
48495,0,USTexasWinkler,Texas,Winkler,2022-04-28 09:13:11,2021-03-04,0.6631008936855384,1.316361567397664,2.801025615286141,,,,,,,,,,,,
48495,0,USTexasWinkler,Texas,Winkler,2022-04-28 09:13:11,2021-03-05,0.6631008936855384,1.316361567397664,2.801025615286141,,,,,,,,,,,,
48495,0,USTexasWinkler,Texas,Winkler,2022-04-28 09:13:11,2021-03-06,0.6631008936855384,1.316361567397664,2.801025615286141,,,,,,,,,,,,
48495,0,USTexasWinkler,Texas,Winkler,2022-04-28 09:13:11,2021-03-07,0.6631008936855384,1.316361567397664,2.801025615286141,,,,,,,,,,,,
48495,0,USTexasWinkler,Texas,Winkler,2022-04-28 09:13:11,2021-03-08,0.6631008936855384,1.316361567397664,2.801025615286141,,,,,,,,,,,,
48495,0,USTexasWinkler,Texas,Winkler,2022-04-28 09:13:11,2021-03-09,0.6631008936855384,1.316361567397664,2.801025615286141,,,,,,,,,,,,
48495,0,USTexasWinkler,Texas,Winkler,2022-04-28 09:13:11,2021-03-10,0.6631008936855384,1.316361567397664,2.801025615286141,,,,,,,,,,,,
48495,0,USTexasWinkler,Texas,Winkler,2022-04-28 09:13:11,2021-03-11,0.28173825712174005,0.6949570960968079,1.8447993546023187,,,,,,,,,,,,
48495,0,USTexasWinkler,Texas,Winkler,2022-04-28 09:13:11,2021-03-12,0.28173825712174005,0.6949570960968079,1.8447993546023187,,,,,,,,,,,,
48495,0,USTexasWinkler,Texas,Winkler,2022-04-28 09:13:11,2021-03-13,0.28173825712174005,0.6949570960968079,1.8447993546023187,,,,,,,,,,,,
48495,0,USTexasWinkler,Texas,Winkler,2022-04-28 09:13:11,2021-03-14,0.28173825712174005,0.6949570960968079,1.8447993546023187,,,,,,,,,,,,
48495,0,USTexasWinkler,Texas,Winkler,2022-04-28 09:13:11,2021-03-15,0.28173825712174005,0.6949570960968079,1.8447993546023187,,,,,,,,,,,,
48495,0,USTexasWinkler,Texas,Winkler,2022-04-28 09:13:11,2021-03-16,0.28173825712174005,0.6949570960968079,1.8447993546023187,,,,,,,,,,,,
48495,0,USTexasWinkler,Texas,Winkler,2022-04-28 09:13:11,2021-03-17,0.28173825712174005,0.6949570960968079,1.8447993546023187,,,,,,,,,,,,
48495,0,USTexasWinkler,Texas,Winkler,2022-04-28 09:13:11,2021-03-18,0.5654759843349283,1.051053995719787,2.0873439122769297,,,,,,,,,,,,
48495,0,USTexasWinkler,Texas,Winkler,2022-04-28 09:13:11,2021-03-19,0.5654759843349283,1.051053995719787,2.0873439122769297,,,,,,,,,,,,
48495,0,USTexasWinkler,Texas,Winkler,2022-04-28 09:13:11,2021-03-20,0.5654759843349283,1.051053995719787,2.0873439122769297,,,,,,,,,,,,
48495,0,USTexasWinkler,Texas,Winkler,2022-04-28 09:13:11,2021-03-21,0.5654759843349283,1.051053995719787,2.0873439122769297,,,,,,,,,,,,
48495,0,USTexasWinkler,Texas,Winkler,2022-04-28 09:13:11,2021-03-22,0.5654759843349283,1.051053995719787,2.0873439122769297,,,,,,,,,,,,
48495,0,USTexasWinkler,Texas,Winkler,2022-04-28 09:13:11,2021-03-23,0.5654759843349283,1.051053995719787,2.0873439122769297,,,,,,,,,,,,
48495,0,USTexasWinkler,Texas,Winkler,2022-04-28 09:13:11,2021-03-24,0.5654759843349283,1.051053995719787,2.0873439122769297,,,,,,,,,,,,
48495,0,USTexasWinkler,Texas,Winkler,2022-04-28 09:13:11,2021-03-25,0.37761092423334697,0.8428908452980046,2.0233413833960734,,,,,,,,,,,,
48495,0,USTexasWinkler,Texas,Winkler,2022-04-28 09:13:11,2021-03-26,0.37761092423334697,0.8428908452980046,2.0233413833960734,,,,,,,,,,,,
48495,0,USTexasWinkler,Texas,Winkler,2022-04-28 09:13:11,2021-03-27,0.37761092423334697,0.8428908452980046,2.0233413833960734,,,,,,,,,,,,
48495,0,USTexasWinkler,Texas,Winkler,2022-04-28 09:13:11,2021-03-28,0.37761092423334697,0.8428908452980046,2.0233413833960734,,,,,,,,,,,,
48495,0,USTexasWinkler,Texas,Winkler,2022-04-28 09:13:11,2021-03-29,0.37761092423334697,0.8428908452980046,2.0233413833960734,,,,,,,,,,,,
48495,0,USTexasWinkler,Texas,Winkler,2022-04-28 09:13:11,2021-03-30,0.37761092423334697,0.8428908452980046,2.0233413833960734,,,,,,,,,,,,
48495,0,USTexasWinkler,Texas,Winkler,2022-04-28 09:13:11,2021-03-31,0.37761092423334697,0.8428908452980046,2.0233413833960734,,,,,,,,,,,,
48495,0,USTexasWinkler,Texas,Winkler,2022-04-28 09:13:11,2021-04-01,0.40323134041999964,0.7361085222829503,1.434256708714152,,,,,,,,,,,,
48495,0,USTexasWinkler,Texas,Winkler,2022-04-28 09:13:11,2021-04-02,0.40323134041999964,0.7361085222829503,1.434256708714152,,,,,,,,,,,,
48495,0,USTexasWinkler,Texas,Winkler,2022-04-28 09:13:11,2021-04-03,0.40323134041999964,0.7361085222829503,1.434256708714152,,,,,,,,,,,,
48495,0,USTexasWinkler,Texas,Winkler,2022-04-28 09:13:11,2021-04-04,0.40323134041999964,0.7361085222829503,1.434256708714152,,,,,,,,,,,,
48495,0,USTexasWinkler,Texas,Winkler,2022-04-28 09:13:11,2021-04-05,0.40323134041999964,0.7361085222829503,1.434256708714152,,,,,,,,,,,,
48495,0,USTexasWinkler,Texas,Winkler,2022-04-28 09:13:11,2021-04-06,0.40323134041999964,0.7361085222829503,1.434256708714152,,,,,,,,,,,,
48495,0,USTexasWinkler,Texas,Winkler,2022-04-28 09:13:11,2021-04-07,0.40323134041999964,0.7361085222829503,1.434256708714152,,,,,,,,,,,,
48495,0,USTexasWinkler,Texas,Winkler,2022-04-28 09:13:11,2021-04-08,0.4132857507242602,0.8710954694613211,1.9720256580770776,,,,,,,,,,,,
48495,0,USTexasWinkler,Texas,Winkler,2022-04-28 09:13:11,2021-04-09,0.4132857507242602,0.8710954694613211,1.9720256580770776,,,,,,,,,,,,
48495,0,USTexasWinkler,Texas,Winkler,2022-04-28 09:13:11,2021-04-10,0.4132857507242602,0.8710954694613211,1.9720256580770776,,,,,,,,,,,,
48495,0,USTexasWinkler,Texas,Winkler,2022-04-28 09:13:11,2021-04-11,0.4132857507242602,0.8710954694613211,1.9720256580770776,,,,,,,,,,,,
48495,0,USTexasWinkler,Texas,Winkler,2022-04-28 09:13:11,2021-04-12,0.4132857507242602,0.8710954694613211,1.9720256580770776,,,,,,,,,,,,
48495,0,USTexasWinkler,Texas,Winkler,2022-04-28 09:13:11,2021-04-13,0.4132857507242602,0.8710954694613211,1.9720256580770776,,,,,,,,,,,,
48495,0,USTexasWinkler,Texas,Winkler,2022-04-28 09:13:11,2021-04-14,0.4132857507242602,0.8710954694613211,1.9720256580770776,,,,,,,,,,,,
48495,0,USTexasWinkler,Texas,Winkler,2022-04-28 09:13:11,2021-04-15,0.3056194537927233,0.6645748911724098,1.5533425838342283,,,,,,,,,,,,
48495,0,USTexasWinkler,Texas,Winkler,2022-04-28 09:13:11,2021-04-16,0.3056194537927233,0.6645748911724098,1.5533425838342283,,,,,,,,,,,,
48495,0,USTexasWinkler,Texas,Winkler,2022-04-28 09:13:11,2021-04-17,0.3056194537927233,0.6645748911724098,1.5533425838342283,,,,,,,,,,,,
48495,0,USTexasWinkler,Texas,Winkler,2022-04-28 09:13:11,2021-04-18,0.3056194537927233,0.6645748911724098,1.5533425838342283,,,,,,,,,,,,
48495,0,USTexasWinkler,Texas,Winkler,2022-04-28 09:13:11,2021-04-19,0.3056194537927233,0.6645748911724098,1.5533425838342283,,,,,,,,,,,,
48495,0,USTexasWinkler,Texas,Winkler,2022-04-28 09:13:11,2021-04-20,0.3056194537927233,0.6645748911724098,1.5533425838342283,,,,,,,,,,,,
48495,0,USTexasWinkler,Texas,Winkler,2022-04-28 09:13:11,2021-04-21,0.3056194537927233,0.6645748911724098,1.5533425838342283,,,,,,,,,,,,
48495,0,USTexasWinkler,Texas,Winkler,2022-04-28 09:13:11,2021-04-22,0.25608145703111274,0.580413597771799,1.4150268976031974,,,,,,,,,,,,
48495,0,USTexasWinkler,Texas,Winkler,2022-04-28 09:13:11,2021-04-23,0.25608145703111274,0.580413597771799,1.4150268976031974,,,,,,,,,,,,
48495,0,USTexasWinkler,Texas,Winkler,2022-04-28 09:13:11,2021-04-24,0.25608145703111274,0.580413597771799,1.4150268976031974,,,,,,,,,,,,
48495,0,USTexasWinkler,Texas,Winkler,2022-04-28 09:13:11,2021-04-25,0.25608145703111274,0.580413597771799,1.4150268976031974,,,,,,,,,,,,
48495,0,USTexasWinkler,Texas,Winkler,2022-04-28 09:13:11,2021-04-26,0.25608145703111274,0.580413597771799,1.4150268976031974,,,,,,,,,,,,
48495,0,USTexasWinkler,Texas,Winkler,2022-04-28 09:13:11,2021-04-27,0.25608145703111274,0.580413597771799,1.4150268976031974,,,,,,,,,,,,
48495,0,USTexasWinkler,Texas,Winkler,2022-04-28 09:13:11,2021-04-28,0.25608145703111274,0.580413597771799,1.4150268976031974,,,,,,,,,,,,
48495,0,USTexasWinkler,Texas,Winkler,2022-04-28 09:13:11,2021-04-29,0,0,0,,,,,,,,,,,,
48495,0,USTexasWinkler,Texas,Winkler,2022-04-28 09:13:11,2021-04-30,0,0,0,,,,,,,,,,,,
48495,0,USTexasWinkler,Texas,Winkler,2022-04-28 09:13:11,2021-05-01,0,0,0,,,,,,,,,,,,
48495,0,USTexasWinkler,Texas,Winkler,2022-04-28 09:13:11,2021-05-02,0,0,0,,,,,,,,,,,,
48495,0,USTexasWinkler,Texas,Winkler,2022-04-28 09:13:11,2021-05-03,0,0,0,,,,,,,,,,,,
48495,0,USTexasWinkler,Texas,Winkler,2022-04-28 09:13:11,2021-05-04,0,0,0,,,,,,,,,,,,
48495,0,USTexasWinkler,Texas,Winkler,2022-04-28 09:13:11,2021-05-05,0,0,0,,,,,,,,,,,,
48495,0,USTexasWinkler,Texas,Winkler,2022-04-28 09:13:11,2021-05-06,0.1952025401504359,0.4488745434385965,1.110468877612876,,,,,,,,,,,,
48495,0,USTexasWinkler,Texas,Winkler,2022-04-28 09:13:11,2021-05-07,0.1952025401504359,0.4488745434385965,1.110468877612876,,,,,,,,,,,,
48495,0,USTexasWinkler,Texas,Winkler,2022-04-28 09:13:11,2021-05-08,0.1952025401504359,0.4488745434385965,1.110468877612876,,,,,,,,,,,,
48495,0,USTexasWinkler,Texas,Winkler,2022-04-28 09:13:11,2021-05-09,0.1952025401504359,0.4488745434385965,1.110468877612876,,,,,,,,,,,,
48495,0,USTexasWinkler,Texas,Winkler,2022-04-28 09:13:11,2021-05-10,0.1952025401504359,0.4488745434385965,1.110468877612876,,,,,,,,,,,,
48495,0,USTexasWinkler,Texas,Winkler,2022-04-28 09:13:11,2021-05-11,0.1952025401504359,0.4488745434385965,1.110468877612876,,,,,,,,,,,,
48495,0,USTexasWinkler,Texas,Winkler,2022-04-28 09:13:11,2021-05-12,0.1952025401504359,0.4488745434385965,1.110468877612876,,,,,,,,,,,,
48495,0,USTexasWinkler,Texas,Winkler,2022-04-28 09:13:11,2021-05-13,0,0,0,,,,,,,,,,,,
48495,0,USTexasWinkler,Texas,Winkler,2022-04-28 09:13:11,2021-05-14,0,0,0,,,,,,,,,,,,
48495,0,USTexasWinkler,Texas,Winkler,2022-04-28 09:13:11,2021-05-15,0,0,0,,,,,,,,,,,,
48495,0,USTexasWinkler,Texas,Winkler,2022-04-28 09:13:11,2021-05-16,0,0,0,,,,,,,,,,,,
48495,0,USTexasWinkler,Texas,Winkler,2022-04-28 09:13:11,2021-05-17,0,0,0,,,,,,,,,,,,
48495,0,USTexasWinkler,Texas,Winkler,2022-04-28 09:13:11,2021-05-18,0,0,0,,,,,,,,,,,,
48495,0,USTexasWinkler,Texas,Winkler,2022-04-28 09:13:11,2021-05-19,0,0,0,,,,,,,,,,,,
48495,0,USTexasWinkler,Texas,Winkler,2022-04-28 09:13:11,2021-05-20,0,0,0,,,,,,,,,,,,
48495,0,USTexasWinkler,Texas,Winkler,2022-04-28 09:13:11,2021-05-21,0,0,0,,,,,,,,,,,,
48495,0,USTexasWinkler,Texas,Winkler,2022-04-28 09:13:11,2021-05-22,0,0,0,,,,,,,,,,,,
48495,0,USTexasWinkler,Texas,Winkler,2022-04-28 09:13:11,2021-05-23,0,0,0,,,,,,,,,,,,
48495,0,USTexasWinkler,Texas,Winkler,2022-04-28 09:13:11,2021-05-24,0,0,0,,,,,,,,,,,,
48495,0,USTexasWinkler,Texas,Winkler,2022-04-28 09:13:11,2021-05-25,0,0,0,,,,,,,,,,,,
48495,0,USTexasWinkler,Texas,Winkler,2022-04-28 09:13:11,2021-05-26,0,0,0,,,,,,,,,,,,
48495,0,USTexasWinkler,Texas,Winkler,2022-04-28 09:13:11,2021-05-27,0.07390029689825034,0.19013079262397758,0.5263292056255339,,,,,,,,,,,,
48495,0,USTexasWinkler,Texas,Winkler,2022-04-28 09:13:11,2021-05-28,0.07390029689825034,0.19013079262397758,0.5263292056255339,,,,,,,,,,,,
48495,0,USTexasWinkler,Texas,Winkler,2022-04-28 09:13:11,2021-05-29,0.07390029689825034,0.19013079262397758,0.5263292056255339,,,,,,,,,,,,
48495,0,USTexasWinkler,Texas,Winkler,2022-04-28 09:13:11,2021-05-30,0.07390029689825034,0.19013079262397758,0.5263292056255339,,,,,,,,,,,,
48495,0,USTexasWinkler,Texas,Winkler,2022-04-28 09:13:11,2021-05-31,0.07390029689825034,0.19013079262397758,0.5263292056255339,,,,,,,,,,,,
48495,0,USTexasWinkler,Texas,Winkler,2022-04-28 09:13:11,2021-06-01,0.07390029689825034,0.19013079262397758,0.5263292056255339,,,,,,,,,,,,
48495,0,USTexasWinkler,Texas,Winkler,2022-04-28 09:13:11,2021-06-02,0.07390029689825034,0.19013079262397758,0.5263292056255339,,,,,,,,,,,,
48495,0,USTexasWinkler,Texas,Winkler,2022-04-28 09:13:11,2021-06-03,0.1553102635123201,0.4171975142089293,1.2052789969507813,,,,,,,,,,,,
48495,0,USTexasWinkler,Texas,Winkler,2022-04-28 09:13:11,2021-06-04,0.1553102635123201,0.4171975142089293,1.2052789969507813,,,,,,,,,,,,
48495,0,USTexasWinkler,Texas,Winkler,2022-04-28 09:13:11,2021-06-05,0.1553102635123201,0.4171975142089293,1.2052789969507813,,,,,,,,,,,,
48495,0,USTexasWinkler,Texas,Winkler,2022-04-28 09:13:11,2021-06-06,0.1553102635123201,0.4171975142089293,1.2052789969507813,,,,,,,,,,,,
48495,0,USTexasWinkler,Texas,Winkler,2022-04-28 09:13:11,2021-06-07,0.1553102635123201,0.4171975142089293,1.2052789969507813,,,,,,,,,,,,
48495,0,USTexasWinkler,Texas,Winkler,2022-04-28 09:13:11,2021-06-08,0.1553102635123201,0.4171975142089293,1.2052789969507813,,,,,,,,,,,,
48495,0,USTexasWinkler,Texas,Winkler,2022-04-28 09:13:11,2021-06-09,0.1553102635123201,0.4171975142089293,1.2052789969507813,,,,,,,,,,,,
48495,0,USTexasWinkler,Texas,Winkler,2022-04-28 09:13:11,2021-06-10,0.3866292110558503,0.6791406150227681,1.2700363659884522,,,,,,,,,,,,
48495,0,USTexasWinkler,Texas,Winkler,2022-04-28 09:13:11,2021-06-11,0.3866292110558503,0.6791406150227681,1.2700363659884522,,,,,,,,,,,,
48495,0,USTexasWinkler,Texas,Winkler,2022-04-28 09:13:11,2021-06-12,0.3866292110558503,0.6791406150227681,1.2700363659884522,,,,,,,,,,,,
48495,0,USTexasWinkler,Texas,Winkler,2022-04-28 09:13:11,2021-06-13,0.3866292110558503,0.6791406150227681,1.2700363659884522,,,,,,,,,,,,
48495,0,USTexasWinkler,Texas,Winkler,2022-04-28 09:13:11,2021-06-14,0.3866292110558503,0.6791406150227681,1.2700363659884522,,,,,,,,,,,,
48495,0,USTexasWinkler,Texas,Winkler,2022-04-28 09:13:11,2021-06-15,0.3866292110558503,0.6791406150227681,1.2700363659884522,,,,,,,,,,,,
48495,0,USTexasWinkler,Texas,Winkler,2022-04-28 09:13:11,2021-06-16,0.3866292110558503,0.6791406150227681,1.2700363659884522,,,,,,,,,,,,
48495,0,USTexasWinkler,Texas,Winkler,2022-04-28 09:13:11,2021-06-17,0.1332071330821837,0.3127330878078637,0.7900238383418082,,,,,,,,,,,,
48495,0,USTexasWinkler,Texas,Winkler,2022-04-28 09:13:11,2021-06-18,0.1332071330821837,0.3127330878078637,0.7900238383418082,,,,,,,,,,,,
48495,0,USTexasWinkler,Texas,Winkler,2022-04-28 09:13:11,2021-06-19,0.1332071330821837,0.3127330878078637,0.7900238383418082,,,,,,,,,,,,
48495,0,USTexasWinkler,Texas,Winkler,2022-04-28 09:13:11,2021-06-20,0.1332071330821837,0.3127330878078637,0.7900238383418082,,,,,,,,,,,,
48495,0,USTexasWinkler,Texas,Winkler,2022-04-28 09:13:11,2021-06-21,0.1332071330821837,0.3127330878078637,0.7900238383418082,,,,,,,,,,,,
48495,0,USTexasWinkler,Texas,Winkler,2022-04-28 09:13:11,2021-06-22,0.1332071330821837,0.3127330878078637,0.7900238383418082,,,,,,,,,,,,
48495,0,USTexasWinkler,Texas,Winkler,2022-04-28 09:13:11,2021-06-23,0.1332071330821837,0.3127330878078637,0.7900238383418082,,,,,,,,,,,,
48495,0,USTexasWinkler,Texas,Winkler,2022-04-28 09:13:11,2021-06-24,0.14264988416074292,0.3557794642767064,0.9549032252223262,,,,,,,,,,,,
48495,0,USTexasWinkler,Texas,Winkler,2022-04-28 09:13:11,2021-06-25,0.14264988416074292,0.3557794642767064,0.9549032252223262,,,,,,,,,,,,
48495,0,USTexasWinkler,Texas,Winkler,2022-04-28 09:13:11,2021-06-26,0.14264988416074292,0.3557794642767064,0.9549032252223262,,,,,,,,,,,,
48495,0,USTexasWinkler,Texas,Winkler,2022-04-28 09:13:11,2021-06-27,0.14264988416074292,0.3557794642767064,0.9549032252223262,,,,,,,,,,,,
48495,0,USTexasWinkler,Texas,Winkler,2022-04-28 09:13:11,2021-06-28,0.14264988416074292,0.3557794642767064,0.9549032252223262,,,,,,,,,,,,
48495,0,USTexasWinkler,Texas,Winkler,2022-04-28 09:13:11,2021-06-29,0.14264988416074292,0.3557794642767064,0.9549032252223262,,,,,,,,,,,,
48495,0,USTexasWinkler,Texas,Winkler,2022-04-28 09:13:11,2021-06-30,0.14264988416074292,0.3557794642767064,0.9549032252223262,,,,,,,,,,,,
48495,0,USTexasWinkler,Texas,Winkler,2022-04-28 09:13:11,2021-07-01,0,0,0,,,,,,,,,,,,
48495,0,USTexasWinkler,Texas,Winkler,2022-04-28 09:13:11,2021-07-02,0,0,0,,,,,,,,,,,,
48495,0,USTexasWinkler,Texas,Winkler,2022-04-28 09:13:11,2021-07-03,0,0,0,,,,,,,,,,,,
48495,0,USTexasWinkler,Texas,Winkler,2022-04-28 09:13:11,2021-07-04,0,0,0,,,,,,,,,,,,
48495,0,USTexasWinkler,Texas,Winkler,2022-04-28 09:13:11,2021-07-05,0,0,0,,,,,,,,,,,,
48495,0,USTexasWinkler,Texas,Winkler,2022-04-28 09:13:11,2021-07-06,0,0,0,,,,,,,,,,,,
48495,0,USTexasWinkler,Texas,Winkler,2022-04-28 09:13:11,2021-07-07,0,0,0,,,,,,,,,,,,
48495,0,USTexasWinkler,Texas,Winkler,2022-04-28 09:13:11,2021-07-08,0.37222646736566295,0.8202581504200036,1.9434288126467807,,,,,,,,,,,,
48495,0,USTexasWinkler,Texas,Winkler,2022-04-28 09:13:11,2021-07-09,0.37222646736566295,0.8202581504200036,1.9434288126467807,,,,,,,,,,,,
48495,0,USTexasWinkler,Texas,Winkler,2022-04-28 09:13:11,2021-07-10,0.37222646736566295,0.8202581504200036,1.9434288126467807,,,,,,,,,,,,
48495,0,USTexasWinkler,Texas,Winkler,2022-04-28 09:13:11,2021-07-11,0.37222646736566295,0.8202581504200036,1.9434288126467807,,,,,,,,,,,,
48495,0,USTexasWinkler,Texas,Winkler,2022-04-28 09:13:11,2021-07-12,0.37222646736566295,0.8202581504200036,1.9434288126467807,,,,,,,,,,,,
48495,0,USTexasWinkler,Texas,Winkler,2022-04-28 09:13:11,2021-07-13,0.37222646736566295,0.8202581504200036,1.9434288126467807,,,,,,,,,,,,
48495,0,USTexasWinkler,Texas,Winkler,2022-04-28 09:13:11,2021-07-14,0.37222646736566295,0.8202581504200036,1.9434288126467807,,,,,,,,,,,,
48495,0,USTexasWinkler,Texas,Winkler,2022-04-28 09:13:11,2021-07-15,0,0,0,,,,,,,,,,,,
48495,0,USTexasWinkler,Texas,Winkler,2022-04-28 09:13:11,2021-07-16,0,0,0,,,,,,,,,,,,
48495,0,USTexasWinkler,Texas,Winkler,2022-04-28 09:13:11,2021-07-17,0,0,0,,,,,,,,,,,,
48495,0,USTexasWinkler,Texas,Winkler,2022-04-28 09:13:11,2021-07-18,0,0,0,,,,,,,,,,,,
48495,0,USTexasWinkler,Texas,Winkler,2022-04-28 09:13:11,2021-07-19,0,0,0,,,,,,,,,,,,
48495,0,USTexasWinkler,Texas,Winkler,2022-04-28 09:13:11,2021-07-20,0,0,0,,,,,,,,,,,,
48495,0,USTexasWinkler,Texas,Winkler,2022-04-28 09:13:11,2021-07-21,0,0,0,,,,,,,,,,,,
48495,0,USTexasWinkler,Texas,Winkler,2022-04-28 09:13:11,2021-07-22,0.45729677230780974,1.0553163356050501,2.62014202717173,,,,,,,,,,,,
48495,0,USTexasWinkler,Texas,Winkler,2022-04-28 09:13:11,2021-07-23,0.45729677230780974,1.0553163356050501,2.62014202717173,,,,,,,,,,,,
48495,0,USTexasWinkler,Texas,Winkler,2022-04-28 09:13:11,2021-07-24,0.45729677230780974,1.0553163356050501,2.62014202717173,,,,,,,,,,,,
48495,0,USTexasWinkler,Texas,Winkler,2022-04-28 09:13:11,2021-07-25,0.45729677230780974,1.0553163356050501,2.62014202717173,,,,,,,,,,,,
48495,0,USTexasWinkler,Texas,Winkler,2022-04-28 09:13:11,2021-07-26,0.45729677230780974,1.0553163356050501,2.62014202717173,,,,,,,,,,,,
48495,0,USTexasWinkler,Texas,Winkler,2022-04-28 09:13:11,2021-07-27,0.45729677230780974,1.0553163356050501,2.62014202717173,,,,,,,,,,,,
48495,0,USTexasWinkler,Texas,Winkler,2022-04-28 09:13:11,2021-07-28,0.45729677230780974,1.0553163356050501,2.62014202717173,,,,,,,,,,,,
48495,0,USTexasWinkler,Texas,Winkler,2022-04-28 09:13:11,2021-07-29,0.4963769617277702,0.6190020282999023,0.7902727425692747,,,,,,,,,,,,
48495,0,USTexasWinkler,Texas,Winkler,2022-04-28 09:13:11,2021-07-30,0.4963769617277702,0.6190020282999023,0.7902727425692747,,,,,,,,,,,,
48495,0,USTexasWinkler,Texas,Winkler,2022-04-28 09:13:11,2021-07-31,0.4963769617277702,0.6190020282999023,0.7902727425692747,,,,,,,,,,,,
48495,0,USTexasWinkler,Texas,Winkler,2022-04-28 09:13:11,2021-08-01,0.4963769617277702,0.6190020282999023,0.7902727425692747,,,,,,,,,,,,
48495,0,USTexasWinkler,Texas,Winkler,2022-04-28 09:13:11,2021-08-02,0.4963769617277702,0.6190020282999023,0.7902727425692747,,,,,,,,,,,,
48495,0,USTexasWinkler,Texas,Winkler,2022-04-28 09:13:11,2021-08-03,0.4963769617277702,0.6190020282999023,0.7902727425692747,,,,,,,,,,,,
48495,0,USTexasWinkler,Texas,Winkler,2022-04-28 09:13:11,2021-08-04,0.4963769617277702,0.6190020282999023,0.7902727425692747,,,,,,,,,,,,
48495,0,USTexasWinkler,Texas,Winkler,2022-04-28 09:13:11,2021-08-05,1.0131522113532263,2.73004338726414,7.911349796313514,,,,,,,,,,,,
48495,0,USTexasWinkler,Texas,Winkler,2022-04-28 09:13:11,2021-08-06,1.0131522113532263,2.73004338726414,7.911349796313514,,,,,,,,,,,,
48495,0,USTexasWinkler,Texas,Winkler,2022-04-28 09:13:11,2021-08-07,1.0131522113532263,2.73004338726414,7.911349796313514,,,,,,,,,,,,
48495,0,USTexasWinkler,Texas,Winkler,2022-04-28 09:13:11,2021-08-08,1.0131522113532263,2.73004338726414,7.911349796313514,,,,,,,,,,,,
48495,0,USTexasWinkler,Texas,Winkler,2022-04-28 09:13:11,2021-08-09,1.0131522113532263,2.73004338726414,7.911349796313514,,,,,,,,,,,,
48495,0,USTexasWinkler,Texas,Winkler,2022-04-28 09:13:11,2021-08-10,1.0131522113532263,2.73004338726414,7.911349796313514,,,,,,,,,,,,
48495,0,USTexasWinkler,Texas,Winkler,2022-04-28 09:13:11,2021-08-11,1.0131522113532263,2.73004338726414,7.911349796313514,,,,,,,,,,,,
48495,0,USTexasWinkler,Texas,Winkler,2022-04-28 09:13:11,2021-08-12,1.6778263292956799,4.61933759912138,13.672856660117372,,,,,,,,,,,,
48495,0,USTexasWinkler,Texas,Winkler,2022-04-28 09:13:11,2021-08-13,1.6778263292956799,4.61933759912138,13.672856660117372,,,,,,,,,,,,
48495,0,USTexasWinkler,Texas,Winkler,2022-04-28 09:13:11,2021-08-14,1.6778263292956799,4.61933759912138,13.672856660117372,,,,,,,,,,,,
48495,0,USTexasWinkler,Texas,Winkler,2022-04-28 09:13:11,2021-08-15,1.6778263292956799,4.61933759912138,13.672856660117372,,,,,,,,,,,,
48495,0,USTexasWinkler,Texas,Winkler,2022-04-28 09:13:11,2021-08-16,1.6778263292956799,4.61933759912138,13.672856660117372,,,,,,,,,,,,
48495,0,USTexasWinkler,Texas,Winkler,2022-04-28 09:13:11,2021-08-17,1.6778263292956799,4.61933759912138,13.672856660117372,,,,,,,,,,,,
48495,0,USTexasWinkler,Texas,Winkler,2022-04-28 09:13:11,2021-08-18,1.6778263292956799,4.61933759912138,13.672856660117372,,,,,,,,,,,,
48495,0,USTexasWinkler,Texas,Winkler,2022-04-28 09:13:11,2021-08-19,2.1997122874267454,5.968587554972109,17.41490876349326,,,,,,,,,,,,
48495,0,USTexasWinkler,Texas,Winkler,2022-04-28 09:13:11,2021-08-20,2.1997122874267454,5.968587554972109,17.41490876349326,,,,,,,,,,,,
48495,0,USTexasWinkler,Texas,Winkler,2022-04-28 09:13:11,2021-08-21,2.1997122874267454,5.968587554972109,17.41490876349326,,,,,,,,,,,,
48495,0,USTexasWinkler,Texas,Winkler,2022-04-28 09:13:11,2021-08-22,2.1997122874267454,5.968587554972109,17.41490876349326,,,,,,,,,,,,
48495,0,USTexasWinkler,Texas,Winkler,2022-04-28 09:13:11,2021-08-23,2.1997122874267454,5.968587554972109,17.41490876349326,,,,,,,,,,,,
48495,0,USTexasWinkler,Texas,Winkler,2022-04-28 09:13:11,2021-08-24,2.1997122874267454,5.968587554972109,17.41490876349326,,,,,,,,,,,,
48495,0,USTexasWinkler,Texas,Winkler,2022-04-28 09:13:11,2021-08-25,2.1997122874267454,5.968587554972109,17.41490876349326,,,,,,,,,,,,
48495,0,USTexasWinkler,Texas,Winkler,2022-04-28 09:13:11,2021-08-26,1.3184099714683994,3.365692936527901,9.24529054612808,,,,,,,,,,,,
48495,0,USTexasWinkler,Texas,Winkler,2022-04-28 09:13:11,2021-08-27,1.3184099714683994,3.365692936527901,9.24529054612808,,,,,,,,,,,,
48495,0,USTexasWinkler,Texas,Winkler,2022-04-28 09:13:11,2021-08-28,1.3184099714683994,3.365692936527901,9.24529054612808,,,,,,,,,,,,
48495,0,USTexasWinkler,Texas,Winkler,2022-04-28 09:13:11,2021-08-29,1.3184099714683994,3.365692936527901,9.24529054612808,,,,,,,,,,,,
48495,0,USTexasWinkler,Texas,Winkler,2022-04-28 09:13:11,2021-08-30,1.3184099714683994,3.365692936527901,9.24529054612808,,,,,,,,,,,,
48495,0,USTexasWinkler,Texas,Winkler,2022-04-28 09:13:11,2021-08-31,1.3184099714683994,3.365692936527901,9.24529054612808,,,,,,,,,,,,
48495,0,USTexasWinkler,Texas,Winkler,2022-04-28 09:13:11,2021-09-01,1.3184099714683994,3.365692936527901,9.24529054612808,,,,,,,,,,,,
48495,0,USTexasWinkler,Texas,Winkler,2022-04-28 09:13:11,2021-09-02,2.368618608681582,5.368247356464391,13.086914990487381,,,,,,,,,,,,
48495,0,USTexasWinkler,Texas,Winkler,2022-04-28 09:13:11,2021-09-03,2.368618608681582,5.368247356464391,13.086914990487381,,,,,,,,,,,,
48495,0,USTexasWinkler,Texas,Winkler,2022-04-28 09:13:11,2021-09-04,2.368618608681582,5.368247356464391,13.086914990487381,,,,,,,,,,,,
48495,0,USTexasWinkler,Texas,Winkler,2022-04-28 09:13:11,2021-09-05,2.368618608681582,5.368247356464391,13.086914990487381,,,,,,,,,,,,
48495,0,USTexasWinkler,Texas,Winkler,2022-04-28 09:13:11,2021-09-06,2.368618608681582,5.368247356464391,13.086914990487381,,,,,,,,,,,,
48495,0,USTexasWinkler,Texas,Winkler,2022-04-28 09:13:11,2021-09-07,2.368618608681582,5.368247356464391,13.086914990487381,,,,,,,,,,,,
48495,0,USTexasWinkler,Texas,Winkler,2022-04-28 09:13:11,2021-09-08,2.368618608681582,5.368247356464391,13.086914990487381,,,,,,,,,,,,
48495,0,USTexasWinkler,Texas,Winkler,2022-04-28 09:13:11,2021-09-09,2.6617621299046132,6.108536582703347,15.081262626064651,,,,,,,,,,,,
48495,0,USTexasWinkler,Texas,Winkler,2022-04-28 09:13:11,2021-09-10,2.6617621299046132,6.108536582703347,15.081262626064651,,,,,,,,,,,,
48495,0,USTexasWinkler,Texas,Winkler,2022-04-28 09:13:11,2021-09-11,2.6617621299046132,6.108536582703347,15.081262626064651,,,,,,,,,,,,
48495,0,USTexasWinkler,Texas,Winkler,2022-04-28 09:13:11,2021-09-12,2.6617621299046132,6.108536582703347,15.081262626064651,,,,,,,,,,,,
48495,0,USTexasWinkler,Texas,Winkler,2022-04-28 09:13:11,2021-09-13,2.6617621299046132,6.108536582703347,15.081262626064651,,,,,,,,,,,,
48495,0,USTexasWinkler,Texas,Winkler,2022-04-28 09:13:11,2021-09-14,2.6617621299046132,6.108536582703347,15.081262626064651,,,,,,,,,,,,
48495,0,USTexasWinkler,Texas,Winkler,2022-04-28 09:13:11,2021-09-15,2.6617621299046132,6.108536582703347,15.081262626064651,,,,,,,,,,,,
48495,0,USTexasWinkler,Texas,Winkler,2022-04-28 09:13:11,2021-09-16,2.447394515510536,6.316243720318774,17.538892832809257,,,,,,,,,,,,
48495,0,USTexasWinkler,Texas,Winkler,2022-04-28 09:13:11,2021-09-17,2.447394515510536,6.316243720318774,17.538892832809257,,,,,,,,,,,,
48495,0,USTexasWinkler,Texas,Winkler,2022-04-28 09:13:11,2021-09-18,2.447394515510536,6.316243720318774,17.538892832809257,,,,,,,,,,,,
48495,0,USTexasWinkler,Texas,Winkler,2022-04-28 09:13:11,2021-09-19,2.447394515510536,6.316243720318774,17.538892832809257,,,,,,,,,,,,
48495,0,USTexasWinkler,Texas,Winkler,2022-04-28 09:13:11,2021-09-20,2.447394515510536,6.316243720318774,17.538892832809257,,,,,,,,,,,,
48495,0,USTexasWinkler,Texas,Winkler,2022-04-28 09:13:11,2021-09-21,2.447394515510536,6.316243720318774,17.538892832809257,,,,,,,,,,,,
48495,0,USTexasWinkler,Texas,Winkler,2022-04-28 09:13:11,2021-09-22,2.447394515510536,6.316243720318774,17.538892832809257,,,,,,,,,,,,
48495,0,USTexasWinkler,Texas,Winkler,2022-04-28 09:13:11,2021-09-23,1.9004226370052884,3.0753708646654596,5.262719901161842,,,,,,,,,,,,
48495,0,USTexasWinkler,Texas,Winkler,2022-04-28 09:13:11,2021-09-24,1.9004226370052884,3.0753708646654596,5.262719901161842,,,,,,,,,,,,
48495,0,USTexasWinkler,Texas,Winkler,2022-04-28 09:13:11,2021-09-25,1.9004226370052884,3.0753708646654596,5.262719901161842,,,,,,,,,,,,
48495,0,USTexasWinkler,Texas,Winkler,2022-04-28 09:13:11,2021-09-26,1.9004226370052884,3.0753708646654596,5.262719901161842,,,,,,,,,,,,
48495,0,USTexasWinkler,Texas,Winkler,2022-04-28 09:13:11,2021-09-27,1.9004226370052884,3.0753708646654596,5.262719901161842,,,,,,,,,,,,
48495,0,USTexasWinkler,Texas,Winkler,2022-04-28 09:13:11,2021-09-28,1.9004226370052884,3.0753708646654596,5.262719901161842,,,,,,,,,,,,
48495,0,USTexasWinkler,Texas,Winkler,2022-04-28 09:13:11,2021-09-29,1.9004226370052884,3.0753708646654596,5.262719901161842,,,,,,,,,,,,
48495,0,USTexasWinkler,Texas,Winkler,2022-04-28 09:13:11,2021-09-30,3.4866587343155864,8.524977444342943,22.431487002889323,,,,,,,,,,,,
48495,0,USTexasWinkler,Texas,Winkler,2022-04-28 09:13:11,2021-10-01,3.4866587343155864,8.524977444342943,22.431487002889323,,,,,,,,,,,,
48495,0,USTexasWinkler,Texas,Winkler,2022-04-28 09:13:11,2021-10-02,3.4866587343155864,8.524977444342943,22.431487002889323,,,,,,,,,,,,
48495,0,USTexasWinkler,Texas,Winkler,2022-04-28 09:13:11,2021-10-03,3.4866587343155864,8.524977444342943,22.431487002889323,,,,,,,,,,,,
48495,0,USTexasWinkler,Texas,Winkler,2022-04-28 09:13:11,2021-10-04,3.4866587343155864,8.524977444342943,22.431487002889323,,,,,,,,,,,,
48495,0,USTexasWinkler,Texas,Winkler,2022-04-28 09:13:11,2021-10-05,3.4866587343155864,8.524977444342943,22.431487002889323,,,,,,,,,,,,
48495,0,USTexasWinkler,Texas,Winkler,2022-04-28 09:13:11,2021-10-06,3.4866587343155864,8.524977444342943,22.431487002889323,,,,,,,,,,,,
48495,0,USTexasWinkler,Texas,Winkler,2022-04-28 09:13:11,2021-10-07,3.695033106979205,8.884865575930387,22.990774973170712,,,,,,,,,,,,
48495,0,USTexasWinkler,Texas,Winkler,2022-04-28 09:13:11,2021-10-08,3.695033106979205,8.884865575930387,22.990774973170712,,,,,,,,,,,,
48495,0,USTexasWinkler,Texas,Winkler,2022-04-28 09:13:11,2021-10-09,3.695033106979205,8.884865575930387,22.990774973170712,,,,,,,,,,,,
48495,0,USTexasWinkler,Texas,Winkler,2022-04-28 09:13:11,2021-10-10,3.695033106979205,8.884865575930387,22.990774973170712,,,,,,,,,,,,
48495,0,USTexasWinkler,Texas,Winkler,2022-04-28 09:13:11,2021-10-11,3.695033106979205,8.884865575930387,22.990774973170712,,,,,,,,,,,,
48495,0,USTexasWinkler,Texas,Winkler,2022-04-28 09:13:11,2021-10-12,3.695033106979205,8.884865575930387,22.990774973170712,,,,,,,,,,,,
48495,0,USTexasWinkler,Texas,Winkler,2022-04-28 09:13:11,2021-10-13,3.695033106979205,8.884865575930387,22.990774973170712,,,,,,,,,,,,
48495,0,USTexasWinkler,Texas,Winkler,2022-04-28 09:13:11,2021-10-14,2.088000737779997,5.588665308175324,16.08830061047504,,,,,,,,,,,,
48495,0,USTexasWinkler,Texas,Winkler,2022-04-28 09:13:11,2021-10-15,2.088000737779997,5.588665308175324,16.08830061047504,,,,,,,,,,,,
48495,0,USTexasWinkler,Texas,Winkler,2022-04-28 09:13:11,2021-10-16,2.088000737779997,5.588665308175324,16.08830061047504,,,,,,,,,,,,
48495,0,USTexasWinkler,Texas,Winkler,2022-04-28 09:13:11,2021-10-17,2.088000737779997,5.588665308175324,16.08830061047504,,,,,,,,,,,,
48495,0,USTexasWinkler,Texas,Winkler,2022-04-28 09:13:11,2021-10-18,2.088000737779997,5.588665308175324,16.08830061047504,,,,,,,,,,,,
48495,0,USTexasWinkler,Texas,Winkler,2022-04-28 09:13:11,2021-10-19,2.088000737779997,5.588665308175324,16.08830061047504,,,,,,,,,,,,
48495,0,USTexasWinkler,Texas,Winkler,2022-04-28 09:13:11,2021-10-20,2.088000737779997,5.588665308175324,16.08830061047504,,,,,,,,,,,,
48495,0,USTexasWinkler,Texas,Winkler,2022-04-28 09:13:11,2021-10-21,3.220722207764157,8.057114642767603,21.690557231553235,,,,,,,,,,,,
48495,0,USTexasWinkler,Texas,Winkler,2022-04-28 09:13:11,2021-10-22,3.220722207764157,8.057114642767603,21.690557231553235,,,,,,,,,,,,
48495,0,USTexasWinkler,Texas,Winkler,2022-04-28 09:13:11,2021-10-23,3.220722207764157,8.057114642767603,21.690557231553235,,,,,,,,,,,,
48495,0,USTexasWinkler,Texas,Winkler,2022-04-28 09:13:11,2021-10-24,3.220722207764157,8.057114642767603,21.690557231553235,,,,,,,,,,,,
48495,0,USTexasWinkler,Texas,Winkler,2022-04-28 09:13:11,2021-10-25,3.220722207764157,8.057114642767603,21.690557231553235,,,,,,,,,,,,
48495,0,USTexasWinkler,Texas,Winkler,2022-04-28 09:13:11,2021-10-26,3.220722207764157,8.057114642767603,21.690557231553235,,,,,,,,,,,,
48495,0,USTexasWinkler,Texas,Winkler,2022-04-28 09:13:11,2021-10-27,3.220722207764157,8.057114642767603,21.690557231553235,,,,,,,,,,,,
48495,0,USTexasWinkler,Texas,Winkler,2022-04-28 09:13:11,2021-10-28,2.4746804508331737,5.974642079796729,15.523130206155825,,,,,,,,,,,,
48495,0,USTexasWinkler,Texas,Winkler,2022-04-28 09:13:11,2021-10-29,2.4746804508331737,5.974642079796729,15.523130206155825,,,,,,,,,,,,
48495,0,USTexasWinkler,Texas,Winkler,2022-04-28 09:13:11,2021-10-30,2.4746804508331737,5.974642079796729,15.523130206155825,,,,,,,,,,,,
48495,0,USTexasWinkler,Texas,Winkler,2022-04-28 09:13:11,2021-10-31,2.4746804508331737,5.974642079796729,15.523130206155825,,,,,,,,,,,,
48495,0,USTexasWinkler,Texas,Winkler,2022-04-28 09:13:11,2021-11-01,2.4746804508331737,5.974642079796729,15.523130206155825,,,,,,,,,,,,
48495,0,USTexasWinkler,Texas,Winkler,2022-04-28 09:13:11,2021-11-02,2.4746804508331737,5.974642079796729,15.523130206155825,,,,,,,,,,,,
48495,0,USTexasWinkler,Texas,Winkler,2022-04-28 09:13:11,2021-11-03,2.4746804508331737,5.974642079796729,15.523130206155825,,,,,,,,,,,,
48495,0,USTexasWinkler,Texas,Winkler,2022-04-28 09:13:11,2021-11-04,3.5390980826112486,8.616078279834085,22.57390933800354,,,,,,,,,,,,
48495,0,USTexasWinkler,Texas,Winkler,2022-04-28 09:13:11,2021-11-05,3.5390980826112486,8.616078279834085,22.57390933800354,,,,,,,,,,,,
48495,0,USTexasWinkler,Texas,Winkler,2022-04-28 09:13:11,2021-11-06,3.5390980826112486,8.616078279834085,22.57390933800354,,,,,,,,,,,,
48495,0,USTexasWinkler,Texas,Winkler,2022-04-28 09:13:11,2021-11-07,3.5390980826112486,8.616078279834085,22.57390933800354,,,,,,,,,,,,
48495,0,USTexasWinkler,Texas,Winkler,2022-04-28 09:13:11,2021-11-08,3.5390980826112486,8.616078279834085,22.57390933800354,,,,,,,,,,,,
48495,0,USTexasWinkler,Texas,Winkler,2022-04-28 09:13:11,2021-11-09,3.5390980826112486,8.616078279834085,22.57390933800354,,,,,,,,,,,,
48495,0,USTexasWinkler,Texas,Winkler,2022-04-28 09:13:11,2021-11-10,3.5390980826112486,8.616078279834085,22.57390933800354,,,,,,,,,,,,
48495,0,USTexasWinkler,Texas,Winkler,2022-04-28 09:13:11,2021-11-11,1.576352297516432,4.48307980893907,13.699087374797886,,,,,,,,,,,,
48495,0,USTexasWinkler,Texas,Winkler,2022-04-28 09:13:11,2021-11-12,1.576352297516432,4.48307980893907,13.699087374797886,,,,,,,,,,,,
48495,0,USTexasWinkler,Texas,Winkler,2022-04-28 09:13:11,2021-11-13,1.576352297516432,4.48307980893907,13.699087374797886,,,,,,,,,,,,
48495,0,USTexasWinkler,Texas,Winkler,2022-04-28 09:13:11,2021-11-14,1.576352297516432,4.48307980893907,13.699087374797886,,,,,,,,,,,,
48495,0,USTexasWinkler,Texas,Winkler,2022-04-28 09:13:11,2021-11-15,1.576352297516432,4.48307980893907,13.699087374797886,,,,,,,,,,,,
48495,0,USTexasWinkler,Texas,Winkler,2022-04-28 09:13:11,2021-11-16,1.576352297516432,4.48307980893907,13.699087374797886,,,,,,,,,,,,
48495,0,USTexasWinkler,Texas,Winkler,2022-04-28 09:13:11,2021-11-17,1.576352297516432,4.48307980893907,13.699087374797886,,,,,,,,,,,,
48495,0,USTexasWinkler,Texas,Winkler,2022-04-28 09:13:11,2021-11-18,1.3028858880156466,4.085457074827743,13.731491120618566,,,,,,,,,,,,
48495,0,USTexasWinkler,Texas,Winkler,2022-04-28 09:13:11,2021-11-19,1.3028858880156466,4.085457074827743,13.731491120618566,,,,,,,,,,,,
48495,0,USTexasWinkler,Texas,Winkler,2022-04-28 09:13:11,2021-11-20,1.3028858880156466,4.085457074827743,13.731491120618566,,,,,,,,,,,,
48495,0,USTexasWinkler,Texas,Winkler,2022-04-28 09:13:11,2021-11-21,1.3028858880156466,4.085457074827743,13.731491120618566,,,,,,,,,,,,
48495,0,USTexasWinkler,Texas,Winkler,2022-04-28 09:13:11,2021-11-22,1.3028858880156466,4.085457074827743,13.731491120618566,,,,,,,,,,,,
48495,0,USTexasWinkler,Texas,Winkler,2022-04-28 09:13:11,2021-11-23,1.3028858880156466,4.085457074827743,13.731491120618566,,,,,,,,,,,,
48495,0,USTexasWinkler,Texas,Winkler,2022-04-28 09:13:11,2021-11-24,1.3028858880156466,4.085457074827743,13.731491120618566,,,,,,,,,,,,
48495,0,USTexasWinkler,Texas,Winkler,2022-04-28 09:13:11,2021-11-25,1.099332059685516,3.4017377829516535,11.287044213543066,,,,,,,,,,,,
48495,0,USTexasWinkler,Texas,Winkler,2022-04-28 09:13:11,2021-11-26,1.099332059685516,3.4017377829516535,11.287044213543066,,,,,,,,,,,,
48495,0,USTexasWinkler,Texas,Winkler,2022-04-28 09:13:11,2021-11-27,1.099332059685516,3.4017377829516535,11.287044213543066,,,,,,,,,,,,
48495,0,USTexasWinkler,Texas,Winkler,2022-04-28 09:13:11,2021-11-28,1.099332059685516,3.4017377829516535,11.287044213543066,,,,,,,,,,,,
48495,0,USTexasWinkler,Texas,Winkler,2022-04-28 09:13:11,2021-11-29,1.099332059685516,3.4017377829516535,11.287044213543066,,,,,,,,,,,,
48495,0,USTexasWinkler,Texas,Winkler,2022-04-28 09:13:11,2021-11-30,1.099332059685516,3.4017377829516535,11.287044213543066,,,,,,,,,,,,
48495,0,USTexasWinkler,Texas,Winkler,2022-04-28 09:13:11,2021-12-01,1.099332059685516,3.4017377829516535,11.287044213543066,,,,,,,,,,,,
48495,0,USTexasWinkler,Texas,Winkler,2022-04-28 09:13:11,2021-12-02,1.4648999682982216,3.7396588183643344,10.272545051253424,,,,,,,,,,,,
48495,0,USTexasWinkler,Texas,Winkler,2022-04-28 09:13:11,2021-12-03,1.4648999682982216,3.7396588183643344,10.272545051253424,,,,,,,,,,,,
48495,0,USTexasWinkler,Texas,Winkler,2022-04-28 09:13:11,2021-12-04,1.4648999682982216,3.7396588183643344,10.272545051253424,,,,,,,,,,,,
48495,0,USTexasWinkler,Texas,Winkler,2022-04-28 09:13:11,2021-12-05,1.4648999682982216,3.7396588183643344,10.272545051253424,,,,,,,,,,,,
48495,0,USTexasWinkler,Texas,Winkler,2022-04-28 09:13:11,2021-12-06,1.4648999682982216,3.7396588183643344,10.272545051253424,,,,,,,,,,,,
48495,0,USTexasWinkler,Texas,Winkler,2022-04-28 09:13:11,2021-12-07,1.4648999682982216,3.7396588183643344,10.272545051253424,,,,,,,,,,,,
48495,0,USTexasWinkler,Texas,Winkler,2022-04-28 09:13:11,2021-12-08,1.4648999682982216,3.7396588183643344,10.272545051253424,,,,,,,,,,,,
48495,0,USTexasWinkler,Texas,Winkler,2022-04-28 09:13:11,2021-12-09,0.7027653596394468,2.0986263267105616,6.726299368033723,,,,,,,,,,,,
48495,0,USTexasWinkler,Texas,Winkler,2022-04-28 09:13:11,2021-12-10,0.7027653596394468,2.0986263267105616,6.726299368033723,,,,,,,,,,,,
48495,0,USTexasWinkler,Texas,Winkler,2022-04-28 09:13:11,2021-12-11,0.7027653596394468,2.0986263267105616,6.726299368033723,,,,,,,,,,,,
48495,0,USTexasWinkler,Texas,Winkler,2022-04-28 09:13:11,2021-12-12,0.7027653596394468,2.0986263267105616,6.726299368033723,,,,,,,,,,,,
48495,0,USTexasWinkler,Texas,Winkler,2022-04-28 09:13:11,2021-12-13,0.7027653596394468,2.0986263267105616,6.726299368033723,,,,,,,,,,,,
48495,0,USTexasWinkler,Texas,Winkler,2022-04-28 09:13:11,2021-12-14,0.7027653596394468,2.0986263267105616,6.726299368033723,,,,,,,,,,,,
48495,0,USTexasWinkler,Texas,Winkler,2022-04-28 09:13:11,2021-12-15,0.7027653596394468,2.0986263267105616,6.726299368033723,,,,,,,,,,,,
48495,0,USTexasWinkler,Texas,Winkler,2022-04-28 09:13:11,2021-12-16,1.0077210547117232,3.1182596343723494,10.346457195747808,,,,,,,,,,,,
48495,0,USTexasWinkler,Texas,Winkler,2022-04-28 09:13:11,2021-12-17,1.0077210547117232,3.1182596343723494,10.346457195747808,,,,,,,,,,,,
48495,0,USTexasWinkler,Texas,Winkler,2022-04-28 09:13:11,2021-12-18,1.0077210547117232,3.1182596343723494,10.346457195747808,,,,,,,,,,,,
48495,0,USTexasWinkler,Texas,Winkler,2022-04-28 09:13:11,2021-12-19,1.0077210547117232,3.1182596343723494,10.346457195747808,,,,,,,,,,,,
48495,0,USTexasWinkler,Texas,Winkler,2022-04-28 09:13:11,2021-12-20,1.0077210547117232,3.1182596343723494,10.346457195747808,,,,,,,,,,,,
48495,0,USTexasWinkler,Texas,Winkler,2022-04-28 09:13:11,2021-12-21,1.0077210547117232,3.1182596343723494,10.346457195747808,,,,,,,,,,,,
48495,0,USTexasWinkler,Texas,Winkler,2022-04-28 09:13:11,2021-12-22,1.0077210547117232,3.1182596343723494,10.346457195747808,,,,,,,,,,,,
48495,0,USTexasWinkler,Texas,Winkler,2022-04-28 09:13:11,2021-12-23,1.2444886559340254,3.5392735333729513,10.815068980103595,,,,,,,,,,,,
48495,0,USTexasWinkler,Texas,Winkler,2022-04-28 09:13:11,2021-12-24,1.2444886559340254,3.5392735333729513,10.815068980103595,,,,,,,,,,,,
48495,0,USTexasWinkler,Texas,Winkler,2022-04-28 09:13:11,2021-12-25,1.2444886559340254,3.5392735333729513,10.815068980103595,,,,,,,,,,,,
48495,0,USTexasWinkler,Texas,Winkler,2022-04-28 09:13:11,2021-12-26,1.2444886559340254,3.5392735333729513,10.815068980103595,,,,,,,,,,,,
48495,0,USTexasWinkler,Texas,Winkler,2022-04-28 09:13:11,2021-12-27,1.2444886559340254,3.5392735333729513,10.815068980103595,,,,,,,,,,,,
48495,0,USTexasWinkler,Texas,Winkler,2022-04-28 09:13:11,2021-12-28,1.2444886559340254,3.5392735333729513,10.815068980103595,,,,,,,,,,,,
48495,0,USTexasWinkler,Texas,Winkler,2022-04-28 09:13:11,2021-12-29,1.2444886559340254,3.5392735333729513,10.815068980103595,,,,,,,,,,,,
48495,0,USTexasWinkler,Texas,Winkler,2022-04-28 09:13:11,2021-12-30,2.7666784565357765,7.025936377943073,19.19929972529546,,,,,,,,,,,,
48495,0,USTexasWinkler,Texas,Winkler,2022-04-28 09:13:11,2021-12-31,2.7666784565357765,7.025936377943073,19.19929972529546,,,,,,,,,,,,
48495,0,USTexasWinkler,Texas,Winkler,2022-04-28 09:13:11,2022-01-01,2.7666784565357765,7.025936377943073,19.19929972529546,,,,,,,,,,,,
48495,0,USTexasWinkler,Texas,Winkler,2022-04-28 09:13:11,2022-01-02,2.7666784565357765,7.025936377943073,19.19929972529546,,,,,,,,,,,,
48495,0,USTexasWinkler,Texas,Winkler,2022-04-28 09:13:11,2022-01-03,2.7666784565357765,7.025936377943073,19.19929972529546,,,,,,,,,,,,
48495,0,USTexasWinkler,Texas,Winkler,2022-04-28 09:13:11,2022-01-04,2.7666784565357765,7.025936377943073,19.19929972529546,,,,,,,,,,,,
48495,0,USTexasWinkler,Texas,Winkler,2022-04-28 09:13:11,2022-01-05,2.7666784565357765,7.025936377943073,19.19929972529546,,,,,,,,,,,,
48495,0,USTexasWinkler,Texas,Winkler,2022-04-28 09:13:11,2022-01-06,3.3763233757366033,8.023957305702915,20.520314936132806,,,,,,,,,,,,
48495,0,USTexasWinkler,Texas,Winkler,2022-04-28 09:13:11,2022-01-07,3.3763233757366033,8.023957305702915,20.520314936132806,,,,,,,,,,,,
48495,0,USTexasWinkler,Texas,Winkler,2022-04-28 09:13:11,2022-01-08,3.3763233757366033,8.023957305702915,20.520314936132806,,,,,,,,,,,,
48495,0,USTexasWinkler,Texas,Winkler,2022-04-28 09:13:11,2022-01-09,3.3763233757366033,8.023957305702915,20.520314936132806,,,,,,,,,,,,
48495,0,USTexasWinkler,Texas,Winkler,2022-04-28 09:13:11,2022-01-10,3.3763233757366033,8.023957305702915,20.520314936132806,,,,,,,,,,,,
48495,0,USTexasWinkler,Texas,Winkler,2022-04-28 09:13:11,2022-01-11,3.3763233757366033,8.023957305702915,20.520314936132806,,,,,,,,,,,,
48495,0,USTexasWinkler,Texas,Winkler,2022-04-28 09:13:11,2022-01-12,3.3763233757366033,8.023957305702915,20.520314936132806,,,,,,,,,,,,
48495,0,USTexasWinkler,Texas,Winkler,2022-04-28 09:13:11,2022-01-13,4.927616295676515,9.79947697828659,20.890385025682235,,,,,,,,,,,,
48495,0,USTexasWinkler,Texas,Winkler,2022-04-28 09:13:11,2022-01-14,4.927616295676515,9.79947697828659,20.890385025682235,,,,,,,,,,,,
48495,0,USTexasWinkler,Texas,Winkler,2022-04-28 09:13:11,2022-01-15,4.927616295676515,9.79947697828659,20.890385025682235,,,,,,,,,,,,
48495,0,USTexasWinkler,Texas,Winkler,2022-04-28 09:13:11,2022-01-16,4.927616295676515,9.79947697828659,20.890385025682235,,,,,,,,,,,,
48495,0,USTexasWinkler,Texas,Winkler,2022-04-28 09:13:11,2022-01-17,4.927616295676515,9.79947697828659,20.890385025682235,,,,,,,,,,,,
48495,0,USTexasWinkler,Texas,Winkler,2022-04-28 09:13:11,2022-01-18,4.927616295676515,9.79947697828659,20.890385025682235,,,,,,,,,,,,
48495,0,USTexasWinkler,Texas,Winkler,2022-04-28 09:13:11,2022-01-19,4.927616295676515,9.79947697828659,20.890385025682235,,,,,,,,,,,,
48495,0,USTexasWinkler,Texas,Winkler,2022-04-28 09:13:11,2022-01-20,5.127139571039594,11.017106675616407,25.439292733610074,,,,,,,,,,,,
48495,0,USTexasWinkler,Texas,Winkler,2022-04-28 09:13:11,2022-01-21,5.127139571039594,11.017106675616407,25.439292733610074,,,,,,,,,,,,
48495,0,USTexasWinkler,Texas,Winkler,2022-04-28 09:13:11,2022-01-22,5.127139571039594,11.017106675616407,25.439292733610074,,,,,,,,,,,,
48495,0,USTexasWinkler,Texas,Winkler,2022-04-28 09:13:11,2022-01-23,5.127139571039594,11.017106675616407,25.439292733610074,,,,,,,,,,,,
48495,0,USTexasWinkler,Texas,Winkler,2022-04-28 09:13:11,2022-01-24,5.127139571039594,11.017106675616407,25.439292733610074,,,,,,,,,,,,
48495,0,USTexasWinkler,Texas,Winkler,2022-04-28 09:13:11,2022-01-25,5.127139571039594,11.017106675616407,25.439292733610074,,,,,,,,,,,,
48495,0,USTexasWinkler,Texas,Winkler,2022-04-28 09:13:11,2022-01-26,5.127139571039594,11.017106675616407,25.439292733610074,,,,,,,,,,,,
48495,0,USTexasWinkler,Texas,Winkler,2022-04-28 09:13:11,2022-01-27,4.7813528320164504,9.965067252690476,22.299799054808762,,,,,,,,,,,,
48495,0,USTexasWinkler,Texas,Winkler,2022-04-28 09:13:11,2022-01-28,4.7813528320164504,9.965067252690476,22.299799054808762,,,,,,,,,,,,
48495,0,USTexasWinkler,Texas,Winkler,2022-04-28 09:13:11,2022-01-29,4.7813528320164504,9.965067252690476,22.299799054808762,,,,,,,,,,,,
48495,0,USTexasWinkler,Texas,Winkler,2022-04-28 09:13:11,2022-01-30,4.7813528320164504,9.965067252690476,22.299799054808762,,,,,,,,,,,,
48495,0,USTexasWinkler,Texas,Winkler,2022-04-28 09:13:11,2022-01-31,4.7813528320164504,9.965067252690476,22.299799054808762,,,,,,,,,,,,
48495,0,USTexasWinkler,Texas,Winkler,2022-04-28 09:13:11,2022-02-01,4.7813528320164504,9.965067252690476,22.299799054808762,,,,,,,,,,,,
48495,0,USTexasWinkler,Texas,Winkler,2022-04-28 09:13:11,2022-02-02,4.7813528320164504,9.965067252690476,22.299799054808762,,,,,,,,,,,,
48495,0,USTexasWinkler,Texas,Winkler,2022-04-28 09:13:11,2022-02-03,3.3483454044891734,7.499671073023541,18.065438708077423,,,,,,,,,,,,
48495,0,USTexasWinkler,Texas,Winkler,2022-04-28 09:13:11,2022-02-04,3.3483454044891734,7.499671073023541,18.065438708077423,,,,,,,,,,,,
48495,0,USTexasWinkler,Texas,Winkler,2022-04-28 09:13:11,2022-02-05,3.3483454044891734,7.499671073023541,18.065438708077423,,,,,,,,,,,,
48495,0,USTexasWinkler,Texas,Winkler,2022-04-28 09:13:11,2022-02-06,3.3483454044891734,7.499671073023541,18.065438708077423,,,,,,,,,,,,
48495,0,USTexasWinkler,Texas,Winkler,2022-04-28 09:13:11,2022-02-07,3.3483454044891734,7.499671073023541,18.065438708077423,,,,,,,,,,,,
48495,0,USTexasWinkler,Texas,Winkler,2022-04-28 09:13:11,2022-02-08,3.3483454044891734,7.499671073023541,18.065438708077423,,,,,,,,,,,,
48495,0,USTexasWinkler,Texas,Winkler,2022-04-28 09:13:11,2022-02-09,3.3483454044891734,7.499671073023541,18.065438708077423,,,,,,,,,,,,
48495,0,USTexasWinkler,Texas,Winkler,2022-04-28 09:13:11,2022-02-10,2.002413694508621,5.167835771169906,14.350003226843938,,,,,,,,,,,,
48495,0,USTexasWinkler,Texas,Winkler,2022-04-28 09:13:11,2022-02-11,2.002413694508621,5.167835771169906,14.350003226843938,,,,,,,,,,,,
48495,0,USTexasWinkler,Texas,Winkler,2022-04-28 09:13:11,2022-02-12,2.002413694508621,5.167835771169906,14.350003226843938,,,,,,,,,,,,
48495,0,USTexasWinkler,Texas,Winkler,2022-04-28 09:13:11,2022-02-13,2.002413694508621,5.167835771169906,14.350003226843938,,,,,,,,,,,,
48495,0,USTexasWinkler,Texas,Winkler,2022-04-28 09:13:11,2022-02-14,2.002413694508621,5.167835771169906,14.350003226843938,,,,,,,,,,,,
48495,0,USTexasWinkler,Texas,Winkler,2022-04-28 09:13:11,2022-02-15,2.002413694508621,5.167835771169906,14.350003226843938,,,,,,,,,,,,
48495,0,USTexasWinkler,Texas,Winkler,2022-04-28 09:13:11,2022-02-16,2.002413694508621,5.167835771169906,14.350003226843938,,,,,,,,,,,,
48495,0,USTexasWinkler,Texas,Winkler,2022-04-28 09:13:11,2022-02-17,1.5615114629703275,4.613527280933385,14.63356656981803,,,,,,,,,,,,
48495,0,USTexasWinkler,Texas,Winkler,2022-04-28 09:13:11,2022-02-18,1.5615114629703275,4.613527280933385,14.63356656981803,,,,,,,,,,,,
48495,0,USTexasWinkler,Texas,Winkler,2022-04-28 09:13:11,2022-02-19,1.5615114629703275,4.613527280933385,14.63356656981803,,,,,,,,,,,,
48495,0,USTexasWinkler,Texas,Winkler,2022-04-28 09:13:11,2022-02-20,1.5615114629703275,4.613527280933385,14.63356656981803,,,,,,,,,,,,
48495,0,USTexasWinkler,Texas,Winkler,2022-04-28 09:13:11,2022-02-21,1.5615114629703275,4.613527280933385,14.63356656981803,,,,,,,,,,,,
48495,0,USTexasWinkler,Texas,Winkler,2022-04-28 09:13:11,2022-02-22,1.5615114629703275,4.613527280933385,14.63356656981803,,,,,,,,,,,,
48495,0,USTexasWinkler,Texas,Winkler,2022-04-28 09:13:11,2022-02-23,1.5615114629703275,4.613527280933385,14.63356656981803,,,,,,,,,,,,
48495,0,USTexasWinkler,Texas,Winkler,2022-04-28 09:13:11,2022-02-24,0.6571317566834716,1.8528958988777644,5.614537021523968,,,,,,,,,,,,
48495,0,USTexasWinkler,Texas,Winkler,2022-04-28 09:13:11,2022-02-25,0.6571317566834716,1.8528958988777644,5.614537021523968,,,,,,,,,,,,
48495,0,USTexasWinkler,Texas,Winkler,2022-04-28 09:13:11,2022-02-26,0.6571317566834716,1.8528958988777644,5.614537021523968,,,,,,,,,,,,
48495,0,USTexasWinkler,Texas,Winkler,2022-04-28 09:13:11,2022-02-27,0.6571317566834716,1.8528958988777644,5.614537021523968,,,,,,,,,,,,
48495,0,USTexasWinkler,Texas,Winkler,2022-04-28 09:13:11,2022-02-28,0.6571317566834716,1.8528958988777644,5.614537021523968,,,,,,,,,,,,
48495,0,USTexasWinkler,Texas,Winkler,2022-04-28 09:13:11,2022-03-01,0.6571317566834716,1.8528958988777644,5.614537021523968,,,,,,,,,,,,
48495,0,USTexasWinkler,Texas,Winkler,2022-04-28 09:13:11,2022-03-02,0.6571317566834716,1.8528958988777644,5.614537021523968,,,,,,,,,,,,
48495,0,USTexasWinkler,Texas,Winkler,2022-04-28 09:13:11,2022-03-03,0.18322200994758603,0.566956297158609,1.8811740355905104,,,,,,,,,,,,
48495,0,USTexasWinkler,Texas,Winkler,2022-04-28 09:13:11,2022-03-04,0.18322200994758603,0.566956297158609,1.8811740355905104,,,,,,,,,,,,
48495,0,USTexasWinkler,Texas,Winkler,2022-04-28 09:13:11,2022-03-05,0.18322200994758603,0.566956297158609,1.8811740355905104,,,,,,,,,,,,
48495,0,USTexasWinkler,Texas,Winkler,2022-04-28 09:13:11,2022-03-06,0.18322200994758603,0.566956297158609,1.8811740355905104,,,,,,,,,,,,
48495,0,USTexasWinkler,Texas,Winkler,2022-04-28 09:13:11,2022-03-07,0.18322200994758603,0.566956297158609,1.8811740355905104,,,,,,,,,,,,
48495,0,USTexasWinkler,Texas,Winkler,2022-04-28 09:13:11,2022-03-08,0.18322200994758603,0.566956297158609,1.8811740355905104,,,,,,,,,,,,
48495,0,USTexasWinkler,Texas,Winkler,2022-04-28 09:13:11,2022-03-09,0.18322200994758603,0.566956297158609,1.8811740355905104,,,,,,,,,,,,
48495,0,USTexasWinkler,Texas,Winkler,2022-04-28 09:13:11,2022-03-10,0.10526500775729833,0.36581702117565307,1.3580666308700549,,,,,,,,,,,,
48495,0,USTexasWinkler,Texas,Winkler,2022-04-28 09:13:11,2022-03-11,0.10526500775729833,0.36581702117565307,1.3580666308700549,,,,,,,,,,,,
48495,0,USTexasWinkler,Texas,Winkler,2022-04-28 09:13:11,2022-03-12,0.10526500775729833,0.36581702117565307,1.3580666308700549,,,,,,,,,,,,
48495,0,USTexasWinkler,Texas,Winkler,2022-04-28 09:13:11,2022-03-13,0.10526500775729833,0.36581702117565307,1.3580666308700549,,,,,,,,,,,,
48495,0,USTexasWinkler,Texas,Winkler,2022-04-28 09:13:11,2022-03-14,0.10526500775729833,0.36581702117565307,1.3580666308700549,,,,,,,,,,,,
48495,0,USTexasWinkler,Texas,Winkler,2022-04-28 09:13:11,2022-03-15,0.10526500775729833,0.36581702117565307,1.3580666308700549,,,,,,,,,,,,
48495,0,USTexasWinkler,Texas,Winkler,2022-04-28 09:13:11,2022-03-16,0.10526500775729833,0.36581702117565307,1.3580666308700549,,,,,,,,,,,,
48495,0,USTexasWinkler,Texas,Winkler,2022-04-28 09:13:11,2022-03-17,0.10032652590259339,0.33503147772194286,1.196843417193494,,,,,,,,,,,,
48495,0,USTexasWinkler,Texas,Winkler,2022-04-28 09:13:11,2022-03-18,0.10032652590259339,0.33503147772194286,1.196843417193494,,,,,,,,,,,,
48495,0,USTexasWinkler,Texas,Winkler,2022-04-28 09:13:11,2022-03-19,0.10032652590259339,0.33503147772194286,1.196843417193494,,,,,,,,,,,,
48495,0,USTexasWinkler,Texas,Winkler,2022-04-28 09:13:11,2022-03-20,0.10032652590259339,0.33503147772194286,1.196843417193494,,,,,,,,,,,,
48495,0,USTexasWinkler,Texas,Winkler,2022-04-28 09:13:11,2022-03-21,0.10032652590259339,0.33503147772194286,1.196843417193494,,,,,,,,,,,,
48495,0,USTexasWinkler,Texas,Winkler,2022-04-28 09:13:11,2022-03-22,0.10032652590259339,0.33503147772194286,1.196843417193494,,,,,,,,,,,,
48495,0,USTexasWinkler,Texas,Winkler,2022-04-28 09:13:11,2022-03-23,0.10032652590259339,0.33503147772194286,1.196843417193494,,,,,,,,,,,,
48495,0,USTexasWinkler,Texas,Winkler,2022-04-28 09:13:11,2022-03-24,0.3079490842509189,1.048121506786302,3.8136673771363387,,,,,,,,,,,,
48495,0,USTexasWinkler,Texas,Winkler,2022-04-28 09:13:11,2022-03-25,0.3079490842509189,1.048121506786302,3.8136673771363387,,,,,,,,,,,,
48495,0,USTexasWinkler,Texas,Winkler,2022-04-28 09:13:11,2022-03-26,0.3079490842509189,1.048121506786302,3.8136673771363387,,,,,,,,,,,,
48495,0,USTexasWinkler,Texas,Winkler,2022-04-28 09:13:11,2022-03-27,0.3079490842509189,1.048121506786302,3.8136673771363387,,,,,,,,,,,,
48495,0,USTexasWinkler,Texas,Winkler,2022-04-28 09:13:11,2022-03-28,0.3079490842509189,1.048121506786302,3.8136673771363387,,,,,,,,,,,,
48495,0,USTexasWinkler,Texas,Winkler,2022-04-28 09:13:11,2022-03-29,0.3079490842509189,1.048121506786302,3.8136673771363387,,,,,,,,,,,,
48495,0,USTexasWinkler,Texas,Winkler,2022-04-28 09:13:11,2022-03-30,0.3079490842509189,1.048121506786302,3.8136673771363387,,,,,,,,,,,,
48495,0,USTexasWinkler,Texas,Winkler,2022-04-28 09:13:11,2022-03-31,0,0,0,,,,,,,,,,,,
48495,0,USTexasWinkler,Texas,Winkler,2022-04-28 09:13:11,2022-04-01,0,0,0,,,,,,,,,,,,
48495,0,USTexasWinkler,Texas,Winkler,2022-04-28 09:13:11,2022-04-02,0,0,0,,,,,,,,,,,,
48495,0,USTexasWinkler,Texas,Winkler,2022-04-28 09:13:11,2022-04-03,0,0,0,,,,,,,,,,,,
48495,0,USTexasWinkler,Texas,Winkler,2022-04-28 09:13:11,2022-04-04,0,0,0,,,,,,,,,,,,
48495,0,USTexasWinkler,Texas,Winkler,2022-04-28 09:13:11,2022-04-05,0,0,0,,,,,,,,,,,,
48495,0,USTexasWinkler,Texas,Winkler,2022-04-28 09:13:11,2022-04-06,0,0,0,,,,,,,,,,,,
48495,0,USTexasWinkler,Texas,Winkler,2022-04-28 09:13:11,2022-04-07,0.17119813288790417,0.5000770325190891,1.5686250557133983,,,,,,,,,,,,
48495,0,USTexasWinkler,Texas,Winkler,2022-04-28 09:13:11,2022-04-08,0.17119813288790417,0.5000770325190891,1.5686250557133983,,,,,,,,,,,,
48495,0,USTexasWinkler,Texas,Winkler,2022-04-28 09:13:11,2022-04-09,0.17119813288790417,0.5000770325190891,1.5686250557133983,,,,,,,,,,,,
48495,0,USTexasWinkler,Texas,Winkler,2022-04-28 09:13:11,2022-04-10,0.17119813288790417,0.5000770325190891,1.5686250557133983,,,,,,,,,,,,
48495,0,USTexasWinkler,Texas,Winkler,2022-04-28 09:13:11,2022-04-11,0.17119813288790417,0.5000770325190891,1.5686250557133983,,,,,,,,,,,,
48495,0,USTexasWinkler,Texas,Winkler,2022-04-28 09:13:11,2022-04-12,0.17119813288790417,0.5000770325190891,1.5686250557133983,,,,,,,,,,,,
48495,0,USTexasWinkler,Texas,Winkler,2022-04-28 09:13:11,2022-04-13,0.17119813288790417,0.5000770325190891,1.5686250557133983,,,,,,,,,,,,
48495,0,USTexasWinkler,Texas,Winkler,2022-04-28 09:13:11,2022-04-14,0.23496693269732427,0.635868998021604,1.8504990526691336,,,,,,,,,,,,
48495,0,USTexasWinkler,Texas,Winkler,2022-04-28 09:13:11,2022-04-15,0.23496693269732427,0.635868998021604,1.8504990526691336,,,,,,,,,,,,
48495,0,USTexasWinkler,Texas,Winkler,2022-04-28 09:13:11,2022-04-16,0.23496693269732427,0.635868998021604,1.8504990526691336,,,,,,,,,,,,
48495,0,USTexasWinkler,Texas,Winkler,2022-04-28 09:13:11,2022-04-17,0.23496693269732427,0.635868998021604,1.8504990526691336,,,,,,,,,,,,
48495,0,USTexasWinkler,Texas,Winkler,2022-04-28 09:13:11,2022-04-18,0.23496693269732427,0.635868998021604,1.8504990526691336,,,,,,,,,,,,
48495,0,USTexasWinkler,Texas,Winkler,2022-04-28 09:13:11,2022-04-19,0.23496693269732427,0.635868998021604,1.8504990526691336,,,,,,,,,,,,
48495,0,USTexasWinkler,Texas,Winkler,2022-04-28 09:13:11,2022-04-20,0.23496693269732427,0.635868998021604,1.8504990526691336,,,,,,,,,,,,
