FIPS,HR_UID,nameid,province,region,analysisTime,dates,pointprevalence_025,pointprevalence_50,pointprevalence_975,pointinfections_025,pointinfections_50,pointinfections_975,pointinfectious_025,pointinfectious_50,pointinfectious_975,pointinfectiousprevalence_025,pointinfectiousprevalence_50,pointinfectiousprevalence_975,infectrate_025,infectrate_50,infectrate_975
19159,0,USIowaRinggold,Iowa,Ringgold,2022-04-28 09:13:11,2020-03-19,0,0,0,,,,,,,,,,,,
19159,0,USIowaRinggold,Iowa,Ringgold,2022-04-28 09:13:11,2020-03-20,0,0,0,,,,,,,,,,,,
19159,0,USIowaRinggold,Iowa,Ringgold,2022-04-28 09:13:11,2020-03-21,0,0,0,,,,,,,,,,,,
19159,0,USIowaRinggold,Iowa,Ringgold,2022-04-28 09:13:11,2020-03-22,0,0,0,,,,,,,,,,,,
19159,0,USIowaRinggold,Iowa,Ringgold,2022-04-28 09:13:11,2020-03-23,0,0,0,,,,,,,,,,,,
19159,0,USIowaRinggold,Iowa,Ringgold,2022-04-28 09:13:11,2020-03-24,0,0,0,,,,,,,,,,,,
19159,0,USIowaRinggold,Iowa,Ringgold,2022-04-28 09:13:11,2020-03-25,0,0,0,,,,,,,,,,,,
19159,0,USIowaRinggold,Iowa,Ringgold,2022-04-28 09:13:11,2020-03-26,0,0,0,,,,,,,,,,,,
19159,0,USIowaRinggold,Iowa,Ringgold,2022-04-28 09:13:11,2020-03-27,0,0,0,,,,,,,,,,,,
19159,0,USIowaRinggold,Iowa,Ringgold,2022-04-28 09:13:11,2020-03-28,0,0,0,,,,,,,,,,,,
19159,0,USIowaRinggold,Iowa,Ringgold,2022-04-28 09:13:11,2020-03-29,0,0,0,,,,,,,,,,,,
19159,0,USIowaRinggold,Iowa,Ringgold,2022-04-28 09:13:11,2020-03-30,0,0,0,,,,,,,,,,,,
19159,0,USIowaRinggold,Iowa,Ringgold,2022-04-28 09:13:11,2020-03-31,0,0,0,,,,,,,,,,,,
19159,0,USIowaRinggold,Iowa,Ringgold,2022-04-28 09:13:11,2020-04-01,0,0,0,,,,,,,,,,,,
19159,0,USIowaRinggold,Iowa,Ringgold,2022-04-28 09:13:11,2020-04-02,0,0,0,,,,,,,,,,,,
19159,0,USIowaRinggold,Iowa,Ringgold,2022-04-28 09:13:11,2020-04-03,0,0,0,,,,,,,,,,,,
19159,0,USIowaRinggold,Iowa,Ringgold,2022-04-28 09:13:11,2020-04-04,0,0,0,,,,,,,,,,,,
19159,0,USIowaRinggold,Iowa,Ringgold,2022-04-28 09:13:11,2020-04-05,0,0,0,,,,,,,,,,,,
19159,0,USIowaRinggold,Iowa,Ringgold,2022-04-28 09:13:11,2020-04-06,0,0,0,,,,,,,,,,,,
19159,0,USIowaRinggold,Iowa,Ringgold,2022-04-28 09:13:11,2020-04-07,0,0,0,,,,,,,,,,,,
19159,0,USIowaRinggold,Iowa,Ringgold,2022-04-28 09:13:11,2020-04-08,0,0,0,,,,,,,,,,,,
19159,0,USIowaRinggold,Iowa,Ringgold,2022-04-28 09:13:11,2020-04-09,0,0,0,,,,,,,,,,,,
19159,0,USIowaRinggold,Iowa,Ringgold,2022-04-28 09:13:11,2020-04-10,0,0,0,,,,,,,,,,,,
19159,0,USIowaRinggold,Iowa,Ringgold,2022-04-28 09:13:11,2020-04-11,0,0,0,,,,,,,,,,,,
19159,0,USIowaRinggold,Iowa,Ringgold,2022-04-28 09:13:11,2020-04-12,0,0,0,,,,,,,,,,,,
19159,0,USIowaRinggold,Iowa,Ringgold,2022-04-28 09:13:11,2020-04-13,0,0,0,,,,,,,,,,,,
19159,0,USIowaRinggold,Iowa,Ringgold,2022-04-28 09:13:11,2020-04-14,0,0,0,,,,,,,,,,,,
19159,0,USIowaRinggold,Iowa,Ringgold,2022-04-28 09:13:11,2020-04-15,0,0,0,,,,,,,,,,,,
19159,0,USIowaRinggold,Iowa,Ringgold,2022-04-28 09:13:11,2020-04-16,0,0,0,,,,,,,,,,,,
19159,0,USIowaRinggold,Iowa,Ringgold,2022-04-28 09:13:11,2020-04-17,0,0,0,,,,,,,,,,,,
19159,0,USIowaRinggold,Iowa,Ringgold,2022-04-28 09:13:11,2020-04-18,0,0,0,,,,,,,,,,,,
19159,0,USIowaRinggold,Iowa,Ringgold,2022-04-28 09:13:11,2020-04-19,0,0,0,,,,,,,,,,,,
19159,0,USIowaRinggold,Iowa,Ringgold,2022-04-28 09:13:11,2020-04-20,0,0,0,,,,,,,,,,,,
19159,0,USIowaRinggold,Iowa,Ringgold,2022-04-28 09:13:11,2020-04-21,0,0,0,,,,,,,,,,,,
19159,0,USIowaRinggold,Iowa,Ringgold,2022-04-28 09:13:11,2020-04-22,0,0,0,,,,,,,,,,,,
19159,0,USIowaRinggold,Iowa,Ringgold,2022-04-28 09:13:11,2020-04-23,0,0,0,,,,,,,,,,,,
19159,0,USIowaRinggold,Iowa,Ringgold,2022-04-28 09:13:11,2020-04-24,0,0,0,,,,,,,,,,,,
19159,0,USIowaRinggold,Iowa,Ringgold,2022-04-28 09:13:11,2020-04-25,0,0,0,,,,,,,,,,,,
19159,0,USIowaRinggold,Iowa,Ringgold,2022-04-28 09:13:11,2020-04-26,0,0,0,,,,,,,,,,,,
19159,0,USIowaRinggold,Iowa,Ringgold,2022-04-28 09:13:11,2020-04-27,0,0,0,,,,,,,,,,,,
19159,0,USIowaRinggold,Iowa,Ringgold,2022-04-28 09:13:11,2020-04-28,0,0,0,,,,,,,,,,,,
19159,0,USIowaRinggold,Iowa,Ringgold,2022-04-28 09:13:11,2020-04-29,0,0,0,,,,,,,,,,,,
19159,0,USIowaRinggold,Iowa,Ringgold,2022-04-28 09:13:11,2020-04-30,0,0,0,,,,,,,,,,,,
19159,0,USIowaRinggold,Iowa,Ringgold,2022-04-28 09:13:11,2020-05-01,0,0,0,,,,,,,,,,,,
19159,0,USIowaRinggold,Iowa,Ringgold,2022-04-28 09:13:11,2020-05-02,0,0,0,,,,,,,,,,,,
19159,0,USIowaRinggold,Iowa,Ringgold,2022-04-28 09:13:11,2020-05-03,0,0,0,,,,,,,,,,,,
19159,0,USIowaRinggold,Iowa,Ringgold,2022-04-28 09:13:11,2020-05-04,0,0,0,,,,,,,,,,,,
19159,0,USIowaRinggold,Iowa,Ringgold,2022-04-28 09:13:11,2020-05-05,0,0,0,,,,,,,,,,,,
19159,0,USIowaRinggold,Iowa,Ringgold,2022-04-28 09:13:11,2020-05-06,0,0,0,,,,,,,,,,,,
19159,0,USIowaRinggold,Iowa,Ringgold,2022-04-28 09:13:11,2020-05-07,0,0,0,,,,,,,,,,,,
19159,0,USIowaRinggold,Iowa,Ringgold,2022-04-28 09:13:11,2020-05-08,0,0,0,,,,,,,,,,,,
19159,0,USIowaRinggold,Iowa,Ringgold,2022-04-28 09:13:11,2020-05-09,0,0,0,,,,,,,,,,,,
19159,0,USIowaRinggold,Iowa,Ringgold,2022-04-28 09:13:11,2020-05-10,0,0,0,,,,,,,,,,,,
19159,0,USIowaRinggold,Iowa,Ringgold,2022-04-28 09:13:11,2020-05-11,0,0,0,,,,,,,,,,,,
19159,0,USIowaRinggold,Iowa,Ringgold,2022-04-28 09:13:11,2020-05-12,0,0,0,,,,,,,,,,,,
19159,0,USIowaRinggold,Iowa,Ringgold,2022-04-28 09:13:11,2020-05-13,0,0,0,,,,,,,,,,,,
19159,0,USIowaRinggold,Iowa,Ringgold,2022-04-28 09:13:11,2020-05-14,0.1485567626186643,0.4561032750496651,1.5018812508202806,,,,,,,,,,,,
19159,0,USIowaRinggold,Iowa,Ringgold,2022-04-28 09:13:11,2020-05-15,0.1485567626186643,0.4561032750496651,1.5018812508202806,,,,,,,,,,,,
19159,0,USIowaRinggold,Iowa,Ringgold,2022-04-28 09:13:11,2020-05-16,0.1485567626186643,0.4561032750496651,1.5018812508202806,,,,,,,,,,,,
19159,0,USIowaRinggold,Iowa,Ringgold,2022-04-28 09:13:11,2020-05-17,0.1485567626186643,0.4561032750496651,1.5018812508202806,,,,,,,,,,,,
19159,0,USIowaRinggold,Iowa,Ringgold,2022-04-28 09:13:11,2020-05-18,0.1485567626186643,0.4561032750496651,1.5018812508202806,,,,,,,,,,,,
19159,0,USIowaRinggold,Iowa,Ringgold,2022-04-28 09:13:11,2020-05-19,0.1485567626186643,0.4561032750496651,1.5018812508202806,,,,,,,,,,,,
19159,0,USIowaRinggold,Iowa,Ringgold,2022-04-28 09:13:11,2020-05-20,0.1485567626186643,0.4561032750496651,1.5018812508202806,,,,,,,,,,,,
19159,0,USIowaRinggold,Iowa,Ringgold,2022-04-28 09:13:11,2020-05-21,0.3399835792018138,0.8261008323278897,2.160167588919119,,,,,,,,,,,,
19159,0,USIowaRinggold,Iowa,Ringgold,2022-04-28 09:13:11,2020-05-22,0.3399835792018138,0.8261008323278897,2.160167588919119,,,,,,,,,,,,
19159,0,USIowaRinggold,Iowa,Ringgold,2022-04-28 09:13:11,2020-05-23,0.3399835792018138,0.8261008323278897,2.160167588919119,,,,,,,,,,,,
19159,0,USIowaRinggold,Iowa,Ringgold,2022-04-28 09:13:11,2020-05-24,0.3399835792018138,0.8261008323278897,2.160167588919119,,,,,,,,,,,,
19159,0,USIowaRinggold,Iowa,Ringgold,2022-04-28 09:13:11,2020-05-25,0.3399835792018138,0.8261008323278897,2.160167588919119,,,,,,,,,,,,
19159,0,USIowaRinggold,Iowa,Ringgold,2022-04-28 09:13:11,2020-05-26,0.3399835792018138,0.8261008323278897,2.160167588919119,,,,,,,,,,,,
19159,0,USIowaRinggold,Iowa,Ringgold,2022-04-28 09:13:11,2020-05-27,0.3399835792018138,0.8261008323278897,2.160167588919119,,,,,,,,,,,,
19159,0,USIowaRinggold,Iowa,Ringgold,2022-04-28 09:13:11,2020-05-28,0,0,0,,,,,,,,,,,,
19159,0,USIowaRinggold,Iowa,Ringgold,2022-04-28 09:13:11,2020-05-29,0,0,0,,,,,,,,,,,,
19159,0,USIowaRinggold,Iowa,Ringgold,2022-04-28 09:13:11,2020-05-30,0,0,0,,,,,,,,,,,,
19159,0,USIowaRinggold,Iowa,Ringgold,2022-04-28 09:13:11,2020-05-31,0,0,0,,,,,,,,,,,,
19159,0,USIowaRinggold,Iowa,Ringgold,2022-04-28 09:13:11,2020-06-01,0,0,0,,,,,,,,,,,,
19159,0,USIowaRinggold,Iowa,Ringgold,2022-04-28 09:13:11,2020-06-02,0,0,0,,,,,,,,,,,,
19159,0,USIowaRinggold,Iowa,Ringgold,2022-04-28 09:13:11,2020-06-03,0,0,0,,,,,,,,,,,,
19159,0,USIowaRinggold,Iowa,Ringgold,2022-04-28 09:13:11,2020-06-04,0.30969772958036335,0.6926577426828242,1.66603420795362,,,,,,,,,,,,
19159,0,USIowaRinggold,Iowa,Ringgold,2022-04-28 09:13:11,2020-06-05,0.30969772958036335,0.6926577426828242,1.66603420795362,,,,,,,,,,,,
19159,0,USIowaRinggold,Iowa,Ringgold,2022-04-28 09:13:11,2020-06-06,0.30969772958036335,0.6926577426828242,1.66603420795362,,,,,,,,,,,,
19159,0,USIowaRinggold,Iowa,Ringgold,2022-04-28 09:13:11,2020-06-07,0.30969772958036335,0.6926577426828242,1.66603420795362,,,,,,,,,,,,
19159,0,USIowaRinggold,Iowa,Ringgold,2022-04-28 09:13:11,2020-06-08,0.30969772958036335,0.6926577426828242,1.66603420795362,,,,,,,,,,,,
19159,0,USIowaRinggold,Iowa,Ringgold,2022-04-28 09:13:11,2020-06-09,0.30969772958036335,0.6926577426828242,1.66603420795362,,,,,,,,,,,,
19159,0,USIowaRinggold,Iowa,Ringgold,2022-04-28 09:13:11,2020-06-10,0.30969772958036335,0.6926577426828242,1.66603420795362,,,,,,,,,,,,
19159,0,USIowaRinggold,Iowa,Ringgold,2022-04-28 09:13:11,2020-06-11,0.22262598770182226,0.5324359391982488,1.3703181086330216,,,,,,,,,,,,
19159,0,USIowaRinggold,Iowa,Ringgold,2022-04-28 09:13:11,2020-06-12,0.22262598770182226,0.5324359391982488,1.3703181086330216,,,,,,,,,,,,
19159,0,USIowaRinggold,Iowa,Ringgold,2022-04-28 09:13:11,2020-06-13,0.22262598770182226,0.5324359391982488,1.3703181086330216,,,,,,,,,,,,
19159,0,USIowaRinggold,Iowa,Ringgold,2022-04-28 09:13:11,2020-06-14,0.22262598770182226,0.5324359391982488,1.3703181086330216,,,,,,,,,,,,
19159,0,USIowaRinggold,Iowa,Ringgold,2022-04-28 09:13:11,2020-06-15,0.22262598770182226,0.5324359391982488,1.3703181086330216,,,,,,,,,,,,
19159,0,USIowaRinggold,Iowa,Ringgold,2022-04-28 09:13:11,2020-06-16,0.22262598770182226,0.5324359391982488,1.3703181086330216,,,,,,,,,,,,
19159,0,USIowaRinggold,Iowa,Ringgold,2022-04-28 09:13:11,2020-06-17,0.22262598770182226,0.5324359391982488,1.3703181086330216,,,,,,,,,,,,
19159,0,USIowaRinggold,Iowa,Ringgold,2022-04-28 09:13:11,2020-06-18,0.3090123216536104,0.6897568909842762,1.655721295295999,,,,,,,,,,,,
19159,0,USIowaRinggold,Iowa,Ringgold,2022-04-28 09:13:11,2020-06-19,0.3090123216536104,0.6897568909842762,1.655721295295999,,,,,,,,,,,,
19159,0,USIowaRinggold,Iowa,Ringgold,2022-04-28 09:13:11,2020-06-20,0.3090123216536104,0.6897568909842762,1.655721295295999,,,,,,,,,,,,
19159,0,USIowaRinggold,Iowa,Ringgold,2022-04-28 09:13:11,2020-06-21,0.3090123216536104,0.6897568909842762,1.655721295295999,,,,,,,,,,,,
19159,0,USIowaRinggold,Iowa,Ringgold,2022-04-28 09:13:11,2020-06-22,0.3090123216536104,0.6897568909842762,1.655721295295999,,,,,,,,,,,,
19159,0,USIowaRinggold,Iowa,Ringgold,2022-04-28 09:13:11,2020-06-23,0.3090123216536104,0.6897568909842762,1.655721295295999,,,,,,,,,,,,
19159,0,USIowaRinggold,Iowa,Ringgold,2022-04-28 09:13:11,2020-06-24,0.3090123216536104,0.6897568909842762,1.655721295295999,,,,,,,,,,,,
19159,0,USIowaRinggold,Iowa,Ringgold,2022-04-28 09:13:11,2020-06-25,0.3140918844495943,0.711381797764985,1.7330548667613108,,,,,,,,,,,,
19159,0,USIowaRinggold,Iowa,Ringgold,2022-04-28 09:13:11,2020-06-26,0.3140918844495943,0.711381797764985,1.7330548667613108,,,,,,,,,,,,
19159,0,USIowaRinggold,Iowa,Ringgold,2022-04-28 09:13:11,2020-06-27,0.3140918844495943,0.711381797764985,1.7330548667613108,,,,,,,,,,,,
19159,0,USIowaRinggold,Iowa,Ringgold,2022-04-28 09:13:11,2020-06-28,0.3140918844495943,0.711381797764985,1.7330548667613108,,,,,,,,,,,,
19159,0,USIowaRinggold,Iowa,Ringgold,2022-04-28 09:13:11,2020-06-29,0.3140918844495943,0.711381797764985,1.7330548667613108,,,,,,,,,,,,
19159,0,USIowaRinggold,Iowa,Ringgold,2022-04-28 09:13:11,2020-06-30,0.3140918844495943,0.711381797764985,1.7330548667613108,,,,,,,,,,,,
19159,0,USIowaRinggold,Iowa,Ringgold,2022-04-28 09:13:11,2020-07-01,0.3140918844495943,0.711381797764985,1.7330548667613108,,,,,,,,,,,,
19159,0,USIowaRinggold,Iowa,Ringgold,2022-04-28 09:13:11,2020-07-02,0.14458727863452991,0.43384008741856345,1.3969908235488195,,,,,,,,,,,,
19159,0,USIowaRinggold,Iowa,Ringgold,2022-04-28 09:13:11,2020-07-03,0.14458727863452991,0.43384008741856345,1.3969908235488195,,,,,,,,,,,,
19159,0,USIowaRinggold,Iowa,Ringgold,2022-04-28 09:13:11,2020-07-04,0.14458727863452991,0.43384008741856345,1.3969908235488195,,,,,,,,,,,,
19159,0,USIowaRinggold,Iowa,Ringgold,2022-04-28 09:13:11,2020-07-05,0.14458727863452991,0.43384008741856345,1.3969908235488195,,,,,,,,,,,,
19159,0,USIowaRinggold,Iowa,Ringgold,2022-04-28 09:13:11,2020-07-06,0.14458727863452991,0.43384008741856345,1.3969908235488195,,,,,,,,,,,,
19159,0,USIowaRinggold,Iowa,Ringgold,2022-04-28 09:13:11,2020-07-07,0.14458727863452991,0.43384008741856345,1.3969908235488195,,,,,,,,,,,,
19159,0,USIowaRinggold,Iowa,Ringgold,2022-04-28 09:13:11,2020-07-08,0.14458727863452991,0.43384008741856345,1.3969908235488195,,,,,,,,,,,,
19159,0,USIowaRinggold,Iowa,Ringgold,2022-04-28 09:13:11,2020-07-09,0.148324340573005,0.4547868625079485,1.4956181984630863,,,,,,,,,,,,
19159,0,USIowaRinggold,Iowa,Ringgold,2022-04-28 09:13:11,2020-07-10,0.148324340573005,0.4547868625079485,1.4956181984630863,,,,,,,,,,,,
19159,0,USIowaRinggold,Iowa,Ringgold,2022-04-28 09:13:11,2020-07-11,0.148324340573005,0.4547868625079485,1.4956181984630863,,,,,,,,,,,,
19159,0,USIowaRinggold,Iowa,Ringgold,2022-04-28 09:13:11,2020-07-12,0.148324340573005,0.4547868625079485,1.4956181984630863,,,,,,,,,,,,
19159,0,USIowaRinggold,Iowa,Ringgold,2022-04-28 09:13:11,2020-07-13,0.148324340573005,0.4547868625079485,1.4956181984630863,,,,,,,,,,,,
19159,0,USIowaRinggold,Iowa,Ringgold,2022-04-28 09:13:11,2020-07-14,0.148324340573005,0.4547868625079485,1.4956181984630863,,,,,,,,,,,,
19159,0,USIowaRinggold,Iowa,Ringgold,2022-04-28 09:13:11,2020-07-15,0.148324340573005,0.4547868625079485,1.4956181984630863,,,,,,,,,,,,
19159,0,USIowaRinggold,Iowa,Ringgold,2022-04-28 09:13:11,2020-07-16,0.3346891383049271,0.8020383452790989,2.0683034253451074,,,,,,,,,,,,
19159,0,USIowaRinggold,Iowa,Ringgold,2022-04-28 09:13:11,2020-07-17,0.3346891383049271,0.8020383452790989,2.0683034253451074,,,,,,,,,,,,
19159,0,USIowaRinggold,Iowa,Ringgold,2022-04-28 09:13:11,2020-07-18,0.3346891383049271,0.8020383452790989,2.0683034253451074,,,,,,,,,,,,
19159,0,USIowaRinggold,Iowa,Ringgold,2022-04-28 09:13:11,2020-07-19,0.3346891383049271,0.8020383452790989,2.0683034253451074,,,,,,,,,,,,
19159,0,USIowaRinggold,Iowa,Ringgold,2022-04-28 09:13:11,2020-07-20,0.3346891383049271,0.8020383452790989,2.0683034253451074,,,,,,,,,,,,
19159,0,USIowaRinggold,Iowa,Ringgold,2022-04-28 09:13:11,2020-07-21,0.3346891383049271,0.8020383452790989,2.0683034253451074,,,,,,,,,,,,
19159,0,USIowaRinggold,Iowa,Ringgold,2022-04-28 09:13:11,2020-07-22,0.3346891383049271,0.8020383452790989,2.0683034253451074,,,,,,,,,,,,
19159,0,USIowaRinggold,Iowa,Ringgold,2022-04-28 09:13:11,2020-07-23,0.2510959589459745,0.6673538406231504,1.9078088414499144,,,,,,,,,,,,
19159,0,USIowaRinggold,Iowa,Ringgold,2022-04-28 09:13:11,2020-07-24,0.2510959589459745,0.6673538406231504,1.9078088414499144,,,,,,,,,,,,
19159,0,USIowaRinggold,Iowa,Ringgold,2022-04-28 09:13:11,2020-07-25,0.2510959589459745,0.6673538406231504,1.9078088414499144,,,,,,,,,,,,
19159,0,USIowaRinggold,Iowa,Ringgold,2022-04-28 09:13:11,2020-07-26,0.2510959589459745,0.6673538406231504,1.9078088414499144,,,,,,,,,,,,
19159,0,USIowaRinggold,Iowa,Ringgold,2022-04-28 09:13:11,2020-07-27,0.2510959589459745,0.6673538406231504,1.9078088414499144,,,,,,,,,,,,
19159,0,USIowaRinggold,Iowa,Ringgold,2022-04-28 09:13:11,2020-07-28,0.2510959589459745,0.6673538406231504,1.9078088414499144,,,,,,,,,,,,
19159,0,USIowaRinggold,Iowa,Ringgold,2022-04-28 09:13:11,2020-07-29,0.2510959589459745,0.6673538406231504,1.9078088414499144,,,,,,,,,,,,
19159,0,USIowaRinggold,Iowa,Ringgold,2022-04-28 09:13:11,2020-07-30,0.15154338712487905,0.4731606010534161,1.5837143693267404,,,,,,,,,,,,
19159,0,USIowaRinggold,Iowa,Ringgold,2022-04-28 09:13:11,2020-07-31,0.15154338712487905,0.4731606010534161,1.5837143693267404,,,,,,,,,,,,
19159,0,USIowaRinggold,Iowa,Ringgold,2022-04-28 09:13:11,2020-08-01,0.15154338712487905,0.4731606010534161,1.5837143693267404,,,,,,,,,,,,
19159,0,USIowaRinggold,Iowa,Ringgold,2022-04-28 09:13:11,2020-08-02,0.15154338712487905,0.4731606010534161,1.5837143693267404,,,,,,,,,,,,
19159,0,USIowaRinggold,Iowa,Ringgold,2022-04-28 09:13:11,2020-08-03,0.15154338712487905,0.4731606010534161,1.5837143693267404,,,,,,,,,,,,
19159,0,USIowaRinggold,Iowa,Ringgold,2022-04-28 09:13:11,2020-08-04,0.15154338712487905,0.4731606010534161,1.5837143693267404,,,,,,,,,,,,
19159,0,USIowaRinggold,Iowa,Ringgold,2022-04-28 09:13:11,2020-08-05,0.15154338712487905,0.4731606010534161,1.5837143693267404,,,,,,,,,,,,
19159,0,USIowaRinggold,Iowa,Ringgold,2022-04-28 09:13:11,2020-08-06,0.25315429132701167,0.6776102733416483,1.9507385537084496,,,,,,,,,,,,
19159,0,USIowaRinggold,Iowa,Ringgold,2022-04-28 09:13:11,2020-08-07,0.25315429132701167,0.6776102733416483,1.9507385537084496,,,,,,,,,,,,
19159,0,USIowaRinggold,Iowa,Ringgold,2022-04-28 09:13:11,2020-08-08,0.25315429132701167,0.6776102733416483,1.9507385537084496,,,,,,,,,,,,
19159,0,USIowaRinggold,Iowa,Ringgold,2022-04-28 09:13:11,2020-08-09,0.25315429132701167,0.6776102733416483,1.9507385537084496,,,,,,,,,,,,
19159,0,USIowaRinggold,Iowa,Ringgold,2022-04-28 09:13:11,2020-08-10,0.25315429132701167,0.6776102733416483,1.9507385537084496,,,,,,,,,,,,
19159,0,USIowaRinggold,Iowa,Ringgold,2022-04-28 09:13:11,2020-08-11,0.25315429132701167,0.6776102733416483,1.9507385537084496,,,,,,,,,,,,
19159,0,USIowaRinggold,Iowa,Ringgold,2022-04-28 09:13:11,2020-08-12,0.25315429132701167,0.6776102733416483,1.9507385537084496,,,,,,,,,,,,
19159,0,USIowaRinggold,Iowa,Ringgold,2022-04-28 09:13:11,2020-08-13,0.2548576619868082,0.6861482784852923,1.9866873187278506,,,,,,,,,,,,
19159,0,USIowaRinggold,Iowa,Ringgold,2022-04-28 09:13:11,2020-08-14,0.2548576619868082,0.6861482784852923,1.9866873187278506,,,,,,,,,,,,
19159,0,USIowaRinggold,Iowa,Ringgold,2022-04-28 09:13:11,2020-08-15,0.2548576619868082,0.6861482784852923,1.9866873187278506,,,,,,,,,,,,
19159,0,USIowaRinggold,Iowa,Ringgold,2022-04-28 09:13:11,2020-08-16,0.2548576619868082,0.6861482784852923,1.9866873187278506,,,,,,,,,,,,
19159,0,USIowaRinggold,Iowa,Ringgold,2022-04-28 09:13:11,2020-08-17,0.2548576619868082,0.6861482784852923,1.9866873187278506,,,,,,,,,,,,
19159,0,USIowaRinggold,Iowa,Ringgold,2022-04-28 09:13:11,2020-08-18,0.2548576619868082,0.6861482784852923,1.9866873187278506,,,,,,,,,,,,
19159,0,USIowaRinggold,Iowa,Ringgold,2022-04-28 09:13:11,2020-08-19,0.2548576619868082,0.6861482784852923,1.9866873187278506,,,,,,,,,,,,
19159,0,USIowaRinggold,Iowa,Ringgold,2022-04-28 09:13:11,2020-08-20,0.5649533463291294,1.3691327018223376,3.570723472244651,,,,,,,,,,,,
19159,0,USIowaRinggold,Iowa,Ringgold,2022-04-28 09:13:11,2020-08-21,0.5649533463291294,1.3691327018223376,3.570723472244651,,,,,,,,,,,,
19159,0,USIowaRinggold,Iowa,Ringgold,2022-04-28 09:13:11,2020-08-22,0.5649533463291294,1.3691327018223376,3.570723472244651,,,,,,,,,,,,
19159,0,USIowaRinggold,Iowa,Ringgold,2022-04-28 09:13:11,2020-08-23,0.5649533463291294,1.3691327018223376,3.570723472244651,,,,,,,,,,,,
19159,0,USIowaRinggold,Iowa,Ringgold,2022-04-28 09:13:11,2020-08-24,0.5649533463291294,1.3691327018223376,3.570723472244651,,,,,,,,,,,,
19159,0,USIowaRinggold,Iowa,Ringgold,2022-04-28 09:13:11,2020-08-25,0.5649533463291294,1.3691327018223376,3.570723472244651,,,,,,,,,,,,
19159,0,USIowaRinggold,Iowa,Ringgold,2022-04-28 09:13:11,2020-08-26,0.5649533463291294,1.3691327018223376,3.570723472244651,,,,,,,,,,,,
19159,0,USIowaRinggold,Iowa,Ringgold,2022-04-28 09:13:11,2020-08-27,0.2941933320455636,0.8957198388417853,2.9255749023109354,,,,,,,,,,,,
19159,0,USIowaRinggold,Iowa,Ringgold,2022-04-28 09:13:11,2020-08-28,0.2941933320455636,0.8957198388417853,2.9255749023109354,,,,,,,,,,,,
19159,0,USIowaRinggold,Iowa,Ringgold,2022-04-28 09:13:11,2020-08-29,0.2941933320455636,0.8957198388417853,2.9255749023109354,,,,,,,,,,,,
19159,0,USIowaRinggold,Iowa,Ringgold,2022-04-28 09:13:11,2020-08-30,0.2941933320455636,0.8957198388417853,2.9255749023109354,,,,,,,,,,,,
19159,0,USIowaRinggold,Iowa,Ringgold,2022-04-28 09:13:11,2020-08-31,0.2941933320455636,0.8957198388417853,2.9255749023109354,,,,,,,,,,,,
19159,0,USIowaRinggold,Iowa,Ringgold,2022-04-28 09:13:11,2020-09-01,0.2941933320455636,0.8957198388417853,2.9255749023109354,,,,,,,,,,,,
19159,0,USIowaRinggold,Iowa,Ringgold,2022-04-28 09:13:11,2020-09-02,0.2941933320455636,0.8957198388417853,2.9255749023109354,,,,,,,,,,,,
19159,0,USIowaRinggold,Iowa,Ringgold,2022-04-28 09:13:11,2020-09-03,0.4738279333931815,1.1970245729075535,3.254115073302884,,,,,,,,,,,,
19159,0,USIowaRinggold,Iowa,Ringgold,2022-04-28 09:13:11,2020-09-04,0.4738279333931815,1.1970245729075535,3.254115073302884,,,,,,,,,,,,
19159,0,USIowaRinggold,Iowa,Ringgold,2022-04-28 09:13:11,2020-09-05,0.4738279333931815,1.1970245729075535,3.254115073302884,,,,,,,,,,,,
19159,0,USIowaRinggold,Iowa,Ringgold,2022-04-28 09:13:11,2020-09-06,0.4738279333931815,1.1970245729075535,3.254115073302884,,,,,,,,,,,,
19159,0,USIowaRinggold,Iowa,Ringgold,2022-04-28 09:13:11,2020-09-07,0.4738279333931815,1.1970245729075535,3.254115073302884,,,,,,,,,,,,
19159,0,USIowaRinggold,Iowa,Ringgold,2022-04-28 09:13:11,2020-09-08,0.4738279333931815,1.1970245729075535,3.254115073302884,,,,,,,,,,,,
19159,0,USIowaRinggold,Iowa,Ringgold,2022-04-28 09:13:11,2020-09-09,0.4738279333931815,1.1970245729075535,3.254115073302884,,,,,,,,,,,,
19159,0,USIowaRinggold,Iowa,Ringgold,2022-04-28 09:13:11,2020-09-10,0.6266356102322789,1.416134947482066,3.4422693141922296,,,,,,,,,,,,
19159,0,USIowaRinggold,Iowa,Ringgold,2022-04-28 09:13:11,2020-09-11,0.6266356102322789,1.416134947482066,3.4422693141922296,,,,,,,,,,,,
19159,0,USIowaRinggold,Iowa,Ringgold,2022-04-28 09:13:11,2020-09-12,0.6266356102322789,1.416134947482066,3.4422693141922296,,,,,,,,,,,,
19159,0,USIowaRinggold,Iowa,Ringgold,2022-04-28 09:13:11,2020-09-13,0.6266356102322789,1.416134947482066,3.4422693141922296,,,,,,,,,,,,
19159,0,USIowaRinggold,Iowa,Ringgold,2022-04-28 09:13:11,2020-09-14,0.6266356102322789,1.416134947482066,3.4422693141922296,,,,,,,,,,,,
19159,0,USIowaRinggold,Iowa,Ringgold,2022-04-28 09:13:11,2020-09-15,0.6266356102322789,1.416134947482066,3.4422693141922296,,,,,,,,,,,,
19159,0,USIowaRinggold,Iowa,Ringgold,2022-04-28 09:13:11,2020-09-16,0.6266356102322789,1.416134947482066,3.4422693141922296,,,,,,,,,,,,
19159,0,USIowaRinggold,Iowa,Ringgold,2022-04-28 09:13:11,2020-09-17,0.8088820861073751,1.7757792179662446,4.1911826901520275,,,,,,,,,,,,
19159,0,USIowaRinggold,Iowa,Ringgold,2022-04-28 09:13:11,2020-09-18,0.8088820861073751,1.7757792179662446,4.1911826901520275,,,,,,,,,,,,
19159,0,USIowaRinggold,Iowa,Ringgold,2022-04-28 09:13:11,2020-09-19,0.8088820861073751,1.7757792179662446,4.1911826901520275,,,,,,,,,,,,
19159,0,USIowaRinggold,Iowa,Ringgold,2022-04-28 09:13:11,2020-09-20,0.8088820861073751,1.7757792179662446,4.1911826901520275,,,,,,,,,,,,
19159,0,USIowaRinggold,Iowa,Ringgold,2022-04-28 09:13:11,2020-09-21,0.8088820861073751,1.7757792179662446,4.1911826901520275,,,,,,,,,,,,
19159,0,USIowaRinggold,Iowa,Ringgold,2022-04-28 09:13:11,2020-09-22,0.8088820861073751,1.7757792179662446,4.1911826901520275,,,,,,,,,,,,
19159,0,USIowaRinggold,Iowa,Ringgold,2022-04-28 09:13:11,2020-09-23,0.8088820861073751,1.7757792179662446,4.1911826901520275,,,,,,,,,,,,
19159,0,USIowaRinggold,Iowa,Ringgold,2022-04-28 09:13:11,2020-09-24,0.5775543593195043,1.4271490144998784,3.795104266064097,,,,,,,,,,,,
19159,0,USIowaRinggold,Iowa,Ringgold,2022-04-28 09:13:11,2020-09-25,0.5775543593195043,1.4271490144998784,3.795104266064097,,,,,,,,,,,,
19159,0,USIowaRinggold,Iowa,Ringgold,2022-04-28 09:13:11,2020-09-26,0.5775543593195043,1.4271490144998784,3.795104266064097,,,,,,,,,,,,
19159,0,USIowaRinggold,Iowa,Ringgold,2022-04-28 09:13:11,2020-09-27,0.5775543593195043,1.4271490144998784,3.795104266064097,,,,,,,,,,,,
19159,0,USIowaRinggold,Iowa,Ringgold,2022-04-28 09:13:11,2020-09-28,0.5775543593195043,1.4271490144998784,3.795104266064097,,,,,,,,,,,,
19159,0,USIowaRinggold,Iowa,Ringgold,2022-04-28 09:13:11,2020-09-29,0.5775543593195043,1.4271490144998784,3.795104266064097,,,,,,,,,,,,
19159,0,USIowaRinggold,Iowa,Ringgold,2022-04-28 09:13:11,2020-09-30,0.5775543593195043,1.4271490144998784,3.795104266064097,,,,,,,,,,,,
19159,0,USIowaRinggold,Iowa,Ringgold,2022-04-28 09:13:11,2020-10-01,0.8213975089769759,1.8282232236468723,4.375782564987205,,,,,,,,,,,,
19159,0,USIowaRinggold,Iowa,Ringgold,2022-04-28 09:13:11,2020-10-02,0.8213975089769759,1.8282232236468723,4.375782564987205,,,,,,,,,,,,
19159,0,USIowaRinggold,Iowa,Ringgold,2022-04-28 09:13:11,2020-10-03,0.8213975089769759,1.8282232236468723,4.375782564987205,,,,,,,,,,,,
19159,0,USIowaRinggold,Iowa,Ringgold,2022-04-28 09:13:11,2020-10-04,0.8213975089769759,1.8282232236468723,4.375782564987205,,,,,,,,,,,,
19159,0,USIowaRinggold,Iowa,Ringgold,2022-04-28 09:13:11,2020-10-05,0.8213975089769759,1.8282232236468723,4.375782564987205,,,,,,,,,,,,
19159,0,USIowaRinggold,Iowa,Ringgold,2022-04-28 09:13:11,2020-10-06,0.8213975089769759,1.8282232236468723,4.375782564987205,,,,,,,,,,,,
19159,0,USIowaRinggold,Iowa,Ringgold,2022-04-28 09:13:11,2020-10-07,0.8213975089769759,1.8282232236468723,4.375782564987205,,,,,,,,,,,,
19159,0,USIowaRinggold,Iowa,Ringgold,2022-04-28 09:13:11,2020-10-08,1.7791069326864817,3.3277180598869824,6.652757718910639,,,,,,,,,,,,
19159,0,USIowaRinggold,Iowa,Ringgold,2022-04-28 09:13:11,2020-10-09,1.7791069326864817,3.3277180598869824,6.652757718910639,,,,,,,,,,,,
19159,0,USIowaRinggold,Iowa,Ringgold,2022-04-28 09:13:11,2020-10-10,1.7791069326864817,3.3277180598869824,6.652757718910639,,,,,,,,,,,,
19159,0,USIowaRinggold,Iowa,Ringgold,2022-04-28 09:13:11,2020-10-11,1.7791069326864817,3.3277180598869824,6.652757718910639,,,,,,,,,,,,
19159,0,USIowaRinggold,Iowa,Ringgold,2022-04-28 09:13:11,2020-10-12,1.7791069326864817,3.3277180598869824,6.652757718910639,,,,,,,,,,,,
19159,0,USIowaRinggold,Iowa,Ringgold,2022-04-28 09:13:11,2020-10-13,1.7791069326864817,3.3277180598869824,6.652757718910639,,,,,,,,,,,,
19159,0,USIowaRinggold,Iowa,Ringgold,2022-04-28 09:13:11,2020-10-14,1.7791069326864817,3.3277180598869824,6.652757718910639,,,,,,,,,,,,
19159,0,USIowaRinggold,Iowa,Ringgold,2022-04-28 09:13:11,2020-10-15,0.388223414310664,1.4875808759752318,6.0663173737212865,,,,,,,,,,,,
19159,0,USIowaRinggold,Iowa,Ringgold,2022-04-28 09:13:11,2020-10-16,0.388223414310664,1.4875808759752318,6.0663173737212865,,,,,,,,,,,,
19159,0,USIowaRinggold,Iowa,Ringgold,2022-04-28 09:13:11,2020-10-17,0.388223414310664,1.4875808759752318,6.0663173737212865,,,,,,,,,,,,
19159,0,USIowaRinggold,Iowa,Ringgold,2022-04-28 09:13:11,2020-10-18,0.388223414310664,1.4875808759752318,6.0663173737212865,,,,,,,,,,,,
19159,0,USIowaRinggold,Iowa,Ringgold,2022-04-28 09:13:11,2020-10-19,0.388223414310664,1.4875808759752318,6.0663173737212865,,,,,,,,,,,,
19159,0,USIowaRinggold,Iowa,Ringgold,2022-04-28 09:13:11,2020-10-20,0.388223414310664,1.4875808759752318,6.0663173737212865,,,,,,,,,,,,
19159,0,USIowaRinggold,Iowa,Ringgold,2022-04-28 09:13:11,2020-10-21,0.388223414310664,1.4875808759752318,6.0663173737212865,,,,,,,,,,,,
19159,0,USIowaRinggold,Iowa,Ringgold,2022-04-28 09:13:11,2020-10-22,1.1052759560225094,2.6268799022570124,6.718319773844394,,,,,,,,,,,,
19159,0,USIowaRinggold,Iowa,Ringgold,2022-04-28 09:13:11,2020-10-23,1.1052759560225094,2.6268799022570124,6.718319773844394,,,,,,,,,,,,
19159,0,USIowaRinggold,Iowa,Ringgold,2022-04-28 09:13:11,2020-10-24,1.1052759560225094,2.6268799022570124,6.718319773844394,,,,,,,,,,,,
19159,0,USIowaRinggold,Iowa,Ringgold,2022-04-28 09:13:11,2020-10-25,1.1052759560225094,2.6268799022570124,6.718319773844394,,,,,,,,,,,,
19159,0,USIowaRinggold,Iowa,Ringgold,2022-04-28 09:13:11,2020-10-26,1.1052759560225094,2.6268799022570124,6.718319773844394,,,,,,,,,,,,
19159,0,USIowaRinggold,Iowa,Ringgold,2022-04-28 09:13:11,2020-10-27,1.1052759560225094,2.6268799022570124,6.718319773844394,,,,,,,,,,,,
19159,0,USIowaRinggold,Iowa,Ringgold,2022-04-28 09:13:11,2020-10-28,1.1052759560225094,2.6268799022570124,6.718319773844394,,,,,,,,,,,,
19159,0,USIowaRinggold,Iowa,Ringgold,2022-04-28 09:13:11,2020-10-29,2.095258288237476,4.545250493485949,10.597811861527811,,,,,,,,,,,,
19159,0,USIowaRinggold,Iowa,Ringgold,2022-04-28 09:13:11,2020-10-30,2.095258288237476,4.545250493485949,10.597811861527811,,,,,,,,,,,,
19159,0,USIowaRinggold,Iowa,Ringgold,2022-04-28 09:13:11,2020-10-31,2.095258288237476,4.545250493485949,10.597811861527811,,,,,,,,,,,,
19159,0,USIowaRinggold,Iowa,Ringgold,2022-04-28 09:13:11,2020-11-01,2.095258288237476,4.545250493485949,10.597811861527811,,,,,,,,,,,,
19159,0,USIowaRinggold,Iowa,Ringgold,2022-04-28 09:13:11,2020-11-02,2.095258288237476,4.545250493485949,10.597811861527811,,,,,,,,,,,,
19159,0,USIowaRinggold,Iowa,Ringgold,2022-04-28 09:13:11,2020-11-03,2.095258288237476,4.545250493485949,10.597811861527811,,,,,,,,,,,,
19159,0,USIowaRinggold,Iowa,Ringgold,2022-04-28 09:13:11,2020-11-04,2.095258288237476,4.545250493485949,10.597811861527811,,,,,,,,,,,,
19159,0,USIowaRinggold,Iowa,Ringgold,2022-04-28 09:13:11,2020-11-05,2.05694597513706,4.799640294343893,12.050216381877732,,,,,,,,,,,,
19159,0,USIowaRinggold,Iowa,Ringgold,2022-04-28 09:13:11,2020-11-06,2.05694597513706,4.799640294343893,12.050216381877732,,,,,,,,,,,,
19159,0,USIowaRinggold,Iowa,Ringgold,2022-04-28 09:13:11,2020-11-07,2.05694597513706,4.799640294343893,12.050216381877732,,,,,,,,,,,,
19159,0,USIowaRinggold,Iowa,Ringgold,2022-04-28 09:13:11,2020-11-08,2.05694597513706,4.799640294343893,12.050216381877732,,,,,,,,,,,,
19159,0,USIowaRinggold,Iowa,Ringgold,2022-04-28 09:13:11,2020-11-09,2.05694597513706,4.799640294343893,12.050216381877732,,,,,,,,,,,,
19159,0,USIowaRinggold,Iowa,Ringgold,2022-04-28 09:13:11,2020-11-10,2.05694597513706,4.799640294343893,12.050216381877732,,,,,,,,,,,,
19159,0,USIowaRinggold,Iowa,Ringgold,2022-04-28 09:13:11,2020-11-11,2.05694597513706,4.799640294343893,12.050216381877732,,,,,,,,,,,,
19159,0,USIowaRinggold,Iowa,Ringgold,2022-04-28 09:13:11,2020-11-12,2.377759385360982,5.324830610945399,12.824394900301215,,,,,,,,,,,,
19159,0,USIowaRinggold,Iowa,Ringgold,2022-04-28 09:13:11,2020-11-13,2.377759385360982,5.324830610945399,12.824394900301215,,,,,,,,,,,,
19159,0,USIowaRinggold,Iowa,Ringgold,2022-04-28 09:13:11,2020-11-14,2.377759385360982,5.324830610945399,12.824394900301215,,,,,,,,,,,,
19159,0,USIowaRinggold,Iowa,Ringgold,2022-04-28 09:13:11,2020-11-15,2.377759385360982,5.324830610945399,12.824394900301215,,,,,,,,,,,,
19159,0,USIowaRinggold,Iowa,Ringgold,2022-04-28 09:13:11,2020-11-16,2.377759385360982,5.324830610945399,12.824394900301215,,,,,,,,,,,,
19159,0,USIowaRinggold,Iowa,Ringgold,2022-04-28 09:13:11,2020-11-17,2.377759385360982,5.324830610945399,12.824394900301215,,,,,,,,,,,,
19159,0,USIowaRinggold,Iowa,Ringgold,2022-04-28 09:13:11,2020-11-18,2.377759385360982,5.324830610945399,12.824394900301215,,,,,,,,,,,,
19159,0,USIowaRinggold,Iowa,Ringgold,2022-04-28 09:13:11,2020-11-19,3.7459419069782824,7.037951147766034,14.136695432564167,,,,,,,,,,,,
19159,0,USIowaRinggold,Iowa,Ringgold,2022-04-28 09:13:11,2020-11-20,3.7459419069782824,7.037951147766034,14.136695432564167,,,,,,,,,,,,
19159,0,USIowaRinggold,Iowa,Ringgold,2022-04-28 09:13:11,2020-11-21,3.7459419069782824,7.037951147766034,14.136695432564167,,,,,,,,,,,,
19159,0,USIowaRinggold,Iowa,Ringgold,2022-04-28 09:13:11,2020-11-22,3.7459419069782824,7.037951147766034,14.136695432564167,,,,,,,,,,,,
19159,0,USIowaRinggold,Iowa,Ringgold,2022-04-28 09:13:11,2020-11-23,3.7459419069782824,7.037951147766034,14.136695432564167,,,,,,,,,,,,
19159,0,USIowaRinggold,Iowa,Ringgold,2022-04-28 09:13:11,2020-11-24,3.7459419069782824,7.037951147766034,14.136695432564167,,,,,,,,,,,,
19159,0,USIowaRinggold,Iowa,Ringgold,2022-04-28 09:13:11,2020-11-25,3.7459419069782824,7.037951147766034,14.136695432564167,,,,,,,,,,,,
19159,0,USIowaRinggold,Iowa,Ringgold,2022-04-28 09:13:11,2020-11-26,3.47330332806126,6.644298784924042,13.60117643015256,,,,,,,,,,,,
19159,0,USIowaRinggold,Iowa,Ringgold,2022-04-28 09:13:11,2020-11-27,3.47330332806126,6.644298784924042,13.60117643015256,,,,,,,,,,,,
19159,0,USIowaRinggold,Iowa,Ringgold,2022-04-28 09:13:11,2020-11-28,3.47330332806126,6.644298784924042,13.60117643015256,,,,,,,,,,,,
19159,0,USIowaRinggold,Iowa,Ringgold,2022-04-28 09:13:11,2020-11-29,3.47330332806126,6.644298784924042,13.60117643015256,,,,,,,,,,,,
19159,0,USIowaRinggold,Iowa,Ringgold,2022-04-28 09:13:11,2020-11-30,3.47330332806126,6.644298784924042,13.60117643015256,,,,,,,,,,,,
19159,0,USIowaRinggold,Iowa,Ringgold,2022-04-28 09:13:11,2020-12-01,3.47330332806126,6.644298784924042,13.60117643015256,,,,,,,,,,,,
19159,0,USIowaRinggold,Iowa,Ringgold,2022-04-28 09:13:11,2020-12-02,3.47330332806126,6.644298784924042,13.60117643015256,,,,,,,,,,,,
19159,0,USIowaRinggold,Iowa,Ringgold,2022-04-28 09:13:11,2020-12-03,4.146816280275173,7.338761517119248,13.834064075909392,,,,,,,,,,,,
19159,0,USIowaRinggold,Iowa,Ringgold,2022-04-28 09:13:11,2020-12-04,4.146816280275173,7.338761517119248,13.834064075909392,,,,,,,,,,,,
19159,0,USIowaRinggold,Iowa,Ringgold,2022-04-28 09:13:11,2020-12-05,4.146816280275173,7.338761517119248,13.834064075909392,,,,,,,,,,,,
19159,0,USIowaRinggold,Iowa,Ringgold,2022-04-28 09:13:11,2020-12-06,4.146816280275173,7.338761517119248,13.834064075909392,,,,,,,,,,,,
19159,0,USIowaRinggold,Iowa,Ringgold,2022-04-28 09:13:11,2020-12-07,4.146816280275173,7.338761517119248,13.834064075909392,,,,,,,,,,,,
19159,0,USIowaRinggold,Iowa,Ringgold,2022-04-28 09:13:11,2020-12-08,4.146816280275173,7.338761517119248,13.834064075909392,,,,,,,,,,,,
19159,0,USIowaRinggold,Iowa,Ringgold,2022-04-28 09:13:11,2020-12-09,4.146816280275173,7.338761517119248,13.834064075909392,,,,,,,,,,,,
19159,0,USIowaRinggold,Iowa,Ringgold,2022-04-28 09:13:11,2020-12-10,2.6803864901936167,5.262423261418833,11.06925589116239,,,,,,,,,,,,
19159,0,USIowaRinggold,Iowa,Ringgold,2022-04-28 09:13:11,2020-12-11,2.6803864901936167,5.262423261418833,11.06925589116239,,,,,,,,,,,,
19159,0,USIowaRinggold,Iowa,Ringgold,2022-04-28 09:13:11,2020-12-12,2.6803864901936167,5.262423261418833,11.06925589116239,,,,,,,,,,,,
19159,0,USIowaRinggold,Iowa,Ringgold,2022-04-28 09:13:11,2020-12-13,2.6803864901936167,5.262423261418833,11.06925589116239,,,,,,,,,,,,
19159,0,USIowaRinggold,Iowa,Ringgold,2022-04-28 09:13:11,2020-12-14,2.6803864901936167,5.262423261418833,11.06925589116239,,,,,,,,,,,,
19159,0,USIowaRinggold,Iowa,Ringgold,2022-04-28 09:13:11,2020-12-15,2.6803864901936167,5.262423261418833,11.06925589116239,,,,,,,,,,,,
19159,0,USIowaRinggold,Iowa,Ringgold,2022-04-28 09:13:11,2020-12-16,2.6803864901936167,5.262423261418833,11.06925589116239,,,,,,,,,,,,
19159,0,USIowaRinggold,Iowa,Ringgold,2022-04-28 09:13:11,2020-12-17,2.4977109876881496,4.896675877668755,10.284364692032955,,,,,,,,,,,,
19159,0,USIowaRinggold,Iowa,Ringgold,2022-04-28 09:13:11,2020-12-18,2.4977109876881496,4.896675877668755,10.284364692032955,,,,,,,,,,,,
19159,0,USIowaRinggold,Iowa,Ringgold,2022-04-28 09:13:11,2020-12-19,2.4977109876881496,4.896675877668755,10.284364692032955,,,,,,,,,,,,
19159,0,USIowaRinggold,Iowa,Ringgold,2022-04-28 09:13:11,2020-12-20,2.4977109876881496,4.896675877668755,10.284364692032955,,,,,,,,,,,,
19159,0,USIowaRinggold,Iowa,Ringgold,2022-04-28 09:13:11,2020-12-21,2.4977109876881496,4.896675877668755,10.284364692032955,,,,,,,,,,,,
19159,0,USIowaRinggold,Iowa,Ringgold,2022-04-28 09:13:11,2020-12-22,2.4977109876881496,4.896675877668755,10.284364692032955,,,,,,,,,,,,
19159,0,USIowaRinggold,Iowa,Ringgold,2022-04-28 09:13:11,2020-12-23,2.4977109876881496,4.896675877668755,10.284364692032955,,,,,,,,,,,,
19159,0,USIowaRinggold,Iowa,Ringgold,2022-04-28 09:13:11,2020-12-24,1.4429326542102416,3.442211127333974,8.8366396091152,,,,,,,,,,,,
19159,0,USIowaRinggold,Iowa,Ringgold,2022-04-28 09:13:11,2020-12-25,1.4429326542102416,3.442211127333974,8.8366396091152,,,,,,,,,,,,
19159,0,USIowaRinggold,Iowa,Ringgold,2022-04-28 09:13:11,2020-12-26,1.4429326542102416,3.442211127333974,8.8366396091152,,,,,,,,,,,,
19159,0,USIowaRinggold,Iowa,Ringgold,2022-04-28 09:13:11,2020-12-27,1.4429326542102416,3.442211127333974,8.8366396091152,,,,,,,,,,,,
19159,0,USIowaRinggold,Iowa,Ringgold,2022-04-28 09:13:11,2020-12-28,1.4429326542102416,3.442211127333974,8.8366396091152,,,,,,,,,,,,
19159,0,USIowaRinggold,Iowa,Ringgold,2022-04-28 09:13:11,2020-12-29,1.4429326542102416,3.442211127333974,8.8366396091152,,,,,,,,,,,,
19159,0,USIowaRinggold,Iowa,Ringgold,2022-04-28 09:13:11,2020-12-30,1.4429326542102416,3.442211127333974,8.8366396091152,,,,,,,,,,,,
19159,0,USIowaRinggold,Iowa,Ringgold,2022-04-28 09:13:11,2020-12-31,2.33084322800787,5.127482944946871,12.127077002755547,,,,,,,,,,,,
19159,0,USIowaRinggold,Iowa,Ringgold,2022-04-28 09:13:11,2021-01-01,2.33084322800787,5.127482944946871,12.127077002755547,,,,,,,,,,,,
19159,0,USIowaRinggold,Iowa,Ringgold,2022-04-28 09:13:11,2021-01-02,2.33084322800787,5.127482944946871,12.127077002755547,,,,,,,,,,,,
19159,0,USIowaRinggold,Iowa,Ringgold,2022-04-28 09:13:11,2021-01-03,2.33084322800787,5.127482944946871,12.127077002755547,,,,,,,,,,,,
19159,0,USIowaRinggold,Iowa,Ringgold,2022-04-28 09:13:11,2021-01-04,2.33084322800787,5.127482944946871,12.127077002755547,,,,,,,,,,,,
19159,0,USIowaRinggold,Iowa,Ringgold,2022-04-28 09:13:11,2021-01-05,2.33084322800787,5.127482944946871,12.127077002755547,,,,,,,,,,,,
19159,0,USIowaRinggold,Iowa,Ringgold,2022-04-28 09:13:11,2021-01-06,2.33084322800787,5.127482944946871,12.127077002755547,,,,,,,,,,,,
19159,0,USIowaRinggold,Iowa,Ringgold,2022-04-28 09:13:11,2021-01-07,3.2011872193232467,6.103560661985361,12.451014820714738,,,,,,,,,,,,
19159,0,USIowaRinggold,Iowa,Ringgold,2022-04-28 09:13:11,2021-01-08,3.2011872193232467,6.103560661985361,12.451014820714738,,,,,,,,,,,,
19159,0,USIowaRinggold,Iowa,Ringgold,2022-04-28 09:13:11,2021-01-09,3.2011872193232467,6.103560661985361,12.451014820714738,,,,,,,,,,,,
19159,0,USIowaRinggold,Iowa,Ringgold,2022-04-28 09:13:11,2021-01-10,3.2011872193232467,6.103560661985361,12.451014820714738,,,,,,,,,,,,
19159,0,USIowaRinggold,Iowa,Ringgold,2022-04-28 09:13:11,2021-01-11,3.2011872193232467,6.103560661985361,12.451014820714738,,,,,,,,,,,,
19159,0,USIowaRinggold,Iowa,Ringgold,2022-04-28 09:13:11,2021-01-12,3.2011872193232467,6.103560661985361,12.451014820714738,,,,,,,,,,,,
19159,0,USIowaRinggold,Iowa,Ringgold,2022-04-28 09:13:11,2021-01-13,3.2011872193232467,6.103560661985361,12.451014820714738,,,,,,,,,,,,
19159,0,USIowaRinggold,Iowa,Ringgold,2022-04-28 09:13:11,2021-01-14,2.140867367209196,4.36229615303989,9.537063620539422,,,,,,,,,,,,
19159,0,USIowaRinggold,Iowa,Ringgold,2022-04-28 09:13:11,2021-01-15,2.140867367209196,4.36229615303989,9.537063620539422,,,,,,,,,,,,
19159,0,USIowaRinggold,Iowa,Ringgold,2022-04-28 09:13:11,2021-01-16,2.140867367209196,4.36229615303989,9.537063620539422,,,,,,,,,,,,
19159,0,USIowaRinggold,Iowa,Ringgold,2022-04-28 09:13:11,2021-01-17,2.140867367209196,4.36229615303989,9.537063620539422,,,,,,,,,,,,
19159,0,USIowaRinggold,Iowa,Ringgold,2022-04-28 09:13:11,2021-01-18,2.140867367209196,4.36229615303989,9.537063620539422,,,,,,,,,,,,
19159,0,USIowaRinggold,Iowa,Ringgold,2022-04-28 09:13:11,2021-01-19,2.140867367209196,4.36229615303989,9.537063620539422,,,,,,,,,,,,
19159,0,USIowaRinggold,Iowa,Ringgold,2022-04-28 09:13:11,2021-01-20,2.140867367209196,4.36229615303989,9.537063620539422,,,,,,,,,,,,
19159,0,USIowaRinggold,Iowa,Ringgold,2022-04-28 09:13:11,2021-01-21,2.116805635455996,4.269326542454853,9.235320197265525,,,,,,,,,,,,
19159,0,USIowaRinggold,Iowa,Ringgold,2022-04-28 09:13:11,2021-01-22,2.116805635455996,4.269326542454853,9.235320197265525,,,,,,,,,,,,
19159,0,USIowaRinggold,Iowa,Ringgold,2022-04-28 09:13:11,2021-01-23,2.116805635455996,4.269326542454853,9.235320197265525,,,,,,,,,,,,
19159,0,USIowaRinggold,Iowa,Ringgold,2022-04-28 09:13:11,2021-01-24,2.116805635455996,4.269326542454853,9.235320197265525,,,,,,,,,,,,
19159,0,USIowaRinggold,Iowa,Ringgold,2022-04-28 09:13:11,2021-01-25,2.116805635455996,4.269326542454853,9.235320197265525,,,,,,,,,,,,
19159,0,USIowaRinggold,Iowa,Ringgold,2022-04-28 09:13:11,2021-01-26,2.116805635455996,4.269326542454853,9.235320197265525,,,,,,,,,,,,
19159,0,USIowaRinggold,Iowa,Ringgold,2022-04-28 09:13:11,2021-01-27,2.116805635455996,4.269326542454853,9.235320197265525,,,,,,,,,,,,
19159,0,USIowaRinggold,Iowa,Ringgold,2022-04-28 09:13:11,2021-01-28,1.144189889244075,2.5764253798854093,6.23972788391613,,,,,,,,,,,,
19159,0,USIowaRinggold,Iowa,Ringgold,2022-04-28 09:13:11,2021-01-29,1.144189889244075,2.5764253798854093,6.23972788391613,,,,,,,,,,,,
19159,0,USIowaRinggold,Iowa,Ringgold,2022-04-28 09:13:11,2021-01-30,1.144189889244075,2.5764253798854093,6.23972788391613,,,,,,,,,,,,
19159,0,USIowaRinggold,Iowa,Ringgold,2022-04-28 09:13:11,2021-01-31,1.144189889244075,2.5764253798854093,6.23972788391613,,,,,,,,,,,,
19159,0,USIowaRinggold,Iowa,Ringgold,2022-04-28 09:13:11,2021-02-01,1.144189889244075,2.5764253798854093,6.23972788391613,,,,,,,,,,,,
19159,0,USIowaRinggold,Iowa,Ringgold,2022-04-28 09:13:11,2021-02-02,1.144189889244075,2.5764253798854093,6.23972788391613,,,,,,,,,,,,
19159,0,USIowaRinggold,Iowa,Ringgold,2022-04-28 09:13:11,2021-02-03,1.144189889244075,2.5764253798854093,6.23972788391613,,,,,,,,,,,,
19159,0,USIowaRinggold,Iowa,Ringgold,2022-04-28 09:13:11,2021-02-04,1.2492696936118863,2.815176997690579,6.823206904749625,,,,,,,,,,,,
19159,0,USIowaRinggold,Iowa,Ringgold,2022-04-28 09:13:11,2021-02-05,1.2492696936118863,2.815176997690579,6.823206904749625,,,,,,,,,,,,
19159,0,USIowaRinggold,Iowa,Ringgold,2022-04-28 09:13:11,2021-02-06,1.2492696936118863,2.815176997690579,6.823206904749625,,,,,,,,,,,,
19159,0,USIowaRinggold,Iowa,Ringgold,2022-04-28 09:13:11,2021-02-07,1.2492696936118863,2.815176997690579,6.823206904749625,,,,,,,,,,,,
19159,0,USIowaRinggold,Iowa,Ringgold,2022-04-28 09:13:11,2021-02-08,1.2492696936118863,2.815176997690579,6.823206904749625,,,,,,,,,,,,
19159,0,USIowaRinggold,Iowa,Ringgold,2022-04-28 09:13:11,2021-02-09,1.2492696936118863,2.815176997690579,6.823206904749625,,,,,,,,,,,,
19159,0,USIowaRinggold,Iowa,Ringgold,2022-04-28 09:13:11,2021-02-10,1.2492696936118863,2.815176997690579,6.823206904749625,,,,,,,,,,,,
19159,0,USIowaRinggold,Iowa,Ringgold,2022-04-28 09:13:11,2021-02-11,0.6352524461276378,1.4532009902104566,3.576202601921716,,,,,,,,,,,,
19159,0,USIowaRinggold,Iowa,Ringgold,2022-04-28 09:13:11,2021-02-12,0.6352524461276378,1.4532009902104566,3.576202601921716,,,,,,,,,,,,
19159,0,USIowaRinggold,Iowa,Ringgold,2022-04-28 09:13:11,2021-02-13,0.6352524461276378,1.4532009902104566,3.576202601921716,,,,,,,,,,,,
19159,0,USIowaRinggold,Iowa,Ringgold,2022-04-28 09:13:11,2021-02-14,0.6352524461276378,1.4532009902104566,3.576202601921716,,,,,,,,,,,,
19159,0,USIowaRinggold,Iowa,Ringgold,2022-04-28 09:13:11,2021-02-15,0.6352524461276378,1.4532009902104566,3.576202601921716,,,,,,,,,,,,
19159,0,USIowaRinggold,Iowa,Ringgold,2022-04-28 09:13:11,2021-02-16,0.6352524461276378,1.4532009902104566,3.576202601921716,,,,,,,,,,,,
19159,0,USIowaRinggold,Iowa,Ringgold,2022-04-28 09:13:11,2021-02-17,0.6352524461276378,1.4532009902104566,3.576202601921716,,,,,,,,,,,,
19159,0,USIowaRinggold,Iowa,Ringgold,2022-04-28 09:13:11,2021-02-18,0.4166720389483094,1.2081359780856762,3.762300146599431,,,,,,,,,,,,
19159,0,USIowaRinggold,Iowa,Ringgold,2022-04-28 09:13:11,2021-02-19,0.4166720389483094,1.2081359780856762,3.762300146599431,,,,,,,,,,,,
19159,0,USIowaRinggold,Iowa,Ringgold,2022-04-28 09:13:11,2021-02-20,0.4166720389483094,1.2081359780856762,3.762300146599431,,,,,,,,,,,,
19159,0,USIowaRinggold,Iowa,Ringgold,2022-04-28 09:13:11,2021-02-21,0.4166720389483094,1.2081359780856762,3.762300146599431,,,,,,,,,,,,
19159,0,USIowaRinggold,Iowa,Ringgold,2022-04-28 09:13:11,2021-02-22,0.4166720389483094,1.2081359780856762,3.762300146599431,,,,,,,,,,,,
19159,0,USIowaRinggold,Iowa,Ringgold,2022-04-28 09:13:11,2021-02-23,0.4166720389483094,1.2081359780856762,3.762300146599431,,,,,,,,,,,,
19159,0,USIowaRinggold,Iowa,Ringgold,2022-04-28 09:13:11,2021-02-24,0.4166720389483094,1.2081359780856762,3.762300146599431,,,,,,,,,,,,
19159,0,USIowaRinggold,Iowa,Ringgold,2022-04-28 09:13:11,2021-02-25,0.7699902938299144,1.822253998370868,4.640599142646362,,,,,,,,,,,,
19159,0,USIowaRinggold,Iowa,Ringgold,2022-04-28 09:13:11,2021-02-26,0.7699902938299144,1.822253998370868,4.640599142646362,,,,,,,,,,,,
19159,0,USIowaRinggold,Iowa,Ringgold,2022-04-28 09:13:11,2021-02-27,0.7699902938299144,1.822253998370868,4.640599142646362,,,,,,,,,,,,
19159,0,USIowaRinggold,Iowa,Ringgold,2022-04-28 09:13:11,2021-02-28,0.7699902938299144,1.822253998370868,4.640599142646362,,,,,,,,,,,,
19159,0,USIowaRinggold,Iowa,Ringgold,2022-04-28 09:13:11,2021-03-01,0.7699902938299144,1.822253998370868,4.640599142646362,,,,,,,,,,,,
19159,0,USIowaRinggold,Iowa,Ringgold,2022-04-28 09:13:11,2021-03-02,0.7699902938299144,1.822253998370868,4.640599142646362,,,,,,,,,,,,
19159,0,USIowaRinggold,Iowa,Ringgold,2022-04-28 09:13:11,2021-03-03,0.7699902938299144,1.822253998370868,4.640599142646362,,,,,,,,,,,,
19159,0,USIowaRinggold,Iowa,Ringgold,2022-04-28 09:13:11,2021-03-04,0.756105036641962,1.7607297589911395,4.411604178645539,,,,,,,,,,,,
19159,0,USIowaRinggold,Iowa,Ringgold,2022-04-28 09:13:11,2021-03-05,0.756105036641962,1.7607297589911395,4.411604178645539,,,,,,,,,,,,
19159,0,USIowaRinggold,Iowa,Ringgold,2022-04-28 09:13:11,2021-03-06,0.756105036641962,1.7607297589911395,4.411604178645539,,,,,,,,,,,,
19159,0,USIowaRinggold,Iowa,Ringgold,2022-04-28 09:13:11,2021-03-07,0.756105036641962,1.7607297589911395,4.411604178645539,,,,,,,,,,,,
19159,0,USIowaRinggold,Iowa,Ringgold,2022-04-28 09:13:11,2021-03-08,0.756105036641962,1.7607297589911395,4.411604178645539,,,,,,,,,,,,
19159,0,USIowaRinggold,Iowa,Ringgold,2022-04-28 09:13:11,2021-03-09,0.756105036641962,1.7607297589911395,4.411604178645539,,,,,,,,,,,,
19159,0,USIowaRinggold,Iowa,Ringgold,2022-04-28 09:13:11,2021-03-10,0.756105036641962,1.7607297589911395,4.411604178645539,,,,,,,,,,,,
19159,0,USIowaRinggold,Iowa,Ringgold,2022-04-28 09:13:11,2021-03-11,0.39817430344111815,1.1103810949891835,3.3283062861901387,,,,,,,,,,,,
19159,0,USIowaRinggold,Iowa,Ringgold,2022-04-28 09:13:11,2021-03-12,0.39817430344111815,1.1103810949891835,3.3283062861901387,,,,,,,,,,,,
19159,0,USIowaRinggold,Iowa,Ringgold,2022-04-28 09:13:11,2021-03-13,0.39817430344111815,1.1103810949891835,3.3283062861901387,,,,,,,,,,,,
19159,0,USIowaRinggold,Iowa,Ringgold,2022-04-28 09:13:11,2021-03-14,0.39817430344111815,1.1103810949891835,3.3283062861901387,,,,,,,,,,,,
19159,0,USIowaRinggold,Iowa,Ringgold,2022-04-28 09:13:11,2021-03-15,0.39817430344111815,1.1103810949891835,3.3283062861901387,,,,,,,,,,,,
19159,0,USIowaRinggold,Iowa,Ringgold,2022-04-28 09:13:11,2021-03-16,0.39817430344111815,1.1103810949891835,3.3283062861901387,,,,,,,,,,,,
19159,0,USIowaRinggold,Iowa,Ringgold,2022-04-28 09:13:11,2021-03-17,0.39817430344111815,1.1103810949891835,3.3283062861901387,,,,,,,,,,,,
19159,0,USIowaRinggold,Iowa,Ringgold,2022-04-28 09:13:11,2021-03-18,0.8498347635793615,1.9498669249316254,4.812901545254182,,,,,,,,,,,,
19159,0,USIowaRinggold,Iowa,Ringgold,2022-04-28 09:13:11,2021-03-19,0.8498347635793615,1.9498669249316254,4.812901545254182,,,,,,,,,,,,
19159,0,USIowaRinggold,Iowa,Ringgold,2022-04-28 09:13:11,2021-03-20,0.8498347635793615,1.9498669249316254,4.812901545254182,,,,,,,,,,,,
19159,0,USIowaRinggold,Iowa,Ringgold,2022-04-28 09:13:11,2021-03-21,0.8498347635793615,1.9498669249316254,4.812901545254182,,,,,,,,,,,,
19159,0,USIowaRinggold,Iowa,Ringgold,2022-04-28 09:13:11,2021-03-22,0.8498347635793615,1.9498669249316254,4.812901545254182,,,,,,,,,,,,
19159,0,USIowaRinggold,Iowa,Ringgold,2022-04-28 09:13:11,2021-03-23,0.8498347635793615,1.9498669249316254,4.812901545254182,,,,,,,,,,,,
19159,0,USIowaRinggold,Iowa,Ringgold,2022-04-28 09:13:11,2021-03-24,0.8498347635793615,1.9498669249316254,4.812901545254182,,,,,,,,,,,,
19159,0,USIowaRinggold,Iowa,Ringgold,2022-04-28 09:13:11,2021-03-25,0.683704759129599,1.669335206246058,4.386310479606639,,,,,,,,,,,,
19159,0,USIowaRinggold,Iowa,Ringgold,2022-04-28 09:13:11,2021-03-26,0.683704759129599,1.669335206246058,4.386310479606639,,,,,,,,,,,,
19159,0,USIowaRinggold,Iowa,Ringgold,2022-04-28 09:13:11,2021-03-27,0.683704759129599,1.669335206246058,4.386310479606639,,,,,,,,,,,,
19159,0,USIowaRinggold,Iowa,Ringgold,2022-04-28 09:13:11,2021-03-28,0.683704759129599,1.669335206246058,4.386310479606639,,,,,,,,,,,,
19159,0,USIowaRinggold,Iowa,Ringgold,2022-04-28 09:13:11,2021-03-29,0.683704759129599,1.669335206246058,4.386310479606639,,,,,,,,,,,,
19159,0,USIowaRinggold,Iowa,Ringgold,2022-04-28 09:13:11,2021-03-30,0.683704759129599,1.669335206246058,4.386310479606639,,,,,,,,,,,,
19159,0,USIowaRinggold,Iowa,Ringgold,2022-04-28 09:13:11,2021-03-31,0.683704759129599,1.669335206246058,4.386310479606639,,,,,,,,,,,,
19159,0,USIowaRinggold,Iowa,Ringgold,2022-04-28 09:13:11,2021-04-01,0.29626337748341086,0.9073938243024552,2.9808766388843204,,,,,,,,,,,,
19159,0,USIowaRinggold,Iowa,Ringgold,2022-04-28 09:13:11,2021-04-02,0.29626337748341086,0.9073938243024552,2.9808766388843204,,,,,,,,,,,,
19159,0,USIowaRinggold,Iowa,Ringgold,2022-04-28 09:13:11,2021-04-03,0.29626337748341086,0.9073938243024552,2.9808766388843204,,,,,,,,,,,,
19159,0,USIowaRinggold,Iowa,Ringgold,2022-04-28 09:13:11,2021-04-04,0.29626337748341086,0.9073938243024552,2.9808766388843204,,,,,,,,,,,,
19159,0,USIowaRinggold,Iowa,Ringgold,2022-04-28 09:13:11,2021-04-05,0.29626337748341086,0.9073938243024552,2.9808766388843204,,,,,,,,,,,,
19159,0,USIowaRinggold,Iowa,Ringgold,2022-04-28 09:13:11,2021-04-06,0.29626337748341086,0.9073938243024552,2.9808766388843204,,,,,,,,,,,,
19159,0,USIowaRinggold,Iowa,Ringgold,2022-04-28 09:13:11,2021-04-07,0.29626337748341086,0.9073938243024552,2.9808766388843204,,,,,,,,,,,,
19159,0,USIowaRinggold,Iowa,Ringgold,2022-04-28 09:13:11,2021-04-08,0.5116681227306262,1.3821257829762936,4.01493322430619,,,,,,,,,,,,
19159,0,USIowaRinggold,Iowa,Ringgold,2022-04-28 09:13:11,2021-04-09,0.5116681227306262,1.3821257829762936,4.01493322430619,,,,,,,,,,,,
19159,0,USIowaRinggold,Iowa,Ringgold,2022-04-28 09:13:11,2021-04-10,0.5116681227306262,1.3821257829762936,4.01493322430619,,,,,,,,,,,,
19159,0,USIowaRinggold,Iowa,Ringgold,2022-04-28 09:13:11,2021-04-11,0.5116681227306262,1.3821257829762936,4.01493322430619,,,,,,,,,,,,
19159,0,USIowaRinggold,Iowa,Ringgold,2022-04-28 09:13:11,2021-04-12,0.5116681227306262,1.3821257829762936,4.01493322430619,,,,,,,,,,,,
19159,0,USIowaRinggold,Iowa,Ringgold,2022-04-28 09:13:11,2021-04-13,0.5116681227306262,1.3821257829762936,4.01493322430619,,,,,,,,,,,,
19159,0,USIowaRinggold,Iowa,Ringgold,2022-04-28 09:13:11,2021-04-14,0.5116681227306262,1.3821257829762936,4.01493322430619,,,,,,,,,,,,
19159,0,USIowaRinggold,Iowa,Ringgold,2022-04-28 09:13:11,2021-04-15,0.29760128538832537,0.914972594591797,3.0169387372155296,,,,,,,,,,,,
19159,0,USIowaRinggold,Iowa,Ringgold,2022-04-28 09:13:11,2021-04-16,0.29760128538832537,0.914972594591797,3.0169387372155296,,,,,,,,,,,,
19159,0,USIowaRinggold,Iowa,Ringgold,2022-04-28 09:13:11,2021-04-17,0.29760128538832537,0.914972594591797,3.0169387372155296,,,,,,,,,,,,
19159,0,USIowaRinggold,Iowa,Ringgold,2022-04-28 09:13:11,2021-04-18,0.29760128538832537,0.914972594591797,3.0169387372155296,,,,,,,,,,,,
19159,0,USIowaRinggold,Iowa,Ringgold,2022-04-28 09:13:11,2021-04-19,0.29760128538832537,0.914972594591797,3.0169387372155296,,,,,,,,,,,,
19159,0,USIowaRinggold,Iowa,Ringgold,2022-04-28 09:13:11,2021-04-20,0.29760128538832537,0.914972594591797,3.0169387372155296,,,,,,,,,,,,
19159,0,USIowaRinggold,Iowa,Ringgold,2022-04-28 09:13:11,2021-04-21,0.29760128538832537,0.914972594591797,3.0169387372155296,,,,,,,,,,,,
19159,0,USIowaRinggold,Iowa,Ringgold,2022-04-28 09:13:11,2021-04-22,0.2913151186172395,0.8795936395809657,2.8496782824154856,,,,,,,,,,,,
19159,0,USIowaRinggold,Iowa,Ringgold,2022-04-28 09:13:11,2021-04-23,0.2913151186172395,0.8795936395809657,2.8496782824154856,,,,,,,,,,,,
19159,0,USIowaRinggold,Iowa,Ringgold,2022-04-28 09:13:11,2021-04-24,0.2913151186172395,0.8795936395809657,2.8496782824154856,,,,,,,,,,,,
19159,0,USIowaRinggold,Iowa,Ringgold,2022-04-28 09:13:11,2021-04-25,0.2913151186172395,0.8795936395809657,2.8496782824154856,,,,,,,,,,,,
19159,0,USIowaRinggold,Iowa,Ringgold,2022-04-28 09:13:11,2021-04-26,0.2913151186172395,0.8795936395809657,2.8496782824154856,,,,,,,,,,,,
19159,0,USIowaRinggold,Iowa,Ringgold,2022-04-28 09:13:11,2021-04-27,0.2913151186172395,0.8795936395809657,2.8496782824154856,,,,,,,,,,,,
19159,0,USIowaRinggold,Iowa,Ringgold,2022-04-28 09:13:11,2021-04-28,0.2913151186172395,0.8795936395809657,2.8496782824154856,,,,,,,,,,,,
19159,0,USIowaRinggold,Iowa,Ringgold,2022-04-28 09:13:11,2021-04-29,0.730026510254929,1.6476759644550798,3.999888969276703,,,,,,,,,,,,
19159,0,USIowaRinggold,Iowa,Ringgold,2022-04-28 09:13:11,2021-04-30,0.730026510254929,1.6476759644550798,3.999888969276703,,,,,,,,,,,,
19159,0,USIowaRinggold,Iowa,Ringgold,2022-04-28 09:13:11,2021-05-01,0.730026510254929,1.6476759644550798,3.999888969276703,,,,,,,,,,,,
19159,0,USIowaRinggold,Iowa,Ringgold,2022-04-28 09:13:11,2021-05-02,0.730026510254929,1.6476759644550798,3.999888969276703,,,,,,,,,,,,
19159,0,USIowaRinggold,Iowa,Ringgold,2022-04-28 09:13:11,2021-05-03,0.730026510254929,1.6476759644550798,3.999888969276703,,,,,,,,,,,,
19159,0,USIowaRinggold,Iowa,Ringgold,2022-04-28 09:13:11,2021-05-04,0.730026510254929,1.6476759644550798,3.999888969276703,,,,,,,,,,,,
19159,0,USIowaRinggold,Iowa,Ringgold,2022-04-28 09:13:11,2021-05-05,0.730026510254929,1.6476759644550798,3.999888969276703,,,,,,,,,,,,
19159,0,USIowaRinggold,Iowa,Ringgold,2022-04-28 09:13:11,2021-05-06,0.9380404024268705,1.9248078687236443,4.238682684773335,,,,,,,,,,,,
19159,0,USIowaRinggold,Iowa,Ringgold,2022-04-28 09:13:11,2021-05-07,0.9380404024268705,1.9248078687236443,4.238682684773335,,,,,,,,,,,,
19159,0,USIowaRinggold,Iowa,Ringgold,2022-04-28 09:13:11,2021-05-08,0.9380404024268705,1.9248078687236443,4.238682684773335,,,,,,,,,,,,
19159,0,USIowaRinggold,Iowa,Ringgold,2022-04-28 09:13:11,2021-05-09,0.9380404024268705,1.9248078687236443,4.238682684773335,,,,,,,,,,,,
19159,0,USIowaRinggold,Iowa,Ringgold,2022-04-28 09:13:11,2021-05-10,0.9380404024268705,1.9248078687236443,4.238682684773335,,,,,,,,,,,,
19159,0,USIowaRinggold,Iowa,Ringgold,2022-04-28 09:13:11,2021-05-11,0.9380404024268705,1.9248078687236443,4.238682684773335,,,,,,,,,,,,
19159,0,USIowaRinggold,Iowa,Ringgold,2022-04-28 09:13:11,2021-05-12,0.9380404024268705,1.9248078687236443,4.238682684773335,,,,,,,,,,,,
19159,0,USIowaRinggold,Iowa,Ringgold,2022-04-28 09:13:11,2021-05-13,0.3544386603666,0.8933533629235703,2.4230231262244843,,,,,,,,,,,,
19159,0,USIowaRinggold,Iowa,Ringgold,2022-04-28 09:13:11,2021-05-14,0.3544386603666,0.8933533629235703,2.4230231262244843,,,,,,,,,,,,
19159,0,USIowaRinggold,Iowa,Ringgold,2022-04-28 09:13:11,2021-05-15,0.3544386603666,0.8933533629235703,2.4230231262244843,,,,,,,,,,,,
19159,0,USIowaRinggold,Iowa,Ringgold,2022-04-28 09:13:11,2021-05-16,0.3544386603666,0.8933533629235703,2.4230231262244843,,,,,,,,,,,,
19159,0,USIowaRinggold,Iowa,Ringgold,2022-04-28 09:13:11,2021-05-17,0.3544386603666,0.8933533629235703,2.4230231262244843,,,,,,,,,,,,
19159,0,USIowaRinggold,Iowa,Ringgold,2022-04-28 09:13:11,2021-05-18,0.3544386603666,0.8933533629235703,2.4230231262244843,,,,,,,,,,,,
19159,0,USIowaRinggold,Iowa,Ringgold,2022-04-28 09:13:11,2021-05-19,0.3544386603666,0.8933533629235703,2.4230231262244843,,,,,,,,,,,,
19159,0,USIowaRinggold,Iowa,Ringgold,2022-04-28 09:13:11,2021-05-20,0.15120279521873692,0.47120217561124456,1.5742550658971122,,,,,,,,,,,,
19159,0,USIowaRinggold,Iowa,Ringgold,2022-04-28 09:13:11,2021-05-21,0.15120279521873692,0.47120217561124456,1.5742550658971122,,,,,,,,,,,,
19159,0,USIowaRinggold,Iowa,Ringgold,2022-04-28 09:13:11,2021-05-22,0.15120279521873692,0.47120217561124456,1.5742550658971122,,,,,,,,,,,,
19159,0,USIowaRinggold,Iowa,Ringgold,2022-04-28 09:13:11,2021-05-23,0.15120279521873692,0.47120217561124456,1.5742550658971122,,,,,,,,,,,,
19159,0,USIowaRinggold,Iowa,Ringgold,2022-04-28 09:13:11,2021-05-24,0.15120279521873692,0.47120217561124456,1.5742550658971122,,,,,,,,,,,,
19159,0,USIowaRinggold,Iowa,Ringgold,2022-04-28 09:13:11,2021-05-25,0.15120279521873692,0.47120217561124456,1.5742550658971122,,,,,,,,,,,,
19159,0,USIowaRinggold,Iowa,Ringgold,2022-04-28 09:13:11,2021-05-26,0.15120279521873692,0.47120217561124456,1.5742550658971122,,,,,,,,,,,,
19159,0,USIowaRinggold,Iowa,Ringgold,2022-04-28 09:13:11,2021-05-27,0,0,0,,,,,,,,,,,,
19159,0,USIowaRinggold,Iowa,Ringgold,2022-04-28 09:13:11,2021-05-28,0,0,0,,,,,,,,,,,,
19159,0,USIowaRinggold,Iowa,Ringgold,2022-04-28 09:13:11,2021-05-29,0,0,0,,,,,,,,,,,,
19159,0,USIowaRinggold,Iowa,Ringgold,2022-04-28 09:13:11,2021-05-30,0,0,0,,,,,,,,,,,,
19159,0,USIowaRinggold,Iowa,Ringgold,2022-04-28 09:13:11,2021-05-31,0,0,0,,,,,,,,,,,,
19159,0,USIowaRinggold,Iowa,Ringgold,2022-04-28 09:13:11,2021-06-01,0,0,0,,,,,,,,,,,,
19159,0,USIowaRinggold,Iowa,Ringgold,2022-04-28 09:13:11,2021-06-02,0,0,0,,,,,,,,,,,,
19159,0,USIowaRinggold,Iowa,Ringgold,2022-04-28 09:13:11,2021-06-03,0.13757206368185287,0.3956460795724608,1.2222947443654324,,,,,,,,,,,,
19159,0,USIowaRinggold,Iowa,Ringgold,2022-04-28 09:13:11,2021-06-04,0.13757206368185287,0.3956460795724608,1.2222947443654324,,,,,,,,,,,,
19159,0,USIowaRinggold,Iowa,Ringgold,2022-04-28 09:13:11,2021-06-05,0.13757206368185287,0.3956460795724608,1.2222947443654324,,,,,,,,,,,,
19159,0,USIowaRinggold,Iowa,Ringgold,2022-04-28 09:13:11,2021-06-06,0.13757206368185287,0.3956460795724608,1.2222947443654324,,,,,,,,,,,,
19159,0,USIowaRinggold,Iowa,Ringgold,2022-04-28 09:13:11,2021-06-07,0.13757206368185287,0.3956460795724608,1.2222947443654324,,,,,,,,,,,,
19159,0,USIowaRinggold,Iowa,Ringgold,2022-04-28 09:13:11,2021-06-08,0.13757206368185287,0.3956460795724608,1.2222947443654324,,,,,,,,,,,,
19159,0,USIowaRinggold,Iowa,Ringgold,2022-04-28 09:13:11,2021-06-09,0.13757206368185287,0.3956460795724608,1.2222947443654324,,,,,,,,,,,,
19159,0,USIowaRinggold,Iowa,Ringgold,2022-04-28 09:13:11,2021-06-10,0.3193520716659995,0.7340830285905646,1.8153518121341539,,,,,,,,,,,,
19159,0,USIowaRinggold,Iowa,Ringgold,2022-04-28 09:13:11,2021-06-11,0.3193520716659995,0.7340830285905646,1.8153518121341539,,,,,,,,,,,,
19159,0,USIowaRinggold,Iowa,Ringgold,2022-04-28 09:13:11,2021-06-12,0.3193520716659995,0.7340830285905646,1.8153518121341539,,,,,,,,,,,,
19159,0,USIowaRinggold,Iowa,Ringgold,2022-04-28 09:13:11,2021-06-13,0.3193520716659995,0.7340830285905646,1.8153518121341539,,,,,,,,,,,,
19159,0,USIowaRinggold,Iowa,Ringgold,2022-04-28 09:13:11,2021-06-14,0.3193520716659995,0.7340830285905646,1.8153518121341539,,,,,,,,,,,,
19159,0,USIowaRinggold,Iowa,Ringgold,2022-04-28 09:13:11,2021-06-15,0.3193520716659995,0.7340830285905646,1.8153518121341539,,,,,,,,,,,,
19159,0,USIowaRinggold,Iowa,Ringgold,2022-04-28 09:13:11,2021-06-16,0.3193520716659995,0.7340830285905646,1.8153518121341539,,,,,,,,,,,,
19159,0,USIowaRinggold,Iowa,Ringgold,2022-04-28 09:13:11,2021-06-17,0.13807660824305049,0.39834349451216744,1.2344084097013663,,,,,,,,,,,,
19159,0,USIowaRinggold,Iowa,Ringgold,2022-04-28 09:13:11,2021-06-18,0.13807660824305049,0.39834349451216744,1.2344084097013663,,,,,,,,,,,,
19159,0,USIowaRinggold,Iowa,Ringgold,2022-04-28 09:13:11,2021-06-19,0.13807660824305049,0.39834349451216744,1.2344084097013663,,,,,,,,,,,,
19159,0,USIowaRinggold,Iowa,Ringgold,2022-04-28 09:13:11,2021-06-20,0.13807660824305049,0.39834349451216744,1.2344084097013663,,,,,,,,,,,,
19159,0,USIowaRinggold,Iowa,Ringgold,2022-04-28 09:13:11,2021-06-21,0.13807660824305049,0.39834349451216744,1.2344084097013663,,,,,,,,,,,,
19159,0,USIowaRinggold,Iowa,Ringgold,2022-04-28 09:13:11,2021-06-22,0.13807660824305049,0.39834349451216744,1.2344084097013663,,,,,,,,,,,,
19159,0,USIowaRinggold,Iowa,Ringgold,2022-04-28 09:13:11,2021-06-23,0.13807660824305049,0.39834349451216744,1.2344084097013663,,,,,,,,,,,,
19159,0,USIowaRinggold,Iowa,Ringgold,2022-04-28 09:13:11,2021-06-24,0.14405048801482337,0.4308653838952743,1.3831436209731283,,,,,,,,,,,,
19159,0,USIowaRinggold,Iowa,Ringgold,2022-04-28 09:13:11,2021-06-25,0.14405048801482337,0.4308653838952743,1.3831436209731283,,,,,,,,,,,,
19159,0,USIowaRinggold,Iowa,Ringgold,2022-04-28 09:13:11,2021-06-26,0.14405048801482337,0.4308653838952743,1.3831436209731283,,,,,,,,,,,,
19159,0,USIowaRinggold,Iowa,Ringgold,2022-04-28 09:13:11,2021-06-27,0.14405048801482337,0.4308653838952743,1.3831436209731283,,,,,,,,,,,,
19159,0,USIowaRinggold,Iowa,Ringgold,2022-04-28 09:13:11,2021-06-28,0.14405048801482337,0.4308653838952743,1.3831436209731283,,,,,,,,,,,,
19159,0,USIowaRinggold,Iowa,Ringgold,2022-04-28 09:13:11,2021-06-29,0.14405048801482337,0.4308653838952743,1.3831436209731283,,,,,,,,,,,,
19159,0,USIowaRinggold,Iowa,Ringgold,2022-04-28 09:13:11,2021-06-30,0.14405048801482337,0.4308653838952743,1.3831436209731283,,,,,,,,,,,,
19159,0,USIowaRinggold,Iowa,Ringgold,2022-04-28 09:13:11,2021-07-01,0.3117933475099542,0.9969805067969375,3.415038428284795,,,,,,,,,,,,
19159,0,USIowaRinggold,Iowa,Ringgold,2022-04-28 09:13:11,2021-07-02,0.3117933475099542,0.9969805067969375,3.415038428284795,,,,,,,,,,,,
19159,0,USIowaRinggold,Iowa,Ringgold,2022-04-28 09:13:11,2021-07-03,0.3117933475099542,0.9969805067969375,3.415038428284795,,,,,,,,,,,,
19159,0,USIowaRinggold,Iowa,Ringgold,2022-04-28 09:13:11,2021-07-04,0.3117933475099542,0.9969805067969375,3.415038428284795,,,,,,,,,,,,
19159,0,USIowaRinggold,Iowa,Ringgold,2022-04-28 09:13:11,2021-07-05,0.3117933475099542,0.9969805067969375,3.415038428284795,,,,,,,,,,,,
19159,0,USIowaRinggold,Iowa,Ringgold,2022-04-28 09:13:11,2021-07-06,0.3117933475099542,0.9969805067969375,3.415038428284795,,,,,,,,,,,,
19159,0,USIowaRinggold,Iowa,Ringgold,2022-04-28 09:13:11,2021-07-07,0.3117933475099542,0.9969805067969375,3.415038428284795,,,,,,,,,,,,
19159,0,USIowaRinggold,Iowa,Ringgold,2022-04-28 09:13:11,2021-07-08,0.361729400849201,0.9281289038112721,2.562359704331557,,,,,,,,,,,,
19159,0,USIowaRinggold,Iowa,Ringgold,2022-04-28 09:13:11,2021-07-09,0.361729400849201,0.9281289038112721,2.562359704331557,,,,,,,,,,,,
19159,0,USIowaRinggold,Iowa,Ringgold,2022-04-28 09:13:11,2021-07-10,0.361729400849201,0.9281289038112721,2.562359704331557,,,,,,,,,,,,
19159,0,USIowaRinggold,Iowa,Ringgold,2022-04-28 09:13:11,2021-07-11,0.361729400849201,0.9281289038112721,2.562359704331557,,,,,,,,,,,,
19159,0,USIowaRinggold,Iowa,Ringgold,2022-04-28 09:13:11,2021-07-12,0.361729400849201,0.9281289038112721,2.562359704331557,,,,,,,,,,,,
19159,0,USIowaRinggold,Iowa,Ringgold,2022-04-28 09:13:11,2021-07-13,0.361729400849201,0.9281289038112721,2.562359704331557,,,,,,,,,,,,
19159,0,USIowaRinggold,Iowa,Ringgold,2022-04-28 09:13:11,2021-07-14,0.361729400849201,0.9281289038112721,2.562359704331557,,,,,,,,,,,,
19159,0,USIowaRinggold,Iowa,Ringgold,2022-04-28 09:13:11,2021-07-15,0.4859941452541966,1.2552958784841897,3.488564095321758,,,,,,,,,,,,
19159,0,USIowaRinggold,Iowa,Ringgold,2022-04-28 09:13:11,2021-07-16,0.4859941452541966,1.2552958784841897,3.488564095321758,,,,,,,,,,,,
19159,0,USIowaRinggold,Iowa,Ringgold,2022-04-28 09:13:11,2021-07-17,0.4859941452541966,1.2552958784841897,3.488564095321758,,,,,,,,,,,,
19159,0,USIowaRinggold,Iowa,Ringgold,2022-04-28 09:13:11,2021-07-18,0.4859941452541966,1.2552958784841897,3.488564095321758,,,,,,,,,,,,
19159,0,USIowaRinggold,Iowa,Ringgold,2022-04-28 09:13:11,2021-07-19,0.4859941452541966,1.2552958784841897,3.488564095321758,,,,,,,,,,,,
19159,0,USIowaRinggold,Iowa,Ringgold,2022-04-28 09:13:11,2021-07-20,0.4859941452541966,1.2552958784841897,3.488564095321758,,,,,,,,,,,,
19159,0,USIowaRinggold,Iowa,Ringgold,2022-04-28 09:13:11,2021-07-21,0.4859941452541966,1.2552958784841897,3.488564095321758,,,,,,,,,,,,
19159,0,USIowaRinggold,Iowa,Ringgold,2022-04-28 09:13:11,2021-07-22,0.4132000269337447,1.1895224186834612,3.678478058299865,,,,,,,,,,,,
19159,0,USIowaRinggold,Iowa,Ringgold,2022-04-28 09:13:11,2021-07-23,0.4132000269337447,1.1895224186834612,3.678478058299865,,,,,,,,,,,,
19159,0,USIowaRinggold,Iowa,Ringgold,2022-04-28 09:13:11,2021-07-24,0.4132000269337447,1.1895224186834612,3.678478058299865,,,,,,,,,,,,
19159,0,USIowaRinggold,Iowa,Ringgold,2022-04-28 09:13:11,2021-07-25,0.4132000269337447,1.1895224186834612,3.678478058299865,,,,,,,,,,,,
19159,0,USIowaRinggold,Iowa,Ringgold,2022-04-28 09:13:11,2021-07-26,0.4132000269337447,1.1895224186834612,3.678478058299865,,,,,,,,,,,,
19159,0,USIowaRinggold,Iowa,Ringgold,2022-04-28 09:13:11,2021-07-27,0.4132000269337447,1.1895224186834612,3.678478058299865,,,,,,,,,,,,
19159,0,USIowaRinggold,Iowa,Ringgold,2022-04-28 09:13:11,2021-07-28,0.4132000269337447,1.1895224186834612,3.678478058299865,,,,,,,,,,,,
19159,0,USIowaRinggold,Iowa,Ringgold,2022-04-28 09:13:11,2021-07-29,0.5623971964705272,1.647784112073035,5.184079818410628,,,,,,,,,,,,
19159,0,USIowaRinggold,Iowa,Ringgold,2022-04-28 09:13:11,2021-07-30,0.5623971964705272,1.647784112073035,5.184079818410628,,,,,,,,,,,,
19159,0,USIowaRinggold,Iowa,Ringgold,2022-04-28 09:13:11,2021-07-31,0.5623971964705272,1.647784112073035,5.184079818410628,,,,,,,,,,,,
19159,0,USIowaRinggold,Iowa,Ringgold,2022-04-28 09:13:11,2021-08-01,0.5623971964705272,1.647784112073035,5.184079818410628,,,,,,,,,,,,
19159,0,USIowaRinggold,Iowa,Ringgold,2022-04-28 09:13:11,2021-08-02,0.5623971964705272,1.647784112073035,5.184079818410628,,,,,,,,,,,,
19159,0,USIowaRinggold,Iowa,Ringgold,2022-04-28 09:13:11,2021-08-03,0.5623971964705272,1.647784112073035,5.184079818410628,,,,,,,,,,,,
19159,0,USIowaRinggold,Iowa,Ringgold,2022-04-28 09:13:11,2021-08-04,0.5623971964705272,1.647784112073035,5.184079818410628,,,,,,,,,,,,
19159,0,USIowaRinggold,Iowa,Ringgold,2022-04-28 09:13:11,2021-08-05,0,0,0,,,,,,,,,,,,
19159,0,USIowaRinggold,Iowa,Ringgold,2022-04-28 09:13:11,2021-08-06,0,0,0,,,,,,,,,,,,
19159,0,USIowaRinggold,Iowa,Ringgold,2022-04-28 09:13:11,2021-08-07,0,0,0,,,,,,,,,,,,
19159,0,USIowaRinggold,Iowa,Ringgold,2022-04-28 09:13:11,2021-08-08,0,0,0,,,,,,,,,,,,
19159,0,USIowaRinggold,Iowa,Ringgold,2022-04-28 09:13:11,2021-08-09,0,0,0,,,,,,,,,,,,
19159,0,USIowaRinggold,Iowa,Ringgold,2022-04-28 09:13:11,2021-08-10,0,0,0,,,,,,,,,,,,
19159,0,USIowaRinggold,Iowa,Ringgold,2022-04-28 09:13:11,2021-08-11,0,0,0,,,,,,,,,,,,
19159,0,USIowaRinggold,Iowa,Ringgold,2022-04-28 09:13:11,2021-08-12,1.7551518560568062,3.9258995816716666,9.443846295691852,,,,,,,,,,,,
19159,0,USIowaRinggold,Iowa,Ringgold,2022-04-28 09:13:11,2021-08-13,1.7551518560568062,3.9258995816716666,9.443846295691852,,,,,,,,,,,,
19159,0,USIowaRinggold,Iowa,Ringgold,2022-04-28 09:13:11,2021-08-14,1.7551518560568062,3.9258995816716666,9.443846295691852,,,,,,,,,,,,
19159,0,USIowaRinggold,Iowa,Ringgold,2022-04-28 09:13:11,2021-08-15,1.7551518560568062,3.9258995816716666,9.443846295691852,,,,,,,,,,,,
19159,0,USIowaRinggold,Iowa,Ringgold,2022-04-28 09:13:11,2021-08-16,1.7551518560568062,3.9258995816716666,9.443846295691852,,,,,,,,,,,,
19159,0,USIowaRinggold,Iowa,Ringgold,2022-04-28 09:13:11,2021-08-17,1.7551518560568062,3.9258995816716666,9.443846295691852,,,,,,,,,,,,
19159,0,USIowaRinggold,Iowa,Ringgold,2022-04-28 09:13:11,2021-08-18,1.7551518560568062,3.9258995816716666,9.443846295691852,,,,,,,,,,,,
19159,0,USIowaRinggold,Iowa,Ringgold,2022-04-28 09:13:11,2021-08-19,0.3785405113369438,0.4038896376227532,0.4340577760140992,,,,,,,,,,,,
19159,0,USIowaRinggold,Iowa,Ringgold,2022-04-28 09:13:11,2021-08-20,0.3785405113369438,0.4038896376227532,0.4340577760140992,,,,,,,,,,,,
19159,0,USIowaRinggold,Iowa,Ringgold,2022-04-28 09:13:11,2021-08-21,0.3785405113369438,0.4038896376227532,0.4340577760140992,,,,,,,,,,,,
19159,0,USIowaRinggold,Iowa,Ringgold,2022-04-28 09:13:11,2021-08-22,0.3785405113369438,0.4038896376227532,0.4340577760140992,,,,,,,,,,,,
19159,0,USIowaRinggold,Iowa,Ringgold,2022-04-28 09:13:11,2021-08-23,0.3785405113369438,0.4038896376227532,0.4340577760140992,,,,,,,,,,,,
19159,0,USIowaRinggold,Iowa,Ringgold,2022-04-28 09:13:11,2021-08-24,0.3785405113369438,0.4038896376227532,0.4340577760140992,,,,,,,,,,,,
19159,0,USIowaRinggold,Iowa,Ringgold,2022-04-28 09:13:11,2021-08-25,0.3785405113369438,0.4038896376227532,0.4340577760140992,,,,,,,,,,,,
19159,0,USIowaRinggold,Iowa,Ringgold,2022-04-28 09:13:11,2021-08-26,0.5792157272563704,1.0602925413905517,2.0719601078875534,,,,,,,,,,,,
19159,0,USIowaRinggold,Iowa,Ringgold,2022-04-28 09:13:11,2021-08-27,0.5792157272563704,1.0602925413905517,2.0719601078875534,,,,,,,,,,,,
19159,0,USIowaRinggold,Iowa,Ringgold,2022-04-28 09:13:11,2021-08-28,0.5792157272563704,1.0602925413905517,2.0719601078875534,,,,,,,,,,,,
19159,0,USIowaRinggold,Iowa,Ringgold,2022-04-28 09:13:11,2021-08-29,0.5792157272563704,1.0602925413905517,2.0719601078875534,,,,,,,,,,,,
19159,0,USIowaRinggold,Iowa,Ringgold,2022-04-28 09:13:11,2021-08-30,0.5792157272563704,1.0602925413905517,2.0719601078875534,,,,,,,,,,,,
19159,0,USIowaRinggold,Iowa,Ringgold,2022-04-28 09:13:11,2021-08-31,0.5792157272563704,1.0602925413905517,2.0719601078875534,,,,,,,,,,,,
19159,0,USIowaRinggold,Iowa,Ringgold,2022-04-28 09:13:11,2021-09-01,0.5792157272563704,1.0602925413905517,2.0719601078875534,,,,,,,,,,,,
19159,0,USIowaRinggold,Iowa,Ringgold,2022-04-28 09:13:11,2021-09-02,0.4091615696928808,0.7414339909525616,1.4333367884835049,,,,,,,,,,,,
19159,0,USIowaRinggold,Iowa,Ringgold,2022-04-28 09:13:11,2021-09-03,0.4091615696928808,0.7414339909525616,1.4333367884835049,,,,,,,,,,,,
19159,0,USIowaRinggold,Iowa,Ringgold,2022-04-28 09:13:11,2021-09-04,0.4091615696928808,0.7414339909525616,1.4333367884835049,,,,,,,,,,,,
19159,0,USIowaRinggold,Iowa,Ringgold,2022-04-28 09:13:11,2021-09-05,0.4091615696928808,0.7414339909525616,1.4333367884835049,,,,,,,,,,,,
19159,0,USIowaRinggold,Iowa,Ringgold,2022-04-28 09:13:11,2021-09-06,0.4091615696928808,0.7414339909525616,1.4333367884835049,,,,,,,,,,,,
19159,0,USIowaRinggold,Iowa,Ringgold,2022-04-28 09:13:11,2021-09-07,0.4091615696928808,0.7414339909525616,1.4333367884835049,,,,,,,,,,,,
19159,0,USIowaRinggold,Iowa,Ringgold,2022-04-28 09:13:11,2021-09-08,0.4091615696928808,0.7414339909525616,1.4333367884835049,,,,,,,,,,,,
19159,0,USIowaRinggold,Iowa,Ringgold,2022-04-28 09:13:11,2021-09-09,0.46342451461806966,0.796446816838667,1.4548669600812913,,,,,,,,,,,,
19159,0,USIowaRinggold,Iowa,Ringgold,2022-04-28 09:13:11,2021-09-10,0.46342451461806966,0.796446816838667,1.4548669600812913,,,,,,,,,,,,
19159,0,USIowaRinggold,Iowa,Ringgold,2022-04-28 09:13:11,2021-09-11,0.46342451461806966,0.796446816838667,1.4548669600812913,,,,,,,,,,,,
19159,0,USIowaRinggold,Iowa,Ringgold,2022-04-28 09:13:11,2021-09-12,0.46342451461806966,0.796446816838667,1.4548669600812913,,,,,,,,,,,,
19159,0,USIowaRinggold,Iowa,Ringgold,2022-04-28 09:13:11,2021-09-13,0.46342451461806966,0.796446816838667,1.4548669600812913,,,,,,,,,,,,
19159,0,USIowaRinggold,Iowa,Ringgold,2022-04-28 09:13:11,2021-09-14,0.46342451461806966,0.796446816838667,1.4548669600812913,,,,,,,,,,,,
19159,0,USIowaRinggold,Iowa,Ringgold,2022-04-28 09:13:11,2021-09-15,0.46342451461806966,0.796446816838667,1.4548669600812913,,,,,,,,,,,,
19159,0,USIowaRinggold,Iowa,Ringgold,2022-04-28 09:13:11,2021-09-16,1.0133359457176423,2.7140353327476725,7.8180514375666394,,,,,,,,,,,,
19159,0,USIowaRinggold,Iowa,Ringgold,2022-04-28 09:13:11,2021-09-17,1.0133359457176423,2.7140353327476725,7.8180514375666394,,,,,,,,,,,,
19159,0,USIowaRinggold,Iowa,Ringgold,2022-04-28 09:13:11,2021-09-18,1.0133359457176423,2.7140353327476725,7.8180514375666394,,,,,,,,,,,,
19159,0,USIowaRinggold,Iowa,Ringgold,2022-04-28 09:13:11,2021-09-19,1.0133359457176423,2.7140353327476725,7.8180514375666394,,,,,,,,,,,,
19159,0,USIowaRinggold,Iowa,Ringgold,2022-04-28 09:13:11,2021-09-20,1.0133359457176423,2.7140353327476725,7.8180514375666394,,,,,,,,,,,,
19159,0,USIowaRinggold,Iowa,Ringgold,2022-04-28 09:13:11,2021-09-21,1.0133359457176423,2.7140353327476725,7.8180514375666394,,,,,,,,,,,,
19159,0,USIowaRinggold,Iowa,Ringgold,2022-04-28 09:13:11,2021-09-22,1.0133359457176423,2.7140353327476725,7.8180514375666394,,,,,,,,,,,,
19159,0,USIowaRinggold,Iowa,Ringgold,2022-04-28 09:13:11,2021-09-23,1.2987232006284375,3.271442423931431,8.867786103335144,,,,,,,,,,,,
19159,0,USIowaRinggold,Iowa,Ringgold,2022-04-28 09:13:11,2021-09-24,1.2987232006284375,3.271442423931431,8.867786103335144,,,,,,,,,,,,
19159,0,USIowaRinggold,Iowa,Ringgold,2022-04-28 09:13:11,2021-09-25,1.2987232006284375,3.271442423931431,8.867786103335144,,,,,,,,,,,,
19159,0,USIowaRinggold,Iowa,Ringgold,2022-04-28 09:13:11,2021-09-26,1.2987232006284375,3.271442423931431,8.867786103335144,,,,,,,,,,,,
19159,0,USIowaRinggold,Iowa,Ringgold,2022-04-28 09:13:11,2021-09-27,1.2987232006284375,3.271442423931431,8.867786103335144,,,,,,,,,,,,
19159,0,USIowaRinggold,Iowa,Ringgold,2022-04-28 09:13:11,2021-09-28,1.2987232006284375,3.271442423931431,8.867786103335144,,,,,,,,,,,,
19159,0,USIowaRinggold,Iowa,Ringgold,2022-04-28 09:13:11,2021-09-29,1.2987232006284375,3.271442423931431,8.867786103335144,,,,,,,,,,,,
19159,0,USIowaRinggold,Iowa,Ringgold,2022-04-28 09:13:11,2021-09-30,1.494018630485094,3.6752508031125832,9.729670205438834,,,,,,,,,,,,
19159,0,USIowaRinggold,Iowa,Ringgold,2022-04-28 09:13:11,2021-10-01,1.494018630485094,3.6752508031125832,9.729670205438834,,,,,,,,,,,,
19159,0,USIowaRinggold,Iowa,Ringgold,2022-04-28 09:13:11,2021-10-02,1.494018630485094,3.6752508031125832,9.729670205438834,,,,,,,,,,,,
19159,0,USIowaRinggold,Iowa,Ringgold,2022-04-28 09:13:11,2021-10-03,1.494018630485094,3.6752508031125832,9.729670205438834,,,,,,,,,,,,
19159,0,USIowaRinggold,Iowa,Ringgold,2022-04-28 09:13:11,2021-10-04,1.494018630485094,3.6752508031125832,9.729670205438834,,,,,,,,,,,,
19159,0,USIowaRinggold,Iowa,Ringgold,2022-04-28 09:13:11,2021-10-05,1.494018630485094,3.6752508031125832,9.729670205438834,,,,,,,,,,,,
19159,0,USIowaRinggold,Iowa,Ringgold,2022-04-28 09:13:11,2021-10-06,1.494018630485094,3.6752508031125832,9.729670205438834,,,,,,,,,,,,
19159,0,USIowaRinggold,Iowa,Ringgold,2022-04-28 09:13:11,2021-10-07,1.850035165094072,5.139749623741929,15.349172960225923,,,,,,,,,,,,
19159,0,USIowaRinggold,Iowa,Ringgold,2022-04-28 09:13:11,2021-10-08,1.850035165094072,5.139749623741929,15.349172960225923,,,,,,,,,,,,
19159,0,USIowaRinggold,Iowa,Ringgold,2022-04-28 09:13:11,2021-10-09,1.850035165094072,5.139749623741929,15.349172960225923,,,,,,,,,,,,
19159,0,USIowaRinggold,Iowa,Ringgold,2022-04-28 09:13:11,2021-10-10,1.850035165094072,5.139749623741929,15.349172960225923,,,,,,,,,,,,
19159,0,USIowaRinggold,Iowa,Ringgold,2022-04-28 09:13:11,2021-10-11,1.850035165094072,5.139749623741929,15.349172960225923,,,,,,,,,,,,
19159,0,USIowaRinggold,Iowa,Ringgold,2022-04-28 09:13:11,2021-10-12,1.850035165094072,5.139749623741929,15.349172960225923,,,,,,,,,,,,
19159,0,USIowaRinggold,Iowa,Ringgold,2022-04-28 09:13:11,2021-10-13,1.850035165094072,5.139749623741929,15.349172960225923,,,,,,,,,,,,
19159,0,USIowaRinggold,Iowa,Ringgold,2022-04-28 09:13:11,2021-10-14,1.4006588108161628,4.47223925600148,15.297694906838272,,,,,,,,,,,,
19159,0,USIowaRinggold,Iowa,Ringgold,2022-04-28 09:13:11,2021-10-15,1.4006588108161628,4.47223925600148,15.297694906838272,,,,,,,,,,,,
19159,0,USIowaRinggold,Iowa,Ringgold,2022-04-28 09:13:11,2021-10-16,1.4006588108161628,4.47223925600148,15.297694906838272,,,,,,,,,,,,
19159,0,USIowaRinggold,Iowa,Ringgold,2022-04-28 09:13:11,2021-10-17,1.4006588108161628,4.47223925600148,15.297694906838272,,,,,,,,,,,,
19159,0,USIowaRinggold,Iowa,Ringgold,2022-04-28 09:13:11,2021-10-18,1.4006588108161628,4.47223925600148,15.297694906838272,,,,,,,,,,,,
19159,0,USIowaRinggold,Iowa,Ringgold,2022-04-28 09:13:11,2021-10-19,1.4006588108161628,4.47223925600148,15.297694906838272,,,,,,,,,,,,
19159,0,USIowaRinggold,Iowa,Ringgold,2022-04-28 09:13:11,2021-10-20,1.4006588108161628,4.47223925600148,15.297694906838272,,,,,,,,,,,,
19159,0,USIowaRinggold,Iowa,Ringgold,2022-04-28 09:13:11,2021-10-21,1.6931994540910655,4.645641538711654,13.704212258478263,,,,,,,,,,,,
19159,0,USIowaRinggold,Iowa,Ringgold,2022-04-28 09:13:11,2021-10-22,1.6931994540910655,4.645641538711654,13.704212258478263,,,,,,,,,,,,
19159,0,USIowaRinggold,Iowa,Ringgold,2022-04-28 09:13:11,2021-10-23,1.6931994540910655,4.645641538711654,13.704212258478263,,,,,,,,,,,,
19159,0,USIowaRinggold,Iowa,Ringgold,2022-04-28 09:13:11,2021-10-24,1.6931994540910655,4.645641538711654,13.704212258478263,,,,,,,,,,,,
19159,0,USIowaRinggold,Iowa,Ringgold,2022-04-28 09:13:11,2021-10-25,1.6931994540910655,4.645641538711654,13.704212258478263,,,,,,,,,,,,
19159,0,USIowaRinggold,Iowa,Ringgold,2022-04-28 09:13:11,2021-10-26,1.6931994540910655,4.645641538711654,13.704212258478263,,,,,,,,,,,,
19159,0,USIowaRinggold,Iowa,Ringgold,2022-04-28 09:13:11,2021-10-27,1.6931994540910655,4.645641538711654,13.704212258478263,,,,,,,,,,,,
19159,0,USIowaRinggold,Iowa,Ringgold,2022-04-28 09:13:11,2021-10-28,1.4006588108161628,4.47223925600148,15.297694906838272,,,,,,,,,,,,
19159,0,USIowaRinggold,Iowa,Ringgold,2022-04-28 09:13:11,2021-10-29,1.4006588108161628,4.47223925600148,15.297694906838272,,,,,,,,,,,,
19159,0,USIowaRinggold,Iowa,Ringgold,2022-04-28 09:13:11,2021-10-30,1.4006588108161628,4.47223925600148,15.297694906838272,,,,,,,,,,,,
19159,0,USIowaRinggold,Iowa,Ringgold,2022-04-28 09:13:11,2021-10-31,1.4006588108161628,4.47223925600148,15.297694906838272,,,,,,,,,,,,
19159,0,USIowaRinggold,Iowa,Ringgold,2022-04-28 09:13:11,2021-11-01,1.4006588108161628,4.47223925600148,15.297694906838272,,,,,,,,,,,,
19159,0,USIowaRinggold,Iowa,Ringgold,2022-04-28 09:13:11,2021-11-02,1.4006588108161628,4.47223925600148,15.297694906838272,,,,,,,,,,,,
19159,0,USIowaRinggold,Iowa,Ringgold,2022-04-28 09:13:11,2021-11-03,1.4006588108161628,4.47223925600148,15.297694906838272,,,,,,,,,,,,
19159,0,USIowaRinggold,Iowa,Ringgold,2022-04-28 09:13:11,2021-11-04,4.2561231223280105,9.166729674728208,21.216961279012082,,,,,,,,,,,,
19159,0,USIowaRinggold,Iowa,Ringgold,2022-04-28 09:13:11,2021-11-05,4.2561231223280105,9.166729674728208,21.216961279012082,,,,,,,,,,,,
19159,0,USIowaRinggold,Iowa,Ringgold,2022-04-28 09:13:11,2021-11-06,4.2561231223280105,9.166729674728208,21.216961279012082,,,,,,,,,,,,
19159,0,USIowaRinggold,Iowa,Ringgold,2022-04-28 09:13:11,2021-11-07,4.2561231223280105,9.166729674728208,21.216961279012082,,,,,,,,,,,,
19159,0,USIowaRinggold,Iowa,Ringgold,2022-04-28 09:13:11,2021-11-08,4.2561231223280105,9.166729674728208,21.216961279012082,,,,,,,,,,,,
19159,0,USIowaRinggold,Iowa,Ringgold,2022-04-28 09:13:11,2021-11-09,4.2561231223280105,9.166729674728208,21.216961279012082,,,,,,,,,,,,
19159,0,USIowaRinggold,Iowa,Ringgold,2022-04-28 09:13:11,2021-11-10,4.2561231223280105,9.166729674728208,21.216961279012082,,,,,,,,,,,,
19159,0,USIowaRinggold,Iowa,Ringgold,2022-04-28 09:13:11,2021-11-11,1.9438367574120257,5.6345650022507465,17.54202837590504,,,,,,,,,,,,
19159,0,USIowaRinggold,Iowa,Ringgold,2022-04-28 09:13:11,2021-11-12,1.9438367574120257,5.6345650022507465,17.54202837590504,,,,,,,,,,,,
19159,0,USIowaRinggold,Iowa,Ringgold,2022-04-28 09:13:11,2021-11-13,1.9438367574120257,5.6345650022507465,17.54202837590504,,,,,,,,,,,,
19159,0,USIowaRinggold,Iowa,Ringgold,2022-04-28 09:13:11,2021-11-14,1.9438367574120257,5.6345650022507465,17.54202837590504,,,,,,,,,,,,
19159,0,USIowaRinggold,Iowa,Ringgold,2022-04-28 09:13:11,2021-11-15,1.9438367574120257,5.6345650022507465,17.54202837590504,,,,,,,,,,,,
19159,0,USIowaRinggold,Iowa,Ringgold,2022-04-28 09:13:11,2021-11-16,1.9438367574120257,5.6345650022507465,17.54202837590504,,,,,,,,,,,,
19159,0,USIowaRinggold,Iowa,Ringgold,2022-04-28 09:13:11,2021-11-17,1.9438367574120257,5.6345650022507465,17.54202837590504,,,,,,,,,,,,
19159,0,USIowaRinggold,Iowa,Ringgold,2022-04-28 09:13:11,2021-11-18,1.3328282322081508,3.4343958397672214,9.521824862147927,,,,,,,,,,,,
19159,0,USIowaRinggold,Iowa,Ringgold,2022-04-28 09:13:11,2021-11-19,1.3328282322081508,3.4343958397672214,9.521824862147927,,,,,,,,,,,,
19159,0,USIowaRinggold,Iowa,Ringgold,2022-04-28 09:13:11,2021-11-20,1.3328282322081508,3.4343958397672214,9.521824862147927,,,,,,,,,,,,
19159,0,USIowaRinggold,Iowa,Ringgold,2022-04-28 09:13:11,2021-11-21,1.3328282322081508,3.4343958397672214,9.521824862147927,,,,,,,,,,,,
19159,0,USIowaRinggold,Iowa,Ringgold,2022-04-28 09:13:11,2021-11-22,1.3328282322081508,3.4343958397672214,9.521824862147927,,,,,,,,,,,,
19159,0,USIowaRinggold,Iowa,Ringgold,2022-04-28 09:13:11,2021-11-23,1.3328282322081508,3.4343958397672214,9.521824862147927,,,,,,,,,,,,
19159,0,USIowaRinggold,Iowa,Ringgold,2022-04-28 09:13:11,2021-11-24,1.3328282322081508,3.4343958397672214,9.521824862147927,,,,,,,,,,,,
19159,0,USIowaRinggold,Iowa,Ringgold,2022-04-28 09:13:11,2021-11-25,2.2464712718999444,6.241124543115201,18.638281451702905,,,,,,,,,,,,
19159,0,USIowaRinggold,Iowa,Ringgold,2022-04-28 09:13:11,2021-11-26,2.2464712718999444,6.241124543115201,18.638281451702905,,,,,,,,,,,,
19159,0,USIowaRinggold,Iowa,Ringgold,2022-04-28 09:13:11,2021-11-27,2.2464712718999444,6.241124543115201,18.638281451702905,,,,,,,,,,,,
19159,0,USIowaRinggold,Iowa,Ringgold,2022-04-28 09:13:11,2021-11-28,2.2464712718999444,6.241124543115201,18.638281451702905,,,,,,,,,,,,
19159,0,USIowaRinggold,Iowa,Ringgold,2022-04-28 09:13:11,2021-11-29,2.2464712718999444,6.241124543115201,18.638281451702905,,,,,,,,,,,,
19159,0,USIowaRinggold,Iowa,Ringgold,2022-04-28 09:13:11,2021-11-30,2.2464712718999444,6.241124543115201,18.638281451702905,,,,,,,,,,,,
19159,0,USIowaRinggold,Iowa,Ringgold,2022-04-28 09:13:11,2021-12-01,2.2464712718999444,6.241124543115201,18.638281451702905,,,,,,,,,,,,
19159,0,USIowaRinggold,Iowa,Ringgold,2022-04-28 09:13:11,2021-12-02,4.111368086249613,9.588163263434483,24.05929753037747,,,,,,,,,,,,
19159,0,USIowaRinggold,Iowa,Ringgold,2022-04-28 09:13:11,2021-12-03,4.111368086249613,9.588163263434483,24.05929753037747,,,,,,,,,,,,
19159,0,USIowaRinggold,Iowa,Ringgold,2022-04-28 09:13:11,2021-12-04,4.111368086249613,9.588163263434483,24.05929753037747,,,,,,,,,,,,
19159,0,USIowaRinggold,Iowa,Ringgold,2022-04-28 09:13:11,2021-12-05,4.111368086249613,9.588163263434483,24.05929753037747,,,,,,,,,,,,
19159,0,USIowaRinggold,Iowa,Ringgold,2022-04-28 09:13:11,2021-12-06,4.111368086249613,9.588163263434483,24.05929753037747,,,,,,,,,,,,
19159,0,USIowaRinggold,Iowa,Ringgold,2022-04-28 09:13:11,2021-12-07,4.111368086249613,9.588163263434483,24.05929753037747,,,,,,,,,,,,
19159,0,USIowaRinggold,Iowa,Ringgold,2022-04-28 09:13:11,2021-12-08,4.111368086249613,9.588163263434483,24.05929753037747,,,,,,,,,,,,
19159,0,USIowaRinggold,Iowa,Ringgold,2022-04-28 09:13:11,2021-12-09,2.3760194613207584,5.317453396998899,12.798120442182812,,,,,,,,,,,,
19159,0,USIowaRinggold,Iowa,Ringgold,2022-04-28 09:13:11,2021-12-10,2.3760194613207584,5.317453396998899,12.798120442182812,,,,,,,,,,,,
19159,0,USIowaRinggold,Iowa,Ringgold,2022-04-28 09:13:11,2021-12-11,2.3760194613207584,5.317453396998899,12.798120442182812,,,,,,,,,,,,
19159,0,USIowaRinggold,Iowa,Ringgold,2022-04-28 09:13:11,2021-12-12,2.3760194613207584,5.317453396998899,12.798120442182812,,,,,,,,,,,,
19159,0,USIowaRinggold,Iowa,Ringgold,2022-04-28 09:13:11,2021-12-13,2.3760194613207584,5.317453396998899,12.798120442182812,,,,,,,,,,,,
19159,0,USIowaRinggold,Iowa,Ringgold,2022-04-28 09:13:11,2021-12-14,2.3760194613207584,5.317453396998899,12.798120442182812,,,,,,,,,,,,
19159,0,USIowaRinggold,Iowa,Ringgold,2022-04-28 09:13:11,2021-12-15,2.3760194613207584,5.317453396998899,12.798120442182812,,,,,,,,,,,,
19159,0,USIowaRinggold,Iowa,Ringgold,2022-04-28 09:13:11,2021-12-16,1.1198796752433682,2.692679436189691,6.967357765387281,,,,,,,,,,,,
19159,0,USIowaRinggold,Iowa,Ringgold,2022-04-28 09:13:11,2021-12-17,1.1198796752433682,2.692679436189691,6.967357765387281,,,,,,,,,,,,
19159,0,USIowaRinggold,Iowa,Ringgold,2022-04-28 09:13:11,2021-12-18,1.1198796752433682,2.692679436189691,6.967357765387281,,,,,,,,,,,,
19159,0,USIowaRinggold,Iowa,Ringgold,2022-04-28 09:13:11,2021-12-19,1.1198796752433682,2.692679436189691,6.967357765387281,,,,,,,,,,,,
19159,0,USIowaRinggold,Iowa,Ringgold,2022-04-28 09:13:11,2021-12-20,1.1198796752433682,2.692679436189691,6.967357765387281,,,,,,,,,,,,
19159,0,USIowaRinggold,Iowa,Ringgold,2022-04-28 09:13:11,2021-12-21,1.1198796752433682,2.692679436189691,6.967357765387281,,,,,,,,,,,,
19159,0,USIowaRinggold,Iowa,Ringgold,2022-04-28 09:13:11,2021-12-22,1.1198796752433682,2.692679436189691,6.967357765387281,,,,,,,,,,,,
19159,0,USIowaRinggold,Iowa,Ringgold,2022-04-28 09:13:11,2021-12-23,1.5142230348386707,4.724639732597527,15.80347739060902,,,,,,,,,,,,
19159,0,USIowaRinggold,Iowa,Ringgold,2022-04-28 09:13:11,2021-12-24,1.5142230348386707,4.724639732597527,15.80347739060902,,,,,,,,,,,,
19159,0,USIowaRinggold,Iowa,Ringgold,2022-04-28 09:13:11,2021-12-25,1.5142230348386707,4.724639732597527,15.80347739060902,,,,,,,,,,,,
19159,0,USIowaRinggold,Iowa,Ringgold,2022-04-28 09:13:11,2021-12-26,1.5142230348386707,4.724639732597527,15.80347739060902,,,,,,,,,,,,
19159,0,USIowaRinggold,Iowa,Ringgold,2022-04-28 09:13:11,2021-12-27,1.5142230348386707,4.724639732597527,15.80347739060902,,,,,,,,,,,,
19159,0,USIowaRinggold,Iowa,Ringgold,2022-04-28 09:13:11,2021-12-28,1.5142230348386707,4.724639732597527,15.80347739060902,,,,,,,,,,,,
19159,0,USIowaRinggold,Iowa,Ringgold,2022-04-28 09:13:11,2021-12-29,1.5142230348386707,4.724639732597527,15.80347739060902,,,,,,,,,,,,
19159,0,USIowaRinggold,Iowa,Ringgold,2022-04-28 09:13:11,2021-12-30,2.2464712718999444,6.241124543115201,18.638281451702905,,,,,,,,,,,,
19159,0,USIowaRinggold,Iowa,Ringgold,2022-04-28 09:13:11,2021-12-31,2.2464712718999444,6.241124543115201,18.638281451702905,,,,,,,,,,,,
19159,0,USIowaRinggold,Iowa,Ringgold,2022-04-28 09:13:11,2022-01-01,2.2464712718999444,6.241124543115201,18.638281451702905,,,,,,,,,,,,
19159,0,USIowaRinggold,Iowa,Ringgold,2022-04-28 09:13:11,2022-01-02,2.2464712718999444,6.241124543115201,18.638281451702905,,,,,,,,,,,,
19159,0,USIowaRinggold,Iowa,Ringgold,2022-04-28 09:13:11,2022-01-03,2.2464712718999444,6.241124543115201,18.638281451702905,,,,,,,,,,,,
19159,0,USIowaRinggold,Iowa,Ringgold,2022-04-28 09:13:11,2022-01-04,2.2464712718999444,6.241124543115201,18.638281451702905,,,,,,,,,,,,
19159,0,USIowaRinggold,Iowa,Ringgold,2022-04-28 09:13:11,2022-01-05,2.2464712718999444,6.241124543115201,18.638281451702905,,,,,,,,,,,,
19159,0,USIowaRinggold,Iowa,Ringgold,2022-04-28 09:13:11,2022-01-06,4.274150940741583,9.857943134994809,24.46121068179491,,,,,,,,,,,,
19159,0,USIowaRinggold,Iowa,Ringgold,2022-04-28 09:13:11,2022-01-07,4.274150940741583,9.857943134994809,24.46121068179491,,,,,,,,,,,,
19159,0,USIowaRinggold,Iowa,Ringgold,2022-04-28 09:13:11,2022-01-08,4.274150940741583,9.857943134994809,24.46121068179491,,,,,,,,,,,,
19159,0,USIowaRinggold,Iowa,Ringgold,2022-04-28 09:13:11,2022-01-09,4.274150940741583,9.857943134994809,24.46121068179491,,,,,,,,,,,,
19159,0,USIowaRinggold,Iowa,Ringgold,2022-04-28 09:13:11,2022-01-10,4.274150940741583,9.857943134994809,24.46121068179491,,,,,,,,,,,,
19159,0,USIowaRinggold,Iowa,Ringgold,2022-04-28 09:13:11,2022-01-11,4.274150940741583,9.857943134994809,24.46121068179491,,,,,,,,,,,,
19159,0,USIowaRinggold,Iowa,Ringgold,2022-04-28 09:13:11,2022-01-12,4.274150940741583,9.857943134994809,24.46121068179491,,,,,,,,,,,,
19159,0,USIowaRinggold,Iowa,Ringgold,2022-04-28 09:13:11,2022-01-13,6.329090790082997,13.069550178671497,28.9699237828479,,,,,,,,,,,,
19159,0,USIowaRinggold,Iowa,Ringgold,2022-04-28 09:13:11,2022-01-14,6.329090790082997,13.069550178671497,28.9699237828479,,,,,,,,,,,,
19159,0,USIowaRinggold,Iowa,Ringgold,2022-04-28 09:13:11,2022-01-15,6.329090790082997,13.069550178671497,28.9699237828479,,,,,,,,,,,,
19159,0,USIowaRinggold,Iowa,Ringgold,2022-04-28 09:13:11,2022-01-16,6.329090790082997,13.069550178671497,28.9699237828479,,,,,,,,,,,,
19159,0,USIowaRinggold,Iowa,Ringgold,2022-04-28 09:13:11,2022-01-17,6.329090790082997,13.069550178671497,28.9699237828479,,,,,,,,,,,,
19159,0,USIowaRinggold,Iowa,Ringgold,2022-04-28 09:13:11,2022-01-18,6.329090790082997,13.069550178671497,28.9699237828479,,,,,,,,,,,,
19159,0,USIowaRinggold,Iowa,Ringgold,2022-04-28 09:13:11,2022-01-19,6.329090790082997,13.069550178671497,28.9699237828479,,,,,,,,,,,,
19159,0,USIowaRinggold,Iowa,Ringgold,2022-04-28 09:13:11,2022-01-20,5.743214491832982,12.185347559366274,27.773408032880987,,,,,,,,,,,,
19159,0,USIowaRinggold,Iowa,Ringgold,2022-04-28 09:13:11,2022-01-21,5.743214491832982,12.185347559366274,27.773408032880987,,,,,,,,,,,,
19159,0,USIowaRinggold,Iowa,Ringgold,2022-04-28 09:13:11,2022-01-22,5.743214491832982,12.185347559366274,27.773408032880987,,,,,,,,,,,,
19159,0,USIowaRinggold,Iowa,Ringgold,2022-04-28 09:13:11,2022-01-23,5.743214491832982,12.185347559366274,27.773408032880987,,,,,,,,,,,,
19159,0,USIowaRinggold,Iowa,Ringgold,2022-04-28 09:13:11,2022-01-24,5.743214491832982,12.185347559366274,27.773408032880987,,,,,,,,,,,,
19159,0,USIowaRinggold,Iowa,Ringgold,2022-04-28 09:13:11,2022-01-25,5.743214491832982,12.185347559366274,27.773408032880987,,,,,,,,,,,,
19159,0,USIowaRinggold,Iowa,Ringgold,2022-04-28 09:13:11,2022-01-26,5.743214491832982,12.185347559366274,27.773408032880987,,,,,,,,,,,,
19159,0,USIowaRinggold,Iowa,Ringgold,2022-04-28 09:13:11,2022-01-27,2.7514460055332997,6.753918759493454,17.841502841231343,,,,,,,,,,,,
19159,0,USIowaRinggold,Iowa,Ringgold,2022-04-28 09:13:11,2022-01-28,2.7514460055332997,6.753918759493454,17.841502841231343,,,,,,,,,,,,
19159,0,USIowaRinggold,Iowa,Ringgold,2022-04-28 09:13:11,2022-01-29,2.7514460055332997,6.753918759493454,17.841502841231343,,,,,,,,,,,,
19159,0,USIowaRinggold,Iowa,Ringgold,2022-04-28 09:13:11,2022-01-30,2.7514460055332997,6.753918759493454,17.841502841231343,,,,,,,,,,,,
19159,0,USIowaRinggold,Iowa,Ringgold,2022-04-28 09:13:11,2022-01-31,2.7514460055332997,6.753918759493454,17.841502841231343,,,,,,,,,,,,
19159,0,USIowaRinggold,Iowa,Ringgold,2022-04-28 09:13:11,2022-02-01,2.7514460055332997,6.753918759493454,17.841502841231343,,,,,,,,,,,,
19159,0,USIowaRinggold,Iowa,Ringgold,2022-04-28 09:13:11,2022-02-02,2.7514460055332997,6.753918759493454,17.841502841231343,,,,,,,,,,,,
19159,0,USIowaRinggold,Iowa,Ringgold,2022-04-28 09:13:11,2022-02-03,3.5253629075906066,8.592252019496955,22.536716942125896,,,,,,,,,,,,
19159,0,USIowaRinggold,Iowa,Ringgold,2022-04-28 09:13:11,2022-02-04,3.5253629075906066,8.592252019496955,22.536716942125896,,,,,,,,,,,,
19159,0,USIowaRinggold,Iowa,Ringgold,2022-04-28 09:13:11,2022-02-05,3.5253629075906066,8.592252019496955,22.536716942125896,,,,,,,,,,,,
19159,0,USIowaRinggold,Iowa,Ringgold,2022-04-28 09:13:11,2022-02-06,3.5253629075906066,8.592252019496955,22.536716942125896,,,,,,,,,,,,
19159,0,USIowaRinggold,Iowa,Ringgold,2022-04-28 09:13:11,2022-02-07,3.5253629075906066,8.592252019496955,22.536716942125896,,,,,,,,,,,,
19159,0,USIowaRinggold,Iowa,Ringgold,2022-04-28 09:13:11,2022-02-08,3.5253629075906066,8.592252019496955,22.536716942125896,,,,,,,,,,,,
19159,0,USIowaRinggold,Iowa,Ringgold,2022-04-28 09:13:11,2022-02-09,3.5253629075906066,8.592252019496955,22.536716942125896,,,,,,,,,,,,
19159,0,USIowaRinggold,Iowa,Ringgold,2022-04-28 09:13:11,2022-02-10,1.839598198581538,5.419575364206248,17.14218704970541,,,,,,,,,,,,
19159,0,USIowaRinggold,Iowa,Ringgold,2022-04-28 09:13:11,2022-02-11,1.839598198581538,5.419575364206248,17.14218704970541,,,,,,,,,,,,
19159,0,USIowaRinggold,Iowa,Ringgold,2022-04-28 09:13:11,2022-02-12,1.839598198581538,5.419575364206248,17.14218704970541,,,,,,,,,,,,
19159,0,USIowaRinggold,Iowa,Ringgold,2022-04-28 09:13:11,2022-02-13,1.839598198581538,5.419575364206248,17.14218704970541,,,,,,,,,,,,
19159,0,USIowaRinggold,Iowa,Ringgold,2022-04-28 09:13:11,2022-02-14,1.839598198581538,5.419575364206248,17.14218704970541,,,,,,,,,,,,
19159,0,USIowaRinggold,Iowa,Ringgold,2022-04-28 09:13:11,2022-02-15,1.839598198581538,5.419575364206248,17.14218704970541,,,,,,,,,,,,
19159,0,USIowaRinggold,Iowa,Ringgold,2022-04-28 09:13:11,2022-02-16,1.839598198581538,5.419575364206248,17.14218704970541,,,,,,,,,,,,
19159,0,USIowaRinggold,Iowa,Ringgold,2022-04-28 09:13:11,2022-02-17,1.4006588108161628,4.47223925600148,15.297694906838272,,,,,,,,,,,,
19159,0,USIowaRinggold,Iowa,Ringgold,2022-04-28 09:13:11,2022-02-18,1.4006588108161628,4.47223925600148,15.297694906838272,,,,,,,,,,,,
19159,0,USIowaRinggold,Iowa,Ringgold,2022-04-28 09:13:11,2022-02-19,1.4006588108161628,4.47223925600148,15.297694906838272,,,,,,,,,,,,
19159,0,USIowaRinggold,Iowa,Ringgold,2022-04-28 09:13:11,2022-02-20,1.4006588108161628,4.47223925600148,15.297694906838272,,,,,,,,,,,,
19159,0,USIowaRinggold,Iowa,Ringgold,2022-04-28 09:13:11,2022-02-21,1.4006588108161628,4.47223925600148,15.297694906838272,,,,,,,,,,,,
19159,0,USIowaRinggold,Iowa,Ringgold,2022-04-28 09:13:11,2022-02-22,1.4006588108161628,4.47223925600148,15.297694906838272,,,,,,,,,,,,
19159,0,USIowaRinggold,Iowa,Ringgold,2022-04-28 09:13:11,2022-02-23,1.4006588108161628,4.47223925600148,15.297694906838272,,,,,,,,,,,,
