FIPS,HR_UID,nameid,province,region,analysisTime,dates,pointprevalence_025,pointprevalence_50,pointprevalence_975,pointinfections_025,pointinfections_50,pointinfections_975,pointinfectious_025,pointinfectious_50,pointinfectious_975,pointinfectiousprevalence_025,pointinfectiousprevalence_50,pointinfectiousprevalence_975,infectrate_025,infectrate_50,infectrate_975
19095,0,USIowaIowa,Iowa,Iowa,2022-04-28 09:13:11,2020-03-19,0,0,0,,,,,,,,,,,,
19095,0,USIowaIowa,Iowa,Iowa,2022-04-28 09:13:11,2020-03-20,0,0,0,,,,,,,,,,,,
19095,0,USIowaIowa,Iowa,Iowa,2022-04-28 09:13:11,2020-03-21,0,0,0,,,,,,,,,,,,
19095,0,USIowaIowa,Iowa,Iowa,2022-04-28 09:13:11,2020-03-22,0,0,0,,,,,,,,,,,,
19095,0,USIowaIowa,Iowa,Iowa,2022-04-28 09:13:11,2020-03-23,0,0,0,,,,,,,,,,,,
19095,0,USIowaIowa,Iowa,Iowa,2022-04-28 09:13:11,2020-03-24,0,0,0,,,,,,,,,,,,
19095,0,USIowaIowa,Iowa,Iowa,2022-04-28 09:13:11,2020-03-25,0,0,0,,,,,,,,,,,,
19095,0,USIowaIowa,Iowa,Iowa,2022-04-28 09:13:11,2020-03-26,0.19374858486096536,0.5241526308854343,1.524892794339755,,,,,,,,,,,,
19095,0,USIowaIowa,Iowa,Iowa,2022-04-28 09:13:11,2020-03-27,0.19374858486096536,0.5241526308854343,1.524892794339755,,,,,,,,,,,,
19095,0,USIowaIowa,Iowa,Iowa,2022-04-28 09:13:11,2020-03-28,0.19374858486096536,0.5241526308854343,1.524892794339755,,,,,,,,,,,,
19095,0,USIowaIowa,Iowa,Iowa,2022-04-28 09:13:11,2020-03-29,0.19374858486096536,0.5241526308854343,1.524892794339755,,,,,,,,,,,,
19095,0,USIowaIowa,Iowa,Iowa,2022-04-28 09:13:11,2020-03-30,0.19374858486096536,0.5241526308854343,1.524892794339755,,,,,,,,,,,,
19095,0,USIowaIowa,Iowa,Iowa,2022-04-28 09:13:11,2020-03-31,0.19374858486096536,0.5241526308854343,1.524892794339755,,,,,,,,,,,,
19095,0,USIowaIowa,Iowa,Iowa,2022-04-28 09:13:11,2020-04-01,0.19374858486096536,0.5241526308854343,1.524892794339755,,,,,,,,,,,,
19095,0,USIowaIowa,Iowa,Iowa,2022-04-28 09:13:11,2020-04-02,0.062456786043159615,0.2516232683006523,1.0766342595839404,,,,,,,,,,,,
19095,0,USIowaIowa,Iowa,Iowa,2022-04-28 09:13:11,2020-04-03,0.062456786043159615,0.2516232683006523,1.0766342595839404,,,,,,,,,,,,
19095,0,USIowaIowa,Iowa,Iowa,2022-04-28 09:13:11,2020-04-04,0.062456786043159615,0.2516232683006523,1.0766342595839404,,,,,,,,,,,,
19095,0,USIowaIowa,Iowa,Iowa,2022-04-28 09:13:11,2020-04-05,0.062456786043159615,0.2516232683006523,1.0766342595839404,,,,,,,,,,,,
19095,0,USIowaIowa,Iowa,Iowa,2022-04-28 09:13:11,2020-04-06,0.062456786043159615,0.2516232683006523,1.0766342595839404,,,,,,,,,,,,
19095,0,USIowaIowa,Iowa,Iowa,2022-04-28 09:13:11,2020-04-07,0.062456786043159615,0.2516232683006523,1.0766342595839404,,,,,,,,,,,,
19095,0,USIowaIowa,Iowa,Iowa,2022-04-28 09:13:11,2020-04-08,0.062456786043159615,0.2516232683006523,1.0766342595839404,,,,,,,,,,,,
19095,0,USIowaIowa,Iowa,Iowa,2022-04-28 09:13:11,2020-04-09,0.06944106104193981,0.3044630644210026,1.4126038164756025,,,,,,,,,,,,
19095,0,USIowaIowa,Iowa,Iowa,2022-04-28 09:13:11,2020-04-10,0.06944106104193981,0.3044630644210026,1.4126038164756025,,,,,,,,,,,,
19095,0,USIowaIowa,Iowa,Iowa,2022-04-28 09:13:11,2020-04-11,0.06944106104193981,0.3044630644210026,1.4126038164756025,,,,,,,,,,,,
19095,0,USIowaIowa,Iowa,Iowa,2022-04-28 09:13:11,2020-04-12,0.06944106104193981,0.3044630644210026,1.4126038164756025,,,,,,,,,,,,
19095,0,USIowaIowa,Iowa,Iowa,2022-04-28 09:13:11,2020-04-13,0.06944106104193981,0.3044630644210026,1.4126038164756025,,,,,,,,,,,,
19095,0,USIowaIowa,Iowa,Iowa,2022-04-28 09:13:11,2020-04-14,0.06944106104193981,0.3044630644210026,1.4126038164756025,,,,,,,,,,,,
19095,0,USIowaIowa,Iowa,Iowa,2022-04-28 09:13:11,2020-04-15,0.06944106104193981,0.3044630644210026,1.4126038164756025,,,,,,,,,,,,
19095,0,USIowaIowa,Iowa,Iowa,2022-04-28 09:13:11,2020-04-16,0.2851497363128433,0.9179830453362773,3.1651517294041227,,,,,,,,,,,,
19095,0,USIowaIowa,Iowa,Iowa,2022-04-28 09:13:11,2020-04-17,0.2851497363128433,0.9179830453362773,3.1651517294041227,,,,,,,,,,,,
19095,0,USIowaIowa,Iowa,Iowa,2022-04-28 09:13:11,2020-04-18,0.2851497363128433,0.9179830453362773,3.1651517294041227,,,,,,,,,,,,
19095,0,USIowaIowa,Iowa,Iowa,2022-04-28 09:13:11,2020-04-19,0.2851497363128433,0.9179830453362773,3.1651517294041227,,,,,,,,,,,,
19095,0,USIowaIowa,Iowa,Iowa,2022-04-28 09:13:11,2020-04-20,0.2851497363128433,0.9179830453362773,3.1651517294041227,,,,,,,,,,,,
19095,0,USIowaIowa,Iowa,Iowa,2022-04-28 09:13:11,2020-04-21,0.2851497363128433,0.9179830453362773,3.1651517294041227,,,,,,,,,,,,
19095,0,USIowaIowa,Iowa,Iowa,2022-04-28 09:13:11,2020-04-22,0.2851497363128433,0.9179830453362773,3.1651517294041227,,,,,,,,,,,,
19095,0,USIowaIowa,Iowa,Iowa,2022-04-28 09:13:11,2020-04-23,0.29436916569616156,0.9732193233609564,3.44315216146447,,,,,,,,,,,,
19095,0,USIowaIowa,Iowa,Iowa,2022-04-28 09:13:11,2020-04-24,0.29436916569616156,0.9732193233609564,3.44315216146447,,,,,,,,,,,,
19095,0,USIowaIowa,Iowa,Iowa,2022-04-28 09:13:11,2020-04-25,0.29436916569616156,0.9732193233609564,3.44315216146447,,,,,,,,,,,,
19095,0,USIowaIowa,Iowa,Iowa,2022-04-28 09:13:11,2020-04-26,0.29436916569616156,0.9732193233609564,3.44315216146447,,,,,,,,,,,,
19095,0,USIowaIowa,Iowa,Iowa,2022-04-28 09:13:11,2020-04-27,0.29436916569616156,0.9732193233609564,3.44315216146447,,,,,,,,,,,,
19095,0,USIowaIowa,Iowa,Iowa,2022-04-28 09:13:11,2020-04-28,0.29436916569616156,0.9732193233609564,3.44315216146447,,,,,,,,,,,,
19095,0,USIowaIowa,Iowa,Iowa,2022-04-28 09:13:11,2020-04-29,0.29436916569616156,0.9732193233609564,3.44315216146447,,,,,,,,,,,,
19095,0,USIowaIowa,Iowa,Iowa,2022-04-28 09:13:11,2020-04-30,0.23349986738477677,0.7407362351767334,2.517874796872181,,,,,,,,,,,,
19095,0,USIowaIowa,Iowa,Iowa,2022-04-28 09:13:11,2020-05-01,0.23349986738477677,0.7407362351767334,2.517874796872181,,,,,,,,,,,,
19095,0,USIowaIowa,Iowa,Iowa,2022-04-28 09:13:11,2020-05-02,0.23349986738477677,0.7407362351767334,2.517874796872181,,,,,,,,,,,,
19095,0,USIowaIowa,Iowa,Iowa,2022-04-28 09:13:11,2020-05-03,0.23349986738477677,0.7407362351767334,2.517874796872181,,,,,,,,,,,,
19095,0,USIowaIowa,Iowa,Iowa,2022-04-28 09:13:11,2020-05-04,0.23349986738477677,0.7407362351767334,2.517874796872181,,,,,,,,,,,,
19095,0,USIowaIowa,Iowa,Iowa,2022-04-28 09:13:11,2020-05-05,0.23349986738477677,0.7407362351767334,2.517874796872181,,,,,,,,,,,,
19095,0,USIowaIowa,Iowa,Iowa,2022-04-28 09:13:11,2020-05-06,0.23349986738477677,0.7407362351767334,2.517874796872181,,,,,,,,,,,,
19095,0,USIowaIowa,Iowa,Iowa,2022-04-28 09:13:11,2020-05-07,0.25109500529307555,0.7258077530798909,2.2534630717221034,,,,,,,,,,,,
19095,0,USIowaIowa,Iowa,Iowa,2022-04-28 09:13:11,2020-05-08,0.25109500529307555,0.7258077530798909,2.2534630717221034,,,,,,,,,,,,
19095,0,USIowaIowa,Iowa,Iowa,2022-04-28 09:13:11,2020-05-09,0.25109500529307555,0.7258077530798909,2.2534630717221034,,,,,,,,,,,,
19095,0,USIowaIowa,Iowa,Iowa,2022-04-28 09:13:11,2020-05-10,0.25109500529307555,0.7258077530798909,2.2534630717221034,,,,,,,,,,,,
19095,0,USIowaIowa,Iowa,Iowa,2022-04-28 09:13:11,2020-05-11,0.25109500529307555,0.7258077530798909,2.2534630717221034,,,,,,,,,,,,
19095,0,USIowaIowa,Iowa,Iowa,2022-04-28 09:13:11,2020-05-12,0.25109500529307555,0.7258077530798909,2.2534630717221034,,,,,,,,,,,,
19095,0,USIowaIowa,Iowa,Iowa,2022-04-28 09:13:11,2020-05-13,0.25109500529307555,0.7258077530798909,2.2534630717221034,,,,,,,,,,,,
19095,0,USIowaIowa,Iowa,Iowa,2022-04-28 09:13:11,2020-05-14,0.23149305549590304,0.6239173167114506,1.8084271352641796,,,,,,,,,,,,
19095,0,USIowaIowa,Iowa,Iowa,2022-04-28 09:13:11,2020-05-15,0.23149305549590304,0.6239173167114506,1.8084271352641796,,,,,,,,,,,,
19095,0,USIowaIowa,Iowa,Iowa,2022-04-28 09:13:11,2020-05-16,0.23149305549590304,0.6239173167114506,1.8084271352641796,,,,,,,,,,,,
19095,0,USIowaIowa,Iowa,Iowa,2022-04-28 09:13:11,2020-05-17,0.23149305549590304,0.6239173167114506,1.8084271352641796,,,,,,,,,,,,
19095,0,USIowaIowa,Iowa,Iowa,2022-04-28 09:13:11,2020-05-18,0.23149305549590304,0.6239173167114506,1.8084271352641796,,,,,,,,,,,,
19095,0,USIowaIowa,Iowa,Iowa,2022-04-28 09:13:11,2020-05-19,0.23149305549590304,0.6239173167114506,1.8084271352641796,,,,,,,,,,,,
19095,0,USIowaIowa,Iowa,Iowa,2022-04-28 09:13:11,2020-05-20,0.23149305549590304,0.6239173167114506,1.8084271352641796,,,,,,,,,,,,
19095,0,USIowaIowa,Iowa,Iowa,2022-04-28 09:13:11,2020-05-21,0.2891463435230554,0.7362184661750932,2.0170875745834795,,,,,,,,,,,,
19095,0,USIowaIowa,Iowa,Iowa,2022-04-28 09:13:11,2020-05-22,0.2891463435230554,0.7362184661750932,2.0170875745834795,,,,,,,,,,,,
19095,0,USIowaIowa,Iowa,Iowa,2022-04-28 09:13:11,2020-05-23,0.2891463435230554,0.7362184661750932,2.0170875745834795,,,,,,,,,,,,
19095,0,USIowaIowa,Iowa,Iowa,2022-04-28 09:13:11,2020-05-24,0.2891463435230554,0.7362184661750932,2.0170875745834795,,,,,,,,,,,,
19095,0,USIowaIowa,Iowa,Iowa,2022-04-28 09:13:11,2020-05-25,0.2891463435230554,0.7362184661750932,2.0170875745834795,,,,,,,,,,,,
19095,0,USIowaIowa,Iowa,Iowa,2022-04-28 09:13:11,2020-05-26,0.2891463435230554,0.7362184661750932,2.0170875745834795,,,,,,,,,,,,
19095,0,USIowaIowa,Iowa,Iowa,2022-04-28 09:13:11,2020-05-27,0.2891463435230554,0.7362184661750932,2.0170875745834795,,,,,,,,,,,,
19095,0,USIowaIowa,Iowa,Iowa,2022-04-28 09:13:11,2020-05-28,0.05669525207321368,0.21118968126327325,0.8381756422809447,,,,,,,,,,,,
19095,0,USIowaIowa,Iowa,Iowa,2022-04-28 09:13:11,2020-05-29,0.05669525207321368,0.21118968126327325,0.8381756422809447,,,,,,,,,,,,
19095,0,USIowaIowa,Iowa,Iowa,2022-04-28 09:13:11,2020-05-30,0.05669525207321368,0.21118968126327325,0.8381756422809447,,,,,,,,,,,,
19095,0,USIowaIowa,Iowa,Iowa,2022-04-28 09:13:11,2020-05-31,0.05669525207321368,0.21118968126327325,0.8381756422809447,,,,,,,,,,,,
19095,0,USIowaIowa,Iowa,Iowa,2022-04-28 09:13:11,2020-06-01,0.05669525207321368,0.21118968126327325,0.8381756422809447,,,,,,,,,,,,
19095,0,USIowaIowa,Iowa,Iowa,2022-04-28 09:13:11,2020-06-02,0.05669525207321368,0.21118968126327325,0.8381756422809447,,,,,,,,,,,,
19095,0,USIowaIowa,Iowa,Iowa,2022-04-28 09:13:11,2020-06-03,0.05669525207321368,0.21118968126327325,0.8381756422809447,,,,,,,,,,,,
19095,0,USIowaIowa,Iowa,Iowa,2022-04-28 09:13:11,2020-06-04,0.12607262754742954,0.36572495568692953,1.1394620985649477,,,,,,,,,,,,
19095,0,USIowaIowa,Iowa,Iowa,2022-04-28 09:13:11,2020-06-05,0.12607262754742954,0.36572495568692953,1.1394620985649477,,,,,,,,,,,,
19095,0,USIowaIowa,Iowa,Iowa,2022-04-28 09:13:11,2020-06-06,0.12607262754742954,0.36572495568692953,1.1394620985649477,,,,,,,,,,,,
19095,0,USIowaIowa,Iowa,Iowa,2022-04-28 09:13:11,2020-06-07,0.12607262754742954,0.36572495568692953,1.1394620985649477,,,,,,,,,,,,
19095,0,USIowaIowa,Iowa,Iowa,2022-04-28 09:13:11,2020-06-08,0.12607262754742954,0.36572495568692953,1.1394620985649477,,,,,,,,,,,,
19095,0,USIowaIowa,Iowa,Iowa,2022-04-28 09:13:11,2020-06-09,0.12607262754742954,0.36572495568692953,1.1394620985649477,,,,,,,,,,,,
19095,0,USIowaIowa,Iowa,Iowa,2022-04-28 09:13:11,2020-06-10,0.12607262754742954,0.36572495568692953,1.1394620985649477,,,,,,,,,,,,
19095,0,USIowaIowa,Iowa,Iowa,2022-04-28 09:13:11,2020-06-11,0.05461637052299284,0.1973222257547784,0.7604666097821885,,,,,,,,,,,,
19095,0,USIowaIowa,Iowa,Iowa,2022-04-28 09:13:11,2020-06-12,0.05461637052299284,0.1973222257547784,0.7604666097821885,,,,,,,,,,,,
19095,0,USIowaIowa,Iowa,Iowa,2022-04-28 09:13:11,2020-06-13,0.05461637052299284,0.1973222257547784,0.7604666097821885,,,,,,,,,,,,
19095,0,USIowaIowa,Iowa,Iowa,2022-04-28 09:13:11,2020-06-14,0.05461637052299284,0.1973222257547784,0.7604666097821885,,,,,,,,,,,,
19095,0,USIowaIowa,Iowa,Iowa,2022-04-28 09:13:11,2020-06-15,0.05461637052299284,0.1973222257547784,0.7604666097821885,,,,,,,,,,,,
19095,0,USIowaIowa,Iowa,Iowa,2022-04-28 09:13:11,2020-06-16,0.05461637052299284,0.1973222257547784,0.7604666097821885,,,,,,,,,,,,
19095,0,USIowaIowa,Iowa,Iowa,2022-04-28 09:13:11,2020-06-17,0.05461637052299284,0.1973222257547784,0.7604666097821885,,,,,,,,,,,,
19095,0,USIowaIowa,Iowa,Iowa,2022-04-28 09:13:11,2020-06-18,0.1842317910079626,0.47705326662096537,1.3290637947328752,,,,,,,,,,,,
19095,0,USIowaIowa,Iowa,Iowa,2022-04-28 09:13:11,2020-06-19,0.1842317910079626,0.47705326662096537,1.3290637947328752,,,,,,,,,,,,
19095,0,USIowaIowa,Iowa,Iowa,2022-04-28 09:13:11,2020-06-20,0.1842317910079626,0.47705326662096537,1.3290637947328752,,,,,,,,,,,,
19095,0,USIowaIowa,Iowa,Iowa,2022-04-28 09:13:11,2020-06-21,0.1842317910079626,0.47705326662096537,1.3290637947328752,,,,,,,,,,,,
19095,0,USIowaIowa,Iowa,Iowa,2022-04-28 09:13:11,2020-06-22,0.1842317910079626,0.47705326662096537,1.3290637947328752,,,,,,,,,,,,
19095,0,USIowaIowa,Iowa,Iowa,2022-04-28 09:13:11,2020-06-23,0.1842317910079626,0.47705326662096537,1.3290637947328752,,,,,,,,,,,,
19095,0,USIowaIowa,Iowa,Iowa,2022-04-28 09:13:11,2020-06-24,0.1842317910079626,0.47705326662096537,1.3290637947328752,,,,,,,,,,,,
19095,0,USIowaIowa,Iowa,Iowa,2022-04-28 09:13:11,2020-06-25,0.3159941872457626,0.71446404404850306,1.7375414939028995,,,,,,,,,,,,
19095,0,USIowaIowa,Iowa,Iowa,2022-04-28 09:13:11,2020-06-26,0.3159941872457626,0.71446404404850306,1.7375414939028995,,,,,,,,,,,,
19095,0,USIowaIowa,Iowa,Iowa,2022-04-28 09:13:11,2020-06-27,0.3159941872457626,0.71446404404850306,1.7375414939028995,,,,,,,,,,,,
19095,0,USIowaIowa,Iowa,Iowa,2022-04-28 09:13:11,2020-06-28,0.3159941872457626,0.71446404404850306,1.7375414939028995,,,,,,,,,,,,
19095,0,USIowaIowa,Iowa,Iowa,2022-04-28 09:13:11,2020-06-29,0.3159941872457626,0.71446404404850306,1.7375414939028995,,,,,,,,,,,,
19095,0,USIowaIowa,Iowa,Iowa,2022-04-28 09:13:11,2020-06-30,0.3159941872457626,0.71446404404850306,1.7375414939028995,,,,,,,,,,,,
19095,0,USIowaIowa,Iowa,Iowa,2022-04-28 09:13:11,2020-07-01,0.3159941872457626,0.71446404404850306,1.7375414939028995,,,,,,,,,,,,
19095,0,USIowaIowa,Iowa,Iowa,2022-04-28 09:13:11,2020-07-02,0.3559339537020586,0.8219540744725368,2.042143306382123,,,,,,,,,,,,
19095,0,USIowaIowa,Iowa,Iowa,2022-04-28 09:13:11,2020-07-03,0.3559339537020586,0.8219540744725368,2.042143306382123,,,,,,,,,,,,
19095,0,USIowaIowa,Iowa,Iowa,2022-04-28 09:13:11,2020-07-04,0.3559339537020586,0.8219540744725368,2.042143306382123,,,,,,,,,,,,
19095,0,USIowaIowa,Iowa,Iowa,2022-04-28 09:13:11,2020-07-05,0.3559339537020586,0.8219540744725368,2.042143306382123,,,,,,,,,,,,
19095,0,USIowaIowa,Iowa,Iowa,2022-04-28 09:13:11,2020-07-06,0.3559339537020586,0.8219540744725368,2.042143306382123,,,,,,,,,,,,
19095,0,USIowaIowa,Iowa,Iowa,2022-04-28 09:13:11,2020-07-07,0.3559339537020586,0.8219540744725368,2.042143306382123,,,,,,,,,,,,
19095,0,USIowaIowa,Iowa,Iowa,2022-04-28 09:13:11,2020-07-08,0.3559339537020586,0.8219540744725368,2.042143306382123,,,,,,,,,,,,
19095,0,USIowaIowa,Iowa,Iowa,2022-04-28 09:13:11,2020-07-09,0.13799890359575145,0.43224412186266764,1.4512402449723467,,,,,,,,,,,,
19095,0,USIowaIowa,Iowa,Iowa,2022-04-28 09:13:11,2020-07-10,0.13799890359575145,0.43224412186266764,1.4512402449723467,,,,,,,,,,,,
19095,0,USIowaIowa,Iowa,Iowa,2022-04-28 09:13:11,2020-07-11,0.13799890359575145,0.43224412186266764,1.4512402449723467,,,,,,,,,,,,
19095,0,USIowaIowa,Iowa,Iowa,2022-04-28 09:13:11,2020-07-12,0.13799890359575145,0.43224412186266764,1.4512402449723467,,,,,,,,,,,,
19095,0,USIowaIowa,Iowa,Iowa,2022-04-28 09:13:11,2020-07-13,0.13799890359575145,0.43224412186266764,1.4512402449723467,,,,,,,,,,,,
19095,0,USIowaIowa,Iowa,Iowa,2022-04-28 09:13:11,2020-07-14,0.13799890359575145,0.43224412186266764,1.4512402449723467,,,,,,,,,,,,
19095,0,USIowaIowa,Iowa,Iowa,2022-04-28 09:13:11,2020-07-15,0.13799890359575145,0.43224412186266764,1.4512402449723467,,,,,,,,,,,,
19095,0,USIowaIowa,Iowa,Iowa,2022-04-28 09:13:11,2020-07-16,0.2293419297559481,0.6131355312030731,1.7630333022503073,,,,,,,,,,,,
19095,0,USIowaIowa,Iowa,Iowa,2022-04-28 09:13:11,2020-07-17,0.2293419297559481,0.6131355312030731,1.7630333022503073,,,,,,,,,,,,
19095,0,USIowaIowa,Iowa,Iowa,2022-04-28 09:13:11,2020-07-18,0.2293419297559481,0.6131355312030731,1.7630333022503073,,,,,,,,,,,,
19095,0,USIowaIowa,Iowa,Iowa,2022-04-28 09:13:11,2020-07-19,0.2293419297559481,0.6131355312030731,1.7630333022503073,,,,,,,,,,,,
19095,0,USIowaIowa,Iowa,Iowa,2022-04-28 09:13:11,2020-07-20,0.2293419297559481,0.6131355312030731,1.7630333022503073,,,,,,,,,,,,
19095,0,USIowaIowa,Iowa,Iowa,2022-04-28 09:13:11,2020-07-21,0.2293419297559481,0.6131355312030731,1.7630333022503073,,,,,,,,,,,,
19095,0,USIowaIowa,Iowa,Iowa,2022-04-28 09:13:11,2020-07-22,0.2293419297559481,0.6131355312030731,1.7630333022503073,,,,,,,,,,,,
19095,0,USIowaIowa,Iowa,Iowa,2022-04-28 09:13:11,2020-07-23,0.39315737373706905,0.9180202534947943,2.3064328151967457,,,,,,,,,,,,
19095,0,USIowaIowa,Iowa,Iowa,2022-04-28 09:13:11,2020-07-24,0.39315737373706905,0.9180202534947943,2.3064328151967457,,,,,,,,,,,,
19095,0,USIowaIowa,Iowa,Iowa,2022-04-28 09:13:11,2020-07-25,0.39315737373706905,0.9180202534947943,2.3064328151967457,,,,,,,,,,,,
19095,0,USIowaIowa,Iowa,Iowa,2022-04-28 09:13:11,2020-07-26,0.39315737373706905,0.9180202534947943,2.3064328151967457,,,,,,,,,,,,
19095,0,USIowaIowa,Iowa,Iowa,2022-04-28 09:13:11,2020-07-27,0.39315737373706905,0.9180202534947943,2.3064328151967457,,,,,,,,,,,,
19095,0,USIowaIowa,Iowa,Iowa,2022-04-28 09:13:11,2020-07-28,0.39315737373706905,0.9180202534947943,2.3064328151967457,,,,,,,,,,,,
19095,0,USIowaIowa,Iowa,Iowa,2022-04-28 09:13:11,2020-07-29,0.39315737373706905,0.9180202534947943,2.3064328151967457,,,,,,,,,,,,
19095,0,USIowaIowa,Iowa,Iowa,2022-04-28 09:13:11,2020-07-30,0.4705216158675831,1.0568937825243894,2.55326649953403,,,,,,,,,,,,
19095,0,USIowaIowa,Iowa,Iowa,2022-04-28 09:13:11,2020-07-31,0.4705216158675831,1.0568937825243894,2.55326649953403,,,,,,,,,,,,
19095,0,USIowaIowa,Iowa,Iowa,2022-04-28 09:13:11,2020-08-01,0.4705216158675831,1.0568937825243894,2.55326649953403,,,,,,,,,,,,
19095,0,USIowaIowa,Iowa,Iowa,2022-04-28 09:13:11,2020-08-02,0.4705216158675831,1.0568937825243894,2.55326649953403,,,,,,,,,,,,
19095,0,USIowaIowa,Iowa,Iowa,2022-04-28 09:13:11,2020-08-03,0.4705216158675831,1.0568937825243894,2.55326649953403,,,,,,,,,,,,
19095,0,USIowaIowa,Iowa,Iowa,2022-04-28 09:13:11,2020-08-04,0.4705216158675831,1.0568937825243894,2.55326649953403,,,,,,,,,,,,
19095,0,USIowaIowa,Iowa,Iowa,2022-04-28 09:13:11,2020-08-05,0.4705216158675831,1.0568937825243894,2.55326649953403,,,,,,,,,,,,
19095,0,USIowaIowa,Iowa,Iowa,2022-04-28 09:13:11,2020-08-06,0.1740127251228984,0.5199023218819909,1.6671452481459883,,,,,,,,,,,,
19095,0,USIowaIowa,Iowa,Iowa,2022-04-28 09:13:11,2020-08-07,0.1740127251228984,0.5199023218819909,1.6671452481459883,,,,,,,,,,,,
19095,0,USIowaIowa,Iowa,Iowa,2022-04-28 09:13:11,2020-08-08,0.1740127251228984,0.5199023218819909,1.6671452481459883,,,,,,,,,,,,
19095,0,USIowaIowa,Iowa,Iowa,2022-04-28 09:13:11,2020-08-09,0.1740127251228984,0.5199023218819909,1.6671452481459883,,,,,,,,,,,,
19095,0,USIowaIowa,Iowa,Iowa,2022-04-28 09:13:11,2020-08-10,0.1740127251228984,0.5199023218819909,1.6671452481459883,,,,,,,,,,,,
19095,0,USIowaIowa,Iowa,Iowa,2022-04-28 09:13:11,2020-08-11,0.1740127251228984,0.5199023218819909,1.6671452481459883,,,,,,,,,,,,
19095,0,USIowaIowa,Iowa,Iowa,2022-04-28 09:13:11,2020-08-12,0.1740127251228984,0.5199023218819909,1.6671452481459883,,,,,,,,,,,,
19095,0,USIowaIowa,Iowa,Iowa,2022-04-28 09:13:11,2020-08-13,0.175210664459379,0.5265422053519832,1.6980600453922392,,,,,,,,,,,,
19095,0,USIowaIowa,Iowa,Iowa,2022-04-28 09:13:11,2020-08-14,0.175210664459379,0.5265422053519832,1.6980600453922392,,,,,,,,,,,,
19095,0,USIowaIowa,Iowa,Iowa,2022-04-28 09:13:11,2020-08-15,0.175210664459379,0.5265422053519832,1.6980600453922392,,,,,,,,,,,,
19095,0,USIowaIowa,Iowa,Iowa,2022-04-28 09:13:11,2020-08-16,0.175210664459379,0.5265422053519832,1.6980600453922392,,,,,,,,,,,,
19095,0,USIowaIowa,Iowa,Iowa,2022-04-28 09:13:11,2020-08-17,0.175210664459379,0.5265422053519832,1.6980600453922392,,,,,,,,,,,,
19095,0,USIowaIowa,Iowa,Iowa,2022-04-28 09:13:11,2020-08-18,0.175210664459379,0.5265422053519832,1.6980600453922392,,,,,,,,,,,,
19095,0,USIowaIowa,Iowa,Iowa,2022-04-28 09:13:11,2020-08-19,0.175210664459379,0.5265422053519832,1.6980600453922392,,,,,,,,,,,,
19095,0,USIowaIowa,Iowa,Iowa,2022-04-28 09:13:11,2020-08-20,0.3872566135946152,1.0470912183881889,3.0446388598878906,,,,,,,,,,,,
19095,0,USIowaIowa,Iowa,Iowa,2022-04-28 09:13:11,2020-08-21,0.3872566135946152,1.0470912183881889,3.0446388598878906,,,,,,,,,,,,
19095,0,USIowaIowa,Iowa,Iowa,2022-04-28 09:13:11,2020-08-22,0.3872566135946152,1.0470912183881889,3.0446388598878906,,,,,,,,,,,,
19095,0,USIowaIowa,Iowa,Iowa,2022-04-28 09:13:11,2020-08-23,0.3872566135946152,1.0470912183881889,3.0446388598878906,,,,,,,,,,,,
19095,0,USIowaIowa,Iowa,Iowa,2022-04-28 09:13:11,2020-08-24,0.3872566135946152,1.0470912183881889,3.0446388598878906,,,,,,,,,,,,
19095,0,USIowaIowa,Iowa,Iowa,2022-04-28 09:13:11,2020-08-25,0.3872566135946152,1.0470912183881889,3.0446388598878906,,,,,,,,,,,,
19095,0,USIowaIowa,Iowa,Iowa,2022-04-28 09:13:11,2020-08-26,0.3872566135946152,1.0470912183881889,3.0446388598878906,,,,,,,,,,,,
19095,0,USIowaIowa,Iowa,Iowa,2022-04-28 09:13:11,2020-08-27,0.3068455010698401,0.922709877961748,2.977493596818106,,,,,,,,,,,,
19095,0,USIowaIowa,Iowa,Iowa,2022-04-28 09:13:11,2020-08-28,0.3068455010698401,0.922709877961748,2.977493596818106,,,,,,,,,,,,
19095,0,USIowaIowa,Iowa,Iowa,2022-04-28 09:13:11,2020-08-29,0.3068455010698401,0.922709877961748,2.977493596818106,,,,,,,,,,,,
19095,0,USIowaIowa,Iowa,Iowa,2022-04-28 09:13:11,2020-08-30,0.3068455010698401,0.922709877961748,2.977493596818106,,,,,,,,,,,,
19095,0,USIowaIowa,Iowa,Iowa,2022-04-28 09:13:11,2020-08-31,0.3068455010698401,0.922709877961748,2.977493596818106,,,,,,,,,,,,
19095,0,USIowaIowa,Iowa,Iowa,2022-04-28 09:13:11,2020-09-01,0.3068455010698401,0.922709877961748,2.977493596818106,,,,,,,,,,,,
19095,0,USIowaIowa,Iowa,Iowa,2022-04-28 09:13:11,2020-09-02,0.3068455010698401,0.922709877961748,2.977493596818106,,,,,,,,,,,,
19095,0,USIowaIowa,Iowa,Iowa,2022-04-28 09:13:11,2020-09-03,0.7899203429736654,1.724283417918123,4.0460276540395546,,,,,,,,,,,,
19095,0,USIowaIowa,Iowa,Iowa,2022-04-28 09:13:11,2020-09-04,0.7899203429736654,1.724283417918123,4.0460276540395546,,,,,,,,,,,,
19095,0,USIowaIowa,Iowa,Iowa,2022-04-28 09:13:11,2020-09-05,0.7899203429736654,1.724283417918123,4.0460276540395546,,,,,,,,,,,,
19095,0,USIowaIowa,Iowa,Iowa,2022-04-28 09:13:11,2020-09-06,0.7899203429736654,1.724283417918123,4.0460276540395546,,,,,,,,,,,,
19095,0,USIowaIowa,Iowa,Iowa,2022-04-28 09:13:11,2020-09-07,0.7899203429736654,1.724283417918123,4.0460276540395546,,,,,,,,,,,,
19095,0,USIowaIowa,Iowa,Iowa,2022-04-28 09:13:11,2020-09-08,0.7899203429736654,1.724283417918123,4.0460276540395546,,,,,,,,,,,,
19095,0,USIowaIowa,Iowa,Iowa,2022-04-28 09:13:11,2020-09-09,0.7899203429736654,1.724283417918123,4.0460276540395546,,,,,,,,,,,,
19095,0,USIowaIowa,Iowa,Iowa,2022-04-28 09:13:11,2020-09-10,0.8144730815202157,1.7096460373585345,3.854049259809831,,,,,,,,,,,,
19095,0,USIowaIowa,Iowa,Iowa,2022-04-28 09:13:11,2020-09-11,0.8144730815202157,1.7096460373585345,3.854049259809831,,,,,,,,,,,,
19095,0,USIowaIowa,Iowa,Iowa,2022-04-28 09:13:11,2020-09-12,0.8144730815202157,1.7096460373585345,3.854049259809831,,,,,,,,,,,,
19095,0,USIowaIowa,Iowa,Iowa,2022-04-28 09:13:11,2020-09-13,0.8144730815202157,1.7096460373585345,3.854049259809831,,,,,,,,,,,,
19095,0,USIowaIowa,Iowa,Iowa,2022-04-28 09:13:11,2020-09-14,0.8144730815202157,1.7096460373585345,3.854049259809831,,,,,,,,,,,,
19095,0,USIowaIowa,Iowa,Iowa,2022-04-28 09:13:11,2020-09-15,0.8144730815202157,1.7096460373585345,3.854049259809831,,,,,,,,,,,,
19095,0,USIowaIowa,Iowa,Iowa,2022-04-28 09:13:11,2020-09-16,0.8144730815202157,1.7096460373585345,3.854049259809831,,,,,,,,,,,,
19095,0,USIowaIowa,Iowa,Iowa,2022-04-28 09:13:11,2020-09-17,0.8215225641501046,1.795660442000456,4.219252219289617,,,,,,,,,,,,
19095,0,USIowaIowa,Iowa,Iowa,2022-04-28 09:13:11,2020-09-18,0.8215225641501046,1.795660442000456,4.219252219289617,,,,,,,,,,,,
19095,0,USIowaIowa,Iowa,Iowa,2022-04-28 09:13:11,2020-09-19,0.8215225641501046,1.795660442000456,4.219252219289617,,,,,,,,,,,,
19095,0,USIowaIowa,Iowa,Iowa,2022-04-28 09:13:11,2020-09-20,0.8215225641501046,1.795660442000456,4.219252219289617,,,,,,,,,,,,
19095,0,USIowaIowa,Iowa,Iowa,2022-04-28 09:13:11,2020-09-21,0.8215225641501046,1.795660442000456,4.219252219289617,,,,,,,,,,,,
19095,0,USIowaIowa,Iowa,Iowa,2022-04-28 09:13:11,2020-09-22,0.8215225641501046,1.795660442000456,4.219252219289617,,,,,,,,,,,,
19095,0,USIowaIowa,Iowa,Iowa,2022-04-28 09:13:11,2020-09-23,0.8215225641501046,1.795660442000456,4.219252219289617,,,,,,,,,,,,
19095,0,USIowaIowa,Iowa,Iowa,2022-04-28 09:13:11,2020-09-24,0.9524346938726631,2.0409979224081574,4.699663823047718,,,,,,,,,,,,
19095,0,USIowaIowa,Iowa,Iowa,2022-04-28 09:13:11,2020-09-25,0.9524346938726631,2.0409979224081574,4.699663823047718,,,,,,,,,,,,
19095,0,USIowaIowa,Iowa,Iowa,2022-04-28 09:13:11,2020-09-26,0.9524346938726631,2.0409979224081574,4.699663823047718,,,,,,,,,,,,
19095,0,USIowaIowa,Iowa,Iowa,2022-04-28 09:13:11,2020-09-27,0.9524346938726631,2.0409979224081574,4.699663823047718,,,,,,,,,,,,
19095,0,USIowaIowa,Iowa,Iowa,2022-04-28 09:13:11,2020-09-28,0.9524346938726631,2.0409979224081574,4.699663823047718,,,,,,,,,,,,
19095,0,USIowaIowa,Iowa,Iowa,2022-04-28 09:13:11,2020-09-29,0.9524346938726631,2.0409979224081574,4.699663823047718,,,,,,,,,,,,
19095,0,USIowaIowa,Iowa,Iowa,2022-04-28 09:13:11,2020-09-30,0.9524346938726631,2.0409979224081574,4.699663823047718,,,,,,,,,,,,
19095,0,USIowaIowa,Iowa,Iowa,2022-04-28 09:13:11,2020-10-01,1.397562885886378,2.683797241183999,5.516084637700272,,,,,,,,,,,,
19095,0,USIowaIowa,Iowa,Iowa,2022-04-28 09:13:11,2020-10-02,1.397562885886378,2.683797241183999,5.516084637700272,,,,,,,,,,,,
19095,0,USIowaIowa,Iowa,Iowa,2022-04-28 09:13:11,2020-10-03,1.397562885886378,2.683797241183999,5.516084637700272,,,,,,,,,,,,
19095,0,USIowaIowa,Iowa,Iowa,2022-04-28 09:13:11,2020-10-04,1.397562885886378,2.683797241183999,5.516084637700272,,,,,,,,,,,,
19095,0,USIowaIowa,Iowa,Iowa,2022-04-28 09:13:11,2020-10-05,1.397562885886378,2.683797241183999,5.516084637700272,,,,,,,,,,,,
19095,0,USIowaIowa,Iowa,Iowa,2022-04-28 09:13:11,2020-10-06,1.397562885886378,2.683797241183999,5.516084637700272,,,,,,,,,,,,
19095,0,USIowaIowa,Iowa,Iowa,2022-04-28 09:13:11,2020-10-07,1.397562885886378,2.683797241183999,5.516084637700272,,,,,,,,,,,,
19095,0,USIowaIowa,Iowa,Iowa,2022-04-28 09:13:11,2020-10-08,1.8294729694421648,3.3963452761387924,6.736370907525672,,,,,,,,,,,,
19095,0,USIowaIowa,Iowa,Iowa,2022-04-28 09:13:11,2020-10-09,1.8294729694421648,3.3963452761387924,6.736370907525672,,,,,,,,,,,,
19095,0,USIowaIowa,Iowa,Iowa,2022-04-28 09:13:11,2020-10-10,1.8294729694421648,3.3963452761387924,6.736370907525672,,,,,,,,,,,,
19095,0,USIowaIowa,Iowa,Iowa,2022-04-28 09:13:11,2020-10-11,1.8294729694421648,3.3963452761387924,6.736370907525672,,,,,,,,,,,,
19095,0,USIowaIowa,Iowa,Iowa,2022-04-28 09:13:11,2020-10-12,1.8294729694421648,3.3963452761387924,6.736370907525672,,,,,,,,,,,,
19095,0,USIowaIowa,Iowa,Iowa,2022-04-28 09:13:11,2020-10-13,1.8294729694421648,3.3963452761387924,6.736370907525672,,,,,,,,,,,,
19095,0,USIowaIowa,Iowa,Iowa,2022-04-28 09:13:11,2020-10-14,1.8294729694421648,3.3963452761387924,6.736370907525672,,,,,,,,,,,,
19095,0,USIowaIowa,Iowa,Iowa,2022-04-28 09:13:11,2020-10-15,1.2158137096683574,3.323662454445092,9.769275169628576,,,,,,,,,,,,
19095,0,USIowaIowa,Iowa,Iowa,2022-04-28 09:13:11,2020-10-16,1.2158137096683574,3.323662454445092,9.769275169628576,,,,,,,,,,,,
19095,0,USIowaIowa,Iowa,Iowa,2022-04-28 09:13:11,2020-10-17,1.2158137096683574,3.323662454445092,9.769275169628576,,,,,,,,,,,,
19095,0,USIowaIowa,Iowa,Iowa,2022-04-28 09:13:11,2020-10-18,1.2158137096683574,3.323662454445092,9.769275169628576,,,,,,,,,,,,
19095,0,USIowaIowa,Iowa,Iowa,2022-04-28 09:13:11,2020-10-19,1.2158137096683574,3.323662454445092,9.769275169628576,,,,,,,,,,,,
19095,0,USIowaIowa,Iowa,Iowa,2022-04-28 09:13:11,2020-10-20,1.2158137096683574,3.323662454445092,9.769275169628576,,,,,,,,,,,,
19095,0,USIowaIowa,Iowa,Iowa,2022-04-28 09:13:11,2020-10-21,1.2158137096683574,3.323662454445092,9.769275169628576,,,,,,,,,,,,
19095,0,USIowaIowa,Iowa,Iowa,2022-04-28 09:13:11,2020-10-22,1.4427247716120442,3.1784979989791915,7.528929571249035,,,,,,,,,,,,
19095,0,USIowaIowa,Iowa,Iowa,2022-04-28 09:13:11,2020-10-23,1.4427247716120442,3.1784979989791915,7.528929571249035,,,,,,,,,,,,
19095,0,USIowaIowa,Iowa,Iowa,2022-04-28 09:13:11,2020-10-24,1.4427247716120442,3.1784979989791915,7.528929571249035,,,,,,,,,,,,
19095,0,USIowaIowa,Iowa,Iowa,2022-04-28 09:13:11,2020-10-25,1.4427247716120442,3.1784979989791915,7.528929571249035,,,,,,,,,,,,
19095,0,USIowaIowa,Iowa,Iowa,2022-04-28 09:13:11,2020-10-26,1.4427247716120442,3.1784979989791915,7.528929571249035,,,,,,,,,,,,
19095,0,USIowaIowa,Iowa,Iowa,2022-04-28 09:13:11,2020-10-27,1.4427247716120442,3.1784979989791915,7.528929571249035,,,,,,,,,,,,
19095,0,USIowaIowa,Iowa,Iowa,2022-04-28 09:13:11,2020-10-28,1.4427247716120442,3.1784979989791915,7.528929571249035,,,,,,,,,,,,
19095,0,USIowaIowa,Iowa,Iowa,2022-04-28 09:13:11,2020-10-29,2.488453173726777,5.144699416769444,11.417582909550028,,,,,,,,,,,,
19095,0,USIowaIowa,Iowa,Iowa,2022-04-28 09:13:11,2020-10-30,2.488453173726777,5.144699416769444,11.417582909550028,,,,,,,,,,,,
19095,0,USIowaIowa,Iowa,Iowa,2022-04-28 09:13:11,2020-10-31,2.488453173726777,5.144699416769444,11.417582909550028,,,,,,,,,,,,
19095,0,USIowaIowa,Iowa,Iowa,2022-04-28 09:13:11,2020-11-01,2.488453173726777,5.144699416769444,11.417582909550028,,,,,,,,,,,,
19095,0,USIowaIowa,Iowa,Iowa,2022-04-28 09:13:11,2020-11-02,2.488453173726777,5.144699416769444,11.417582909550028,,,,,,,,,,,,
19095,0,USIowaIowa,Iowa,Iowa,2022-04-28 09:13:11,2020-11-03,2.488453173726777,5.144699416769444,11.417582909550028,,,,,,,,,,,,
19095,0,USIowaIowa,Iowa,Iowa,2022-04-28 09:13:11,2020-11-04,2.488453173726777,5.144699416769444,11.417582909550028,,,,,,,,,,,,
19095,0,USIowaIowa,Iowa,Iowa,2022-04-28 09:13:11,2020-11-05,4.299709442936236,8.16830038089645,16.599439002321184,,,,,,,,,,,,
19095,0,USIowaIowa,Iowa,Iowa,2022-04-28 09:13:11,2020-11-06,4.299709442936236,8.16830038089645,16.599439002321184,,,,,,,,,,,,
19095,0,USIowaIowa,Iowa,Iowa,2022-04-28 09:13:11,2020-11-07,4.299709442936236,8.16830038089645,16.599439002321184,,,,,,,,,,,,
19095,0,USIowaIowa,Iowa,Iowa,2022-04-28 09:13:11,2020-11-08,4.299709442936236,8.16830038089645,16.599439002321184,,,,,,,,,,,,
19095,0,USIowaIowa,Iowa,Iowa,2022-04-28 09:13:11,2020-11-09,4.299709442936236,8.16830038089645,16.599439002321184,,,,,,,,,,,,
19095,0,USIowaIowa,Iowa,Iowa,2022-04-28 09:13:11,2020-11-10,4.299709442936236,8.16830038089645,16.599439002321184,,,,,,,,,,,,
19095,0,USIowaIowa,Iowa,Iowa,2022-04-28 09:13:11,2020-11-11,4.299709442936236,8.16830038089645,16.599439002321184,,,,,,,,,,,,
19095,0,USIowaIowa,Iowa,Iowa,2022-04-28 09:13:11,2020-11-12,3.3235607106606655,6.7761644161310874,14.82338079910642,,,,,,,,,,,,
19095,0,USIowaIowa,Iowa,Iowa,2022-04-28 09:13:11,2020-11-13,3.3235607106606655,6.7761644161310874,14.82338079910642,,,,,,,,,,,,
19095,0,USIowaIowa,Iowa,Iowa,2022-04-28 09:13:11,2020-11-14,3.3235607106606655,6.7761644161310874,14.82338079910642,,,,,,,,,,,,
19095,0,USIowaIowa,Iowa,Iowa,2022-04-28 09:13:11,2020-11-15,3.3235607106606655,6.7761644161310874,14.82338079910642,,,,,,,,,,,,
19095,0,USIowaIowa,Iowa,Iowa,2022-04-28 09:13:11,2020-11-16,3.3235607106606655,6.7761644161310874,14.82338079910642,,,,,,,,,,,,
19095,0,USIowaIowa,Iowa,Iowa,2022-04-28 09:13:11,2020-11-17,3.3235607106606655,6.7761644161310874,14.82338079910642,,,,,,,,,,,,
19095,0,USIowaIowa,Iowa,Iowa,2022-04-28 09:13:11,2020-11-18,3.3235607106606655,6.7761644161310874,14.82338079910642,,,,,,,,,,,,
19095,0,USIowaIowa,Iowa,Iowa,2022-04-28 09:13:11,2020-11-19,3.1876402348737516,6.257441118329976,13.160303384695155,,,,,,,,,,,,
19095,0,USIowaIowa,Iowa,Iowa,2022-04-28 09:13:11,2020-11-20,3.1876402348737516,6.257441118329976,13.160303384695155,,,,,,,,,,,,
19095,0,USIowaIowa,Iowa,Iowa,2022-04-28 09:13:11,2020-11-21,3.1876402348737516,6.257441118329976,13.160303384695155,,,,,,,,,,,,
19095,0,USIowaIowa,Iowa,Iowa,2022-04-28 09:13:11,2020-11-22,3.1876402348737516,6.257441118329976,13.160303384695155,,,,,,,,,,,,
19095,0,USIowaIowa,Iowa,Iowa,2022-04-28 09:13:11,2020-11-23,3.1876402348737516,6.257441118329976,13.160303384695155,,,,,,,,,,,,
19095,0,USIowaIowa,Iowa,Iowa,2022-04-28 09:13:11,2020-11-24,3.1876402348737516,6.257441118329976,13.160303384695155,,,,,,,,,,,,
19095,0,USIowaIowa,Iowa,Iowa,2022-04-28 09:13:11,2020-11-25,3.1876402348737516,6.257441118329976,13.160303384695155,,,,,,,,,,,,
19095,0,USIowaIowa,Iowa,Iowa,2022-04-28 09:13:11,2020-11-26,2.474067496182491,5.196226619342165,11.720690747274233,,,,,,,,,,,,
19095,0,USIowaIowa,Iowa,Iowa,2022-04-28 09:13:11,2020-11-27,2.474067496182491,5.196226619342165,11.720690747274233,,,,,,,,,,,,
19095,0,USIowaIowa,Iowa,Iowa,2022-04-28 09:13:11,2020-11-28,2.474067496182491,5.196226619342165,11.720690747274233,,,,,,,,,,,,
19095,0,USIowaIowa,Iowa,Iowa,2022-04-28 09:13:11,2020-11-29,2.474067496182491,5.196226619342165,11.720690747274233,,,,,,,,,,,,
19095,0,USIowaIowa,Iowa,Iowa,2022-04-28 09:13:11,2020-11-30,2.474067496182491,5.196226619342165,11.720690747274233,,,,,,,,,,,,
19095,0,USIowaIowa,Iowa,Iowa,2022-04-28 09:13:11,2020-12-01,2.474067496182491,5.196226619342165,11.720690747274233,,,,,,,,,,,,
19095,0,USIowaIowa,Iowa,Iowa,2022-04-28 09:13:11,2020-12-02,2.474067496182491,5.196226619342165,11.720690747274233,,,,,,,,,,,,
19095,0,USIowaIowa,Iowa,Iowa,2022-04-28 09:13:11,2020-12-03,1.2808221813314913,3.139924489449649,8.283817761367219,,,,,,,,,,,,
19095,0,USIowaIowa,Iowa,Iowa,2022-04-28 09:13:11,2020-12-04,1.2808221813314913,3.139924489449649,8.283817761367219,,,,,,,,,,,,
19095,0,USIowaIowa,Iowa,Iowa,2022-04-28 09:13:11,2020-12-05,1.2808221813314913,3.139924489449649,8.283817761367219,,,,,,,,,,,,
19095,0,USIowaIowa,Iowa,Iowa,2022-04-28 09:13:11,2020-12-06,1.2808221813314913,3.139924489449649,8.283817761367219,,,,,,,,,,,,
19095,0,USIowaIowa,Iowa,Iowa,2022-04-28 09:13:11,2020-12-07,1.2808221813314913,3.139924489449649,8.283817761367219,,,,,,,,,,,,
19095,0,USIowaIowa,Iowa,Iowa,2022-04-28 09:13:11,2020-12-08,1.2808221813314913,3.139924489449649,8.283817761367219,,,,,,,,,,,,
19095,0,USIowaIowa,Iowa,Iowa,2022-04-28 09:13:11,2020-12-09,1.2808221813314913,3.139924489449649,8.283817761367219,,,,,,,,,,,,
19095,0,USIowaIowa,Iowa,Iowa,2022-04-28 09:13:11,2020-12-10,1.134095934579612,2.8383279397125345,7.644333168337621,,,,,,,,,,,,
19095,0,USIowaIowa,Iowa,Iowa,2022-04-28 09:13:11,2020-12-11,1.134095934579612,2.8383279397125345,7.644333168337621,,,,,,,,,,,,
19095,0,USIowaIowa,Iowa,Iowa,2022-04-28 09:13:11,2020-12-12,1.134095934579612,2.8383279397125345,7.644333168337621,,,,,,,,,,,,
19095,0,USIowaIowa,Iowa,Iowa,2022-04-28 09:13:11,2020-12-13,1.134095934579612,2.8383279397125345,7.644333168337621,,,,,,,,,,,,
19095,0,USIowaIowa,Iowa,Iowa,2022-04-28 09:13:11,2020-12-14,1.134095934579612,2.8383279397125345,7.644333168337621,,,,,,,,,,,,
19095,0,USIowaIowa,Iowa,Iowa,2022-04-28 09:13:11,2020-12-15,1.134095934579612,2.8383279397125345,7.644333168337621,,,,,,,,,,,,
19095,0,USIowaIowa,Iowa,Iowa,2022-04-28 09:13:11,2020-12-16,1.134095934579612,2.8383279397125345,7.644333168337621,,,,,,,,,,,,
19095,0,USIowaIowa,Iowa,Iowa,2022-04-28 09:13:11,2020-12-17,1.4157335309588948,3.252976345161861,8.041158028606503,,,,,,,,,,,,
19095,0,USIowaIowa,Iowa,Iowa,2022-04-28 09:13:11,2020-12-18,1.4157335309588948,3.252976345161861,8.041158028606503,,,,,,,,,,,,
19095,0,USIowaIowa,Iowa,Iowa,2022-04-28 09:13:11,2020-12-19,1.4157335309588948,3.252976345161861,8.041158028606503,,,,,,,,,,,,
19095,0,USIowaIowa,Iowa,Iowa,2022-04-28 09:13:11,2020-12-20,1.4157335309588948,3.252976345161861,8.041158028606503,,,,,,,,,,,,
19095,0,USIowaIowa,Iowa,Iowa,2022-04-28 09:13:11,2020-12-21,1.4157335309588948,3.252976345161861,8.041158028606503,,,,,,,,,,,,
19095,0,USIowaIowa,Iowa,Iowa,2022-04-28 09:13:11,2020-12-22,1.4157335309588948,3.252976345161861,8.041158028606503,,,,,,,,,,,,
19095,0,USIowaIowa,Iowa,Iowa,2022-04-28 09:13:11,2020-12-23,1.4157335309588948,3.252976345161861,8.041158028606503,,,,,,,,,,,,
19095,0,USIowaIowa,Iowa,Iowa,2022-04-28 09:13:11,2020-12-24,0.7512839044012032,2.166701576864955,6.712135135779909,,,,,,,,,,,,
19095,0,USIowaIowa,Iowa,Iowa,2022-04-28 09:13:11,2020-12-25,0.7512839044012032,2.166701576864955,6.712135135779909,,,,,,,,,,,,
19095,0,USIowaIowa,Iowa,Iowa,2022-04-28 09:13:11,2020-12-26,0.7512839044012032,2.166701576864955,6.712135135779909,,,,,,,,,,,,
19095,0,USIowaIowa,Iowa,Iowa,2022-04-28 09:13:11,2020-12-27,0.7512839044012032,2.166701576864955,6.712135135779909,,,,,,,,,,,,
19095,0,USIowaIowa,Iowa,Iowa,2022-04-28 09:13:11,2020-12-28,0.7512839044012032,2.166701576864955,6.712135135779909,,,,,,,,,,,,
19095,0,USIowaIowa,Iowa,Iowa,2022-04-28 09:13:11,2020-12-29,0.7512839044012032,2.166701576864955,6.712135135779909,,,,,,,,,,,,
19095,0,USIowaIowa,Iowa,Iowa,2022-04-28 09:13:11,2020-12-30,0.7512839044012032,2.166701576864955,6.712135135779909,,,,,,,,,,,,
19095,0,USIowaIowa,Iowa,Iowa,2022-04-28 09:13:11,2020-12-31,1.324806628896371,3.4267265199713086,9.536455427971465,,,,,,,,,,,,
19095,0,USIowaIowa,Iowa,Iowa,2022-04-28 09:13:11,2021-01-01,1.324806628896371,3.4267265199713086,9.536455427971465,,,,,,,,,,,,
19095,0,USIowaIowa,Iowa,Iowa,2022-04-28 09:13:11,2021-01-02,1.324806628896371,3.4267265199713086,9.536455427971465,,,,,,,,,,,,
19095,0,USIowaIowa,Iowa,Iowa,2022-04-28 09:13:11,2021-01-03,1.324806628896371,3.4267265199713086,9.536455427971465,,,,,,,,,,,,
19095,0,USIowaIowa,Iowa,Iowa,2022-04-28 09:13:11,2021-01-04,1.324806628896371,3.4267265199713086,9.536455427971465,,,,,,,,,,,,
19095,0,USIowaIowa,Iowa,Iowa,2022-04-28 09:13:11,2021-01-05,1.324806628896371,3.4267265199713086,9.536455427971465,,,,,,,,,,,,
19095,0,USIowaIowa,Iowa,Iowa,2022-04-28 09:13:11,2021-01-06,1.324806628896371,3.4267265199713086,9.536455427971465,,,,,,,,,,,,
19095,0,USIowaIowa,Iowa,Iowa,2022-04-28 09:13:11,2021-01-07,1.517055461658824,3.5630739052209432,9.004703609525807,,,,,,,,,,,,
19095,0,USIowaIowa,Iowa,Iowa,2022-04-28 09:13:11,2021-01-08,1.517055461658824,3.5630739052209432,9.004703609525807,,,,,,,,,,,,
19095,0,USIowaIowa,Iowa,Iowa,2022-04-28 09:13:11,2021-01-09,1.517055461658824,3.5630739052209432,9.004703609525807,,,,,,,,,,,,
19095,0,USIowaIowa,Iowa,Iowa,2022-04-28 09:13:11,2021-01-10,1.517055461658824,3.5630739052209432,9.004703609525807,,,,,,,,,,,,
19095,0,USIowaIowa,Iowa,Iowa,2022-04-28 09:13:11,2021-01-11,1.517055461658824,3.5630739052209432,9.004703609525807,,,,,,,,,,,,
19095,0,USIowaIowa,Iowa,Iowa,2022-04-28 09:13:11,2021-01-12,1.517055461658824,3.5630739052209432,9.004703609525807,,,,,,,,,,,,
19095,0,USIowaIowa,Iowa,Iowa,2022-04-28 09:13:11,2021-01-13,1.517055461658824,3.5630739052209432,9.004703609525807,,,,,,,,,,,,
19095,0,USIowaIowa,Iowa,Iowa,2022-04-28 09:13:11,2021-01-14,1.4352179000205953,3.2719805034166347,8.024226547755289,,,,,,,,,,,,
19095,0,USIowaIowa,Iowa,Iowa,2022-04-28 09:13:11,2021-01-15,1.4352179000205953,3.2719805034166347,8.024226547755289,,,,,,,,,,,,
19095,0,USIowaIowa,Iowa,Iowa,2022-04-28 09:13:11,2021-01-16,1.4352179000205953,3.2719805034166347,8.024226547755289,,,,,,,,,,,,
19095,0,USIowaIowa,Iowa,Iowa,2022-04-28 09:13:11,2021-01-17,1.4352179000205953,3.2719805034166347,8.024226547755289,,,,,,,,,,,,
19095,0,USIowaIowa,Iowa,Iowa,2022-04-28 09:13:11,2021-01-18,1.4352179000205953,3.2719805034166347,8.024226547755289,,,,,,,,,,,,
19095,0,USIowaIowa,Iowa,Iowa,2022-04-28 09:13:11,2021-01-19,1.4352179000205953,3.2719805034166347,8.024226547755289,,,,,,,,,,,,
19095,0,USIowaIowa,Iowa,Iowa,2022-04-28 09:13:11,2021-01-20,1.4352179000205953,3.2719805034166347,8.024226547755289,,,,,,,,,,,,
19095,0,USIowaIowa,Iowa,Iowa,2022-04-28 09:13:11,2021-01-21,1.0960898804237484,2.6621246996150325,6.958083902336343,,,,,,,,,,,,
19095,0,USIowaIowa,Iowa,Iowa,2022-04-28 09:13:11,2021-01-22,1.0960898804237484,2.6621246996150325,6.958083902336343,,,,,,,,,,,,
19095,0,USIowaIowa,Iowa,Iowa,2022-04-28 09:13:11,2021-01-23,1.0960898804237484,2.6621246996150325,6.958083902336343,,,,,,,,,,,,
19095,0,USIowaIowa,Iowa,Iowa,2022-04-28 09:13:11,2021-01-24,1.0960898804237484,2.6621246996150325,6.958083902336343,,,,,,,,,,,,
19095,0,USIowaIowa,Iowa,Iowa,2022-04-28 09:13:11,2021-01-25,1.0960898804237484,2.6621246996150325,6.958083902336343,,,,,,,,,,,,
19095,0,USIowaIowa,Iowa,Iowa,2022-04-28 09:13:11,2021-01-26,1.0960898804237484,2.6621246996150325,6.958083902336343,,,,,,,,,,,,
19095,0,USIowaIowa,Iowa,Iowa,2022-04-28 09:13:11,2021-01-27,1.0960898804237484,2.6621246996150325,6.958083902336343,,,,,,,,,,,,
19095,0,USIowaIowa,Iowa,Iowa,2022-04-28 09:13:11,2021-01-28,1.1112024521996693,2.5230172085062104,6.162045043060036,,,,,,,,,,,,
19095,0,USIowaIowa,Iowa,Iowa,2022-04-28 09:13:11,2021-01-29,1.1112024521996693,2.5230172085062104,6.162045043060036,,,,,,,,,,,,
19095,0,USIowaIowa,Iowa,Iowa,2022-04-28 09:13:11,2021-01-30,1.1112024521996693,2.5230172085062104,6.162045043060036,,,,,,,,,,,,
19095,0,USIowaIowa,Iowa,Iowa,2022-04-28 09:13:11,2021-01-31,1.1112024521996693,2.5230172085062104,6.162045043060036,,,,,,,,,,,,
19095,0,USIowaIowa,Iowa,Iowa,2022-04-28 09:13:11,2021-02-01,1.1112024521996693,2.5230172085062104,6.162045043060036,,,,,,,,,,,,
19095,0,USIowaIowa,Iowa,Iowa,2022-04-28 09:13:11,2021-02-02,1.1112024521996693,2.5230172085062104,6.162045043060036,,,,,,,,,,,,
19095,0,USIowaIowa,Iowa,Iowa,2022-04-28 09:13:11,2021-02-03,1.1112024521996693,2.5230172085062104,6.162045043060036,,,,,,,,,,,,
19095,0,USIowaIowa,Iowa,Iowa,2022-04-28 09:13:11,2021-02-04,0.7170113983169191,1.8956988229807195,5.391393262344134,,,,,,,,,,,,
19095,0,USIowaIowa,Iowa,Iowa,2022-04-28 09:13:11,2021-02-05,0.7170113983169191,1.8956988229807195,5.391393262344134,,,,,,,,,,,,
19095,0,USIowaIowa,Iowa,Iowa,2022-04-28 09:13:11,2021-02-06,0.7170113983169191,1.8956988229807195,5.391393262344134,,,,,,,,,,,,
19095,0,USIowaIowa,Iowa,Iowa,2022-04-28 09:13:11,2021-02-07,0.7170113983169191,1.8956988229807195,5.391393262344134,,,,,,,,,,,,
19095,0,USIowaIowa,Iowa,Iowa,2022-04-28 09:13:11,2021-02-08,0.7170113983169191,1.8956988229807195,5.391393262344134,,,,,,,,,,,,
19095,0,USIowaIowa,Iowa,Iowa,2022-04-28 09:13:11,2021-02-09,0.7170113983169191,1.8956988229807195,5.391393262344134,,,,,,,,,,,,
19095,0,USIowaIowa,Iowa,Iowa,2022-04-28 09:13:11,2021-02-10,0.7170113983169191,1.8956988229807195,5.391393262344134,,,,,,,,,,,,
19095,0,USIowaIowa,Iowa,Iowa,2022-04-28 09:13:11,2021-02-11,0.46164040870501166,1.1573697239686034,3.122496638859604,,,,,,,,,,,,
19095,0,USIowaIowa,Iowa,Iowa,2022-04-28 09:13:11,2021-02-12,0.46164040870501166,1.1573697239686034,3.122496638859604,,,,,,,,,,,,
19095,0,USIowaIowa,Iowa,Iowa,2022-04-28 09:13:11,2021-02-13,0.46164040870501166,1.1573697239686034,3.122496638859604,,,,,,,,,,,,
19095,0,USIowaIowa,Iowa,Iowa,2022-04-28 09:13:11,2021-02-14,0.46164040870501166,1.1573697239686034,3.122496638859604,,,,,,,,,,,,
19095,0,USIowaIowa,Iowa,Iowa,2022-04-28 09:13:11,2021-02-15,0.46164040870501166,1.1573697239686034,3.122496638859604,,,,,,,,,,,,
19095,0,USIowaIowa,Iowa,Iowa,2022-04-28 09:13:11,2021-02-16,0.46164040870501166,1.1573697239686034,3.122496638859604,,,,,,,,,,,,
19095,0,USIowaIowa,Iowa,Iowa,2022-04-28 09:13:11,2021-02-17,0.46164040870501166,1.1573697239686034,3.122496638859604,,,,,,,,,,,,
19095,0,USIowaIowa,Iowa,Iowa,2022-04-28 09:13:11,2021-02-18,0.6774554603341214,1.704508702255929,4.615015013109218,,,,,,,,,,,,
19095,0,USIowaIowa,Iowa,Iowa,2022-04-28 09:13:11,2021-02-19,0.6774554603341214,1.704508702255929,4.615015013109218,,,,,,,,,,,,
19095,0,USIowaIowa,Iowa,Iowa,2022-04-28 09:13:11,2021-02-20,0.6774554603341214,1.704508702255929,4.615015013109218,,,,,,,,,,,,
19095,0,USIowaIowa,Iowa,Iowa,2022-04-28 09:13:11,2021-02-21,0.6774554603341214,1.704508702255929,4.615015013109218,,,,,,,,,,,,
19095,0,USIowaIowa,Iowa,Iowa,2022-04-28 09:13:11,2021-02-22,0.6774554603341214,1.704508702255929,4.615015013109218,,,,,,,,,,,,
19095,0,USIowaIowa,Iowa,Iowa,2022-04-28 09:13:11,2021-02-23,0.6774554603341214,1.704508702255929,4.615015013109218,,,,,,,,,,,,
19095,0,USIowaIowa,Iowa,Iowa,2022-04-28 09:13:11,2021-02-24,0.6774554603341214,1.704508702255929,4.615015013109218,,,,,,,,,,,,
19095,0,USIowaIowa,Iowa,Iowa,2022-04-28 09:13:11,2021-02-25,0.5829891575041565,1.494935857547211,4.124713538317571,,,,,,,,,,,,
19095,0,USIowaIowa,Iowa,Iowa,2022-04-28 09:13:11,2021-02-26,0.5829891575041565,1.494935857547211,4.124713538317571,,,,,,,,,,,,
19095,0,USIowaIowa,Iowa,Iowa,2022-04-28 09:13:11,2021-02-27,0.5829891575041565,1.494935857547211,4.124713538317571,,,,,,,,,,,,
19095,0,USIowaIowa,Iowa,Iowa,2022-04-28 09:13:11,2021-02-28,0.5829891575041565,1.494935857547211,4.124713538317571,,,,,,,,,,,,
19095,0,USIowaIowa,Iowa,Iowa,2022-04-28 09:13:11,2021-03-01,0.5829891575041565,1.494935857547211,4.124713538317571,,,,,,,,,,,,
19095,0,USIowaIowa,Iowa,Iowa,2022-04-28 09:13:11,2021-03-02,0.5829891575041565,1.494935857547211,4.124713538317571,,,,,,,,,,,,
19095,0,USIowaIowa,Iowa,Iowa,2022-04-28 09:13:11,2021-03-03,0.5829891575041565,1.494935857547211,4.124713538317571,,,,,,,,,,,,
19095,0,USIowaIowa,Iowa,Iowa,2022-04-28 09:13:11,2021-03-04,0.5722672031289738,1.4437857828584866,3.9197361558651047,,,,,,,,,,,,
19095,0,USIowaIowa,Iowa,Iowa,2022-04-28 09:13:11,2021-03-05,0.5722672031289738,1.4437857828584866,3.9197361558651047,,,,,,,,,,,,
19095,0,USIowaIowa,Iowa,Iowa,2022-04-28 09:13:11,2021-03-06,0.5722672031289738,1.4437857828584866,3.9197361558651047,,,,,,,,,,,,
19095,0,USIowaIowa,Iowa,Iowa,2022-04-28 09:13:11,2021-03-07,0.5722672031289738,1.4437857828584866,3.9197361558651047,,,,,,,,,,,,
19095,0,USIowaIowa,Iowa,Iowa,2022-04-28 09:13:11,2021-03-08,0.5722672031289738,1.4437857828584866,3.9197361558651047,,,,,,,,,,,,
19095,0,USIowaIowa,Iowa,Iowa,2022-04-28 09:13:11,2021-03-09,0.5722672031289738,1.4437857828584866,3.9197361558651047,,,,,,,,,,,,
19095,0,USIowaIowa,Iowa,Iowa,2022-04-28 09:13:11,2021-03-10,0.5722672031289738,1.4437857828584866,3.9197361558651047,,,,,,,,,,,,
19095,0,USIowaIowa,Iowa,Iowa,2022-04-28 09:13:11,2021-03-11,0.5426215732875128,1.3826650822771784,3.791089065947336,,,,,,,,,,,,
19095,0,USIowaIowa,Iowa,Iowa,2022-04-28 09:13:11,2021-03-12,0.5426215732875128,1.3826650822771784,3.791089065947336,,,,,,,,,,,,
19095,0,USIowaIowa,Iowa,Iowa,2022-04-28 09:13:11,2021-03-13,0.5426215732875128,1.3826650822771784,3.791089065947336,,,,,,,,,,,,
19095,0,USIowaIowa,Iowa,Iowa,2022-04-28 09:13:11,2021-03-14,0.5426215732875128,1.3826650822771784,3.791089065947336,,,,,,,,,,,,
19095,0,USIowaIowa,Iowa,Iowa,2022-04-28 09:13:11,2021-03-15,0.5426215732875128,1.3826650822771784,3.791089065947336,,,,,,,,,,,,
19095,0,USIowaIowa,Iowa,Iowa,2022-04-28 09:13:11,2021-03-16,0.5426215732875128,1.3826650822771784,3.791089065947336,,,,,,,,,,,,
19095,0,USIowaIowa,Iowa,Iowa,2022-04-28 09:13:11,2021-03-17,0.5426215732875128,1.3826650822771784,3.791089065947336,,,,,,,,,,,,
19095,0,USIowaIowa,Iowa,Iowa,2022-04-28 09:13:11,2021-03-18,0.3138777431218562,0.9621608192532348,3.1634072838829206,,,,,,,,,,,,
19095,0,USIowaIowa,Iowa,Iowa,2022-04-28 09:13:11,2021-03-19,0.3138777431218562,0.9621608192532348,3.1634072838829206,,,,,,,,,,,,
19095,0,USIowaIowa,Iowa,Iowa,2022-04-28 09:13:11,2021-03-20,0.3138777431218562,0.9621608192532348,3.1634072838829206,,,,,,,,,,,,
19095,0,USIowaIowa,Iowa,Iowa,2022-04-28 09:13:11,2021-03-21,0.3138777431218562,0.9621608192532348,3.1634072838829206,,,,,,,,,,,,
19095,0,USIowaIowa,Iowa,Iowa,2022-04-28 09:13:11,2021-03-22,0.3138777431218562,0.9621608192532348,3.1634072838829206,,,,,,,,,,,,
19095,0,USIowaIowa,Iowa,Iowa,2022-04-28 09:13:11,2021-03-23,0.3138777431218562,0.9621608192532348,3.1634072838829206,,,,,,,,,,,,
19095,0,USIowaIowa,Iowa,Iowa,2022-04-28 09:13:11,2021-03-24,0.3138777431218562,0.9621608192532348,3.1634072838829206,,,,,,,,,,,,
19095,0,USIowaIowa,Iowa,Iowa,2022-04-28 09:13:11,2021-03-25,0.27998584600426557,0.8876342719511454,3.0153241786274885,,,,,,,,,,,,
19095,0,USIowaIowa,Iowa,Iowa,2022-04-28 09:13:11,2021-03-26,0.27998584600426557,0.8876342719511454,3.0153241786274885,,,,,,,,,,,,
19095,0,USIowaIowa,Iowa,Iowa,2022-04-28 09:13:11,2021-03-27,0.27998584600426557,0.8876342719511454,3.0153241786274885,,,,,,,,,,,,
19095,0,USIowaIowa,Iowa,Iowa,2022-04-28 09:13:11,2021-03-28,0.27998584600426557,0.8876342719511454,3.0153241786274885,,,,,,,,,,,,
19095,0,USIowaIowa,Iowa,Iowa,2022-04-28 09:13:11,2021-03-29,0.27998584600426557,0.8876342719511454,3.0153241786274885,,,,,,,,,,,,
19095,0,USIowaIowa,Iowa,Iowa,2022-04-28 09:13:11,2021-03-30,0.27998584600426557,0.8876342719511454,3.0153241786274885,,,,,,,,,,,,
19095,0,USIowaIowa,Iowa,Iowa,2022-04-28 09:13:11,2021-03-31,0.27998584600426557,0.8876342719511454,3.0153241786274885,,,,,,,,,,,,
19095,0,USIowaIowa,Iowa,Iowa,2022-04-28 09:13:11,2021-04-01,0.2756378982118804,0.8624119614883198,2.892419066726246,,,,,,,,,,,,
19095,0,USIowaIowa,Iowa,Iowa,2022-04-28 09:13:11,2021-04-02,0.2756378982118804,0.8624119614883198,2.892419066726246,,,,,,,,,,,,
19095,0,USIowaIowa,Iowa,Iowa,2022-04-28 09:13:11,2021-04-03,0.2756378982118804,0.8624119614883198,2.892419066726246,,,,,,,,,,,,
19095,0,USIowaIowa,Iowa,Iowa,2022-04-28 09:13:11,2021-04-04,0.2756378982118804,0.8624119614883198,2.892419066726246,,,,,,,,,,,,
19095,0,USIowaIowa,Iowa,Iowa,2022-04-28 09:13:11,2021-04-05,0.2756378982118804,0.8624119614883198,2.892419066726246,,,,,,,,,,,,
19095,0,USIowaIowa,Iowa,Iowa,2022-04-28 09:13:11,2021-04-06,0.2756378982118804,0.8624119614883198,2.892419066726246,,,,,,,,,,,,
19095,0,USIowaIowa,Iowa,Iowa,2022-04-28 09:13:11,2021-04-07,0.2756378982118804,0.8624119614883198,2.892419066726246,,,,,,,,,,,,
19095,0,USIowaIowa,Iowa,Iowa,2022-04-28 09:13:11,2021-04-08,0.3186339263105675,0.9892342435419988,3.2928602404191194,,,,,,,,,,,,
19095,0,USIowaIowa,Iowa,Iowa,2022-04-28 09:13:11,2021-04-09,0.3186339263105675,0.9892342435419988,3.2928602404191194,,,,,,,,,,,,
19095,0,USIowaIowa,Iowa,Iowa,2022-04-28 09:13:11,2021-04-10,0.3186339263105675,0.9892342435419988,3.2928602404191194,,,,,,,,,,,,
19095,0,USIowaIowa,Iowa,Iowa,2022-04-28 09:13:11,2021-04-11,0.3186339263105675,0.9892342435419988,3.2928602404191194,,,,,,,,,,,,
19095,0,USIowaIowa,Iowa,Iowa,2022-04-28 09:13:11,2021-04-12,0.3186339263105675,0.9892342435419988,3.2928602404191194,,,,,,,,,,,,
19095,0,USIowaIowa,Iowa,Iowa,2022-04-28 09:13:11,2021-04-13,0.3186339263105675,0.9892342435419988,3.2928602404191194,,,,,,,,,,,,
19095,0,USIowaIowa,Iowa,Iowa,2022-04-28 09:13:11,2021-04-14,0.3186339263105675,0.9892342435419988,3.2928602404191194,,,,,,,,,,,,
19095,0,USIowaIowa,Iowa,Iowa,2022-04-28 09:13:11,2021-04-15,0.43452702887197425,1.1952556443434108,3.534743900673154,,,,,,,,,,,,
19095,0,USIowaIowa,Iowa,Iowa,2022-04-28 09:13:11,2021-04-16,0.43452702887197425,1.1952556443434108,3.534743900673154,,,,,,,,,,,,
19095,0,USIowaIowa,Iowa,Iowa,2022-04-28 09:13:11,2021-04-17,0.43452702887197425,1.1952556443434108,3.534743900673154,,,,,,,,,,,,
19095,0,USIowaIowa,Iowa,Iowa,2022-04-28 09:13:11,2021-04-18,0.43452702887197425,1.1952556443434108,3.534743900673154,,,,,,,,,,,,
19095,0,USIowaIowa,Iowa,Iowa,2022-04-28 09:13:11,2021-04-19,0.43452702887197425,1.1952556443434108,3.534743900673154,,,,,,,,,,,,
19095,0,USIowaIowa,Iowa,Iowa,2022-04-28 09:13:11,2021-04-20,0.43452702887197425,1.1952556443434108,3.534743900673154,,,,,,,,,,,,
19095,0,USIowaIowa,Iowa,Iowa,2022-04-28 09:13:11,2021-04-21,0.43452702887197425,1.1952556443434108,3.534743900673154,,,,,,,,,,,,
19095,0,USIowaIowa,Iowa,Iowa,2022-04-28 09:13:11,2021-04-22,0.45418739682672427,1.20390533861021,3.4326172228000504,,,,,,,,,,,,
19095,0,USIowaIowa,Iowa,Iowa,2022-04-28 09:13:11,2021-04-23,0.45418739682672427,1.20390533861021,3.4326172228000504,,,,,,,,,,,,
19095,0,USIowaIowa,Iowa,Iowa,2022-04-28 09:13:11,2021-04-24,0.45418739682672427,1.20390533861021,3.4326172228000504,,,,,,,,,,,,
19095,0,USIowaIowa,Iowa,Iowa,2022-04-28 09:13:11,2021-04-25,0.45418739682672427,1.20390533861021,3.4326172228000504,,,,,,,,,,,,
19095,0,USIowaIowa,Iowa,Iowa,2022-04-28 09:13:11,2021-04-26,0.45418739682672427,1.20390533861021,3.4326172228000504,,,,,,,,,,,,
19095,0,USIowaIowa,Iowa,Iowa,2022-04-28 09:13:11,2021-04-27,0.45418739682672427,1.20390533861021,3.4326172228000504,,,,,,,,,,,,
19095,0,USIowaIowa,Iowa,Iowa,2022-04-28 09:13:11,2021-04-28,0.45418739682672427,1.20390533861021,3.4326172228000504,,,,,,,,,,,,
19095,0,USIowaIowa,Iowa,Iowa,2022-04-28 09:13:11,2021-04-29,0.23168785064707217,0.7301869285340984,2.4662847155953815,,,,,,,,,,,,
19095,0,USIowaIowa,Iowa,Iowa,2022-04-28 09:13:11,2021-04-30,0.23168785064707217,0.7301869285340984,2.4662847155953815,,,,,,,,,,,,
19095,0,USIowaIowa,Iowa,Iowa,2022-04-28 09:13:11,2021-05-01,0.23168785064707217,0.7301869285340984,2.4662847155953815,,,,,,,,,,,,
19095,0,USIowaIowa,Iowa,Iowa,2022-04-28 09:13:11,2021-05-02,0.23168785064707217,0.7301869285340984,2.4662847155953815,,,,,,,,,,,,
19095,0,USIowaIowa,Iowa,Iowa,2022-04-28 09:13:11,2021-05-03,0.23168785064707217,0.7301869285340984,2.4662847155953815,,,,,,,,,,,,
19095,0,USIowaIowa,Iowa,Iowa,2022-04-28 09:13:11,2021-05-04,0.23168785064707217,0.7301869285340984,2.4662847155953815,,,,,,,,,,,,
19095,0,USIowaIowa,Iowa,Iowa,2022-04-28 09:13:11,2021-05-05,0.23168785064707217,0.7301869285340984,2.4662847155953815,,,,,,,,,,,,
19095,0,USIowaIowa,Iowa,Iowa,2022-04-28 09:13:11,2021-05-06,0.3211325442594027,0.8956503350171764,2.684998705964127,,,,,,,,,,,,
19095,0,USIowaIowa,Iowa,Iowa,2022-04-28 09:13:11,2021-05-07,0.3211325442594027,0.8956503350171764,2.684998705964127,,,,,,,,,,,,
19095,0,USIowaIowa,Iowa,Iowa,2022-04-28 09:13:11,2021-05-08,0.3211325442594027,0.8956503350171764,2.684998705964127,,,,,,,,,,,,
19095,0,USIowaIowa,Iowa,Iowa,2022-04-28 09:13:11,2021-05-09,0.3211325442594027,0.8956503350171764,2.684998705964127,,,,,,,,,,,,
19095,0,USIowaIowa,Iowa,Iowa,2022-04-28 09:13:11,2021-05-10,0.3211325442594027,0.8956503350171764,2.684998705964127,,,,,,,,,,,,
19095,0,USIowaIowa,Iowa,Iowa,2022-04-28 09:13:11,2021-05-11,0.3211325442594027,0.8956503350171764,2.684998705964127,,,,,,,,,,,,
19095,0,USIowaIowa,Iowa,Iowa,2022-04-28 09:13:11,2021-05-12,0.3211325442594027,0.8956503350171764,2.684998705964127,,,,,,,,,,,,
19095,0,USIowaIowa,Iowa,Iowa,2022-04-28 09:13:11,2021-05-13,0.24323129037062213,0.6841499035322998,2.0680809895914,,,,,,,,,,,,
19095,0,USIowaIowa,Iowa,Iowa,2022-04-28 09:13:11,2021-05-14,0.24323129037062213,0.6841499035322998,2.0680809895914,,,,,,,,,,,,
19095,0,USIowaIowa,Iowa,Iowa,2022-04-28 09:13:11,2021-05-15,0.24323129037062213,0.6841499035322998,2.0680809895914,,,,,,,,,,,,
19095,0,USIowaIowa,Iowa,Iowa,2022-04-28 09:13:11,2021-05-16,0.24323129037062213,0.6841499035322998,2.0680809895914,,,,,,,,,,,,
19095,0,USIowaIowa,Iowa,Iowa,2022-04-28 09:13:11,2021-05-17,0.24323129037062213,0.6841499035322998,2.0680809895914,,,,,,,,,,,,
19095,0,USIowaIowa,Iowa,Iowa,2022-04-28 09:13:11,2021-05-18,0.24323129037062213,0.6841499035322998,2.0680809895914,,,,,,,,,,,,
19095,0,USIowaIowa,Iowa,Iowa,2022-04-28 09:13:11,2021-05-19,0.24323129037062213,0.6841499035322998,2.0680809895914,,,,,,,,,,,,
19095,0,USIowaIowa,Iowa,Iowa,2022-04-28 09:13:11,2021-05-20,0.264297306702359,0.6990838371495812,1.9890789167433784,,,,,,,,,,,,
19095,0,USIowaIowa,Iowa,Iowa,2022-04-28 09:13:11,2021-05-21,0.264297306702359,0.6990838371495812,1.9890789167433784,,,,,,,,,,,,
19095,0,USIowaIowa,Iowa,Iowa,2022-04-28 09:13:11,2021-05-22,0.264297306702359,0.6990838371495812,1.9890789167433784,,,,,,,,,,,,
19095,0,USIowaIowa,Iowa,Iowa,2022-04-28 09:13:11,2021-05-23,0.264297306702359,0.6990838371495812,1.9890789167433784,,,,,,,,,,,,
19095,0,USIowaIowa,Iowa,Iowa,2022-04-28 09:13:11,2021-05-24,0.264297306702359,0.6990838371495812,1.9890789167433784,,,,,,,,,,,,
19095,0,USIowaIowa,Iowa,Iowa,2022-04-28 09:13:11,2021-05-25,0.264297306702359,0.6990838371495812,1.9890789167433784,,,,,,,,,,,,
19095,0,USIowaIowa,Iowa,Iowa,2022-04-28 09:13:11,2021-05-26,0.264297306702359,0.6990838371495812,1.9890789167433784,,,,,,,,,,,,
19095,0,USIowaIowa,Iowa,Iowa,2022-04-28 09:13:11,2021-05-27,0.09599019385245951,0.3115802596585609,1.0829253529150265,,,,,,,,,,,,
19095,0,USIowaIowa,Iowa,Iowa,2022-04-28 09:13:11,2021-05-28,0.09599019385245951,0.3115802596585609,1.0829253529150265,,,,,,,,,,,,
19095,0,USIowaIowa,Iowa,Iowa,2022-04-28 09:13:11,2021-05-29,0.09599019385245951,0.3115802596585609,1.0829253529150265,,,,,,,,,,,,
19095,0,USIowaIowa,Iowa,Iowa,2022-04-28 09:13:11,2021-05-30,0.09599019385245951,0.3115802596585609,1.0829253529150265,,,,,,,,,,,,
19095,0,USIowaIowa,Iowa,Iowa,2022-04-28 09:13:11,2021-05-31,0.09599019385245951,0.3115802596585609,1.0829253529150265,,,,,,,,,,,,
19095,0,USIowaIowa,Iowa,Iowa,2022-04-28 09:13:11,2021-06-01,0.09599019385245951,0.3115802596585609,1.0829253529150265,,,,,,,,,,,,
19095,0,USIowaIowa,Iowa,Iowa,2022-04-28 09:13:11,2021-06-02,0.09599019385245951,0.3115802596585609,1.0829253529150265,,,,,,,,,,,,
19095,0,USIowaIowa,Iowa,Iowa,2022-04-28 09:13:11,2021-06-03,0.05689035784815523,0.21251104499703152,0.8456928087297205,,,,,,,,,,,,
19095,0,USIowaIowa,Iowa,Iowa,2022-04-28 09:13:11,2021-06-04,0.05689035784815523,0.21251104499703152,0.8456928087297205,,,,,,,,,,,,
19095,0,USIowaIowa,Iowa,Iowa,2022-04-28 09:13:11,2021-06-05,0.05689035784815523,0.21251104499703152,0.8456928087297205,,,,,,,,,,,,
19095,0,USIowaIowa,Iowa,Iowa,2022-04-28 09:13:11,2021-06-06,0.05689035784815523,0.21251104499703152,0.8456928087297205,,,,,,,,,,,,
19095,0,USIowaIowa,Iowa,Iowa,2022-04-28 09:13:11,2021-06-07,0.05689035784815523,0.21251104499703152,0.8456928087297205,,,,,,,,,,,,
19095,0,USIowaIowa,Iowa,Iowa,2022-04-28 09:13:11,2021-06-08,0.05689035784815523,0.21251104499703152,0.8456928087297205,,,,,,,,,,,,
19095,0,USIowaIowa,Iowa,Iowa,2022-04-28 09:13:11,2021-06-09,0.05689035784815523,0.21251104499703152,0.8456928087297205,,,,,,,,,,,,
19095,0,USIowaIowa,Iowa,Iowa,2022-04-28 09:13:11,2021-06-10,0.05795487055045383,0.21978016665602476,0.8873892753617427,,,,,,,,,,,,
19095,0,USIowaIowa,Iowa,Iowa,2022-04-28 09:13:11,2021-06-11,0.05795487055045383,0.21978016665602476,0.8873892753617427,,,,,,,,,,,,
19095,0,USIowaIowa,Iowa,Iowa,2022-04-28 09:13:11,2021-06-12,0.05795487055045383,0.21978016665602476,0.8873892753617427,,,,,,,,,,,,
19095,0,USIowaIowa,Iowa,Iowa,2022-04-28 09:13:11,2021-06-13,0.05795487055045383,0.21978016665602476,0.8873892753617427,,,,,,,,,,,,
19095,0,USIowaIowa,Iowa,Iowa,2022-04-28 09:13:11,2021-06-14,0.05795487055045383,0.21978016665602476,0.8873892753617427,,,,,,,,,,,,
19095,0,USIowaIowa,Iowa,Iowa,2022-04-28 09:13:11,2021-06-15,0.05795487055045383,0.21978016665602476,0.8873892753617427,,,,,,,,,,,,
19095,0,USIowaIowa,Iowa,Iowa,2022-04-28 09:13:11,2021-06-16,0.05795487055045383,0.21978016665602476,0.8873892753617427,,,,,,,,,,,,
19095,0,USIowaIowa,Iowa,Iowa,2022-04-28 09:13:11,2021-06-17,0.12842658118012812,0.3784837089941633,1.197552637316295,,,,,,,,,,,,
19095,0,USIowaIowa,Iowa,Iowa,2022-04-28 09:13:11,2021-06-18,0.12842658118012812,0.3784837089941633,1.197552637316295,,,,,,,,,,,,
19095,0,USIowaIowa,Iowa,Iowa,2022-04-28 09:13:11,2021-06-19,0.12842658118012812,0.3784837089941633,1.197552637316295,,,,,,,,,,,,
19095,0,USIowaIowa,Iowa,Iowa,2022-04-28 09:13:11,2021-06-20,0.12842658118012812,0.3784837089941633,1.197552637316295,,,,,,,,,,,,
19095,0,USIowaIowa,Iowa,Iowa,2022-04-28 09:13:11,2021-06-21,0.12842658118012812,0.3784837089941633,1.197552637316295,,,,,,,,,,,,
19095,0,USIowaIowa,Iowa,Iowa,2022-04-28 09:13:11,2021-06-22,0.12842658118012812,0.3784837089941633,1.197552637316295,,,,,,,,,,,,
19095,0,USIowaIowa,Iowa,Iowa,2022-04-28 09:13:11,2021-06-23,0.12842658118012812,0.3784837089941633,1.197552637316295,,,,,,,,,,,,
19095,0,USIowaIowa,Iowa,Iowa,2022-04-28 09:13:11,2021-06-24,0.05969497804584169,0.23187837804201972,0.9580475646594647,,,,,,,,,,,,
19095,0,USIowaIowa,Iowa,Iowa,2022-04-28 09:13:11,2021-06-25,0.05969497804584169,0.23187837804201972,0.9580475646594647,,,,,,,,,,,,
19095,0,USIowaIowa,Iowa,Iowa,2022-04-28 09:13:11,2021-06-26,0.05969497804584169,0.23187837804201972,0.9580475646594647,,,,,,,,,,,,
19095,0,USIowaIowa,Iowa,Iowa,2022-04-28 09:13:11,2021-06-27,0.05969497804584169,0.23187837804201972,0.9580475646594647,,,,,,,,,,,,
19095,0,USIowaIowa,Iowa,Iowa,2022-04-28 09:13:11,2021-06-28,0.05969497804584169,0.23187837804201972,0.9580475646594647,,,,,,,,,,,,
19095,0,USIowaIowa,Iowa,Iowa,2022-04-28 09:13:11,2021-06-29,0.05969497804584169,0.23187837804201972,0.9580475646594647,,,,,,,,,,,,
19095,0,USIowaIowa,Iowa,Iowa,2022-04-28 09:13:11,2021-06-30,0.05969497804584169,0.23187837804201972,0.9580475646594647,,,,,,,,,,,,
19095,0,USIowaIowa,Iowa,Iowa,2022-04-28 09:13:11,2021-07-01,0.12964678710020314,0.5381314999908268,2.3692551559069615,,,,,,,,,,,,
19095,0,USIowaIowa,Iowa,Iowa,2022-04-28 09:13:11,2021-07-02,0.12964678710020314,0.5381314999908268,2.3692551559069615,,,,,,,,,,,,
19095,0,USIowaIowa,Iowa,Iowa,2022-04-28 09:13:11,2021-07-03,0.12964678710020314,0.5381314999908268,2.3692551559069615,,,,,,,,,,,,
19095,0,USIowaIowa,Iowa,Iowa,2022-04-28 09:13:11,2021-07-04,0.12964678710020314,0.5381314999908268,2.3692551559069615,,,,,,,,,,,,
19095,0,USIowaIowa,Iowa,Iowa,2022-04-28 09:13:11,2021-07-05,0.12964678710020314,0.5381314999908268,2.3692551559069615,,,,,,,,,,,,
19095,0,USIowaIowa,Iowa,Iowa,2022-04-28 09:13:11,2021-07-06,0.12964678710020314,0.5381314999908268,2.3692551559069615,,,,,,,,,,,,
19095,0,USIowaIowa,Iowa,Iowa,2022-04-28 09:13:11,2021-07-07,0.12964678710020314,0.5381314999908268,2.3692551559069615,,,,,,,,,,,,
19095,0,USIowaIowa,Iowa,Iowa,2022-04-28 09:13:11,2021-07-08,0,0,0,,,,,,,,,,,,
19095,0,USIowaIowa,Iowa,Iowa,2022-04-28 09:13:11,2021-07-09,0,0,0,,,,,,,,,,,,
19095,0,USIowaIowa,Iowa,Iowa,2022-04-28 09:13:11,2021-07-10,0,0,0,,,,,,,,,,,,
19095,0,USIowaIowa,Iowa,Iowa,2022-04-28 09:13:11,2021-07-11,0,0,0,,,,,,,,,,,,
19095,0,USIowaIowa,Iowa,Iowa,2022-04-28 09:13:11,2021-07-12,0,0,0,,,,,,,,,,,,
19095,0,USIowaIowa,Iowa,Iowa,2022-04-28 09:13:11,2021-07-13,0,0,0,,,,,,,,,,,,
19095,0,USIowaIowa,Iowa,Iowa,2022-04-28 09:13:11,2021-07-14,0,0,0,,,,,,,,,,,,
19095,0,USIowaIowa,Iowa,Iowa,2022-04-28 09:13:11,2021-07-15,0.19972741670742336,0.6700660589726942,2.404425929976448,,,,,,,,,,,,
19095,0,USIowaIowa,Iowa,Iowa,2022-04-28 09:13:11,2021-07-16,0.19972741670742336,0.6700660589726942,2.404425929976448,,,,,,,,,,,,
19095,0,USIowaIowa,Iowa,Iowa,2022-04-28 09:13:11,2021-07-17,0.19972741670742336,0.6700660589726942,2.404425929976448,,,,,,,,,,,,
19095,0,USIowaIowa,Iowa,Iowa,2022-04-28 09:13:11,2021-07-18,0.19972741670742336,0.6700660589726942,2.404425929976448,,,,,,,,,,,,
19095,0,USIowaIowa,Iowa,Iowa,2022-04-28 09:13:11,2021-07-19,0.19972741670742336,0.6700660589726942,2.404425929976448,,,,,,,,,,,,
19095,0,USIowaIowa,Iowa,Iowa,2022-04-28 09:13:11,2021-07-20,0.19972741670742336,0.6700660589726942,2.404425929976448,,,,,,,,,,,,
19095,0,USIowaIowa,Iowa,Iowa,2022-04-28 09:13:11,2021-07-21,0.19972741670742336,0.6700660589726942,2.404425929976448,,,,,,,,,,,,
19095,0,USIowaIowa,Iowa,Iowa,2022-04-28 09:13:11,2021-07-22,0.3521247160503313,1.0625688542996519,3.4404799493244846,,,,,,,,,,,,
19095,0,USIowaIowa,Iowa,Iowa,2022-04-28 09:13:11,2021-07-23,0.3521247160503313,1.0625688542996519,3.4404799493244846,,,,,,,,,,,,
19095,0,USIowaIowa,Iowa,Iowa,2022-04-28 09:13:11,2021-07-24,0.3521247160503313,1.0625688542996519,3.4404799493244846,,,,,,,,,,,,
19095,0,USIowaIowa,Iowa,Iowa,2022-04-28 09:13:11,2021-07-25,0.3521247160503313,1.0625688542996519,3.4404799493244846,,,,,,,,,,,,
19095,0,USIowaIowa,Iowa,Iowa,2022-04-28 09:13:11,2021-07-26,0.3521247160503313,1.0625688542996519,3.4404799493244846,,,,,,,,,,,,
19095,0,USIowaIowa,Iowa,Iowa,2022-04-28 09:13:11,2021-07-27,0.3521247160503313,1.0625688542996519,3.4404799493244846,,,,,,,,,,,,
19095,0,USIowaIowa,Iowa,Iowa,2022-04-28 09:13:11,2021-07-28,0.3521247160503313,1.0625688542996519,3.4404799493244846,,,,,,,,,,,,
19095,0,USIowaIowa,Iowa,Iowa,2022-04-28 09:13:11,2021-07-29,0.7940485172866973,2.102974135536352,5.9910209006629955,,,,,,,,,,,,
19095,0,USIowaIowa,Iowa,Iowa,2022-04-28 09:13:11,2021-07-30,0.7940485172866973,2.102974135536352,5.9910209006629955,,,,,,,,,,,,
19095,0,USIowaIowa,Iowa,Iowa,2022-04-28 09:13:11,2021-07-31,0.7940485172866973,2.102974135536352,5.9910209006629955,,,,,,,,,,,,
19095,0,USIowaIowa,Iowa,Iowa,2022-04-28 09:13:11,2021-08-01,0.7940485172866973,2.102974135536352,5.9910209006629955,,,,,,,,,,,,
19095,0,USIowaIowa,Iowa,Iowa,2022-04-28 09:13:11,2021-08-02,0.7940485172866973,2.102974135536352,5.9910209006629955,,,,,,,,,,,,
19095,0,USIowaIowa,Iowa,Iowa,2022-04-28 09:13:11,2021-08-03,0.7940485172866973,2.102974135536352,5.9910209006629955,,,,,,,,,,,,
19095,0,USIowaIowa,Iowa,Iowa,2022-04-28 09:13:11,2021-08-04,0.7940485172866973,2.102974135536352,5.9910209006629955,,,,,,,,,,,,
19095,0,USIowaIowa,Iowa,Iowa,2022-04-28 09:13:11,2021-08-05,1.0173274755614226,2.5233350074772836,6.735410362080929,,,,,,,,,,,,
19095,0,USIowaIowa,Iowa,Iowa,2022-04-28 09:13:11,2021-08-06,1.0173274755614226,2.5233350074772836,6.735410362080929,,,,,,,,,,,,
19095,0,USIowaIowa,Iowa,Iowa,2022-04-28 09:13:11,2021-08-07,1.0173274755614226,2.5233350074772836,6.735410362080929,,,,,,,,,,,,
19095,0,USIowaIowa,Iowa,Iowa,2022-04-28 09:13:11,2021-08-08,1.0173274755614226,2.5233350074772836,6.735410362080929,,,,,,,,,,,,
19095,0,USIowaIowa,Iowa,Iowa,2022-04-28 09:13:11,2021-08-09,1.0173274755614226,2.5233350074772836,6.735410362080929,,,,,,,,,,,,
19095,0,USIowaIowa,Iowa,Iowa,2022-04-28 09:13:11,2021-08-10,1.0173274755614226,2.5233350074772836,6.735410362080929,,,,,,,,,,,,
19095,0,USIowaIowa,Iowa,Iowa,2022-04-28 09:13:11,2021-08-11,1.0173274755614226,2.5233350074772836,6.735410362080929,,,,,,,,,,,,
19095,0,USIowaIowa,Iowa,Iowa,2022-04-28 09:13:11,2021-08-12,0.9812098521020881,2.594293904394971,7.378442284293324,,,,,,,,,,,,
19095,0,USIowaIowa,Iowa,Iowa,2022-04-28 09:13:11,2021-08-13,0.9812098521020881,2.594293904394971,7.378442284293324,,,,,,,,,,,,
19095,0,USIowaIowa,Iowa,Iowa,2022-04-28 09:13:11,2021-08-14,0.9812098521020881,2.594293904394971,7.378442284293324,,,,,,,,,,,,
19095,0,USIowaIowa,Iowa,Iowa,2022-04-28 09:13:11,2021-08-15,0.9812098521020881,2.594293904394971,7.378442284293324,,,,,,,,,,,,
19095,0,USIowaIowa,Iowa,Iowa,2022-04-28 09:13:11,2021-08-16,0.9812098521020881,2.594293904394971,7.378442284293324,,,,,,,,,,,,
19095,0,USIowaIowa,Iowa,Iowa,2022-04-28 09:13:11,2021-08-17,0.9812098521020881,2.594293904394971,7.378442284293324,,,,,,,,,,,,
19095,0,USIowaIowa,Iowa,Iowa,2022-04-28 09:13:11,2021-08-18,0.9812098521020881,2.594293904394971,7.378442284293324,,,,,,,,,,,,
19095,0,USIowaIowa,Iowa,Iowa,2022-04-28 09:13:11,2021-08-19,0.43276914423683244,0.4587851700161162,0.4890078566554346,,,,,,,,,,,,
19095,0,USIowaIowa,Iowa,Iowa,2022-04-28 09:13:11,2021-08-20,0.43276914423683244,0.4587851700161162,0.4890078566554346,,,,,,,,,,,,
19095,0,USIowaIowa,Iowa,Iowa,2022-04-28 09:13:11,2021-08-21,0.43276914423683244,0.4587851700161162,0.4890078566554346,,,,,,,,,,,,
19095,0,USIowaIowa,Iowa,Iowa,2022-04-28 09:13:11,2021-08-22,0.43276914423683244,0.4587851700161162,0.4890078566554346,,,,,,,,,,,,
19095,0,USIowaIowa,Iowa,Iowa,2022-04-28 09:13:11,2021-08-23,0.43276914423683244,0.4587851700161162,0.4890078566554346,,,,,,,,,,,,
19095,0,USIowaIowa,Iowa,Iowa,2022-04-28 09:13:11,2021-08-24,0.43276914423683244,0.4587851700161162,0.4890078566554346,,,,,,,,,,,,
19095,0,USIowaIowa,Iowa,Iowa,2022-04-28 09:13:11,2021-08-25,0.43276914423683244,0.4587851700161162,0.4890078566554346,,,,,,,,,,,,
19095,0,USIowaIowa,Iowa,Iowa,2022-04-28 09:13:11,2021-08-26,1.0078106179649677,1.6665567020887289,2.9199468630274286,,,,,,,,,,,,
19095,0,USIowaIowa,Iowa,Iowa,2022-04-28 09:13:11,2021-08-27,1.0078106179649677,1.6665567020887289,2.9199468630274286,,,,,,,,,,,,
19095,0,USIowaIowa,Iowa,Iowa,2022-04-28 09:13:11,2021-08-28,1.0078106179649677,1.6665567020887289,2.9199468630274286,,,,,,,,,,,,
19095,0,USIowaIowa,Iowa,Iowa,2022-04-28 09:13:11,2021-08-29,1.0078106179649677,1.6665567020887289,2.9199468630274286,,,,,,,,,,,,
19095,0,USIowaIowa,Iowa,Iowa,2022-04-28 09:13:11,2021-08-30,1.0078106179649677,1.6665567020887289,2.9199468630274286,,,,,,,,,,,,
19095,0,USIowaIowa,Iowa,Iowa,2022-04-28 09:13:11,2021-08-31,1.0078106179649677,1.6665567020887289,2.9199468630274286,,,,,,,,,,,,
19095,0,USIowaIowa,Iowa,Iowa,2022-04-28 09:13:11,2021-09-01,1.0078106179649677,1.6665567020887289,2.9199468630274286,,,,,,,,,,,,
19095,0,USIowaIowa,Iowa,Iowa,2022-04-28 09:13:11,2021-09-02,0.8105527449406288,1.2817558725423366,2.1385973026305583,,,,,,,,,,,,
19095,0,USIowaIowa,Iowa,Iowa,2022-04-28 09:13:11,2021-09-03,0.8105527449406288,1.2817558725423366,2.1385973026305583,,,,,,,,,,,,
19095,0,USIowaIowa,Iowa,Iowa,2022-04-28 09:13:11,2021-09-04,0.8105527449406288,1.2817558725423366,2.1385973026305583,,,,,,,,,,,,
19095,0,USIowaIowa,Iowa,Iowa,2022-04-28 09:13:11,2021-09-05,0.8105527449406288,1.2817558725423366,2.1385973026305583,,,,,,,,,,,,
19095,0,USIowaIowa,Iowa,Iowa,2022-04-28 09:13:11,2021-09-06,0.8105527449406288,1.2817558725423366,2.1385973026305583,,,,,,,,,,,,
19095,0,USIowaIowa,Iowa,Iowa,2022-04-28 09:13:11,2021-09-07,0.8105527449406288,1.2817558725423366,2.1385973026305583,,,,,,,,,,,,
19095,0,USIowaIowa,Iowa,Iowa,2022-04-28 09:13:11,2021-09-08,0.8105527449406288,1.2817558725423366,2.1385973026305583,,,,,,,,,,,,
19095,0,USIowaIowa,Iowa,Iowa,2022-04-28 09:13:11,2021-09-09,1.4052485007579656,2.102232661750827,3.298626362569835,,,,,,,,,,,,
19095,0,USIowaIowa,Iowa,Iowa,2022-04-28 09:13:11,2021-09-10,1.4052485007579656,2.102232661750827,3.298626362569835,,,,,,,,,,,,
19095,0,USIowaIowa,Iowa,Iowa,2022-04-28 09:13:11,2021-09-11,1.4052485007579656,2.102232661750827,3.298626362569835,,,,,,,,,,,,
19095,0,USIowaIowa,Iowa,Iowa,2022-04-28 09:13:11,2021-09-12,1.4052485007579656,2.102232661750827,3.298626362569835,,,,,,,,,,,,
19095,0,USIowaIowa,Iowa,Iowa,2022-04-28 09:13:11,2021-09-13,1.4052485007579656,2.102232661750827,3.298626362569835,,,,,,,,,,,,
19095,0,USIowaIowa,Iowa,Iowa,2022-04-28 09:13:11,2021-09-14,1.4052485007579656,2.102232661750827,3.298626362569835,,,,,,,,,,,,
19095,0,USIowaIowa,Iowa,Iowa,2022-04-28 09:13:11,2021-09-15,1.4052485007579656,2.102232661750827,3.298626362569835,,,,,,,,,,,,
19095,0,USIowaIowa,Iowa,Iowa,2022-04-28 09:13:11,2021-09-16,2.666700707421223,5.420292033221105,11.81972689807794,,,,,,,,,,,,
19095,0,USIowaIowa,Iowa,Iowa,2022-04-28 09:13:11,2021-09-17,2.666700707421223,5.420292033221105,11.81972689807794,,,,,,,,,,,,
19095,0,USIowaIowa,Iowa,Iowa,2022-04-28 09:13:11,2021-09-18,2.666700707421223,5.420292033221105,11.81972689807794,,,,,,,,,,,,
19095,0,USIowaIowa,Iowa,Iowa,2022-04-28 09:13:11,2021-09-19,2.666700707421223,5.420292033221105,11.81972689807794,,,,,,,,,,,,
19095,0,USIowaIowa,Iowa,Iowa,2022-04-28 09:13:11,2021-09-20,2.666700707421223,5.420292033221105,11.81972689807794,,,,,,,,,,,,
19095,0,USIowaIowa,Iowa,Iowa,2022-04-28 09:13:11,2021-09-21,2.666700707421223,5.420292033221105,11.81972689807794,,,,,,,,,,,,
19095,0,USIowaIowa,Iowa,Iowa,2022-04-28 09:13:11,2021-09-22,2.666700707421223,5.420292033221105,11.81972689807794,,,,,,,,,,,,
19095,0,USIowaIowa,Iowa,Iowa,2022-04-28 09:13:11,2021-09-23,1.9191415509241134,4.322252371915245,10.469912514922722,,,,,,,,,,,,
19095,0,USIowaIowa,Iowa,Iowa,2022-04-28 09:13:11,2021-09-24,1.9191415509241134,4.322252371915245,10.469912514922722,,,,,,,,,,,,
19095,0,USIowaIowa,Iowa,Iowa,2022-04-28 09:13:11,2021-09-25,1.9191415509241134,4.322252371915245,10.469912514922722,,,,,,,,,,,,
19095,0,USIowaIowa,Iowa,Iowa,2022-04-28 09:13:11,2021-09-26,1.9191415509241134,4.322252371915245,10.469912514922722,,,,,,,,,,,,
19095,0,USIowaIowa,Iowa,Iowa,2022-04-28 09:13:11,2021-09-27,1.9191415509241134,4.322252371915245,10.469912514922722,,,,,,,,,,,,
19095,0,USIowaIowa,Iowa,Iowa,2022-04-28 09:13:11,2021-09-28,1.9191415509241134,4.322252371915245,10.469912514922722,,,,,,,,,,,,
19095,0,USIowaIowa,Iowa,Iowa,2022-04-28 09:13:11,2021-09-29,1.9191415509241134,4.322252371915245,10.469912514922722,,,,,,,,,,,,
19095,0,USIowaIowa,Iowa,Iowa,2022-04-28 09:13:11,2021-09-30,2.2769413025218803,4.966959463534802,11.647115672286512,,,,,,,,,,,,
19095,0,USIowaIowa,Iowa,Iowa,2022-04-28 09:13:11,2021-10-01,2.2769413025218803,4.966959463534802,11.647115672286512,,,,,,,,,,,,
19095,0,USIowaIowa,Iowa,Iowa,2022-04-28 09:13:11,2021-10-02,2.2769413025218803,4.966959463534802,11.647115672286512,,,,,,,,,,,,
19095,0,USIowaIowa,Iowa,Iowa,2022-04-28 09:13:11,2021-10-03,2.2769413025218803,4.966959463534802,11.647115672286512,,,,,,,,,,,,
19095,0,USIowaIowa,Iowa,Iowa,2022-04-28 09:13:11,2021-10-04,2.2769413025218803,4.966959463534802,11.647115672286512,,,,,,,,,,,,
19095,0,USIowaIowa,Iowa,Iowa,2022-04-28 09:13:11,2021-10-05,2.2769413025218803,4.966959463534802,11.647115672286512,,,,,,,,,,,,
19095,0,USIowaIowa,Iowa,Iowa,2022-04-28 09:13:11,2021-10-06,2.2769413025218803,4.966959463534802,11.647115672286512,,,,,,,,,,,,
19095,0,USIowaIowa,Iowa,Iowa,2022-04-28 09:13:11,2021-10-07,1.6600344184124107,4.14218616279529,11.122708750145788,,,,,,,,,,,,
19095,0,USIowaIowa,Iowa,Iowa,2022-04-28 09:13:11,2021-10-08,1.6600344184124107,4.14218616279529,11.122708750145788,,,,,,,,,,,,
19095,0,USIowaIowa,Iowa,Iowa,2022-04-28 09:13:11,2021-10-09,1.6600344184124107,4.14218616279529,11.122708750145788,,,,,,,,,,,,
19095,0,USIowaIowa,Iowa,Iowa,2022-04-28 09:13:11,2021-10-10,1.6600344184124107,4.14218616279529,11.122708750145788,,,,,,,,,,,,
19095,0,USIowaIowa,Iowa,Iowa,2022-04-28 09:13:11,2021-10-11,1.6600344184124107,4.14218616279529,11.122708750145788,,,,,,,,,,,,
19095,0,USIowaIowa,Iowa,Iowa,2022-04-28 09:13:11,2021-10-12,1.6600344184124107,4.14218616279529,11.122708750145788,,,,,,,,,,,,
19095,0,USIowaIowa,Iowa,Iowa,2022-04-28 09:13:11,2021-10-13,1.6600344184124107,4.14218616279529,11.122708750145788,,,,,,,,,,,,
19095,0,USIowaIowa,Iowa,Iowa,2022-04-28 09:13:11,2021-10-14,1.5808185737560998,4.546216933567596,14.044650061303706,,,,,,,,,,,,
19095,0,USIowaIowa,Iowa,Iowa,2022-04-28 09:13:11,2021-10-15,1.5808185737560998,4.546216933567596,14.044650061303706,,,,,,,,,,,,
19095,0,USIowaIowa,Iowa,Iowa,2022-04-28 09:13:11,2021-10-16,1.5808185737560998,4.546216933567596,14.044650061303706,,,,,,,,,,,,
19095,0,USIowaIowa,Iowa,Iowa,2022-04-28 09:13:11,2021-10-17,1.5808185737560998,4.546216933567596,14.044650061303706,,,,,,,,,,,,
19095,0,USIowaIowa,Iowa,Iowa,2022-04-28 09:13:11,2021-10-18,1.5808185737560998,4.546216933567596,14.044650061303706,,,,,,,,,,,,
19095,0,USIowaIowa,Iowa,Iowa,2022-04-28 09:13:11,2021-10-19,1.5808185737560998,4.546216933567596,14.044650061303706,,,,,,,,,,,,
19095,0,USIowaIowa,Iowa,Iowa,2022-04-28 09:13:11,2021-10-20,1.5808185737560998,4.546216933567596,14.044650061303706,,,,,,,,,,,,
19095,0,USIowaIowa,Iowa,Iowa,2022-04-28 09:13:11,2021-10-21,1.7455434909483099,4.637248221364985,13.251177488249308,,,,,,,,,,,,
19095,0,USIowaIowa,Iowa,Iowa,2022-04-28 09:13:11,2021-10-22,1.7455434909483099,4.637248221364985,13.251177488249308,,,,,,,,,,,,
19095,0,USIowaIowa,Iowa,Iowa,2022-04-28 09:13:11,2021-10-23,1.7455434909483099,4.637248221364985,13.251177488249308,,,,,,,,,,,,
19095,0,USIowaIowa,Iowa,Iowa,2022-04-28 09:13:11,2021-10-24,1.7455434909483099,4.637248221364985,13.251177488249308,,,,,,,,,,,,
19095,0,USIowaIowa,Iowa,Iowa,2022-04-28 09:13:11,2021-10-25,1.7455434909483099,4.637248221364985,13.251177488249308,,,,,,,,,,,,
19095,0,USIowaIowa,Iowa,Iowa,2022-04-28 09:13:11,2021-10-26,1.7455434909483099,4.637248221364985,13.251177488249308,,,,,,,,,,,,
19095,0,USIowaIowa,Iowa,Iowa,2022-04-28 09:13:11,2021-10-27,1.7455434909483099,4.637248221364985,13.251177488249308,,,,,,,,,,,,
19095,0,USIowaIowa,Iowa,Iowa,2022-04-28 09:13:11,2021-10-28,1.3186558552076562,3.8651518960573754,12.164990435924354,,,,,,,,,,,,
19095,0,USIowaIowa,Iowa,Iowa,2022-04-28 09:13:11,2021-10-29,1.3186558552076562,3.8651518960573754,12.164990435924354,,,,,,,,,,,,
19095,0,USIowaIowa,Iowa,Iowa,2022-04-28 09:13:11,2021-10-30,1.3186558552076562,3.8651518960573754,12.164990435924354,,,,,,,,,,,,
19095,0,USIowaIowa,Iowa,Iowa,2022-04-28 09:13:11,2021-10-31,1.3186558552076562,3.8651518960573754,12.164990435924354,,,,,,,,,,,,
19095,0,USIowaIowa,Iowa,Iowa,2022-04-28 09:13:11,2021-11-01,1.3186558552076562,3.8651518960573754,12.164990435924354,,,,,,,,,,,,
19095,0,USIowaIowa,Iowa,Iowa,2022-04-28 09:13:11,2021-11-02,1.3186558552076562,3.8651518960573754,12.164990435924354,,,,,,,,,,,,
19095,0,USIowaIowa,Iowa,Iowa,2022-04-28 09:13:11,2021-11-03,1.3186558552076562,3.8651518960573754,12.164990435924354,,,,,,,,,,,,
19095,0,USIowaIowa,Iowa,Iowa,2022-04-28 09:13:11,2021-11-04,1.2304650375376343,3.2193760146894617,9.06170723301147,,,,,,,,,,,,
19095,0,USIowaIowa,Iowa,Iowa,2022-04-28 09:13:11,2021-11-05,1.2304650375376343,3.2193760146894617,9.06170723301147,,,,,,,,,,,,
19095,0,USIowaIowa,Iowa,Iowa,2022-04-28 09:13:11,2021-11-06,1.2304650375376343,3.2193760146894617,9.06170723301147,,,,,,,,,,,,
19095,0,USIowaIowa,Iowa,Iowa,2022-04-28 09:13:11,2021-11-07,1.2304650375376343,3.2193760146894617,9.06170723301147,,,,,,,,,,,,
19095,0,USIowaIowa,Iowa,Iowa,2022-04-28 09:13:11,2021-11-08,1.2304650375376343,3.2193760146894617,9.06170723301147,,,,,,,,,,,,
19095,0,USIowaIowa,Iowa,Iowa,2022-04-28 09:13:11,2021-11-09,1.2304650375376343,3.2193760146894617,9.06170723301147,,,,,,,,,,,,
19095,0,USIowaIowa,Iowa,Iowa,2022-04-28 09:13:11,2021-11-10,1.2304650375376343,3.2193760146894617,9.06170723301147,,,,,,,,,,,,
19095,0,USIowaIowa,Iowa,Iowa,2022-04-28 09:13:11,2021-11-11,2.1104919852195496,5.845659412170048,17.405511480157827,,,,,,,,,,,,
19095,0,USIowaIowa,Iowa,Iowa,2022-04-28 09:13:11,2021-11-12,2.1104919852195496,5.845659412170048,17.405511480157827,,,,,,,,,,,,
19095,0,USIowaIowa,Iowa,Iowa,2022-04-28 09:13:11,2021-11-13,2.1104919852195496,5.845659412170048,17.405511480157827,,,,,,,,,,,,
19095,0,USIowaIowa,Iowa,Iowa,2022-04-28 09:13:11,2021-11-14,2.1104919852195496,5.845659412170048,17.405511480157827,,,,,,,,,,,,
19095,0,USIowaIowa,Iowa,Iowa,2022-04-28 09:13:11,2021-11-15,2.1104919852195496,5.845659412170048,17.405511480157827,,,,,,,,,,,,
19095,0,USIowaIowa,Iowa,Iowa,2022-04-28 09:13:11,2021-11-16,2.1104919852195496,5.845659412170048,17.405511480157827,,,,,,,,,,,,
19095,0,USIowaIowa,Iowa,Iowa,2022-04-28 09:13:11,2021-11-17,2.1104919852195496,5.845659412170048,17.405511480157827,,,,,,,,,,,,
19095,0,USIowaIowa,Iowa,Iowa,2022-04-28 09:13:11,2021-11-18,2.0495974240302193,5.535147839661581,16.07543754833945,,,,,,,,,,,,
19095,0,USIowaIowa,Iowa,Iowa,2022-04-28 09:13:11,2021-11-19,2.0495974240302193,5.535147839661581,16.07543754833945,,,,,,,,,,,,
19095,0,USIowaIowa,Iowa,Iowa,2022-04-28 09:13:11,2021-11-20,2.0495974240302193,5.535147839661581,16.07543754833945,,,,,,,,,,,,
19095,0,USIowaIowa,Iowa,Iowa,2022-04-28 09:13:11,2021-11-21,2.0495974240302193,5.535147839661581,16.07543754833945,,,,,,,,,,,,
19095,0,USIowaIowa,Iowa,Iowa,2022-04-28 09:13:11,2021-11-22,2.0495974240302193,5.535147839661581,16.07543754833945,,,,,,,,,,,,
19095,0,USIowaIowa,Iowa,Iowa,2022-04-28 09:13:11,2021-11-23,2.0495974240302193,5.535147839661581,16.07543754833945,,,,,,,,,,,,
19095,0,USIowaIowa,Iowa,Iowa,2022-04-28 09:13:11,2021-11-24,2.0495974240302193,5.535147839661581,16.07543754833945,,,,,,,,,,,,
19095,0,USIowaIowa,Iowa,Iowa,2022-04-28 09:13:11,2021-11-25,1.9657712441451436,5.679383113012141,17.62460203386292,,,,,,,,,,,,
19095,0,USIowaIowa,Iowa,Iowa,2022-04-28 09:13:11,2021-11-26,1.9657712441451436,5.679383113012141,17.62460203386292,,,,,,,,,,,,
19095,0,USIowaIowa,Iowa,Iowa,2022-04-28 09:13:11,2021-11-27,1.9657712441451436,5.679383113012141,17.62460203386292,,,,,,,,,,,,
19095,0,USIowaIowa,Iowa,Iowa,2022-04-28 09:13:11,2021-11-28,1.9657712441451436,5.679383113012141,17.62460203386292,,,,,,,,,,,,
19095,0,USIowaIowa,Iowa,Iowa,2022-04-28 09:13:11,2021-11-29,1.9657712441451436,5.679383113012141,17.62460203386292,,,,,,,,,,,,
19095,0,USIowaIowa,Iowa,Iowa,2022-04-28 09:13:11,2021-11-30,1.9657712441451436,5.679383113012141,17.62460203386292,,,,,,,,,,,,
19095,0,USIowaIowa,Iowa,Iowa,2022-04-28 09:13:11,2021-12-01,1.9657712441451436,5.679383113012141,17.62460203386292,,,,,,,,,,,,
19095,0,USIowaIowa,Iowa,Iowa,2022-04-28 09:13:11,2021-12-02,2.7231547151611295,7.043541340436818,19.601552549495533,,,,,,,,,,,,
19095,0,USIowaIowa,Iowa,Iowa,2022-04-28 09:13:11,2021-12-03,2.7231547151611295,7.043541340436818,19.601552549495533,,,,,,,,,,,,
19095,0,USIowaIowa,Iowa,Iowa,2022-04-28 09:13:11,2021-12-04,2.7231547151611295,7.043541340436818,19.601552549495533,,,,,,,,,,,,
19095,0,USIowaIowa,Iowa,Iowa,2022-04-28 09:13:11,2021-12-05,2.7231547151611295,7.043541340436818,19.601552549495533,,,,,,,,,,,,
19095,0,USIowaIowa,Iowa,Iowa,2022-04-28 09:13:11,2021-12-06,2.7231547151611295,7.043541340436818,19.601552549495533,,,,,,,,,,,,
19095,0,USIowaIowa,Iowa,Iowa,2022-04-28 09:13:11,2021-12-07,2.7231547151611295,7.043541340436818,19.601552549495533,,,,,,,,,,,,
19095,0,USIowaIowa,Iowa,Iowa,2022-04-28 09:13:11,2021-12-08,2.7231547151611295,7.043541340436818,19.601552549495533,,,,,,,,,,,,
19095,0,USIowaIowa,Iowa,Iowa,2022-04-28 09:13:11,2021-12-09,1.9260245926185,5.010017588646773,14.020910710625085,,,,,,,,,,,,
19095,0,USIowaIowa,Iowa,Iowa,2022-04-28 09:13:11,2021-12-10,1.9260245926185,5.010017588646773,14.020910710625085,,,,,,,,,,,,
19095,0,USIowaIowa,Iowa,Iowa,2022-04-28 09:13:11,2021-12-11,1.9260245926185,5.010017588646773,14.020910710625085,,,,,,,,,,,,
19095,0,USIowaIowa,Iowa,Iowa,2022-04-28 09:13:11,2021-12-12,1.9260245926185,5.010017588646773,14.020910710625085,,,,,,,,,,,,
19095,0,USIowaIowa,Iowa,Iowa,2022-04-28 09:13:11,2021-12-13,1.9260245926185,5.010017588646773,14.020910710625085,,,,,,,,,,,,
19095,0,USIowaIowa,Iowa,Iowa,2022-04-28 09:13:11,2021-12-14,1.9260245926185,5.010017588646773,14.020910710625085,,,,,,,,,,,,
19095,0,USIowaIowa,Iowa,Iowa,2022-04-28 09:13:11,2021-12-15,1.9260245926185,5.010017588646773,14.020910710625085,,,,,,,,,,,,
19095,0,USIowaIowa,Iowa,Iowa,2022-04-28 09:13:11,2021-12-16,2.416921720119643,6.5725565414027685,19.219227311463367,,,,,,,,,,,,
19095,0,USIowaIowa,Iowa,Iowa,2022-04-28 09:13:11,2021-12-17,2.416921720119643,6.5725565414027685,19.219227311463367,,,,,,,,,,,,
19095,0,USIowaIowa,Iowa,Iowa,2022-04-28 09:13:11,2021-12-18,2.416921720119643,6.5725565414027685,19.219227311463367,,,,,,,,,,,,
19095,0,USIowaIowa,Iowa,Iowa,2022-04-28 09:13:11,2021-12-19,2.416921720119643,6.5725565414027685,19.219227311463367,,,,,,,,,,,,
19095,0,USIowaIowa,Iowa,Iowa,2022-04-28 09:13:11,2021-12-20,2.416921720119643,6.5725565414027685,19.219227311463367,,,,,,,,,,,,
19095,0,USIowaIowa,Iowa,Iowa,2022-04-28 09:13:11,2021-12-21,2.416921720119643,6.5725565414027685,19.219227311463367,,,,,,,,,,,,
19095,0,USIowaIowa,Iowa,Iowa,2022-04-28 09:13:11,2021-12-22,2.416921720119643,6.5725565414027685,19.219227311463367,,,,,,,,,,,,
19095,0,USIowaIowa,Iowa,Iowa,2022-04-28 09:13:11,2021-12-23,2.027720692999075,5.805205499581056,17.855028959752886,,,,,,,,,,,,
19095,0,USIowaIowa,Iowa,Iowa,2022-04-28 09:13:11,2021-12-24,2.027720692999075,5.805205499581056,17.855028959752886,,,,,,,,,,,,
19095,0,USIowaIowa,Iowa,Iowa,2022-04-28 09:13:11,2021-12-25,2.027720692999075,5.805205499581056,17.855028959752886,,,,,,,,,,,,
19095,0,USIowaIowa,Iowa,Iowa,2022-04-28 09:13:11,2021-12-26,2.027720692999075,5.805205499581056,17.855028959752886,,,,,,,,,,,,
19095,0,USIowaIowa,Iowa,Iowa,2022-04-28 09:13:11,2021-12-27,2.027720692999075,5.805205499581056,17.855028959752886,,,,,,,,,,,,
19095,0,USIowaIowa,Iowa,Iowa,2022-04-28 09:13:11,2021-12-28,2.027720692999075,5.805205499581056,17.855028959752886,,,,,,,,,,,,
19095,0,USIowaIowa,Iowa,Iowa,2022-04-28 09:13:11,2021-12-29,2.027720692999075,5.805205499581056,17.855028959752886,,,,,,,,,,,,
19095,0,USIowaIowa,Iowa,Iowa,2022-04-28 09:13:11,2021-12-30,3.2228180584998496,8.060841845248905,21.696524798509902,,,,,,,,,,,,
19095,0,USIowaIowa,Iowa,Iowa,2022-04-28 09:13:11,2021-12-31,3.2228180584998496,8.060841845248905,21.696524798509902,,,,,,,,,,,,
19095,0,USIowaIowa,Iowa,Iowa,2022-04-28 09:13:11,2022-01-01,3.2228180584998496,8.060841845248905,21.696524798509902,,,,,,,,,,,,
19095,0,USIowaIowa,Iowa,Iowa,2022-04-28 09:13:11,2022-01-02,3.2228180584998496,8.060841845248905,21.696524798509902,,,,,,,,,,,,
19095,0,USIowaIowa,Iowa,Iowa,2022-04-28 09:13:11,2022-01-03,3.2228180584998496,8.060841845248905,21.696524798509902,,,,,,,,,,,,
19095,0,USIowaIowa,Iowa,Iowa,2022-04-28 09:13:11,2022-01-04,3.2228180584998496,8.060841845248905,21.696524798509902,,,,,,,,,,,,
19095,0,USIowaIowa,Iowa,Iowa,2022-04-28 09:13:11,2022-01-05,3.2228180584998496,8.060841845248905,21.696524798509902,,,,,,,,,,,,
19095,0,USIowaIowa,Iowa,Iowa,2022-04-28 09:13:11,2022-01-06,5.919706274136797,12.453991591668377,28.14013063285028,,,,,,,,,,,,
19095,0,USIowaIowa,Iowa,Iowa,2022-04-28 09:13:11,2022-01-07,5.919706274136797,12.453991591668377,28.14013063285028,,,,,,,,,,,,
19095,0,USIowaIowa,Iowa,Iowa,2022-04-28 09:13:11,2022-01-08,5.919706274136797,12.453991591668377,28.14013063285028,,,,,,,,,,,,
19095,0,USIowaIowa,Iowa,Iowa,2022-04-28 09:13:11,2022-01-09,5.919706274136797,12.453991591668377,28.14013063285028,,,,,,,,,,,,
19095,0,USIowaIowa,Iowa,Iowa,2022-04-28 09:13:11,2022-01-10,5.919706274136797,12.453991591668377,28.14013063285028,,,,,,,,,,,,
19095,0,USIowaIowa,Iowa,Iowa,2022-04-28 09:13:11,2022-01-11,5.919706274136797,12.453991591668377,28.14013063285028,,,,,,,,,,,,
19095,0,USIowaIowa,Iowa,Iowa,2022-04-28 09:13:11,2022-01-12,5.919706274136797,12.453991591668377,28.14013063285028,,,,,,,,,,,,
19095,0,USIowaIowa,Iowa,Iowa,2022-04-28 09:13:11,2022-01-13,6.577633613698544,13.438416475135531,29.460524820000323,,,,,,,,,,,,
19095,0,USIowaIowa,Iowa,Iowa,2022-04-28 09:13:11,2022-01-14,6.577633613698544,13.438416475135531,29.460524820000323,,,,,,,,,,,,
19095,0,USIowaIowa,Iowa,Iowa,2022-04-28 09:13:11,2022-01-15,6.577633613698544,13.438416475135531,29.460524820000323,,,,,,,,,,,,
19095,0,USIowaIowa,Iowa,Iowa,2022-04-28 09:13:11,2022-01-16,6.577633613698544,13.438416475135531,29.460524820000323,,,,,,,,,,,,
19095,0,USIowaIowa,Iowa,Iowa,2022-04-28 09:13:11,2022-01-17,6.577633613698544,13.438416475135531,29.460524820000323,,,,,,,,,,,,
19095,0,USIowaIowa,Iowa,Iowa,2022-04-28 09:13:11,2022-01-18,6.577633613698544,13.438416475135531,29.460524820000323,,,,,,,,,,,,
19095,0,USIowaIowa,Iowa,Iowa,2022-04-28 09:13:11,2022-01-19,6.577633613698544,13.438416475135531,29.460524820000323,,,,,,,,,,,,
19095,0,USIowaIowa,Iowa,Iowa,2022-04-28 09:13:11,2022-01-20,6.856986142125769,13.848927966834431,30.00098943542818,,,,,,,,,,,,
19095,0,USIowaIowa,Iowa,Iowa,2022-04-28 09:13:11,2022-01-21,6.856986142125769,13.848927966834431,30.00098943542818,,,,,,,,,,,,
19095,0,USIowaIowa,Iowa,Iowa,2022-04-28 09:13:11,2022-01-22,6.856986142125769,13.848927966834431,30.00098943542818,,,,,,,,,,,,
19095,0,USIowaIowa,Iowa,Iowa,2022-04-28 09:13:11,2022-01-23,6.856986142125769,13.848927966834431,30.00098943542818,,,,,,,,,,,,
19095,0,USIowaIowa,Iowa,Iowa,2022-04-28 09:13:11,2022-01-24,6.856986142125769,13.848927966834431,30.00098943542818,,,,,,,,,,,,
19095,0,USIowaIowa,Iowa,Iowa,2022-04-28 09:13:11,2022-01-25,6.856986142125769,13.848927966834431,30.00098943542818,,,,,,,,,,,,
19095,0,USIowaIowa,Iowa,Iowa,2022-04-28 09:13:11,2022-01-26,6.856986142125769,13.848927966834431,30.00098943542818,,,,,,,,,,,,
19095,0,USIowaIowa,Iowa,Iowa,2022-04-28 09:13:11,2022-01-27,4.84387374224393,10.781832158888518,25.80734853633324,,,,,,,,,,,,
19095,0,USIowaIowa,Iowa,Iowa,2022-04-28 09:13:11,2022-01-28,4.84387374224393,10.781832158888518,25.80734853633324,,,,,,,,,,,,
19095,0,USIowaIowa,Iowa,Iowa,2022-04-28 09:13:11,2022-01-29,4.84387374224393,10.781832158888518,25.80734853633324,,,,,,,,,,,,
19095,0,USIowaIowa,Iowa,Iowa,2022-04-28 09:13:11,2022-01-30,4.84387374224393,10.781832158888518,25.80734853633324,,,,,,,,,,,,
19095,0,USIowaIowa,Iowa,Iowa,2022-04-28 09:13:11,2022-01-31,4.84387374224393,10.781832158888518,25.80734853633324,,,,,,,,,,,,
19095,0,USIowaIowa,Iowa,Iowa,2022-04-28 09:13:11,2022-02-01,4.84387374224393,10.781832158888518,25.80734853633324,,,,,,,,,,,,
19095,0,USIowaIowa,Iowa,Iowa,2022-04-28 09:13:11,2022-02-02,4.84387374224393,10.781832158888518,25.80734853633324,,,,,,,,,,,,
19095,0,USIowaIowa,Iowa,Iowa,2022-04-28 09:13:11,2022-02-03,3.007415655435485,7.674222178299759,21.07164770859157,,,,,,,,,,,,
19095,0,USIowaIowa,Iowa,Iowa,2022-04-28 09:13:11,2022-02-04,3.007415655435485,7.674222178299759,21.07164770859157,,,,,,,,,,,,
19095,0,USIowaIowa,Iowa,Iowa,2022-04-28 09:13:11,2022-02-05,3.007415655435485,7.674222178299759,21.07164770859157,,,,,,,,,,,,
19095,0,USIowaIowa,Iowa,Iowa,2022-04-28 09:13:11,2022-02-06,3.007415655435485,7.674222178299759,21.07164770859157,,,,,,,,,,,,
19095,0,USIowaIowa,Iowa,Iowa,2022-04-28 09:13:11,2022-02-07,3.007415655435485,7.674222178299759,21.07164770859157,,,,,,,,,,,,
19095,0,USIowaIowa,Iowa,Iowa,2022-04-28 09:13:11,2022-02-08,3.007415655435485,7.674222178299759,21.07164770859157,,,,,,,,,,,,
19095,0,USIowaIowa,Iowa,Iowa,2022-04-28 09:13:11,2022-02-09,3.007415655435485,7.674222178299759,21.07164770859157,,,,,,,,,,,,
19095,0,USIowaIowa,Iowa,Iowa,2022-04-28 09:13:11,2022-02-10,1.8399231560140463,5.420250877126793,17.143453299613576,,,,,,,,,,,,
19095,0,USIowaIowa,Iowa,Iowa,2022-04-28 09:13:11,2022-02-11,1.8399231560140463,5.420250877126793,17.143453299613576,,,,,,,,,,,,
19095,0,USIowaIowa,Iowa,Iowa,2022-04-28 09:13:11,2022-02-12,1.8399231560140463,5.420250877126793,17.143453299613576,,,,,,,,,,,,
19095,0,USIowaIowa,Iowa,Iowa,2022-04-28 09:13:11,2022-02-13,1.8399231560140463,5.420250877126793,17.143453299613576,,,,,,,,,,,,
19095,0,USIowaIowa,Iowa,Iowa,2022-04-28 09:13:11,2022-02-14,1.8399231560140463,5.420250877126793,17.143453299613576,,,,,,,,,,,,
19095,0,USIowaIowa,Iowa,Iowa,2022-04-28 09:13:11,2022-02-15,1.8399231560140463,5.420250877126793,17.143453299613576,,,,,,,,,,,,
19095,0,USIowaIowa,Iowa,Iowa,2022-04-28 09:13:11,2022-02-16,1.8399231560140463,5.420250877126793,17.143453299613576,,,,,,,,,,,,
19095,0,USIowaIowa,Iowa,Iowa,2022-04-28 09:13:11,2022-02-17,0.6741667429074236,2.6750426591923446,11.280199567403173,,,,,,,,,,,,
19095,0,USIowaIowa,Iowa,Iowa,2022-04-28 09:13:11,2022-02-18,0.6741667429074236,2.6750426591923446,11.280199567403173,,,,,,,,,,,,
19095,0,USIowaIowa,Iowa,Iowa,2022-04-28 09:13:11,2022-02-19,0.6741667429074236,2.6750426591923446,11.280199567403173,,,,,,,,,,,,
19095,0,USIowaIowa,Iowa,Iowa,2022-04-28 09:13:11,2022-02-20,0.6741667429074236,2.6750426591923446,11.280199567403173,,,,,,,,,,,,
19095,0,USIowaIowa,Iowa,Iowa,2022-04-28 09:13:11,2022-02-21,0.6741667429074236,2.6750426591923446,11.280199567403173,,,,,,,,,,,,
19095,0,USIowaIowa,Iowa,Iowa,2022-04-28 09:13:11,2022-02-22,0.6741667429074236,2.6750426591923446,11.280199567403173,,,,,,,,,,,,
19095,0,USIowaIowa,Iowa,Iowa,2022-04-28 09:13:11,2022-02-23,0.6741667429074236,2.6750426591923446,11.280199567403173,,,,,,,,,,,,
