FIPS,HR_UID,nameid,province,region,analysisTime,dates,pointprevalence_025,pointprevalence_50,pointprevalence_975,pointinfections_025,pointinfections_50,pointinfections_975,pointinfectious_025,pointinfectious_50,pointinfectious_975,pointinfectiousprevalence_025,pointinfectiousprevalence_50,pointinfectiousprevalence_975,infectrate_025,infectrate_50,infectrate_975
0,61,CanadaNorthwestTerritories,NWT,"",2022-04-28 09:10:14,2020-03-18,0.011690431210374757,0.027143774798435372,0.06780978625344074,,,,,,,,,,,,
0,61,CanadaNorthwestTerritories,NWT,"",2022-04-28 09:10:14,2020-03-19,0.011690431210374757,0.027143774798435372,0.06780978625344074,,,,,,,,,,,,
0,61,CanadaNorthwestTerritories,NWT,"",2022-04-28 09:10:14,2020-03-20,0.011690431210374757,0.027143774798435372,0.06780978625344074,,,,,,,,,,,,
0,61,CanadaNorthwestTerritories,NWT,"",2022-04-28 09:10:14,2020-03-21,0.011690431210374757,0.027143774798435372,0.06780978625344074,,,,,,,,,,,,
0,61,CanadaNorthwestTerritories,NWT,"",2022-04-28 09:10:14,2020-03-22,0.011690431210374757,0.027143774798435372,0.06780978625344074,,,,,,,,,,,,
0,61,CanadaNorthwestTerritories,NWT,"",2022-04-28 09:10:14,2020-03-23,0.011690431210374757,0.027143774798435372,0.06780978625344074,,,,,,,,,,,,
0,61,CanadaNorthwestTerritories,NWT,"",2022-04-28 09:10:14,2020-03-24,0.011690431210374757,0.027143774798435372,0.06780978625344074,,,,,,,,,,,,
0,61,CanadaNorthwestTerritories,NWT,"",2022-04-28 09:10:14,2020-03-25,0,0,0,,,,,,,,,,,,
0,61,CanadaNorthwestTerritories,NWT,"",2022-04-28 09:10:14,2020-03-26,0,0,0,,,,,,,,,,,,
0,61,CanadaNorthwestTerritories,NWT,"",2022-04-28 09:10:14,2020-03-27,0,0,0,,,,,,,,,,,,
0,61,CanadaNorthwestTerritories,NWT,"",2022-04-28 09:10:14,2020-03-28,0,0,0,,,,,,,,,,,,
0,61,CanadaNorthwestTerritories,NWT,"",2022-04-28 09:10:14,2020-03-29,0,0,0,,,,,,,,,,,,
0,61,CanadaNorthwestTerritories,NWT,"",2022-04-28 09:10:14,2020-03-30,0,0,0,,,,,,,,,,,,
0,61,CanadaNorthwestTerritories,NWT,"",2022-04-28 09:10:14,2020-03-31,0,0,0,,,,,,,,,,,,
0,61,CanadaNorthwestTerritories,NWT,"",2022-04-28 09:10:14,2020-04-01,0.04885594422625588,0.1179283339268099,0.3063326963999873,,,,,,,,,,,,
0,61,CanadaNorthwestTerritories,NWT,"",2022-04-28 09:10:14,2020-04-02,0.04885594422625588,0.1179283339268099,0.3063326963999873,,,,,,,,,,,,
0,61,CanadaNorthwestTerritories,NWT,"",2022-04-28 09:10:14,2020-04-03,0.04885594422625588,0.1179283339268099,0.3063326963999873,,,,,,,,,,,,
0,61,CanadaNorthwestTerritories,NWT,"",2022-04-28 09:10:14,2020-04-04,0.04885594422625588,0.1179283339268099,0.3063326963999873,,,,,,,,,,,,
0,61,CanadaNorthwestTerritories,NWT,"",2022-04-28 09:10:14,2020-04-05,0.04885594422625588,0.1179283339268099,0.3063326963999873,,,,,,,,,,,,
0,61,CanadaNorthwestTerritories,NWT,"",2022-04-28 09:10:14,2020-04-06,0.04885594422625588,0.1179283339268099,0.3063326963999873,,,,,,,,,,,,
0,61,CanadaNorthwestTerritories,NWT,"",2022-04-28 09:10:14,2020-04-07,0.04885594422625588,0.1179283339268099,0.3063326963999873,,,,,,,,,,,,
0,61,CanadaNorthwestTerritories,NWT,"",2022-04-28 09:10:14,2020-04-08,0,0,0,,,,,,,,,,,,
0,61,CanadaNorthwestTerritories,NWT,"",2022-04-28 09:10:14,2020-04-09,0,0,0,,,,,,,,,,,,
0,61,CanadaNorthwestTerritories,NWT,"",2022-04-28 09:10:14,2020-04-10,0,0,0,,,,,,,,,,,,
0,61,CanadaNorthwestTerritories,NWT,"",2022-04-28 09:10:14,2020-04-11,0,0,0,,,,,,,,,,,,
0,61,CanadaNorthwestTerritories,NWT,"",2022-04-28 09:10:14,2020-04-12,0,0,0,,,,,,,,,,,,
0,61,CanadaNorthwestTerritories,NWT,"",2022-04-28 09:10:14,2020-04-13,0,0,0,,,,,,,,,,,,
0,61,CanadaNorthwestTerritories,NWT,"",2022-04-28 09:10:14,2020-04-14,0,0,0,,,,,,,,,,,,
0,61,CanadaNorthwestTerritories,NWT,"",2022-04-28 09:10:14,2020-04-15,0,0,0,,,,,,,,,,,,
0,61,CanadaNorthwestTerritories,NWT,"",2022-04-28 09:10:14,2020-04-16,0,0,0,,,,,,,,,,,,
0,61,CanadaNorthwestTerritories,NWT,"",2022-04-28 09:10:14,2020-04-17,0,0,0,,,,,,,,,,,,
0,61,CanadaNorthwestTerritories,NWT,"",2022-04-28 09:10:14,2020-04-18,0,0,0,,,,,,,,,,,,
0,61,CanadaNorthwestTerritories,NWT,"",2022-04-28 09:10:14,2020-04-19,0,0,0,,,,,,,,,,,,
0,61,CanadaNorthwestTerritories,NWT,"",2022-04-28 09:10:14,2020-04-20,0,0,0,,,,,,,,,,,,
0,61,CanadaNorthwestTerritories,NWT,"",2022-04-28 09:10:14,2020-04-21,0,0,0,,,,,,,,,,,,
0,61,CanadaNorthwestTerritories,NWT,"",2022-04-28 09:10:14,2020-04-22,0,0,0,,,,,,,,,,,,
0,61,CanadaNorthwestTerritories,NWT,"",2022-04-28 09:10:14,2020-04-23,0,0,0,,,,,,,,,,,,
0,61,CanadaNorthwestTerritories,NWT,"",2022-04-28 09:10:14,2020-04-24,0,0,0,,,,,,,,,,,,
0,61,CanadaNorthwestTerritories,NWT,"",2022-04-28 09:10:14,2020-04-25,0,0,0,,,,,,,,,,,,
0,61,CanadaNorthwestTerritories,NWT,"",2022-04-28 09:10:14,2020-04-26,0,0,0,,,,,,,,,,,,
0,61,CanadaNorthwestTerritories,NWT,"",2022-04-28 09:10:14,2020-04-27,0,0,0,,,,,,,,,,,,
0,61,CanadaNorthwestTerritories,NWT,"",2022-04-28 09:10:14,2020-04-28,0,0,0,,,,,,,,,,,,
0,61,CanadaNorthwestTerritories,NWT,"",2022-04-28 09:10:14,2020-04-29,0,0,0,,,,,,,,,,,,
0,61,CanadaNorthwestTerritories,NWT,"",2022-04-28 09:10:14,2020-04-30,0,0,0,,,,,,,,,,,,
0,61,CanadaNorthwestTerritories,NWT,"",2022-04-28 09:10:14,2020-05-01,0,0,0,,,,,,,,,,,,
0,61,CanadaNorthwestTerritories,NWT,"",2022-04-28 09:10:14,2020-05-02,0,0,0,,,,,,,,,,,,
0,61,CanadaNorthwestTerritories,NWT,"",2022-04-28 09:10:14,2020-05-03,0,0,0,,,,,,,,,,,,
0,61,CanadaNorthwestTerritories,NWT,"",2022-04-28 09:10:14,2020-05-04,0,0,0,,,,,,,,,,,,
0,61,CanadaNorthwestTerritories,NWT,"",2022-04-28 09:10:14,2020-05-05,0,0,0,,,,,,,,,,,,
0,61,CanadaNorthwestTerritories,NWT,"",2022-04-28 09:10:14,2020-05-06,0,0,0,,,,,,,,,,,,
0,61,CanadaNorthwestTerritories,NWT,"",2022-04-28 09:10:14,2020-05-07,0,0,0,,,,,,,,,,,,
0,61,CanadaNorthwestTerritories,NWT,"",2022-04-28 09:10:14,2020-05-08,0,0,0,,,,,,,,,,,,
0,61,CanadaNorthwestTerritories,NWT,"",2022-04-28 09:10:14,2020-05-09,0,0,0,,,,,,,,,,,,
0,61,CanadaNorthwestTerritories,NWT,"",2022-04-28 09:10:14,2020-05-10,0,0,0,,,,,,,,,,,,
0,61,CanadaNorthwestTerritories,NWT,"",2022-04-28 09:10:14,2020-05-11,0,0,0,,,,,,,,,,,,
0,61,CanadaNorthwestTerritories,NWT,"",2022-04-28 09:10:14,2020-05-12,0,0,0,,,,,,,,,,,,
0,61,CanadaNorthwestTerritories,NWT,"",2022-04-28 09:10:14,2020-05-13,0,0,0,,,,,,,,,,,,
0,61,CanadaNorthwestTerritories,NWT,"",2022-04-28 09:10:14,2020-05-14,0,0,0,,,,,,,,,,,,
0,61,CanadaNorthwestTerritories,NWT,"",2022-04-28 09:10:14,2020-05-15,0,0,0,,,,,,,,,,,,
0,61,CanadaNorthwestTerritories,NWT,"",2022-04-28 09:10:14,2020-05-16,0,0,0,,,,,,,,,,,,
0,61,CanadaNorthwestTerritories,NWT,"",2022-04-28 09:10:14,2020-05-17,0,0,0,,,,,,,,,,,,
0,61,CanadaNorthwestTerritories,NWT,"",2022-04-28 09:10:14,2020-05-18,0,0,0,,,,,,,,,,,,
0,61,CanadaNorthwestTerritories,NWT,"",2022-04-28 09:10:14,2020-05-19,0,0,0,,,,,,,,,,,,
0,61,CanadaNorthwestTerritories,NWT,"",2022-04-28 09:10:14,2020-05-20,0,0,0,,,,,,,,,,,,
0,61,CanadaNorthwestTerritories,NWT,"",2022-04-28 09:10:14,2020-05-21,0,0,0,,,,,,,,,,,,
0,61,CanadaNorthwestTerritories,NWT,"",2022-04-28 09:10:14,2020-05-22,0,0,0,,,,,,,,,,,,
0,61,CanadaNorthwestTerritories,NWT,"",2022-04-28 09:10:14,2020-05-23,0,0,0,,,,,,,,,,,,
0,61,CanadaNorthwestTerritories,NWT,"",2022-04-28 09:10:14,2020-05-24,0,0,0,,,,,,,,,,,,
0,61,CanadaNorthwestTerritories,NWT,"",2022-04-28 09:10:14,2020-05-25,0,0,0,,,,,,,,,,,,
0,61,CanadaNorthwestTerritories,NWT,"",2022-04-28 09:10:14,2020-05-26,0,0,0,,,,,,,,,,,,
0,61,CanadaNorthwestTerritories,NWT,"",2022-04-28 09:10:14,2020-05-27,0,0,0,,,,,,,,,,,,
0,61,CanadaNorthwestTerritories,NWT,"",2022-04-28 09:10:14,2020-05-28,0,0,0,,,,,,,,,,,,
0,61,CanadaNorthwestTerritories,NWT,"",2022-04-28 09:10:14,2020-05-29,0,0,0,,,,,,,,,,,,
0,61,CanadaNorthwestTerritories,NWT,"",2022-04-28 09:10:14,2020-05-30,0,0,0,,,,,,,,,,,,
0,61,CanadaNorthwestTerritories,NWT,"",2022-04-28 09:10:14,2020-05-31,0,0,0,,,,,,,,,,,,
0,61,CanadaNorthwestTerritories,NWT,"",2022-04-28 09:10:14,2020-06-01,0,0,0,,,,,,,,,,,,
0,61,CanadaNorthwestTerritories,NWT,"",2022-04-28 09:10:14,2020-06-02,0,0,0,,,,,,,,,,,,
0,61,CanadaNorthwestTerritories,NWT,"",2022-04-28 09:10:14,2020-06-03,0,0,0,,,,,,,,,,,,
0,61,CanadaNorthwestTerritories,NWT,"",2022-04-28 09:10:14,2020-06-04,0,0,0,,,,,,,,,,,,
0,61,CanadaNorthwestTerritories,NWT,"",2022-04-28 09:10:14,2020-06-05,0,0,0,,,,,,,,,,,,
0,61,CanadaNorthwestTerritories,NWT,"",2022-04-28 09:10:14,2020-06-06,0,0,0,,,,,,,,,,,,
0,61,CanadaNorthwestTerritories,NWT,"",2022-04-28 09:10:14,2020-06-07,0,0,0,,,,,,,,,,,,
0,61,CanadaNorthwestTerritories,NWT,"",2022-04-28 09:10:14,2020-06-08,0,0,0,,,,,,,,,,,,
0,61,CanadaNorthwestTerritories,NWT,"",2022-04-28 09:10:14,2020-06-09,0,0,0,,,,,,,,,,,,
0,61,CanadaNorthwestTerritories,NWT,"",2022-04-28 09:10:14,2020-06-10,0,0,0,,,,,,,,,,,,
0,61,CanadaNorthwestTerritories,NWT,"",2022-04-28 09:10:14,2020-06-11,0,0,0,,,,,,,,,,,,
0,61,CanadaNorthwestTerritories,NWT,"",2022-04-28 09:10:14,2020-06-12,0,0,0,,,,,,,,,,,,
0,61,CanadaNorthwestTerritories,NWT,"",2022-04-28 09:10:14,2020-06-13,0,0,0,,,,,,,,,,,,
0,61,CanadaNorthwestTerritories,NWT,"",2022-04-28 09:10:14,2020-06-14,0,0,0,,,,,,,,,,,,
0,61,CanadaNorthwestTerritories,NWT,"",2022-04-28 09:10:14,2020-06-15,0,0,0,,,,,,,,,,,,
0,61,CanadaNorthwestTerritories,NWT,"",2022-04-28 09:10:14,2020-06-16,0,0,0,,,,,,,,,,,,
0,61,CanadaNorthwestTerritories,NWT,"",2022-04-28 09:10:14,2020-06-17,0,0,0,,,,,,,,,,,,
0,61,CanadaNorthwestTerritories,NWT,"",2022-04-28 09:10:14,2020-06-18,0,0,0,,,,,,,,,,,,
0,61,CanadaNorthwestTerritories,NWT,"",2022-04-28 09:10:14,2020-06-19,0,0,0,,,,,,,,,,,,
0,61,CanadaNorthwestTerritories,NWT,"",2022-04-28 09:10:14,2020-06-20,0,0,0,,,,,,,,,,,,
0,61,CanadaNorthwestTerritories,NWT,"",2022-04-28 09:10:14,2020-06-21,0,0,0,,,,,,,,,,,,
0,61,CanadaNorthwestTerritories,NWT,"",2022-04-28 09:10:14,2020-06-22,0,0,0,,,,,,,,,,,,
0,61,CanadaNorthwestTerritories,NWT,"",2022-04-28 09:10:14,2020-06-23,0,0,0,,,,,,,,,,,,
0,61,CanadaNorthwestTerritories,NWT,"",2022-04-28 09:10:14,2020-06-24,0,0,0,,,,,,,,,,,,
0,61,CanadaNorthwestTerritories,NWT,"",2022-04-28 09:10:14,2020-06-25,0,0,0,,,,,,,,,,,,
0,61,CanadaNorthwestTerritories,NWT,"",2022-04-28 09:10:14,2020-06-26,0,0,0,,,,,,,,,,,,
0,61,CanadaNorthwestTerritories,NWT,"",2022-04-28 09:10:14,2020-06-27,0,0,0,,,,,,,,,,,,
0,61,CanadaNorthwestTerritories,NWT,"",2022-04-28 09:10:14,2020-06-28,0,0,0,,,,,,,,,,,,
0,61,CanadaNorthwestTerritories,NWT,"",2022-04-28 09:10:14,2020-06-29,0,0,0,,,,,,,,,,,,
0,61,CanadaNorthwestTerritories,NWT,"",2022-04-28 09:10:14,2020-06-30,0,0,0,,,,,,,,,,,,
0,61,CanadaNorthwestTerritories,NWT,"",2022-04-28 09:10:14,2020-07-01,0,0,0,,,,,,,,,,,,
0,61,CanadaNorthwestTerritories,NWT,"",2022-04-28 09:10:14,2020-07-02,0,0,0,,,,,,,,,,,,
0,61,CanadaNorthwestTerritories,NWT,"",2022-04-28 09:10:14,2020-07-03,0,0,0,,,,,,,,,,,,
0,61,CanadaNorthwestTerritories,NWT,"",2022-04-28 09:10:14,2020-07-04,0,0,0,,,,,,,,,,,,
0,61,CanadaNorthwestTerritories,NWT,"",2022-04-28 09:10:14,2020-07-05,0,0,0,,,,,,,,,,,,
0,61,CanadaNorthwestTerritories,NWT,"",2022-04-28 09:10:14,2020-07-06,0,0,0,,,,,,,,,,,,
0,61,CanadaNorthwestTerritories,NWT,"",2022-04-28 09:10:14,2020-07-07,0,0,0,,,,,,,,,,,,
0,61,CanadaNorthwestTerritories,NWT,"",2022-04-28 09:10:14,2020-07-08,0,0,0,,,,,,,,,,,,
0,61,CanadaNorthwestTerritories,NWT,"",2022-04-28 09:10:14,2020-07-09,0,0,0,,,,,,,,,,,,
0,61,CanadaNorthwestTerritories,NWT,"",2022-04-28 09:10:14,2020-07-10,0,0,0,,,,,,,,,,,,
0,61,CanadaNorthwestTerritories,NWT,"",2022-04-28 09:10:14,2020-07-11,0,0,0,,,,,,,,,,,,
0,61,CanadaNorthwestTerritories,NWT,"",2022-04-28 09:10:14,2020-07-12,0,0,0,,,,,,,,,,,,
0,61,CanadaNorthwestTerritories,NWT,"",2022-04-28 09:10:14,2020-07-13,0,0,0,,,,,,,,,,,,
0,61,CanadaNorthwestTerritories,NWT,"",2022-04-28 09:10:14,2020-07-14,0,0,0,,,,,,,,,,,,
0,61,CanadaNorthwestTerritories,NWT,"",2022-04-28 09:10:14,2020-07-15,0,0,0,,,,,,,,,,,,
0,61,CanadaNorthwestTerritories,NWT,"",2022-04-28 09:10:14,2020-07-16,0,0,0,,,,,,,,,,,,
0,61,CanadaNorthwestTerritories,NWT,"",2022-04-28 09:10:14,2020-07-17,0,0,0,,,,,,,,,,,,
0,61,CanadaNorthwestTerritories,NWT,"",2022-04-28 09:10:14,2020-07-18,0,0,0,,,,,,,,,,,,
0,61,CanadaNorthwestTerritories,NWT,"",2022-04-28 09:10:14,2020-07-19,0,0,0,,,,,,,,,,,,
0,61,CanadaNorthwestTerritories,NWT,"",2022-04-28 09:10:14,2020-07-20,0,0,0,,,,,,,,,,,,
0,61,CanadaNorthwestTerritories,NWT,"",2022-04-28 09:10:14,2020-07-21,0,0,0,,,,,,,,,,,,
0,61,CanadaNorthwestTerritories,NWT,"",2022-04-28 09:10:14,2020-07-22,0,0,0,,,,,,,,,,,,
0,61,CanadaNorthwestTerritories,NWT,"",2022-04-28 09:10:14,2020-07-23,0,0,0,,,,,,,,,,,,
0,61,CanadaNorthwestTerritories,NWT,"",2022-04-28 09:10:14,2020-07-24,0,0,0,,,,,,,,,,,,
0,61,CanadaNorthwestTerritories,NWT,"",2022-04-28 09:10:14,2020-07-25,0,0,0,,,,,,,,,,,,
0,61,CanadaNorthwestTerritories,NWT,"",2022-04-28 09:10:14,2020-07-26,0,0,0,,,,,,,,,,,,
0,61,CanadaNorthwestTerritories,NWT,"",2022-04-28 09:10:14,2020-07-27,0,0,0,,,,,,,,,,,,
0,61,CanadaNorthwestTerritories,NWT,"",2022-04-28 09:10:14,2020-07-28,0,0,0,,,,,,,,,,,,
0,61,CanadaNorthwestTerritories,NWT,"",2022-04-28 09:10:14,2020-07-29,0,0,0,,,,,,,,,,,,
0,61,CanadaNorthwestTerritories,NWT,"",2022-04-28 09:10:14,2020-07-30,0,0,0,,,,,,,,,,,,
0,61,CanadaNorthwestTerritories,NWT,"",2022-04-28 09:10:14,2020-07-31,0,0,0,,,,,,,,,,,,
0,61,CanadaNorthwestTerritories,NWT,"",2022-04-28 09:10:14,2020-08-01,0,0,0,,,,,,,,,,,,
0,61,CanadaNorthwestTerritories,NWT,"",2022-04-28 09:10:14,2020-08-02,0,0,0,,,,,,,,,,,,
0,61,CanadaNorthwestTerritories,NWT,"",2022-04-28 09:10:14,2020-08-03,0,0,0,,,,,,,,,,,,
0,61,CanadaNorthwestTerritories,NWT,"",2022-04-28 09:10:14,2020-08-04,0,0,0,,,,,,,,,,,,
0,61,CanadaNorthwestTerritories,NWT,"",2022-04-28 09:10:14,2020-08-05,0,0,0,,,,,,,,,,,,
0,61,CanadaNorthwestTerritories,NWT,"",2022-04-28 09:10:14,2020-08-06,0,0,0,,,,,,,,,,,,
0,61,CanadaNorthwestTerritories,NWT,"",2022-04-28 09:10:14,2020-08-07,0,0,0,,,,,,,,,,,,
0,61,CanadaNorthwestTerritories,NWT,"",2022-04-28 09:10:14,2020-08-08,0,0,0,,,,,,,,,,,,
0,61,CanadaNorthwestTerritories,NWT,"",2022-04-28 09:10:14,2020-08-09,0,0,0,,,,,,,,,,,,
0,61,CanadaNorthwestTerritories,NWT,"",2022-04-28 09:10:14,2020-08-10,0,0,0,,,,,,,,,,,,
0,61,CanadaNorthwestTerritories,NWT,"",2022-04-28 09:10:14,2020-08-11,0,0,0,,,,,,,,,,,,
0,61,CanadaNorthwestTerritories,NWT,"",2022-04-28 09:10:14,2020-08-12,0,0,0,,,,,,,,,,,,
0,61,CanadaNorthwestTerritories,NWT,"",2022-04-28 09:10:14,2020-08-13,0,0,0,,,,,,,,,,,,
0,61,CanadaNorthwestTerritories,NWT,"",2022-04-28 09:10:14,2020-08-14,0,0,0,,,,,,,,,,,,
0,61,CanadaNorthwestTerritories,NWT,"",2022-04-28 09:10:14,2020-08-15,0,0,0,,,,,,,,,,,,
0,61,CanadaNorthwestTerritories,NWT,"",2022-04-28 09:10:14,2020-08-16,0,0,0,,,,,,,,,,,,
0,61,CanadaNorthwestTerritories,NWT,"",2022-04-28 09:10:14,2020-08-17,0,0,0,,,,,,,,,,,,
0,61,CanadaNorthwestTerritories,NWT,"",2022-04-28 09:10:14,2020-08-18,0,0,0,,,,,,,,,,,,
0,61,CanadaNorthwestTerritories,NWT,"",2022-04-28 09:10:14,2020-08-19,0,0,0,,,,,,,,,,,,
0,61,CanadaNorthwestTerritories,NWT,"",2022-04-28 09:10:14,2020-08-20,0,0,0,,,,,,,,,,,,
0,61,CanadaNorthwestTerritories,NWT,"",2022-04-28 09:10:14,2020-08-21,0,0,0,,,,,,,,,,,,
0,61,CanadaNorthwestTerritories,NWT,"",2022-04-28 09:10:14,2020-08-22,0,0,0,,,,,,,,,,,,
0,61,CanadaNorthwestTerritories,NWT,"",2022-04-28 09:10:14,2020-08-23,0,0,0,,,,,,,,,,,,
0,61,CanadaNorthwestTerritories,NWT,"",2022-04-28 09:10:14,2020-08-24,0,0,0,,,,,,,,,,,,
0,61,CanadaNorthwestTerritories,NWT,"",2022-04-28 09:10:14,2020-08-25,0,0,0,,,,,,,,,,,,
0,61,CanadaNorthwestTerritories,NWT,"",2022-04-28 09:10:14,2020-08-26,0,0,0,,,,,,,,,,,,
0,61,CanadaNorthwestTerritories,NWT,"",2022-04-28 09:10:14,2020-08-27,0,0,0,,,,,,,,,,,,
0,61,CanadaNorthwestTerritories,NWT,"",2022-04-28 09:10:14,2020-08-28,0,0,0,,,,,,,,,,,,
0,61,CanadaNorthwestTerritories,NWT,"",2022-04-28 09:10:14,2020-08-29,0,0,0,,,,,,,,,,,,
0,61,CanadaNorthwestTerritories,NWT,"",2022-04-28 09:10:14,2020-08-30,0,0,0,,,,,,,,,,,,
0,61,CanadaNorthwestTerritories,NWT,"",2022-04-28 09:10:14,2020-08-31,0,0,0,,,,,,,,,,,,
0,61,CanadaNorthwestTerritories,NWT,"",2022-04-28 09:10:14,2020-09-01,0,0,0,,,,,,,,,,,,
0,61,CanadaNorthwestTerritories,NWT,"",2022-04-28 09:10:14,2020-09-02,0,0,0,,,,,,,,,,,,
0,61,CanadaNorthwestTerritories,NWT,"",2022-04-28 09:10:14,2020-09-03,0,0,0,,,,,,,,,,,,
0,61,CanadaNorthwestTerritories,NWT,"",2022-04-28 09:10:14,2020-09-04,0,0,0,,,,,,,,,,,,
0,61,CanadaNorthwestTerritories,NWT,"",2022-04-28 09:10:14,2020-09-05,0,0,0,,,,,,,,,,,,
0,61,CanadaNorthwestTerritories,NWT,"",2022-04-28 09:10:14,2020-09-06,0,0,0,,,,,,,,,,,,
0,61,CanadaNorthwestTerritories,NWT,"",2022-04-28 09:10:14,2020-09-07,0,0,0,,,,,,,,,,,,
0,61,CanadaNorthwestTerritories,NWT,"",2022-04-28 09:10:14,2020-09-08,0,0,0,,,,,,,,,,,,
0,61,CanadaNorthwestTerritories,NWT,"",2022-04-28 09:10:14,2020-09-09,0,0,0,,,,,,,,,,,,
0,61,CanadaNorthwestTerritories,NWT,"",2022-04-28 09:10:14,2020-09-10,0,0,0,,,,,,,,,,,,
0,61,CanadaNorthwestTerritories,NWT,"",2022-04-28 09:10:14,2020-09-11,0,0,0,,,,,,,,,,,,
0,61,CanadaNorthwestTerritories,NWT,"",2022-04-28 09:10:14,2020-09-12,0,0,0,,,,,,,,,,,,
0,61,CanadaNorthwestTerritories,NWT,"",2022-04-28 09:10:14,2020-09-13,0,0,0,,,,,,,,,,,,
0,61,CanadaNorthwestTerritories,NWT,"",2022-04-28 09:10:14,2020-09-14,0,0,0,,,,,,,,,,,,
0,61,CanadaNorthwestTerritories,NWT,"",2022-04-28 09:10:14,2020-09-15,0,0,0,,,,,,,,,,,,
0,61,CanadaNorthwestTerritories,NWT,"",2022-04-28 09:10:14,2020-09-16,0,0,0,,,,,,,,,,,,
0,61,CanadaNorthwestTerritories,NWT,"",2022-04-28 09:10:14,2020-09-17,0,0,0,,,,,,,,,,,,
0,61,CanadaNorthwestTerritories,NWT,"",2022-04-28 09:10:14,2020-09-18,0,0,0,,,,,,,,,,,,
0,61,CanadaNorthwestTerritories,NWT,"",2022-04-28 09:10:14,2020-09-19,0,0,0,,,,,,,,,,,,
0,61,CanadaNorthwestTerritories,NWT,"",2022-04-28 09:10:14,2020-09-20,0,0,0,,,,,,,,,,,,
0,61,CanadaNorthwestTerritories,NWT,"",2022-04-28 09:10:14,2020-09-21,0,0,0,,,,,,,,,,,,
0,61,CanadaNorthwestTerritories,NWT,"",2022-04-28 09:10:14,2020-09-22,0,0,0,,,,,,,,,,,,
0,61,CanadaNorthwestTerritories,NWT,"",2022-04-28 09:10:14,2020-09-23,0,0,0,,,,,,,,,,,,
0,61,CanadaNorthwestTerritories,NWT,"",2022-04-28 09:10:14,2020-09-24,0,0,0,,,,,,,,,,,,
0,61,CanadaNorthwestTerritories,NWT,"",2022-04-28 09:10:14,2020-09-25,0,0,0,,,,,,,,,,,,
0,61,CanadaNorthwestTerritories,NWT,"",2022-04-28 09:10:14,2020-09-26,0,0,0,,,,,,,,,,,,
0,61,CanadaNorthwestTerritories,NWT,"",2022-04-28 09:10:14,2020-09-27,0,0,0,,,,,,,,,,,,
0,61,CanadaNorthwestTerritories,NWT,"",2022-04-28 09:10:14,2020-09-28,0,0,0,,,,,,,,,,,,
0,61,CanadaNorthwestTerritories,NWT,"",2022-04-28 09:10:14,2020-09-29,0,0,0,,,,,,,,,,,,
0,61,CanadaNorthwestTerritories,NWT,"",2022-04-28 09:10:14,2020-09-30,0,0,0,,,,,,,,,,,,
0,61,CanadaNorthwestTerritories,NWT,"",2022-04-28 09:10:14,2020-10-01,0,0,0,,,,,,,,,,,,
0,61,CanadaNorthwestTerritories,NWT,"",2022-04-28 09:10:14,2020-10-02,0,0,0,,,,,,,,,,,,
0,61,CanadaNorthwestTerritories,NWT,"",2022-04-28 09:10:14,2020-10-03,0,0,0,,,,,,,,,,,,
0,61,CanadaNorthwestTerritories,NWT,"",2022-04-28 09:10:14,2020-10-04,0,0,0,,,,,,,,,,,,
0,61,CanadaNorthwestTerritories,NWT,"",2022-04-28 09:10:14,2020-10-05,0,0,0,,,,,,,,,,,,
0,61,CanadaNorthwestTerritories,NWT,"",2022-04-28 09:10:14,2020-10-06,0,0,0,,,,,,,,,,,,
0,61,CanadaNorthwestTerritories,NWT,"",2022-04-28 09:10:14,2020-10-07,0,0,0,,,,,,,,,,,,
0,61,CanadaNorthwestTerritories,NWT,"",2022-04-28 09:10:14,2020-10-08,0,0,0,,,,,,,,,,,,
0,61,CanadaNorthwestTerritories,NWT,"",2022-04-28 09:10:14,2020-10-09,0,0,0,,,,,,,,,,,,
0,61,CanadaNorthwestTerritories,NWT,"",2022-04-28 09:10:14,2020-10-10,0,0,0,,,,,,,,,,,,
0,61,CanadaNorthwestTerritories,NWT,"",2022-04-28 09:10:14,2020-10-11,0,0,0,,,,,,,,,,,,
0,61,CanadaNorthwestTerritories,NWT,"",2022-04-28 09:10:14,2020-10-12,0,0,0,,,,,,,,,,,,
0,61,CanadaNorthwestTerritories,NWT,"",2022-04-28 09:10:14,2020-10-13,0,0,0,,,,,,,,,,,,
0,61,CanadaNorthwestTerritories,NWT,"",2022-04-28 09:10:14,2020-10-14,0,0,0,,,,,,,,,,,,
0,61,CanadaNorthwestTerritories,NWT,"",2022-04-28 09:10:14,2020-10-15,0,0,0,,,,,,,,,,,,
0,61,CanadaNorthwestTerritories,NWT,"",2022-04-28 09:10:14,2020-10-16,0,0,0,,,,,,,,,,,,
0,61,CanadaNorthwestTerritories,NWT,"",2022-04-28 09:10:14,2020-10-17,0,0,0,,,,,,,,,,,,
0,61,CanadaNorthwestTerritories,NWT,"",2022-04-28 09:10:14,2020-10-18,0,0,0,,,,,,,,,,,,
0,61,CanadaNorthwestTerritories,NWT,"",2022-04-28 09:10:14,2020-10-19,0,0,0,,,,,,,,,,,,
0,61,CanadaNorthwestTerritories,NWT,"",2022-04-28 09:10:14,2020-10-20,0,0,0,,,,,,,,,,,,
0,61,CanadaNorthwestTerritories,NWT,"",2022-04-28 09:10:14,2020-10-21,0.043875260044254544,0.09623967302929329,0.2269474543857336,,,,,,,,,,,,
0,61,CanadaNorthwestTerritories,NWT,"",2022-04-28 09:10:14,2020-10-22,0.043875260044254544,0.09623967302929329,0.2269474543857336,,,,,,,,,,,,
0,61,CanadaNorthwestTerritories,NWT,"",2022-04-28 09:10:14,2020-10-23,0.043875260044254544,0.09623967302929329,0.2269474543857336,,,,,,,,,,,,
0,61,CanadaNorthwestTerritories,NWT,"",2022-04-28 09:10:14,2020-10-24,0.043875260044254544,0.09623967302929329,0.2269474543857336,,,,,,,,,,,,
0,61,CanadaNorthwestTerritories,NWT,"",2022-04-28 09:10:14,2020-10-25,0.043875260044254544,0.09623967302929329,0.2269474543857336,,,,,,,,,,,,
0,61,CanadaNorthwestTerritories,NWT,"",2022-04-28 09:10:14,2020-10-26,0.043875260044254544,0.09623967302929329,0.2269474543857336,,,,,,,,,,,,
0,61,CanadaNorthwestTerritories,NWT,"",2022-04-28 09:10:14,2020-10-27,0.043875260044254544,0.09623967302929329,0.2269474543857336,,,,,,,,,,,,
0,61,CanadaNorthwestTerritories,NWT,"",2022-04-28 09:10:14,2020-10-28,0.012760132293474126,0.03200984866651351,0.08641172073653544,,,,,,,,,,,,
0,61,CanadaNorthwestTerritories,NWT,"",2022-04-28 09:10:14,2020-10-29,0.012760132293474126,0.03200984866651351,0.08641172073653544,,,,,,,,,,,,
0,61,CanadaNorthwestTerritories,NWT,"",2022-04-28 09:10:14,2020-10-30,0.012760132293474126,0.03200984866651351,0.08641172073653544,,,,,,,,,,,,
0,61,CanadaNorthwestTerritories,NWT,"",2022-04-28 09:10:14,2020-10-31,0.012760132293474126,0.03200984866651351,0.08641172073653544,,,,,,,,,,,,
0,61,CanadaNorthwestTerritories,NWT,"",2022-04-28 09:10:14,2020-11-01,0.012760132293474126,0.03200984866651351,0.08641172073653544,,,,,,,,,,,,
0,61,CanadaNorthwestTerritories,NWT,"",2022-04-28 09:10:14,2020-11-02,0.012760132293474126,0.03200984866651351,0.08641172073653544,,,,,,,,,,,,
0,61,CanadaNorthwestTerritories,NWT,"",2022-04-28 09:10:14,2020-11-03,0.012760132293474126,0.03200984866651351,0.08641172073653544,,,,,,,,,,,,
0,61,CanadaNorthwestTerritories,NWT,"",2022-04-28 09:10:14,2020-11-04,0,0,0,,,,,,,,,,,,
0,61,CanadaNorthwestTerritories,NWT,"",2022-04-28 09:10:14,2020-11-05,0,0,0,,,,,,,,,,,,
0,61,CanadaNorthwestTerritories,NWT,"",2022-04-28 09:10:14,2020-11-06,0,0,0,,,,,,,,,,,,
0,61,CanadaNorthwestTerritories,NWT,"",2022-04-28 09:10:14,2020-11-07,0,0,0,,,,,,,,,,,,
0,61,CanadaNorthwestTerritories,NWT,"",2022-04-28 09:10:14,2020-11-08,0,0,0,,,,,,,,,,,,
0,61,CanadaNorthwestTerritories,NWT,"",2022-04-28 09:10:14,2020-11-09,0,0,0,,,,,,,,,,,,
0,61,CanadaNorthwestTerritories,NWT,"",2022-04-28 09:10:14,2020-11-10,0,0,0,,,,,,,,,,,,
0,61,CanadaNorthwestTerritories,NWT,"",2022-04-28 09:10:14,2020-11-11,0.06952339099670582,0.18796857886336765,0.5465194264878984,,,,,,,,,,,,
0,61,CanadaNorthwestTerritories,NWT,"",2022-04-28 09:10:14,2020-11-12,0.06952339099670582,0.18796857886336765,0.5465194264878984,,,,,,,,,,,,
0,61,CanadaNorthwestTerritories,NWT,"",2022-04-28 09:10:14,2020-11-13,0.06952339099670582,0.18796857886336765,0.5465194264878984,,,,,,,,,,,,
0,61,CanadaNorthwestTerritories,NWT,"",2022-04-28 09:10:14,2020-11-14,0.06952339099670582,0.18796857886336765,0.5465194264878984,,,,,,,,,,,,
0,61,CanadaNorthwestTerritories,NWT,"",2022-04-28 09:10:14,2020-11-15,0.06952339099670582,0.18796857886336765,0.5465194264878984,,,,,,,,,,,,
0,61,CanadaNorthwestTerritories,NWT,"",2022-04-28 09:10:14,2020-11-16,0.06952339099670582,0.18796857886336765,0.5465194264878984,,,,,,,,,,,,
0,61,CanadaNorthwestTerritories,NWT,"",2022-04-28 09:10:14,2020-11-17,0.06952339099670582,0.18796857886336765,0.5465194264878984,,,,,,,,,,,,
0,61,CanadaNorthwestTerritories,NWT,"",2022-04-28 09:10:14,2020-11-18,0,0,0,,,,,,,,,,,,
0,61,CanadaNorthwestTerritories,NWT,"",2022-04-28 09:10:14,2020-11-19,0,0,0,,,,,,,,,,,,
0,61,CanadaNorthwestTerritories,NWT,"",2022-04-28 09:10:14,2020-11-20,0,0,0,,,,,,,,,,,,
0,61,CanadaNorthwestTerritories,NWT,"",2022-04-28 09:10:14,2020-11-21,0,0,0,,,,,,,,,,,,
0,61,CanadaNorthwestTerritories,NWT,"",2022-04-28 09:10:14,2020-11-22,0,0,0,,,,,,,,,,,,
0,61,CanadaNorthwestTerritories,NWT,"",2022-04-28 09:10:14,2020-11-23,0,0,0,,,,,,,,,,,,
0,61,CanadaNorthwestTerritories,NWT,"",2022-04-28 09:10:14,2020-11-24,0,0,0,,,,,,,,,,,,
0,61,CanadaNorthwestTerritories,NWT,"",2022-04-28 09:10:14,2020-11-25,0,0,0,,,,,,,,,,,,
0,61,CanadaNorthwestTerritories,NWT,"",2022-04-28 09:10:14,2020-11-26,0,0,0,,,,,,,,,,,,
0,61,CanadaNorthwestTerritories,NWT,"",2022-04-28 09:10:14,2020-11-27,0,0,0,,,,,,,,,,,,
0,61,CanadaNorthwestTerritories,NWT,"",2022-04-28 09:10:14,2020-11-28,0,0,0,,,,,,,,,,,,
0,61,CanadaNorthwestTerritories,NWT,"",2022-04-28 09:10:14,2020-11-29,0,0,0,,,,,,,,,,,,
0,61,CanadaNorthwestTerritories,NWT,"",2022-04-28 09:10:14,2020-11-30,0,0,0,,,,,,,,,,,,
0,61,CanadaNorthwestTerritories,NWT,"",2022-04-28 09:10:14,2020-12-01,0,0,0,,,,,,,,,,,,
0,61,CanadaNorthwestTerritories,NWT,"",2022-04-28 09:10:14,2020-12-02,0,0,0,,,,,,,,,,,,
0,61,CanadaNorthwestTerritories,NWT,"",2022-04-28 09:10:14,2020-12-03,0,0,0,,,,,,,,,,,,
0,61,CanadaNorthwestTerritories,NWT,"",2022-04-28 09:10:14,2020-12-04,0,0,0,,,,,,,,,,,,
0,61,CanadaNorthwestTerritories,NWT,"",2022-04-28 09:10:14,2020-12-05,0,0,0,,,,,,,,,,,,
0,61,CanadaNorthwestTerritories,NWT,"",2022-04-28 09:10:14,2020-12-06,0,0,0,,,,,,,,,,,,
0,61,CanadaNorthwestTerritories,NWT,"",2022-04-28 09:10:14,2020-12-07,0,0,0,,,,,,,,,,,,
0,61,CanadaNorthwestTerritories,NWT,"",2022-04-28 09:10:14,2020-12-08,0,0,0,,,,,,,,,,,,
0,61,CanadaNorthwestTerritories,NWT,"",2022-04-28 09:10:14,2020-12-09,0.06713416563091573,0.13042998683322238,0.2713642948804155,,,,,,,,,,,,
0,61,CanadaNorthwestTerritories,NWT,"",2022-04-28 09:10:14,2020-12-10,0.06713416563091573,0.13042998683322238,0.2713642948804155,,,,,,,,,,,,
0,61,CanadaNorthwestTerritories,NWT,"",2022-04-28 09:10:14,2020-12-11,0.06713416563091573,0.13042998683322238,0.2713642948804155,,,,,,,,,,,,
0,61,CanadaNorthwestTerritories,NWT,"",2022-04-28 09:10:14,2020-12-12,0.06713416563091573,0.13042998683322238,0.2713642948804155,,,,,,,,,,,,
0,61,CanadaNorthwestTerritories,NWT,"",2022-04-28 09:10:14,2020-12-13,0.06713416563091573,0.13042998683322238,0.2713642948804155,,,,,,,,,,,,
0,61,CanadaNorthwestTerritories,NWT,"",2022-04-28 09:10:14,2020-12-14,0.06713416563091573,0.13042998683322238,0.2713642948804155,,,,,,,,,,,,
0,61,CanadaNorthwestTerritories,NWT,"",2022-04-28 09:10:14,2020-12-15,0.06713416563091573,0.13042998683322238,0.2713642948804155,,,,,,,,,,,,
0,61,CanadaNorthwestTerritories,NWT,"",2022-04-28 09:10:14,2020-12-16,0.03513815945020321,0.11590554815749765,0.40915631784557255,,,,,,,,,,,,
0,61,CanadaNorthwestTerritories,NWT,"",2022-04-28 09:10:14,2020-12-17,0.03513815945020321,0.11590554815749765,0.40915631784557255,,,,,,,,,,,,
0,61,CanadaNorthwestTerritories,NWT,"",2022-04-28 09:10:14,2020-12-18,0.03513815945020321,0.11590554815749765,0.40915631784557255,,,,,,,,,,,,
0,61,CanadaNorthwestTerritories,NWT,"",2022-04-28 09:10:14,2020-12-19,0.03513815945020321,0.11590554815749765,0.40915631784557255,,,,,,,,,,,,
0,61,CanadaNorthwestTerritories,NWT,"",2022-04-28 09:10:14,2020-12-20,0.03513815945020321,0.11590554815749765,0.40915631784557255,,,,,,,,,,,,
0,61,CanadaNorthwestTerritories,NWT,"",2022-04-28 09:10:14,2020-12-21,0.03513815945020321,0.11590554815749765,0.40915631784557255,,,,,,,,,,,,
0,61,CanadaNorthwestTerritories,NWT,"",2022-04-28 09:10:14,2020-12-22,0.03513815945020321,0.11590554815749765,0.40915631784557255,,,,,,,,,,,,
0,61,CanadaNorthwestTerritories,NWT,"",2022-04-28 09:10:14,2020-12-23,0,0,0,,,,,,,,,,,,
0,61,CanadaNorthwestTerritories,NWT,"",2022-04-28 09:10:14,2020-12-24,0,0,0,,,,,,,,,,,,
0,61,CanadaNorthwestTerritories,NWT,"",2022-04-28 09:10:14,2020-12-25,0,0,0,,,,,,,,,,,,
0,61,CanadaNorthwestTerritories,NWT,"",2022-04-28 09:10:14,2020-12-26,0,0,0,,,,,,,,,,,,
0,61,CanadaNorthwestTerritories,NWT,"",2022-04-28 09:10:14,2020-12-27,0,0,0,,,,,,,,,,,,
0,61,CanadaNorthwestTerritories,NWT,"",2022-04-28 09:10:14,2020-12-28,0,0,0,,,,,,,,,,,,
0,61,CanadaNorthwestTerritories,NWT,"",2022-04-28 09:10:14,2020-12-29,0,0,0,,,,,,,,,,,,
0,61,CanadaNorthwestTerritories,NWT,"",2022-04-28 09:10:14,2020-12-30,0,0,0,,,,,,,,,,,,
0,61,CanadaNorthwestTerritories,NWT,"",2022-04-28 09:10:14,2020-12-31,0,0,0,,,,,,,,,,,,
0,61,CanadaNorthwestTerritories,NWT,"",2022-04-28 09:10:14,2021-01-01,0,0,0,,,,,,,,,,,,
0,61,CanadaNorthwestTerritories,NWT,"",2022-04-28 09:10:14,2021-01-02,0,0,0,,,,,,,,,,,,
0,61,CanadaNorthwestTerritories,NWT,"",2022-04-28 09:10:14,2021-01-03,0,0,0,,,,,,,,,,,,
0,61,CanadaNorthwestTerritories,NWT,"",2022-04-28 09:10:14,2021-01-04,0,0,0,,,,,,,,,,,,
0,61,CanadaNorthwestTerritories,NWT,"",2022-04-28 09:10:14,2021-01-05,0,0,0,,,,,,,,,,,,
0,61,CanadaNorthwestTerritories,NWT,"",2022-04-28 09:10:14,2021-01-06,0,0,0,,,,,,,,,,,,
0,61,CanadaNorthwestTerritories,NWT,"",2022-04-28 09:10:14,2021-01-07,0,0,0,,,,,,,,,,,,
0,61,CanadaNorthwestTerritories,NWT,"",2022-04-28 09:10:14,2021-01-08,0,0,0,,,,,,,,,,,,
0,61,CanadaNorthwestTerritories,NWT,"",2022-04-28 09:10:14,2021-01-09,0,0,0,,,,,,,,,,,,
0,61,CanadaNorthwestTerritories,NWT,"",2022-04-28 09:10:14,2021-01-10,0,0,0,,,,,,,,,,,,
0,61,CanadaNorthwestTerritories,NWT,"",2022-04-28 09:10:14,2021-01-11,0,0,0,,,,,,,,,,,,
0,61,CanadaNorthwestTerritories,NWT,"",2022-04-28 09:10:14,2021-01-12,0,0,0,,,,,,,,,,,,
0,61,CanadaNorthwestTerritories,NWT,"",2022-04-28 09:10:14,2021-01-13,0.058457968681379736,0.11521378941435892,0.24332188948661734,,,,,,,,,,,,
0,61,CanadaNorthwestTerritories,NWT,"",2022-04-28 09:10:14,2021-01-14,0.058457968681379736,0.11521378941435892,0.24332188948661734,,,,,,,,,,,,
0,61,CanadaNorthwestTerritories,NWT,"",2022-04-28 09:10:14,2021-01-15,0.058457968681379736,0.11521378941435892,0.24332188948661734,,,,,,,,,,,,
0,61,CanadaNorthwestTerritories,NWT,"",2022-04-28 09:10:14,2021-01-16,0.058457968681379736,0.11521378941435892,0.24332188948661734,,,,,,,,,,,,
0,61,CanadaNorthwestTerritories,NWT,"",2022-04-28 09:10:14,2021-01-17,0.058457968681379736,0.11521378941435892,0.24332188948661734,,,,,,,,,,,,
0,61,CanadaNorthwestTerritories,NWT,"",2022-04-28 09:10:14,2021-01-18,0.058457968681379736,0.11521378941435892,0.24332188948661734,,,,,,,,,,,,
0,61,CanadaNorthwestTerritories,NWT,"",2022-04-28 09:10:14,2021-01-19,0.058457968681379736,0.11521378941435892,0.24332188948661734,,,,,,,,,,,,
0,61,CanadaNorthwestTerritories,NWT,"",2022-04-28 09:10:14,2021-01-20,0.012077562774772038,0.028864720893108518,0.07423638291811685,,,,,,,,,,,,
0,61,CanadaNorthwestTerritories,NWT,"",2022-04-28 09:10:14,2021-01-21,0.012077562774772038,0.028864720893108518,0.07423638291811685,,,,,,,,,,,,
0,61,CanadaNorthwestTerritories,NWT,"",2022-04-28 09:10:14,2021-01-22,0.012077562774772038,0.028864720893108518,0.07423638291811685,,,,,,,,,,,,
0,61,CanadaNorthwestTerritories,NWT,"",2022-04-28 09:10:14,2021-01-23,0.012077562774772038,0.028864720893108518,0.07423638291811685,,,,,,,,,,,,
0,61,CanadaNorthwestTerritories,NWT,"",2022-04-28 09:10:14,2021-01-24,0.012077562774772038,0.028864720893108518,0.07423638291811685,,,,,,,,,,,,
0,61,CanadaNorthwestTerritories,NWT,"",2022-04-28 09:10:14,2021-01-25,0.012077562774772038,0.028864720893108518,0.07423638291811685,,,,,,,,,,,,
0,61,CanadaNorthwestTerritories,NWT,"",2022-04-28 09:10:14,2021-01-26,0.012077562774772038,0.028864720893108518,0.07423638291811685,,,,,,,,,,,,
0,61,CanadaNorthwestTerritories,NWT,"",2022-04-28 09:10:14,2021-01-27,0.01625946921768838,0.05025544047129489,0.16656398814919263,,,,,,,,,,,,
0,61,CanadaNorthwestTerritories,NWT,"",2022-04-28 09:10:14,2021-01-28,0.01625946921768838,0.05025544047129489,0.16656398814919263,,,,,,,,,,,,
0,61,CanadaNorthwestTerritories,NWT,"",2022-04-28 09:10:14,2021-01-29,0.01625946921768838,0.05025544047129489,0.16656398814919263,,,,,,,,,,,,
0,61,CanadaNorthwestTerritories,NWT,"",2022-04-28 09:10:14,2021-01-30,0.01625946921768838,0.05025544047129489,0.16656398814919263,,,,,,,,,,,,
0,61,CanadaNorthwestTerritories,NWT,"",2022-04-28 09:10:14,2021-01-31,0.01625946921768838,0.05025544047129489,0.16656398814919263,,,,,,,,,,,,
0,61,CanadaNorthwestTerritories,NWT,"",2022-04-28 09:10:14,2021-02-01,0.01625946921768838,0.05025544047129489,0.16656398814919263,,,,,,,,,,,,
0,61,CanadaNorthwestTerritories,NWT,"",2022-04-28 09:10:14,2021-02-02,0.01625946921768838,0.05025544047129489,0.16656398814919263,,,,,,,,,,,,
0,61,CanadaNorthwestTerritories,NWT,"",2022-04-28 09:10:14,2021-02-03,0.015434903392041042,0.04564635628336085,0.14491975899361034,,,,,,,,,,,,
0,61,CanadaNorthwestTerritories,NWT,"",2022-04-28 09:10:14,2021-02-04,0.015434903392041042,0.04564635628336085,0.14491975899361034,,,,,,,,,,,,
0,61,CanadaNorthwestTerritories,NWT,"",2022-04-28 09:10:14,2021-02-05,0.015434903392041042,0.04564635628336085,0.14491975899361034,,,,,,,,,,,,
0,61,CanadaNorthwestTerritories,NWT,"",2022-04-28 09:10:14,2021-02-06,0.015434903392041042,0.04564635628336085,0.14491975899361034,,,,,,,,,,,,
0,61,CanadaNorthwestTerritories,NWT,"",2022-04-28 09:10:14,2021-02-07,0.015434903392041042,0.04564635628336085,0.14491975899361034,,,,,,,,,,,,
0,61,CanadaNorthwestTerritories,NWT,"",2022-04-28 09:10:14,2021-02-08,0.015434903392041042,0.04564635628336085,0.14491975899361034,,,,,,,,,,,,
0,61,CanadaNorthwestTerritories,NWT,"",2022-04-28 09:10:14,2021-02-09,0.015434903392041042,0.04564635628336085,0.14491975899361034,,,,,,,,,,,,
0,61,CanadaNorthwestTerritories,NWT,"",2022-04-28 09:10:14,2021-02-10,0.05772898539403307,0.13256329800826894,0.32748249464939744,,,,,,,,,,,,
0,61,CanadaNorthwestTerritories,NWT,"",2022-04-28 09:10:14,2021-02-11,0.05772898539403307,0.13256329800826894,0.32748249464939744,,,,,,,,,,,,
0,61,CanadaNorthwestTerritories,NWT,"",2022-04-28 09:10:14,2021-02-12,0.05772898539403307,0.13256329800826894,0.32748249464939744,,,,,,,,,,,,
0,61,CanadaNorthwestTerritories,NWT,"",2022-04-28 09:10:14,2021-02-13,0.05772898539403307,0.13256329800826894,0.32748249464939744,,,,,,,,,,,,
0,61,CanadaNorthwestTerritories,NWT,"",2022-04-28 09:10:14,2021-02-14,0.05772898539403307,0.13256329800826894,0.32748249464939744,,,,,,,,,,,,
0,61,CanadaNorthwestTerritories,NWT,"",2022-04-28 09:10:14,2021-02-15,0.05772898539403307,0.13256329800826894,0.32748249464939744,,,,,,,,,,,,
0,61,CanadaNorthwestTerritories,NWT,"",2022-04-28 09:10:14,2021-02-16,0.05772898539403307,0.13256329800826894,0.32748249464939744,,,,,,,,,,,,
0,61,CanadaNorthwestTerritories,NWT,"",2022-04-28 09:10:14,2021-02-17,0.04120345885789263,0.0854097479942948,0.1900643572110826,,,,,,,,,,,,
0,61,CanadaNorthwestTerritories,NWT,"",2022-04-28 09:10:14,2021-02-18,0.04120345885789263,0.0854097479942948,0.1900643572110826,,,,,,,,,,,,
0,61,CanadaNorthwestTerritories,NWT,"",2022-04-28 09:10:14,2021-02-19,0.04120345885789263,0.0854097479942948,0.1900643572110826,,,,,,,,,,,,
0,61,CanadaNorthwestTerritories,NWT,"",2022-04-28 09:10:14,2021-02-20,0.04120345885789263,0.0854097479942948,0.1900643572110826,,,,,,,,,,,,
0,61,CanadaNorthwestTerritories,NWT,"",2022-04-28 09:10:14,2021-02-21,0.04120345885789263,0.0854097479942948,0.1900643572110826,,,,,,,,,,,,
0,61,CanadaNorthwestTerritories,NWT,"",2022-04-28 09:10:14,2021-02-22,0.04120345885789263,0.0854097479942948,0.1900643572110826,,,,,,,,,,,,
0,61,CanadaNorthwestTerritories,NWT,"",2022-04-28 09:10:14,2021-02-23,0.04120345885789263,0.0854097479942948,0.1900643572110826,,,,,,,,,,,,
0,61,CanadaNorthwestTerritories,NWT,"",2022-04-28 09:10:14,2021-02-24,0,0,0,,,,,,,,,,,,
0,61,CanadaNorthwestTerritories,NWT,"",2022-04-28 09:10:14,2021-02-25,0,0,0,,,,,,,,,,,,
0,61,CanadaNorthwestTerritories,NWT,"",2022-04-28 09:10:14,2021-02-26,0,0,0,,,,,,,,,,,,
0,61,CanadaNorthwestTerritories,NWT,"",2022-04-28 09:10:14,2021-02-27,0,0,0,,,,,,,,,,,,
0,61,CanadaNorthwestTerritories,NWT,"",2022-04-28 09:10:14,2021-02-28,0,0,0,,,,,,,,,,,,
0,61,CanadaNorthwestTerritories,NWT,"",2022-04-28 09:10:14,2021-03-01,0,0,0,,,,,,,,,,,,
0,61,CanadaNorthwestTerritories,NWT,"",2022-04-28 09:10:14,2021-03-02,0,0,0,,,,,,,,,,,,
0,61,CanadaNorthwestTerritories,NWT,"",2022-04-28 09:10:14,2021-03-03,0,0,0,,,,,,,,,,,,
0,61,CanadaNorthwestTerritories,NWT,"",2022-04-28 09:10:14,2021-03-04,0,0,0,,,,,,,,,,,,
0,61,CanadaNorthwestTerritories,NWT,"",2022-04-28 09:10:14,2021-03-05,0,0,0,,,,,,,,,,,,
0,61,CanadaNorthwestTerritories,NWT,"",2022-04-28 09:10:14,2021-03-06,0,0,0,,,,,,,,,,,,
0,61,CanadaNorthwestTerritories,NWT,"",2022-04-28 09:10:14,2021-03-07,0,0,0,,,,,,,,,,,,
0,61,CanadaNorthwestTerritories,NWT,"",2022-04-28 09:10:14,2021-03-08,0,0,0,,,,,,,,,,,,
0,61,CanadaNorthwestTerritories,NWT,"",2022-04-28 09:10:14,2021-03-09,0,0,0,,,,,,,,,,,,
0,61,CanadaNorthwestTerritories,NWT,"",2022-04-28 09:10:14,2021-03-10,0,0,0,,,,,,,,,,,,
0,61,CanadaNorthwestTerritories,NWT,"",2022-04-28 09:10:14,2021-03-11,0,0,0,,,,,,,,,,,,
0,61,CanadaNorthwestTerritories,NWT,"",2022-04-28 09:10:14,2021-03-12,0,0,0,,,,,,,,,,,,
0,61,CanadaNorthwestTerritories,NWT,"",2022-04-28 09:10:14,2021-03-13,0,0,0,,,,,,,,,,,,
0,61,CanadaNorthwestTerritories,NWT,"",2022-04-28 09:10:14,2021-03-14,0,0,0,,,,,,,,,,,,
0,61,CanadaNorthwestTerritories,NWT,"",2022-04-28 09:10:14,2021-03-15,0,0,0,,,,,,,,,,,,
0,61,CanadaNorthwestTerritories,NWT,"",2022-04-28 09:10:14,2021-03-16,0,0,0,,,,,,,,,,,,
0,61,CanadaNorthwestTerritories,NWT,"",2022-04-28 09:10:14,2021-03-17,0,0,0,,,,,,,,,,,,
0,61,CanadaNorthwestTerritories,NWT,"",2022-04-28 09:10:14,2021-03-18,0,0,0,,,,,,,,,,,,
0,61,CanadaNorthwestTerritories,NWT,"",2022-04-28 09:10:14,2021-03-19,0,0,0,,,,,,,,,,,,
0,61,CanadaNorthwestTerritories,NWT,"",2022-04-28 09:10:14,2021-03-20,0,0,0,,,,,,,,,,,,
0,61,CanadaNorthwestTerritories,NWT,"",2022-04-28 09:10:14,2021-03-21,0,0,0,,,,,,,,,,,,
0,61,CanadaNorthwestTerritories,NWT,"",2022-04-28 09:10:14,2021-03-22,0,0,0,,,,,,,,,,,,
0,61,CanadaNorthwestTerritories,NWT,"",2022-04-28 09:10:14,2021-03-23,0,0,0,,,,,,,,,,,,
0,61,CanadaNorthwestTerritories,NWT,"",2022-04-28 09:10:14,2021-03-24,0,0,0,,,,,,,,,,,,
0,61,CanadaNorthwestTerritories,NWT,"",2022-04-28 09:10:14,2021-03-25,0,0,0,,,,,,,,,,,,
0,61,CanadaNorthwestTerritories,NWT,"",2022-04-28 09:10:14,2021-03-26,0,0,0,,,,,,,,,,,,
0,61,CanadaNorthwestTerritories,NWT,"",2022-04-28 09:10:14,2021-03-27,0,0,0,,,,,,,,,,,,
0,61,CanadaNorthwestTerritories,NWT,"",2022-04-28 09:10:14,2021-03-28,0,0,0,,,,,,,,,,,,
0,61,CanadaNorthwestTerritories,NWT,"",2022-04-28 09:10:14,2021-03-29,0,0,0,,,,,,,,,,,,
0,61,CanadaNorthwestTerritories,NWT,"",2022-04-28 09:10:14,2021-03-30,0,0,0,,,,,,,,,,,,
0,61,CanadaNorthwestTerritories,NWT,"",2022-04-28 09:10:14,2021-03-31,0.014687096009405577,0.04162866246136251,0.12678558588800726,,,,,,,,,,,,
0,61,CanadaNorthwestTerritories,NWT,"",2022-04-28 09:10:14,2021-04-01,0.014687096009405577,0.04162866246136251,0.12678558588800726,,,,,,,,,,,,
0,61,CanadaNorthwestTerritories,NWT,"",2022-04-28 09:10:14,2021-04-02,0.014687096009405577,0.04162866246136251,0.12678558588800726,,,,,,,,,,,,
0,61,CanadaNorthwestTerritories,NWT,"",2022-04-28 09:10:14,2021-04-03,0.014687096009405577,0.04162866246136251,0.12678558588800726,,,,,,,,,,,,
0,61,CanadaNorthwestTerritories,NWT,"",2022-04-28 09:10:14,2021-04-04,0.014687096009405577,0.04162866246136251,0.12678558588800726,,,,,,,,,,,,
0,61,CanadaNorthwestTerritories,NWT,"",2022-04-28 09:10:14,2021-04-05,0.014687096009405577,0.04162866246136251,0.12678558588800726,,,,,,,,,,,,
0,61,CanadaNorthwestTerritories,NWT,"",2022-04-28 09:10:14,2021-04-06,0.014687096009405577,0.04162866246136251,0.12678558588800726,,,,,,,,,,,,
0,61,CanadaNorthwestTerritories,NWT,"",2022-04-28 09:10:14,2021-04-07,0,0,0,,,,,,,,,,,,
0,61,CanadaNorthwestTerritories,NWT,"",2022-04-28 09:10:14,2021-04-08,0,0,0,,,,,,,,,,,,
0,61,CanadaNorthwestTerritories,NWT,"",2022-04-28 09:10:14,2021-04-09,0,0,0,,,,,,,,,,,,
0,61,CanadaNorthwestTerritories,NWT,"",2022-04-28 09:10:14,2021-04-10,0,0,0,,,,,,,,,,,,
0,61,CanadaNorthwestTerritories,NWT,"",2022-04-28 09:10:14,2021-04-11,0,0,0,,,,,,,,,,,,
0,61,CanadaNorthwestTerritories,NWT,"",2022-04-28 09:10:14,2021-04-12,0,0,0,,,,,,,,,,,,
0,61,CanadaNorthwestTerritories,NWT,"",2022-04-28 09:10:14,2021-04-13,0,0,0,,,,,,,,,,,,
0,61,CanadaNorthwestTerritories,NWT,"",2022-04-28 09:10:14,2021-04-14,0,0,0,,,,,,,,,,,,
0,61,CanadaNorthwestTerritories,NWT,"",2022-04-28 09:10:14,2021-04-15,0,0,0,,,,,,,,,,,,
0,61,CanadaNorthwestTerritories,NWT,"",2022-04-28 09:10:14,2021-04-16,0,0,0,,,,,,,,,,,,
0,61,CanadaNorthwestTerritories,NWT,"",2022-04-28 09:10:14,2021-04-17,0,0,0,,,,,,,,,,,,
0,61,CanadaNorthwestTerritories,NWT,"",2022-04-28 09:10:14,2021-04-18,0,0,0,,,,,,,,,,,,
0,61,CanadaNorthwestTerritories,NWT,"",2022-04-28 09:10:14,2021-04-19,0,0,0,,,,,,,,,,,,
0,61,CanadaNorthwestTerritories,NWT,"",2022-04-28 09:10:14,2021-04-20,0,0,0,,,,,,,,,,,,
0,61,CanadaNorthwestTerritories,NWT,"",2022-04-28 09:10:14,2021-04-21,0.07026776759832208,0.12598652734605786,0.24082032885976803,,,,,,,,,,,,
0,61,CanadaNorthwestTerritories,NWT,"",2022-04-28 09:10:14,2021-04-22,0.07026776759832208,0.12598652734605786,0.24082032885976803,,,,,,,,,,,,
0,61,CanadaNorthwestTerritories,NWT,"",2022-04-28 09:10:14,2021-04-23,0.07026776759832208,0.12598652734605786,0.24082032885976803,,,,,,,,,,,,
0,61,CanadaNorthwestTerritories,NWT,"",2022-04-28 09:10:14,2021-04-24,0.07026776759832208,0.12598652734605786,0.24082032885976803,,,,,,,,,,,,
0,61,CanadaNorthwestTerritories,NWT,"",2022-04-28 09:10:14,2021-04-25,0.07026776759832208,0.12598652734605786,0.24082032885976803,,,,,,,,,,,,
0,61,CanadaNorthwestTerritories,NWT,"",2022-04-28 09:10:14,2021-04-26,0.07026776759832208,0.12598652734605786,0.24082032885976803,,,,,,,,,,,,
0,61,CanadaNorthwestTerritories,NWT,"",2022-04-28 09:10:14,2021-04-27,0.07026776759832208,0.12598652734605786,0.24082032885976803,,,,,,,,,,,,
0,61,CanadaNorthwestTerritories,NWT,"",2022-04-28 09:10:14,2021-04-28,0.18999053943140376,0.36592590867269104,0.754430229715197,,,,,,,,,,,,
0,61,CanadaNorthwestTerritories,NWT,"",2022-04-28 09:10:14,2021-04-29,0.18999053943140376,0.36592590867269104,0.754430229715197,,,,,,,,,,,,
0,61,CanadaNorthwestTerritories,NWT,"",2022-04-28 09:10:14,2021-04-30,0.18999053943140376,0.36592590867269104,0.754430229715197,,,,,,,,,,,,
0,61,CanadaNorthwestTerritories,NWT,"",2022-04-28 09:10:14,2021-05-01,0.18999053943140376,0.36592590867269104,0.754430229715197,,,,,,,,,,,,
0,61,CanadaNorthwestTerritories,NWT,"",2022-04-28 09:10:14,2021-05-02,0.18999053943140376,0.36592590867269104,0.754430229715197,,,,,,,,,,,,
0,61,CanadaNorthwestTerritories,NWT,"",2022-04-28 09:10:14,2021-05-03,0.18999053943140376,0.36592590867269104,0.754430229715197,,,,,,,,,,,,
0,61,CanadaNorthwestTerritories,NWT,"",2022-04-28 09:10:14,2021-05-04,0.18999053943140376,0.36592590867269104,0.754430229715197,,,,,,,,,,,,
0,61,CanadaNorthwestTerritories,NWT,"",2022-04-28 09:10:14,2021-05-05,0.33379314026217993,0.5582244014414577,0.9900877407843657,,,,,,,,,,,,
0,61,CanadaNorthwestTerritories,NWT,"",2022-04-28 09:10:14,2021-05-06,0.33379314026217993,0.5582244014414577,0.9900877407843657,,,,,,,,,,,,
0,61,CanadaNorthwestTerritories,NWT,"",2022-04-28 09:10:14,2021-05-07,0.33379314026217993,0.5582244014414577,0.9900877407843657,,,,,,,,,,,,
0,61,CanadaNorthwestTerritories,NWT,"",2022-04-28 09:10:14,2021-05-08,0.33379314026217993,0.5582244014414577,0.9900877407843657,,,,,,,,,,,,
0,61,CanadaNorthwestTerritories,NWT,"",2022-04-28 09:10:14,2021-05-09,0.33379314026217993,0.5582244014414577,0.9900877407843657,,,,,,,,,,,,
0,61,CanadaNorthwestTerritories,NWT,"",2022-04-28 09:10:14,2021-05-10,0.33379314026217993,0.5582244014414577,0.9900877407843657,,,,,,,,,,,,
0,61,CanadaNorthwestTerritories,NWT,"",2022-04-28 09:10:14,2021-05-11,0.33379314026217993,0.5582244014414577,0.9900877407843657,,,,,,,,,,,,
0,61,CanadaNorthwestTerritories,NWT,"",2022-04-28 09:10:14,2021-05-12,0.09589597268003229,0.14650935004760063,0.23532763990359507,,,,,,,,,,,,
0,61,CanadaNorthwestTerritories,NWT,"",2022-04-28 09:10:14,2021-05-13,0.09589597268003229,0.14650935004760063,0.23532763990359507,,,,,,,,,,,,
0,61,CanadaNorthwestTerritories,NWT,"",2022-04-28 09:10:14,2021-05-14,0.09589597268003229,0.14650935004760063,0.23532763990359507,,,,,,,,,,,,
0,61,CanadaNorthwestTerritories,NWT,"",2022-04-28 09:10:14,2021-05-15,0.09589597268003229,0.14650935004760063,0.23532763990359507,,,,,,,,,,,,
0,61,CanadaNorthwestTerritories,NWT,"",2022-04-28 09:10:14,2021-05-16,0.09589597268003229,0.14650935004760063,0.23532763990359507,,,,,,,,,,,,
0,61,CanadaNorthwestTerritories,NWT,"",2022-04-28 09:10:14,2021-05-17,0.09589597268003229,0.14650935004760063,0.23532763990359507,,,,,,,,,,,,
0,61,CanadaNorthwestTerritories,NWT,"",2022-04-28 09:10:14,2021-05-18,0.09589597268003229,0.14650935004760063,0.23532763990359507,,,,,,,,,,,,
0,61,CanadaNorthwestTerritories,NWT,"",2022-04-28 09:10:14,2021-05-19,0.023070528011241258,0.05293390279570431,0.13065976907389393,,,,,,,,,,,,
0,61,CanadaNorthwestTerritories,NWT,"",2022-04-28 09:10:14,2021-05-20,0.023070528011241258,0.05293390279570431,0.13065976907389393,,,,,,,,,,,,
0,61,CanadaNorthwestTerritories,NWT,"",2022-04-28 09:10:14,2021-05-21,0.023070528011241258,0.05293390279570431,0.13065976907389393,,,,,,,,,,,,
0,61,CanadaNorthwestTerritories,NWT,"",2022-04-28 09:10:14,2021-05-22,0.023070528011241258,0.05293390279570431,0.13065976907389393,,,,,,,,,,,,
0,61,CanadaNorthwestTerritories,NWT,"",2022-04-28 09:10:14,2021-05-23,0.023070528011241258,0.05293390279570431,0.13065976907389393,,,,,,,,,,,,
0,61,CanadaNorthwestTerritories,NWT,"",2022-04-28 09:10:14,2021-05-24,0.023070528011241258,0.05293390279570431,0.13065976907389393,,,,,,,,,,,,
0,61,CanadaNorthwestTerritories,NWT,"",2022-04-28 09:10:14,2021-05-25,0.023070528011241258,0.05293390279570431,0.13065976907389393,,,,,,,,,,,,
0,61,CanadaNorthwestTerritories,NWT,"",2022-04-28 09:10:14,2021-05-26,0.014063750284969038,0.03839990915476487,0.11273603884226484,,,,,,,,,,,,
0,61,CanadaNorthwestTerritories,NWT,"",2022-04-28 09:10:14,2021-05-27,0.014063750284969038,0.03839990915476487,0.11273603884226484,,,,,,,,,,,,
0,61,CanadaNorthwestTerritories,NWT,"",2022-04-28 09:10:14,2021-05-28,0.014063750284969038,0.03839990915476487,0.11273603884226484,,,,,,,,,,,,
0,61,CanadaNorthwestTerritories,NWT,"",2022-04-28 09:10:14,2021-05-29,0.014063750284969038,0.03839990915476487,0.11273603884226484,,,,,,,,,,,,
0,61,CanadaNorthwestTerritories,NWT,"",2022-04-28 09:10:14,2021-05-30,0.014063750284969038,0.03839990915476487,0.11273603884226484,,,,,,,,,,,,
0,61,CanadaNorthwestTerritories,NWT,"",2022-04-28 09:10:14,2021-05-31,0.014063750284969038,0.03839990915476487,0.11273603884226484,,,,,,,,,,,,
0,61,CanadaNorthwestTerritories,NWT,"",2022-04-28 09:10:14,2021-06-01,0.014063750284969038,0.03839990915476487,0.11273603884226484,,,,,,,,,,,,
0,61,CanadaNorthwestTerritories,NWT,"",2022-04-28 09:10:14,2021-06-02,0,0,0,,,,,,,,,,,,
0,61,CanadaNorthwestTerritories,NWT,"",2022-04-28 09:10:14,2021-06-03,0,0,0,,,,,,,,,,,,
0,61,CanadaNorthwestTerritories,NWT,"",2022-04-28 09:10:14,2021-06-04,0,0,0,,,,,,,,,,,,
0,61,CanadaNorthwestTerritories,NWT,"",2022-04-28 09:10:14,2021-06-05,0,0,0,,,,,,,,,,,,
0,61,CanadaNorthwestTerritories,NWT,"",2022-04-28 09:10:14,2021-06-06,0,0,0,,,,,,,,,,,,
0,61,CanadaNorthwestTerritories,NWT,"",2022-04-28 09:10:14,2021-06-07,0,0,0,,,,,,,,,,,,
0,61,CanadaNorthwestTerritories,NWT,"",2022-04-28 09:10:14,2021-06-08,0,0,0,,,,,,,,,,,,
0,61,CanadaNorthwestTerritories,NWT,"",2022-04-28 09:10:14,2021-06-09,0,0,0,,,,,,,,,,,,
0,61,CanadaNorthwestTerritories,NWT,"",2022-04-28 09:10:14,2021-06-10,0,0,0,,,,,,,,,,,,
0,61,CanadaNorthwestTerritories,NWT,"",2022-04-28 09:10:14,2021-06-11,0,0,0,,,,,,,,,,,,
0,61,CanadaNorthwestTerritories,NWT,"",2022-04-28 09:10:14,2021-06-12,0,0,0,,,,,,,,,,,,
0,61,CanadaNorthwestTerritories,NWT,"",2022-04-28 09:10:14,2021-06-13,0,0,0,,,,,,,,,,,,
0,61,CanadaNorthwestTerritories,NWT,"",2022-04-28 09:10:14,2021-06-14,0,0,0,,,,,,,,,,,,
0,61,CanadaNorthwestTerritories,NWT,"",2022-04-28 09:10:14,2021-06-15,0,0,0,,,,,,,,,,,,
0,61,CanadaNorthwestTerritories,NWT,"",2022-04-28 09:10:14,2021-06-16,0,0,0,,,,,,,,,,,,
0,61,CanadaNorthwestTerritories,NWT,"",2022-04-28 09:10:14,2021-06-17,0,0,0,,,,,,,,,,,,
0,61,CanadaNorthwestTerritories,NWT,"",2022-04-28 09:10:14,2021-06-18,0,0,0,,,,,,,,,,,,
0,61,CanadaNorthwestTerritories,NWT,"",2022-04-28 09:10:14,2021-06-19,0,0,0,,,,,,,,,,,,
0,61,CanadaNorthwestTerritories,NWT,"",2022-04-28 09:10:14,2021-06-20,0,0,0,,,,,,,,,,,,
0,61,CanadaNorthwestTerritories,NWT,"",2022-04-28 09:10:14,2021-06-21,0,0,0,,,,,,,,,,,,
0,61,CanadaNorthwestTerritories,NWT,"",2022-04-28 09:10:14,2021-06-22,0,0,0,,,,,,,,,,,,
0,61,CanadaNorthwestTerritories,NWT,"",2022-04-28 09:10:14,2021-06-23,0,0,0,,,,,,,,,,,,
0,61,CanadaNorthwestTerritories,NWT,"",2022-04-28 09:10:14,2021-06-24,0,0,0,,,,,,,,,,,,
0,61,CanadaNorthwestTerritories,NWT,"",2022-04-28 09:10:14,2021-06-25,0,0,0,,,,,,,,,,,,
0,61,CanadaNorthwestTerritories,NWT,"",2022-04-28 09:10:14,2021-06-26,0,0,0,,,,,,,,,,,,
0,61,CanadaNorthwestTerritories,NWT,"",2022-04-28 09:10:14,2021-06-27,0,0,0,,,,,,,,,,,,
0,61,CanadaNorthwestTerritories,NWT,"",2022-04-28 09:10:14,2021-06-28,0,0,0,,,,,,,,,,,,
0,61,CanadaNorthwestTerritories,NWT,"",2022-04-28 09:10:14,2021-06-29,0,0,0,,,,,,,,,,,,
0,61,CanadaNorthwestTerritories,NWT,"",2022-04-28 09:10:14,2021-06-30,0,0,0,,,,,,,,,,,,
0,61,CanadaNorthwestTerritories,NWT,"",2022-04-28 09:10:14,2021-07-01,0,0,0,,,,,,,,,,,,
0,61,CanadaNorthwestTerritories,NWT,"",2022-04-28 09:10:14,2021-07-02,0,0,0,,,,,,,,,,,,
0,61,CanadaNorthwestTerritories,NWT,"",2022-04-28 09:10:14,2021-07-03,0,0,0,,,,,,,,,,,,
0,61,CanadaNorthwestTerritories,NWT,"",2022-04-28 09:10:14,2021-07-04,0,0,0,,,,,,,,,,,,
0,61,CanadaNorthwestTerritories,NWT,"",2022-04-28 09:10:14,2021-07-05,0,0,0,,,,,,,,,,,,
0,61,CanadaNorthwestTerritories,NWT,"",2022-04-28 09:10:14,2021-07-06,0,0,0,,,,,,,,,,,,
0,61,CanadaNorthwestTerritories,NWT,"",2022-04-28 09:10:14,2021-07-07,0,0,0,,,,,,,,,,,,
0,61,CanadaNorthwestTerritories,NWT,"",2022-04-28 09:10:14,2021-07-08,0,0,0,,,,,,,,,,,,
0,61,CanadaNorthwestTerritories,NWT,"",2022-04-28 09:10:14,2021-07-09,0,0,0,,,,,,,,,,,,
0,61,CanadaNorthwestTerritories,NWT,"",2022-04-28 09:10:14,2021-07-10,0,0,0,,,,,,,,,,,,
0,61,CanadaNorthwestTerritories,NWT,"",2022-04-28 09:10:14,2021-07-11,0,0,0,,,,,,,,,,,,
0,61,CanadaNorthwestTerritories,NWT,"",2022-04-28 09:10:14,2021-07-12,0,0,0,,,,,,,,,,,,
0,61,CanadaNorthwestTerritories,NWT,"",2022-04-28 09:10:14,2021-07-13,0,0,0,,,,,,,,,,,,
0,61,CanadaNorthwestTerritories,NWT,"",2022-04-28 09:10:14,2021-07-14,0,0,0,,,,,,,,,,,,
0,61,CanadaNorthwestTerritories,NWT,"",2022-04-28 09:10:14,2021-07-15,0,0,0,,,,,,,,,,,,
0,61,CanadaNorthwestTerritories,NWT,"",2022-04-28 09:10:14,2021-07-16,0,0,0,,,,,,,,,,,,
0,61,CanadaNorthwestTerritories,NWT,"",2022-04-28 09:10:14,2021-07-17,0,0,0,,,,,,,,,,,,
0,61,CanadaNorthwestTerritories,NWT,"",2022-04-28 09:10:14,2021-07-18,0,0,0,,,,,,,,,,,,
0,61,CanadaNorthwestTerritories,NWT,"",2022-04-28 09:10:14,2021-07-19,0,0,0,,,,,,,,,,,,
0,61,CanadaNorthwestTerritories,NWT,"",2022-04-28 09:10:14,2021-07-20,0,0,0,,,,,,,,,,,,
0,61,CanadaNorthwestTerritories,NWT,"",2022-04-28 09:10:14,2021-07-21,0,0,0,,,,,,,,,,,,
0,61,CanadaNorthwestTerritories,NWT,"",2022-04-28 09:10:14,2021-07-22,0,0,0,,,,,,,,,,,,
0,61,CanadaNorthwestTerritories,NWT,"",2022-04-28 09:10:14,2021-07-23,0,0,0,,,,,,,,,,,,
0,61,CanadaNorthwestTerritories,NWT,"",2022-04-28 09:10:14,2021-07-24,0,0,0,,,,,,,,,,,,
0,61,CanadaNorthwestTerritories,NWT,"",2022-04-28 09:10:14,2021-07-25,0,0,0,,,,,,,,,,,,
0,61,CanadaNorthwestTerritories,NWT,"",2022-04-28 09:10:14,2021-07-26,0,0,0,,,,,,,,,,,,
0,61,CanadaNorthwestTerritories,NWT,"",2022-04-28 09:10:14,2021-07-27,0,0,0,,,,,,,,,,,,
0,61,CanadaNorthwestTerritories,NWT,"",2022-04-28 09:10:14,2021-07-28,0.013013086493802789,0.033210815590719686,0.09120142311378364,,,,,,,,,,,,
0,61,CanadaNorthwestTerritories,NWT,"",2022-04-28 09:10:14,2021-07-29,0.013013086493802789,0.033210815590719686,0.09120142311378364,,,,,,,,,,,,
0,61,CanadaNorthwestTerritories,NWT,"",2022-04-28 09:10:14,2021-07-30,0.013013086493802789,0.033210815590719686,0.09120142311378364,,,,,,,,,,,,
0,61,CanadaNorthwestTerritories,NWT,"",2022-04-28 09:10:14,2021-07-31,0.013013086493802789,0.033210815590719686,0.09120142311378364,,,,,,,,,,,,
0,61,CanadaNorthwestTerritories,NWT,"",2022-04-28 09:10:14,2021-08-01,0.013013086493802789,0.033210815590719686,0.09120142311378364,,,,,,,,,,,,
0,61,CanadaNorthwestTerritories,NWT,"",2022-04-28 09:10:14,2021-08-02,0.013013086493802789,0.033210815590719686,0.09120142311378364,,,,,,,,,,,,
0,61,CanadaNorthwestTerritories,NWT,"",2022-04-28 09:10:14,2021-08-03,0.013013086493802789,0.033210815590719686,0.09120142311378364,,,,,,,,,,,,
0,61,CanadaNorthwestTerritories,NWT,"",2022-04-28 09:10:14,2021-08-04,0.02613178497779263,0.06692783372575536,0.18444089742615613,,,,,,,,,,,,
0,61,CanadaNorthwestTerritories,NWT,"",2022-04-28 09:10:14,2021-08-05,0.02613178497779263,0.06692783372575536,0.18444089742615613,,,,,,,,,,,,
0,61,CanadaNorthwestTerritories,NWT,"",2022-04-28 09:10:14,2021-08-06,0.02613178497779263,0.06692783372575536,0.18444089742615613,,,,,,,,,,,,
0,61,CanadaNorthwestTerritories,NWT,"",2022-04-28 09:10:14,2021-08-07,0.02613178497779263,0.06692783372575536,0.18444089742615613,,,,,,,,,,,,
0,61,CanadaNorthwestTerritories,NWT,"",2022-04-28 09:10:14,2021-08-08,0.02613178497779263,0.06692783372575536,0.18444089742615613,,,,,,,,,,,,
0,61,CanadaNorthwestTerritories,NWT,"",2022-04-28 09:10:14,2021-08-09,0.02613178497779263,0.06692783372575536,0.18444089742615613,,,,,,,,,,,,
0,61,CanadaNorthwestTerritories,NWT,"",2022-04-28 09:10:14,2021-08-10,0.02613178497779263,0.06692783372575536,0.18444089742615613,,,,,,,,,,,,
0,61,CanadaNorthwestTerritories,NWT,"",2022-04-28 09:10:14,2021-08-11,0.7488771208209968,1.5858355004287659,3.607381636951838,,,,,,,,,,,,
0,61,CanadaNorthwestTerritories,NWT,"",2022-04-28 09:10:14,2021-08-12,0.7488771208209968,1.5858355004287659,3.607381636951838,,,,,,,,,,,,
0,61,CanadaNorthwestTerritories,NWT,"",2022-04-28 09:10:14,2021-08-13,0.7488771208209968,1.5858355004287659,3.607381636951838,,,,,,,,,,,,
0,61,CanadaNorthwestTerritories,NWT,"",2022-04-28 09:10:14,2021-08-14,0.7488771208209968,1.5858355004287659,3.607381636951838,,,,,,,,,,,,
0,61,CanadaNorthwestTerritories,NWT,"",2022-04-28 09:10:14,2021-08-15,0.7488771208209968,1.5858355004287659,3.607381636951838,,,,,,,,,,,,
0,61,CanadaNorthwestTerritories,NWT,"",2022-04-28 09:10:14,2021-08-16,0.7488771208209968,1.5858355004287659,3.607381636951838,,,,,,,,,,,,
0,61,CanadaNorthwestTerritories,NWT,"",2022-04-28 09:10:14,2021-08-17,0.7488771208209968,1.5858355004287659,3.607381636951838,,,,,,,,,,,,
0,61,CanadaNorthwestTerritories,NWT,"",2022-04-28 09:10:14,2021-08-18,1.1927236729912987,1.9639726708323253,3.4251723816732573,,,,,,,,,,,,
0,61,CanadaNorthwestTerritories,NWT,"",2022-04-28 09:10:14,2021-08-19,1.1927236729912987,1.9639726708323253,3.4251723816732573,,,,,,,,,,,,
0,61,CanadaNorthwestTerritories,NWT,"",2022-04-28 09:10:14,2021-08-20,1.1927236729912987,1.9639726708323253,3.4251723816732573,,,,,,,,,,,,
0,61,CanadaNorthwestTerritories,NWT,"",2022-04-28 09:10:14,2021-08-21,1.1927236729912987,1.9639726708323253,3.4251723816732573,,,,,,,,,,,,
0,61,CanadaNorthwestTerritories,NWT,"",2022-04-28 09:10:14,2021-08-22,1.1927236729912987,1.9639726708323253,3.4251723816732573,,,,,,,,,,,,
0,61,CanadaNorthwestTerritories,NWT,"",2022-04-28 09:10:14,2021-08-23,1.1927236729912987,1.9639726708323253,3.4251723816732573,,,,,,,,,,,,
0,61,CanadaNorthwestTerritories,NWT,"",2022-04-28 09:10:14,2021-08-24,1.1927236729912987,1.9639726708323253,3.4251723816732573,,,,,,,,,,,,
0,61,CanadaNorthwestTerritories,NWT,"",2022-04-28 09:10:14,2021-08-25,0.7244401444696725,1.078819475194458,1.6841953929865614,,,,,,,,,,,,
0,61,CanadaNorthwestTerritories,NWT,"",2022-04-28 09:10:14,2021-08-26,0.7244401444696725,1.078819475194458,1.6841953929865614,,,,,,,,,,,,
0,61,CanadaNorthwestTerritories,NWT,"",2022-04-28 09:10:14,2021-08-27,0.7244401444696725,1.078819475194458,1.6841953929865614,,,,,,,,,,,,
0,61,CanadaNorthwestTerritories,NWT,"",2022-04-28 09:10:14,2021-08-28,0.7244401444696725,1.078819475194458,1.6841953929865614,,,,,,,,,,,,
0,61,CanadaNorthwestTerritories,NWT,"",2022-04-28 09:10:14,2021-08-29,0.7244401444696725,1.078819475194458,1.6841953929865614,,,,,,,,,,,,
0,61,CanadaNorthwestTerritories,NWT,"",2022-04-28 09:10:14,2021-08-30,0.7244401444696725,1.078819475194458,1.6841953929865614,,,,,,,,,,,,
0,61,CanadaNorthwestTerritories,NWT,"",2022-04-28 09:10:14,2021-08-31,0.7244401444696725,1.078819475194458,1.6841953929865614,,,,,,,,,,,,
0,61,CanadaNorthwestTerritories,NWT,"",2022-04-28 09:10:14,2021-09-01,0.4414131019859855,0.8413781549410067,1.7158534226559243,,,,,,,,,,,,
0,61,CanadaNorthwestTerritories,NWT,"",2022-04-28 09:10:14,2021-09-02,0.4414131019859855,0.8413781549410067,1.7158534226559243,,,,,,,,,,,,
0,61,CanadaNorthwestTerritories,NWT,"",2022-04-28 09:10:14,2021-09-03,0.4414131019859855,0.8413781549410067,1.7158534226559243,,,,,,,,,,,,
0,61,CanadaNorthwestTerritories,NWT,"",2022-04-28 09:10:14,2021-09-04,0.4414131019859855,0.8413781549410067,1.7158534226559243,,,,,,,,,,,,
0,61,CanadaNorthwestTerritories,NWT,"",2022-04-28 09:10:14,2021-09-05,0.4414131019859855,0.8413781549410067,1.7158534226559243,,,,,,,,,,,,
0,61,CanadaNorthwestTerritories,NWT,"",2022-04-28 09:10:14,2021-09-06,0.4414131019859855,0.8413781549410067,1.7158534226559243,,,,,,,,,,,,
0,61,CanadaNorthwestTerritories,NWT,"",2022-04-28 09:10:14,2021-09-07,0.4414131019859855,0.8413781549410067,1.7158534226559243,,,,,,,,,,,,
0,61,CanadaNorthwestTerritories,NWT,"",2022-04-28 09:10:14,2021-09-08,1.2167613446447423,2.0532274608422703,3.6772765834351677,,,,,,,,,,,,
0,61,CanadaNorthwestTerritories,NWT,"",2022-04-28 09:10:14,2021-09-09,1.2167613446447423,2.0532274608422703,3.6772765834351677,,,,,,,,,,,,
0,61,CanadaNorthwestTerritories,NWT,"",2022-04-28 09:10:14,2021-09-10,1.2167613446447423,2.0532274608422703,3.6772765834351677,,,,,,,,,,,,
0,61,CanadaNorthwestTerritories,NWT,"",2022-04-28 09:10:14,2021-09-11,1.2167613446447423,2.0532274608422703,3.6772765834351677,,,,,,,,,,,,
0,61,CanadaNorthwestTerritories,NWT,"",2022-04-28 09:10:14,2021-09-12,1.2167613446447423,2.0532274608422703,3.6772765834351677,,,,,,,,,,,,
0,61,CanadaNorthwestTerritories,NWT,"",2022-04-28 09:10:14,2021-09-13,1.2167613446447423,2.0532274608422703,3.6772765834351677,,,,,,,,,,,,
0,61,CanadaNorthwestTerritories,NWT,"",2022-04-28 09:10:14,2021-09-14,1.2167613446447423,2.0532274608422703,3.6772765834351677,,,,,,,,,,,,
0,61,CanadaNorthwestTerritories,NWT,"",2022-04-28 09:10:14,2021-09-15,1.349447719661421,2.3311198757611793,4.2818559939019885,,,,,,,,,,,,
0,61,CanadaNorthwestTerritories,NWT,"",2022-04-28 09:10:14,2021-09-16,1.349447719661421,2.3311198757611793,4.2818559939019885,,,,,,,,,,,,
0,61,CanadaNorthwestTerritories,NWT,"",2022-04-28 09:10:14,2021-09-17,1.349447719661421,2.3311198757611793,4.2818559939019885,,,,,,,,,,,,
0,61,CanadaNorthwestTerritories,NWT,"",2022-04-28 09:10:14,2021-09-18,1.349447719661421,2.3311198757611793,4.2818559939019885,,,,,,,,,,,,
0,61,CanadaNorthwestTerritories,NWT,"",2022-04-28 09:10:14,2021-09-19,1.349447719661421,2.3311198757611793,4.2818559939019885,,,,,,,,,,,,
0,61,CanadaNorthwestTerritories,NWT,"",2022-04-28 09:10:14,2021-09-20,1.349447719661421,2.3311198757611793,4.2818559939019885,,,,,,,,,,,,
0,61,CanadaNorthwestTerritories,NWT,"",2022-04-28 09:10:14,2021-09-21,1.349447719661421,2.3311198757611793,4.2818559939019885,,,,,,,,,,,,
0,61,CanadaNorthwestTerritories,NWT,"",2022-04-28 09:10:14,2021-09-22,1.4689053552303013,2.6962282909153568,5.283973370032173,,,,,,,,,,,,
0,61,CanadaNorthwestTerritories,NWT,"",2022-04-28 09:10:14,2021-09-23,1.4689053552303013,2.6962282909153568,5.283973370032173,,,,,,,,,,,,
0,61,CanadaNorthwestTerritories,NWT,"",2022-04-28 09:10:14,2021-09-24,1.4689053552303013,2.6962282909153568,5.283973370032173,,,,,,,,,,,,
0,61,CanadaNorthwestTerritories,NWT,"",2022-04-28 09:10:14,2021-09-25,1.4689053552303013,2.6962282909153568,5.283973370032173,,,,,,,,,,,,
0,61,CanadaNorthwestTerritories,NWT,"",2022-04-28 09:10:14,2021-09-26,1.4689053552303013,2.6962282909153568,5.283973370032173,,,,,,,,,,,,
0,61,CanadaNorthwestTerritories,NWT,"",2022-04-28 09:10:14,2021-09-27,1.4689053552303013,2.6962282909153568,5.283973370032173,,,,,,,,,,,,
0,61,CanadaNorthwestTerritories,NWT,"",2022-04-28 09:10:14,2021-09-28,1.4689053552303013,2.6962282909153568,5.283973370032173,,,,,,,,,,,,
0,61,CanadaNorthwestTerritories,NWT,"",2022-04-28 09:10:14,2021-09-29,2.0873303402831493,3.328977888823676,5.606523957070526,,,,,,,,,,,,
0,61,CanadaNorthwestTerritories,NWT,"",2022-04-28 09:10:14,2021-09-30,2.0873303402831493,3.328977888823676,5.606523957070526,,,,,,,,,,,,
0,61,CanadaNorthwestTerritories,NWT,"",2022-04-28 09:10:14,2021-10-01,2.0873303402831493,3.328977888823676,5.606523957070526,,,,,,,,,,,,
0,61,CanadaNorthwestTerritories,NWT,"",2022-04-28 09:10:14,2021-10-02,2.0873303402831493,3.328977888823676,5.606523957070526,,,,,,,,,,,,
0,61,CanadaNorthwestTerritories,NWT,"",2022-04-28 09:10:14,2021-10-03,2.0873303402831493,3.328977888823676,5.606523957070526,,,,,,,,,,,,
0,61,CanadaNorthwestTerritories,NWT,"",2022-04-28 09:10:14,2021-10-04,2.0873303402831493,3.328977888823676,5.606523957070526,,,,,,,,,,,,
0,61,CanadaNorthwestTerritories,NWT,"",2022-04-28 09:10:14,2021-10-05,2.0873303402831493,3.328977888823676,5.606523957070526,,,,,,,,,,,,
0,61,CanadaNorthwestTerritories,NWT,"",2022-04-28 09:10:14,2021-10-06,1.6394670683981032,2.571046433235631,4.250626751865134,,,,,,,,,,,,
0,61,CanadaNorthwestTerritories,NWT,"",2022-04-28 09:10:14,2021-10-07,1.6394670683981032,2.571046433235631,4.250626751865134,,,,,,,,,,,,
0,61,CanadaNorthwestTerritories,NWT,"",2022-04-28 09:10:14,2021-10-08,1.6394670683981032,2.571046433235631,4.250626751865134,,,,,,,,,,,,
0,61,CanadaNorthwestTerritories,NWT,"",2022-04-28 09:10:14,2021-10-09,1.6394670683981032,2.571046433235631,4.250626751865134,,,,,,,,,,,,
0,61,CanadaNorthwestTerritories,NWT,"",2022-04-28 09:10:14,2021-10-10,1.6394670683981032,2.571046433235631,4.250626751865134,,,,,,,,,,,,
0,61,CanadaNorthwestTerritories,NWT,"",2022-04-28 09:10:14,2021-10-11,1.6394670683981032,2.571046433235631,4.250626751865134,,,,,,,,,,,,
0,61,CanadaNorthwestTerritories,NWT,"",2022-04-28 09:10:14,2021-10-12,1.6394670683981032,2.571046433235631,4.250626751865134,,,,,,,,,,,,
0,61,CanadaNorthwestTerritories,NWT,"",2022-04-28 09:10:14,2021-10-13,1.8400998738941903,2.9349118439068453,4.943278409394455,,,,,,,,,,,,
0,61,CanadaNorthwestTerritories,NWT,"",2022-04-28 09:10:14,2021-10-14,1.8400998738941903,2.9349118439068453,4.943278409394455,,,,,,,,,,,,
0,61,CanadaNorthwestTerritories,NWT,"",2022-04-28 09:10:14,2021-10-15,1.8400998738941903,2.9349118439068453,4.943278409394455,,,,,,,,,,,,
0,61,CanadaNorthwestTerritories,NWT,"",2022-04-28 09:10:14,2021-10-16,1.8400998738941903,2.9349118439068453,4.943278409394455,,,,,,,,,,,,
0,61,CanadaNorthwestTerritories,NWT,"",2022-04-28 09:10:14,2021-10-17,1.8400998738941903,2.9349118439068453,4.943278409394455,,,,,,,,,,,,
0,61,CanadaNorthwestTerritories,NWT,"",2022-04-28 09:10:14,2021-10-18,1.8400998738941903,2.9349118439068453,4.943278409394455,,,,,,,,,,,,
0,61,CanadaNorthwestTerritories,NWT,"",2022-04-28 09:10:14,2021-10-19,1.8400998738941903,2.9349118439068453,4.943278409394455,,,,,,,,,,,,
0,61,CanadaNorthwestTerritories,NWT,"",2022-04-28 09:10:14,2021-10-20,1.2383066456081662,2.3578959000830335,4.803317376204203,,,,,,,,,,,,
0,61,CanadaNorthwestTerritories,NWT,"",2022-04-28 09:10:14,2021-10-21,1.2383066456081662,2.3578959000830335,4.803317376204203,,,,,,,,,,,,
0,61,CanadaNorthwestTerritories,NWT,"",2022-04-28 09:10:14,2021-10-22,1.2383066456081662,2.3578959000830335,4.803317376204203,,,,,,,,,,,,
0,61,CanadaNorthwestTerritories,NWT,"",2022-04-28 09:10:14,2021-10-23,1.2383066456081662,2.3578959000830335,4.803317376204203,,,,,,,,,,,,
0,61,CanadaNorthwestTerritories,NWT,"",2022-04-28 09:10:14,2021-10-24,1.2383066456081662,2.3578959000830335,4.803317376204203,,,,,,,,,,,,
0,61,CanadaNorthwestTerritories,NWT,"",2022-04-28 09:10:14,2021-10-25,1.2383066456081662,2.3578959000830335,4.803317376204203,,,,,,,,,,,,
0,61,CanadaNorthwestTerritories,NWT,"",2022-04-28 09:10:14,2021-10-26,1.2383066456081662,2.3578959000830335,4.803317376204203,,,,,,,,,,,,
0,61,CanadaNorthwestTerritories,NWT,"",2022-04-28 09:10:14,2021-10-27,0.5455085720271485,1.1110107331517973,2.4277379091781413,,,,,,,,,,,,
0,61,CanadaNorthwestTerritories,NWT,"",2022-04-28 09:10:14,2021-10-28,0.5455085720271485,1.1110107331517973,2.4277379091781413,,,,,,,,,,,,
0,61,CanadaNorthwestTerritories,NWT,"",2022-04-28 09:10:14,2021-10-29,0.5455085720271485,1.1110107331517973,2.4277379091781413,,,,,,,,,,,,
0,61,CanadaNorthwestTerritories,NWT,"",2022-04-28 09:10:14,2021-10-30,0.5455085720271485,1.1110107331517973,2.4277379091781413,,,,,,,,,,,,
0,61,CanadaNorthwestTerritories,NWT,"",2022-04-28 09:10:14,2021-10-31,0.5455085720271485,1.1110107331517973,2.4277379091781413,,,,,,,,,,,,
0,61,CanadaNorthwestTerritories,NWT,"",2022-04-28 09:10:14,2021-11-01,0.5455085720271485,1.1110107331517973,2.4277379091781413,,,,,,,,,,,,
0,61,CanadaNorthwestTerritories,NWT,"",2022-04-28 09:10:14,2021-11-02,0.5455085720271485,1.1110107331517973,2.4277379091781413,,,,,,,,,,,,
0,61,CanadaNorthwestTerritories,NWT,"",2022-04-28 09:10:14,2021-11-03,0.43633599811876733,0.8562242541390307,1.8000670409809638,,,,,,,,,,,,
0,61,CanadaNorthwestTerritories,NWT,"",2022-04-28 09:10:14,2021-11-04,0.43633599811876733,0.8562242541390307,1.8000670409809638,,,,,,,,,,,,
0,61,CanadaNorthwestTerritories,NWT,"",2022-04-28 09:10:14,2021-11-05,0.43633599811876733,0.8562242541390307,1.8000670409809638,,,,,,,,,,,,
0,61,CanadaNorthwestTerritories,NWT,"",2022-04-28 09:10:14,2021-11-06,0.43633599811876733,0.8562242541390307,1.8000670409809638,,,,,,,,,,,,
0,61,CanadaNorthwestTerritories,NWT,"",2022-04-28 09:10:14,2021-11-07,0.43633599811876733,0.8562242541390307,1.8000670409809638,,,,,,,,,,,,
0,61,CanadaNorthwestTerritories,NWT,"",2022-04-28 09:10:14,2021-11-08,0.43633599811876733,0.8562242541390307,1.8000670409809638,,,,,,,,,,,,
0,61,CanadaNorthwestTerritories,NWT,"",2022-04-28 09:10:14,2021-11-09,0.43633599811876733,0.8562242541390307,1.8000670409809638,,,,,,,,,,,,
0,61,CanadaNorthwestTerritories,NWT,"",2022-04-28 09:10:14,2021-11-10,0.7390360846540328,1.1008958154801596,1.7192526555403171,,,,,,,,,,,,
0,61,CanadaNorthwestTerritories,NWT,"",2022-04-28 09:10:14,2021-11-11,0.7390360846540328,1.1008958154801596,1.7192526555403171,,,,,,,,,,,,
0,61,CanadaNorthwestTerritories,NWT,"",2022-04-28 09:10:14,2021-11-12,0.7390360846540328,1.1008958154801596,1.7192526555403171,,,,,,,,,,,,
0,61,CanadaNorthwestTerritories,NWT,"",2022-04-28 09:10:14,2021-11-13,0.7390360846540328,1.1008958154801596,1.7192526555403171,,,,,,,,,,,,
0,61,CanadaNorthwestTerritories,NWT,"",2022-04-28 09:10:14,2021-11-14,0.7390360846540328,1.1008958154801596,1.7192526555403171,,,,,,,,,,,,
0,61,CanadaNorthwestTerritories,NWT,"",2022-04-28 09:10:14,2021-11-15,0.7390360846540328,1.1008958154801596,1.7192526555403171,,,,,,,,,,,,
0,61,CanadaNorthwestTerritories,NWT,"",2022-04-28 09:10:14,2021-11-16,0.7390360846540328,1.1008958154801596,1.7192526555403171,,,,,,,,,,,,
0,61,CanadaNorthwestTerritories,NWT,"",2022-04-28 09:10:14,2021-11-17,0.25448556621632695,0.4866581529764845,0.9958605221324336,,,,,,,,,,,,
0,61,CanadaNorthwestTerritories,NWT,"",2022-04-28 09:10:14,2021-11-18,0.25448556621632695,0.4866581529764845,0.9958605221324336,,,,,,,,,,,,
0,61,CanadaNorthwestTerritories,NWT,"",2022-04-28 09:10:14,2021-11-19,0.25448556621632695,0.4866581529764845,0.9958605221324336,,,,,,,,,,,,
0,61,CanadaNorthwestTerritories,NWT,"",2022-04-28 09:10:14,2021-11-20,0.25448556621632695,0.4866581529764845,0.9958605221324336,,,,,,,,,,,,
0,61,CanadaNorthwestTerritories,NWT,"",2022-04-28 09:10:14,2021-11-21,0.25448556621632695,0.4866581529764845,0.9958605221324336,,,,,,,,,,,,
0,61,CanadaNorthwestTerritories,NWT,"",2022-04-28 09:10:14,2021-11-22,0.25448556621632695,0.4866581529764845,0.9958605221324336,,,,,,,,,,,,
0,61,CanadaNorthwestTerritories,NWT,"",2022-04-28 09:10:14,2021-11-23,0.25448556621632695,0.4866581529764845,0.9958605221324336,,,,,,,,,,,,
0,61,CanadaNorthwestTerritories,NWT,"",2022-04-28 09:10:14,2021-11-24,0.07300452973700208,0.2058783007574237,0.6239280744042774,,,,,,,,,,,,
0,61,CanadaNorthwestTerritories,NWT,"",2022-04-28 09:10:14,2021-11-25,0.07300452973700208,0.2058783007574237,0.6239280744042774,,,,,,,,,,,,
0,61,CanadaNorthwestTerritories,NWT,"",2022-04-28 09:10:14,2021-11-26,0.07300452973700208,0.2058783007574237,0.6239280744042774,,,,,,,,,,,,
0,61,CanadaNorthwestTerritories,NWT,"",2022-04-28 09:10:14,2021-11-27,0.07300452973700208,0.2058783007574237,0.6239280744042774,,,,,,,,,,,,
0,61,CanadaNorthwestTerritories,NWT,"",2022-04-28 09:10:14,2021-11-28,0.07300452973700208,0.2058783007574237,0.6239280744042774,,,,,,,,,,,,
0,61,CanadaNorthwestTerritories,NWT,"",2022-04-28 09:10:14,2021-11-29,0.07300452973700208,0.2058783007574237,0.6239280744042774,,,,,,,,,,,,
0,61,CanadaNorthwestTerritories,NWT,"",2022-04-28 09:10:14,2021-11-30,0.07300452973700208,0.2058783007574237,0.6239280744042774,,,,,,,,,,,,
0,61,CanadaNorthwestTerritories,NWT,"",2022-04-28 09:10:14,2021-12-01,0.09585242764897738,0.20475768856293297,0.46995986974157666,,,,,,,,,,,,
0,61,CanadaNorthwestTerritories,NWT,"",2022-04-28 09:10:14,2021-12-02,0.09585242764897738,0.20475768856293297,0.46995986974157666,,,,,,,,,,,,
0,61,CanadaNorthwestTerritories,NWT,"",2022-04-28 09:10:14,2021-12-03,0.09585242764897738,0.20475768856293297,0.46995986974157666,,,,,,,,,,,,
0,61,CanadaNorthwestTerritories,NWT,"",2022-04-28 09:10:14,2021-12-04,0.09585242764897738,0.20475768856293297,0.46995986974157666,,,,,,,,,,,,
0,61,CanadaNorthwestTerritories,NWT,"",2022-04-28 09:10:14,2021-12-05,0.09585242764897738,0.20475768856293297,0.46995986974157666,,,,,,,,,,,,
0,61,CanadaNorthwestTerritories,NWT,"",2022-04-28 09:10:14,2021-12-06,0.09585242764897738,0.20475768856293297,0.46995986974157666,,,,,,,,,,,,
0,61,CanadaNorthwestTerritories,NWT,"",2022-04-28 09:10:14,2021-12-07,0.09585242764897738,0.20475768856293297,0.46995986974157666,,,,,,,,,,,,
0,61,CanadaNorthwestTerritories,NWT,"",2022-04-28 09:10:14,2021-12-08,0.03295645279156442,0.10301855452166245,0.3452014664118139,,,,,,,,,,,,
0,61,CanadaNorthwestTerritories,NWT,"",2022-04-28 09:10:14,2021-12-09,0.03295645279156442,0.10301855452166245,0.3452014664118139,,,,,,,,,,,,
0,61,CanadaNorthwestTerritories,NWT,"",2022-04-28 09:10:14,2021-12-10,0.03295645279156442,0.10301855452166245,0.3452014664118139,,,,,,,,,,,,
0,61,CanadaNorthwestTerritories,NWT,"",2022-04-28 09:10:14,2021-12-11,0.03295645279156442,0.10301855452166245,0.3452014664118139,,,,,,,,,,,,
0,61,CanadaNorthwestTerritories,NWT,"",2022-04-28 09:10:14,2021-12-12,0.03295645279156442,0.10301855452166245,0.3452014664118139,,,,,,,,,,,,
0,61,CanadaNorthwestTerritories,NWT,"",2022-04-28 09:10:14,2021-12-13,0.03295645279156442,0.10301855452166245,0.3452014664118139,,,,,,,,,,,,
0,61,CanadaNorthwestTerritories,NWT,"",2022-04-28 09:10:14,2021-12-14,0.03295645279156442,0.10301855452166245,0.3452014664118139,,,,,,,,,,,,
0,61,CanadaNorthwestTerritories,NWT,"",2022-04-28 09:10:14,2021-12-15,0.1364858474420274,0.3092482296312905,0.7536898242876995,,,,,,,,,,,,
0,61,CanadaNorthwestTerritories,NWT,"",2022-04-28 09:10:14,2021-12-16,0.1364858474420274,0.3092482296312905,0.7536898242876995,,,,,,,,,,,,
0,61,CanadaNorthwestTerritories,NWT,"",2022-04-28 09:10:14,2021-12-17,0.1364858474420274,0.3092482296312905,0.7536898242876995,,,,,,,,,,,,
0,61,CanadaNorthwestTerritories,NWT,"",2022-04-28 09:10:14,2021-12-18,0.1364858474420274,0.3092482296312905,0.7536898242876995,,,,,,,,,,,,
0,61,CanadaNorthwestTerritories,NWT,"",2022-04-28 09:10:14,2021-12-19,0.1364858474420274,0.3092482296312905,0.7536898242876995,,,,,,,,,,,,
0,61,CanadaNorthwestTerritories,NWT,"",2022-04-28 09:10:14,2021-12-20,0.1364858474420274,0.3092482296312905,0.7536898242876995,,,,,,,,,,,,
0,61,CanadaNorthwestTerritories,NWT,"",2022-04-28 09:10:14,2021-12-21,0.1364858474420274,0.3092482296312905,0.7536898242876995,,,,,,,,,,,,
0,61,CanadaNorthwestTerritories,NWT,"",2022-04-28 09:10:14,2021-12-22,0.11682595074726317,0.3691240067216763,1.2498300650830014,,,,,,,,,,,,
0,61,CanadaNorthwestTerritories,NWT,"",2022-04-28 09:10:14,2021-12-23,0.11682595074726317,0.3691240067216763,1.2498300650830014,,,,,,,,,,,,
0,61,CanadaNorthwestTerritories,NWT,"",2022-04-28 09:10:14,2021-12-24,0.11682595074726317,0.3691240067216763,1.2498300650830014,,,,,,,,,,,,
0,61,CanadaNorthwestTerritories,NWT,"",2022-04-28 09:10:14,2021-12-25,0.11682595074726317,0.3691240067216763,1.2498300650830014,,,,,,,,,,,,
0,61,CanadaNorthwestTerritories,NWT,"",2022-04-28 09:10:14,2021-12-26,0.11682595074726317,0.3691240067216763,1.2498300650830014,,,,,,,,,,,,
0,61,CanadaNorthwestTerritories,NWT,"",2022-04-28 09:10:14,2021-12-27,0.11682595074726317,0.3691240067216763,1.2498300650830014,,,,,,,,,,,,
0,61,CanadaNorthwestTerritories,NWT,"",2022-04-28 09:10:14,2021-12-28,0.11682595074726317,0.3691240067216763,1.2498300650830014,,,,,,,,,,,,
0,61,CanadaNorthwestTerritories,NWT,"",2022-04-28 09:10:14,2021-12-29,2.6032643771882062,4.2412841493978855,7.311602453229363,,,,,,,,,,,,
0,61,CanadaNorthwestTerritories,NWT,"",2022-04-28 09:10:14,2021-12-30,2.6032643771882062,4.2412841493978855,7.311602453229363,,,,,,,,,,,,
0,61,CanadaNorthwestTerritories,NWT,"",2022-04-28 09:10:14,2021-12-31,2.6032643771882062,4.2412841493978855,7.311602453229363,,,,,,,,,,,,
0,61,CanadaNorthwestTerritories,NWT,"",2022-04-28 09:10:14,2022-01-01,2.6032643771882062,4.2412841493978855,7.311602453229363,,,,,,,,,,,,
0,61,CanadaNorthwestTerritories,NWT,"",2022-04-28 09:10:14,2022-01-02,2.6032643771882062,4.2412841493978855,7.311602453229363,,,,,,,,,,,,
0,61,CanadaNorthwestTerritories,NWT,"",2022-04-28 09:10:14,2022-01-03,2.6032643771882062,4.2412841493978855,7.311602453229363,,,,,,,,,,,,
0,61,CanadaNorthwestTerritories,NWT,"",2022-04-28 09:10:14,2022-01-04,2.6032643771882062,4.2412841493978855,7.311602453229363,,,,,,,,,,,,
0,61,CanadaNorthwestTerritories,NWT,"",2022-04-28 09:10:14,2022-01-05,6.553372442284691,9.864178699387304,15.584186258584594,,,,,,,,,,,,
0,61,CanadaNorthwestTerritories,NWT,"",2022-04-28 09:10:14,2022-01-06,6.553372442284691,9.864178699387304,15.584186258584594,,,,,,,,,,,,
0,61,CanadaNorthwestTerritories,NWT,"",2022-04-28 09:10:14,2022-01-07,6.553372442284691,9.864178699387304,15.584186258584594,,,,,,,,,,,,
0,61,CanadaNorthwestTerritories,NWT,"",2022-04-28 09:10:14,2022-01-08,6.553372442284691,9.864178699387304,15.584186258584594,,,,,,,,,,,,
0,61,CanadaNorthwestTerritories,NWT,"",2022-04-28 09:10:14,2022-01-09,6.553372442284691,9.864178699387304,15.584186258584594,,,,,,,,,,,,
0,61,CanadaNorthwestTerritories,NWT,"",2022-04-28 09:10:14,2022-01-10,6.553372442284691,9.864178699387304,15.584186258584594,,,,,,,,,,,,
0,61,CanadaNorthwestTerritories,NWT,"",2022-04-28 09:10:14,2022-01-11,6.553372442284691,9.864178699387304,15.584186258584594,,,,,,,,,,,,
0,61,CanadaNorthwestTerritories,NWT,"",2022-04-28 09:10:14,2022-01-12,6.099144223193012,8.523601747181617,12.390290566043834,,,,,,,,,,,,
0,61,CanadaNorthwestTerritories,NWT,"",2022-04-28 09:10:14,2022-01-13,6.099144223193012,8.523601747181617,12.390290566043834,,,,,,,,,,,,
0,61,CanadaNorthwestTerritories,NWT,"",2022-04-28 09:10:14,2022-01-14,6.099144223193012,8.523601747181617,12.390290566043834,,,,,,,,,,,,
0,61,CanadaNorthwestTerritories,NWT,"",2022-04-28 09:10:14,2022-01-15,6.099144223193012,8.523601747181617,12.390290566043834,,,,,,,,,,,,
0,61,CanadaNorthwestTerritories,NWT,"",2022-04-28 09:10:14,2022-01-16,6.099144223193012,8.523601747181617,12.390290566043834,,,,,,,,,,,,
0,61,CanadaNorthwestTerritories,NWT,"",2022-04-28 09:10:14,2022-01-17,6.099144223193012,8.523601747181617,12.390290566043834,,,,,,,,,,,,
0,61,CanadaNorthwestTerritories,NWT,"",2022-04-28 09:10:14,2022-01-18,6.099144223193012,8.523601747181617,12.390290566043834,,,,,,,,,,,,
0,61,CanadaNorthwestTerritories,NWT,"",2022-04-28 09:10:14,2022-01-19,6.143649284854075,8.871702225430045,13.381132960313765,,,,,,,,,,,,
0,61,CanadaNorthwestTerritories,NWT,"",2022-04-28 09:10:14,2022-01-20,6.143649284854075,8.871702225430045,13.381132960313765,,,,,,,,,,,,
0,61,CanadaNorthwestTerritories,NWT,"",2022-04-28 09:10:14,2022-01-21,6.143649284854075,8.871702225430045,13.381132960313765,,,,,,,,,,,,
0,61,CanadaNorthwestTerritories,NWT,"",2022-04-28 09:10:14,2022-01-22,6.143649284854075,8.871702225430045,13.381132960313765,,,,,,,,,,,,
0,61,CanadaNorthwestTerritories,NWT,"",2022-04-28 09:10:14,2022-01-23,6.143649284854075,8.871702225430045,13.381132960313765,,,,,,,,,,,,
0,61,CanadaNorthwestTerritories,NWT,"",2022-04-28 09:10:14,2022-01-24,6.143649284854075,8.871702225430045,13.381132960313765,,,,,,,,,,,,
0,61,CanadaNorthwestTerritories,NWT,"",2022-04-28 09:10:14,2022-01-25,6.143649284854075,8.871702225430045,13.381132960313765,,,,,,,,,,,,
0,61,CanadaNorthwestTerritories,NWT,"",2022-04-28 09:10:14,2022-01-26,6.604898509817078,9.533392640899226,14.371752017490017,,,,,,,,,,,,
0,61,CanadaNorthwestTerritories,NWT,"",2022-04-28 09:10:14,2022-01-27,6.604898509817078,9.533392640899226,14.371752017490017,,,,,,,,,,,,
0,61,CanadaNorthwestTerritories,NWT,"",2022-04-28 09:10:14,2022-01-28,6.604898509817078,9.533392640899226,14.371752017490017,,,,,,,,,,,,
0,61,CanadaNorthwestTerritories,NWT,"",2022-04-28 09:10:14,2022-01-29,6.604898509817078,9.533392640899226,14.371752017490017,,,,,,,,,,,,
0,61,CanadaNorthwestTerritories,NWT,"",2022-04-28 09:10:14,2022-01-30,6.604898509817078,9.533392640899226,14.371752017490017,,,,,,,,,,,,
0,61,CanadaNorthwestTerritories,NWT,"",2022-04-28 09:10:14,2022-01-31,6.604898509817078,9.533392640899226,14.371752017490017,,,,,,,,,,,,
0,61,CanadaNorthwestTerritories,NWT,"",2022-04-28 09:10:14,2022-02-01,6.604898509817078,9.533392640899226,14.371752017490017,,,,,,,,,,,,
0,61,CanadaNorthwestTerritories,NWT,"",2022-04-28 09:10:14,2022-02-02,5.864487890540901,8.466227436856343,12.765573302467557,,,,,,,,,,,,
0,61,CanadaNorthwestTerritories,NWT,"",2022-04-28 09:10:14,2022-02-03,5.864487890540901,8.466227436856343,12.765573302467557,,,,,,,,,,,,
0,61,CanadaNorthwestTerritories,NWT,"",2022-04-28 09:10:14,2022-02-04,5.864487890540901,8.466227436856343,12.765573302467557,,,,,,,,,,,,
0,61,CanadaNorthwestTerritories,NWT,"",2022-04-28 09:10:14,2022-02-05,5.864487890540901,8.466227436856343,12.765573302467557,,,,,,,,,,,,
0,61,CanadaNorthwestTerritories,NWT,"",2022-04-28 09:10:14,2022-02-06,5.864487890540901,8.466227436856343,12.765573302467557,,,,,,,,,,,,
0,61,CanadaNorthwestTerritories,NWT,"",2022-04-28 09:10:14,2022-02-07,5.864487890540901,8.466227436856343,12.765573302467557,,,,,,,,,,,,
0,61,CanadaNorthwestTerritories,NWT,"",2022-04-28 09:10:14,2022-02-08,5.864487890540901,8.466227436856343,12.765573302467557,,,,,,,,,,,,
0,61,CanadaNorthwestTerritories,NWT,"",2022-04-28 09:10:14,2022-02-09,6.007167485804301,8.760260366338374,13.359458820141368,,,,,,,,,,,,
0,61,CanadaNorthwestTerritories,NWT,"",2022-04-28 09:10:14,2022-02-10,6.007167485804301,8.760260366338374,13.359458820141368,,,,,,,,,,,,
0,61,CanadaNorthwestTerritories,NWT,"",2022-04-28 09:10:14,2022-02-11,6.007167485804301,8.760260366338374,13.359458820141368,,,,,,,,,,,,
0,61,CanadaNorthwestTerritories,NWT,"",2022-04-28 09:10:14,2022-02-12,6.007167485804301,8.760260366338374,13.359458820141368,,,,,,,,,,,,
0,61,CanadaNorthwestTerritories,NWT,"",2022-04-28 09:10:14,2022-02-13,6.007167485804301,8.760260366338374,13.359458820141368,,,,,,,,,,,,
0,61,CanadaNorthwestTerritories,NWT,"",2022-04-28 09:10:14,2022-02-14,6.007167485804301,8.760260366338374,13.359458820141368,,,,,,,,,,,,
0,61,CanadaNorthwestTerritories,NWT,"",2022-04-28 09:10:14,2022-02-15,6.007167485804301,8.760260366338374,13.359458820141368,,,,,,,,,,,,
0,61,CanadaNorthwestTerritories,NWT,"",2022-04-28 09:10:14,2022-02-16,4.741125710710926,7.189540391651924,11.452692309811294,,,,,,,,,,,,
0,61,CanadaNorthwestTerritories,NWT,"",2022-04-28 09:10:14,2022-02-17,4.741125710710926,7.189540391651924,11.452692309811294,,,,,,,,,,,,
0,61,CanadaNorthwestTerritories,NWT,"",2022-04-28 09:10:14,2022-02-18,4.741125710710926,7.189540391651924,11.452692309811294,,,,,,,,,,,,
0,61,CanadaNorthwestTerritories,NWT,"",2022-04-28 09:10:14,2022-02-19,4.741125710710926,7.189540391651924,11.452692309811294,,,,,,,,,,,,
0,61,CanadaNorthwestTerritories,NWT,"",2022-04-28 09:10:14,2022-02-20,4.741125710710926,7.189540391651924,11.452692309811294,,,,,,,,,,,,
0,61,CanadaNorthwestTerritories,NWT,"",2022-04-28 09:10:14,2022-02-21,4.741125710710926,7.189540391651924,11.452692309811294,,,,,,,,,,,,
0,61,CanadaNorthwestTerritories,NWT,"",2022-04-28 09:10:14,2022-02-22,4.741125710710926,7.189540391651924,11.452692309811294,,,,,,,,,,,,
0,61,CanadaNorthwestTerritories,NWT,"",2022-04-28 09:10:14,2022-02-23,3.984006644042295,6.532466348338743,11.340231301626117,,,,,,,,,,,,
0,61,CanadaNorthwestTerritories,NWT,"",2022-04-28 09:10:14,2022-02-24,3.984006644042295,6.532466348338743,11.340231301626117,,,,,,,,,,,,
0,61,CanadaNorthwestTerritories,NWT,"",2022-04-28 09:10:14,2022-02-25,3.984006644042295,6.532466348338743,11.340231301626117,,,,,,,,,,,,
0,61,CanadaNorthwestTerritories,NWT,"",2022-04-28 09:10:14,2022-02-26,3.984006644042295,6.532466348338743,11.340231301626117,,,,,,,,,,,,
0,61,CanadaNorthwestTerritories,NWT,"",2022-04-28 09:10:14,2022-02-27,3.984006644042295,6.532466348338743,11.340231301626117,,,,,,,,,,,,
0,61,CanadaNorthwestTerritories,NWT,"",2022-04-28 09:10:14,2022-02-28,3.984006644042295,6.532466348338743,11.340231301626117,,,,,,,,,,,,
0,61,CanadaNorthwestTerritories,NWT,"",2022-04-28 09:10:14,2022-03-01,3.984006644042295,6.532466348338743,11.340231301626117,,,,,,,,,,,,
0,61,CanadaNorthwestTerritories,NWT,"",2022-04-28 09:10:14,2022-03-02,3.6118333216307854,6.626538496769744,12.979999225009536,,,,,,,,,,,,
0,61,CanadaNorthwestTerritories,NWT,"",2022-04-28 09:10:14,2022-03-03,3.6118333216307854,6.626538496769744,12.979999225009536,,,,,,,,,,,,
0,61,CanadaNorthwestTerritories,NWT,"",2022-04-28 09:10:14,2022-03-04,3.6118333216307854,6.626538496769744,12.979999225009536,,,,,,,,,,,,
0,61,CanadaNorthwestTerritories,NWT,"",2022-04-28 09:10:14,2022-03-05,3.6118333216307854,6.626538496769744,12.979999225009536,,,,,,,,,,,,
0,61,CanadaNorthwestTerritories,NWT,"",2022-04-28 09:10:14,2022-03-06,3.6118333216307854,6.626538496769744,12.979999225009536,,,,,,,,,,,,
0,61,CanadaNorthwestTerritories,NWT,"",2022-04-28 09:10:14,2022-03-07,3.6118333216307854,6.626538496769744,12.979999225009536,,,,,,,,,,,,
0,61,CanadaNorthwestTerritories,NWT,"",2022-04-28 09:10:14,2022-03-08,3.6118333216307854,6.626538496769744,12.979999225009536,,,,,,,,,,,,
0,61,CanadaNorthwestTerritories,NWT,"",2022-04-28 09:10:14,2022-03-09,3.1119612411397126,5.778304349077844,11.463032913129359,,,,,,,,,,,,
0,61,CanadaNorthwestTerritories,NWT,"",2022-04-28 09:10:14,2022-03-10,3.1119612411397126,5.778304349077844,11.463032913129359,,,,,,,,,,,,
0,61,CanadaNorthwestTerritories,NWT,"",2022-04-28 09:10:14,2022-03-11,3.1119612411397126,5.778304349077844,11.463032913129359,,,,,,,,,,,,
0,61,CanadaNorthwestTerritories,NWT,"",2022-04-28 09:10:14,2022-03-12,3.1119612411397126,5.778304349077844,11.463032913129359,,,,,,,,,,,,
0,61,CanadaNorthwestTerritories,NWT,"",2022-04-28 09:10:14,2022-03-13,3.1119612411397126,5.778304349077844,11.463032913129359,,,,,,,,,,,,
0,61,CanadaNorthwestTerritories,NWT,"",2022-04-28 09:10:14,2022-03-14,3.1119612411397126,5.778304349077844,11.463032913129359,,,,,,,,,,,,
0,61,CanadaNorthwestTerritories,NWT,"",2022-04-28 09:10:14,2022-03-15,3.1119612411397126,5.778304349077844,11.463032913129359,,,,,,,,,,,,
0,61,CanadaNorthwestTerritories,NWT,"",2022-04-28 09:10:14,2022-03-16,2.7907897128472277,4.715138160896863,8.455963099663633,,,,,,,,,,,,
0,61,CanadaNorthwestTerritories,NWT,"",2022-04-28 09:10:14,2022-03-17,2.7907897128472277,4.715138160896863,8.455963099663633,,,,,,,,,,,,
0,61,CanadaNorthwestTerritories,NWT,"",2022-04-28 09:10:14,2022-03-18,2.7907897128472277,4.715138160896863,8.455963099663633,,,,,,,,,,,,
0,61,CanadaNorthwestTerritories,NWT,"",2022-04-28 09:10:14,2022-03-19,2.7907897128472277,4.715138160896863,8.455963099663633,,,,,,,,,,,,
0,61,CanadaNorthwestTerritories,NWT,"",2022-04-28 09:10:14,2022-03-20,2.7907897128472277,4.715138160896863,8.455963099663633,,,,,,,,,,,,
0,61,CanadaNorthwestTerritories,NWT,"",2022-04-28 09:10:14,2022-03-21,2.7907897128472277,4.715138160896863,8.455963099663633,,,,,,,,,,,,
0,61,CanadaNorthwestTerritories,NWT,"",2022-04-28 09:10:14,2022-03-22,2.7907897128472277,4.715138160896863,8.455963099663633,,,,,,,,,,,,
0,61,CanadaNorthwestTerritories,NWT,"",2022-04-28 09:10:14,2022-03-23,4.871882047176446,7.306414892517784,11.496337083824129,,,,,,,,,,,,
0,61,CanadaNorthwestTerritories,NWT,"",2022-04-28 09:10:14,2022-03-24,4.871882047176446,7.306414892517784,11.496337083824129,,,,,,,,,,,,
0,61,CanadaNorthwestTerritories,NWT,"",2022-04-28 09:10:14,2022-03-25,4.871882047176446,7.306414892517784,11.496337083824129,,,,,,,,,,,,
0,61,CanadaNorthwestTerritories,NWT,"",2022-04-28 09:10:14,2022-03-26,4.871882047176446,7.306414892517784,11.496337083824129,,,,,,,,,,,,
0,61,CanadaNorthwestTerritories,NWT,"",2022-04-28 09:10:14,2022-03-27,4.871882047176446,7.306414892517784,11.496337083824129,,,,,,,,,,,,
0,61,CanadaNorthwestTerritories,NWT,"",2022-04-28 09:10:14,2022-03-28,4.871882047176446,7.306414892517784,11.496337083824129,,,,,,,,,,,,
0,61,CanadaNorthwestTerritories,NWT,"",2022-04-28 09:10:14,2022-03-29,4.871882047176446,7.306414892517784,11.496337083824129,,,,,,,,,,,,
0,61,CanadaNorthwestTerritories,NWT,"",2022-04-28 09:10:14,2022-03-30,3.209679216825826,6.404241530660802,13.699629890416801,,,,,,,,,,,,
0,61,CanadaNorthwestTerritories,NWT,"",2022-04-28 09:10:14,2022-03-31,3.209679216825826,6.404241530660802,13.699629890416801,,,,,,,,,,,,
0,61,CanadaNorthwestTerritories,NWT,"",2022-04-28 09:10:14,2022-04-01,3.209679216825826,6.404241530660802,13.699629890416801,,,,,,,,,,,,
0,61,CanadaNorthwestTerritories,NWT,"",2022-04-28 09:10:14,2022-04-02,3.209679216825826,6.404241530660802,13.699629890416801,,,,,,,,,,,,
0,61,CanadaNorthwestTerritories,NWT,"",2022-04-28 09:10:14,2022-04-03,3.209679216825826,6.404241530660802,13.699629890416801,,,,,,,,,,,,
0,61,CanadaNorthwestTerritories,NWT,"",2022-04-28 09:10:14,2022-04-04,3.209679216825826,6.404241530660802,13.699629890416801,,,,,,,,,,,,
0,61,CanadaNorthwestTerritories,NWT,"",2022-04-28 09:10:14,2022-04-05,3.209679216825826,6.404241530660802,13.699629890416801,,,,,,,,,,,,
0,61,CanadaNorthwestTerritories,NWT,"",2022-04-28 09:10:14,2022-04-06,1.4962658823765023,3.379986724371717,8.212385638308216,,,,,,,,,,,,
0,61,CanadaNorthwestTerritories,NWT,"",2022-04-28 09:10:14,2022-04-07,1.4962658823765023,3.379986724371717,8.212385638308216,,,,,,,,,,,,
0,61,CanadaNorthwestTerritories,NWT,"",2022-04-28 09:10:14,2022-04-08,1.4962658823765023,3.379986724371717,8.212385638308216,,,,,,,,,,,,
0,61,CanadaNorthwestTerritories,NWT,"",2022-04-28 09:10:14,2022-04-09,1.4962658823765023,3.379986724371717,8.212385638308216,,,,,,,,,,,,
0,61,CanadaNorthwestTerritories,NWT,"",2022-04-28 09:10:14,2022-04-10,1.4962658823765023,3.379986724371717,8.212385638308216,,,,,,,,,,,,
0,61,CanadaNorthwestTerritories,NWT,"",2022-04-28 09:10:14,2022-04-11,1.4962658823765023,3.379986724371717,8.212385638308216,,,,,,,,,,,,
0,61,CanadaNorthwestTerritories,NWT,"",2022-04-28 09:10:14,2022-04-12,1.4962658823765023,3.379986724371717,8.212385638308216,,,,,,,,,,,,
0,61,CanadaNorthwestTerritories,NWT,"",2022-04-28 09:10:14,2022-04-13,0.9696715657776976,2.299392785025893,5.867427808455256,,,,,,,,,,,,
0,61,CanadaNorthwestTerritories,NWT,"",2022-04-28 09:10:14,2022-04-14,0.9696715657776976,2.299392785025893,5.867427808455256,,,,,,,,,,,,
0,61,CanadaNorthwestTerritories,NWT,"",2022-04-28 09:10:14,2022-04-15,0.9696715657776976,2.299392785025893,5.867427808455256,,,,,,,,,,,,
0,61,CanadaNorthwestTerritories,NWT,"",2022-04-28 09:10:14,2022-04-16,0.9696715657776976,2.299392785025893,5.867427808455256,,,,,,,,,,,,
0,61,CanadaNorthwestTerritories,NWT,"",2022-04-28 09:10:14,2022-04-17,0.9696715657776976,2.299392785025893,5.867427808455256,,,,,,,,,,,,
0,61,CanadaNorthwestTerritories,NWT,"",2022-04-28 09:10:14,2022-04-18,0.9696715657776976,2.299392785025893,5.867427808455256,,,,,,,,,,,,
0,61,CanadaNorthwestTerritories,NWT,"",2022-04-28 09:10:14,2022-04-19,0.9696715657776976,2.299392785025893,5.867427808455256,,,,,,,,,,,,
0,61,CanadaNorthwestTerritories,NWT,"",2022-04-28 09:10:14,2022-04-20,0.8759097359423484,2.1873426770384077,5.878163743879593,,,,,,,,,,,,
0,61,CanadaNorthwestTerritories,NWT,"",2022-04-28 09:10:14,2022-04-21,0.8759097359423484,2.1873426770384077,5.878163743879593,,,,,,,,,,,,
0,61,CanadaNorthwestTerritories,NWT,"",2022-04-28 09:10:14,2022-04-22,0.8759097359423484,2.1873426770384077,5.878163743879593,,,,,,,,,,,,
0,61,CanadaNorthwestTerritories,NWT,"",2022-04-28 09:10:14,2022-04-23,0.8759097359423484,2.1873426770384077,5.878163743879593,,,,,,,,,,,,
0,61,CanadaNorthwestTerritories,NWT,"",2022-04-28 09:10:14,2022-04-24,0.8759097359423484,2.1873426770384077,5.878163743879593,,,,,,,,,,,,
0,61,CanadaNorthwestTerritories,NWT,"",2022-04-28 09:10:14,2022-04-25,0.8759097359423484,2.1873426770384077,5.878163743879593,,,,,,,,,,,,
0,61,CanadaNorthwestTerritories,NWT,"",2022-04-28 09:10:14,2022-04-26,0.8759097359423484,2.1873426770384077,5.878163743879593,,,,,,,,,,,,
