FIPS,HR_UID,nameid,province,region,analysisTime,dates,pointprevalence_025,pointprevalence_50,pointprevalence_975,pointinfections_025,pointinfections_50,pointinfections_975,pointinfectious_025,pointinfectious_50,pointinfectious_975,pointinfectiousprevalence_025,pointinfectiousprevalence_50,pointinfectiousprevalence_975,infectrate_025,infectrate_50,infectrate_975
46137,0,USSouthDakotaZiebach,South Dakota,Ziebach,2022-04-28 09:13:11,2020-03-19,0,0,0,,,,,,,,,,,,
46137,0,USSouthDakotaZiebach,South Dakota,Ziebach,2022-04-28 09:13:11,2020-03-20,0,0,0,,,,,,,,,,,,
46137,0,USSouthDakotaZiebach,South Dakota,Ziebach,2022-04-28 09:13:11,2020-03-21,0,0,0,,,,,,,,,,,,
46137,0,USSouthDakotaZiebach,South Dakota,Ziebach,2022-04-28 09:13:11,2020-03-22,0,0,0,,,,,,,,,,,,
46137,0,USSouthDakotaZiebach,South Dakota,Ziebach,2022-04-28 09:13:11,2020-03-23,0,0,0,,,,,,,,,,,,
46137,0,USSouthDakotaZiebach,South Dakota,Ziebach,2022-04-28 09:13:11,2020-03-24,0,0,0,,,,,,,,,,,,
46137,0,USSouthDakotaZiebach,South Dakota,Ziebach,2022-04-28 09:13:11,2020-03-25,0,0,0,,,,,,,,,,,,
46137,0,USSouthDakotaZiebach,South Dakota,Ziebach,2022-04-28 09:13:11,2020-03-26,0,0,0,,,,,,,,,,,,
46137,0,USSouthDakotaZiebach,South Dakota,Ziebach,2022-04-28 09:13:11,2020-03-27,0,0,0,,,,,,,,,,,,
46137,0,USSouthDakotaZiebach,South Dakota,Ziebach,2022-04-28 09:13:11,2020-03-28,0,0,0,,,,,,,,,,,,
46137,0,USSouthDakotaZiebach,South Dakota,Ziebach,2022-04-28 09:13:11,2020-03-29,0,0,0,,,,,,,,,,,,
46137,0,USSouthDakotaZiebach,South Dakota,Ziebach,2022-04-28 09:13:11,2020-03-30,0,0,0,,,,,,,,,,,,
46137,0,USSouthDakotaZiebach,South Dakota,Ziebach,2022-04-28 09:13:11,2020-03-31,0,0,0,,,,,,,,,,,,
46137,0,USSouthDakotaZiebach,South Dakota,Ziebach,2022-04-28 09:13:11,2020-04-01,0,0,0,,,,,,,,,,,,
46137,0,USSouthDakotaZiebach,South Dakota,Ziebach,2022-04-28 09:13:11,2020-04-02,0,0,0,,,,,,,,,,,,
46137,0,USSouthDakotaZiebach,South Dakota,Ziebach,2022-04-28 09:13:11,2020-04-03,0,0,0,,,,,,,,,,,,
46137,0,USSouthDakotaZiebach,South Dakota,Ziebach,2022-04-28 09:13:11,2020-04-04,0,0,0,,,,,,,,,,,,
46137,0,USSouthDakotaZiebach,South Dakota,Ziebach,2022-04-28 09:13:11,2020-04-05,0,0,0,,,,,,,,,,,,
46137,0,USSouthDakotaZiebach,South Dakota,Ziebach,2022-04-28 09:13:11,2020-04-06,0,0,0,,,,,,,,,,,,
46137,0,USSouthDakotaZiebach,South Dakota,Ziebach,2022-04-28 09:13:11,2020-04-07,0,0,0,,,,,,,,,,,,
46137,0,USSouthDakotaZiebach,South Dakota,Ziebach,2022-04-28 09:13:11,2020-04-08,0,0,0,,,,,,,,,,,,
46137,0,USSouthDakotaZiebach,South Dakota,Ziebach,2022-04-28 09:13:11,2020-04-09,0,0,0,,,,,,,,,,,,
46137,0,USSouthDakotaZiebach,South Dakota,Ziebach,2022-04-28 09:13:11,2020-04-10,0,0,0,,,,,,,,,,,,
46137,0,USSouthDakotaZiebach,South Dakota,Ziebach,2022-04-28 09:13:11,2020-04-11,0,0,0,,,,,,,,,,,,
46137,0,USSouthDakotaZiebach,South Dakota,Ziebach,2022-04-28 09:13:11,2020-04-12,0,0,0,,,,,,,,,,,,
46137,0,USSouthDakotaZiebach,South Dakota,Ziebach,2022-04-28 09:13:11,2020-04-13,0,0,0,,,,,,,,,,,,
46137,0,USSouthDakotaZiebach,South Dakota,Ziebach,2022-04-28 09:13:11,2020-04-14,0,0,0,,,,,,,,,,,,
46137,0,USSouthDakotaZiebach,South Dakota,Ziebach,2022-04-28 09:13:11,2020-04-15,0,0,0,,,,,,,,,,,,
46137,0,USSouthDakotaZiebach,South Dakota,Ziebach,2022-04-28 09:13:11,2020-04-16,0,0,0,,,,,,,,,,,,
46137,0,USSouthDakotaZiebach,South Dakota,Ziebach,2022-04-28 09:13:11,2020-04-17,0,0,0,,,,,,,,,,,,
46137,0,USSouthDakotaZiebach,South Dakota,Ziebach,2022-04-28 09:13:11,2020-04-18,0,0,0,,,,,,,,,,,,
46137,0,USSouthDakotaZiebach,South Dakota,Ziebach,2022-04-28 09:13:11,2020-04-19,0,0,0,,,,,,,,,,,,
46137,0,USSouthDakotaZiebach,South Dakota,Ziebach,2022-04-28 09:13:11,2020-04-20,0,0,0,,,,,,,,,,,,
46137,0,USSouthDakotaZiebach,South Dakota,Ziebach,2022-04-28 09:13:11,2020-04-21,0,0,0,,,,,,,,,,,,
46137,0,USSouthDakotaZiebach,South Dakota,Ziebach,2022-04-28 09:13:11,2020-04-22,0,0,0,,,,,,,,,,,,
46137,0,USSouthDakotaZiebach,South Dakota,Ziebach,2022-04-28 09:13:11,2020-04-23,0,0,0,,,,,,,,,,,,
46137,0,USSouthDakotaZiebach,South Dakota,Ziebach,2022-04-28 09:13:11,2020-04-24,0,0,0,,,,,,,,,,,,
46137,0,USSouthDakotaZiebach,South Dakota,Ziebach,2022-04-28 09:13:11,2020-04-25,0,0,0,,,,,,,,,,,,
46137,0,USSouthDakotaZiebach,South Dakota,Ziebach,2022-04-28 09:13:11,2020-04-26,0,0,0,,,,,,,,,,,,
46137,0,USSouthDakotaZiebach,South Dakota,Ziebach,2022-04-28 09:13:11,2020-04-27,0,0,0,,,,,,,,,,,,
46137,0,USSouthDakotaZiebach,South Dakota,Ziebach,2022-04-28 09:13:11,2020-04-28,0,0,0,,,,,,,,,,,,
46137,0,USSouthDakotaZiebach,South Dakota,Ziebach,2022-04-28 09:13:11,2020-04-29,0,0,0,,,,,,,,,,,,
46137,0,USSouthDakotaZiebach,South Dakota,Ziebach,2022-04-28 09:13:11,2020-04-30,0.24752949934485,0.7199289412226072,2.24873777478724,,,,,,,,,,,,
46137,0,USSouthDakotaZiebach,South Dakota,Ziebach,2022-04-28 09:13:11,2020-05-01,0.24752949934485,0.7199289412226072,2.24873777478724,,,,,,,,,,,,
46137,0,USSouthDakotaZiebach,South Dakota,Ziebach,2022-04-28 09:13:11,2020-05-02,0.24752949934485,0.7199289412226072,2.24873777478724,,,,,,,,,,,,
46137,0,USSouthDakotaZiebach,South Dakota,Ziebach,2022-04-28 09:13:11,2020-05-03,0.24752949934485,0.7199289412226072,2.24873777478724,,,,,,,,,,,,
46137,0,USSouthDakotaZiebach,South Dakota,Ziebach,2022-04-28 09:13:11,2020-05-04,0.24752949934485,0.7199289412226072,2.24873777478724,,,,,,,,,,,,
46137,0,USSouthDakotaZiebach,South Dakota,Ziebach,2022-04-28 09:13:11,2020-05-05,0.24752949934485,0.7199289412226072,2.24873777478724,,,,,,,,,,,,
46137,0,USSouthDakotaZiebach,South Dakota,Ziebach,2022-04-28 09:13:11,2020-05-06,0.24752949934485,0.7199289412226072,2.24873777478724,,,,,,,,,,,,
46137,0,USSouthDakotaZiebach,South Dakota,Ziebach,2022-04-28 09:13:11,2020-05-07,0,0,0,,,,,,,,,,,,
46137,0,USSouthDakotaZiebach,South Dakota,Ziebach,2022-04-28 09:13:11,2020-05-08,0,0,0,,,,,,,,,,,,
46137,0,USSouthDakotaZiebach,South Dakota,Ziebach,2022-04-28 09:13:11,2020-05-09,0,0,0,,,,,,,,,,,,
46137,0,USSouthDakotaZiebach,South Dakota,Ziebach,2022-04-28 09:13:11,2020-05-10,0,0,0,,,,,,,,,,,,
46137,0,USSouthDakotaZiebach,South Dakota,Ziebach,2022-04-28 09:13:11,2020-05-11,0,0,0,,,,,,,,,,,,
46137,0,USSouthDakotaZiebach,South Dakota,Ziebach,2022-04-28 09:13:11,2020-05-12,0,0,0,,,,,,,,,,,,
46137,0,USSouthDakotaZiebach,South Dakota,Ziebach,2022-04-28 09:13:11,2020-05-13,0,0,0,,,,,,,,,,,,
46137,0,USSouthDakotaZiebach,South Dakota,Ziebach,2022-04-28 09:13:11,2020-05-14,0,0,0,,,,,,,,,,,,
46137,0,USSouthDakotaZiebach,South Dakota,Ziebach,2022-04-28 09:13:11,2020-05-15,0,0,0,,,,,,,,,,,,
46137,0,USSouthDakotaZiebach,South Dakota,Ziebach,2022-04-28 09:13:11,2020-05-16,0,0,0,,,,,,,,,,,,
46137,0,USSouthDakotaZiebach,South Dakota,Ziebach,2022-04-28 09:13:11,2020-05-17,0,0,0,,,,,,,,,,,,
46137,0,USSouthDakotaZiebach,South Dakota,Ziebach,2022-04-28 09:13:11,2020-05-18,0,0,0,,,,,,,,,,,,
46137,0,USSouthDakotaZiebach,South Dakota,Ziebach,2022-04-28 09:13:11,2020-05-19,0,0,0,,,,,,,,,,,,
46137,0,USSouthDakotaZiebach,South Dakota,Ziebach,2022-04-28 09:13:11,2020-05-20,0,0,0,,,,,,,,,,,,
46137,0,USSouthDakotaZiebach,South Dakota,Ziebach,2022-04-28 09:13:11,2020-05-21,0,0,0,,,,,,,,,,,,
46137,0,USSouthDakotaZiebach,South Dakota,Ziebach,2022-04-28 09:13:11,2020-05-22,0,0,0,,,,,,,,,,,,
46137,0,USSouthDakotaZiebach,South Dakota,Ziebach,2022-04-28 09:13:11,2020-05-23,0,0,0,,,,,,,,,,,,
46137,0,USSouthDakotaZiebach,South Dakota,Ziebach,2022-04-28 09:13:11,2020-05-24,0,0,0,,,,,,,,,,,,
46137,0,USSouthDakotaZiebach,South Dakota,Ziebach,2022-04-28 09:13:11,2020-05-25,0,0,0,,,,,,,,,,,,
46137,0,USSouthDakotaZiebach,South Dakota,Ziebach,2022-04-28 09:13:11,2020-05-26,0,0,0,,,,,,,,,,,,
46137,0,USSouthDakotaZiebach,South Dakota,Ziebach,2022-04-28 09:13:11,2020-05-27,0,0,0,,,,,,,,,,,,
46137,0,USSouthDakotaZiebach,South Dakota,Ziebach,2022-04-28 09:13:11,2020-05-28,0,0,0,,,,,,,,,,,,
46137,0,USSouthDakotaZiebach,South Dakota,Ziebach,2022-04-28 09:13:11,2020-05-29,0,0,0,,,,,,,,,,,,
46137,0,USSouthDakotaZiebach,South Dakota,Ziebach,2022-04-28 09:13:11,2020-05-30,0,0,0,,,,,,,,,,,,
46137,0,USSouthDakotaZiebach,South Dakota,Ziebach,2022-04-28 09:13:11,2020-05-31,0,0,0,,,,,,,,,,,,
46137,0,USSouthDakotaZiebach,South Dakota,Ziebach,2022-04-28 09:13:11,2020-06-01,0,0,0,,,,,,,,,,,,
46137,0,USSouthDakotaZiebach,South Dakota,Ziebach,2022-04-28 09:13:11,2020-06-02,0,0,0,,,,,,,,,,,,
46137,0,USSouthDakotaZiebach,South Dakota,Ziebach,2022-04-28 09:13:11,2020-06-03,0,0,0,,,,,,,,,,,,
46137,0,USSouthDakotaZiebach,South Dakota,Ziebach,2022-04-28 09:13:11,2020-06-04,0.17467313455884448,0.37410575164762877,0.860941740656964,,,,,,,,,,,,
46137,0,USSouthDakotaZiebach,South Dakota,Ziebach,2022-04-28 09:13:11,2020-06-05,0.17467313455884448,0.37410575164762877,0.860941740656964,,,,,,,,,,,,
46137,0,USSouthDakotaZiebach,South Dakota,Ziebach,2022-04-28 09:13:11,2020-06-06,0.17467313455884448,0.37410575164762877,0.860941740656964,,,,,,,,,,,,
46137,0,USSouthDakotaZiebach,South Dakota,Ziebach,2022-04-28 09:13:11,2020-06-07,0.17467313455884448,0.37410575164762877,0.860941740656964,,,,,,,,,,,,
46137,0,USSouthDakotaZiebach,South Dakota,Ziebach,2022-04-28 09:13:11,2020-06-08,0.17467313455884448,0.37410575164762877,0.860941740656964,,,,,,,,,,,,
46137,0,USSouthDakotaZiebach,South Dakota,Ziebach,2022-04-28 09:13:11,2020-06-09,0.17467313455884448,0.37410575164762877,0.860941740656964,,,,,,,,,,,,
46137,0,USSouthDakotaZiebach,South Dakota,Ziebach,2022-04-28 09:13:11,2020-06-10,0.17467313455884448,0.37410575164762877,0.860941740656964,,,,,,,,,,,,
46137,0,USSouthDakotaZiebach,South Dakota,Ziebach,2022-04-28 09:13:11,2020-06-11,0,0,0,,,,,,,,,,,,
46137,0,USSouthDakotaZiebach,South Dakota,Ziebach,2022-04-28 09:13:11,2020-06-12,0,0,0,,,,,,,,,,,,
46137,0,USSouthDakotaZiebach,South Dakota,Ziebach,2022-04-28 09:13:11,2020-06-13,0,0,0,,,,,,,,,,,,
46137,0,USSouthDakotaZiebach,South Dakota,Ziebach,2022-04-28 09:13:11,2020-06-14,0,0,0,,,,,,,,,,,,
46137,0,USSouthDakotaZiebach,South Dakota,Ziebach,2022-04-28 09:13:11,2020-06-15,0,0,0,,,,,,,,,,,,
46137,0,USSouthDakotaZiebach,South Dakota,Ziebach,2022-04-28 09:13:11,2020-06-16,0,0,0,,,,,,,,,,,,
46137,0,USSouthDakotaZiebach,South Dakota,Ziebach,2022-04-28 09:13:11,2020-06-17,0,0,0,,,,,,,,,,,,
46137,0,USSouthDakotaZiebach,South Dakota,Ziebach,2022-04-28 09:13:11,2020-06-18,0,0,0,,,,,,,,,,,,
46137,0,USSouthDakotaZiebach,South Dakota,Ziebach,2022-04-28 09:13:11,2020-06-19,0,0,0,,,,,,,,,,,,
46137,0,USSouthDakotaZiebach,South Dakota,Ziebach,2022-04-28 09:13:11,2020-06-20,0,0,0,,,,,,,,,,,,
46137,0,USSouthDakotaZiebach,South Dakota,Ziebach,2022-04-28 09:13:11,2020-06-21,0,0,0,,,,,,,,,,,,
46137,0,USSouthDakotaZiebach,South Dakota,Ziebach,2022-04-28 09:13:11,2020-06-22,0,0,0,,,,,,,,,,,,
46137,0,USSouthDakotaZiebach,South Dakota,Ziebach,2022-04-28 09:13:11,2020-06-23,0,0,0,,,,,,,,,,,,
46137,0,USSouthDakotaZiebach,South Dakota,Ziebach,2022-04-28 09:13:11,2020-06-24,0,0,0,,,,,,,,,,,,
46137,0,USSouthDakotaZiebach,South Dakota,Ziebach,2022-04-28 09:13:11,2020-06-25,0.19555571266073518,0.46327189872592317,1.1809874393198483,,,,,,,,,,,,
46137,0,USSouthDakotaZiebach,South Dakota,Ziebach,2022-04-28 09:13:11,2020-06-26,0.19555571266073518,0.46327189872592317,1.1809874393198483,,,,,,,,,,,,
46137,0,USSouthDakotaZiebach,South Dakota,Ziebach,2022-04-28 09:13:11,2020-06-27,0.19555571266073518,0.46327189872592317,1.1809874393198483,,,,,,,,,,,,
46137,0,USSouthDakotaZiebach,South Dakota,Ziebach,2022-04-28 09:13:11,2020-06-28,0.19555571266073518,0.46327189872592317,1.1809874393198483,,,,,,,,,,,,
46137,0,USSouthDakotaZiebach,South Dakota,Ziebach,2022-04-28 09:13:11,2020-06-29,0.19555571266073518,0.46327189872592317,1.1809874393198483,,,,,,,,,,,,
46137,0,USSouthDakotaZiebach,South Dakota,Ziebach,2022-04-28 09:13:11,2020-06-30,0.19555571266073518,0.46327189872592317,1.1809874393198483,,,,,,,,,,,,
46137,0,USSouthDakotaZiebach,South Dakota,Ziebach,2022-04-28 09:13:11,2020-07-01,0.19555571266073518,0.46327189872592317,1.1809874393198483,,,,,,,,,,,,
46137,0,USSouthDakotaZiebach,South Dakota,Ziebach,2022-04-28 09:13:11,2020-07-02,0,0,0,,,,,,,,,,,,
46137,0,USSouthDakotaZiebach,South Dakota,Ziebach,2022-04-28 09:13:11,2020-07-03,0,0,0,,,,,,,,,,,,
46137,0,USSouthDakotaZiebach,South Dakota,Ziebach,2022-04-28 09:13:11,2020-07-04,0,0,0,,,,,,,,,,,,
46137,0,USSouthDakotaZiebach,South Dakota,Ziebach,2022-04-28 09:13:11,2020-07-05,0,0,0,,,,,,,,,,,,
46137,0,USSouthDakotaZiebach,South Dakota,Ziebach,2022-04-28 09:13:11,2020-07-06,0,0,0,,,,,,,,,,,,
46137,0,USSouthDakotaZiebach,South Dakota,Ziebach,2022-04-28 09:13:11,2020-07-07,0,0,0,,,,,,,,,,,,
46137,0,USSouthDakotaZiebach,South Dakota,Ziebach,2022-04-28 09:13:11,2020-07-08,0,0,0,,,,,,,,,,,,
46137,0,USSouthDakotaZiebach,South Dakota,Ziebach,2022-04-28 09:13:11,2020-07-09,0.3129639172722564,0.6067745686901667,1.259680489249467,,,,,,,,,,,,
46137,0,USSouthDakotaZiebach,South Dakota,Ziebach,2022-04-28 09:13:11,2020-07-10,0.3129639172722564,0.6067745686901667,1.259680489249467,,,,,,,,,,,,
46137,0,USSouthDakotaZiebach,South Dakota,Ziebach,2022-04-28 09:13:11,2020-07-11,0.3129639172722564,0.6067745686901667,1.259680489249467,,,,,,,,,,,,
46137,0,USSouthDakotaZiebach,South Dakota,Ziebach,2022-04-28 09:13:11,2020-07-12,0.3129639172722564,0.6067745686901667,1.259680489249467,,,,,,,,,,,,
46137,0,USSouthDakotaZiebach,South Dakota,Ziebach,2022-04-28 09:13:11,2020-07-13,0.3129639172722564,0.6067745686901667,1.259680489249467,,,,,,,,,,,,
46137,0,USSouthDakotaZiebach,South Dakota,Ziebach,2022-04-28 09:13:11,2020-07-14,0.3129639172722564,0.6067745686901667,1.259680489249467,,,,,,,,,,,,
46137,0,USSouthDakotaZiebach,South Dakota,Ziebach,2022-04-28 09:13:11,2020-07-15,0.3129639172722564,0.6067745686901667,1.259680489249467,,,,,,,,,,,,
46137,0,USSouthDakotaZiebach,South Dakota,Ziebach,2022-04-28 09:13:11,2020-07-16,0,0,0,,,,,,,,,,,,
46137,0,USSouthDakotaZiebach,South Dakota,Ziebach,2022-04-28 09:13:11,2020-07-17,0,0,0,,,,,,,,,,,,
46137,0,USSouthDakotaZiebach,South Dakota,Ziebach,2022-04-28 09:13:11,2020-07-18,0,0,0,,,,,,,,,,,,
46137,0,USSouthDakotaZiebach,South Dakota,Ziebach,2022-04-28 09:13:11,2020-07-19,0,0,0,,,,,,,,,,,,
46137,0,USSouthDakotaZiebach,South Dakota,Ziebach,2022-04-28 09:13:11,2020-07-20,0,0,0,,,,,,,,,,,,
46137,0,USSouthDakotaZiebach,South Dakota,Ziebach,2022-04-28 09:13:11,2020-07-21,0,0,0,,,,,,,,,,,,
46137,0,USSouthDakotaZiebach,South Dakota,Ziebach,2022-04-28 09:13:11,2020-07-22,0,0,0,,,,,,,,,,,,
46137,0,USSouthDakotaZiebach,South Dakota,Ziebach,2022-04-28 09:13:11,2020-07-23,0.6673476466410525,1.118600134926357,1.9889063545325734,,,,,,,,,,,,
46137,0,USSouthDakotaZiebach,South Dakota,Ziebach,2022-04-28 09:13:11,2020-07-24,0.6673476466410525,1.118600134926357,1.9889063545325734,,,,,,,,,,,,
46137,0,USSouthDakotaZiebach,South Dakota,Ziebach,2022-04-28 09:13:11,2020-07-25,0.6673476466410525,1.118600134926357,1.9889063545325734,,,,,,,,,,,,
46137,0,USSouthDakotaZiebach,South Dakota,Ziebach,2022-04-28 09:13:11,2020-07-26,0.6673476466410525,1.118600134926357,1.9889063545325734,,,,,,,,,,,,
46137,0,USSouthDakotaZiebach,South Dakota,Ziebach,2022-04-28 09:13:11,2020-07-27,0.6673476466410525,1.118600134926357,1.9889063545325734,,,,,,,,,,,,
46137,0,USSouthDakotaZiebach,South Dakota,Ziebach,2022-04-28 09:13:11,2020-07-28,0.6673476466410525,1.118600134926357,1.9889063545325734,,,,,,,,,,,,
46137,0,USSouthDakotaZiebach,South Dakota,Ziebach,2022-04-28 09:13:11,2020-07-29,0.6673476466410525,1.118600134926357,1.9889063545325734,,,,,,,,,,,,
46137,0,USSouthDakotaZiebach,South Dakota,Ziebach,2022-04-28 09:13:11,2020-07-30,0.19421916002316664,0.45731671894680076,1.1586987713503758,,,,,,,,,,,,
46137,0,USSouthDakotaZiebach,South Dakota,Ziebach,2022-04-28 09:13:11,2020-07-31,0.19421916002316664,0.45731671894680076,1.1586987713503758,,,,,,,,,,,,
46137,0,USSouthDakotaZiebach,South Dakota,Ziebach,2022-04-28 09:13:11,2020-08-01,0.19421916002316664,0.45731671894680076,1.1586987713503758,,,,,,,,,,,,
46137,0,USSouthDakotaZiebach,South Dakota,Ziebach,2022-04-28 09:13:11,2020-08-02,0.19421916002316664,0.45731671894680076,1.1586987713503758,,,,,,,,,,,,
46137,0,USSouthDakotaZiebach,South Dakota,Ziebach,2022-04-28 09:13:11,2020-08-03,0.19421916002316664,0.45731671894680076,1.1586987713503758,,,,,,,,,,,,
46137,0,USSouthDakotaZiebach,South Dakota,Ziebach,2022-04-28 09:13:11,2020-08-04,0.19421916002316664,0.45731671894680076,1.1586987713503758,,,,,,,,,,,,
46137,0,USSouthDakotaZiebach,South Dakota,Ziebach,2022-04-28 09:13:11,2020-08-05,0.19421916002316664,0.45731671894680076,1.1586987713503758,,,,,,,,,,,,
46137,0,USSouthDakotaZiebach,South Dakota,Ziebach,2022-04-28 09:13:11,2020-08-06,2.596068919501758,3.3450772638985597,4.433543930758623,,,,,,,,,,,,
46137,0,USSouthDakotaZiebach,South Dakota,Ziebach,2022-04-28 09:13:11,2020-08-07,2.596068919501758,3.3450772638985597,4.433543930758623,,,,,,,,,,,,
46137,0,USSouthDakotaZiebach,South Dakota,Ziebach,2022-04-28 09:13:11,2020-08-08,2.596068919501758,3.3450772638985597,4.433543930758623,,,,,,,,,,,,
46137,0,USSouthDakotaZiebach,South Dakota,Ziebach,2022-04-28 09:13:11,2020-08-09,2.596068919501758,3.3450772638985597,4.433543930758623,,,,,,,,,,,,
46137,0,USSouthDakotaZiebach,South Dakota,Ziebach,2022-04-28 09:13:11,2020-08-10,2.596068919501758,3.3450772638985597,4.433543930758623,,,,,,,,,,,,
46137,0,USSouthDakotaZiebach,South Dakota,Ziebach,2022-04-28 09:13:11,2020-08-11,2.596068919501758,3.3450772638985597,4.433543930758623,,,,,,,,,,,,
46137,0,USSouthDakotaZiebach,South Dakota,Ziebach,2022-04-28 09:13:11,2020-08-12,2.596068919501758,3.3450772638985597,4.433543930758623,,,,,,,,,,,,
46137,0,USSouthDakotaZiebach,South Dakota,Ziebach,2022-04-28 09:13:11,2020-08-13,0,0,0,,,,,,,,,,,,
46137,0,USSouthDakotaZiebach,South Dakota,Ziebach,2022-04-28 09:13:11,2020-08-14,0,0,0,,,,,,,,,,,,
46137,0,USSouthDakotaZiebach,South Dakota,Ziebach,2022-04-28 09:13:11,2020-08-15,0,0,0,,,,,,,,,,,,
46137,0,USSouthDakotaZiebach,South Dakota,Ziebach,2022-04-28 09:13:11,2020-08-16,0,0,0,,,,,,,,,,,,
46137,0,USSouthDakotaZiebach,South Dakota,Ziebach,2022-04-28 09:13:11,2020-08-17,0,0,0,,,,,,,,,,,,
46137,0,USSouthDakotaZiebach,South Dakota,Ziebach,2022-04-28 09:13:11,2020-08-18,0,0,0,,,,,,,,,,,,
46137,0,USSouthDakotaZiebach,South Dakota,Ziebach,2022-04-28 09:13:11,2020-08-19,0,0,0,,,,,,,,,,,,
46137,0,USSouthDakotaZiebach,South Dakota,Ziebach,2022-04-28 09:13:11,2020-08-20,1.4416389794921662,2.3763625530629464,4.149167603957336,,,,,,,,,,,,
46137,0,USSouthDakotaZiebach,South Dakota,Ziebach,2022-04-28 09:13:11,2020-08-21,1.4416389794921662,2.3763625530629464,4.149167603957336,,,,,,,,,,,,
46137,0,USSouthDakotaZiebach,South Dakota,Ziebach,2022-04-28 09:13:11,2020-08-22,1.4416389794921662,2.3763625530629464,4.149167603957336,,,,,,,,,,,,
46137,0,USSouthDakotaZiebach,South Dakota,Ziebach,2022-04-28 09:13:11,2020-08-23,1.4416389794921662,2.3763625530629464,4.149167603957336,,,,,,,,,,,,
46137,0,USSouthDakotaZiebach,South Dakota,Ziebach,2022-04-28 09:13:11,2020-08-24,1.4416389794921662,2.3763625530629464,4.149167603957336,,,,,,,,,,,,
46137,0,USSouthDakotaZiebach,South Dakota,Ziebach,2022-04-28 09:13:11,2020-08-25,1.4416389794921662,2.3763625530629464,4.149167603957336,,,,,,,,,,,,
46137,0,USSouthDakotaZiebach,South Dakota,Ziebach,2022-04-28 09:13:11,2020-08-26,1.4416389794921662,2.3763625530629464,4.149167603957336,,,,,,,,,,,,
46137,0,USSouthDakotaZiebach,South Dakota,Ziebach,2022-04-28 09:13:11,2020-08-27,0.7208690501893613,1.5878479122587101,3.7603880978818083,,,,,,,,,,,,
46137,0,USSouthDakotaZiebach,South Dakota,Ziebach,2022-04-28 09:13:11,2020-08-28,0.7208690501893613,1.5878479122587101,3.7603880978818083,,,,,,,,,,,,
46137,0,USSouthDakotaZiebach,South Dakota,Ziebach,2022-04-28 09:13:11,2020-08-29,0.7208690501893613,1.5878479122587101,3.7603880978818083,,,,,,,,,,,,
46137,0,USSouthDakotaZiebach,South Dakota,Ziebach,2022-04-28 09:13:11,2020-08-30,0.7208690501893613,1.5878479122587101,3.7603880978818083,,,,,,,,,,,,
46137,0,USSouthDakotaZiebach,South Dakota,Ziebach,2022-04-28 09:13:11,2020-08-31,0.7208690501893613,1.5878479122587101,3.7603880978818083,,,,,,,,,,,,
46137,0,USSouthDakotaZiebach,South Dakota,Ziebach,2022-04-28 09:13:11,2020-09-01,0.7208690501893613,1.5878479122587101,3.7603880978818083,,,,,,,,,,,,
46137,0,USSouthDakotaZiebach,South Dakota,Ziebach,2022-04-28 09:13:11,2020-09-02,0.7208690501893613,1.5878479122587101,3.7603880978818083,,,,,,,,,,,,
46137,0,USSouthDakotaZiebach,South Dakota,Ziebach,2022-04-28 09:13:11,2020-09-03,0.7928914148730731,1.5559820980031165,3.271381614574451,,,,,,,,,,,,
46137,0,USSouthDakotaZiebach,South Dakota,Ziebach,2022-04-28 09:13:11,2020-09-04,0.7928914148730731,1.5559820980031165,3.271381614574451,,,,,,,,,,,,
46137,0,USSouthDakotaZiebach,South Dakota,Ziebach,2022-04-28 09:13:11,2020-09-05,0.7928914148730731,1.5559820980031165,3.271381614574451,,,,,,,,,,,,
46137,0,USSouthDakotaZiebach,South Dakota,Ziebach,2022-04-28 09:13:11,2020-09-06,0.7928914148730731,1.5559820980031165,3.271381614574451,,,,,,,,,,,,
46137,0,USSouthDakotaZiebach,South Dakota,Ziebach,2022-04-28 09:13:11,2020-09-07,0.7928914148730731,1.5559820980031165,3.271381614574451,,,,,,,,,,,,
46137,0,USSouthDakotaZiebach,South Dakota,Ziebach,2022-04-28 09:13:11,2020-09-08,0.7928914148730731,1.5559820980031165,3.271381614574451,,,,,,,,,,,,
46137,0,USSouthDakotaZiebach,South Dakota,Ziebach,2022-04-28 09:13:11,2020-09-09,0.7928914148730731,1.5559820980031165,3.271381614574451,,,,,,,,,,,,
46137,0,USSouthDakotaZiebach,South Dakota,Ziebach,2022-04-28 09:13:11,2020-09-10,0.6609496509602169,1.3463827923101688,2.942649339584926,,,,,,,,,,,,
46137,0,USSouthDakotaZiebach,South Dakota,Ziebach,2022-04-28 09:13:11,2020-09-11,0.6609496509602169,1.3463827923101688,2.942649339584926,,,,,,,,,,,,
46137,0,USSouthDakotaZiebach,South Dakota,Ziebach,2022-04-28 09:13:11,2020-09-12,0.6609496509602169,1.3463827923101688,2.942649339584926,,,,,,,,,,,,
46137,0,USSouthDakotaZiebach,South Dakota,Ziebach,2022-04-28 09:13:11,2020-09-13,0.6609496509602169,1.3463827923101688,2.942649339584926,,,,,,,,,,,,
46137,0,USSouthDakotaZiebach,South Dakota,Ziebach,2022-04-28 09:13:11,2020-09-14,0.6609496509602169,1.3463827923101688,2.942649339584926,,,,,,,,,,,,
46137,0,USSouthDakotaZiebach,South Dakota,Ziebach,2022-04-28 09:13:11,2020-09-15,0.6609496509602169,1.3463827923101688,2.942649339584926,,,,,,,,,,,,
46137,0,USSouthDakotaZiebach,South Dakota,Ziebach,2022-04-28 09:13:11,2020-09-16,0.6609496509602169,1.3463827923101688,2.942649339584926,,,,,,,,,,,,
46137,0,USSouthDakotaZiebach,South Dakota,Ziebach,2022-04-28 09:13:11,2020-09-17,0.2366884931471736,0.6624611185284541,1.992818022710013,,,,,,,,,,,,
46137,0,USSouthDakotaZiebach,South Dakota,Ziebach,2022-04-28 09:13:11,2020-09-18,0.2366884931471736,0.6624611185284541,1.992818022710013,,,,,,,,,,,,
46137,0,USSouthDakotaZiebach,South Dakota,Ziebach,2022-04-28 09:13:11,2020-09-19,0.2366884931471736,0.6624611185284541,1.992818022710013,,,,,,,,,,,,
46137,0,USSouthDakotaZiebach,South Dakota,Ziebach,2022-04-28 09:13:11,2020-09-20,0.2366884931471736,0.6624611185284541,1.992818022710013,,,,,,,,,,,,
46137,0,USSouthDakotaZiebach,South Dakota,Ziebach,2022-04-28 09:13:11,2020-09-21,0.2366884931471736,0.6624611185284541,1.992818022710013,,,,,,,,,,,,
46137,0,USSouthDakotaZiebach,South Dakota,Ziebach,2022-04-28 09:13:11,2020-09-22,0.2366884931471736,0.6624611185284541,1.992818022710013,,,,,,,,,,,,
46137,0,USSouthDakotaZiebach,South Dakota,Ziebach,2022-04-28 09:13:11,2020-09-23,0.2366884931471736,0.6624611185284541,1.992818022710013,,,,,,,,,,,,
46137,0,USSouthDakotaZiebach,South Dakota,Ziebach,2022-04-28 09:13:11,2020-09-24,0.5732820138943339,1.3305693432610703,3.322673166109544,,,,,,,,,,,,
46137,0,USSouthDakotaZiebach,South Dakota,Ziebach,2022-04-28 09:13:11,2020-09-25,0.5732820138943339,1.3305693432610703,3.322673166109544,,,,,,,,,,,,
46137,0,USSouthDakotaZiebach,South Dakota,Ziebach,2022-04-28 09:13:11,2020-09-26,0.5732820138943339,1.3305693432610703,3.322673166109544,,,,,,,,,,,,
46137,0,USSouthDakotaZiebach,South Dakota,Ziebach,2022-04-28 09:13:11,2020-09-27,0.5732820138943339,1.3305693432610703,3.322673166109544,,,,,,,,,,,,
46137,0,USSouthDakotaZiebach,South Dakota,Ziebach,2022-04-28 09:13:11,2020-09-28,0.5732820138943339,1.3305693432610703,3.322673166109544,,,,,,,,,,,,
46137,0,USSouthDakotaZiebach,South Dakota,Ziebach,2022-04-28 09:13:11,2020-09-29,0.5732820138943339,1.3305693432610703,3.322673166109544,,,,,,,,,,,,
46137,0,USSouthDakotaZiebach,South Dakota,Ziebach,2022-04-28 09:13:11,2020-09-30,0.5732820138943339,1.3305693432610703,3.322673166109544,,,,,,,,,,,,
46137,0,USSouthDakotaZiebach,South Dakota,Ziebach,2022-04-28 09:13:11,2020-10-01,0.953001762624572,1.8729225528654039,3.9437478481753065,,,,,,,,,,,,
46137,0,USSouthDakotaZiebach,South Dakota,Ziebach,2022-04-28 09:13:11,2020-10-02,0.953001762624572,1.8729225528654039,3.9437478481753065,,,,,,,,,,,,
46137,0,USSouthDakotaZiebach,South Dakota,Ziebach,2022-04-28 09:13:11,2020-10-03,0.953001762624572,1.8729225528654039,3.9437478481753065,,,,,,,,,,,,
46137,0,USSouthDakotaZiebach,South Dakota,Ziebach,2022-04-28 09:13:11,2020-10-04,0.953001762624572,1.8729225528654039,3.9437478481753065,,,,,,,,,,,,
46137,0,USSouthDakotaZiebach,South Dakota,Ziebach,2022-04-28 09:13:11,2020-10-05,0.953001762624572,1.8729225528654039,3.9437478481753065,,,,,,,,,,,,
46137,0,USSouthDakotaZiebach,South Dakota,Ziebach,2022-04-28 09:13:11,2020-10-06,0.953001762624572,1.8729225528654039,3.9437478481753065,,,,,,,,,,,,
46137,0,USSouthDakotaZiebach,South Dakota,Ziebach,2022-04-28 09:13:11,2020-10-07,0.953001762624572,1.8729225528654039,3.9437478481753065,,,,,,,,,,,,
46137,0,USSouthDakotaZiebach,South Dakota,Ziebach,2022-04-28 09:13:11,2020-10-08,0.7353954005012473,1.6490254239358138,3.9768175581858287,,,,,,,,,,,,
46137,0,USSouthDakotaZiebach,South Dakota,Ziebach,2022-04-28 09:13:11,2020-10-09,0.7353954005012473,1.6490254239358138,3.9768175581858287,,,,,,,,,,,,
46137,0,USSouthDakotaZiebach,South Dakota,Ziebach,2022-04-28 09:13:11,2020-10-10,0.7353954005012473,1.6490254239358138,3.9768175581858287,,,,,,,,,,,,
46137,0,USSouthDakotaZiebach,South Dakota,Ziebach,2022-04-28 09:13:11,2020-10-11,0.7353954005012473,1.6490254239358138,3.9768175581858287,,,,,,,,,,,,
46137,0,USSouthDakotaZiebach,South Dakota,Ziebach,2022-04-28 09:13:11,2020-10-12,0.7353954005012473,1.6490254239358138,3.9768175581858287,,,,,,,,,,,,
46137,0,USSouthDakotaZiebach,South Dakota,Ziebach,2022-04-28 09:13:11,2020-10-13,0.7353954005012473,1.6490254239358138,3.9768175581858287,,,,,,,,,,,,
46137,0,USSouthDakotaZiebach,South Dakota,Ziebach,2022-04-28 09:13:11,2020-10-14,0.7353954005012473,1.6490254239358138,3.9768175581858287,,,,,,,,,,,,
46137,0,USSouthDakotaZiebach,South Dakota,Ziebach,2022-04-28 09:13:11,2020-10-15,1.2956621018759902,2.59179416129575,5.558884188594076,,,,,,,,,,,,
46137,0,USSouthDakotaZiebach,South Dakota,Ziebach,2022-04-28 09:13:11,2020-10-16,1.2956621018759902,2.59179416129575,5.558884188594076,,,,,,,,,,,,
46137,0,USSouthDakotaZiebach,South Dakota,Ziebach,2022-04-28 09:13:11,2020-10-17,1.2956621018759902,2.59179416129575,5.558884188594076,,,,,,,,,,,,
46137,0,USSouthDakotaZiebach,South Dakota,Ziebach,2022-04-28 09:13:11,2020-10-18,1.2956621018759902,2.59179416129575,5.558884188594076,,,,,,,,,,,,
46137,0,USSouthDakotaZiebach,South Dakota,Ziebach,2022-04-28 09:13:11,2020-10-19,1.2956621018759902,2.59179416129575,5.558884188594076,,,,,,,,,,,,
46137,0,USSouthDakotaZiebach,South Dakota,Ziebach,2022-04-28 09:13:11,2020-10-20,1.2956621018759902,2.59179416129575,5.558884188594076,,,,,,,,,,,,
46137,0,USSouthDakotaZiebach,South Dakota,Ziebach,2022-04-28 09:13:11,2020-10-21,1.2956621018759902,2.59179416129575,5.558884188594076,,,,,,,,,,,,
46137,0,USSouthDakotaZiebach,South Dakota,Ziebach,2022-04-28 09:13:11,2020-10-22,1.8028885768283014,3.6456048234440375,7.907256363094713,,,,,,,,,,,,
46137,0,USSouthDakotaZiebach,South Dakota,Ziebach,2022-04-28 09:13:11,2020-10-23,1.8028885768283014,3.6456048234440375,7.907256363094713,,,,,,,,,,,,
46137,0,USSouthDakotaZiebach,South Dakota,Ziebach,2022-04-28 09:13:11,2020-10-24,1.8028885768283014,3.6456048234440375,7.907256363094713,,,,,,,,,,,,
46137,0,USSouthDakotaZiebach,South Dakota,Ziebach,2022-04-28 09:13:11,2020-10-25,1.8028885768283014,3.6456048234440375,7.907256363094713,,,,,,,,,,,,
46137,0,USSouthDakotaZiebach,South Dakota,Ziebach,2022-04-28 09:13:11,2020-10-26,1.8028885768283014,3.6456048234440375,7.907256363094713,,,,,,,,,,,,
46137,0,USSouthDakotaZiebach,South Dakota,Ziebach,2022-04-28 09:13:11,2020-10-27,1.8028885768283014,3.6456048234440375,7.907256363094713,,,,,,,,,,,,
46137,0,USSouthDakotaZiebach,South Dakota,Ziebach,2022-04-28 09:13:11,2020-10-28,1.8028885768283014,3.6456048234440375,7.907256363094713,,,,,,,,,,,,
46137,0,USSouthDakotaZiebach,South Dakota,Ziebach,2022-04-28 09:13:11,2020-10-29,3.2261473995849,5.659756454561828,10.569716772749306,,,,,,,,,,,,
46137,0,USSouthDakotaZiebach,South Dakota,Ziebach,2022-04-28 09:13:11,2020-10-30,3.2261473995849,5.659756454561828,10.569716772749306,,,,,,,,,,,,
46137,0,USSouthDakotaZiebach,South Dakota,Ziebach,2022-04-28 09:13:11,2020-10-31,3.2261473995849,5.659756454561828,10.569716772749306,,,,,,,,,,,,
46137,0,USSouthDakotaZiebach,South Dakota,Ziebach,2022-04-28 09:13:11,2020-11-01,3.2261473995849,5.659756454561828,10.569716772749306,,,,,,,,,,,,
46137,0,USSouthDakotaZiebach,South Dakota,Ziebach,2022-04-28 09:13:11,2020-11-02,3.2261473995849,5.659756454561828,10.569716772749306,,,,,,,,,,,,
46137,0,USSouthDakotaZiebach,South Dakota,Ziebach,2022-04-28 09:13:11,2020-11-03,3.2261473995849,5.659756454561828,10.569716772749306,,,,,,,,,,,,
46137,0,USSouthDakotaZiebach,South Dakota,Ziebach,2022-04-28 09:13:11,2020-11-04,3.2261473995849,5.659756454561828,10.569716772749306,,,,,,,,,,,,
46137,0,USSouthDakotaZiebach,South Dakota,Ziebach,2022-04-28 09:13:11,2020-11-05,2.9357780941836378,5.369227166823866,10.482059387271585,,,,,,,,,,,,
46137,0,USSouthDakotaZiebach,South Dakota,Ziebach,2022-04-28 09:13:11,2020-11-06,2.9357780941836378,5.369227166823866,10.482059387271585,,,,,,,,,,,,
46137,0,USSouthDakotaZiebach,South Dakota,Ziebach,2022-04-28 09:13:11,2020-11-07,2.9357780941836378,5.369227166823866,10.482059387271585,,,,,,,,,,,,
46137,0,USSouthDakotaZiebach,South Dakota,Ziebach,2022-04-28 09:13:11,2020-11-08,2.9357780941836378,5.369227166823866,10.482059387271585,,,,,,,,,,,,
46137,0,USSouthDakotaZiebach,South Dakota,Ziebach,2022-04-28 09:13:11,2020-11-09,2.9357780941836378,5.369227166823866,10.482059387271585,,,,,,,,,,,,
46137,0,USSouthDakotaZiebach,South Dakota,Ziebach,2022-04-28 09:13:11,2020-11-10,2.9357780941836378,5.369227166823866,10.482059387271585,,,,,,,,,,,,
46137,0,USSouthDakotaZiebach,South Dakota,Ziebach,2022-04-28 09:13:11,2020-11-11,2.9357780941836378,5.369227166823866,10.482059387271585,,,,,,,,,,,,
46137,0,USSouthDakotaZiebach,South Dakota,Ziebach,2022-04-28 09:13:11,2020-11-12,2.871060593825662,5.391889907786875,10.825452220427536,,,,,,,,,,,,
46137,0,USSouthDakotaZiebach,South Dakota,Ziebach,2022-04-28 09:13:11,2020-11-13,2.871060593825662,5.391889907786875,10.825452220427536,,,,,,,,,,,,
46137,0,USSouthDakotaZiebach,South Dakota,Ziebach,2022-04-28 09:13:11,2020-11-14,2.871060593825662,5.391889907786875,10.825452220427536,,,,,,,,,,,,
46137,0,USSouthDakotaZiebach,South Dakota,Ziebach,2022-04-28 09:13:11,2020-11-15,2.871060593825662,5.391889907786875,10.825452220427536,,,,,,,,,,,,
46137,0,USSouthDakotaZiebach,South Dakota,Ziebach,2022-04-28 09:13:11,2020-11-16,2.871060593825662,5.391889907786875,10.825452220427536,,,,,,,,,,,,
46137,0,USSouthDakotaZiebach,South Dakota,Ziebach,2022-04-28 09:13:11,2020-11-17,2.871060593825662,5.391889907786875,10.825452220427536,,,,,,,,,,,,
46137,0,USSouthDakotaZiebach,South Dakota,Ziebach,2022-04-28 09:13:11,2020-11-18,2.871060593825662,5.391889907786875,10.825452220427536,,,,,,,,,,,,
46137,0,USSouthDakotaZiebach,South Dakota,Ziebach,2022-04-28 09:13:11,2020-11-19,2.5893010806216097,4.648710474645451,8.898600971904608,,,,,,,,,,,,
46137,0,USSouthDakotaZiebach,South Dakota,Ziebach,2022-04-28 09:13:11,2020-11-20,2.5893010806216097,4.648710474645451,8.898600971904608,,,,,,,,,,,,
46137,0,USSouthDakotaZiebach,South Dakota,Ziebach,2022-04-28 09:13:11,2020-11-21,2.5893010806216097,4.648710474645451,8.898600971904608,,,,,,,,,,,,
46137,0,USSouthDakotaZiebach,South Dakota,Ziebach,2022-04-28 09:13:11,2020-11-22,2.5893010806216097,4.648710474645451,8.898600971904608,,,,,,,,,,,,
46137,0,USSouthDakotaZiebach,South Dakota,Ziebach,2022-04-28 09:13:11,2020-11-23,2.5893010806216097,4.648710474645451,8.898600971904608,,,,,,,,,,,,
46137,0,USSouthDakotaZiebach,South Dakota,Ziebach,2022-04-28 09:13:11,2020-11-24,2.5893010806216097,4.648710474645451,8.898600971904608,,,,,,,,,,,,
46137,0,USSouthDakotaZiebach,South Dakota,Ziebach,2022-04-28 09:13:11,2020-11-25,2.5893010806216097,4.648710474645451,8.898600971904608,,,,,,,,,,,,
46137,0,USSouthDakotaZiebach,South Dakota,Ziebach,2022-04-28 09:13:11,2020-11-26,4.6386477998496565,7.164081556174824,11.645997749238735,,,,,,,,,,,,
46137,0,USSouthDakotaZiebach,South Dakota,Ziebach,2022-04-28 09:13:11,2020-11-27,4.6386477998496565,7.164081556174824,11.645997749238735,,,,,,,,,,,,
46137,0,USSouthDakotaZiebach,South Dakota,Ziebach,2022-04-28 09:13:11,2020-11-28,4.6386477998496565,7.164081556174824,11.645997749238735,,,,,,,,,,,,
46137,0,USSouthDakotaZiebach,South Dakota,Ziebach,2022-04-28 09:13:11,2020-11-29,4.6386477998496565,7.164081556174824,11.645997749238735,,,,,,,,,,,,
46137,0,USSouthDakotaZiebach,South Dakota,Ziebach,2022-04-28 09:13:11,2020-11-30,4.6386477998496565,7.164081556174824,11.645997749238735,,,,,,,,,,,,
46137,0,USSouthDakotaZiebach,South Dakota,Ziebach,2022-04-28 09:13:11,2020-12-01,4.6386477998496565,7.164081556174824,11.645997749238735,,,,,,,,,,,,
46137,0,USSouthDakotaZiebach,South Dakota,Ziebach,2022-04-28 09:13:11,2020-12-02,4.6386477998496565,7.164081556174824,11.645997749238735,,,,,,,,,,,,
46137,0,USSouthDakotaZiebach,South Dakota,Ziebach,2022-04-28 09:13:11,2020-12-03,5.575771887494952,8.389542702891761,13.248916698409316,,,,,,,,,,,,
46137,0,USSouthDakotaZiebach,South Dakota,Ziebach,2022-04-28 09:13:11,2020-12-04,5.575771887494952,8.389542702891761,13.248916698409316,,,,,,,,,,,,
46137,0,USSouthDakotaZiebach,South Dakota,Ziebach,2022-04-28 09:13:11,2020-12-05,5.575771887494952,8.389542702891761,13.248916698409316,,,,,,,,,,,,
46137,0,USSouthDakotaZiebach,South Dakota,Ziebach,2022-04-28 09:13:11,2020-12-06,5.575771887494952,8.389542702891761,13.248916698409316,,,,,,,,,,,,
46137,0,USSouthDakotaZiebach,South Dakota,Ziebach,2022-04-28 09:13:11,2020-12-07,5.575771887494952,8.389542702891761,13.248916698409316,,,,,,,,,,,,
46137,0,USSouthDakotaZiebach,South Dakota,Ziebach,2022-04-28 09:13:11,2020-12-08,5.575771887494952,8.389542702891761,13.248916698409316,,,,,,,,,,,,
46137,0,USSouthDakotaZiebach,South Dakota,Ziebach,2022-04-28 09:13:11,2020-12-09,5.575771887494952,8.389542702891761,13.248916698409316,,,,,,,,,,,,
46137,0,USSouthDakotaZiebach,South Dakota,Ziebach,2022-04-28 09:13:11,2020-12-10,3.0768693795560518,5.383420316953632,10.024804688898277,,,,,,,,,,,,
46137,0,USSouthDakotaZiebach,South Dakota,Ziebach,2022-04-28 09:13:11,2020-12-11,3.0768693795560518,5.383420316953632,10.024804688898277,,,,,,,,,,,,
46137,0,USSouthDakotaZiebach,South Dakota,Ziebach,2022-04-28 09:13:11,2020-12-12,3.0768693795560518,5.383420316953632,10.024804688898277,,,,,,,,,,,,
46137,0,USSouthDakotaZiebach,South Dakota,Ziebach,2022-04-28 09:13:11,2020-12-13,3.0768693795560518,5.383420316953632,10.024804688898277,,,,,,,,,,,,
46137,0,USSouthDakotaZiebach,South Dakota,Ziebach,2022-04-28 09:13:11,2020-12-14,3.0768693795560518,5.383420316953632,10.024804688898277,,,,,,,,,,,,
46137,0,USSouthDakotaZiebach,South Dakota,Ziebach,2022-04-28 09:13:11,2020-12-15,3.0768693795560518,5.383420316953632,10.024804688898277,,,,,,,,,,,,
46137,0,USSouthDakotaZiebach,South Dakota,Ziebach,2022-04-28 09:13:11,2020-12-16,3.0768693795560518,5.383420316953632,10.024804688898277,,,,,,,,,,,,
46137,0,USSouthDakotaZiebach,South Dakota,Ziebach,2022-04-28 09:13:11,2020-12-17,0.9087844824927395,2.017075471723271,4.814083626753159,,,,,,,,,,,,
46137,0,USSouthDakotaZiebach,South Dakota,Ziebach,2022-04-28 09:13:11,2020-12-18,0.9087844824927395,2.017075471723271,4.814083626753159,,,,,,,,,,,,
46137,0,USSouthDakotaZiebach,South Dakota,Ziebach,2022-04-28 09:13:11,2020-12-19,0.9087844824927395,2.017075471723271,4.814083626753159,,,,,,,,,,,,
46137,0,USSouthDakotaZiebach,South Dakota,Ziebach,2022-04-28 09:13:11,2020-12-20,0.9087844824927395,2.017075471723271,4.814083626753159,,,,,,,,,,,,
46137,0,USSouthDakotaZiebach,South Dakota,Ziebach,2022-04-28 09:13:11,2020-12-21,0.9087844824927395,2.017075471723271,4.814083626753159,,,,,,,,,,,,
46137,0,USSouthDakotaZiebach,South Dakota,Ziebach,2022-04-28 09:13:11,2020-12-22,0.9087844824927395,2.017075471723271,4.814083626753159,,,,,,,,,,,,
46137,0,USSouthDakotaZiebach,South Dakota,Ziebach,2022-04-28 09:13:11,2020-12-23,0.9087844824927395,2.017075471723271,4.814083626753159,,,,,,,,,,,,
46137,0,USSouthDakotaZiebach,South Dakota,Ziebach,2022-04-28 09:13:11,2020-12-24,1.3619475262328131,2.850211900998763,6.405275946211489,,,,,,,,,,,,
46137,0,USSouthDakotaZiebach,South Dakota,Ziebach,2022-04-28 09:13:11,2020-12-25,1.3619475262328131,2.850211900998763,6.405275946211489,,,,,,,,,,,,
46137,0,USSouthDakotaZiebach,South Dakota,Ziebach,2022-04-28 09:13:11,2020-12-26,1.3619475262328131,2.850211900998763,6.405275946211489,,,,,,,,,,,,
46137,0,USSouthDakotaZiebach,South Dakota,Ziebach,2022-04-28 09:13:11,2020-12-27,1.3619475262328131,2.850211900998763,6.405275946211489,,,,,,,,,,,,
46137,0,USSouthDakotaZiebach,South Dakota,Ziebach,2022-04-28 09:13:11,2020-12-28,1.3619475262328131,2.850211900998763,6.405275946211489,,,,,,,,,,,,
46137,0,USSouthDakotaZiebach,South Dakota,Ziebach,2022-04-28 09:13:11,2020-12-29,1.3619475262328131,2.850211900998763,6.405275946211489,,,,,,,,,,,,
46137,0,USSouthDakotaZiebach,South Dakota,Ziebach,2022-04-28 09:13:11,2020-12-30,1.3619475262328131,2.850211900998763,6.405275946211489,,,,,,,,,,,,
46137,0,USSouthDakotaZiebach,South Dakota,Ziebach,2022-04-28 09:13:11,2020-12-31,1.8610603972595299,3.5789502893653484,7.366880093181995,,,,,,,,,,,,
46137,0,USSouthDakotaZiebach,South Dakota,Ziebach,2022-04-28 09:13:11,2021-01-01,1.8610603972595299,3.5789502893653484,7.366880093181995,,,,,,,,,,,,
46137,0,USSouthDakotaZiebach,South Dakota,Ziebach,2022-04-28 09:13:11,2021-01-02,1.8610603972595299,3.5789502893653484,7.366880093181995,,,,,,,,,,,,
46137,0,USSouthDakotaZiebach,South Dakota,Ziebach,2022-04-28 09:13:11,2021-01-03,1.8610603972595299,3.5789502893653484,7.366880093181995,,,,,,,,,,,,
46137,0,USSouthDakotaZiebach,South Dakota,Ziebach,2022-04-28 09:13:11,2021-01-04,1.8610603972595299,3.5789502893653484,7.366880093181995,,,,,,,,,,,,
46137,0,USSouthDakotaZiebach,South Dakota,Ziebach,2022-04-28 09:13:11,2021-01-05,1.8610603972595299,3.5789502893653484,7.366880093181995,,,,,,,,,,,,
46137,0,USSouthDakotaZiebach,South Dakota,Ziebach,2022-04-28 09:13:11,2021-01-06,1.8610603972595299,3.5789502893653484,7.366880093181995,,,,,,,,,,,,
46137,0,USSouthDakotaZiebach,South Dakota,Ziebach,2022-04-28 09:13:11,2021-01-07,3.001648661725896,4.740049945020653,7.89670198179314,,,,,,,,,,,,
46137,0,USSouthDakotaZiebach,South Dakota,Ziebach,2022-04-28 09:13:11,2021-01-08,3.001648661725896,4.740049945020653,7.89670198179314,,,,,,,,,,,,
46137,0,USSouthDakotaZiebach,South Dakota,Ziebach,2022-04-28 09:13:11,2021-01-09,3.001648661725896,4.740049945020653,7.89670198179314,,,,,,,,,,,,
46137,0,USSouthDakotaZiebach,South Dakota,Ziebach,2022-04-28 09:13:11,2021-01-10,3.001648661725896,4.740049945020653,7.89670198179314,,,,,,,,,,,,
46137,0,USSouthDakotaZiebach,South Dakota,Ziebach,2022-04-28 09:13:11,2021-01-11,3.001648661725896,4.740049945020653,7.89670198179314,,,,,,,,,,,,
46137,0,USSouthDakotaZiebach,South Dakota,Ziebach,2022-04-28 09:13:11,2021-01-12,3.001648661725896,4.740049945020653,7.89670198179314,,,,,,,,,,,,
46137,0,USSouthDakotaZiebach,South Dakota,Ziebach,2022-04-28 09:13:11,2021-01-13,3.001648661725896,4.740049945020653,7.89670198179314,,,,,,,,,,,,
46137,0,USSouthDakotaZiebach,South Dakota,Ziebach,2022-04-28 09:13:11,2021-01-14,1.2419621063530097,2.3905816362299133,4.9255054166688534,,,,,,,,,,,,
46137,0,USSouthDakotaZiebach,South Dakota,Ziebach,2022-04-28 09:13:11,2021-01-15,1.2419621063530097,2.3905816362299133,4.9255054166688534,,,,,,,,,,,,
46137,0,USSouthDakotaZiebach,South Dakota,Ziebach,2022-04-28 09:13:11,2021-01-16,1.2419621063530097,2.3905816362299133,4.9255054166688534,,,,,,,,,,,,
46137,0,USSouthDakotaZiebach,South Dakota,Ziebach,2022-04-28 09:13:11,2021-01-17,1.2419621063530097,2.3905816362299133,4.9255054166688534,,,,,,,,,,,,
46137,0,USSouthDakotaZiebach,South Dakota,Ziebach,2022-04-28 09:13:11,2021-01-18,1.2419621063530097,2.3905816362299133,4.9255054166688534,,,,,,,,,,,,
46137,0,USSouthDakotaZiebach,South Dakota,Ziebach,2022-04-28 09:13:11,2021-01-19,1.2419621063530097,2.3905816362299133,4.9255054166688534,,,,,,,,,,,,
46137,0,USSouthDakotaZiebach,South Dakota,Ziebach,2022-04-28 09:13:11,2021-01-20,1.2419621063530097,2.3905816362299133,4.9255054166688534,,,,,,,,,,,,
46137,0,USSouthDakotaZiebach,South Dakota,Ziebach,2022-04-28 09:13:11,2021-01-21,0.4198655217999699,1.0588491652693048,2.8734853161297447,,,,,,,,,,,,
46137,0,USSouthDakotaZiebach,South Dakota,Ziebach,2022-04-28 09:13:11,2021-01-22,0.4198655217999699,1.0588491652693048,2.8734853161297447,,,,,,,,,,,,
46137,0,USSouthDakotaZiebach,South Dakota,Ziebach,2022-04-28 09:13:11,2021-01-23,0.4198655217999699,1.0588491652693048,2.8734853161297447,,,,,,,,,,,,
46137,0,USSouthDakotaZiebach,South Dakota,Ziebach,2022-04-28 09:13:11,2021-01-24,0.4198655217999699,1.0588491652693048,2.8734853161297447,,,,,,,,,,,,
46137,0,USSouthDakotaZiebach,South Dakota,Ziebach,2022-04-28 09:13:11,2021-01-25,0.4198655217999699,1.0588491652693048,2.8734853161297447,,,,,,,,,,,,
46137,0,USSouthDakotaZiebach,South Dakota,Ziebach,2022-04-28 09:13:11,2021-01-26,0.4198655217999699,1.0588491652693048,2.8734853161297447,,,,,,,,,,,,
46137,0,USSouthDakotaZiebach,South Dakota,Ziebach,2022-04-28 09:13:11,2021-01-27,0.4198655217999699,1.0588491652693048,2.8734853161297447,,,,,,,,,,,,
46137,0,USSouthDakotaZiebach,South Dakota,Ziebach,2022-04-28 09:13:11,2021-01-28,0.23305403070721614,0.643648873090905,1.9110232102173528,,,,,,,,,,,,
46137,0,USSouthDakotaZiebach,South Dakota,Ziebach,2022-04-28 09:13:11,2021-01-29,0.23305403070721614,0.643648873090905,1.9110232102173528,,,,,,,,,,,,
46137,0,USSouthDakotaZiebach,South Dakota,Ziebach,2022-04-28 09:13:11,2021-01-30,0.23305403070721614,0.643648873090905,1.9110232102173528,,,,,,,,,,,,
46137,0,USSouthDakotaZiebach,South Dakota,Ziebach,2022-04-28 09:13:11,2021-01-31,0.23305403070721614,0.643648873090905,1.9110232102173528,,,,,,,,,,,,
46137,0,USSouthDakotaZiebach,South Dakota,Ziebach,2022-04-28 09:13:11,2021-02-01,0.23305403070721614,0.643648873090905,1.9110232102173528,,,,,,,,,,,,
46137,0,USSouthDakotaZiebach,South Dakota,Ziebach,2022-04-28 09:13:11,2021-02-02,0.23305403070721614,0.643648873090905,1.9110232102173528,,,,,,,,,,,,
46137,0,USSouthDakotaZiebach,South Dakota,Ziebach,2022-04-28 09:13:11,2021-02-03,0.23305403070721614,0.643648873090905,1.9110232102173528,,,,,,,,,,,,
46137,0,USSouthDakotaZiebach,South Dakota,Ziebach,2022-04-28 09:13:11,2021-02-04,0.3863292630191467,0.905283547680277,2.282579471590918,,,,,,,,,,,,
46137,0,USSouthDakotaZiebach,South Dakota,Ziebach,2022-04-28 09:13:11,2021-02-05,0.3863292630191467,0.905283547680277,2.282579471590918,,,,,,,,,,,,
46137,0,USSouthDakotaZiebach,South Dakota,Ziebach,2022-04-28 09:13:11,2021-02-06,0.3863292630191467,0.905283547680277,2.282579471590918,,,,,,,,,,,,
46137,0,USSouthDakotaZiebach,South Dakota,Ziebach,2022-04-28 09:13:11,2021-02-07,0.3863292630191467,0.905283547680277,2.282579471590918,,,,,,,,,,,,
46137,0,USSouthDakotaZiebach,South Dakota,Ziebach,2022-04-28 09:13:11,2021-02-08,0.3863292630191467,0.905283547680277,2.282579471590918,,,,,,,,,,,,
46137,0,USSouthDakotaZiebach,South Dakota,Ziebach,2022-04-28 09:13:11,2021-02-09,0.3863292630191467,0.905283547680277,2.282579471590918,,,,,,,,,,,,
46137,0,USSouthDakotaZiebach,South Dakota,Ziebach,2022-04-28 09:13:11,2021-02-10,0.3863292630191467,0.905283547680277,2.282579471590918,,,,,,,,,,,,
46137,0,USSouthDakotaZiebach,South Dakota,Ziebach,2022-04-28 09:13:11,2021-02-11,0,0,0,,,,,,,,,,,,
46137,0,USSouthDakotaZiebach,South Dakota,Ziebach,2022-04-28 09:13:11,2021-02-12,0,0,0,,,,,,,,,,,,
46137,0,USSouthDakotaZiebach,South Dakota,Ziebach,2022-04-28 09:13:11,2021-02-13,0,0,0,,,,,,,,,,,,
46137,0,USSouthDakotaZiebach,South Dakota,Ziebach,2022-04-28 09:13:11,2021-02-14,0,0,0,,,,,,,,,,,,
46137,0,USSouthDakotaZiebach,South Dakota,Ziebach,2022-04-28 09:13:11,2021-02-15,0,0,0,,,,,,,,,,,,
46137,0,USSouthDakotaZiebach,South Dakota,Ziebach,2022-04-28 09:13:11,2021-02-16,0,0,0,,,,,,,,,,,,
46137,0,USSouthDakotaZiebach,South Dakota,Ziebach,2022-04-28 09:13:11,2021-02-17,0,0,0,,,,,,,,,,,,
46137,0,USSouthDakotaZiebach,South Dakota,Ziebach,2022-04-28 09:13:11,2021-02-18,0.24246496633752884,0.6928308978070288,2.126943963821552,,,,,,,,,,,,
46137,0,USSouthDakotaZiebach,South Dakota,Ziebach,2022-04-28 09:13:11,2021-02-19,0.24246496633752884,0.6928308978070288,2.126943963821552,,,,,,,,,,,,
46137,0,USSouthDakotaZiebach,South Dakota,Ziebach,2022-04-28 09:13:11,2021-02-20,0.24246496633752884,0.6928308978070288,2.126943963821552,,,,,,,,,,,,
46137,0,USSouthDakotaZiebach,South Dakota,Ziebach,2022-04-28 09:13:11,2021-02-21,0.24246496633752884,0.6928308978070288,2.126943963821552,,,,,,,,,,,,
46137,0,USSouthDakotaZiebach,South Dakota,Ziebach,2022-04-28 09:13:11,2021-02-22,0.24246496633752884,0.6928308978070288,2.126943963821552,,,,,,,,,,,,
46137,0,USSouthDakotaZiebach,South Dakota,Ziebach,2022-04-28 09:13:11,2021-02-23,0.24246496633752884,0.6928308978070288,2.126943963821552,,,,,,,,,,,,
46137,0,USSouthDakotaZiebach,South Dakota,Ziebach,2022-04-28 09:13:11,2021-02-24,0.24246496633752884,0.6928308978070288,2.126943963821552,,,,,,,,,,,,
46137,0,USSouthDakotaZiebach,South Dakota,Ziebach,2022-04-28 09:13:11,2021-02-25,0.23461440272139958,0.6516973513974127,1.9458954379939177,,,,,,,,,,,,
46137,0,USSouthDakotaZiebach,South Dakota,Ziebach,2022-04-28 09:13:11,2021-02-26,0.23461440272139958,0.6516973513974127,1.9458954379939177,,,,,,,,,,,,
46137,0,USSouthDakotaZiebach,South Dakota,Ziebach,2022-04-28 09:13:11,2021-02-27,0.23461440272139958,0.6516973513974127,1.9458954379939177,,,,,,,,,,,,
46137,0,USSouthDakotaZiebach,South Dakota,Ziebach,2022-04-28 09:13:11,2021-02-28,0.23461440272139958,0.6516973513974127,1.9458954379939177,,,,,,,,,,,,
46137,0,USSouthDakotaZiebach,South Dakota,Ziebach,2022-04-28 09:13:11,2021-03-01,0.23461440272139958,0.6516973513974127,1.9458954379939177,,,,,,,,,,,,
46137,0,USSouthDakotaZiebach,South Dakota,Ziebach,2022-04-28 09:13:11,2021-03-02,0.23461440272139958,0.6516973513974127,1.9458954379939177,,,,,,,,,,,,
46137,0,USSouthDakotaZiebach,South Dakota,Ziebach,2022-04-28 09:13:11,2021-03-03,0.23461440272139958,0.6516973513974127,1.9458954379939177,,,,,,,,,,,,
46137,0,USSouthDakotaZiebach,South Dakota,Ziebach,2022-04-28 09:13:11,2021-03-04,0,0,0,,,,,,,,,,,,
46137,0,USSouthDakotaZiebach,South Dakota,Ziebach,2022-04-28 09:13:11,2021-03-05,0,0,0,,,,,,,,,,,,
46137,0,USSouthDakotaZiebach,South Dakota,Ziebach,2022-04-28 09:13:11,2021-03-06,0,0,0,,,,,,,,,,,,
46137,0,USSouthDakotaZiebach,South Dakota,Ziebach,2022-04-28 09:13:11,2021-03-07,0,0,0,,,,,,,,,,,,
46137,0,USSouthDakotaZiebach,South Dakota,Ziebach,2022-04-28 09:13:11,2021-03-08,0,0,0,,,,,,,,,,,,
46137,0,USSouthDakotaZiebach,South Dakota,Ziebach,2022-04-28 09:13:11,2021-03-09,0,0,0,,,,,,,,,,,,
46137,0,USSouthDakotaZiebach,South Dakota,Ziebach,2022-04-28 09:13:11,2021-03-10,0,0,0,,,,,,,,,,,,
46137,0,USSouthDakotaZiebach,South Dakota,Ziebach,2022-04-28 09:13:11,2021-03-11,0.2575685917309853,0.7749308296956341,2.50188589102443,,,,,,,,,,,,
46137,0,USSouthDakotaZiebach,South Dakota,Ziebach,2022-04-28 09:13:11,2021-03-12,0.2575685917309853,0.7749308296956341,2.50188589102443,,,,,,,,,,,,
46137,0,USSouthDakotaZiebach,South Dakota,Ziebach,2022-04-28 09:13:11,2021-03-13,0.2575685917309853,0.7749308296956341,2.50188589102443,,,,,,,,,,,,
46137,0,USSouthDakotaZiebach,South Dakota,Ziebach,2022-04-28 09:13:11,2021-03-14,0.2575685917309853,0.7749308296956341,2.50188589102443,,,,,,,,,,,,
46137,0,USSouthDakotaZiebach,South Dakota,Ziebach,2022-04-28 09:13:11,2021-03-15,0.2575685917309853,0.7749308296956341,2.50188589102443,,,,,,,,,,,,
46137,0,USSouthDakotaZiebach,South Dakota,Ziebach,2022-04-28 09:13:11,2021-03-16,0.2575685917309853,0.7749308296956341,2.50188589102443,,,,,,,,,,,,
46137,0,USSouthDakotaZiebach,South Dakota,Ziebach,2022-04-28 09:13:11,2021-03-17,0.2575685917309853,0.7749308296956341,2.50188589102443,,,,,,,,,,,,
46137,0,USSouthDakotaZiebach,South Dakota,Ziebach,2022-04-28 09:13:11,2021-03-18,0,0,0,,,,,,,,,,,,
46137,0,USSouthDakotaZiebach,South Dakota,Ziebach,2022-04-28 09:13:11,2021-03-19,0,0,0,,,,,,,,,,,,
46137,0,USSouthDakotaZiebach,South Dakota,Ziebach,2022-04-28 09:13:11,2021-03-20,0,0,0,,,,,,,,,,,,
46137,0,USSouthDakotaZiebach,South Dakota,Ziebach,2022-04-28 09:13:11,2021-03-21,0,0,0,,,,,,,,,,,,
46137,0,USSouthDakotaZiebach,South Dakota,Ziebach,2022-04-28 09:13:11,2021-03-22,0,0,0,,,,,,,,,,,,
46137,0,USSouthDakotaZiebach,South Dakota,Ziebach,2022-04-28 09:13:11,2021-03-23,0,0,0,,,,,,,,,,,,
46137,0,USSouthDakotaZiebach,South Dakota,Ziebach,2022-04-28 09:13:11,2021-03-24,0,0,0,,,,,,,,,,,,
46137,0,USSouthDakotaZiebach,South Dakota,Ziebach,2022-04-28 09:13:11,2021-03-25,0.5130275534806629,1.0779926591617333,2.43268065130214,,,,,,,,,,,,
46137,0,USSouthDakotaZiebach,South Dakota,Ziebach,2022-04-28 09:13:11,2021-03-26,0.5130275534806629,1.0779926591617333,2.43268065130214,,,,,,,,,,,,
46137,0,USSouthDakotaZiebach,South Dakota,Ziebach,2022-04-28 09:13:11,2021-03-27,0.5130275534806629,1.0779926591617333,2.43268065130214,,,,,,,,,,,,
46137,0,USSouthDakotaZiebach,South Dakota,Ziebach,2022-04-28 09:13:11,2021-03-28,0.5130275534806629,1.0779926591617333,2.43268065130214,,,,,,,,,,,,
46137,0,USSouthDakotaZiebach,South Dakota,Ziebach,2022-04-28 09:13:11,2021-03-29,0.5130275534806629,1.0779926591617333,2.43268065130214,,,,,,,,,,,,
46137,0,USSouthDakotaZiebach,South Dakota,Ziebach,2022-04-28 09:13:11,2021-03-30,0.5130275534806629,1.0779926591617333,2.43268065130214,,,,,,,,,,,,
46137,0,USSouthDakotaZiebach,South Dakota,Ziebach,2022-04-28 09:13:11,2021-03-31,0.5130275534806629,1.0779926591617333,2.43268065130214,,,,,,,,,,,,
46137,0,USSouthDakotaZiebach,South Dakota,Ziebach,2022-04-28 09:13:11,2021-04-01,0.2523610904220284,0.7461876241699119,2.3686168046808387,,,,,,,,,,,,
46137,0,USSouthDakotaZiebach,South Dakota,Ziebach,2022-04-28 09:13:11,2021-04-02,0.2523610904220284,0.7461876241699119,2.3686168046808387,,,,,,,,,,,,
46137,0,USSouthDakotaZiebach,South Dakota,Ziebach,2022-04-28 09:13:11,2021-04-03,0.2523610904220284,0.7461876241699119,2.3686168046808387,,,,,,,,,,,,
46137,0,USSouthDakotaZiebach,South Dakota,Ziebach,2022-04-28 09:13:11,2021-04-04,0.2523610904220284,0.7461876241699119,2.3686168046808387,,,,,,,,,,,,
46137,0,USSouthDakotaZiebach,South Dakota,Ziebach,2022-04-28 09:13:11,2021-04-05,0.2523610904220284,0.7461876241699119,2.3686168046808387,,,,,,,,,,,,
46137,0,USSouthDakotaZiebach,South Dakota,Ziebach,2022-04-28 09:13:11,2021-04-06,0.2523610904220284,0.7461876241699119,2.3686168046808387,,,,,,,,,,,,
46137,0,USSouthDakotaZiebach,South Dakota,Ziebach,2022-04-28 09:13:11,2021-04-07,0.2523610904220284,0.7461876241699119,2.3686168046808387,,,,,,,,,,,,
46137,0,USSouthDakotaZiebach,South Dakota,Ziebach,2022-04-28 09:13:11,2021-04-08,0.2514560027471742,0.7412385536766856,2.345884880531244,,,,,,,,,,,,
46137,0,USSouthDakotaZiebach,South Dakota,Ziebach,2022-04-28 09:13:11,2021-04-09,0.2514560027471742,0.7412385536766856,2.345884880531244,,,,,,,,,,,,
46137,0,USSouthDakotaZiebach,South Dakota,Ziebach,2022-04-28 09:13:11,2021-04-10,0.2514560027471742,0.7412385536766856,2.345884880531244,,,,,,,,,,,,
46137,0,USSouthDakotaZiebach,South Dakota,Ziebach,2022-04-28 09:13:11,2021-04-11,0.2514560027471742,0.7412385536766856,2.345884880531244,,,,,,,,,,,,
46137,0,USSouthDakotaZiebach,South Dakota,Ziebach,2022-04-28 09:13:11,2021-04-12,0.2514560027471742,0.7412385536766856,2.345884880531244,,,,,,,,,,,,
46137,0,USSouthDakotaZiebach,South Dakota,Ziebach,2022-04-28 09:13:11,2021-04-13,0.2514560027471742,0.7412385536766856,2.345884880531244,,,,,,,,,,,,
46137,0,USSouthDakotaZiebach,South Dakota,Ziebach,2022-04-28 09:13:11,2021-04-14,0.2514560027471742,0.7412385536766856,2.345884880531244,,,,,,,,,,,,
46137,0,USSouthDakotaZiebach,South Dakota,Ziebach,2022-04-28 09:13:11,2021-04-15,0,0,0,,,,,,,,,,,,
46137,0,USSouthDakotaZiebach,South Dakota,Ziebach,2022-04-28 09:13:11,2021-04-16,0,0,0,,,,,,,,,,,,
46137,0,USSouthDakotaZiebach,South Dakota,Ziebach,2022-04-28 09:13:11,2021-04-17,0,0,0,,,,,,,,,,,,
46137,0,USSouthDakotaZiebach,South Dakota,Ziebach,2022-04-28 09:13:11,2021-04-18,0,0,0,,,,,,,,,,,,
46137,0,USSouthDakotaZiebach,South Dakota,Ziebach,2022-04-28 09:13:11,2021-04-19,0,0,0,,,,,,,,,,,,
46137,0,USSouthDakotaZiebach,South Dakota,Ziebach,2022-04-28 09:13:11,2021-04-20,0,0,0,,,,,,,,,,,,
46137,0,USSouthDakotaZiebach,South Dakota,Ziebach,2022-04-28 09:13:11,2021-04-21,0,0,0,,,,,,,,,,,,
46137,0,USSouthDakotaZiebach,South Dakota,Ziebach,2022-04-28 09:13:11,2021-04-22,0.3724910684401819,0.8449773490902521,2.061801124712352,,,,,,,,,,,,
46137,0,USSouthDakotaZiebach,South Dakota,Ziebach,2022-04-28 09:13:11,2021-04-23,0.3724910684401819,0.8449773490902521,2.061801124712352,,,,,,,,,,,,
46137,0,USSouthDakotaZiebach,South Dakota,Ziebach,2022-04-28 09:13:11,2021-04-24,0.3724910684401819,0.8449773490902521,2.061801124712352,,,,,,,,,,,,
46137,0,USSouthDakotaZiebach,South Dakota,Ziebach,2022-04-28 09:13:11,2021-04-25,0.3724910684401819,0.8449773490902521,2.061801124712352,,,,,,,,,,,,
46137,0,USSouthDakotaZiebach,South Dakota,Ziebach,2022-04-28 09:13:11,2021-04-26,0.3724910684401819,0.8449773490902521,2.061801124712352,,,,,,,,,,,,
46137,0,USSouthDakotaZiebach,South Dakota,Ziebach,2022-04-28 09:13:11,2021-04-27,0.3724910684401819,0.8449773490902521,2.061801124712352,,,,,,,,,,,,
46137,0,USSouthDakotaZiebach,South Dakota,Ziebach,2022-04-28 09:13:11,2021-04-28,0.3724910684401819,0.8449773490902521,2.061801124712352,,,,,,,,,,,,
46137,0,USSouthDakotaZiebach,South Dakota,Ziebach,2022-04-28 09:13:11,2021-04-29,0,0,0,,,,,,,,,,,,
46137,0,USSouthDakotaZiebach,South Dakota,Ziebach,2022-04-28 09:13:11,2021-04-30,0,0,0,,,,,,,,,,,,
46137,0,USSouthDakotaZiebach,South Dakota,Ziebach,2022-04-28 09:13:11,2021-05-01,0,0,0,,,,,,,,,,,,
46137,0,USSouthDakotaZiebach,South Dakota,Ziebach,2022-04-28 09:13:11,2021-05-02,0,0,0,,,,,,,,,,,,
46137,0,USSouthDakotaZiebach,South Dakota,Ziebach,2022-04-28 09:13:11,2021-05-03,0,0,0,,,,,,,,,,,,
46137,0,USSouthDakotaZiebach,South Dakota,Ziebach,2022-04-28 09:13:11,2021-05-04,0,0,0,,,,,,,,,,,,
46137,0,USSouthDakotaZiebach,South Dakota,Ziebach,2022-04-28 09:13:11,2021-05-05,0,0,0,,,,,,,,,,,,
46137,0,USSouthDakotaZiebach,South Dakota,Ziebach,2022-04-28 09:13:11,2021-05-06,0,0,0,,,,,,,,,,,,
46137,0,USSouthDakotaZiebach,South Dakota,Ziebach,2022-04-28 09:13:11,2021-05-07,0,0,0,,,,,,,,,,,,
46137,0,USSouthDakotaZiebach,South Dakota,Ziebach,2022-04-28 09:13:11,2021-05-08,0,0,0,,,,,,,,,,,,
46137,0,USSouthDakotaZiebach,South Dakota,Ziebach,2022-04-28 09:13:11,2021-05-09,0,0,0,,,,,,,,,,,,
46137,0,USSouthDakotaZiebach,South Dakota,Ziebach,2022-04-28 09:13:11,2021-05-10,0,0,0,,,,,,,,,,,,
46137,0,USSouthDakotaZiebach,South Dakota,Ziebach,2022-04-28 09:13:11,2021-05-11,0,0,0,,,,,,,,,,,,
46137,0,USSouthDakotaZiebach,South Dakota,Ziebach,2022-04-28 09:13:11,2021-05-12,0,0,0,,,,,,,,,,,,
46137,0,USSouthDakotaZiebach,South Dakota,Ziebach,2022-04-28 09:13:11,2021-05-13,0,0,0,,,,,,,,,,,,
46137,0,USSouthDakotaZiebach,South Dakota,Ziebach,2022-04-28 09:13:11,2021-05-14,0,0,0,,,,,,,,,,,,
46137,0,USSouthDakotaZiebach,South Dakota,Ziebach,2022-04-28 09:13:11,2021-05-15,0,0,0,,,,,,,,,,,,
46137,0,USSouthDakotaZiebach,South Dakota,Ziebach,2022-04-28 09:13:11,2021-05-16,0,0,0,,,,,,,,,,,,
46137,0,USSouthDakotaZiebach,South Dakota,Ziebach,2022-04-28 09:13:11,2021-05-17,0,0,0,,,,,,,,,,,,
46137,0,USSouthDakotaZiebach,South Dakota,Ziebach,2022-04-28 09:13:11,2021-05-18,0,0,0,,,,,,,,,,,,
46137,0,USSouthDakotaZiebach,South Dakota,Ziebach,2022-04-28 09:13:11,2021-05-19,0,0,0,,,,,,,,,,,,
46137,0,USSouthDakotaZiebach,South Dakota,Ziebach,2022-04-28 09:13:11,2021-05-20,0,0,0,,,,,,,,,,,,
46137,0,USSouthDakotaZiebach,South Dakota,Ziebach,2022-04-28 09:13:11,2021-05-21,0,0,0,,,,,,,,,,,,
46137,0,USSouthDakotaZiebach,South Dakota,Ziebach,2022-04-28 09:13:11,2021-05-22,0,0,0,,,,,,,,,,,,
46137,0,USSouthDakotaZiebach,South Dakota,Ziebach,2022-04-28 09:13:11,2021-05-23,0,0,0,,,,,,,,,,,,
46137,0,USSouthDakotaZiebach,South Dakota,Ziebach,2022-04-28 09:13:11,2021-05-24,0,0,0,,,,,,,,,,,,
46137,0,USSouthDakotaZiebach,South Dakota,Ziebach,2022-04-28 09:13:11,2021-05-25,0,0,0,,,,,,,,,,,,
46137,0,USSouthDakotaZiebach,South Dakota,Ziebach,2022-04-28 09:13:11,2021-05-26,0,0,0,,,,,,,,,,,,
46137,0,USSouthDakotaZiebach,South Dakota,Ziebach,2022-04-28 09:13:11,2021-05-27,0,0,0,,,,,,,,,,,,
46137,0,USSouthDakotaZiebach,South Dakota,Ziebach,2022-04-28 09:13:11,2021-05-28,0,0,0,,,,,,,,,,,,
46137,0,USSouthDakotaZiebach,South Dakota,Ziebach,2022-04-28 09:13:11,2021-05-29,0,0,0,,,,,,,,,,,,
46137,0,USSouthDakotaZiebach,South Dakota,Ziebach,2022-04-28 09:13:11,2021-05-30,0,0,0,,,,,,,,,,,,
46137,0,USSouthDakotaZiebach,South Dakota,Ziebach,2022-04-28 09:13:11,2021-05-31,0,0,0,,,,,,,,,,,,
46137,0,USSouthDakotaZiebach,South Dakota,Ziebach,2022-04-28 09:13:11,2021-06-01,0,0,0,,,,,,,,,,,,
46137,0,USSouthDakotaZiebach,South Dakota,Ziebach,2022-04-28 09:13:11,2021-06-02,0,0,0,,,,,,,,,,,,
46137,0,USSouthDakotaZiebach,South Dakota,Ziebach,2022-04-28 09:13:11,2021-06-03,0,0,0,,,,,,,,,,,,
46137,0,USSouthDakotaZiebach,South Dakota,Ziebach,2022-04-28 09:13:11,2021-06-04,0,0,0,,,,,,,,,,,,
46137,0,USSouthDakotaZiebach,South Dakota,Ziebach,2022-04-28 09:13:11,2021-06-05,0,0,0,,,,,,,,,,,,
46137,0,USSouthDakotaZiebach,South Dakota,Ziebach,2022-04-28 09:13:11,2021-06-06,0,0,0,,,,,,,,,,,,
46137,0,USSouthDakotaZiebach,South Dakota,Ziebach,2022-04-28 09:13:11,2021-06-07,0,0,0,,,,,,,,,,,,
46137,0,USSouthDakotaZiebach,South Dakota,Ziebach,2022-04-28 09:13:11,2021-06-08,0,0,0,,,,,,,,,,,,
46137,0,USSouthDakotaZiebach,South Dakota,Ziebach,2022-04-28 09:13:11,2021-06-09,0,0,0,,,,,,,,,,,,
46137,0,USSouthDakotaZiebach,South Dakota,Ziebach,2022-04-28 09:13:11,2021-06-10,0,0,0,,,,,,,,,,,,
46137,0,USSouthDakotaZiebach,South Dakota,Ziebach,2022-04-28 09:13:11,2021-06-11,0,0,0,,,,,,,,,,,,
46137,0,USSouthDakotaZiebach,South Dakota,Ziebach,2022-04-28 09:13:11,2021-06-12,0,0,0,,,,,,,,,,,,
46137,0,USSouthDakotaZiebach,South Dakota,Ziebach,2022-04-28 09:13:11,2021-06-13,0,0,0,,,,,,,,,,,,
46137,0,USSouthDakotaZiebach,South Dakota,Ziebach,2022-04-28 09:13:11,2021-06-14,0,0,0,,,,,,,,,,,,
46137,0,USSouthDakotaZiebach,South Dakota,Ziebach,2022-04-28 09:13:11,2021-06-15,0,0,0,,,,,,,,,,,,
46137,0,USSouthDakotaZiebach,South Dakota,Ziebach,2022-04-28 09:13:11,2021-06-16,0,0,0,,,,,,,,,,,,
46137,0,USSouthDakotaZiebach,South Dakota,Ziebach,2022-04-28 09:13:11,2021-06-17,0,0,0,,,,,,,,,,,,
46137,0,USSouthDakotaZiebach,South Dakota,Ziebach,2022-04-28 09:13:11,2021-06-18,0,0,0,,,,,,,,,,,,
46137,0,USSouthDakotaZiebach,South Dakota,Ziebach,2022-04-28 09:13:11,2021-06-19,0,0,0,,,,,,,,,,,,
46137,0,USSouthDakotaZiebach,South Dakota,Ziebach,2022-04-28 09:13:11,2021-06-20,0,0,0,,,,,,,,,,,,
46137,0,USSouthDakotaZiebach,South Dakota,Ziebach,2022-04-28 09:13:11,2021-06-21,0,0,0,,,,,,,,,,,,
46137,0,USSouthDakotaZiebach,South Dakota,Ziebach,2022-04-28 09:13:11,2021-06-22,0,0,0,,,,,,,,,,,,
46137,0,USSouthDakotaZiebach,South Dakota,Ziebach,2022-04-28 09:13:11,2021-06-23,0,0,0,,,,,,,,,,,,
46137,0,USSouthDakotaZiebach,South Dakota,Ziebach,2022-04-28 09:13:11,2021-06-24,0,0,0,,,,,,,,,,,,
46137,0,USSouthDakotaZiebach,South Dakota,Ziebach,2022-04-28 09:13:11,2021-06-25,0,0,0,,,,,,,,,,,,
46137,0,USSouthDakotaZiebach,South Dakota,Ziebach,2022-04-28 09:13:11,2021-06-26,0,0,0,,,,,,,,,,,,
46137,0,USSouthDakotaZiebach,South Dakota,Ziebach,2022-04-28 09:13:11,2021-06-27,0,0,0,,,,,,,,,,,,
46137,0,USSouthDakotaZiebach,South Dakota,Ziebach,2022-04-28 09:13:11,2021-06-28,0,0,0,,,,,,,,,,,,
46137,0,USSouthDakotaZiebach,South Dakota,Ziebach,2022-04-28 09:13:11,2021-06-29,0,0,0,,,,,,,,,,,,
46137,0,USSouthDakotaZiebach,South Dakota,Ziebach,2022-04-28 09:13:11,2021-06-30,0,0,0,,,,,,,,,,,,
46137,0,USSouthDakotaZiebach,South Dakota,Ziebach,2022-04-28 09:13:11,2021-07-01,0,0,0,,,,,,,,,,,,
46137,0,USSouthDakotaZiebach,South Dakota,Ziebach,2022-04-28 09:13:11,2021-07-02,0,0,0,,,,,,,,,,,,
46137,0,USSouthDakotaZiebach,South Dakota,Ziebach,2022-04-28 09:13:11,2021-07-03,0,0,0,,,,,,,,,,,,
46137,0,USSouthDakotaZiebach,South Dakota,Ziebach,2022-04-28 09:13:11,2021-07-04,0,0,0,,,,,,,,,,,,
46137,0,USSouthDakotaZiebach,South Dakota,Ziebach,2022-04-28 09:13:11,2021-07-05,0,0,0,,,,,,,,,,,,
46137,0,USSouthDakotaZiebach,South Dakota,Ziebach,2022-04-28 09:13:11,2021-07-06,0,0,0,,,,,,,,,,,,
46137,0,USSouthDakotaZiebach,South Dakota,Ziebach,2022-04-28 09:13:11,2021-07-07,0,0,0,,,,,,,,,,,,
46137,0,USSouthDakotaZiebach,South Dakota,Ziebach,2022-04-28 09:13:11,2021-07-15,0.18830757959483171,0.43138004046954737,1.0631053942436,,,,,,,,,,,,
46137,0,USSouthDakotaZiebach,South Dakota,Ziebach,2022-04-28 09:13:11,2021-07-16,0.18830757959483171,0.43138004046954737,1.0631053942436,,,,,,,,,,,,
46137,0,USSouthDakotaZiebach,South Dakota,Ziebach,2022-04-28 09:13:11,2021-07-17,0.18830757959483171,0.43138004046954737,1.0631053942436,,,,,,,,,,,,
46137,0,USSouthDakotaZiebach,South Dakota,Ziebach,2022-04-28 09:13:11,2021-07-18,0.18830757959483171,0.43138004046954737,1.0631053942436,,,,,,,,,,,,
46137,0,USSouthDakotaZiebach,South Dakota,Ziebach,2022-04-28 09:13:11,2021-07-19,0.18830757959483171,0.43138004046954737,1.0631053942436,,,,,,,,,,,,
46137,0,USSouthDakotaZiebach,South Dakota,Ziebach,2022-04-28 09:13:11,2021-07-20,0.18830757959483171,0.43138004046954737,1.0631053942436,,,,,,,,,,,,
46137,0,USSouthDakotaZiebach,South Dakota,Ziebach,2022-04-28 09:13:11,2021-07-21,0.18830757959483171,0.43138004046954737,1.0631053942436,,,,,,,,,,,,
46137,0,USSouthDakotaZiebach,South Dakota,Ziebach,2022-04-28 09:13:11,2021-07-22,0,0,0,,,,,,,,,,,,
46137,0,USSouthDakotaZiebach,South Dakota,Ziebach,2022-04-28 09:13:11,2021-07-23,0,0,0,,,,,,,,,,,,
46137,0,USSouthDakotaZiebach,South Dakota,Ziebach,2022-04-28 09:13:11,2021-07-24,0,0,0,,,,,,,,,,,,
46137,0,USSouthDakotaZiebach,South Dakota,Ziebach,2022-04-28 09:13:11,2021-07-25,0,0,0,,,,,,,,,,,,
46137,0,USSouthDakotaZiebach,South Dakota,Ziebach,2022-04-28 09:13:11,2021-07-26,0,0,0,,,,,,,,,,,,
46137,0,USSouthDakotaZiebach,South Dakota,Ziebach,2022-04-28 09:13:11,2021-07-27,0,0,0,,,,,,,,,,,,
46137,0,USSouthDakotaZiebach,South Dakota,Ziebach,2022-04-28 09:13:11,2021-07-28,0,0,0,,,,,,,,,,,,
46137,0,USSouthDakotaZiebach,South Dakota,Ziebach,2022-04-28 09:13:11,2021-07-29,0,0,0,,,,,,,,,,,,
46137,0,USSouthDakotaZiebach,South Dakota,Ziebach,2022-04-28 09:13:11,2021-07-30,0,0,0,,,,,,,,,,,,
46137,0,USSouthDakotaZiebach,South Dakota,Ziebach,2022-04-28 09:13:11,2021-07-31,0,0,0,,,,,,,,,,,,
46137,0,USSouthDakotaZiebach,South Dakota,Ziebach,2022-04-28 09:13:11,2021-08-01,0,0,0,,,,,,,,,,,,
46137,0,USSouthDakotaZiebach,South Dakota,Ziebach,2022-04-28 09:13:11,2021-08-02,0,0,0,,,,,,,,,,,,
46137,0,USSouthDakotaZiebach,South Dakota,Ziebach,2022-04-28 09:13:11,2021-08-03,0,0,0,,,,,,,,,,,,
46137,0,USSouthDakotaZiebach,South Dakota,Ziebach,2022-04-28 09:13:11,2021-08-04,0,0,0,,,,,,,,,,,,
46137,0,USSouthDakotaZiebach,South Dakota,Ziebach,2022-04-28 09:13:11,2021-08-05,0,0,0,,,,,,,,,,,,
46137,0,USSouthDakotaZiebach,South Dakota,Ziebach,2022-04-28 09:13:11,2021-08-06,0,0,0,,,,,,,,,,,,
46137,0,USSouthDakotaZiebach,South Dakota,Ziebach,2022-04-28 09:13:11,2021-08-07,0,0,0,,,,,,,,,,,,
46137,0,USSouthDakotaZiebach,South Dakota,Ziebach,2022-04-28 09:13:11,2021-08-08,0,0,0,,,,,,,,,,,,
46137,0,USSouthDakotaZiebach,South Dakota,Ziebach,2022-04-28 09:13:11,2021-08-09,0,0,0,,,,,,,,,,,,
46137,0,USSouthDakotaZiebach,South Dakota,Ziebach,2022-04-28 09:13:11,2021-08-10,0,0,0,,,,,,,,,,,,
46137,0,USSouthDakotaZiebach,South Dakota,Ziebach,2022-04-28 09:13:11,2021-08-11,0,0,0,,,,,,,,,,,,
46137,0,USSouthDakotaZiebach,South Dakota,Ziebach,2022-04-28 09:13:11,2021-08-12,0,0,0,,,,,,,,,,,,
46137,0,USSouthDakotaZiebach,South Dakota,Ziebach,2022-04-28 09:13:11,2021-08-13,0,0,0,,,,,,,,,,,,
46137,0,USSouthDakotaZiebach,South Dakota,Ziebach,2022-04-28 09:13:11,2021-08-14,0,0,0,,,,,,,,,,,,
46137,0,USSouthDakotaZiebach,South Dakota,Ziebach,2022-04-28 09:13:11,2021-08-15,0,0,0,,,,,,,,,,,,
46137,0,USSouthDakotaZiebach,South Dakota,Ziebach,2022-04-28 09:13:11,2021-08-16,0,0,0,,,,,,,,,,,,
46137,0,USSouthDakotaZiebach,South Dakota,Ziebach,2022-04-28 09:13:11,2021-08-17,0,0,0,,,,,,,,,,,,
46137,0,USSouthDakotaZiebach,South Dakota,Ziebach,2022-04-28 09:13:11,2021-08-18,0,0,0,,,,,,,,,,,,
46137,0,USSouthDakotaZiebach,South Dakota,Ziebach,2022-04-28 09:13:11,2021-08-19,1.0388173468593633,2.207255977721161,5.038380436973852,,,,,,,,,,,,
46137,0,USSouthDakotaZiebach,South Dakota,Ziebach,2022-04-28 09:13:11,2021-08-20,1.0388173468593633,2.207255977721161,5.038380436973852,,,,,,,,,,,,
46137,0,USSouthDakotaZiebach,South Dakota,Ziebach,2022-04-28 09:13:11,2021-08-21,1.0388173468593633,2.207255977721161,5.038380436973852,,,,,,,,,,,,
46137,0,USSouthDakotaZiebach,South Dakota,Ziebach,2022-04-28 09:13:11,2021-08-22,1.0388173468593633,2.207255977721161,5.038380436973852,,,,,,,,,,,,
46137,0,USSouthDakotaZiebach,South Dakota,Ziebach,2022-04-28 09:13:11,2021-08-23,1.0388173468593633,2.207255977721161,5.038380436973852,,,,,,,,,,,,
46137,0,USSouthDakotaZiebach,South Dakota,Ziebach,2022-04-28 09:13:11,2021-08-24,1.0388173468593633,2.207255977721161,5.038380436973852,,,,,,,,,,,,
46137,0,USSouthDakotaZiebach,South Dakota,Ziebach,2022-04-28 09:13:11,2021-08-25,1.0388173468593633,2.207255977721161,5.038380436973852,,,,,,,,,,,,
46137,0,USSouthDakotaZiebach,South Dakota,Ziebach,2022-04-28 09:13:11,2021-08-26,0,0,0,,,,,,,,,,,,
46137,0,USSouthDakotaZiebach,South Dakota,Ziebach,2022-04-28 09:13:11,2021-08-27,0,0,0,,,,,,,,,,,,
46137,0,USSouthDakotaZiebach,South Dakota,Ziebach,2022-04-28 09:13:11,2021-08-28,0,0,0,,,,,,,,,,,,
46137,0,USSouthDakotaZiebach,South Dakota,Ziebach,2022-04-28 09:13:11,2021-08-29,0,0,0,,,,,,,,,,,,
46137,0,USSouthDakotaZiebach,South Dakota,Ziebach,2022-04-28 09:13:11,2021-08-30,0,0,0,,,,,,,,,,,,
46137,0,USSouthDakotaZiebach,South Dakota,Ziebach,2022-04-28 09:13:11,2021-08-31,0,0,0,,,,,,,,,,,,
46137,0,USSouthDakotaZiebach,South Dakota,Ziebach,2022-04-28 09:13:11,2021-09-01,0,0,0,,,,,,,,,,,,
46137,0,USSouthDakotaZiebach,South Dakota,Ziebach,2022-04-28 09:13:11,2021-09-02,1.5968077037216266,2.4802448960206234,4.057357868276782,,,,,,,,,,,,
46137,0,USSouthDakotaZiebach,South Dakota,Ziebach,2022-04-28 09:13:11,2021-09-03,1.5968077037216266,2.4802448960206234,4.057357868276782,,,,,,,,,,,,
46137,0,USSouthDakotaZiebach,South Dakota,Ziebach,2022-04-28 09:13:11,2021-09-04,1.5968077037216266,2.4802448960206234,4.057357868276782,,,,,,,,,,,,
46137,0,USSouthDakotaZiebach,South Dakota,Ziebach,2022-04-28 09:13:11,2021-09-05,1.5968077037216266,2.4802448960206234,4.057357868276782,,,,,,,,,,,,
46137,0,USSouthDakotaZiebach,South Dakota,Ziebach,2022-04-28 09:13:11,2021-09-06,1.5968077037216266,2.4802448960206234,4.057357868276782,,,,,,,,,,,,
46137,0,USSouthDakotaZiebach,South Dakota,Ziebach,2022-04-28 09:13:11,2021-09-07,1.5968077037216266,2.4802448960206234,4.057357868276782,,,,,,,,,,,,
46137,0,USSouthDakotaZiebach,South Dakota,Ziebach,2022-04-28 09:13:11,2021-09-08,1.5968077037216266,2.4802448960206234,4.057357868276782,,,,,,,,,,,,
46137,0,USSouthDakotaZiebach,South Dakota,Ziebach,2022-04-28 09:13:11,2021-09-09,1.1545415823484952,1.866104071758563,3.189179340118603,,,,,,,,,,,,
46137,0,USSouthDakotaZiebach,South Dakota,Ziebach,2022-04-28 09:13:11,2021-09-10,1.1545415823484952,1.866104071758563,3.189179340118603,,,,,,,,,,,,
46137,0,USSouthDakotaZiebach,South Dakota,Ziebach,2022-04-28 09:13:11,2021-09-11,1.1545415823484952,1.866104071758563,3.189179340118603,,,,,,,,,,,,
46137,0,USSouthDakotaZiebach,South Dakota,Ziebach,2022-04-28 09:13:11,2021-09-12,1.1545415823484952,1.866104071758563,3.189179340118603,,,,,,,,,,,,
46137,0,USSouthDakotaZiebach,South Dakota,Ziebach,2022-04-28 09:13:11,2021-09-13,1.1545415823484952,1.866104071758563,3.189179340118603,,,,,,,,,,,,
46137,0,USSouthDakotaZiebach,South Dakota,Ziebach,2022-04-28 09:13:11,2021-09-14,1.1545415823484952,1.866104071758563,3.189179340118603,,,,,,,,,,,,
46137,0,USSouthDakotaZiebach,South Dakota,Ziebach,2022-04-28 09:13:11,2021-09-15,1.1545415823484952,1.866104071758563,3.189179340118603,,,,,,,,,,,,
46137,0,USSouthDakotaZiebach,South Dakota,Ziebach,2022-04-28 09:13:11,2021-09-16,1.2673694297774392,2.231408526619258,4.1832901983987565,,,,,,,,,,,,
46137,0,USSouthDakotaZiebach,South Dakota,Ziebach,2022-04-28 09:13:11,2021-09-17,1.2673694297774392,2.231408526619258,4.1832901983987565,,,,,,,,,,,,
46137,0,USSouthDakotaZiebach,South Dakota,Ziebach,2022-04-28 09:13:11,2021-09-18,1.2673694297774392,2.231408526619258,4.1832901983987565,,,,,,,,,,,,
46137,0,USSouthDakotaZiebach,South Dakota,Ziebach,2022-04-28 09:13:11,2021-09-19,1.2673694297774392,2.231408526619258,4.1832901983987565,,,,,,,,,,,,
46137,0,USSouthDakotaZiebach,South Dakota,Ziebach,2022-04-28 09:13:11,2021-09-20,1.2673694297774392,2.231408526619258,4.1832901983987565,,,,,,,,,,,,
46137,0,USSouthDakotaZiebach,South Dakota,Ziebach,2022-04-28 09:13:11,2021-09-21,1.2673694297774392,2.231408526619258,4.1832901983987565,,,,,,,,,,,,
46137,0,USSouthDakotaZiebach,South Dakota,Ziebach,2022-04-28 09:13:11,2021-09-22,1.2673694297774392,2.231408526619258,4.1832901983987565,,,,,,,,,,,,
46137,0,USSouthDakotaZiebach,South Dakota,Ziebach,2022-04-28 09:13:11,2021-09-23,0,0,0,,,,,,,,,,,,
46137,0,USSouthDakotaZiebach,South Dakota,Ziebach,2022-04-28 09:13:11,2021-09-24,0,0,0,,,,,,,,,,,,
46137,0,USSouthDakotaZiebach,South Dakota,Ziebach,2022-04-28 09:13:11,2021-09-25,0,0,0,,,,,,,,,,,,
46137,0,USSouthDakotaZiebach,South Dakota,Ziebach,2022-04-28 09:13:11,2021-09-26,0,0,0,,,,,,,,,,,,
46137,0,USSouthDakotaZiebach,South Dakota,Ziebach,2022-04-28 09:13:11,2021-09-27,0,0,0,,,,,,,,,,,,
46137,0,USSouthDakotaZiebach,South Dakota,Ziebach,2022-04-28 09:13:11,2021-09-28,0,0,0,,,,,,,,,,,,
46137,0,USSouthDakotaZiebach,South Dakota,Ziebach,2022-04-28 09:13:11,2021-09-29,0,0,0,,,,,,,,,,,,
46137,0,USSouthDakotaZiebach,South Dakota,Ziebach,2022-04-28 09:13:11,2021-09-30,0.33703748748020484,0.6988792016324186,1.5557870686121704,,,,,,,,,,,,
46137,0,USSouthDakotaZiebach,South Dakota,Ziebach,2022-04-28 09:13:11,2021-10-01,0.33703748748020484,0.6988792016324186,1.5557870686121704,,,,,,,,,,,,
46137,0,USSouthDakotaZiebach,South Dakota,Ziebach,2022-04-28 09:13:11,2021-10-02,0.33703748748020484,0.6988792016324186,1.5557870686121704,,,,,,,,,,,,
46137,0,USSouthDakotaZiebach,South Dakota,Ziebach,2022-04-28 09:13:11,2021-10-03,0.33703748748020484,0.6988792016324186,1.5557870686121704,,,,,,,,,,,,
46137,0,USSouthDakotaZiebach,South Dakota,Ziebach,2022-04-28 09:13:11,2021-10-04,0.33703748748020484,0.6988792016324186,1.5557870686121704,,,,,,,,,,,,
46137,0,USSouthDakotaZiebach,South Dakota,Ziebach,2022-04-28 09:13:11,2021-10-05,0.33703748748020484,0.6988792016324186,1.5557870686121704,,,,,,,,,,,,
46137,0,USSouthDakotaZiebach,South Dakota,Ziebach,2022-04-28 09:13:11,2021-10-06,0.33703748748020484,0.6988792016324186,1.5557870686121704,,,,,,,,,,,,
46137,0,USSouthDakotaZiebach,South Dakota,Ziebach,2022-04-28 09:13:11,2021-10-07,0.18328284947652929,0.4098559557687591,0.9856531335363636,,,,,,,,,,,,
46137,0,USSouthDakotaZiebach,South Dakota,Ziebach,2022-04-28 09:13:11,2021-10-08,0.18328284947652929,0.4098559557687591,0.9856531335363636,,,,,,,,,,,,
46137,0,USSouthDakotaZiebach,South Dakota,Ziebach,2022-04-28 09:13:11,2021-10-09,0.18328284947652929,0.4098559557687591,0.9856531335363636,,,,,,,,,,,,
46137,0,USSouthDakotaZiebach,South Dakota,Ziebach,2022-04-28 09:13:11,2021-10-10,0.18328284947652929,0.4098559557687591,0.9856531335363636,,,,,,,,,,,,
46137,0,USSouthDakotaZiebach,South Dakota,Ziebach,2022-04-28 09:13:11,2021-10-11,0.18328284947652929,0.4098559557687591,0.9856531335363636,,,,,,,,,,,,
46137,0,USSouthDakotaZiebach,South Dakota,Ziebach,2022-04-28 09:13:11,2021-10-12,0.18328284947652929,0.4098559557687591,0.9856531335363636,,,,,,,,,,,,
46137,0,USSouthDakotaZiebach,South Dakota,Ziebach,2022-04-28 09:13:11,2021-10-13,0.18328284947652929,0.4098559557687591,0.9856531335363636,,,,,,,,,,,,
46137,0,USSouthDakotaZiebach,South Dakota,Ziebach,2022-04-28 09:13:11,2021-10-14,1.5500389671085446,2.979355062020312,6.129488515994417,,,,,,,,,,,,
46137,0,USSouthDakotaZiebach,South Dakota,Ziebach,2022-04-28 09:13:11,2021-10-15,1.5500389671085446,2.979355062020312,6.129488515994417,,,,,,,,,,,,
46137,0,USSouthDakotaZiebach,South Dakota,Ziebach,2022-04-28 09:13:11,2021-10-16,1.5500389671085446,2.979355062020312,6.129488515994417,,,,,,,,,,,,
46137,0,USSouthDakotaZiebach,South Dakota,Ziebach,2022-04-28 09:13:11,2021-10-17,1.5500389671085446,2.979355062020312,6.129488515994417,,,,,,,,,,,,
46137,0,USSouthDakotaZiebach,South Dakota,Ziebach,2022-04-28 09:13:11,2021-10-18,1.5500389671085446,2.979355062020312,6.129488515994417,,,,,,,,,,,,
46137,0,USSouthDakotaZiebach,South Dakota,Ziebach,2022-04-28 09:13:11,2021-10-19,1.5500389671085446,2.979355062020312,6.129488515994417,,,,,,,,,,,,
46137,0,USSouthDakotaZiebach,South Dakota,Ziebach,2022-04-28 09:13:11,2021-10-20,1.5500389671085446,2.979355062020312,6.129488515994417,,,,,,,,,,,,
46137,0,USSouthDakotaZiebach,South Dakota,Ziebach,2022-04-28 09:13:11,2021-10-21,3.664694037799912,5.842217182017141,9.834748156614115,,,,,,,,,,,,
46137,0,USSouthDakotaZiebach,South Dakota,Ziebach,2022-04-28 09:13:11,2021-10-22,3.664694037799912,5.842217182017141,9.834748156614115,,,,,,,,,,,,
46137,0,USSouthDakotaZiebach,South Dakota,Ziebach,2022-04-28 09:13:11,2021-10-23,3.664694037799912,5.842217182017141,9.834748156614115,,,,,,,,,,,,
46137,0,USSouthDakotaZiebach,South Dakota,Ziebach,2022-04-28 09:13:11,2021-10-24,3.664694037799912,5.842217182017141,9.834748156614115,,,,,,,,,,,,
46137,0,USSouthDakotaZiebach,South Dakota,Ziebach,2022-04-28 09:13:11,2021-10-25,3.664694037799912,5.842217182017141,9.834748156614115,,,,,,,,,,,,
46137,0,USSouthDakotaZiebach,South Dakota,Ziebach,2022-04-28 09:13:11,2021-10-26,3.664694037799912,5.842217182017141,9.834748156614115,,,,,,,,,,,,
46137,0,USSouthDakotaZiebach,South Dakota,Ziebach,2022-04-28 09:13:11,2021-10-27,3.664694037799912,5.842217182017141,9.834748156614115,,,,,,,,,,,,
46137,0,USSouthDakotaZiebach,South Dakota,Ziebach,2022-04-28 09:13:11,2021-10-28,2.6918496915686743,5.007608019926262,9.953797385422394,,,,,,,,,,,,
46137,0,USSouthDakotaZiebach,South Dakota,Ziebach,2022-04-28 09:13:11,2021-10-29,2.6918496915686743,5.007608019926262,9.953797385422394,,,,,,,,,,,,
46137,0,USSouthDakotaZiebach,South Dakota,Ziebach,2022-04-28 09:13:11,2021-10-30,2.6918496915686743,5.007608019926262,9.953797385422394,,,,,,,,,,,,
46137,0,USSouthDakotaZiebach,South Dakota,Ziebach,2022-04-28 09:13:11,2021-10-31,2.6918496915686743,5.007608019926262,9.953797385422394,,,,,,,,,,,,
46137,0,USSouthDakotaZiebach,South Dakota,Ziebach,2022-04-28 09:13:11,2021-11-01,2.6918496915686743,5.007608019926262,9.953797385422394,,,,,,,,,,,,
46137,0,USSouthDakotaZiebach,South Dakota,Ziebach,2022-04-28 09:13:11,2021-11-02,2.6918496915686743,5.007608019926262,9.953797385422394,,,,,,,,,,,,
46137,0,USSouthDakotaZiebach,South Dakota,Ziebach,2022-04-28 09:13:11,2021-11-03,2.6918496915686743,5.007608019926262,9.953797385422394,,,,,,,,,,,,
46137,0,USSouthDakotaZiebach,South Dakota,Ziebach,2022-04-28 09:13:11,2021-11-04,1.0996820593682604,2.1396948962684195,4.458693790843175,,,,,,,,,,,,
46137,0,USSouthDakotaZiebach,South Dakota,Ziebach,2022-04-28 09:13:11,2021-11-05,1.0996820593682604,2.1396948962684195,4.458693790843175,,,,,,,,,,,,
46137,0,USSouthDakotaZiebach,South Dakota,Ziebach,2022-04-28 09:13:11,2021-11-06,1.0996820593682604,2.1396948962684195,4.458693790843175,,,,,,,,,,,,
46137,0,USSouthDakotaZiebach,South Dakota,Ziebach,2022-04-28 09:13:11,2021-11-07,1.0996820593682604,2.1396948962684195,4.458693790843175,,,,,,,,,,,,
46137,0,USSouthDakotaZiebach,South Dakota,Ziebach,2022-04-28 09:13:11,2021-11-08,1.0996820593682604,2.1396948962684195,4.458693790843175,,,,,,,,,,,,
46137,0,USSouthDakotaZiebach,South Dakota,Ziebach,2022-04-28 09:13:11,2021-11-09,1.0996820593682604,2.1396948962684195,4.458693790843175,,,,,,,,,,,,
46137,0,USSouthDakotaZiebach,South Dakota,Ziebach,2022-04-28 09:13:11,2021-11-10,1.0996820593682604,2.1396948962684195,4.458693790843175,,,,,,,,,,,,
46137,0,USSouthDakotaZiebach,South Dakota,Ziebach,2022-04-28 09:13:11,2021-11-11,1.0587153535891607,1.9899221669472196,3.9986985104595223,,,,,,,,,,,,
46137,0,USSouthDakotaZiebach,South Dakota,Ziebach,2022-04-28 09:13:11,2021-11-12,1.0587153535891607,1.9899221669472196,3.9986985104595223,,,,,,,,,,,,
46137,0,USSouthDakotaZiebach,South Dakota,Ziebach,2022-04-28 09:13:11,2021-11-13,1.0587153535891607,1.9899221669472196,3.9986985104595223,,,,,,,,,,,,
46137,0,USSouthDakotaZiebach,South Dakota,Ziebach,2022-04-28 09:13:11,2021-11-14,1.0587153535891607,1.9899221669472196,3.9986985104595223,,,,,,,,,,,,
46137,0,USSouthDakotaZiebach,South Dakota,Ziebach,2022-04-28 09:13:11,2021-11-15,1.0587153535891607,1.9899221669472196,3.9986985104595223,,,,,,,,,,,,
46137,0,USSouthDakotaZiebach,South Dakota,Ziebach,2022-04-28 09:13:11,2021-11-16,1.0587153535891607,1.9899221669472196,3.9986985104595223,,,,,,,,,,,,
46137,0,USSouthDakotaZiebach,South Dakota,Ziebach,2022-04-28 09:13:11,2021-11-17,1.0587153535891607,1.9899221669472196,3.9986985104595223,,,,,,,,,,,,
46137,0,USSouthDakotaZiebach,South Dakota,Ziebach,2022-04-28 09:13:11,2021-11-18,1.5183612061207525,2.864033049231476,5.776824620719666,,,,,,,,,,,,
46137,0,USSouthDakotaZiebach,South Dakota,Ziebach,2022-04-28 09:13:11,2021-11-19,1.5183612061207525,2.864033049231476,5.776824620719666,,,,,,,,,,,,
46137,0,USSouthDakotaZiebach,South Dakota,Ziebach,2022-04-28 09:13:11,2021-11-20,1.5183612061207525,2.864033049231476,5.776824620719666,,,,,,,,,,,,
46137,0,USSouthDakotaZiebach,South Dakota,Ziebach,2022-04-28 09:13:11,2021-11-21,1.5183612061207525,2.864033049231476,5.776824620719666,,,,,,,,,,,,
46137,0,USSouthDakotaZiebach,South Dakota,Ziebach,2022-04-28 09:13:11,2021-11-22,1.5183612061207525,2.864033049231476,5.776824620719666,,,,,,,,,,,,
46137,0,USSouthDakotaZiebach,South Dakota,Ziebach,2022-04-28 09:13:11,2021-11-23,1.5183612061207525,2.864033049231476,5.776824620719666,,,,,,,,,,,,
46137,0,USSouthDakotaZiebach,South Dakota,Ziebach,2022-04-28 09:13:11,2021-11-24,1.5183612061207525,2.864033049231476,5.776824620719666,,,,,,,,,,,,
46137,0,USSouthDakotaZiebach,South Dakota,Ziebach,2022-04-28 09:13:11,2021-11-25,0.19300964483843228,0.4519564462700359,1.1387441873997244,,,,,,,,,,,,
46137,0,USSouthDakotaZiebach,South Dakota,Ziebach,2022-04-28 09:13:11,2021-11-26,0.19300964483843228,0.4519564462700359,1.1387441873997244,,,,,,,,,,,,
46137,0,USSouthDakotaZiebach,South Dakota,Ziebach,2022-04-28 09:13:11,2021-11-27,0.19300964483843228,0.4519564462700359,1.1387441873997244,,,,,,,,,,,,
46137,0,USSouthDakotaZiebach,South Dakota,Ziebach,2022-04-28 09:13:11,2021-11-28,0.19300964483843228,0.4519564462700359,1.1387441873997244,,,,,,,,,,,,
46137,0,USSouthDakotaZiebach,South Dakota,Ziebach,2022-04-28 09:13:11,2021-11-29,0.19300964483843228,0.4519564462700359,1.1387441873997244,,,,,,,,,,,,
46137,0,USSouthDakotaZiebach,South Dakota,Ziebach,2022-04-28 09:13:11,2021-11-30,0.19300964483843228,0.4519564462700359,1.1387441873997244,,,,,,,,,,,,
46137,0,USSouthDakotaZiebach,South Dakota,Ziebach,2022-04-28 09:13:11,2021-12-01,0.19300964483843228,0.4519564462700359,1.1387441873997244,,,,,,,,,,,,
46137,0,USSouthDakotaZiebach,South Dakota,Ziebach,2022-04-28 09:13:11,2021-12-02,1.2708821375356576,2.243276855115569,4.216973651420275,,,,,,,,,,,,
46137,0,USSouthDakotaZiebach,South Dakota,Ziebach,2022-04-28 09:13:11,2021-12-03,1.2708821375356576,2.243276855115569,4.216973651420275,,,,,,,,,,,,
46137,0,USSouthDakotaZiebach,South Dakota,Ziebach,2022-04-28 09:13:11,2021-12-04,1.2708821375356576,2.243276855115569,4.216973651420275,,,,,,,,,,,,
46137,0,USSouthDakotaZiebach,South Dakota,Ziebach,2022-04-28 09:13:11,2021-12-05,1.2708821375356576,2.243276855115569,4.216973651420275,,,,,,,,,,,,
46137,0,USSouthDakotaZiebach,South Dakota,Ziebach,2022-04-28 09:13:11,2021-12-06,1.2708821375356576,2.243276855115569,4.216973651420275,,,,,,,,,,,,
46137,0,USSouthDakotaZiebach,South Dakota,Ziebach,2022-04-28 09:13:11,2021-12-07,1.2708821375356576,2.243276855115569,4.216973651420275,,,,,,,,,,,,
46137,0,USSouthDakotaZiebach,South Dakota,Ziebach,2022-04-28 09:13:11,2021-12-08,1.2708821375356576,2.243276855115569,4.216973651420275,,,,,,,,,,,,
46137,0,USSouthDakotaZiebach,South Dakota,Ziebach,2022-04-28 09:13:11,2021-12-09,1.2951587557258788,2.9207789038852483,7.084550653471242,,,,,,,,,,,,
46137,0,USSouthDakotaZiebach,South Dakota,Ziebach,2022-04-28 09:13:11,2021-12-10,1.2951587557258788,2.9207789038852483,7.084550653471242,,,,,,,,,,,,
46137,0,USSouthDakotaZiebach,South Dakota,Ziebach,2022-04-28 09:13:11,2021-12-11,1.2951587557258788,2.9207789038852483,7.084550653471242,,,,,,,,,,,,
46137,0,USSouthDakotaZiebach,South Dakota,Ziebach,2022-04-28 09:13:11,2021-12-12,1.2951587557258788,2.9207789038852483,7.084550653471242,,,,,,,,,,,,
46137,0,USSouthDakotaZiebach,South Dakota,Ziebach,2022-04-28 09:13:11,2021-12-13,1.2951587557258788,2.9207789038852483,7.084550653471242,,,,,,,,,,,,
46137,0,USSouthDakotaZiebach,South Dakota,Ziebach,2022-04-28 09:13:11,2021-12-14,1.2951587557258788,2.9207789038852483,7.084550653471242,,,,,,,,,,,,
46137,0,USSouthDakotaZiebach,South Dakota,Ziebach,2022-04-28 09:13:11,2021-12-15,1.2951587557258788,2.9207789038852483,7.084550653471242,,,,,,,,,,,,
46137,0,USSouthDakotaZiebach,South Dakota,Ziebach,2022-04-28 09:13:11,2021-12-16,0.965862621269626,1.92145493072037,4.097590691332856,,,,,,,,,,,,
46137,0,USSouthDakotaZiebach,South Dakota,Ziebach,2022-04-28 09:13:11,2021-12-17,0.965862621269626,1.92145493072037,4.097590691332856,,,,,,,,,,,,
46137,0,USSouthDakotaZiebach,South Dakota,Ziebach,2022-04-28 09:13:11,2021-12-18,0.965862621269626,1.92145493072037,4.097590691332856,,,,,,,,,,,,
46137,0,USSouthDakotaZiebach,South Dakota,Ziebach,2022-04-28 09:13:11,2021-12-19,0.965862621269626,1.92145493072037,4.097590691332856,,,,,,,,,,,,
46137,0,USSouthDakotaZiebach,South Dakota,Ziebach,2022-04-28 09:13:11,2021-12-20,0.965862621269626,1.92145493072037,4.097590691332856,,,,,,,,,,,,
46137,0,USSouthDakotaZiebach,South Dakota,Ziebach,2022-04-28 09:13:11,2021-12-21,0.965862621269626,1.92145493072037,4.097590691332856,,,,,,,,,,,,
46137,0,USSouthDakotaZiebach,South Dakota,Ziebach,2022-04-28 09:13:11,2021-12-22,0.965862621269626,1.92145493072037,4.097590691332856,,,,,,,,,,,,
46137,0,USSouthDakotaZiebach,South Dakota,Ziebach,2022-04-28 09:13:11,2021-12-23,0.17440542039337106,0.3730172567719628,0.8572241568088756,,,,,,,,,,,,
46137,0,USSouthDakotaZiebach,South Dakota,Ziebach,2022-04-28 09:13:11,2021-12-24,0.17440542039337106,0.3730172567719628,0.8572241568088756,,,,,,,,,,,,
46137,0,USSouthDakotaZiebach,South Dakota,Ziebach,2022-04-28 09:13:11,2021-12-25,0.17440542039337106,0.3730172567719628,0.8572241568088756,,,,,,,,,,,,
46137,0,USSouthDakotaZiebach,South Dakota,Ziebach,2022-04-28 09:13:11,2021-12-26,0.17440542039337106,0.3730172567719628,0.8572241568088756,,,,,,,,,,,,
46137,0,USSouthDakotaZiebach,South Dakota,Ziebach,2022-04-28 09:13:11,2021-12-27,0.17440542039337106,0.3730172567719628,0.8572241568088756,,,,,,,,,,,,
46137,0,USSouthDakotaZiebach,South Dakota,Ziebach,2022-04-28 09:13:11,2021-12-28,0.17440542039337106,0.3730172567719628,0.8572241568088756,,,,,,,,,,,,
46137,0,USSouthDakotaZiebach,South Dakota,Ziebach,2022-04-28 09:13:11,2021-12-29,0.17440542039337106,0.3730172567719628,0.8572241568088756,,,,,,,,,,,,
46137,0,USSouthDakotaZiebach,South Dakota,Ziebach,2022-04-28 09:13:11,2021-12-30,0.6796850017998572,1.8318535221225913,5.309563095207334,,,,,,,,,,,,
46137,0,USSouthDakotaZiebach,South Dakota,Ziebach,2022-04-28 09:13:11,2021-12-31,0.6796850017998572,1.8318535221225913,5.309563095207334,,,,,,,,,,,,
46137,0,USSouthDakotaZiebach,South Dakota,Ziebach,2022-04-28 09:13:11,2022-01-01,0.6796850017998572,1.8318535221225913,5.309563095207334,,,,,,,,,,,,
46137,0,USSouthDakotaZiebach,South Dakota,Ziebach,2022-04-28 09:13:11,2022-01-02,0.6796850017998572,1.8318535221225913,5.309563095207334,,,,,,,,,,,,
46137,0,USSouthDakotaZiebach,South Dakota,Ziebach,2022-04-28 09:13:11,2022-01-03,0.6796850017998572,1.8318535221225913,5.309563095207334,,,,,,,,,,,,
46137,0,USSouthDakotaZiebach,South Dakota,Ziebach,2022-04-28 09:13:11,2022-01-04,0.6796850017998572,1.8318535221225913,5.309563095207334,,,,,,,,,,,,
46137,0,USSouthDakotaZiebach,South Dakota,Ziebach,2022-04-28 09:13:11,2022-01-05,0.6796850017998572,1.8318535221225913,5.309563095207334,,,,,,,,,,,,
46137,0,USSouthDakotaZiebach,South Dakota,Ziebach,2022-04-28 09:13:11,2022-01-06,1.7994335576600944,3.6322983756622524,7.8642083421230415,,,,,,,,,,,,
46137,0,USSouthDakotaZiebach,South Dakota,Ziebach,2022-04-28 09:13:11,2022-01-07,1.7994335576600944,3.6322983756622524,7.8642083421230415,,,,,,,,,,,,
46137,0,USSouthDakotaZiebach,South Dakota,Ziebach,2022-04-28 09:13:11,2022-01-08,1.7994335576600944,3.6322983756622524,7.8642083421230415,,,,,,,,,,,,
46137,0,USSouthDakotaZiebach,South Dakota,Ziebach,2022-04-28 09:13:11,2022-01-09,1.7994335576600944,3.6322983756622524,7.8642083421230415,,,,,,,,,,,,
46137,0,USSouthDakotaZiebach,South Dakota,Ziebach,2022-04-28 09:13:11,2022-01-10,1.7994335576600944,3.6322983756622524,7.8642083421230415,,,,,,,,,,,,
46137,0,USSouthDakotaZiebach,South Dakota,Ziebach,2022-04-28 09:13:11,2022-01-11,1.7994335576600944,3.6322983756622524,7.8642083421230415,,,,,,,,,,,,
46137,0,USSouthDakotaZiebach,South Dakota,Ziebach,2022-04-28 09:13:11,2022-01-12,1.7994335576600944,3.6322983756622524,7.8642083421230415,,,,,,,,,,,,
46137,0,USSouthDakotaZiebach,South Dakota,Ziebach,2022-04-28 09:13:11,2022-01-13,1.3215314962961653,3.034309573546208,7.4950953879780835,,,,,,,,,,,,
46137,0,USSouthDakotaZiebach,South Dakota,Ziebach,2022-04-28 09:13:11,2022-01-14,1.3215314962961653,3.034309573546208,7.4950953879780835,,,,,,,,,,,,
46137,0,USSouthDakotaZiebach,South Dakota,Ziebach,2022-04-28 09:13:11,2022-01-15,1.3215314962961653,3.034309573546208,7.4950953879780835,,,,,,,,,,,,
46137,0,USSouthDakotaZiebach,South Dakota,Ziebach,2022-04-28 09:13:11,2022-01-16,1.3215314962961653,3.034309573546208,7.4950953879780835,,,,,,,,,,,,
46137,0,USSouthDakotaZiebach,South Dakota,Ziebach,2022-04-28 09:13:11,2022-01-17,1.3215314962961653,3.034309573546208,7.4950953879780835,,,,,,,,,,,,
46137,0,USSouthDakotaZiebach,South Dakota,Ziebach,2022-04-28 09:13:11,2022-01-18,1.3215314962961653,3.034309573546208,7.4950953879780835,,,,,,,,,,,,
46137,0,USSouthDakotaZiebach,South Dakota,Ziebach,2022-04-28 09:13:11,2022-01-19,1.3215314962961653,3.034309573546208,7.4950953879780835,,,,,,,,,,,,
46137,0,USSouthDakotaZiebach,South Dakota,Ziebach,2022-04-28 09:13:11,2022-01-20,1.2400311736868357,2.383484049616249,4.903590812795533,,,,,,,,,,,,
46137,0,USSouthDakotaZiebach,South Dakota,Ziebach,2022-04-28 09:13:11,2022-01-21,1.2400311736868357,2.383484049616249,4.903590812795533,,,,,,,,,,,,
46137,0,USSouthDakotaZiebach,South Dakota,Ziebach,2022-04-28 09:13:11,2022-01-22,1.2400311736868357,2.383484049616249,4.903590812795533,,,,,,,,,,,,
46137,0,USSouthDakotaZiebach,South Dakota,Ziebach,2022-04-28 09:13:11,2022-01-23,1.2400311736868357,2.383484049616249,4.903590812795533,,,,,,,,,,,,
46137,0,USSouthDakotaZiebach,South Dakota,Ziebach,2022-04-28 09:13:11,2022-01-24,1.2400311736868357,2.383484049616249,4.903590812795533,,,,,,,,,,,,
46137,0,USSouthDakotaZiebach,South Dakota,Ziebach,2022-04-28 09:13:11,2022-01-25,1.2400311736868357,2.383484049616249,4.903590812795533,,,,,,,,,,,,
46137,0,USSouthDakotaZiebach,South Dakota,Ziebach,2022-04-28 09:13:11,2022-01-26,1.2400311736868357,2.383484049616249,4.903590812795533,,,,,,,,,,,,
46137,0,USSouthDakotaZiebach,South Dakota,Ziebach,2022-04-28 09:13:11,2022-01-27,1.1327412825395702,2.600836777325321,6.424367475409784,,,,,,,,,,,,
46137,0,USSouthDakotaZiebach,South Dakota,Ziebach,2022-04-28 09:13:11,2022-01-28,1.1327412825395702,2.600836777325321,6.424367475409784,,,,,,,,,,,,
46137,0,USSouthDakotaZiebach,South Dakota,Ziebach,2022-04-28 09:13:11,2022-01-29,1.1327412825395702,2.600836777325321,6.424367475409784,,,,,,,,,,,,
46137,0,USSouthDakotaZiebach,South Dakota,Ziebach,2022-04-28 09:13:11,2022-01-30,1.1327412825395702,2.600836777325321,6.424367475409784,,,,,,,,,,,,
46137,0,USSouthDakotaZiebach,South Dakota,Ziebach,2022-04-28 09:13:11,2022-01-31,1.1327412825395702,2.600836777325321,6.424367475409784,,,,,,,,,,,,
46137,0,USSouthDakotaZiebach,South Dakota,Ziebach,2022-04-28 09:13:11,2022-02-01,1.1327412825395702,2.600836777325321,6.424367475409784,,,,,,,,,,,,
46137,0,USSouthDakotaZiebach,South Dakota,Ziebach,2022-04-28 09:13:11,2022-02-02,1.1327412825395702,2.600836777325321,6.424367475409784,,,,,,,,,,,,
46137,0,USSouthDakotaZiebach,South Dakota,Ziebach,2022-04-28 09:13:11,2022-02-03,0.6796850017998572,1.8318535221225913,5.309563095207334,,,,,,,,,,,,
46137,0,USSouthDakotaZiebach,South Dakota,Ziebach,2022-04-28 09:13:11,2022-02-04,0.6796850017998572,1.8318535221225913,5.309563095207334,,,,,,,,,,,,
46137,0,USSouthDakotaZiebach,South Dakota,Ziebach,2022-04-28 09:13:11,2022-02-05,0.6796850017998572,1.8318535221225913,5.309563095207334,,,,,,,,,,,,
46137,0,USSouthDakotaZiebach,South Dakota,Ziebach,2022-04-28 09:13:11,2022-02-06,0.6796850017998572,1.8318535221225913,5.309563095207334,,,,,,,,,,,,
46137,0,USSouthDakotaZiebach,South Dakota,Ziebach,2022-04-28 09:13:11,2022-02-07,0.6796850017998572,1.8318535221225913,5.309563095207334,,,,,,,,,,,,
46137,0,USSouthDakotaZiebach,South Dakota,Ziebach,2022-04-28 09:13:11,2022-02-08,0.6796850017998572,1.8318535221225913,5.309563095207334,,,,,,,,,,,,
46137,0,USSouthDakotaZiebach,South Dakota,Ziebach,2022-04-28 09:13:11,2022-02-09,0.6796850017998572,1.8318535221225913,5.309563095207334,,,,,,,,,,,,
46137,0,USSouthDakotaZiebach,South Dakota,Ziebach,2022-04-28 09:13:11,2022-02-10,0.18502267938941125,0.4172541291264641,1.012078664781606,,,,,,,,,,,,
46137,0,USSouthDakotaZiebach,South Dakota,Ziebach,2022-04-28 09:13:11,2022-02-11,0.18502267938941125,0.4172541291264641,1.012078664781606,,,,,,,,,,,,
46137,0,USSouthDakotaZiebach,South Dakota,Ziebach,2022-04-28 09:13:11,2022-02-12,0.18502267938941125,0.4172541291264641,1.012078664781606,,,,,,,,,,,,
46137,0,USSouthDakotaZiebach,South Dakota,Ziebach,2022-04-28 09:13:11,2022-02-13,0.18502267938941125,0.4172541291264641,1.012078664781606,,,,,,,,,,,,
46137,0,USSouthDakotaZiebach,South Dakota,Ziebach,2022-04-28 09:13:11,2022-02-14,0.18502267938941125,0.4172541291264641,1.012078664781606,,,,,,,,,,,,
46137,0,USSouthDakotaZiebach,South Dakota,Ziebach,2022-04-28 09:13:11,2022-02-15,0.18502267938941125,0.4172541291264641,1.012078664781606,,,,,,,,,,,,
46137,0,USSouthDakotaZiebach,South Dakota,Ziebach,2022-04-28 09:13:11,2022-02-16,0.18502267938941125,0.4172541291264641,1.012078664781606,,,,,,,,,,,,
46137,0,USSouthDakotaZiebach,South Dakota,Ziebach,2022-04-28 09:13:11,2022-02-17,17.4393547060858,26.570772477934902,42.54913237374927,,,,,,,,,,,,
46137,0,USSouthDakotaZiebach,South Dakota,Ziebach,2022-04-28 09:13:11,2022-02-18,17.4393547060858,26.570772477934902,42.54913237374927,,,,,,,,,,,,
46137,0,USSouthDakotaZiebach,South Dakota,Ziebach,2022-04-28 09:13:11,2022-02-19,17.4393547060858,26.570772477934902,42.54913237374927,,,,,,,,,,,,
46137,0,USSouthDakotaZiebach,South Dakota,Ziebach,2022-04-28 09:13:11,2022-02-20,17.4393547060858,26.570772477934902,42.54913237374927,,,,,,,,,,,,
46137,0,USSouthDakotaZiebach,South Dakota,Ziebach,2022-04-28 09:13:11,2022-02-21,17.4393547060858,26.570772477934902,42.54913237374927,,,,,,,,,,,,
46137,0,USSouthDakotaZiebach,South Dakota,Ziebach,2022-04-28 09:13:11,2022-02-22,17.4393547060858,26.570772477934902,42.54913237374927,,,,,,,,,,,,
46137,0,USSouthDakotaZiebach,South Dakota,Ziebach,2022-04-28 09:13:11,2022-02-23,17.4393547060858,26.570772477934902,42.54913237374927,,,,,,,,,,,,
46137,0,USSouthDakotaZiebach,South Dakota,Ziebach,2022-04-28 09:13:11,2022-02-24,0,0,0,,,,,,,,,,,,
46137,0,USSouthDakotaZiebach,South Dakota,Ziebach,2022-04-28 09:13:11,2022-02-25,0,0,0,,,,,,,,,,,,
46137,0,USSouthDakotaZiebach,South Dakota,Ziebach,2022-04-28 09:13:11,2022-02-26,0,0,0,,,,,,,,,,,,
46137,0,USSouthDakotaZiebach,South Dakota,Ziebach,2022-04-28 09:13:11,2022-02-27,0,0,0,,,,,,,,,,,,
46137,0,USSouthDakotaZiebach,South Dakota,Ziebach,2022-04-28 09:13:11,2022-02-28,0,0,0,,,,,,,,,,,,
46137,0,USSouthDakotaZiebach,South Dakota,Ziebach,2022-04-28 09:13:11,2022-03-01,0,0,0,,,,,,,,,,,,
46137,0,USSouthDakotaZiebach,South Dakota,Ziebach,2022-04-28 09:13:11,2022-03-02,0,0,0,,,,,,,,,,,,
46137,0,USSouthDakotaZiebach,South Dakota,Ziebach,2022-04-28 09:13:11,2022-03-03,0,0,0,,,,,,,,,,,,
46137,0,USSouthDakotaZiebach,South Dakota,Ziebach,2022-04-28 09:13:11,2022-03-04,0,0,0,,,,,,,,,,,,
46137,0,USSouthDakotaZiebach,South Dakota,Ziebach,2022-04-28 09:13:11,2022-03-05,0,0,0,,,,,,,,,,,,
46137,0,USSouthDakotaZiebach,South Dakota,Ziebach,2022-04-28 09:13:11,2022-03-06,0,0,0,,,,,,,,,,,,
46137,0,USSouthDakotaZiebach,South Dakota,Ziebach,2022-04-28 09:13:11,2022-03-07,0,0,0,,,,,,,,,,,,
46137,0,USSouthDakotaZiebach,South Dakota,Ziebach,2022-04-28 09:13:11,2022-03-08,0,0,0,,,,,,,,,,,,
46137,0,USSouthDakotaZiebach,South Dakota,Ziebach,2022-04-28 09:13:11,2022-03-09,0,0,0,,,,,,,,,,,,
46137,0,USSouthDakotaZiebach,South Dakota,Ziebach,2022-04-28 09:13:11,2022-03-10,0.5880545537303595,1.9774172348921173,7.11145990369479,,,,,,,,,,,,
46137,0,USSouthDakotaZiebach,South Dakota,Ziebach,2022-04-28 09:13:11,2022-03-11,0.5880545537303595,1.9774172348921173,7.11145990369479,,,,,,,,,,,,
46137,0,USSouthDakotaZiebach,South Dakota,Ziebach,2022-04-28 09:13:11,2022-03-12,0.5880545537303595,1.9774172348921173,7.11145990369479,,,,,,,,,,,,
46137,0,USSouthDakotaZiebach,South Dakota,Ziebach,2022-04-28 09:13:11,2022-03-13,0.5880545537303595,1.9774172348921173,7.11145990369479,,,,,,,,,,,,
46137,0,USSouthDakotaZiebach,South Dakota,Ziebach,2022-04-28 09:13:11,2022-03-14,0.5880545537303595,1.9774172348921173,7.11145990369479,,,,,,,,,,,,
46137,0,USSouthDakotaZiebach,South Dakota,Ziebach,2022-04-28 09:13:11,2022-03-15,0.5880545537303595,1.9774172348921173,7.11145990369479,,,,,,,,,,,,
46137,0,USSouthDakotaZiebach,South Dakota,Ziebach,2022-04-28 09:13:11,2022-03-16,0.5880545537303595,1.9774172348921173,7.11145990369479,,,,,,,,,,,,
