FIPS,HR_UID,nameid,province,region,analysisTime,dates,pointprevalence_025,pointprevalence_50,pointprevalence_975,pointinfections_025,pointinfections_50,pointinfections_975,pointinfectious_025,pointinfectious_50,pointinfectious_975,pointinfectiousprevalence_05,pointinfectiousprevalence_50,pointinfectiousprevalence_95,infectrate_025,infectrate_50,infectrate_975
0,0,SaintLucia,,,2022-03-22 20:23:52.798609,2021-08-27,1.52425399,3.96589974,6.55568082,2798,7282,12038,1833,5314,7329,0.99823779,2.89434076,3.99125309,0.27700940,0.37789911,0.47671194
0,0,SaintLucia,,,2022-03-22 20:23:52.798609,2021-08-28,1.77909675,4.19522984,6.74977236,3266,7703,12394,2010,5330,7619,1.09490478,2.90311667,4.14921122,0.27700974,0.37789885,0.47671195
0,0,SaintLucia,,,2022-03-22 20:23:52.798609,2021-08-29,2.02673548,4.43173265,6.97543063,3721,8137,12808,2261,5493,7944,1.23164052,2.99144566,4.32642858,0.27701082,0.37789806,0.47671200
0,0,SaintLucia,,,2022-03-22 20:23:52.798609,2021-08-30,2.28952895,4.67221592,7.11883575,4204,8579,13072,2534,5740,8136,1.38026584,3.12589130,4.43075346,0.27701420,0.37789557,0.47671215
0,0,SaintLucia,,,2022-03-22 20:23:52.798609,2021-08-31,2.57017818,4.91504275,7.18390907,4719,9025,13191,2876,5993,8277,1.56650123,3.26388432,4.50782210,0.27702480,0.37788775,0.47671261
0,0,SaintLucia,,,2022-03-22 20:23:52.798609,2021-09-01,2.83494313,5.17701456,7.18435841,5205,9506,13192,3205,6322,8462,1.74581529,3.44333716,4.60852849,0.27705804,0.37786325,0.47671407
0,0,SaintLucia,,,2022-03-22 20:23:52.798609,2021-09-02,3.07981269,5.37246181,7.28734504,5655,9865,13381,3507,6530,8496,1.90996692,3.55648619,4.62707022,0.27716218,0.37778651,0.47671705
0,0,SaintLucia,,,2022-03-22 20:23:52.798609,2021-09-03,3.32435222,5.57169718,7.30918878,6104,10231,13421,3807,6725,8641,2.07332570,3.66253241,4.70612727,0.27748804,0.37757978,0.47670421
0,0,SaintLucia,,,2022-03-22 20:23:52.798609,2021-09-04,3.56838420,5.68549381,7.41016536,6552,10440,13607,4106,6923,8770,2.23644032,3.77013229,4.77629103,0.27850290,0.37701238,0.47666432
0,0,SaintLucia,,,2022-03-22 20:23:52.798609,2021-09-05,3.78214970,5.82137427,7.43265753,6945,10689,13648,4405,7071,8894,2.39912397,3.85097432,4.84350823,0.28161853,0.37492981,0.47669428
0,0,SaintLucia,,,2022-03-22 20:23:52.798609,2021-09-06,3.99619741,5.90622600,7.58872939,7338,10845,13935,4668,7120,8891,2.54209644,3.87774172,4.84231801,0.29077530,0.36927733,0.47712930
0,0,SaintLucia,,,2022-03-22 20:23:52.798609,2021-09-07,4.23211976,6.03803906,7.71927011,7771,11087,14174,4937,7215,9176,2.68865579,3.92953978,4.99735282,0.31471748,0.35538302,0.47834636
0,0,SaintLucia,,,2022-03-22 20:23:52.798609,2021-09-08,4.49930887,6.22464537,7.86072290,8262,11430,14434,5255,7390,9411,2.86201799,4.02493698,5.12552885,0.32035636,0.38415395,0.48124296
0,0,SaintLucia,,,2022-03-22 20:23:52.798609,2021-09-09,4.80075789,6.45082603,8.03359245,8815,11845,14752,5586,7641,9614,3.04254759,4.16114047,5.23594977,0.29289468,0.42008341,0.48980936
0,0,SaintLucia,,,2022-03-22 20:23:52.798609,2021-09-10,5.07739475,6.67688659,8.20628516,9323,12260,15069,5945,7980,9747,3.23791824,4.34583754,5.30822484,0.27814059,0.44748519,0.49650357
0,0,SaintLucia,,,2022-03-22 20:23:52.798609,2021-09-11,5.38071458,6.84916737,8.36750461,9880,12577,15365,6287,8277,9939,3.42404923,4.50771082,5.41302232,0.27249533,0.45831312,0.49797404
0,0,SaintLucia,,,2022-03-22 20:23:52.798609,2021-09-12,5.65997117,7.01327554,8.61378701,10393,12878,15817,6532,8584,10179,3.55743835,4.67518535,5.54356312,0.27150411,0.45722248,0.49454490
0,0,SaintLucia,,,2022-03-22 20:23:52.798609,2021-09-13,5.86945661,7.10883737,8.80711333,10778,13053,16172,6867,8801,10391,3.73993058,4.79297769,5.65881784,0.27367436,0.44517910,0.48479500
0,0,SaintLucia,,,2022-03-22 20:23:52.798609,2021-09-14,6.08423595,7.19116469,8.99618211,11172,13205,16519,7097,8937,10693,3.86492769,4.86701397,5.82357583,0.28014166,0.42470187,0.46923325
0,0,SaintLucia,,,2022-03-22 20:23:52.798609,2021-09-15,6.23741278,7.27779580,9.18847553,11453,13364,16872,7232,9077,11035,3.93841590,4.94330003,6.00947125,0.29235553,0.38770864,0.46773871
0,0,SaintLucia,,,2022-03-22 20:23:52.798609,2021-09-16,6.25343138,7.33653327,9.40575404,11483,13472,17271,7439,9148,11287,4.05151094,4.98226412,6.14683630,0.29619781,0.35392698,0.46934742
0,0,SaintLucia,,,2022-03-22 20:23:52.798609,2021-09-17,6.27000367,7.30212648,9.61558002,11513,13408,17656,7577,9160,11526,4.12638291,4.98848205,6.27693170,0.27061403,0.33557839,0.47387256
0,0,SaintLucia,,,2022-03-22 20:23:52.798609,2021-09-18,6.27908603,7.19967246,9.65784548,11530,13220,17734,7658,9136,11719,4.17078001,4.97535316,6.38217924,0.26108184,0.32752298,0.47327010
0,0,SaintLucia,,,2022-03-22 20:23:52.798609,2021-09-19,6.28342322,7.13871983,9.78663341,11538,13108,17971,7700,9098,11931,4.19339343,4.95501407,6.49752053,0.25858500,0.32217177,0.46810212
0,0,SaintLucia,,,2022-03-22 20:23:52.798609,2021-09-20,6.18894166,7.04278618,9.79333592,11364,12932,17983,7710,9014,12010,4.19908251,4.90895972,6.54065389,0.25969226,0.31783288,0.45115361
0,0,SaintLucia,,,2022-03-22 20:23:52.798609,2021-09-21,6.13098974,6.96173592,9.84647038,11258,12783,18080,7663,8973,12077,4.17357280,4.88666660,6.57718747,0.26471870,0.31228843,0.41347869
0,0,SaintLucia,,,2022-03-22 20:23:52.798609,2021-09-22,6.00873488,6.88043629,9.76445898,11033,12634,17930,7527,8912,12033,4.09923754,4.85329023,6.55321343,0.26225252,0.30678738,0.35491096
0,0,SaintLucia,,,2022-03-22 20:23:52.798609,2021-09-23,5.82501793,6.79323617,9.48093625,10696,12474,17409,7320,8850,11889,3.98639450,4.81998006,6.47484760,0.23442114,0.29534251,0.30689376
0,0,SaintLucia,,,2022-03-22 20:23:52.798609,2021-09-24,5.67930796,6.69246197,9.12016140,10428,12289,16747,7151,8760,11631,3.89476317,4.77101776,6.33398002,0.21971816,0.28527167,0.30270226
0,0,SaintLucia,,,2022-03-22 20:23:52.798609,2021-09-25,5.39034656,6.56409476,8.71967394,9898,12053,16011,6903,8628,11258,3.75954668,4.69866672,6.13094049,0.21366950,0.28114649,0.30110780
0,0,SaintLucia,,,2022-03-22 20:23:52.798609,2021-09-26,5.18994061,6.42120267,8.35209891,9530,11791,15336,6551,8458,10911,3.56752453,4.60641462,5.94204500,0.21060228,0.27776585,0.29852844
0,0,SaintLucia,,,2022-03-22 20:23:52.798609,2021-09-27,4.98060826,6.22994429,7.99312804,9145,11439,14677,6165,8248,10499,3.35773020,4.49189781,5.71782678,0.20655507,0.27236311,0.29199432
0,0,SaintLucia,,,2022-03-22 20:23:52.798609,2021-09-28,4.65550615,6.05114956,7.60699452,8548,11111,13968,5780,7998,10049,3.14817894,4.35600067,5.47272863,0.19711623,0.26303746,0.28068407
0,0,SaintLucia,,,2022-03-22 20:23:52.798609,2021-09-29,4.32233779,5.81914871,7.19233872,7937,10685,13207,5398,7741,9559,2.93982901,4.21575926,5.20566725,0.18315323,0.24378519,0.26341425
0,0,SaintLucia,,,2022-03-22 20:23:52.798609,2021-09-30,3.99762828,5.55208054,6.75970592,7340,10195,12412,5018,7496,9080,2.73288580,4.08266108,4.94512806,0.16143712,0.22482285,0.24795139
0,0,SaintLucia,,,2022-03-22 20:23:52.798609,2021-10-01,3.68283038,5.27133369,6.33063224,6762,9679,11624,4645,7203,8569,2.52971016,3.92264427,4.66695736,0.14714603,0.21352429,0.23942557
0,0,SaintLucia,,,2022-03-22 20:23:52.798609,2021-10-02,3.38695987,4.99065355,5.92933506,6219,9164,10887,4290,6846,8219,2.33628125,3.72862545,4.47613984,0.14149519,0.20967131,0.23559035
0,0,SaintLucia,,,2022-03-22 20:23:52.798609,2021-10-03,3.11055996,4.72151075,5.54199905,5711,8670,10176,3951,6474,7667,2.15209975,3.52569050,4.17538592,0.14004583,0.20692031,0.23280767
0,0,SaintLucia,,,2022-03-22 20:23:52.798609,2021-10-04,2.85293107,4.46110278,5.17052659,5238,8191,9494,3633,6063,7130,1.97864869,3.30183909,3.88304412,0.14091293,0.20313564,0.22774573
0,0,SaintLucia,,,2022-03-22 20:23:52.798609,2021-10-05,2.61163560,4.18936113,4.82178920,4795,7692,8854,3334,5728,6743,1.81605576,3.11987425,3.67213906,0.14384736,0.19521210,0.21650830
0,0,SaintLucia,,,2022-03-22 20:23:52.798609,2021-10-06,2.38407273,3.92989582,4.51702943,4377,7216,8294,3054,5364,6369,1.66348837,2.92154920,3.46850128,0.14919328,0.18247427,0.20572126
0,0,SaintLucia,,,2022-03-22 20:23:52.798609,2021-10-07,2.17021963,3.67206300,4.21887668,3985,6742,7747,2791,5013,6003,1.52005289,2.73030695,3.26956052,0.15457385,0.17054021,0.20550269
0,0,SaintLucia,,,2022-03-22 20:23:52.798609,2021-10-08,1.97287572,3.41732176,3.93673602,3622,6275,7228,2544,4698,5633,1.38576762,2.55886042,3.06763567,0.14906532,0.16674851,0.20526288
0,0,SaintLucia,,,2022-03-22 20:23:52.798609,2021-10-09,1.79164376,3.17728694,3.66691498,3289,5834,6733,2315,4388,5266,1.26114897,2.38981472,2.86821979,0.14565606,0.16583393,0.20497986
0,0,SaintLucia,,,2022-03-22 20:23:52.798609,2021-10-10,1.62609487,2.95205070,3.41186530,2985,5420,6265,2104,4072,4911,1.14628848,2.21765505,2.67478699,0.14430843,0.16513797,0.20396755
0,0,SaintLucia,,,2022-03-22 20:23:52.798609,2021-10-11,1.47514781,2.73950147,3.17297067,2708,5030,5826,1911,3787,4573,1.04097312,2.06283562,2.49071581,0.14338351,0.16274438,0.20108534
0,0,SaintLucia,,,2022-03-22 20:23:52.798609,2021-10-12,1.33748061,2.53934843,2.95118781,2456,4662,5419,1734,3513,4257,0.94467826,1.91318095,2.31846007,0.14162678,0.15772823,0.19447274
0,0,SaintLucia,,,2022-03-22 20:23:52.798609,2021-10-13,1.21161961,2.34158643,2.74483699,2224,4299,5040,1573,3258,3961,0.85681040,1.77426429,2.15728686,0.13894806,0.15321208,0.18466492
0,0,SaintLucia,,,2022-03-22 20:23:52.798609,2021-10-14,1.09658445,2.16172074,2.55202626,2013,3969,4686,1425,3007,3685,0.77647122,1.63783302,2.00696514,0.13542097,0.15203074,0.17689589
0,0,SaintLucia,,,2022-03-22 20:23:52.798609,2021-10-15,0.99316787,1.98824191,2.37160741,1823,3650,4354,1292,2772,3426,0.70393696,1.50964863,1.86574199,0.12979242,0.15128117,0.17309005
0,0,SaintLucia,,,2022-03-22 20:23:52.798609,2021-10-16,0.89982357,1.82918721,2.20329155,1652,3358,4045,1173,2558,3185,0.63904749,1.39337984,1.73469068,0.12772100,0.15069950,0.17191079
0,0,SaintLucia,,,2022-03-22 20:23:52.798609,2021-10-17,0.81482927,1.68136833,2.04659199,1496,3087,3758,1064,2355,2960,0.57946683,1.28260259,1.61215255,0.12741913,0.15060026,0.17124291
0,0,SaintLucia,,,2022-03-22 20:23:52.798609,2021-10-18,0.73752588,1.54330556,1.90096790,1354,2833,3490,964,2164,2750,0.52501662,1.17869758,1.49782062,0.12834596,0.14991618,0.17069945
0,0,SaintLucia,,,2022-03-22 20:23:52.798609,2021-10-19,0.66711736,1.41905121,1.76561469,1225,2605,3242,872,1990,2555,0.47536746,1.08410152,1.39146506,0.13097643,0.14662199,0.17093422
0,0,SaintLucia,,,2022-03-22 20:23:52.798609,2021-10-20,0.60284973,1.30420013,1.63975370,1107,2394,3011,789,1832,2373,0.43011008,0.99797234,1.29255782,0.13190745,0.14191574,0.17060161
0,0,SaintLucia,,,2022-03-22 20:23:52.798609,2021-10-21,0.54424531,1.20112492,1.52272987,999,2205,2796,714,1685,2204,0.38883957,0.91810852,1.20057742,0.13135802,0.14160430,0.17178995
0,0,SaintLucia,,,2022-03-22 20:23:52.798609,2021-10-22,0.49139533,1.10828292,1.41487764,902,2035,2598,645,1550,2047,0.35128110,0.84428350,1.11521276,0.12686239,0.14248982,0.17331485
0,0,SaintLucia,,,2022-03-22 20:23:52.798609,2021-10-23,0.44361896,1.01993836,1.31476686,814,1872,2414,582,1427,1902,0.31724489,0.77746601,1.03615986,0.12507489,0.14292620,0.17392245
0,0,SaintLucia,,,2022-03-22 20:23:52.798609,2021-10-24,0.40051151,0.93668375,1.22177053,735,1720,2243,526,1315,1768,0.28645418,0.71653687,0.96284209,0.12491917,0.14275113,0.17381733
0,0,SaintLucia,,,2022-03-22 20:23:52.798609,2021-10-25,0.36163328,0.86403124,1.13515698,664,1586,2084,474,1210,1642,0.25864012,0.65936926,0.89473537,0.12612248,0.14199132,0.17271417
0,0,SaintLucia,,,2022-03-22 20:23:52.798609,2021-10-26,0.32654169,0.79623643,1.05404076,599,1462,1935,428,1112,1526,0.23353186,0.60603648,0.83129006,0.12981273,0.13993445,0.16983188
0,0,SaintLucia,,,2022-03-22 20:23:52.798609,2021-10-27,0.29482661,0.73206998,0.97759615,541,1344,1795,387,1024,1417,0.21086174,0.55774889,0.77191956,0.13507014,0.13983916,0.16537456
0,0,SaintLucia,,,2022-03-22 20:23:52.798609,2021-10-28,0.26617420,0.67176811,0.90561898,488,1233,1662,349,943,1315,0.19038432,0.51365176,0.71614882,0.13248207,0.14351092,0.16252794
0,0,SaintLucia,,,2022-03-22 20:23:52.798609,2021-10-29,0.24080481,0.61762523,0.83776214,442,1134,1538,315,868,1218,0.17196149,0.47290541,0.66367208,0.13055036,0.14496442,0.16145932
0,0,SaintLucia,,,2022-03-22 20:23:52.798609,2021-10-30,0.21803118,0.57243165,0.77472808,400,1051,1422,285,798,1128,0.15547629,0.43467166,0.61440838,0.12993396,0.14594743,0.16098952
0,0,SaintLucia,,,2022-03-22 20:23:52.798609,2021-10-31,0.19760694,0.52769429,0.71649763,362,968,1315,258,732,1043,0.14070573,0.39914809,0.56848930,0.13031809,0.14655709,0.16090230
0,0,SaintLucia,,,2022-03-22 20:23:52.798609,2021-11-01,0.17929985,0.48535376,0.66311134,329,891,1217,234,677,965,0.12746624,0.36892352,0.52597574,0.13220724,0.14775766,0.16109196
0,0,SaintLucia,,,2022-03-22 20:23:52.798609,2021-11-02,0.16291034,0.44918275,0.61486502,299,824,1129,212,623,894,0.11560198,0.33979962,0.48695521,0.13689651,0.15053689,0.16168025
0,0,SaintLucia,,,2022-03-22 20:23:52.798609,2021-11-03,0.14826037,0.41618143,0.57212343,272,764,1050,192,579,829,0.10497876,0.31556188,0.45159981,0.14466111,0.15523776,0.16312509
0,0,SaintLucia,,,2022-03-22 20:23:52.798609,2021-11-04,0.13516635,0.38752105,0.53444968,248,711,981,175,535,771,0.09547529,0.29136661,0.41998777,0.15057161,0.15983844,0.16717698
0,0,SaintLucia,,,2022-03-22 20:23:52.798609,2021-11-05,0.12244024,0.35948478,0.50114518,224,660,920,159,498,719,0.08682766,0.27123219,0.39191957,0.15108941,0.16337371,0.17028180
0,0,SaintLucia,,,2022-03-22 20:23:52.798609,2021-11-06,0.11091823,0.33258338,0.47072994,203,610,864,144,463,673,0.07880483,0.25253328,0.36687782,0.15138124,0.16461196,0.17219905
0,0,SaintLucia,,,2022-03-22 20:23:52.798609,2021-11-07,0.10050698,0.30892154,0.44267343,184,567,812,131,429,632,0.07145545,0.23415650,0.34419868,0.15240698,0.16557250,0.17331482
0,0,SaintLucia,,,2022-03-22 20:23:52.798609,2021-11-08,0.09114859,0.28796980,0.41686532,167,528,765,118,398,593,0.06477931,0.21725810,0.32344588,0.15495064,0.16745874,0.17537626
0,0,SaintLucia,,,2022-03-22 20:23:52.798609,2021-11-09,0.08280522,0.26948282,0.39325225,152,494,722,107,370,559,0.05875857,0.20183313,0.30442134,0.16163819,0.17194672,0.18004538
0,0,SaintLucia,,,2022-03-22 20:23:52.798609,2021-11-10,0.07544120,0.25226168,0.37221027,138,463,683,98,346,527,0.05337230,0.18886740,0.28717129,0.16843220,0.18214010,0.18822588
0,0,SaintLucia,,,2022-03-22 20:23:52.798609,2021-11-11,0.06895453,0.23704451,0.35353012,126,435,649,89,325,498,0.04858899,0.17720283,0.27158551,0.16936215,0.19247716,0.19716558
0,0,SaintLucia,,,2022-03-22 20:23:52.798609,2021-11-12,0.06314083,0.22351301,0.33602286,115,410,617,81,304,472,0.04434427,0.16606474,0.25751956,0.16969370,0.19770570,0.20324095
0,0,SaintLucia,,,2022-03-22 20:23:52.798609,2021-11-13,0.05792713,0.21101381,0.31972143,106,387,587,74,287,449,0.04055815,0.15651032,0.24457304,0.16990713,0.20007218,0.20742996
0,0,SaintLucia,,,2022-03-22 20:23:52.798609,2021-11-14,0.05323783,0.19942920,0.30410622,97,366,558,68,270,426,0.03716944,0.14752196,0.23242244,0.17008404,0.20167328,0.20915431
0,0,SaintLucia,,,2022-03-22 20:23:52.798609,2021-11-15,0.04903813,0.18835680,0.28948267,90,345,531,62,256,406,0.03413136,0.13947834,0.22109960,0.17037139,0.20346051,0.21027536
0,0,SaintLucia,,,2022-03-22 20:23:52.798609,2021-11-16,0.04533500,0.17849580,0.27553946,83,327,505,57,242,386,0.03141761,0.13215982,0.21039586,0.17153772,0.20376274,0.21678554
0,0,SaintLucia,,,2022-03-22 20:23:52.798609,2021-11-17,0.04215081,0.16973493,0.26219058,77,311,481,53,230,367,0.02902151,0.12543142,0.20021831,0.17364499,0.20447434,0.23030732
0,0,SaintLucia,,,2022-03-22 20:23:52.798609,2021-11-18,0.03943584,0.16226228,0.24902343,72,297,457,49,218,349,0.02693731,0.11914972,0.19050311,0.17622285,0.21307710,0.24511830
0,0,SaintLucia,,,2022-03-22 20:23:52.798609,2021-11-19,0.03735239,0.15546816,0.23306188,68,285,427,46,207,329,0.02517633,0.11306923,0.17941810,0.17777463,0.21842080,0.25414049
0,0,SaintLucia,,,2022-03-22 20:23:52.798609,2021-11-20,0.03552370,0.14907913,0.22262828,65,273,408,43,198,308,0.02372069,0.10834280,0.16815977,0.17852349,0.21967947,0.25848008
0,0,SaintLucia,,,2022-03-22 20:23:52.798609,2021-11-21,0.03388507,0.14344930,0.21352676,62,263,392,41,190,295,0.02247854,0.10362456,0.16115387,0.17925499,0.22006493,0.26196143
0,0,SaintLucia,,,2022-03-22 20:23:52.798609,2021-11-22,0.03239463,0.13719400,0.20156437,59,251,370,39,182,283,0.02138888,0.09947181,0.15441796,0.18085718,0.22084864,0.26930695
0,0,SaintLucia,,,2022-03-22 20:23:52.798609,2021-11-23,0.03102710,0.13255168,0.19306391,56,243,354,37,176,267,0.02041317,0.09587411,0.14557601,0.18474099,0.22210208,0.28705643
0,0,SaintLucia,,,2022-03-22 20:23:52.798609,2021-11-24,0.02976590,0.12707984,0.18623693,54,233,341,35,169,256,0.01952725,0.09214288,0.13953517,0.19346159,0.22537448,0.31921881
0,0,SaintLucia,,,2022-03-22 20:23:52.798609,2021-11-25,0.02859954,0.12311991,0.18012251,52,226,330,34,163,247,0.01871569,0.08888740,0.13452597,0.20037293,0.23027625,0.35475966
0,0,SaintLucia,,,2022-03-22 20:23:52.798609,2021-11-26,0.02727877,0.12140870,0.17388019,50,222,319,32,157,238,0.01793302,0.08600312,0.12989506,0.20498647,0.23219968,0.37684278
0,0,SaintLucia,,,2022-03-22 20:23:52.798609,2021-11-27,0.02603540,0.12123575,0.16674332,47,222,306,31,152,230,0.01714342,0.08288498,0.12530932,0.20763906,0.23319616,0.38669590
0,0,SaintLucia,,,2022-03-22 20:23:52.798609,2021-11-28,0.02487707,0.12096161,0.16196099,45,222,297,30,150,220,0.01637778,0.08180937,0.12022218,0.21070402,0.23489659,0.39169921
0,0,SaintLucia,,,2022-03-22 20:23:52.798609,2021-11-29,0.02382743,0.11860831,0.16139678,43,217,296,28,150,213,0.01565601,0.08176354,0.11632596,0.21801083,0.23995429,0.39765818
0,0,SaintLucia,,,2022-03-22 20:23:52.798609,2021-11-30,0.02293398,0.11711691,0.15990645,42,215,293,27,150,207,0.01499841,0.08174294,0.11274339,0.23459407,0.26162848,0.41019492
0,0,SaintLucia,,,2022-03-22 20:23:52.798609,2021-12-01,0.02225768,0.11575064,0.15873555,40,212,291,26,148,203,0.01443227,0.08090518,0.11099238,0.25665273,0.30346067,0.43226454
0,0,SaintLucia,,,2022-03-22 20:23:52.798609,2021-12-02,0.02179952,0.11652814,0.16126365,40,213,296,25,148,204,0.01398186,0.08106035,0.11134688,0.27686547,0.33957059,0.45524370
0,0,SaintLucia,,,2022-03-22 20:23:52.798609,2021-12-03,0.02237067,0.11790137,0.16403113,41,216,301,25,148,206,0.01377675,0.08083388,0.11242015,0.28894454,0.36264581,0.47043205
0,0,SaintLucia,,,2022-03-22 20:23:52.798609,2021-12-04,0.02305361,0.11982945,0.16718496,42,220,307,25,150,209,0.01390143,0.08171575,0.11391811,0.29542429,0.37605130,0.47792317
0,0,SaintLucia,,,2022-03-22 20:23:52.798609,2021-12-05,0.02381563,0.12203699,0.17142650,43,224,314,26,149,212,0.01420815,0.08154873,0.11584557,0.30154899,0.38399453,0.48423768
0,0,SaintLucia,,,2022-03-22 20:23:52.798609,2021-12-06,0.02466671,0.12468953,0.17547248,45,228,322,26,152,216,0.01462196,0.08316943,0.11808513,0.31555946,0.39576003,0.49650330
0,0,SaintLucia,,,2022-03-22 20:23:52.798609,2021-12-07,0.02571635,0.12793469,0.18068803,47,234,331,27,156,221,0.01512827,0.08513202,0.12051712,0.35210415,0.42495929,0.52959149
0,0,SaintLucia,,,2022-03-22 20:23:52.798609,2021-12-08,0.02717585,0.13223255,0.18744763,49,242,344,28,161,227,0.01577240,0.08796072,0.12366945,0.41859386,0.46534333,0.59117960
0,0,SaintLucia,,,2022-03-22 20:23:52.798609,2021-12-09,0.02915388,0.13773839,0.19762604,53,252,362,30,168,235,0.01663925,0.09193399,0.12807611,0.48501791,0.52323909,0.66182898
0,0,SaintLucia,,,2022-03-22 20:23:52.798609,2021-12-10,0.03189100,0.14403413,0.21035476,58,264,386,33,177,246,0.01798076,0.09659130,0.13417862,0.50952561,0.58388026,0.70689198
0,0,SaintLucia,,,2022-03-22 20:23:52.798609,2021-12-11,0.03503240,0.15132400,0.22856837,64,277,419,35,185,262,0.01948179,0.10111540,0.14277204,0.51885232,0.60697077,0.72746817
0,0,SaintLucia,,,2022-03-22 20:23:52.798609,2021-12-12,0.03913810,0.15884407,0.24833098,71,291,456,38,194,278,0.02102492,0.10584350,0.15143947,0.52588128,0.61678677,0.73708334
0,0,SaintLucia,,,2022-03-22 20:23:52.798609,2021-12-13,0.04374095,0.16747143,0.26762573,80,307,491,43,204,302,0.02345896,0.11136947,0.16449259,0.54118586,0.63118860,0.74289689
0,0,SaintLucia,,,2022-03-22 20:23:52.798609,2021-12-14,0.04919432,0.18014112,0.29024050,90,330,532,48,215,326,0.02625303,0.11740499,0.17754790,0.57466444,0.65947069,0.77782463
0,0,SaintLucia,,,2022-03-22 20:23:52.798609,2021-12-15,0.05487985,0.19456171,0.31599707,100,357,580,54,229,353,0.02963718,0.12479719,0.19277956,0.63634485,0.72080104,0.86584741
0,0,SaintLucia,,,2022-03-22 20:23:52.798609,2021-12-16,0.06433735,0.21844300,0.34335917,118,401,630,61,248,383,0.03349507,0.13545582,0.20868349,0.68398128,0.77925235,1.01628425
0,0,SaintLucia,,,2022-03-22 20:23:52.798609,2021-12-17,0.07370244,0.24878265,0.37152670,135,456,682,70,274,416,0.03834676,0.14965294,0.22678129,0.69554147,0.81066827,1.12694989
0,0,SaintLucia,,,2022-03-22 20:23:52.798609,2021-12-18,0.08310291,0.28011609,0.40492129,152,514,743,82,308,453,0.04482109,0.16817401,0.24697122,0.70165070,0.82260458,1.18188106
0,0,SaintLucia,,,2022-03-22 20:23:52.798609,2021-12-19,0.09669355,0.32011195,0.44503758,177,587,817,94,351,495,0.05156939,0.19147393,0.26990499,0.71008002,0.83221773,1.20362088
0,0,SaintLucia,,,2022-03-22 20:23:52.798609,2021-12-20,0.11153975,0.36444736,0.49277912,204,669,904,106,398,549,0.05817796,0.21693122,0.29898435,0.73076691,0.84944792,1.21677600
0,0,SaintLucia,,,2022-03-22 20:23:52.798609,2021-12-21,0.13079478,0.41993363,0.54848518,240,771,1007,123,453,603,0.06744791,0.24674769,0.32871914,0.78292970,0.90418884,1.24391201
0,0,SaintLucia,,,2022-03-22 20:23:52.798609,2021-12-22,0.15489036,0.48769642,0.63696532,284,895,1169,144,520,685,0.07863150,0.28320193,0.37319911,0.88114737,1.03759833,1.32473742
0,0,SaintLucia,,,2022-03-22 20:23:52.798609,2021-12-23,0.18710398,0.58565710,0.74486966,343,1075,1367,172,605,787,0.09374525,0.32976447,0.42883448,0.99069912,1.18660846,1.51871703
0,0,SaintLucia,,,2022-03-22 20:23:52.798609,2021-12-24,0.22835124,0.70588132,0.88967723,419,1296,1633,207,717,911,0.11282953,0.39067928,0.49647228,1.06071705,1.28032230,1.64646314
0,0,SaintLucia,,,2022-03-22 20:23:52.798609,2021-12-25,0.27256917,0.84718290,1.07441453,500,1555,1972,246,858,1092,0.13450793,0.46767091,0.59478816,1.09117039,1.31760156,1.70258436
0,0,SaintLucia,,,2022-03-22 20:23:52.798609,2021-12-26,0.32580009,1.02918042,1.34117571,598,1889,2462,299,1030,1339,0.16290149,0.56095604,0.72944288,1.10873461,1.33491957,1.72107052
0,0,SaintLucia,,,2022-03-22 20:23:52.798609,2021-12-27,0.39082689,1.24962820,1.65649996,717,2294,3041,358,1240,1642,0.19529598,0.67571235,0.89447727,1.13237660,1.35089105,1.72244975
0,0,SaintLucia,,,2022-03-22 20:23:52.798609,2021-12-28,0.47376739,1.52468808,2.03563417,869,2799,3738,430,1524,2027,0.23460549,0.83029597,1.10387563,1.18259560,1.38055673,1.70306368
0,0,SaintLucia,,,2022-03-22 20:23:52.798609,2021-12-29,0.58155190,1.86929823,2.51840489,1067,3432,4624,527,1866,2505,0.28710947,1.01622223,1.36466344,1.25559937,1.42495005,1.74091054
0,0,SaintLucia,,,2022-03-22 20:23:52.798609,2021-12-30,0.73725578,2.31268841,3.09711458,1353,4246,5687,636,2292,3101,0.34685751,1.24852661,1.68913525,1.31773814,1.45936451,1.84371908
0,0,SaintLucia,,,2022-03-22 20:23:52.798609,2021-12-31,0.93853954,2.84860549,3.81153831,1723,5230,6999,803,2810,3823,0.43746242,1.53072885,2.08195986,1.30428405,1.48747033,1.98592551
0,0,SaintLucia,,,2022-03-22 20:23:52.798609,2022-01-01,1.19845626,3.49496162,4.79880274,2200,6417,8811,1012,3482,4785,0.55137584,1.89643567,2.60620801,1.28973766,1.49911822,2.03850338
0,0,SaintLucia,,,2022-03-22 20:23:52.798609,2022-01-02,1.54365766,4.28538870,5.90663219,2834,7869,10846,1291,4252,5977,0.70315011,2.31555839,3.25539841,1.29121400,1.49990090,2.05034695
0,0,SaintLucia,,,2022-03-22 20:23:52.798609,2022-01-03,1.96670726,5.23880286,7.29709199,3611,9619,13399,1662,5227,7420,0.90557556,2.84683728,4.04099081,1.30094944,1.49801869,2.04959344
0,0,SaintLucia,,,2022-03-22 20:23:52.798609,2022-01-04,2.49853414,6.32474108,8.93372280,4588,11614,16404,2136,6336,9185,1.16335647,3.45060704,5.00197120,1.33431497,1.48838180,2.03676479
0,0,SaintLucia,,,2022-03-22 20:23:52.798609,2022-01-05,3.18814402,7.70563890,10.74329551,5854,14149,19727,2716,7689,11231,1.47942196,4.18740017,6.11623598,1.37327717,1.51398074,2.01637188
0,0,SaintLucia,,,2022-03-22 20:23:52.798609,2022-01-06,4.05441895,9.41914496,12.73326754,7445,17296,23381,3451,9303,13517,1.87939653,5.06672378,7.36121687,1.35075031,1.53302779,1.99759245
0,0,SaintLucia,,,2022-03-22 20:23:52.798609,2022-01-07,5.16212850,11.38448717,14.85398793,9479,20905,27276,4432,11313,16009,2.41371366,6.16097458,8.71834087,1.32368271,1.56691776,1.99187571
0,0,SaintLucia,,,2022-03-22 20:23:52.798609,2022-01-08,6.42126313,13.54064804,17.20335374,11791,24864,31590,5681,13655,18741,3.09408585,7.43659982,10.20593533,1.31266777,1.58085636,1.99941429
0,0,SaintLucia,,,2022-03-22 20:23:52.798609,2022-01-09,8.00483747,15.98005263,19.63863053,14699,29344,36062,7026,16416,21600,3.82649638,8.94013945,11.76312979,1.30936247,1.58461429,2.00058000
0,0,SaintLucia,,,2022-03-22 20:23:52.798609,2022-01-10,9.64858748,18.48822509,22.27515906,17717,33949,40903,8733,19267,24573,4.75604623,10.49260814,13.38236120,1.30948422,1.58149942,1.99160095
0,0,SaintLucia,,,2022-03-22 20:23:52.798609,2022-01-11,11.43852874,20.89013568,24.99795731,21004,38360,45903,10705,22493,27478,5.82973592,12.24945460,14.96396490,1.31004623,1.57031291,1.96642242
0,0,SaintLucia,,,2022-03-22 20:23:52.798609,2022-01-12,13.67666448,23.17322537,27.16869815,25114,42552,49889,12701,25486,30335,6.91697635,13.87920007,16.52005295,1.31029028,1.55047763,1.91796614
0,0,SaintLucia,,,2022-03-22 20:23:52.798609,2022-01-13,15.79412942,25.15336269,29.39018561,29002,46188,53968,14878,28452,33344,8.10242672,15.49441426,18.15851325,1.30535139,1.52811115,1.87580834
0,0,SaintLucia,,,2022-03-22 20:23:52.798609,2022-01-14,18.10849484,26.62786389,30.67762569,33252,48896,56333,17676,31114,35863,9.62602026,16.94430344,19.53028116,1.28619520,1.51016124,1.85095132
0,0,SaintLucia,,,2022-03-22 20:23:52.798609,2022-01-15,20.06055238,27.82008393,31.90225902,36836,51085,58581,20641,33196,38018,11.24100726,18.07826897,20.70423096,1.27349858,1.50112859,1.83778078
0,0,SaintLucia,,,2022-03-22 20:23:52.798609,2022-01-16,22.39971571,28.54252427,32.62243728,41132,52412,59904,23020,34852,39176,12.53617193,18.97977133,21.33466665,1.26996494,1.49249922,1.82948967
0,0,SaintLucia,,,2022-03-22 20:23:52.798609,2022-01-17,23.96492244,28.64515662,32.65250586,44006,52600,59959,24867,35897,39970,13.54210930,19.54904774,21.76703627,1.27125868,1.47387013,1.80144728
0,0,SaintLucia,,,2022-03-22 20:23:52.798609,2022-01-18,25.04575839,28.37481427,31.97263969,45991,52104,58711,27102,36185,40161,14.75948141,19.70567008,21.87109376,1.27506664,1.43990077,1.76335058
0,0,SaintLucia,,,2022-03-22 20:23:52.798609,2022-01-19,25.40303179,27.69056096,30.78578537,46647,50847,56531,29001,36015,39493,15.79340616,19.61307249,21.50705282,1.28103145,1.41372764,1.67911293
0,0,SaintLucia,,,2022-03-22 20:23:52.798609,2022-01-20,25.01822284,26.81359965,29.65990172,45940,49237,54464,29845,35356,38258,16.25325072,19.25446390,20.83489193,1.23793917,1.35277016,1.59435941
0,0,SaintLucia,,,2022-03-22 20:23:52.798609,2022-01-21,24.04493842,25.61394872,28.18990618,44153,47034,51764,29864,34123,36499,16.26337147,18.58282185,19.87662594,1.17364590,1.33804637,1.57026073
0,0,SaintLucia,,,2022-03-22 20:23:52.798609,2022-01-22,22.63231966,24.06768973,27.22148132,41559,44195,49986,29398,32539,35159,16.00993456,17.72018393,19.14720397,1.14867613,1.32952354,1.56123096
0,0,SaintLucia,,,2022-03-22 20:23:52.798609,2022-01-23,20.76248774,22.41262797,26.04802359,38125,41156,47831,28519,30827,33402,15.53114214,16.78804007,18.19001323,1.14113430,1.32578561,1.55522408
0,0,SaintLucia,,,2022-03-22 20:23:52.798609,2022-01-24,18.94236478,20.63036480,24.18807741,34783,37883,44416,26656,28787,31507,14.51659760,15.67722082,17.15801333,1.14059209,1.32097114,1.54220785
0,0,SaintLucia,,,2022-03-22 20:23:52.798609,2022-01-25,17.20097116,18.91129690,22.51372966,31585,34726,41341,24477,26622,29403,13.32984202,14.49777440,16.01232736,1.14684395,1.31101767,1.51448620
0,0,SaintLucia,,,2022-03-22 20:23:52.798609,2022-01-26,15.51480249,17.22864953,20.68381711,28489,31636,37981,22273,24461,27241,12.12976613,13.32095162,14.83493879,1.15978532,1.29163934,1.49959997
0,0,SaintLucia,,,2022-03-22 20:23:52.798609,2022-01-27,13.82218341,15.61110259,18.81679422,25381,28666,34553,20073,22469,25116,10.93151870,12.23647208,13.67774007,1.16919079,1.29364009,1.49004503
0,0,SaintLucia,,,2022-03-22 20:23:52.798609,2022-01-28,12.32943690,14.08203749,16.88635998,22640,25858,31008,18004,20519,23186,9.80461207,11.17424682,12.62682394,1.17169784,1.29952412,1.48285397
0,0,SaintLucia,,,2022-03-22 20:23:52.798609,2022-01-29,11.00606256,12.65264391,15.33328345,20210,23233,28156,16089,18604,21210,8.76205516,10.13155355,11.55097520,1.17176404,1.29852998,1.47727638
0,0,SaintLucia,,,2022-03-22 20:23:52.798609,2022-01-30,9.74217980,11.33289911,13.90057626,17889,20810,25525,14316,16795,19297,7.79637651,9.14620902,10.50894690,1.17014018,1.29418595,1.46711883
0,0,SaintLucia,,,2022-03-22 20:23:52.798609,2022-01-31,8.62922630,10.12466975,12.51675740,15845,18591,22984,12695,15068,17581,6.91354096,8.20581957,9.57421095,1.16587418,1.28317209,1.44017208
0,0,SaintLucia,,,2022-03-22 20:23:52.798609,2022-02-01,7.62324997,9.01369354,11.24893874,13998,16551,20656,11226,13456,15929,6.11391463,7.32802466,8.67463068,1.15557248,1.24799435,1.41762967
0,0,SaintLucia,,,2022-03-22 20:23:52.798609,2022-02-02,6.72474672,8.01297975,10.09467006,12348,14714,18536,9910,11971,14358,5.39724066,6.51920512,7.81931111,1.13653860,1.18245142,1.49441108
0,0,SaintLucia,,,2022-03-22 20:23:52.798609,2022-02-03,5.92462660,7.10815972,9.00996292,10879,13052,16544,8736,10634,12925,4.75750290,5.79106637,7.03896278,1.09335024,1.12391822,1.59899282
0,0,SaintLucia,,,2022-03-22 20:23:52.798609,2022-02-04,5.20032419,6.28794748,8.03417491,9549,11546,14753,7685,9423,11612,4.18520992,5.13195259,6.32367056,1.06118044,1.11023195,1.66126908
0,0,SaintLucia,,,2022-03-22 20:23:52.798609,2022-02-05,4.51100393,5.54560005,7.12981541,8283,10183,13092,6642,8341,10366,3.61735613,4.54263109,5.64557623,1.04486728,1.10466063,1.68217077
0,0,SaintLucia,,,2022-03-22 20:23:52.798609,2022-02-06,3.92285751,4.90196385,6.32545045,7203,9001,11615,5809,7401,9280,3.16383318,4.03085944,5.05373464,1.03818427,1.10055391,1.67350221
0,0,SaintLucia,,,2022-03-22 20:23:52.798609,2022-02-07,3.43618550,4.31720060,5.62189271,6309,7927,10323,5081,6536,8226,2.76733857,3.55964203,4.47988623,1.03290856,1.09285305,1.62557566
0,0,SaintLucia,,,2022-03-22 20:23:52.798609,2022-02-08,2.99395778,3.80465112,5.02112379,5497,6986,9220,4456,5749,7314,2.42685833,3.13097800,3.98344429,1.02170147,1.07496240,1.50777251
0,0,SaintLucia,,,2022-03-22 20:23:52.798609,2022-02-09,2.60624042,3.34844365,4.47266675,4785,6148,8213,3910,5071,6539,2.12955782,2.76185699,3.56133329,1.00813388,1.04587984,1.32503109
0,0,SaintLucia,,,2022-03-22 20:23:52.798609,2022-02-10,2.27437260,2.94958436,3.94588484,4176,5416,7245,3429,4468,5849,1.86770860,2.43336446,3.18571518,0.98879461,1.01785060,1.16518715
0,0,SaintLucia,,,2022-03-22 20:23:52.798609,2022-02-11,1.99097509,2.58468651,3.47017064,3656,4746,6372,3003,3937,5177,1.63558669,2.14443982,2.81965643,0.97681891,1.00180293,1.12876495
0,0,SaintLucia,,,2022-03-22 20:23:52.798609,2022-02-12,1.73751985,2.26501707,3.04677268,3190,4159,5594,2596,3464,4563,1.41399773,1.88686775,2.48504516,0.96129369,0.99456496,1.12136407
0,0,SaintLucia,,,2022-03-22 20:23:52.798609,2022-02-13,1.51999794,1.98653272,2.68743870,2791,3647,4934,2228,3048,4053,1.21336101,1.66004260,2.20746424,0.95696388,0.99030594,1.11606438
0,0,SaintLucia,,,2022-03-22 20:23:52.798609,2022-02-14,1.31350084,1.74514793,2.38400095,2411,3204,4377,1923,2670,3576,1.04725908,1.45441282,1.94760842,0.93598868,0.98350947,1.09657722
0,0,SaintLucia,,,2022-03-22 20:23:52.798609,2022-02-15,1.12619636,1.53348541,2.09692098,2068,2815,3850,1634,2342,3147,0.89009404,1.27548880,1.71421736,0.88152974,0.96138940,1.05742166
0,0,SaintLucia,,,2022-03-22 20:23:52.798609,2022-02-16,0.96614224,1.34713160,1.83908317,1774,2473,3377,1388,2050,2767,0.75587762,1.11679495,1.50689916,0.78990139,0.91419062,0.99302077
0,0,SaintLucia,,,2022-03-22 20:23:52.798609,2022-02-17,0.81709246,1.17937711,1.62172563,1500,2165,2977,1188,1797,2429,0.64718368,0.97877420,1.32280192,0.70767884,0.88772688,0.96443140
0,0,SaintLucia,,,2022-03-22 20:23:52.798609,2022-02-18,0.69047283,1.03463824,1.42137590,1267,1899,2610,1021,1570,2129,0.55614317,0.85508469,1.15957631,0.66331219,0.85237511,0.94385052
0,0,SaintLucia,,,2022-03-22 20:23:52.798609,2022-02-19,0.58728771,0.90625219,1.24254003,1078,1664,2281,864,1380,1864,0.47060855,0.75197003,1.01533462,0.64576649,0.83845256,0.93854715
0,0,SaintLucia,,,2022-03-22 20:23:52.798609,2022-02-20,0.50354314,0.79513527,1.08583402,924,1460,1993,730,1215,1631,0.39786018,0.66214842,0.88825725,0.63885405,0.83227887,0.93870080
0,0,SaintLucia,,,2022-03-22 20:23:52.798609,2022-02-21,0.43178408,0.69850578,0.94853733,792,1282,1741,617,1069,1427,0.33622330,0.58235992,0.77763857,0.63396514,0.82119675,0.94456226
0,0,SaintLucia,,,2022-03-22 20:23:52.798609,2022-02-22,0.36635261,0.61508691,0.82794846,672,1129,1520,521,936,1248,0.28396958,0.51006855,0.67966301,0.62557031,0.79860772,0.96029790
0,0,SaintLucia,,,2022-03-22 20:23:52.798609,2022-02-23,0.30866048,0.54037953,0.72177586,566,992,1325,446,821,1090,0.24296579,0.44737994,0.59362546,0.59738167,0.74409813,0.99825982
0,0,SaintLucia,,,2022-03-22 20:23:52.798609,2022-02-24,0.25974123,0.47343611,0.62997415,476,869,1156,381,721,959,0.20788305,0.39285506,0.52266782,0.56126975,0.68512508,1.04628230
0,0,SaintLucia,,,2022-03-22 20:23:52.798609,2022-02-25,0.22522891,0.41604021,0.55425193,413,763,1017,323,633,850,0.17623111,0.34501859,0.46302088,0.53536099,0.66163210,1.07867870
0,0,SaintLucia,,,2022-03-22 20:23:52.798609,2022-02-26,0.19701280,0.36498198,0.48957215,361,670,898,276,554,752,0.15080944,0.30180986,0.40992112,0.52461570,0.65361048,1.09117902
0,0,SaintLucia,,,2022-03-22 20:23:52.798609,2022-02-27,0.17230504,0.32112525,0.42731336,316,589,784,239,487,657,0.13021719,0.26558743,0.35814269,0.52209894,0.64975685,1.09249418
0,0,SaintLucia,,,2022-03-22 20:23:52.798609,2022-02-28,0.15189320,0.28235880,0.37359322,278,518,686,208,428,573,0.11337518,0.23331285,0.31256300,0.52521856,0.64537247,1.08431145
0,0,SaintLucia,,,2022-03-22 20:23:52.798609,2022-03-01,0.13500574,0.24869343,0.32632455,247,456,599,182,374,501,0.09951277,0.20408363,0.27323101,0.53519144,0.63652082,1.05881755
0,0,SaintLucia,,,2022-03-22 20:23:52.798609,2022-03-02,0.11990901,0.21902127,0.28642684,220,402,525,161,328,440,0.08805657,0.17894064,0.24013191,0.55269820,0.63155720,1.02066897
0,0,SaintLucia,,,2022-03-22 20:23:52.798609,2022-03-03,0.10599576,0.19277208,0.25396780,194,353,466,144,289,387,0.07857611,0.15751251,0.21125916,0.55217677,0.63332859,0.99094301
0,0,SaintLucia,,,2022-03-22 20:23:52.798609,2022-03-04,0.09164469,0.16974336,0.22357612,168,311,410,128,254,341,0.06998707,0.13860852,0.18604122,0.54534269,0.63461754,0.98796109
0,0,SaintLucia,,,2022-03-22 20:23:52.798609,2022-03-05,0.07913173,0.14978081,0.19772286,145,275,363,112,224,301,0.06142352,0.12198742,0.16413477,0.54248969,0.63391450,0.98466665
0,0,SaintLucia,,,2022-03-22 20:23:52.798609,2022-03-06,0.06825367,0.13269055,0.17497115,125,243,321,97,198,266,0.05321471,0.10813524,0.14505336,0.54106930,0.63205541,0.97515856
0,0,SaintLucia,,,2022-03-22 20:23:52.798609,2022-03-07,0.05908538,0.11758384,0.15493274,108,215,284,84,175,236,0.04609603,0.09579723,0.12865208,0.53934162,0.62680678,0.94741501
0,0,SaintLucia,,,2022-03-22 20:23:52.798609,2022-03-08,0.05122090,0.10424221,0.13724191,94,191,252,73,156,210,0.03980361,0.08505767,0.11446562,0.53555086,0.61831816,0.89480436
0,0,SaintLucia,,,2022-03-22 20:23:52.798609,2022-03-09,0.04388781,0.09299414,0.12158227,80,170,223,62,138,187,0.03424571,0.07526828,0.10197719,0.52921337,0.60483820,0.82408588
0,0,SaintLucia,,,2022-03-22 20:23:52.798609,2022-03-10,0.03789113,0.08315383,0.10808058,69,152,198,54,123,167,0.02957004,0.06705819,0.09097792,0.52292940,0.59195965,0.75820997
0,0,SaintLucia,,,2022-03-22 20:23:52.798609,2022-03-11,0.03307779,0.07525410,0.09715951,60,138,178,47,110,149,0.02574695,0.06005835,0.08141209,0.51872263,0.57165266,0.72358830
0,0,SaintLucia,,,2022-03-22 20:23:52.798609,2022-03-12,0.02872354,0.06801461,0.08790931,52,124,161,41,99,133,0.02247897,0.05410842,0.07248110,0.51428550,0.56050071,0.70795037
0,0,SaintLucia,,,2022-03-22 20:23:52.798609,2022-03-13,0.02530838,0.06158265,0.07965435,46,113,146,36,89,118,0.01969052,0.04880531,0.06456798,0.50950574,0.55100454,0.69706399
0,0,SaintLucia,,,2022-03-22 20:23:52.798609,2022-03-14,0.02240258,0.05610322,0.07135192,41,103,131,31,80,106,0.01715345,0.04409793,0.05818706,0.50077892,0.53903826,0.67630635
0,0,SaintLucia,,,2022-03-22 20:23:52.798609,2022-03-15,0.01962502,0.05156840,0.06427289,36,94,118,27,74,96,0.01484177,0.04030174,0.05268881,0.47483854,0.54586336,0.63239680
0,0,SaintLucia,,,2022-03-22 20:23:52.798609,2022-03-16,0.01714234,0.04773583,0.05880306,31,87,107,23,67,87,0.01288523,0.03679745,0.04785660,0.41581213,0.56725364,0.57723173
0,0,SaintLucia,,,2022-03-22 20:23:52.798609,2022-03-17,0.01524329,0.04420693,0.05416605,27,81,99,20,62,80,0.01123794,0.03394294,0.04359828,0.36328613,0.53222545,0.60741801
0,0,SaintLucia,,,2022-03-22 20:23:52.798609,2022-03-18,0.01296925,0.03925176,0.04802330,23,72,88,18,57,73,0.00990473,0.03121017,0.03979463,0.33643723,0.51313262,0.62619715
0,0,SaintLucia,,,2022-03-22 20:23:52.798609,2022-03-19,0.01098669,0.03458040,0.04268465,20,63,78,15,51,65,0.00850783,0.02808094,0.03584342,0.32581805,0.50650395,0.63428203
0,0,SaintLucia,,,2022-03-22 20:23:52.798609,2022-03-20,0.00927120,0.03042218,0.03783401,17,55,69,13,45,58,0.00725133,0.02497831,0.03176598,0.32201505,0.50514818,0.63711790
0,0,SaintLucia,,,2022-03-22 20:23:52.798609,2022-03-21,0.00780161,0.02659794,0.03323165,14,48,61,11,40,51,0.00614617,0.02202627,0.02816559,0.32077673,0.50470406,0.63805130
0,0,SaintLucia,,,2022-03-22 20:23:52.798609,2022-03-22,0.00655150,0.02325757,0.02926087,12,42,53,9,35,45,0.00518861,0.01935047,0.02497528,0.32037917,0.50456120,0.63835202
0,0,SaintLucia,,,2022-03-22 20:23:52.798609,2022-03-23,0.00549341,0.02023458,0.02584897,10,37,47,8,31,40,0.00436750,0.01691423,0.02201234,0.32025211,0.50451552,0.63844824
0,0,SaintLucia,,,2022-03-22 20:23:52.798609,2022-03-24,0.00460110,0.01760247,0.02274507,8,32,41,6,27,35,0.00366851,0.01475985,0.01937964,0.32021156,0.50450093,0.63847896
0,0,SaintLucia,,,2022-03-22 20:23:52.798609,2022-03-25,0.00385057,0.01531671,0.01999006,7,28,36,5,23,31,0.00307657,0.01287532,0.01709409,0.32019863,0.50449628,0.63848875
0,0,SaintLucia,,,2022-03-22 20:23:52.798609,2022-03-26,0.00322051,0.01332248,0.01761721,5,24,32,4,20,27,0.00257718,0.01121048,0.01507427,0.32019450,0.50449480,0.63849188
0,0,SaintLucia,,,2022-03-22 20:23:52.798609,2022-03-27,0.00269234,0.01159407,0.01552687,4,21,28,3,17,24,0.00215702,0.00975976,0.01329158,0.32019319,0.50449432,0.63849288
0,0,SaintLucia,,,2022-03-22 20:23:52.798609,2022-03-28,0.00225004,0.01007746,0.01368450,4,18,25,3,15,21,0.00180422,0.00849577,0.01171754,0.32019277,0.50449417,0.63849319
0,0,SaintLucia,,,2022-03-22 20:23:52.798609,2022-03-29,0.00187994,0.00876739,0.01206278,3,16,22,2,13,18,0.00150842,0.00739082,0.01030276,0.32019263,0.50449413,0.63849329
0,0,SaintLucia,,,2022-03-22 20:23:52.798609,2022-03-30,0.00157042,0.00762218,0.01057710,2,13,19,2,11,16,0.00126068,0.00642016,0.00899348,0.32019259,0.50449411,0.63849333
0,0,SaintLucia,,,2022-03-22 20:23:52.798609,2022-03-31,0.00131169,0.00662197,0.00924398,2,12,16,1,10,14,0.00105336,0.00557743,0.00792244,0.32019258,0.50449411,0.63849334
0,0,SaintLucia,,,2022-03-22 20:23:52.798609,2022-04-01,0.00109547,0.00575597,0.00812602,2,10,14,1,8,12,0.00087996,0.00485029,0.00698601,0.32019257,0.50449410,0.63849334
0,0,SaintLucia,,,2022-03-22 20:23:52.798609,2022-04-02,0.00091482,0.00501652,0.00712335,1,9,13,1,7,11,0.00073501,0.00421451,0.00612445,0.32019257,0.50449410,0.63849334
0,0,SaintLucia,,,2022-03-22 20:23:52.798609,2022-04-03,0.00076392,0.00436916,0.00624439,1,8,11,1,6,9,0.00061387,0.00366770,0.00536908,0.32019257,0.50449410,0.63849334
0,0,SaintLucia,,,2022-03-22 20:23:52.798609,2022-04-04,0.00063789,0.00379990,0.00547302,1,6,10,0,5,8,0.00051265,0.00319395,0.00470636,0.32019257,0.50449410,0.63849334
0,0,SaintLucia,,,2022-03-22 20:23:52.798609,2022-04-05,0.00053263,0.00331033,0.00482639,0,6,8,0,5,7,0.00042810,0.00278398,0.00414471,0.32019257,0.50449410,0.63849334
