FIPS,HR_UID,nameid,province,region,analysisTime,dates,pointprevalence_025,pointprevalence_50,pointprevalence_975,pointinfections_025,pointinfections_50,pointinfections_975,pointinfectious_025,pointinfectious_50,pointinfectious_975,pointinfectiousprevalence_05,pointinfectiousprevalence_50,pointinfectiousprevalence_95,infectrate_025,infectrate_50,infectrate_975
0,0,Liberia,,,2022-03-22 20:33:53.931254,2021-08-27,0.01995372,0.05275746,0.27913073,1009,2668,14117,432,1595,10677,0.00855890,0.03154981,0.21112000,0.07854223,0.09300299,0.13028287
0,0,Liberia,,,2022-03-22 20:33:53.931254,2021-08-28,0.01845823,0.04808266,0.25344964,933,2431,12818,514,1518,9543,0.01016989,0.03003052,0.18870019,0.07854226,0.09300300,0.13028288
0,0,Liberia,,,2022-03-22 20:33:53.931254,2021-08-29,0.01690330,0.04364416,0.22985467,854,2207,11625,538,1445,8677,0.01065024,0.02857452,0.17156658,0.07854234,0.09300302,0.13028289
0,0,Liberia,,,2022-03-22 20:33:53.931254,2021-08-30,0.01542896,0.03957914,0.20889919,780,2001,10565,526,1381,7882,0.01041112,0.02732102,0.15585560,0.07854258,0.09300309,0.13028293
0,0,Liberia,,,2022-03-22 20:33:53.931254,2021-08-31,0.01406356,0.03578302,0.19008633,711,1809,9613,482,1267,7151,0.00954917,0.02506539,0.14138940,0.07854334,0.09300329,0.13028306
0,0,Liberia,,,2022-03-22 20:33:53.931254,2021-09-01,0.01281599,0.03238407,0.17308710,648,1637,8754,441,1152,6491,0.00872711,0.02277854,0.12835439,0.07854573,0.09300394,0.13028345
0,0,Liberia,,,2022-03-22 20:33:53.931254,2021-09-02,0.01168509,0.02928169,0.15766730,590,1480,7974,402,1047,5901,0.00796321,0.02071866,0.11668834,0.07855321,0.09300597,0.13028469
0,0,Liberia,,,2022-03-22 20:33:53.931254,2021-09-03,0.01056015,0.02620425,0.14365685,534,1325,7265,366,939,5370,0.00724861,0.01858503,0.10617590,0.07857660,0.09301231,0.13033869
0,0,Liberia,,,2022-03-22 20:33:53.931254,2021-09-04,0.00953632,0.02351792,0.13089521,482,1189,6620,332,849,4888,0.00657126,0.01679115,0.09666197,0.07864932,0.09303202,0.13038674
0,0,Liberia,,,2022-03-22 20:33:53.931254,2021-09-05,0.00860909,0.02108534,0.11924079,435,1066,6030,300,766,4451,0.00594376,0.01514943,0.08802207,0.07893729,0.09309400,0.13050006
0,0,Liberia,,,2022-03-22 20:33:53.931254,2021-09-06,0.00777620,0.01885429,0.10853747,393,953,5489,271,690,4053,0.00537076,0.01365318,0.08014655,0.07987421,0.09327416,0.13056557
0,0,Liberia,,,2022-03-22 20:33:53.931254,2021-09-07,0.00703698,0.01696442,0.09859714,355,858,4986,245,624,3688,0.00485358,0.01235665,0.07292434,0.08138372,0.09432937,0.13344571
0,0,Liberia,,,2022-03-22 20:33:53.931254,2021-09-08,0.00639057,0.01522376,0.08926053,323,769,4514,222,562,3350,0.00439244,0.01112546,0.06624194,0.08395365,0.09969851,0.13896861
0,0,Liberia,,,2022-03-22 20:33:53.931254,2021-09-09,0.00582717,0.01371612,0.08052344,294,693,4072,201,502,3035,0.00398576,0.00994212,0.06001597,0.08657978,0.10454758,0.14265018
0,0,Liberia,,,2022-03-22 20:33:53.931254,2021-09-10,0.00533873,0.01237975,0.07244228,270,626,3663,183,452,2742,0.00362973,0.00894004,0.05421843,0.08801457,0.10108590,0.14468758
0,0,Liberia,,,2022-03-22 20:33:53.931254,2021-09-11,0.00490228,0.01122107,0.06507783,247,567,3291,167,409,2471,0.00331772,0.00809055,0.04885849,0.08850523,0.09957979,0.14546807
0,0,Liberia,,,2022-03-22 20:33:53.931254,2021-09-12,0.00450801,0.01007712,0.05840999,228,509,2954,153,373,2222,0.00304096,0.00737771,0.04394920,0.08880288,0.09923639,0.14556049
0,0,Liberia,,,2022-03-22 20:33:53.931254,2021-09-13,0.00414819,0.00911504,0.05238814,209,461,2649,141,340,1996,0.00279255,0.00673285,0.03948329,0.08942211,0.09958309,0.14507438
0,0,Liberia,,,2022-03-22 20:33:53.931254,2021-09-14,0.00378670,0.00833177,0.04694528,191,421,2374,129,308,1792,0.00256696,0.00609150,0.03543568,0.09097968,0.10114611,0.14368349
0,0,Liberia,,,2022-03-22 20:33:53.931254,2021-09-15,0.00345557,0.00759532,0.04201509,174,384,2124,119,282,1606,0.00235953,0.00558597,0.03177068,0.09318785,0.10329967,0.14146283
0,0,Liberia,,,2022-03-22 20:33:53.931254,2021-09-16,0.00315933,0.00700076,0.03755525,159,354,1899,109,257,1439,0.00216254,0.00510062,0.02845222,0.09088550,0.10134205,0.13991033
0,0,Liberia,,,2022-03-22 20:33:53.931254,2021-09-17,0.00290031,0.00642826,0.03357673,146,325,1698,100,234,1287,0.00198538,0.00464456,0.02545764,0.08954189,0.09970993,0.13925192
0,0,Liberia,,,2022-03-22 20:33:53.931254,2021-09-18,0.00267813,0.00589603,0.03001365,135,298,1517,92,214,1151,0.00182555,0.00423166,0.02276924,0.08900536,0.09980859,0.13888380
0,0,Liberia,,,2022-03-22 20:33:53.931254,2021-09-19,0.00247570,0.00543961,0.02682983,125,275,1356,84,195,1029,0.00167691,0.00387144,0.02035984,0.08883502,0.10093890,0.13894659
0,0,Liberia,,,2022-03-22 20:33:53.931254,2021-09-20,0.00228442,0.00501453,0.02398843,115,253,1213,77,179,920,0.00154152,0.00355610,0.01820418,0.08880148,0.10351612,0.13828500
0,0,Liberia,,,2022-03-22 20:33:53.931254,2021-09-21,0.00210334,0.00461429,0.02145548,106,233,1085,71,166,823,0.00141800,0.00329525,0.01627831,0.08875656,0.10592945,0.13673638
0,0,Liberia,,,2022-03-22 20:33:53.931254,2021-09-22,0.00193558,0.00424916,0.01919977,97,214,971,65,154,736,0.00130484,0.00304833,0.01455990,0.08865347,0.11297368,0.13472516
0,0,Liberia,,,2022-03-22 20:33:53.931254,2021-09-23,0.00178027,0.00396973,0.01719112,90,200,869,60,144,658,0.00120070,0.00284834,0.01302806,0.08634878,0.11562550,0.14684068
0,0,Liberia,,,2022-03-22 20:33:53.931254,2021-09-24,0.00162750,0.00371398,0.01537601,82,187,777,55,134,589,0.00110305,0.00265065,0.01165874,0.08413331,0.11504767,0.15855090
0,0,Liberia,,,2022-03-22 20:33:53.931254,2021-09-25,0.00148761,0.00347009,0.01372780,75,175,694,51,125,527,0.00101020,0.00247885,0.01043082,0.08300177,0.11479117,0.16344664
0,0,Liberia,,,2022-03-22 20:33:53.931254,2021-09-26,0.00136021,0.00321370,0.01224065,68,162,619,46,118,470,0.00092377,0.00234610,0.00930841,0.08272249,0.11460662,0.16475027
0,0,Liberia,,,2022-03-22 20:33:53.931254,2021-09-27,0.00124203,0.00303954,0.01091615,62,153,552,42,109,419,0.00084438,0.00216654,0.00830159,0.08295055,0.11426893,0.16393524
0,0,Liberia,,,2022-03-22 20:33:53.931254,2021-09-28,0.00113475,0.00283464,0.00973705,57,143,492,39,103,374,0.00077176,0.00205571,0.00740397,0.08379876,0.11286340,0.16072040
0,0,Liberia,,,2022-03-22 20:33:53.931254,2021-09-29,0.00105014,0.00267771,0.00868766,53,135,439,35,97,334,0.00070772,0.00192131,0.00660432,0.08527970,0.10937345,0.15504992
0,0,Liberia,,,2022-03-22 20:33:53.931254,2021-09-30,0.00098722,0.00249583,0.00775391,49,126,392,33,90,298,0.00066087,0.00179679,0.00589232,0.08658479,0.10687875,0.14880298
0,0,Liberia,,,2022-03-22 20:33:53.931254,2021-10-01,0.00090540,0.00230186,0.00692294,45,116,350,31,85,265,0.00061513,0.00168766,0.00525854,0.08678948,0.10549475,0.14643749
0,0,Liberia,,,2022-03-22 20:33:53.931254,2021-10-02,0.00083081,0.00215744,0.00618694,42,109,312,28,79,237,0.00056333,0.00156883,0.00469453,0.08691981,0.10541391,0.14570049
0,0,Liberia,,,2022-03-22 20:33:53.931254,2021-10-03,0.00076182,0.00201905,0.00553092,38,102,279,26,72,212,0.00051721,0.00142896,0.00419789,0.08741927,0.10555190,0.14434917
0,0,Liberia,,,2022-03-22 20:33:53.931254,2021-10-04,0.00069815,0.00184588,0.00495285,35,93,250,24,67,189,0.00047613,0.00133565,0.00375207,0.08888622,0.10645370,0.14072793
0,0,Liberia,,,2022-03-22 20:33:53.931254,2021-10-05,0.00064096,0.00170457,0.00444970,32,86,225,22,62,169,0.00043948,0.00124317,0.00335924,0.09239432,0.10849008,0.13212481
0,0,Liberia,,,2022-03-22 20:33:53.931254,2021-10-06,0.00059052,0.00156892,0.00401111,29,79,202,20,57,152,0.00040614,0.00114119,0.00301708,0.09789355,0.11026547,0.11880822
0,0,Liberia,,,2022-03-22 20:33:53.931254,2021-10-07,0.00054764,0.00145499,0.00362955,27,73,183,19,52,137,0.00037634,0.00103984,0.00271714,0.09731698,0.10624173,0.12630632
0,0,Liberia,,,2022-03-22 20:33:53.931254,2021-10-08,0.00053630,0.00135807,0.00330912,27,68,167,17,47,124,0.00034889,0.00094672,0.00245715,0.09203691,0.10542396,0.13188448
0,0,Liberia,,,2022-03-22 20:33:53.931254,2021-10-09,0.00050755,0.00128618,0.00302077,25,65,152,16,44,112,0.00033151,0.00087411,0.00223332,0.08984258,0.10635868,0.13421572
0,0,Liberia,,,2022-03-22 20:33:53.931254,2021-10-10,0.00046701,0.00121243,0.00276427,23,61,139,15,41,103,0.00031447,0.00081549,0.00203698,0.09021442,0.10635750,0.13510941
0,0,Liberia,,,2022-03-22 20:33:53.931254,2021-10-11,0.00043116,0.00116021,0.00253890,21,58,128,14,39,94,0.00028953,0.00077269,0.00186070,0.09324386,0.10621568,0.13550479
0,0,Liberia,,,2022-03-22 20:33:53.931254,2021-10-12,0.00039854,0.00109060,0.00233880,20,55,118,13,37,86,0.00026749,0.00074042,0.00170421,0.09234886,0.11199384,0.13587650
0,0,Liberia,,,2022-03-22 20:33:53.931254,2021-10-13,0.00036876,0.00103948,0.00216008,18,52,109,12,36,79,0.00024696,0.00071182,0.00156524,0.08976814,0.12245510,0.13639826
0,0,Liberia,,,2022-03-22 20:33:53.931254,2021-10-14,0.00034163,0.00100958,0.00200033,17,51,101,11,34,72,0.00022832,0.00067679,0.00144269,0.08743095,0.12925846,0.15248913
0,0,Liberia,,,2022-03-22 20:33:53.931254,2021-10-15,0.00032370,0.00096209,0.00185598,16,48,93,10,33,67,0.00021238,0.00065459,0.00133394,0.08607060,0.13113505,0.16716144
0,0,Liberia,,,2022-03-22 20:33:53.931254,2021-10-16,0.00031098,0.00092840,0.00172585,15,46,87,10,31,62,0.00020033,0.00062910,0.00123616,0.08570175,0.13201361,0.17394266
0,0,Liberia,,,2022-03-22 20:33:53.931254,2021-10-17,0.00030129,0.00089556,0.00160852,15,45,81,9,30,58,0.00019018,0.00060301,0.00114815,0.08619161,0.13258338,0.17731197
0,0,Liberia,,,2022-03-22 20:33:53.931254,2021-10-18,0.00029340,0.00086389,0.00150327,14,43,76,9,29,54,0.00018382,0.00057927,0.00106991,0.08816613,0.13383725,0.18072314
0,0,Liberia,,,2022-03-22 20:33:53.931254,2021-10-19,0.00028217,0.00083878,0.00141268,14,42,71,9,28,50,0.00017834,0.00055684,0.00100028,0.09342602,0.13872165,0.18860919
0,0,Liberia,,,2022-03-22 20:33:53.931254,2021-10-20,0.00027375,0.00081530,0.00133573,13,41,67,8,27,47,0.00017331,0.00053807,0.00093907,0.10326502,0.15036695,0.20369503
0,0,Liberia,,,2022-03-22 20:33:53.931254,2021-10-21,0.00026798,0.00079603,0.00127119,13,40,64,8,26,44,0.00016774,0.00051651,0.00088958,0.11414880,0.16357354,0.22121716
0,0,Liberia,,,2022-03-22 20:33:53.931254,2021-10-22,0.00028228,0.00079194,0.00123878,14,40,62,8,25,43,0.00016638,0.00050058,0.00085409,0.11460637,0.17177371,0.23225845
0,0,Liberia,,,2022-03-22 20:33:53.931254,2021-10-23,0.00029802,0.00078386,0.00122139,15,39,61,8,24,42,0.00017103,0.00049177,0.00083045,0.11438631,0.17533659,0.23684216
0,0,Liberia,,,2022-03-22 20:33:53.931254,2021-10-24,0.00031420,0.00079164,0.00117726,15,40,59,9,24,40,0.00017866,0.00048597,0.00080549,0.11546072,0.17692357,0.23811610
0,0,Liberia,,,2022-03-22 20:33:53.931254,2021-10-25,0.00032402,0.00080018,0.00117817,16,40,59,9,24,39,0.00018749,0.00048465,0.00079021,0.11920033,0.17840708,0.23745317
0,0,Liberia,,,2022-03-22 20:33:53.931254,2021-10-26,0.00033905,0.00080734,0.00122772,17,40,62,9,24,40,0.00019378,0.00048389,0.00081009,0.12907893,0.18123851,0.23432478
0,0,Liberia,,,2022-03-22 20:33:53.931254,2021-10-27,0.00035020,0.00081541,0.00127659,17,41,64,10,24,42,0.00020179,0.00048766,0.00084431,0.14815422,0.18609420,0.23015367
0,0,Liberia,,,2022-03-22 20:33:53.931254,2021-10-28,0.00036618,0.00082122,0.00132104,18,41,66,10,24,44,0.00020890,0.00049217,0.00088078,0.17006145,0.19501604,0.22948959
0,0,Liberia,,,2022-03-22 20:33:53.931254,2021-10-29,0.00039954,0.00081852,0.00131660,20,41,66,11,25,45,0.00021988,0.00049539,0.00090355,0.18456181,0.20471880,0.22899767
0,0,Liberia,,,2022-03-22 20:33:53.931254,2021-10-30,0.00042558,0.00081678,0.00130546,21,41,66,12,25,45,0.00023766,0.00049692,0.00090424,0.19070474,0.20977396,0.22878925
0,0,Liberia,,,2022-03-22 20:33:53.931254,2021-10-31,0.00042871,0.00081256,0.00130161,21,41,65,12,25,45,0.00025442,0.00049654,0.00090519,0.19320057,0.21117632,0.22894953
0,0,Liberia,,,2022-03-22 20:33:53.931254,2021-11-01,0.00042253,0.00082839,0.00129873,21,41,65,13,25,45,0.00025842,0.00050351,0.00089668,0.19524986,0.21263752,0.22968530
0,0,Liberia,,,2022-03-22 20:33:53.931254,2021-11-02,0.00041598,0.00084509,0.00128728,21,42,65,12,26,45,0.00025606,0.00051481,0.00089044,0.19701176,0.21117402,0.23116889
0,0,Liberia,,,2022-03-22 20:33:53.931254,2021-11-03,0.00040979,0.00085709,0.00127064,20,43,64,12,26,44,0.00025246,0.00052467,0.00088495,0.19965883,0.21192839,0.25164490
0,0,Liberia,,,2022-03-22 20:33:53.931254,2021-11-04,0.00040347,0.00087202,0.00126023,20,44,63,12,26,44,0.00024887,0.00053253,0.00087344,0.19766510,0.21421562,0.27711081
0,0,Liberia,,,2022-03-22 20:33:53.931254,2021-11-05,0.00042541,0.00087630,0.00134269,21,44,67,12,27,45,0.00024918,0.00053823,0.00089025,0.19487574,0.21643240,0.29275890
0,0,Liberia,,,2022-03-22 20:33:53.931254,2021-11-06,0.00044946,0.00087319,0.00145572,22,44,73,12,27,47,0.00025625,0.00054057,0.00094044,0.19381457,0.21854527,0.29918213
0,0,Liberia,,,2022-03-22 20:33:53.931254,2021-11-07,0.00047533,0.00086726,0.00157367,24,43,79,13,27,51,0.00026814,0.00054048,0.00101230,0.19382361,0.22082891,0.30054775
0,0,Liberia,,,2022-03-22 20:33:53.931254,2021-11-08,0.00049909,0.00085787,0.00169176,25,43,85,14,27,55,0.00028279,0.00054498,0.00109165,0.19551348,0.22610038,0.29848369
0,0,Liberia,,,2022-03-22 20:33:53.931254,2021-11-09,0.00052347,0.00085107,0.00178941,26,43,90,15,27,59,0.00029700,0.00054086,0.00117034,0.19850046,0.23602856,0.29224923
0,0,Liberia,,,2022-03-22 20:33:53.931254,2021-11-10,0.00054720,0.00085381,0.00188515,27,43,95,15,27,62,0.00031155,0.00053515,0.00123788,0.20400676,0.24245331,0.28146440
0,0,Liberia,,,2022-03-22 20:33:53.931254,2021-11-11,0.00057060,0.00086095,0.00198391,28,43,100,16,27,66,0.00032575,0.00053507,0.00130615,0.20897256,0.24614726,0.29201747
0,0,Liberia,,,2022-03-22 20:33:53.931254,2021-11-12,0.00059564,0.00089646,0.00201527,30,45,101,17,27,69,0.00033995,0.00054261,0.00136507,0.21192215,0.25065874,0.30791027
0,0,Liberia,,,2022-03-22 20:33:53.931254,2021-11-13,0.00061980,0.00094386,0.00204062,31,47,103,17,28,70,0.00035502,0.00056124,0.00140015,0.21352731,0.25467154,0.31596061
0,0,Liberia,,,2022-03-22 20:33:53.931254,2021-11-14,0.00063037,0.00098918,0.00206207,31,50,104,18,29,72,0.00037091,0.00058868,0.00142361,0.21546471,0.25614040,0.32137771
0,0,Liberia,,,2022-03-22 20:33:53.931254,2021-11-15,0.00064231,0.00102935,0.00208186,32,52,105,19,30,72,0.00037892,0.00061108,0.00144149,0.22012394,0.26105056,0.33046396
0,0,Liberia,,,2022-03-22 20:33:53.931254,2021-11-16,0.00064885,0.00107652,0.00210140,32,54,106,19,32,73,0.00038339,0.00063593,0.00145684,0.23110613,0.28082331,0.35264838
0,0,Liberia,,,2022-03-22 20:33:53.931254,2021-11-17,0.00065062,0.00113826,0.00211467,32,57,106,19,33,74,0.00039170,0.00066560,0.00147134,0.24612405,0.31922346,0.39440736
0,0,Liberia,,,2022-03-22 20:33:53.931254,2021-11-18,0.00065400,0.00121814,0.00212479,33,61,107,19,35,75,0.00039274,0.00070297,0.00148417,0.24997836,0.36272051,0.44103771
0,0,Liberia,,,2022-03-22 20:33:53.931254,2021-11-19,0.00068965,0.00132161,0.00210383,34,66,106,20,37,74,0.00039946,0.00075050,0.00148288,0.24848380,0.39049463,0.47046584
0,0,Liberia,,,2022-03-22 20:33:53.931254,2021-11-20,0.00072588,0.00143480,0.00212872,36,72,107,20,40,74,0.00041405,0.00080798,0.00146737,0.24856986,0.40244283,0.48322753
0,0,Liberia,,,2022-03-22 20:33:53.931254,2021-11-21,0.00076256,0.00155772,0.00221048,38,78,111,21,44,74,0.00043319,0.00087342,0.00147035,0.25075047,0.40642975,0.48858227
0,0,Liberia,,,2022-03-22 20:33:53.931254,2021-11-22,0.00080841,0.00168789,0.00234457,40,85,118,22,47,76,0.00045390,0.00094525,0.00151524,0.25777973,0.40728419,0.49192995
0,0,Liberia,,,2022-03-22 20:33:53.931254,2021-11-23,0.00085444,0.00179975,0.00248594,43,91,125,24,51,80,0.00048116,0.00102252,0.00158646,0.27628440,0.40719249,0.49818015
0,0,Liberia,,,2022-03-22 20:33:53.931254,2021-11-24,0.00092201,0.00190796,0.00262566,46,96,132,25,55,84,0.00051092,0.00110545,0.00167245,0.31222310,0.40667485,0.51013800
0,0,Liberia,,,2022-03-22 20:33:53.931254,2021-11-25,0.00100720,0.00205217,0.00279279,50,103,141,27,60,89,0.00054957,0.00119484,0.00176707,0.35174172,0.42805378,0.52127943
0,0,Liberia,,,2022-03-22 20:33:53.931254,2021-11-26,0.00112464,0.00222062,0.00304707,56,112,154,30,64,94,0.00060001,0.00128394,0.00187687,0.37774620,0.45033011,0.52914176
0,0,Liberia,,,2022-03-22 20:33:53.931254,2021-11-27,0.00125696,0.00239454,0.00331712,63,121,167,33,69,102,0.00066517,0.00138250,0.00201741,0.38909465,0.46116455,0.53410333
0,0,Liberia,,,2022-03-22 20:33:53.931254,2021-11-28,0.00140262,0.00259048,0.00359675,70,131,181,37,75,110,0.00073987,0.00149694,0.00219271,0.39388120,0.46654473,0.53573034
0,0,Liberia,,,2022-03-22 20:33:53.931254,2021-11-29,0.00156073,0.00279015,0.00396166,78,141,200,41,82,121,0.00082355,0.00162324,0.00239247,0.40299427,0.47040568,0.53508691
0,0,Liberia,,,2022-03-22 20:33:53.931254,2021-11-30,0.00173158,0.00301409,0.00434750,87,152,219,46,89,131,0.00091765,0.00176286,0.00260642,0.42502288,0.47716132,0.55207441
0,0,Liberia,,,2022-03-22 20:33:53.931254,2021-12-01,0.00193612,0.00328965,0.00475734,97,166,240,51,97,143,0.00101563,0.00192321,0.00284545,0.45893752,0.49435772,0.59837583
0,0,Liberia,,,2022-03-22 20:33:53.931254,2021-12-02,0.00215328,0.00365490,0.00518692,108,184,262,57,106,158,0.00113830,0.00211510,0.00313595,0.49212496,0.52387224,0.64985357
0,0,Liberia,,,2022-03-22 20:33:53.931254,2021-12-03,0.00238407,0.00402088,0.00570092,120,203,288,64,118,174,0.00126654,0.00233517,0.00344480,0.49022875,0.53521765,0.68188241
0,0,Liberia,,,2022-03-22 20:33:53.931254,2021-12-04,0.00258668,0.00443773,0.00632619,130,224,319,70,130,192,0.00140161,0.00257575,0.00380980,0.48984185,0.54464009,0.69504757
0,0,Liberia,,,2022-03-22 20:33:53.931254,2021-12-05,0.00279383,0.00490384,0.00704281,141,248,356,77,143,211,0.00152948,0.00284426,0.00418441,0.49180372,0.54902313,0.69865773
0,0,Liberia,,,2022-03-22 20:33:53.931254,2021-12-06,0.00300171,0.00542972,0.00775613,151,274,392,83,157,235,0.00165368,0.00311353,0.00464672,0.49853639,0.55604637,0.69689678
0,0,Liberia,,,2022-03-22 20:33:53.931254,2021-12-07,0.00326396,0.00604096,0.00855593,165,305,432,90,170,262,0.00178930,0.00337597,0.00518957,0.51575500,0.57202051,0.68928701
0,0,Liberia,,,2022-03-22 20:33:53.931254,2021-12-08,0.00356468,0.00662196,0.00968742,180,334,489,97,185,294,0.00193691,0.00367422,0.00583198,0.54760253,0.60051239,0.67565659
0,0,Liberia,,,2022-03-22 20:33:53.931254,2021-12-09,0.00391198,0.00731605,0.01111249,197,370,562,107,203,334,0.00212578,0.00402314,0.00661250,0.58323515,0.63104322,0.69684413
0,0,Liberia,,,2022-03-22 20:33:53.931254,2021-12-10,0.00430572,0.00814376,0.01283072,217,411,648,117,224,382,0.00232270,0.00443656,0.00756686,0.60302112,0.64975919,0.72091214
0,0,Liberia,,,2022-03-22 20:33:53.931254,2021-12-11,0.00477124,0.00907555,0.01484389,241,459,750,128,248,440,0.00254861,0.00492043,0.00871579,0.61062547,0.65561573,0.73068821
0,0,Liberia,,,2022-03-22 20:33:53.931254,2021-12-12,0.00529635,0.01011362,0.01717785,267,511,868,142,276,509,0.00281625,0.00547176,0.01006943,0.61440865,0.65714990,0.73331353
0,0,Liberia,,,2022-03-22 20:33:53.931254,2021-12-13,0.00588514,0.01126518,0.01986514,297,569,1004,158,308,588,0.00313066,0.00609055,0.01164360,0.61554083,0.66006263,0.73186386
0,0,Liberia,,,2022-03-22 20:33:53.931254,2021-12-14,0.00655298,0.01252256,0.02293213,331,633,1159,175,342,680,0.00347655,0.00677968,0.01345716,0.61388192,0.66316292,0.72575074
0,0,Liberia,,,2022-03-22 20:33:53.931254,2021-12-15,0.00735306,0.01404221,0.02639536,371,710,1334,196,381,785,0.00387535,0.00754429,0.01552702,0.60937265,0.66897504,0.71449208
0,0,Liberia,,,2022-03-22 20:33:53.931254,2021-12-16,0.00833893,0.01570533,0.03029421,421,794,1532,219,424,903,0.00434404,0.00839126,0.01787084,0.60492914,0.67487145,0.72264349
0,0,Liberia,,,2022-03-22 20:33:53.931254,2021-12-17,0.00945290,0.01762049,0.03467694,478,891,1753,248,471,1037,0.00490363,0.00932429,0.02051672,0.60262119,0.67838898,0.74137365
0,0,Liberia,,,2022-03-22 20:33:53.931254,2021-12-18,0.01076894,0.01968204,0.03964881,544,995,2005,281,523,1189,0.00556459,0.01034937,0.02352730,0.60254648,0.67771847,0.74869105
0,0,Liberia,,,2022-03-22 20:33:53.931254,2021-12-19,0.01226904,0.02190005,0.04529343,620,1107,2290,320,585,1362,0.00633012,0.01156960,0.02693301,0.60524372,0.67697497,0.74914455
0,0,Liberia,,,2022-03-22 20:33:53.931254,2021-12-20,0.01395942,0.02424926,0.05156800,706,1226,2608,364,655,1555,0.00720055,0.01295629,0.03075184,0.61394926,0.67251543,0.74374195
0,0,Liberia,,,2022-03-22 20:33:53.931254,2021-12-21,0.01577827,0.02699656,0.05814047,798,1365,2940,411,736,1765,0.00813903,0.01455659,0.03491490,0.63464505,0.66926843,0.72889247
0,0,Liberia,,,2022-03-22 20:33:53.931254,2021-12-22,0.01774062,0.03037620,0.06451191,897,1536,3262,465,824,1983,0.00920190,0.01629842,0.03921810,0.57778187,0.67432379,0.75658159
0,0,Liberia,,,2022-03-22 20:33:53.931254,2021-12-23,0.01986740,0.03463519,0.07050882,1004,1751,3566,524,924,2197,0.01037489,0.01827982,0.04344646,0.52469314,0.67147671,0.83169682
0,0,Liberia,,,2022-03-22 20:33:53.931254,2021-12-24,0.02220300,0.03922140,0.07645614,1122,1983,3866,589,1039,2409,0.01165073,0.02054884,0.04763673,0.49608061,0.66799990,0.87785553
0,0,Liberia,,,2022-03-22 20:33:53.931254,2021-12-25,0.02477351,0.04406226,0.08256941,1252,2228,4176,659,1163,2619,0.01304596,0.02300816,0.05179481,0.48436956,0.66529882,0.89494919
0,0,Liberia,,,2022-03-22 20:33:53.931254,2021-12-26,0.02758106,0.04938271,0.08896295,1394,2497,4499,736,1304,2833,0.01457036,0.02580165,0.05603102,0.47879443,0.65995735,0.89236209
0,0,Liberia,,,2022-03-22 20:33:53.931254,2021-12-27,0.03050953,0.05496206,0.09556918,1543,2779,4833,819,1462,3090,0.01621268,0.02891871,0.06111304,0.47243294,0.64457877,0.86714197
0,0,Liberia,,,2022-03-22 20:33:53.931254,2021-12-28,0.03326215,0.06070535,0.10308725,1682,3070,5213,905,1638,3332,0.01790458,0.03240242,0.06589278,0.45946056,0.60260614,0.80370546
0,0,Liberia,,,2022-03-22 20:33:53.931254,2021-12-29,0.03543801,0.06633999,0.10962755,1792,3355,5544,986,1826,3573,0.01949540,0.03611438,0.07064809,0.43900207,0.53773157,0.70395727
0,0,Liberia,,,2022-03-22 20:33:53.931254,2021-12-30,0.03696123,0.07155852,0.11534711,1869,3619,5833,1050,2009,3802,0.02077023,0.03973410,0.07518500,0.41480298,0.48343543,0.61622683
0,0,Liberia,,,2022-03-22 20:33:53.931254,2021-12-31,0.03792108,0.07668033,0.12078697,1917,3878,6109,1097,2183,4016,0.02169409,0.04317145,0.07941630,0.37871254,0.45461311,0.57063718
0,0,Liberia,,,2022-03-22 20:33:53.931254,2022-01-01,0.03855869,0.08181004,0.12655682,1950,4137,6400,1130,2350,4218,0.02234922,0.04647823,0.08340197,0.36436672,0.44414720,0.55101877
0,0,Liberia,,,2022-03-22 20:33:53.931254,2022-01-02,0.03912534,0.08698366,0.13271576,1978,4399,6712,1155,2515,4411,0.02283740,0.04973597,0.08721719,0.35783878,0.43573940,0.53920014
0,0,Liberia,,,2022-03-22 20:33:53.931254,2022-01-03,0.03978570,0.09192578,0.14007135,2012,4649,7084,1182,2678,4584,0.02338027,0.05294976,0.09064037,0.35089247,0.41841770,0.52024992
0,0,Liberia,,,2022-03-22 20:33:53.931254,2022-01-04,0.03999464,0.09589318,0.14387519,2022,4849,7276,1198,2830,4744,0.02368963,0.05596040,0.09380973,0.33774220,0.38592931,0.48178197
0,0,Liberia,,,2022-03-22 20:33:53.931254,2022-01-05,0.03985613,0.09802124,0.14801092,2015,4957,7485,1205,2954,4873,0.02384254,0.05842311,0.09635371,0.29822388,0.33551552,0.42185477
0,0,Liberia,,,2022-03-22 20:33:53.931254,2022-01-06,0.03937730,0.09834386,0.14944902,1991,4973,7558,1208,3035,4947,0.02390108,0.06001255,0.09782580,0.25658557,0.29673190,0.37031461
0,0,Liberia,,,2022-03-22 20:33:53.931254,2022-01-07,0.03889755,0.09764425,0.14947093,1967,4938,7559,1199,3070,4970,0.02371854,0.06069985,0.09828067,0.23510784,0.27707182,0.34362509
0,0,Liberia,,,2022-03-22 20:33:53.931254,2022-01-08,0.03831609,0.09641030,0.14897870,1937,4876,7534,1185,3070,4937,0.02342990,0.06069983,0.09761974,0.22648646,0.26891190,0.33225979
0,0,Liberia,,,2022-03-22 20:33:53.931254,2022-01-09,0.03759441,0.09469234,0.14780588,1901,4789,7475,1166,3046,4853,0.02306835,0.06024097,0.09596530,0.22261056,0.26453332,0.32480138
0,0,Liberia,,,2022-03-22 20:33:53.931254,2022-01-10,0.03677633,0.09200334,0.14595423,1860,4653,7381,1145,3007,4828,0.02264999,0.05946436,0.09547692,0.21864150,0.25857508,0.31260998
0,0,Liberia,,,2022-03-22 20:33:53.931254,2022-01-11,0.03576416,0.08898054,0.14282316,1808,4500,7223,1120,2952,4758,0.02216076,0.05838386,0.09408886,0.21061167,0.24615859,0.28670907
0,0,Liberia,,,2022-03-22 20:33:53.931254,2022-01-12,0.03445141,0.08537731,0.13799739,1742,4318,6979,1090,2878,4661,0.02155861,0.05690671,0.09215844,0.19839035,0.22642408,0.24732328
0,0,Liberia,,,2022-03-22 20:33:53.931254,2022-01-13,0.03288094,0.08126050,0.13179533,1663,4109,6665,1052,2779,4512,0.02081049,0.05495677,0.08922845,0.18556675,0.20534762,0.22153514
0,0,Liberia,,,2022-03-22 20:33:53.931254,2022-01-14,0.03106784,0.07701221,0.12477401,1571,3895,6310,1007,2659,4325,0.01991309,0.05258997,0.08553004,0.17819253,0.19289936,0.21112664
0,0,Liberia,,,2022-03-22 20:33:53.931254,2022-01-15,0.02924826,0.07282490,0.11757751,1479,3683,5946,956,2526,4118,0.01890323,0.04996117,0.08142663,0.17497238,0.18731141,0.20681919
0,0,Liberia,,,2022-03-22 20:33:53.931254,2022-01-16,0.02747668,0.06876951,0.11046547,1389,3478,5586,902,2388,3896,0.01785163,0.04722737,0.07704495,0.17304778,0.18340573,0.20486471
0,0,Liberia,,,2022-03-22 20:33:53.931254,2022-01-17,0.02577412,0.06484867,0.10345233,1303,3279,5232,849,2249,3695,0.01680299,0.04448482,0.07307500,0.17059536,0.17866726,0.20308744
0,0,Liberia,,,2022-03-22 20:33:53.931254,2022-01-18,0.02413849,0.06076983,0.09636387,1220,3073,4873,798,2112,3473,0.01577976,0.04176518,0.06868023,0.16478528,0.17167594,0.20098193
0,0,Liberia,,,2022-03-22 20:33:53.931254,2022-01-19,0.02255961,0.05642903,0.08903248,1140,2853,4502,747,1975,3268,0.01478924,0.03905421,0.06462253,0.14539527,0.16450642,0.19877051
0,0,Liberia,,,2022-03-22 20:33:53.931254,2022-01-20,0.02104092,0.05210981,0.08162336,1064,2635,4128,699,1837,3067,0.01383282,0.03633996,0.06065761,0.12821304,0.15700804,0.19669654
0,0,Liberia,,,2022-03-22 20:33:53.931254,2022-01-21,0.01966378,0.04795927,0.07576726,994,2425,3832,653,1702,2883,0.01292364,0.03365346,0.05701669,0.11928112,0.15273629,0.19529630
0,0,Liberia,,,2022-03-22 20:33:53.931254,2022-01-22,0.01836981,0.04406172,0.07036452,929,2228,3558,610,1570,2689,0.01207490,0.03105159,0.05318392,0.11593981,0.15096105,0.19402639
0,0,Liberia,,,2022-03-22 20:33:53.931254,2022-01-23,0.01715186,0.04072096,0.06531235,867,2059,3303,570,1445,2510,0.01127976,0.02858139,0.04964062,0.11514938,0.15014498,0.19142450
0,0,Liberia,,,2022-03-22 20:33:53.931254,2022-01-24,0.01598698,0.03761719,0.06088001,808,1902,3079,532,1328,2332,0.01053010,0.02627071,0.04611488,0.11599202,0.14931653,0.18461508
0,0,Liberia,,,2022-03-22 20:33:53.931254,2022-01-25,0.01483508,0.03471697,0.05632671,750,1755,2848,496,1220,2179,0.00981202,0.02413193,0.04309591,0.11834075,0.14672915,0.17044794
0,0,Liberia,,,2022-03-22 20:33:53.931254,2022-01-26,0.01366342,0.03213927,0.05249893,691,1625,2655,460,1129,2034,0.00910677,0.02232385,0.04023219,0.12185877,0.13753680,0.15600062
0,0,Liberia,,,2022-03-22 20:33:53.931254,2022-01-27,0.01249229,0.02962669,0.04885726,631,1498,2471,425,1043,1897,0.00840323,0.02063061,0.03750920,0.10937199,0.13387206,0.15002311
0,0,Liberia,,,2022-03-22 20:33:53.931254,2022-01-28,0.01136362,0.02741354,0.04553748,574,1386,2303,389,961,1766,0.00770687,0.01901952,0.03493322,0.09807670,0.13296193,0.14756788
0,0,Liberia,,,2022-03-22 20:33:53.931254,2022-01-29,0.01031236,0.02530038,0.04252716,521,1279,2150,355,888,1644,0.00703288,0.01757372,0.03251675,0.09385418,0.13209559,0.14757670
0,0,Liberia,,,2022-03-22 20:33:53.931254,2022-01-30,0.00934780,0.02334787,0.03950742,472,1180,1998,323,821,1534,0.00639664,0.01624804,0.03034070,0.09254377,0.13120571,0.14664233
0,0,Liberia,,,2022-03-22 20:33:53.931254,2022-01-31,0.00846683,0.02154325,0.03672776,428,1089,1857,293,760,1430,0.00580625,0.01503049,0.02828000,0.09244755,0.12980251,0.14445350
0,0,Liberia,,,2022-03-22 20:33:53.931254,2022-02-01,0.00764067,0.01981533,0.03409201,386,1002,1724,266,702,1327,0.00526320,0.01388717,0.02624929,0.09321531,0.12589009,0.13935639
0,0,Liberia,,,2022-03-22 20:33:53.931254,2022-02-02,0.00692380,0.01820211,0.03154379,350,920,1595,240,646,1230,0.00475693,0.01278712,0.02433208,0.09490851,0.11882429,0.13102863
0,0,Liberia,,,2022-03-22 20:33:53.931254,2022-02-03,0.00626722,0.01666370,0.02911462,316,842,1472,217,594,1140,0.00429575,0.01175576,0.02255550,0.09669668,0.11375494,0.12353321
0,0,Liberia,,,2022-03-22 20:33:53.931254,2022-02-04,0.00560761,0.01520155,0.02678824,283,768,1354,196,545,1052,0.00388161,0.01077896,0.02080053,0.09732235,0.11109396,0.11965793
0,0,Liberia,,,2022-03-22 20:33:53.931254,2022-02-05,0.00501015,0.01385377,0.02461488,253,700,1244,176,497,967,0.00348990,0.00984425,0.01913840,0.09761112,0.10951231,0.11817413
0,0,Liberia,,,2022-03-22 20:33:53.931254,2022-02-06,0.00447181,0.01261358,0.02260534,226,637,1143,158,453,889,0.00312645,0.00897322,0.01759409,0.09747211,0.10902435,0.11750950
0,0,Liberia,,,2022-03-22 20:33:53.931254,2022-02-07,0.00399538,0.01147689,0.02075682,202,580,1049,141,413,817,0.00279499,0.00817616,0.01616823,0.09760132,0.10880919,0.11758176
0,0,Liberia,,,2022-03-22 20:33:53.931254,2022-02-08,0.00356793,0.01044465,0.01905984,180,528,963,126,376,751,0.00249649,0.00744499,0.01485145,0.09844381,0.10733738,0.11864693
0,0,Liberia,,,2022-03-22 20:33:53.931254,2022-02-09,0.00318957,0.00949324,0.01750284,161,480,885,112,342,689,0.00223358,0.00677654,0.01363985,0.09929012,0.10480071,0.12059271
0,0,Liberia,,,2022-03-22 20:33:53.931254,2022-02-10,0.00285577,0.00861412,0.01607553,144,435,813,100,312,633,0.00199665,0.00617112,0.01252713,0.09910816,0.10368601,0.12256448
0,0,Liberia,,,2022-03-22 20:33:53.931254,2022-02-11,0.00256103,0.00781275,0.01472058,129,395,744,90,284,581,0.00178707,0.00562225,0.01149757,0.09844977,0.10274436,0.12377797
0,0,Liberia,,,2022-03-22 20:33:53.931254,2022-02-12,0.00230050,0.00709538,0.01348702,116,358,682,81,258,532,0.00160503,0.00511013,0.01053812,0.09781327,0.10247369,0.12417873
0,0,Liberia,,,2022-03-22 20:33:53.931254,2022-02-13,0.00206999,0.00644538,0.01235314,104,325,624,72,234,488,0.00144285,0.00464322,0.00965350,0.09704304,0.10208333,0.12404036
0,0,Liberia,,,2022-03-22 20:33:53.931254,2022-02-14,0.00186574,0.00586555,0.01130452,94,296,571,65,213,447,0.00129865,0.00421783,0.00884337,0.09566908,0.10161263,0.12330219
0,0,Liberia,,,2022-03-22 20:33:53.931254,2022-02-15,0.00168429,0.00535262,0.01031836,85,270,521,59,194,409,0.00117053,0.00383599,0.00809234,0.09092410,0.10062636,0.12128714
0,0,Liberia,,,2022-03-22 20:33:53.931254,2022-02-16,0.00152255,0.00486638,0.00937697,77,246,474,53,176,373,0.00105670,0.00349260,0.00738990,0.08301612,0.09844319,0.11782151
0,0,Liberia,,,2022-03-22 20:33:53.931254,2022-02-17,0.00137837,0.00442738,0.00849175,69,223,429,48,160,340,0.00095552,0.00318077,0.00672856,0.07560260,0.09636512,0.11461418
0,0,Liberia,,,2022-03-22 20:33:53.931254,2022-02-18,0.00124587,0.00408065,0.00768532,63,206,388,43,146,308,0.00086470,0.00290306,0.00610434,0.07168334,0.09529853,0.11293226
0,0,Liberia,,,2022-03-22 20:33:53.931254,2022-02-19,0.00113349,0.00377757,0.00695119,57,191,351,39,134,279,0.00078155,0.00266179,0.00552899,0.07012226,0.09494920,0.11231666
0,0,Liberia,,,2022-03-22 20:33:53.931254,2022-02-20,0.00103510,0.00350955,0.00628774,52,177,318,35,123,253,0.00070829,0.00244828,0.00500399,0.06965380,0.09491205,0.11223885
0,0,Liberia,,,2022-03-22 20:33:53.931254,2022-02-21,0.00094758,0.00326827,0.00569050,47,165,287,32,114,229,0.00064256,0.00226508,0.00452809,0.06966820,0.09521940,0.11258491
0,0,Liberia,,,2022-03-22 20:33:53.931254,2022-02-22,0.00087044,0.00302417,0.00515458,44,152,260,29,106,207,0.00058797,0.00210535,0.00409879,0.07014075,0.09572719,0.11359680
0,0,Liberia,,,2022-03-22 20:33:53.931254,2022-02-23,0.00079838,0.00279030,0.00467484,40,141,236,27,99,187,0.00053921,0.00196041,0.00371288,0.07088908,0.09720927,0.11540924
0,0,Liberia,,,2022-03-22 20:33:53.931254,2022-02-24,0.00073216,0.00259281,0.00424566,37,131,214,25,92,170,0.00049745,0.00183286,0.00336681,0.07149660,0.09828050,0.11773564
0,0,Liberia,,,2022-03-22 20:33:53.931254,2022-02-25,0.00068878,0.00242032,0.00387908,34,122,196,23,86,154,0.00045980,0.00170995,0.00306013,0.07173925,0.09865484,0.11912915
0,0,Liberia,,,2022-03-22 20:33:53.931254,2022-02-26,0.00065147,0.00226408,0.00355863,32,114,179,21,79,141,0.00042996,0.00158158,0.00279138,0.07188682,0.09885571,0.11948938
0,0,Liberia,,,2022-03-22 20:33:53.931254,2022-02-27,0.00061916,0.00213616,0.00327433,31,108,165,20,74,129,0.00040273,0.00147074,0.00255358,0.07207232,0.09897910,0.11895594
0,0,Liberia,,,2022-03-22 20:33:53.931254,2022-02-28,0.00059176,0.00204652,0.00301947,29,103,152,19,70,118,0.00038005,0.00138628,0.00234421,0.07256618,0.09929696,0.11688772
0,0,Liberia,,,2022-03-22 20:33:53.931254,2022-03-01,0.00056709,0.00197959,0.00278935,28,100,141,18,66,109,0.00036329,0.00132278,0.00216042,0.07362327,0.09931600,0.11173794
0,0,Liberia,,,2022-03-22 20:33:53.931254,2022-03-02,0.00054430,0.00190280,0.00258593,27,96,130,17,63,100,0.00034734,0.00126455,0.00199681,0.07491788,0.10201255,0.10727746
0,0,Liberia,,,2022-03-22 20:33:53.931254,2022-03-03,0.00052352,0.00177441,0.00240624,26,89,121,16,61,93,0.00032978,0.00121983,0.00185145,0.07581142,0.09577946,0.11399655
0,0,Liberia,,,2022-03-22 20:33:53.931254,2022-03-04,0.00053012,0.00164587,0.00223434,26,83,113,16,59,86,0.00032379,0.00117111,0.00171830,0.07624842,0.09257867,0.11818235
0,0,Liberia,,,2022-03-22 20:33:53.931254,2022-03-05,0.00053620,0.00152994,0.00210547,27,77,106,16,55,80,0.00032211,0.00110638,0.00159234,0.07657656,0.09144432,0.12003340
0,0,Liberia,,,2022-03-22 20:33:53.931254,2022-03-06,0.00053142,0.00142491,0.00198925,26,72,100,16,52,74,0.00032529,0.00103642,0.00147559,0.07710949,0.09152445,0.12038850
0,0,Liberia,,,2022-03-22 20:33:53.931254,2022-03-07,0.00052315,0.00132916,0.00188566,26,67,95,16,48,69,0.00032436,0.00096562,0.00136897,0.07882117,0.09306891,0.11967024
0,0,Liberia,,,2022-03-22 20:33:53.931254,2022-03-08,0.00051867,0.00124838,0.00179266,26,63,90,16,45,64,0.00031858,0.00090251,0.00127261,0.08311767,0.09706412,0.11733042
0,0,Liberia,,,2022-03-22 20:33:53.931254,2022-03-09,0.00051610,0.00117629,0.00171137,26,59,86,15,42,59,0.00031463,0.00084773,0.00118625,0.09017324,0.10316793,0.11370853
0,0,Liberia,,,2022-03-22 20:33:53.931254,2022-03-10,0.00051447,0.00111593,0.00163350,26,56,82,15,40,56,0.00031268,0.00080060,0.00110832,0.09476351,0.10606520,0.11962180
0,0,Liberia,,,2022-03-22 20:33:53.931254,2022-03-11,0.00047071,0.00102314,0.00149695,23,51,75,15,38,52,0.00030518,0.00075156,0.00103837,0.09735897,0.10616811,0.12574510
0,0,Liberia,,,2022-03-22 20:33:53.931254,2022-03-12,0.00042686,0.00093725,0.00136918,21,47,69,14,35,48,0.00028696,0.00069545,0.00096199,0.09844953,0.10602142,0.12857075
0,0,Liberia,,,2022-03-22 20:33:53.931254,2022-03-13,0.00038419,0.00085547,0.00124673,19,43,63,13,32,44,0.00026409,0.00063864,0.00088482,0.09858102,0.10583485,0.12940419
0,0,Liberia,,,2022-03-22 20:33:53.931254,2022-03-14,0.00034403,0.00077895,0.00113282,17,39,57,12,29,40,0.00023989,0.00058394,0.00081021,0.09790681,0.10500935,0.12915026
0,0,Liberia,,,2022-03-22 20:33:53.931254,2022-03-15,0.00030683,0.00070660,0.00102537,15,35,51,10,26,37,0.00021607,0.00053244,0.00074090,0.09595045,0.10239732,0.12785772
0,0,Liberia,,,2022-03-22 20:33:53.931254,2022-03-16,0.00027265,0.00064045,0.00092388,13,32,46,9,24,34,0.00019347,0.00048436,0.00067490,0.08988466,0.09748361,0.12594291
0,0,Liberia,,,2022-03-22 20:33:53.931254,2022-03-17,0.00024153,0.00058015,0.00082886,12,29,41,8,22,30,0.00017243,0.00043967,0.00061111,0.08319596,0.09269512,0.12406805
0,0,Liberia,,,2022-03-22 20:33:53.931254,2022-03-18,0.00021350,0.00052533,0.00074068,10,26,37,7,20,28,0.00015313,0.00039782,0.00055565,0.07949417,0.09008357,0.12298359
0,0,Liberia,,,2022-03-22 20:33:53.931254,2022-03-19,0.00018845,0.00047519,0.00066375,9,24,33,6,18,25,0.00013563,0.00035944,0.00050470,0.07798447,0.08922666,0.12292214
0,0,Liberia,,,2022-03-22 20:33:53.931254,2022-03-20,0.00016620,0.00042885,0.00059587,8,21,30,6,16,23,0.00011990,0.00032488,0.00045809,0.07745477,0.08892181,0.12326933
0,0,Liberia,,,2022-03-22 20:33:53.931254,2022-03-21,0.00014636,0.00038696,0.00053604,7,19,27,5,14,21,0.00010586,0.00029279,0.00041559,0.07728240,0.08883770,0.12339890
0,0,Liberia,,,2022-03-22 20:33:53.931254,2022-03-22,0.00012873,0.00034898,0.00048065,6,17,24,4,13,19,0.00009337,0.00026433,0.00037724,0.07722798,0.08881064,0.12344063
0,0,Liberia,,,2022-03-22 20:33:53.931254,2022-03-23,0.00011319,0.00031560,0.00043382,5,15,21,4,12,17,0.00008217,0.00023907,0.00034278,0.07721058,0.08880199,0.12345398
0,0,Liberia,,,2022-03-22 20:33:53.931254,2022-03-24,0.00009950,0.00028578,0.00039342,5,14,19,3,10,15,0.00007228,0.00021585,0.00031143,0.07720502,0.08879923,0.12345824
0,0,Liberia,,,2022-03-22 20:33:53.931254,2022-03-25,0.00008745,0.00025877,0.00035679,4,13,18,3,9,14,0.00006356,0.00019430,0.00028293,0.07720325,0.08879835,0.12345960
0,0,Liberia,,,2022-03-22 20:33:53.931254,2022-03-26,0.00007686,0.00023320,0.00032356,3,11,16,2,8,12,0.00005588,0.00017463,0.00025699,0.07720269,0.08879807,0.12346004
0,0,Liberia,,,2022-03-22 20:33:53.931254,2022-03-27,0.00006754,0.00020947,0.00029343,3,10,14,2,7,11,0.00004912,0.00015768,0.00023307,0.07720250,0.08879798,0.12346018
0,0,Liberia,,,2022-03-22 20:33:53.931254,2022-03-28,0.00005935,0.00018835,0.00026610,3,9,13,2,7,10,0.00004317,0.00014241,0.00021137,0.07720245,0.08879795,0.12346022
0,0,Liberia,,,2022-03-22 20:33:53.931254,2022-03-29,0.00005215,0.00016997,0.00024132,2,8,12,1,6,9,0.00003794,0.00012807,0.00019169,0.07720243,0.08879794,0.12346023
0,0,Liberia,,,2022-03-22 20:33:53.931254,2022-03-30,0.00004583,0.00015244,0.00021884,2,7,11,1,5,8,0.00003334,0.00011414,0.00017384,0.07720242,0.08879794,0.12346024
0,0,Liberia,,,2022-03-22 20:33:53.931254,2022-03-31,0.00004027,0.00013678,0.00019845,2,6,10,1,5,7,0.00002930,0.00010225,0.00015766,0.07720242,0.08879794,0.12346024
0,0,Liberia,,,2022-03-22 20:33:53.931254,2022-04-01,0.00003538,0.00012226,0.00017997,1,6,9,1,4,7,0.00002575,0.00009121,0.00014298,0.07720242,0.08879794,0.12346024
0,0,Liberia,,,2022-03-22 20:33:53.931254,2022-04-02,0.00003109,0.00010932,0.00016320,1,5,8,1,4,6,0.00002262,0.00008154,0.00012966,0.07720242,0.08879794,0.12346024
0,0,Liberia,,,2022-03-22 20:33:53.931254,2022-04-03,0.00002731,0.00009767,0.00014800,1,4,7,1,3,5,0.00001988,0.00007315,0.00011759,0.07720242,0.08879794,0.12346024
0,0,Liberia,,,2022-03-22 20:33:53.931254,2022-04-04,0.00002400,0.00008739,0.00013421,1,4,6,0,3,5,0.00001747,0.00006529,0.00010664,0.07720242,0.08879794,0.12346024
0,0,Liberia,,,2022-03-22 20:33:53.931254,2022-04-05,0.00002108,0.00007833,0.00012171,1,3,6,0,2,4,0.00001535,0.00005826,0.00009671,0.07720242,0.08879794,0.12346024
