FIPS,HR_UID,nameid,province,region,analysisTime,dates,pointprevalence_025,pointprevalence_50,pointprevalence_975,pointinfections_025,pointinfections_50,pointinfections_975,pointinfectious_025,pointinfectious_50,pointinfectious_975,pointinfectiousprevalence_025,pointinfectiousprevalence_50,pointinfectiousprevalence_975,infectrate_025,infectrate_50,infectrate_975
29149,0,USMissouriOregon,Missouri,Oregon,2022-04-28 09:13:11,2020-03-19,0,0,0,,,,,,,,,,,,
29149,0,USMissouriOregon,Missouri,Oregon,2022-04-28 09:13:11,2020-03-20,0,0,0,,,,,,,,,,,,
29149,0,USMissouriOregon,Missouri,Oregon,2022-04-28 09:13:11,2020-03-21,0,0,0,,,,,,,,,,,,
29149,0,USMissouriOregon,Missouri,Oregon,2022-04-28 09:13:11,2020-03-22,0,0,0,,,,,,,,,,,,
29149,0,USMissouriOregon,Missouri,Oregon,2022-04-28 09:13:11,2020-03-23,0,0,0,,,,,,,,,,,,
29149,0,USMissouriOregon,Missouri,Oregon,2022-04-28 09:13:11,2020-03-24,0,0,0,,,,,,,,,,,,
29149,0,USMissouriOregon,Missouri,Oregon,2022-04-28 09:13:11,2020-03-25,0,0,0,,,,,,,,,,,,
29149,0,USMissouriOregon,Missouri,Oregon,2022-04-28 09:13:11,2020-03-26,0,0,0,,,,,,,,,,,,
29149,0,USMissouriOregon,Missouri,Oregon,2022-04-28 09:13:11,2020-03-27,0,0,0,,,,,,,,,,,,
29149,0,USMissouriOregon,Missouri,Oregon,2022-04-28 09:13:11,2020-03-28,0,0,0,,,,,,,,,,,,
29149,0,USMissouriOregon,Missouri,Oregon,2022-04-28 09:13:11,2020-03-29,0,0,0,,,,,,,,,,,,
29149,0,USMissouriOregon,Missouri,Oregon,2022-04-28 09:13:11,2020-03-30,0,0,0,,,,,,,,,,,,
29149,0,USMissouriOregon,Missouri,Oregon,2022-04-28 09:13:11,2020-03-31,0,0,0,,,,,,,,,,,,
29149,0,USMissouriOregon,Missouri,Oregon,2022-04-28 09:13:11,2020-04-01,0,0,0,,,,,,,,,,,,
29149,0,USMissouriOregon,Missouri,Oregon,2022-04-28 09:13:11,2020-04-02,0.09200049819742805,0.3581346916566466,1.4827525467806952,,,,,,,,,,,,
29149,0,USMissouriOregon,Missouri,Oregon,2022-04-28 09:13:11,2020-04-03,0.09200049819742805,0.3581346916566466,1.4827525467806952,,,,,,,,,,,,
29149,0,USMissouriOregon,Missouri,Oregon,2022-04-28 09:13:11,2020-04-04,0.09200049819742805,0.3581346916566466,1.4827525467806952,,,,,,,,,,,,
29149,0,USMissouriOregon,Missouri,Oregon,2022-04-28 09:13:11,2020-04-05,0.09200049819742805,0.3581346916566466,1.4827525467806952,,,,,,,,,,,,
29149,0,USMissouriOregon,Missouri,Oregon,2022-04-28 09:13:11,2020-04-06,0.09200049819742805,0.3581346916566466,1.4827525467806952,,,,,,,,,,,,
29149,0,USMissouriOregon,Missouri,Oregon,2022-04-28 09:13:11,2020-04-07,0.09200049819742805,0.3581346916566466,1.4827525467806952,,,,,,,,,,,,
29149,0,USMissouriOregon,Missouri,Oregon,2022-04-28 09:13:11,2020-04-08,0.09200049819742805,0.3581346916566466,1.4827525467806952,,,,,,,,,,,,
29149,0,USMissouriOregon,Missouri,Oregon,2022-04-28 09:13:11,2020-04-09,0,0,0,,,,,,,,,,,,
29149,0,USMissouriOregon,Missouri,Oregon,2022-04-28 09:13:11,2020-04-10,0,0,0,,,,,,,,,,,,
29149,0,USMissouriOregon,Missouri,Oregon,2022-04-28 09:13:11,2020-04-11,0,0,0,,,,,,,,,,,,
29149,0,USMissouriOregon,Missouri,Oregon,2022-04-28 09:13:11,2020-04-12,0,0,0,,,,,,,,,,,,
29149,0,USMissouriOregon,Missouri,Oregon,2022-04-28 09:13:11,2020-04-13,0,0,0,,,,,,,,,,,,
29149,0,USMissouriOregon,Missouri,Oregon,2022-04-28 09:13:11,2020-04-14,0,0,0,,,,,,,,,,,,
29149,0,USMissouriOregon,Missouri,Oregon,2022-04-28 09:13:11,2020-04-15,0,0,0,,,,,,,,,,,,
29149,0,USMissouriOregon,Missouri,Oregon,2022-04-28 09:13:11,2020-04-16,0,0,0,,,,,,,,,,,,
29149,0,USMissouriOregon,Missouri,Oregon,2022-04-28 09:13:11,2020-04-17,0,0,0,,,,,,,,,,,,
29149,0,USMissouriOregon,Missouri,Oregon,2022-04-28 09:13:11,2020-04-18,0,0,0,,,,,,,,,,,,
29149,0,USMissouriOregon,Missouri,Oregon,2022-04-28 09:13:11,2020-04-19,0,0,0,,,,,,,,,,,,
29149,0,USMissouriOregon,Missouri,Oregon,2022-04-28 09:13:11,2020-04-20,0,0,0,,,,,,,,,,,,
29149,0,USMissouriOregon,Missouri,Oregon,2022-04-28 09:13:11,2020-04-21,0,0,0,,,,,,,,,,,,
29149,0,USMissouriOregon,Missouri,Oregon,2022-04-28 09:13:11,2020-04-22,0,0,0,,,,,,,,,,,,
29149,0,USMissouriOregon,Missouri,Oregon,2022-04-28 09:13:11,2020-04-23,0,0,0,,,,,,,,,,,,
29149,0,USMissouriOregon,Missouri,Oregon,2022-04-28 09:13:11,2020-04-24,0,0,0,,,,,,,,,,,,
29149,0,USMissouriOregon,Missouri,Oregon,2022-04-28 09:13:11,2020-04-25,0,0,0,,,,,,,,,,,,
29149,0,USMissouriOregon,Missouri,Oregon,2022-04-28 09:13:11,2020-04-26,0,0,0,,,,,,,,,,,,
29149,0,USMissouriOregon,Missouri,Oregon,2022-04-28 09:13:11,2020-04-27,0,0,0,,,,,,,,,,,,
29149,0,USMissouriOregon,Missouri,Oregon,2022-04-28 09:13:11,2020-04-28,0,0,0,,,,,,,,,,,,
29149,0,USMissouriOregon,Missouri,Oregon,2022-04-28 09:13:11,2020-04-29,0,0,0,,,,,,,,,,,,
29149,0,USMissouriOregon,Missouri,Oregon,2022-04-28 09:13:11,2020-04-30,0.07717505450968694,0.2601075477391911,0.93750731225521,,,,,,,,,,,,
29149,0,USMissouriOregon,Missouri,Oregon,2022-04-28 09:13:11,2020-05-01,0.07717505450968694,0.2601075477391911,0.93750731225521,,,,,,,,,,,,
29149,0,USMissouriOregon,Missouri,Oregon,2022-04-28 09:13:11,2020-05-02,0.07717505450968694,0.2601075477391911,0.93750731225521,,,,,,,,,,,,
29149,0,USMissouriOregon,Missouri,Oregon,2022-04-28 09:13:11,2020-05-03,0.07717505450968694,0.2601075477391911,0.93750731225521,,,,,,,,,,,,
29149,0,USMissouriOregon,Missouri,Oregon,2022-04-28 09:13:11,2020-05-04,0.07717505450968694,0.2601075477391911,0.93750731225521,,,,,,,,,,,,
29149,0,USMissouriOregon,Missouri,Oregon,2022-04-28 09:13:11,2020-05-05,0.07717505450968694,0.2601075477391911,0.93750731225521,,,,,,,,,,,,
29149,0,USMissouriOregon,Missouri,Oregon,2022-04-28 09:13:11,2020-05-06,0.07717505450968694,0.2601075477391911,0.93750731225521,,,,,,,,,,,,
29149,0,USMissouriOregon,Missouri,Oregon,2022-04-28 09:13:11,2020-05-07,0,0,0,,,,,,,,,,,,
29149,0,USMissouriOregon,Missouri,Oregon,2022-04-28 09:13:11,2020-05-08,0,0,0,,,,,,,,,,,,
29149,0,USMissouriOregon,Missouri,Oregon,2022-04-28 09:13:11,2020-05-09,0,0,0,,,,,,,,,,,,
29149,0,USMissouriOregon,Missouri,Oregon,2022-04-28 09:13:11,2020-05-10,0,0,0,,,,,,,,,,,,
29149,0,USMissouriOregon,Missouri,Oregon,2022-04-28 09:13:11,2020-05-11,0,0,0,,,,,,,,,,,,
29149,0,USMissouriOregon,Missouri,Oregon,2022-04-28 09:13:11,2020-05-12,0,0,0,,,,,,,,,,,,
29149,0,USMissouriOregon,Missouri,Oregon,2022-04-28 09:13:11,2020-05-13,0,0,0,,,,,,,,,,,,
29149,0,USMissouriOregon,Missouri,Oregon,2022-04-28 09:13:11,2020-05-14,0,0,0,,,,,,,,,,,,
29149,0,USMissouriOregon,Missouri,Oregon,2022-04-28 09:13:11,2020-05-15,0,0,0,,,,,,,,,,,,
29149,0,USMissouriOregon,Missouri,Oregon,2022-04-28 09:13:11,2020-05-16,0,0,0,,,,,,,,,,,,
29149,0,USMissouriOregon,Missouri,Oregon,2022-04-28 09:13:11,2020-05-17,0,0,0,,,,,,,,,,,,
29149,0,USMissouriOregon,Missouri,Oregon,2022-04-28 09:13:11,2020-05-18,0,0,0,,,,,,,,,,,,
29149,0,USMissouriOregon,Missouri,Oregon,2022-04-28 09:13:11,2020-05-19,0,0,0,,,,,,,,,,,,
29149,0,USMissouriOregon,Missouri,Oregon,2022-04-28 09:13:11,2020-05-20,0,0,0,,,,,,,,,,,,
29149,0,USMissouriOregon,Missouri,Oregon,2022-04-28 09:13:11,2020-05-21,0,0,0,,,,,,,,,,,,
29149,0,USMissouriOregon,Missouri,Oregon,2022-04-28 09:13:11,2020-05-22,0,0,0,,,,,,,,,,,,
29149,0,USMissouriOregon,Missouri,Oregon,2022-04-28 09:13:11,2020-05-23,0,0,0,,,,,,,,,,,,
29149,0,USMissouriOregon,Missouri,Oregon,2022-04-28 09:13:11,2020-05-24,0,0,0,,,,,,,,,,,,
29149,0,USMissouriOregon,Missouri,Oregon,2022-04-28 09:13:11,2020-05-25,0,0,0,,,,,,,,,,,,
29149,0,USMissouriOregon,Missouri,Oregon,2022-04-28 09:13:11,2020-05-26,0,0,0,,,,,,,,,,,,
29149,0,USMissouriOregon,Missouri,Oregon,2022-04-28 09:13:11,2020-05-27,0,0,0,,,,,,,,,,,,
29149,0,USMissouriOregon,Missouri,Oregon,2022-04-28 09:13:11,2020-06-04,0,0,0,,,,,,,,,,,,
29149,0,USMissouriOregon,Missouri,Oregon,2022-04-28 09:13:11,2020-06-05,0,0,0,,,,,,,,,,,,
29149,0,USMissouriOregon,Missouri,Oregon,2022-04-28 09:13:11,2020-06-06,0,0,0,,,,,,,,,,,,
29149,0,USMissouriOregon,Missouri,Oregon,2022-04-28 09:13:11,2020-06-07,0,0,0,,,,,,,,,,,,
29149,0,USMissouriOregon,Missouri,Oregon,2022-04-28 09:13:11,2020-06-08,0,0,0,,,,,,,,,,,,
29149,0,USMissouriOregon,Missouri,Oregon,2022-04-28 09:13:11,2020-06-09,0,0,0,,,,,,,,,,,,
29149,0,USMissouriOregon,Missouri,Oregon,2022-04-28 09:13:11,2020-06-10,0,0,0,,,,,,,,,,,,
29149,0,USMissouriOregon,Missouri,Oregon,2022-04-28 09:13:11,2020-06-18,0,0,0,,,,,,,,,,,,
29149,0,USMissouriOregon,Missouri,Oregon,2022-04-28 09:13:11,2020-06-19,0,0,0,,,,,,,,,,,,
29149,0,USMissouriOregon,Missouri,Oregon,2022-04-28 09:13:11,2020-06-20,0,0,0,,,,,,,,,,,,
29149,0,USMissouriOregon,Missouri,Oregon,2022-04-28 09:13:11,2020-06-21,0,0,0,,,,,,,,,,,,
29149,0,USMissouriOregon,Missouri,Oregon,2022-04-28 09:13:11,2020-06-22,0,0,0,,,,,,,,,,,,
29149,0,USMissouriOregon,Missouri,Oregon,2022-04-28 09:13:11,2020-06-23,0,0,0,,,,,,,,,,,,
29149,0,USMissouriOregon,Missouri,Oregon,2022-04-28 09:13:11,2020-06-24,0,0,0,,,,,,,,,,,,
29149,0,USMissouriOregon,Missouri,Oregon,2022-04-28 09:13:11,2020-06-25,0.06366228290662145,0.1823937527783982,0.5613899465661958,,,,,,,,,,,,
29149,0,USMissouriOregon,Missouri,Oregon,2022-04-28 09:13:11,2020-06-26,0.06366228290662145,0.1823937527783982,0.5613899465661958,,,,,,,,,,,,
29149,0,USMissouriOregon,Missouri,Oregon,2022-04-28 09:13:11,2020-06-27,0.06366228290662145,0.1823937527783982,0.5613899465661958,,,,,,,,,,,,
29149,0,USMissouriOregon,Missouri,Oregon,2022-04-28 09:13:11,2020-06-28,0.06366228290662145,0.1823937527783982,0.5613899465661958,,,,,,,,,,,,
29149,0,USMissouriOregon,Missouri,Oregon,2022-04-28 09:13:11,2020-06-29,0.06366228290662145,0.1823937527783982,0.5613899465661958,,,,,,,,,,,,
29149,0,USMissouriOregon,Missouri,Oregon,2022-04-28 09:13:11,2020-06-30,0.06366228290662145,0.1823937527783982,0.5613899465661958,,,,,,,,,,,,
29149,0,USMissouriOregon,Missouri,Oregon,2022-04-28 09:13:11,2020-07-01,0.06366228290662145,0.1823937527783982,0.5613899465661958,,,,,,,,,,,,
29149,0,USMissouriOregon,Missouri,Oregon,2022-04-28 09:13:11,2020-07-02,0.10266622428680315,0.2438299953639716,0.6231550655466785,,,,,,,,,,,,
29149,0,USMissouriOregon,Missouri,Oregon,2022-04-28 09:13:11,2020-07-03,0.10266622428680315,0.2438299953639716,0.6231550655466785,,,,,,,,,,,,
29149,0,USMissouriOregon,Missouri,Oregon,2022-04-28 09:13:11,2020-07-04,0.10266622428680315,0.2438299953639716,0.6231550655466785,,,,,,,,,,,,
29149,0,USMissouriOregon,Missouri,Oregon,2022-04-28 09:13:11,2020-07-05,0.10266622428680315,0.2438299953639716,0.6231550655466785,,,,,,,,,,,,
29149,0,USMissouriOregon,Missouri,Oregon,2022-04-28 09:13:11,2020-07-06,0.10266622428680315,0.2438299953639716,0.6231550655466785,,,,,,,,,,,,
29149,0,USMissouriOregon,Missouri,Oregon,2022-04-28 09:13:11,2020-07-07,0.10266622428680315,0.2438299953639716,0.6231550655466785,,,,,,,,,,,,
29149,0,USMissouriOregon,Missouri,Oregon,2022-04-28 09:13:11,2020-07-08,0.10266622428680315,0.2438299953639716,0.6231550655466785,,,,,,,,,,,,
29149,0,USMissouriOregon,Missouri,Oregon,2022-04-28 09:13:11,2020-07-09,0,0,0,,,,,,,,,,,,
29149,0,USMissouriOregon,Missouri,Oregon,2022-04-28 09:13:11,2020-07-10,0,0,0,,,,,,,,,,,,
29149,0,USMissouriOregon,Missouri,Oregon,2022-04-28 09:13:11,2020-07-11,0,0,0,,,,,,,,,,,,
29149,0,USMissouriOregon,Missouri,Oregon,2022-04-28 09:13:11,2020-07-12,0,0,0,,,,,,,,,,,,
29149,0,USMissouriOregon,Missouri,Oregon,2022-04-28 09:13:11,2020-07-13,0,0,0,,,,,,,,,,,,
29149,0,USMissouriOregon,Missouri,Oregon,2022-04-28 09:13:11,2020-07-14,0,0,0,,,,,,,,,,,,
29149,0,USMissouriOregon,Missouri,Oregon,2022-04-28 09:13:11,2020-07-15,0,0,0,,,,,,,,,,,,
29149,0,USMissouriOregon,Missouri,Oregon,2022-04-28 09:13:11,2020-07-16,0.1718194652348529,0.44927352567699147,1.263827366334916,,,,,,,,,,,,
29149,0,USMissouriOregon,Missouri,Oregon,2022-04-28 09:13:11,2020-07-17,0.1718194652348529,0.44927352567699147,1.263827366334916,,,,,,,,,,,,
29149,0,USMissouriOregon,Missouri,Oregon,2022-04-28 09:13:11,2020-07-18,0.1718194652348529,0.44927352567699147,1.263827366334916,,,,,,,,,,,,
29149,0,USMissouriOregon,Missouri,Oregon,2022-04-28 09:13:11,2020-07-19,0.1718194652348529,0.44927352567699147,1.263827366334916,,,,,,,,,,,,
29149,0,USMissouriOregon,Missouri,Oregon,2022-04-28 09:13:11,2020-07-20,0.1718194652348529,0.44927352567699147,1.263827366334916,,,,,,,,,,,,
29149,0,USMissouriOregon,Missouri,Oregon,2022-04-28 09:13:11,2020-07-21,0.1718194652348529,0.44927352567699147,1.263827366334916,,,,,,,,,,,,
29149,0,USMissouriOregon,Missouri,Oregon,2022-04-28 09:13:11,2020-07-22,0.1718194652348529,0.44927352567699147,1.263827366334916,,,,,,,,,,,,
29149,0,USMissouriOregon,Missouri,Oregon,2022-04-28 09:13:11,2020-07-23,0.08600484160539913,0.31693910695855554,1.2449396701109134,,,,,,,,,,,,
29149,0,USMissouriOregon,Missouri,Oregon,2022-04-28 09:13:11,2020-07-24,0.08600484160539913,0.31693910695855554,1.2449396701109134,,,,,,,,,,,,
29149,0,USMissouriOregon,Missouri,Oregon,2022-04-28 09:13:11,2020-07-25,0.08600484160539913,0.31693910695855554,1.2449396701109134,,,,,,,,,,,,
29149,0,USMissouriOregon,Missouri,Oregon,2022-04-28 09:13:11,2020-07-26,0.08600484160539913,0.31693910695855554,1.2449396701109134,,,,,,,,,,,,
29149,0,USMissouriOregon,Missouri,Oregon,2022-04-28 09:13:11,2020-07-27,0.08600484160539913,0.31693910695855554,1.2449396701109134,,,,,,,,,,,,
29149,0,USMissouriOregon,Missouri,Oregon,2022-04-28 09:13:11,2020-07-28,0.08600484160539913,0.31693910695855554,1.2449396701109134,,,,,,,,,,,,
29149,0,USMissouriOregon,Missouri,Oregon,2022-04-28 09:13:11,2020-07-29,0.08600484160539913,0.31693910695855554,1.2449396701109134,,,,,,,,,,,,
29149,0,USMissouriOregon,Missouri,Oregon,2022-04-28 09:13:11,2020-07-30,0.1373302021079251,0.4196407699850273,1.3754564364344113,,,,,,,,,,,,
29149,0,USMissouriOregon,Missouri,Oregon,2022-04-28 09:13:11,2020-07-31,0.1373302021079251,0.4196407699850273,1.3754564364344113,,,,,,,,,,,,
29149,0,USMissouriOregon,Missouri,Oregon,2022-04-28 09:13:11,2020-08-01,0.1373302021079251,0.4196407699850273,1.3754564364344113,,,,,,,,,,,,
29149,0,USMissouriOregon,Missouri,Oregon,2022-04-28 09:13:11,2020-08-02,0.1373302021079251,0.4196407699850273,1.3754564364344113,,,,,,,,,,,,
29149,0,USMissouriOregon,Missouri,Oregon,2022-04-28 09:13:11,2020-08-03,0.1373302021079251,0.4196407699850273,1.3754564364344113,,,,,,,,,,,,
29149,0,USMissouriOregon,Missouri,Oregon,2022-04-28 09:13:11,2020-08-04,0.1373302021079251,0.4196407699850273,1.3754564364344113,,,,,,,,,,,,
29149,0,USMissouriOregon,Missouri,Oregon,2022-04-28 09:13:11,2020-08-05,0.1373302021079251,0.4196407699850273,1.3754564364344113,,,,,,,,,,,,
29149,0,USMissouriOregon,Missouri,Oregon,2022-04-28 09:13:11,2020-08-06,0.1318745375072632,0.3893310331427887,1.23399704745156,,,,,,,,,,,,
29149,0,USMissouriOregon,Missouri,Oregon,2022-04-28 09:13:11,2020-08-07,0.1318745375072632,0.3893310331427887,1.23399704745156,,,,,,,,,,,,
29149,0,USMissouriOregon,Missouri,Oregon,2022-04-28 09:13:11,2020-08-08,0.1318745375072632,0.3893310331427887,1.23399704745156,,,,,,,,,,,,
29149,0,USMissouriOregon,Missouri,Oregon,2022-04-28 09:13:11,2020-08-09,0.1318745375072632,0.3893310331427887,1.23399704745156,,,,,,,,,,,,
29149,0,USMissouriOregon,Missouri,Oregon,2022-04-28 09:13:11,2020-08-10,0.1318745375072632,0.3893310331427887,1.23399704745156,,,,,,,,,,,,
29149,0,USMissouriOregon,Missouri,Oregon,2022-04-28 09:13:11,2020-08-11,0.1318745375072632,0.3893310331427887,1.23399704745156,,,,,,,,,,,,
29149,0,USMissouriOregon,Missouri,Oregon,2022-04-28 09:13:11,2020-08-12,0.1318745375072632,0.3893310331427887,1.23399704745156,,,,,,,,,,,,
29149,0,USMissouriOregon,Missouri,Oregon,2022-04-28 09:13:11,2020-08-13,0.4201435030935944,0.9168224298289899,2.1506257499118564,,,,,,,,,,,,
29149,0,USMissouriOregon,Missouri,Oregon,2022-04-28 09:13:11,2020-08-14,0.4201435030935944,0.9168224298289899,2.1506257499118564,,,,,,,,,,,,
29149,0,USMissouriOregon,Missouri,Oregon,2022-04-28 09:13:11,2020-08-15,0.4201435030935944,0.9168224298289899,2.1506257499118564,,,,,,,,,,,,
29149,0,USMissouriOregon,Missouri,Oregon,2022-04-28 09:13:11,2020-08-16,0.4201435030935944,0.9168224298289899,2.1506257499118564,,,,,,,,,,,,
29149,0,USMissouriOregon,Missouri,Oregon,2022-04-28 09:13:11,2020-08-17,0.4201435030935944,0.9168224298289899,2.1506257499118564,,,,,,,,,,,,
29149,0,USMissouriOregon,Missouri,Oregon,2022-04-28 09:13:11,2020-08-18,0.4201435030935944,0.9168224298289899,2.1506257499118564,,,,,,,,,,,,
29149,0,USMissouriOregon,Missouri,Oregon,2022-04-28 09:13:11,2020-08-19,0.4201435030935944,0.9168224298289899,2.1506257499118564,,,,,,,,,,,,
29149,0,USMissouriOregon,Missouri,Oregon,2022-04-28 09:13:11,2020-08-20,0.4455377994321094,1.0245967003265612,2.534915909464271,,,,,,,,,,,,
29149,0,USMissouriOregon,Missouri,Oregon,2022-04-28 09:13:11,2020-08-21,0.4455377994321094,1.0245967003265612,2.534915909464271,,,,,,,,,,,,
29149,0,USMissouriOregon,Missouri,Oregon,2022-04-28 09:13:11,2020-08-22,0.4455377994321094,1.0245967003265612,2.534915909464271,,,,,,,,,,,,
29149,0,USMissouriOregon,Missouri,Oregon,2022-04-28 09:13:11,2020-08-23,0.4455377994321094,1.0245967003265612,2.534915909464271,,,,,,,,,,,,
29149,0,USMissouriOregon,Missouri,Oregon,2022-04-28 09:13:11,2020-08-24,0.4455377994321094,1.0245967003265612,2.534915909464271,,,,,,,,,,,,
29149,0,USMissouriOregon,Missouri,Oregon,2022-04-28 09:13:11,2020-08-25,0.4455377994321094,1.0245967003265612,2.534915909464271,,,,,,,,,,,,
29149,0,USMissouriOregon,Missouri,Oregon,2022-04-28 09:13:11,2020-08-26,0.4455377994321094,1.0245967003265612,2.534915909464271,,,,,,,,,,,,
29149,0,USMissouriOregon,Missouri,Oregon,2022-04-28 09:13:11,2020-08-27,0.8047309805827576,1.6084201039706814,3.446772062654276,,,,,,,,,,,,
29149,0,USMissouriOregon,Missouri,Oregon,2022-04-28 09:13:11,2020-08-28,0.8047309805827576,1.6084201039706814,3.446772062654276,,,,,,,,,,,,
29149,0,USMissouriOregon,Missouri,Oregon,2022-04-28 09:13:11,2020-08-29,0.8047309805827576,1.6084201039706814,3.446772062654276,,,,,,,,,,,,
29149,0,USMissouriOregon,Missouri,Oregon,2022-04-28 09:13:11,2020-08-30,0.8047309805827576,1.6084201039706814,3.446772062654276,,,,,,,,,,,,
29149,0,USMissouriOregon,Missouri,Oregon,2022-04-28 09:13:11,2020-08-31,0.8047309805827576,1.6084201039706814,3.446772062654276,,,,,,,,,,,,
29149,0,USMissouriOregon,Missouri,Oregon,2022-04-28 09:13:11,2020-09-01,0.8047309805827576,1.6084201039706814,3.446772062654276,,,,,,,,,,,,
29149,0,USMissouriOregon,Missouri,Oregon,2022-04-28 09:13:11,2020-09-02,0.8047309805827576,1.6084201039706814,3.446772062654276,,,,,,,,,,,,
29149,0,USMissouriOregon,Missouri,Oregon,2022-04-28 09:13:11,2020-09-03,0.6587420991841769,1.3605288895582375,3.0162674102113796,,,,,,,,,,,,
29149,0,USMissouriOregon,Missouri,Oregon,2022-04-28 09:13:11,2020-09-04,0.6587420991841769,1.3605288895582375,3.0162674102113796,,,,,,,,,,,,
29149,0,USMissouriOregon,Missouri,Oregon,2022-04-28 09:13:11,2020-09-05,0.6587420991841769,1.3605288895582375,3.0162674102113796,,,,,,,,,,,,
29149,0,USMissouriOregon,Missouri,Oregon,2022-04-28 09:13:11,2020-09-06,0.6587420991841769,1.3605288895582375,3.0162674102113796,,,,,,,,,,,,
29149,0,USMissouriOregon,Missouri,Oregon,2022-04-28 09:13:11,2020-09-07,0.6587420991841769,1.3605288895582375,3.0162674102113796,,,,,,,,,,,,
29149,0,USMissouriOregon,Missouri,Oregon,2022-04-28 09:13:11,2020-09-08,0.6587420991841769,1.3605288895582375,3.0162674102113796,,,,,,,,,,,,
29149,0,USMissouriOregon,Missouri,Oregon,2022-04-28 09:13:11,2020-09-09,0.6587420991841769,1.3605288895582375,3.0162674102113796,,,,,,,,,,,,
29149,0,USMissouriOregon,Missouri,Oregon,2022-04-28 09:13:11,2020-09-10,0.6595112420451638,1.2860389332002815,2.685962257976878,,,,,,,,,,,,
29149,0,USMissouriOregon,Missouri,Oregon,2022-04-28 09:13:11,2020-09-11,0.6595112420451638,1.2860389332002815,2.685962257976878,,,,,,,,,,,,
29149,0,USMissouriOregon,Missouri,Oregon,2022-04-28 09:13:11,2020-09-12,0.6595112420451638,1.2860389332002815,2.685962257976878,,,,,,,,,,,,
29149,0,USMissouriOregon,Missouri,Oregon,2022-04-28 09:13:11,2020-09-13,0.6595112420451638,1.2860389332002815,2.685962257976878,,,,,,,,,,,,
29149,0,USMissouriOregon,Missouri,Oregon,2022-04-28 09:13:11,2020-09-14,0.6595112420451638,1.2860389332002815,2.685962257976878,,,,,,,,,,,,
29149,0,USMissouriOregon,Missouri,Oregon,2022-04-28 09:13:11,2020-09-15,0.6595112420451638,1.2860389332002815,2.685962257976878,,,,,,,,,,,,
29149,0,USMissouriOregon,Missouri,Oregon,2022-04-28 09:13:11,2020-09-16,0.6595112420451638,1.2860389332002815,2.685962257976878,,,,,,,,,,,,
29149,0,USMissouriOregon,Missouri,Oregon,2022-04-28 09:13:11,2020-09-17,0.825943315591361,1.54316347365645,3.0814682891081633,,,,,,,,,,,,
29149,0,USMissouriOregon,Missouri,Oregon,2022-04-28 09:13:11,2020-09-18,0.825943315591361,1.54316347365645,3.0814682891081633,,,,,,,,,,,,
29149,0,USMissouriOregon,Missouri,Oregon,2022-04-28 09:13:11,2020-09-19,0.825943315591361,1.54316347365645,3.0814682891081633,,,,,,,,,,,,
29149,0,USMissouriOregon,Missouri,Oregon,2022-04-28 09:13:11,2020-09-20,0.825943315591361,1.54316347365645,3.0814682891081633,,,,,,,,,,,,
29149,0,USMissouriOregon,Missouri,Oregon,2022-04-28 09:13:11,2020-09-21,0.825943315591361,1.54316347365645,3.0814682891081633,,,,,,,,,,,,
29149,0,USMissouriOregon,Missouri,Oregon,2022-04-28 09:13:11,2020-09-22,0.825943315591361,1.54316347365645,3.0814682891081633,,,,,,,,,,,,
29149,0,USMissouriOregon,Missouri,Oregon,2022-04-28 09:13:11,2020-09-23,0.825943315591361,1.54316347365645,3.0814682891081633,,,,,,,,,,,,
29149,0,USMissouriOregon,Missouri,Oregon,2022-04-28 09:13:11,2020-09-24,0.7778903792950588,1.2172250694459021,2.007528929255366,,,,,,,,,,,,
29149,0,USMissouriOregon,Missouri,Oregon,2022-04-28 09:13:11,2020-09-25,0.7778903792950588,1.2172250694459021,2.007528929255366,,,,,,,,,,,,
29149,0,USMissouriOregon,Missouri,Oregon,2022-04-28 09:13:11,2020-09-26,0.7778903792950588,1.2172250694459021,2.007528929255366,,,,,,,,,,,,
29149,0,USMissouriOregon,Missouri,Oregon,2022-04-28 09:13:11,2020-09-27,0.7778903792950588,1.2172250694459021,2.007528929255366,,,,,,,,,,,,
29149,0,USMissouriOregon,Missouri,Oregon,2022-04-28 09:13:11,2020-09-28,0.7778903792950588,1.2172250694459021,2.007528929255366,,,,,,,,,,,,
29149,0,USMissouriOregon,Missouri,Oregon,2022-04-28 09:13:11,2020-09-29,0.7778903792950588,1.2172250694459021,2.007528929255366,,,,,,,,,,,,
29149,0,USMissouriOregon,Missouri,Oregon,2022-04-28 09:13:11,2020-09-30,0.7778903792950588,1.2172250694459021,2.007528929255366,,,,,,,,,,,,
29149,0,USMissouriOregon,Missouri,Oregon,2022-04-28 09:13:11,2020-10-01,1.0201069472622102,1.7769609076991693,3.2933575468806686,,,,,,,,,,,,
29149,0,USMissouriOregon,Missouri,Oregon,2022-04-28 09:13:11,2020-10-02,1.0201069472622102,1.7769609076991693,3.2933575468806686,,,,,,,,,,,,
29149,0,USMissouriOregon,Missouri,Oregon,2022-04-28 09:13:11,2020-10-03,1.0201069472622102,1.7769609076991693,3.2933575468806686,,,,,,,,,,,,
29149,0,USMissouriOregon,Missouri,Oregon,2022-04-28 09:13:11,2020-10-04,1.0201069472622102,1.7769609076991693,3.2933575468806686,,,,,,,,,,,,
29149,0,USMissouriOregon,Missouri,Oregon,2022-04-28 09:13:11,2020-10-05,1.0201069472622102,1.7769609076991693,3.2933575468806686,,,,,,,,,,,,
29149,0,USMissouriOregon,Missouri,Oregon,2022-04-28 09:13:11,2020-10-06,1.0201069472622102,1.7769609076991693,3.2933575468806686,,,,,,,,,,,,
29149,0,USMissouriOregon,Missouri,Oregon,2022-04-28 09:13:11,2020-10-07,1.0201069472622102,1.7769609076991693,3.2933575468806686,,,,,,,,,,,,
29149,0,USMissouriOregon,Missouri,Oregon,2022-04-28 09:13:11,2020-10-08,1.093354820134231,1.6541054768948176,2.6280838127442503,,,,,,,,,,,,
29149,0,USMissouriOregon,Missouri,Oregon,2022-04-28 09:13:11,2020-10-09,1.093354820134231,1.6541054768948176,2.6280838127442503,,,,,,,,,,,,
29149,0,USMissouriOregon,Missouri,Oregon,2022-04-28 09:13:11,2020-10-10,1.093354820134231,1.6541054768948176,2.6280838127442503,,,,,,,,,,,,
29149,0,USMissouriOregon,Missouri,Oregon,2022-04-28 09:13:11,2020-10-11,1.093354820134231,1.6541054768948176,2.6280838127442503,,,,,,,,,,,,
29149,0,USMissouriOregon,Missouri,Oregon,2022-04-28 09:13:11,2020-10-12,1.093354820134231,1.6541054768948176,2.6280838127442503,,,,,,,,,,,,
29149,0,USMissouriOregon,Missouri,Oregon,2022-04-28 09:13:11,2020-10-13,1.093354820134231,1.6541054768948176,2.6280838127442503,,,,,,,,,,,,
29149,0,USMissouriOregon,Missouri,Oregon,2022-04-28 09:13:11,2020-10-14,1.093354820134231,1.6541054768948176,2.6280838127442503,,,,,,,,,,,,
29149,0,USMissouriOregon,Missouri,Oregon,2022-04-28 09:13:11,2020-10-15,0.9692497285031236,1.787310564528989,3.5198482175466888,,,,,,,,,,,,
29149,0,USMissouriOregon,Missouri,Oregon,2022-04-28 09:13:11,2020-10-16,0.9692497285031236,1.787310564528989,3.5198482175466888,,,,,,,,,,,,
29149,0,USMissouriOregon,Missouri,Oregon,2022-04-28 09:13:11,2020-10-17,0.9692497285031236,1.787310564528989,3.5198482175466888,,,,,,,,,,,,
29149,0,USMissouriOregon,Missouri,Oregon,2022-04-28 09:13:11,2020-10-18,0.9692497285031236,1.787310564528989,3.5198482175466888,,,,,,,,,,,,
29149,0,USMissouriOregon,Missouri,Oregon,2022-04-28 09:13:11,2020-10-19,0.9692497285031236,1.787310564528989,3.5198482175466888,,,,,,,,,,,,
29149,0,USMissouriOregon,Missouri,Oregon,2022-04-28 09:13:11,2020-10-20,0.9692497285031236,1.787310564528989,3.5198482175466888,,,,,,,,,,,,
29149,0,USMissouriOregon,Missouri,Oregon,2022-04-28 09:13:11,2020-10-21,0.9692497285031236,1.787310564528989,3.5198482175466888,,,,,,,,,,,,
29149,0,USMissouriOregon,Missouri,Oregon,2022-04-28 09:13:11,2020-10-22,0.7961369440919691,1.5758074634718517,3.3428142556151528,,,,,,,,,,,,
29149,0,USMissouriOregon,Missouri,Oregon,2022-04-28 09:13:11,2020-10-23,0.7961369440919691,1.5758074634718517,3.3428142556151528,,,,,,,,,,,,
29149,0,USMissouriOregon,Missouri,Oregon,2022-04-28 09:13:11,2020-10-24,0.7961369440919691,1.5758074634718517,3.3428142556151528,,,,,,,,,,,,
29149,0,USMissouriOregon,Missouri,Oregon,2022-04-28 09:13:11,2020-10-25,0.7961369440919691,1.5758074634718517,3.3428142556151528,,,,,,,,,,,,
29149,0,USMissouriOregon,Missouri,Oregon,2022-04-28 09:13:11,2020-10-26,0.7961369440919691,1.5758074634718517,3.3428142556151528,,,,,,,,,,,,
29149,0,USMissouriOregon,Missouri,Oregon,2022-04-28 09:13:11,2020-10-27,0.7961369440919691,1.5758074634718517,3.3428142556151528,,,,,,,,,,,,
29149,0,USMissouriOregon,Missouri,Oregon,2022-04-28 09:13:11,2020-10-28,0.7961369440919691,1.5758074634718517,3.3428142556151528,,,,,,,,,,,,
29149,0,USMissouriOregon,Missouri,Oregon,2022-04-28 09:13:11,2020-10-29,1.13823450146321,2.1226284859253415,4.2301404554344035,,,,,,,,,,,,
29149,0,USMissouriOregon,Missouri,Oregon,2022-04-28 09:13:11,2020-10-30,1.13823450146321,2.1226284859253415,4.2301404554344035,,,,,,,,,,,,
29149,0,USMissouriOregon,Missouri,Oregon,2022-04-28 09:13:11,2020-10-31,1.13823450146321,2.1226284859253415,4.2301404554344035,,,,,,,,,,,,
29149,0,USMissouriOregon,Missouri,Oregon,2022-04-28 09:13:11,2020-11-01,1.13823450146321,2.1226284859253415,4.2301404554344035,,,,,,,,,,,,
29149,0,USMissouriOregon,Missouri,Oregon,2022-04-28 09:13:11,2020-11-02,1.13823450146321,2.1226284859253415,4.2301404554344035,,,,,,,,,,,,
29149,0,USMissouriOregon,Missouri,Oregon,2022-04-28 09:13:11,2020-11-03,1.13823450146321,2.1226284859253415,4.2301404554344035,,,,,,,,,,,,
29149,0,USMissouriOregon,Missouri,Oregon,2022-04-28 09:13:11,2020-11-04,1.13823450146321,2.1226284859253415,4.2301404554344035,,,,,,,,,,,,
29149,0,USMissouriOregon,Missouri,Oregon,2022-04-28 09:13:11,2020-11-05,1.6116143784517731,3.3867156482453162,7.643490251250637,,,,,,,,,,,,
29149,0,USMissouriOregon,Missouri,Oregon,2022-04-28 09:13:11,2020-11-06,1.6116143784517731,3.3867156482453162,7.643490251250637,,,,,,,,,,,,
29149,0,USMissouriOregon,Missouri,Oregon,2022-04-28 09:13:11,2020-11-07,1.6116143784517731,3.3867156482453162,7.643490251250637,,,,,,,,,,,,
29149,0,USMissouriOregon,Missouri,Oregon,2022-04-28 09:13:11,2020-11-08,1.6116143784517731,3.3867156482453162,7.643490251250637,,,,,,,,,,,,
29149,0,USMissouriOregon,Missouri,Oregon,2022-04-28 09:13:11,2020-11-09,1.6116143784517731,3.3867156482453162,7.643490251250637,,,,,,,,,,,,
29149,0,USMissouriOregon,Missouri,Oregon,2022-04-28 09:13:11,2020-11-10,1.6116143784517731,3.3867156482453162,7.643490251250637,,,,,,,,,,,,
29149,0,USMissouriOregon,Missouri,Oregon,2022-04-28 09:13:11,2020-11-11,1.6116143784517731,3.3867156482453162,7.643490251250637,,,,,,,,,,,,
29149,0,USMissouriOregon,Missouri,Oregon,2022-04-28 09:13:11,2020-11-12,1.5234401688363235,3.1211945189364685,6.862328817552882,,,,,,,,,,,,
29149,0,USMissouriOregon,Missouri,Oregon,2022-04-28 09:13:11,2020-11-13,1.5234401688363235,3.1211945189364685,6.862328817552882,,,,,,,,,,,,
29149,0,USMissouriOregon,Missouri,Oregon,2022-04-28 09:13:11,2020-11-14,1.5234401688363235,3.1211945189364685,6.862328817552882,,,,,,,,,,,,
29149,0,USMissouriOregon,Missouri,Oregon,2022-04-28 09:13:11,2020-11-15,1.5234401688363235,3.1211945189364685,6.862328817552882,,,,,,,,,,,,
29149,0,USMissouriOregon,Missouri,Oregon,2022-04-28 09:13:11,2020-11-16,1.5234401688363235,3.1211945189364685,6.862328817552882,,,,,,,,,,,,
29149,0,USMissouriOregon,Missouri,Oregon,2022-04-28 09:13:11,2020-11-17,1.5234401688363235,3.1211945189364685,6.862328817552882,,,,,,,,,,,,
29149,0,USMissouriOregon,Missouri,Oregon,2022-04-28 09:13:11,2020-11-18,1.5234401688363235,3.1211945189364685,6.862328817552882,,,,,,,,,,,,
29149,0,USMissouriOregon,Missouri,Oregon,2022-04-28 09:13:11,2020-11-19,1.2204182876080765,2.587020120854183,5.890999746291422,,,,,,,,,,,,
29149,0,USMissouriOregon,Missouri,Oregon,2022-04-28 09:13:11,2020-11-20,1.2204182876080765,2.587020120854183,5.890999746291422,,,,,,,,,,,,
29149,0,USMissouriOregon,Missouri,Oregon,2022-04-28 09:13:11,2020-11-21,1.2204182876080765,2.587020120854183,5.890999746291422,,,,,,,,,,,,
29149,0,USMissouriOregon,Missouri,Oregon,2022-04-28 09:13:11,2020-11-22,1.2204182876080765,2.587020120854183,5.890999746291422,,,,,,,,,,,,
29149,0,USMissouriOregon,Missouri,Oregon,2022-04-28 09:13:11,2020-11-23,1.2204182876080765,2.587020120854183,5.890999746291422,,,,,,,,,,,,
29149,0,USMissouriOregon,Missouri,Oregon,2022-04-28 09:13:11,2020-11-24,1.2204182876080765,2.587020120854183,5.890999746291422,,,,,,,,,,,,
29149,0,USMissouriOregon,Missouri,Oregon,2022-04-28 09:13:11,2020-11-25,1.2204182876080765,2.587020120854183,5.890999746291422,,,,,,,,,,,,
29149,0,USMissouriOregon,Missouri,Oregon,2022-04-28 09:13:11,2020-11-26,1.1859985706029648,2.4499854489102684,5.432695185274787,,,,,,,,,,,,
29149,0,USMissouriOregon,Missouri,Oregon,2022-04-28 09:13:11,2020-11-27,1.1859985706029648,2.4499854489102684,5.432695185274787,,,,,,,,,,,,
29149,0,USMissouriOregon,Missouri,Oregon,2022-04-28 09:13:11,2020-11-28,1.1859985706029648,2.4499854489102684,5.432695185274787,,,,,,,,,,,,
29149,0,USMissouriOregon,Missouri,Oregon,2022-04-28 09:13:11,2020-11-29,1.1859985706029648,2.4499854489102684,5.432695185274787,,,,,,,,,,,,
29149,0,USMissouriOregon,Missouri,Oregon,2022-04-28 09:13:11,2020-11-30,1.1859985706029648,2.4499854489102684,5.432695185274787,,,,,,,,,,,,
29149,0,USMissouriOregon,Missouri,Oregon,2022-04-28 09:13:11,2020-12-01,1.1859985706029648,2.4499854489102684,5.432695185274787,,,,,,,,,,,,
29149,0,USMissouriOregon,Missouri,Oregon,2022-04-28 09:13:11,2020-12-02,1.1859985706029648,2.4499854489102684,5.432695185274787,,,,,,,,,,,,
29149,0,USMissouriOregon,Missouri,Oregon,2022-04-28 09:13:11,2020-12-03,1.04054990637353,2.2075241221480737,5.031011569635758,,,,,,,,,,,,
29149,0,USMissouriOregon,Missouri,Oregon,2022-04-28 09:13:11,2020-12-04,1.04054990637353,2.2075241221480737,5.031011569635758,,,,,,,,,,,,
29149,0,USMissouriOregon,Missouri,Oregon,2022-04-28 09:13:11,2020-12-05,1.04054990637353,2.2075241221480737,5.031011569635758,,,,,,,,,,,,
29149,0,USMissouriOregon,Missouri,Oregon,2022-04-28 09:13:11,2020-12-06,1.04054990637353,2.2075241221480737,5.031011569635758,,,,,,,,,,,,
29149,0,USMissouriOregon,Missouri,Oregon,2022-04-28 09:13:11,2020-12-07,1.04054990637353,2.2075241221480737,5.031011569635758,,,,,,,,,,,,
29149,0,USMissouriOregon,Missouri,Oregon,2022-04-28 09:13:11,2020-12-08,1.04054990637353,2.2075241221480737,5.031011569635758,,,,,,,,,,,,
29149,0,USMissouriOregon,Missouri,Oregon,2022-04-28 09:13:11,2020-12-09,1.04054990637353,2.2075241221480737,5.031011569635758,,,,,,,,,,,,
29149,0,USMissouriOregon,Missouri,Oregon,2022-04-28 09:13:11,2020-12-10,2.5298455662517805,4.106112087163483,7.049409668070086,,,,,,,,,,,,
29149,0,USMissouriOregon,Missouri,Oregon,2022-04-28 09:13:11,2020-12-11,2.5298455662517805,4.106112087163483,7.049409668070086,,,,,,,,,,,,
29149,0,USMissouriOregon,Missouri,Oregon,2022-04-28 09:13:11,2020-12-12,2.5298455662517805,4.106112087163483,7.049409668070086,,,,,,,,,,,,
29149,0,USMissouriOregon,Missouri,Oregon,2022-04-28 09:13:11,2020-12-13,2.5298455662517805,4.106112087163483,7.049409668070086,,,,,,,,,,,,
29149,0,USMissouriOregon,Missouri,Oregon,2022-04-28 09:13:11,2020-12-14,2.5298455662517805,4.106112087163483,7.049409668070086,,,,,,,,,,,,
29149,0,USMissouriOregon,Missouri,Oregon,2022-04-28 09:13:11,2020-12-15,2.5298455662517805,4.106112087163483,7.049409668070086,,,,,,,,,,,,
29149,0,USMissouriOregon,Missouri,Oregon,2022-04-28 09:13:11,2020-12-16,2.5298455662517805,4.106112087163483,7.049409668070086,,,,,,,,,,,,
29149,0,USMissouriOregon,Missouri,Oregon,2022-04-28 09:13:11,2020-12-17,0.7972207262188835,1.74677648728092,4.114561534952489,,,,,,,,,,,,
29149,0,USMissouriOregon,Missouri,Oregon,2022-04-28 09:13:11,2020-12-18,0.7972207262188835,1.74677648728092,4.114561534952489,,,,,,,,,,,,
29149,0,USMissouriOregon,Missouri,Oregon,2022-04-28 09:13:11,2020-12-19,0.7972207262188835,1.74677648728092,4.114561534952489,,,,,,,,,,,,
29149,0,USMissouriOregon,Missouri,Oregon,2022-04-28 09:13:11,2020-12-20,0.7972207262188835,1.74677648728092,4.114561534952489,,,,,,,,,,,,
29149,0,USMissouriOregon,Missouri,Oregon,2022-04-28 09:13:11,2020-12-21,0.7972207262188835,1.74677648728092,4.114561534952489,,,,,,,,,,,,
29149,0,USMissouriOregon,Missouri,Oregon,2022-04-28 09:13:11,2020-12-22,0.7972207262188835,1.74677648728092,4.114561534952489,,,,,,,,,,,,
29149,0,USMissouriOregon,Missouri,Oregon,2022-04-28 09:13:11,2020-12-23,0.7972207262188835,1.74677648728092,4.114561534952489,,,,,,,,,,,,
29149,0,USMissouriOregon,Missouri,Oregon,2022-04-28 09:13:11,2020-12-24,1.0541601438397528,2.098472170932901,4.4781092633544075,,,,,,,,,,,,
29149,0,USMissouriOregon,Missouri,Oregon,2022-04-28 09:13:11,2020-12-25,1.0541601438397528,2.098472170932901,4.4781092633544075,,,,,,,,,,,,
29149,0,USMissouriOregon,Missouri,Oregon,2022-04-28 09:13:11,2020-12-26,1.0541601438397528,2.098472170932901,4.4781092633544075,,,,,,,,,,,,
29149,0,USMissouriOregon,Missouri,Oregon,2022-04-28 09:13:11,2020-12-27,1.0541601438397528,2.098472170932901,4.4781092633544075,,,,,,,,,,,,
29149,0,USMissouriOregon,Missouri,Oregon,2022-04-28 09:13:11,2020-12-28,1.0541601438397528,2.098472170932901,4.4781092633544075,,,,,,,,,,,,
29149,0,USMissouriOregon,Missouri,Oregon,2022-04-28 09:13:11,2020-12-29,1.0541601438397528,2.098472170932901,4.4781092633544075,,,,,,,,,,,,
29149,0,USMissouriOregon,Missouri,Oregon,2022-04-28 09:13:11,2020-12-30,1.0541601438397528,2.098472170932901,4.4781092633544075,,,,,,,,,,,,
29149,0,USMissouriOregon,Missouri,Oregon,2022-04-28 09:13:11,2020-12-31,1.4727896046220843,2.8523454321113006,5.9148204723457205,,,,,,,,,,,,
29149,0,USMissouriOregon,Missouri,Oregon,2022-04-28 09:13:11,2021-01-01,1.4727896046220843,2.8523454321113006,5.9148204723457205,,,,,,,,,,,,
29149,0,USMissouriOregon,Missouri,Oregon,2022-04-28 09:13:11,2021-01-02,1.4727896046220843,2.8523454321113006,5.9148204723457205,,,,,,,,,,,,
29149,0,USMissouriOregon,Missouri,Oregon,2022-04-28 09:13:11,2021-01-03,1.4727896046220843,2.8523454321113006,5.9148204723457205,,,,,,,,,,,,
29149,0,USMissouriOregon,Missouri,Oregon,2022-04-28 09:13:11,2021-01-04,1.4727896046220843,2.8523454321113006,5.9148204723457205,,,,,,,,,,,,
29149,0,USMissouriOregon,Missouri,Oregon,2022-04-28 09:13:11,2021-01-05,1.4727896046220843,2.8523454321113006,5.9148204723457205,,,,,,,,,,,,
29149,0,USMissouriOregon,Missouri,Oregon,2022-04-28 09:13:11,2021-01-06,1.4727896046220843,2.8523454321113006,5.9148204723457205,,,,,,,,,,,,
29149,0,USMissouriOregon,Missouri,Oregon,2022-04-28 09:13:11,2021-01-07,1.9367394315076738,3.3255012514226716,6.068782166287742,,,,,,,,,,,,
29149,0,USMissouriOregon,Missouri,Oregon,2022-04-28 09:13:11,2021-01-08,1.9367394315076738,3.3255012514226716,6.068782166287742,,,,,,,,,,,,
29149,0,USMissouriOregon,Missouri,Oregon,2022-04-28 09:13:11,2021-01-09,1.9367394315076738,3.3255012514226716,6.068782166287742,,,,,,,,,,,,
29149,0,USMissouriOregon,Missouri,Oregon,2022-04-28 09:13:11,2021-01-10,1.9367394315076738,3.3255012514226716,6.068782166287742,,,,,,,,,,,,
29149,0,USMissouriOregon,Missouri,Oregon,2022-04-28 09:13:11,2021-01-11,1.9367394315076738,3.3255012514226716,6.068782166287742,,,,,,,,,,,,
29149,0,USMissouriOregon,Missouri,Oregon,2022-04-28 09:13:11,2021-01-12,1.9367394315076738,3.3255012514226716,6.068782166287742,,,,,,,,,,,,
29149,0,USMissouriOregon,Missouri,Oregon,2022-04-28 09:13:11,2021-01-13,1.9367394315076738,3.3255012514226716,6.068782166287742,,,,,,,,,,,,
29149,0,USMissouriOregon,Missouri,Oregon,2022-04-28 09:13:11,2021-01-14,0.8011628873630711,1.5948433238608248,3.403377312649737,,,,,,,,,,,,
29149,0,USMissouriOregon,Missouri,Oregon,2022-04-28 09:13:11,2021-01-15,0.8011628873630711,1.5948433238608248,3.403377312649737,,,,,,,,,,,,
29149,0,USMissouriOregon,Missouri,Oregon,2022-04-28 09:13:11,2021-01-16,0.8011628873630711,1.5948433238608248,3.403377312649737,,,,,,,,,,,,
29149,0,USMissouriOregon,Missouri,Oregon,2022-04-28 09:13:11,2021-01-17,0.8011628873630711,1.5948433238608248,3.403377312649737,,,,,,,,,,,,
29149,0,USMissouriOregon,Missouri,Oregon,2022-04-28 09:13:11,2021-01-18,0.8011628873630711,1.5948433238608248,3.403377312649737,,,,,,,,,,,,
29149,0,USMissouriOregon,Missouri,Oregon,2022-04-28 09:13:11,2021-01-19,0.8011628873630711,1.5948433238608248,3.403377312649737,,,,,,,,,,,,
29149,0,USMissouriOregon,Missouri,Oregon,2022-04-28 09:13:11,2021-01-20,0.8011628873630711,1.5948433238608248,3.403377312649737,,,,,,,,,,,,
29149,0,USMissouriOregon,Missouri,Oregon,2022-04-28 09:13:11,2021-01-21,0.7475161955949718,1.4675891894066813,3.0869706779816477,,,,,,,,,,,,
29149,0,USMissouriOregon,Missouri,Oregon,2022-04-28 09:13:11,2021-01-22,0.7475161955949718,1.4675891894066813,3.0869706779816477,,,,,,,,,,,,
29149,0,USMissouriOregon,Missouri,Oregon,2022-04-28 09:13:11,2021-01-23,0.7475161955949718,1.4675891894066813,3.0869706779816477,,,,,,,,,,,,
29149,0,USMissouriOregon,Missouri,Oregon,2022-04-28 09:13:11,2021-01-24,0.7475161955949718,1.4675891894066813,3.0869706779816477,,,,,,,,,,,,
29149,0,USMissouriOregon,Missouri,Oregon,2022-04-28 09:13:11,2021-01-25,0.7475161955949718,1.4675891894066813,3.0869706779816477,,,,,,,,,,,,
29149,0,USMissouriOregon,Missouri,Oregon,2022-04-28 09:13:11,2021-01-26,0.7475161955949718,1.4675891894066813,3.0869706779816477,,,,,,,,,,,,
29149,0,USMissouriOregon,Missouri,Oregon,2022-04-28 09:13:11,2021-01-27,0.7475161955949718,1.4675891894066813,3.0869706779816477,,,,,,,,,,,,
29149,0,USMissouriOregon,Missouri,Oregon,2022-04-28 09:13:11,2021-01-28,0.3923864649600937,0.894958640551201,2.195805562470788,,,,,,,,,,,,
29149,0,USMissouriOregon,Missouri,Oregon,2022-04-28 09:13:11,2021-01-29,0.3923864649600937,0.894958640551201,2.195805562470788,,,,,,,,,,,,
29149,0,USMissouriOregon,Missouri,Oregon,2022-04-28 09:13:11,2021-01-30,0.3923864649600937,0.894958640551201,2.195805562470788,,,,,,,,,,,,
29149,0,USMissouriOregon,Missouri,Oregon,2022-04-28 09:13:11,2021-01-31,0.3923864649600937,0.894958640551201,2.195805562470788,,,,,,,,,,,,
29149,0,USMissouriOregon,Missouri,Oregon,2022-04-28 09:13:11,2021-02-01,0.3923864649600937,0.894958640551201,2.195805562470788,,,,,,,,,,,,
29149,0,USMissouriOregon,Missouri,Oregon,2022-04-28 09:13:11,2021-02-02,0.3923864649600937,0.894958640551201,2.195805562470788,,,,,,,,,,,,
29149,0,USMissouriOregon,Missouri,Oregon,2022-04-28 09:13:11,2021-02-03,0.3923864649600937,0.894958640551201,2.195805562470788,,,,,,,,,,,,
29149,0,USMissouriOregon,Missouri,Oregon,2022-04-28 09:13:11,2021-02-04,0.2609228871104702,0.6287706825505643,1.6305913634814817,,,,,,,,,,,,
29149,0,USMissouriOregon,Missouri,Oregon,2022-04-28 09:13:11,2021-02-05,0.2609228871104702,0.6287706825505643,1.6305913634814817,,,,,,,,,,,,
29149,0,USMissouriOregon,Missouri,Oregon,2022-04-28 09:13:11,2021-02-06,0.2609228871104702,0.6287706825505643,1.6305913634814817,,,,,,,,,,,,
29149,0,USMissouriOregon,Missouri,Oregon,2022-04-28 09:13:11,2021-02-07,0.2609228871104702,0.6287706825505643,1.6305913634814817,,,,,,,,,,,,
29149,0,USMissouriOregon,Missouri,Oregon,2022-04-28 09:13:11,2021-02-08,0.2609228871104702,0.6287706825505643,1.6305913634814817,,,,,,,,,,,,
29149,0,USMissouriOregon,Missouri,Oregon,2022-04-28 09:13:11,2021-02-09,0.2609228871104702,0.6287706825505643,1.6305913634814817,,,,,,,,,,,,
29149,0,USMissouriOregon,Missouri,Oregon,2022-04-28 09:13:11,2021-02-10,0.2609228871104702,0.6287706825505643,1.6305913634814817,,,,,,,,,,,,
29149,0,USMissouriOregon,Missouri,Oregon,2022-04-28 09:13:11,2021-02-11,0.21287619896668825,0.5219501930675724,1.3772474173172036,,,,,,,,,,,,
29149,0,USMissouriOregon,Missouri,Oregon,2022-04-28 09:13:11,2021-02-12,0.21287619896668825,0.5219501930675724,1.3772474173172036,,,,,,,,,,,,
29149,0,USMissouriOregon,Missouri,Oregon,2022-04-28 09:13:11,2021-02-13,0.21287619896668825,0.5219501930675724,1.3772474173172036,,,,,,,,,,,,
29149,0,USMissouriOregon,Missouri,Oregon,2022-04-28 09:13:11,2021-02-14,0.21287619896668825,0.5219501930675724,1.3772474173172036,,,,,,,,,,,,
29149,0,USMissouriOregon,Missouri,Oregon,2022-04-28 09:13:11,2021-02-15,0.21287619896668825,0.5219501930675724,1.3772474173172036,,,,,,,,,,,,
29149,0,USMissouriOregon,Missouri,Oregon,2022-04-28 09:13:11,2021-02-16,0.21287619896668825,0.5219501930675724,1.3772474173172036,,,,,,,,,,,,
29149,0,USMissouriOregon,Missouri,Oregon,2022-04-28 09:13:11,2021-02-17,0.21287619896668825,0.5219501930675724,1.3772474173172036,,,,,,,,,,,,
29149,0,USMissouriOregon,Missouri,Oregon,2022-04-28 09:13:11,2021-02-18,0.16258273033087858,0.40505593520758054,1.0859902993549901,,,,,,,,,,,,
29149,0,USMissouriOregon,Missouri,Oregon,2022-04-28 09:13:11,2021-02-19,0.16258273033087858,0.40505593520758054,1.0859902993549901,,,,,,,,,,,,
29149,0,USMissouriOregon,Missouri,Oregon,2022-04-28 09:13:11,2021-02-20,0.16258273033087858,0.40505593520758054,1.0859902993549901,,,,,,,,,,,,
29149,0,USMissouriOregon,Missouri,Oregon,2022-04-28 09:13:11,2021-02-21,0.16258273033087858,0.40505593520758054,1.0859902993549901,,,,,,,,,,,,
29149,0,USMissouriOregon,Missouri,Oregon,2022-04-28 09:13:11,2021-02-22,0.16258273033087858,0.40505593520758054,1.0859902993549901,,,,,,,,,,,,
29149,0,USMissouriOregon,Missouri,Oregon,2022-04-28 09:13:11,2021-02-23,0.16258273033087858,0.40505593520758054,1.0859902993549901,,,,,,,,,,,,
29149,0,USMissouriOregon,Missouri,Oregon,2022-04-28 09:13:11,2021-02-24,0.16258273033087858,0.40505593520758054,1.0859902993549901,,,,,,,,,,,,
29149,0,USMissouriOregon,Missouri,Oregon,2022-04-28 09:13:11,2021-02-25,0.29890945932211105,0.9807362564178631,3.4442942405388464,,,,,,,,,,,,
29149,0,USMissouriOregon,Missouri,Oregon,2022-04-28 09:13:11,2021-02-26,0.29890945932211105,0.9807362564178631,3.4442942405388464,,,,,,,,,,,,
29149,0,USMissouriOregon,Missouri,Oregon,2022-04-28 09:13:11,2021-02-27,0.29890945932211105,0.9807362564178631,3.4442942405388464,,,,,,,,,,,,
29149,0,USMissouriOregon,Missouri,Oregon,2022-04-28 09:13:11,2021-02-28,0.29890945932211105,0.9807362564178631,3.4442942405388464,,,,,,,,,,,,
29149,0,USMissouriOregon,Missouri,Oregon,2022-04-28 09:13:11,2021-03-01,0.29890945932211105,0.9807362564178631,3.4442942405388464,,,,,,,,,,,,
29149,0,USMissouriOregon,Missouri,Oregon,2022-04-28 09:13:11,2021-03-02,0.29890945932211105,0.9807362564178631,3.4442942405388464,,,,,,,,,,,,
29149,0,USMissouriOregon,Missouri,Oregon,2022-04-28 09:13:11,2021-03-03,0.29890945932211105,0.9807362564178631,3.4442942405388464,,,,,,,,,,,,
29149,0,USMissouriOregon,Missouri,Oregon,2022-04-28 09:13:11,2021-03-04,0.32897178360585033,1.4734918280504499,6.977470994159287,,,,,,,,,,,,
29149,0,USMissouriOregon,Missouri,Oregon,2022-04-28 09:13:11,2021-03-05,0.32897178360585033,1.4734918280504499,6.977470994159287,,,,,,,,,,,,
29149,0,USMissouriOregon,Missouri,Oregon,2022-04-28 09:13:11,2021-03-06,0.32897178360585033,1.4734918280504499,6.977470994159287,,,,,,,,,,,,
29149,0,USMissouriOregon,Missouri,Oregon,2022-04-28 09:13:11,2021-03-07,0.32897178360585033,1.4734918280504499,6.977470994159287,,,,,,,,,,,,
29149,0,USMissouriOregon,Missouri,Oregon,2022-04-28 09:13:11,2021-03-08,0.32897178360585033,1.4734918280504499,6.977470994159287,,,,,,,,,,,,
29149,0,USMissouriOregon,Missouri,Oregon,2022-04-28 09:13:11,2021-03-09,0.32897178360585033,1.4734918280504499,6.977470994159287,,,,,,,,,,,,
29149,0,USMissouriOregon,Missouri,Oregon,2022-04-28 09:13:11,2021-03-10,0.32897178360585033,1.4734918280504499,6.977470994159287,,,,,,,,,,,,
29149,0,USMissouriOregon,Missouri,Oregon,2022-04-28 09:13:11,2021-03-11,3.8899288082875905,4.540923349210711,5.3758695237793654,,,,,,,,,,,,
29149,0,USMissouriOregon,Missouri,Oregon,2022-04-28 09:13:11,2021-03-12,3.8899288082875905,4.540923349210711,5.3758695237793654,,,,,,,,,,,,
29149,0,USMissouriOregon,Missouri,Oregon,2022-04-28 09:13:11,2021-03-13,3.8899288082875905,4.540923349210711,5.3758695237793654,,,,,,,,,,,,
29149,0,USMissouriOregon,Missouri,Oregon,2022-04-28 09:13:11,2021-03-14,3.8899288082875905,4.540923349210711,5.3758695237793654,,,,,,,,,,,,
29149,0,USMissouriOregon,Missouri,Oregon,2022-04-28 09:13:11,2021-03-15,3.8899288082875905,4.540923349210711,5.3758695237793654,,,,,,,,,,,,
29149,0,USMissouriOregon,Missouri,Oregon,2022-04-28 09:13:11,2021-03-16,3.8899288082875905,4.540923349210711,5.3758695237793654,,,,,,,,,,,,
29149,0,USMissouriOregon,Missouri,Oregon,2022-04-28 09:13:11,2021-03-17,3.8899288082875905,4.540923349210711,5.3758695237793654,,,,,,,,,,,,
29149,0,USMissouriOregon,Missouri,Oregon,2022-04-28 09:13:11,2021-03-18,0.2524411345090653,0.7178682502826215,2.19342159470805,,,,,,,,,,,,
29149,0,USMissouriOregon,Missouri,Oregon,2022-04-28 09:13:11,2021-03-19,0.2524411345090653,0.7178682502826215,2.19342159470805,,,,,,,,,,,,
29149,0,USMissouriOregon,Missouri,Oregon,2022-04-28 09:13:11,2021-03-20,0.2524411345090653,0.7178682502826215,2.19342159470805,,,,,,,,,,,,
29149,0,USMissouriOregon,Missouri,Oregon,2022-04-28 09:13:11,2021-03-21,0.2524411345090653,0.7178682502826215,2.19342159470805,,,,,,,,,,,,
29149,0,USMissouriOregon,Missouri,Oregon,2022-04-28 09:13:11,2021-03-22,0.2524411345090653,0.7178682502826215,2.19342159470805,,,,,,,,,,,,
29149,0,USMissouriOregon,Missouri,Oregon,2022-04-28 09:13:11,2021-03-23,0.2524411345090653,0.7178682502826215,2.19342159470805,,,,,,,,,,,,
29149,0,USMissouriOregon,Missouri,Oregon,2022-04-28 09:13:11,2021-03-24,0.2524411345090653,0.7178682502826215,2.19342159470805,,,,,,,,,,,,
29149,0,USMissouriOregon,Missouri,Oregon,2022-04-28 09:13:11,2021-03-25,0,0,0,,,,,,,,,,,,
29149,0,USMissouriOregon,Missouri,Oregon,2022-04-28 09:13:11,2021-03-26,0,0,0,,,,,,,,,,,,
29149,0,USMissouriOregon,Missouri,Oregon,2022-04-28 09:13:11,2021-03-27,0,0,0,,,,,,,,,,,,
29149,0,USMissouriOregon,Missouri,Oregon,2022-04-28 09:13:11,2021-03-28,0,0,0,,,,,,,,,,,,
29149,0,USMissouriOregon,Missouri,Oregon,2022-04-28 09:13:11,2021-03-29,0,0,0,,,,,,,,,,,,
29149,0,USMissouriOregon,Missouri,Oregon,2022-04-28 09:13:11,2021-03-30,0,0,0,,,,,,,,,,,,
29149,0,USMissouriOregon,Missouri,Oregon,2022-04-28 09:13:11,2021-03-31,0,0,0,,,,,,,,,,,,
29149,0,USMissouriOregon,Missouri,Oregon,2022-04-28 09:13:11,2021-04-01,0.06353561216966769,0.18172038042643346,0.5583830835844193,,,,,,,,,,,,
29149,0,USMissouriOregon,Missouri,Oregon,2022-04-28 09:13:11,2021-04-02,0.06353561216966769,0.18172038042643346,0.5583830835844193,,,,,,,,,,,,
29149,0,USMissouriOregon,Missouri,Oregon,2022-04-28 09:13:11,2021-04-03,0.06353561216966769,0.18172038042643346,0.5583830835844193,,,,,,,,,,,,
29149,0,USMissouriOregon,Missouri,Oregon,2022-04-28 09:13:11,2021-04-04,0.06353561216966769,0.18172038042643346,0.5583830835844193,,,,,,,,,,,,
29149,0,USMissouriOregon,Missouri,Oregon,2022-04-28 09:13:11,2021-04-05,0.06353561216966769,0.18172038042643346,0.5583830835844193,,,,,,,,,,,,
29149,0,USMissouriOregon,Missouri,Oregon,2022-04-28 09:13:11,2021-04-06,0.06353561216966769,0.18172038042643346,0.5583830835844193,,,,,,,,,,,,
29149,0,USMissouriOregon,Missouri,Oregon,2022-04-28 09:13:11,2021-04-07,0.06353561216966769,0.18172038042643346,0.5583830835844193,,,,,,,,,,,,
29149,0,USMissouriOregon,Missouri,Oregon,2022-04-28 09:13:11,2021-04-08,0,0,0,,,,,,,,,,,,
29149,0,USMissouriOregon,Missouri,Oregon,2022-04-28 09:13:11,2021-04-09,0,0,0,,,,,,,,,,,,
29149,0,USMissouriOregon,Missouri,Oregon,2022-04-28 09:13:11,2021-04-10,0,0,0,,,,,,,,,,,,
29149,0,USMissouriOregon,Missouri,Oregon,2022-04-28 09:13:11,2021-04-11,0,0,0,,,,,,,,,,,,
29149,0,USMissouriOregon,Missouri,Oregon,2022-04-28 09:13:11,2021-04-12,0,0,0,,,,,,,,,,,,
29149,0,USMissouriOregon,Missouri,Oregon,2022-04-28 09:13:11,2021-04-13,0,0,0,,,,,,,,,,,,
29149,0,USMissouriOregon,Missouri,Oregon,2022-04-28 09:13:11,2021-04-14,0,0,0,,,,,,,,,,,,
29149,0,USMissouriOregon,Missouri,Oregon,2022-04-28 09:13:11,2021-04-15,0.10957127224914681,0.27559767185213796,0.7459511565431622,,,,,,,,,,,,
29149,0,USMissouriOregon,Missouri,Oregon,2022-04-28 09:13:11,2021-04-16,0.10957127224914681,0.27559767185213796,0.7459511565431622,,,,,,,,,,,,
29149,0,USMissouriOregon,Missouri,Oregon,2022-04-28 09:13:11,2021-04-17,0.10957127224914681,0.27559767185213796,0.7459511565431622,,,,,,,,,,,,
29149,0,USMissouriOregon,Missouri,Oregon,2022-04-28 09:13:11,2021-04-18,0.10957127224914681,0.27559767185213796,0.7459511565431622,,,,,,,,,,,,
29149,0,USMissouriOregon,Missouri,Oregon,2022-04-28 09:13:11,2021-04-19,0.10957127224914681,0.27559767185213796,0.7459511565431622,,,,,,,,,,,,
29149,0,USMissouriOregon,Missouri,Oregon,2022-04-28 09:13:11,2021-04-20,0.10957127224914681,0.27559767185213796,0.7459511565431622,,,,,,,,,,,,
29149,0,USMissouriOregon,Missouri,Oregon,2022-04-28 09:13:11,2021-04-21,0.10957127224914681,0.27559767185213796,0.7459511565431622,,,,,,,,,,,,
29149,0,USMissouriOregon,Missouri,Oregon,2022-04-28 09:13:11,2021-04-22,0,0,0,,,,,,,,,,,,
29149,0,USMissouriOregon,Missouri,Oregon,2022-04-28 09:13:11,2021-04-23,0,0,0,,,,,,,,,,,,
29149,0,USMissouriOregon,Missouri,Oregon,2022-04-28 09:13:11,2021-04-24,0,0,0,,,,,,,,,,,,
29149,0,USMissouriOregon,Missouri,Oregon,2022-04-28 09:13:11,2021-04-25,0,0,0,,,,,,,,,,,,
29149,0,USMissouriOregon,Missouri,Oregon,2022-04-28 09:13:11,2021-04-26,0,0,0,,,,,,,,,,,,
29149,0,USMissouriOregon,Missouri,Oregon,2022-04-28 09:13:11,2021-04-27,0,0,0,,,,,,,,,,,,
29149,0,USMissouriOregon,Missouri,Oregon,2022-04-28 09:13:11,2021-04-28,0,0,0,,,,,,,,,,,,
29149,0,USMissouriOregon,Missouri,Oregon,2022-04-28 09:13:11,2021-04-29,0.07395258692678165,0.24053688372756327,0.8376591395371918,,,,,,,,,,,,
29149,0,USMissouriOregon,Missouri,Oregon,2022-04-28 09:13:11,2021-04-30,0.07395258692678165,0.24053688372756327,0.8376591395371918,,,,,,,,,,,,
29149,0,USMissouriOregon,Missouri,Oregon,2022-04-28 09:13:11,2021-05-01,0.07395258692678165,0.24053688372756327,0.8376591395371918,,,,,,,,,,,,
29149,0,USMissouriOregon,Missouri,Oregon,2022-04-28 09:13:11,2021-05-02,0.07395258692678165,0.24053688372756327,0.8376591395371918,,,,,,,,,,,,
29149,0,USMissouriOregon,Missouri,Oregon,2022-04-28 09:13:11,2021-05-03,0.07395258692678165,0.24053688372756327,0.8376591395371918,,,,,,,,,,,,
29149,0,USMissouriOregon,Missouri,Oregon,2022-04-28 09:13:11,2021-05-04,0.07395258692678165,0.24053688372756327,0.8376591395371918,,,,,,,,,,,,
29149,0,USMissouriOregon,Missouri,Oregon,2022-04-28 09:13:11,2021-05-05,0.07395258692678165,0.24053688372756327,0.8376591395371918,,,,,,,,,,,,
29149,0,USMissouriOregon,Missouri,Oregon,2022-04-28 09:13:11,2021-05-06,0.07881340111234109,0.2703002625020132,0.9907748282956119,,,,,,,,,,,,
29149,0,USMissouriOregon,Missouri,Oregon,2022-04-28 09:13:11,2021-05-07,0.07881340111234109,0.2703002625020132,0.9907748282956119,,,,,,,,,,,,
29149,0,USMissouriOregon,Missouri,Oregon,2022-04-28 09:13:11,2021-05-08,0.07881340111234109,0.2703002625020132,0.9907748282956119,,,,,,,,,,,,
29149,0,USMissouriOregon,Missouri,Oregon,2022-04-28 09:13:11,2021-05-09,0.07881340111234109,0.2703002625020132,0.9907748282956119,,,,,,,,,,,,
29149,0,USMissouriOregon,Missouri,Oregon,2022-04-28 09:13:11,2021-05-10,0.07881340111234109,0.2703002625020132,0.9907748282956119,,,,,,,,,,,,
29149,0,USMissouriOregon,Missouri,Oregon,2022-04-28 09:13:11,2021-05-11,0.07881340111234109,0.2703002625020132,0.9907748282956119,,,,,,,,,,,,
29149,0,USMissouriOregon,Missouri,Oregon,2022-04-28 09:13:11,2021-05-12,0.07881340111234109,0.2703002625020132,0.9907748282956119,,,,,,,,,,,,
29149,0,USMissouriOregon,Missouri,Oregon,2022-04-28 09:13:11,2021-05-13,0.20394236160893434,0.4814516764883188,1.2230192554539774,,,,,,,,,,,,
29149,0,USMissouriOregon,Missouri,Oregon,2022-04-28 09:13:11,2021-05-14,0.20394236160893434,0.4814516764883188,1.2230192554539774,,,,,,,,,,,,
29149,0,USMissouriOregon,Missouri,Oregon,2022-04-28 09:13:11,2021-05-15,0.20394236160893434,0.4814516764883188,1.2230192554539774,,,,,,,,,,,,
29149,0,USMissouriOregon,Missouri,Oregon,2022-04-28 09:13:11,2021-05-16,0.20394236160893434,0.4814516764883188,1.2230192554539774,,,,,,,,,,,,
29149,0,USMissouriOregon,Missouri,Oregon,2022-04-28 09:13:11,2021-05-17,0.20394236160893434,0.4814516764883188,1.2230192554539774,,,,,,,,,,,,
29149,0,USMissouriOregon,Missouri,Oregon,2022-04-28 09:13:11,2021-05-18,0.20394236160893434,0.4814516764883188,1.2230192554539774,,,,,,,,,,,,
29149,0,USMissouriOregon,Missouri,Oregon,2022-04-28 09:13:11,2021-05-19,0.20394236160893434,0.4814516764883188,1.2230192554539774,,,,,,,,,,,,
29149,0,USMissouriOregon,Missouri,Oregon,2022-04-28 09:13:11,2021-05-20,0.1701541099128871,0.44115650129873507,1.2305944637529014,,,,,,,,,,,,
29149,0,USMissouriOregon,Missouri,Oregon,2022-04-28 09:13:11,2021-05-21,0.1701541099128871,0.44115650129873507,1.2305944637529014,,,,,,,,,,,,
29149,0,USMissouriOregon,Missouri,Oregon,2022-04-28 09:13:11,2021-05-22,0.1701541099128871,0.44115650129873507,1.2305944637529014,,,,,,,,,,,,
29149,0,USMissouriOregon,Missouri,Oregon,2022-04-28 09:13:11,2021-05-23,0.1701541099128871,0.44115650129873507,1.2305944637529014,,,,,,,,,,,,
29149,0,USMissouriOregon,Missouri,Oregon,2022-04-28 09:13:11,2021-05-24,0.1701541099128871,0.44115650129873507,1.2305944637529014,,,,,,,,,,,,
29149,0,USMissouriOregon,Missouri,Oregon,2022-04-28 09:13:11,2021-05-25,0.1701541099128871,0.44115650129873507,1.2305944637529014,,,,,,,,,,,,
29149,0,USMissouriOregon,Missouri,Oregon,2022-04-28 09:13:11,2021-05-26,0.1701541099128871,0.44115650129873507,1.2305944637529014,,,,,,,,,,,,
29149,0,USMissouriOregon,Missouri,Oregon,2022-04-28 09:13:11,2021-05-27,0,0,0,,,,,,,,,,,,
29149,0,USMissouriOregon,Missouri,Oregon,2022-04-28 09:13:11,2021-05-28,0,0,0,,,,,,,,,,,,
29149,0,USMissouriOregon,Missouri,Oregon,2022-04-28 09:13:11,2021-05-29,0,0,0,,,,,,,,,,,,
29149,0,USMissouriOregon,Missouri,Oregon,2022-04-28 09:13:11,2021-05-30,0,0,0,,,,,,,,,,,,
29149,0,USMissouriOregon,Missouri,Oregon,2022-04-28 09:13:11,2021-05-31,0,0,0,,,,,,,,,,,,
29149,0,USMissouriOregon,Missouri,Oregon,2022-04-28 09:13:11,2021-06-01,0,0,0,,,,,,,,,,,,
29149,0,USMissouriOregon,Missouri,Oregon,2022-04-28 09:13:11,2021-06-02,0,0,0,,,,,,,,,,,,
29149,0,USMissouriOregon,Missouri,Oregon,2022-04-28 09:13:11,2021-06-03,0.3009614735021143,0.7002690135948814,1.7531101325649778,,,,,,,,,,,,
29149,0,USMissouriOregon,Missouri,Oregon,2022-04-28 09:13:11,2021-06-04,0.3009614735021143,0.7002690135948814,1.7531101325649778,,,,,,,,,,,,
29149,0,USMissouriOregon,Missouri,Oregon,2022-04-28 09:13:11,2021-06-05,0.3009614735021143,0.7002690135948814,1.7531101325649778,,,,,,,,,,,,
29149,0,USMissouriOregon,Missouri,Oregon,2022-04-28 09:13:11,2021-06-06,0.3009614735021143,0.7002690135948814,1.7531101325649778,,,,,,,,,,,,
29149,0,USMissouriOregon,Missouri,Oregon,2022-04-28 09:13:11,2021-06-07,0.3009614735021143,0.7002690135948814,1.7531101325649778,,,,,,,,,,,,
29149,0,USMissouriOregon,Missouri,Oregon,2022-04-28 09:13:11,2021-06-08,0.3009614735021143,0.7002690135948814,1.7531101325649778,,,,,,,,,,,,
29149,0,USMissouriOregon,Missouri,Oregon,2022-04-28 09:13:11,2021-06-09,0.3009614735021143,0.7002690135948814,1.7531101325649778,,,,,,,,,,,,
29149,0,USMissouriOregon,Missouri,Oregon,2022-04-28 09:13:11,2021-06-10,0.1852418761095169,0.5169791977655108,1.5507914995209384,,,,,,,,,,,,
29149,0,USMissouriOregon,Missouri,Oregon,2022-04-28 09:13:11,2021-06-11,0.1852418761095169,0.5169791977655108,1.5507914995209384,,,,,,,,,,,,
29149,0,USMissouriOregon,Missouri,Oregon,2022-04-28 09:13:11,2021-06-12,0.1852418761095169,0.5169791977655108,1.5507914995209384,,,,,,,,,,,,
29149,0,USMissouriOregon,Missouri,Oregon,2022-04-28 09:13:11,2021-06-13,0.1852418761095169,0.5169791977655108,1.5507914995209384,,,,,,,,,,,,
29149,0,USMissouriOregon,Missouri,Oregon,2022-04-28 09:13:11,2021-06-14,0.1852418761095169,0.5169791977655108,1.5507914995209384,,,,,,,,,,,,
29149,0,USMissouriOregon,Missouri,Oregon,2022-04-28 09:13:11,2021-06-15,0.1852418761095169,0.5169791977655108,1.5507914995209384,,,,,,,,,,,,
29149,0,USMissouriOregon,Missouri,Oregon,2022-04-28 09:13:11,2021-06-16,0.1852418761095169,0.5169791977655108,1.5507914995209384,,,,,,,,,,,,
29149,0,USMissouriOregon,Missouri,Oregon,2022-04-28 09:13:11,2021-06-17,0.5185495230884635,1.1415161553030913,2.701719602348941,,,,,,,,,,,,
29149,0,USMissouriOregon,Missouri,Oregon,2022-04-28 09:13:11,2021-06-18,0.5185495230884635,1.1415161553030913,2.701719602348941,,,,,,,,,,,,
29149,0,USMissouriOregon,Missouri,Oregon,2022-04-28 09:13:11,2021-06-19,0.5185495230884635,1.1415161553030913,2.701719602348941,,,,,,,,,,,,
29149,0,USMissouriOregon,Missouri,Oregon,2022-04-28 09:13:11,2021-06-20,0.5185495230884635,1.1415161553030913,2.701719602348941,,,,,,,,,,,,
29149,0,USMissouriOregon,Missouri,Oregon,2022-04-28 09:13:11,2021-06-21,0.5185495230884635,1.1415161553030913,2.701719602348941,,,,,,,,,,,,
29149,0,USMissouriOregon,Missouri,Oregon,2022-04-28 09:13:11,2021-06-22,0.5185495230884635,1.1415161553030913,2.701719602348941,,,,,,,,,,,,
29149,0,USMissouriOregon,Missouri,Oregon,2022-04-28 09:13:11,2021-06-23,0.5185495230884635,1.1415161553030913,2.701719602348941,,,,,,,,,,,,
29149,0,USMissouriOregon,Missouri,Oregon,2022-04-28 09:13:11,2021-06-24,0.9943988919459403,1.8770942580262537,3.789106479343022,,,,,,,,,,,,
29149,0,USMissouriOregon,Missouri,Oregon,2022-04-28 09:13:11,2021-06-25,0.9943988919459403,1.8770942580262537,3.789106479343022,,,,,,,,,,,,
29149,0,USMissouriOregon,Missouri,Oregon,2022-04-28 09:13:11,2021-06-26,0.9943988919459403,1.8770942580262537,3.789106479343022,,,,,,,,,,,,
29149,0,USMissouriOregon,Missouri,Oregon,2022-04-28 09:13:11,2021-06-27,0.9943988919459403,1.8770942580262537,3.789106479343022,,,,,,,,,,,,
29149,0,USMissouriOregon,Missouri,Oregon,2022-04-28 09:13:11,2021-06-28,0.9943988919459403,1.8770942580262537,3.789106479343022,,,,,,,,,,,,
29149,0,USMissouriOregon,Missouri,Oregon,2022-04-28 09:13:11,2021-06-29,0.9943988919459403,1.8770942580262537,3.789106479343022,,,,,,,,,,,,
29149,0,USMissouriOregon,Missouri,Oregon,2022-04-28 09:13:11,2021-06-30,0.9943988919459403,1.8770942580262537,3.789106479343022,,,,,,,,,,,,
29149,0,USMissouriOregon,Missouri,Oregon,2022-04-28 09:13:11,2021-07-01,0.5690983071121111,1.3609868888433307,3.5025393851367435,,,,,,,,,,,,
29149,0,USMissouriOregon,Missouri,Oregon,2022-04-28 09:13:11,2021-07-02,0.5690983071121111,1.3609868888433307,3.5025393851367435,,,,,,,,,,,,
29149,0,USMissouriOregon,Missouri,Oregon,2022-04-28 09:13:11,2021-07-03,0.5690983071121111,1.3609868888433307,3.5025393851367435,,,,,,,,,,,,
29149,0,USMissouriOregon,Missouri,Oregon,2022-04-28 09:13:11,2021-07-04,0.5690983071121111,1.3609868888433307,3.5025393851367435,,,,,,,,,,,,
29149,0,USMissouriOregon,Missouri,Oregon,2022-04-28 09:13:11,2021-07-05,0.5690983071121111,1.3609868888433307,3.5025393851367435,,,,,,,,,,,,
29149,0,USMissouriOregon,Missouri,Oregon,2022-04-28 09:13:11,2021-07-06,0.5690983071121111,1.3609868888433307,3.5025393851367435,,,,,,,,,,,,
29149,0,USMissouriOregon,Missouri,Oregon,2022-04-28 09:13:11,2021-07-07,0.5690983071121111,1.3609868888433307,3.5025393851367435,,,,,,,,,,,,
29149,0,USMissouriOregon,Missouri,Oregon,2022-04-28 09:13:11,2021-07-08,0.9226096852890281,1.9918917379015462,4.621743546371243,,,,,,,,,,,,
29149,0,USMissouriOregon,Missouri,Oregon,2022-04-28 09:13:11,2021-07-09,0.9226096852890281,1.9918917379015462,4.621743546371243,,,,,,,,,,,,
29149,0,USMissouriOregon,Missouri,Oregon,2022-04-28 09:13:11,2021-07-10,0.9226096852890281,1.9918917379015462,4.621743546371243,,,,,,,,,,,,
29149,0,USMissouriOregon,Missouri,Oregon,2022-04-28 09:13:11,2021-07-11,0.9226096852890281,1.9918917379015462,4.621743546371243,,,,,,,,,,,,
29149,0,USMissouriOregon,Missouri,Oregon,2022-04-28 09:13:11,2021-07-12,0.9226096852890281,1.9918917379015462,4.621743546371243,,,,,,,,,,,,
29149,0,USMissouriOregon,Missouri,Oregon,2022-04-28 09:13:11,2021-07-13,0.9226096852890281,1.9918917379015462,4.621743546371243,,,,,,,,,,,,
29149,0,USMissouriOregon,Missouri,Oregon,2022-04-28 09:13:11,2021-07-14,0.9226096852890281,1.9918917379015462,4.621743546371243,,,,,,,,,,,,
29149,0,USMissouriOregon,Missouri,Oregon,2022-04-28 09:13:11,2021-07-15,1.926717412477124,3.469698465385592,6.6633229151659865,,,,,,,,,,,,
29149,0,USMissouriOregon,Missouri,Oregon,2022-04-28 09:13:11,2021-07-16,1.926717412477124,3.469698465385592,6.6633229151659865,,,,,,,,,,,,
29149,0,USMissouriOregon,Missouri,Oregon,2022-04-28 09:13:11,2021-07-17,1.926717412477124,3.469698465385592,6.6633229151659865,,,,,,,,,,,,
29149,0,USMissouriOregon,Missouri,Oregon,2022-04-28 09:13:11,2021-07-18,1.926717412477124,3.469698465385592,6.6633229151659865,,,,,,,,,,,,
29149,0,USMissouriOregon,Missouri,Oregon,2022-04-28 09:13:11,2021-07-19,1.926717412477124,3.469698465385592,6.6633229151659865,,,,,,,,,,,,
29149,0,USMissouriOregon,Missouri,Oregon,2022-04-28 09:13:11,2021-07-20,1.926717412477124,3.469698465385592,6.6633229151659865,,,,,,,,,,,,
29149,0,USMissouriOregon,Missouri,Oregon,2022-04-28 09:13:11,2021-07-21,1.926717412477124,3.469698465385592,6.6633229151659865,,,,,,,,,,,,
29149,0,USMissouriOregon,Missouri,Oregon,2022-04-28 09:13:11,2021-07-22,1.7601544879387496,3.272102396480698,6.499273242220246,,,,,,,,,,,,
29149,0,USMissouriOregon,Missouri,Oregon,2022-04-28 09:13:11,2021-07-23,1.7601544879387496,3.272102396480698,6.499273242220246,,,,,,,,,,,,
29149,0,USMissouriOregon,Missouri,Oregon,2022-04-28 09:13:11,2021-07-24,1.7601544879387496,3.272102396480698,6.499273242220246,,,,,,,,,,,,
29149,0,USMissouriOregon,Missouri,Oregon,2022-04-28 09:13:11,2021-07-25,1.7601544879387496,3.272102396480698,6.499273242220246,,,,,,,,,,,,
29149,0,USMissouriOregon,Missouri,Oregon,2022-04-28 09:13:11,2021-07-26,1.7601544879387496,3.272102396480698,6.499273242220246,,,,,,,,,,,,
29149,0,USMissouriOregon,Missouri,Oregon,2022-04-28 09:13:11,2021-07-27,1.7601544879387496,3.272102396480698,6.499273242220246,,,,,,,,,,,,
29149,0,USMissouriOregon,Missouri,Oregon,2022-04-28 09:13:11,2021-07-28,1.7601544879387496,3.272102396480698,6.499273242220246,,,,,,,,,,,,
29149,0,USMissouriOregon,Missouri,Oregon,2022-04-28 09:13:11,2021-07-29,1.915078298145373,3.4296559718666444,6.547604457764976,,,,,,,,,,,,
29149,0,USMissouriOregon,Missouri,Oregon,2022-04-28 09:13:11,2021-07-30,1.915078298145373,3.4296559718666444,6.547604457764976,,,,,,,,,,,,
29149,0,USMissouriOregon,Missouri,Oregon,2022-04-28 09:13:11,2021-07-31,1.915078298145373,3.4296559718666444,6.547604457764976,,,,,,,,,,,,
29149,0,USMissouriOregon,Missouri,Oregon,2022-04-28 09:13:11,2021-08-01,1.915078298145373,3.4296559718666444,6.547604457764976,,,,,,,,,,,,
29149,0,USMissouriOregon,Missouri,Oregon,2022-04-28 09:13:11,2021-08-02,1.915078298145373,3.4296559718666444,6.547604457764976,,,,,,,,,,,,
29149,0,USMissouriOregon,Missouri,Oregon,2022-04-28 09:13:11,2021-08-03,1.915078298145373,3.4296559718666444,6.547604457764976,,,,,,,,,,,,
29149,0,USMissouriOregon,Missouri,Oregon,2022-04-28 09:13:11,2021-08-04,1.915078298145373,3.4296559718666444,6.547604457764976,,,,,,,,,,,,
29149,0,USMissouriOregon,Missouri,Oregon,2022-04-28 09:13:11,2021-08-05,1.893562118663912,3.3562037327255085,6.336970736767926,,,,,,,,,,,,
29149,0,USMissouriOregon,Missouri,Oregon,2022-04-28 09:13:11,2021-08-06,1.893562118663912,3.3562037327255085,6.336970736767926,,,,,,,,,,,,
29149,0,USMissouriOregon,Missouri,Oregon,2022-04-28 09:13:11,2021-08-07,1.893562118663912,3.3562037327255085,6.336970736767926,,,,,,,,,,,,
29149,0,USMissouriOregon,Missouri,Oregon,2022-04-28 09:13:11,2021-08-08,1.893562118663912,3.3562037327255085,6.336970736767926,,,,,,,,,,,,
29149,0,USMissouriOregon,Missouri,Oregon,2022-04-28 09:13:11,2021-08-09,1.893562118663912,3.3562037327255085,6.336970736767926,,,,,,,,,,,,
29149,0,USMissouriOregon,Missouri,Oregon,2022-04-28 09:13:11,2021-08-10,1.893562118663912,3.3562037327255085,6.336970736767926,,,,,,,,,,,,
29149,0,USMissouriOregon,Missouri,Oregon,2022-04-28 09:13:11,2021-08-11,1.893562118663912,3.3562037327255085,6.336970736767926,,,,,,,,,,,,
29149,0,USMissouriOregon,Missouri,Oregon,2022-04-28 09:13:11,2021-08-12,0.5692421174609351,0.5821738301824474,0.5956747129635039,,,,,,,,,,,,
29149,0,USMissouriOregon,Missouri,Oregon,2022-04-28 09:13:11,2021-08-13,0.5692421174609351,0.5821738301824474,0.5956747129635039,,,,,,,,,,,,
29149,0,USMissouriOregon,Missouri,Oregon,2022-04-28 09:13:11,2021-08-14,0.5692421174609351,0.5821738301824474,0.5956747129635039,,,,,,,,,,,,
29149,0,USMissouriOregon,Missouri,Oregon,2022-04-28 09:13:11,2021-08-15,0.5692421174609351,0.5821738301824474,0.5956747129635039,,,,,,,,,,,,
29149,0,USMissouriOregon,Missouri,Oregon,2022-04-28 09:13:11,2021-08-16,0.5692421174609351,0.5821738301824474,0.5956747129635039,,,,,,,,,,,,
29149,0,USMissouriOregon,Missouri,Oregon,2022-04-28 09:13:11,2021-08-17,0.5692421174609351,0.5821738301824474,0.5956747129635039,,,,,,,,,,,,
29149,0,USMissouriOregon,Missouri,Oregon,2022-04-28 09:13:11,2021-08-18,0.5692421174609351,0.5821738301824474,0.5956747129635039,,,,,,,,,,,,
29149,0,USMissouriOregon,Missouri,Oregon,2022-04-28 09:13:11,2021-08-19,1.1498121389919465,2.098107752242134,4.0861540638804685,,,,,,,,,,,,
29149,0,USMissouriOregon,Missouri,Oregon,2022-04-28 09:13:11,2021-08-20,1.1498121389919465,2.098107752242134,4.0861540638804685,,,,,,,,,,,,
29149,0,USMissouriOregon,Missouri,Oregon,2022-04-28 09:13:11,2021-08-21,1.1498121389919465,2.098107752242134,4.0861540638804685,,,,,,,,,,,,
29149,0,USMissouriOregon,Missouri,Oregon,2022-04-28 09:13:11,2021-08-22,1.1498121389919465,2.098107752242134,4.0861540638804685,,,,,,,,,,,,
29149,0,USMissouriOregon,Missouri,Oregon,2022-04-28 09:13:11,2021-08-23,1.1498121389919465,2.098107752242134,4.0861540638804685,,,,,,,,,,,,
29149,0,USMissouriOregon,Missouri,Oregon,2022-04-28 09:13:11,2021-08-24,1.1498121389919465,2.098107752242134,4.0861540638804685,,,,,,,,,,,,
29149,0,USMissouriOregon,Missouri,Oregon,2022-04-28 09:13:11,2021-08-25,1.1498121389919465,2.098107752242134,4.0861540638804685,,,,,,,,,,,,
29149,0,USMissouriOregon,Missouri,Oregon,2022-04-28 09:13:11,2021-08-26,1.5796234505463995,3.0314734728615567,6.2264902812392,,,,,,,,,,,,
29149,0,USMissouriOregon,Missouri,Oregon,2022-04-28 09:13:11,2021-08-27,1.5796234505463995,3.0314734728615567,6.2264902812392,,,,,,,,,,,,
29149,0,USMissouriOregon,Missouri,Oregon,2022-04-28 09:13:11,2021-08-28,1.5796234505463995,3.0314734728615567,6.2264902812392,,,,,,,,,,,,
29149,0,USMissouriOregon,Missouri,Oregon,2022-04-28 09:13:11,2021-08-29,1.5796234505463995,3.0314734728615567,6.2264902812392,,,,,,,,,,,,
29149,0,USMissouriOregon,Missouri,Oregon,2022-04-28 09:13:11,2021-08-30,1.5796234505463995,3.0314734728615567,6.2264902812392,,,,,,,,,,,,
29149,0,USMissouriOregon,Missouri,Oregon,2022-04-28 09:13:11,2021-08-31,1.5796234505463995,3.0314734728615567,6.2264902812392,,,,,,,,,,,,
29149,0,USMissouriOregon,Missouri,Oregon,2022-04-28 09:13:11,2021-09-01,1.5796234505463995,3.0314734728615567,6.2264902812392,,,,,,,,,,,,
29149,0,USMissouriOregon,Missouri,Oregon,2022-04-28 09:13:11,2021-09-02,1.1939758063336332,2.325778028110677,4.852149723978676,,,,,,,,,,,,
29149,0,USMissouriOregon,Missouri,Oregon,2022-04-28 09:13:11,2021-09-03,1.1939758063336332,2.325778028110677,4.852149723978676,,,,,,,,,,,,
29149,0,USMissouriOregon,Missouri,Oregon,2022-04-28 09:13:11,2021-09-04,1.1939758063336332,2.325778028110677,4.852149723978676,,,,,,,,,,,,
29149,0,USMissouriOregon,Missouri,Oregon,2022-04-28 09:13:11,2021-09-05,1.1939758063336332,2.325778028110677,4.852149723978676,,,,,,,,,,,,
29149,0,USMissouriOregon,Missouri,Oregon,2022-04-28 09:13:11,2021-09-06,1.1939758063336332,2.325778028110677,4.852149723978676,,,,,,,,,,,,
29149,0,USMissouriOregon,Missouri,Oregon,2022-04-28 09:13:11,2021-09-07,1.1939758063336332,2.325778028110677,4.852149723978676,,,,,,,,,,,,
29149,0,USMissouriOregon,Missouri,Oregon,2022-04-28 09:13:11,2021-09-08,1.1939758063336332,2.325778028110677,4.852149723978676,,,,,,,,,,,,
29149,0,USMissouriOregon,Missouri,Oregon,2022-04-28 09:13:11,2021-09-09,0.9607524619025855,1.6954389400042382,3.1862931861045,,,,,,,,,,,,
29149,0,USMissouriOregon,Missouri,Oregon,2022-04-28 09:13:11,2021-09-10,0.9607524619025855,1.6954389400042382,3.1862931861045,,,,,,,,,,,,
29149,0,USMissouriOregon,Missouri,Oregon,2022-04-28 09:13:11,2021-09-11,0.9607524619025855,1.6954389400042382,3.1862931861045,,,,,,,,,,,,
29149,0,USMissouriOregon,Missouri,Oregon,2022-04-28 09:13:11,2021-09-12,0.9607524619025855,1.6954389400042382,3.1862931861045,,,,,,,,,,,,
29149,0,USMissouriOregon,Missouri,Oregon,2022-04-28 09:13:11,2021-09-13,0.9607524619025855,1.6954389400042382,3.1862931861045,,,,,,,,,,,,
29149,0,USMissouriOregon,Missouri,Oregon,2022-04-28 09:13:11,2021-09-14,0.9607524619025855,1.6954389400042382,3.1862931861045,,,,,,,,,,,,
29149,0,USMissouriOregon,Missouri,Oregon,2022-04-28 09:13:11,2021-09-15,0.9607524619025855,1.6954389400042382,3.1862931861045,,,,,,,,,,,,
29149,0,USMissouriOregon,Missouri,Oregon,2022-04-28 09:13:11,2021-09-16,1.7406880434420255,3.0193379216866085,5.570512743245011,,,,,,,,,,,,
29149,0,USMissouriOregon,Missouri,Oregon,2022-04-28 09:13:11,2021-09-17,1.7406880434420255,3.0193379216866085,5.570512743245011,,,,,,,,,,,,
29149,0,USMissouriOregon,Missouri,Oregon,2022-04-28 09:13:11,2021-09-18,1.7406880434420255,3.0193379216866085,5.570512743245011,,,,,,,,,,,,
29149,0,USMissouriOregon,Missouri,Oregon,2022-04-28 09:13:11,2021-09-19,1.7406880434420255,3.0193379216866085,5.570512743245011,,,,,,,,,,,,
29149,0,USMissouriOregon,Missouri,Oregon,2022-04-28 09:13:11,2021-09-20,1.7406880434420255,3.0193379216866085,5.570512743245011,,,,,,,,,,,,
29149,0,USMissouriOregon,Missouri,Oregon,2022-04-28 09:13:11,2021-09-21,1.7406880434420255,3.0193379216866085,5.570512743245011,,,,,,,,,,,,
29149,0,USMissouriOregon,Missouri,Oregon,2022-04-28 09:13:11,2021-09-22,1.7406880434420255,3.0193379216866085,5.570512743245011,,,,,,,,,,,,
29149,0,USMissouriOregon,Missouri,Oregon,2022-04-28 09:13:11,2021-09-23,1.0058368310559465,1.8511052785191966,3.637840238792177,,,,,,,,,,,,
29149,0,USMissouriOregon,Missouri,Oregon,2022-04-28 09:13:11,2021-09-24,1.0058368310559465,1.8511052785191966,3.637840238792177,,,,,,,,,,,,
29149,0,USMissouriOregon,Missouri,Oregon,2022-04-28 09:13:11,2021-09-25,1.0058368310559465,1.8511052785191966,3.637840238792177,,,,,,,,,,,,
29149,0,USMissouriOregon,Missouri,Oregon,2022-04-28 09:13:11,2021-09-26,1.0058368310559465,1.8511052785191966,3.637840238792177,,,,,,,,,,,,
29149,0,USMissouriOregon,Missouri,Oregon,2022-04-28 09:13:11,2021-09-27,1.0058368310559465,1.8511052785191966,3.637840238792177,,,,,,,,,,,,
29149,0,USMissouriOregon,Missouri,Oregon,2022-04-28 09:13:11,2021-09-28,1.0058368310559465,1.8511052785191966,3.637840238792177,,,,,,,,,,,,
29149,0,USMissouriOregon,Missouri,Oregon,2022-04-28 09:13:11,2021-09-29,1.0058368310559465,1.8511052785191966,3.637840238792177,,,,,,,,,,,,
29149,0,USMissouriOregon,Missouri,Oregon,2022-04-28 09:13:11,2021-09-30,0.31564446535458324,0.7660785226596144,2.000907642996279,,,,,,,,,,,,
29149,0,USMissouriOregon,Missouri,Oregon,2022-04-28 09:13:11,2021-10-01,0.31564446535458324,0.7660785226596144,2.000907642996279,,,,,,,,,,,,
29149,0,USMissouriOregon,Missouri,Oregon,2022-04-28 09:13:11,2021-10-02,0.31564446535458324,0.7660785226596144,2.000907642996279,,,,,,,,,,,,
29149,0,USMissouriOregon,Missouri,Oregon,2022-04-28 09:13:11,2021-10-03,0.31564446535458324,0.7660785226596144,2.000907642996279,,,,,,,,,,,,
29149,0,USMissouriOregon,Missouri,Oregon,2022-04-28 09:13:11,2021-10-04,0.31564446535458324,0.7660785226596144,2.000907642996279,,,,,,,,,,,,
29149,0,USMissouriOregon,Missouri,Oregon,2022-04-28 09:13:11,2021-10-05,0.31564446535458324,0.7660785226596144,2.000907642996279,,,,,,,,,,,,
29149,0,USMissouriOregon,Missouri,Oregon,2022-04-28 09:13:11,2021-10-06,0.31564446535458324,0.7660785226596144,2.000907642996279,,,,,,,,,,,,
29149,0,USMissouriOregon,Missouri,Oregon,2022-04-28 09:13:11,2021-10-07,0.37979840005877374,0.9471847819576258,2.5420576979175067,,,,,,,,,,,,
29149,0,USMissouriOregon,Missouri,Oregon,2022-04-28 09:13:11,2021-10-08,0.37979840005877374,0.9471847819576258,2.5420576979175067,,,,,,,,,,,,
29149,0,USMissouriOregon,Missouri,Oregon,2022-04-28 09:13:11,2021-10-09,0.37979840005877374,0.9471847819576258,2.5420576979175067,,,,,,,,,,,,
29149,0,USMissouriOregon,Missouri,Oregon,2022-04-28 09:13:11,2021-10-10,0.37979840005877374,0.9471847819576258,2.5420576979175067,,,,,,,,,,,,
29149,0,USMissouriOregon,Missouri,Oregon,2022-04-28 09:13:11,2021-10-11,0.37979840005877374,0.9471847819576258,2.5420576979175067,,,,,,,,,,,,
29149,0,USMissouriOregon,Missouri,Oregon,2022-04-28 09:13:11,2021-10-12,0.37979840005877374,0.9471847819576258,2.5420576979175067,,,,,,,,,,,,
29149,0,USMissouriOregon,Missouri,Oregon,2022-04-28 09:13:11,2021-10-13,0.37979840005877374,0.9471847819576258,2.5420576979175067,,,,,,,,,,,,
29149,0,USMissouriOregon,Missouri,Oregon,2022-04-28 09:13:11,2021-10-14,0.6224938305276649,1.4922000996027938,3.8493300514795368,,,,,,,,,,,,
29149,0,USMissouriOregon,Missouri,Oregon,2022-04-28 09:13:11,2021-10-15,0.6224938305276649,1.4922000996027938,3.8493300514795368,,,,,,,,,,,,
29149,0,USMissouriOregon,Missouri,Oregon,2022-04-28 09:13:11,2021-10-16,0.6224938305276649,1.4922000996027938,3.8493300514795368,,,,,,,,,,,,
29149,0,USMissouriOregon,Missouri,Oregon,2022-04-28 09:13:11,2021-10-17,0.6224938305276649,1.4922000996027938,3.8493300514795368,,,,,,,,,,,,
29149,0,USMissouriOregon,Missouri,Oregon,2022-04-28 09:13:11,2021-10-18,0.6224938305276649,1.4922000996027938,3.8493300514795368,,,,,,,,,,,,
29149,0,USMissouriOregon,Missouri,Oregon,2022-04-28 09:13:11,2021-10-19,0.6224938305276649,1.4922000996027938,3.8493300514795368,,,,,,,,,,,,
29149,0,USMissouriOregon,Missouri,Oregon,2022-04-28 09:13:11,2021-10-20,0.6224938305276649,1.4922000996027938,3.8493300514795368,,,,,,,,,,,,
29149,0,USMissouriOregon,Missouri,Oregon,2022-04-28 09:13:11,2021-10-21,0.19023348867646414,0.42209341589373084,1.007066219424115,,,,,,,,,,,,
29149,0,USMissouriOregon,Missouri,Oregon,2022-04-28 09:13:11,2021-10-22,0.19023348867646414,0.42209341589373084,1.007066219424115,,,,,,,,,,,,
29149,0,USMissouriOregon,Missouri,Oregon,2022-04-28 09:13:11,2021-10-23,0.19023348867646414,0.42209341589373084,1.007066219424115,,,,,,,,,,,,
29149,0,USMissouriOregon,Missouri,Oregon,2022-04-28 09:13:11,2021-10-24,0.19023348867646414,0.42209341589373084,1.007066219424115,,,,,,,,,,,,
29149,0,USMissouriOregon,Missouri,Oregon,2022-04-28 09:13:11,2021-10-25,0.19023348867646414,0.42209341589373084,1.007066219424115,,,,,,,,,,,,
29149,0,USMissouriOregon,Missouri,Oregon,2022-04-28 09:13:11,2021-10-26,0.19023348867646414,0.42209341589373084,1.007066219424115,,,,,,,,,,,,
29149,0,USMissouriOregon,Missouri,Oregon,2022-04-28 09:13:11,2021-10-27,0.19023348867646414,0.42209341589373084,1.007066219424115,,,,,,,,,,,,
29149,0,USMissouriOregon,Missouri,Oregon,2022-04-28 09:13:11,2021-10-28,0.3033358656018653,0.7107369622342526,1.7918761799668923,,,,,,,,,,,,
29149,0,USMissouriOregon,Missouri,Oregon,2022-04-28 09:13:11,2021-10-29,0.3033358656018653,0.7107369622342526,1.7918761799668923,,,,,,,,,,,,
29149,0,USMissouriOregon,Missouri,Oregon,2022-04-28 09:13:11,2021-10-30,0.3033358656018653,0.7107369622342526,1.7918761799668923,,,,,,,,,,,,
29149,0,USMissouriOregon,Missouri,Oregon,2022-04-28 09:13:11,2021-10-31,0.3033358656018653,0.7107369622342526,1.7918761799668923,,,,,,,,,,,,
29149,0,USMissouriOregon,Missouri,Oregon,2022-04-28 09:13:11,2021-11-01,0.3033358656018653,0.7107369622342526,1.7918761799668923,,,,,,,,,,,,
29149,0,USMissouriOregon,Missouri,Oregon,2022-04-28 09:13:11,2021-11-02,0.3033358656018653,0.7107369622342526,1.7918761799668923,,,,,,,,,,,,
29149,0,USMissouriOregon,Missouri,Oregon,2022-04-28 09:13:11,2021-11-03,0.3033358656018653,0.7107369622342526,1.7918761799668923,,,,,,,,,,,,
29149,0,USMissouriOregon,Missouri,Oregon,2022-04-28 09:13:11,2021-11-04,1.3093068960868315,2.956090424998486,7.178586150731352,,,,,,,,,,,,
29149,0,USMissouriOregon,Missouri,Oregon,2022-04-28 09:13:11,2021-11-05,1.3093068960868315,2.956090424998486,7.178586150731352,,,,,,,,,,,,
29149,0,USMissouriOregon,Missouri,Oregon,2022-04-28 09:13:11,2021-11-06,1.3093068960868315,2.956090424998486,7.178586150731352,,,,,,,,,,,,
29149,0,USMissouriOregon,Missouri,Oregon,2022-04-28 09:13:11,2021-11-07,1.3093068960868315,2.956090424998486,7.178586150731352,,,,,,,,,,,,
29149,0,USMissouriOregon,Missouri,Oregon,2022-04-28 09:13:11,2021-11-08,1.3093068960868315,2.956090424998486,7.178586150731352,,,,,,,,,,,,
29149,0,USMissouriOregon,Missouri,Oregon,2022-04-28 09:13:11,2021-11-09,1.3093068960868315,2.956090424998486,7.178586150731352,,,,,,,,,,,,
29149,0,USMissouriOregon,Missouri,Oregon,2022-04-28 09:13:11,2021-11-10,1.3093068960868315,2.956090424998486,7.178586150731352,,,,,,,,,,,,
29149,0,USMissouriOregon,Missouri,Oregon,2022-04-28 09:13:11,2021-11-11,1.3912448863999494,3.315257569451814,8.501335179863808,,,,,,,,,,,,
29149,0,USMissouriOregon,Missouri,Oregon,2022-04-28 09:13:11,2021-11-12,1.3912448863999494,3.315257569451814,8.501335179863808,,,,,,,,,,,,
29149,0,USMissouriOregon,Missouri,Oregon,2022-04-28 09:13:11,2021-11-13,1.3912448863999494,3.315257569451814,8.501335179863808,,,,,,,,,,,,
29149,0,USMissouriOregon,Missouri,Oregon,2022-04-28 09:13:11,2021-11-14,1.3912448863999494,3.315257569451814,8.501335179863808,,,,,,,,,,,,
29149,0,USMissouriOregon,Missouri,Oregon,2022-04-28 09:13:11,2021-11-15,1.3912448863999494,3.315257569451814,8.501335179863808,,,,,,,,,,,,
29149,0,USMissouriOregon,Missouri,Oregon,2022-04-28 09:13:11,2021-11-16,1.3912448863999494,3.315257569451814,8.501335179863808,,,,,,,,,,,,
29149,0,USMissouriOregon,Missouri,Oregon,2022-04-28 09:13:11,2021-11-17,1.3912448863999494,3.315257569451814,8.501335179863808,,,,,,,,,,,,
29149,0,USMissouriOregon,Missouri,Oregon,2022-04-28 09:13:11,2021-11-18,1.9265460882356125,4.422034892915878,10.919388701178347,,,,,,,,,,,,
29149,0,USMissouriOregon,Missouri,Oregon,2022-04-28 09:13:11,2021-11-19,1.9265460882356125,4.422034892915878,10.919388701178347,,,,,,,,,,,,
29149,0,USMissouriOregon,Missouri,Oregon,2022-04-28 09:13:11,2021-11-20,1.9265460882356125,4.422034892915878,10.919388701178347,,,,,,,,,,,,
29149,0,USMissouriOregon,Missouri,Oregon,2022-04-28 09:13:11,2021-11-21,1.9265460882356125,4.422034892915878,10.919388701178347,,,,,,,,,,,,
29149,0,USMissouriOregon,Missouri,Oregon,2022-04-28 09:13:11,2021-11-22,1.9265460882356125,4.422034892915878,10.919388701178347,,,,,,,,,,,,
29149,0,USMissouriOregon,Missouri,Oregon,2022-04-28 09:13:11,2021-11-23,1.9265460882356125,4.422034892915878,10.919388701178347,,,,,,,,,,,,
29149,0,USMissouriOregon,Missouri,Oregon,2022-04-28 09:13:11,2021-11-24,1.9265460882356125,4.422034892915878,10.919388701178347,,,,,,,,,,,,
29149,0,USMissouriOregon,Missouri,Oregon,2022-04-28 09:13:11,2021-11-25,0.6484261382154711,1.6113190024100756,4.308992754733823,,,,,,,,,,,,
29149,0,USMissouriOregon,Missouri,Oregon,2022-04-28 09:13:11,2021-11-26,0.6484261382154711,1.6113190024100756,4.308992754733823,,,,,,,,,,,,
29149,0,USMissouriOregon,Missouri,Oregon,2022-04-28 09:13:11,2021-11-27,0.6484261382154711,1.6113190024100756,4.308992754733823,,,,,,,,,,,,
29149,0,USMissouriOregon,Missouri,Oregon,2022-04-28 09:13:11,2021-11-28,0.6484261382154711,1.6113190024100756,4.308992754733823,,,,,,,,,,,,
29149,0,USMissouriOregon,Missouri,Oregon,2022-04-28 09:13:11,2021-11-29,0.6484261382154711,1.6113190024100756,4.308992754733823,,,,,,,,,,,,
29149,0,USMissouriOregon,Missouri,Oregon,2022-04-28 09:13:11,2021-11-30,0.6484261382154711,1.6113190024100756,4.308992754733823,,,,,,,,,,,,
29149,0,USMissouriOregon,Missouri,Oregon,2022-04-28 09:13:11,2021-12-01,0.6484261382154711,1.6113190024100756,4.308992754733823,,,,,,,,,,,,
29149,0,USMissouriOregon,Missouri,Oregon,2022-04-28 09:13:11,2021-12-02,1.1335670652838217,2.499713894452314,5.9267101550453205,,,,,,,,,,,,
29149,0,USMissouriOregon,Missouri,Oregon,2022-04-28 09:13:11,2021-12-03,1.1335670652838217,2.499713894452314,5.9267101550453205,,,,,,,,,,,,
29149,0,USMissouriOregon,Missouri,Oregon,2022-04-28 09:13:11,2021-12-04,1.1335670652838217,2.499713894452314,5.9267101550453205,,,,,,,,,,,,
29149,0,USMissouriOregon,Missouri,Oregon,2022-04-28 09:13:11,2021-12-05,1.1335670652838217,2.499713894452314,5.9267101550453205,,,,,,,,,,,,
29149,0,USMissouriOregon,Missouri,Oregon,2022-04-28 09:13:11,2021-12-06,1.1335670652838217,2.499713894452314,5.9267101550453205,,,,,,,,,,,,
29149,0,USMissouriOregon,Missouri,Oregon,2022-04-28 09:13:11,2021-12-07,1.1335670652838217,2.499713894452314,5.9267101550453205,,,,,,,,,,,,
29149,0,USMissouriOregon,Missouri,Oregon,2022-04-28 09:13:11,2021-12-08,1.1335670652838217,2.499713894452314,5.9267101550453205,,,,,,,,,,,,
29149,0,USMissouriOregon,Missouri,Oregon,2022-04-28 09:13:11,2021-12-09,1.6927542865872385,3.7178710082264295,8.778945548841245,,,,,,,,,,,,
29149,0,USMissouriOregon,Missouri,Oregon,2022-04-28 09:13:11,2021-12-10,1.6927542865872385,3.7178710082264295,8.778945548841245,,,,,,,,,,,,
29149,0,USMissouriOregon,Missouri,Oregon,2022-04-28 09:13:11,2021-12-11,1.6927542865872385,3.7178710082264295,8.778945548841245,,,,,,,,,,,,
29149,0,USMissouriOregon,Missouri,Oregon,2022-04-28 09:13:11,2021-12-12,1.6927542865872385,3.7178710082264295,8.778945548841245,,,,,,,,,,,,
29149,0,USMissouriOregon,Missouri,Oregon,2022-04-28 09:13:11,2021-12-13,1.6927542865872385,3.7178710082264295,8.778945548841245,,,,,,,,,,,,
29149,0,USMissouriOregon,Missouri,Oregon,2022-04-28 09:13:11,2021-12-14,1.6927542865872385,3.7178710082264295,8.778945548841245,,,,,,,,,,,,
29149,0,USMissouriOregon,Missouri,Oregon,2022-04-28 09:13:11,2021-12-15,1.6927542865872385,3.7178710082264295,8.778945548841245,,,,,,,,,,,,
29149,0,USMissouriOregon,Missouri,Oregon,2022-04-28 09:13:11,2021-12-16,1.3027467288901577,2.9281139620640557,7.078367023181638,,,,,,,,,,,,
29149,0,USMissouriOregon,Missouri,Oregon,2022-04-28 09:13:11,2021-12-17,1.3027467288901577,2.9281139620640557,7.078367023181638,,,,,,,,,,,,
29149,0,USMissouriOregon,Missouri,Oregon,2022-04-28 09:13:11,2021-12-18,1.3027467288901577,2.9281139620640557,7.078367023181638,,,,,,,,,,,,
29149,0,USMissouriOregon,Missouri,Oregon,2022-04-28 09:13:11,2021-12-19,1.3027467288901577,2.9281139620640557,7.078367023181638,,,,,,,,,,,,
29149,0,USMissouriOregon,Missouri,Oregon,2022-04-28 09:13:11,2021-12-20,1.3027467288901577,2.9281139620640557,7.078367023181638,,,,,,,,,,,,
29149,0,USMissouriOregon,Missouri,Oregon,2022-04-28 09:13:11,2021-12-21,1.3027467288901577,2.9281139620640557,7.078367023181638,,,,,,,,,,,,
29149,0,USMissouriOregon,Missouri,Oregon,2022-04-28 09:13:11,2021-12-22,1.3027467288901577,2.9281139620640557,7.078367023181638,,,,,,,,,,,,
29149,0,USMissouriOregon,Missouri,Oregon,2022-04-28 09:13:11,2021-12-23,1.215421009424986,2.7503817657552774,6.694492784531267,,,,,,,,,,,,
29149,0,USMissouriOregon,Missouri,Oregon,2022-04-28 09:13:11,2021-12-24,1.215421009424986,2.7503817657552774,6.694492784531267,,,,,,,,,,,,
29149,0,USMissouriOregon,Missouri,Oregon,2022-04-28 09:13:11,2021-12-25,1.215421009424986,2.7503817657552774,6.694492784531267,,,,,,,,,,,,
29149,0,USMissouriOregon,Missouri,Oregon,2022-04-28 09:13:11,2021-12-26,1.215421009424986,2.7503817657552774,6.694492784531267,,,,,,,,,,,,
29149,0,USMissouriOregon,Missouri,Oregon,2022-04-28 09:13:11,2021-12-27,1.215421009424986,2.7503817657552774,6.694492784531267,,,,,,,,,,,,
29149,0,USMissouriOregon,Missouri,Oregon,2022-04-28 09:13:11,2021-12-28,1.215421009424986,2.7503817657552774,6.694492784531267,,,,,,,,,,,,
29149,0,USMissouriOregon,Missouri,Oregon,2022-04-28 09:13:11,2021-12-29,1.215421009424986,2.7503817657552774,6.694492784531267,,,,,,,,,,,,
29149,0,USMissouriOregon,Missouri,Oregon,2022-04-28 09:13:11,2021-12-30,2.1826176555168177,4.832786516997754,11.506142679881428,,,,,,,,,,,,
29149,0,USMissouriOregon,Missouri,Oregon,2022-04-28 09:13:11,2021-12-31,2.1826176555168177,4.832786516997754,11.506142679881428,,,,,,,,,,,,
29149,0,USMissouriOregon,Missouri,Oregon,2022-04-28 09:13:11,2022-01-01,2.1826176555168177,4.832786516997754,11.506142679881428,,,,,,,,,,,,
29149,0,USMissouriOregon,Missouri,Oregon,2022-04-28 09:13:11,2022-01-02,2.1826176555168177,4.832786516997754,11.506142679881428,,,,,,,,,,,,
29149,0,USMissouriOregon,Missouri,Oregon,2022-04-28 09:13:11,2022-01-03,2.1826176555168177,4.832786516997754,11.506142679881428,,,,,,,,,,,,
29149,0,USMissouriOregon,Missouri,Oregon,2022-04-28 09:13:11,2022-01-04,2.1826176555168177,4.832786516997754,11.506142679881428,,,,,,,,,,,,
29149,0,USMissouriOregon,Missouri,Oregon,2022-04-28 09:13:11,2022-01-05,2.1826176555168177,4.832786516997754,11.506142679881428,,,,,,,,,,,,
29149,0,USMissouriOregon,Missouri,Oregon,2022-04-28 09:13:11,2022-01-06,2.0309619572531195,4.673215311810964,11.568433806001334,,,,,,,,,,,,
29149,0,USMissouriOregon,Missouri,Oregon,2022-04-28 09:13:11,2022-01-07,2.0309619572531195,4.673215311810964,11.568433806001334,,,,,,,,,,,,
29149,0,USMissouriOregon,Missouri,Oregon,2022-04-28 09:13:11,2022-01-08,2.0309619572531195,4.673215311810964,11.568433806001334,,,,,,,,,,,,
29149,0,USMissouriOregon,Missouri,Oregon,2022-04-28 09:13:11,2022-01-09,2.0309619572531195,4.673215311810964,11.568433806001334,,,,,,,,,,,,
29149,0,USMissouriOregon,Missouri,Oregon,2022-04-28 09:13:11,2022-01-10,2.0309619572531195,4.673215311810964,11.568433806001334,,,,,,,,,,,,
29149,0,USMissouriOregon,Missouri,Oregon,2022-04-28 09:13:11,2022-01-11,2.0309619572531195,4.673215311810964,11.568433806001334,,,,,,,,,,,,
29149,0,USMissouriOregon,Missouri,Oregon,2022-04-28 09:13:11,2022-01-12,2.0309619572531195,4.673215311810964,11.568433806001334,,,,,,,,,,,,
29149,0,USMissouriOregon,Missouri,Oregon,2022-04-28 09:13:11,2022-01-13,4.257824164475492,8.398603780246916,17.752422215222346,,,,,,,,,,,,
29149,0,USMissouriOregon,Missouri,Oregon,2022-04-28 09:13:11,2022-01-14,4.257824164475492,8.398603780246916,17.752422215222346,,,,,,,,,,,,
29149,0,USMissouriOregon,Missouri,Oregon,2022-04-28 09:13:11,2022-01-15,4.257824164475492,8.398603780246916,17.752422215222346,,,,,,,,,,,,
29149,0,USMissouriOregon,Missouri,Oregon,2022-04-28 09:13:11,2022-01-16,4.257824164475492,8.398603780246916,17.752422215222346,,,,,,,,,,,,
29149,0,USMissouriOregon,Missouri,Oregon,2022-04-28 09:13:11,2022-01-17,4.257824164475492,8.398603780246916,17.752422215222346,,,,,,,,,,,,
29149,0,USMissouriOregon,Missouri,Oregon,2022-04-28 09:13:11,2022-01-18,4.257824164475492,8.398603780246916,17.752422215222346,,,,,,,,,,,,
29149,0,USMissouriOregon,Missouri,Oregon,2022-04-28 09:13:11,2022-01-19,4.257824164475492,8.398603780246916,17.752422215222346,,,,,,,,,,,,
29149,0,USMissouriOregon,Missouri,Oregon,2022-04-28 09:13:11,2022-01-20,3.510721157382983,6.576921783382071,13.17034414438956,,,,,,,,,,,,
29149,0,USMissouriOregon,Missouri,Oregon,2022-04-28 09:13:11,2022-01-21,3.510721157382983,6.576921783382071,13.17034414438956,,,,,,,,,,,,
29149,0,USMissouriOregon,Missouri,Oregon,2022-04-28 09:13:11,2022-01-22,3.510721157382983,6.576921783382071,13.17034414438956,,,,,,,,,,,,
29149,0,USMissouriOregon,Missouri,Oregon,2022-04-28 09:13:11,2022-01-23,3.510721157382983,6.576921783382071,13.17034414438956,,,,,,,,,,,,
29149,0,USMissouriOregon,Missouri,Oregon,2022-04-28 09:13:11,2022-01-24,3.510721157382983,6.576921783382071,13.17034414438956,,,,,,,,,,,,
29149,0,USMissouriOregon,Missouri,Oregon,2022-04-28 09:13:11,2022-01-25,3.510721157382983,6.576921783382071,13.17034414438956,,,,,,,,,,,,
29149,0,USMissouriOregon,Missouri,Oregon,2022-04-28 09:13:11,2022-01-26,3.510721157382983,6.576921783382071,13.17034414438956,,,,,,,,,,,,
29149,0,USMissouriOregon,Missouri,Oregon,2022-04-28 09:13:11,2022-01-27,3.434439993645559,6.371626352335739,12.628633906709203,,,,,,,,,,,,
29149,0,USMissouriOregon,Missouri,Oregon,2022-04-28 09:13:11,2022-01-28,3.434439993645559,6.371626352335739,12.628633906709203,,,,,,,,,,,,
29149,0,USMissouriOregon,Missouri,Oregon,2022-04-28 09:13:11,2022-01-29,3.434439993645559,6.371626352335739,12.628633906709203,,,,,,,,,,,,
29149,0,USMissouriOregon,Missouri,Oregon,2022-04-28 09:13:11,2022-01-30,3.434439993645559,6.371626352335739,12.628633906709203,,,,,,,,,,,,
29149,0,USMissouriOregon,Missouri,Oregon,2022-04-28 09:13:11,2022-01-31,3.434439993645559,6.371626352335739,12.628633906709203,,,,,,,,,,,,
29149,0,USMissouriOregon,Missouri,Oregon,2022-04-28 09:13:11,2022-02-01,3.434439993645559,6.371626352335739,12.628633906709203,,,,,,,,,,,,
29149,0,USMissouriOregon,Missouri,Oregon,2022-04-28 09:13:11,2022-02-02,3.434439993645559,6.371626352335739,12.628633906709203,,,,,,,,,,,,
29149,0,USMissouriOregon,Missouri,Oregon,2022-04-28 09:13:11,2022-02-03,1.6568795644868135,3.6611549060997817,8.698444843032945,,,,,,,,,,,,
29149,0,USMissouriOregon,Missouri,Oregon,2022-04-28 09:13:11,2022-02-04,1.6568795644868135,3.6611549060997817,8.698444843032945,,,,,,,,,,,,
29149,0,USMissouriOregon,Missouri,Oregon,2022-04-28 09:13:11,2022-02-05,1.6568795644868135,3.6611549060997817,8.698444843032945,,,,,,,,,,,,
29149,0,USMissouriOregon,Missouri,Oregon,2022-04-28 09:13:11,2022-02-06,1.6568795644868135,3.6611549060997817,8.698444843032945,,,,,,,,,,,,
29149,0,USMissouriOregon,Missouri,Oregon,2022-04-28 09:13:11,2022-02-07,1.6568795644868135,3.6611549060997817,8.698444843032945,,,,,,,,,,,,
29149,0,USMissouriOregon,Missouri,Oregon,2022-04-28 09:13:11,2022-02-08,1.6568795644868135,3.6611549060997817,8.698444843032945,,,,,,,,,,,,
29149,0,USMissouriOregon,Missouri,Oregon,2022-04-28 09:13:11,2022-02-09,1.6568795644868135,3.6611549060997817,8.698444843032945,,,,,,,,,,,,
29149,0,USMissouriOregon,Missouri,Oregon,2022-04-28 09:13:11,2022-02-10,1.5539948165291204,3.1599264389294492,6.893615396793881,,,,,,,,,,,,
29149,0,USMissouriOregon,Missouri,Oregon,2022-04-28 09:13:11,2022-02-11,1.5539948165291204,3.1599264389294492,6.893615396793881,,,,,,,,,,,,
29149,0,USMissouriOregon,Missouri,Oregon,2022-04-28 09:13:11,2022-02-12,1.5539948165291204,3.1599264389294492,6.893615396793881,,,,,,,,,,,,
29149,0,USMissouriOregon,Missouri,Oregon,2022-04-28 09:13:11,2022-02-13,1.5539948165291204,3.1599264389294492,6.893615396793881,,,,,,,,,,,,
29149,0,USMissouriOregon,Missouri,Oregon,2022-04-28 09:13:11,2022-02-14,1.5539948165291204,3.1599264389294492,6.893615396793881,,,,,,,,,,,,
29149,0,USMissouriOregon,Missouri,Oregon,2022-04-28 09:13:11,2022-02-15,1.5539948165291204,3.1599264389294492,6.893615396793881,,,,,,,,,,,,
29149,0,USMissouriOregon,Missouri,Oregon,2022-04-28 09:13:11,2022-02-16,1.5539948165291204,3.1599264389294492,6.893615396793881,,,,,,,,,,,,
29149,0,USMissouriOregon,Missouri,Oregon,2022-04-28 09:13:11,2022-02-17,0.4512537283648985,0.876123549922542,1.8215371547218362,,,,,,,,,,,,
29149,0,USMissouriOregon,Missouri,Oregon,2022-04-28 09:13:11,2022-02-18,0.4512537283648985,0.876123549922542,1.8215371547218362,,,,,,,,,,,,
29149,0,USMissouriOregon,Missouri,Oregon,2022-04-28 09:13:11,2022-02-19,0.4512537283648985,0.876123549922542,1.8215371547218362,,,,,,,,,,,,
29149,0,USMissouriOregon,Missouri,Oregon,2022-04-28 09:13:11,2022-02-20,0.4512537283648985,0.876123549922542,1.8215371547218362,,,,,,,,,,,,
29149,0,USMissouriOregon,Missouri,Oregon,2022-04-28 09:13:11,2022-02-21,0.4512537283648985,0.876123549922542,1.8215371547218362,,,,,,,,,,,,
29149,0,USMissouriOregon,Missouri,Oregon,2022-04-28 09:13:11,2022-02-22,0.4512537283648985,0.876123549922542,1.8215371547218362,,,,,,,,,,,,
29149,0,USMissouriOregon,Missouri,Oregon,2022-04-28 09:13:11,2022-02-23,0.4512537283648985,0.876123549922542,1.8215371547218362,,,,,,,,,,,,
29149,0,USMissouriOregon,Missouri,Oregon,2022-04-28 09:13:11,2022-02-24,0.3946224157860446,0.813869831105689,1.801681651048208,,,,,,,,,,,,
29149,0,USMissouriOregon,Missouri,Oregon,2022-04-28 09:13:11,2022-02-25,0.3946224157860446,0.813869831105689,1.801681651048208,,,,,,,,,,,,
29149,0,USMissouriOregon,Missouri,Oregon,2022-04-28 09:13:11,2022-02-26,0.3946224157860446,0.813869831105689,1.801681651048208,,,,,,,,,,,,
29149,0,USMissouriOregon,Missouri,Oregon,2022-04-28 09:13:11,2022-02-27,0.3946224157860446,0.813869831105689,1.801681651048208,,,,,,,,,,,,
29149,0,USMissouriOregon,Missouri,Oregon,2022-04-28 09:13:11,2022-02-28,0.3946224157860446,0.813869831105689,1.801681651048208,,,,,,,,,,,,
29149,0,USMissouriOregon,Missouri,Oregon,2022-04-28 09:13:11,2022-03-01,0.3946224157860446,0.813869831105689,1.801681651048208,,,,,,,,,,,,
29149,0,USMissouriOregon,Missouri,Oregon,2022-04-28 09:13:11,2022-03-02,0.3946224157860446,0.813869831105689,1.801681651048208,,,,,,,,,,,,
29149,0,USMissouriOregon,Missouri,Oregon,2022-04-28 09:13:11,2022-03-03,0.2155081445659538,0.43762219762244015,0.9533594978597314,,,,,,,,,,,,
29149,0,USMissouriOregon,Missouri,Oregon,2022-04-28 09:13:11,2022-03-04,0.2155081445659538,0.43762219762244015,0.9533594978597314,,,,,,,,,,,,
29149,0,USMissouriOregon,Missouri,Oregon,2022-04-28 09:13:11,2022-03-05,0.2155081445659538,0.43762219762244015,0.9533594978597314,,,,,,,,,,,,
29149,0,USMissouriOregon,Missouri,Oregon,2022-04-28 09:13:11,2022-03-06,0.2155081445659538,0.43762219762244015,0.9533594978597314,,,,,,,,,,,,
29149,0,USMissouriOregon,Missouri,Oregon,2022-04-28 09:13:11,2022-03-07,0.2155081445659538,0.43762219762244015,0.9533594978597314,,,,,,,,,,,,
29149,0,USMissouriOregon,Missouri,Oregon,2022-04-28 09:13:11,2022-03-08,0.2155081445659538,0.43762219762244015,0.9533594978597314,,,,,,,,,,,,
29149,0,USMissouriOregon,Missouri,Oregon,2022-04-28 09:13:11,2022-03-09,0.2155081445659538,0.43762219762244015,0.9533594978597314,,,,,,,,,,,,
29149,0,USMissouriOregon,Missouri,Oregon,2022-04-28 09:13:11,2022-03-10,0.13839192857875246,0.2987857109765399,0.69326824728240255,,,,,,,,,,,,
29149,0,USMissouriOregon,Missouri,Oregon,2022-04-28 09:13:11,2022-03-11,0.13839192857875246,0.2987857109765399,0.69326824728240255,,,,,,,,,,,,
29149,0,USMissouriOregon,Missouri,Oregon,2022-04-28 09:13:11,2022-03-12,0.13839192857875246,0.2987857109765399,0.69326824728240255,,,,,,,,,,,,
29149,0,USMissouriOregon,Missouri,Oregon,2022-04-28 09:13:11,2022-03-13,0.13839192857875246,0.2987857109765399,0.69326824728240255,,,,,,,,,,,,
29149,0,USMissouriOregon,Missouri,Oregon,2022-04-28 09:13:11,2022-03-14,0.13839192857875246,0.2987857109765399,0.69326824728240255,,,,,,,,,,,,
29149,0,USMissouriOregon,Missouri,Oregon,2022-04-28 09:13:11,2022-03-15,0.13839192857875246,0.2987857109765399,0.69326824728240255,,,,,,,,,,,,
29149,0,USMissouriOregon,Missouri,Oregon,2022-04-28 09:13:11,2022-03-16,0.13839192857875246,0.2987857109765399,0.69326824728240255,,,,,,,,,,,,
29149,0,USMissouriOregon,Missouri,Oregon,2022-04-28 09:13:11,2022-03-17,0.19205334600709073,0.4297762387123091,1.0343111590584664,,,,,,,,,,,,
29149,0,USMissouriOregon,Missouri,Oregon,2022-04-28 09:13:11,2022-03-18,0.19205334600709073,0.4297762387123091,1.0343111590584664,,,,,,,,,,,,
29149,0,USMissouriOregon,Missouri,Oregon,2022-04-28 09:13:11,2022-03-19,0.19205334600709073,0.4297762387123091,1.0343111590584664,,,,,,,,,,,,
29149,0,USMissouriOregon,Missouri,Oregon,2022-04-28 09:13:11,2022-03-20,0.19205334600709073,0.4297762387123091,1.0343111590584664,,,,,,,,,,,,
29149,0,USMissouriOregon,Missouri,Oregon,2022-04-28 09:13:11,2022-03-21,0.19205334600709073,0.4297762387123091,1.0343111590584664,,,,,,,,,,,,
29149,0,USMissouriOregon,Missouri,Oregon,2022-04-28 09:13:11,2022-03-22,0.19205334600709073,0.4297762387123091,1.0343111590584664,,,,,,,,,,,,
29149,0,USMissouriOregon,Missouri,Oregon,2022-04-28 09:13:11,2022-03-23,0.19205334600709073,0.4297762387123091,1.0343111590584664,,,,,,,,,,,,
29149,0,USMissouriOregon,Missouri,Oregon,2022-04-28 09:13:11,2022-03-24,0.1780847921649865,0.4803744906727871,1.3935192249380823,,,,,,,,,,,,
29149,0,USMissouriOregon,Missouri,Oregon,2022-04-28 09:13:11,2022-03-25,0.1780847921649865,0.4803744906727871,1.3935192249380823,,,,,,,,,,,,
29149,0,USMissouriOregon,Missouri,Oregon,2022-04-28 09:13:11,2022-03-26,0.1780847921649865,0.4803744906727871,1.3935192249380823,,,,,,,,,,,,
29149,0,USMissouriOregon,Missouri,Oregon,2022-04-28 09:13:11,2022-03-27,0.1780847921649865,0.4803744906727871,1.3935192249380823,,,,,,,,,,,,
29149,0,USMissouriOregon,Missouri,Oregon,2022-04-28 09:13:11,2022-03-28,0.1780847921649865,0.4803744906727871,1.3935192249380823,,,,,,,,,,,,
29149,0,USMissouriOregon,Missouri,Oregon,2022-04-28 09:13:11,2022-03-29,0.1780847921649865,0.4803744906727871,1.3935192249380823,,,,,,,,,,,,
29149,0,USMissouriOregon,Missouri,Oregon,2022-04-28 09:13:11,2022-03-30,0.1780847921649865,0.4803744906727871,1.3935192249380823,,,,,,,,,,,,
