FIPS,HR_UID,nameid,province,region,analysisTime,dates,pointprevalence_025,pointprevalence_50,pointprevalence_975,pointinfections_025,pointinfections_50,pointinfections_975,pointinfectious_025,pointinfectious_50,pointinfectious_975,pointinfectiousprevalence_025,pointinfectiousprevalence_50,pointinfectiousprevalence_975,infectrate_025,infectrate_50,infectrate_975
29093,0,USMissouriIron,Missouri,Iron,2022-04-28 09:13:11,2020-03-19,0,0,0,,,,,,,,,,,,
29093,0,USMissouriIron,Missouri,Iron,2022-04-28 09:13:11,2020-03-20,0,0,0,,,,,,,,,,,,
29093,0,USMissouriIron,Missouri,Iron,2022-04-28 09:13:11,2020-03-21,0,0,0,,,,,,,,,,,,
29093,0,USMissouriIron,Missouri,Iron,2022-04-28 09:13:11,2020-03-22,0,0,0,,,,,,,,,,,,
29093,0,USMissouriIron,Missouri,Iron,2022-04-28 09:13:11,2020-03-23,0,0,0,,,,,,,,,,,,
29093,0,USMissouriIron,Missouri,Iron,2022-04-28 09:13:11,2020-03-24,0,0,0,,,,,,,,,,,,
29093,0,USMissouriIron,Missouri,Iron,2022-04-28 09:13:11,2020-03-25,0,0,0,,,,,,,,,,,,
29093,0,USMissouriIron,Missouri,Iron,2022-04-28 09:13:11,2020-03-26,0,0,0,,,,,,,,,,,,
29093,0,USMissouriIron,Missouri,Iron,2022-04-28 09:13:11,2020-03-27,0,0,0,,,,,,,,,,,,
29093,0,USMissouriIron,Missouri,Iron,2022-04-28 09:13:11,2020-03-28,0,0,0,,,,,,,,,,,,
29093,0,USMissouriIron,Missouri,Iron,2022-04-28 09:13:11,2020-03-29,0,0,0,,,,,,,,,,,,
29093,0,USMissouriIron,Missouri,Iron,2022-04-28 09:13:11,2020-03-30,0,0,0,,,,,,,,,,,,
29093,0,USMissouriIron,Missouri,Iron,2022-04-28 09:13:11,2020-03-31,0,0,0,,,,,,,,,,,,
29093,0,USMissouriIron,Missouri,Iron,2022-04-28 09:13:11,2020-04-01,0,0,0,,,,,,,,,,,,
29093,0,USMissouriIron,Missouri,Iron,2022-04-28 09:13:11,2020-04-02,0,0,0,,,,,,,,,,,,
29093,0,USMissouriIron,Missouri,Iron,2022-04-28 09:13:11,2020-04-03,0,0,0,,,,,,,,,,,,
29093,0,USMissouriIron,Missouri,Iron,2022-04-28 09:13:11,2020-04-04,0,0,0,,,,,,,,,,,,
29093,0,USMissouriIron,Missouri,Iron,2022-04-28 09:13:11,2020-04-05,0,0,0,,,,,,,,,,,,
29093,0,USMissouriIron,Missouri,Iron,2022-04-28 09:13:11,2020-04-06,0,0,0,,,,,,,,,,,,
29093,0,USMissouriIron,Missouri,Iron,2022-04-28 09:13:11,2020-04-07,0,0,0,,,,,,,,,,,,
29093,0,USMissouriIron,Missouri,Iron,2022-04-28 09:13:11,2020-04-08,0,0,0,,,,,,,,,,,,
29093,0,USMissouriIron,Missouri,Iron,2022-04-28 09:13:11,2020-04-09,0.09389312985599037,0.3599869958633187,1.4688423730585238,,,,,,,,,,,,
29093,0,USMissouriIron,Missouri,Iron,2022-04-28 09:13:11,2020-04-10,0.09389312985599037,0.3599869958633187,1.4688423730585238,,,,,,,,,,,,
29093,0,USMissouriIron,Missouri,Iron,2022-04-28 09:13:11,2020-04-11,0.09389312985599037,0.3599869958633187,1.4688423730585238,,,,,,,,,,,,
29093,0,USMissouriIron,Missouri,Iron,2022-04-28 09:13:11,2020-04-12,0.09389312985599037,0.3599869958633187,1.4688423730585238,,,,,,,,,,,,
29093,0,USMissouriIron,Missouri,Iron,2022-04-28 09:13:11,2020-04-13,0.09389312985599037,0.3599869958633187,1.4688423730585238,,,,,,,,,,,,
29093,0,USMissouriIron,Missouri,Iron,2022-04-28 09:13:11,2020-04-14,0.09389312985599037,0.3599869958633187,1.4688423730585238,,,,,,,,,,,,
29093,0,USMissouriIron,Missouri,Iron,2022-04-28 09:13:11,2020-04-15,0.09389312985599037,0.3599869958633187,1.4688423730585238,,,,,,,,,,,,
29093,0,USMissouriIron,Missouri,Iron,2022-04-28 09:13:11,2020-04-16,0.08682540124806368,0.3122894479434992,1.1983745570990738,,,,,,,,,,,,
29093,0,USMissouriIron,Missouri,Iron,2022-04-28 09:13:11,2020-04-17,0.08682540124806368,0.3122894479434992,1.1983745570990738,,,,,,,,,,,,
29093,0,USMissouriIron,Missouri,Iron,2022-04-28 09:13:11,2020-04-18,0.08682540124806368,0.3122894479434992,1.1983745570990738,,,,,,,,,,,,
29093,0,USMissouriIron,Missouri,Iron,2022-04-28 09:13:11,2020-04-19,0.08682540124806368,0.3122894479434992,1.1983745570990738,,,,,,,,,,,,
29093,0,USMissouriIron,Missouri,Iron,2022-04-28 09:13:11,2020-04-20,0.08682540124806368,0.3122894479434992,1.1983745570990738,,,,,,,,,,,,
29093,0,USMissouriIron,Missouri,Iron,2022-04-28 09:13:11,2020-04-21,0.08682540124806368,0.3122894479434992,1.1983745570990738,,,,,,,,,,,,
29093,0,USMissouriIron,Missouri,Iron,2022-04-28 09:13:11,2020-04-22,0.08682540124806368,0.3122894479434992,1.1983745570990738,,,,,,,,,,,,
29093,0,USMissouriIron,Missouri,Iron,2022-04-28 09:13:11,2020-04-23,0,0,0,,,,,,,,,,,,
29093,0,USMissouriIron,Missouri,Iron,2022-04-28 09:13:11,2020-04-24,0,0,0,,,,,,,,,,,,
29093,0,USMissouriIron,Missouri,Iron,2022-04-28 09:13:11,2020-04-25,0,0,0,,,,,,,,,,,,
29093,0,USMissouriIron,Missouri,Iron,2022-04-28 09:13:11,2020-04-26,0,0,0,,,,,,,,,,,,
29093,0,USMissouriIron,Missouri,Iron,2022-04-28 09:13:11,2020-04-27,0,0,0,,,,,,,,,,,,
29093,0,USMissouriIron,Missouri,Iron,2022-04-28 09:13:11,2020-04-28,0,0,0,,,,,,,,,,,,
29093,0,USMissouriIron,Missouri,Iron,2022-04-28 09:13:11,2020-04-29,0,0,0,,,,,,,,,,,,
29093,0,USMissouriIron,Missouri,Iron,2022-04-28 09:13:11,2020-04-30,0,0,0,,,,,,,,,,,,
29093,0,USMissouriIron,Missouri,Iron,2022-04-28 09:13:11,2020-05-01,0,0,0,,,,,,,,,,,,
29093,0,USMissouriIron,Missouri,Iron,2022-04-28 09:13:11,2020-05-02,0,0,0,,,,,,,,,,,,
29093,0,USMissouriIron,Missouri,Iron,2022-04-28 09:13:11,2020-05-03,0,0,0,,,,,,,,,,,,
29093,0,USMissouriIron,Missouri,Iron,2022-04-28 09:13:11,2020-05-04,0,0,0,,,,,,,,,,,,
29093,0,USMissouriIron,Missouri,Iron,2022-04-28 09:13:11,2020-05-05,0,0,0,,,,,,,,,,,,
29093,0,USMissouriIron,Missouri,Iron,2022-04-28 09:13:11,2020-05-06,0,0,0,,,,,,,,,,,,
29093,0,USMissouriIron,Missouri,Iron,2022-04-28 09:13:11,2020-05-07,0,0,0,,,,,,,,,,,,
29093,0,USMissouriIron,Missouri,Iron,2022-04-28 09:13:11,2020-05-08,0,0,0,,,,,,,,,,,,
29093,0,USMissouriIron,Missouri,Iron,2022-04-28 09:13:11,2020-05-09,0,0,0,,,,,,,,,,,,
29093,0,USMissouriIron,Missouri,Iron,2022-04-28 09:13:11,2020-05-10,0,0,0,,,,,,,,,,,,
29093,0,USMissouriIron,Missouri,Iron,2022-04-28 09:13:11,2020-05-11,0,0,0,,,,,,,,,,,,
29093,0,USMissouriIron,Missouri,Iron,2022-04-28 09:13:11,2020-05-12,0,0,0,,,,,,,,,,,,
29093,0,USMissouriIron,Missouri,Iron,2022-04-28 09:13:11,2020-05-13,0,0,0,,,,,,,,,,,,
29093,0,USMissouriIron,Missouri,Iron,2022-04-28 09:13:11,2020-05-14,0,0,0,,,,,,,,,,,,
29093,0,USMissouriIron,Missouri,Iron,2022-04-28 09:13:11,2020-05-15,0,0,0,,,,,,,,,,,,
29093,0,USMissouriIron,Missouri,Iron,2022-04-28 09:13:11,2020-05-16,0,0,0,,,,,,,,,,,,
29093,0,USMissouriIron,Missouri,Iron,2022-04-28 09:13:11,2020-05-17,0,0,0,,,,,,,,,,,,
29093,0,USMissouriIron,Missouri,Iron,2022-04-28 09:13:11,2020-05-18,0,0,0,,,,,,,,,,,,
29093,0,USMissouriIron,Missouri,Iron,2022-04-28 09:13:11,2020-05-19,0,0,0,,,,,,,,,,,,
29093,0,USMissouriIron,Missouri,Iron,2022-04-28 09:13:11,2020-05-20,0,0,0,,,,,,,,,,,,
29093,0,USMissouriIron,Missouri,Iron,2022-04-28 09:13:11,2020-05-21,0,0,0,,,,,,,,,,,,
29093,0,USMissouriIron,Missouri,Iron,2022-04-28 09:13:11,2020-05-22,0,0,0,,,,,,,,,,,,
29093,0,USMissouriIron,Missouri,Iron,2022-04-28 09:13:11,2020-05-23,0,0,0,,,,,,,,,,,,
29093,0,USMissouriIron,Missouri,Iron,2022-04-28 09:13:11,2020-05-24,0,0,0,,,,,,,,,,,,
29093,0,USMissouriIron,Missouri,Iron,2022-04-28 09:13:11,2020-05-25,0,0,0,,,,,,,,,,,,
29093,0,USMissouriIron,Missouri,Iron,2022-04-28 09:13:11,2020-05-26,0,0,0,,,,,,,,,,,,
29093,0,USMissouriIron,Missouri,Iron,2022-04-28 09:13:11,2020-05-27,0,0,0,,,,,,,,,,,,
29093,0,USMissouriIron,Missouri,Iron,2022-04-28 09:13:11,2020-06-04,0,0,0,,,,,,,,,,,,
29093,0,USMissouriIron,Missouri,Iron,2022-04-28 09:13:11,2020-06-05,0,0,0,,,,,,,,,,,,
29093,0,USMissouriIron,Missouri,Iron,2022-04-28 09:13:11,2020-06-06,0,0,0,,,,,,,,,,,,
29093,0,USMissouriIron,Missouri,Iron,2022-04-28 09:13:11,2020-06-07,0,0,0,,,,,,,,,,,,
29093,0,USMissouriIron,Missouri,Iron,2022-04-28 09:13:11,2020-06-08,0,0,0,,,,,,,,,,,,
29093,0,USMissouriIron,Missouri,Iron,2022-04-28 09:13:11,2020-06-09,0,0,0,,,,,,,,,,,,
29093,0,USMissouriIron,Missouri,Iron,2022-04-28 09:13:11,2020-06-10,0,0,0,,,,,,,,,,,,
29093,0,USMissouriIron,Missouri,Iron,2022-04-28 09:13:11,2020-06-18,0,0,0,,,,,,,,,,,,
29093,0,USMissouriIron,Missouri,Iron,2022-04-28 09:13:11,2020-06-19,0,0,0,,,,,,,,,,,,
29093,0,USMissouriIron,Missouri,Iron,2022-04-28 09:13:11,2020-06-20,0,0,0,,,,,,,,,,,,
29093,0,USMissouriIron,Missouri,Iron,2022-04-28 09:13:11,2020-06-21,0,0,0,,,,,,,,,,,,
29093,0,USMissouriIron,Missouri,Iron,2022-04-28 09:13:11,2020-06-22,0,0,0,,,,,,,,,,,,
29093,0,USMissouriIron,Missouri,Iron,2022-04-28 09:13:11,2020-06-23,0,0,0,,,,,,,,,,,,
29093,0,USMissouriIron,Missouri,Iron,2022-04-28 09:13:11,2020-06-24,0,0,0,,,,,,,,,,,,
29093,0,USMissouriIron,Missouri,Iron,2022-04-28 09:13:11,2020-06-25,0.06554521328552373,0.1861883644164043,0.5682850385973285,,,,,,,,,,,,
29093,0,USMissouriIron,Missouri,Iron,2022-04-28 09:13:11,2020-06-26,0.06554521328552373,0.1861883644164043,0.5682850385973285,,,,,,,,,,,,
29093,0,USMissouriIron,Missouri,Iron,2022-04-28 09:13:11,2020-06-27,0.06554521328552373,0.1861883644164043,0.5682850385973285,,,,,,,,,,,,
29093,0,USMissouriIron,Missouri,Iron,2022-04-28 09:13:11,2020-06-28,0.06554521328552373,0.1861883644164043,0.5682850385973285,,,,,,,,,,,,
29093,0,USMissouriIron,Missouri,Iron,2022-04-28 09:13:11,2020-06-29,0.06554521328552373,0.1861883644164043,0.5682850385973285,,,,,,,,,,,,
29093,0,USMissouriIron,Missouri,Iron,2022-04-28 09:13:11,2020-06-30,0.06554521328552373,0.1861883644164043,0.5682850385973285,,,,,,,,,,,,
29093,0,USMissouriIron,Missouri,Iron,2022-04-28 09:13:11,2020-07-01,0.06554521328552373,0.1861883644164043,0.5682850385973285,,,,,,,,,,,,
29093,0,USMissouriIron,Missouri,Iron,2022-04-28 09:13:11,2020-07-02,0.062812257964514,0.17199955271085815,0.5064008714726355,,,,,,,,,,,,
29093,0,USMissouriIron,Missouri,Iron,2022-04-28 09:13:11,2020-07-03,0.062812257964514,0.17199955271085815,0.5064008714726355,,,,,,,,,,,,
29093,0,USMissouriIron,Missouri,Iron,2022-04-28 09:13:11,2020-07-04,0.062812257964514,0.17199955271085815,0.5064008714726355,,,,,,,,,,,,
29093,0,USMissouriIron,Missouri,Iron,2022-04-28 09:13:11,2020-07-05,0.062812257964514,0.17199955271085815,0.5064008714726355,,,,,,,,,,,,
29093,0,USMissouriIron,Missouri,Iron,2022-04-28 09:13:11,2020-07-06,0.062812257964514,0.17199955271085815,0.5064008714726355,,,,,,,,,,,,
29093,0,USMissouriIron,Missouri,Iron,2022-04-28 09:13:11,2020-07-07,0.062812257964514,0.17199955271085815,0.5064008714726355,,,,,,,,,,,,
29093,0,USMissouriIron,Missouri,Iron,2022-04-28 09:13:11,2020-07-08,0.062812257964514,0.17199955271085815,0.5064008714726355,,,,,,,,,,,,
29093,0,USMissouriIron,Missouri,Iron,2022-04-28 09:13:11,2020-07-09,0,0,0,,,,,,,,,,,,
29093,0,USMissouriIron,Missouri,Iron,2022-04-28 09:13:11,2020-07-10,0,0,0,,,,,,,,,,,,
29093,0,USMissouriIron,Missouri,Iron,2022-04-28 09:13:11,2020-07-11,0,0,0,,,,,,,,,,,,
29093,0,USMissouriIron,Missouri,Iron,2022-04-28 09:13:11,2020-07-12,0,0,0,,,,,,,,,,,,
29093,0,USMissouriIron,Missouri,Iron,2022-04-28 09:13:11,2020-07-13,0,0,0,,,,,,,,,,,,
29093,0,USMissouriIron,Missouri,Iron,2022-04-28 09:13:11,2020-07-14,0,0,0,,,,,,,,,,,,
29093,0,USMissouriIron,Missouri,Iron,2022-04-28 09:13:11,2020-07-15,0,0,0,,,,,,,,,,,,
29093,0,USMissouriIron,Missouri,Iron,2022-04-28 09:13:11,2020-07-16,0.17693604486022982,0.4587231465489218,1.2795497093080004,,,,,,,,,,,,
29093,0,USMissouriIron,Missouri,Iron,2022-04-28 09:13:11,2020-07-17,0.17693604486022982,0.4587231465489218,1.2795497093080004,,,,,,,,,,,,
29093,0,USMissouriIron,Missouri,Iron,2022-04-28 09:13:11,2020-07-18,0.17693604486022982,0.4587231465489218,1.2795497093080004,,,,,,,,,,,,
29093,0,USMissouriIron,Missouri,Iron,2022-04-28 09:13:11,2020-07-19,0.17693604486022982,0.4587231465489218,1.2795497093080004,,,,,,,,,,,,
29093,0,USMissouriIron,Missouri,Iron,2022-04-28 09:13:11,2020-07-20,0.17693604486022982,0.4587231465489218,1.2795497093080004,,,,,,,,,,,,
29093,0,USMissouriIron,Missouri,Iron,2022-04-28 09:13:11,2020-07-21,0.17693604486022982,0.4587231465489218,1.2795497093080004,,,,,,,,,,,,
29093,0,USMissouriIron,Missouri,Iron,2022-04-28 09:13:11,2020-07-22,0.17693604486022982,0.4587231465489218,1.2795497093080004,,,,,,,,,,,,
29093,0,USMissouriIron,Missouri,Iron,2022-04-28 09:13:11,2020-07-23,0.24701621946683852,0.6665365391366238,1.934195546433003,,,,,,,,,,,,
29093,0,USMissouriIron,Missouri,Iron,2022-04-28 09:13:11,2020-07-24,0.24701621946683852,0.6665365391366238,1.934195546433003,,,,,,,,,,,,
29093,0,USMissouriIron,Missouri,Iron,2022-04-28 09:13:11,2020-07-25,0.24701621946683852,0.6665365391366238,1.934195546433003,,,,,,,,,,,,
29093,0,USMissouriIron,Missouri,Iron,2022-04-28 09:13:11,2020-07-26,0.24701621946683852,0.6665365391366238,1.934195546433003,,,,,,,,,,,,
29093,0,USMissouriIron,Missouri,Iron,2022-04-28 09:13:11,2020-07-27,0.24701621946683852,0.6665365391366238,1.934195546433003,,,,,,,,,,,,
29093,0,USMissouriIron,Missouri,Iron,2022-04-28 09:13:11,2020-07-28,0.24701621946683852,0.6665365391366238,1.934195546433003,,,,,,,,,,,,
29093,0,USMissouriIron,Missouri,Iron,2022-04-28 09:13:11,2020-07-29,0.24701621946683852,0.6665365391366238,1.934195546433003,,,,,,,,,,,,
29093,0,USMissouriIron,Missouri,Iron,2022-04-28 09:13:11,2020-07-30,0.5448169398782671,1.1192834178068436,2.46788303282525,,,,,,,,,,,,
29093,0,USMissouriIron,Missouri,Iron,2022-04-28 09:13:11,2020-07-31,0.5448169398782671,1.1192834178068436,2.46788303282525,,,,,,,,,,,,
29093,0,USMissouriIron,Missouri,Iron,2022-04-28 09:13:11,2020-08-01,0.5448169398782671,1.1192834178068436,2.46788303282525,,,,,,,,,,,,
29093,0,USMissouriIron,Missouri,Iron,2022-04-28 09:13:11,2020-08-02,0.5448169398782671,1.1192834178068436,2.46788303282525,,,,,,,,,,,,
29093,0,USMissouriIron,Missouri,Iron,2022-04-28 09:13:11,2020-08-03,0.5448169398782671,1.1192834178068436,2.46788303282525,,,,,,,,,,,,
29093,0,USMissouriIron,Missouri,Iron,2022-04-28 09:13:11,2020-08-04,0.5448169398782671,1.1192834178068436,2.46788303282525,,,,,,,,,,,,
29093,0,USMissouriIron,Missouri,Iron,2022-04-28 09:13:11,2020-08-05,0.5448169398782671,1.1192834178068436,2.46788303282525,,,,,,,,,,,,
29093,0,USMissouriIron,Missouri,Iron,2022-04-28 09:13:11,2020-08-06,0.13576673513904317,0.3974051255339395,1.2491003591030998,,,,,,,,,,,,
29093,0,USMissouriIron,Missouri,Iron,2022-04-28 09:13:11,2020-08-07,0.13576673513904317,0.3974051255339395,1.2491003591030998,,,,,,,,,,,,
29093,0,USMissouriIron,Missouri,Iron,2022-04-28 09:13:11,2020-08-08,0.13576673513904317,0.3974051255339395,1.2491003591030998,,,,,,,,,,,,
29093,0,USMissouriIron,Missouri,Iron,2022-04-28 09:13:11,2020-08-09,0.13576673513904317,0.3974051255339395,1.2491003591030998,,,,,,,,,,,,
29093,0,USMissouriIron,Missouri,Iron,2022-04-28 09:13:11,2020-08-10,0.13576673513904317,0.3974051255339395,1.2491003591030998,,,,,,,,,,,,
29093,0,USMissouriIron,Missouri,Iron,2022-04-28 09:13:11,2020-08-11,0.13576673513904317,0.3974051255339395,1.2491003591030998,,,,,,,,,,,,
29093,0,USMissouriIron,Missouri,Iron,2022-04-28 09:13:11,2020-08-12,0.13576673513904317,0.3974051255339395,1.2491003591030998,,,,,,,,,,,,
29093,0,USMissouriIron,Missouri,Iron,2022-04-28 09:13:11,2020-08-13,0.504473403467406,1.0458845749201904,2.3278282956386342,,,,,,,,,,,,
29093,0,USMissouriIron,Missouri,Iron,2022-04-28 09:13:11,2020-08-14,0.504473403467406,1.0458845749201904,2.3278282956386342,,,,,,,,,,,,
29093,0,USMissouriIron,Missouri,Iron,2022-04-28 09:13:11,2020-08-15,0.504473403467406,1.0458845749201904,2.3278282956386342,,,,,,,,,,,,
29093,0,USMissouriIron,Missouri,Iron,2022-04-28 09:13:11,2020-08-16,0.504473403467406,1.0458845749201904,2.3278282956386342,,,,,,,,,,,,
29093,0,USMissouriIron,Missouri,Iron,2022-04-28 09:13:11,2020-08-17,0.504473403467406,1.0458845749201904,2.3278282956386342,,,,,,,,,,,,
29093,0,USMissouriIron,Missouri,Iron,2022-04-28 09:13:11,2020-08-18,0.504473403467406,1.0458845749201904,2.3278282956386342,,,,,,,,,,,,
29093,0,USMissouriIron,Missouri,Iron,2022-04-28 09:13:11,2020-08-19,0.504473403467406,1.0458845749201904,2.3278282956386342,,,,,,,,,,,,
29093,0,USMissouriIron,Missouri,Iron,2022-04-28 09:13:11,2020-08-20,0.5345089661197001,1.1673873582434624,2.740782549883302,,,,,,,,,,,,
29093,0,USMissouriIron,Missouri,Iron,2022-04-28 09:13:11,2020-08-21,0.5345089661197001,1.1673873582434624,2.740782549883302,,,,,,,,,,,,
29093,0,USMissouriIron,Missouri,Iron,2022-04-28 09:13:11,2020-08-22,0.5345089661197001,1.1673873582434624,2.740782549883302,,,,,,,,,,,,
29093,0,USMissouriIron,Missouri,Iron,2022-04-28 09:13:11,2020-08-23,0.5345089661197001,1.1673873582434624,2.740782549883302,,,,,,,,,,,,
29093,0,USMissouriIron,Missouri,Iron,2022-04-28 09:13:11,2020-08-24,0.5345089661197001,1.1673873582434624,2.740782549883302,,,,,,,,,,,,
29093,0,USMissouriIron,Missouri,Iron,2022-04-28 09:13:11,2020-08-25,0.5345089661197001,1.1673873582434624,2.740782549883302,,,,,,,,,,,,
29093,0,USMissouriIron,Missouri,Iron,2022-04-28 09:13:11,2020-08-26,0.5345089661197001,1.1673873582434624,2.740782549883302,,,,,,,,,,,,
29093,0,USMissouriIron,Missouri,Iron,2022-04-28 09:13:11,2020-08-27,0.42920519029169296,1.023904283214873,2.6285241000032586,,,,,,,,,,,,
29093,0,USMissouriIron,Missouri,Iron,2022-04-28 09:13:11,2020-08-28,0.42920519029169296,1.023904283214873,2.6285241000032586,,,,,,,,,,,,
29093,0,USMissouriIron,Missouri,Iron,2022-04-28 09:13:11,2020-08-29,0.42920519029169296,1.023904283214873,2.6285241000032586,,,,,,,,,,,,
29093,0,USMissouriIron,Missouri,Iron,2022-04-28 09:13:11,2020-08-30,0.42920519029169296,1.023904283214873,2.6285241000032586,,,,,,,,,,,,
29093,0,USMissouriIron,Missouri,Iron,2022-04-28 09:13:11,2020-08-31,0.42920519029169296,1.023904283214873,2.6285241000032586,,,,,,,,,,,,
29093,0,USMissouriIron,Missouri,Iron,2022-04-28 09:13:11,2020-09-01,0.42920519029169296,1.023904283214873,2.6285241000032586,,,,,,,,,,,,
29093,0,USMissouriIron,Missouri,Iron,2022-04-28 09:13:11,2020-09-02,0.42920519029169296,1.023904283214873,2.6285241000032586,,,,,,,,,,,,
29093,0,USMissouriIron,Missouri,Iron,2022-04-28 09:13:11,2020-09-03,0.08958686508640182,0.33059278884482624,1.3002854613109767,,,,,,,,,,,,
29093,0,USMissouriIron,Missouri,Iron,2022-04-28 09:13:11,2020-09-04,0.08958686508640182,0.33059278884482624,1.3002854613109767,,,,,,,,,,,,
29093,0,USMissouriIron,Missouri,Iron,2022-04-28 09:13:11,2020-09-05,0.08958686508640182,0.33059278884482624,1.3002854613109767,,,,,,,,,,,,
29093,0,USMissouriIron,Missouri,Iron,2022-04-28 09:13:11,2020-09-06,0.08958686508640182,0.33059278884482624,1.3002854613109767,,,,,,,,,,,,
29093,0,USMissouriIron,Missouri,Iron,2022-04-28 09:13:11,2020-09-07,0.08958686508640182,0.33059278884482624,1.3002854613109767,,,,,,,,,,,,
29093,0,USMissouriIron,Missouri,Iron,2022-04-28 09:13:11,2020-09-08,0.08958686508640182,0.33059278884482624,1.3002854613109767,,,,,,,,,,,,
29093,0,USMissouriIron,Missouri,Iron,2022-04-28 09:13:11,2020-09-09,0.08958686508640182,0.33059278884482624,1.3002854613109767,,,,,,,,,,,,
29093,0,USMissouriIron,Missouri,Iron,2022-04-28 09:13:11,2020-09-10,0.5099373765280444,1.067546134844373,2.3999644883025186,,,,,,,,,,,,
29093,0,USMissouriIron,Missouri,Iron,2022-04-28 09:13:11,2020-09-11,0.5099373765280444,1.067546134844373,2.3999644883025186,,,,,,,,,,,,
29093,0,USMissouriIron,Missouri,Iron,2022-04-28 09:13:11,2020-09-12,0.5099373765280444,1.067546134844373,2.3999644883025186,,,,,,,,,,,,
29093,0,USMissouriIron,Missouri,Iron,2022-04-28 09:13:11,2020-09-13,0.5099373765280444,1.067546134844373,2.3999644883025186,,,,,,,,,,,,
29093,0,USMissouriIron,Missouri,Iron,2022-04-28 09:13:11,2020-09-14,0.5099373765280444,1.067546134844373,2.3999644883025186,,,,,,,,,,,,
29093,0,USMissouriIron,Missouri,Iron,2022-04-28 09:13:11,2020-09-15,0.5099373765280444,1.067546134844373,2.3999644883025186,,,,,,,,,,,,
29093,0,USMissouriIron,Missouri,Iron,2022-04-28 09:13:11,2020-09-16,0.5099373765280444,1.067546134844373,2.3999644883025186,,,,,,,,,,,,
29093,0,USMissouriIron,Missouri,Iron,2022-04-28 09:13:11,2020-09-17,0.48181766369572443,1.0443347012636826,2.4329151094457275,,,,,,,,,,,,
29093,0,USMissouriIron,Missouri,Iron,2022-04-28 09:13:11,2020-09-18,0.48181766369572443,1.0443347012636826,2.4329151094457275,,,,,,,,,,,,
29093,0,USMissouriIron,Missouri,Iron,2022-04-28 09:13:11,2020-09-19,0.48181766369572443,1.0443347012636826,2.4329151094457275,,,,,,,,,,,,
29093,0,USMissouriIron,Missouri,Iron,2022-04-28 09:13:11,2020-09-20,0.48181766369572443,1.0443347012636826,2.4329151094457275,,,,,,,,,,,,
29093,0,USMissouriIron,Missouri,Iron,2022-04-28 09:13:11,2020-09-21,0.48181766369572443,1.0443347012636826,2.4329151094457275,,,,,,,,,,,,
29093,0,USMissouriIron,Missouri,Iron,2022-04-28 09:13:11,2020-09-22,0.48181766369572443,1.0443347012636826,2.4329151094457275,,,,,,,,,,,,
29093,0,USMissouriIron,Missouri,Iron,2022-04-28 09:13:11,2020-09-23,0.48181766369572443,1.0443347012636826,2.4329151094457275,,,,,,,,,,,,
29093,0,USMissouriIron,Missouri,Iron,2022-04-28 09:13:11,2020-09-24,0.20076021716831338,0.4513580533452237,1.0913989931536803,,,,,,,,,,,,
29093,0,USMissouriIron,Missouri,Iron,2022-04-28 09:13:11,2020-09-25,0.20076021716831338,0.4513580533452237,1.0913989931536803,,,,,,,,,,,,
29093,0,USMissouriIron,Missouri,Iron,2022-04-28 09:13:11,2020-09-26,0.20076021716831338,0.4513580533452237,1.0913989931536803,,,,,,,,,,,,
29093,0,USMissouriIron,Missouri,Iron,2022-04-28 09:13:11,2020-09-27,0.20076021716831338,0.4513580533452237,1.0913989931536803,,,,,,,,,,,,
29093,0,USMissouriIron,Missouri,Iron,2022-04-28 09:13:11,2020-09-28,0.20076021716831338,0.4513580533452237,1.0913989931536803,,,,,,,,,,,,
29093,0,USMissouriIron,Missouri,Iron,2022-04-28 09:13:11,2020-09-29,0.20076021716831338,0.4513580533452237,1.0913989931536803,,,,,,,,,,,,
29093,0,USMissouriIron,Missouri,Iron,2022-04-28 09:13:11,2020-09-30,0.20076021716831338,0.4513580533452237,1.0913989931536803,,,,,,,,,,,,
29093,0,USMissouriIron,Missouri,Iron,2022-04-28 09:13:11,2020-10-01,0.43909651099732067,0.9624856296438316,2.268085506206843,,,,,,,,,,,,
29093,0,USMissouriIron,Missouri,Iron,2022-04-28 09:13:11,2020-10-02,0.43909651099732067,0.9624856296438316,2.268085506206843,,,,,,,,,,,,
29093,0,USMissouriIron,Missouri,Iron,2022-04-28 09:13:11,2020-10-03,0.43909651099732067,0.9624856296438316,2.268085506206843,,,,,,,,,,,,
29093,0,USMissouriIron,Missouri,Iron,2022-04-28 09:13:11,2020-10-04,0.43909651099732067,0.9624856296438316,2.268085506206843,,,,,,,,,,,,
29093,0,USMissouriIron,Missouri,Iron,2022-04-28 09:13:11,2020-10-05,0.43909651099732067,0.9624856296438316,2.268085506206843,,,,,,,,,,,,
29093,0,USMissouriIron,Missouri,Iron,2022-04-28 09:13:11,2020-10-06,0.43909651099732067,0.9624856296438316,2.268085506206843,,,,,,,,,,,,
29093,0,USMissouriIron,Missouri,Iron,2022-04-28 09:13:11,2020-10-07,0.43909651099732067,0.9624856296438316,2.268085506206843,,,,,,,,,,,,
29093,0,USMissouriIron,Missouri,Iron,2022-04-28 09:13:11,2020-10-08,0.5193775975559894,0.949811490562103,1.8541113987246987,,,,,,,,,,,,
29093,0,USMissouriIron,Missouri,Iron,2022-04-28 09:13:11,2020-10-09,0.5193775975559894,0.949811490562103,1.8541113987246987,,,,,,,,,,,,
29093,0,USMissouriIron,Missouri,Iron,2022-04-28 09:13:11,2020-10-10,0.5193775975559894,0.949811490562103,1.8541113987246987,,,,,,,,,,,,
29093,0,USMissouriIron,Missouri,Iron,2022-04-28 09:13:11,2020-10-11,0.5193775975559894,0.949811490562103,1.8541113987246987,,,,,,,,,,,,
29093,0,USMissouriIron,Missouri,Iron,2022-04-28 09:13:11,2020-10-12,0.5193775975559894,0.949811490562103,1.8541113987246987,,,,,,,,,,,,
29093,0,USMissouriIron,Missouri,Iron,2022-04-28 09:13:11,2020-10-13,0.5193775975559894,0.949811490562103,1.8541113987246987,,,,,,,,,,,,
29093,0,USMissouriIron,Missouri,Iron,2022-04-28 09:13:11,2020-10-14,0.5193775975559894,0.949811490562103,1.8541113987246987,,,,,,,,,,,,
29093,0,USMissouriIron,Missouri,Iron,2022-04-28 09:13:11,2020-10-15,0.6741640146102752,1.3723900939785698,2.9974316726377435,,,,,,,,,,,,
29093,0,USMissouriIron,Missouri,Iron,2022-04-28 09:13:11,2020-10-16,0.6741640146102752,1.3723900939785698,2.9974316726377435,,,,,,,,,,,,
29093,0,USMissouriIron,Missouri,Iron,2022-04-28 09:13:11,2020-10-17,0.6741640146102752,1.3723900939785698,2.9974316726377435,,,,,,,,,,,,
29093,0,USMissouriIron,Missouri,Iron,2022-04-28 09:13:11,2020-10-18,0.6741640146102752,1.3723900939785698,2.9974316726377435,,,,,,,,,,,,
29093,0,USMissouriIron,Missouri,Iron,2022-04-28 09:13:11,2020-10-19,0.6741640146102752,1.3723900939785698,2.9974316726377435,,,,,,,,,,,,
29093,0,USMissouriIron,Missouri,Iron,2022-04-28 09:13:11,2020-10-20,0.6741640146102752,1.3723900939785698,2.9974316726377435,,,,,,,,,,,,
29093,0,USMissouriIron,Missouri,Iron,2022-04-28 09:13:11,2020-10-21,0.6741640146102752,1.3723900939785698,2.9974316726377435,,,,,,,,,,,,
29093,0,USMissouriIron,Missouri,Iron,2022-04-28 09:13:11,2020-10-22,0.502526163895067,1.1310596292218167,2.7380297921394527,,,,,,,,,,,,
29093,0,USMissouriIron,Missouri,Iron,2022-04-28 09:13:11,2020-10-23,0.502526163895067,1.1310596292218167,2.7380297921394527,,,,,,,,,,,,
29093,0,USMissouriIron,Missouri,Iron,2022-04-28 09:13:11,2020-10-24,0.502526163895067,1.1310596292218167,2.7380297921394527,,,,,,,,,,,,
29093,0,USMissouriIron,Missouri,Iron,2022-04-28 09:13:11,2020-10-25,0.502526163895067,1.1310596292218167,2.7380297921394527,,,,,,,,,,,,
29093,0,USMissouriIron,Missouri,Iron,2022-04-28 09:13:11,2020-10-26,0.502526163895067,1.1310596292218167,2.7380297921394527,,,,,,,,,,,,
29093,0,USMissouriIron,Missouri,Iron,2022-04-28 09:13:11,2020-10-27,0.502526163895067,1.1310596292218167,2.7380297921394527,,,,,,,,,,,,
29093,0,USMissouriIron,Missouri,Iron,2022-04-28 09:13:11,2020-10-28,0.502526163895067,1.1310596292218167,2.7380297921394527,,,,,,,,,,,,
29093,0,USMissouriIron,Missouri,Iron,2022-04-28 09:13:11,2020-10-29,0.9481272407211462,1.8579568612178805,3.9004368727657446,,,,,,,,,,,,
29093,0,USMissouriIron,Missouri,Iron,2022-04-28 09:13:11,2020-10-30,0.9481272407211462,1.8579568612178805,3.9004368727657446,,,,,,,,,,,,
29093,0,USMissouriIron,Missouri,Iron,2022-04-28 09:13:11,2020-10-31,0.9481272407211462,1.8579568612178805,3.9004368727657446,,,,,,,,,,,,
29093,0,USMissouriIron,Missouri,Iron,2022-04-28 09:13:11,2020-11-01,0.9481272407211462,1.8579568612178805,3.9004368727657446,,,,,,,,,,,,
29093,0,USMissouriIron,Missouri,Iron,2022-04-28 09:13:11,2020-11-02,0.9481272407211462,1.8579568612178805,3.9004368727657446,,,,,,,,,,,,
29093,0,USMissouriIron,Missouri,Iron,2022-04-28 09:13:11,2020-11-03,0.9481272407211462,1.8579568612178805,3.9004368727657446,,,,,,,,,,,,
29093,0,USMissouriIron,Missouri,Iron,2022-04-28 09:13:11,2020-11-04,0.9481272407211462,1.8579568612178805,3.9004368727657446,,,,,,,,,,,,
29093,0,USMissouriIron,Missouri,Iron,2022-04-28 09:13:11,2020-11-05,1.3709908580933998,3.01485557578118,7.1278116332525245,,,,,,,,,,,,
29093,0,USMissouriIron,Missouri,Iron,2022-04-28 09:13:11,2020-11-06,1.3709908580933998,3.01485557578118,7.1278116332525245,,,,,,,,,,,,
29093,0,USMissouriIron,Missouri,Iron,2022-04-28 09:13:11,2020-11-07,1.3709908580933998,3.01485557578118,7.1278116332525245,,,,,,,,,,,,
29093,0,USMissouriIron,Missouri,Iron,2022-04-28 09:13:11,2020-11-08,1.3709908580933998,3.01485557578118,7.1278116332525245,,,,,,,,,,,,
29093,0,USMissouriIron,Missouri,Iron,2022-04-28 09:13:11,2020-11-09,1.3709908580933998,3.01485557578118,7.1278116332525245,,,,,,,,,,,,
29093,0,USMissouriIron,Missouri,Iron,2022-04-28 09:13:11,2020-11-10,1.3709908580933998,3.01485557578118,7.1278116332525245,,,,,,,,,,,,
29093,0,USMissouriIron,Missouri,Iron,2022-04-28 09:13:11,2020-11-11,1.3709908580933998,3.01485557578118,7.1278116332525245,,,,,,,,,,,,
29093,0,USMissouriIron,Missouri,Iron,2022-04-28 09:13:11,2020-11-12,1.739093955430449,3.435289796536961,7.272119078951035,,,,,,,,,,,,
29093,0,USMissouriIron,Missouri,Iron,2022-04-28 09:13:11,2020-11-13,1.739093955430449,3.435289796536961,7.272119078951035,,,,,,,,,,,,
29093,0,USMissouriIron,Missouri,Iron,2022-04-28 09:13:11,2020-11-14,1.739093955430449,3.435289796536961,7.272119078951035,,,,,,,,,,,,
29093,0,USMissouriIron,Missouri,Iron,2022-04-28 09:13:11,2020-11-15,1.739093955430449,3.435289796536961,7.272119078951035,,,,,,,,,,,,
29093,0,USMissouriIron,Missouri,Iron,2022-04-28 09:13:11,2020-11-16,1.739093955430449,3.435289796536961,7.272119078951035,,,,,,,,,,,,
29093,0,USMissouriIron,Missouri,Iron,2022-04-28 09:13:11,2020-11-17,1.739093955430449,3.435289796536961,7.272119078951035,,,,,,,,,,,,
29093,0,USMissouriIron,Missouri,Iron,2022-04-28 09:13:11,2020-11-18,1.739093955430449,3.435289796536961,7.272119078951035,,,,,,,,,,,,
29093,0,USMissouriIron,Missouri,Iron,2022-04-28 09:13:11,2020-11-19,1.5000484662937246,3.0027757555902315,6.445118307905866,,,,,,,,,,,,
29093,0,USMissouriIron,Missouri,Iron,2022-04-28 09:13:11,2020-11-20,1.5000484662937246,3.0027757555902315,6.445118307905866,,,,,,,,,,,,
29093,0,USMissouriIron,Missouri,Iron,2022-04-28 09:13:11,2020-11-21,1.5000484662937246,3.0027757555902315,6.445118307905866,,,,,,,,,,,,
29093,0,USMissouriIron,Missouri,Iron,2022-04-28 09:13:11,2020-11-22,1.5000484662937246,3.0027757555902315,6.445118307905866,,,,,,,,,,,,
29093,0,USMissouriIron,Missouri,Iron,2022-04-28 09:13:11,2020-11-23,1.5000484662937246,3.0027757555902315,6.445118307905866,,,,,,,,,,,,
29093,0,USMissouriIron,Missouri,Iron,2022-04-28 09:13:11,2020-11-24,1.5000484662937246,3.0027757555902315,6.445118307905866,,,,,,,,,,,,
29093,0,USMissouriIron,Missouri,Iron,2022-04-28 09:13:11,2020-11-25,1.5000484662937246,3.0027757555902315,6.445118307905866,,,,,,,,,,,,
29093,0,USMissouriIron,Missouri,Iron,2022-04-28 09:13:11,2020-11-26,0.8970774499841019,2.004187127980856,4.815304031998562,,,,,,,,,,,,
29093,0,USMissouriIron,Missouri,Iron,2022-04-28 09:13:11,2020-11-27,0.8970774499841019,2.004187127980856,4.815304031998562,,,,,,,,,,,,
29093,0,USMissouriIron,Missouri,Iron,2022-04-28 09:13:11,2020-11-28,0.8970774499841019,2.004187127980856,4.815304031998562,,,,,,,,,,,,
29093,0,USMissouriIron,Missouri,Iron,2022-04-28 09:13:11,2020-11-29,0.8970774499841019,2.004187127980856,4.815304031998562,,,,,,,,,,,,
29093,0,USMissouriIron,Missouri,Iron,2022-04-28 09:13:11,2020-11-30,0.8970774499841019,2.004187127980856,4.815304031998562,,,,,,,,,,,,
29093,0,USMissouriIron,Missouri,Iron,2022-04-28 09:13:11,2020-12-01,0.8970774499841019,2.004187127980856,4.815304031998562,,,,,,,,,,,,
29093,0,USMissouriIron,Missouri,Iron,2022-04-28 09:13:11,2020-12-02,0.8970774499841019,2.004187127980856,4.815304031998562,,,,,,,,,,,,
29093,0,USMissouriIron,Missouri,Iron,2022-04-28 09:13:11,2020-12-03,1.2119613755145175,2.464355611276607,5.376011564140471,,,,,,,,,,,,
29093,0,USMissouriIron,Missouri,Iron,2022-04-28 09:13:11,2020-12-04,1.2119613755145175,2.464355611276607,5.376011564140471,,,,,,,,,,,,
29093,0,USMissouriIron,Missouri,Iron,2022-04-28 09:13:11,2020-12-05,1.2119613755145175,2.464355611276607,5.376011564140471,,,,,,,,,,,,
29093,0,USMissouriIron,Missouri,Iron,2022-04-28 09:13:11,2020-12-06,1.2119613755145175,2.464355611276607,5.376011564140471,,,,,,,,,,,,
29093,0,USMissouriIron,Missouri,Iron,2022-04-28 09:13:11,2020-12-07,1.2119613755145175,2.464355611276607,5.376011564140471,,,,,,,,,,,,
29093,0,USMissouriIron,Missouri,Iron,2022-04-28 09:13:11,2020-12-08,1.2119613755145175,2.464355611276607,5.376011564140471,,,,,,,,,,,,
29093,0,USMissouriIron,Missouri,Iron,2022-04-28 09:13:11,2020-12-09,1.2119613755145175,2.464355611276607,5.376011564140471,,,,,,,,,,,,
29093,0,USMissouriIron,Missouri,Iron,2022-04-28 09:13:11,2020-12-10,1.5980862948017003,2.9225017234719552,5.704972354571813,,,,,,,,,,,,
29093,0,USMissouriIron,Missouri,Iron,2022-04-28 09:13:11,2020-12-11,1.5980862948017003,2.9225017234719552,5.704972354571813,,,,,,,,,,,,
29093,0,USMissouriIron,Missouri,Iron,2022-04-28 09:13:11,2020-12-12,1.5980862948017003,2.9225017234719552,5.704972354571813,,,,,,,,,,,,
29093,0,USMissouriIron,Missouri,Iron,2022-04-28 09:13:11,2020-12-13,1.5980862948017003,2.9225017234719552,5.704972354571813,,,,,,,,,,,,
29093,0,USMissouriIron,Missouri,Iron,2022-04-28 09:13:11,2020-12-14,1.5980862948017003,2.9225017234719552,5.704972354571813,,,,,,,,,,,,
29093,0,USMissouriIron,Missouri,Iron,2022-04-28 09:13:11,2020-12-15,1.5980862948017003,2.9225017234719552,5.704972354571813,,,,,,,,,,,,
29093,0,USMissouriIron,Missouri,Iron,2022-04-28 09:13:11,2020-12-16,1.5980862948017003,2.9225017234719552,5.704972354571813,,,,,,,,,,,,
29093,0,USMissouriIron,Missouri,Iron,2022-04-28 09:13:11,2020-12-17,2.0007395318934877,3.414608681621154,6.190763185269989,,,,,,,,,,,,
29093,0,USMissouriIron,Missouri,Iron,2022-04-28 09:13:11,2020-12-18,2.0007395318934877,3.414608681621154,6.190763185269989,,,,,,,,,,,,
29093,0,USMissouriIron,Missouri,Iron,2022-04-28 09:13:11,2020-12-19,2.0007395318934877,3.414608681621154,6.190763185269989,,,,,,,,,,,,
29093,0,USMissouriIron,Missouri,Iron,2022-04-28 09:13:11,2020-12-20,2.0007395318934877,3.414608681621154,6.190763185269989,,,,,,,,,,,,
29093,0,USMissouriIron,Missouri,Iron,2022-04-28 09:13:11,2020-12-21,2.0007395318934877,3.414608681621154,6.190763185269989,,,,,,,,,,,,
29093,0,USMissouriIron,Missouri,Iron,2022-04-28 09:13:11,2020-12-22,2.0007395318934877,3.414608681621154,6.190763185269989,,,,,,,,,,,,
29093,0,USMissouriIron,Missouri,Iron,2022-04-28 09:13:11,2020-12-23,2.0007395318934877,3.414608681621154,6.190763185269989,,,,,,,,,,,,
29093,0,USMissouriIron,Missouri,Iron,2022-04-28 09:13:11,2020-12-24,1.500583292366283,2.715071535641677,5.240334612902423,,,,,,,,,,,,
29093,0,USMissouriIron,Missouri,Iron,2022-04-28 09:13:11,2020-12-25,1.500583292366283,2.715071535641677,5.240334612902423,,,,,,,,,,,,
29093,0,USMissouriIron,Missouri,Iron,2022-04-28 09:13:11,2020-12-26,1.500583292366283,2.715071535641677,5.240334612902423,,,,,,,,,,,,
29093,0,USMissouriIron,Missouri,Iron,2022-04-28 09:13:11,2020-12-27,1.500583292366283,2.715071535641677,5.240334612902423,,,,,,,,,,,,
29093,0,USMissouriIron,Missouri,Iron,2022-04-28 09:13:11,2020-12-28,1.500583292366283,2.715071535641677,5.240334612902423,,,,,,,,,,,,
29093,0,USMissouriIron,Missouri,Iron,2022-04-28 09:13:11,2020-12-29,1.500583292366283,2.715071535641677,5.240334612902423,,,,,,,,,,,,
29093,0,USMissouriIron,Missouri,Iron,2022-04-28 09:13:11,2020-12-30,1.500583292366283,2.715071535641677,5.240334612902423,,,,,,,,,,,,
29093,0,USMissouriIron,Missouri,Iron,2022-04-28 09:13:11,2020-12-31,0.8168677802404174,1.864709635257078,4.579067496364457,,,,,,,,,,,,
29093,0,USMissouriIron,Missouri,Iron,2022-04-28 09:13:11,2021-01-01,0.8168677802404174,1.864709635257078,4.579067496364457,,,,,,,,,,,,
29093,0,USMissouriIron,Missouri,Iron,2022-04-28 09:13:11,2021-01-02,0.8168677802404174,1.864709635257078,4.579067496364457,,,,,,,,,,,,
29093,0,USMissouriIron,Missouri,Iron,2022-04-28 09:13:11,2021-01-03,0.8168677802404174,1.864709635257078,4.579067496364457,,,,,,,,,,,,
29093,0,USMissouriIron,Missouri,Iron,2022-04-28 09:13:11,2021-01-04,0.8168677802404174,1.864709635257078,4.579067496364457,,,,,,,,,,,,
29093,0,USMissouriIron,Missouri,Iron,2022-04-28 09:13:11,2021-01-05,0.8168677802404174,1.864709635257078,4.579067496364457,,,,,,,,,,,,
29093,0,USMissouriIron,Missouri,Iron,2022-04-28 09:13:11,2021-01-06,0.8168677802404174,1.864709635257078,4.579067496364457,,,,,,,,,,,,
29093,0,USMissouriIron,Missouri,Iron,2022-04-28 09:13:11,2021-01-07,1.1674988086067415,2.2947881605934626,4.832752402982992,,,,,,,,,,,,
29093,0,USMissouriIron,Missouri,Iron,2022-04-28 09:13:11,2021-01-08,1.1674988086067415,2.2947881605934626,4.832752402982992,,,,,,,,,,,,
29093,0,USMissouriIron,Missouri,Iron,2022-04-28 09:13:11,2021-01-09,1.1674988086067415,2.2947881605934626,4.832752402982992,,,,,,,,,,,,
29093,0,USMissouriIron,Missouri,Iron,2022-04-28 09:13:11,2021-01-10,1.1674988086067415,2.2947881605934626,4.832752402982992,,,,,,,,,,,,
29093,0,USMissouriIron,Missouri,Iron,2022-04-28 09:13:11,2021-01-11,1.1674988086067415,2.2947881605934626,4.832752402982992,,,,,,,,,,,,
29093,0,USMissouriIron,Missouri,Iron,2022-04-28 09:13:11,2021-01-12,1.1674988086067415,2.2947881605934626,4.832752402982992,,,,,,,,,,,,
29093,0,USMissouriIron,Missouri,Iron,2022-04-28 09:13:11,2021-01-13,1.1674988086067415,2.2947881605934626,4.832752402982992,,,,,,,,,,,,
29093,0,USMissouriIron,Missouri,Iron,2022-04-28 09:13:11,2021-01-14,0.46700455924565953,1.0815693539925655,2.695008082173487,,,,,,,,,,,,
29093,0,USMissouriIron,Missouri,Iron,2022-04-28 09:13:11,2021-01-15,0.46700455924565953,1.0815693539925655,2.695008082173487,,,,,,,,,,,,
29093,0,USMissouriIron,Missouri,Iron,2022-04-28 09:13:11,2021-01-16,0.46700455924565953,1.0815693539925655,2.695008082173487,,,,,,,,,,,,
29093,0,USMissouriIron,Missouri,Iron,2022-04-28 09:13:11,2021-01-17,0.46700455924565953,1.0815693539925655,2.695008082173487,,,,,,,,,,,,
29093,0,USMissouriIron,Missouri,Iron,2022-04-28 09:13:11,2021-01-18,0.46700455924565953,1.0815693539925655,2.695008082173487,,,,,,,,,,,,
29093,0,USMissouriIron,Missouri,Iron,2022-04-28 09:13:11,2021-01-19,0.46700455924565953,1.0815693539925655,2.695008082173487,,,,,,,,,,,,
29093,0,USMissouriIron,Missouri,Iron,2022-04-28 09:13:11,2021-01-20,0.46700455924565953,1.0815693539925655,2.695008082173487,,,,,,,,,,,,
29093,0,USMissouriIron,Missouri,Iron,2022-04-28 09:13:11,2021-01-21,0.3750620153844826,0.8937025410123853,2.291600820528869,,,,,,,,,,,,
29093,0,USMissouriIron,Missouri,Iron,2022-04-28 09:13:11,2021-01-22,0.3750620153844826,0.8937025410123853,2.291600820528869,,,,,,,,,,,,
29093,0,USMissouriIron,Missouri,Iron,2022-04-28 09:13:11,2021-01-23,0.3750620153844826,0.8937025410123853,2.291600820528869,,,,,,,,,,,,
29093,0,USMissouriIron,Missouri,Iron,2022-04-28 09:13:11,2021-01-24,0.3750620153844826,0.8937025410123853,2.291600820528869,,,,,,,,,,,,
29093,0,USMissouriIron,Missouri,Iron,2022-04-28 09:13:11,2021-01-25,0.3750620153844826,0.8937025410123853,2.291600820528869,,,,,,,,,,,,
29093,0,USMissouriIron,Missouri,Iron,2022-04-28 09:13:11,2021-01-26,0.3750620153844826,0.8937025410123853,2.291600820528869,,,,,,,,,,,,
29093,0,USMissouriIron,Missouri,Iron,2022-04-28 09:13:11,2021-01-27,0.3750620153844826,0.8937025410123853,2.291600820528869,,,,,,,,,,,,
29093,0,USMissouriIron,Missouri,Iron,2022-04-28 09:13:11,2021-01-28,0.1932965248595716,0.5410569504236329,1.6277408670124838,,,,,,,,,,,,
29093,0,USMissouriIron,Missouri,Iron,2022-04-28 09:13:11,2021-01-29,0.1932965248595716,0.5410569504236329,1.6277408670124838,,,,,,,,,,,,
29093,0,USMissouriIron,Missouri,Iron,2022-04-28 09:13:11,2021-01-30,0.1932965248595716,0.5410569504236329,1.6277408670124838,,,,,,,,,,,,
29093,0,USMissouriIron,Missouri,Iron,2022-04-28 09:13:11,2021-01-31,0.1932965248595716,0.5410569504236329,1.6277408670124838,,,,,,,,,,,,
29093,0,USMissouriIron,Missouri,Iron,2022-04-28 09:13:11,2021-02-01,0.1932965248595716,0.5410569504236329,1.6277408670124838,,,,,,,,,,,,
29093,0,USMissouriIron,Missouri,Iron,2022-04-28 09:13:11,2021-02-02,0.1932965248595716,0.5410569504236329,1.6277408670124838,,,,,,,,,,,,
29093,0,USMissouriIron,Missouri,Iron,2022-04-28 09:13:11,2021-02-03,0.1932965248595716,0.5410569504236329,1.6277408670124838,,,,,,,,,,,,
29093,0,USMissouriIron,Missouri,Iron,2022-04-28 09:13:11,2021-02-04,0.26874405938704177,0.6421490273226548,1.6511777015936733,,,,,,,,,,,,
29093,0,USMissouriIron,Missouri,Iron,2022-04-28 09:13:11,2021-02-05,0.26874405938704177,0.6421490273226548,1.6511777015936733,,,,,,,,,,,,
29093,0,USMissouriIron,Missouri,Iron,2022-04-28 09:13:11,2021-02-06,0.26874405938704177,0.6421490273226548,1.6511777015936733,,,,,,,,,,,,
29093,0,USMissouriIron,Missouri,Iron,2022-04-28 09:13:11,2021-02-07,0.26874405938704177,0.6421490273226548,1.6511777015936733,,,,,,,,,,,,
29093,0,USMissouriIron,Missouri,Iron,2022-04-28 09:13:11,2021-02-08,0.26874405938704177,0.6421490273226548,1.6511777015936733,,,,,,,,,,,,
29093,0,USMissouriIron,Missouri,Iron,2022-04-28 09:13:11,2021-02-09,0.26874405938704177,0.6421490273226548,1.6511777015936733,,,,,,,,,,,,
29093,0,USMissouriIron,Missouri,Iron,2022-04-28 09:13:11,2021-02-10,0.26874405938704177,0.6421490273226548,1.6511777015936733,,,,,,,,,,,,
29093,0,USMissouriIron,Missouri,Iron,2022-04-28 09:13:11,2021-02-11,0.21924803156783287,0.5330269121293635,1.3945757255436624,,,,,,,,,,,,
29093,0,USMissouriIron,Missouri,Iron,2022-04-28 09:13:11,2021-02-12,0.21924803156783287,0.5330269121293635,1.3945757255436624,,,,,,,,,,,,
29093,0,USMissouriIron,Missouri,Iron,2022-04-28 09:13:11,2021-02-13,0.21924803156783287,0.5330269121293635,1.3945757255436624,,,,,,,,,,,,
29093,0,USMissouriIron,Missouri,Iron,2022-04-28 09:13:11,2021-02-14,0.21924803156783287,0.5330269121293635,1.3945757255436624,,,,,,,,,,,,
29093,0,USMissouriIron,Missouri,Iron,2022-04-28 09:13:11,2021-02-15,0.21924803156783287,0.5330269121293635,1.3945757255436624,,,,,,,,,,,,
29093,0,USMissouriIron,Missouri,Iron,2022-04-28 09:13:11,2021-02-16,0.21924803156783287,0.5330269121293635,1.3945757255436624,,,,,,,,,,,,
29093,0,USMissouriIron,Missouri,Iron,2022-04-28 09:13:11,2021-02-17,0.21924803156783287,0.5330269121293635,1.3945757255436624,,,,,,,,,,,,
29093,0,USMissouriIron,Missouri,Iron,2022-04-28 09:13:11,2021-02-18,0.16744283798412415,0.4136320164512182,1.0996129414278264,,,,,,,,,,,,
29093,0,USMissouriIron,Missouri,Iron,2022-04-28 09:13:11,2021-02-19,0.16744283798412415,0.4136320164512182,1.0996129414278264,,,,,,,,,,,,
29093,0,USMissouriIron,Missouri,Iron,2022-04-28 09:13:11,2021-02-20,0.16744283798412415,0.4136320164512182,1.0996129414278264,,,,,,,,,,,,
29093,0,USMissouriIron,Missouri,Iron,2022-04-28 09:13:11,2021-02-21,0.16744283798412415,0.4136320164512182,1.0996129414278264,,,,,,,,,,,,
29093,0,USMissouriIron,Missouri,Iron,2022-04-28 09:13:11,2021-02-22,0.16744283798412415,0.4136320164512182,1.0996129414278264,,,,,,,,,,,,
29093,0,USMissouriIron,Missouri,Iron,2022-04-28 09:13:11,2021-02-23,0.16744283798412415,0.4136320164512182,1.0996129414278264,,,,,,,,,,,,
29093,0,USMissouriIron,Missouri,Iron,2022-04-28 09:13:11,2021-02-24,0.16744283798412415,0.4136320164512182,1.0996129414278264,,,,,,,,,,,,
29093,0,USMissouriIron,Missouri,Iron,2022-04-28 09:13:11,2021-02-25,0.11149168360577505,0.49056171348197136,2.2837328998442974,,,,,,,,,,,,
29093,0,USMissouriIron,Missouri,Iron,2022-04-28 09:13:11,2021-02-26,0.11149168360577505,0.49056171348197136,2.2837328998442974,,,,,,,,,,,,
29093,0,USMissouriIron,Missouri,Iron,2022-04-28 09:13:11,2021-02-27,0.11149168360577505,0.49056171348197136,2.2837328998442974,,,,,,,,,,,,
29093,0,USMissouriIron,Missouri,Iron,2022-04-28 09:13:11,2021-02-28,0.11149168360577505,0.49056171348197136,2.2837328998442974,,,,,,,,,,,,
29093,0,USMissouriIron,Missouri,Iron,2022-04-28 09:13:11,2021-03-01,0.11149168360577505,0.49056171348197136,2.2837328998442974,,,,,,,,,,,,
29093,0,USMissouriIron,Missouri,Iron,2022-04-28 09:13:11,2021-03-02,0.11149168360577505,0.49056171348197136,2.2837328998442974,,,,,,,,,,,,
29093,0,USMissouriIron,Missouri,Iron,2022-04-28 09:13:11,2021-03-03,0.11149168360577505,0.49056171348197136,2.2837328998442974,,,,,,,,,,,,
29093,0,USMissouriIron,Missouri,Iron,2022-04-28 09:13:11,2021-03-04,0.15300427332559233,0.8606285735896696,5.0667513822797074,,,,,,,,,,,,
29093,0,USMissouriIron,Missouri,Iron,2022-04-28 09:13:11,2021-03-05,0.15300427332559233,0.8606285735896696,5.0667513822797074,,,,,,,,,,,,
29093,0,USMissouriIron,Missouri,Iron,2022-04-28 09:13:11,2021-03-06,0.15300427332559233,0.8606285735896696,5.0667513822797074,,,,,,,,,,,,
29093,0,USMissouriIron,Missouri,Iron,2022-04-28 09:13:11,2021-03-07,0.15300427332559233,0.8606285735896696,5.0667513822797074,,,,,,,,,,,,
29093,0,USMissouriIron,Missouri,Iron,2022-04-28 09:13:11,2021-03-08,0.15300427332559233,0.8606285735896696,5.0667513822797074,,,,,,,,,,,,
29093,0,USMissouriIron,Missouri,Iron,2022-04-28 09:13:11,2021-03-09,0.15300427332559233,0.8606285735896696,5.0667513822797074,,,,,,,,,,,,
29093,0,USMissouriIron,Missouri,Iron,2022-04-28 09:13:11,2021-03-10,0.15300427332559233,0.8606285735896696,5.0667513822797074,,,,,,,,,,,,
29093,0,USMissouriIron,Missouri,Iron,2022-04-28 09:13:11,2021-03-11,8.906896519996385,9.14394261142572,9.393149969385894,,,,,,,,,,,,
29093,0,USMissouriIron,Missouri,Iron,2022-04-28 09:13:11,2021-03-12,8.906896519996385,9.14394261142572,9.393149969385894,,,,,,,,,,,,
29093,0,USMissouriIron,Missouri,Iron,2022-04-28 09:13:11,2021-03-13,8.906896519996385,9.14394261142572,9.393149969385894,,,,,,,,,,,,
29093,0,USMissouriIron,Missouri,Iron,2022-04-28 09:13:11,2021-03-14,8.906896519996385,9.14394261142572,9.393149969385894,,,,,,,,,,,,
29093,0,USMissouriIron,Missouri,Iron,2022-04-28 09:13:11,2021-03-15,8.906896519996385,9.14394261142572,9.393149969385894,,,,,,,,,,,,
29093,0,USMissouriIron,Missouri,Iron,2022-04-28 09:13:11,2021-03-16,8.906896519996385,9.14394261142572,9.393149969385894,,,,,,,,,,,,
29093,0,USMissouriIron,Missouri,Iron,2022-04-28 09:13:11,2021-03-17,8.906896519996385,9.14394261142572,9.393149969385894,,,,,,,,,,,,
29093,0,USMissouriIron,Missouri,Iron,2022-04-28 09:13:11,2021-03-18,0.20983389458602858,0.6300530539697595,2.03018321577008,,,,,,,,,,,,
29093,0,USMissouriIron,Missouri,Iron,2022-04-28 09:13:11,2021-03-19,0.20983389458602858,0.6300530539697595,2.03018321577008,,,,,,,,,,,,
29093,0,USMissouriIron,Missouri,Iron,2022-04-28 09:13:11,2021-03-20,0.20983389458602858,0.6300530539697595,2.03018321577008,,,,,,,,,,,,
29093,0,USMissouriIron,Missouri,Iron,2022-04-28 09:13:11,2021-03-21,0.20983389458602858,0.6300530539697595,2.03018321577008,,,,,,,,,,,,
29093,0,USMissouriIron,Missouri,Iron,2022-04-28 09:13:11,2021-03-22,0.20983389458602858,0.6300530539697595,2.03018321577008,,,,,,,,,,,,
29093,0,USMissouriIron,Missouri,Iron,2022-04-28 09:13:11,2021-03-23,0.20983389458602858,0.6300530539697595,2.03018321577008,,,,,,,,,,,,
29093,0,USMissouriIron,Missouri,Iron,2022-04-28 09:13:11,2021-03-24,0.20983389458602858,0.6300530539697595,2.03018321577008,,,,,,,,,,,,
29093,0,USMissouriIron,Missouri,Iron,2022-04-28 09:13:11,2021-03-25,0.07075649631132187,0.21454639257824493,0.6979478229408086,,,,,,,,,,,,
29093,0,USMissouriIron,Missouri,Iron,2022-04-28 09:13:11,2021-03-26,0.07075649631132187,0.21454639257824493,0.6979478229408086,,,,,,,,,,,,
29093,0,USMissouriIron,Missouri,Iron,2022-04-28 09:13:11,2021-03-27,0.07075649631132187,0.21454639257824493,0.6979478229408086,,,,,,,,,,,,
29093,0,USMissouriIron,Missouri,Iron,2022-04-28 09:13:11,2021-03-28,0.07075649631132187,0.21454639257824493,0.6979478229408086,,,,,,,,,,,,
29093,0,USMissouriIron,Missouri,Iron,2022-04-28 09:13:11,2021-03-29,0.07075649631132187,0.21454639257824493,0.6979478229408086,,,,,,,,,,,,
29093,0,USMissouriIron,Missouri,Iron,2022-04-28 09:13:11,2021-03-30,0.07075649631132187,0.21454639257824493,0.6979478229408086,,,,,,,,,,,,
29093,0,USMissouriIron,Missouri,Iron,2022-04-28 09:13:11,2021-03-31,0.07075649631132187,0.21454639257824493,0.6979478229408086,,,,,,,,,,,,
29093,0,USMissouriIron,Missouri,Iron,2022-04-28 09:13:11,2021-04-01,0,0,0,,,,,,,,,,,,
29093,0,USMissouriIron,Missouri,Iron,2022-04-28 09:13:11,2021-04-02,0,0,0,,,,,,,,,,,,
29093,0,USMissouriIron,Missouri,Iron,2022-04-28 09:13:11,2021-04-03,0,0,0,,,,,,,,,,,,
29093,0,USMissouriIron,Missouri,Iron,2022-04-28 09:13:11,2021-04-04,0,0,0,,,,,,,,,,,,
29093,0,USMissouriIron,Missouri,Iron,2022-04-28 09:13:11,2021-04-05,0,0,0,,,,,,,,,,,,
29093,0,USMissouriIron,Missouri,Iron,2022-04-28 09:13:11,2021-04-06,0,0,0,,,,,,,,,,,,
29093,0,USMissouriIron,Missouri,Iron,2022-04-28 09:13:11,2021-04-07,0,0,0,,,,,,,,,,,,
29093,0,USMissouriIron,Missouri,Iron,2022-04-28 09:13:11,2021-04-08,0.3453624523067665,0.7646520636189595,1.820389238038006,,,,,,,,,,,,
29093,0,USMissouriIron,Missouri,Iron,2022-04-28 09:13:11,2021-04-09,0.3453624523067665,0.7646520636189595,1.820389238038006,,,,,,,,,,,,
29093,0,USMissouriIron,Missouri,Iron,2022-04-28 09:13:11,2021-04-10,0.3453624523067665,0.7646520636189595,1.820389238038006,,,,,,,,,,,,
29093,0,USMissouriIron,Missouri,Iron,2022-04-28 09:13:11,2021-04-11,0.3453624523067665,0.7646520636189595,1.820389238038006,,,,,,,,,,,,
29093,0,USMissouriIron,Missouri,Iron,2022-04-28 09:13:11,2021-04-12,0.3453624523067665,0.7646520636189595,1.820389238038006,,,,,,,,,,,,
29093,0,USMissouriIron,Missouri,Iron,2022-04-28 09:13:11,2021-04-13,0.3453624523067665,0.7646520636189595,1.820389238038006,,,,,,,,,,,,
29093,0,USMissouriIron,Missouri,Iron,2022-04-28 09:13:11,2021-04-14,0.3453624523067665,0.7646520636189595,1.820389238038006,,,,,,,,,,,,
29093,0,USMissouriIron,Missouri,Iron,2022-04-28 09:13:11,2021-04-15,0.15327334332031547,0.3501108502962327,0.8603084383954086,,,,,,,,,,,,
29093,0,USMissouriIron,Missouri,Iron,2022-04-28 09:13:11,2021-04-16,0.15327334332031547,0.3501108502962327,0.8603084383954086,,,,,,,,,,,,
29093,0,USMissouriIron,Missouri,Iron,2022-04-28 09:13:11,2021-04-17,0.15327334332031547,0.3501108502962327,0.8603084383954086,,,,,,,,,,,,
29093,0,USMissouriIron,Missouri,Iron,2022-04-28 09:13:11,2021-04-18,0.15327334332031547,0.3501108502962327,0.8603084383954086,,,,,,,,,,,,
29093,0,USMissouriIron,Missouri,Iron,2022-04-28 09:13:11,2021-04-19,0.15327334332031547,0.3501108502962327,0.8603084383954086,,,,,,,,,,,,
29093,0,USMissouriIron,Missouri,Iron,2022-04-28 09:13:11,2021-04-20,0.15327334332031547,0.3501108502962327,0.8603084383954086,,,,,,,,,,,,
29093,0,USMissouriIron,Missouri,Iron,2022-04-28 09:13:11,2021-04-21,0.15327334332031547,0.3501108502962327,0.8603084383954086,,,,,,,,,,,,
29093,0,USMissouriIron,Missouri,Iron,2022-04-28 09:13:11,2021-04-22,0.42547704232409933,0.8240987628631263,1.7090799243044863,,,,,,,,,,,,
29093,0,USMissouriIron,Missouri,Iron,2022-04-28 09:13:11,2021-04-23,0.42547704232409933,0.8240987628631263,1.7090799243044863,,,,,,,,,,,,
29093,0,USMissouriIron,Missouri,Iron,2022-04-28 09:13:11,2021-04-24,0.42547704232409933,0.8240987628631263,1.7090799243044863,,,,,,,,,,,,
29093,0,USMissouriIron,Missouri,Iron,2022-04-28 09:13:11,2021-04-25,0.42547704232409933,0.8240987628631263,1.7090799243044863,,,,,,,,,,,,
29093,0,USMissouriIron,Missouri,Iron,2022-04-28 09:13:11,2021-04-26,0.42547704232409933,0.8240987628631263,1.7090799243044863,,,,,,,,,,,,
29093,0,USMissouriIron,Missouri,Iron,2022-04-28 09:13:11,2021-04-27,0.42547704232409933,0.8240987628631263,1.7090799243044863,,,,,,,,,,,,
29093,0,USMissouriIron,Missouri,Iron,2022-04-28 09:13:11,2021-04-28,0.42547704232409933,0.8240987628631263,1.7090799243044863,,,,,,,,,,,,
29093,0,USMissouriIron,Missouri,Iron,2022-04-28 09:13:11,2021-04-29,0.6193795786618621,1.1004390813189397,2.083104292434175,,,,,,,,,,,,
29093,0,USMissouriIron,Missouri,Iron,2022-04-28 09:13:11,2021-04-30,0.6193795786618621,1.1004390813189397,2.083104292434175,,,,,,,,,,,,
29093,0,USMissouriIron,Missouri,Iron,2022-04-28 09:13:11,2021-05-01,0.6193795786618621,1.1004390813189397,2.083104292434175,,,,,,,,,,,,
29093,0,USMissouriIron,Missouri,Iron,2022-04-28 09:13:11,2021-05-02,0.6193795786618621,1.1004390813189397,2.083104292434175,,,,,,,,,,,,
29093,0,USMissouriIron,Missouri,Iron,2022-04-28 09:13:11,2021-05-03,0.6193795786618621,1.1004390813189397,2.083104292434175,,,,,,,,,,,,
29093,0,USMissouriIron,Missouri,Iron,2022-04-28 09:13:11,2021-05-04,0.6193795786618621,1.1004390813189397,2.083104292434175,,,,,,,,,,,,
29093,0,USMissouriIron,Missouri,Iron,2022-04-28 09:13:11,2021-05-05,0.6193795786618621,1.1004390813189397,2.083104292434175,,,,,,,,,,,,
29093,0,USMissouriIron,Missouri,Iron,2022-04-28 09:13:11,2021-05-06,0.38442697831920536,0.8312465855712535,1.9317603518064392,,,,,,,,,,,,
29093,0,USMissouriIron,Missouri,Iron,2022-04-28 09:13:11,2021-05-07,0.38442697831920536,0.8312465855712535,1.9317603518064392,,,,,,,,,,,,
29093,0,USMissouriIron,Missouri,Iron,2022-04-28 09:13:11,2021-05-08,0.38442697831920536,0.8312465855712535,1.9317603518064392,,,,,,,,,,,,
29093,0,USMissouriIron,Missouri,Iron,2022-04-28 09:13:11,2021-05-09,0.38442697831920536,0.8312465855712535,1.9317603518064392,,,,,,,,,,,,
29093,0,USMissouriIron,Missouri,Iron,2022-04-28 09:13:11,2021-05-10,0.38442697831920536,0.8312465855712535,1.9317603518064392,,,,,,,,,,,,
29093,0,USMissouriIron,Missouri,Iron,2022-04-28 09:13:11,2021-05-11,0.38442697831920536,0.8312465855712535,1.9317603518064392,,,,,,,,,,,,
29093,0,USMissouriIron,Missouri,Iron,2022-04-28 09:13:11,2021-05-12,0.38442697831920536,0.8312465855712535,1.9317603518064392,,,,,,,,,,,,
29093,0,USMissouriIron,Missouri,Iron,2022-04-28 09:13:11,2021-05-13,0.28579720936200953,0.6131160245261456,1.4133693158425542,,,,,,,,,,,,
29093,0,USMissouriIron,Missouri,Iron,2022-04-28 09:13:11,2021-05-14,0.28579720936200953,0.6131160245261456,1.4133693158425542,,,,,,,,,,,,
29093,0,USMissouriIron,Missouri,Iron,2022-04-28 09:13:11,2021-05-15,0.28579720936200953,0.6131160245261456,1.4133693158425542,,,,,,,,,,,,
29093,0,USMissouriIron,Missouri,Iron,2022-04-28 09:13:11,2021-05-16,0.28579720936200953,0.6131160245261456,1.4133693158425542,,,,,,,,,,,,
29093,0,USMissouriIron,Missouri,Iron,2022-04-28 09:13:11,2021-05-17,0.28579720936200953,0.6131160245261456,1.4133693158425542,,,,,,,,,,,,
29093,0,USMissouriIron,Missouri,Iron,2022-04-28 09:13:11,2021-05-18,0.28579720936200953,0.6131160245261456,1.4133693158425542,,,,,,,,,,,,
29093,0,USMissouriIron,Missouri,Iron,2022-04-28 09:13:11,2021-05-19,0.28579720936200953,0.6131160245261456,1.4133693158425542,,,,,,,,,,,,
29093,0,USMissouriIron,Missouri,Iron,2022-04-28 09:13:11,2021-05-20,0.2957787401760938,0.6543831472521426,1.5566938075123946,,,,,,,,,,,,
29093,0,USMissouriIron,Missouri,Iron,2022-04-28 09:13:11,2021-05-21,0.2957787401760938,0.6543831472521426,1.5566938075123946,,,,,,,,,,,,
29093,0,USMissouriIron,Missouri,Iron,2022-04-28 09:13:11,2021-05-22,0.2957787401760938,0.6543831472521426,1.5566938075123946,,,,,,,,,,,,
29093,0,USMissouriIron,Missouri,Iron,2022-04-28 09:13:11,2021-05-23,0.2957787401760938,0.6543831472521426,1.5566938075123946,,,,,,,,,,,,
29093,0,USMissouriIron,Missouri,Iron,2022-04-28 09:13:11,2021-05-24,0.2957787401760938,0.6543831472521426,1.5566938075123946,,,,,,,,,,,,
29093,0,USMissouriIron,Missouri,Iron,2022-04-28 09:13:11,2021-05-25,0.2957787401760938,0.6543831472521426,1.5566938075123946,,,,,,,,,,,,
29093,0,USMissouriIron,Missouri,Iron,2022-04-28 09:13:11,2021-05-26,0.2957787401760938,0.6543831472521426,1.5566938075123946,,,,,,,,,,,,
29093,0,USMissouriIron,Missouri,Iron,2022-04-28 09:13:11,2021-05-27,0.1333094358314823,0.3841676527840029,1.189198712898545,,,,,,,,,,,,
29093,0,USMissouriIron,Missouri,Iron,2022-04-28 09:13:11,2021-05-28,0.1333094358314823,0.3841676527840029,1.189198712898545,,,,,,,,,,,,
29093,0,USMissouriIron,Missouri,Iron,2022-04-28 09:13:11,2021-05-29,0.1333094358314823,0.3841676527840029,1.189198712898545,,,,,,,,,,,,
29093,0,USMissouriIron,Missouri,Iron,2022-04-28 09:13:11,2021-05-30,0.1333094358314823,0.3841676527840029,1.189198712898545,,,,,,,,,,,,
29093,0,USMissouriIron,Missouri,Iron,2022-04-28 09:13:11,2021-05-31,0.1333094358314823,0.3841676527840029,1.189198712898545,,,,,,,,,,,,
29093,0,USMissouriIron,Missouri,Iron,2022-04-28 09:13:11,2021-06-01,0.1333094358314823,0.3841676527840029,1.189198712898545,,,,,,,,,,,,
29093,0,USMissouriIron,Missouri,Iron,2022-04-28 09:13:11,2021-06-02,0.1333094358314823,0.3841676527840029,1.189198712898545,,,,,,,,,,,,
29093,0,USMissouriIron,Missouri,Iron,2022-04-28 09:13:11,2021-06-03,0.08141436388334534,0.27768412257726344,1.0124357334595506,,,,,,,,,,,,
29093,0,USMissouriIron,Missouri,Iron,2022-04-28 09:13:11,2021-06-04,0.08141436388334534,0.27768412257726344,1.0124357334595506,,,,,,,,,,,,
29093,0,USMissouriIron,Missouri,Iron,2022-04-28 09:13:11,2021-06-05,0.08141436388334534,0.27768412257726344,1.0124357334595506,,,,,,,,,,,,
29093,0,USMissouriIron,Missouri,Iron,2022-04-28 09:13:11,2021-06-06,0.08141436388334534,0.27768412257726344,1.0124357334595506,,,,,,,,,,,,
29093,0,USMissouriIron,Missouri,Iron,2022-04-28 09:13:11,2021-06-07,0.08141436388334534,0.27768412257726344,1.0124357334595506,,,,,,,,,,,,
29093,0,USMissouriIron,Missouri,Iron,2022-04-28 09:13:11,2021-06-08,0.08141436388334534,0.27768412257726344,1.0124357334595506,,,,,,,,,,,,
29093,0,USMissouriIron,Missouri,Iron,2022-04-28 09:13:11,2021-06-09,0.08141436388334534,0.27768412257726344,1.0124357334595506,,,,,,,,,,,,
29093,0,USMissouriIron,Missouri,Iron,2022-04-28 09:13:11,2021-06-10,0.1410460914874505,0.4264800371077316,1.38361419550524,,,,,,,,,,,,
29093,0,USMissouriIron,Missouri,Iron,2022-04-28 09:13:11,2021-06-11,0.1410460914874505,0.4264800371077316,1.38361419550524,,,,,,,,,,,,
29093,0,USMissouriIron,Missouri,Iron,2022-04-28 09:13:11,2021-06-12,0.1410460914874505,0.4264800371077316,1.38361419550524,,,,,,,,,,,,
29093,0,USMissouriIron,Missouri,Iron,2022-04-28 09:13:11,2021-06-13,0.1410460914874505,0.4264800371077316,1.38361419550524,,,,,,,,,,,,
29093,0,USMissouriIron,Missouri,Iron,2022-04-28 09:13:11,2021-06-14,0.1410460914874505,0.4264800371077316,1.38361419550524,,,,,,,,,,,,
29093,0,USMissouriIron,Missouri,Iron,2022-04-28 09:13:11,2021-06-15,0.1410460914874505,0.4264800371077316,1.38361419550524,,,,,,,,,,,,
29093,0,USMissouriIron,Missouri,Iron,2022-04-28 09:13:11,2021-06-16,0.1410460914874505,0.4264800371077316,1.38361419550524,,,,,,,,,,,,
29093,0,USMissouriIron,Missouri,Iron,2022-04-28 09:13:11,2021-06-17,0.24913056250115898,0.6772208007058411,1.9795473448190912,,,,,,,,,,,,
29093,0,USMissouriIron,Missouri,Iron,2022-04-28 09:13:11,2021-06-18,0.24913056250115898,0.6772208007058411,1.9795473448190912,,,,,,,,,,,,
29093,0,USMissouriIron,Missouri,Iron,2022-04-28 09:13:11,2021-06-19,0.24913056250115898,0.6772208007058411,1.9795473448190912,,,,,,,,,,,,
29093,0,USMissouriIron,Missouri,Iron,2022-04-28 09:13:11,2021-06-20,0.24913056250115898,0.6772208007058411,1.9795473448190912,,,,,,,,,,,,
29093,0,USMissouriIron,Missouri,Iron,2022-04-28 09:13:11,2021-06-21,0.24913056250115898,0.6772208007058411,1.9795473448190912,,,,,,,,,,,,
29093,0,USMissouriIron,Missouri,Iron,2022-04-28 09:13:11,2021-06-22,0.24913056250115898,0.6772208007058411,1.9795473448190912,,,,,,,,,,,,
29093,0,USMissouriIron,Missouri,Iron,2022-04-28 09:13:11,2021-06-23,0.24913056250115898,0.6772208007058411,1.9795473448190912,,,,,,,,,,,,
29093,0,USMissouriIron,Missouri,Iron,2022-04-28 09:13:11,2021-06-24,0.3457528718081516,0.8783916393804712,2.401293520314675,,,,,,,,,,,,
29093,0,USMissouriIron,Missouri,Iron,2022-04-28 09:13:11,2021-06-25,0.3457528718081516,0.8783916393804712,2.401293520314675,,,,,,,,,,,,
29093,0,USMissouriIron,Missouri,Iron,2022-04-28 09:13:11,2021-06-26,0.3457528718081516,0.8783916393804712,2.401293520314675,,,,,,,,,,,,
29093,0,USMissouriIron,Missouri,Iron,2022-04-28 09:13:11,2021-06-27,0.3457528718081516,0.8783916393804712,2.401293520314675,,,,,,,,,,,,
29093,0,USMissouriIron,Missouri,Iron,2022-04-28 09:13:11,2021-06-28,0.3457528718081516,0.8783916393804712,2.401293520314675,,,,,,,,,,,,
29093,0,USMissouriIron,Missouri,Iron,2022-04-28 09:13:11,2021-06-29,0.3457528718081516,0.8783916393804712,2.401293520314675,,,,,,,,,,,,
29093,0,USMissouriIron,Missouri,Iron,2022-04-28 09:13:11,2021-06-30,0.3457528718081516,0.8783916393804712,2.401293520314675,,,,,,,,,,,,
29093,0,USMissouriIron,Missouri,Iron,2022-04-28 09:13:11,2021-07-01,0.09900617479400979,0.39621405068264354,1.6844786595597083,,,,,,,,,,,,
29093,0,USMissouriIron,Missouri,Iron,2022-04-28 09:13:11,2021-07-02,0.09900617479400979,0.39621405068264354,1.6844786595597083,,,,,,,,,,,,
29093,0,USMissouriIron,Missouri,Iron,2022-04-28 09:13:11,2021-07-03,0.09900617479400979,0.39621405068264354,1.6844786595597083,,,,,,,,,,,,
29093,0,USMissouriIron,Missouri,Iron,2022-04-28 09:13:11,2021-07-04,0.09900617479400979,0.39621405068264354,1.6844786595597083,,,,,,,,,,,,
29093,0,USMissouriIron,Missouri,Iron,2022-04-28 09:13:11,2021-07-05,0.09900617479400979,0.39621405068264354,1.6844786595597083,,,,,,,,,,,,
29093,0,USMissouriIron,Missouri,Iron,2022-04-28 09:13:11,2021-07-06,0.09900617479400979,0.39621405068264354,1.6844786595597083,,,,,,,,,,,,
29093,0,USMissouriIron,Missouri,Iron,2022-04-28 09:13:11,2021-07-07,0.09900617479400979,0.39621405068264354,1.6844786595597083,,,,,,,,,,,,
29093,0,USMissouriIron,Missouri,Iron,2022-04-28 09:13:11,2021-07-08,0.6451438068292471,1.5418696154512672,3.9655201534728324,,,,,,,,,,,,
29093,0,USMissouriIron,Missouri,Iron,2022-04-28 09:13:11,2021-07-09,0.6451438068292471,1.5418696154512672,3.9655201534728324,,,,,,,,,,,,
29093,0,USMissouriIron,Missouri,Iron,2022-04-28 09:13:11,2021-07-10,0.6451438068292471,1.5418696154512672,3.9655201534728324,,,,,,,,,,,,
29093,0,USMissouriIron,Missouri,Iron,2022-04-28 09:13:11,2021-07-11,0.6451438068292471,1.5418696154512672,3.9655201534728324,,,,,,,,,,,,
29093,0,USMissouriIron,Missouri,Iron,2022-04-28 09:13:11,2021-07-12,0.6451438068292471,1.5418696154512672,3.9655201534728324,,,,,,,,,,,,
29093,0,USMissouriIron,Missouri,Iron,2022-04-28 09:13:11,2021-07-13,0.6451438068292471,1.5418696154512672,3.9655201534728324,,,,,,,,,,,,
29093,0,USMissouriIron,Missouri,Iron,2022-04-28 09:13:11,2021-07-14,0.6451438068292471,1.5418696154512672,3.9655201534728324,,,,,,,,,,,,
29093,0,USMissouriIron,Missouri,Iron,2022-04-28 09:13:11,2021-07-15,0.8928567765297839,1.9863605521964751,4.752057902956546,,,,,,,,,,,,
29093,0,USMissouriIron,Missouri,Iron,2022-04-28 09:13:11,2021-07-16,0.8928567765297839,1.9863605521964751,4.752057902956546,,,,,,,,,,,,
29093,0,USMissouriIron,Missouri,Iron,2022-04-28 09:13:11,2021-07-17,0.8928567765297839,1.9863605521964751,4.752057902956546,,,,,,,,,,,,
29093,0,USMissouriIron,Missouri,Iron,2022-04-28 09:13:11,2021-07-18,0.8928567765297839,1.9863605521964751,4.752057902956546,,,,,,,,,,,,
29093,0,USMissouriIron,Missouri,Iron,2022-04-28 09:13:11,2021-07-19,0.8928567765297839,1.9863605521964751,4.752057902956546,,,,,,,,,,,,
29093,0,USMissouriIron,Missouri,Iron,2022-04-28 09:13:11,2021-07-20,0.8928567765297839,1.9863605521964751,4.752057902956546,,,,,,,,,,,,
29093,0,USMissouriIron,Missouri,Iron,2022-04-28 09:13:11,2021-07-21,0.8928567765297839,1.9863605521964751,4.752057902956546,,,,,,,,,,,,
29093,0,USMissouriIron,Missouri,Iron,2022-04-28 09:13:11,2021-07-22,0.7027219300584375,1.6875873441300502,4.361316604420073,,,,,,,,,,,,
29093,0,USMissouriIron,Missouri,Iron,2022-04-28 09:13:11,2021-07-23,0.7027219300584375,1.6875873441300502,4.361316604420073,,,,,,,,,,,,
29093,0,USMissouriIron,Missouri,Iron,2022-04-28 09:13:11,2021-07-24,0.7027219300584375,1.6875873441300502,4.361316604420073,,,,,,,,,,,,
29093,0,USMissouriIron,Missouri,Iron,2022-04-28 09:13:11,2021-07-25,0.7027219300584375,1.6875873441300502,4.361316604420073,,,,,,,,,,,,
29093,0,USMissouriIron,Missouri,Iron,2022-04-28 09:13:11,2021-07-26,0.7027219300584375,1.6875873441300502,4.361316604420073,,,,,,,,,,,,
29093,0,USMissouriIron,Missouri,Iron,2022-04-28 09:13:11,2021-07-27,0.7027219300584375,1.6875873441300502,4.361316604420073,,,,,,,,,,,,
29093,0,USMissouriIron,Missouri,Iron,2022-04-28 09:13:11,2021-07-28,0.7027219300584375,1.6875873441300502,4.361316604420073,,,,,,,,,,,,
29093,0,USMissouriIron,Missouri,Iron,2022-04-28 09:13:11,2021-07-29,0.8111980432151331,1.84030151961653,4.490802994160886,,,,,,,,,,,,
29093,0,USMissouriIron,Missouri,Iron,2022-04-28 09:13:11,2021-07-30,0.8111980432151331,1.84030151961653,4.490802994160886,,,,,,,,,,,,
29093,0,USMissouriIron,Missouri,Iron,2022-04-28 09:13:11,2021-07-31,0.8111980432151331,1.84030151961653,4.490802994160886,,,,,,,,,,,,
29093,0,USMissouriIron,Missouri,Iron,2022-04-28 09:13:11,2021-08-01,0.8111980432151331,1.84030151961653,4.490802994160886,,,,,,,,,,,,
29093,0,USMissouriIron,Missouri,Iron,2022-04-28 09:13:11,2021-08-02,0.8111980432151331,1.84030151961653,4.490802994160886,,,,,,,,,,,,
29093,0,USMissouriIron,Missouri,Iron,2022-04-28 09:13:11,2021-08-03,0.8111980432151331,1.84030151961653,4.490802994160886,,,,,,,,,,,,
29093,0,USMissouriIron,Missouri,Iron,2022-04-28 09:13:11,2021-08-04,0.8111980432151331,1.84030151961653,4.490802994160886,,,,,,,,,,,,
29093,0,USMissouriIron,Missouri,Iron,2022-04-28 09:13:11,2021-08-05,0.8391411819218072,1.858707044351519,4.426921124054221,,,,,,,,,,,,
29093,0,USMissouriIron,Missouri,Iron,2022-04-28 09:13:11,2021-08-06,0.8391411819218072,1.858707044351519,4.426921124054221,,,,,,,,,,,,
29093,0,USMissouriIron,Missouri,Iron,2022-04-28 09:13:11,2021-08-07,0.8391411819218072,1.858707044351519,4.426921124054221,,,,,,,,,,,,
29093,0,USMissouriIron,Missouri,Iron,2022-04-28 09:13:11,2021-08-08,0.8391411819218072,1.858707044351519,4.426921124054221,,,,,,,,,,,,
29093,0,USMissouriIron,Missouri,Iron,2022-04-28 09:13:11,2021-08-09,0.8391411819218072,1.858707044351519,4.426921124054221,,,,,,,,,,,,
29093,0,USMissouriIron,Missouri,Iron,2022-04-28 09:13:11,2021-08-10,0.8391411819218072,1.858707044351519,4.426921124054221,,,,,,,,,,,,
29093,0,USMissouriIron,Missouri,Iron,2022-04-28 09:13:11,2021-08-11,0.8391411819218072,1.858707044351519,4.426921124054221,,,,,,,,,,,,
29093,0,USMissouriIron,Missouri,Iron,2022-04-28 09:13:11,2021-08-12,0.44651959378105643,0.45902567700280594,0.4723153143609271,,,,,,,,,,,,
29093,0,USMissouriIron,Missouri,Iron,2022-04-28 09:13:11,2021-08-13,0.44651959378105643,0.45902567700280594,0.4723153143609271,,,,,,,,,,,,
29093,0,USMissouriIron,Missouri,Iron,2022-04-28 09:13:11,2021-08-14,0.44651959378105643,0.45902567700280594,0.4723153143609271,,,,,,,,,,,,
29093,0,USMissouriIron,Missouri,Iron,2022-04-28 09:13:11,2021-08-15,0.44651959378105643,0.45902567700280594,0.4723153143609271,,,,,,,,,,,,
29093,0,USMissouriIron,Missouri,Iron,2022-04-28 09:13:11,2021-08-16,0.44651959378105643,0.45902567700280594,0.4723153143609271,,,,,,,,,,,,
29093,0,USMissouriIron,Missouri,Iron,2022-04-28 09:13:11,2021-08-17,0.44651959378105643,0.45902567700280594,0.4723153143609271,,,,,,,,,,,,
29093,0,USMissouriIron,Missouri,Iron,2022-04-28 09:13:11,2021-08-18,0.44651959378105643,0.45902567700280594,0.4723153143609271,,,,,,,,,,,,
29093,0,USMissouriIron,Missouri,Iron,2022-04-28 09:13:11,2021-08-19,1.6665297525019798,2.9022563974015707,5.377485985792343,,,,,,,,,,,,
29093,0,USMissouriIron,Missouri,Iron,2022-04-28 09:13:11,2021-08-20,1.6665297525019798,2.9022563974015707,5.377485985792343,,,,,,,,,,,,
29093,0,USMissouriIron,Missouri,Iron,2022-04-28 09:13:11,2021-08-21,1.6665297525019798,2.9022563974015707,5.377485985792343,,,,,,,,,,,,
29093,0,USMissouriIron,Missouri,Iron,2022-04-28 09:13:11,2021-08-22,1.6665297525019798,2.9022563974015707,5.377485985792343,,,,,,,,,,,,
29093,0,USMissouriIron,Missouri,Iron,2022-04-28 09:13:11,2021-08-23,1.6665297525019798,2.9022563974015707,5.377485985792343,,,,,,,,,,,,
29093,0,USMissouriIron,Missouri,Iron,2022-04-28 09:13:11,2021-08-24,1.6665297525019798,2.9022563974015707,5.377485985792343,,,,,,,,,,,,
29093,0,USMissouriIron,Missouri,Iron,2022-04-28 09:13:11,2021-08-25,1.6665297525019798,2.9022563974015707,5.377485985792343,,,,,,,,,,,,
29093,0,USMissouriIron,Missouri,Iron,2022-04-28 09:13:11,2021-08-26,2.113119313135407,3.608327529580481,6.545743566079423,,,,,,,,,,,,
29093,0,USMissouriIron,Missouri,Iron,2022-04-28 09:13:11,2021-08-27,2.113119313135407,3.608327529580481,6.545743566079423,,,,,,,,,,,,
29093,0,USMissouriIron,Missouri,Iron,2022-04-28 09:13:11,2021-08-28,2.113119313135407,3.608327529580481,6.545743566079423,,,,,,,,,,,,
29093,0,USMissouriIron,Missouri,Iron,2022-04-28 09:13:11,2021-08-29,2.113119313135407,3.608327529580481,6.545743566079423,,,,,,,,,,,,
29093,0,USMissouriIron,Missouri,Iron,2022-04-28 09:13:11,2021-08-30,2.113119313135407,3.608327529580481,6.545743566079423,,,,,,,,,,,,
29093,0,USMissouriIron,Missouri,Iron,2022-04-28 09:13:11,2021-08-31,2.113119313135407,3.608327529580481,6.545743566079423,,,,,,,,,,,,
29093,0,USMissouriIron,Missouri,Iron,2022-04-28 09:13:11,2021-09-01,2.113119313135407,3.608327529580481,6.545743566079423,,,,,,,,,,,,
29093,0,USMissouriIron,Missouri,Iron,2022-04-28 09:13:11,2021-09-02,1.9554886230902055,3.0132013753740394,4.885875241954019,,,,,,,,,,,,
29093,0,USMissouriIron,Missouri,Iron,2022-04-28 09:13:11,2021-09-03,1.9554886230902055,3.0132013753740394,4.885875241954019,,,,,,,,,,,,
29093,0,USMissouriIron,Missouri,Iron,2022-04-28 09:13:11,2021-09-04,1.9554886230902055,3.0132013753740394,4.885875241954019,,,,,,,,,,,,
29093,0,USMissouriIron,Missouri,Iron,2022-04-28 09:13:11,2021-09-05,1.9554886230902055,3.0132013753740394,4.885875241954019,,,,,,,,,,,,
29093,0,USMissouriIron,Missouri,Iron,2022-04-28 09:13:11,2021-09-06,1.9554886230902055,3.0132013753740394,4.885875241954019,,,,,,,,,,,,
29093,0,USMissouriIron,Missouri,Iron,2022-04-28 09:13:11,2021-09-07,1.9554886230902055,3.0132013753740394,4.885875241954019,,,,,,,,,,,,
29093,0,USMissouriIron,Missouri,Iron,2022-04-28 09:13:11,2021-09-08,1.9554886230902055,3.0132013753740394,4.885875241954019,,,,,,,,,,,,
29093,0,USMissouriIron,Missouri,Iron,2022-04-28 09:13:11,2021-09-09,1.2825204393048593,1.9172567178411548,3.0059748417717826,,,,,,,,,,,,
29093,0,USMissouriIron,Missouri,Iron,2022-04-28 09:13:11,2021-09-10,1.2825204393048593,1.9172567178411548,3.0059748417717826,,,,,,,,,,,,
29093,0,USMissouriIron,Missouri,Iron,2022-04-28 09:13:11,2021-09-11,1.2825204393048593,1.9172567178411548,3.0059748417717826,,,,,,,,,,,,
29093,0,USMissouriIron,Missouri,Iron,2022-04-28 09:13:11,2021-09-12,1.2825204393048593,1.9172567178411548,3.0059748417717826,,,,,,,,,,,,
29093,0,USMissouriIron,Missouri,Iron,2022-04-28 09:13:11,2021-09-13,1.2825204393048593,1.9172567178411548,3.0059748417717826,,,,,,,,,,,,
29093,0,USMissouriIron,Missouri,Iron,2022-04-28 09:13:11,2021-09-14,1.2825204393048593,1.9172567178411548,3.0059748417717826,,,,,,,,,,,,
29093,0,USMissouriIron,Missouri,Iron,2022-04-28 09:13:11,2021-09-15,1.2825204393048593,1.9172567178411548,3.0059748417717826,,,,,,,,,,,,
29093,0,USMissouriIron,Missouri,Iron,2022-04-28 09:13:11,2021-09-16,1.5149950988945222,2.468923540596247,4.257462960667642,,,,,,,,,,,,
29093,0,USMissouriIron,Missouri,Iron,2022-04-28 09:13:11,2021-09-17,1.5149950988945222,2.468923540596247,4.257462960667642,,,,,,,,,,,,
29093,0,USMissouriIron,Missouri,Iron,2022-04-28 09:13:11,2021-09-18,1.5149950988945222,2.468923540596247,4.257462960667642,,,,,,,,,,,,
29093,0,USMissouriIron,Missouri,Iron,2022-04-28 09:13:11,2021-09-19,1.5149950988945222,2.468923540596247,4.257462960667642,,,,,,,,,,,,
29093,0,USMissouriIron,Missouri,Iron,2022-04-28 09:13:11,2021-09-20,1.5149950988945222,2.468923540596247,4.257462960667642,,,,,,,,,,,,
29093,0,USMissouriIron,Missouri,Iron,2022-04-28 09:13:11,2021-09-21,1.5149950988945222,2.468923540596247,4.257462960667642,,,,,,,,,,,,
29093,0,USMissouriIron,Missouri,Iron,2022-04-28 09:13:11,2021-09-22,1.5149950988945222,2.468923540596247,4.257462960667642,,,,,,,,,,,,
29093,0,USMissouriIron,Missouri,Iron,2022-04-28 09:13:11,2021-09-23,1.2475574439464971,2.1688874082772758,4.011245881916054,,,,,,,,,,,,
29093,0,USMissouriIron,Missouri,Iron,2022-04-28 09:13:11,2021-09-24,1.2475574439464971,2.1688874082772758,4.011245881916054,,,,,,,,,,,,
29093,0,USMissouriIron,Missouri,Iron,2022-04-28 09:13:11,2021-09-25,1.2475574439464971,2.1688874082772758,4.011245881916054,,,,,,,,,,,,
29093,0,USMissouriIron,Missouri,Iron,2022-04-28 09:13:11,2021-09-26,1.2475574439464971,2.1688874082772758,4.011245881916054,,,,,,,,,,,,
29093,0,USMissouriIron,Missouri,Iron,2022-04-28 09:13:11,2021-09-27,1.2475574439464971,2.1688874082772758,4.011245881916054,,,,,,,,,,,,
29093,0,USMissouriIron,Missouri,Iron,2022-04-28 09:13:11,2021-09-28,1.2475574439464971,2.1688874082772758,4.011245881916054,,,,,,,,,,,,
29093,0,USMissouriIron,Missouri,Iron,2022-04-28 09:13:11,2021-09-29,1.2475574439464971,2.1688874082772758,4.011245881916054,,,,,,,,,,,,
29093,0,USMissouriIron,Missouri,Iron,2022-04-28 09:13:11,2021-09-30,1.7520475367487034,3.6499237424775637,8.16407969881566,,,,,,,,,,,,
29093,0,USMissouriIron,Missouri,Iron,2022-04-28 09:13:11,2021-10-01,1.7520475367487034,3.6499237424775637,8.16407969881566,,,,,,,,,,,,
29093,0,USMissouriIron,Missouri,Iron,2022-04-28 09:13:11,2021-10-02,1.7520475367487034,3.6499237424775637,8.16407969881566,,,,,,,,,,,,
29093,0,USMissouriIron,Missouri,Iron,2022-04-28 09:13:11,2021-10-03,1.7520475367487034,3.6499237424775637,8.16407969881566,,,,,,,,,,,,
29093,0,USMissouriIron,Missouri,Iron,2022-04-28 09:13:11,2021-10-04,1.7520475367487034,3.6499237424775637,8.16407969881566,,,,,,,,,,,,
29093,0,USMissouriIron,Missouri,Iron,2022-04-28 09:13:11,2021-10-05,1.7520475367487034,3.6499237424775637,8.16407969881566,,,,,,,,,,,,
29093,0,USMissouriIron,Missouri,Iron,2022-04-28 09:13:11,2021-10-06,1.7520475367487034,3.6499237424775637,8.16407969881566,,,,,,,,,,,,
29093,0,USMissouriIron,Missouri,Iron,2022-04-28 09:13:11,2021-10-07,0.40708396558626475,0.9265346472306498,2.2684551625567746,,,,,,,,,,,,
29093,0,USMissouriIron,Missouri,Iron,2022-04-28 09:13:11,2021-10-08,0.40708396558626475,0.9265346472306498,2.2684551625567746,,,,,,,,,,,,
29093,0,USMissouriIron,Missouri,Iron,2022-04-28 09:13:11,2021-10-09,0.40708396558626475,0.9265346472306498,2.2684551625567746,,,,,,,,,,,,
29093,0,USMissouriIron,Missouri,Iron,2022-04-28 09:13:11,2021-10-10,0.40708396558626475,0.9265346472306498,2.2684551625567746,,,,,,,,,,,,
29093,0,USMissouriIron,Missouri,Iron,2022-04-28 09:13:11,2021-10-11,0.40708396558626475,0.9265346472306498,2.2684551625567746,,,,,,,,,,,,
29093,0,USMissouriIron,Missouri,Iron,2022-04-28 09:13:11,2021-10-12,0.40708396558626475,0.9265346472306498,2.2684551625567746,,,,,,,,,,,,
29093,0,USMissouriIron,Missouri,Iron,2022-04-28 09:13:11,2021-10-13,0.40708396558626475,0.9265346472306498,2.2684551625567746,,,,,,,,,,,,
29093,0,USMissouriIron,Missouri,Iron,2022-04-28 09:13:11,2021-10-14,0.1908881303950523,0.410198464496528,0.9472284490791569,,,,,,,,,,,,
29093,0,USMissouriIron,Missouri,Iron,2022-04-28 09:13:11,2021-10-15,0.1908881303950523,0.410198464496528,0.9472284490791569,,,,,,,,,,,,
29093,0,USMissouriIron,Missouri,Iron,2022-04-28 09:13:11,2021-10-16,0.1908881303950523,0.410198464496528,0.9472284490791569,,,,,,,,,,,,
29093,0,USMissouriIron,Missouri,Iron,2022-04-28 09:13:11,2021-10-17,0.1908881303950523,0.410198464496528,0.9472284490791569,,,,,,,,,,,,
29093,0,USMissouriIron,Missouri,Iron,2022-04-28 09:13:11,2021-10-18,0.1908881303950523,0.410198464496528,0.9472284490791569,,,,,,,,,,,,
29093,0,USMissouriIron,Missouri,Iron,2022-04-28 09:13:11,2021-10-19,0.1908881303950523,0.410198464496528,0.9472284490791569,,,,,,,,,,,,
29093,0,USMissouriIron,Missouri,Iron,2022-04-28 09:13:11,2021-10-20,0.1908881303950523,0.410198464496528,0.9472284490791569,,,,,,,,,,,,
29093,0,USMissouriIron,Missouri,Iron,2022-04-28 09:13:11,2021-10-21,0.4730547507907465,1.10818327176414,2.793348451791075,,,,,,,,,,,,
29093,0,USMissouriIron,Missouri,Iron,2022-04-28 09:13:11,2021-10-22,0.4730547507907465,1.10818327176414,2.793348451791075,,,,,,,,,,,,
29093,0,USMissouriIron,Missouri,Iron,2022-04-28 09:13:11,2021-10-23,0.4730547507907465,1.10818327176414,2.793348451791075,,,,,,,,,,,,
29093,0,USMissouriIron,Missouri,Iron,2022-04-28 09:13:11,2021-10-24,0.4730547507907465,1.10818327176414,2.793348451791075,,,,,,,,,,,,
29093,0,USMissouriIron,Missouri,Iron,2022-04-28 09:13:11,2021-10-25,0.4730547507907465,1.10818327176414,2.793348451791075,,,,,,,,,,,,
29093,0,USMissouriIron,Missouri,Iron,2022-04-28 09:13:11,2021-10-26,0.4730547507907465,1.10818327176414,2.793348451791075,,,,,,,,,,,,
29093,0,USMissouriIron,Missouri,Iron,2022-04-28 09:13:11,2021-10-27,0.4730547507907465,1.10818327176414,2.793348451791075,,,,,,,,,,,,
29093,0,USMissouriIron,Missouri,Iron,2022-04-28 09:13:11,2021-10-28,0.8756303566416175,2.9312432913468123,10.496124215201446,,,,,,,,,,,,
29093,0,USMissouriIron,Missouri,Iron,2022-04-28 09:13:11,2021-10-29,0.8756303566416175,2.9312432913468123,10.496124215201446,,,,,,,,,,,,
29093,0,USMissouriIron,Missouri,Iron,2022-04-28 09:13:11,2021-10-30,0.8756303566416175,2.9312432913468123,10.496124215201446,,,,,,,,,,,,
29093,0,USMissouriIron,Missouri,Iron,2022-04-28 09:13:11,2021-10-31,0.8756303566416175,2.9312432913468123,10.496124215201446,,,,,,,,,,,,
29093,0,USMissouriIron,Missouri,Iron,2022-04-28 09:13:11,2021-11-01,0.8756303566416175,2.9312432913468123,10.496124215201446,,,,,,,,,,,,
29093,0,USMissouriIron,Missouri,Iron,2022-04-28 09:13:11,2021-11-02,0.8756303566416175,2.9312432913468123,10.496124215201446,,,,,,,,,,,,
29093,0,USMissouriIron,Missouri,Iron,2022-04-28 09:13:11,2021-11-03,0.8756303566416175,2.9312432913468123,10.496124215201446,,,,,,,,,,,,
29093,0,USMissouriIron,Missouri,Iron,2022-04-28 09:13:11,2021-11-04,1.1848195835279867,2.020842025250123,3.661373556268637,,,,,,,,,,,,
29093,0,USMissouriIron,Missouri,Iron,2022-04-28 09:13:11,2021-11-05,1.1848195835279867,2.020842025250123,3.661373556268637,,,,,,,,,,,,
29093,0,USMissouriIron,Missouri,Iron,2022-04-28 09:13:11,2021-11-06,1.1848195835279867,2.020842025250123,3.661373556268637,,,,,,,,,,,,
29093,0,USMissouriIron,Missouri,Iron,2022-04-28 09:13:11,2021-11-07,1.1848195835279867,2.020842025250123,3.661373556268637,,,,,,,,,,,,
29093,0,USMissouriIron,Missouri,Iron,2022-04-28 09:13:11,2021-11-08,1.1848195835279867,2.020842025250123,3.661373556268637,,,,,,,,,,,,
29093,0,USMissouriIron,Missouri,Iron,2022-04-28 09:13:11,2021-11-09,1.1848195835279867,2.020842025250123,3.661373556268637,,,,,,,,,,,,
29093,0,USMissouriIron,Missouri,Iron,2022-04-28 09:13:11,2021-11-10,1.1848195835279867,2.020842025250123,3.661373556268637,,,,,,,,,,,,
29093,0,USMissouriIron,Missouri,Iron,2022-04-28 09:13:11,2021-11-11,1.347531236079581,2.917729449739709,6.790028499132288,,,,,,,,,,,,
29093,0,USMissouriIron,Missouri,Iron,2022-04-28 09:13:11,2021-11-12,1.347531236079581,2.917729449739709,6.790028499132288,,,,,,,,,,,,
29093,0,USMissouriIron,Missouri,Iron,2022-04-28 09:13:11,2021-11-13,1.347531236079581,2.917729449739709,6.790028499132288,,,,,,,,,,,,
29093,0,USMissouriIron,Missouri,Iron,2022-04-28 09:13:11,2021-11-14,1.347531236079581,2.917729449739709,6.790028499132288,,,,,,,,,,,,
29093,0,USMissouriIron,Missouri,Iron,2022-04-28 09:13:11,2021-11-15,1.347531236079581,2.917729449739709,6.790028499132288,,,,,,,,,,,,
29093,0,USMissouriIron,Missouri,Iron,2022-04-28 09:13:11,2021-11-16,1.347531236079581,2.917729449739709,6.790028499132288,,,,,,,,,,,,
29093,0,USMissouriIron,Missouri,Iron,2022-04-28 09:13:11,2021-11-17,1.347531236079581,2.917729449739709,6.790028499132288,,,,,,,,,,,,
29093,0,USMissouriIron,Missouri,Iron,2022-04-28 09:13:11,2021-11-18,1.3739083838536437,3.1270544344034437,7.656036173629113,,,,,,,,,,,,
29093,0,USMissouriIron,Missouri,Iron,2022-04-28 09:13:11,2021-11-19,1.3739083838536437,3.1270544344034437,7.656036173629113,,,,,,,,,,,,
29093,0,USMissouriIron,Missouri,Iron,2022-04-28 09:13:11,2021-11-20,1.3739083838536437,3.1270544344034437,7.656036173629113,,,,,,,,,,,,
29093,0,USMissouriIron,Missouri,Iron,2022-04-28 09:13:11,2021-11-21,1.3739083838536437,3.1270544344034437,7.656036173629113,,,,,,,,,,,,
29093,0,USMissouriIron,Missouri,Iron,2022-04-28 09:13:11,2021-11-22,1.3739083838536437,3.1270544344034437,7.656036173629113,,,,,,,,,,,,
29093,0,USMissouriIron,Missouri,Iron,2022-04-28 09:13:11,2021-11-23,1.3739083838536437,3.1270544344034437,7.656036173629113,,,,,,,,,,,,
29093,0,USMissouriIron,Missouri,Iron,2022-04-28 09:13:11,2021-11-24,1.3739083838536437,3.1270544344034437,7.656036173629113,,,,,,,,,,,,
29093,0,USMissouriIron,Missouri,Iron,2022-04-28 09:13:11,2021-11-25,0.5293872713169783,1.146250855254886,2.6675111960876845,,,,,,,,,,,,
29093,0,USMissouriIron,Missouri,Iron,2022-04-28 09:13:11,2021-11-26,0.5293872713169783,1.146250855254886,2.6675111960876845,,,,,,,,,,,,
29093,0,USMissouriIron,Missouri,Iron,2022-04-28 09:13:11,2021-11-27,0.5293872713169783,1.146250855254886,2.6675111960876845,,,,,,,,,,,,
29093,0,USMissouriIron,Missouri,Iron,2022-04-28 09:13:11,2021-11-28,0.5293872713169783,1.146250855254886,2.6675111960876845,,,,,,,,,,,,
29093,0,USMissouriIron,Missouri,Iron,2022-04-28 09:13:11,2021-11-29,0.5293872713169783,1.146250855254886,2.6675111960876845,,,,,,,,,,,,
29093,0,USMissouriIron,Missouri,Iron,2022-04-28 09:13:11,2021-11-30,0.5293872713169783,1.146250855254886,2.6675111960876845,,,,,,,,,,,,
29093,0,USMissouriIron,Missouri,Iron,2022-04-28 09:13:11,2021-12-01,0.5293872713169783,1.146250855254886,2.6675111960876845,,,,,,,,,,,,
29093,0,USMissouriIron,Missouri,Iron,2022-04-28 09:13:11,2021-12-02,1.64826173780294,3.3285153094086044,7.209569345066412,,,,,,,,,,,,
29093,0,USMissouriIron,Missouri,Iron,2022-04-28 09:13:11,2021-12-03,1.64826173780294,3.3285153094086044,7.209569345066412,,,,,,,,,,,,
29093,0,USMissouriIron,Missouri,Iron,2022-04-28 09:13:11,2021-12-04,1.64826173780294,3.3285153094086044,7.209569345066412,,,,,,,,,,,,
29093,0,USMissouriIron,Missouri,Iron,2022-04-28 09:13:11,2021-12-05,1.64826173780294,3.3285153094086044,7.209569345066412,,,,,,,,,,,,
29093,0,USMissouriIron,Missouri,Iron,2022-04-28 09:13:11,2021-12-06,1.64826173780294,3.3285153094086044,7.209569345066412,,,,,,,,,,,,
29093,0,USMissouriIron,Missouri,Iron,2022-04-28 09:13:11,2021-12-07,1.64826173780294,3.3285153094086044,7.209569345066412,,,,,,,,,,,,
29093,0,USMissouriIron,Missouri,Iron,2022-04-28 09:13:11,2021-12-08,1.64826173780294,3.3285153094086044,7.209569345066412,,,,,,,,,,,,
29093,0,USMissouriIron,Missouri,Iron,2022-04-28 09:13:11,2021-12-09,2.1708659659057354,4.5296920170410395,10.148706295293323,,,,,,,,,,,,
29093,0,USMissouriIron,Missouri,Iron,2022-04-28 09:13:11,2021-12-10,2.1708659659057354,4.5296920170410395,10.148706295293323,,,,,,,,,,,,
29093,0,USMissouriIron,Missouri,Iron,2022-04-28 09:13:11,2021-12-11,2.1708659659057354,4.5296920170410395,10.148706295293323,,,,,,,,,,,,
29093,0,USMissouriIron,Missouri,Iron,2022-04-28 09:13:11,2021-12-12,2.1708659659057354,4.5296920170410395,10.148706295293323,,,,,,,,,,,,
29093,0,USMissouriIron,Missouri,Iron,2022-04-28 09:13:11,2021-12-13,2.1708659659057354,4.5296920170410395,10.148706295293323,,,,,,,,,,,,
29093,0,USMissouriIron,Missouri,Iron,2022-04-28 09:13:11,2021-12-14,2.1708659659057354,4.5296920170410395,10.148706295293323,,,,,,,,,,,,
29093,0,USMissouriIron,Missouri,Iron,2022-04-28 09:13:11,2021-12-15,2.1708659659057354,4.5296920170410395,10.148706295293323,,,,,,,,,,,,
29093,0,USMissouriIron,Missouri,Iron,2022-04-28 09:13:11,2021-12-16,1.5381873940244017,3.2360704897452575,7.311994200133623,,,,,,,,,,,,
29093,0,USMissouriIron,Missouri,Iron,2022-04-28 09:13:11,2021-12-17,1.5381873940244017,3.2360704897452575,7.311994200133623,,,,,,,,,,,,
29093,0,USMissouriIron,Missouri,Iron,2022-04-28 09:13:11,2021-12-18,1.5381873940244017,3.2360704897452575,7.311994200133623,,,,,,,,,,,,
29093,0,USMissouriIron,Missouri,Iron,2022-04-28 09:13:11,2021-12-19,1.5381873940244017,3.2360704897452575,7.311994200133623,,,,,,,,,,,,
29093,0,USMissouriIron,Missouri,Iron,2022-04-28 09:13:11,2021-12-20,1.5381873940244017,3.2360704897452575,7.311994200133623,,,,,,,,,,,,
29093,0,USMissouriIron,Missouri,Iron,2022-04-28 09:13:11,2021-12-21,1.5381873940244017,3.2360704897452575,7.311994200133623,,,,,,,,,,,,
29093,0,USMissouriIron,Missouri,Iron,2022-04-28 09:13:11,2021-12-22,1.5381873940244017,3.2360704897452575,7.311994200133623,,,,,,,,,,,,
29093,0,USMissouriIron,Missouri,Iron,2022-04-28 09:13:11,2021-12-23,1.74390519492344,3.798207418851037,8.89220332480769,,,,,,,,,,,,
29093,0,USMissouriIron,Missouri,Iron,2022-04-28 09:13:11,2021-12-24,1.74390519492344,3.798207418851037,8.89220332480769,,,,,,,,,,,,
29093,0,USMissouriIron,Missouri,Iron,2022-04-28 09:13:11,2021-12-25,1.74390519492344,3.798207418851037,8.89220332480769,,,,,,,,,,,,
29093,0,USMissouriIron,Missouri,Iron,2022-04-28 09:13:11,2021-12-26,1.74390519492344,3.798207418851037,8.89220332480769,,,,,,,,,,,,
29093,0,USMissouriIron,Missouri,Iron,2022-04-28 09:13:11,2021-12-27,1.74390519492344,3.798207418851037,8.89220332480769,,,,,,,,,,,,
29093,0,USMissouriIron,Missouri,Iron,2022-04-28 09:13:11,2021-12-28,1.74390519492344,3.798207418851037,8.89220332480769,,,,,,,,,,,,
29093,0,USMissouriIron,Missouri,Iron,2022-04-28 09:13:11,2021-12-29,1.74390519492344,3.798207418851037,8.89220332480769,,,,,,,,,,,,
29093,0,USMissouriIron,Missouri,Iron,2022-04-28 09:13:11,2021-12-30,1.6749145664971752,3.5178332157239347,7.934993689580243,,,,,,,,,,,,
29093,0,USMissouriIron,Missouri,Iron,2022-04-28 09:13:11,2021-12-31,1.6749145664971752,3.5178332157239347,7.934993689580243,,,,,,,,,,,,
29093,0,USMissouriIron,Missouri,Iron,2022-04-28 09:13:11,2022-01-01,1.6749145664971752,3.5178332157239347,7.934993689580243,,,,,,,,,,,,
29093,0,USMissouriIron,Missouri,Iron,2022-04-28 09:13:11,2022-01-02,1.6749145664971752,3.5178332157239347,7.934993689580243,,,,,,,,,,,,
29093,0,USMissouriIron,Missouri,Iron,2022-04-28 09:13:11,2022-01-03,1.6749145664971752,3.5178332157239347,7.934993689580243,,,,,,,,,,,,
29093,0,USMissouriIron,Missouri,Iron,2022-04-28 09:13:11,2022-01-04,1.6749145664971752,3.5178332157239347,7.934993689580243,,,,,,,,,,,,
29093,0,USMissouriIron,Missouri,Iron,2022-04-28 09:13:11,2022-01-05,1.6749145664971752,3.5178332157239347,7.934993689580243,,,,,,,,,,,,
29093,0,USMissouriIron,Missouri,Iron,2022-04-28 09:13:11,2022-01-06,1.9211179162914649,3.7324241905515905,7.765501548076617,,,,,,,,,,,,
29093,0,USMissouriIron,Missouri,Iron,2022-04-28 09:13:11,2022-01-07,1.9211179162914649,3.7324241905515905,7.765501548076617,,,,,,,,,,,,
29093,0,USMissouriIron,Missouri,Iron,2022-04-28 09:13:11,2022-01-08,1.9211179162914649,3.7324241905515905,7.765501548076617,,,,,,,,,,,,
29093,0,USMissouriIron,Missouri,Iron,2022-04-28 09:13:11,2022-01-09,1.9211179162914649,3.7324241905515905,7.765501548076617,,,,,,,,,,,,
29093,0,USMissouriIron,Missouri,Iron,2022-04-28 09:13:11,2022-01-10,1.9211179162914649,3.7324241905515905,7.765501548076617,,,,,,,,,,,,
29093,0,USMissouriIron,Missouri,Iron,2022-04-28 09:13:11,2022-01-11,1.9211179162914649,3.7324241905515905,7.765501548076617,,,,,,,,,,,,
29093,0,USMissouriIron,Missouri,Iron,2022-04-28 09:13:11,2022-01-12,1.9211179162914649,3.7324241905515905,7.765501548076617,,,,,,,,,,,,
29093,0,USMissouriIron,Missouri,Iron,2022-04-28 09:13:11,2022-01-13,3.318548608420434,6.006831461065102,11.598730203743441,,,,,,,,,,,,
29093,0,USMissouriIron,Missouri,Iron,2022-04-28 09:13:11,2022-01-14,3.318548608420434,6.006831461065102,11.598730203743441,,,,,,,,,,,,
29093,0,USMissouriIron,Missouri,Iron,2022-04-28 09:13:11,2022-01-15,3.318548608420434,6.006831461065102,11.598730203743441,,,,,,,,,,,,
29093,0,USMissouriIron,Missouri,Iron,2022-04-28 09:13:11,2022-01-16,3.318548608420434,6.006831461065102,11.598730203743441,,,,,,,,,,,,
29093,0,USMissouriIron,Missouri,Iron,2022-04-28 09:13:11,2022-01-17,3.318548608420434,6.006831461065102,11.598730203743441,,,,,,,,,,,,
29093,0,USMissouriIron,Missouri,Iron,2022-04-28 09:13:11,2022-01-18,3.318548608420434,6.006831461065102,11.598730203743441,,,,,,,,,,,,
29093,0,USMissouriIron,Missouri,Iron,2022-04-28 09:13:11,2022-01-19,3.318548608420434,6.006831461065102,11.598730203743441,,,,,,,,,,,,
29093,0,USMissouriIron,Missouri,Iron,2022-04-28 09:13:11,2022-01-20,5.301627583749748,9.544041605892934,18.321924925301186,,,,,,,,,,,,
29093,0,USMissouriIron,Missouri,Iron,2022-04-28 09:13:11,2022-01-21,5.301627583749748,9.544041605892934,18.321924925301186,,,,,,,,,,,,
29093,0,USMissouriIron,Missouri,Iron,2022-04-28 09:13:11,2022-01-22,5.301627583749748,9.544041605892934,18.321924925301186,,,,,,,,,,,,
29093,0,USMissouriIron,Missouri,Iron,2022-04-28 09:13:11,2022-01-23,5.301627583749748,9.544041605892934,18.321924925301186,,,,,,,,,,,,
29093,0,USMissouriIron,Missouri,Iron,2022-04-28 09:13:11,2022-01-24,5.301627583749748,9.544041605892934,18.321924925301186,,,,,,,,,,,,
29093,0,USMissouriIron,Missouri,Iron,2022-04-28 09:13:11,2022-01-25,5.301627583749748,9.544041605892934,18.321924925301186,,,,,,,,,,,,
29093,0,USMissouriIron,Missouri,Iron,2022-04-28 09:13:11,2022-01-26,5.301627583749748,9.544041605892934,18.321924925301186,,,,,,,,,,,,
29093,0,USMissouriIron,Missouri,Iron,2022-04-28 09:13:11,2022-01-27,4.208756831481128,7.397948169128135,13.84461656090279,,,,,,,,,,,,
29093,0,USMissouriIron,Missouri,Iron,2022-04-28 09:13:11,2022-01-28,4.208756831481128,7.397948169128135,13.84461656090279,,,,,,,,,,,,
29093,0,USMissouriIron,Missouri,Iron,2022-04-28 09:13:11,2022-01-29,4.208756831481128,7.397948169128135,13.84461656090279,,,,,,,,,,,,
29093,0,USMissouriIron,Missouri,Iron,2022-04-28 09:13:11,2022-01-30,4.208756831481128,7.397948169128135,13.84461656090279,,,,,,,,,,,,
29093,0,USMissouriIron,Missouri,Iron,2022-04-28 09:13:11,2022-01-31,4.208756831481128,7.397948169128135,13.84461656090279,,,,,,,,,,,,
29093,0,USMissouriIron,Missouri,Iron,2022-04-28 09:13:11,2022-02-01,4.208756831481128,7.397948169128135,13.84461656090279,,,,,,,,,,,,
29093,0,USMissouriIron,Missouri,Iron,2022-04-28 09:13:11,2022-02-02,4.208756831481128,7.397948169128135,13.84461656090279,,,,,,,,,,,,
29093,0,USMissouriIron,Missouri,Iron,2022-04-28 09:13:11,2022-02-03,2.3335691187191827,5.0053156315431275,11.536360385192367,,,,,,,,,,,,
29093,0,USMissouriIron,Missouri,Iron,2022-04-28 09:13:11,2022-02-04,2.3335691187191827,5.0053156315431275,11.536360385192367,,,,,,,,,,,,
29093,0,USMissouriIron,Missouri,Iron,2022-04-28 09:13:11,2022-02-05,2.3335691187191827,5.0053156315431275,11.536360385192367,,,,,,,,,,,,
29093,0,USMissouriIron,Missouri,Iron,2022-04-28 09:13:11,2022-02-06,2.3335691187191827,5.0053156315431275,11.536360385192367,,,,,,,,,,,,
29093,0,USMissouriIron,Missouri,Iron,2022-04-28 09:13:11,2022-02-07,2.3335691187191827,5.0053156315431275,11.536360385192367,,,,,,,,,,,,
29093,0,USMissouriIron,Missouri,Iron,2022-04-28 09:13:11,2022-02-08,2.3335691187191827,5.0053156315431275,11.536360385192367,,,,,,,,,,,,
29093,0,USMissouriIron,Missouri,Iron,2022-04-28 09:13:11,2022-02-09,2.3335691187191827,5.0053156315431275,11.536360385192367,,,,,,,,,,,,
29093,0,USMissouriIron,Missouri,Iron,2022-04-28 09:13:11,2022-02-10,1.85945551493914,3.6550587316536873,7.697854210830007,,,,,,,,,,,,
29093,0,USMissouriIron,Missouri,Iron,2022-04-28 09:13:11,2022-02-11,1.85945551493914,3.6550587316536873,7.697854210830007,,,,,,,,,,,,
29093,0,USMissouriIron,Missouri,Iron,2022-04-28 09:13:11,2022-02-12,1.85945551493914,3.6550587316536873,7.697854210830007,,,,,,,,,,,,
29093,0,USMissouriIron,Missouri,Iron,2022-04-28 09:13:11,2022-02-13,1.85945551493914,3.6550587316536873,7.697854210830007,,,,,,,,,,,,
29093,0,USMissouriIron,Missouri,Iron,2022-04-28 09:13:11,2022-02-14,1.85945551493914,3.6550587316536873,7.697854210830007,,,,,,,,,,,,
29093,0,USMissouriIron,Missouri,Iron,2022-04-28 09:13:11,2022-02-15,1.85945551493914,3.6550587316536873,7.697854210830007,,,,,,,,,,,,
29093,0,USMissouriIron,Missouri,Iron,2022-04-28 09:13:11,2022-02-16,1.85945551493914,3.6550587316536873,7.697854210830007,,,,,,,,,,,,
29093,0,USMissouriIron,Missouri,Iron,2022-04-28 09:13:11,2022-02-17,0.8282899189030786,1.6401429217567487,3.4808261993987637,,,,,,,,,,,,
29093,0,USMissouriIron,Missouri,Iron,2022-04-28 09:13:11,2022-02-18,0.8282899189030786,1.6401429217567487,3.4808261993987637,,,,,,,,,,,,
29093,0,USMissouriIron,Missouri,Iron,2022-04-28 09:13:11,2022-02-19,0.8282899189030786,1.6401429217567487,3.4808261993987637,,,,,,,,,,,,
29093,0,USMissouriIron,Missouri,Iron,2022-04-28 09:13:11,2022-02-20,0.8282899189030786,1.6401429217567487,3.4808261993987637,,,,,,,,,,,,
29093,0,USMissouriIron,Missouri,Iron,2022-04-28 09:13:11,2022-02-21,0.8282899189030786,1.6401429217567487,3.4808261993987637,,,,,,,,,,,,
29093,0,USMissouriIron,Missouri,Iron,2022-04-28 09:13:11,2022-02-22,0.8282899189030786,1.6401429217567487,3.4808261993987637,,,,,,,,,,,,
29093,0,USMissouriIron,Missouri,Iron,2022-04-28 09:13:11,2022-02-23,0.8282899189030786,1.6401429217567487,3.4808261993987637,,,,,,,,,,,,
29093,0,USMissouriIron,Missouri,Iron,2022-04-28 09:13:11,2022-02-24,1.2550281173135371,2.5485775224905654,5.552189138046234,,,,,,,,,,,,
29093,0,USMissouriIron,Missouri,Iron,2022-04-28 09:13:11,2022-02-25,1.2550281173135371,2.5485775224905654,5.552189138046234,,,,,,,,,,,,
29093,0,USMissouriIron,Missouri,Iron,2022-04-28 09:13:11,2022-02-26,1.2550281173135371,2.5485775224905654,5.552189138046234,,,,,,,,,,,,
29093,0,USMissouriIron,Missouri,Iron,2022-04-28 09:13:11,2022-02-27,1.2550281173135371,2.5485775224905654,5.552189138046234,,,,,,,,,,,,
29093,0,USMissouriIron,Missouri,Iron,2022-04-28 09:13:11,2022-02-28,1.2550281173135371,2.5485775224905654,5.552189138046234,,,,,,,,,,,,
29093,0,USMissouriIron,Missouri,Iron,2022-04-28 09:13:11,2022-03-01,1.2550281173135371,2.5485775224905654,5.552189138046234,,,,,,,,,,,,
29093,0,USMissouriIron,Missouri,Iron,2022-04-28 09:13:11,2022-03-02,1.2550281173135371,2.5485775224905654,5.552189138046234,,,,,,,,,,,,
29093,0,USMissouriIron,Missouri,Iron,2022-04-28 09:13:11,2022-03-03,0.22700889713955036,0.4663752855164947,1.0283082433764432,,,,,,,,,,,,
29093,0,USMissouriIron,Missouri,Iron,2022-04-28 09:13:11,2022-03-04,0.22700889713955036,0.4663752855164947,1.0283082433764432,,,,,,,,,,,,
29093,0,USMissouriIron,Missouri,Iron,2022-04-28 09:13:11,2022-03-05,0.22700889713955036,0.4663752855164947,1.0283082433764432,,,,,,,,,,,,
29093,0,USMissouriIron,Missouri,Iron,2022-04-28 09:13:11,2022-03-06,0.22700889713955036,0.4663752855164947,1.0283082433764432,,,,,,,,,,,,
29093,0,USMissouriIron,Missouri,Iron,2022-04-28 09:13:11,2022-03-07,0.22700889713955036,0.4663752855164947,1.0283082433764432,,,,,,,,,,,,
29093,0,USMissouriIron,Missouri,Iron,2022-04-28 09:13:11,2022-03-08,0.22700889713955036,0.4663752855164947,1.0283082433764432,,,,,,,,,,,,
29093,0,USMissouriIron,Missouri,Iron,2022-04-28 09:13:11,2022-03-09,0.22700889713955036,0.4663752855164947,1.0283082433764432,,,,,,,,,,,,
29093,0,USMissouriIron,Missouri,Iron,2022-04-28 09:13:11,2022-03-10,0.5398976225863333,1.295169658894689,3.3435594071498596,,,,,,,,,,,,
29093,0,USMissouriIron,Missouri,Iron,2022-04-28 09:13:11,2022-03-11,0.5398976225863333,1.295169658894689,3.3435594071498596,,,,,,,,,,,,
29093,0,USMissouriIron,Missouri,Iron,2022-04-28 09:13:11,2022-03-12,0.5398976225863333,1.295169658894689,3.3435594071498596,,,,,,,,,,,,
29093,0,USMissouriIron,Missouri,Iron,2022-04-28 09:13:11,2022-03-13,0.5398976225863333,1.295169658894689,3.3435594071498596,,,,,,,,,,,,
29093,0,USMissouriIron,Missouri,Iron,2022-04-28 09:13:11,2022-03-14,0.5398976225863333,1.295169658894689,3.3435594071498596,,,,,,,,,,,,
29093,0,USMissouriIron,Missouri,Iron,2022-04-28 09:13:11,2022-03-15,0.5398976225863333,1.295169658894689,3.3435594071498596,,,,,,,,,,,,
29093,0,USMissouriIron,Missouri,Iron,2022-04-28 09:13:11,2022-03-16,0.5398976225863333,1.295169658894689,3.3435594071498596,,,,,,,,,,,,
29093,0,USMissouriIron,Missouri,Iron,2022-04-28 09:13:11,2022-03-17,0.8157112069134929,1.9693426971753252,5.116592015519447,,,,,,,,,,,,
29093,0,USMissouriIron,Missouri,Iron,2022-04-28 09:13:11,2022-03-18,0.8157112069134929,1.9693426971753252,5.116592015519447,,,,,,,,,,,,
29093,0,USMissouriIron,Missouri,Iron,2022-04-28 09:13:11,2022-03-19,0.8157112069134929,1.9693426971753252,5.116592015519447,,,,,,,,,,,,
29093,0,USMissouriIron,Missouri,Iron,2022-04-28 09:13:11,2022-03-20,0.8157112069134929,1.9693426971753252,5.116592015519447,,,,,,,,,,,,
29093,0,USMissouriIron,Missouri,Iron,2022-04-28 09:13:11,2022-03-21,0.8157112069134929,1.9693426971753252,5.116592015519447,,,,,,,,,,,,
29093,0,USMissouriIron,Missouri,Iron,2022-04-28 09:13:11,2022-03-22,0.8157112069134929,1.9693426971753252,5.116592015519447,,,,,,,,,,,,
29093,0,USMissouriIron,Missouri,Iron,2022-04-28 09:13:11,2022-03-23,0.8157112069134929,1.9693426971753252,5.116592015519447,,,,,,,,,,,,
29093,0,USMissouriIron,Missouri,Iron,2022-04-28 09:13:11,2022-03-24,0.3395522718303021,0.8490577629380491,2.284722072946605,,,,,,,,,,,,
29093,0,USMissouriIron,Missouri,Iron,2022-04-28 09:13:11,2022-03-25,0.3395522718303021,0.8490577629380491,2.284722072946605,,,,,,,,,,,,
29093,0,USMissouriIron,Missouri,Iron,2022-04-28 09:13:11,2022-03-26,0.3395522718303021,0.8490577629380491,2.284722072946605,,,,,,,,,,,,
29093,0,USMissouriIron,Missouri,Iron,2022-04-28 09:13:11,2022-03-27,0.3395522718303021,0.8490577629380491,2.284722072946605,,,,,,,,,,,,
29093,0,USMissouriIron,Missouri,Iron,2022-04-28 09:13:11,2022-03-28,0.3395522718303021,0.8490577629380491,2.284722072946605,,,,,,,,,,,,
29093,0,USMissouriIron,Missouri,Iron,2022-04-28 09:13:11,2022-03-29,0.3395522718303021,0.8490577629380491,2.284722072946605,,,,,,,,,,,,
29093,0,USMissouriIron,Missouri,Iron,2022-04-28 09:13:11,2022-03-30,0.3395522718303021,0.8490577629380491,2.284722072946605,,,,,,,,,,,,
